{
    "goal": {
        "global_pose": {
            "orientation": {
                "w": 0.7031023502349854,
                "x": -0.7110244035720825,
                "y": 0.007748599164187908,
                "z": 0.005598929710686207
            },
            "position": {
                "x": 0.11585023208521307,
                "y": 0.44412534475326537,
                "z": 0.3711530566215515
            }
        },
        "name": "move_to_auspresseinheit_A"
    },
    "id": "LazyPRM_move_to_auspresseinheit_A_116",
    "joint_names": [
        "shoulder_pan_joint",
        "shoulder_lift_joint",
        "elbow_joint",
        "wrist_1_joint",
        "wrist_2_joint",
        "wrist_3_joint"
    ],
    "metrics": {
        "cart_traj_len": 2.5317310369377433,
        "distance_elbow_joint": 2.4901039088694588,
        "distance_shoulder_lift_joint": 0.6225447724880189,
        "distance_shoulder_pan_joint": 2.4309489754223685,
        "distance_wrist_1_joint": 0.5908862277517838,
        "distance_wrist_2_joint": 1.734344041560571,
        "distance_wrist_3_joint": 1.433484697147362,
        "smoothness": 1.2519047155915162,
        "time": 0.172045293,
        "traj_len": 3.049969282343605,
        "weighted_distance": 3.8071659127028656
    },
    "planner": "LazyPRM",
    "start": {
        "state": {
            "elbow_joint": 2.422574709923281,
            "shoulder_lift_joint": -1.3736533754116391,
            "shoulder_pan_joint": -0.33786336945926293,
            "wrist_1_joint": -1.0288603412921917,
            "wrist_2_joint": 1.2330224858903978,
            "wrist_3_joint": -3.094022268022082
        }
    },
    "waypoints": [
        {
            "positions": [
                -0.33786336945926293,
                -1.3736533754116391,
                2.422574709923281,
                -1.0288603412921917,
                1.2330224858903978,
                -3.094022268022082
            ]
        },
        {
            "positions": [
                -0.3501189586872091,
                -1.4029592665217705,
                2.3955941894185084,
                -1.0501999096574541,
                1.2248809545478896,
                -3.07778740487462
            ]
        },
        {
            "positions": [
                -0.27189852717756835,
                -1.4442433718824272,
                2.29997648370229,
                -1.0184993736597139,
                1.1310396412641937,
                -3.0254765288222116
            ]
        },
        {
            "positions": [
                -0.19367809566792765,
                -1.4855274772430842,
                2.2043587779860707,
                -0.9867988376619735,
                1.0371983279804975,
                -2.973165652769804
            ]
        },
        {
            "positions": [
                -0.11545766415828693,
                -1.526811582603741,
                2.108741072269852,
                -0.9550983016642332,
                0.9433570146968016,
                -2.9208547767173956
            ]
        },
        {
            "positions": [
                -0.0372372326486462,
                -1.5680956879643977,
                2.013123366553633,
                -0.9233977656664929,
                0.8495157014131056,
                -2.8685439006649873
            ]
        },
        {
            "positions": [
                0.04098319886099455,
                -1.6093797933250547,
                1.9175056608374141,
                -0.8916972296687525,
                0.7556743881294095,
                -2.8162330246125795
            ]
        },
        {
            "positions": [
                0.11920363037063525,
                -1.6506638986857114,
                1.8218879551211953,
                -0.8599966936710122,
                0.6618330748457135,
                -2.7639221485601713
            ]
        },
        {
            "positions": [
                0.19742406188027606,
                -1.6919480040463681,
                1.7262702494049766,
                -0.8282961576732719,
                0.5679917615620175,
                -2.711611272507763
            ]
        },
        {
            "positions": [
                0.2756444933899167,
                -1.7332321094070249,
                1.6306525436887578,
                -0.7965956216755317,
                0.47415044827832153,
                -2.659300396455355
            ]
        },
        {
            "positions": [
                0.35386492489955745,
                -1.7745162147676818,
                1.535034837972539,
                -0.7648950856777913,
                0.3803091349946255,
                -2.606989520402947
            ]
        },
        {
            "positions": [
                0.4320853564091982,
                -1.8158003201283388,
                1.4394171322563198,
                -0.7331945496800509,
                0.28646782171092944,
                -2.5546786443505387
            ]
        },
        {
            "positions": [
                0.5103057879188388,
                -1.8570844254889955,
                1.3437994265401012,
                -0.7014940136823107,
                0.1926265084272336,
                -2.502367768298131
            ]
        },
        {
            "positions": [
                0.5885262194284796,
                -1.8983685308496523,
                1.2481817208238823,
                -0.6697934776845703,
                0.09878519514353738,
                -2.4500568922457227
            ]
        },
        {
            "positions": [
                0.7023744297775824,
                -1.9063568409354303,
                1.424205345170368,
                -0.6594389285358878,
                0.14087126865328603,
                -2.4415018903114736
            ]
        },
        {
            "positions": [
                0.8162226401266852,
                -1.9143451510212082,
                1.600228969516854,
                -0.6490843793872053,
                0.18295734216303466,
                -2.4329468883772245
            ]
        },
        {
            "positions": [
                0.930070850475788,
                -1.9223334611069862,
                1.7762525938633393,
                -0.6387298302385228,
                0.2250434156727833,
                -2.4243918864429754
            ]
        },
        {
            "positions": [
                1.0439190608248907,
                -1.930321771192764,
                1.9522762182098252,
                -0.6283752810898404,
                0.26712948918253193,
                -2.415836884508727
            ]
        },
        {
            "positions": [
                1.1577672711739937,
                -1.938310081278542,
                2.128299842556311,
                -0.6180207319411579,
                0.30921556269228057,
                -2.4072818825744777
            ]
        },
        {
            "positions": [
                1.2716154815230962,
                -1.94629839136432,
                2.3043234669027965,
                -0.6076661827924754,
                0.3513016362020292,
                -2.3987268806402287
            ]
        },
        {
            "positions": [
                1.3854636918721992,
                -1.954286701450098,
                2.4803470912492824,
                -0.5973116336437929,
                0.39338770971177783,
                -2.3901718787059796
            ]
        },
        {
            "positions": [
                1.2488415447451964,
                -1.945904412160186,
                2.4636379813803506,
                -0.5739799569692209,
                0.4544885569608719,
                -2.5360987402722315
            ]
        },
        {
            "positions": [
                1.1122193976181936,
                -1.937522122870274,
                2.4469288715114184,
                -0.5506482802946489,
                0.515589404209966,
                -2.6820256018384834
            ]
        },
        {
            "positions": [
                0.975597250491191,
                -1.929139833580362,
                2.4302197616424865,
                -0.5273166036200768,
                0.57669025145906,
                -2.8279524634047353
            ]
        },
        {
            "positions": [
                0.838975103364188,
                -1.9207575442904499,
                2.4135106517735543,
                -0.5039849269455048,
                0.6377910987081542,
                -2.973879324970987
            ]
        },
        {
            "positions": [
                0.7023529562371853,
                -1.912375255000538,
                2.3968015419046225,
                -0.48065325027093275,
                0.6988919459572482,
                -3.119806186537239
            ]
        }
    ]
}