{
    "goal": {
        "global_pose": {
            "orientation": {
                "w": 0.7031023502349854,
                "x": -0.7110244035720825,
                "y": 0.007748599164187908,
                "z": 0.005598929710686207
            },
            "position": {
                "x": 0.11585023208521307,
                "y": 0.44412534475326537,
                "z": 0.3711530566215515
            }
        },
        "name": "move_to_auspresseinheit_A"
    },
    "id": "LazyPRMstar_move_to_auspresseinheit_A_61",
    "joint_names": [
        "shoulder_pan_joint",
        "shoulder_lift_joint",
        "elbow_joint",
        "wrist_1_joint",
        "wrist_2_joint",
        "wrist_3_joint"
    ],
    "metrics": {
        "cart_traj_len": 0.8375665097940629,
        "distance_elbow_joint": 0.6060786145029295,
        "distance_shoulder_lift_joint": 0.5343744558335759,
        "distance_shoulder_pan_joint": 1.5628248950550807,
        "distance_wrist_1_joint": 1.0494203470043992,
        "distance_wrist_2_joint": 1.0516649867200842,
        "distance_wrist_3_joint": 0.07424321641003662,
        "smoothness": 0.9613507368763093,
        "time": 5.00857964,
        "traj_len": 2.208756780527477,
        "weighted_distance": 2.6698648434088685
    },
    "planner": "LazyPRMstar",
    "start": {
        "state": {
            "elbow_joint": 2.422574709923281,
            "shoulder_lift_joint": -1.3736533754116391,
            "shoulder_pan_joint": -0.33786336945926293,
            "wrist_1_joint": -1.0288603412921917,
            "wrist_2_joint": 1.2330224858903978,
            "wrist_3_joint": -3.094022268022082
        }
    },
    "waypoints": [
        {
            "positions": [
                -0.33786336945926293,
                -1.3736533754116391,
                2.422574709923281,
                -1.0288603412921917,
                1.2330224858903978,
                -3.094022268022082
            ]
        },
        {
            "positions": [
                -0.158962873241418,
                -1.432429099398214,
                2.469235861911395,
                -1.0700510393654816,
                1.276696893867251,
                -3.0910883303745798
            ]
        },
        {
            "positions": [
                0.019937622976426927,
                -1.4912048233847892,
                2.5158970138995085,
                -1.1112417374387717,
                1.320371301844104,
                -3.0881543927270774
            ]
        },
        {
            "positions": [
                0.1988381191942719,
                -1.5499805473713644,
                2.5625581658876224,
                -1.1524324355120616,
                1.364045709820957,
                -3.0852204550795745
            ]
        },
        {
            "positions": [
                0.3777386154121168,
                -1.6087562713579393,
                2.6092193178757364,
                -1.1936231335853515,
                1.4077201177978103,
                -3.082286517432072
            ]
        },
        {
            "positions": [
                0.5566391116299618,
                -1.6675319953445142,
                2.65588046986385,
                -1.2348138316586417,
                1.4513945257746632,
                -3.0793525797845698
            ]
        },
        {
            "positions": [
                0.7355396078478067,
                -1.7263077193310894,
                2.702541621851964,
                -1.2760045297319316,
                1.4950689337515164,
                -3.0764186421370674
            ]
        },
        {
            "positions": [
                0.8504203268409724,
                -1.7802119226400337,
                2.7072294800972427,
                -1.235343874463635,
                1.4571061997701011,
                -3.0792722110064426
            ]
        },
        {
            "positions": [
                0.965301045834138,
                -1.8341161259489778,
                2.7119173383425217,
                -1.1946832191953383,
                1.4191434657886859,
                -3.0821257798758177
            ]
        },
        {
            "positions": [
                0.9220242992071914,
                -1.8464347434983506,
                2.6591280073285737,
                -1.0745240778573273,
                1.30019462063933,
                -3.090614522006863
            ]
        },
        {
            "positions": [
                0.8787475525802447,
                -1.8587533610477236,
                2.6063386763146252,
                -0.9543649365193163,
                1.1812457754899741,
                -3.0991032641379084
            ]
        },
        {
            "positions": [
                0.8354708059532981,
                -1.8710719785970964,
                2.5535493453006772,
                -0.8342057951813052,
                1.0622969303406182,
                -3.1075920062689537
            ]
        },
        {
            "positions": [
                0.7921940593263516,
                -1.8833905961464692,
                2.5007600142867292,
                -0.7140466538432942,
                0.9433480851912626,
                -3.1160807483999986
            ]
        },
        {
            "positions": [
                0.7489173126994049,
                -1.8957092136958422,
                2.447970683272781,
                -0.5938875125052832,
                0.8243992400419066,
                -3.124569490531044
            ]
        },
        {
            "positions": [
                0.7056405660724583,
                -1.908027831245215,
                2.3951813522588328,
                -0.47372837116727223,
                0.7054503948925508,
                -3.1330582326620893
            ]
        }
    ]
}