{
    "goal": {
        "global_pose": {
            "orientation": {
                "w": 0.5084816217422485,
                "x": -0.49083608388900757,
                "y": 0.5182115435600281,
                "z": -0.4816462993621826
            },
            "position": {
                "x": 0.5540239810943604,
                "y": 0.030875300988554955,
                "z": 0.16403168439865112
            }
        },
        "name": "move_to_storage_A"
    },
    "id": "LazyPRMstar_move_to_storage_A_126",
    "joint_names": [
        "shoulder_pan_joint",
        "shoulder_lift_joint",
        "elbow_joint",
        "wrist_1_joint",
        "wrist_2_joint",
        "wrist_3_joint"
    ],
    "metrics": {
        "cart_traj_len": 0.3534297933020922,
        "distance_elbow_joint": 0.45378284023894144,
        "distance_shoulder_lift_joint": 0.23346383305135698,
        "distance_shoulder_pan_joint": 0.462911652782704,
        "distance_wrist_1_joint": 0.26228176961757843,
        "distance_wrist_2_joint": 1.0959576118625438,
        "distance_wrist_3_joint": 0.09800361566663529,
        "smoothness": 6.661338165333112e-16,
        "time": 5.000346794,
        "traj_len": 1.6144352954577523,
        "weighted_distance": 2.0397666376409713
    },
    "planner": "LazyPRMstar",
    "start": {
        "state": {
            "elbow_joint": 1.9715463870305268,
            "shoulder_lift_joint": -1.1394903361783484,
            "shoulder_pan_joint": 0.12281147578464417,
            "wrist_1_joint": -0.7804599489681411,
            "wrist_2_joint": 0.12958660307563738,
            "wrist_3_joint": -3.1924946282119055
        }
    },
    "waypoints": [
        {
            "positions": [
                0.12281147578464417,
                -1.1394903361783484,
                1.9715463870305268,
                -0.7804599489681411,
                0.12958660307563738,
                -3.1924946282119055
            ]
        },
        {
            "positions": [
                0.056681239672829314,
                -1.1728423123285423,
                2.0363725070646614,
                -0.8179287731992237,
                0.2861519761988579,
                -3.1784941116881007
            ]
        },
        {
            "positions": [
                -0.009448996438985544,
                -1.206194288478736,
                2.1011986270987957,
                -0.8553975974303063,
                0.4427173493220784,
                -3.1644935951642954
            ]
        },
        {
            "positions": [
                -0.07557923255080039,
                -1.23954626462893,
                2.1660247471329304,
                -0.892866421661389,
                0.599282722445299,
                -3.1504930786404906
            ]
        },
        {
            "positions": [
                -0.14170946866261525,
                -1.2728982407791238,
                2.2308508671670646,
                -0.9303352458924716,
                0.7558480955685195,
                -3.1364925621166853
            ]
        },
        {
            "positions": [
                -0.20783970477443015,
                -1.3062502169293178,
                2.2956769872011993,
                -0.9678040701235542,
                0.9124134686917401,
                -3.1224920455928804
            ]
        },
        {
            "positions": [
                -0.27396994088624493,
                -1.3396021930795114,
                2.3605031072353335,
                -1.005272894354637,
                1.0689788418149606,
                -3.108491529069075
            ]
        },
        {
            "positions": [
                -0.34010017699805983,
                -1.3729541692297054,
                2.425329227269468,
                -1.0427417185857195,
                1.2255442149381812,
                -3.0944910125452703
            ]
        }
    ]
}