{
    "goal": {
        "global_pose": {
            "orientation": {
                "w": 0.5084816217422485,
                "x": -0.49083608388900757,
                "y": 0.5182115435600281,
                "z": -0.4816462993621826
            },
            "position": {
                "x": 0.5540239810943604,
                "y": 0.030875300988554955,
                "z": 0.16403168439865112
            }
        },
        "name": "move_to_storage_A"
    },
    "id": "LazyPRMstar_move_to_storage_A_28",
    "joint_names": [
        "shoulder_pan_joint",
        "shoulder_lift_joint",
        "elbow_joint",
        "wrist_1_joint",
        "wrist_2_joint",
        "wrist_3_joint"
    ],
    "metrics": {
        "cart_traj_len": 0.35342117501814424,
        "distance_elbow_joint": 0.45034693645056656,
        "distance_shoulder_lift_joint": 0.23331601897391074,
        "distance_shoulder_pan_joint": 0.46272443884163195,
        "distance_wrist_1_joint": 0.2514251315725441,
        "distance_wrist_2_joint": 1.0959223804339993,
        "distance_wrist_3_joint": 0.09462408187874694,
        "smoothness": 0.0,
        "time": 5.00017527,
        "traj_len": 1.6088377755856553,
        "weighted_distance": 2.0309984401558356
    },
    "planner": "LazyPRMstar",
    "start": {
        "state": {
            "elbow_joint": 1.9715463870305268,
            "shoulder_lift_joint": -1.1394903361783484,
            "shoulder_pan_joint": 0.12281147578464417,
            "wrist_1_joint": -0.7804599489681411,
            "wrist_2_joint": 0.12958660307563738,
            "wrist_3_joint": -3.1924946282119055
        }
    },
    "waypoints": [
        {
            "positions": [
                0.12281147578464417,
                -1.1394903361783484,
                1.9715463870305268,
                -0.7804599489681411,
                0.12958660307563738,
                -3.1924946282119055
            ]
        },
        {
            "positions": [
                0.0567079845215539,
                -1.1728211960317643,
                2.035881663666322,
                -0.816377824907076,
                0.2861469431376373,
                -3.1789769022292274
            ]
        },
        {
            "positions": [
                -0.009395506741536372,
                -1.20615205588518,
                2.100216940302117,
                -0.8522957008460108,
                0.44270728319963715,
                -3.165459176246549
            ]
        },
        {
            "positions": [
                -0.07549899800462666,
                -1.2394829157385958,
                2.1645522169379126,
                -0.8882135767849457,
                0.5992676232616371,
                -3.151941450263871
            ]
        },
        {
            "positions": [
                -0.1416024892677169,
                -1.2728137755920117,
                2.2288874935737075,
                -0.9241314527238805,
                0.755827963323637,
                -3.138423724281193
            ]
        },
        {
            "positions": [
                -0.2077059805308072,
                -1.3061446354454276,
                2.293222770209503,
                -0.9600493286628154,
                0.9123883033856369,
                -3.124905998298515
            ]
        },
        {
            "positions": [
                -0.2738094717938975,
                -1.3394754952988432,
                2.357558046845298,
                -0.9959672046017503,
                1.0689486434476367,
                -3.111388272315837
            ]
        },
        {
            "positions": [
                -0.33991296305698776,
                -1.3728063551522591,
                2.4218933234810933,
                -1.0318850805406852,
                1.2255089835096367,
                -3.0978705463331586
            ]
        }
    ]
}