{
    "goal": {
        "global_pose": {
            "orientation": {
                "w": 0.7031023502349854,
                "x": -0.7110244035720825,
                "y": 0.007748599164187908,
                "z": 0.005598929710686207
            },
            "position": {
                "x": 0.11585023208521307,
                "y": 0.44412534475326537,
                "z": 0.3711530566215515
            }
        },
        "name": "move_to_auspresseinheit_A"
    },
    "id": "LazyPRMstar_move_to_auspresseinheit_A_137",
    "joint_names": [
        "shoulder_pan_joint",
        "shoulder_lift_joint",
        "elbow_joint",
        "wrist_1_joint",
        "wrist_2_joint",
        "wrist_3_joint"
    ],
    "metrics": {
        "cart_traj_len": 0.6899660334077417,
        "distance_elbow_joint": 0.5495648193694076,
        "distance_shoulder_lift_joint": 0.5383388112635477,
        "distance_shoulder_pan_joint": 1.0435765446779381,
        "distance_wrist_1_joint": 0.7999240311901363,
        "distance_wrist_2_joint": 0.9929299488128692,
        "distance_wrist_3_joint": 0.09796562647263185,
        "smoothness": 0.8434615919100309,
        "time": 5.006769414,
        "traj_len": 2.005567197025951,
        "weighted_distance": 2.451751417810297
    },
    "planner": "LazyPRMstar",
    "start": {
        "state": {
            "elbow_joint": 2.422574709923281,
            "shoulder_lift_joint": -1.3736533754116391,
            "shoulder_pan_joint": -0.33786336945926293,
            "wrist_1_joint": -1.0288603412921917,
            "wrist_2_joint": 1.2330224858903978,
            "wrist_3_joint": -3.094022268022082
        }
    },
    "waypoints": [
        {
            "positions": [
                -0.33786336945926293,
                -1.3736533754116391,
                2.422574709923281,
                -1.0288603412921917,
                1.2330224858903978,
                -3.094022268022082
            ]
        },
        {
            "positions": [
                -0.1706837080345557,
                -1.461945104304719,
                2.4661237367034508,
                -1.0490878548443965,
                1.2721815552932612,
                -3.1048235147369745
            ]
        },
        {
            "positions": [
                -0.003504046609848488,
                -1.5502368331977987,
                2.509672763483621,
                -1.0693153683966012,
                1.3113406246961248,
                -3.115624761451867
            ]
        },
        {
            "positions": [
                0.16367561481485876,
                -1.6385285620908787,
                2.553221790263791,
                -1.089542881948806,
                1.3504996940989882,
                -3.126426008166759
            ]
        },
        {
            "positions": [
                0.33085527623956595,
                -1.7268202909839583,
                2.5967708170439607,
                -1.1097703955010108,
                1.3896587635018516,
                -3.137227254881652
            ]
        },
        {
            "positions": [
                0.49803493766427326,
                -1.8151120198770383,
                2.6403198438241304,
                -1.1299979090532155,
                1.4288178329047152,
                -3.1480285015965443
            ]
        },
        {
            "positions": [
                0.6652145990889804,
                -1.903403748770118,
                2.6838688706043006,
                -1.1502254226054203,
                1.4679769023075786,
                -3.1588297483114367
            ]
        },
        {
            "positions": [
                0.6733143143149193,
                -1.9051214363511317,
                2.626214738866623,
                -1.0145136326300388,
                1.316381795828441,
                -3.1521981190747814
            ]
        },
        {
            "positions": [
                0.6814140295408583,
                -1.9068391239321456,
                2.5685606071289455,
                -0.8788018426546571,
                1.1647866893493033,
                -3.1455664898381257
            ]
        },
        {
            "positions": [
                0.6895137447667972,
                -1.9085568115131593,
                2.5109064753912675,
                -0.7430900526792756,
                1.0131915828701656,
                -3.1389348606014704
            ]
        },
        {
            "positions": [
                0.6976134599927362,
                -1.9102744990941731,
                2.45325234365359,
                -0.6073782627038941,
                0.8615964763910279,
                -3.1323032313648147
            ]
        },
        {
            "positions": [
                0.705713175218675,
                -1.9119921866751868,
                2.3955982119159125,
                -0.4716664727285124,
                0.7100013699118902,
                -3.1256716021281594
            ]
        }
    ]
}