{
    "goal": {
        "global_pose": {
            "orientation": {
                "w": 0.7047431468963623,
                "x": -0.7094548344612122,
                "y": 0.0024358443915843964,
                "z": -0.0022348060738295317
            },
            "position": {
                "x": 0.6094750761985779,
                "y": 0.3671506643295288,
                "z": 0.19426114857196808
            }
        },
        "name": "move_to_magneteinheit_A"
    },
    "id": "LazyPRMstar_move_to_magneteinheit_A_20",
    "joint_names": [
        "shoulder_pan_joint",
        "shoulder_lift_joint",
        "elbow_joint",
        "wrist_1_joint",
        "wrist_2_joint",
        "wrist_3_joint"
    ],
    "metrics": {
        "cart_traj_len": 1.8659196296723128,
        "distance_elbow_joint": 3.941030396228136,
        "distance_shoulder_lift_joint": 0.7126626146424526,
        "distance_shoulder_pan_joint": 1.2402637695084633,
        "distance_wrist_1_joint": 1.6019114971836192,
        "distance_wrist_2_joint": 1.6901293775933426,
        "distance_wrist_3_joint": 1.2393453137123758,
        "smoothness": 1.903239467962136e-16,
        "time": 5.001290044,
        "traj_len": 3.2288299690241344,
        "weighted_distance": 4.024434677202514
    },
    "planner": "LazyPRMstar",
    "start": {
        "state": {
            "elbow_joint": -1.919643507792019,
            "shoulder_lift_joint": -0.07675430207160344,
            "shoulder_pan_joint": -1.1188671864651873,
            "wrist_1_joint": 0.42560062535961957,
            "wrist_2_joint": 1.5706038300724876,
            "wrist_3_joint": 1.1188968870953055
        }
    },
    "waypoints": [
        {
            "positions": [
                -1.1188671864651873,
                -0.07675430207160344,
                -1.919643507792019,
                0.42560062535961957,
                1.5706038300724876,
                1.1188968870953055
            ]
        },
        {
            "positions": [
                -1.0729314912982073,
                -0.10314921372502761,
                -1.7736794190428289,
                0.4849306808108647,
                1.5080064457171787,
                1.072995208809662
            ]
        },
        {
            "positions": [
                -1.026995796131227,
                -0.12954412537845178,
                -1.6277153302936387,
                0.5442607362621099,
                1.4454090613618695,
                1.0270935305240185
            ]
        },
        {
            "positions": [
                -0.981060100964247,
                -0.15593903703187595,
                -1.4817512415444485,
                0.6035907917133551,
                1.3828116770065606,
                0.9811918522383749
            ]
        },
        {
            "positions": [
                -0.9351244057972669,
                -0.18233394868530012,
                -1.335787152795258,
                0.6629208471646002,
                1.3202142926512517,
                0.9352901739527314
            ]
        },
        {
            "positions": [
                -0.8891887106302867,
                -0.2087288603387243,
                -1.189823064046068,
                0.7222509026158453,
                1.2576169082959427,
                0.8893884956670879
            ]
        },
        {
            "positions": [
                -0.8432530154633067,
                -0.23512377199214846,
                -1.0438589752968777,
                0.7815809580670905,
                1.1950195239406338,
                0.8434868173814443
            ]
        },
        {
            "positions": [
                -0.7973173202963265,
                -0.2615186836455726,
                -0.8978948865476875,
                0.8409110135183356,
                1.1324221395853247,
                0.7975851390958008
            ]
        },
        {
            "positions": [
                -0.7513816251293464,
                -0.2879135952989968,
                -0.7519307977984973,
                0.9002410689695808,
                1.0698247552300157,
                0.7516834608101572
            ]
        },
        {
            "positions": [
                -0.7054459299623663,
                -0.31430850695242096,
                -0.605966709049307,
                0.959571124420826,
                1.0072273708747068,
                0.7057817825245136
            ]
        },
        {
            "positions": [
                -0.6595102347953862,
                -0.34070341860584513,
                -0.46000262030011685,
                1.018901179872071,
                0.9446299865193978,
                0.6598801042388701
            ]
        },
        {
            "positions": [
                -0.613574539628406,
                -0.3670983302592693,
                -0.31403853155092665,
                1.0782312353233163,
                0.8820326021640889,
                0.6139784259532266
            ]
        },
        {
            "positions": [
                -0.5676388444614259,
                -0.39349324191269347,
                -0.16807444280173645,
                1.1375612907745614,
                0.8194352178087798,
                0.568076747667583
            ]
        },
        {
            "positions": [
                -0.5217031492944458,
                -0.41988815356611764,
                -0.022110354052546244,
                1.1968913462258066,
                0.7568378334534709,
                0.5221750693819395
            ]
        },
        {
            "positions": [
                -0.4757674541274657,
                -0.4462830652195418,
                0.12385373469664418,
                1.2562214016770517,
                0.6942404490981618,
                0.47627339109629596
            ]
        },
        {
            "positions": [
                -0.42983175896048553,
                -0.47267797687296603,
                0.2698178234458346,
                1.315551457128297,
                0.6316430647428528,
                0.43037171281065234
            ]
        },
        {
            "positions": [
                -0.3838960637935055,
                -0.49907288852639015,
                0.4157819121950246,
                1.374881512579542,
                0.5690456803875439,
                0.38447003452500883
            ]
        },
        {
            "positions": [
                -0.33796036862652523,
                -0.5254678001798143,
                0.561746000944215,
                1.4342115680307874,
                0.5064482960322347,
                0.3385683562393652
            ]
        },
        {
            "positions": [
                -0.2920246734595452,
                -0.5518627118332384,
                0.707710089693405,
                1.4935416234820325,
                0.44385091167692603,
                0.2926666779537217
            ]
        },
        {
            "positions": [
                -0.24608897829256504,
                -0.5782576234866628,
                0.8536741784425954,
                1.5528716789332777,
                0.3812535273216169,
                0.24676499966807808
            ]
        },
        {
            "positions": [
                -0.200153283125585,
                -0.6046525351400869,
                0.9996382671917854,
                1.6122017343845227,
                0.31865614296630795,
                0.20086332138243468
            ]
        },
        {
            "positions": [
                -0.15421758795860474,
                -0.631047446793511,
                1.1456023559409758,
                1.671531789835768,
                0.2560587586109988,
                0.15496164309679106
            ]
        },
        {
            "positions": [
                -0.1082818927916247,
                -0.6574423584469351,
                1.2915664446901658,
                1.730861845287013,
                0.1934613742556901,
                0.10905996481114766
            ]
        },
        {
            "positions": [
                -0.06234619762464444,
                -0.6838372701003594,
                1.4375305334393562,
                1.7901919007382583,
                0.13086398990038095,
                0.06315828652550404
            ]
        },
        {
            "positions": [
                -0.0164105024576644,
                -0.7102321817537836,
                1.5834946221885462,
                1.8495219561895033,
                0.06826660554507202,
                0.017256608239860416
            ]
        },
        {
            "positions": [
                0.02952519270931564,
                -0.7366270934072077,
                1.7294587109377366,
                1.9088520116407486,
                0.005669221189762874,
                -0.028645070045783205
            ]
        },
        {
            "positions": [
                0.07546088787629568,
                -0.7630220050606318,
                1.8754227996869266,
                1.9681820670919936,
                -0.05692816316554583,
                -0.0745467483314266
            ]
        },
        {
            "positions": [
                0.12139658304327587,
                -0.7894169167140561,
                2.021386888436117,
                2.027512122543239,
                -0.11952554752085502,
                -0.12044842661707025
            ]
        }
    ]
}