{
    "goal": {
        "global_pose": {
            "orientation": {
                "w": 0.7047431468963623,
                "x": -0.7094548344612122,
                "y": 0.0024358443915843964,
                "z": -0.0022348060738295317
            },
            "position": {
                "x": 0.6094750761985779,
                "y": 0.3671506643295288,
                "z": 0.19426114857196808
            }
        },
        "name": "move_to_magneteinheit_A"
    },
    "id": "LazyPRMstar_move_to_magneteinheit_A_51",
    "joint_names": [
        "shoulder_pan_joint",
        "shoulder_lift_joint",
        "elbow_joint",
        "wrist_1_joint",
        "wrist_2_joint",
        "wrist_3_joint"
    ],
    "metrics": {
        "cart_traj_len": 1.870617886183711,
        "distance_elbow_joint": 3.926924599764626,
        "distance_shoulder_lift_joint": 0.7065500851096417,
        "distance_shoulder_pan_joint": 1.2420520786214573,
        "distance_wrist_1_joint": 1.562875963100535,
        "distance_wrist_2_joint": 1.6907355828552026,
        "distance_wrist_3_joint": 1.1938182882289081,
        "smoothness": 2.854859219837484e-16,
        "time": 5.0003772500000006,
        "traj_len": 3.212935822216244,
        "weighted_distance": 3.995523084665376
    },
    "planner": "LazyPRMstar",
    "start": {
        "state": {
            "elbow_joint": -1.919643507792019,
            "shoulder_lift_joint": -0.07675430207160344,
            "shoulder_pan_joint": -1.1188671864651873,
            "wrist_1_joint": 0.42560062535961957,
            "wrist_2_joint": 1.5706038300724876,
            "wrist_3_joint": 1.1188968870953055
        }
    },
    "waypoints": [
        {
            "positions": [
                -1.1188671864651873,
                -0.07675430207160344,
                -1.919643507792019,
                0.42560062535961957,
                1.5706038300724876,
                1.1188968870953055
            ]
        },
        {
            "positions": [
                -1.0728652576273556,
                -0.10292282374233092,
                -1.7742018559488848,
                0.483484920289269,
                1.5079839936704431,
                1.0746813949386793
            ]
        },
        {
            "positions": [
                -1.026863328789524,
                -0.1290913454130584,
                -1.6287602041057505,
                0.5413692152189185,
                1.4453641572683986,
                1.030465902782053
            ]
        },
        {
            "positions": [
                -0.9808613999516921,
                -0.15525986708378586,
                -1.4833185522626162,
                0.5992535101485679,
                1.382744320866354,
                0.9862504106254268
            ]
        },
        {
            "positions": [
                -0.9348594711138604,
                -0.18142838875451334,
                -1.337876900419482,
                0.6571378050782173,
                1.3201244844643094,
                0.9420349184688006
            ]
        },
        {
            "positions": [
                -0.8888575422760286,
                -0.2075969104252408,
                -1.1924352485763476,
                0.7150221000078667,
                1.257504648062265,
                0.8978194263121744
            ]
        },
        {
            "positions": [
                -0.8428556134381968,
                -0.23376543209596828,
                -1.0469935967332133,
                0.7729063949375161,
                1.1948848116602204,
                0.8536039341555481
            ]
        },
        {
            "positions": [
                -0.7968536846003651,
                -0.25993395376669576,
                -0.9015519448900791,
                0.8307906898671656,
                1.1322649752581757,
                0.8093884419989219
            ]
        },
        {
            "positions": [
                -0.7508517557625334,
                -0.28610247543742323,
                -0.7561102930469448,
                0.8886749847968151,
                1.0696451388561314,
                0.7651729498422958
            ]
        },
        {
            "positions": [
                -0.7048498269247017,
                -0.3122709971081507,
                -0.6106686412038105,
                0.9465592797264646,
                1.0070253024540867,
                0.7209574576856695
            ]
        },
        {
            "positions": [
                -0.6588478980868699,
                -0.3384395187788782,
                -0.4652269893606762,
                1.004443574656114,
                0.9444054660520422,
                0.6767419655290433
            ]
        },
        {
            "positions": [
                -0.6128459692490381,
                -0.36460804044960565,
                -0.3197853375175419,
                1.0623278695857634,
                0.8817856296499976,
                0.6325264733724171
            ]
        },
        {
            "positions": [
                -0.5668440404112064,
                -0.3907765621203331,
                -0.1743436856744076,
                1.1202121645154128,
                0.8191657932479531,
                0.5883109812157908
            ]
        },
        {
            "positions": [
                -0.5208421115733746,
                -0.4169450837910606,
                -0.02890203383127332,
                1.1780964594450622,
                0.7565459568459086,
                0.5440954890591646
            ]
        },
        {
            "positions": [
                -0.47484018273554285,
                -0.4431136054617881,
                0.11653961801186097,
                1.2359807543747117,
                0.693926120443864,
                0.49987999690253837
            ]
        },
        {
            "positions": [
                -0.428838253897711,
                -0.46928212713251555,
                0.2619812698549955,
                1.2938650493043613,
                0.6313062840418194,
                0.45566450474591214
            ]
        },
        {
            "positions": [
                -0.3828363250598794,
                -0.495450648803243,
                0.40742292169812955,
                1.3517493442340105,
                0.568686447639775,
                0.411449012589286
            ]
        },
        {
            "positions": [
                -0.3368343962220476,
                -0.5216191704739706,
                0.5528645735412641,
                1.4096336391636601,
                0.5060666112377303,
                0.36723352043265967
            ]
        },
        {
            "positions": [
                -0.29083246738421586,
                -0.547787692144698,
                0.6983062253843981,
                1.4675179340933096,
                0.44344677483568584,
                0.32301802827603354
            ]
        },
        {
            "positions": [
                -0.24483053854638404,
                -0.5739562138154255,
                0.8437478772275326,
                1.525402229022959,
                0.38082693843364135,
                0.2788025361194072
            ]
        },
        {
            "positions": [
                -0.19882860970855243,
                -0.600124735486153,
                0.9891895290706667,
                1.5832865239526084,
                0.31820710203159686,
                0.23458704396278107
            ]
        },
        {
            "positions": [
                -0.1528266808707206,
                -0.6262932571568804,
                1.1346311809138012,
                1.6411708188822578,
                0.25558726562955214,
                0.19037155180615473
            ]
        },
        {
            "positions": [
                -0.10682475203288888,
                -0.6524617788276079,
                1.2800728327569353,
                1.6990551138119072,
                0.19296742922750765,
                0.1461560596495286
            ]
        },
        {
            "positions": [
                -0.06082282319505716,
                -0.6786303004983354,
                1.4255144846000698,
                1.7569394087415569,
                0.13034759282546315,
                0.10194056749290237
            ]
        },
        {
            "positions": [
                -0.014820894357225445,
                -0.7047988221690629,
                1.5709561364432039,
                1.814823703671206,
                0.06772775642341866,
                0.05772507533627613
            ]
        },
        {
            "positions": [
                0.031181034480606495,
                -0.7309673438397903,
                1.7163977882863384,
                1.8727079986008557,
                0.005107920021373946,
                0.013509583179649898
            ]
        },
        {
            "positions": [
                0.07718296331843821,
                -0.7571358655105178,
                1.8618394401294724,
                1.930592293530505,
                -0.057511916380670325,
                -0.030705908976976337
            ]
        },
        {
            "positions": [
                0.12318489215626992,
                -0.7833043871812452,
                2.007281091972607,
                1.9884765884601545,
                -0.12013175278271498,
                -0.07492140113360268
            ]
        }
    ]
}