{
    "goal": {
        "global_pose": {
            "orientation": {
                "w": 0.7047431468963623,
                "x": -0.7094548344612122,
                "y": 0.0024358443915843964,
                "z": -0.0022348060738295317
            },
            "position": {
                "x": 0.6094750761985779,
                "y": 0.3671506643295288,
                "z": 0.19426114857196808
            }
        },
        "name": "move_to_magneteinheit_A"
    },
    "id": "LazyPRM_move_to_magneteinheit_A_67",
    "joint_names": [
        "shoulder_pan_joint",
        "shoulder_lift_joint",
        "elbow_joint",
        "wrist_1_joint",
        "wrist_2_joint",
        "wrist_3_joint"
    ],
    "metrics": {
        "cart_traj_len": 1.8796210984445518,
        "distance_elbow_joint": 3.9105915008213623,
        "distance_shoulder_lift_joint": 0.6995751757122557,
        "distance_shoulder_pan_joint": 1.2421275304770798,
        "distance_wrist_1_joint": 1.4838724543221753,
        "distance_wrist_2_joint": 1.7043540714011622,
        "distance_wrist_3_joint": 1.0979242729602965,
        "smoothness": 4.276414619397388e-16,
        "time": 0.07814886,
        "traj_len": 3.184092493269367,
        "weighted_distance": 3.9398629515934007
    },
    "planner": "LazyPRM",
    "start": {
        "state": {
            "elbow_joint": -1.919643507792019,
            "shoulder_lift_joint": -0.07675430207160344,
            "shoulder_pan_joint": -1.1188671864651873,
            "wrist_1_joint": 0.42560062535961957,
            "wrist_2_joint": 1.5706038300724876,
            "wrist_3_joint": 1.1188968870953055
        }
    },
    "waypoints": [
        {
            "positions": [
                -1.1188671864651873,
                -0.07675430207160344,
                -1.919643507792019,
                0.42560062535961957,
                1.5706038300724876,
                1.1188968870953055
            ]
        },
        {
            "positions": [
                -1.0710930506776073,
                -0.10366103959899789,
                -1.7692361423758127,
                0.4826726428335494,
                1.5050517504032122,
                1.0766690304429865
            ]
        },
        {
            "positions": [
                -1.0233189148900275,
                -0.13056777712639234,
                -1.6188287769596066,
                0.5397446603074793,
                1.4394996707339367,
                1.0344411737906674
            ]
        },
        {
            "positions": [
                -0.9755447791024474,
                -0.1574745146537868,
                -1.4684214115434004,
                0.596816677781409,
                1.3739475910646612,
                0.9922133171383483
            ]
        },
        {
            "positions": [
                -0.9277706433148674,
                -0.18438125218118123,
                -1.318014046127194,
                0.6538886952553389,
                1.3083955113953858,
                0.9499854604860292
            ]
        },
        {
            "positions": [
                -0.8799965075272873,
                -0.2112879897085757,
                -1.1676066807109877,
                0.7109607127292688,
                1.2428434317261101,
                0.9077576038337101
            ]
        },
        {
            "positions": [
                -0.8322223717397074,
                -0.23819472723597016,
                -1.0171993152947816,
                0.7680327302031985,
                1.1772913520568347,
                0.865529747181391
            ]
        },
        {
            "positions": [
                -0.7844482359521274,
                -0.2651014647633646,
                -0.8667919498785754,
                0.8251047476771283,
                1.1117392723875592,
                0.8233018905290719
            ]
        },
        {
            "positions": [
                -0.7366741001645474,
                -0.2920082022907591,
                -0.7163845844623691,
                0.8821767651510581,
                1.0461871927182838,
                0.7810740338767528
            ]
        },
        {
            "positions": [
                -0.6888999643769674,
                -0.31891493981815344,
                -0.5659772190461629,
                0.939248782624988,
                0.9806351130490084,
                0.7388461772244337
            ]
        },
        {
            "positions": [
                -0.6411258285893874,
                -0.345821677345548,
                -0.4155698536299566,
                0.9963208000989179,
                0.9150830333797328,
                0.6966183205721146
            ]
        },
        {
            "positions": [
                -0.5933516928018074,
                -0.3727284148729424,
                -0.26516248821375044,
                1.0533928175728475,
                0.8495309537104574,
                0.6543904639197955
            ]
        },
        {
            "positions": [
                -0.5455775570142274,
                -0.39963515240033687,
                -0.11475512279754407,
                1.1104648350467774,
                0.7839788740411819,
                0.6121626072674764
            ]
        },
        {
            "positions": [
                -0.49780342122664745,
                -0.4265418899277313,
                0.03565224261866207,
                1.1675368525207073,
                0.7184267943719065,
                0.5699347506151573
            ]
        },
        {
            "positions": [
                -0.4500292854390675,
                -0.4534486274551257,
                0.1860596080348682,
                1.224608869994637,
                0.652874714702631,
                0.5277068939628382
            ]
        },
        {
            "positions": [
                -0.40225514965148756,
                -0.48035536498252013,
                0.33646697345107435,
                1.2816808874685668,
                0.5873226350333556,
                0.4854790373105192
            ]
        },
        {
            "positions": [
                -0.3544810138639074,
                -0.5072621025099147,
                0.48687433886728093,
                1.3387529049424967,
                0.5217705553640801,
                0.4432511806582
            ]
        },
        {
            "positions": [
                -0.30670687807632746,
                -0.534168840037309,
                0.6372817042834871,
                1.3958249224164265,
                0.45621847569480467,
                0.4010233240058809
            ]
        },
        {
            "positions": [
                -0.2589327422887475,
                -0.5610755775647035,
                0.7876890696996932,
                1.4528969398903564,
                0.3906663960255292,
                0.3587954673535618
            ]
        },
        {
            "positions": [
                -0.21115860650116758,
                -0.587982315092098,
                0.9380964351158994,
                1.509968957364286,
                0.32511431635625376,
                0.31656761070124273
            ]
        },
        {
            "positions": [
                -0.16338447071358742,
                -0.6148890526194926,
                1.088503800532106,
                1.5670409748382161,
                0.2595622366869781,
                0.27433975404892363
            ]
        },
        {
            "positions": [
                -0.11561033492600759,
                -0.6417957901468869,
                1.238911165948312,
                1.6241129923121458,
                0.19401015701770263,
                0.23211189739660454
            ]
        },
        {
            "positions": [
                -0.06783619913842753,
                -0.6687025276742813,
                1.3893185313645182,
                1.6811850097860757,
                0.12845807734842718,
                0.18988404074428544
            ]
        },
        {
            "positions": [
                -0.02006206335084748,
                -0.6956092652016757,
                1.5397258967807244,
                1.7382570272600053,
                0.06290599767915173,
                0.14765618409196635
            ]
        },
        {
            "positions": [
                0.02771207243673257,
                -0.7225160027290702,
                1.690133262196931,
                1.7953290447339354,
                -0.0026460819901237276,
                0.10542832743964725
            ]
        },
        {
            "positions": [
                0.0754862082243124,
                -0.7494227402564646,
                1.840540627613137,
                1.852401062207865,
                -0.06819816165939918,
                0.06320047078732816
            ]
        },
        {
            "positions": [
                0.12326034401189237,
                -0.7763294777838592,
                1.990947993029343,
                1.909473079681795,
                -0.1337502413286747,
                0.02097261413500904
            ]
        }
    ]
}