{
    "goal": {
        "global_pose": {
            "orientation": {
                "w": 0.7031023502349854,
                "x": -0.7110244035720825,
                "y": 0.007748599164187908,
                "z": 0.005598929710686207
            },
            "position": {
                "x": 0.11585023208521307,
                "y": 0.44412534475326537,
                "z": 0.3711530566215515
            }
        },
        "name": "move_to_auspresseinheit_A"
    },
    "id": "LazyPRM_move_to_auspresseinheit_A_41",
    "joint_names": [
        "shoulder_pan_joint",
        "shoulder_lift_joint",
        "elbow_joint",
        "wrist_1_joint",
        "wrist_2_joint",
        "wrist_3_joint"
    ],
    "metrics": {
        "cart_traj_len": 0.6684458695266526,
        "distance_elbow_joint": 0.028841235909684126,
        "distance_shoulder_lift_joint": 0.5353672752295797,
        "distance_shoulder_pan_joint": 1.0456211412108514,
        "distance_wrist_1_joint": 0.7418272797385896,
        "distance_wrist_2_joint": 0.5161152766327861,
        "distance_wrist_3_joint": 0.06049151296958932,
        "smoothness": 0.48263576277221226,
        "time": 0.571288418,
        "traj_len": 1.7112170293948925,
        "weighted_distance": 2.0753769064923206
    },
    "planner": "LazyPRM",
    "start": {
        "state": {
            "elbow_joint": 2.422574709923281,
            "shoulder_lift_joint": -1.3736533754116391,
            "shoulder_pan_joint": -0.33786336945926293,
            "wrist_1_joint": -1.0288603412921917,
            "wrist_2_joint": 1.2330224858903978,
            "wrist_3_joint": -3.094022268022082
        }
    },
    "waypoints": [
        {
            "positions": [
                -0.33786336945926293,
                -1.3736533754116391,
                2.422574709923281,
                -1.0288603412921917,
                1.2330224858903978,
                -3.094022268022082
            ]
        },
        {
            "positions": [
                -0.2449212608341719,
                -1.4544193208839304,
                2.419056576738183,
                -0.9206611921116137,
                1.154922769366152,
                -3.091737128767358
            ]
        },
        {
            "positions": [
                -0.15197915220908087,
                -1.535185266356222,
                2.415538443553085,
                -0.8124620429310356,
                1.076823052841906,
                -3.0894519895126336
            ]
        },
        {
            "positions": [
                -0.05903704358398981,
                -1.6159512118285133,
                2.412020310367987,
                -0.7042628937504575,
                0.9987233363176602,
                -3.0871668502579093
            ]
        },
        {
            "positions": [
                0.03390506504110119,
                -1.6967171573008046,
                2.4085021771828887,
                -0.5960637445698794,
                0.9206236197934143,
                -3.0848817110031854
            ]
        },
        {
            "positions": [
                0.1268471736661923,
                -1.7774831027730962,
                2.404984043997791,
                -0.48786459538930127,
                0.8425239032691685,
                -3.082596571748461
            ]
        },
        {
            "positions": [
                0.21978928229128336,
                -1.8582490482453875,
                2.401465910812693,
                -0.3796654462087233,
                0.7644241867449226,
                -3.080311432493737
            ]
        },
        {
            "positions": [
                0.4637735270214359,
                -1.883634849443303,
                2.397599692413145,
                -0.4259816385362839,
                0.7406656980012671,
                -3.103701771214359
            ]
        },
        {
            "positions": [
                0.7077577717515885,
                -1.9090206506412188,
                2.393733474013597,
                -0.4722978308638445,
                0.7169072092576116,
                -3.127092109934981
            ]
        }
    ]
}