{
    "goal": {
        "global_pose": {
            "orientation": {
                "w": 0.7047431468963623,
                "x": -0.7094548344612122,
                "y": 0.0024358443915843964,
                "z": -0.0022348060738295317
            },
            "position": {
                "x": 0.6094750761985779,
                "y": 0.3671506643295288,
                "z": 0.19426114857196808
            }
        },
        "name": "move_to_magneteinheit_A"
    },
    "id": "LazyPRMstar_move_to_magneteinheit_A_114",
    "joint_names": [
        "shoulder_pan_joint",
        "shoulder_lift_joint",
        "elbow_joint",
        "wrist_1_joint",
        "wrist_2_joint",
        "wrist_3_joint"
    ],
    "metrics": {
        "cart_traj_len": 2.057533587148092,
        "distance_elbow_joint": 3.87717007631728,
        "distance_shoulder_lift_joint": 1.0545137896915493,
        "distance_shoulder_pan_joint": 1.241113260763278,
        "distance_wrist_1_joint": 1.3772696038457428,
        "distance_wrist_2_joint": 1.450051953991963,
        "distance_wrist_3_joint": 4.365125456771802,
        "smoothness": 0.015041778648334931,
        "time": 5.023453172,
        "traj_len": 3.6558506727411086,
        "weighted_distance": 4.992275694787192
    },
    "planner": "LazyPRMstar",
    "start": {
        "state": {
            "elbow_joint": -1.919643507792019,
            "shoulder_lift_joint": -0.07675430207160344,
            "shoulder_pan_joint": -1.1188671864651873,
            "wrist_1_joint": 0.42560062535961957,
            "wrist_2_joint": 1.5706038300724876,
            "wrist_3_joint": 1.1188968870953055
        }
    },
    "waypoints": [
        {
            "positions": [
                -1.1188671864651873,
                -0.07675430207160344,
                -1.919643507792019,
                0.42560062535961957,
                1.5706038300724876,
                1.1188968870953055
            ]
        },
        {
            "positions": [
                -1.0720513512104828,
                -0.08014840205661308,
                -1.8753380056975983,
                0.35139971932957687,
                1.5667142129383282,
                0.9184115032780571
            ]
        },
        {
            "positions": [
                -1.0252355159557782,
                -0.08354250204162274,
                -1.8310325036031778,
                0.2771988132995341,
                1.562824595804169,
                0.7179261194608086
            ]
        },
        {
            "positions": [
                -0.9784196807010735,
                -0.08693660202663239,
                -1.786727001508757,
                0.20299790726949138,
                1.5589349786700097,
                0.5174407356435601
            ]
        },
        {
            "positions": [
                -0.9316038454463689,
                -0.09033070201164203,
                -1.7424214994143363,
                0.1287970012394487,
                1.5550453615358504,
                0.31695535182631174
            ]
        },
        {
            "positions": [
                -0.8847880101916643,
                -0.09372480199665167,
                -1.6981159973199156,
                0.05459609520940595,
                1.551155744401691,
                0.11646996800906328
            ]
        },
        {
            "positions": [
                -0.8379721749369597,
                -0.09711890198166133,
                -1.6538104952254948,
                -0.01960481082063681,
                1.5472661272675319,
                -0.08401541580818539
            ]
        },
        {
            "positions": [
                -0.7911563396822552,
                -0.10051300196667097,
                -1.6095049931310743,
                -0.09380571685067945,
                1.5433765101333725,
                -0.2845007996254336
            ]
        },
        {
            "positions": [
                -0.7443405044275505,
                -0.10390710195168062,
                -1.5651994910366536,
                -0.16800662288072216,
                1.5394868929992132,
                -0.4849861834426821
            ]
        },
        {
            "positions": [
                -0.697524669172846,
                -0.10730120193669027,
                -1.5208939889422328,
                -0.24220752891076497,
                1.535597275865054,
                -0.6854715672599307
            ]
        },
        {
            "positions": [
                -0.6507088339181413,
                -0.11069530192169992,
                -1.476588486847812,
                -0.31640843494080767,
                1.5317076587308947,
                -0.885956951077179
            ]
        },
        {
            "positions": [
                -0.6038929986634367,
                -0.11408940190670958,
                -1.4322829847533916,
                -0.39060934097085037,
                1.5278180415967353,
                -1.0864423348944277
            ]
        },
        {
            "positions": [
                -0.557077163408732,
                -0.11748350189171922,
                -1.3879774826589708,
                -0.4648102470008932,
                1.5239284244625761,
                -1.2869277187116763
            ]
        },
        {
            "positions": [
                -0.5102613281540276,
                -0.12087760187672886,
                -1.34367198056455,
                -0.5390111530309358,
                1.5200388073284168,
                -1.4874131025289241
            ]
        },
        {
            "positions": [
                -0.4634454928993229,
                -0.1242717018617385,
                -1.2993664784701293,
                -0.6132120590609784,
                1.5161491901942574,
                -1.6878984863461728
            ]
        },
        {
            "positions": [
                -0.41662965764461835,
                -0.12766580184674814,
                -1.2550609763757086,
                -0.6874129650910212,
                1.512259573060098,
                -1.8883838701634215
            ]
        },
        {
            "positions": [
                -0.36981382238991367,
                -0.1310599018317578,
                -1.210755474281288,
                -0.7616138711210638,
                1.508369955925939,
                -2.0888692539806697
            ]
        },
        {
            "positions": [
                -0.32299798713520905,
                -0.13445400181676745,
                -1.1664499721868673,
                -0.8358147771511067,
                1.5044803387917796,
                -2.2893546377979184
            ]
        },
        {
            "positions": [
                -0.2982622059444702,
                -0.1898325623693444,
                -0.9928957199250824,
                -0.8293784326324947,
                1.42759542419671,
                -2.3425143006800617
            ]
        },
        {
            "positions": [
                -0.27352642475373135,
                -0.24521112292192138,
                -0.8193414676632975,
                -0.8229420881138827,
                1.35071050960164,
                -2.395673963562205
            ]
        },
        {
            "positions": [
                -0.24879064356299252,
                -0.3005896834744983,
                -0.6457872154015126,
                -0.8165057435952706,
                1.2738255950065704,
                -2.4488336264443484
            ]
        },
        {
            "positions": [
                -0.22405486237225367,
                -0.3559682440270753,
                -0.47223296313972773,
                -0.8100693990766586,
                1.1969406804115006,
                -2.501993289326492
            ]
        },
        {
            "positions": [
                -0.1993190811815148,
                -0.4113468045796522,
                -0.29867871087794273,
                -0.8036330545580466,
                1.120055765816431,
                -2.555152952208635
            ]
        },
        {
            "positions": [
                -0.174583299990776,
                -0.4667253651322292,
                -0.12512445861615795,
                -0.7971967100394345,
                1.0431708512213613,
                -2.6083126150907785
            ]
        },
        {
            "positions": [
                -0.1498475188000371,
                -0.5221039256848062,
                0.04842979364562705,
                -0.7907603655208225,
                0.9662859366262915,
                -2.661472277972922
            ]
        },
        {
            "positions": [
                -0.12511173760929828,
                -0.5774824862373831,
                0.22198404590741183,
                -0.7843240210022104,
                0.8894010220312218,
                -2.714631940855065
            ]
        },
        {
            "positions": [
                -0.10037595641855943,
                -0.6328610467899601,
                0.39553829816919683,
                -0.7778876764835985,
                0.8125161074361521,
                -2.7677916037372086
            ]
        },
        {
            "positions": [
                -0.07564017522782057,
                -0.6882396073425371,
                0.5690925504309818,
                -0.7714513319649864,
                0.7356311928410824,
                -2.820951266619352
            ]
        },
        {
            "positions": [
                -0.05090439403708169,
                -0.7436181678951141,
                0.7426468026927668,
                -0.7650149874463743,
                0.6587462782460126,
                -2.8741109295014953
            ]
        },
        {
            "positions": [
                -0.02616861284634292,
                -0.798996728447691,
                0.9162010549545514,
                -0.7585786429277623,
                0.581861363650943,
                -2.9272705923836386
            ]
        },
        {
            "positions": [
                -0.0014328316556040388,
                -0.8543752890002679,
                1.0897553072163364,
                -0.7521422984091503,
                0.5049764490558732,
                -2.980430255265782
            ]
        },
        {
            "positions": [
                0.023302949535134843,
                -0.909753849552845,
                1.2633095594781214,
                -0.7457059538905382,
                0.4280915344608034,
                -3.0335899181479253
            ]
        },
        {
            "positions": [
                0.04803873072587367,
                -0.965132410105422,
                1.4368638117399064,
                -0.7392696093719262,
                0.35120661986573376,
                -3.0867495810300687
            ]
        },
        {
            "positions": [
                0.0727745119166125,
                -1.0205109706579987,
                1.610418064001691,
                -0.7328332648533141,
                0.27432170527066413,
                -3.139909243912212
            ]
        },
        {
            "positions": [
                0.09751029310735132,
                -1.0758895312105758,
                1.783972316263476,
                -0.7263969203347022,
                0.1974367906755945,
                -3.1930689067943554
            ]
        },
        {
            "positions": [
                0.1222460742980902,
                -1.1312680917631528,
                1.9575265685252607,
                -0.7199605758160901,
                0.1205518760805246,
                -3.2462285696764988
            ]
        }
    ]
}