{
    "goal": {
        "global_pose": {
            "orientation": {
                "w": 0.7047431468963623,
                "x": -0.7094548344612122,
                "y": 0.0024358443915843964,
                "z": -0.0022348060738295317
            },
            "position": {
                "x": 0.6094750761985779,
                "y": 0.3671506643295288,
                "z": 0.19426114857196808
            }
        },
        "name": "move_to_magneteinheit_A"
    },
    "id": "LazyPRM_move_to_magneteinheit_A_59",
    "joint_names": [
        "shoulder_pan_joint",
        "shoulder_lift_joint",
        "elbow_joint",
        "wrist_1_joint",
        "wrist_2_joint",
        "wrist_3_joint"
    ],
    "metrics": {
        "cart_traj_len": 1.871473185867823,
        "distance_elbow_joint": 3.9279085728258307,
        "distance_shoulder_lift_joint": 0.7074318828096137,
        "distance_shoulder_pan_joint": 1.2425877523000017,
        "distance_wrist_1_joint": 1.5464876877923592,
        "distance_wrist_2_joint": 1.7101644096917636,
        "distance_wrist_3_joint": 1.1719525662110328,
        "smoothness": 5.709718403886408e-16,
        "time": 0.17178941,
        "traj_len": 3.2103789296017067,
        "weighted_distance": 3.9883693537004308
    },
    "planner": "LazyPRM",
    "start": {
        "state": {
            "elbow_joint": -1.919643507792019,
            "shoulder_lift_joint": -0.07675430207160344,
            "shoulder_pan_joint": -1.1188671864651873,
            "wrist_1_joint": 0.42560062535961957,
            "wrist_2_joint": 1.5706038300724876,
            "wrist_3_joint": 1.1188968870953055
        }
    },
    "waypoints": [
        {
            "positions": [
                -1.1188671864651873,
                -0.07675430207160344,
                -1.919643507792019,
                0.42560062535961957,
                1.5706038300724876,
                1.1188968870953055
            ]
        },
        {
            "positions": [
                -1.0728454178614837,
                -0.10295548291640395,
                -1.7741654125021735,
                0.48287794712970694,
                1.507264407491311,
                1.075491236494897
            ]
        },
        {
            "positions": [
                -1.0268236492577798,
                -0.12915666376120447,
                -1.628687317212328,
                0.5401552688997944,
                1.4439249849101348,
                1.0320855858944884
            ]
        },
        {
            "positions": [
                -0.980801880654076,
                -0.15535784460600496,
                -1.4832092219224824,
                0.5974325906698816,
                1.3805855623289582,
                0.9886799352940797
            ]
        },
        {
            "positions": [
                -0.9347801120503723,
                -0.1815590254508055,
                -1.3377311266326368,
                0.6547099124399691,
                1.317246139747782,
                0.945274284693671
            ]
        },
        {
            "positions": [
                -0.8887583434466685,
                -0.207760206295606,
                -1.1922530313427913,
                0.7119872342100564,
                1.2539067171666054,
                0.9018686340932625
            ]
        },
        {
            "positions": [
                -0.8427365748429647,
                -0.23396138714040648,
                -1.0467749360529457,
                0.7692645559801439,
                1.190567294585429,
                0.8584629834928539
            ]
        },
        {
            "positions": [
                -0.796714806239261,
                -0.260162567985207,
                -0.9012968407631001,
                0.8265418777502311,
                1.1272278720042526,
                0.8150573328924452
            ]
        },
        {
            "positions": [
                -0.7506930376355572,
                -0.2863637488300075,
                -0.7558187454732546,
                0.8838191995203186,
                1.063888449423076,
                0.7716516822920365
            ]
        },
        {
            "positions": [
                -0.7046712690318535,
                -0.31256492967480803,
                -0.610340650183409,
                0.9410965212904059,
                1.0005490268418997,
                0.7282460316916279
            ]
        },
        {
            "positions": [
                -0.6586495004281496,
                -0.33876611051960853,
                -0.46486255489356343,
                0.9983738430604934,
                0.9372096042607233,
                0.6848403810912194
            ]
        },
        {
            "positions": [
                -0.612627731824446,
                -0.36496729136440903,
                -0.31938445960371786,
                1.0556511648305806,
                0.8738701816795469,
                0.6414347304908108
            ]
        },
        {
            "positions": [
                -0.5666059632207422,
                -0.39116847220920953,
                -0.1739063643138723,
                1.1129284866006681,
                0.8105307590983705,
                0.5980290798904021
            ]
        },
        {
            "positions": [
                -0.5205841946170384,
                -0.4173696530540101,
                -0.02842826902402673,
                1.1702058083707554,
                0.747191336517194,
                0.5546234292899935
            ]
        },
        {
            "positions": [
                -0.47456242601333465,
                -0.4435708338988106,
                0.11704982626581883,
                1.2274831301408429,
                0.6838519139360176,
                0.5112177786895848
            ]
        },
        {
            "positions": [
                -0.42854065740963077,
                -0.46977201474361113,
                0.26252792155566484,
                1.2847604519109304,
                0.6205124913548411,
                0.46781212808917616
            ]
        },
        {
            "positions": [
                -0.3825188888059271,
                -0.4959731955884116,
                0.40800601684550997,
                1.3420377736810176,
                0.5571730687736647,
                0.4244064774887676
            ]
        },
        {
            "positions": [
                -0.3364971202022232,
                -0.5221743764332121,
                0.553484112135356,
                1.399315095451105,
                0.49383364619248815,
                0.3810008268883589
            ]
        },
        {
            "positions": [
                -0.29047535159851956,
                -0.5483755572780127,
                0.6989622074252011,
                1.4565924172211924,
                0.43049422361131184,
                0.3375951762879503
            ]
        },
        {
            "positions": [
                -0.2444535829948158,
                -0.5745767381228131,
                0.8444403027150471,
                1.5138697389912799,
                0.3671548010301353,
                0.29418952568754164
            ]
        },
        {
            "positions": [
                -0.19843181439111202,
                -0.6007779189676137,
                0.9899183980048922,
                1.5711470607613671,
                0.303815378448959,
                0.2507838750871332
            ]
        },
        {
            "positions": [
                -0.15241004578740824,
                -0.6269790998124141,
                1.1353964932947382,
                1.6284243825314546,
                0.24047595586778248,
                0.2073782244867245
            ]
        },
        {
            "positions": [
                -0.10638827718370458,
                -0.6531802806572147,
                1.2808745885845834,
                1.6857017043015419,
                0.17713653328660617,
                0.16397257388631592
            ]
        },
        {
            "positions": [
                -0.0603665085800007,
                -0.6793814615020153,
                1.4263526838744294,
                1.7429790260716294,
                0.11379711070542964,
                0.12056692328590723
            ]
        },
        {
            "positions": [
                -0.014344739976297038,
                -0.7055826423468157,
                1.5718307791642745,
                1.8002563478417166,
                0.05045768812425333,
                0.07716127268549866
            ]
        },
        {
            "positions": [
                0.031677028627406845,
                -0.7317838231916163,
                1.7173088744541205,
                1.857533669611804,
                -0.0128817344569232,
                0.033755622085089865
            ]
        },
        {
            "positions": [
                0.0776987972311105,
                -0.7579850040364167,
                1.8627869697439656,
                1.9148109913818914,
                -0.07622115703809951,
                -0.009650028515318487
            ]
        },
        {
            "positions": [
                0.12372056583481447,
                -0.7841861848812172,
                2.0082650650338114,
                1.9720883131519789,
                -0.13956057961927607,
                -0.05305567911572718
            ]
        }
    ]
}