{
    "goal": {
        "global_pose": {
            "orientation": {
                "w": 0.5084816217422485,
                "x": -0.49083608388900757,
                "y": 0.5182115435600281,
                "z": -0.4816462993621826
            },
            "position": {
                "x": 0.5540239810943604,
                "y": 0.030875300988554955,
                "z": 0.16403168439865112
            }
        },
        "name": "move_to_storage_A"
    },
    "id": "LazyPRM_move_to_storage_A_31",
    "joint_names": [
        "shoulder_pan_joint",
        "shoulder_lift_joint",
        "elbow_joint",
        "wrist_1_joint",
        "wrist_2_joint",
        "wrist_3_joint"
    ],
    "metrics": {
        "cart_traj_len": 0.35301646572487894,
        "distance_elbow_joint": 0.4478583635070126,
        "distance_shoulder_lift_joint": 0.23544176933832417,
        "distance_shoulder_pan_joint": 0.4588067623116188,
        "distance_wrist_1_joint": 0.23483087077612852,
        "distance_wrist_2_joint": 1.1108989620202632,
        "distance_wrist_3_joint": 0.08890889148519943,
        "smoothness": 4.440892133664971e-16,
        "time": 0.022019359,
        "traj_len": 1.6052244763392274,
        "weighted_distance": 2.024918081109786
    },
    "planner": "LazyPRM",
    "start": {
        "state": {
            "elbow_joint": 1.9715463870305268,
            "shoulder_lift_joint": -1.1394903361783484,
            "shoulder_pan_joint": 0.12281147578464417,
            "wrist_1_joint": -0.7804599489681411,
            "wrist_2_joint": 0.12958660307563738,
            "wrist_3_joint": -3.1924946282119055
        }
    },
    "waypoints": [
        {
            "positions": [
                0.12281147578464417,
                -1.1394903361783484,
                1.9715463870305268,
                -0.7804599489681411,
                0.12958660307563738,
                -3.1924946282119055
            ]
        },
        {
            "positions": [
                0.057267652597270055,
                -1.1731248746552518,
                2.035526153245814,
                -0.8140072162218738,
                0.28828645479281784,
                -3.1797933579997344
            ]
        },
        {
            "positions": [
                -0.008276170590104062,
                -1.2067594131321553,
                2.0995059194611017,
                -0.8475544834756064,
                0.44698630650999827,
                -3.167092087787563
            ]
        },
        {
            "positions": [
                -0.07381999377747818,
                -1.2403939516090587,
                2.163485685676389,
                -0.881101750729339,
                0.6056861582271788,
                -3.1543908175753916
            ]
        },
        {
            "positions": [
                -0.13936381696485228,
                -1.2740284900859622,
                2.2274654518916766,
                -0.9146490179830716,
                0.7643860099443592,
                -3.14168954736322
            ]
        },
        {
            "positions": [
                -0.2049076401522264,
                -1.3076630285628656,
                2.2914452181069644,
                -0.9481962852368043,
                0.9230858616615397,
                -3.128988277151049
            ]
        },
        {
            "positions": [
                -0.2704514633396005,
                -1.341297567039769,
                2.355424984322252,
                -0.9817435524905369,
                1.08178571337872,
                -3.1162870069388773
            ]
        },
        {
            "positions": [
                -0.33599528652697463,
                -1.3749321055166726,
                2.4194047505375393,
                -1.0152908197442696,
                1.2404855650959006,
                -3.103585736726706
            ]
        }
    ]
}