{
    "goal": {
        "global_pose": {
            "orientation": {
                "w": 0.7031023502349854,
                "x": -0.7110244035720825,
                "y": 0.007748599164187908,
                "z": 0.005598929710686207
            },
            "position": {
                "x": 0.11585023208521307,
                "y": 0.44412534475326537,
                "z": 0.3711530566215515
            }
        },
        "name": "move_to_auspresseinheit_A"
    },
    "id": "LazyPRM_move_to_auspresseinheit_A_94",
    "joint_names": [
        "shoulder_pan_joint",
        "shoulder_lift_joint",
        "elbow_joint",
        "wrist_1_joint",
        "wrist_2_joint",
        "wrist_3_joint"
    ],
    "metrics": {
        "cart_traj_len": 0.6855377853330987,
        "distance_elbow_joint": 0.060092272909896494,
        "distance_shoulder_lift_joint": 0.5365816452195966,
        "distance_shoulder_pan_joint": 1.045030661753337,
        "distance_wrist_1_joint": 0.5498410894156023,
        "distance_wrist_2_joint": 2.269850920701323,
        "distance_wrist_3_joint": 0.7601617779480936,
        "smoothness": 1.0035466292065192,
        "time": 0.045679296,
        "traj_len": 2.2850729458701857,
        "weighted_distance": 3.092179479584094
    },
    "planner": "LazyPRM",
    "start": {
        "state": {
            "elbow_joint": 2.422574709923281,
            "shoulder_lift_joint": -1.3736533754116391,
            "shoulder_pan_joint": -0.33786336945926293,
            "wrist_1_joint": -1.0288603412921917,
            "wrist_2_joint": 1.2330224858903978,
            "wrist_3_joint": -3.094022268022082
        }
    },
    "waypoints": [
        {
            "positions": [
                -0.33786336945926293,
                -1.3736533754116391,
                2.422574709923281,
                -1.0288603412921917,
                1.2330224858903978,
                -3.094022268022082
            ]
        },
        {
            "positions": [
                -0.31799218657746176,
                -1.4198307063517561,
                2.4164968333151458,
                -1.0040541735958823,
                1.0336378116966285,
                -3.041539634426261
            ]
        },
        {
            "positions": [
                -0.29812100369566064,
                -1.466008037291873,
                2.410418956707011,
                -0.979248005899573,
                0.8342531375028592,
                -2.98905700083044
            ]
        },
        {
            "positions": [
                -0.2782498208138595,
                -1.51218536823199,
                2.4043410800988756,
                -0.9544418382032636,
                0.6348684633090899,
                -2.936574367234619
            ]
        },
        {
            "positions": [
                -0.25837863793205834,
                -1.5583626991721067,
                2.3982632034907407,
                -0.9296356705069543,
                0.4354837891153206,
                -2.884091733638798
            ]
        },
        {
            "positions": [
                -0.2385074550502572,
                -1.6045400301122237,
                2.3921853268826054,
                -0.9048295028106449,
                0.23609911492155122,
                -2.831609100042977
            ]
        },
        {
            "positions": [
                -0.21863627216845605,
                -1.6507173610523405,
                2.3861074502744706,
                -0.8800233351143355,
                0.03671444072778196,
                -2.7791264664471558
            ]
        },
        {
            "positions": [
                -0.1987650892866549,
                -1.6968946919924575,
                2.3800295736663353,
                -0.8552171674180261,
                -0.16267023346598725,
                -2.7266438328513347
            ]
        },
        {
            "positions": [
                -0.08552354158906378,
                -1.7235622330723048,
                2.382222965747954,
                -0.8081924279753465,
                -0.05340045829786999,
                -2.775741750698503
            ]
        },
        {
            "positions": [
                0.027718006108527343,
                -1.750229774152152,
                2.384416357829573,
                -0.7611676885326669,
                0.055869316870247265,
                -2.824839668545671
            ]
        },
        {
            "positions": [
                0.1409595538061185,
                -1.7768973152319993,
                2.386609749911192,
                -0.7141429490899873,
                0.16513909203836452,
                -2.8739375863928394
            ]
        },
        {
            "positions": [
                0.25420110150370956,
                -1.8035648563118465,
                2.3888031419928106,
                -0.6671182096473078,
                0.2744088672064818,
                -2.9230355042400076
            ]
        },
        {
            "positions": [
                0.36744264920130065,
                -1.8302323973916939,
                2.3909965340744295,
                -0.6200934702046281,
                0.3836786423745991,
                -2.9721334220871762
            ]
        },
        {
            "positions": [
                0.48068419689889186,
                -1.8568999384715412,
                2.3931899261560483,
                -0.5730687307619486,
                0.4929484175427163,
                -3.0212313399343445
            ]
        },
        {
            "positions": [
                0.593925744596483,
                -1.8835674795513884,
                2.395383318237667,
                -0.526043991319269,
                0.6022181927108334,
                -3.0703292577815127
            ]
        },
        {
            "positions": [
                0.707167292294074,
                -1.9102350206312357,
                2.397576710319286,
                -0.47901925187658945,
                0.7114879678789507,
                -3.119427175628681
            ]
        }
    ]
}