{
    "goal": {
        "global_pose": {
            "orientation": {
                "w": 0.7047431468963623,
                "x": -0.7094548344612122,
                "y": 0.0024358443915843964,
                "z": -0.0022348060738295317
            },
            "position": {
                "x": 0.6094750761985779,
                "y": 0.3671506643295288,
                "z": 0.19426114857196808
            }
        },
        "name": "move_to_magneteinheit_A"
    },
    "id": "LazyPRMstar_move_to_magneteinheit_A_57",
    "joint_names": [
        "shoulder_pan_joint",
        "shoulder_lift_joint",
        "elbow_joint",
        "wrist_1_joint",
        "wrist_2_joint",
        "wrist_3_joint"
    ],
    "metrics": {
        "cart_traj_len": 2.06489018800238,
        "distance_elbow_joint": 3.8790206910537184,
        "distance_shoulder_lift_joint": 1.056356632171601,
        "distance_shoulder_pan_joint": 1.2426949757582162,
        "distance_wrist_1_joint": 1.1574998972476676,
        "distance_wrist_2_joint": 1.449190075612072,
        "distance_wrist_3_joint": 1.9201412902343797,
        "smoothness": 3.675221076136527e-16,
        "time": 5.000711381,
        "traj_len": 3.2718348922397746,
        "weighted_distance": 4.141482357249171
    },
    "planner": "LazyPRMstar",
    "start": {
        "state": {
            "elbow_joint": -1.919643507792019,
            "shoulder_lift_joint": -0.07675430207160344,
            "shoulder_pan_joint": -1.1188671864651873,
            "wrist_1_joint": 0.42560062535961957,
            "wrist_2_joint": 1.5706038300724876,
            "wrist_3_joint": 1.1188968870953055
        }
    },
    "waypoints": [
        {
            "positions": [
                -1.1188671864651873,
                -0.07675430207160344,
                -1.919643507792019,
                0.42560062535961957,
                1.5706038300724876,
                1.1188968870953055
            ]
        },
        {
            "positions": [
                -1.074485223045251,
                -0.11448132464916061,
                -1.7811070545401007,
                0.38426134331506,
                1.5188470416577708,
                1.1874733617465334
            ]
        },
        {
            "positions": [
                -1.0301032596253148,
                -0.15220834722671778,
                -1.642570601288182,
                0.34292206127050046,
                1.4670902532430539,
                1.2560498363977612
            ]
        },
        {
            "positions": [
                -0.9857212962053785,
                -0.18993536980427494,
                -1.5040341480362636,
                0.3015827792259409,
                1.415333464828337,
                1.324626311048989
            ]
        },
        {
            "positions": [
                -0.9413393327854422,
                -0.22766239238183214,
                -1.3654976947843451,
                0.26024349718138134,
                1.3635766764136201,
                1.393202785700217
            ]
        },
        {
            "positions": [
                -0.8969573693655059,
                -0.26538941495938934,
                -1.2269612415324265,
                0.2189042151368218,
                1.3118198879989034,
                1.4617792603514448
            ]
        },
        {
            "positions": [
                -0.8525754059455697,
                -0.3031164375369465,
                -1.088424788280508,
                0.17756493309226223,
                1.2600630995841864,
                1.5303557350026726
            ]
        },
        {
            "positions": [
                -0.8081934425256333,
                -0.34084346011450367,
                -0.9498883350285895,
                0.13622565104770268,
                1.2083063111694696,
                1.5989322096539005
            ]
        },
        {
            "positions": [
                -0.763811479105697,
                -0.37857048269206084,
                -0.811351881776671,
                0.09488636900314312,
                1.1565495227547529,
                1.6675086843051283
            ]
        },
        {
            "positions": [
                -0.7194295156857606,
                -0.41629750526961806,
                -0.6728154285247523,
                0.05354708695858357,
                1.1047927343400359,
                1.7360851589563562
            ]
        },
        {
            "positions": [
                -0.6750475522658244,
                -0.45402452784717523,
                -0.5342789752728339,
                0.012207804914024012,
                1.053035945925319,
                1.804661633607584
            ]
        },
        {
            "positions": [
                -0.6306655888458881,
                -0.49175155042473234,
                -0.3957425220209154,
                -0.029131477130535544,
                1.0012791575106021,
                1.8732381082588119
            ]
        },
        {
            "positions": [
                -0.5862836254259519,
                -0.5294785730022895,
                -0.257206068768997,
                -0.0704707591750951,
                0.9495223690958854,
                1.9418145829100397
            ]
        },
        {
            "positions": [
                -0.5419016620060155,
                -0.5672055955798467,
                -0.11866961551707833,
                -0.11181004121965471,
                0.8977655806811685,
                2.0103910575612676
            ]
        },
        {
            "positions": [
                -0.49751969858607925,
                -0.604932618157404,
                0.019866837734840104,
                -0.1531493232642142,
                0.8460087922664516,
                2.0789675322124954
            ]
        },
        {
            "positions": [
                -0.453137735166143,
                -0.642659640734961,
                0.15840329098675876,
                -0.1944886053087737,
                0.7942520038517348,
                2.1475440068637233
            ]
        },
        {
            "positions": [
                -0.4087557717462067,
                -0.6803866633125182,
                0.2969397442386772,
                -0.23582788735333332,
                0.742495215437018,
                2.216120481514951
            ]
        },
        {
            "positions": [
                -0.3643738083262704,
                -0.7181136858900754,
                0.43547619749059563,
                -0.2771671693978928,
                0.6907384270223011,
                2.284696956166179
            ]
        },
        {
            "positions": [
                -0.31999184490633403,
                -0.7558407084676326,
                0.5740126507425145,
                -0.31850645144245243,
                0.6389816386075842,
                2.353273430817407
            ]
        },
        {
            "positions": [
                -0.27560988148639776,
                -0.7935677310451899,
                0.7125491039944329,
                -0.35984573348701204,
                0.5872248501928673,
                2.4218499054686347
            ]
        },
        {
            "positions": [
                -0.23122791806646148,
                -0.8312947536227471,
                0.8510855572463514,
                -0.40118501553157154,
                0.5354680617781504,
                2.4904263801198625
            ]
        },
        {
            "positions": [
                -0.1868459546465252,
                -0.8690217762003041,
                0.9896220104982698,
                -0.44252429757613104,
                0.48371127336343367,
                2.5590028547710904
            ]
        },
        {
            "positions": [
                -0.14246399122658893,
                -0.9067487987778613,
                1.1281584637501882,
                -0.48386357962069065,
                0.4319544849487169,
                2.627579329422318
            ]
        },
        {
            "positions": [
                -0.09808202780665276,
                -0.9444758213554185,
                1.2666949170021067,
                -0.5252028616652502,
                0.38019769653399993,
                2.696155804073546
            ]
        },
        {
            "positions": [
                -0.053700064386716484,
                -0.9822028439329755,
                1.4052313702540251,
                -0.5665421437098097,
                0.32844090811928317,
                2.764732278724774
            ]
        },
        {
            "positions": [
                -0.009318100966779985,
                -1.019929866510533,
                1.543767823505944,
                -0.6078814257543692,
                0.2766841197045662,
                2.8333087533760017
            ]
        },
        {
            "positions": [
                0.03506386245315629,
                -1.05765688908809,
                1.6823042767578624,
                -0.6492207077989289,
                0.22492733128984943,
                2.9018852280272296
            ]
        },
        {
            "positions": [
                0.07944582587309257,
                -1.0953839116656472,
                1.8208407300097809,
                -0.6905599898434884,
                0.17317054287513245,
                2.9704617026784574
            ]
        },
        {
            "positions": [
                0.12382778929302891,
                -1.1331109342432044,
                1.9593771832616993,
                -0.7318992718880479,
                0.12141375446041568,
                3.0390381773296853
            ]
        }
    ]
}