{
    "goal": {
        "global_pose": {
            "orientation": {
                "w": 0.5084816217422485,
                "x": -0.49083608388900757,
                "y": 0.5182115435600281,
                "z": -0.4816462993621826
            },
            "position": {
                "x": 0.5540239810943604,
                "y": 0.030875300988554955,
                "z": 0.16403168439865112
            }
        },
        "name": "move_to_storage_A"
    },
    "id": "LazyPRMstar_move_to_storage_A_22",
    "joint_names": [
        "shoulder_pan_joint",
        "shoulder_lift_joint",
        "elbow_joint",
        "wrist_1_joint",
        "wrist_2_joint",
        "wrist_3_joint"
    ],
    "metrics": {
        "cart_traj_len": 0.3534850670375311,
        "distance_elbow_joint": 0.4504586526373875,
        "distance_shoulder_lift_joint": 0.23455905974915803,
        "distance_shoulder_pan_joint": 0.46208570527757664,
        "distance_wrist_1_joint": 0.2411236649609073,
        "distance_wrist_2_joint": 1.100697217134628,
        "distance_wrist_3_joint": 0.09805974772883275,
        "smoothness": 4.440892098500626e-16,
        "time": 5.001113418,
        "traj_len": 1.6084104101529841,
        "weighted_distance": 2.0309909958051735
    },
    "planner": "LazyPRMstar",
    "start": {
        "state": {
            "elbow_joint": 1.9715463870305268,
            "shoulder_lift_joint": -1.1394903361783484,
            "shoulder_pan_joint": 0.12281147578464417,
            "wrist_1_joint": -0.7804599489681411,
            "wrist_2_joint": 0.12958660307563738,
            "wrist_3_joint": -3.1924946282119055
        }
    },
    "waypoints": [
        {
            "positions": [
                0.12281147578464417,
                -1.1394903361783484,
                1.9715463870305268,
                -0.7804599489681411,
                0.12958660307563738,
                -3.1924946282119055
            ]
        },
        {
            "positions": [
                0.056799232173561795,
                -1.172998773285371,
                2.035897623121582,
                -0.8149061868196993,
                0.28682906266629854,
                -3.178486092822072
            ]
        },
        {
            "positions": [
                -0.009213011437520582,
                -1.2065072103923935,
                2.1002488592126376,
                -0.8493524246712575,
                0.44407152225695967,
                -3.1644775574322392
            ]
        },
        {
            "positions": [
                -0.07522525504860296,
                -1.2400156474994162,
                2.164600095303693,
                -0.8837986625228156,
                0.6013139818476209,
                -3.150469022042406
            ]
        },
        {
            "positions": [
                -0.14123749865968532,
                -1.2735240846064386,
                2.228951331394748,
                -0.9182449003743738,
                0.758556441438282,
                -3.1364604866525725
            ]
        },
        {
            "positions": [
                -0.2072497422707677,
                -1.3070325217134613,
                2.2933025674858034,
                -0.952691138225932,
                0.9157989010289432,
                -3.122451951262739
            ]
        },
        {
            "positions": [
                -0.2732619858818501,
                -1.3405409588204837,
                2.357653803576859,
                -0.9871373760774902,
                1.0730413606196043,
                -3.108443415872906
            ]
        },
        {
            "positions": [
                -0.33927422949293246,
                -1.3740493959275064,
                2.4220050396679143,
                -1.0215836139290484,
                1.2302838202102655,
                -3.094434880483073
            ]
        }
    ]
}