{
    "goal": {
        "global_pose": {
            "orientation": {
                "w": 0.5084816217422485,
                "x": -0.49083608388900757,
                "y": 0.5182115435600281,
                "z": -0.4816462993621826
            },
            "position": {
                "x": 0.5540239810943604,
                "y": 0.030875300988554955,
                "z": 0.16403168439865112
            }
        },
        "name": "move_to_storage_A"
    },
    "id": "LazyPRMstar_move_to_storage_A_127",
    "joint_names": [
        "shoulder_pan_joint",
        "shoulder_lift_joint",
        "elbow_joint",
        "wrist_1_joint",
        "wrist_2_joint",
        "wrist_3_joint"
    ],
    "metrics": {
        "cart_traj_len": 0.3525566484240541,
        "distance_elbow_joint": 0.45096273945329646,
        "distance_shoulder_lift_joint": 0.2339460170214498,
        "distance_shoulder_pan_joint": 0.4567074692753617,
        "distance_wrist_1_joint": 0.25314155322610177,
        "distance_wrist_2_joint": 1.1157853818552506,
        "distance_wrist_3_joint": 0.09454995704747571,
        "smoothness": 0.0,
        "time": 5.000070828,
        "traj_len": 1.6140300858035255,
        "weighted_distance": 2.0403725069347605
    },
    "planner": "LazyPRMstar",
    "start": {
        "state": {
            "elbow_joint": 1.9715463870305268,
            "shoulder_lift_joint": -1.1394903361783484,
            "shoulder_pan_joint": 0.12281147578464417,
            "wrist_1_joint": -0.7804599489681411,
            "wrist_2_joint": 0.12958660307563738,
            "wrist_3_joint": -3.1924946282119055
        }
    },
    "waypoints": [
        {
            "positions": [
                0.12281147578464417,
                -1.1394903361783484,
                1.9715463870305268,
                -0.7804599489681411,
                0.12958660307563738,
                -3.1924946282119055
            ]
        },
        {
            "positions": [
                0.05756755160244964,
                -1.1729111957528413,
                2.035969635523855,
                -0.8166230280004413,
                0.2889845147692446,
                -3.1789874914908376
            ]
        },
        {
            "positions": [
                -0.007676372579744892,
                -1.206332055327334,
                2.100392884017183,
                -0.8527861070327416,
                0.44838242646285176,
                -3.1654803547697696
            ]
        },
        {
            "positions": [
                -0.07292029676193941,
                -1.239752914901827,
                2.164816132510511,
                -0.8889491860650418,
                0.607780338156459,
                -3.1519732180487017
            ]
        },
        {
            "positions": [
                -0.13816422094413394,
                -1.2731737744763196,
                2.229239381003839,
                -0.9251122650973421,
                0.7671782498500662,
                -3.1384660813276337
            ]
        },
        {
            "positions": [
                -0.2034081451263285,
                -1.3065946340508126,
                2.293662629497167,
                -0.9612753441296423,
                0.9265761615436735,
                -3.1249589446065658
            ]
        },
        {
            "positions": [
                -0.268652069308523,
                -1.3400154936253053,
                2.358085877990495,
                -0.9974384231619426,
                1.0859740732372807,
                -3.111451807885498
            ]
        },
        {
            "positions": [
                -0.3338959934907175,
                -1.3734363531997982,
                2.422509126483823,
                -1.0336015021942428,
                1.245371984930888,
                -3.09794467116443
            ]
        }
    ]
}