{
    "goal": {
        "global_pose": {
            "orientation": {
                "w": 0.7031023502349854,
                "x": -0.7110244035720825,
                "y": 0.007748599164187908,
                "z": 0.005598929710686207
            },
            "position": {
                "x": 0.11585023208521307,
                "y": 0.44412534475326537,
                "z": 0.3711530566215515
            }
        },
        "name": "move_to_auspresseinheit_A"
    },
    "id": "LazyPRM_move_to_auspresseinheit_A_118",
    "joint_names": [
        "shoulder_pan_joint",
        "shoulder_lift_joint",
        "elbow_joint",
        "wrist_1_joint",
        "wrist_2_joint",
        "wrist_3_joint"
    ],
    "metrics": {
        "cart_traj_len": 2.0810619953159084,
        "distance_elbow_joint": 0.08730898266377851,
        "distance_shoulder_lift_joint": 2.4808622122441273,
        "distance_shoulder_pan_joint": 5.8564329163651445,
        "distance_wrist_1_joint": 2.584632708190402,
        "distance_wrist_2_joint": 3.237586462756422,
        "distance_wrist_3_joint": 10.627284631521674,
        "smoothness": 0.5213506241609434,
        "time": 0.16234927400000002,
        "traj_len": 4.987394902525922,
        "weighted_distance": 7.207697021083207
    },
    "planner": "LazyPRM",
    "start": {
        "state": {
            "elbow_joint": 2.422574709923281,
            "shoulder_lift_joint": -1.3736533754116391,
            "shoulder_pan_joint": -0.33786336945926293,
            "wrist_1_joint": -1.0288603412921917,
            "wrist_2_joint": 1.2330224858903978,
            "wrist_3_joint": -3.094022268022082
        }
    },
    "waypoints": [
        {
            "positions": [
                -0.33786336945926293,
                -1.3736533754116391,
                2.422574709923281,
                -1.0288603412921917,
                1.2330224858903978,
                -3.094022268022082
            ]
        },
        {
            "positions": [
                -0.4155035287587736,
                -1.4222639825056789,
                2.4206764408439434,
                -0.9781091759842401,
                1.276613888164457,
                -2.9231519144078786
            ]
        },
        {
            "positions": [
                -0.49314368805828424,
                -1.4708745895997188,
                2.4187781717646057,
                -0.9273580106762884,
                1.3202052904385164,
                -2.752281560793675
            ]
        },
        {
            "positions": [
                -0.5707838473577949,
                -1.5194851966937586,
                2.416879902685268,
                -0.8766068453683368,
                1.3637966927125755,
                -2.5814112071794715
            ]
        },
        {
            "positions": [
                -0.6484240066573056,
                -1.5680958037877986,
                2.414981633605931,
                -0.8258556800603851,
                1.4073880949866349,
                -2.410540853565268
            ]
        },
        {
            "positions": [
                -0.7260641659568163,
                -1.6167064108818383,
                2.4130833645265932,
                -0.7751045147524335,
                1.4509794972606942,
                -2.2396704999510644
            ]
        },
        {
            "positions": [
                -0.803704325256327,
                -1.665317017975878,
                2.4111850954472556,
                -0.7243533494444818,
                1.4945708995347535,
                -2.068800146336861
            ]
        },
        {
            "positions": [
                -0.8813444845558376,
                -1.713927625069918,
                2.409286826367918,
                -0.6736021841365303,
                1.5381623018088129,
                -1.8979297927226573
            ]
        },
        {
            "positions": [
                -0.9589846438553482,
                -1.7625382321639578,
                2.4073885572885803,
                -0.6228510188285785,
                1.5817537040828722,
                -1.7270594391084537
            ]
        },
        {
            "positions": [
                -1.036624803154859,
                -1.8111488392579977,
                2.4054902882092426,
                -0.5720998535206269,
                1.6253451063569315,
                -1.5561890854942502
            ]
        },
        {
            "positions": [
                -1.1142649624543697,
                -1.8597594463520375,
                2.4035920191299054,
                -0.5213486882126752,
                1.6689365086309906,
                -1.3853187318800466
            ]
        },
        {
            "positions": [
                -1.1919051217538803,
                -1.9083700534460775,
                2.4016937500505677,
                -0.47059752290472356,
                1.71252791090505,
                -1.214448378265843
            ]
        },
        {
            "positions": [
                -1.269545281053391,
                -1.9569806605401172,
                2.39979548097123,
                -0.419846357596772,
                1.7561193131791093,
                -1.0435780246516395
            ]
        },
        {
            "positions": [
                -1.3471854403529018,
                -2.005591267634157,
                2.3978972118918924,
                -0.36909519228882026,
                1.7997107154531686,
                -0.872707671037436
            ]
        },
        {
            "positions": [
                -1.4248255996524124,
                -2.054201874728197,
                2.3959989428125548,
                -0.3183440269808687,
                1.843302117727228,
                -0.7018373174232324
            ]
        },
        {
            "positions": [
                -1.502465758951923,
                -2.102812481822237,
                2.394100673733217,
                -0.26759286167291696,
                1.886893520001287,
                -0.5309669638090289
            ]
        },
        {
            "positions": [
                -1.5801059182514336,
                -2.1514230889162764,
                2.39220240465388,
                -0.21684169636496542,
                1.9304849222753466,
                -0.3600966101948253
            ]
        },
        {
            "positions": [
                -1.6577460775509443,
                -2.2000336960103164,
                2.3903041355745422,
                -0.16609053105701377,
                1.9740763245494057,
                -0.1892262565806222
            ]
        },
        {
            "positions": [
                -1.7353862368504551,
                -2.2486443031043564,
                2.3884058664952046,
                -0.115339365749062,
                2.0176677268234653,
                -0.018355902966418203
            ]
        },
        {
            "positions": [
                -1.8130263961499657,
                -2.2972549101983963,
                2.386507597415867,
                -0.06458820044111035,
                2.0612591290975244,
                0.15251445064778535
            ]
        },
        {
            "positions": [
                -1.8906665554494764,
                -2.345865517292436,
                2.3846093283365293,
                -0.013837035133158704,
                2.1048505313715835,
                0.3233848042619889
            ]
        },
        {
            "positions": [
                -1.968306714748987,
                -2.3944761243864754,
                2.3827110592571916,
                0.036914130174792836,
                2.148441933645643,
                0.494255157876192
            ]
        },
        {
            "positions": [
                -2.045946874048498,
                -2.4430867314805154,
                2.3808127901778544,
                0.0876652954827446,
                2.192033335919702,
                0.665125511490396
            ]
        },
        {
            "positions": [
                -2.1235870333480085,
                -2.4916973385745553,
                2.3789145210985168,
                0.13841646079069614,
                2.2356247381937617,
                0.8359958651045996
            ]
        },
        {
            "positions": [
                -2.2012271926475186,
                -2.5403079456685953,
                2.377016252019179,
                0.18916762609864768,
                2.279216140467821,
                1.006866218718803
            ]
        },
        {
            "positions": [
                -2.2788673519470293,
                -2.5889185527626353,
                2.3751179829398414,
                0.23991879140659944,
                2.32280754274188,
                1.1777365723330067
            ]
        },
        {
            "positions": [
                -2.3565075112465403,
                -2.6375291598566752,
                2.373219713860504,
                0.2906699567145512,
                2.3663989450159395,
                1.3486069259472102
            ]
        },
        {
            "positions": [
                -2.434147670546051,
                -2.6861397669507148,
                2.371321444781166,
                0.34142112202250274,
                2.409990347289999,
                1.5194772795614138
            ]
        },
        {
            "positions": [
                -2.5117878298455616,
                -2.7347503740447547,
                2.369423175701829,
                0.3921722873304543,
                2.4535817495640577,
                1.6903476331756173
            ]
        },
        {
            "positions": [
                -2.589427989145072,
                -2.7833609811387943,
                2.3675249066224913,
                0.44292345263840605,
                2.4971731518381173,
                1.8612179867898209
            ]
        },
        {
            "positions": [
                -2.667068148444583,
                -2.8319715882328342,
                2.3656266375431536,
                0.4936746179463578,
                2.540764554112177,
                2.0320883404040244
            ]
        },
        {
            "positions": [
                -2.7447083077440935,
                -2.880582195326874,
                2.363728368463816,
                0.5444257832543093,
                2.584355956386236,
                2.202958694018228
            ]
        },
        {
            "positions": [
                -2.6401753387113565,
                -2.851069062225999,
                2.3645908727427347,
                0.513778917083282,
                2.527196774802582,
                2.0414343403975805
            ]
        },
        {
            "positions": [
                -2.53564236967862,
                -2.821555929125123,
                2.365453377021653,
                0.4831320509122547,
                2.470037593218928,
                1.8799099867769333
            ]
        },
        {
            "positions": [
                -2.431109400645883,
                -2.7920427960242478,
                2.366315881300572,
                0.45248518474122734,
                2.412878411635274,
                1.7183856331562861
            ]
        },
        {
            "positions": [
                -2.3265764316131463,
                -2.762529662923372,
                2.36717838557949,
                0.42183831857020004,
                2.3557192300516197,
                1.5568612795356387
            ]
        },
        {
            "positions": [
                -2.2220434625804093,
                -2.7330165298224967,
                2.368040889858409,
                0.3911914523991727,
                2.298560048467966,
                1.3953369259149913
            ]
        },
        {
            "positions": [
                -2.1175104935476723,
                -2.703503396721621,
                2.3689033941373276,
                0.36054458622814534,
                2.241400866884312,
                1.233812572294344
            ]
        },
        {
            "positions": [
                -2.0129775245149357,
                -2.6739902636207455,
                2.369765898416246,
                0.32989772005711804,
                2.1842416853006577,
                1.0722882186736966
            ]
        },
        {
            "positions": [
                -1.9084445554821987,
                -2.64447713051987,
                2.3706284026951647,
                0.2992508538860907,
                2.127082503717004,
                0.9107638650530494
            ]
        },
        {
            "positions": [
                -1.8039115864494621,
                -2.6149639974189944,
                2.371490906974083,
                0.2686039877150634,
                2.0699233221333495,
                0.7492395114324022
            ]
        },
        {
            "positions": [
                -1.6993786174167251,
                -2.585450864318119,
                2.372353411253002,
                0.23795712154403603,
                2.0127641405496957,
                0.5877151578117548
            ]
        },
        {
            "positions": [
                -1.5948456483839883,
                -2.5559377312172433,
                2.3732159155319206,
                0.20731025537300873,
                1.9556049589660418,
                0.42619080419110755
            ]
        },
        {
            "positions": [
                -1.4903126793512513,
                -2.526424598116368,
                2.374078419810839,
                0.17666338920198138,
                1.8984457773823875,
                0.2646664505704601
            ]
        },
        {
            "positions": [
                -1.3857797103185148,
                -2.4969114650154927,
                2.3749409240897577,
                0.14601652303095403,
                1.8412865957987337,
                0.10314209694981269
            ]
        },
        {
            "positions": [
                -1.2812467412857778,
                -2.467398331914617,
                2.375803428368676,
                0.11536965685992667,
                1.7841274142150796,
                -0.05838225667083474
            ]
        },
        {
            "positions": [
                -1.176713772253041,
                -2.4378851988137415,
                2.3766659326475947,
                0.08472279068889937,
                1.7269682326314255,
                -0.21990661029148173
            ]
        },
        {
            "positions": [
                -1.072180803220304,
                -2.4083720657128658,
                2.3775284369265135,
                0.05407592451787202,
                1.6698090510477717,
                -0.38143096391212916
            ]
        },
        {
            "positions": [
                -0.9676478341875674,
                -2.3788589326119904,
                2.378390941205432,
                0.023429058346844722,
                1.6126498694641174,
                -0.5429553175327766
            ]
        },
        {
            "positions": [
                -0.8631148651548306,
                -2.3493457995111147,
                2.3792534454843506,
                -0.007217807824182576,
                1.5554906878804635,
                -0.7044796711534236
            ]
        },
        {
            "positions": [
                -0.7585818961220934,
                -2.3198326664102393,
                2.3801159497632693,
                -0.037864673995209985,
                1.4983315062968094,
                -0.8660040247740715
            ]
        },
        {
            "positions": [
                -0.6540489270893568,
                -2.290319533309364,
                2.3809784540421877,
                -0.06851154016623728,
                1.4411723247131554,
                -1.0275283783947184
            ]
        },
        {
            "positions": [
                -0.5495159580566198,
                -2.260806400208488,
                2.3818409583211064,
                -0.09915840633726458,
                1.3840131431295015,
                -1.1890527320153659
            ]
        },
        {
            "positions": [
                -0.4449829890238832,
                -2.231293267107613,
                2.3827034626000247,
                -0.12980527250829188,
                1.3268539615458474,
                -1.3505770856360129
            ]
        },
        {
            "positions": [
                -0.3404500199911462,
                -2.201780134006737,
                2.3835659668789435,
                -0.1604521386793193,
                1.2696947799621932,
                -1.5121014392566607
            ]
        },
        {
            "positions": [
                -0.2359170509584092,
                -2.1722670009058618,
                2.3844284711578623,
                -0.1910990048503466,
                1.2125355983785393,
                -1.6736257928773077
            ]
        },
        {
            "positions": [
                -0.13138408192567264,
                -2.142753867804986,
                2.3852909754367806,
                -0.221745871021374,
                1.1553764167948852,
                -1.8351501464979552
            ]
        },
        {
            "positions": [
                -0.02685111289293607,
                -2.1132407347041107,
                2.3861534797156994,
                -0.2523927371924013,
                1.0982172352112314,
                -1.9966745001186026
            ]
        },
        {
            "positions": [
                0.07768185613980139,
                -2.0837276016032353,
                2.3870159839946177,
                -0.2830396033634287,
                1.041058053627577,
                -2.15819885373925
            ]
        },
        {
            "positions": [
                0.18221482517253795,
                -2.0542144685023596,
                2.3878784882735364,
                -0.313686469534456,
                0.9838988720439232,
                -2.3197232073598975
            ]
        },
        {
            "positions": [
                0.28674779420527496,
                -2.0247013354014842,
                2.388740992552455,
                -0.3443333357054833,
                0.9267396904602692,
                -2.481247560980544
            ]
        },
        {
            "positions": [
                0.39128076323801153,
                -1.9951882023006084,
                2.3896034968313735,
                -0.3749802018765106,
                0.8695805088766153,
                -2.6427719146011914
            ]
        },
        {
            "positions": [
                0.49581373227074854,
                -1.9656750691997331,
                2.3904660011102923,
                -0.405627068047538,
                0.812421327292961,
                -2.8042962682218397
            ]
        },
        {
            "positions": [
                0.6003467013034856,
                -1.9361619360988573,
                2.3913285053892106,
                -0.4362739342185653,
                0.7552621457093072,
                -2.9658206218424863
            ]
        },
        {
            "positions": [
                0.7048796703362219,
                -1.906648802997982,
                2.3921910096681294,
                -0.4669208003895926,
                0.6981029641256531,
                -3.1273449754631337
            ]
        }
    ]
}