{
    "goal": {
        "global_pose": {
            "orientation": {
                "w": 0.7047431468963623,
                "x": -0.7094548344612122,
                "y": 0.0024358443915843964,
                "z": -0.0022348060738295317
            },
            "position": {
                "x": 0.6094750761985779,
                "y": 0.3671506643295288,
                "z": 0.19426114857196808
            }
        },
        "name": "move_to_magneteinheit_A"
    },
    "id": "LazyPRM_move_to_magneteinheit_A_129",
    "joint_names": [
        "shoulder_pan_joint",
        "shoulder_lift_joint",
        "elbow_joint",
        "wrist_1_joint",
        "wrist_2_joint",
        "wrist_3_joint"
    ],
    "metrics": {
        "cart_traj_len": 2.063752225369788,
        "distance_elbow_joint": 3.871759864151397,
        "distance_shoulder_lift_joint": 1.0504775807762685,
        "distance_shoulder_pan_joint": 1.2421828941135005,
        "distance_wrist_1_joint": 1.1235582857420021,
        "distance_wrist_2_joint": 1.443027976401985,
        "distance_wrist_3_joint": 1.906908391822829,
        "smoothness": 6.026924993809617e-16,
        "time": 0.071169641,
        "traj_len": 3.2615816704488605,
        "weighted_distance": 4.125326416030328
    },
    "planner": "LazyPRM",
    "start": {
        "state": {
            "elbow_joint": -1.919643507792019,
            "shoulder_lift_joint": -0.07675430207160344,
            "shoulder_pan_joint": -1.1188671864651873,
            "wrist_1_joint": 0.42560062535961957,
            "wrist_2_joint": 1.5706038300724876,
            "wrist_3_joint": 1.1188968870953055
        }
    },
    "waypoints": [
        {
            "positions": [
                -1.1188671864651873,
                -0.07675430207160344,
                -1.919643507792019,
                0.42560062535961957,
                1.5706038300724876,
                1.1188968870953055
            ]
        },
        {
            "positions": [
                -1.0728604126091317,
                -0.11566087913739116,
                -1.7762449943049303,
                0.3839873555173232,
                1.5171583494650067,
                1.1895231238294843
            ]
        },
        {
            "positions": [
                -1.0268536387530762,
                -0.15456745620317888,
                -1.6328464808178416,
                0.3423740856750268,
                1.4637128688575258,
                1.2601493605636631
            ]
        },
        {
            "positions": [
                -0.9808468648970207,
                -0.19347403326896662,
                -1.4894479673307528,
                0.30076081583273045,
                1.4102673882500447,
                1.3307755972978421
            ]
        },
        {
            "positions": [
                -0.9348400910409651,
                -0.23238061033475432,
                -1.346049453843664,
                0.2591475459904341,
                1.3568219076425638,
                1.401401834032021
            ]
        },
        {
            "positions": [
                -0.8888333171849094,
                -0.27128718740054203,
                -1.2026509403565753,
                0.2175342761481377,
                1.303376427035083,
                1.4720280707662
            ]
        },
        {
            "positions": [
                -0.842826543328854,
                -0.31019376446632974,
                -1.0592524268694865,
                0.17592100630584134,
                1.249930946427602,
                1.5426543075003787
            ]
        },
        {
            "positions": [
                -0.7968197694727983,
                -0.3491003415321175,
                -0.9158539133823977,
                0.13430773646354494,
                1.1964854658201212,
                1.6132805442345575
            ]
        },
        {
            "positions": [
                -0.7508129956167429,
                -0.3880069185979052,
                -0.772455399895309,
                0.09269446662124858,
                1.1430399852126403,
                1.6839067809687362
            ]
        },
        {
            "positions": [
                -0.7048062217606872,
                -0.4269134956636929,
                -0.6290568864082202,
                0.05108119677895223,
                1.0895945046051594,
                1.754533017702915
            ]
        },
        {
            "positions": [
                -0.6587994479046316,
                -0.46582007272948067,
                -0.48565837292113145,
                0.009467926936655824,
                1.0361490239976785,
                1.825159254437094
            ]
        },
        {
            "positions": [
                -0.6127926740485761,
                -0.5047266497952684,
                -0.3422598594340427,
                -0.03214534290564053,
                0.9827035433901974,
                1.8957854911712728
            ]
        },
        {
            "positions": [
                -0.5667859001925205,
                -0.5436332268610561,
                -0.19886134594695393,
                -0.07375861274793688,
                0.9292580627827165,
                1.9664117279054518
            ]
        },
        {
            "positions": [
                -0.520779126336465,
                -0.5825398039268439,
                -0.05546283245986516,
                -0.11537188259023329,
                0.8758125821752356,
                2.0370379646396306
            ]
        },
        {
            "positions": [
                -0.4747723524804094,
                -0.6214463809926316,
                0.0879356810272236,
                -0.1569851524325297,
                0.8223671015677546,
                2.1076642013738094
            ]
        },
        {
            "positions": [
                -0.4287655786243537,
                -0.6603529580584193,
                0.2313341945143128,
                -0.1985984222748261,
                0.7689216209602736,
                2.1782904381079886
            ]
        },
        {
            "positions": [
                -0.38275880476829827,
                -0.699259535124207,
                0.3747327080014011,
                -0.2402116921171224,
                0.7154761403527928,
                2.248916674842167
            ]
        },
        {
            "positions": [
                -0.3367520309122426,
                -0.7381661121899947,
                0.5181312214884903,
                -0.2818249619594188,
                0.6620306597453117,
                2.319542911576346
            ]
        },
        {
            "positions": [
                -0.29074525705618703,
                -0.7770726892557824,
                0.6615297349755787,
                -0.3234382318017151,
                0.608585179137831,
                2.390169148310525
            ]
        },
        {
            "positions": [
                -0.24473848320013147,
                -0.8159792663215701,
                0.8049282484626679,
                -0.3650515016440116,
                0.5551396985303498,
                2.4607953850447037
            ]
        },
        {
            "positions": [
                -0.1987317093440759,
                -0.8548858433873578,
                0.9483267619497562,
                -0.4066647714863079,
                0.5016942179228692,
                2.5314216217788825
            ]
        },
        {
            "positions": [
                -0.15272493548802035,
                -0.8937924204531456,
                1.0917252754368454,
                -0.4482780413286043,
                0.44824873731538806,
                2.6020478585130613
            ]
        },
        {
            "positions": [
                -0.10671816163196479,
                -0.9326989975189333,
                1.2351237889239337,
                -0.4898913111709006,
                0.39480325670790717,
                2.67267409524724
            ]
        },
        {
            "positions": [
                -0.06071138777590912,
                -0.971605574584721,
                1.378522302411023,
                -0.5315045810131971,
                0.3413577761004263,
                2.743300331981419
            ]
        },
        {
            "positions": [
                -0.01470461391985367,
                -1.0105121516505087,
                1.5219208158981112,
                -0.5731178508554933,
                0.2879122954929454,
                2.8139265687155977
            ]
        },
        {
            "positions": [
                0.031302159936202,
                -1.0494187287162966,
                1.6653193293852004,
                -0.6147311206977897,
                0.23446681488546428,
                2.8845528054497764
            ]
        },
        {
            "positions": [
                0.07730893379225745,
                -1.0883253057820843,
                1.8087178428722888,
                -0.6563443905400861,
                0.18102133427798361,
                2.955179042183955
            ]
        },
        {
            "positions": [
                0.12331570764831318,
                -1.127231882847872,
                1.952116356359378,
                -0.6979576603823825,
                0.1275758536705026,
                3.0258052789181344
            ]
        }
    ]
}