{
    "goal": {
        "global_pose": {
            "orientation": {
                "w": 0.7031023502349854,
                "x": -0.7110244035720825,
                "y": 0.007748599164187908,
                "z": 0.005598929710686207
            },
            "position": {
                "x": 0.11585023208521307,
                "y": 0.44412534475326537,
                "z": 0.3711530566215515
            }
        },
        "name": "move_to_auspresseinheit_A"
    },
    "id": "LazyPRMstar_move_to_auspresseinheit_A_86",
    "joint_names": [
        "shoulder_pan_joint",
        "shoulder_lift_joint",
        "elbow_joint",
        "wrist_1_joint",
        "wrist_2_joint",
        "wrist_3_joint"
    ],
    "metrics": {
        "cart_traj_len": 1.5957258685445914,
        "distance_elbow_joint": 1.147917455437407,
        "distance_shoulder_lift_joint": 0.5385857128840121,
        "distance_shoulder_pan_joint": 1.936466097748935,
        "distance_wrist_1_joint": 0.6035831614531681,
        "distance_wrist_2_joint": 0.5278573704889903,
        "distance_wrist_3_joint": 0.3353531958176039,
        "smoothness": 1.0869625023521374,
        "time": 5.016931364,
        "traj_len": 2.256050308355316,
        "weighted_distance": 2.6252447347642627
    },
    "planner": "LazyPRMstar",
    "start": {
        "state": {
            "elbow_joint": 2.422574709923281,
            "shoulder_lift_joint": -1.3736533754116391,
            "shoulder_pan_joint": -0.33786336945926293,
            "wrist_1_joint": -1.0288603412921917,
            "wrist_2_joint": 1.2330224858903978,
            "wrist_3_joint": -3.094022268022082
        }
    },
    "waypoints": [
        {
            "positions": [
                -0.33786336945926293,
                -1.3736533754116391,
                2.422574709923281,
                -1.0288603412921917,
                1.2330224858903978,
                -3.094022268022082
            ]
        },
        {
            "positions": [
                -0.4017652419239178,
                -1.4333655450855027,
                2.3387286183220404,
                -0.9465799994067765,
                1.1916651770455682,
                -3.0721903430825566
            ]
        },
        {
            "positions": [
                -0.4656671143885728,
                -1.4930777147593663,
                2.2548825267207997,
                -0.8642996575213612,
                1.1503078682007388,
                -3.0503584181430314
            ]
        },
        {
            "positions": [
                -0.5295689868532276,
                -1.55278988443323,
                2.171036435119559,
                -0.7820193156359458,
                1.1089505593559092,
                -3.028526493203506
            ]
        },
        {
            "positions": [
                -0.5934708593178826,
                -1.6125020541070934,
                2.0871903435183183,
                -0.6997389737505306,
                1.06759325051108,
                -3.0066945682639807
            ]
        },
        {
            "positions": [
                -0.6573727317825375,
                -1.672214223780957,
                2.0033442519170777,
                -0.6174586318651153,
                1.0262359416662503,
                -2.984862643324455
            ]
        },
        {
            "positions": [
                -0.7212746042471924,
                -1.7319263934548206,
                1.919498160315837,
                -0.5351782899797001,
                0.9848786328214209,
                -2.96303071838493
            ]
        },
        {
            "positions": [
                -0.7851764767118473,
                -1.7916385631286842,
                1.835652068714596,
                -0.4528979480942847,
                0.9435213239765914,
                -2.9411987934454045
            ]
        },
        {
            "positions": [
                -0.5724403352123687,
                -1.808867209581108,
                1.915794185032985,
                -0.45684377213075056,
                0.9094704370372794,
                -2.967274467908394
            ]
        },
        {
            "positions": [
                -0.35970419371289003,
                -1.8260958560335319,
                1.9959363013513738,
                -0.4607895961672165,
                0.8754195500979675,
                -2.9933501423713835
            ]
        },
        {
            "positions": [
                -0.14696805221341136,
                -1.8433245024859557,
                2.0760784176697626,
                -0.46473542020368236,
                0.8413686631586554,
                -3.019425816834373
            ]
        },
        {
            "positions": [
                0.06576808928606726,
                -1.8605531489383798,
                2.1562205339881517,
                -0.46868124424014823,
                0.8073177762193434,
                -3.045501491297362
            ]
        },
        {
            "positions": [
                0.278504230785546,
                -1.8777817953908036,
                2.2363626503065404,
                -0.4726270682766141,
                0.7732668892800314,
                -3.0715771657603517
            ]
        },
        {
            "positions": [
                0.4912403722850246,
                -1.8950104418432274,
                2.316504766624929,
                -0.47657289231308003,
                0.7392160023407195,
                -3.097652840223341
            ]
        },
        {
            "positions": [
                0.7039765137845033,
                -1.9122390882956513,
                2.396646882943318,
                -0.4805187163495459,
                0.7051651154014075,
                -3.1237285146863307
            ]
        }
    ]
}