{
    "goal": {
        "global_pose": {
            "orientation": {
                "w": 0.7031023502349854,
                "x": -0.7110244035720825,
                "y": 0.007748599164187908,
                "z": 0.005598929710686207
            },
            "position": {
                "x": 0.11585023208521307,
                "y": 0.44412534475326537,
                "z": 0.3711530566215515
            }
        },
        "name": "move_to_auspresseinheit_A"
    },
    "id": "LazyPRM_move_to_auspresseinheit_A_126",
    "joint_names": [
        "shoulder_pan_joint",
        "shoulder_lift_joint",
        "elbow_joint",
        "wrist_1_joint",
        "wrist_2_joint",
        "wrist_3_joint"
    ],
    "metrics": {
        "cart_traj_len": 0.6704988401359094,
        "distance_elbow_joint": 0.12835972304922727,
        "distance_shoulder_lift_joint": 0.5368643407343132,
        "distance_shoulder_pan_joint": 1.04672179666937,
        "distance_wrist_1_joint": 0.558806588405828,
        "distance_wrist_2_joint": 0.6056625590014284,
        "distance_wrist_3_joint": 0.1295935930425931,
        "smoothness": 0.412930051760669,
        "time": 0.09091901,
        "traj_len": 1.7337844736018255,
        "weighted_distance": 2.1046769192432366
    },
    "planner": "LazyPRM",
    "start": {
        "state": {
            "elbow_joint": 2.422574709923281,
            "shoulder_lift_joint": -1.3736533754116391,
            "shoulder_pan_joint": -0.33786336945926293,
            "wrist_1_joint": -1.0288603412921917,
            "wrist_2_joint": 1.2330224858903978,
            "wrist_3_joint": -3.094022268022082
        }
    },
    "waypoints": [
        {
            "positions": [
                -0.33786336945926293,
                -1.3736533754116391,
                2.422574709923281,
                -1.0288603412921917,
                1.2330224858903978,
                -3.094022268022082
            ]
        },
        {
            "positions": [
                -0.24796636602165026,
                -1.4828721323050793,
                2.439331717871535,
                -0.9438483781463239,
                1.2483320619263405,
                -3.0783971577533777
            ]
        },
        {
            "positions": [
                -0.1580693625840376,
                -1.5920908891985195,
                2.4560887258197885,
                -0.8588364150004563,
                1.2636416379622832,
                -3.062772047484674
            ]
        },
        {
            "positions": [
                -0.06817235914642487,
                -1.7013096460919597,
                2.4728457337680423,
                -0.7738244518545885,
                1.278951213998226,
                -3.0471469372159694
            ]
        },
        {
            "positions": [
                0.06133277191299709,
                -1.7361776577676251,
                2.459830950567298,
                -0.723196002026551,
                1.185662242182626,
                -3.060933314255383
            ]
        },
        {
            "positions": [
                0.19083790297241904,
                -1.7710456694432906,
                2.4468161673665536,
                -0.6725675521985136,
                1.092373270367026,
                -3.074719691294796
            ]
        },
        {
            "positions": [
                0.32034303403184106,
                -1.805913681118956,
                2.4338013841658093,
                -0.6219391023704761,
                0.9990842985514259,
                -3.0885060683342096
            ]
        },
        {
            "positions": [
                0.44984816509126296,
                -1.8407816927946214,
                2.420786600965065,
                -0.5713106525424387,
                0.9057953267358259,
                -3.102292445373623
            ]
        },
        {
            "positions": [
                0.5793532961506851,
                -1.875649704470287,
                2.4077718177643206,
                -0.5206822027144012,
                0.8125063549202258,
                -3.1160788224130362
            ]
        },
        {
            "positions": [
                0.7088584272101071,
                -1.9105177161459523,
                2.3947570345635762,
                -0.4700537528863638,
                0.7192173831046258,
                -3.12986519945245
            ]
        }
    ]
}