{
    "goal": {
        "global_pose": {
            "orientation": {
                "w": 0.5084816217422485,
                "x": -0.49083608388900757,
                "y": 0.5182115435600281,
                "z": -0.4816462993621826
            },
            "position": {
                "x": 0.5540239810943604,
                "y": 0.030875300988554955,
                "z": 0.16403168439865112
            }
        },
        "name": "move_to_storage_A"
    },
    "id": "LazyPRMstar_move_to_storage_A_36",
    "joint_names": [
        "shoulder_pan_joint",
        "shoulder_lift_joint",
        "elbow_joint",
        "wrist_1_joint",
        "wrist_2_joint",
        "wrist_3_joint"
    ],
    "metrics": {
        "cart_traj_len": 0.3533656772842333,
        "distance_elbow_joint": 0.44926777525753536,
        "distance_shoulder_lift_joint": 0.23371455961385124,
        "distance_shoulder_pan_joint": 0.4623318706381077,
        "distance_wrist_1_joint": 0.2451354094038124,
        "distance_wrist_2_joint": 1.0974089598039647,
        "distance_wrist_3_joint": 0.09918692187570555,
        "smoothness": 8.881784197001252e-16,
        "time": 5.000267243000001,
        "traj_len": 1.6084295124726409,
        "weighted_distance": 2.0317390850087436
    },
    "planner": "LazyPRMstar",
    "start": {
        "state": {
            "elbow_joint": 1.9715463870305268,
            "shoulder_lift_joint": -1.1394903361783484,
            "shoulder_pan_joint": 0.12281147578464417,
            "wrist_1_joint": -0.7804599489681411,
            "wrist_2_joint": 0.12958660307563738,
            "wrist_3_joint": -3.1924946282119055
        }
    },
    "waypoints": [
        {
            "positions": [
                0.12281147578464417,
                -1.1394903361783484,
                1.9715463870305268,
                -0.7804599489681411,
                0.12958660307563738,
                -3.1924946282119055
            ]
        },
        {
            "positions": [
                0.05676406569348594,
                -1.1728781304088987,
                2.035727497781603,
                -0.8154792931686857,
                0.2863593116190609,
                -3.1783250679439474
            ]
        },
        {
            "positions": [
                -0.009283344397672297,
                -1.2062659246394487,
                2.09990860853268,
                -0.8504986373692304,
                0.44313202016248443,
                -3.1641555076759897
            ]
        },
        {
            "positions": [
                -0.07533075448883055,
                -1.239653718869999,
                2.1640897192837563,
                -0.8855179815697749,
                0.5999047287059079,
                -3.1499859474080316
            ]
        },
        {
            "positions": [
                -0.14137816457998875,
                -1.273041513100549,
                2.2282708300348326,
                -0.9205373257703195,
                0.7566774372493315,
                -3.135816387140074
            ]
        },
        {
            "positions": [
                -0.20742557467114703,
                -1.3064293073310993,
                2.2924519407859094,
                -0.9555566699708642,
                0.9134501457927551,
                -3.121646826872116
            ]
        },
        {
            "positions": [
                -0.27347298476230525,
                -1.3398171015616493,
                2.3566330515369858,
                -0.9905760141714088,
                1.0702228543361785,
                -3.107477266604158
            ]
        },
        {
            "positions": [
                -0.3395203948534635,
                -1.3732048957921996,
                2.420814162288062,
                -1.0255953583719535,
                1.226995562879602,
                -3.0933077063362
            ]
        }
    ]
}