{
    "goal": {
        "global_pose": {
            "orientation": {
                "w": 0.7031023502349854,
                "x": -0.7110244035720825,
                "y": 0.007748599164187908,
                "z": 0.005598929710686207
            },
            "position": {
                "x": 0.11585023208521307,
                "y": 0.44412534475326537,
                "z": 0.3711530566215515
            }
        },
        "name": "move_to_auspresseinheit_A"
    },
    "id": "LazyPRMstar_move_to_auspresseinheit_A_98",
    "joint_names": [
        "shoulder_pan_joint",
        "shoulder_lift_joint",
        "elbow_joint",
        "wrist_1_joint",
        "wrist_2_joint",
        "wrist_3_joint"
    ],
    "metrics": {
        "cart_traj_len": 1.1349443993364916,
        "distance_elbow_joint": 0.7358943273923715,
        "distance_shoulder_lift_joint": 0.5953478231502134,
        "distance_shoulder_pan_joint": 1.0441952399011116,
        "distance_wrist_1_joint": 0.8720504736628972,
        "distance_wrist_2_joint": 0.6708398284144922,
        "distance_wrist_3_joint": 0.09534007465818872,
        "smoothness": 1.5520987283068584,
        "time": 5.011857247,
        "traj_len": 2.0034140278981964,
        "weighted_distance": 2.397339821254601
    },
    "planner": "LazyPRMstar",
    "start": {
        "state": {
            "elbow_joint": 2.422574709923281,
            "shoulder_lift_joint": -1.3736533754116391,
            "shoulder_pan_joint": -0.33786336945926293,
            "wrist_1_joint": -1.0288603412921917,
            "wrist_2_joint": 1.2330224858903978,
            "wrist_3_joint": -3.094022268022082
        }
    },
    "waypoints": [
        {
            "positions": [
                -0.33786336945926293,
                -1.3736533754116391,
                2.422574709923281,
                -1.0288603412921917,
                1.2330224858903978,
                -3.094022268022082
            ]
        },
        {
            "positions": [
                -0.3151444770907378,
                -1.4954874782454757,
                2.356879237611958,
                -1.0671803907694302,
                1.1300902121449181,
                -3.1010406162923445
            ]
        },
        {
            "positions": [
                -0.2924255847222127,
                -1.6173215810793122,
                2.2911837653006346,
                -1.1055004402466686,
                1.0271579383994387,
                -3.1080589645626064
            ]
        },
        {
            "positions": [
                -0.2697066923536876,
                -1.7391556839131488,
                2.225488292989312,
                -1.143820489723907,
                0.9242256646539592,
                -3.1150773128328684
            ]
        },
        {
            "positions": [
                -0.24698779998516246,
                -1.8609897867469853,
                2.1597928206779886,
                -1.1821405392011455,
                0.8212933909084796,
                -3.1220956611031307
            ]
        },
        {
            "positions": [
                -0.12248313579529993,
                -1.8550356482853365,
                2.230433450521195,
                -1.0833761439747207,
                0.8367929543100842,
                -3.11648315274269
            ]
        },
        {
            "positions": [
                0.0020215283945625995,
                -1.8490815098236877,
                2.3010740803644016,
                -0.9846117487482962,
                0.8522925177116887,
                -3.11087064438225
            ]
        },
        {
            "positions": [
                0.1265261925844251,
                -1.8431273713620386,
                2.3717147102076077,
                -0.8858473535218714,
                0.8677920811132932,
                -3.1052581360218094
            ]
        },
        {
            "positions": [
                0.25103085677428766,
                -1.8371732329003898,
                2.4423553400508142,
                -0.7870829582954467,
                0.8832916445148977,
                -3.0996456276613693
            ]
        },
        {
            "positions": [
                0.3755355209641501,
                -1.831219094438741,
                2.5129959698940207,
                -0.6883185630690221,
                0.8987912079165022,
                -3.0940331193009287
            ]
        },
        {
            "positions": [
                0.4858009707900496,
                -1.8572993342742818,
                2.4730262069170053,
                -0.6133357965284154,
                0.8382535691083184,
                -3.107101165892575
            ]
        },
        {
            "positions": [
                0.5960664206159492,
                -1.883379574109823,
                2.4330564439399893,
                -0.5383530299878088,
                0.7777159303001346,
                -3.1201692124842206
            ]
        },
        {
            "positions": [
                0.7063318704418486,
                -1.9094598139453638,
                2.393086680962974,
                -0.463370263447202,
                0.7171782914919508,
                -3.133237259075867
            ]
        }
    ]
}