{
    "goal": {
        "global_pose": {
            "orientation": {
                "w": 0.7031023502349854,
                "x": -0.7110244035720825,
                "y": 0.007748599164187908,
                "z": 0.005598929710686207
            },
            "position": {
                "x": 0.11585023208521307,
                "y": 0.44412534475326537,
                "z": 0.3711530566215515
            }
        },
        "name": "move_to_auspresseinheit_A"
    },
    "id": "LazyPRM_move_to_auspresseinheit_A_95",
    "joint_names": [
        "shoulder_pan_joint",
        "shoulder_lift_joint",
        "elbow_joint",
        "wrist_1_joint",
        "wrist_2_joint",
        "wrist_3_joint"
    ],
    "metrics": {
        "cart_traj_len": 1.6908087712150697,
        "distance_elbow_joint": 2.0016530027043418,
        "distance_shoulder_lift_joint": 1.0558588714950137,
        "distance_shoulder_pan_joint": 1.2582151583390953,
        "distance_wrist_1_joint": 3.7376466987037524,
        "distance_wrist_2_joint": 2.6708858436584384,
        "distance_wrist_3_joint": 2.321899440359549,
        "smoothness": 0.4576241919006966,
        "time": 0.101617819,
        "traj_len": 3.6119467071456346,
        "weighted_distance": 4.909021332031618
    },
    "planner": "LazyPRM",
    "start": {
        "state": {
            "elbow_joint": 2.422574709923281,
            "shoulder_lift_joint": -1.3736533754116391,
            "shoulder_pan_joint": -0.33786336945926293,
            "wrist_1_joint": -1.0288603412921917,
            "wrist_2_joint": 1.2330224858903978,
            "wrist_3_joint": -3.094022268022082
        }
    },
    "waypoints": [
        {
            "positions": [
                -0.33786336945926293,
                -1.3736533754116391,
                2.422574709923281,
                -1.0288603412921917,
                1.2330224858903978,
                -3.094022268022082
            ]
        },
        {
            "positions": [
                -0.3145500538631382,
                -1.3724373834063905,
                2.3572046460693445,
                -0.8708054600688657,
                1.1578280578562827,
                -3.0303892643865575
            ]
        },
        {
            "positions": [
                -0.2912367382670135,
                -1.371221391401142,
                2.291834582215408,
                -0.7127505788455398,
                1.082633629822168,
                -2.9667562607510334
            ]
        },
        {
            "positions": [
                -0.2679234226708888,
                -1.3700053993958936,
                2.2264645183614715,
                -0.5546956976222138,
                1.007439201788053,
                -2.903123257115509
            ]
        },
        {
            "positions": [
                -0.24461010707476408,
                -1.368789407390645,
                2.161094454507535,
                -0.39664081639888793,
                0.9322447737539381,
                -2.839490253479984
            ]
        },
        {
            "positions": [
                -0.22129679147863937,
                -1.3675734153853965,
                2.0957243906535985,
                -0.23858593517556193,
                0.8570503457198231,
                -2.77585724984446
            ]
        },
        {
            "positions": [
                -0.19798347588251466,
                -1.3663574233801479,
                2.030354326799662,
                -0.08053105395223592,
                0.7818559176857083,
                -2.7122242462089354
            ]
        },
        {
            "positions": [
                -0.17467016028638996,
                -1.3651414313748995,
                1.9649842629457255,
                0.07752382727108986,
                0.7066614896515934,
                -2.648591242573411
            ]
        },
        {
            "positions": [
                -0.15135684469026522,
                -1.363925439369651,
                1.899614199091789,
                0.23557870849441587,
                0.6314670616174783,
                -2.5849582389378867
            ]
        },
        {
            "positions": [
                -0.12804352909414055,
                -1.3627094473644024,
                1.8342441352378525,
                0.39363358971774187,
                0.5562726335833634,
                -2.521325235302362
            ]
        },
        {
            "positions": [
                -0.10473021349801581,
                -1.3614934553591538,
                1.768874071383916,
                0.5516884709410679,
                0.4810782055492485,
                -2.4576922316668375
            ]
        },
        {
            "positions": [
                -0.0814168979018911,
                -1.3602774633539054,
                1.7035040075299794,
                0.7097433521643937,
                0.4058837775151336,
                -2.3940592280313133
            ]
        },
        {
            "positions": [
                -0.0581035823057664,
                -1.3590614713486568,
                1.638133943676043,
                0.8677982333877199,
                0.3306893494810187,
                -2.3304262243957883
            ]
        },
        {
            "positions": [
                -0.03479026670964168,
                -1.3578454793434083,
                1.5727638798221064,
                1.0258531146110457,
                0.2554949214469038,
                -2.266793220760264
            ]
        },
        {
            "positions": [
                0.02527428626772832,
                -1.384136794564433,
                1.530720361142453,
                1.0759769876389882,
                0.1620891726716068,
                -2.220830896184018
            ]
        },
        {
            "positions": [
                0.08533883924509832,
                -1.4104281097854576,
                1.4886768424627994,
                1.1261008606669307,
                0.06868342389630983,
                -2.174868571607772
            ]
        },
        {
            "positions": [
                0.17747211112793948,
                -1.4559320953081936,
                1.4894825936617129,
                1.0447694980914672,
                -0.0041398251276312525,
                -2.137712512995427
            ]
        },
        {
            "positions": [
                0.26960538301078063,
                -1.5014360808309295,
                1.4902883448606266,
                0.9634381355160038,
                -0.07696307415157233,
                -2.1005564543830824
            ]
        },
        {
            "positions": [
                0.3617386548936218,
                -1.5469400663536654,
                1.4910940960595402,
                0.8821067729405403,
                -0.1497863231755134,
                -2.0634003957707376
            ]
        },
        {
            "positions": [
                0.45387192677646293,
                -1.5924440518764014,
                1.4918998472584537,
                0.8007754103650768,
                -0.22260957219945446,
                -2.026244337158393
            ]
        },
        {
            "positions": [
                0.5351595945180959,
                -1.634024189401277,
                1.509196861017472,
                0.6896823660891188,
                -0.26913863297358614,
                -2.0021496295276164
            ]
        },
        {
            "positions": [
                0.616447262259729,
                -1.6756043269261525,
                1.5264938747764905,
                0.5785893218131608,
                -0.31566769374771786,
                -1.9780549218968402
            ]
        },
        {
            "positions": [
                0.697734930001362,
                -1.7171844644510281,
                1.5437908885355087,
                0.4674962775372027,
                -0.3621967545218495,
                -1.953960214266064
            ]
        },
        {
            "positions": [
                0.7415929031518929,
                -1.7572782926095547,
                1.61511311314593,
                0.34948104254722623,
                -0.33920877087967666,
                -1.9960735099399383
            ]
        },
        {
            "positions": [
                0.7497316898885025,
                -1.8011345271224206,
                1.710516910200617,
                0.28296776181016753,
                -0.23449366923721102,
                -2.0676392594370494
            ]
        },
        {
            "positions": [
                0.757870476625112,
                -1.8449907616352865,
                1.805920707255304,
                0.21645448107310886,
                -0.12977856759474538,
                -2.139205008934161
            ]
        },
        {
            "positions": [
                0.7660092633617216,
                -1.8888469961481524,
                1.901324504309991,
                0.14994120033605016,
                -0.025063465952279762,
                -2.210770758431272
            ]
        },
        {
            "positions": [
                0.7741480500983311,
                -1.9327032306610183,
                1.9967283013646782,
                0.08342791959899148,
                0.0796516356901859,
                -2.2823365079283837
            ]
        },
        {
            "positions": [
                0.7822868368349407,
                -1.9765594651738843,
                2.092132098419365,
                0.01691463886193273,
                0.18436673733265158,
                -2.353902257425495
            ]
        },
        {
            "positions": [
                0.7904256235715502,
                -2.02041569968675,
                2.187535895474052,
                -0.049598641875125915,
                0.28908183897511713,
                -2.4254680069226064
            ]
        },
        {
            "positions": [
                0.7985644103081598,
                -2.064271934199616,
                2.282939692528739,
                -0.11611192261218461,
                0.3937969406175829,
                -2.4970337564197176
            ]
        },
        {
            "positions": [
                0.8067031970447693,
                -2.108128168712482,
                2.3783434895834263,
                -0.18262520334924326,
                0.49851204226004847,
                -2.568599505916829
            ]
        },
        {
            "positions": [
                0.814841983781379,
                -2.151984403225348,
                2.473747286638113,
                -0.24913848408630201,
                0.6032271439025141,
                -2.6401652554139403
            ]
        },
        {
            "positions": [
                0.7884645325067658,
                -2.090506390339137,
                2.4530761138709765,
                -0.3010000220841518,
                0.6307878201079709,
                -2.764073341777854
            ]
        },
        {
            "positions": [
                0.7620870812321526,
                -2.029028377452926,
                2.43240494110384,
                -0.35286156008200154,
                0.6583484963134276,
                -2.8879814281417673
            ]
        },
        {
            "positions": [
                0.7357096299575394,
                -1.9675503645667156,
                2.4117337683367035,
                -0.4047230980798513,
                0.6859091725188845,
                -3.011889514505681
            ]
        },
        {
            "positions": [
                0.7093321786829263,
                -1.9060723516805047,
                2.391062595569567,
                -0.45658463607770106,
                0.7134698487243413,
                -3.1357976008695947
            ]
        }
    ]
}