{
    "goal": {
        "global_pose": {
            "orientation": {
                "w": 0.7047431468963623,
                "x": -0.7094548344612122,
                "y": 0.0024358443915843964,
                "z": -0.0022348060738295317
            },
            "position": {
                "x": 0.6094750761985779,
                "y": 0.3671506643295288,
                "z": 0.19426114857196808
            }
        },
        "name": "move_to_magneteinheit_A"
    },
    "id": "LazyPRM_move_to_magneteinheit_A_124",
    "joint_names": [
        "shoulder_pan_joint",
        "shoulder_lift_joint",
        "elbow_joint",
        "wrist_1_joint",
        "wrist_2_joint",
        "wrist_3_joint"
    ],
    "metrics": {
        "cart_traj_len": 2.0643041314963972,
        "distance_elbow_joint": 3.8798127167708527,
        "distance_shoulder_lift_joint": 1.0561973222707788,
        "distance_shoulder_pan_joint": 1.2410992609263867,
        "distance_wrist_1_joint": 1.143301925626762,
        "distance_wrist_2_joint": 1.4317950786593143,
        "distance_wrist_3_joint": 1.9067195163254107,
        "smoothness": 4.440892116454754e-16,
        "time": 0.063612466,
        "traj_len": 3.264801038437029,
        "weighted_distance": 4.128857209630336
    },
    "planner": "LazyPRM",
    "start": {
        "state": {
            "elbow_joint": -1.919643507792019,
            "shoulder_lift_joint": -0.07675430207160344,
            "shoulder_pan_joint": -1.1188671864651873,
            "wrist_1_joint": 0.42560062535961957,
            "wrist_2_joint": 1.5706038300724876,
            "wrist_3_joint": 1.1188968870953055
        }
    },
    "waypoints": [
        {
            "positions": [
                -1.1188671864651873,
                -0.07675430207160344,
                -1.919643507792019,
                0.42560062535961957,
                1.5706038300724876,
                1.1188968870953055
            ]
        },
        {
            "positions": [
                -1.0729005471716175,
                -0.11587272141496562,
                -1.7759467405042098,
                0.3832561095956654,
                1.5175743827147352,
                1.1895161284406912
            ]
        },
        {
            "positions": [
                -1.0269339078780475,
                -0.1549911407583278,
                -1.6322499732164004,
                0.3409115938317113,
                1.4645449353569828,
                1.2601353697860767
            ]
        },
        {
            "positions": [
                -0.9809672685844777,
                -0.19410956010168995,
                -1.488553205928591,
                0.2985670780677572,
                1.4115154879992304,
                1.3307546111314623
            ]
        },
        {
            "positions": [
                -0.9350006292909079,
                -0.23322797944505214,
                -1.3448564386407815,
                0.256222562303803,
                1.358486040641478,
                1.4013738524768478
            ]
        },
        {
            "positions": [
                -0.889033989997338,
                -0.2723463987884143,
                -1.2011596713529724,
                0.21387804653984888,
                1.3054565932837257,
                1.4719930938222334
            ]
        },
        {
            "positions": [
                -0.843067350703768,
                -0.3114648181317765,
                -1.0574629040651629,
                0.17153353077589473,
                1.2524271459259733,
                1.542612335167619
            ]
        },
        {
            "positions": [
                -0.7971007114101982,
                -0.35058323747513864,
                -0.9137661367773535,
                0.12918901501194058,
                1.1993976985682209,
                1.6132315765130045
            ]
        },
        {
            "positions": [
                -0.7511340721166284,
                -0.38970165681850083,
                -0.7700693694895442,
                0.08684449924798648,
                1.1463682512104687,
                1.6838508178583902
            ]
        },
        {
            "positions": [
                -0.7051674328230585,
                -0.428820076161863,
                -0.6263726022017349,
                0.044499983484032335,
                1.093338803852716,
                1.7544700592037756
            ]
        },
        {
            "positions": [
                -0.6592007935294886,
                -0.4679384955052252,
                -0.4826758349139255,
                0.0021554677200781858,
                1.040309356494964,
                1.8250893005491613
            ]
        },
        {
            "positions": [
                -0.6132341542359188,
                -0.5070569148485874,
                -0.3389790676261162,
                -0.04018904804387596,
                0.9872799091372114,
                1.895708541894547
            ]
        },
        {
            "positions": [
                -0.5672675149423488,
                -0.5461753341919495,
                -0.19528230033830685,
                -0.08253356380783011,
                0.934250461779459,
                1.9663277832399326
            ]
        },
        {
            "positions": [
                -0.521300875648779,
                -0.5852937535353118,
                -0.05158553305049751,
                -0.12487807957178426,
                0.8812210144217066,
                2.0369470245853183
            ]
        },
        {
            "positions": [
                -0.4753342363552091,
                -0.6244121728786738,
                0.09211123423731205,
                -0.1672225953357384,
                0.8281915670639542,
                2.1075662659307035
            ]
        },
        {
            "positions": [
                -0.4293675970616392,
                -0.663530592222036,
                0.2358080015251216,
                -0.20956711109969256,
                0.7751621197062019,
                2.1781855072760896
            ]
        },
        {
            "positions": [
                -0.3834009577680694,
                -0.7026490115653983,
                0.3795047688129307,
                -0.2519116268636466,
                0.7221326723484496,
                2.248804748621475
            ]
        },
        {
            "positions": [
                -0.33743431847449945,
                -0.7417674309087605,
                0.5232015361007403,
                -0.29425614262760086,
                0.6691032249906971,
                2.3194239899668605
            ]
        },
        {
            "positions": [
                -0.29146767918092964,
                -0.7808858502521225,
                0.6668983033885494,
                -0.3366006583915549,
                0.6160737776329448,
                2.390043231312246
            ]
        },
        {
            "positions": [
                -0.24550103988735972,
                -0.8200042695954848,
                0.8105950706763589,
                -0.37894517415550916,
                0.5630443302751924,
                2.4606624726576314
            ]
        },
        {
            "positions": [
                -0.1995344005937899,
                -0.859122688938847,
                0.954291837964168,
                -0.4212896899194632,
                0.51001488291744,
                2.531281714003017
            ]
        },
        {
            "positions": [
                -0.15356776130021987,
                -0.8982411082822093,
                1.0979886052519776,
                -0.46363420568341746,
                0.4569854355596876,
                2.6019009553484027
            ]
        },
        {
            "positions": [
                -0.10760112200665017,
                -0.9373595276255713,
                1.2416853725397867,
                -0.5059787214473714,
                0.40395598820193523,
                2.672520196693788
            ]
        },
        {
            "positions": [
                -0.06163448271308014,
                -0.9764779469689335,
                1.3853821398275963,
                -0.5483232372113256,
                0.35092654084418284,
                2.743139438039174
            ]
        },
        {
            "positions": [
                -0.01566784341951033,
                -1.0155963663122956,
                1.5290789071154054,
                -0.5906677529752797,
                0.29789709348643045,
                2.8137586793845593
            ]
        },
        {
            "positions": [
                0.03029879587405948,
                -1.0547147856556578,
                1.672775674403215,
                -0.6330122687392339,
                0.24486764612867806,
                2.8843779207299454
            ]
        },
        {
            "positions": [
                0.07626543516762929,
                -1.09383320499902,
                1.816472441691024,
                -0.675356784503188,
                0.19183819877092567,
                2.9549971620753306
            ]
        },
        {
            "positions": [
                0.12223207446119941,
                -1.1329516243423823,
                1.9601692089788338,
                -0.7177013002671423,
                0.1388087514131734,
                3.0256164034207162
            ]
        }
    ]
}