{
    "goal": {
        "global_pose": {
            "orientation": {
                "w": 0.7047431468963623,
                "x": -0.7094548344612122,
                "y": 0.0024358443915843964,
                "z": -0.0022348060738295317
            },
            "position": {
                "x": 0.6094750761985779,
                "y": 0.3671506643295288,
                "z": 0.19426114857196808
            }
        },
        "name": "move_to_magneteinheit_A"
    },
    "id": "LazyPRMstar_move_to_magneteinheit_A_40",
    "joint_names": [
        "shoulder_pan_joint",
        "shoulder_lift_joint",
        "elbow_joint",
        "wrist_1_joint",
        "wrist_2_joint",
        "wrist_3_joint"
    ],
    "metrics": {
        "cart_traj_len": 2.0724476277133794,
        "distance_elbow_joint": 3.9096606660792985,
        "distance_shoulder_lift_joint": 1.0716869038979295,
        "distance_shoulder_pan_joint": 1.2411369258768334,
        "distance_wrist_1_joint": 1.2788917255692223,
        "distance_wrist_2_joint": 1.4327102825476101,
        "distance_wrist_3_joint": 2.0279311253493857,
        "smoothness": 5.206563182554795e-16,
        "time": 5.0004857110000005,
        "traj_len": 3.310893781038631,
        "weighted_distance": 4.21063913059952
    },
    "planner": "LazyPRMstar",
    "start": {
        "state": {
            "elbow_joint": -1.919643507792019,
            "shoulder_lift_joint": -0.07675430207160344,
            "shoulder_pan_joint": -1.1188671864651873,
            "wrist_1_joint": 0.42560062535961957,
            "wrist_2_joint": 1.5706038300724876,
            "wrist_3_joint": 1.1188968870953055
        }
    },
    "waypoints": [
        {
            "positions": [
                -1.1188671864651873,
                -0.07675430207160344,
                -1.919643507792019,
                0.42560062535961957,
                1.5706038300724876,
                1.1188968870953055
            ]
        },
        {
            "positions": [
                -1.074540867683872,
                -0.11502883435367235,
                -1.7800127697177583,
                0.3799259208750045,
                1.5194356056957872,
                1.1913229987149265
            ]
        },
        {
            "positions": [
                -1.0302145489025565,
                -0.15330336663574126,
                -1.6403820316434978,
                0.3342512163903894,
                1.468267381319087,
                1.2637491103345473
            ]
        },
        {
            "positions": [
                -0.9858882301212409,
                -0.19157789891781019,
                -1.500751293569237,
                0.2885765119057743,
                1.4170991569423865,
                1.3361752219541683
            ]
        },
        {
            "positions": [
                -0.9415619113399254,
                -0.22985243119987908,
                -1.3611205554949763,
                0.24290180742115924,
                1.365930932565686,
                1.4086013335737892
            ]
        },
        {
            "positions": [
                -0.89723559255861,
                -0.268126963481948,
                -1.2214898174207156,
                0.19722710293654416,
                1.3147627081889857,
                1.4810274451934102
            ]
        },
        {
            "positions": [
                -0.8529092737772945,
                -0.3064014957640169,
                -1.0818590793464553,
                0.15155239845192908,
                1.2635944838122855,
                1.553453556813031
            ]
        },
        {
            "positions": [
                -0.808582954995979,
                -0.3446760280460858,
                -0.9422283412721945,
                0.105877693967314,
                1.212426259435585,
                1.625879668432652
            ]
        },
        {
            "positions": [
                -0.7642566362146634,
                -0.3829505603281547,
                -0.8025976031979338,
                0.06020298948269892,
                1.1612580350588848,
                1.698305780052273
            ]
        },
        {
            "positions": [
                -0.719930317433348,
                -0.4212250926102237,
                -0.6629668651236731,
                0.014528284998083785,
                1.1100898106821844,
                1.7707318916718937
            ]
        },
        {
            "positions": [
                -0.6756039986520326,
                -0.45949962489229257,
                -0.5233361270494123,
                -0.03114641948653124,
                1.058921586305484,
                1.8431580032915147
            ]
        },
        {
            "positions": [
                -0.6312776798707171,
                -0.49777415717436146,
                -0.38370538897515183,
                -0.07682112397114632,
                1.0077533619287835,
                1.9155841149111357
            ]
        },
        {
            "positions": [
                -0.5869513610894016,
                -0.5360486894564304,
                -0.2440746509008913,
                -0.1224958284557614,
                0.9565851375520833,
                1.9880102265307564
            ]
        },
        {
            "positions": [
                -0.5426250423080861,
                -0.5743232217384993,
                -0.10444391282663035,
                -0.16817053294037648,
                0.9054169131753829,
                2.0604363381503776
            ]
        },
        {
            "positions": [
                -0.4982987235267706,
                -0.6125977540205683,
                0.03518682524763017,
                -0.21384523742499156,
                0.8542486887986825,
                2.1328624497699984
            ]
        },
        {
            "positions": [
                -0.4539724047454552,
                -0.650872286302637,
                0.1748175633218907,
                -0.25951994190960664,
                0.8030804644219822,
                2.2052885613896196
            ]
        },
        {
            "positions": [
                -0.40964608596413965,
                -0.6891468185847061,
                0.31444830139615143,
                -0.3051946463942217,
                0.7519122400452819,
                2.27771467300924
            ]
        },
        {
            "positions": [
                -0.3653197671828242,
                -0.7274213508667748,
                0.45407903947041217,
                -0.3508693508788367,
                0.7007440156685816,
                2.350140784628861
            ]
        },
        {
            "positions": [
                -0.3209934484015087,
                -0.7656958831488438,
                0.5937097775446729,
                -0.396544055363452,
                0.649575791291881,
                2.4225668962484823
            ]
        },
        {
            "positions": [
                -0.27666712962019324,
                -0.8039704154309129,
                0.7333405156189337,
                -0.44221875984806697,
                0.5984075669151807,
                2.494993007868103
            ]
        },
        {
            "positions": [
                -0.2323408108388777,
                -0.8422449477129816,
                0.8729712536931944,
                -0.48789346433268205,
                0.5472393425384803,
                2.567419119487724
            ]
        },
        {
            "positions": [
                -0.18801449205756227,
                -0.8805194799950506,
                1.0126019917674547,
                -0.5335681688172971,
                0.49607111816178007,
                2.639845231107345
            ]
        },
        {
            "positions": [
                -0.14368817327624683,
                -0.9187940122771194,
                1.1522327298417154,
                -0.5792428733019122,
                0.44490289378507963,
                2.712271342726966
            ]
        },
        {
            "positions": [
                -0.09936185449493129,
                -0.9570685445591884,
                1.2918634679159762,
                -0.6249175777865272,
                0.3937346694083794,
                2.7846974543465866
            ]
        },
        {
            "positions": [
                -0.05503553571361586,
                -0.9953430768412572,
                1.4314942059902365,
                -0.6705922822711423,
                0.342566445031679,
                2.8571235659662078
            ]
        },
        {
            "positions": [
                -0.010709216932300203,
                -1.0336176091233262,
                1.5711249440644977,
                -0.7162669867557574,
                0.29139822065497856,
                2.9295496775858285
            ]
        },
        {
            "positions": [
                0.03361710184901523,
                -1.0718921414053952,
                1.7107556821387584,
                -0.7619416912403725,
                0.24022999627827812,
                3.0019757892054493
            ]
        },
        {
            "positions": [
                0.07794342063033066,
                -1.1101666736874642,
                1.8503864202130187,
                -0.8076163957249876,
                0.1890617719015779,
                3.0744019008250705
            ]
        },
        {
            "positions": [
                0.12226973941164603,
                -1.148441205969533,
                1.9900171582872794,
                -0.8532911002096027,
                0.1378935475248774,
                3.1468280124446912
            ]
        }
    ]
}