{
    "goal": {
        "global_pose": {
            "orientation": {
                "w": 0.5084816217422485,
                "x": -0.49083608388900757,
                "y": 0.5182115435600281,
                "z": -0.4816462993621826
            },
            "position": {
                "x": 0.5540239810943604,
                "y": 0.030875300988554955,
                "z": 0.16403168439865112
            }
        },
        "name": "move_to_storage_A"
    },
    "id": "LazyPRMstar_move_to_storage_A_90",
    "joint_names": [
        "shoulder_pan_joint",
        "shoulder_lift_joint",
        "elbow_joint",
        "wrist_1_joint",
        "wrist_2_joint",
        "wrist_3_joint"
    ],
    "metrics": {
        "cart_traj_len": 0.35363019759396636,
        "distance_elbow_joint": 0.45378183546667694,
        "distance_shoulder_lift_joint": 0.2325149095578274,
        "distance_shoulder_pan_joint": 0.4634221132209137,
        "distance_wrist_1_joint": 0.2627473786538951,
        "distance_wrist_2_joint": 1.094884014814969,
        "distance_wrist_3_joint": 0.09799119095779574,
        "smoothness": 4.440892098500626e-16,
        "time": 5.001277286,
        "traj_len": 1.614107010911011,
        "weighted_distance": 2.039351666107769
    },
    "planner": "LazyPRMstar",
    "start": {
        "state": {
            "elbow_joint": 1.9715463870305268,
            "shoulder_lift_joint": -1.1394903361783484,
            "shoulder_pan_joint": 0.12281147578464417,
            "wrist_1_joint": -0.7804599489681411,
            "wrist_2_joint": 0.12958660307563738,
            "wrist_3_joint": -3.1924946282119055
        }
    },
    "waypoints": [
        {
            "positions": [
                0.12281147578464417,
                -1.1394903361783484,
                1.9715463870305268,
                -0.7804599489681411,
                0.12958660307563738,
                -3.1924946282119055
            ]
        },
        {
            "positions": [
                0.05660831675308507,
                -1.1727067518294665,
                2.0363723635257664,
                -0.8179952887758404,
                0.28599860519206155,
                -3.1784958866465063
            ]
        },
        {
            "positions": [
                -0.009594842278474028,
                -1.2059231674805848,
                2.1011983400210057,
                -0.8555306285835397,
                0.4424106073084857,
                -3.1644971450811066
            ]
        },
        {
            "positions": [
                -0.07579800131003313,
                -1.239139583131703,
                2.1660243165162454,
                -0.893065968391239,
                0.5988226094249098,
                -3.1504984035157073
            ]
        },
        {
            "positions": [
                -0.14200116034159221,
                -1.2723559987828212,
                2.230850293011485,
                -0.9306013081989383,
                0.755234611541334,
                -3.136499661950308
            ]
        },
        {
            "positions": [
                -0.20820431937315131,
                -1.3055724144339393,
                2.2956762695067248,
                -0.9681366480066376,
                0.9116466136577581,
                -3.122500920384909
            ]
        },
        {
            "positions": [
                -0.2744074784047104,
                -1.3387888300850577,
                2.360502246001964,
                -1.005671987814337,
                1.0680586157741823,
                -3.108502178819509
            ]
        },
        {
            "positions": [
                -0.3406106374362695,
                -1.3720052457361758,
                2.4253282224972037,
                -1.0432073276220362,
                1.2244706178906064,
                -3.09450343725411
            ]
        }
    ]
}