{
    "goal": {
        "global_pose": {
            "orientation": {
                "w": 0.7047431468963623,
                "x": -0.7094548344612122,
                "y": 0.0024358443915843964,
                "z": -0.0022348060738295317
            },
            "position": {
                "x": 0.6094750761985779,
                "y": 0.3671506643295288,
                "z": 0.19426114857196808
            }
        },
        "name": "move_to_magneteinheit_A"
    },
    "id": "LazyPRMstar_move_to_magneteinheit_A_101",
    "joint_names": [
        "shoulder_pan_joint",
        "shoulder_lift_joint",
        "elbow_joint",
        "wrist_1_joint",
        "wrist_2_joint",
        "wrist_3_joint"
    ],
    "metrics": {
        "cart_traj_len": 1.8648044362432983,
        "distance_elbow_joint": 3.9456553893227673,
        "distance_shoulder_lift_joint": 0.7147818844224223,
        "distance_shoulder_pan_joint": 1.2405325544184413,
        "distance_wrist_1_joint": 1.605314282147557,
        "distance_wrist_2_joint": 1.7047966888317458,
        "distance_wrist_3_joint": 1.2330587914795035,
        "smoothness": 4.440892115770691e-16,
        "time": 5.000238204,
        "traj_len": 3.2317394063603637,
        "weighted_distance": 4.027451817782647
    },
    "planner": "LazyPRMstar",
    "start": {
        "state": {
            "elbow_joint": -1.919643507792019,
            "shoulder_lift_joint": -0.07675430207160344,
            "shoulder_pan_joint": -1.1188671864651873,
            "wrist_1_joint": 0.42560062535961957,
            "wrist_2_joint": 1.5706038300724876,
            "wrist_3_joint": 1.1188968870953055
        }
    },
    "waypoints": [
        {
            "positions": [
                -1.1188671864651873,
                -0.07675430207160344,
                -1.919643507792019,
                0.42560062535961957,
                1.5706038300724876,
                1.1188968870953055
            ]
        },
        {
            "positions": [
                -1.0729215363015414,
                -0.10322770519835982,
                -1.7735081230022869,
                0.48505670988360317,
                1.5074632119676081,
                1.0732280429664351
            ]
        },
        {
            "positions": [
                -1.0269758861378955,
                -0.1297011083251162,
                -1.627372738212555,
                0.5445127944075867,
                1.4443225938627287,
                1.0275591988375645
            ]
        },
        {
            "positions": [
                -0.9810302359742494,
                -0.15617451145187258,
                -1.4812373534228227,
                0.6039688789315704,
                1.3811819757578492,
                0.9818903547086941
            ]
        },
        {
            "positions": [
                -0.9350845858106034,
                -0.18264791457862894,
                -1.3351019686330905,
                0.6634249634555539,
                1.3180413576529697,
                0.9362215105798235
            ]
        },
        {
            "positions": [
                -0.8891389356469575,
                -0.20912131770538533,
                -1.1889665838433585,
                0.7228810479795376,
                1.2549007395480902,
                0.8905526664509531
            ]
        },
        {
            "positions": [
                -0.8431932854833115,
                -0.23559472083214172,
                -1.0428311990536265,
                0.7823371325035211,
                1.1917601214432108,
                0.8448838223220826
            ]
        },
        {
            "positions": [
                -0.7972476353196656,
                -0.2620681239588981,
                -0.8966958142638943,
                0.8417932170275046,
                1.1286195033383313,
                0.7992149781932121
            ]
        },
        {
            "positions": [
                -0.7513019851560195,
                -0.2885415270856545,
                -0.7505604294741621,
                0.9012493015514883,
                1.0654788852334518,
                0.7535461340643416
            ]
        },
        {
            "positions": [
                -0.7053563349923736,
                -0.3150149302124109,
                -0.6044250446844301,
                0.960705386075472,
                1.0023382671285723,
                0.707877289935471
            ]
        },
        {
            "positions": [
                -0.6594106848287276,
                -0.3414883333391672,
                -0.45828965989469794,
                1.0201614705994555,
                0.9391976490236928,
                0.6622084458066007
            ]
        },
        {
            "positions": [
                -0.6134650346650816,
                -0.3679617364659236,
                -0.31215427510496574,
                1.079617555123439,
                0.8760570309188134,
                0.61653960167773
            ]
        },
        {
            "positions": [
                -0.5675193845014357,
                -0.39443513959268,
                -0.16601889031523376,
                1.1390736396474226,
                0.8129164128139339,
                0.5708707575488596
            ]
        },
        {
            "positions": [
                -0.5215737343377896,
                -0.4209085427194364,
                -0.019883505525501555,
                1.1985297241714061,
                0.7497757947090544,
                0.5252019134199891
            ]
        },
        {
            "positions": [
                -0.4756280841741437,
                -0.4473819458461928,
                0.12625187926423043,
                1.25798580869539,
                0.686635176604175,
                0.4795330692911186
            ]
        },
        {
            "positions": [
                -0.42968243401049766,
                -0.4738553489729492,
                0.27238726405396263,
                1.3174418932193734,
                0.6234945584992955,
                0.433864225162248
            ]
        },
        {
            "positions": [
                -0.3837367838468517,
                -0.5003287520997055,
                0.41852264884369483,
                1.376897977743357,
                0.560353940394416,
                0.3881953810333776
            ]
        },
        {
            "positions": [
                -0.3377911336832057,
                -0.5268021552264619,
                0.564658033633427,
                1.4363540622673407,
                0.4972133222895365,
                0.3425265369045071
            ]
        },
        {
            "positions": [
                -0.29184548351955986,
                -0.5532755583532183,
                0.7107934184231588,
                1.4958101467913243,
                0.43407270418465704,
                0.29685769277563656
            ]
        },
        {
            "positions": [
                -0.2458998333559138,
                -0.5797489614799747,
                0.8569288032128914,
                1.5552662313153078,
                0.37093208607977757,
                0.25118884864676605
            ]
        },
        {
            "positions": [
                -0.19995418319226788,
                -0.6062223646067311,
                1.0030641880026232,
                1.6147223158392914,
                0.3077914679748981,
                0.20552000451789565
            ]
        },
        {
            "positions": [
                -0.15400853302862183,
                -0.6326957677334875,
                1.1491995727923554,
                1.6741784003632751,
                0.24465084987001862,
                0.15985116038902503
            ]
        },
        {
            "positions": [
                -0.1080628828649759,
                -0.6591691708602438,
                1.2953349575820876,
                1.7336344848872587,
                0.18151023176513914,
                0.11418231626015451
            ]
        },
        {
            "positions": [
                -0.06211723270132996,
                -0.6856425739870002,
                1.4414703423718198,
                1.7930905694112422,
                0.11836961366025966,
                0.06851347213128411
            ]
        },
        {
            "positions": [
                -0.016171582537684026,
                -0.7121159771137566,
                1.5876057271615516,
                1.8525466539352258,
                0.05522899555538019,
                0.022844628002413714
            ]
        },
        {
            "positions": [
                0.02977406762596213,
                -0.738589380240513,
                1.7337411119512838,
                1.9120027384592095,
                -0.007911622549499286,
                -0.02282421612645691
            ]
        },
        {
            "positions": [
                0.07571971778960807,
                -0.7650627833672694,
                1.879876496741016,
                1.9714588229831929,
                -0.07105224065437876,
                -0.06849306025532731
            ]
        },
        {
            "positions": [
                0.12166536795325411,
                -0.7915361864940258,
                2.0260118815307484,
                2.0309149075071766,
                -0.13419285875925824,
                -0.11416190438419804
            ]
        }
    ]
}