{
    "goal": {
        "global_pose": {
            "orientation": {
                "w": 0.7031023502349854,
                "x": -0.7110244035720825,
                "y": 0.007748599164187908,
                "z": 0.005598929710686207
            },
            "position": {
                "x": 0.11585023208521307,
                "y": 0.44412534475326537,
                "z": 0.3711530566215515
            }
        },
        "name": "move_to_auspresseinheit_A"
    },
    "id": "LazyPRMstar_move_to_auspresseinheit_A_99",
    "joint_names": [
        "shoulder_pan_joint",
        "shoulder_lift_joint",
        "elbow_joint",
        "wrist_1_joint",
        "wrist_2_joint",
        "wrist_3_joint"
    ],
    "metrics": {
        "cart_traj_len": 0.7377515663445396,
        "distance_elbow_joint": 0.11279393737360266,
        "distance_shoulder_lift_joint": 0.5345314953769724,
        "distance_shoulder_pan_joint": 1.0407982807148835,
        "distance_wrist_1_joint": 0.8923245510991458,
        "distance_wrist_2_joint": 0.5355781394269302,
        "distance_wrist_3_joint": 1.665331345834769,
        "smoothness": 0.8969341632562805,
        "time": 5.012778591,
        "traj_len": 2.186631599018523,
        "weighted_distance": 3.0886765988076377
    },
    "planner": "LazyPRMstar",
    "start": {
        "state": {
            "elbow_joint": 2.422574709923281,
            "shoulder_lift_joint": -1.3736533754116391,
            "shoulder_pan_joint": -0.33786336945926293,
            "wrist_1_joint": -1.0288603412921917,
            "wrist_2_joint": 1.2330224858903978,
            "wrist_3_joint": -3.094022268022082
        }
    },
    "waypoints": [
        {
            "positions": [
                -0.33786336945926293,
                -1.3736533754116391,
                2.422574709923281,
                -1.0288603412921917,
                1.2330224858903978,
                -3.094022268022082
            ]
        },
        {
            "positions": [
                -0.2622005595851781,
                -1.4056750787904906,
                2.4267130539355772,
                -0.9386021042738392,
                1.186886923148659,
                -2.991626280192504
            ]
        },
        {
            "positions": [
                -0.18653774971109316,
                -1.4376967821693418,
                2.4308513979478734,
                -0.8483438672554866,
                1.14075136040692,
                -2.8892302923629263
            ]
        },
        {
            "positions": [
                -0.11087493983700827,
                -1.469718485548193,
                2.4349897419601696,
                -0.758085630237134,
                1.0946157976651811,
                -2.7868343045333486
            ]
        },
        {
            "positions": [
                -0.03521212996292339,
                -1.5017401889270445,
                2.4391280859724658,
                -0.6678273932187815,
                1.0484802349234423,
                -2.6844383167037704
            ]
        },
        {
            "positions": [
                0.040450679911161525,
                -1.533761892305896,
                2.4432664299847615,
                -0.5775691562004289,
                1.0023446721817035,
                -2.5820423288741923
            ]
        },
        {
            "positions": [
                0.11611348978524638,
                -1.5657835956847472,
                2.4474047739970577,
                -0.48731091918207636,
                0.9562091094399645,
                -2.4796463410446146
            ]
        },
        {
            "positions": [
                0.19177629965933124,
                -1.5978052990635985,
                2.451543118009354,
                -0.3970526821637238,
                0.9100735466982257,
                -2.377250353215037
            ]
        },
        {
            "positions": [
                0.26743910953341615,
                -1.62982700244245,
                2.45568146202165,
                -0.30679444514537124,
                0.8639379839564868,
                -2.2748543653854587
            ]
        },
        {
            "positions": [
                0.2790111222438555,
                -1.7152468400772645,
                2.4206114427980037,
                -0.3139352948037164,
                0.8545702861711353,
                -2.384516154010262
            ]
        },
        {
            "positions": [
                0.2905831349542949,
                -1.800666677712079,
                2.3855414235743577,
                -0.3210761444620616,
                0.8452025883857838,
                -2.4941779426350656
            ]
        },
        {
            "positions": [
                0.39367107902962634,
                -1.827546225981212,
                2.387928210281343,
                -0.36007038337097036,
                0.8082630279052048,
                -2.6508879091222
            ]
        },
        {
            "positions": [
                0.4967590231049578,
                -1.8544257742503452,
                2.3903149969883284,
                -0.39906462227987916,
                0.7713234674246257,
                -2.8075978756093347
            ]
        },
        {
            "positions": [
                0.5998469671802893,
                -1.8813053225194785,
                2.3927017836953137,
                -0.4380588611887879,
                0.7343839069440465,
                -2.9643078420964697
            ]
        },
        {
            "positions": [
                0.7029349112556207,
                -1.9081848707886115,
                2.395088570402299,
                -0.47705310009769664,
                0.6974443464634675,
                -3.1210178085836042
            ]
        }
    ]
}