{
    "goal": {
        "global_pose": {
            "orientation": {
                "w": 0.7031023502349854,
                "x": -0.7110244035720825,
                "y": 0.007748599164187908,
                "z": 0.005598929710686207
            },
            "position": {
                "x": 0.11585023208521307,
                "y": 0.44412534475326537,
                "z": 0.3711530566215515
            }
        },
        "name": "move_to_auspresseinheit_A"
    },
    "id": "LazyPRM_move_to_auspresseinheit_A_5",
    "joint_names": [
        "shoulder_pan_joint",
        "shoulder_lift_joint",
        "elbow_joint",
        "wrist_1_joint",
        "wrist_2_joint",
        "wrist_3_joint"
    ],
    "metrics": {
        "cart_traj_len": 0.7424211848390166,
        "distance_elbow_joint": 0.06408006503918928,
        "distance_shoulder_lift_joint": 0.5346766143085757,
        "distance_shoulder_pan_joint": 1.0474575802478014,
        "distance_wrist_1_joint": 0.8102859953920225,
        "distance_wrist_2_joint": 0.6635501429339616,
        "distance_wrist_3_joint": 0.0316445458641641,
        "smoothness": 0.5202574577278292,
        "time": 0.110751741,
        "traj_len": 1.7753013670320077,
        "weighted_distance": 2.1653683690864303
    },
    "planner": "LazyPRM",
    "start": {
        "state": {
            "elbow_joint": 2.422574709923281,
            "shoulder_lift_joint": -1.3736533754116391,
            "shoulder_pan_joint": -0.33786336945926293,
            "wrist_1_joint": -1.0288603412921917,
            "wrist_2_joint": 1.2330224858903978,
            "wrist_3_joint": -3.094022268022082
        }
    },
    "waypoints": [
        {
            "positions": [
                -0.33786336945926293,
                -1.3736533754116391,
                2.422574709923281,
                -1.0288603412921917,
                1.2330224858903978,
                -3.094022268022082
            ]
        },
        {
            "positions": [
                -0.19691003500110887,
                -1.4940583402913588,
                2.42704995385978,
                -1.0602140640247377,
                1.2518622024784576,
                -3.1007133040629395
            ]
        },
        {
            "positions": [
                -0.05595670054295482,
                -1.6144633051710784,
                2.431525197796278,
                -1.0915677867572837,
                1.2707019190665174,
                -3.1074043401037974
            ]
        },
        {
            "positions": [
                0.08499663391519924,
                -1.7348682700507978,
                2.4360004417327765,
                -1.12292150948983,
                1.2895416356545772,
                -3.114095376144655
            ]
        },
        {
            "positions": [
                0.22594996837335332,
                -1.8552732349305174,
                2.4404756856692753,
                -1.154275232222376,
                1.308381352242637,
                -3.1207864121855122
            ]
        },
        {
            "positions": [
                0.3226788168563904,
                -1.865884585888457,
                2.4312398678106364,
                -1.0173010113300083,
                1.1907430969262927,
                -3.121762492525659
            ]
        },
        {
            "positions": [
                0.4194076653394274,
                -1.8764959368463965,
                2.4220040499519975,
                -0.8803267904376406,
                1.0731048416099482,
                -3.122738572865806
            ]
        },
        {
            "positions": [
                0.5161365138224644,
                -1.8871072878043358,
                2.412768232093358,
                -0.743352569545273,
                0.9554665862936037,
                -3.1237146532059525
            ]
        },
        {
            "positions": [
                0.6128653623055015,
                -1.8977186387622753,
                2.403532414234719,
                -0.6063783486529053,
                0.8378283309772592,
                -3.1246907335460996
            ]
        },
        {
            "positions": [
                0.7095942107885386,
                -1.9083299897202148,
                2.3942965963760803,
                -0.4694041277605377,
                0.7201900756609148,
                -3.1256668138862462
            ]
        }
    ]
}