{
    "goal": {
        "global_pose": {
            "orientation": {
                "w": 0.7031023502349854,
                "x": -0.7110244035720825,
                "y": 0.007748599164187908,
                "z": 0.005598929710686207
            },
            "position": {
                "x": 0.11585023208521307,
                "y": 0.44412534475326537,
                "z": 0.3711530566215515
            }
        },
        "name": "move_to_auspresseinheit_A"
    },
    "id": "LazyPRMstar_move_to_auspresseinheit_A_101",
    "joint_names": [
        "shoulder_pan_joint",
        "shoulder_lift_joint",
        "elbow_joint",
        "wrist_1_joint",
        "wrist_2_joint",
        "wrist_3_joint"
    ],
    "metrics": {
        "cart_traj_len": 0.7755571989950405,
        "distance_elbow_joint": 0.13511319236264452,
        "distance_shoulder_lift_joint": 0.7120103733620553,
        "distance_shoulder_pan_joint": 1.041665804265229,
        "distance_wrist_1_joint": 0.5632235467789772,
        "distance_wrist_2_joint": 1.462201446191992,
        "distance_wrist_3_joint": 0.13118881601573396,
        "smoothness": 0.8059098716338612,
        "time": 5.008925834,
        "traj_len": 2.011318766127496,
        "weighted_distance": 2.516586140782602
    },
    "planner": "LazyPRMstar",
    "start": {
        "state": {
            "elbow_joint": 2.422574709923281,
            "shoulder_lift_joint": -1.3736533754116391,
            "shoulder_pan_joint": -0.33786336945926293,
            "wrist_1_joint": -1.0288603412921917,
            "wrist_2_joint": 1.2330224858903978,
            "wrist_3_joint": -3.094022268022082
        }
    },
    "waypoints": [
        {
            "positions": [
                -0.33786336945926293,
                -1.3736533754116391,
                2.422574709923281,
                -1.0288603412921917,
                1.2330224858903978,
                -3.094022268022082
            ]
        },
        {
            "positions": [
                -0.25465741515224705,
                -1.4650604997361025,
                2.4056809990072763,
                -1.0274196331645995,
                1.048859170975895,
                -3.082853893227624
            ]
        },
        {
            "positions": [
                -0.1714514608452311,
                -1.5564676240605657,
                2.388787288091271,
                -1.0259789250370073,
                0.8646958560613922,
                -3.071685518433166
            ]
        },
        {
            "positions": [
                -0.0882455065382152,
                -1.647874748385029,
                2.371893577175266,
                -1.0245382169094148,
                0.6805325411468893,
                -3.060517143638708
            ]
        },
        {
            "positions": [
                -0.005039552231199285,
                -1.7392818727094923,
                2.354999866259261,
                -1.0230975087818226,
                0.49636922623238655,
                -3.0493487688442498
            ]
        },
        {
            "positions": [
                0.11948121916311856,
                -1.8039369697862735,
                2.3513130845298553,
                -0.9562391620680629,
                0.4310494583812775,
                -3.0541941279669143
            ]
        },
        {
            "positions": [
                0.2440019905574364,
                -1.8685920668630547,
                2.347626302800449,
                -0.8893808153543032,
                0.36572969053016846,
                -3.059039487089579
            ]
        },
        {
            "positions": [
                0.36852276195175426,
                -1.9332471639398356,
                2.343939521071043,
                -0.8225224686405436,
                0.3004099226790594,
                -3.063884846212244
            ]
        },
        {
            "positions": [
                0.4930435333460721,
                -1.9979022610166168,
                2.3402527393416372,
                -0.7556641219267839,
                0.23509015482795034,
                -3.0687302053349086
            ]
        },
        {
            "positions": [
                0.5632965004993701,
                -1.9686484317642576,
                2.3578498132686376,
                -0.6589883461222608,
                0.3898465265377986,
                -3.091108165450656
            ]
        },
        {
            "positions": [
                0.6335494676526681,
                -1.9393946025118984,
                2.3754468871956376,
                -0.5623125703177376,
                0.5446028982476468,
                -3.113486125566404
            ]
        },
        {
            "positions": [
                0.703802434805966,
                -1.9101407732595392,
                2.393043961122638,
                -0.4656367945132145,
                0.6993592699574951,
                -3.1358640856821514
            ]
        }
    ]
}