{
    "goal": {
        "global_pose": {
            "orientation": {
                "w": 0.7031023502349854,
                "x": -0.7110244035720825,
                "y": 0.007748599164187908,
                "z": 0.005598929710686207
            },
            "position": {
                "x": 0.11585023208521307,
                "y": 0.44412534475326537,
                "z": 0.3711530566215515
            }
        },
        "name": "move_to_auspresseinheit_A"
    },
    "id": "LazyPRM_move_to_auspresseinheit_A_119",
    "joint_names": [
        "shoulder_pan_joint",
        "shoulder_lift_joint",
        "elbow_joint",
        "wrist_1_joint",
        "wrist_2_joint",
        "wrist_3_joint"
    ],
    "metrics": {
        "cart_traj_len": 0.9264931755486898,
        "distance_elbow_joint": 0.23272952986484308,
        "distance_shoulder_lift_joint": 1.1434779374980146,
        "distance_shoulder_pan_joint": 1.0452462547527266,
        "distance_wrist_1_joint": 0.5459212999358682,
        "distance_wrist_2_joint": 0.694405215691847,
        "distance_wrist_3_joint": 0.5425547373804886,
        "smoothness": 1.3041665048227356,
        "time": 2.271797304,
        "traj_len": 2.0504475060639296,
        "weighted_distance": 2.5553416533826705
    },
    "planner": "LazyPRM",
    "start": {
        "state": {
            "elbow_joint": 2.422574709923281,
            "shoulder_lift_joint": -1.3736533754116391,
            "shoulder_pan_joint": -0.33786336945926293,
            "wrist_1_joint": -1.0288603412921917,
            "wrist_2_joint": 1.2330224858903978,
            "wrist_3_joint": -3.094022268022082
        }
    },
    "waypoints": [
        {
            "positions": [
                -0.33786336945926293,
                -1.3736533754116391,
                2.422574709923281,
                -1.0288603412921917,
                1.2330224858903978,
                -3.094022268022082
            ]
        },
        {
            "positions": [
                -0.23800082514504697,
                -1.467052547159893,
                2.408299514831019,
                -0.9734271134162561,
                1.1654340384883572,
                -3.0654721860408944
            ]
        },
        {
            "positions": [
                -0.13813828083083102,
                -1.560451718908147,
                2.394024319738757,
                -0.9179938855403206,
                1.0978455910863167,
                -3.0369221040597068
            ]
        },
        {
            "positions": [
                -0.03827573651661503,
                -1.653850890656401,
                2.379749124646495,
                -0.8625606576643849,
                1.0302571436842762,
                -3.0083720220785186
            ]
        },
        {
            "positions": [
                0.061586807797600895,
                -1.7472500624046547,
                2.365473929554233,
                -0.8071274297884494,
                0.9626686962822358,
                -2.979821940097331
            ]
        },
        {
            "positions": [
                0.16144935211181694,
                -1.8406492341529088,
                2.351198734461971,
                -0.7516942019125137,
                0.8950802488801953,
                -2.9512718581161432
            ]
        },
        {
            "positions": [
                0.26131189642603286,
                -1.9340484059011627,
                2.336923539369709,
                -0.6962609740365782,
                0.8274918014781549,
                -2.9227217761349555
            ]
        },
        {
            "positions": [
                0.3611744407402488,
                -2.0274475776494167,
                2.3226483442774466,
                -0.6408277461606426,
                0.7599033540761144,
                -2.8941716941537674
            ]
        },
        {
            "positions": [
                0.4610369850544647,
                -2.1208467493976704,
                2.3083731491851847,
                -0.585394518284707,
                0.6923149066740739,
                -2.8656216121725797
            ]
        },
        {
            "positions": [
                0.5608995293686807,
                -2.2142459211459244,
                2.2940979540929227,
                -0.5299612904087714,
                0.6247264592720334,
                -2.837071530191392
            ]
        },
        {
            "positions": [
                0.6097273146769416,
                -2.113284123891348,
                2.328848878771084,
                -0.5142872073912887,
                0.6534295222965276,
                -2.932272863374658
            ]
        },
        {
            "positions": [
                0.6585550999852027,
                -2.0123223266367716,
                2.363599803449246,
                -0.49861312437380617,
                0.6821325853210218,
                -3.0274741965579244
            ]
        },
        {
            "positions": [
                0.7073828852934636,
                -1.9113605293821951,
                2.3983507281274075,
                -0.48293904135632354,
                0.710835648345516,
                -3.1226755297411906
            ]
        }
    ]
}