{
    "goal": {
        "global_pose": {
            "orientation": {
                "w": 0.7047431468963623,
                "x": -0.7094548344612122,
                "y": 0.0024358443915843964,
                "z": -0.0022348060738295317
            },
            "position": {
                "x": 0.6094750761985779,
                "y": 0.3671506643295288,
                "z": 0.19426114857196808
            }
        },
        "name": "move_to_magneteinheit_A"
    },
    "id": "LazyPRM_move_to_magneteinheit_A_104",
    "joint_names": [
        "shoulder_pan_joint",
        "shoulder_lift_joint",
        "elbow_joint",
        "wrist_1_joint",
        "wrist_2_joint",
        "wrist_3_joint"
    ],
    "metrics": {
        "cart_traj_len": 2.358121093605661,
        "distance_elbow_joint": 3.8770705695374987,
        "distance_shoulder_lift_joint": 1.0548245885257397,
        "distance_shoulder_pan_joint": 1.241265458929174,
        "distance_wrist_1_joint": 1.1388852977935842,
        "distance_wrist_2_joint": 2.2810598787322567,
        "distance_wrist_3_joint": 4.367410904190194,
        "smoothness": 0.0881515799804332,
        "time": 0.13379015,
        "traj_len": 3.7363774832996257,
        "weighted_distance": 5.110311505438261
    },
    "planner": "LazyPRM",
    "start": {
        "state": {
            "elbow_joint": -1.919643507792019,
            "shoulder_lift_joint": -0.07675430207160344,
            "shoulder_pan_joint": -1.1188671864651873,
            "wrist_1_joint": 0.42560062535961957,
            "wrist_2_joint": 1.5706038300724876,
            "wrist_3_joint": 1.1188968870953055
        }
    },
    "waypoints": [
        {
            "positions": [
                -1.1188671864651873,
                -0.07675430207160344,
                -1.919643507792019,
                0.42560062535961957,
                1.5706038300724876,
                1.1188968870953055
            ]
        },
        {
            "positions": [
                -1.0936765510877928,
                -0.1431618989513017,
                -1.8376213488141513,
                0.41796965845045897,
                1.6090062593631995,
                0.9742261442592927
            ]
        },
        {
            "positions": [
                -1.0684859157103983,
                -0.20956949583099999,
                -1.7555991898362835,
                0.4103386915412983,
                1.6474086886539117,
                0.8295554014232798
            ]
        },
        {
            "positions": [
                -1.043295280333004,
                -0.27597709271069826,
                -1.673577030858416,
                0.4027077246321377,
                1.6858111179446236,
                0.684884658587267
            ]
        },
        {
            "positions": [
                -1.0181046449556095,
                -0.34238468959039653,
                -1.5915548718805481,
                0.3950767577229771,
                1.7242135472353355,
                0.540213915751254
            ]
        },
        {
            "positions": [
                -0.992914009578215,
                -0.4087922864700948,
                -1.5095327129026803,
                0.38744579081381647,
                1.7626159765260474,
                0.3955431729152412
            ]
        },
        {
            "positions": [
                -0.9677233742008204,
                -0.4751998833497931,
                -1.4275105539248125,
                0.3798148239046559,
                1.8010184058167593,
                0.2508724300792283
            ]
        },
        {
            "positions": [
                -0.9425327388234259,
                -0.5416074802294915,
                -1.345488394946945,
                0.3721838569954953,
                1.8394208351074715,
                0.10620168724321544
            ]
        },
        {
            "positions": [
                -0.9173421034460315,
                -0.6080150771091897,
                -1.263466235969077,
                0.3645528900863346,
                1.8778232643981834,
                -0.03846905559279756
            ]
        },
        {
            "positions": [
                -0.892151468068637,
                -0.6744226739888879,
                -1.1814440769912093,
                0.356921923177174,
                1.9162256936888955,
                -0.18313979842881034
            ]
        },
        {
            "positions": [
                -0.8669608326912426,
                -0.7408302708685861,
                -1.0994219180133415,
                0.34929095626801343,
                1.9546281229796074,
                -0.3278105412648231
            ]
        },
        {
            "positions": [
                -0.8417701973138481,
                -0.8072378677482844,
                -1.0173997590354737,
                0.3416599893588528,
                1.9930305522703193,
                -0.4724812841008362
            ]
        },
        {
            "positions": [
                -0.8046867946300852,
                -0.8197125224732482,
                -0.9029833428515909,
                0.3010851946745136,
                1.9215446616343799,
                -0.5792517738313766
            ]
        },
        {
            "positions": [
                -0.7676033919463223,
                -0.832187177198212,
                -0.788566926667708,
                0.2605103999901745,
                1.8500587709984404,
                -0.686022263561917
            ]
        },
        {
            "positions": [
                -0.7305199892625593,
                -0.8446618319231758,
                -0.6741505104838252,
                0.21993560530583534,
                1.7785728803625012,
                -0.7927927532924575
            ]
        },
        {
            "positions": [
                -0.6934365865787965,
                -0.8571364866481397,
                -0.5597340942999423,
                0.1793608106214962,
                1.7070869897265617,
                -0.8995632430229978
            ]
        },
        {
            "positions": [
                -0.6563531838950336,
                -0.8696111413731035,
                -0.4453176781160595,
                0.13878601593715703,
                1.6356010990906222,
                -1.0063337327535382
            ]
        },
        {
            "positions": [
                -0.6192697812112707,
                -0.8820857960980673,
                -0.3309012619321766,
                0.09821122125281789,
                1.5641152084546828,
                -1.1131042224840786
            ]
        },
        {
            "positions": [
                -0.5821863785275079,
                -0.894560450823031,
                -0.21648484574829385,
                0.05763642656847878,
                1.4926293178187433,
                -1.219874712214619
            ]
        },
        {
            "positions": [
                -0.5451029758437449,
                -0.9070351055479948,
                -0.10206842956441087,
                0.017061631884139616,
                1.421143427182804,
                -1.3266452019451596
            ]
        },
        {
            "positions": [
                -0.5080195731599821,
                -0.9195097602729586,
                0.012347986619471785,
                -0.023513162800199494,
                1.3496575365468646,
                -1.4334156916757
            ]
        },
        {
            "positions": [
                -0.47093617047621916,
                -0.9319844149979224,
                0.12676440280335477,
                -0.06408795748453872,
                1.2781716459109251,
                -1.5401861814062403
            ]
        },
        {
            "positions": [
                -0.4338527677924563,
                -0.9444590697228862,
                0.24118081898723753,
                -0.10466275216887783,
                1.206685755274986,
                -1.6469566711367807
            ]
        },
        {
            "positions": [
                -0.3967693651086934,
                -0.95693372444785,
                0.3555972351711205,
                -0.145237546853217,
                1.1351998646390462,
                -1.753727160867321
            ]
        },
        {
            "positions": [
                -0.3596859624249305,
                -0.9694083791728139,
                0.4700136513550033,
                -0.1858123415375561,
                1.063713974003107,
                -1.8604976505978614
            ]
        },
        {
            "positions": [
                -0.3226025597411677,
                -0.9818830338977775,
                0.584430067538886,
                -0.2263871362218952,
                0.9922280833671675,
                -1.9672681403284018
            ]
        },
        {
            "positions": [
                -0.2855191570574048,
                -0.9943576886227414,
                0.6988464837227688,
                -0.2669619309062343,
                0.9207421927312283,
                -2.074038630058942
            ]
        },
        {
            "positions": [
                -0.24843575437364185,
                -1.006832343347705,
                0.813262899906652,
                -0.30753672559057355,
                0.8492563020952886,
                -2.1808091197894828
            ]
        },
        {
            "positions": [
                -0.21135235168987898,
                -1.019306998072669,
                0.9276793160905348,
                -0.34811152027491266,
                0.7777704114593493,
                -2.2875796095200234
            ]
        },
        {
            "positions": [
                -0.17426894900611611,
                -1.031781652797633,
                1.0420957322744173,
                -0.38868631495925177,
                0.7062845208234099,
                -2.3943500992505635
            ]
        },
        {
            "positions": [
                -0.13718554632235325,
                -1.0442563075225966,
                1.1565121484583,
                -0.4292611096435909,
                0.6347986301874706,
                -2.501120588981104
            ]
        },
        {
            "positions": [
                -0.10010214363859027,
                -1.0567309622475605,
                1.2709285646421833,
                -0.4698359043279302,
                0.5633127395515309,
                -2.6078910787116447
            ]
        },
        {
            "positions": [
                -0.0630187409548274,
                -1.0692056169725241,
                1.385344980826066,
                -0.5104106990122693,
                0.4918268489155917,
                -2.714661568442185
            ]
        },
        {
            "positions": [
                -0.025935338271064534,
                -1.081680271697488,
                1.4997613970099488,
                -0.5509854936966084,
                0.42034095827965223,
                -2.8214320581727255
            ]
        },
        {
            "positions": [
                0.011148064412698333,
                -1.0941549264224517,
                1.6141778131938316,
                -0.5915602883809475,
                0.348855067643713,
                -2.9282025479032656
            ]
        },
        {
            "positions": [
                0.04823146709646131,
                -1.1066295811474156,
                1.7285942293777148,
                -0.6321350830652868,
                0.2773691770077733,
                -3.034973037633806
            ]
        },
        {
            "positions": [
                0.08531486978022418,
                -1.1191042358723795,
                1.8430106455615975,
                -0.6727098777496259,
                0.20588328637183406,
                -3.141743527364347
            ]
        },
        {
            "positions": [
                0.12239827246398705,
                -1.1315788905973432,
                1.9574270617454803,
                -0.7132846724339651,
                0.13439739573589457,
                -3.248514017094887
            ]
        }
    ]
}