{
    "goal": {
        "global_pose": {
            "orientation": {
                "w": 0.7031023502349854,
                "x": -0.7110244035720825,
                "y": 0.007748599164187908,
                "z": 0.005598929710686207
            },
            "position": {
                "x": 0.11585023208521307,
                "y": 0.44412534475326537,
                "z": 0.3711530566215515
            }
        },
        "name": "move_to_auspresseinheit_A"
    },
    "id": "LazyPRM_move_to_auspresseinheit_A_76",
    "joint_names": [
        "shoulder_pan_joint",
        "shoulder_lift_joint",
        "elbow_joint",
        "wrist_1_joint",
        "wrist_2_joint",
        "wrist_3_joint"
    ],
    "metrics": {
        "cart_traj_len": 1.0131290939006228,
        "distance_elbow_joint": 0.5841883699032087,
        "distance_shoulder_lift_joint": 0.9451615660069148,
        "distance_shoulder_pan_joint": 1.0556042264107823,
        "distance_wrist_1_joint": 2.005796534849612,
        "distance_wrist_2_joint": 0.5262334612745404,
        "distance_wrist_3_joint": 0.04892931063489936,
        "smoothness": 1.3816765925187346,
        "time": 0.051332828,
        "traj_len": 2.2728645954125724,
        "weighted_distance": 2.7920963605280367
    },
    "planner": "LazyPRM",
    "start": {
        "state": {
            "elbow_joint": 2.422574709923281,
            "shoulder_lift_joint": -1.3736533754116391,
            "shoulder_pan_joint": -0.33786336945926293,
            "wrist_1_joint": -1.0288603412921917,
            "wrist_2_joint": 1.2330224858903978,
            "wrist_3_joint": -3.094022268022082
        }
    },
    "waypoints": [
        {
            "positions": [
                -0.33786336945926293,
                -1.3736533754116391,
                2.422574709923281,
                -1.0288603412921917,
                1.2330224858903978,
                -3.094022268022082
            ]
        },
        {
            "positions": [
                -0.304380925763216,
                -1.4085071447015136,
                2.380255092544282,
                -0.9573618178852565,
                1.2373360797167745,
                -3.1047385649663477
            ]
        },
        {
            "positions": [
                -0.19400895717957067,
                -1.4870199889823152,
                2.3510183985113358,
                -0.8233715632472327,
                1.1973397632731886,
                -3.103973233346132
            ]
        },
        {
            "positions": [
                -0.0836369885959253,
                -1.5655328332631169,
                2.321781704478389,
                -0.6893813086092089,
                1.1573434468296024,
                -3.1032079017259164
            ]
        },
        {
            "positions": [
                0.026734979987720064,
                -1.6440456775439187,
                2.292545010445443,
                -0.5553910539711852,
                1.1173471303860165,
                -3.102442570105701
            ]
        },
        {
            "positions": [
                0.1371069485713654,
                -1.7225585218247204,
                2.263308316412496,
                -0.4214007993331613,
                1.0773508139424304,
                -3.101677238485485
            ]
        },
        {
            "positions": [
                0.24747891715501086,
                -1.801071366105522,
                2.23407162237955,
                -0.2874105446951375,
                1.0373544974988445,
                -3.100911906865269
            ]
        },
        {
            "positions": [
                0.35785088573865614,
                -1.8795842103863236,
                2.204834928346603,
                -0.15342029005711377,
                0.9973581810552584,
                -3.1001465752450534
            ]
        },
        {
            "positions": [
                0.46822285432230154,
                -1.9580970546671255,
                2.175598234313657,
                -0.01943003541908983,
                0.9573618646116724,
                -3.099381243624838
            ]
        },
        {
            "positions": [
                0.5785948229059468,
                -2.036609898947927,
                2.1463615402807106,
                0.11456021921893389,
                0.9173655481680864,
                -3.098615912004622
            ]
        },
        {
            "positions": [
                0.6889667914895923,
                -2.1151227432287287,
                2.117124846247764,
                0.24855047385695767,
                0.8773692317245003,
                -3.0978505803844065
            ]
        },
        {
            "positions": [
                0.7012378433426183,
                -2.085396221609288,
                2.171046283522509,
                0.13396261428510142,
                0.8419996737243323,
                -3.098915522847572
            ]
        },
        {
            "positions": [
                0.7135088951956444,
                -2.0556696999898474,
                2.2249677207972547,
                0.019374754713245207,
                0.8066301157241642,
                -3.099980465310738
            ]
        },
        {
            "positions": [
                0.7120982412770196,
                -2.007589981672866,
                2.2819329313566548,
                -0.14702857880567138,
                0.7762254812389797,
                -3.1097121800381915
            ]
        },
        {
            "positions": [
                0.7106875873583948,
                -1.9595102633558847,
                2.3388981419160553,
                -0.313431912324588,
                0.7458208467537953,
                -3.1194438947656455
            ]
        },
        {
            "positions": [
                0.7092769334397699,
                -1.9114305450389035,
                2.3958633524754553,
                -0.47983524584350457,
                0.7154162122686109,
                -3.129175609493099
            ]
        }
    ]
}