{
    "goal": {
        "global_pose": {
            "orientation": {
                "w": 0.7047431468963623,
                "x": -0.7094548344612122,
                "y": 0.0024358443915843964,
                "z": -0.0022348060738295317
            },
            "position": {
                "x": 0.6094750761985779,
                "y": 0.3671506643295288,
                "z": 0.19426114857196808
            }
        },
        "name": "move_to_magneteinheit_A"
    },
    "id": "LazyPRMstar_move_to_magneteinheit_A_35",
    "joint_names": [
        "shoulder_pan_joint",
        "shoulder_lift_joint",
        "elbow_joint",
        "wrist_1_joint",
        "wrist_2_joint",
        "wrist_3_joint"
    ],
    "metrics": {
        "cart_traj_len": 1.8708550629343468,
        "distance_elbow_joint": 3.929807100503065,
        "distance_shoulder_lift_joint": 0.7078046708277095,
        "distance_shoulder_pan_joint": 1.2417634639504431,
        "distance_wrist_1_joint": 1.5529209352705753,
        "distance_wrist_2_joint": 1.7073741998593575,
        "distance_wrist_3_joint": 1.186641915562751,
        "smoothness": 3.4892723817896226e-16,
        "time": 5.001287927000001,
        "traj_len": 3.2134579950535995,
        "weighted_distance": 3.9949832605693527
    },
    "planner": "LazyPRMstar",
    "start": {
        "state": {
            "elbow_joint": -1.919643507792019,
            "shoulder_lift_joint": -0.07675430207160344,
            "shoulder_pan_joint": -1.1188671864651873,
            "wrist_1_joint": 0.42560062535961957,
            "wrist_2_joint": 1.5706038300724876,
            "wrist_3_joint": 1.1188968870953055
        }
    },
    "waypoints": [
        {
            "positions": [
                -1.1188671864651873,
                -0.07675430207160344,
                -1.919643507792019,
                0.42560062535961957,
                1.5706038300724876,
                1.1188968870953055
            ]
        },
        {
            "positions": [
                -1.0728759470596154,
                -0.10296928988003712,
                -1.774095096662276,
                0.48311621555482603,
                1.5073677485962151,
                1.0749471865189073
            ]
        },
        {
            "positions": [
                -1.0268847076540435,
                -0.1291842776884708,
                -1.6285466855325328,
                0.5406318057500326,
                1.4441316671199427,
                1.0309974859425093
            ]
        },
        {
            "positions": [
                -0.9808934682484715,
                -0.15539926549690447,
                -1.4829982744027896,
                0.598147395945239,
                1.3808955856436702,
                0.987047785366111
            ]
        },
        {
            "positions": [
                -0.9349022288428994,
                -0.18161425330533817,
                -1.3374498632730467,
                0.6556629861404455,
                1.3176595041673975,
                0.9430980847897128
            ]
        },
        {
            "positions": [
                -0.8889109894373275,
                -0.20782924111377185,
                -1.1919014521433033,
                0.713178576335652,
                1.254423422691125,
                0.8991483842133147
            ]
        },
        {
            "positions": [
                -0.8429197500317556,
                -0.23404422892220553,
                -1.0463530410135604,
                0.7706941665308584,
                1.1911873412148526,
                0.8551986836369164
            ]
        },
        {
            "positions": [
                -0.7969285106261836,
                -0.26025921673063923,
                -0.9008046298838173,
                0.828209756726065,
                1.1279512597385801,
                0.8112489830605183
            ]
        },
        {
            "positions": [
                -0.7509372712206116,
                -0.2864742045390729,
                -0.7552562187540741,
                0.8857253469212715,
                1.0647151782623077,
                0.76729928248412
            ]
        },
        {
            "positions": [
                -0.7049460318150397,
                -0.3126891923475066,
                -0.609707807624331,
                0.943240937116478,
                1.0014790967860352,
                0.7233495819077219
            ]
        },
        {
            "positions": [
                -0.6589547924094676,
                -0.33890418015594026,
                -0.4641593964945878,
                1.0007565273116845,
                0.9382430153097626,
                0.6793998813313238
            ]
        },
        {
            "positions": [
                -0.6129635530038957,
                -0.36511916796437394,
                -0.31861098536484467,
                1.058272117506891,
                0.8750069338334902,
                0.6354501807549255
            ]
        },
        {
            "positions": [
                -0.5669723135983238,
                -0.3913341557728076,
                -0.17306257423510152,
                1.1157877077020975,
                0.8117708523572177,
                0.5915004801785273
            ]
        },
        {
            "positions": [
                -0.5209810741927517,
                -0.41754914358124134,
                -0.02751416310535837,
                1.173303297897304,
                0.7485347708809452,
                0.5475507796021292
            ]
        },
        {
            "positions": [
                -0.4749898347871798,
                -0.443764131389675,
                0.11803424802438456,
                1.2308188880925104,
                0.6852986894046726,
                0.503601079025731
            ]
        },
        {
            "positions": [
                -0.4289985953816078,
                -0.46997911919810875,
                0.26358265915412793,
                1.288334478287717,
                0.6220626079284001,
                0.4596513784493328
            ]
        },
        {
            "positions": [
                -0.38300735597603586,
                -0.4961941070065424,
                0.40913107028387086,
                1.3458500684829233,
                0.5588265264521277,
                0.41570167787293466
            ]
        },
        {
            "positions": [
                -0.3370161165704638,
                -0.5224090948149761,
                0.5546794814136142,
                1.40336565867813,
                0.495590444975855,
                0.3717519772965364
            ]
        },
        {
            "positions": [
                -0.291024877164892,
                -0.5486240826234097,
                0.7002278925433572,
                1.4608812488733365,
                0.4323543634995828,
                0.3278022767201383
            ]
        },
        {
            "positions": [
                -0.24503363775931997,
                -0.5748390704318435,
                0.8457763036731005,
                1.518396839068543,
                0.3691182820233101,
                0.28385257614374004
            ]
        },
        {
            "positions": [
                -0.19904239835374804,
                -0.601054058240277,
                0.9913247148028435,
                1.5759124292637494,
                0.30588220054703763,
                0.2399028755673419
            ]
        },
        {
            "positions": [
                -0.153051158948176,
                -0.6272690460487109,
                1.1368731259325868,
                1.6334280194589559,
                0.24264611907076516,
                0.19595317499094367
            ]
        },
        {
            "positions": [
                -0.10705991954260408,
                -0.6534840338571444,
                1.2824215370623298,
                1.6909436096541623,
                0.1794100375944927,
                0.15200347441454554
            ]
        },
        {
            "positions": [
                -0.06106868013703215,
                -0.6796990216655783,
                1.4279699481920731,
                1.748459199849369,
                0.11617395611822023,
                0.1080537738381473
            ]
        },
        {
            "positions": [
                -0.015077440731460223,
                -0.7059140094740117,
                1.573518359321816,
                1.8059747900445753,
                0.05293787464194777,
                0.06410407326174905
            ]
        },
        {
            "positions": [
                0.030913798674111925,
                -0.7321289972824456,
                1.7190667704515594,
                1.863490380239782,
                -0.010298206834324919,
                0.020154372685350808
            ]
        },
        {
            "positions": [
                0.07690503807968385,
                -0.7583439850908793,
                1.8646151815813024,
                1.9210059704349884,
                -0.07353428831059716,
                -0.023795327891047213
            ]
        },
        {
            "positions": [
                0.12289627748525578,
                -0.784558972899313,
                2.010163592711046,
                1.978521560630195,
                -0.13677036978686993,
                -0.06774502846744548
            ]
        }
    ]
}