{
    "goal": {
        "global_pose": {
            "orientation": {
                "w": 0.7047431468963623,
                "x": -0.7094548344612122,
                "y": 0.0024358443915843964,
                "z": -0.0022348060738295317
            },
            "position": {
                "x": 0.6094750761985779,
                "y": 0.3671506643295288,
                "z": 0.19426114857196808
            }
        },
        "name": "move_to_magneteinheit_A"
    },
    "id": "LazyPRM_move_to_magneteinheit_A_111",
    "joint_names": [
        "shoulder_pan_joint",
        "shoulder_lift_joint",
        "elbow_joint",
        "wrist_1_joint",
        "wrist_2_joint",
        "wrist_3_joint"
    ],
    "metrics": {
        "cart_traj_len": 1.8779902903973453,
        "distance_elbow_joint": 3.9150425587343762,
        "distance_shoulder_lift_joint": 0.7013950868824255,
        "distance_shoulder_pan_joint": 1.2418409108320858,
        "distance_wrist_1_joint": 1.5054519587839852,
        "distance_wrist_2_joint": 1.6926426719614125,
        "distance_wrist_3_joint": 1.1283117176770057,
        "smoothness": 4.2764146379544185e-16,
        "time": 0.088274356,
        "traj_len": 3.191345312696715,
        "weighted_distance": 3.954668503297173
    },
    "planner": "LazyPRM",
    "start": {
        "state": {
            "elbow_joint": -1.919643507792019,
            "shoulder_lift_joint": -0.07675430207160344,
            "shoulder_pan_joint": -1.1188671864651873,
            "wrist_1_joint": 0.42560062535961957,
            "wrist_2_joint": 1.5706038300724876,
            "wrist_3_joint": 1.1188968870953055
        }
    },
    "waypoints": [
        {
            "positions": [
                -1.1188671864651873,
                -0.07675430207160344,
                -1.919643507792019,
                0.42560062535961957,
                1.5706038300724876,
                1.1188968870953055
            ]
        },
        {
            "positions": [
                -1.071104074510107,
                -0.10373103618246596,
                -1.769064947840697,
                0.48350262377438824,
                1.5055021888432025,
                1.0755002825692668
            ]
        },
        {
            "positions": [
                -1.023340962555027,
                -0.13070777029332847,
                -1.6184863878893747,
                0.5414046221891569,
                1.4404005476139174,
                1.0321036780432282
            ]
        },
        {
            "positions": [
                -0.9755778505999466,
                -0.15768450440419102,
                -1.4679078279380526,
                0.5993066206039256,
                1.3752989063846324,
                0.9887070735171894
            ]
        },
        {
            "positions": [
                -0.9278147386448664,
                -0.1846612385150535,
                -1.3173292679867306,
                0.6572086190186942,
                1.3101972651553473,
                0.9453104689911508
            ]
        },
        {
            "positions": [
                -0.8800516266897862,
                -0.21163797262591605,
                -1.1667507080354083,
                0.7151106174334629,
                1.245095623926062,
                0.9019138644651121
            ]
        },
        {
            "positions": [
                -0.832288514734706,
                -0.23861470673677856,
                -1.016172148084086,
                0.7730126158482316,
                1.179993982696777,
                0.8585172599390735
            ]
        },
        {
            "positions": [
                -0.7845254027796258,
                -0.2655914408476411,
                -0.8655935881327641,
                0.8309146142630002,
                1.1148923414674918,
                0.8151206554130348
            ]
        },
        {
            "positions": [
                -0.7367622908245455,
                -0.2925681749585036,
                -0.7150150281814418,
                0.8888166126777689,
                1.0497907002382068,
                0.771724050886996
            ]
        },
        {
            "positions": [
                -0.6889991788694654,
                -0.31954490906936606,
                -0.5644364682301197,
                0.9467186110925374,
                0.9846890590089218,
                0.7283274463609575
            ]
        },
        {
            "positions": [
                -0.6412360669143851,
                -0.34652164318022866,
                -0.4138579082787974,
                1.0046206095073063,
                0.9195874177796366,
                0.6849308418349187
            ]
        },
        {
            "positions": [
                -0.5934729549593049,
                -0.37349837729109114,
                -0.26327934832747535,
                1.0625226079220749,
                0.8544857765503515,
                0.6415342373088802
            ]
        },
        {
            "positions": [
                -0.5457098430042246,
                -0.4004751114019537,
                -0.11270078837615305,
                1.1204246063368435,
                0.7893841353210664,
                0.5981376327828414
            ]
        },
        {
            "positions": [
                -0.49794673104914444,
                -0.4274518455128162,
                0.03787777157516903,
                1.178326604751612,
                0.7242824940917814,
                0.5547410282568027
            ]
        },
        {
            "positions": [
                -0.45018361909406424,
                -0.45442857962367866,
                0.18845633152649088,
                1.2362286031663807,
                0.6591808528624963,
                0.511344423730764
            ]
        },
        {
            "positions": [
                -0.40242050713898403,
                -0.48140531373454115,
                0.33903489147781296,
                1.2941306015811493,
                0.5940792116332112,
                0.4679478192047254
            ]
        },
        {
            "positions": [
                -0.3546573951839037,
                -0.5083820478454038,
                0.4896134514291355,
                1.3520325999959182,
                0.5289775704039261,
                0.4245512146786866
            ]
        },
        {
            "positions": [
                -0.3068942832288235,
                -0.5353587819562662,
                0.6401920113804576,
                1.4099345984106868,
                0.46387592917464104,
                0.38115461015264795
            ]
        },
        {
            "positions": [
                -0.2591311712737433,
                -0.5623355160671287,
                0.7907705713317796,
                1.4678365968254554,
                0.39877428794535597,
                0.3377580056266093
            ]
        },
        {
            "positions": [
                -0.2113680593186632,
                -0.5893122501779913,
                0.9413491312831017,
                1.525738595240224,
                0.3336726467160709,
                0.29436140110057074
            ]
        },
        {
            "positions": [
                -0.16360494736358278,
                -0.6162889842888539,
                1.0919276912344242,
                1.5836405936549929,
                0.2685710054867856,
                0.25096479657453186
            ]
        },
        {
            "positions": [
                -0.11584183540850268,
                -0.6432657183997164,
                1.2425062511857463,
                1.6415425920697615,
                0.2034693642575005,
                0.2075681920484933
            ]
        },
        {
            "positions": [
                -0.06807872345342236,
                -0.6702424525105788,
                1.3930848111370684,
                1.6994445904845301,
                0.13836772302821543,
                0.16417158752245464
            ]
        },
        {
            "positions": [
                -0.020315611498342268,
                -0.6972191866214412,
                1.5436633710883905,
                1.7573465888992987,
                0.07326608179893035,
                0.12077498299641598
            ]
        },
        {
            "positions": [
                0.02744750045673805,
                -0.7241959207323039,
                1.694241931039713,
                1.8152485873140676,
                0.00816444056964527,
                0.07737837847037721
            ]
        },
        {
            "positions": [
                0.07521061241181837,
                -0.7511726548431663,
                1.844820490991035,
                1.8731505857288362,
                -0.05693720065963981,
                0.033981773944338434
            ]
        },
        {
            "positions": [
                0.12297372436689849,
                -0.778149388954029,
                1.9953990509423571,
                1.9310525841436048,
                -0.122038841888925,
                -0.009414830581700168
            ]
        }
    ]
}