{
    "goal": {
        "global_pose": {
            "orientation": {
                "w": 0.7031023502349854,
                "x": -0.7110244035720825,
                "y": 0.007748599164187908,
                "z": 0.005598929710686207
            },
            "position": {
                "x": 0.11585023208521307,
                "y": 0.44412534475326537,
                "z": 0.3711530566215515
            }
        },
        "name": "move_to_auspresseinheit_A"
    },
    "id": "LazyPRMstar_move_to_auspresseinheit_A_43",
    "joint_names": [
        "shoulder_pan_joint",
        "shoulder_lift_joint",
        "elbow_joint",
        "wrist_1_joint",
        "wrist_2_joint",
        "wrist_3_joint"
    ],
    "metrics": {
        "cart_traj_len": 0.6585473270297906,
        "distance_elbow_joint": 0.14852542761656506,
        "distance_shoulder_lift_joint": 0.5341301458020562,
        "distance_shoulder_pan_joint": 1.0473559440524736,
        "distance_wrist_1_joint": 0.5622344290228843,
        "distance_wrist_2_joint": 0.5166789073005981,
        "distance_wrist_3_joint": 0.541843022617198,
        "smoothness": 0.5531347941823768,
        "time": 5.006103153,
        "traj_len": 1.830510277603427,
        "weighted_distance": 2.348056059375426
    },
    "planner": "LazyPRMstar",
    "start": {
        "state": {
            "elbow_joint": 2.422574709923281,
            "shoulder_lift_joint": -1.3736533754116391,
            "shoulder_pan_joint": -0.33786336945926293,
            "wrist_1_joint": -1.0288603412921917,
            "wrist_2_joint": 1.2330224858903978,
            "wrist_3_joint": -3.094022268022082
        }
    },
    "waypoints": [
        {
            "positions": [
                -0.33786336945926293,
                -1.3736533754116391,
                2.422574709923281,
                -1.0288603412921917,
                1.2330224858903978,
                -3.094022268022082
            ]
        },
        {
            "positions": [
                -0.24003253668597546,
                -1.4636510560883051,
                2.4344021374751743,
                -0.9378734302956375,
                1.1900503319336826,
                -3.0436583312527534
            ]
        },
        {
            "positions": [
                -0.14220170391268797,
                -1.5536487367649712,
                2.4462295650270676,
                -0.8468865192990833,
                1.1470781779769674,
                -2.9932943944834247
            ]
        },
        {
            "positions": [
                -0.044370871139400525,
                -1.6436464174416372,
                2.4580569925789604,
                -0.7558996083025291,
                1.104106024020252,
                -2.9429304577140964
            ]
        },
        {
            "positions": [
                0.053459961633887,
                -1.7336440981183032,
                2.4698844201308536,
                -0.6649126973059749,
                1.0611338700635369,
                -2.8925665209447677
            ]
        },
        {
            "positions": [
                0.15129079440717447,
                -1.8236417787949692,
                2.481711847682747,
                -0.5739257863094208,
                1.0181617161068217,
                -2.842202584175439
            ]
        },
        {
            "positions": [
                0.29084123945368356,
                -1.8446772143996508,
                2.459364775218472,
                -0.5471008177993925,
                0.9427071817275662,
                -2.9147084188680776
            ]
        },
        {
            "positions": [
                0.43039168450019266,
                -1.8657126500043324,
                2.437017702754197,
                -0.5202758492893641,
                0.8672526473483106,
                -2.9872142535607162
            ]
        },
        {
            "positions": [
                0.5699421295467018,
                -1.8867480856090137,
                2.4146706302899226,
                -0.49345088077933574,
                0.7917981129690552,
                -3.0597200882533553
            ]
        },
        {
            "positions": [
                0.7094925745932109,
                -1.9077835212136953,
                2.3923235578256477,
                -0.4666259122693074,
                0.7163435785897997,
                -3.132225922945994
            ]
        }
    ]
}