{
    "goal": {
        "global_pose": {
            "orientation": {
                "w": 0.7047431468963623,
                "x": -0.7094548344612122,
                "y": 0.0024358443915843964,
                "z": -0.0022348060738295317
            },
            "position": {
                "x": 0.6094750761985779,
                "y": 0.3671506643295288,
                "z": 0.19426114857196808
            }
        },
        "name": "move_to_magneteinheit_A"
    },
    "id": "LazyPRMstar_move_to_magneteinheit_A_93",
    "joint_names": [
        "shoulder_pan_joint",
        "shoulder_lift_joint",
        "elbow_joint",
        "wrist_1_joint",
        "wrist_2_joint",
        "wrist_3_joint"
    ],
    "metrics": {
        "cart_traj_len": 1.8671789075017702,
        "distance_elbow_joint": 3.9391475304918577,
        "distance_shoulder_lift_joint": 0.7117010690135651,
        "distance_shoulder_pan_joint": 1.2418033824425136,
        "distance_wrist_1_joint": 1.5970613583232114,
        "distance_wrist_2_joint": 1.692067824415834,
        "distance_wrist_3_joint": 1.2338107571419372,
        "smoothness": 6.978544763579244e-16,
        "time": 5.0008539380000006,
        "traj_len": 3.2273196187903235,
        "weighted_distance": 4.021485126026433
    },
    "planner": "LazyPRMstar",
    "start": {
        "state": {
            "elbow_joint": -1.919643507792019,
            "shoulder_lift_joint": -0.07675430207160344,
            "shoulder_pan_joint": -1.1188671864651873,
            "wrist_1_joint": 0.42560062535961957,
            "wrist_2_joint": 1.5706038300724876,
            "wrist_3_joint": 1.1188968870953055
        }
    },
    "waypoints": [
        {
            "positions": [
                -1.1188671864651873,
                -0.07675430207160344,
                -1.919643507792019,
                0.42560062535961957,
                1.5706038300724876,
                1.1188968870953055
            ]
        },
        {
            "positions": [
                -1.072874468596946,
                -0.10311360092395772,
                -1.7737491548108393,
                0.484751046038257,
                1.5079346513904197,
                1.073200192386345
            ]
        },
        {
            "positions": [
                -1.026881750728705,
                -0.129472899776312,
                -1.6278548018296592,
                0.5439014667168944,
                1.4452654727083518,
                1.0275034976773842
            ]
        },
        {
            "positions": [
                -0.9808890328604636,
                -0.15583219862866624,
                -1.4819604488484794,
                0.603051887395532,
                1.382596294026284,
                0.9818068029684237
            ]
        },
        {
            "positions": [
                -0.9348963149922224,
                -0.1821914974810205,
                -1.3360660958672994,
                0.6622023080741694,
                1.3199271153442158,
                0.936110108259463
            ]
        },
        {
            "positions": [
                -0.8889035971239811,
                -0.20855079633337478,
                -1.1901717428861196,
                0.7213527287528069,
                1.257257936662148,
                0.8904134135505024
            ]
        },
        {
            "positions": [
                -0.8429108792557398,
                -0.23491009518572903,
                -1.0442773899049396,
                0.7805031494314443,
                1.19458875798008,
                0.8447167188415418
            ]
        },
        {
            "positions": [
                -0.7969181613874987,
                -0.2612693940380833,
                -0.8983830369237598,
                0.8396535701100818,
                1.1319195792980121,
                0.7990200241325811
            ]
        },
        {
            "positions": [
                -0.7509254435192574,
                -0.2876286928904376,
                -0.7524886839425797,
                0.8988039907887192,
                1.0692504006159442,
                0.7533233294236205
            ]
        },
        {
            "positions": [
                -0.7049327256510162,
                -0.31398799174279185,
                -0.6065943309613999,
                0.9579544114673566,
                1.0065812219338763,
                0.7076266347146598
            ]
        },
        {
            "positions": [
                -0.658940007782775,
                -0.3403472905951461,
                -0.4606999779802201,
                1.0171048321459941,
                0.9439120432518083,
                0.6619299400056993
            ]
        },
        {
            "positions": [
                -0.6129472899145336,
                -0.36670658944750034,
                -0.3148056249990401,
                1.0762552528246316,
                0.8812428645697404,
                0.6162332452967385
            ]
        },
        {
            "positions": [
                -0.5669545720462924,
                -0.3930658882998546,
                -0.16891127201786027,
                1.135405673503269,
                0.8185736858876725,
                0.570536550587778
            ]
        },
        {
            "positions": [
                -0.5209618541780512,
                -0.4194251871522089,
                -0.02301691903668024,
                1.1945560941819064,
                0.7559045072056046,
                0.5248398558788173
            ]
        },
        {
            "positions": [
                -0.47496913630980997,
                -0.44578448600456316,
                0.12287743394449957,
                1.253706514860544,
                0.6932353285235366,
                0.47914316116985667
            ]
        },
        {
            "positions": [
                -0.42897641844156864,
                -0.4721437848569175,
                0.2687717869256796,
                1.3128569355391815,
                0.6305661498414686,
                0.4334464664608959
            ]
        },
        {
            "positions": [
                -0.3829837005733274,
                -0.4985030837092717,
                0.41466613990685963,
                1.3720073562178188,
                0.5678969711594009,
                0.38774977175193537
            ]
        },
        {
            "positions": [
                -0.3369909827050861,
                -0.524862382561626,
                0.5605604928880397,
                1.4311577768964565,
                0.5052277924773327,
                0.3420530770429747
            ]
        },
        {
            "positions": [
                -0.290998264836845,
                -0.5512216814139803,
                0.7064548458692193,
                1.4903081975750938,
                0.44255861379526507,
                0.29635638233401407
            ]
        },
        {
            "positions": [
                -0.24500554696860366,
                -0.5775809802663345,
                0.8523491988503993,
                1.5494586182537313,
                0.37988943511319695,
                0.2506596876250534
            ]
        },
        {
            "positions": [
                -0.19901282910036244,
                -0.6039402791186887,
                0.9982435518315789,
                1.6086090389323688,
                0.31722025643112906,
                0.20496299291609288
            ]
        },
        {
            "positions": [
                -0.15302011123212111,
                -0.630299577971043,
                1.1441379048127593,
                1.6677594596110064,
                0.25455107774906116,
                0.15926629820713212
            ]
        },
        {
            "positions": [
                -0.1070273933638799,
                -0.6566588768233972,
                1.290032257793939,
                1.7269098802896437,
                0.19188189906699327,
                0.11356960349817147
            ]
        },
        {
            "positions": [
                -0.06103467549563857,
                -0.6830181756757516,
                1.435926610775119,
                1.7860603009682812,
                0.12921272038492537,
                0.06787290878921093
            ]
        },
        {
            "positions": [
                -0.015041957627397462,
                -0.7093774745281058,
                1.5818209637562985,
                1.8452107216469185,
                0.06654354170285748,
                0.02217621408025039
            ]
        },
        {
            "positions": [
                0.030950760240843866,
                -0.7357367733804601,
                1.727715316737479,
                1.9043611423255562,
                0.003874363020789362,
                -0.023520480628710372
            ]
        },
        {
            "positions": [
                0.07694347810908497,
                -0.7620960722328143,
                1.8736096697186586,
                1.9635115630041935,
                -0.05879481566127831,
                -0.06921717533767091
            ]
        },
        {
            "positions": [
                0.12293619597732625,
                -0.7884553710851686,
                2.019504022699839,
                2.022661983682831,
                -0.12146399434334643,
                -0.11491387004663177
            ]
        }
    ]
}