{
    "goal": {
        "global_pose": {
            "orientation": {
                "w": 0.7047431468963623,
                "x": -0.7094548344612122,
                "y": 0.0024358443915843964,
                "z": -0.0022348060738295317
            },
            "position": {
                "x": 0.6094750761985779,
                "y": 0.3671506643295288,
                "z": 0.19426114857196808
            }
        },
        "name": "move_to_magneteinheit_A"
    },
    "id": "LazyPRM_move_to_magneteinheit_A_105",
    "joint_names": [
        "shoulder_pan_joint",
        "shoulder_lift_joint",
        "elbow_joint",
        "wrist_1_joint",
        "wrist_2_joint",
        "wrist_3_joint"
    ],
    "metrics": {
        "cart_traj_len": 1.8776922690880693,
        "distance_elbow_joint": 3.915572536712835,
        "distance_shoulder_lift_joint": 0.701321819747547,
        "distance_shoulder_pan_joint": 1.2413424584423083,
        "distance_wrist_1_joint": 1.5049671204509967,
        "distance_wrist_2_joint": 1.6955590252477823,
        "distance_wrist_3_joint": 1.1254522216274387,
        "smoothness": 6.908054365195901e-16,
        "time": 0.181309372,
        "traj_len": 3.1912717186458606,
        "weighted_distance": 3.9541934412952746
    },
    "planner": "LazyPRM",
    "start": {
        "state": {
            "elbow_joint": -1.919643507792019,
            "shoulder_lift_joint": -0.07675430207160344,
            "shoulder_pan_joint": -1.1188671864651873,
            "wrist_1_joint": 0.42560062535961957,
            "wrist_2_joint": 1.5706038300724876,
            "wrist_3_joint": 1.1188968870953055
        }
    },
    "waypoints": [
        {
            "positions": [
                -1.1188671864651873,
                -0.07675430207160344,
                -1.919643507792019,
                0.42560062535961957,
                1.5706038300724876,
                1.1188968870953055
            ]
        },
        {
            "positions": [
                -1.0711232457558677,
                -0.10372821821573987,
                -1.7690445640722947,
                0.48348397614619637,
                1.5053900214091114,
                1.0756102631865578
            ]
        },
        {
            "positions": [
                -1.0233793050465483,
                -0.1307021343598763,
                -1.6184456203525701,
                0.5413673269327731,
                1.4401762127457352,
                1.0323236392778103
            ]
        },
        {
            "positions": [
                -0.9756353643372286,
                -0.15767605050401273,
                -1.4678466766328457,
                0.5992506777193499,
                1.374962404082359,
                0.9890370153690626
            ]
        },
        {
            "positions": [
                -0.9278914236279091,
                -0.18464996664814914,
                -1.3172477329131214,
                0.6571340285059267,
                1.3097485954189827,
                0.9457503914603149
            ]
        },
        {
            "positions": [
                -0.8801474829185896,
                -0.21162388279228558,
                -1.1666487891933968,
                0.7150173792925036,
                1.2445347867556062,
                0.9024637675515673
            ]
        },
        {
            "positions": [
                -0.83240354220927,
                -0.238597798936422,
                -1.0160498454736726,
                0.7729007300790803,
                1.17932097809223,
                0.8591771436428197
            ]
        },
        {
            "positions": [
                -0.7846596014999505,
                -0.26557171508055843,
                -0.8654509017539482,
                0.8307840808656571,
                1.1141071694288538,
                0.815890519734072
            ]
        },
        {
            "positions": [
                -0.7369156607906309,
                -0.29254563122469485,
                -0.7148519580342236,
                0.8886674316522339,
                1.0488933607654776,
                0.7726038958253243
            ]
        },
        {
            "positions": [
                -0.6891717200813114,
                -0.31951954736883126,
                -0.5642530143144993,
                0.9465507824388106,
                0.9836795521021015,
                0.7293172719165768
            ]
        },
        {
            "positions": [
                -0.6414277793719918,
                -0.3464934635129677,
                -0.41365407059477466,
                1.0044341332253877,
                0.9184657434387251,
                0.6860306480078291
            ]
        },
        {
            "positions": [
                -0.5936838386626723,
                -0.3734673796571041,
                -0.2630551268750505,
                1.0623174840119642,
                0.8532519347753489,
                0.6427440240990815
            ]
        },
        {
            "positions": [
                -0.5459398979533527,
                -0.40044129580124055,
                -0.1124561831553259,
                1.120200834798541,
                0.7880381261119727,
                0.5994574001903338
            ]
        },
        {
            "positions": [
                -0.4981959572440332,
                -0.42741521194537696,
                0.03814276056439847,
                1.1780841855851178,
                0.7228243174485964,
                0.5561707762815862
            ]
        },
        {
            "positions": [
                -0.4504520165347137,
                -0.45438912808951337,
                0.18874170428412262,
                1.2359675363716947,
                0.6576105087852202,
                0.5128841523728386
            ]
        },
        {
            "positions": [
                -0.40270807582539414,
                -0.4813630442336498,
                0.3393406480038472,
                1.2938508871582715,
                0.592396700121844,
                0.469597528464091
            ]
        },
        {
            "positions": [
                -0.3549641351160745,
                -0.5083369603777863,
                0.4899395917235718,
                1.3517342379448483,
                0.5271828914584678,
                0.42631090455534315
            ]
        },
        {
            "positions": [
                -0.30722019440675497,
                -0.5353108765219227,
                0.6405385354432964,
                1.409617588731425,
                0.4619690827950915,
                0.38302428064659555
            ]
        },
        {
            "positions": [
                -0.25947625369743543,
                -0.562284792666059,
                0.7911374791630206,
                1.4675009395180019,
                0.3967552741317153,
                0.33973765673784795
            ]
        },
        {
            "positions": [
                -0.211732312988116,
                -0.5892587088101955,
                0.9417364228827447,
                1.5253842903045787,
                0.33154146546833907,
                0.29645103282910035
            ]
        },
        {
            "positions": [
                -0.16398837227879626,
                -0.616232624954332,
                1.0923353666024698,
                1.5832676410911557,
                0.2663276568049626,
                0.25316440892035263
            ]
        },
        {
            "positions": [
                -0.11624443156947684,
                -0.6432065410984684,
                1.242934310322194,
                1.6411509918777323,
                0.2011138481415864,
                0.20987778501160503
            ]
        },
        {
            "positions": [
                -0.06850049086015719,
                -0.6701804572426047,
                1.393533254041918,
                1.699034342664309,
                0.13590003947821017,
                0.16659116110285743
            ]
        },
        {
            "positions": [
                -0.02075655015083777,
                -0.6971543733867411,
                1.5441321977616427,
                1.7569176934508859,
                0.07068623081483394,
                0.12330453719410983
            ]
        },
        {
            "positions": [
                0.026987390558481872,
                -0.7241282895308776,
                1.6947311414813673,
                1.8148010442374627,
                0.005472422151457712,
                0.08001791328536201
            ]
        },
        {
            "positions": [
                0.07473133126780152,
                -0.7511022056750141,
                1.8453300852010919,
                1.8726843950240395,
                -0.059741386511918515,
                0.03673128937661452
            ]
        },
        {
            "positions": [
                0.1224752719771209,
                -0.7780761218191505,
                1.9959290289208163,
                1.9305677458106163,
                -0.12495519517529467,
                -0.006555334532133149
            ]
        }
    ]
}