{
    "goal": {
        "global_pose": {
            "orientation": {
                "w": 0.7031023502349854,
                "x": -0.7110244035720825,
                "y": 0.007748599164187908,
                "z": 0.005598929710686207
            },
            "position": {
                "x": 0.11585023208521307,
                "y": 0.44412534475326537,
                "z": 0.3711530566215515
            }
        },
        "name": "move_to_auspresseinheit_A"
    },
    "id": "LazyPRM_move_to_auspresseinheit_A_128",
    "joint_names": [
        "shoulder_pan_joint",
        "shoulder_lift_joint",
        "elbow_joint",
        "wrist_1_joint",
        "wrist_2_joint",
        "wrist_3_joint"
    ],
    "metrics": {
        "cart_traj_len": 0.8660646448608105,
        "distance_elbow_joint": 0.6518762728704544,
        "distance_shoulder_lift_joint": 0.5630512495272784,
        "distance_shoulder_pan_joint": 1.3357509732068342,
        "distance_wrist_1_joint": 0.6803254335857178,
        "distance_wrist_2_joint": 1.6229816291701482,
        "distance_wrist_3_joint": 0.04361740290212213,
        "smoothness": 1.0323320698627032,
        "time": 0.11662814799999999,
        "traj_len": 2.2130528600244856,
        "weighted_distance": 2.6996564281075965
    },
    "planner": "LazyPRM",
    "start": {
        "state": {
            "elbow_joint": 2.422574709923281,
            "shoulder_lift_joint": -1.3736533754116391,
            "shoulder_pan_joint": -0.33786336945926293,
            "wrist_1_joint": -1.0288603412921917,
            "wrist_2_joint": 1.2330224858903978,
            "wrist_3_joint": -3.094022268022082
        }
    },
    "waypoints": [
        {
            "positions": [
                -0.33786336945926293,
                -1.3736533754116391,
                2.422574709923281,
                -1.0288603412921917,
                1.2330224858903978,
                -3.094022268022082
            ]
        },
        {
            "positions": [
                -0.3623745366949461,
                -1.3712122649427745,
                2.3656439795836137,
                -0.9247093907960617,
                1.0537253486580092,
                -3.094793319085229
            ]
        },
        {
            "positions": [
                -0.3868857039306293,
                -1.36877115447391,
                2.308713249243946,
                -0.8205584402999319,
                0.8744282114256208,
                -3.095564370148376
            ]
        },
        {
            "positions": [
                -0.4113968711663125,
                -1.3663300440050454,
                2.251782518904278,
                -0.7164074898038019,
                0.6951310741932323,
                -3.096335421211523
            ]
        },
        {
            "positions": [
                -0.43590803840199577,
                -1.3638889335361808,
                2.194851788564611,
                -0.612256539307672,
                0.5158339369608438,
                -3.0971064722746697
            ]
        },
        {
            "positions": [
                -0.46041920563767896,
                -1.3614478230673164,
                2.1379210582249435,
                -0.5081055888115419,
                0.3365367997284553,
                -3.0978775233378166
            ]
        },
        {
            "positions": [
                -0.48493037287336216,
                -1.3590067125984517,
                2.0809903278852757,
                -0.40395463831541195,
                0.1572396624960668,
                -3.0986485744009635
            ]
        },
        {
            "positions": [
                -0.31511837718868574,
                -1.437350224986179,
                2.1253177408613397,
                -0.41187174268811744,
                0.2354109204640407,
                -3.104218731047141
            ]
        },
        {
            "positions": [
                -0.14530638150400926,
                -1.5156937373739063,
                2.169645153837404,
                -0.41978884706082287,
                0.3135821784320146,
                -3.109788887693318
            ]
        },
        {
            "positions": [
                0.024505614180667212,
                -1.5940372497616335,
                2.213972566813468,
                -0.42770595143352835,
                0.3917534363999885,
                -3.1153590443394954
            ]
        },
        {
            "positions": [
                0.19431760986534363,
                -1.672380762149361,
                2.2582999797895322,
                -0.4356230558062338,
                0.46992469436796236,
                -3.1209292009856724
            ]
        },
        {
            "positions": [
                0.36412960555002016,
                -1.7507242745370881,
                2.3026273927655962,
                -0.44354016017893927,
                0.5480959523359363,
                -3.12649935763185
            ]
        },
        {
            "positions": [
                0.5339416012346966,
                -1.8290677869248153,
                2.3469548057416607,
                -0.4514572645516447,
                0.6262672103039102,
                -3.132069514278027
            ]
        },
        {
            "positions": [
                0.7037535969193729,
                -1.9074112993125427,
                2.3912822187177247,
                -0.4593743689243502,
                0.704438468271884,
                -3.1376396709242043
            ]
        }
    ]
}