{
    "goal": {
        "global_pose": {
            "orientation": {
                "w": 0.5084816217422485,
                "x": -0.49083608388900757,
                "y": 0.5182115435600281,
                "z": -0.4816462993621826
            },
            "position": {
                "x": 0.5540239810943604,
                "y": 0.030875300988554955,
                "z": 0.16403168439865112
            }
        },
        "name": "move_to_storage_A"
    },
    "id": "LazyPRM_move_to_storage_A_7",
    "joint_names": [
        "shoulder_pan_joint",
        "shoulder_lift_joint",
        "elbow_joint",
        "wrist_1_joint",
        "wrist_2_joint",
        "wrist_3_joint"
    ],
    "metrics": {
        "cart_traj_len": 0.3525165738314173,
        "distance_elbow_joint": 0.4529245947547982,
        "distance_shoulder_lift_joint": 0.23281521648453207,
        "distance_shoulder_pan_joint": 0.4610732225857264,
        "distance_wrist_1_joint": 0.26180628420345975,
        "distance_wrist_2_joint": 1.096402356998027,
        "distance_wrist_3_joint": 0.10966014880954811,
        "smoothness": 8.881784232165597e-16,
        "time": 0.022052927,
        "traj_len": 1.6169977810238614,
        "weighted_distance": 2.0474888919495204
    },
    "planner": "LazyPRM",
    "start": {
        "state": {
            "elbow_joint": 1.9715463870305268,
            "shoulder_lift_joint": -1.1394903361783484,
            "shoulder_pan_joint": 0.12281147578464417,
            "wrist_1_joint": -0.7804599489681411,
            "wrist_2_joint": 0.12958660307563738,
            "wrist_3_joint": -3.1924946282119055
        }
    },
    "waypoints": [
        {
            "positions": [
                0.12281147578464417,
                -1.1394903361783484,
                1.9715463870305268,
                -0.7804599489681411,
                0.12958660307563738,
                -3.1924946282119055
            ]
        },
        {
            "positions": [
                0.05694387255811183,
                -1.1727496528189958,
                2.0362499005669266,
                -0.8178608467114925,
                0.28621551121821265,
                -3.176828892667684
            ]
        },
        {
            "positions": [
                -0.008923730668420518,
                -1.2060089694596432,
                2.1009534141033264,
                -0.8552617444548438,
                0.4428444193607879,
                -3.1611631571234633
            ]
        },
        {
            "positions": [
                -0.07479133389495286,
                -1.2392682861002906,
                2.165656927639726,
                -0.8926626421981952,
                0.5994733275033632,
                -3.145497421579242
            ]
        },
        {
            "positions": [
                -0.1406589371214852,
                -1.2725276027409382,
                2.2303604411761255,
                -0.9300635399415467,
                0.7561022356459385,
                -3.129831686035021
            ]
        },
        {
            "positions": [
                -0.20652654034801754,
                -1.3057869193815856,
                2.2950639547125253,
                -0.967464437684898,
                0.9127311437885138,
                -3.1141659504907997
            ]
        },
        {
            "positions": [
                -0.2723941435745499,
                -1.339046236022233,
                2.359767468248925,
                -1.0048653354282495,
                1.069360051931089,
                -3.098500214946579
            ]
        },
        {
            "positions": [
                -0.33826174680108223,
                -1.3723055526628805,
                2.424470981785325,
                -1.0422662331716008,
                1.2259889600736644,
                -3.0828344794023574
            ]
        }
    ]
}