{
    "goal": {
        "global_pose": {
            "orientation": {
                "w": 0.5084816217422485,
                "x": -0.49083608388900757,
                "y": 0.5182115435600281,
                "z": -0.4816462993621826
            },
            "position": {
                "x": 0.5540239810943604,
                "y": 0.030875300988554955,
                "z": 0.16403168439865112
            }
        },
        "name": "move_to_storage_A"
    },
    "id": "LazyPRMstar_move_to_storage_A_85",
    "joint_names": [
        "shoulder_pan_joint",
        "shoulder_lift_joint",
        "elbow_joint",
        "wrist_1_joint",
        "wrist_2_joint",
        "wrist_3_joint"
    ],
    "metrics": {
        "cart_traj_len": 0.35352444847149855,
        "distance_elbow_joint": 0.45298006428368387,
        "distance_shoulder_lift_joint": 0.23599264247487084,
        "distance_shoulder_pan_joint": 0.4613123462884441,
        "distance_wrist_1_joint": 0.2501693652346525,
        "distance_wrist_2_joint": 1.1052277851401031,
        "distance_wrist_3_joint": 0.0971285221401903,
        "smoothness": 8.881784197001252e-16,
        "time": 5.000473434,
        "traj_len": 1.6133228832325985,
        "weighted_distance": 2.0377597798114184
    },
    "planner": "LazyPRMstar",
    "start": {
        "state": {
            "elbow_joint": 1.9715463870305268,
            "shoulder_lift_joint": -1.1394903361783484,
            "shoulder_pan_joint": 0.12281147578464417,
            "wrist_1_joint": -0.7804599489681411,
            "wrist_2_joint": 0.12958660307563738,
            "wrist_3_joint": -3.1924946282119055
        }
    },
    "waypoints": [
        {
            "positions": [
                0.12281147578464417,
                -1.1394903361783484,
                1.9715463870305268,
                -0.7804599489681411,
                0.12958660307563738,
                -3.1924946282119055
            ]
        },
        {
            "positions": [
                0.05690971202915217,
                -1.1732035708176156,
                2.0362578247853387,
                -0.8161984297159486,
                0.2874762866670807,
                -3.178619125049021
            ]
        },
        {
            "positions": [
                -0.008992051726339836,
                -1.2069168054568828,
                2.1009692625401506,
                -0.8519369104637561,
                0.445365970258524,
                -3.164743621886137
            ]
        },
        {
            "positions": [
                -0.07489381548183184,
                -1.24063004009615,
                2.1656807002949625,
                -0.8876753912115636,
                0.6032556538499673,
                -3.1508681187232526
            ]
        },
        {
            "positions": [
                -0.14079557923732383,
                -1.2743432747354175,
                2.2303921380497744,
                -0.9234138719593711,
                0.7611453374414106,
                -3.1369926155603682
            ]
        },
        {
            "positions": [
                -0.2066973429928159,
                -1.3080565093746848,
                2.295103575804587,
                -0.9591523527071786,
                0.919035021032854,
                -3.123117112397484
            ]
        },
        {
            "positions": [
                -0.27259910674830784,
                -1.341769744013952,
                2.3598150135593987,
                -0.9948908334549861,
                1.0769247046242971,
                -3.1092416092345996
            ]
        },
        {
            "positions": [
                -0.3385008705037999,
                -1.3754829786532192,
                2.4245264513142106,
                -1.0306293142027936,
                1.2348143882157405,
                -3.0953661060717153
            ]
        }
    ]
}