{
    "goal": {
        "global_pose": {
            "orientation": {
                "w": 0.7047431468963623,
                "x": -0.7094548344612122,
                "y": 0.0024358443915843964,
                "z": -0.0022348060738295317
            },
            "position": {
                "x": 0.6094750761985779,
                "y": 0.3671506643295288,
                "z": 0.19426114857196808
            }
        },
        "name": "move_to_magneteinheit_A"
    },
    "id": "LazyPRMstar_move_to_magneteinheit_A_2",
    "joint_names": [
        "shoulder_pan_joint",
        "shoulder_lift_joint",
        "elbow_joint",
        "wrist_1_joint",
        "wrist_2_joint",
        "wrist_3_joint"
    ],
    "metrics": {
        "cart_traj_len": 1.8655317858219083,
        "distance_elbow_joint": 3.9392201617441174,
        "distance_shoulder_lift_joint": 0.7119377987186529,
        "distance_shoulder_pan_joint": 1.2411380664178546,
        "distance_wrist_1_joint": 1.6028412336251814,
        "distance_wrist_2_joint": 1.6928305628011004,
        "distance_wrist_3_joint": 1.230819264415117,
        "smoothness": 3.4892723817896226e-16,
        "time": 5.000318161,
        "traj_len": 3.2278145993414835,
        "weighted_distance": 4.021951940659975
    },
    "planner": "LazyPRMstar",
    "start": {
        "state": {
            "elbow_joint": -1.919643507792019,
            "shoulder_lift_joint": -0.07675430207160344,
            "shoulder_pan_joint": -1.1188671864651873,
            "wrist_1_joint": 0.42560062535961957,
            "wrist_2_joint": 1.5706038300724876,
            "wrist_3_joint": 1.1188968870953055
        }
    },
    "waypoints": [
        {
            "positions": [
                -1.1188671864651873,
                -0.07675430207160344,
                -1.919643507792019,
                0.42560062535961957,
                1.5706038300724876,
                1.1188968870953055
            ]
        },
        {
            "positions": [
                -1.0728991099311926,
                -0.10312236869081282,
                -1.7737464647644592,
                0.48496511549388555,
                1.507906401820595,
                1.0733109884132641
            ]
        },
        {
            "positions": [
                -1.0269310333971982,
                -0.1294904353100222,
                -1.6278494217368993,
                0.5443296056281515,
                1.4452089735687024,
                1.027725089731223
            ]
        },
        {
            "positions": [
                -0.9809629568632035,
                -0.15585850192923156,
                -1.4819523787093394,
                0.6036940957624175,
                1.3825115453168098,
                0.9821391910491815
            ]
        },
        {
            "positions": [
                -0.9349948803292089,
                -0.18222656854844094,
                -1.3360553356817795,
                0.6630585858966834,
                1.3198141170649171,
                0.93655329236714
            ]
        },
        {
            "positions": [
                -0.8890268037952143,
                -0.20859463516765028,
                -1.1901582926542196,
                0.7224230760309495,
                1.2571166888130245,
                0.8909673936850987
            ]
        },
        {
            "positions": [
                -0.8430587272612197,
                -0.23496270178685966,
                -1.0442612496266597,
                0.7817875661652154,
                1.194419260561132,
                0.8453814950030574
            ]
        },
        {
            "positions": [
                -0.7970906507272251,
                -0.26133076840606906,
                -0.8983642065990998,
                0.8411520562994814,
                1.1317218323092393,
                0.7997955963210159
            ]
        },
        {
            "positions": [
                -0.7511225741932304,
                -0.2876988350252784,
                -0.7524671635715399,
                0.9005165464337473,
                1.0690244040573469,
                0.7542096976389746
            ]
        },
        {
            "positions": [
                -0.7051544976592359,
                -0.3140669016444878,
                -0.60657012054398,
                0.9598810365680133,
                1.0063269758054543,
                0.7086237989569333
            ]
        },
        {
            "positions": [
                -0.6591864211252412,
                -0.3404349682636971,
                -0.46067307751642006,
                1.0192455267022793,
                0.9436295475535615,
                0.6630379002748918
            ]
        },
        {
            "positions": [
                -0.6132183445912466,
                -0.3668030348829065,
                -0.31477603448886016,
                1.0786100168365453,
                0.8809321193016689,
                0.6174520015928505
            ]
        },
        {
            "positions": [
                -0.567250268057252,
                -0.39317110150211587,
                -0.16887899146130025,
                1.1379745069708112,
                0.8182346910497763,
                0.5718661029108091
            ]
        },
        {
            "positions": [
                -0.5212821915232574,
                -0.41953916812132525,
                -0.02298194843374035,
                1.1973389971050772,
                0.7555372627978837,
                0.5262802042287678
            ]
        },
        {
            "positions": [
                -0.4753141149892628,
                -0.4459072347405346,
                0.12291509459381955,
                1.2567034872393432,
                0.6928398345459911,
                0.48069430554672643
            ]
        },
        {
            "positions": [
                -0.4293460384552681,
                -0.47227530135974405,
                0.26881213762137945,
                1.3160679773736093,
                0.6301424062940985,
                0.435108406864685
            ]
        },
        {
            "positions": [
                -0.3833779619212735,
                -0.49864336797895337,
                0.41470918064893936,
                1.375432467507875,
                0.567444978042206,
                0.38952250818264367
            ]
        },
        {
            "positions": [
                -0.3374098853872789,
                -0.5250114345981628,
                0.5606062236764993,
                1.4347969576421413,
                0.5047475497903131,
                0.34393660950060223
            ]
        },
        {
            "positions": [
                -0.2914418088532843,
                -0.5513795012173721,
                0.7065032667040592,
                1.4941614477764071,
                0.4420501215384207,
                0.2983507108185609
            ]
        },
        {
            "positions": [
                -0.2454737323192896,
                -0.5777475678365815,
                0.8524003097316191,
                1.5535259379106732,
                0.3793526932865281,
                0.25276481213651947
            ]
        },
        {
            "positions": [
                -0.1995056557852951,
                -0.6041156344557908,
                0.998297352759179,
                1.6128904280449392,
                0.3166552650346355,
                0.20717891345447814
            ]
        },
        {
            "positions": [
                -0.1535375792513004,
                -0.6304837010750002,
                1.1441943957867389,
                1.6722549181792052,
                0.25395783678274286,
                0.1615930147724367
            ]
        },
        {
            "positions": [
                -0.10756950271730581,
                -0.6568517676942096,
                1.2900914388142988,
                1.731619408313471,
                0.19126040853085025,
                0.11600711609039549
            ]
        },
        {
            "positions": [
                -0.0616014261833111,
                -0.683219834313419,
                1.4359884818418587,
                1.790983898447737,
                0.12856298027895763,
                0.07042121740835405
            ]
        },
        {
            "positions": [
                -0.01563334964931662,
                -0.7095879009326282,
                1.5818855248694186,
                1.850348388582003,
                0.06586555202706501,
                0.024835318726312616
            ]
        },
        {
            "positions": [
                0.030334726884678087,
                -0.7359559675518377,
                1.7277825678969785,
                1.9097128787162692,
                0.0031681237751723934,
                -0.02075057995572882
            ]
        },
        {
            "positions": [
                0.07630280341867257,
                -0.7623240341710471,
                1.8736796109245384,
                1.969077368850535,
                -0.059529304476720224,
                -0.06633647863777004
            ]
        },
        {
            "positions": [
                0.12227087995266735,
                -0.7886921007902564,
                2.019576653952098,
                2.028441858984801,
                -0.12222673272861292,
                -0.1119223773198114
            ]
        }
    ]
}