{
    "goal": {
        "global_pose": {
            "orientation": {
                "w": 0.7031023502349854,
                "x": -0.7110244035720825,
                "y": 0.007748599164187908,
                "z": 0.005598929710686207
            },
            "position": {
                "x": 0.11585023208521307,
                "y": 0.44412534475326537,
                "z": 0.3711530566215515
            }
        },
        "name": "move_to_auspresseinheit_A"
    },
    "id": "LazyPRM_move_to_auspresseinheit_A_143",
    "joint_names": [
        "shoulder_pan_joint",
        "shoulder_lift_joint",
        "elbow_joint",
        "wrist_1_joint",
        "wrist_2_joint",
        "wrist_3_joint"
    ],
    "metrics": {
        "cart_traj_len": 1.7727695399707335,
        "distance_elbow_joint": 0.039463519551560466,
        "distance_shoulder_lift_joint": 0.5355010404241844,
        "distance_shoulder_pan_joint": 3.8376443751875287,
        "distance_wrist_1_joint": 0.5442442957816822,
        "distance_wrist_2_joint": 1.6469976182041788,
        "distance_wrist_3_joint": 0.36851065093334645,
        "smoothness": 1.11900770462344,
        "time": 0.051186542,
        "traj_len": 2.6405229595825297,
        "weighted_distance": 3.1465258168232206
    },
    "planner": "LazyPRM",
    "start": {
        "state": {
            "elbow_joint": 2.422574709923281,
            "shoulder_lift_joint": -1.3736533754116391,
            "shoulder_pan_joint": -0.33786336945926293,
            "wrist_1_joint": -1.0288603412921917,
            "wrist_2_joint": 1.2330224858903978,
            "wrist_3_joint": -3.094022268022082
        }
    },
    "waypoints": [
        {
            "positions": [
                -0.33786336945926293,
                -1.3736533754116391,
                2.422574709923281,
                -1.0288603412921917,
                1.2330224858903978,
                -3.094022268022082
            ]
        },
        {
            "positions": [
                -0.4931388743127706,
                -1.4045105347318914,
                2.418923036505508,
                -0.9945307225014675,
                1.11190814022325,
                -3.1166492265515346
            ]
        },
        {
            "positions": [
                -0.6484143791662783,
                -1.4353676940521436,
                2.415271363087735,
                -0.9602011037107433,
                0.9907937945561023,
                -3.1392761850809876
            ]
        },
        {
            "positions": [
                -0.8036898840197859,
                -1.4662248533723958,
                2.411619689669962,
                -0.925871484920019,
                0.8696794488889545,
                -3.16190314361044
            ]
        },
        {
            "positions": [
                -0.9589653888732936,
                -1.497082012692648,
                2.4079680162521893,
                -0.8915418661292949,
                0.7485651032218068,
                -3.184530102139893
            ]
        },
        {
            "positions": [
                -1.1142408937268014,
                -1.5279391720129005,
                2.404316342834416,
                -0.8572122473385706,
                0.6274507575546591,
                -3.2071570606693456
            ]
        },
        {
            "positions": [
                -1.269516398580309,
                -1.5587963313331528,
                2.4006646694166434,
                -0.8228826285478463,
                0.5063364118875113,
                -3.2297840191987985
            ]
        },
        {
            "positions": [
                -1.4247919034338168,
                -1.589653490653405,
                2.39701299599887,
                -0.7885530097571221,
                0.3852220662203636,
                -3.252410977728251
            ]
        },
        {
            "positions": [
                -1.5800674082873245,
                -1.6205106499736572,
                2.3933613225810975,
                -0.7542233909663979,
                0.26410772055321585,
                -3.275037936257704
            ]
        },
        {
            "positions": [
                -1.7353429131408322,
                -1.6513678092939095,
                2.3897096491633243,
                -0.7198937721756736,
                0.1429933748860681,
                -3.2976648947871565
            ]
        },
        {
            "positions": [
                -1.4913264299902362,
                -1.677146469948101,
                2.3903694950424845,
                -0.6963659995091572,
                0.19869022560605307,
                -3.2811780923703293
            ]
        },
        {
            "positions": [
                -1.2473099468396405,
                -1.7029251306022923,
                2.391029340921645,
                -0.6728382268426408,
                0.2543870763260381,
                -3.264691289953502
            ]
        },
        {
            "positions": [
                -1.0032934636890447,
                -1.7287037912564838,
                2.3916891868008054,
                -0.6493104541761244,
                0.31008392704602306,
                -3.248204487536675
            ]
        },
        {
            "positions": [
                -0.7592769805384486,
                -1.7544824519106752,
                2.3923490326799657,
                -0.6257826815096079,
                0.36578077776600804,
                -3.2317176851198477
            ]
        },
        {
            "positions": [
                -0.5152604973878527,
                -1.7802611125648666,
                2.393008878559126,
                -0.6022549088430915,
                0.421477628485993,
                -3.2152308827030205
            ]
        },
        {
            "positions": [
                -0.27124401423725697,
                -1.8060397732190578,
                2.3936687244382866,
                -0.5787271361765751,
                0.477174479205978,
                -3.1987440802861933
            ]
        },
        {
            "positions": [
                -0.027227531086660983,
                -1.8318184338732493,
                2.394328570317447,
                -0.5551993635100587,
                0.532871329925963,
                -3.182257277869366
            ]
        },
        {
            "positions": [
                0.216788952063935,
                -1.8575970945274407,
                2.394988416196607,
                -0.5316715908435423,
                0.588568180645948,
                -3.165770475452539
            ]
        },
        {
            "positions": [
                0.460805435214531,
                -1.8833757551816321,
                2.3956482620757678,
                -0.5081438181770259,
                0.6442650313659329,
                -3.1492836730357117
            ]
        },
        {
            "positions": [
                0.7048219183651266,
                -1.9091544158358236,
                2.396308107954928,
                -0.4846160455105095,
                0.6999618820859179,
                -3.1327968706188845
            ]
        }
    ]
}