{
    "goal": {
        "global_pose": {
            "orientation": {
                "w": 0.7031023502349854,
                "x": -0.7110244035720825,
                "y": 0.007748599164187908,
                "z": 0.005598929710686207
            },
            "position": {
                "x": 0.11585023208521307,
                "y": 0.44412534475326537,
                "z": 0.3711530566215515
            }
        },
        "name": "move_to_auspresseinheit_A"
    },
    "id": "LazyPRMstar_move_to_auspresseinheit_A_133",
    "joint_names": [
        "shoulder_pan_joint",
        "shoulder_lift_joint",
        "elbow_joint",
        "wrist_1_joint",
        "wrist_2_joint",
        "wrist_3_joint"
    ],
    "metrics": {
        "cart_traj_len": 0.7918889027435487,
        "distance_elbow_joint": 0.06540702291436329,
        "distance_shoulder_lift_joint": 1.4083582101706023,
        "distance_shoulder_pan_joint": 1.0414852022621148,
        "distance_wrist_1_joint": 1.5285806975145342,
        "distance_wrist_2_joint": 1.1391197375339046,
        "distance_wrist_3_joint": 0.27228578279556004,
        "smoothness": 1.4129240444427447,
        "time": 5.008443764,
        "traj_len": 2.3356448045863223,
        "weighted_distance": 2.9440632897121355
    },
    "planner": "LazyPRMstar",
    "start": {
        "state": {
            "elbow_joint": 2.422574709923281,
            "shoulder_lift_joint": -1.3736533754116391,
            "shoulder_pan_joint": -0.33786336945926293,
            "wrist_1_joint": -1.0288603412921917,
            "wrist_2_joint": 1.2330224858903978,
            "wrist_3_joint": -3.094022268022082
        }
    },
    "waypoints": [
        {
            "positions": [
                -0.33786336945926293,
                -1.3736533754116391,
                2.422574709923281,
                -1.0288603412921917,
                1.2330224858903978,
                -3.094022268022082
            ]
        },
        {
            "positions": [
                -0.2955428877466473,
                -1.4816101257578969,
                2.4172754317154124,
                -0.9123932531416943,
                1.1400460932965033,
                -3.1112587782086476
            ]
        },
        {
            "positions": [
                -0.2532224060340316,
                -1.5895668761041546,
                2.4119761535075432,
                -0.7959261649911968,
                1.047069700702609,
                -3.128495288395213
            ]
        },
        {
            "positions": [
                -0.210901924321416,
                -1.6975236264504123,
                2.4066768752996746,
                -0.6794590768406995,
                0.9540933081087147,
                -3.1457317985817785
            ]
        },
        {
            "positions": [
                -0.16858144260880034,
                -1.8054803767966703,
                2.4013775970918054,
                -0.5629919886902021,
                0.8611169155148204,
                -3.162968308768344
            ]
        },
        {
            "positions": [
                -0.1262609608961847,
                -1.913437127142928,
                2.3960783188839367,
                -0.4465249005397046,
                0.7681405229209259,
                -3.18020481895491
            ]
        },
        {
            "positions": [
                -0.08394047918356906,
                -2.021393877489186,
                2.3907790406760676,
                -0.3300578123892073,
                0.6751641303270317,
                -3.1974413291414754
            ]
        },
        {
            "positions": [
                -0.04161999747095341,
                -2.1293506278354437,
                2.385479762468199,
                -0.21359072423870973,
                0.5821877377331373,
                -3.214677839328041
            ]
        },
        {
            "positions": [
                0.000700484241662247,
                -2.2373073781817014,
                2.38018048426033,
                -0.0971236360882124,
                0.4892113451392429,
                -3.2319143495146063
            ]
        },
        {
            "positions": [
                0.0430209659542779,
                -2.345264128527959,
                2.374881206052461,
                0.01934345206228502,
                0.3962349525453485,
                -3.249150859701172
            ]
        },
        {
            "positions": [
                0.15312111042904028,
                -2.2724728856855787,
                2.377833459226385,
                -0.06071936529772458,
                0.4466236532434911,
                -3.2296246611817603
            ]
        },
        {
            "positions": [
                0.26322125490380266,
                -2.1996816428431982,
                2.380785712400309,
                -0.14078218265773418,
                0.49701235394163373,
                -3.2100984626623483
            ]
        },
        {
            "positions": [
                0.37332139937856507,
                -2.126890400000818,
                2.383737965574233,
                -0.2208450000177438,
                0.5474010546397764,
                -3.1905722641429364
            ]
        },
        {
            "positions": [
                0.4834215438533274,
                -2.0540991571584377,
                2.3866902187481567,
                -0.3009078173777534,
                0.597789755337919,
                -3.171046065623525
            ]
        },
        {
            "positions": [
                0.5935216883280898,
                -1.9813079143160572,
                2.3896424719220803,
                -0.38097063473776305,
                0.6481784560360616,
                -3.1515198671041134
            ]
        },
        {
            "positions": [
                0.7036218328028522,
                -1.908516671473677,
                2.3925947250960045,
                -0.4610334520977726,
                0.6985671567342042,
                -3.1319936685847014
            ]
        }
    ]
}