{
    "goal": {
        "global_pose": {
            "orientation": {
                "w": 0.5084816217422485,
                "x": -0.49083608388900757,
                "y": 0.5182115435600281,
                "z": -0.4816462993621826
            },
            "position": {
                "x": 0.5540239810943604,
                "y": 0.030875300988554955,
                "z": 0.16403168439865112
            }
        },
        "name": "move_to_storage_A"
    },
    "id": "LazyPRMstar_move_to_storage_A_48",
    "joint_names": [
        "shoulder_pan_joint",
        "shoulder_lift_joint",
        "elbow_joint",
        "wrist_1_joint",
        "wrist_2_joint",
        "wrist_3_joint"
    ],
    "metrics": {
        "cart_traj_len": 0.3523803822253373,
        "distance_elbow_joint": 0.4487797100863271,
        "distance_shoulder_lift_joint": 0.23475845713859633,
        "distance_shoulder_pan_joint": 0.4622064672807133,
        "distance_wrist_1_joint": 0.23635066867278753,
        "distance_wrist_2_joint": 1.0915158253525188,
        "distance_wrist_3_joint": 0.08818898578455858,
        "smoothness": 6.661338165333112e-16,
        "time": 5.000565427000001,
        "traj_len": 1.6005624368688343,
        "weighted_distance": 2.0164435474145876
    },
    "planner": "LazyPRMstar",
    "start": {
        "state": {
            "elbow_joint": 1.9715463870305268,
            "shoulder_lift_joint": -1.1394903361783484,
            "shoulder_pan_joint": 0.12281147578464417,
            "wrist_1_joint": -0.7804599489681411,
            "wrist_2_joint": 0.12958660307563738,
            "wrist_3_joint": -3.1924946282119055
        }
    },
    "waypoints": [
        {
            "positions": [
                0.12281147578464417,
                -1.1394903361783484,
                1.9715463870305268,
                -0.7804599489681411,
                0.12958660307563738,
                -3.1924946282119055
            ]
        },
        {
            "positions": [
                0.056781980458827985,
                -1.1730272586267192,
                2.0356577741857165,
                -0.8142243302071107,
                0.2855174352688543,
                -3.179896201671254
            ]
        },
        {
            "positions": [
                -0.009247514866988202,
                -1.2065641810750902,
                2.0997691613409057,
                -0.8479887114460803,
                0.44144826746207133,
                -3.1672977751306033
            ]
        },
        {
            "positions": [
                -0.07527701019280437,
                -1.240101103523461,
                2.1638805484960955,
                -0.88175309268505,
                0.5973790996552882,
                -3.154699348589952
            ]
        },
        {
            "positions": [
                -0.14130650551862056,
                -1.273638025971832,
                2.227991935651285,
                -0.9155174739240197,
                0.7533099318485053,
                -3.1421009220493006
            ]
        },
        {
            "positions": [
                -0.20733600084443676,
                -1.3071749484202029,
                2.292103322806475,
                -0.9492818551629894,
                0.9092407640417223,
                -3.1295024955086492
            ]
        },
        {
            "positions": [
                -0.2733654961702529,
                -1.340711870868574,
                2.356214709961664,
                -0.983046236401959,
                1.065171596234939,
                -3.1169040689679983
            ]
        },
        {
            "positions": [
                -0.3393949914960691,
                -1.3742487933169447,
                2.420326097116854,
                -1.0168106176409286,
                1.2211024284281562,
                -3.104305642427347
            ]
        }
    ]
}