{
    "goal": {
        "global_pose": {
            "orientation": {
                "w": 0.5084816217422485,
                "x": -0.49083608388900757,
                "y": 0.5182115435600281,
                "z": -0.4816462993621826
            },
            "position": {
                "x": 0.5540239810943604,
                "y": 0.030875300988554955,
                "z": 0.16403168439865112
            }
        },
        "name": "move_to_storage_A"
    },
    "id": "LazyPRMstar_move_to_storage_A_92",
    "joint_names": [
        "shoulder_pan_joint",
        "shoulder_lift_joint",
        "elbow_joint",
        "wrist_1_joint",
        "wrist_2_joint",
        "wrist_3_joint"
    ],
    "metrics": {
        "cart_traj_len": 0.3535931057639778,
        "distance_elbow_joint": 0.45506784352971685,
        "distance_shoulder_lift_joint": 0.23308636084699774,
        "distance_shoulder_pan_joint": 0.4644895195466589,
        "distance_wrist_1_joint": 0.26243076308988866,
        "distance_wrist_2_joint": 1.090897768060625,
        "distance_wrist_3_joint": 0.10546875461533611,
        "smoothness": 4.440892133664971e-16,
        "time": 5.001093934,
        "traj_len": 1.6159953619021383,
        "weighted_distance": 2.043454685103247
    },
    "planner": "LazyPRMstar",
    "start": {
        "state": {
            "elbow_joint": 1.9715463870305268,
            "shoulder_lift_joint": -1.1394903361783484,
            "shoulder_pan_joint": 0.12281147578464417,
            "wrist_1_joint": -0.7804599489681411,
            "wrist_2_joint": 0.12958660307563738,
            "wrist_3_joint": -3.1924946282119055
        }
    },
    "waypoints": [
        {
            "positions": [
                0.12281147578464417,
                -1.1394903361783484,
                1.9715463870305268,
                -0.7804599489681411,
                0.12958660307563738,
                -3.1924946282119055
            ]
        },
        {
            "positions": [
                0.05645583013512148,
                -1.1727883877279195,
                2.0365560789633435,
                -0.8179500579809823,
                0.2854291413700124,
                -3.1774276632668577
            ]
        },
        {
            "positions": [
                -0.009899815514401208,
                -1.2060864392774906,
                2.10156577089616,
                -0.8554401669938235,
                0.4412716796643874,
                -3.1623606983218093
            ]
        },
        {
            "positions": [
                -0.07625546116392391,
                -1.2393844908270617,
                2.166575462828977,
                -0.8929302760066647,
                0.5971142179587624,
                -3.1472937333767614
            ]
        },
        {
            "positions": [
                -0.14261110681344658,
                -1.2726825423766328,
                2.2315851547617935,
                -0.9304203850195061,
                0.7529567562531374,
                -3.1322267684317135
            ]
        },
        {
            "positions": [
                -0.2089667524629693,
                -1.305980593926204,
                2.2965948466946102,
                -0.9679104940323473,
                0.9087992945475125,
                -3.1171598034866657
            ]
        },
        {
            "positions": [
                -0.275322398112492,
                -1.339278645475775,
                2.361604538627427,
                -1.0054006030451885,
                1.0646418328418874,
                -3.1020928385416173
            ]
        },
        {
            "positions": [
                -0.3416780437620147,
                -1.3725766970253461,
                2.4266142305602436,
                -1.0428907120580297,
                1.2204843711362625,
                -3.0870258735965694
            ]
        }
    ]
}