{
    "goal": {
        "global_pose": {
            "orientation": {
                "w": 0.7031023502349854,
                "x": -0.7110244035720825,
                "y": 0.007748599164187908,
                "z": 0.005598929710686207
            },
            "position": {
                "x": 0.11585023208521307,
                "y": 0.44412534475326537,
                "z": 0.3711530566215515
            }
        },
        "name": "move_to_auspresseinheit_A"
    },
    "id": "LazyPRMstar_move_to_auspresseinheit_A_96",
    "joint_names": [
        "shoulder_pan_joint",
        "shoulder_lift_joint",
        "elbow_joint",
        "wrist_1_joint",
        "wrist_2_joint",
        "wrist_3_joint"
    ],
    "metrics": {
        "cart_traj_len": 0.6677042542426636,
        "distance_elbow_joint": 0.08399361567585961,
        "distance_shoulder_lift_joint": 0.5340731268505987,
        "distance_shoulder_pan_joint": 1.040566988367682,
        "distance_wrist_1_joint": 1.3521117508956146,
        "distance_wrist_2_joint": 0.5359878479056159,
        "distance_wrist_3_joint": 2.118894808683914,
        "smoothness": 1.070057984190161,
        "time": 5.01042413,
        "traj_len": 2.3802579982807086,
        "weighted_distance": 3.433877888706636
    },
    "planner": "LazyPRMstar",
    "start": {
        "state": {
            "elbow_joint": 2.422574709923281,
            "shoulder_lift_joint": -1.3736533754116391,
            "shoulder_pan_joint": -0.33786336945926293,
            "wrist_1_joint": -1.0288603412921917,
            "wrist_2_joint": 1.2330224858903978,
            "wrist_3_joint": -3.094022268022082
        }
    },
    "waypoints": [
        {
            "positions": [
                -0.33786336945926293,
                -1.3736533754116391,
                2.422574709923281,
                -1.0288603412921917,
                1.2330224858903978,
                -3.094022268022082
            ]
        },
        {
            "positions": [
                -0.2725790587377609,
                -1.4022382884279407,
                2.4161692249137707,
                -0.9222439352065316,
                1.1851218458638444,
                -2.9784106397145975
            ]
        },
        {
            "positions": [
                -0.2072947480162589,
                -1.4308232014442424,
                2.4097637399042604,
                -0.8156275291208714,
                1.137221205837291,
                -2.862799011407113
            ]
        },
        {
            "positions": [
                -0.14201043729475693,
                -1.4594081144605437,
                2.4033582548947505,
                -0.7090111230352113,
                1.0893205658107377,
                -2.7471873830996283
            ]
        },
        {
            "positions": [
                -0.0767261265732549,
                -1.4879930274768454,
                2.39695276988524,
                -0.6023947169495512,
                1.0414199257841843,
                -2.631575754792144
            ]
        },
        {
            "positions": [
                -0.011441815851752912,
                -1.516577940493147,
                2.39054728487573,
                -0.4957783108638909,
                0.9935192857576308,
                -2.5159641264846595
            ]
        },
        {
            "positions": [
                0.05384249486974907,
                -1.5451628535094486,
                2.3841417998662195,
                -0.38916190477823087,
                0.9456186457310775,
                -2.400352498177175
            ]
        },
        {
            "positions": [
                0.1191268055912511,
                -1.57374776652575,
                2.3777363148567097,
                -0.2825454986925706,
                0.897718005704524,
                -2.2847408698696903
            ]
        },
        {
            "positions": [
                0.18441111631275314,
                -1.6023326795420516,
                2.3713308298471993,
                -0.1759290926069106,
                0.8498173656779706,
                -2.1691292415622057
            ]
        },
        {
            "positions": [
                0.2496954270342551,
                -1.6309175925583532,
                2.364925344837689,
                -0.06931268652125035,
                0.8019167256514173,
                -2.053517613254721
            ]
        },
        {
            "positions": [
                0.3251967923466158,
                -1.677052410842334,
                2.3693160532694004,
                -0.13474003587536254,
                0.784436377706978,
                -2.2332493055741467
            ]
        },
        {
            "positions": [
                0.40069815765897643,
                -1.7231872291263148,
                2.3737067617011114,
                -0.20016738522947475,
                0.7669560297625387,
                -2.412980997893572
            ]
        },
        {
            "positions": [
                0.47619952297133716,
                -1.7693220474102955,
                2.378097470132823,
                -0.26559473458358696,
                0.7494756818180995,
                -2.5927126902129976
            ]
        },
        {
            "positions": [
                0.5517008882836978,
                -1.8154568656942762,
                2.382488178564534,
                -0.33102208393769916,
                0.7319953338736603,
                -2.7724443825324228
            ]
        },
        {
            "positions": [
                0.6272022535960585,
                -1.8615916839782571,
                2.386878886996245,
                -0.39644943329181137,
                0.714514985929221,
                -2.952176074851849
            ]
        },
        {
            "positions": [
                0.7027036189084191,
                -1.9077265022622378,
                2.3912695954279566,
                -0.4618767826459236,
                0.6970346379847818,
                -3.131907767171274
            ]
        }
    ]
}