{
    "goal": {
        "global_pose": {
            "orientation": {
                "w": 0.7031023502349854,
                "x": -0.7110244035720825,
                "y": 0.007748599164187908,
                "z": 0.005598929710686207
            },
            "position": {
                "x": 0.11585023208521307,
                "y": 0.44412534475326537,
                "z": 0.3711530566215515
            }
        },
        "name": "move_to_auspresseinheit_A"
    },
    "id": "LazyPRMstar_move_to_auspresseinheit_A_48",
    "joint_names": [
        "shoulder_pan_joint",
        "shoulder_lift_joint",
        "elbow_joint",
        "wrist_1_joint",
        "wrist_2_joint",
        "wrist_3_joint"
    ],
    "metrics": {
        "cart_traj_len": 0.9229487737396633,
        "distance_elbow_joint": 0.18658919144116703,
        "distance_shoulder_lift_joint": 0.5365894977212684,
        "distance_shoulder_pan_joint": 1.9819400619353322,
        "distance_wrist_1_joint": 0.5506724167663266,
        "distance_wrist_2_joint": 2.1061891303867384,
        "distance_wrist_3_joint": 0.25490560884395563,
        "smoothness": 1.1634112411126378,
        "time": 5.007729561,
        "traj_len": 2.3699970268113817,
        "weighted_distance": 2.9637069139737426
    },
    "planner": "LazyPRMstar",
    "start": {
        "state": {
            "elbow_joint": 2.422574709923281,
            "shoulder_lift_joint": -1.3736533754116391,
            "shoulder_pan_joint": -0.33786336945926293,
            "wrist_1_joint": -1.0288603412921917,
            "wrist_2_joint": 1.2330224858903978,
            "wrist_3_joint": -3.094022268022082
        }
    },
    "waypoints": [
        {
            "positions": [
                -0.33786336945926293,
                -1.3736533754116391,
                2.422574709923281,
                -1.0288603412921917,
                1.2330224858903978,
                -3.094022268022082
            ]
        },
        {
            "positions": [
                -0.39653528032340923,
                -1.4249667650113071,
                2.409237948007906,
                -0.9727022910460128,
                1.0681199656270897,
                -3.1126714748805737
            ]
        },
        {
            "positions": [
                -0.4552071911875556,
                -1.476280154610975,
                2.395901186092531,
                -0.9165442407998339,
                0.9032174453637816,
                -3.1313206817390653
            ]
        },
        {
            "positions": [
                -0.513879102051702,
                -1.527593544210643,
                2.382564424177156,
                -0.860386190553655,
                0.7383149251004735,
                -3.149969888597557
            ]
        },
        {
            "positions": [
                -0.5725510129158482,
                -1.5789069338103108,
                2.369227662261781,
                -0.804228140307476,
                0.5734124048371654,
                -3.1686190954560485
            ]
        },
        {
            "positions": [
                -0.6312229237799946,
                -1.6302203234099788,
                2.355890900346406,
                -0.7480700900612971,
                0.4085098845738573,
                -3.18726830231454
            ]
        },
        {
            "positions": [
                -0.6898948346441409,
                -1.6815337130096468,
                2.342554138431031,
                -0.6919120398151181,
                0.2436073643105492,
                -3.2059175091730316
            ]
        },
        {
            "positions": [
                -0.7485667455082872,
                -1.7328471026093148,
                2.329217376515656,
                -0.6357539895689391,
                0.0787048440472411,
                -3.2245667160315232
            ]
        },
        {
            "positions": [
                -0.8072386563724335,
                -1.7841604922089827,
                2.315880614600281,
                -0.5795959393227602,
                -0.08619767621606711,
                -3.243215922890015
            ]
        },
        {
            "positions": [
                -0.5911579742264105,
                -1.8021722609124005,
                2.327294199760019,
                -0.5651090800660609,
                0.026226462109686224,
                -3.228114215179154
            ]
        },
        {
            "positions": [
                -0.3750772920803874,
                -1.8201840296158183,
                2.338707784919757,
                -0.5506222208093616,
                0.13865060043543956,
                -3.213012507468294
            ]
        },
        {
            "positions": [
                -0.15899660993436437,
                -1.838195798319236,
                2.350121370079495,
                -0.5361353615526623,
                0.2510747387611929,
                -3.1979107997574334
            ]
        },
        {
            "positions": [
                0.057084072211658676,
                -1.856207567022654,
                2.3615349552392333,
                -0.521648502295963,
                0.3634988770869462,
                -3.1828090920465733
            ]
        },
        {
            "positions": [
                0.2731647543576817,
                -1.874219335726072,
                2.3729485403989714,
                -0.5071616430392637,
                0.47592301541269966,
                -3.1677073843357126
            ]
        },
        {
            "positions": [
                0.4892454365037048,
                -1.8922311044294897,
                2.3843621255587095,
                -0.4926747837825644,
                0.5883471537384529,
                -3.1526056766248525
            ]
        },
        {
            "positions": [
                0.7053261186497279,
                -1.9102428731329075,
                2.3957757107184476,
                -0.4781879245258651,
                0.7007712920642063,
                -3.137503968913992
            ]
        }
    ]
}