{
    "goal": {
        "global_pose": {
            "orientation": {
                "w": 0.7047431468963623,
                "x": -0.7094548344612122,
                "y": 0.0024358443915843964,
                "z": -0.0022348060738295317
            },
            "position": {
                "x": 0.6094750761985779,
                "y": 0.3671506643295288,
                "z": 0.19426114857196808
            }
        },
        "name": "move_to_magneteinheit_A"
    },
    "id": "LazyPRMstar_move_to_magneteinheit_A_39",
    "joint_names": [
        "shoulder_pan_joint",
        "shoulder_lift_joint",
        "elbow_joint",
        "wrist_1_joint",
        "wrist_2_joint",
        "wrist_3_joint"
    ],
    "metrics": {
        "cart_traj_len": 1.872084036039317,
        "distance_elbow_joint": 3.932102243483908,
        "distance_shoulder_lift_joint": 0.7075146446244336,
        "distance_shoulder_pan_joint": 1.2417998756281057,
        "distance_wrist_1_joint": 1.5539096187166073,
        "distance_wrist_2_joint": 1.707033342408827,
        "distance_wrist_3_joint": 1.1933704885084346,
        "smoothness": 3.806478953818552e-16,
        "time": 5.001221567,
        "traj_len": 3.214923049369971,
        "weighted_distance": 3.9979262313745387
    },
    "planner": "LazyPRMstar",
    "start": {
        "state": {
            "elbow_joint": -1.919643507792019,
            "shoulder_lift_joint": -0.07675430207160344,
            "shoulder_pan_joint": -1.1188671864651873,
            "wrist_1_joint": 0.42560062535961957,
            "wrist_2_joint": 1.5706038300724876,
            "wrist_3_joint": 1.1188968870953055
        }
    },
    "waypoints": [
        {
            "positions": [
                -1.1188671864651873,
                -0.07675430207160344,
                -1.919643507792019,
                0.42560062535961957,
                1.5706038300724876,
                1.1188968870953055
            ]
        },
        {
            "positions": [
                -1.0728745984789612,
                -0.10295854816880469,
                -1.7740100913666892,
                0.48315283346023463,
                1.5073803729462347,
                1.0746979801135117
            ]
        },
        {
            "positions": [
                -1.026882010492735,
                -0.12916279426600594,
                -1.6283766749413593,
                0.5407050415608498,
                1.4441569158199818,
                1.0304990731317178
            ]
        },
        {
            "positions": [
                -0.980889422506509,
                -0.15536704036320717,
                -1.4827432585160294,
                0.5982572496614649,
                1.380933458693729,
                0.986300166149924
            ]
        },
        {
            "positions": [
                -0.9348968345202828,
                -0.18157128646040843,
                -1.3371098420906993,
                0.6558094577620799,
                1.3177100015674763,
                0.94210125916813
            ]
        },
        {
            "positions": [
                -0.8889042465340566,
                -0.20777553255760967,
                -1.1914764256653694,
                0.7133616658626949,
                1.2544865444412234,
                0.8979023521863362
            ]
        },
        {
            "positions": [
                -0.8429116585478306,
                -0.2339797786548109,
                -1.0458430092400395,
                0.7709138739633101,
                1.1912630873149705,
                0.8537034452045423
            ]
        },
        {
            "positions": [
                -0.7969190705616045,
                -0.26018402475201213,
                -0.9002095928147096,
                0.8284660820639251,
                1.1280396301887177,
                0.8095045382227484
            ]
        },
        {
            "positions": [
                -0.7509264825753783,
                -0.28638827084921337,
                -0.7545761763893797,
                0.8860182901645401,
                1.0648161730624648,
                0.7653056312409545
            ]
        },
        {
            "positions": [
                -0.7049338945891521,
                -0.31259251694641466,
                -0.6089427599640498,
                0.9435704982651554,
                1.001592715936212,
                0.7211067242591607
            ]
        },
        {
            "positions": [
                -0.6589413066029259,
                -0.3387967630436159,
                -0.4633093435387199,
                1.0011227063657704,
                0.9383692588099591,
                0.6769078172773668
            ]
        },
        {
            "positions": [
                -0.6129487186166999,
                -0.3650010091408171,
                -0.31767592711339,
                1.0586749144663854,
                0.8751458016837063,
                0.632708910295573
            ]
        },
        {
            "positions": [
                -0.5669561306304738,
                -0.39120525523801836,
                -0.1720425106880601,
                1.1162271225670006,
                0.8119223445574534,
                0.5885100033137791
            ]
        },
        {
            "positions": [
                -0.5209635426442476,
                -0.4174095013352196,
                -0.026409094262730193,
                1.1737793306676156,
                0.7486988874312005,
                0.5443110963319852
            ]
        },
        {
            "positions": [
                -0.4749709546580215,
                -0.4436137474324208,
                0.11922432216259993,
                1.2313315387682306,
                0.6854754303049477,
                0.5001121893501913
            ]
        },
        {
            "positions": [
                -0.42897836667179523,
                -0.4698179935296221,
                0.2648577385879298,
                1.2888837468688459,
                0.6222519731786947,
                0.45591328236839734
            ]
        },
        {
            "positions": [
                -0.38298577868556916,
                -0.49602223962682335,
                0.4104911550132597,
                1.346435954969461,
                0.559028516052442,
                0.4117143753866036
            ]
        },
        {
            "positions": [
                -0.33699319069934297,
                -0.5222264857240246,
                0.5561245714385896,
                1.4039881630700761,
                0.4958050589261891,
                0.36751546840480964
            ]
        },
        {
            "positions": [
                -0.2910006027131169,
                -0.5484307318212258,
                0.7017579878639195,
                1.4615403711706911,
                0.4325816017999362,
                0.3233165614230158
            ]
        },
        {
            "positions": [
                -0.2450080147268907,
                -0.5746349779184271,
                0.8473914042892499,
                1.5190925792713061,
                0.36935814467368333,
                0.27911765444122194
            ]
        },
        {
            "positions": [
                -0.19901542674066464,
                -0.6008392240156284,
                0.9930248207145793,
                1.5766447873719212,
                0.3061346875474307,
                0.2349187474594281
            ]
        },
        {
            "positions": [
                -0.15302283875443845,
                -0.6270434701128296,
                1.1386582371399097,
                1.6341969954725364,
                0.24291123042117757,
                0.19071984047763413
            ]
        },
        {
            "positions": [
                -0.10703025076821238,
                -0.6532477162100307,
                1.284291653565239,
                1.6917492035731514,
                0.1796877732949249,
                0.1465209334958404
            ]
        },
        {
            "positions": [
                -0.06103766278198619,
                -0.6794519623072321,
                1.4299250699905695,
                1.7493014116737666,
                0.11646431616867181,
                0.10232202651404632
            ]
        },
        {
            "positions": [
                -0.015045074795760227,
                -0.7056562084044333,
                1.575558486415899,
                1.8068536197743816,
                0.05324085904241915,
                0.05812311953225269
            ]
        },
        {
            "positions": [
                0.03094751319046596,
                -0.7318604545016345,
                1.7211919028412292,
                1.8644058278749966,
                -0.009982598083833727,
                0.013924212550458615
            ]
        },
        {
            "positions": [
                0.07694010117669214,
                -0.7580647005988357,
                1.8668253192665587,
                1.9219580359756117,
                -0.0732060552100866,
                -0.030274694431335236
            ]
        },
        {
            "positions": [
                0.12293268916291843,
                -0.7842689466960371,
                2.0124587356918893,
                1.9795102440762269,
                -0.13642951233633954,
                -0.07447360141312903
            ]
        }
    ]
}