{
    "goal": {
        "global_pose": {
            "orientation": {
                "w": 0.7031023502349854,
                "x": -0.7110244035720825,
                "y": 0.007748599164187908,
                "z": 0.005598929710686207
            },
            "position": {
                "x": 0.11585023208521307,
                "y": 0.44412534475326537,
                "z": 0.3711530566215515
            }
        },
        "name": "move_to_auspresseinheit_A"
    },
    "id": "LazyPRMstar_move_to_auspresseinheit_A_19",
    "joint_names": [
        "shoulder_pan_joint",
        "shoulder_lift_joint",
        "elbow_joint",
        "wrist_1_joint",
        "wrist_2_joint",
        "wrist_3_joint"
    ],
    "metrics": {
        "cart_traj_len": 0.7053015259500584,
        "distance_elbow_joint": 0.04459827300970742,
        "distance_shoulder_lift_joint": 0.5367164914215798,
        "distance_shoulder_pan_joint": 1.0427251554531167,
        "distance_wrist_1_joint": 0.5553049982571405,
        "distance_wrist_2_joint": 0.5346643232223887,
        "distance_wrist_3_joint": 0.04968051245441396,
        "smoothness": 0.12702395455984722,
        "time": 5.00638687,
        "traj_len": 1.662434887091325,
        "weighted_distance": 1.9882203349243524
    },
    "planner": "LazyPRMstar",
    "start": {
        "state": {
            "elbow_joint": 2.422574709923281,
            "shoulder_lift_joint": -1.3736533754116391,
            "shoulder_pan_joint": -0.33786336945926293,
            "wrist_1_joint": -1.0288603412921917,
            "wrist_2_joint": 1.2330224858903978,
            "wrist_3_joint": -3.094022268022082
        }
    },
    "waypoints": [
        {
            "positions": [
                -0.33786336945926293,
                -1.3736533754116391,
                2.422574709923281,
                -1.0288603412921917,
                1.2330224858903978,
                -3.094022268022082
            ]
        },
        {
            "positions": [
                -0.21537058847365823,
                -1.55432882920145,
                2.430854523440407,
                -1.0297800738203158,
                1.2275868681524127,
                -3.0882111692300507
            ]
        },
        {
            "positions": [
                -0.0839088206925851,
                -1.605191834577417,
                2.4256661720843242,
                -0.9505821787161706,
                1.1519827673689265,
                -3.0944782283246766
            ]
        },
        {
            "positions": [
                0.047552947088488035,
                -1.656054839953384,
                2.420477820728241,
                -0.8713842836120254,
                1.0763786665854402,
                -3.100745287419303
            ]
        },
        {
            "positions": [
                0.17901471486956114,
                -1.706917845329351,
                2.415289469372158,
                -0.7921863885078801,
                1.000774565801954,
                -3.1070123465139288
            ]
        },
        {
            "positions": [
                0.3104764826506343,
                -1.757780850705318,
                2.4101011180160747,
                -0.7129884934037349,
                0.9251704650184678,
                -3.113279405608555
            ]
        },
        {
            "positions": [
                0.44193825043170754,
                -1.808643856081285,
                2.404912766659992,
                -0.6337905982995897,
                0.8495663642349816,
                -3.119546464703181
            ]
        },
        {
            "positions": [
                0.5734000182127805,
                -1.8595068614572519,
                2.3997244153039086,
                -0.5545927031954445,
                0.7739622634514953,
                -3.1258135237978073
            ]
        },
        {
            "positions": [
                0.7048617859938537,
                -1.910369866833219,
                2.3945360639478257,
                -0.47539480809129925,
                0.6983581626680091,
                -3.132080582892433
            ]
        }
    ]
}