{
    "goal": {
        "global_pose": {
            "orientation": {
                "w": 0.5084816217422485,
                "x": -0.49083608388900757,
                "y": 0.5182115435600281,
                "z": -0.4816462993621826
            },
            "position": {
                "x": 0.5540239810943604,
                "y": 0.030875300988554955,
                "z": 0.16403168439865112
            }
        },
        "name": "move_to_storage_A"
    },
    "id": "LazyPRM_move_to_storage_A_148",
    "joint_names": [
        "shoulder_pan_joint",
        "shoulder_lift_joint",
        "elbow_joint",
        "wrist_1_joint",
        "wrist_2_joint",
        "wrist_3_joint"
    ],
    "metrics": {
        "cart_traj_len": 0.3538166052328966,
        "distance_elbow_joint": 0.453093264187431,
        "distance_shoulder_lift_joint": 0.23348233013474773,
        "distance_shoulder_pan_joint": 0.4631752309182507,
        "distance_wrist_1_joint": 0.2598884156317188,
        "distance_wrist_2_joint": 1.097612924519901,
        "distance_wrist_3_joint": 0.09628946526859439,
        "smoothness": 1.4432899370326045e-15,
        "time": 0.021855878,
        "traj_len": 1.6135493889747048,
        "weighted_distance": 2.038043645594827
    },
    "planner": "LazyPRM",
    "start": {
        "state": {
            "elbow_joint": 1.9715463870305268,
            "shoulder_lift_joint": -1.1394903361783484,
            "shoulder_pan_joint": 0.12281147578464417,
            "wrist_1_joint": -0.7804599489681411,
            "wrist_2_joint": 0.12958660307563738,
            "wrist_3_joint": -3.1924946282119055
        }
    },
    "waypoints": [
        {
            "positions": [
                0.12281147578464417,
                -1.1394903361783484,
                1.9715463870305268,
                -0.7804599489681411,
                0.12958660307563738,
                -3.1924946282119055
            ]
        },
        {
            "positions": [
                0.0566435856534655,
                -1.1728449547690267,
                2.0362739962001597,
                -0.817586865486958,
                0.28638844943562325,
                -3.178738990316392
            ]
        },
        {
            "positions": [
                -0.009524304477713172,
                -1.2061995733597048,
                2.1010016053697926,
                -0.8547137820057751,
                0.4431902957956091,
                -3.1649833524208786
            ]
        },
        {
            "positions": [
                -0.07569219460889183,
                -1.2395541919503832,
                2.1657292145394256,
                -0.891840698524592,
                0.5999921421555949,
                -3.151227714525365
            ]
        },
        {
            "positions": [
                -0.1418600847400705,
                -1.2729088105410613,
                2.2304568237090585,
                -0.928967615043409,
                0.7567939885155808,
                -3.1374720766298516
            ]
        },
        {
            "positions": [
                -0.2080279748712492,
                -1.3062634291317397,
                2.295184432878692,
                -0.966094531562226,
                0.9135958348755666,
                -3.123716438734338
            ]
        },
        {
            "positions": [
                -0.2741958650024278,
                -1.3396180477224178,
                2.359912042048325,
                -1.0032214480810429,
                1.0703976812355525,
                -3.1099608008388246
            ]
        },
        {
            "positions": [
                -0.3403637551336065,
                -1.3729726663130961,
                2.4246396512179578,
                -1.04034836459986,
                1.2271995275955383,
                -3.096205162943311
            ]
        }
    ]
}