{
    "goal": {
        "global_pose": {
            "orientation": {
                "w": 0.5084816217422485,
                "x": -0.49083608388900757,
                "y": 0.5182115435600281,
                "z": -0.4816462993621826
            },
            "position": {
                "x": 0.5540239810943604,
                "y": 0.030875300988554955,
                "z": 0.16403168439865112
            }
        },
        "name": "move_to_storage_A"
    },
    "id": "LazyPRM_move_to_storage_A_68",
    "joint_names": [
        "shoulder_pan_joint",
        "shoulder_lift_joint",
        "elbow_joint",
        "wrist_1_joint",
        "wrist_2_joint",
        "wrist_3_joint"
    ],
    "metrics": {
        "cart_traj_len": 0.35269245073955735,
        "distance_elbow_joint": 0.4497575219103229,
        "distance_shoulder_lift_joint": 0.2343714085042603,
        "distance_shoulder_pan_joint": 0.45700046215410334,
        "distance_wrist_1_joint": 0.24076428432240393,
        "distance_wrist_2_joint": 1.1162712615185673,
        "distance_wrist_3_joint": 0.09530088758148736,
        "smoothness": 8.881784232165597e-16,
        "time": 0.021991638,
        "traj_len": 1.6104241137014637,
        "weighted_distance": 2.034970060466515
    },
    "planner": "LazyPRM",
    "start": {
        "state": {
            "elbow_joint": 1.9715463870305268,
            "shoulder_lift_joint": -1.1394903361783484,
            "shoulder_pan_joint": 0.12281147578464417,
            "wrist_1_joint": -0.7804599489681411,
            "wrist_2_joint": 0.12958660307563738,
            "wrist_3_joint": -3.1924946282119055
        }
    },
    "waypoints": [
        {
            "positions": [
                0.12281147578464417,
                -1.1394903361783484,
                1.9715463870305268,
                -0.7804599489681411,
                0.12958660307563738,
                -3.1924946282119055
            ]
        },
        {
            "positions": [
                0.057525695476915134,
                -1.1729719659646713,
                2.0357974615891443,
                -0.8148548467284845,
                0.2890539261497184,
                -3.1788802157002647
            ]
        },
        {
            "positions": [
                -0.007760084830813904,
                -1.206453595750994,
                2.100048536147762,
                -0.849249744488828,
                0.44852124922379943,
                -3.1652658031886234
            ]
        },
        {
            "positions": [
                -0.07304586513854296,
                -1.239935225537317,
                2.1642996107063794,
                -0.8836446422491713,
                0.6079885722978805,
                -3.1516513906769825
            ]
        },
        {
            "positions": [
                -0.13833164544627197,
                -1.27341685532364,
                2.228550685264997,
                -0.9180395400095147,
                0.7674558953719616,
                -3.138036978165341
            ]
        },
        {
            "positions": [
                -0.20361742575400105,
                -1.306898485109963,
                2.2928017598236146,
                -0.9524344377698581,
                0.9269232184460426,
                -3.1244225656537004
            ]
        },
        {
            "positions": [
                -0.26890320606173007,
                -1.3403801148962857,
                2.357052834382232,
                -0.9868293355302016,
                1.0863905415201236,
                -3.110808153142059
            ]
        },
        {
            "positions": [
                -0.33418898636945915,
                -1.3738617446826087,
                2.4213039089408497,
                -1.021224233290545,
                1.2458578645942047,
                -3.097193740630418
            ]
        }
    ]
}