{
    "goal": {
        "global_pose": {
            "orientation": {
                "w": 0.5084816217422485,
                "x": -0.49083608388900757,
                "y": 0.5182115435600281,
                "z": -0.4816462993621826
            },
            "position": {
                "x": 0.5540239810943604,
                "y": 0.030875300988554955,
                "z": 0.16403168439865112
            }
        },
        "name": "move_to_storage_A"
    },
    "id": "LazyPRMstar_move_to_storage_A_97",
    "joint_names": [
        "shoulder_pan_joint",
        "shoulder_lift_joint",
        "elbow_joint",
        "wrist_1_joint",
        "wrist_2_joint",
        "wrist_3_joint"
    ],
    "metrics": {
        "cart_traj_len": 0.35275086159832686,
        "distance_elbow_joint": 0.44904037048106016,
        "distance_shoulder_lift_joint": 0.23569176545112125,
        "distance_shoulder_pan_joint": 0.46052547677189165,
        "distance_wrist_1_joint": 0.23937916037534068,
        "distance_wrist_2_joint": 1.1017300448555234,
        "distance_wrist_3_joint": 0.10499284236512985,
        "smoothness": 1.9984014473322144e-15,
        "time": 5.001274372,
        "traj_len": 1.6097700644191602,
        "weighted_distance": 2.0353020783807967
    },
    "planner": "LazyPRMstar",
    "start": {
        "state": {
            "elbow_joint": 1.9715463870305268,
            "shoulder_lift_joint": -1.1394903361783484,
            "shoulder_pan_joint": 0.12281147578464417,
            "wrist_1_joint": -0.7804599489681411,
            "wrist_2_joint": 0.12958660307563738,
            "wrist_3_joint": -3.1924946282119055
        }
    },
    "waypoints": [
        {
            "positions": [
                0.12281147578464417,
                -1.1394903361783484,
                1.9715463870305268,
                -0.7804599489681411,
                0.12958660307563738,
                -3.1924946282119055
            ]
        },
        {
            "positions": [
                0.057022121960088226,
                -1.1731605883856515,
                2.035695011384964,
                -0.8146569718789041,
                0.2869766094835693,
                -3.177495650731173
            ]
        },
        {
            "positions": [
                -0.00876723186446772,
                -1.2068308405929544,
                2.099843635739401,
                -0.8488539947896669,
                0.44436661589150117,
                -3.16249667325044
            ]
        },
        {
            "positions": [
                -0.07455658568902367,
                -1.2405010928002576,
                2.1639922600938384,
                -0.8830510177004299,
                0.601756622299433,
                -3.147497695769707
            ]
        },
        {
            "positions": [
                -0.1403459395135796,
                -1.2741713450075605,
                2.2281408844482753,
                -0.9172480406111929,
                0.759146628707365,
                -3.132498718288974
            ]
        },
        {
            "positions": [
                -0.20613529333813557,
                -1.3078415972148636,
                2.2922895088027126,
                -0.9514450635219558,
                0.916536635115297,
                -3.1174997408082414
            ]
        },
        {
            "positions": [
                -0.2719246471626915,
                -1.3415118494221665,
                2.3564381331571496,
                -0.9856420864327188,
                1.0739266415232287,
                -3.1025007633275083
            ]
        },
        {
            "positions": [
                -0.33771400098724746,
                -1.3751821016294696,
                2.420586757511587,
                -1.0198391093434818,
                1.2313166479311608,
                -3.0875017858467757
            ]
        }
    ]
}