{
    "goal": {
        "global_pose": {
            "orientation": {
                "w": 0.7031023502349854,
                "x": -0.7110244035720825,
                "y": 0.007748599164187908,
                "z": 0.005598929710686207
            },
            "position": {
                "x": 0.11585023208521307,
                "y": 0.44412534475326537,
                "z": 0.3711530566215515
            }
        },
        "name": "move_to_auspresseinheit_A"
    },
    "id": "LazyPRM_move_to_auspresseinheit_A_100",
    "joint_names": [
        "shoulder_pan_joint",
        "shoulder_lift_joint",
        "elbow_joint",
        "wrist_1_joint",
        "wrist_2_joint",
        "wrist_3_joint"
    ],
    "metrics": {
        "cart_traj_len": 0.6763671732200506,
        "distance_elbow_joint": 0.13940771786530393,
        "distance_shoulder_lift_joint": 0.5322073107436027,
        "distance_shoulder_pan_joint": 1.0483533957706628,
        "distance_wrist_1_joint": 1.5290462119877475,
        "distance_wrist_2_joint": 0.5520351734207178,
        "distance_wrist_3_joint": 0.6888169708400218,
        "smoothness": 0.9359990357507416,
        "time": 0.042496206,
        "traj_len": 2.1189305747541747,
        "weighted_distance": 2.8193229874770585
    },
    "planner": "LazyPRM",
    "start": {
        "state": {
            "elbow_joint": 2.422574709923281,
            "shoulder_lift_joint": -1.3736533754116391,
            "shoulder_pan_joint": -0.33786336945926293,
            "wrist_1_joint": -1.0288603412921917,
            "wrist_2_joint": 1.2330224858903978,
            "wrist_3_joint": -3.094022268022082
        }
    },
    "waypoints": [
        {
            "positions": [
                -0.33786336945926293,
                -1.3736533754116391,
                2.422574709923281,
                -1.0288603412921917,
                1.2330224858903978,
                -3.094022268022082
            ]
        },
        {
            "positions": [
                -0.3070363134801529,
                -1.4324664073439273,
                2.408284444518633,
                -0.8538247272221573,
                1.236365952290879,
                -3.0401940851015485
            ]
        },
        {
            "positions": [
                -0.2762092575010429,
                -1.4912794392762154,
                2.393994179113985,
                -0.6787891131521229,
                1.23970941869136,
                -2.9863659021810145
            ]
        },
        {
            "positions": [
                -0.24538220152193288,
                -1.5500924712085036,
                2.379703913709337,
                -0.5037534990820883,
                1.2430528850918412,
                -2.9325377192604805
            ]
        },
        {
            "positions": [
                -0.21455514554282287,
                -1.608905503140792,
                2.3654136483046893,
                -0.3287178850120539,
                1.2463963514923224,
                -2.878709536339947
            ]
        },
        {
            "positions": [
                -0.18372808956371284,
                -1.66771853507308,
                2.3511233829000413,
                -0.15368227094201936,
                1.2497398178928034,
                -2.8248813534194133
            ]
        },
        {
            "positions": [
                -0.15290103358460283,
                -1.7265315670053683,
                2.3368331174953934,
                0.02135334312801508,
                1.2530832842932846,
                -2.7710531704988792
            ]
        },
        {
            "positions": [
                -0.029559453599459606,
                -1.7521500125982072,
                2.3444997068435955,
                -0.047051303667347846,
                1.177086945005023,
                -2.823317152401282
            ]
        },
        {
            "positions": [
                0.09378212638568362,
                -1.7777684581910465,
                2.352166296191798,
                -0.11545595046271077,
                1.1010906057167615,
                -2.8755811343036846
            ]
        },
        {
            "positions": [
                0.21712370637082684,
                -1.8033869037838854,
                2.3598328855400004,
                -0.1838605972580737,
                1.0250942664284999,
                -2.9278451162060875
            ]
        },
        {
            "positions": [
                0.34046528635597006,
                -1.8290053493767247,
                2.3674994748882026,
                -0.25226524405343664,
                0.9490979271402384,
                -2.98010909810849
            ]
        },
        {
            "positions": [
                0.46380686634111334,
                -1.8546237949695636,
                2.3751660642364048,
                -0.3206698908487996,
                0.8731015878519768,
                -3.032373080010893
            ]
        },
        {
            "positions": [
                0.5871484463262565,
                -1.8802422405624029,
                2.3828326535846074,
                -0.3890745376441625,
                0.7971052485637153,
                -3.0846370619132952
            ]
        },
        {
            "positions": [
                0.7104900263113998,
                -1.9058606861552418,
                2.3904992429328096,
                -0.45747918443952545,
                0.7211089092754537,
                -3.136901043815698
            ]
        }
    ]
}