{
    "goal": {
        "global_pose": {
            "orientation": {
                "w": 0.7031023502349854,
                "x": -0.7110244035720825,
                "y": 0.007748599164187908,
                "z": 0.005598929710686207
            },
            "position": {
                "x": 0.11585023208521307,
                "y": 0.44412534475326537,
                "z": 0.3711530566215515
            }
        },
        "name": "move_to_auspresseinheit_A"
    },
    "id": "LazyPRMstar_move_to_auspresseinheit_A_36",
    "joint_names": [
        "shoulder_pan_joint",
        "shoulder_lift_joint",
        "elbow_joint",
        "wrist_1_joint",
        "wrist_2_joint",
        "wrist_3_joint"
    ],
    "metrics": {
        "cart_traj_len": 0.6867468157366168,
        "distance_elbow_joint": 0.19101836725066335,
        "distance_shoulder_lift_joint": 0.5381484452919025,
        "distance_shoulder_pan_joint": 1.043600486401182,
        "distance_wrist_1_joint": 1.3207389310768969,
        "distance_wrist_2_joint": 0.5269732463983575,
        "distance_wrist_3_joint": 0.32800901466255894,
        "smoothness": 1.0788042873812664,
        "time": 5.006198934,
        "traj_len": 1.9870803937137425,
        "weighted_distance": 2.540121788001893
    },
    "planner": "LazyPRMstar",
    "start": {
        "state": {
            "elbow_joint": 2.422574709923281,
            "shoulder_lift_joint": -1.3736533754116391,
            "shoulder_pan_joint": -0.33786336945926293,
            "wrist_1_joint": -1.0288603412921917,
            "wrist_2_joint": 1.2330224858903978,
            "wrist_3_joint": -3.094022268022082
        }
    },
    "waypoints": [
        {
            "positions": [
                -0.33786336945926293,
                -1.3736533754116391,
                2.422574709923281,
                -1.0288603412921917,
                1.2330224858903978,
                -3.094022268022082
            ]
        },
        {
            "positions": [
                -0.2737331208487746,
                -1.4428626594508442,
                2.407007859712627,
                -0.8950835704076019,
                1.1939177696345737,
                -3.119380818414603
            ]
        },
        {
            "positions": [
                -0.2096028722382863,
                -1.5120719434900491,
                2.391441009501973,
                -0.7613067995230121,
                1.15481305337875,
                -3.144739368807123
            ]
        },
        {
            "positions": [
                -0.14547262362779798,
                -1.5812812275292543,
                2.375874159291319,
                -0.6275300286384222,
                1.115708337122926,
                -3.1700979191996437
            ]
        },
        {
            "positions": [
                -0.08134237501730968,
                -1.6504905115684594,
                2.360307309080665,
                -0.4937532577538325,
                1.0766036208671022,
                -3.195456469592164
            ]
        },
        {
            "positions": [
                -0.01721212640682135,
                -1.7196997956076645,
                2.344740458870011,
                -0.35997648686924266,
                1.0374989046112781,
                -3.2208150199846846
            ]
        },
        {
            "positions": [
                0.04691812220366698,
                -1.7889090796468694,
                2.329173608659357,
                -0.22619971598465283,
                0.9983941883554542,
                -3.2461735703772048
            ]
        },
        {
            "positions": [
                0.11104837081415529,
                -1.8581183636860745,
                2.313606758448703,
                -0.09242294510006296,
                0.9592894720996303,
                -3.2715321207697254
            ]
        },
        {
            "positions": [
                0.2597205573460963,
                -1.8715392279404413,
                2.334119362392724,
                -0.188498328821255,
                0.8959794139477328,
                -3.2339073302909966
            ]
        },
        {
            "positions": [
                0.40839274387803726,
                -1.8849600921948082,
                2.3546319663367457,
                -0.284573712542447,
                0.8326693557958353,
                -3.196282539812268
            ]
        },
        {
            "positions": [
                0.5570649304099782,
                -1.898380956449175,
                2.375144570280767,
                -0.3806490962636391,
                0.7693592976439377,
                -3.1586577493335386
            ]
        },
        {
            "positions": [
                0.7057371169419192,
                -1.9118018207035417,
                2.3956571742247883,
                -0.47672447998483114,
                0.7060492394920402,
                -3.12103295885481
            ]
        }
    ]
}