{
    "goal": {
        "global_pose": {
            "orientation": {
                "w": 0.7031023502349854,
                "x": -0.7110244035720825,
                "y": 0.007748599164187908,
                "z": 0.005598929710686207
            },
            "position": {
                "x": 0.11585023208521307,
                "y": 0.44412534475326537,
                "z": 0.3711530566215515
            }
        },
        "name": "move_to_auspresseinheit_A"
    },
    "id": "LazyPRM_move_to_auspresseinheit_A_23",
    "joint_names": [
        "shoulder_pan_joint",
        "shoulder_lift_joint",
        "elbow_joint",
        "wrist_1_joint",
        "wrist_2_joint",
        "wrist_3_joint"
    ],
    "metrics": {
        "cart_traj_len": 3.788209242213173,
        "distance_elbow_joint": 5.9599328759120755,
        "distance_shoulder_lift_joint": 1.000715667824882,
        "distance_shoulder_pan_joint": 2.1800640713966524,
        "distance_wrist_1_joint": 0.9757740792111544,
        "distance_wrist_2_joint": 1.8781752658655342,
        "distance_wrist_3_joint": 3.5594960614141846,
        "smoothness": 0.7389641822580991,
        "time": 0.129023629,
        "traj_len": 3.943876014991404,
        "weighted_distance": 5.05243500596787
    },
    "planner": "LazyPRM",
    "start": {
        "state": {
            "elbow_joint": 2.422574709923281,
            "shoulder_lift_joint": -1.3736533754116391,
            "shoulder_pan_joint": -0.33786336945926293,
            "wrist_1_joint": -1.0288603412921917,
            "wrist_2_joint": 1.2330224858903978,
            "wrist_3_joint": -3.094022268022082
        }
    },
    "waypoints": [
        {
            "positions": [
                -0.33786336945926293,
                -1.3736533754116391,
                2.422574709923281,
                -1.0288603412921917,
                1.2330224858903978,
                -3.094022268022082
            ]
        },
        {
            "positions": [
                -0.2611580490464594,
                -1.367105243458401,
                2.2800235695889626,
                -1.0169769598989788,
                1.1756887510322087,
                -3.00997558404033
            ]
        },
        {
            "positions": [
                -0.1844527286336559,
                -1.3605571115051627,
                2.137472429254644,
                -1.005093578505766,
                1.11835501617402,
                -2.9259289000585786
            ]
        },
        {
            "positions": [
                -0.10774740822085238,
                -1.3540089795519246,
                1.9949212889203256,
                -0.993210197112553,
                1.0610212813158308,
                -2.8418822160768267
            ]
        },
        {
            "positions": [
                -0.031042087808048846,
                -1.3474608475986862,
                1.8523701485860071,
                -0.98132681571934,
                1.0036875464576418,
                -2.7578355320950747
            ]
        },
        {
            "positions": [
                0.04566323260475463,
                -1.3409127156454481,
                1.7098190082516886,
                -0.9694434343261271,
                0.9463538115994529,
                -2.673788848113323
            ]
        },
        {
            "positions": [
                0.12236855301755817,
                -1.3343645836922098,
                1.5672678679173704,
                -0.9575600529329142,
                0.8890200767412639,
                -2.589742164131571
            ]
        },
        {
            "positions": [
                0.1990738734303617,
                -1.3278164517389717,
                1.424716727583052,
                -0.9456766715397013,
                0.8316863418830749,
                -2.5056954801498197
            ]
        },
        {
            "positions": [
                0.27577919384316524,
                -1.3212683197857336,
                1.2821655872487334,
                -0.9337932901464884,
                0.774352607024886,
                -2.4216487961680677
            ]
        },
        {
            "positions": [
                0.35248451425596866,
                -1.3147201878324952,
                1.139614446914415,
                -0.9219099087532755,
                0.7170188721666969,
                -2.3376021121863158
            ]
        },
        {
            "positions": [
                0.4291898346687722,
                -1.3081720558792571,
                0.9970633065800965,
                -0.9100265273600625,
                0.659685137308508,
                -2.253555428204564
            ]
        },
        {
            "positions": [
                0.5058951550815758,
                -1.3016239239260188,
                0.854512166245778,
                -0.8981431459668496,
                0.6023514024503189,
                -2.169508744222812
            ]
        },
        {
            "positions": [
                0.5826004754943792,
                -1.2950757919727807,
                0.7119610259114597,
                -0.8862597645736368,
                0.54501766759213,
                -2.0854620602410603
            ]
        },
        {
            "positions": [
                0.6593057959071829,
                -1.2885276600195423,
                0.569409885577141,
                -0.8743763831804238,
                0.48768393273394095,
                -2.0014153762593083
            ]
        },
        {
            "positions": [
                0.7360111163199863,
                -1.2819795280663042,
                0.42685874524282275,
                -0.8624930017872109,
                0.430350197875752,
                -1.9173686922775568
            ]
        },
        {
            "positions": [
                0.8127164367327899,
                -1.275431396113066,
                0.28430760490850426,
                -0.8506096203939979,
                0.37301646301756297,
                -1.8333220082958048
            ]
        },
        {
            "positions": [
                0.8894217571455934,
                -1.2688832641598278,
                0.14175646457418578,
                -0.838726239000785,
                0.31568272815937415,
                -1.749275324314053
            ]
        },
        {
            "positions": [
                0.9661270775583968,
                -1.2623351322065897,
                -0.0007946757601327015,
                -0.8268428576075721,
                0.2583489933011851,
                -1.6652286403323011
            ]
        },
        {
            "positions": [
                1.0428323979712002,
                -1.2557870002533513,
                -0.14334581609445118,
                -0.8149594762143592,
                0.20101525844299606,
                -1.5811819563505494
            ]
        },
        {
            "positions": [
                1.1195377183840038,
                -1.2492388683001132,
                -0.28589695642876967,
                -0.8030760948211463,
                0.143681523584807,
                -1.4971352723687976
            ]
        },
        {
            "positions": [
                1.1962430387968073,
                -1.242690736346875,
                -0.42844809676308815,
                -0.7911927134279333,
                0.08634778872661819,
                -1.4130885883870459
            ]
        },
        {
            "positions": [
                1.272948359209611,
                -1.2361426043936368,
                -0.5709992370974065,
                -0.7793093320347204,
                0.029014053868429146,
                -1.329041904405294
            ]
        },
        {
            "positions": [
                1.2565680036530467,
                -1.281369106457462,
                -0.4059467720143285,
                -0.7489970771622108,
                0.06744509122841943,
                -1.4203737468817768
            ]
        },
        {
            "positions": [
                1.2401876480964824,
                -1.3265956085212873,
                -0.2408943069312504,
                -0.7186848222897011,
                0.10587612858840972,
                -1.5117055893582596
            ]
        },
        {
            "positions": [
                1.2238072925399182,
                -1.3718221105851125,
                -0.07584184184817233,
                -0.6883725674171913,
                0.14430716594840004,
                -1.6030374318347427
            ]
        },
        {
            "positions": [
                1.207426936983354,
                -1.4170486126489377,
                0.0892106232349057,
                -0.6580603125446817,
                0.1827382033083903,
                -1.6943692743112255
            ]
        },
        {
            "positions": [
                1.1910465814267897,
                -1.4622751147127628,
                0.2542630883179837,
                -0.627748057672172,
                0.22116924066838062,
                -1.7857011167877084
            ]
        },
        {
            "positions": [
                1.1746662258702254,
                -1.5075016167765882,
                0.41931555340106186,
                -0.5974358027996622,
                0.25960027802837093,
                -1.8770329592641912
            ]
        },
        {
            "positions": [
                1.1582858703136614,
                -1.5527281188404134,
                0.5843680184841399,
                -0.5671235479271526,
                0.29803131538836114,
                -1.968364801740674
            ]
        },
        {
            "positions": [
                1.1419055147570971,
                -1.5979546209042386,
                0.7494204835672179,
                -0.5368112930546429,
                0.33646235274835146,
                -2.059696644217157
            ]
        },
        {
            "positions": [
                1.1255251592005329,
                -1.643181122968064,
                0.9144729486502959,
                -0.5064990381821333,
                0.3748933901083418,
                -2.1510284866936398
            ]
        },
        {
            "positions": [
                1.1091448036439686,
                -1.6884076250318891,
                1.079525413733374,
                -0.47618678330962355,
                0.4133244274683321,
                -2.242360329170123
            ]
        },
        {
            "positions": [
                1.0927644480874044,
                -1.7336341270957143,
                1.244577878816452,
                -0.4458745284371139,
                0.45175546482832235,
                -2.3336921716466055
            ]
        },
        {
            "positions": [
                1.07638409253084,
                -1.7788606291595395,
                1.4096303438995301,
                -0.4155622735646042,
                0.49018650218831267,
                -2.4250240141230885
            ]
        },
        {
            "positions": [
                1.0600037369742759,
                -1.8240871312233646,
                1.5746828089826077,
                -0.3852500186920945,
                0.5286175395483028,
                -2.5163558565995716
            ]
        },
        {
            "positions": [
                1.0436233814177116,
                -1.86931363328719,
                1.7397352740656862,
                -0.35493776381958486,
                0.5670485769082931,
                -2.6076876990760542
            ]
        },
        {
            "positions": [
                1.0272430258611474,
                -1.9145401353510154,
                1.9047877391487642,
                -0.32462550894707515,
                0.6054796142682835,
                -2.699019541552537
            ]
        },
        {
            "positions": [
                1.0108626703045833,
                -1.9597666374148406,
                2.0698402042318422,
                -0.2943132540745655,
                0.6439106516282738,
                -2.7903513840290204
            ]
        },
        {
            "positions": [
                0.994482314748019,
                -2.0049931394786658,
                2.2348926693149203,
                -0.2640009992020558,
                0.6823416889882641,
                -2.881683226505503
            ]
        },
        {
            "positions": [
                0.9218654004211779,
                -2.001348525228704,
                2.334910195920258,
                -0.3002214274242727,
                0.7021442927881251,
                -2.972170445846632
            ]
        },
        {
            "positions": [
                0.8127807084515052,
                -1.9559936514927596,
                2.365134943857119,
                -0.3875685818736736,
                0.70266259025006,
                -3.047864024024661
            ]
        },
        {
            "positions": [
                0.7036960164818324,
                -1.910638777756815,
                2.3953596917939803,
                -0.4749157363230745,
                0.7031808877119948,
                -3.1235576022026907
            ]
        }
    ]
}