{
    "goal": {
        "global_pose": {
            "orientation": {
                "w": 0.7047431468963623,
                "x": -0.7094548344612122,
                "y": 0.0024358443915843964,
                "z": -0.0022348060738295317
            },
            "position": {
                "x": 0.6094750761985779,
                "y": 0.3671506643295288,
                "z": 0.19426114857196808
            }
        },
        "name": "move_to_magneteinheit_A"
    },
    "id": "LazyPRMstar_move_to_magneteinheit_A_21",
    "joint_names": [
        "shoulder_pan_joint",
        "shoulder_lift_joint",
        "elbow_joint",
        "wrist_1_joint",
        "wrist_2_joint",
        "wrist_3_joint"
    ],
    "metrics": {
        "cart_traj_len": 2.0643142809928063,
        "distance_elbow_joint": 3.880810752848186,
        "distance_shoulder_lift_joint": 1.0569428581379614,
        "distance_shoulder_pan_joint": 1.240583479886869,
        "distance_wrist_1_joint": 1.1557533422898145,
        "distance_wrist_2_joint": 1.441658284473162,
        "distance_wrist_3_joint": 1.9222031058009388,
        "smoothness": 4.594026319254805e-16,
        "time": 5.000129645,
        "traj_len": 3.270772358853018,
        "weighted_distance": 4.140020490505063
    },
    "planner": "LazyPRMstar",
    "start": {
        "state": {
            "elbow_joint": -1.919643507792019,
            "shoulder_lift_joint": -0.07675430207160344,
            "shoulder_pan_joint": -1.1188671864651873,
            "wrist_1_joint": 0.42560062535961957,
            "wrist_2_joint": 1.5706038300724876,
            "wrist_3_joint": 1.1188968870953055
        }
    },
    "waypoints": [
        {
            "positions": [
                -1.1188671864651873,
                -0.07675430207160344,
                -1.919643507792019,
                0.42560062535961957,
                1.5706038300724876,
                1.1188968870953055
            ]
        },
        {
            "positions": [
                -1.074560633612085,
                -0.11450226129081634,
                -1.7810431237617268,
                0.38432372027784045,
                1.5191160341984462,
                1.1875469980167677
            ]
        },
        {
            "positions": [
                -1.0302540807589824,
                -0.15225022051002923,
                -1.6424427397314343,
                0.3430468151960614,
                1.4676282383244046,
                1.2561971089382298
            ]
        },
        {
            "positions": [
                -0.98594752790588,
                -0.18999817972924216,
                -1.503842355701142,
                0.30176991011428234,
                1.4161404424503632,
                1.324847219859692
            ]
        },
        {
            "positions": [
                -0.9416409750527776,
                -0.22774613894845505,
                -1.3652419716708497,
                0.2604930050325032,
                1.3646526465763216,
                1.393497330781154
            ]
        },
        {
            "positions": [
                -0.8973344221996751,
                -0.265494098167668,
                -1.2266415876405574,
                0.2192160999507241,
                1.3131648507022802,
                1.4621474417026161
            ]
        },
        {
            "positions": [
                -0.8530278693465726,
                -0.30324205738688087,
                -1.0880412036102651,
                0.17793919486894505,
                1.2616770548282386,
                1.5307975526240782
            ]
        },
        {
            "positions": [
                -0.8087213164934701,
                -0.3409900166060938,
                -0.9494408195799726,
                0.13666228978716594,
                1.2101892589541972,
                1.5994476635455404
            ]
        },
        {
            "positions": [
                -0.7644147636403678,
                -0.37873797582530666,
                -0.8108404355496803,
                0.09538538470538688,
                1.1587014630801558,
                1.6680977744670025
            ]
        },
        {
            "positions": [
                -0.7201082107872652,
                -0.41648593504451964,
                -0.6722400515193878,
                0.05410847962360771,
                1.1072136672061141,
                1.7367478853884646
            ]
        },
        {
            "positions": [
                -0.6758016579341628,
                -0.4542338942637325,
                -0.5336396674890955,
                0.01283157454182865,
                1.0557258713320725,
                1.8053979963099267
            ]
        },
        {
            "positions": [
                -0.6314951050810602,
                -0.49198185348294543,
                -0.39503928345880324,
                -0.02844533053995041,
                1.0042380754580311,
                1.8740481072313886
            ]
        },
        {
            "positions": [
                -0.5871885522279578,
                -0.5297298127021584,
                -0.25643889942851095,
                -0.06972223562172947,
                0.9527502795839896,
                1.9426982181528507
            ]
        },
        {
            "positions": [
                -0.5428819993748554,
                -0.5674777719213713,
                -0.11783851539821844,
                -0.11099914070350864,
                0.9012624837099481,
                2.0113483290743126
            ]
        },
        {
            "positions": [
                -0.4985754465217529,
                -0.6052257311405842,
                0.020761868632073854,
                -0.1522760457852877,
                0.8497746878359066,
                2.0799984399957747
            ]
        },
        {
            "positions": [
                -0.4542688936686504,
                -0.6429736903597971,
                0.15936225266236614,
                -0.19355295086706675,
                0.7982868919618651,
                2.148648550917237
            ]
        },
        {
            "positions": [
                -0.40996234081554805,
                -0.6807216495790098,
                0.29796263669265843,
                -0.2348298559488458,
                0.7467990960878237,
                2.217298661838699
            ]
        },
        {
            "positions": [
                -0.3656557879624456,
                -0.7184696087982227,
                0.4365630207229507,
                -0.27610676103062487,
                0.6953113002137822,
                2.285948772760161
            ]
        },
        {
            "positions": [
                -0.321349235109343,
                -0.7562175680174359,
                0.5751634047532435,
                -0.31738366611240415,
                0.6438235043397406,
                2.354598883681623
            ]
        },
        {
            "positions": [
                -0.2770426822562405,
                -0.7939655272366488,
                0.7137637887835357,
                -0.3586605711941832,
                0.592335708465699,
                2.4232489946030853
            ]
        },
        {
            "positions": [
                -0.23273612940313815,
                -0.8317134864558615,
                0.852364172813828,
                -0.39993747627596227,
                0.5408479125916577,
                2.4918991055245474
            ]
        },
        {
            "positions": [
                -0.18842957655003567,
                -0.8694614456750744,
                0.9909645568441203,
                -0.4412143813577413,
                0.48936011671761603,
                2.5605492164460095
            ]
        },
        {
            "positions": [
                -0.1441230236969332,
                -0.9072094048942874,
                1.1295649408744126,
                -0.4824912864395204,
                0.43787232084357464,
                2.6291993273674716
            ]
        },
        {
            "positions": [
                -0.09981647084383072,
                -0.9449573641135003,
                1.268165324904705,
                -0.5237681915212995,
                0.38638452496953324,
                2.6978494382889338
            ]
        },
        {
            "positions": [
                -0.05550991799072835,
                -0.9827053233327132,
                1.4067657089349972,
                -0.5650450966030784,
                0.3348967290954916,
                2.766499549210396
            ]
        },
        {
            "positions": [
                -0.011203365137625765,
                -1.0204532825519261,
                1.54536609296529,
                -0.6063220016848576,
                0.28340893322145,
                2.835149660131858
            ]
        },
        {
            "positions": [
                0.0331031877154766,
                -1.058201241771139,
                1.6839664769955822,
                -0.6475989067666368,
                0.2319211373474086,
                2.90379977105332
            ]
        },
        {
            "positions": [
                0.07740974056857919,
                -1.095949200990352,
                1.8225668610258745,
                -0.6888758118484157,
                0.18043334147336698,
                2.972449881974782
            ]
        },
        {
            "positions": [
                0.12171629342168147,
                -1.133697160209565,
                1.9611672450561668,
                -0.730152716930195,
                0.12894554559932558,
                3.0410999928962443
            ]
        }
    ]
}