{
    "goal": {
        "global_pose": {
            "orientation": {
                "w": 0.7031023502349854,
                "x": -0.7110244035720825,
                "y": 0.007748599164187908,
                "z": 0.005598929710686207
            },
            "position": {
                "x": 0.11585023208521307,
                "y": 0.44412534475326537,
                "z": 0.3711530566215515
            }
        },
        "name": "move_to_auspresseinheit_A"
    },
    "id": "LazyPRM_move_to_auspresseinheit_A_6",
    "joint_names": [
        "shoulder_pan_joint",
        "shoulder_lift_joint",
        "elbow_joint",
        "wrist_1_joint",
        "wrist_2_joint",
        "wrist_3_joint"
    ],
    "metrics": {
        "cart_traj_len": 1.7441855570064941,
        "distance_elbow_joint": 1.5076084034080135,
        "distance_shoulder_lift_joint": 0.5837988283741655,
        "distance_shoulder_pan_joint": 1.7430606519525722,
        "distance_wrist_1_joint": 1.334548517466645,
        "distance_wrist_2_joint": 0.597235223577604,
        "distance_wrist_3_joint": 0.8757957526282318,
        "smoothness": 0.6175148123072061,
        "time": 0.07604272200000001,
        "traj_len": 2.57721698298906,
        "weighted_distance": 3.2133195645170343
    },
    "planner": "LazyPRM",
    "start": {
        "state": {
            "elbow_joint": 2.422574709923281,
            "shoulder_lift_joint": -1.3736533754116391,
            "shoulder_pan_joint": -0.33786336945926293,
            "wrist_1_joint": -1.0288603412921917,
            "wrist_2_joint": 1.2330224858903978,
            "wrist_3_joint": -3.094022268022082
        }
    },
    "waypoints": [
        {
            "positions": [
                -0.33786336945926293,
                -1.3736533754116391,
                2.422574709923281,
                -1.0288603412921917,
                1.2330224858903978,
                -3.094022268022082
            ]
        },
        {
            "positions": [
                -0.3283840624348019,
                -1.389053798616152,
                2.3788650406989547,
                -1.002602112721354,
                1.2236939094965444,
                -3.0892565829800978
            ]
        },
        {
            "positions": [
                -0.24010782019815963,
                -1.4334621433944583,
                2.2828581692307686,
                -0.9175168934635708,
                1.182158581741451,
                -3.057729224701081
            ]
        },
        {
            "positions": [
                -0.15183157796151733,
                -1.477870488172765,
                2.186851297762583,
                -0.8324316742057876,
                1.1406232539863577,
                -3.026201866422064
            ]
        },
        {
            "positions": [
                -0.06355533572487504,
                -1.5222788329510712,
                2.090844426294397,
                -0.7473464549480044,
                1.0990879262312643,
                -2.994674508143047
            ]
        },
        {
            "positions": [
                0.024720906511767227,
                -1.5666871777293778,
                1.9948375548262107,
                -0.6622612356902211,
                1.057552598476171,
                -2.9631471498640303
            ]
        },
        {
            "positions": [
                0.11299714874840955,
                -1.6110955225076842,
                1.8988306833580249,
                -0.577176016432438,
                1.0160172707210775,
                -2.9316197915850135
            ]
        },
        {
            "positions": [
                0.20127339098505181,
                -1.6555038672859905,
                1.802823811889839,
                -0.49209079717465476,
                0.9744819429659841,
                -2.9000924333059963
            ]
        },
        {
            "positions": [
                0.2895496332216941,
                -1.699912212064297,
                1.7068169404216529,
                -0.4070055779168715,
                0.9329466152108907,
                -2.8685650750269795
            ]
        },
        {
            "positions": [
                0.4278492024837565,
                -1.7368778253939072,
                1.6883803553029055,
                -0.33414753570327727,
                0.8850322555724647,
                -2.827581911485449
            ]
        },
        {
            "positions": [
                0.5661487717458189,
                -1.7738434387235176,
                1.6699437701841584,
                -0.26128949348968306,
                0.8371178959340385,
                -2.7865987479439176
            ]
        },
        {
            "positions": [
                0.7044483410078815,
                -1.8108090520531277,
                1.651507185065411,
                -0.18843145127608885,
                0.7892035362956125,
                -2.745615584402387
            ]
        },
        {
            "positions": [
                0.8417097753058662,
                -1.844804931142372,
                1.6718916306505782,
                -0.13066262537350584,
                0.7435135498283252,
                -2.712944259701246
            ]
        },
        {
            "positions": [
                0.978971209603851,
                -1.878800810231616,
                1.6922760762357454,
                -0.07289379947092284,
                0.6978235633610379,
                -2.6802729350001053
            ]
        },
        {
            "positions": [
                1.016879807560091,
                -1.8973318981978466,
                1.8216998844791685,
                -0.0958926085630526,
                0.6824964464381089,
                -2.712201637867542
            ]
        },
        {
            "positions": [
                1.054788405516331,
                -1.915862986164077,
                1.9511236927225917,
                -0.11889141765518237,
                0.6671693295151798,
                -2.744130340734979
            ]
        },
        {
            "positions": [
                1.0212640498505752,
                -1.9232782059288298,
                2.098994685918378,
                -0.17974747463911914,
                0.6723920007533803,
                -2.8073779240972945
            ]
        },
        {
            "positions": [
                0.9877396941848191,
                -1.9306934256935824,
                2.246865679114164,
                -0.2406035316230559,
                0.6776146719915808,
                -2.87062550745961
            ]
        },
        {
            "positions": [
                0.9013979196217895,
                -1.9265295296755611,
                2.317032909425251,
                -0.3112647032172748,
                0.6861130156855355,
                -2.954819664840709
            ]
        },
        {
            "positions": [
                0.8150561450587599,
                -1.9223656336575399,
                2.387200139736337,
                -0.3819258748114937,
                0.6946113593794903,
                -3.0390138222218077
            ]
        },
        {
            "positions": [
                0.7043795285393532,
                -1.90393464760136,
                2.3880480636155546,
                -0.45147577511629877,
                0.6985513967175658,
                -3.1423193546063604
            ]
        }
    ]
}