{
    "goal": {
        "global_pose": {
            "orientation": {
                "w": 0.7031023502349854,
                "x": -0.7110244035720825,
                "y": 0.007748599164187908,
                "z": 0.005598929710686207
            },
            "position": {
                "x": 0.11585023208521307,
                "y": 0.44412534475326537,
                "z": 0.3711530566215515
            }
        },
        "name": "move_to_auspresseinheit_A"
    },
    "id": "LazyPRMstar_move_to_auspresseinheit_A_17",
    "joint_names": [
        "shoulder_pan_joint",
        "shoulder_lift_joint",
        "elbow_joint",
        "wrist_1_joint",
        "wrist_2_joint",
        "wrist_3_joint"
    ],
    "metrics": {
        "cart_traj_len": 0.6886744716526536,
        "distance_elbow_joint": 0.03346098853393542,
        "distance_shoulder_lift_joint": 0.5321072005793226,
        "distance_shoulder_pan_joint": 1.043648178908095,
        "distance_wrist_1_joint": 0.5776299088383074,
        "distance_wrist_2_joint": 0.5315891628994867,
        "distance_wrist_3_joint": 0.05641721630544616,
        "smoothness": 0.0,
        "time": 5.001491766,
        "traj_len": 1.6657888990098935,
        "weighted_distance": 1.9992263904853997
    },
    "planner": "LazyPRMstar",
    "start": {
        "state": {
            "elbow_joint": 2.422574709923281,
            "shoulder_lift_joint": -1.3736533754116391,
            "shoulder_pan_joint": -0.33786336945926293,
            "wrist_1_joint": -1.0288603412921917,
            "wrist_2_joint": 1.2330224858903978,
            "wrist_3_joint": -3.094022268022082
        }
    },
    "waypoints": [
        {
            "positions": [
                -0.33786336945926293,
                -1.3736533754116391,
                2.422574709923281,
                -1.0288603412921917,
                1.2330224858903978,
                -3.094022268022082
            ]
        },
        {
            "positions": [
                -0.20740734709575107,
                -1.4401667754840544,
                2.418392086356539,
                -0.9566566026874033,
                1.166573840527962,
                -3.1010744200602627
            ]
        },
        {
            "positions": [
                -0.0769513247322392,
                -1.5066801755564698,
                2.414209462789797,
                -0.8844528640826148,
                1.1001251951655262,
                -3.1081265720984437
            ]
        },
        {
            "positions": [
                0.05350469763127269,
                -1.573193575628885,
                2.4100268392230553,
                -0.8122491254778265,
                1.0336765498030902,
                -3.1151787241366247
            ]
        },
        {
            "positions": [
                0.18396071999478453,
                -1.6397069757013005,
                2.4058442156563133,
                -0.740045386873038,
                0.9672279044406544,
                -3.122230876174805
            ]
        },
        {
            "positions": [
                0.31441674235829636,
                -1.7062203757737158,
                2.4016615920895714,
                -0.6678416482682495,
                0.9007792590782187,
                -3.1292830282129858
            ]
        },
        {
            "positions": [
                0.4448727647218083,
                -1.772733775846131,
                2.3974789685228295,
                -0.5956379096634612,
                0.8343306137157828,
                -3.1363351802511668
            ]
        },
        {
            "positions": [
                0.5753287870853201,
                -1.8392471759185463,
                2.3932963449560876,
                -0.5234341710586727,
                0.7678819683533469,
                -3.1433873322893477
            ]
        },
        {
            "positions": [
                0.7057848094488319,
                -1.9057605759909617,
                2.3891137213893456,
                -0.4512304324538843,
                0.7014333229909111,
                -3.1504394843275283
            ]
        }
    ]
}