{
    "goal": {
        "global_pose": {
            "orientation": {
                "w": 0.7031023502349854,
                "x": -0.7110244035720825,
                "y": 0.007748599164187908,
                "z": 0.005598929710686207
            },
            "position": {
                "x": 0.11585023208521307,
                "y": 0.44412534475326537,
                "z": 0.3711530566215515
            }
        },
        "name": "move_to_auspresseinheit_A"
    },
    "id": "LazyPRMstar_move_to_auspresseinheit_A_22",
    "joint_names": [
        "shoulder_pan_joint",
        "shoulder_lift_joint",
        "elbow_joint",
        "wrist_1_joint",
        "wrist_2_joint",
        "wrist_3_joint"
    ],
    "metrics": {
        "cart_traj_len": 0.748313079985348,
        "distance_elbow_joint": 0.22348881395930498,
        "distance_shoulder_lift_joint": 0.5360192078393957,
        "distance_shoulder_pan_joint": 1.1132304361032266,
        "distance_wrist_1_joint": 0.6000647825527317,
        "distance_wrist_2_joint": 0.5195394087056869,
        "distance_wrist_3_joint": 0.3410574855413646,
        "smoothness": 0.5383891882174816,
        "time": 5.005624745,
        "traj_len": 1.8257601525670644,
        "weighted_distance": 2.2660801612129386
    },
    "planner": "LazyPRMstar",
    "start": {
        "state": {
            "elbow_joint": 2.422574709923281,
            "shoulder_lift_joint": -1.3736533754116391,
            "shoulder_pan_joint": -0.33786336945926293,
            "wrist_1_joint": -1.0288603412921917,
            "wrist_2_joint": 1.2330224858903978,
            "wrist_3_joint": -3.094022268022082
        }
    },
    "waypoints": [
        {
            "positions": [
                -0.33786336945926293,
                -1.3736533754116391,
                2.422574709923281,
                -1.0288603412921917,
                1.2330224858903978,
                -3.094022268022082
            ]
        },
        {
            "positions": [
                -0.3462204402566991,
                -1.5031749167659816,
                2.447035055645016,
                -1.033766841268584,
                1.144094996319156,
                -3.1426681055199848
            ]
        },
        {
            "positions": [
                -0.35457751105413526,
                -1.632696458120324,
                2.471495401366752,
                -1.0386733412449762,
                1.0551675067479145,
                -3.191313943017888
            ]
        },
        {
            "positions": [
                -0.36293458185157146,
                -1.7622179994746663,
                2.4959557470884874,
                -1.0435798412213684,
                0.9662400171766728,
                -3.2399597805157905
            ]
        },
        {
            "positions": [
                -0.37129165264900765,
                -1.8917395408290087,
                2.5204160928102226,
                -1.0484863411977607,
                0.8773125276054312,
                -3.288605618013693
            ]
        },
        {
            "positions": [
                -0.19132462716342735,
                -1.8947283812326798,
                2.499474854298162,
                -0.9517465440899003,
                0.8500076192019779,
                -3.2641932620887344
            ]
        },
        {
            "positions": [
                -0.011357601677847051,
                -1.8977172216363507,
                2.4785336157861013,
                -0.8550067469820399,
                0.8227027107985244,
                -3.2397809061637752
            ]
        },
        {
            "positions": [
                0.16860942380773325,
                -1.9007060620400218,
                2.457592377274041,
                -0.7582669498741794,
                0.795397802395071,
                -3.215368550238816
            ]
        },
        {
            "positions": [
                0.34857644929331355,
                -1.9036949024436929,
                2.4366511387619805,
                -0.661527152766319,
                0.7680928939916176,
                -3.1909561943138574
            ]
        },
        {
            "positions": [
                0.5285434747788939,
                -1.9066837428473637,
                2.4157099002499196,
                -0.5647873556584585,
                0.7407879855881643,
                -3.1665438383888986
            ]
        },
        {
            "positions": [
                0.708510500264474,
                -1.9096725832510348,
                2.394768661737859,
                -0.46804755855059815,
                0.7134830771847108,
                -3.1421314824639395
            ]
        }
    ]
}