{
    "goal": {
        "global_pose": {
            "orientation": {
                "w": 0.7047431468963623,
                "x": -0.7094548344612122,
                "y": 0.0024358443915843964,
                "z": -0.0022348060738295317
            },
            "position": {
                "x": 0.6094750761985779,
                "y": 0.3671506643295288,
                "z": 0.19426114857196808
            }
        },
        "name": "move_to_magneteinheit_A"
    },
    "id": "LazyPRMstar_move_to_magneteinheit_A_46",
    "joint_names": [
        "shoulder_pan_joint",
        "shoulder_lift_joint",
        "elbow_joint",
        "wrist_1_joint",
        "wrist_2_joint",
        "wrist_3_joint"
    ],
    "metrics": {
        "cart_traj_len": 1.9647622908353295,
        "distance_elbow_joint": 3.881058892626972,
        "distance_shoulder_lift_joint": 1.058450200133026,
        "distance_shoulder_pan_joint": 1.2411408818719498,
        "distance_wrist_1_joint": 1.1537462035962336,
        "distance_wrist_2_joint": 1.4356485529147172,
        "distance_wrist_3_joint": 4.3597697417685755,
        "smoothness": 3.5527136926165523e-16,
        "time": 5.0584021980000005,
        "traj_len": 3.6235085860132132,
        "weighted_distance": 4.9435562819654
    },
    "planner": "LazyPRMstar",
    "start": {
        "state": {
            "elbow_joint": -1.919643507792019,
            "shoulder_lift_joint": -0.07675430207160344,
            "shoulder_pan_joint": -1.1188671864651873,
            "wrist_1_joint": 0.42560062535961957,
            "wrist_2_joint": 1.5706038300724876,
            "wrist_3_joint": 1.1188968870953055
        }
    },
    "waypoints": [
        {
            "positions": [
                -1.1188671864651873,
                -0.07675430207160344,
                -1.919643507792019,
                0.42560062535961957,
                1.5706038300724876,
                1.1188968870953055
            ]
        },
        {
            "positions": [
                -1.055304464982818,
                -0.1011195826337791,
                -1.8617049990469088,
                0.4194438233102837,
                1.5353316383920623,
                0.9309233794324605
            ]
        },
        {
            "positions": [
                -0.9917417435004485,
                -0.12548486319595475,
                -1.8037664903017985,
                0.41328702126094785,
                1.500059446711637,
                0.7429498717696154
            ]
        },
        {
            "positions": [
                -0.9281790220180792,
                -0.14985014375813044,
                -1.7458279815566882,
                0.40713021921161197,
                1.4647872550312118,
                0.5549763641067703
            ]
        },
        {
            "positions": [
                -0.8646163005357097,
                -0.1742154243203061,
                -1.6878894728115776,
                0.40097341716227614,
                1.4295150633507865,
                0.36700285644392516
            ]
        },
        {
            "positions": [
                -0.8010535790533404,
                -0.19858070488248175,
                -1.6299509640664673,
                0.39481661511294025,
                1.3942428716703612,
                0.17902934878108012
            ]
        },
        {
            "positions": [
                -0.737490857570971,
                -0.2229459854446574,
                -1.572012455321357,
                0.3886598130636044,
                1.3589706799899357,
                -0.008944158881764919
            ]
        },
        {
            "positions": [
                -0.6739281360886016,
                -0.2473112660068331,
                -1.5140739465762467,
                0.38250301101426853,
                1.3236984883095104,
                -0.19691766654460996
            ]
        },
        {
            "positions": [
                -0.6103654146062322,
                -0.27167654656900875,
                -1.4561354378311364,
                0.3763462089649327,
                1.2884262966290851,
                -0.3848911742074552
            ]
        },
        {
            "positions": [
                -0.5468026931238628,
                -0.29604182713118443,
                -1.3981969290860259,
                0.3701894069155968,
                1.2531541049486599,
                -0.5728646818703003
            ]
        },
        {
            "positions": [
                -0.48323997164149335,
                -0.32040710769336006,
                -1.3402584203409158,
                0.364032604866261,
                1.2178819132682346,
                -0.7608381895331453
            ]
        },
        {
            "positions": [
                -0.41967725015912394,
                -0.34477238825553574,
                -1.2823199115958053,
                0.3578758028169251,
                1.1826097215878093,
                -0.9488116971959906
            ]
        },
        {
            "positions": [
                -0.3961141655693028,
                -0.3791390019054963,
                -1.1412879421857722,
                0.31065748190155384,
                1.1370595283517206,
                -1.0484665301297853
            ]
        },
        {
            "positions": [
                -0.37255108097948164,
                -0.41350561555545695,
                -1.0002559727757394,
                0.2634391609861826,
                1.091509335115632,
                -1.14812136306358
            ]
        },
        {
            "positions": [
                -0.3489879963896605,
                -0.4478722292054175,
                -0.8592240033657064,
                0.21622084007081133,
                1.0459591418795433,
                -1.2477761959973748
            ]
        },
        {
            "positions": [
                -0.32542491179983934,
                -0.4822388428553781,
                -0.7181920339556734,
                0.16900251915544004,
                1.0004089486434546,
                -1.3474310289311695
            ]
        },
        {
            "positions": [
                -0.3018618272100182,
                -0.5166054565053387,
                -0.5771600645456405,
                0.12178419824006878,
                0.954858755407366,
                -1.4470858618649642
            ]
        },
        {
            "positions": [
                -0.27829874262019705,
                -0.5509720701552994,
                -0.43612809513560746,
                0.07456587732469755,
                0.9093085621712773,
                -1.5467406947987588
            ]
        },
        {
            "positions": [
                -0.2547356580303759,
                -0.5853386838052599,
                -0.2950961257255744,
                0.027347556409326235,
                0.8637583689351886,
                -1.6463955277325537
            ]
        },
        {
            "positions": [
                -0.2311725734405548,
                -0.6197052974552205,
                -0.1540641563155416,
                -0.019870764506045024,
                0.8182081756991001,
                -1.7460503606663482
            ]
        },
        {
            "positions": [
                -0.20760948885073363,
                -0.6540719111051811,
                -0.013032186905508558,
                -0.06708908542141628,
                0.7726579824630113,
                -1.8457051936001432
            ]
        },
        {
            "positions": [
                -0.1840464042609125,
                -0.6884385247551417,
                0.12799978250452426,
                -0.11430740633678754,
                0.7271077892269228,
                -1.9453600265339377
            ]
        },
        {
            "positions": [
                -0.16048331967109136,
                -0.7228051384051024,
                0.2690317519145573,
                -0.16152572725215886,
                0.6815575959908341,
                -2.0450148594677326
            ]
        },
        {
            "positions": [
                -0.13692023508127021,
                -0.7571717520550629,
                0.41006372132459035,
                -0.20874404816753,
                0.6360074027547454,
                -2.144669692401527
            ]
        },
        {
            "positions": [
                -0.11335715049144912,
                -0.7915383657050235,
                0.5510956907346232,
                -0.25596236908290126,
                0.5904572095186569,
                -2.2443245253353217
            ]
        },
        {
            "positions": [
                -0.08979406590162792,
                -0.8259049793549842,
                0.6921276601446564,
                -0.30318068999827263,
                0.5449070162825681,
                -2.3439793582691166
            ]
        },
        {
            "positions": [
                -0.06623098131180677,
                -0.8602715930049447,
                0.833159629554689,
                -0.3503990109136439,
                0.49935682304647944,
                -2.4436341912029116
            ]
        },
        {
            "positions": [
                -0.042667896721985676,
                -0.8946382066549052,
                0.9741915989647221,
                -0.39761733182901515,
                0.4538066298103909,
                -2.543289024136706
            ]
        },
        {
            "positions": [
                -0.019104812132164528,
                -0.9290048203048658,
                1.1152235683747551,
                -0.4448356527443863,
                0.4082564365743022,
                -2.6429438570705006
            ]
        },
        {
            "positions": [
                0.004458272457656676,
                -0.9633714339548265,
                1.2562555377847882,
                -0.49205397365975767,
                0.36270624333821344,
                -2.7425986900042956
            ]
        },
        {
            "positions": [
                0.02802135704747777,
                -0.997738047604787,
                1.3972875071948212,
                -0.5392722945751289,
                0.3171560501021249,
                -2.8422535229380905
            ]
        },
        {
            "positions": [
                0.05158444163729892,
                -1.0321046612547478,
                1.5383194766048538,
                -0.5864906154905002,
                0.2716058568660362,
                -2.941908355871885
            ]
        },
        {
            "positions": [
                0.07514752622712007,
                -1.0664712749047083,
                1.6793514460148868,
                -0.6337089364058713,
                0.22605566362994756,
                -3.0415631888056796
            ]
        },
        {
            "positions": [
                0.09871061081694121,
                -1.100837888554669,
                1.8203834154249199,
                -0.6809272573212428,
                0.1805054703938589,
                -3.1412180217394745
            ]
        },
        {
            "positions": [
                0.12227369540676239,
                -1.1352045022046295,
                1.9614153848349531,
                -0.728145578236614,
                0.13495527715777025,
                -3.2408728546732695
            ]
        }
    ]
}