{
    "goal": {
        "global_pose": {
            "orientation": {
                "w": 0.5084816217422485,
                "x": -0.49083608388900757,
                "y": 0.5182115435600281,
                "z": -0.4816462993621826
            },
            "position": {
                "x": 0.5540239810943604,
                "y": 0.030875300988554955,
                "z": 0.16403168439865112
            }
        },
        "name": "move_to_storage_A"
    },
    "id": "LazyPRM_move_to_storage_A_114",
    "joint_names": [
        "shoulder_pan_joint",
        "shoulder_lift_joint",
        "elbow_joint",
        "wrist_1_joint",
        "wrist_2_joint",
        "wrist_3_joint"
    ],
    "metrics": {
        "cart_traj_len": 0.35349098988879285,
        "distance_elbow_joint": 0.4521556365138233,
        "distance_shoulder_lift_joint": 0.23326278654918076,
        "distance_shoulder_pan_joint": 0.46089061893720623,
        "distance_wrist_1_joint": 0.2547661997026186,
        "distance_wrist_2_joint": 1.1049811838495567,
        "distance_wrist_3_joint": 0.10805814388838186,
        "smoothness": 8.881784197001252e-16,
        "time": 0.021867374000000002,
        "traj_len": 1.616822367930617,
        "weighted_distance": 2.046943633999165
    },
    "planner": "LazyPRM",
    "start": {
        "state": {
            "elbow_joint": 1.9715463870305268,
            "shoulder_lift_joint": -1.1394903361783484,
            "shoulder_pan_joint": 0.12281147578464417,
            "wrist_1_joint": -0.7804599489681411,
            "wrist_2_joint": 0.12958660307563738,
            "wrist_3_joint": -3.1924946282119055
        }
    },
    "waypoints": [
        {
            "positions": [
                0.12281147578464417,
                -1.1394903361783484,
                1.9715463870305268,
                -0.7804599489681411,
                0.12958660307563738,
                -3.1924946282119055
            ]
        },
        {
            "positions": [
                0.05696995879361472,
                -1.17281359139966,
                2.0361400493896444,
                -0.8168551203542295,
                0.2874410579112883,
                -3.177057750513565
            ]
        },
        {
            "positions": [
                -0.008871558197414739,
                -1.2061368466209714,
                2.100733711748762,
                -0.8532502917403179,
                0.44529551274693924,
                -3.161620872815225
            ]
        },
        {
            "positions": [
                -0.07471307518844421,
                -1.239460101842283,
                2.16532737410788,
                -0.8896454631264061,
                0.6031499675825902,
                -3.1461839951168846
            ]
        },
        {
            "positions": [
                -0.14055459217947364,
                -1.2727833570635945,
                2.229921036466997,
                -0.9260406345124945,
                0.7610044224182412,
                -3.1307471174185446
            ]
        },
        {
            "positions": [
                -0.2063961091705031,
                -1.306106612284906,
                2.2945146988261147,
                -0.9624358058985829,
                0.9188588772538921,
                -3.115310239720204
            ]
        },
        {
            "positions": [
                -0.2722376261615326,
                -1.3394298675062175,
                2.3591083611852324,
                -0.9988309772846713,
                1.076713332089543,
                -3.099873362021864
            ]
        },
        {
            "positions": [
                -0.33807914315256204,
                -1.3727531227275291,
                2.42370202354435,
                -1.0352261486707597,
                1.234567786925194,
                -3.0844364843235237
            ]
        }
    ]
}