{
    "goal": {
        "global_pose": {
            "orientation": {
                "w": 0.5084816217422485,
                "x": -0.49083608388900757,
                "y": 0.5182115435600281,
                "z": -0.4816462993621826
            },
            "position": {
                "x": 0.5540239810943604,
                "y": 0.030875300988554955,
                "z": 0.16403168439865112
            }
        },
        "name": "move_to_storage_A"
    },
    "id": "LazyPRM_move_to_storage_A_106",
    "joint_names": [
        "shoulder_pan_joint",
        "shoulder_lift_joint",
        "elbow_joint",
        "wrist_1_joint",
        "wrist_2_joint",
        "wrist_3_joint"
    ],
    "metrics": {
        "cart_traj_len": 0.3533417330622281,
        "distance_elbow_joint": 0.44776107725455594,
        "distance_shoulder_lift_joint": 0.2335713377501718,
        "distance_shoulder_pan_joint": 0.4637576356319374,
        "distance_wrist_1_joint": 0.23746233329103206,
        "distance_wrist_2_joint": 1.0909821821846302,
        "distance_wrist_3_joint": 0.08827255631425235,
        "smoothness": 4.440892133664971e-16,
        "time": 0.021933595,
        "traj_len": 1.600564626132472,
        "weighted_distance": 2.0166300480084955
    },
    "planner": "LazyPRM",
    "start": {
        "state": {
            "elbow_joint": 1.9715463870305268,
            "shoulder_lift_joint": -1.1394903361783484,
            "shoulder_pan_joint": 0.12281147578464417,
            "wrist_1_joint": -0.7804599489681411,
            "wrist_2_joint": 0.12958660307563738,
            "wrist_3_joint": -3.1924946282119055
        }
    },
    "waypoints": [
        {
            "positions": [
                0.12281147578464417,
                -1.1394903361783484,
                1.9715463870305268,
                -0.7804599489681411,
                0.12958660307563738,
                -3.1924946282119055
            ]
        },
        {
            "positions": [
                0.05656038498008169,
                -1.1728576701426587,
                2.035512255209749,
                -0.8143831394382886,
                0.2854412005305845,
                -3.1798842630241553
            ]
        },
        {
            "positions": [
                -0.009690705824480797,
                -1.2062250041069689,
                2.0994781233889714,
                -0.8483063299084359,
                0.44129579798553165,
                -3.167273897836405
            ]
        },
        {
            "positions": [
                -0.07594179662904328,
                -1.2395923380712792,
                2.163443991568194,
                -0.8822295203785834,
                0.5971503954404789,
                -3.1546635326486547
            ]
        },
        {
            "positions": [
                -0.14219288743360575,
                -1.2729596720355894,
                2.2274098597474157,
                -0.9161527108487308,
                0.753004992895426,
                -3.142053167460904
            ]
        },
        {
            "positions": [
                -0.20844397823816824,
                -1.3063270059998997,
                2.291375727926638,
                -0.9500759013188782,
                0.9088595903503732,
                -3.1294428022731537
            ]
        },
        {
            "positions": [
                -0.2746950690427307,
                -1.3396943399642098,
                2.3553415961058604,
                -0.9839990917890257,
                1.0647141878053203,
                -3.1168324370854035
            ]
        },
        {
            "positions": [
                -0.3409461598472932,
                -1.3730616739285202,
                2.4193074642850827,
                -1.0179222822591731,
                1.2205687852602676,
                -3.104222071897653
            ]
        }
    ]
}