{
    "goal": {
        "global_pose": {
            "orientation": {
                "w": 0.7031023502349854,
                "x": -0.7110244035720825,
                "y": 0.007748599164187908,
                "z": 0.005598929710686207
            },
            "position": {
                "x": 0.11585023208521307,
                "y": 0.44412534475326537,
                "z": 0.3711530566215515
            }
        },
        "name": "move_to_auspresseinheit_A"
    },
    "id": "LazyPRM_move_to_auspresseinheit_A_82",
    "joint_names": [
        "shoulder_pan_joint",
        "shoulder_lift_joint",
        "elbow_joint",
        "wrist_1_joint",
        "wrist_2_joint",
        "wrist_3_joint"
    ],
    "metrics": {
        "cart_traj_len": 1.4362843161861483,
        "distance_elbow_joint": 0.033522480609354144,
        "distance_shoulder_lift_joint": 1.7849590991063986,
        "distance_shoulder_pan_joint": 1.0426411164972726,
        "distance_wrist_1_joint": 4.263911827791296,
        "distance_wrist_2_joint": 4.0159325587408565,
        "distance_wrist_3_joint": 1.3116783084749604,
        "smoothness": 1.001102885188937,
        "time": 1.880146816,
        "traj_len": 3.5288305982605817,
        "weighted_distance": 4.8327886768099235
    },
    "planner": "LazyPRM",
    "start": {
        "state": {
            "elbow_joint": 2.422574709923281,
            "shoulder_lift_joint": -1.3736533754116391,
            "shoulder_pan_joint": -0.33786336945926293,
            "wrist_1_joint": -1.0288603412921917,
            "wrist_2_joint": 1.2330224858903978,
            "wrist_3_joint": -3.094022268022082
        }
    },
    "waypoints": [
        {
            "positions": [
                -0.33786336945926293,
                -1.3736533754116391,
                2.422574709923281,
                -1.0288603412921917,
                1.2330224858903978,
                -3.094022268022082
            ]
        },
        {
            "positions": [
                -0.3028616144217237,
                -1.4380376349818722,
                2.422100022549847,
                -0.8944454063255796,
                1.106637431289728,
                -3.0589769980075934
            ]
        },
        {
            "positions": [
                -0.2678598593841845,
                -1.5024218945521053,
                2.421625335176413,
                -0.7600304713589674,
                0.9802523766890582,
                -3.023931727993105
            ]
        },
        {
            "positions": [
                -0.23285810434664528,
                -1.5668061541223386,
                2.4211506478029787,
                -0.6256155363923552,
                0.8538673220883884,
                -2.9888864579786163
            ]
        },
        {
            "positions": [
                -0.19785634930910606,
                -1.6311904136925717,
                2.420675960429545,
                -0.49120060142574296,
                0.7274822674877186,
                -2.9538411879641275
            ]
        },
        {
            "positions": [
                -0.16285459427156684,
                -1.6955746732628048,
                2.4202012730561107,
                -0.3567856664591308,
                0.6010972128870489,
                -2.9187959179496388
            ]
        },
        {
            "positions": [
                -0.12785283923402763,
                -1.7599589328330378,
                2.4197265856826764,
                -0.22237073149251863,
                0.47471215828637914,
                -2.8837506479351505
            ]
        },
        {
            "positions": [
                -0.09285108419648841,
                -1.824343192403271,
                2.4192518983092426,
                -0.08795579652590635,
                0.3483271036857093,
                -2.8487053779206617
            ]
        },
        {
            "positions": [
                -0.05784932915894919,
                -1.8887274519735042,
                2.4187772109358083,
                0.046459138440705816,
                0.22194204908503945,
                -2.813660107906173
            ]
        },
        {
            "positions": [
                -0.022847574121409975,
                -1.9531117115437373,
                2.4183025235623745,
                0.18087407340731798,
                0.09555699448436972,
                -2.778614837891684
            ]
        },
        {
            "positions": [
                0.012154180916129242,
                -2.0174959711139704,
                2.4178278361889403,
                0.31528900837393015,
                -0.030828060116300016,
                -2.743569567877196
            ]
        },
        {
            "positions": [
                0.047155935953668515,
                -2.0818802306842037,
                2.417353148815506,
                0.44970394334054253,
                -0.15721311471696997,
                -2.708524297862707
            ]
        },
        {
            "positions": [
                0.08215769099120768,
                -2.1462644902544366,
                2.416878461442072,
                0.5841188783071545,
                -0.2835981693176395,
                -2.6734790278482183
            ]
        },
        {
            "positions": [
                0.1171594460287469,
                -2.21064874982467,
                2.416403774068638,
                0.7185338132737666,
                -0.40998322391830944,
                -2.63843375783373
            ]
        },
        {
            "positions": [
                0.1521612010662861,
                -2.275033009394903,
                2.4159290866952037,
                0.852948748240379,
                -0.5363682785189792,
                -2.6033884878192413
            ]
        },
        {
            "positions": [
                0.18716295610382533,
                -2.339417268965136,
                2.41545439932177,
                0.9873636832069912,
                -0.6627533331196491,
                -2.5683432178047525
            ]
        },
        {
            "positions": [
                0.22216471114136455,
                -2.403801528535369,
                2.4149797119483356,
                1.1217786181736034,
                -0.7891383877203189,
                -2.533297947790264
            ]
        },
        {
            "positions": [
                0.25716646617890376,
                -2.468185788105602,
                2.414505024574902,
                1.2561935531402155,
                -0.9155234423209886,
                -2.4982526777757754
            ]
        },
        {
            "positions": [
                0.2921682212164429,
                -2.5325700476758355,
                2.4140303372014675,
                1.3906084881068277,
                -1.0419084969216583,
                -2.4632074077612867
            ]
        },
        {
            "positions": [
                0.3216403302036977,
                -2.487852731472821,
                2.4122461866380718,
                1.2588625596502365,
                -0.9175512414981728,
                -2.5118405112051554
            ]
        },
        {
            "positions": [
                0.3511124391909525,
                -2.443135415269807,
                2.410462036074676,
                1.1271166311936454,
                -0.7931939860746872,
                -2.5604736146490246
            ]
        },
        {
            "positions": [
                0.38058454817820725,
                -2.398418099066792,
                2.4086778855112803,
                0.9953707027370542,
                -0.6688367306512016,
                -2.6091067180928933
            ]
        },
        {
            "positions": [
                0.410056657165462,
                -2.3537007828637777,
                2.4068937349478845,
                0.863624774280463,
                -0.544479475227716,
                -2.6577398215367625
            ]
        },
        {
            "positions": [
                0.43952876615271685,
                -2.3089834666607634,
                2.4051095843844887,
                0.7318788458238717,
                -0.4201222198042305,
                -2.706372924980631
            ]
        },
        {
            "positions": [
                0.4690008751399716,
                -2.2642661504577486,
                2.403325433821093,
                0.6001329173672807,
                -0.29576496438074495,
                -2.7550060284245
            ]
        },
        {
            "positions": [
                0.4984729841272264,
                -2.2195488342547343,
                2.4015412832576972,
                0.4683869889106894,
                -0.17140770895725932,
                -2.803639131868369
            ]
        },
        {
            "positions": [
                0.5279450931144811,
                -2.17483151805172,
                2.3997571326943015,
                0.33664106045409836,
                -0.047050453533773795,
                -2.852272235312238
            ]
        },
        {
            "positions": [
                0.5574172021017361,
                -2.1301142018487056,
                2.3979729821309057,
                0.20489513199750697,
                0.07730680188971184,
                -2.900905338756107
            ]
        },
        {
            "positions": [
                0.5868893110889908,
                -2.0853968856456913,
                2.39618883156751,
                0.07314920354091581,
                0.20166405731319736,
                -2.9495384421999757
            ]
        },
        {
            "positions": [
                0.6163614200762455,
                -2.0406795694426765,
                2.394404681004114,
                -0.05859672491567536,
                0.3260213127366829,
                -2.998171545643845
            ]
        },
        {
            "positions": [
                0.6458335290635002,
                -1.9959622532396621,
                2.3926205304407184,
                -0.1903426533722663,
                0.4503785681601684,
                -3.0468046490877136
            ]
        },
        {
            "positions": [
                0.6753056380507552,
                -1.9512449370366478,
                2.3908363798773227,
                -0.3220885818288577,
                0.5747358235836542,
                -3.0954377525315824
            ]
        },
        {
            "positions": [
                0.7047777470380099,
                -1.9065276208336333,
                2.389052229313927,
                -0.4538345102854488,
                0.6990930790071397,
                -3.1440708559754516
            ]
        }
    ]
}