{
    "goal": {
        "global_pose": {
            "orientation": {
                "w": 0.5084816217422485,
                "x": -0.49083608388900757,
                "y": 0.5182115435600281,
                "z": -0.4816462993621826
            },
            "position": {
                "x": 0.5540239810943604,
                "y": 0.030875300988554955,
                "z": 0.16403168439865112
            }
        },
        "name": "move_to_storage_A"
    },
    "id": "LazyPRM_move_to_storage_A_78",
    "joint_names": [
        "shoulder_pan_joint",
        "shoulder_lift_joint",
        "elbow_joint",
        "wrist_1_joint",
        "wrist_2_joint",
        "wrist_3_joint"
    ],
    "metrics": {
        "cart_traj_len": 0.3534799302096639,
        "distance_elbow_joint": 0.4502578119941294,
        "distance_shoulder_lift_joint": 0.23580013629178942,
        "distance_shoulder_pan_joint": 0.46188016402211185,
        "distance_wrist_1_joint": 0.23849325989828973,
        "distance_wrist_2_joint": 1.1021271029239998,
        "distance_wrist_3_joint": 0.10006477576161954,
        "smoothness": 4.440892133664971e-16,
        "time": 0.011949478,
        "traj_len": 1.6089199019503548,
        "weighted_distance": 2.032085914826799
    },
    "planner": "LazyPRM",
    "start": {
        "state": {
            "elbow_joint": 1.9715463870305268,
            "shoulder_lift_joint": -1.1394903361783484,
            "shoulder_pan_joint": 0.12281147578464417,
            "wrist_1_joint": -0.7804599489681411,
            "wrist_2_joint": 0.12958660307563738,
            "wrist_3_joint": -3.1924946282119055
        }
    },
    "waypoints": [
        {
            "positions": [
                0.12281147578464417,
                -1.1394903361783484,
                1.9715463870305268,
                -0.7804599489681411,
                0.12958660307563738,
                -3.1924946282119055
            ]
        },
        {
            "positions": [
                0.05682859521005677,
                -1.1731760699343183,
                2.0358689316011165,
                -0.8145304146678968,
                0.2870333320647802,
                -3.17819966024596
            ]
        },
        {
            "positions": [
                -0.009154285364530626,
                -1.2068618036902883,
                2.1001914761717067,
                -0.8486008803676525,
                0.444480061053923,
                -3.1639046922800143
            ]
        },
        {
            "positions": [
                -0.07513716593911803,
                -1.2405475374462582,
                2.1645140207422964,
                -0.882671346067408,
                0.6019267900430658,
                -3.1496097243140686
            ]
        },
        {
            "positions": [
                -0.1411200465137054,
                -1.274233271202228,
                2.2288365653128865,
                -0.9167418117671637,
                0.7593735190322087,
                -3.135314756348123
            ]
        },
        {
            "positions": [
                -0.20710292708829287,
                -1.307919004958198,
                2.2931591098834763,
                -0.9508122774669194,
                0.9168202480213516,
                -3.1210197883821773
            ]
        },
        {
            "positions": [
                -0.2730858076628802,
                -1.3416047387141679,
                2.357481654454066,
                -0.9848827431666751,
                1.0742669770104942,
                -3.1067248204162317
            ]
        },
        {
            "positions": [
                -0.33906868823746766,
                -1.3752904724701378,
                2.421804199024656,
                -1.0189532088664308,
                1.2317137059996373,
                -3.092429852450286
            ]
        }
    ]
}