{
    "goal": {
        "global_pose": {
            "orientation": {
                "w": 0.7047431468963623,
                "x": -0.7094548344612122,
                "y": 0.0024358443915843964,
                "z": -0.0022348060738295317
            },
            "position": {
                "x": 0.6094750761985779,
                "y": 0.3671506643295288,
                "z": 0.19426114857196808
            }
        },
        "name": "move_to_magneteinheit_A"
    },
    "id": "LazyPRM_move_to_magneteinheit_A_12",
    "joint_names": [
        "shoulder_pan_joint",
        "shoulder_lift_joint",
        "elbow_joint",
        "wrist_1_joint",
        "wrist_2_joint",
        "wrist_3_joint"
    ],
    "metrics": {
        "cart_traj_len": 1.869569884695364,
        "distance_elbow_joint": 3.9365870798437257,
        "distance_shoulder_lift_joint": 0.7097843166526673,
        "distance_shoulder_pan_joint": 1.242859918558861,
        "distance_wrist_1_joint": 1.5746194888707274,
        "distance_wrist_2_joint": 1.7098690557954128,
        "distance_wrist_3_joint": 1.2038031349747538,
        "smoothness": 2.537652629914275e-16,
        "time": 0.06607980399999999,
        "traj_len": 3.2214163026060674,
        "weighted_distance": 4.008692780609634
    },
    "planner": "LazyPRM",
    "start": {
        "state": {
            "elbow_joint": -1.919643507792019,
            "shoulder_lift_joint": -0.07675430207160344,
            "shoulder_pan_joint": -1.1188671864651873,
            "wrist_1_joint": 0.42560062535961957,
            "wrist_2_joint": 1.5706038300724876,
            "wrist_3_joint": 1.1188968870953055
        }
    },
    "waypoints": [
        {
            "positions": [
                -1.1188671864651873,
                -0.07675430207160344,
                -1.919643507792019,
                0.42560062535961957,
                1.5706038300724876,
                1.1188968870953055
            ]
        },
        {
            "positions": [
                -1.072835337629674,
                -0.10304261009577631,
                -1.7738439863163256,
                0.48391986568816503,
                1.5072753465245095,
                1.0743115857999443
            ]
        },
        {
            "positions": [
                -1.0268034887941606,
                -0.12933091811994918,
                -1.628044464840632,
                0.5422391060167104,
                1.443946862976531,
                1.0297262845045831
            ]
        },
        {
            "positions": [
                -0.9807716399586472,
                -0.15561922614412205,
                -1.4822449433649385,
                0.600558346345256,
                1.380618379428553,
                0.9851409832092218
            ]
        },
        {
            "positions": [
                -0.9347397911231339,
                -0.18190753416829492,
                -1.336445421889245,
                0.6588775866738014,
                1.3172898958805745,
                0.9405556819138605
            ]
        },
        {
            "positions": [
                -0.8887079422876205,
                -0.20819584219246776,
                -1.1906459004135515,
                0.7171968270023469,
                1.2539614123325964,
                0.8959703806184993
            ]
        },
        {
            "positions": [
                -0.8426760934521071,
                -0.23448415021664062,
                -1.044846378937858,
                0.7755160673308923,
                1.190632928784618,
                0.8513850793231381
            ]
        },
        {
            "positions": [
                -0.7966442446165938,
                -0.2607724582408135,
                -0.8990468574621644,
                0.8338353076594378,
                1.1273044452366399,
                0.8067997780277768
            ]
        },
        {
            "positions": [
                -0.7506123957810804,
                -0.28706076626498633,
                -0.7532473359864709,
                0.8921545479879832,
                1.0639759616886617,
                0.7622144767324155
            ]
        },
        {
            "positions": [
                -0.704580546945567,
                -0.31334907428915926,
                -0.6074478145107773,
                0.9504737883165286,
                1.0006474781406833,
                0.7176291754370543
            ]
        },
        {
            "positions": [
                -0.6585486981100537,
                -0.33963738231333207,
                -0.4616482930350838,
                1.0087930286450741,
                0.9373189945927051,
                0.6730438741416931
            ]
        },
        {
            "positions": [
                -0.6125168492745403,
                -0.36592569033750494,
                -0.3158487715593903,
                1.0671122689736197,
                0.8739905110447269,
                0.6284585728463319
            ]
        },
        {
            "positions": [
                -0.5664850004390269,
                -0.3922139983616778,
                -0.17004925008369676,
                1.125431509302165,
                0.8106620274967486,
                0.5838732715509706
            ]
        },
        {
            "positions": [
                -0.5204531516035136,
                -0.4185023063858507,
                -0.02424972860800323,
                1.1837507496307105,
                0.7473335439487704,
                0.5392879702556094
            ]
        },
        {
            "positions": [
                -0.4744213027680002,
                -0.44479061441002354,
                0.1215497928676903,
                1.242069989959256,
                0.6840050604007921,
                0.49470266896024806
            ]
        },
        {
            "positions": [
                -0.42838945393248684,
                -0.47107892243419647,
                0.26734931434338427,
                1.3003892302878015,
                0.6206765768528137,
                0.45011736766488675
            ]
        },
        {
            "positions": [
                -0.3823576050969735,
                -0.4973672304583693,
                0.41314883581907735,
                1.3587084706163468,
                0.5573480933048356,
                0.40553206636952555
            ]
        },
        {
            "positions": [
                -0.3363257562614601,
                -0.5236555384825422,
                0.5589483572947713,
                1.4170277109448923,
                0.4940196097568572,
                0.36094676507416423
            ]
        },
        {
            "positions": [
                -0.29029390742594674,
                -0.549943846506715,
                0.7047478787704644,
                1.4753469512734378,
                0.43069112620887906,
                0.31636146377880303
            ]
        },
        {
            "positions": [
                -0.24426205859043337,
                -0.5762321545308879,
                0.8505474002461584,
                1.5336661916019834,
                0.3673626426609007,
                0.2717761624834417
            ]
        },
        {
            "positions": [
                -0.19823020975492,
                -0.6025204625550606,
                0.9963469217218515,
                1.5919854319305289,
                0.30403415911292253,
                0.22719086118808063
            ]
        },
        {
            "positions": [
                -0.15219836091940664,
                -0.6288087705792336,
                1.1421464431975454,
                1.6503046722590744,
                0.24070567556494438,
                0.18260555989271932
            ]
        },
        {
            "positions": [
                -0.10616651208389327,
                -0.6550970786034065,
                1.2879459646732385,
                1.7086239125876197,
                0.17737719201696622,
                0.13802025859735811
            ]
        },
        {
            "positions": [
                -0.060134663248379905,
                -0.6813853866275794,
                1.4337454861489325,
                1.7669431529161652,
                0.11404870846898785,
                0.0934349573019968
            ]
        },
        {
            "positions": [
                -0.014102814412866538,
                -0.7076736946517521,
                1.5795450076246256,
                1.8252623932447105,
                0.05072022492100969,
                0.0488496560066356
            ]
        },
        {
            "positions": [
                0.03192903442264683,
                -0.733962002675925,
                1.7253445291003195,
                1.8835816335732563,
                -0.012608258626968682,
                0.004264354711274176
            ]
        },
        {
            "positions": [
                0.0779608832581602,
                -0.760250310700098,
                1.8711440505760126,
                1.9419008739018015,
                -0.07593674217494684,
                -0.0403209465840868
            ]
        },
        {
            "positions": [
                0.12399273209367365,
                -0.7865386187242708,
                2.0169435720517064,
                2.000220114230347,
                -0.13926522572292524,
                -0.08490624787944823
            ]
        }
    ]
}