{
    "goal": {
        "global_pose": {
            "orientation": {
                "w": 0.7031023502349854,
                "x": -0.7110244035720825,
                "y": 0.007748599164187908,
                "z": 0.005598929710686207
            },
            "position": {
                "x": 0.11585023208521307,
                "y": 0.44412534475326537,
                "z": 0.3711530566215515
            }
        },
        "name": "move_to_auspresseinheit_A"
    },
    "id": "LazyPRM_move_to_auspresseinheit_A_132",
    "joint_names": [
        "shoulder_pan_joint",
        "shoulder_lift_joint",
        "elbow_joint",
        "wrist_1_joint",
        "wrist_2_joint",
        "wrist_3_joint"
    ],
    "metrics": {
        "cart_traj_len": 0.6589059431233016,
        "distance_elbow_joint": 0.3825917578579223,
        "distance_shoulder_lift_joint": 0.8066369466369387,
        "distance_shoulder_pan_joint": 1.045532418429473,
        "distance_wrist_1_joint": 0.5588050407157374,
        "distance_wrist_2_joint": 0.7025273864525431,
        "distance_wrist_3_joint": 1.0162367499059504,
        "smoothness": 0.930753714763286,
        "time": 0.40087237499999995,
        "traj_len": 2.124224635013577,
        "weighted_distance": 2.79394635363293
    },
    "planner": "LazyPRM",
    "start": {
        "state": {
            "elbow_joint": 2.422574709923281,
            "shoulder_lift_joint": -1.3736533754116391,
            "shoulder_pan_joint": -0.33786336945926293,
            "wrist_1_joint": -1.0288603412921917,
            "wrist_2_joint": 1.2330224858903978,
            "wrist_3_joint": -3.094022268022082
        }
    },
    "waypoints": [
        {
            "positions": [
                -0.33786336945926293,
                -1.3736533754116391,
                2.422574709923281,
                -1.0288603412921917,
                1.2330224858903978,
                -3.094022268022082
            ]
        },
        {
            "positions": [
                -0.24462224227336007,
                -1.4695821307706278,
                2.447924445455397,
                -0.9655087558294435,
                1.246561061377429,
                -3.0242106587531024
            ]
        },
        {
            "positions": [
                -0.15138111508745722,
                -1.5655108861296168,
                2.473274180987513,
                -0.9021571703666954,
                1.2600996368644604,
                -2.954399049484122
            ]
        },
        {
            "positions": [
                -0.05813998790155439,
                -1.6614396414886055,
                2.498623916519629,
                -0.8388055849039473,
                1.2736382123514915,
                -2.8845874402151424
            ]
        },
        {
            "positions": [
                0.03510113928434849,
                -1.7573683968475944,
                2.5239736520517444,
                -0.7754539994411991,
                1.287176787838523,
                -2.8147758309461626
            ]
        },
        {
            "positions": [
                0.12834226647025138,
                -1.853297152206583,
                2.5493233875838603,
                -0.7121024139784509,
                1.3007153633255542,
                -2.744964221677183
            ]
        },
        {
            "positions": [
                0.22158339365615415,
                -1.9492259075655718,
                2.5746731231159763,
                -0.6487508285157028,
                1.3142539388125856,
                -2.6751526124082026
            ]
        },
        {
            "positions": [
                0.31482452084205703,
                -2.0451546629245607,
                2.6000228586480922,
                -0.5853992430529545,
                1.3277925142996168,
                -2.605341003139223
            ]
        },
        {
            "positions": [
                0.3802986088634158,
                -2.022632053070558,
                2.565832257125907,
                -0.5661752526402045,
                1.226499621292396,
                -2.693266917309738
            ]
        },
        {
            "positions": [
                0.44577269688477467,
                -2.000109443216555,
                2.531641655603722,
                -0.5469512622274545,
                1.1252067282851754,
                -2.781192831480253
            ]
        },
        {
            "positions": [
                0.5112467849061335,
                -1.9775868333625521,
                2.4974510540815364,
                -0.5277272718147045,
                1.0239138352779547,
                -2.869118745650768
            ]
        },
        {
            "positions": [
                0.5767208729274923,
                -1.9550642235085494,
                2.4632604525593513,
                -0.5085032814019544,
                0.9226209422707341,
                -2.9570446598212836
            ]
        },
        {
            "positions": [
                0.6421949609488512,
                -1.9325416136545464,
                2.429069851037166,
                -0.48927929098920436,
                0.8213280492635133,
                -3.0449705739917987
            ]
        },
        {
            "positions": [
                0.70766904897021,
                -1.9100190038005436,
                2.394879249514981,
                -0.47005530057645434,
                0.7200351562562927,
                -3.132896488162314
            ]
        }
    ]
}