{
    "goal": {
        "global_pose": {
            "orientation": {
                "w": 0.5084816217422485,
                "x": -0.49083608388900757,
                "y": 0.5182115435600281,
                "z": -0.4816462993621826
            },
            "position": {
                "x": 0.5540239810943604,
                "y": 0.030875300988554955,
                "z": 0.16403168439865112
            }
        },
        "name": "move_to_storage_A"
    },
    "id": "LazyPRMstar_move_to_storage_A_47",
    "joint_names": [
        "shoulder_pan_joint",
        "shoulder_lift_joint",
        "elbow_joint",
        "wrist_1_joint",
        "wrist_2_joint",
        "wrist_3_joint"
    ],
    "metrics": {
        "cart_traj_len": 0.3529298450227211,
        "distance_elbow_joint": 0.45019207328217004,
        "distance_shoulder_lift_joint": 0.2345758314632378,
        "distance_shoulder_pan_joint": 0.45744208711247963,
        "distance_wrist_1_joint": 0.2503979669473072,
        "distance_wrist_2_joint": 1.1155025082948398,
        "distance_wrist_3_joint": 0.09345835836127181,
        "smoothness": 5.551115138160447e-16,
        "time": 5.000117255,
        "traj_len": 1.6129379484224762,
        "weighted_distance": 2.038231100102733
    },
    "planner": "LazyPRMstar",
    "start": {
        "state": {
            "elbow_joint": 1.9715463870305268,
            "shoulder_lift_joint": -1.1394903361783484,
            "shoulder_pan_joint": 0.12281147578464417,
            "wrist_1_joint": -0.7804599489681411,
            "wrist_2_joint": 0.12958660307563738,
            "wrist_3_joint": -3.1924946282119055
        }
    },
    "waypoints": [
        {
            "positions": [
                0.12281147578464417,
                -1.1394903361783484,
                1.9715463870305268,
                -0.7804599489681411,
                0.12958660307563738,
                -3.1924946282119055
            ]
        },
        {
            "positions": [
                0.05746260619714709,
                -1.1730011692445252,
                2.035859540356551,
                -0.8162310871034707,
                0.28894410426061445,
                -3.179143434160295
            ]
        },
        {
            "positions": [
                -0.007886263390349993,
                -1.206512002310702,
                2.1001726936825755,
                -0.8520022252388003,
                0.4483016054455916,
                -3.165792240108685
            ]
        },
        {
            "positions": [
                -0.07323513297784708,
                -1.240022835376879,
                2.1644858470085997,
                -0.8877733633741298,
                0.6076591066305687,
                -3.1524410460570746
            ]
        },
        {
            "positions": [
                -0.13858400256534414,
                -1.2735336684430556,
                2.228799000334624,
                -0.9235445015094594,
                0.7670166078155458,
                -3.1390898520054646
            ]
        },
        {
            "positions": [
                -0.20393287215284128,
                -1.3070445015092325,
                2.2931121536606485,
                -0.959315639644789,
                0.926374109000523,
                -3.125738657953854
            ]
        },
        {
            "positions": [
                -0.2692817417403383,
                -1.3405553345754093,
                2.3574253069866726,
                -0.9950867777801187,
                1.0857316101855,
                -3.112387463902244
            ]
        },
        {
            "positions": [
                -0.33463061132783545,
                -1.3740661676415862,
                2.421738460312697,
                -1.0308579159154483,
                1.2450891113704772,
                -3.0990362698506337
            ]
        }
    ]
}