{
    "goal": {
        "global_pose": {
            "orientation": {
                "w": 0.7031023502349854,
                "x": -0.7110244035720825,
                "y": 0.007748599164187908,
                "z": 0.005598929710686207
            },
            "position": {
                "x": 0.11585023208521307,
                "y": 0.44412534475326537,
                "z": 0.3711530566215515
            }
        },
        "name": "move_to_auspresseinheit_A"
    },
    "id": "LazyPRM_move_to_auspresseinheit_A_93",
    "joint_names": [
        "shoulder_pan_joint",
        "shoulder_lift_joint",
        "elbow_joint",
        "wrist_1_joint",
        "wrist_2_joint",
        "wrist_3_joint"
    ],
    "metrics": {
        "cart_traj_len": 0.6662183474950656,
        "distance_elbow_joint": 0.18733445104200896,
        "distance_shoulder_lift_joint": 0.5341523821681495,
        "distance_shoulder_pan_joint": 1.0451759005862233,
        "distance_wrist_1_joint": 0.5547878658218621,
        "distance_wrist_2_joint": 0.8823994802326697,
        "distance_wrist_3_joint": 0.10161146213413419,
        "smoothness": 0.6119265736801259,
        "time": 0.040685225000000005,
        "traj_len": 1.8180928309591478,
        "weighted_distance": 2.2239316114277994
    },
    "planner": "LazyPRM",
    "start": {
        "state": {
            "elbow_joint": 2.422574709923281,
            "shoulder_lift_joint": -1.3736533754116391,
            "shoulder_pan_joint": -0.33786336945926293,
            "wrist_1_joint": -1.0288603412921917,
            "wrist_2_joint": 1.2330224858903978,
            "wrist_3_joint": -3.094022268022082
        }
    },
    "waypoints": [
        {
            "positions": [
                -0.33786336945926293,
                -1.3736533754116391,
                2.422574709923281,
                -1.0288603412921917,
                1.2330224858903978,
                -3.094022268022082
            ]
        },
        {
            "positions": [
                -0.24151645766205945,
                -1.4539256841270942,
                2.4358099959507262,
                -0.9952723411800803,
                1.115800655470018,
                -3.105979058869891
            ]
        },
        {
            "positions": [
                -0.14516954586485598,
                -1.5341979928425495,
                2.4490452819781714,
                -0.961684341067969,
                0.9985788250496384,
                -3.117935849717699
            ]
        },
        {
            "positions": [
                -0.04882263406765247,
                -1.6144703015580046,
                2.4622805680056166,
                -0.9280963409558576,
                0.8813569946292585,
                -3.1298926405655076
            ]
        },
        {
            "positions": [
                0.04752427772955098,
                -1.6947426102734597,
                2.4755158540330617,
                -0.8945083408437462,
                0.7641351642088788,
                -3.1418494314133163
            ]
        },
        {
            "positions": [
                0.14387118952675454,
                -1.775014918988915,
                2.488751140060507,
                -0.8609203407316348,
                0.646913333788499,
                -3.1538062222611245
            ]
        },
        {
            "positions": [
                0.240218101323958,
                -1.8552872277043702,
                2.501986426087952,
                -0.8273323406195234,
                0.5296915033681193,
                -3.165763013108933
            ]
        },
        {
            "positions": [
                0.35699170877470854,
                -1.8684168601732247,
                2.4750057423686176,
                -0.7390173743322249,
                0.5744586277957171,
                -3.1582953338471125
            ]
        },
        {
            "positions": [
                0.47376531622545914,
                -1.8815464926420793,
                2.448025058649283,
                -0.6507024080449265,
                0.6192257522233149,
                -3.1508276545852913
            ]
        },
        {
            "positions": [
                0.5905389236762097,
                -1.894676125110934,
                2.4210443749299486,
                -0.562387441757628,
                0.6639928766509128,
                -3.1433599753234707
            ]
        },
        {
            "positions": [
                0.7073125311269602,
                -1.9078057575797887,
                2.394063691210614,
                -0.47407247547032955,
                0.7087600010785106,
                -3.13589229606165
            ]
        }
    ]
}