{
    "goal": {
        "global_pose": {
            "orientation": {
                "w": 0.7047431468963623,
                "x": -0.7094548344612122,
                "y": 0.0024358443915843964,
                "z": -0.0022348060738295317
            },
            "position": {
                "x": 0.6094750761985779,
                "y": 0.3671506643295288,
                "z": 0.19426114857196808
            }
        },
        "name": "move_to_magneteinheit_A"
    },
    "id": "LazyPRMstar_move_to_magneteinheit_A_124",
    "joint_names": [
        "shoulder_pan_joint",
        "shoulder_lift_joint",
        "elbow_joint",
        "wrist_1_joint",
        "wrist_2_joint",
        "wrist_3_joint"
    ],
    "metrics": {
        "cart_traj_len": 1.870403267061961,
        "distance_elbow_joint": 3.928700962105812,
        "distance_shoulder_lift_joint": 0.7071478428309896,
        "distance_shoulder_pan_joint": 1.2407148002229984,
        "distance_wrist_1_joint": 1.5568473102160536,
        "distance_wrist_2_joint": 1.6986326904967883,
        "distance_wrist_3_joint": 1.1937343106166844,
        "smoothness": 6.344131565838546e-16,
        "time": 5.000285402,
        "traj_len": 3.2133748484248343,
        "weighted_distance": 3.9960889052216464
    },
    "planner": "LazyPRMstar",
    "start": {
        "state": {
            "elbow_joint": -1.919643507792019,
            "shoulder_lift_joint": -0.07675430207160344,
            "shoulder_pan_joint": -1.1188671864651873,
            "wrist_1_joint": 0.42560062535961957,
            "wrist_2_joint": 1.5706038300724876,
            "wrist_3_joint": 1.1188968870953055
        }
    },
    "waypoints": [
        {
            "positions": [
                -1.1188671864651873,
                -0.07675430207160344,
                -1.919643507792019,
                0.42560062535961957,
                1.5706038300724876,
                1.1188968870953055
            ]
        },
        {
            "positions": [
                -1.0729147864569282,
                -0.10294496291719565,
                -1.7741360647510631,
                0.48326163684910306,
                1.5076915082022362,
                1.0746845052206135
            ]
        },
        {
            "positions": [
                -1.026962386448669,
                -0.12913562376278787,
                -1.6286286217101071,
                0.5409226483385865,
                1.4447791863319848,
                1.0304721233459215
            ]
        },
        {
            "positions": [
                -0.9810099864404098,
                -0.15532628460838005,
                -1.4831211786691512,
                0.5985836598280699,
                1.3818668644617333,
                0.9862597414712295
            ]
        },
        {
            "positions": [
                -0.9350575864321505,
                -0.1815169454539723,
                -1.337613735628195,
                0.6562446713175534,
                1.318954542591482,
                0.9420473595965375
            ]
        },
        {
            "positions": [
                -0.8891051864238914,
                -0.20770760629956447,
                -1.1921062925872392,
                0.7139056828070369,
                1.2560422207212305,
                0.8978349777218455
            ]
        },
        {
            "positions": [
                -0.8431527864156322,
                -0.23389826714515669,
                -1.046598849546283,
                0.7715666942965204,
                1.193129898850979,
                0.8536225958471535
            ]
        },
        {
            "positions": [
                -0.7972003864073729,
                -0.2600889279907489,
                -0.901091406505327,
                0.8292277057860038,
                1.1302175769807277,
                0.8094102139724615
            ]
        },
        {
            "positions": [
                -0.7512479863991137,
                -0.2862795888363411,
                -0.7555839634643711,
                0.8868887172754873,
                1.0673052551104762,
                0.7651978320977695
            ]
        },
        {
            "positions": [
                -0.7052955863908545,
                -0.3124702496819333,
                -0.6100765204234151,
                0.9445497287649707,
                1.0043929332402248,
                0.7209854502230775
            ]
        },
        {
            "positions": [
                -0.6593431863825954,
                -0.3386609105275255,
                -0.4645690773824591,
                1.0022107402544542,
                0.9414806113699734,
                0.6767730683483855
            ]
        },
        {
            "positions": [
                -0.6133907863743362,
                -0.36485157137311774,
                -0.31906163434150314,
                1.0598717517439378,
                0.878568289499722,
                0.6325606864736935
            ]
        },
        {
            "positions": [
                -0.567438386366077,
                -0.39104223221870993,
                -0.17355419130054717,
                1.117532763233421,
                0.8156559676294706,
                0.5883483045990013
            ]
        },
        {
            "positions": [
                -0.5214859863578177,
                -0.4172328930643021,
                -0.028046748259591192,
                1.1751937747229046,
                0.7527436457592191,
                0.5441359227243093
            ]
        },
        {
            "positions": [
                -0.47553358634955856,
                -0.44342355390989435,
                0.117460694781365,
                1.232854786212388,
                0.6898313238889677,
                0.4999235408496173
            ]
        },
        {
            "positions": [
                -0.42958118634129927,
                -0.4696142147554866,
                0.2629681378223212,
                1.2905157977018715,
                0.6269190020187163,
                0.4557111589749253
            ]
        },
        {
            "positions": [
                -0.3836287863330402,
                -0.4958048756010788,
                0.40847558086327695,
                1.348176809191355,
                0.5640066801484649,
                0.4114987771002333
            ]
        },
        {
            "positions": [
                -0.3376763863247809,
                -0.5219955364466711,
                0.5539830239042332,
                1.4058378206808386,
                0.5010943582782135,
                0.3672863952255413
            ]
        },
        {
            "positions": [
                -0.29172398631652174,
                -0.5481861972922633,
                0.6994904669451889,
                1.463498832170322,
                0.43818203640796205,
                0.3230740133508493
            ]
        },
        {
            "positions": [
                -0.24577158630826257,
                -0.5743768581378554,
                0.8449979099861451,
                1.5211598436598055,
                0.37526971453771063,
                0.27886163147615717
            ]
        },
        {
            "positions": [
                -0.1998191863000034,
                -0.6005675189834476,
                0.9905053530271009,
                1.5788208551492888,
                0.3123573926674592,
                0.23464924960146527
            ]
        },
        {
            "positions": [
                -0.1538667862917441,
                -0.6267581798290398,
                1.136012796068057,
                1.6364818666387724,
                0.2494450707972078,
                0.19043686772677315
            ]
        },
        {
            "positions": [
                -0.10791438628348504,
                -0.652948840674632,
                1.2815202391090128,
                1.694142878128256,
                0.18653274892695637,
                0.14622448585208125
            ]
        },
        {
            "positions": [
                -0.061961986275225645,
                -0.6791395015202242,
                1.427027682149969,
                1.7518038896177395,
                0.12362042705670495,
                0.10201210397738913
            ]
        },
        {
            "positions": [
                -0.01600958626696669,
                -0.7053301623658164,
                1.5725351251909248,
                1.8094649011072228,
                0.06070810518645353,
                0.057799722102697126
            ]
        },
        {
            "positions": [
                0.029942813741292706,
                -0.7315208232114088,
                1.718042568231881,
                1.8671259125967063,
                -0.0022042166837978883,
                0.013587340228005118
            ]
        },
        {
            "positions": [
                0.07589521374955188,
                -0.7577114840570007,
                1.8635500112728367,
                1.9247869240861897,
                -0.06511653855404931,
                -0.03062504164668689
            ]
        },
        {
            "positions": [
                0.12184761375781107,
                -0.7839021449025931,
                2.0090574543137927,
                1.9824479355756732,
                -0.12802886042430064,
                -0.0748374235213789
            ]
        }
    ]
}