{
    "goal": {
        "global_pose": {
            "orientation": {
                "w": 0.7031023502349854,
                "x": -0.7110244035720825,
                "y": 0.007748599164187908,
                "z": 0.005598929710686207
            },
            "position": {
                "x": 0.11585023208521307,
                "y": 0.44412534475326537,
                "z": 0.3711530566215515
            }
        },
        "name": "move_to_auspresseinheit_A"
    },
    "id": "LazyPRM_move_to_auspresseinheit_A_42",
    "joint_names": [
        "shoulder_pan_joint",
        "shoulder_lift_joint",
        "elbow_joint",
        "wrist_1_joint",
        "wrist_2_joint",
        "wrist_3_joint"
    ],
    "metrics": {
        "cart_traj_len": 2.24442478138818,
        "distance_elbow_joint": 0.83764765011703,
        "distance_shoulder_lift_joint": 2.6896250271578594,
        "distance_shoulder_pan_joint": 1.0450433756094257,
        "distance_wrist_1_joint": 6.377414869618243,
        "distance_wrist_2_joint": 5.135798874918735,
        "distance_wrist_3_joint": 0.48887444392817114,
        "smoothness": 0.7857998567729498,
        "time": 0.21917197900000002,
        "traj_len": 4.071167429785891,
        "weighted_distance": 5.391230552827691
    },
    "planner": "LazyPRM",
    "start": {
        "state": {
            "elbow_joint": 2.422574709923281,
            "shoulder_lift_joint": -1.3736533754116391,
            "shoulder_pan_joint": -0.33786336945926293,
            "wrist_1_joint": -1.0288603412921917,
            "wrist_2_joint": 1.2330224858903978,
            "wrist_3_joint": -3.094022268022082
        }
    },
    "waypoints": [
        {
            "positions": [
                -0.33786336945926293,
                -1.3736533754116391,
                2.422574709923281,
                -1.0288603412921917,
                1.2330224858903978,
                -3.094022268022082
            ]
        },
        {
            "positions": [
                -0.3139402937605138,
                -1.4407930792123849,
                2.4044346790940168,
                -0.8840530935227401,
                1.1151793648688852,
                -3.0846832903717862
            ]
        },
        {
            "positions": [
                -0.2900172180617647,
                -1.5079327830131304,
                2.3862946482647525,
                -0.7392458457532884,
                0.9973362438473726,
                -3.0753443127214903
            ]
        },
        {
            "positions": [
                -0.26609414236301565,
                -1.5750724868138761,
                2.368154617435488,
                -0.5944385979838367,
                0.87949312282586,
                -3.066005335071194
            ]
        },
        {
            "positions": [
                -0.24217106666426652,
                -1.6422121906146216,
                2.350014586606224,
                -0.44963135021438516,
                0.7616500018043475,
                -3.056666357420898
            ]
        },
        {
            "positions": [
                -0.21824799096551742,
                -1.7093518944153674,
                2.33187455577696,
                -0.3048241024449334,
                0.6438068807828348,
                -3.047327379770602
            ]
        },
        {
            "positions": [
                -0.19432491526676832,
                -1.7764915982161131,
                2.3137345249476957,
                -0.16001685467548177,
                0.5259637597613223,
                -3.0379884021203063
            ]
        },
        {
            "positions": [
                -0.17040183956801921,
                -1.8436313020168587,
                2.2955944941184314,
                -0.015209606906030126,
                0.40812063873980964,
                -3.0286494244700104
            ]
        },
        {
            "positions": [
                -0.1464787638692701,
                -1.9107710058176042,
                2.277454463289167,
                0.1295976408634214,
                0.29027751771829713,
                -3.019310446819714
            ]
        },
        {
            "positions": [
                -0.12255568817052101,
                -1.97791070961835,
                2.259314432459903,
                0.27440488863287316,
                0.1724343966967845,
                -3.009971469169418
            ]
        },
        {
            "positions": [
                -0.09863261247177191,
                -2.0450504134190957,
                2.2411744016306385,
                0.4192121364023249,
                0.05459127567527178,
                -3.0006324915191223
            ]
        },
        {
            "positions": [
                -0.07470953677302283,
                -2.1121901172198414,
                2.2230343708013742,
                0.5640193841717764,
                -0.06325184534624051,
                -2.9912935138688264
            ]
        },
        {
            "positions": [
                -0.0507864610742737,
                -2.1793298210205867,
                2.2048943399721104,
                0.7088266319412282,
                -0.18109496636775324,
                -2.98195453621853
            ]
        },
        {
            "positions": [
                -0.02686338537552463,
                -2.2464695248213324,
                2.186754309142846,
                0.8536338797106797,
                -0.29893808738926575,
                -2.972615558568234
            ]
        },
        {
            "positions": [
                -0.002940309676775499,
                -2.313609228622078,
                2.1686142783135818,
                0.9984411274801315,
                -0.4167812084107785,
                -2.963276580917938
            ]
        },
        {
            "positions": [
                0.02098276602197363,
                -2.380748932422824,
                2.1504742474843175,
                1.1432483752495832,
                -0.534624329432291,
                -2.9539376032676423
            ]
        },
        {
            "positions": [
                0.044905841720722706,
                -2.4478886362235697,
                2.132334216655053,
                1.2880556230190345,
                -0.6524674504538035,
                -2.9445986256173464
            ]
        },
        {
            "positions": [
                0.06882891741947184,
                -2.5150283400243154,
                2.114194185825789,
                1.4328628707884867,
                -0.7703105714753162,
                -2.93525964796705
            ]
        },
        {
            "positions": [
                0.09275199311822091,
                -2.5821680438250607,
                2.0960541549965246,
                1.577670118557938,
                -0.8881536924968287,
                -2.925920670316754
            ]
        },
        {
            "positions": [
                0.11667506881696998,
                -2.6493077476258065,
                2.0779141241672603,
                1.7224773663273898,
                -1.0059968135183412,
                -2.9165816926664583
            ]
        },
        {
            "positions": [
                0.14059814451571911,
                -2.716447451426552,
                2.059774093337996,
                1.8672846140968415,
                -1.1238399345398542,
                -2.9072427150161624
            ]
        },
        {
            "positions": [
                0.1645212202144682,
                -2.7835871552272975,
                2.041634062508732,
                2.0120918618662933,
                -1.2416830555613667,
                -2.8979037373658665
            ]
        },
        {
            "positions": [
                0.18844429591321726,
                -2.8507268590280432,
                2.023494031679468,
                2.1568991096357446,
                -1.3595261765828788,
                -2.88856475971557
            ]
        },
        {
            "positions": [
                0.21236737161196645,
                -2.917866562828789,
                2.0053540008502035,
                2.3017063574051964,
                -1.4773692976043917,
                -2.8792257820652742
            ]
        },
        {
            "positions": [
                0.23629044731071547,
                -2.9850062666295347,
                1.9872139700209392,
                2.446513605174648,
                -1.5952124186259042,
                -2.8698868044149783
            ]
        },
        {
            "positions": [
                0.2610741083022653,
                -2.928255101580063,
                2.0083869652953967,
                2.2937746092193114,
                -1.4737616833415657,
                -2.8838204349581926
            ]
        },
        {
            "positions": [
                0.2858577692938152,
                -2.871503936530591,
                2.0295599605698538,
                2.1410356132639747,
                -1.3523109480572268,
                -2.8977540655014065
            ]
        },
        {
            "positions": [
                0.310641430285365,
                -2.8147527714811194,
                2.0507329558443113,
                1.9882966173086378,
                -1.2308602127728883,
                -2.9116876960446207
            ]
        },
        {
            "positions": [
                0.33542509127691483,
                -2.7580016064316477,
                2.0719059511187683,
                1.835557621353301,
                -1.1094094774885497,
                -2.9256213265878346
            ]
        },
        {
            "positions": [
                0.3602087522684647,
                -2.701250441382176,
                2.093078946393226,
                1.6828186253979642,
                -0.987958742204211,
                -2.939554957131049
            ]
        },
        {
            "positions": [
                0.38499241326001454,
                -2.644499276332704,
                2.114251941667683,
                1.5300796294426275,
                -0.8665080069198724,
                -2.9534885876742627
            ]
        },
        {
            "positions": [
                0.40977607425156437,
                -2.5877481112832323,
                2.1354249369421403,
                1.3773406334872906,
                -0.7450572716355337,
                -2.967422218217477
            ]
        },
        {
            "positions": [
                0.4345597352431142,
                -2.5309969462337607,
                2.1565979322165973,
                1.224601637531954,
                -0.623606536351195,
                -2.981355848760691
            ]
        },
        {
            "positions": [
                0.459343396234664,
                -2.4742457811842886,
                2.177770927491055,
                1.0718626415766173,
                -0.5021558010668563,
                -2.995289479303905
            ]
        },
        {
            "positions": [
                0.4841270572262139,
                -2.417494616134817,
                2.198943922765512,
                0.9191236456212803,
                -0.3807050657825177,
                -3.009223109847119
            ]
        },
        {
            "positions": [
                0.5089107182177638,
                -2.3607434510853453,
                2.2201169180399694,
                0.7663846496659434,
                -0.2592543304981789,
                -3.023156740390333
            ]
        },
        {
            "positions": [
                0.5336943792093136,
                -2.3039922860358732,
                2.2412899133144264,
                0.6136456537106068,
                -0.13780359521384056,
                -3.037090370933547
            ]
        },
        {
            "positions": [
                0.5584780402008634,
                -2.2472411209864016,
                2.262462908588884,
                0.46090665775526984,
                -0.01635285992950175,
                -3.0510240014767613
            ]
        },
        {
            "positions": [
                0.5832617011924133,
                -2.19048995593693,
                2.283635903863341,
                0.30816766179993316,
                0.10509787535483683,
                -3.064957632019975
            ]
        },
        {
            "positions": [
                0.6080453621839632,
                -2.1337387908874583,
                2.3048088991377984,
                0.15542866584459647,
                0.22654861063917564,
                -3.0788912625631895
            ]
        },
        {
            "positions": [
                0.6328290231755129,
                -2.0769876258379867,
                2.3259818944122554,
                0.0026896698892597826,
                0.3479993459235142,
                -3.0928248931064033
            ]
        },
        {
            "positions": [
                0.6576126841670629,
                -2.0202364607885146,
                2.347154889686713,
                -0.15004932606607735,
                0.46945008120785303,
                -3.1067585236496176
            ]
        },
        {
            "positions": [
                0.6823963451586126,
                -1.963485295739043,
                2.36832788496117,
                -0.3027883220214136,
                0.5909008164921916,
                -3.120692154192832
            ]
        },
        {
            "positions": [
                0.7071800061501625,
                -1.906734130689571,
                2.3895008802356275,
                -0.4555273179767509,
                0.7123515517765302,
                -3.1346257847360457
            ]
        }
    ]
}