{
    "goal": {
        "global_pose": {
            "orientation": {
                "w": 0.7031023502349854,
                "x": -0.7110244035720825,
                "y": 0.007748599164187908,
                "z": 0.005598929710686207
            },
            "position": {
                "x": 0.11585023208521307,
                "y": 0.44412534475326537,
                "z": 0.3711530566215515
            }
        },
        "name": "move_to_auspresseinheit_A"
    },
    "id": "LazyPRM_move_to_auspresseinheit_A_78",
    "joint_names": [
        "shoulder_pan_joint",
        "shoulder_lift_joint",
        "elbow_joint",
        "wrist_1_joint",
        "wrist_2_joint",
        "wrist_3_joint"
    ],
    "metrics": {
        "cart_traj_len": 1.6788353438005255,
        "distance_elbow_joint": 1.1145675587777175,
        "distance_shoulder_lift_joint": 1.020012651944331,
        "distance_shoulder_pan_joint": 1.2693004793212186,
        "distance_wrist_1_joint": 1.2720618838884468,
        "distance_wrist_2_joint": 0.9100316078700486,
        "distance_wrist_3_joint": 2.446695674241903,
        "smoothness": 0.7291679541406056,
        "time": 0.080674931,
        "traj_len": 2.8341965097790354,
        "weighted_distance": 3.886920978909395
    },
    "planner": "LazyPRM",
    "start": {
        "state": {
            "elbow_joint": 2.422574709923281,
            "shoulder_lift_joint": -1.3736533754116391,
            "shoulder_pan_joint": -0.33786336945926293,
            "wrist_1_joint": -1.0288603412921917,
            "wrist_2_joint": 1.2330224858903978,
            "wrist_3_joint": -3.094022268022082
        }
    },
    "waypoints": [
        {
            "positions": [
                -0.33786336945926293,
                -1.3736533754116391,
                2.422574709923281,
                -1.0288603412921917,
                1.2330224858903978,
                -3.094022268022082
            ]
        },
        {
            "positions": [
                -0.287566370675823,
                -1.4226738318009904,
                2.345728821323606,
                -1.0676458994813973,
                1.1706671387149168,
                -3.024745617816045
            ]
        },
        {
            "positions": [
                -0.23726937189238317,
                -1.4716942881903414,
                2.26888293272393,
                -1.106431457670603,
                1.1083117915394358,
                -2.955468967610008
            ]
        },
        {
            "positions": [
                -0.1869723731089433,
                -1.5207147445796927,
                2.192037044124255,
                -1.1452170158598083,
                1.0459564443639549,
                -2.8861923174039705
            ]
        },
        {
            "positions": [
                -0.1366753743255034,
                -1.5697352009690437,
                2.1151911555245793,
                -1.1840025740490139,
                0.983601097188474,
                -2.8169156671979336
            ]
        },
        {
            "positions": [
                -0.08637837554206353,
                -1.618755657358395,
                2.038345266924904,
                -1.2227881322382195,
                0.921245750012993,
                -2.7476390169918963
            ]
        },
        {
            "positions": [
                0.0033691700461904867,
                -1.6780525495449172,
                2.0177020106156163,
                -1.144621156049783,
                0.883831586336447,
                -2.6520918489183747
            ]
        },
        {
            "positions": [
                0.0931167156344445,
                -1.7373494417314397,
                1.9970587543063287,
                -1.0664541798613467,
                0.8464174226599009,
                -2.556544680844853
            ]
        },
        {
            "positions": [
                0.1828642612226985,
                -1.796646333917962,
                1.9764154979970412,
                -0.9882872036729103,
                0.8090032589833549,
                -2.460997512771332
            ]
        },
        {
            "positions": [
                0.27261180681095254,
                -1.8559432261044844,
                1.9557722416877534,
                -0.910120227484474,
                0.7715890953068089,
                -2.3654503446978103
            ]
        },
        {
            "positions": [
                0.3623593523992066,
                -1.9152401182910066,
                1.935128985378466,
                -0.8319532512960375,
                0.7341749316302627,
                -2.2699031766242888
            ]
        },
        {
            "positions": [
                0.4521068979874605,
                -1.9745370104775288,
                1.9144857290691781,
                -0.7537862751076012,
                0.6967607679537167,
                -2.1743560085507676
            ]
        },
        {
            "positions": [
                0.5418544435757147,
                -2.0338339026640515,
                1.8938424727598906,
                -0.6756192989191647,
                0.6593466042771706,
                -2.0788088404772456
            ]
        },
        {
            "positions": [
                0.6316019891639686,
                -2.0931307948505737,
                1.8731992164506028,
                -0.5974523227307283,
                0.6219324406006246,
                -1.9832616724037244
            ]
        },
        {
            "positions": [
                0.7213495347522226,
                -2.152427687037096,
                1.8525559601413153,
                -0.519285346542292,
                0.5845182769240785,
                -1.8877145043302028
            ]
        },
        {
            "positions": [
                0.753596422795091,
                -2.1471003068279315,
                1.9436028174010007,
                -0.45025804168054473,
                0.5600667416749638,
                -1.967515830890841
            ]
        },
        {
            "positions": [
                0.7858433108379593,
                -2.1417729266187666,
                2.034649674660686,
                -0.38123073681879754,
                0.5356152064258491,
                -2.047317157451479
            ]
        },
        {
            "positions": [
                0.8180901988808277,
                -2.136445546409602,
                2.1256965319203713,
                -0.3122034319570503,
                0.5111636711767344,
                -2.1271184840121173
            ]
        },
        {
            "positions": [
                0.8153679472504548,
                -2.096981634940584,
                2.200055006938411,
                -0.3259452887354623,
                0.5278487674388032,
                -2.3241993618184025
            ]
        },
        {
            "positions": [
                0.8126456956200818,
                -2.0575177234715656,
                2.2744134819564508,
                -0.33968714551387424,
                0.5445338637008718,
                -2.5212802396246876
            ]
        },
        {
            "positions": [
                0.809923443989709,
                -2.0180538120025475,
                2.3487719569744905,
                -0.35342900229228624,
                0.5612189599629405,
                -2.7183611174309728
            ]
        },
        {
            "positions": [
                0.7748633919597058,
                -1.982432323574439,
                2.364882894362016,
                -0.39553694306762427,
                0.6072581280863335,
                -2.854941549914057
            ]
        },
        {
            "positions": [
                0.7398033399297027,
                -1.9468108351463302,
                2.3809938317495414,
                -0.4376448838429623,
                0.6532972962097267,
                -2.991521982397142
            ]
        },
        {
            "positions": [
                0.7047432878996995,
                -1.9111893467182217,
                2.397104769137067,
                -0.4797528246183004,
                0.6993364643331197,
                -3.1281024148802263
            ]
        }
    ]
}