{
    "goal": {
        "global_pose": {
            "orientation": {
                "w": 0.7047431468963623,
                "x": -0.7094548344612122,
                "y": 0.0024358443915843964,
                "z": -0.0022348060738295317
            },
            "position": {
                "x": 0.6094750761985779,
                "y": 0.3671506643295288,
                "z": 0.19426114857196808
            }
        },
        "name": "move_to_magneteinheit_A"
    },
    "id": "LazyPRMstar_move_to_magneteinheit_A_44",
    "joint_names": [
        "shoulder_pan_joint",
        "shoulder_lift_joint",
        "elbow_joint",
        "wrist_1_joint",
        "wrist_2_joint",
        "wrist_3_joint"
    ],
    "metrics": {
        "cart_traj_len": 2.0652749501254526,
        "distance_elbow_joint": 3.880770987897349,
        "distance_shoulder_lift_joint": 1.05609624809149,
        "distance_shoulder_pan_joint": 1.2412461240229689,
        "distance_wrist_1_joint": 1.156969956676447,
        "distance_wrist_2_joint": 1.4383902141739602,
        "distance_wrist_3_joint": 1.9285345287520128,
        "smoothness": 6.125368460227546e-17,
        "time": 5.001138997,
        "traj_len": 3.271392373227985,
        "weighted_distance": 4.14179155535001
    },
    "planner": "LazyPRMstar",
    "start": {
        "state": {
            "elbow_joint": -1.919643507792019,
            "shoulder_lift_joint": -0.07675430207160344,
            "shoulder_pan_joint": -1.1188671864651873,
            "wrist_1_joint": 0.42560062535961957,
            "wrist_2_joint": 1.5706038300724876,
            "wrist_3_joint": 1.1188968870953055
        }
    },
    "waypoints": [
        {
            "positions": [
                -1.1188671864651873,
                -0.07675430207160344,
                -1.919643507792019,
                0.42560062535961957,
                1.5706038300724876,
                1.1188968870953055
            ]
        },
        {
            "positions": [
                -1.0745369677500813,
                -0.11447202521772809,
                -1.7810445439385423,
                0.3842802697640322,
                1.5192327509948462,
                1.1877731202650204
            ]
        },
        {
            "positions": [
                -1.0302067490349753,
                -0.15218974836385274,
                -1.6424455800850657,
                0.3429599141684448,
                1.4678616719172046,
                1.256649353434735
            ]
        },
        {
            "positions": [
                -0.9858765303198693,
                -0.18990747150997736,
                -1.5038466162315889,
                0.3016395585728574,
                1.4164905928395632,
                1.3255255866044497
            ]
        },
        {
            "positions": [
                -0.9415463116047632,
                -0.227625194656102,
                -1.365247652378112,
                0.26031920297727,
                1.3651195137619219,
                1.3944018197741646
            ]
        },
        {
            "positions": [
                -0.8972160928896572,
                -0.26534291780222663,
                -1.2266486885246355,
                0.21899884738168263,
                1.3137484346842805,
                1.4632780529438794
            ]
        },
        {
            "positions": [
                -0.8528858741745512,
                -0.3030606409483513,
                -1.0880497246711587,
                0.17767849178609524,
                1.262377355606639,
                1.532154286113594
            ]
        },
        {
            "positions": [
                -0.8085556554594451,
                -0.3407783640944759,
                -0.9494507608176819,
                0.13635813619050785,
                1.2110062765289975,
                1.6010305192833088
            ]
        },
        {
            "positions": [
                -0.7642254367443391,
                -0.3784960872406006,
                -0.8108517969642053,
                0.09503778059492046,
                1.1596351974513561,
                1.6699067524530236
            ]
        },
        {
            "positions": [
                -0.7198952180292331,
                -0.4162138103867252,
                -0.6722528331107283,
                0.053717424999333074,
                1.1082641183737145,
                1.7387829856227381
            ]
        },
        {
            "positions": [
                -0.6755649993141271,
                -0.4539315335328499,
                -0.5336538692572517,
                0.012397069403745686,
                1.0568930392960731,
                1.807659218792453
            ]
        },
        {
            "positions": [
                -0.631234780599021,
                -0.49164925667897447,
                -0.39505490540377486,
                -0.0289232861918417,
                1.0055219602184318,
                1.8765354519621678
            ]
        },
        {
            "positions": [
                -0.586904561883915,
                -0.5293669798250991,
                -0.25645594155029827,
                -0.07024364178742909,
                0.9541508811407904,
                1.9454116851318823
            ]
        },
        {
            "positions": [
                -0.5425743431688089,
                -0.5670847029712238,
                -0.11785697769682124,
                -0.11156399738301653,
                0.9027798020631489,
                2.0142879183015974
            ]
        },
        {
            "positions": [
                -0.4982441244537029,
                -0.6048024261173484,
                0.020741986156655345,
                -0.15288435297860387,
                0.8514087229855075,
                2.083164151471312
            ]
        },
        {
            "positions": [
                -0.4539139057385969,
                -0.6425201492634731,
                0.15934095001013193,
                -0.1942047085741912,
                0.8000376439078661,
                2.152040384641027
            ]
        },
        {
            "positions": [
                -0.4095836870234909,
                -0.6802378724095977,
                0.2979399138636085,
                -0.23552506416977864,
                0.7486665648302246,
                2.220916617810741
            ]
        },
        {
            "positions": [
                -0.3652534683083849,
                -0.7179555955557222,
                0.43653887771708555,
                -0.276845419765366,
                0.6972954857525833,
                2.289792850980456
            ]
        },
        {
            "positions": [
                -0.3209232495932788,
                -0.755673318701847,
                0.5751378415705626,
                -0.3181657753609534,
                0.6459244066749417,
                2.358669084150171
            ]
        },
        {
            "positions": [
                -0.2765930308781728,
                -0.7933910418479717,
                0.7137368054240392,
                -0.35948613095654086,
                0.5945533275973003,
                2.4275453173198858
            ]
        },
        {
            "positions": [
                -0.23226281216306677,
                -0.8311087649940962,
                0.8523357692775158,
                -0.4008064865521282,
                0.5431822485196589,
                2.4964215504896003
            ]
        },
        {
            "positions": [
                -0.18793259344796076,
                -0.868826488140221,
                0.9909347331309923,
                -0.44212684214771564,
                0.4918111694420175,
                2.5652977836593154
            ]
        },
        {
            "positions": [
                -0.14360237473285464,
                -0.9065442112863455,
                1.1295336969844694,
                -0.48344719774330297,
                0.44044009036437615,
                2.63417401682903
            ]
        },
        {
            "positions": [
                -0.09927215601774875,
                -0.9442619344324701,
                1.268132660837946,
                -0.5247675533388902,
                0.38906901128673455,
                2.7030502499987445
            ]
        },
        {
            "positions": [
                -0.05494193730264274,
                -0.9819796575785948,
                1.4067316246914225,
                -0.5660879089344777,
                0.33769793220909317,
                2.7719264831684596
            ]
        },
        {
            "positions": [
                -0.010611718587536512,
                -1.0196973807247196,
                1.5453305885448996,
                -0.6074082645300651,
                0.28632685313145156,
                2.840802716338174
            ]
        },
        {
            "positions": [
                0.033718500127569495,
                -1.0574151038708441,
                1.6839295523983766,
                -0.6487286201256526,
                0.23495577405381018,
                2.9096789495078887
            ]
        },
        {
            "positions": [
                0.0780487188426755,
                -1.095132827016969,
                1.8225285162518532,
                -0.6900489757212398,
                0.1835846949761688,
                2.9785551826776038
            ]
        },
        {
            "positions": [
                0.12237893755778145,
                -1.1328505501630934,
                1.9611274801053296,
                -0.7313693313168274,
                0.13221361589852748,
                3.0474314158473184
            ]
        }
    ]
}