{
    "goal": {
        "global_pose": {
            "orientation": {
                "w": 0.5084816217422485,
                "x": -0.49083608388900757,
                "y": 0.5182115435600281,
                "z": -0.4816462993621826
            },
            "position": {
                "x": 0.5540239810943604,
                "y": 0.030875300988554955,
                "z": 0.16403168439865112
            }
        },
        "name": "move_to_storage_A"
    },
    "id": "LazyPRM_move_to_storage_A_66",
    "joint_names": [
        "shoulder_pan_joint",
        "shoulder_lift_joint",
        "elbow_joint",
        "wrist_1_joint",
        "wrist_2_joint",
        "wrist_3_joint"
    ],
    "metrics": {
        "cart_traj_len": 0.3538958279146744,
        "distance_elbow_joint": 0.4530132328742278,
        "distance_shoulder_lift_joint": 0.23220918515692657,
        "distance_shoulder_pan_joint": 0.46349534072733906,
        "distance_wrist_1_joint": 0.26165197029829834,
        "distance_wrist_2_joint": 1.0961623568415646,
        "distance_wrist_3_joint": 0.09992945788329033,
        "smoothness": 2.2204460668324854e-16,
        "time": 0.021960373000000002,
        "traj_len": 1.6144539460082616,
        "weighted_distance": 2.0406211766734392
    },
    "planner": "LazyPRM",
    "start": {
        "state": {
            "elbow_joint": 1.9715463870305268,
            "shoulder_lift_joint": -1.1394903361783484,
            "shoulder_pan_joint": 0.12281147578464417,
            "wrist_1_joint": -0.7804599489681411,
            "wrist_2_joint": 0.12958660307563738,
            "wrist_3_joint": -3.1924946282119055
        }
    },
    "waypoints": [
        {
            "positions": [
                0.12281147578464417,
                -1.1394903361783484,
                1.9715463870305268,
                -0.7804599489681411,
                0.12958660307563738,
                -3.1924946282119055
            ]
        },
        {
            "positions": [
                0.05659785568073859,
                -1.1726630769150521,
                2.0362625631554163,
                -0.817838801867898,
                0.2861812254815752,
                -3.1782189913714354
            ]
        },
        {
            "positions": [
                -0.009615764423166986,
                -1.205835817651756,
                2.1009787392803063,
                -0.8552176547676549,
                0.442775847887513,
                -3.1639433545309656
            ]
        },
        {
            "positions": [
                -0.07582938452707257,
                -1.2390085583884598,
                2.165694915405196,
                -0.8925965076674118,
                0.5993704702934508,
                -3.1496677176904955
            ]
        },
        {
            "positions": [
                -0.14204300463097813,
                -1.2721812991251635,
                2.2304110915300854,
                -0.9299753605671687,
                0.7559650926993886,
                -3.1353920808500253
            ]
        },
        {
            "positions": [
                -0.2082566247348837,
                -1.3053540398618675,
                2.2951272676549754,
                -0.9673542134669256,
                0.9125597151053264,
                -3.121116444009555
            ]
        },
        {
            "positions": [
                -0.2744702448387893,
                -1.3385267805985712,
                2.359843443779865,
                -1.0047330663666825,
                1.0691543375112642,
                -3.1068408071690854
            ]
        },
        {
            "positions": [
                -0.34068386494269487,
                -1.371699521335275,
                2.4245596199047545,
                -1.0421119192664394,
                1.225748959917202,
                -3.092565170328615
            ]
        }
    ]
}