{
    "goal": {
        "global_pose": {
            "orientation": {
                "w": 0.7031023502349854,
                "x": -0.7110244035720825,
                "y": 0.007748599164187908,
                "z": 0.005598929710686207
            },
            "position": {
                "x": 0.11585023208521307,
                "y": 0.44412534475326537,
                "z": 0.3711530566215515
            }
        },
        "name": "move_to_auspresseinheit_A"
    },
    "id": "LazyPRMstar_move_to_auspresseinheit_A_10",
    "joint_names": [
        "shoulder_pan_joint",
        "shoulder_lift_joint",
        "elbow_joint",
        "wrist_1_joint",
        "wrist_2_joint",
        "wrist_3_joint"
    ],
    "metrics": {
        "cart_traj_len": 0.8235311913605391,
        "distance_elbow_joint": 0.052562500356438946,
        "distance_shoulder_lift_joint": 1.3778726805635566,
        "distance_shoulder_pan_joint": 1.0438515958147987,
        "distance_wrist_1_joint": 0.7708717528382627,
        "distance_wrist_2_joint": 0.6680417910790454,
        "distance_wrist_3_joint": 0.3295221482175794,
        "smoothness": 1.4619587729762817,
        "time": 5.008136662,
        "traj_len": 2.059786995994897,
        "weighted_distance": 2.518070751432959
    },
    "planner": "LazyPRMstar",
    "start": {
        "state": {
            "elbow_joint": 2.422574709923281,
            "shoulder_lift_joint": -1.3736533754116391,
            "shoulder_pan_joint": -0.33786336945926293,
            "wrist_1_joint": -1.0288603412921917,
            "wrist_2_joint": 1.2330224858903978,
            "wrist_3_joint": -3.094022268022082
        }
    },
    "waypoints": [
        {
            "positions": [
                -0.33786336945926293,
                -1.3736533754116391,
                2.422574709923281,
                -1.0288603412921917,
                1.2330224858903978,
                -3.094022268022082
            ]
        },
        {
            "positions": [
                -0.2486986286616593,
                -1.4800202033466134,
                2.423956453780342,
                -0.9549053682773374,
                1.167045623503674,
                -3.1143623074452473
            ]
        },
        {
            "positions": [
                -0.15953388786405565,
                -1.5863870312815878,
                2.4253381976374038,
                -0.8809503952624832,
                1.10106876111695,
                -3.1347023468684125
            ]
        },
        {
            "positions": [
                -0.07036914706645198,
                -1.692753859216562,
                2.426719941494465,
                -0.8069954222476289,
                1.0350918987302262,
                -3.1550423862915773
            ]
        },
        {
            "positions": [
                0.01879559373115164,
                -1.7991206871515366,
                2.428101685351526,
                -0.7330404492327747,
                0.9691150363435025,
                -3.1753824257147425
            ]
        },
        {
            "positions": [
                0.10796033452875536,
                -1.905487515086511,
                2.4294834292085876,
                -0.6590854762179204,
                0.9031381739567786,
                -3.1957224651379077
            ]
        },
        {
            "positions": [
                0.19712507532635898,
                -2.0118543430214855,
                2.4308651730656488,
                -0.585130503203066,
                0.8371613115700549,
                -3.216062504561073
            ]
        },
        {
            "positions": [
                0.2862898161239626,
                -2.11822117095646,
                2.43224691692271,
                -0.5111755301882117,
                0.7711844491833311,
                -3.2364025439842377
            ]
        },
        {
            "positions": [
                0.3754545569215662,
                -2.224587998891434,
                2.4336286607797715,
                -0.4372205571733575,
                0.7052075867966072,
                -3.256742583407403
            ]
        },
        {
            "positions": [
                0.46461929771916993,
                -2.3309548268264084,
                2.4350104046368326,
                -0.3632655841585032,
                0.6392307244098834,
                -3.277082622830568
            ]
        },
        {
            "positions": [
                0.5450756072646252,
                -2.190764417110146,
                2.4216348027558703,
                -0.39835791606002796,
                0.6639807342760604,
                -3.228262025027537
            ]
        },
        {
            "positions": [
                0.6255319168100805,
                -2.0505740073938834,
                2.4082592008749075,
                -0.4334502479615527,
                0.6887307441422373,
                -3.1794414272245057
            ]
        },
        {
            "positions": [
                0.7059882263555357,
                -1.9103835976776211,
                2.394883598993945,
                -0.46854257986307746,
                0.7134807540084144,
                -3.1306208294214746
            ]
        }
    ]
}