{
    "goal": {
        "global_pose": {
            "orientation": {
                "w": 0.5084816217422485,
                "x": -0.49083608388900757,
                "y": 0.5182115435600281,
                "z": -0.4816462993621826
            },
            "position": {
                "x": 0.5540239810943604,
                "y": 0.030875300988554955,
                "z": 0.16403168439865112
            }
        },
        "name": "move_to_storage_A"
    },
    "id": "LazyPRMstar_move_to_storage_A_103",
    "joint_names": [
        "shoulder_pan_joint",
        "shoulder_lift_joint",
        "elbow_joint",
        "wrist_1_joint",
        "wrist_2_joint",
        "wrist_3_joint"
    ],
    "metrics": {
        "cart_traj_len": 0.3538565870850332,
        "distance_elbow_joint": 0.45120393354702504,
        "distance_shoulder_lift_joint": 0.23282892699451185,
        "distance_shoulder_pan_joint": 0.4614143830871512,
        "distance_wrist_1_joint": 0.25066390533362604,
        "distance_wrist_2_joint": 1.1052291649379231,
        "distance_wrist_3_joint": 0.09857797462108531,
        "smoothness": 1.3322676295501878e-15,
        "time": 5.000458268,
        "traj_len": 1.6124262118067054,
        "weighted_distance": 2.0378830457204953
    },
    "planner": "LazyPRMstar",
    "start": {
        "state": {
            "elbow_joint": 1.9715463870305268,
            "shoulder_lift_joint": -1.1394903361783484,
            "shoulder_pan_joint": 0.12281147578464417,
            "wrist_1_joint": -0.7804599489681411,
            "wrist_2_joint": 0.12958660307563738,
            "wrist_3_joint": -3.1924946282119055
        }
    },
    "waypoints": [
        {
            "positions": [
                0.12281147578464417,
                -1.1394903361783484,
                1.9715463870305268,
                -0.7804599489681411,
                0.12958660307563738,
                -3.1924946282119055
            ]
        },
        {
            "positions": [
                0.056895135343622574,
                -1.1727516114632786,
                2.0360040918229587,
                -0.8162690783015162,
                0.28747648378105495,
                -3.1784120604088932
            ]
        },
        {
            "positions": [
                -0.009021205097399024,
                -1.206012886748209,
                2.100461796615391,
                -0.8520782076348914,
                0.4453663644864725,
                -3.1643294926058814
            ]
        },
        {
            "positions": [
                -0.07493754553842062,
                -1.2392741620331391,
                2.164919501407823,
                -0.8878873369682665,
                0.6032562451918901,
                -3.150246924802869
            ]
        },
        {
            "positions": [
                -0.1408538859794422,
                -1.2725354373180695,
                2.2293772062002555,
                -0.9236964663016417,
                0.7611461258973077,
                -3.1361643569998567
            ]
        },
        {
            "positions": [
                -0.20677022642046383,
                -1.3057967126029997,
                2.2938349109926874,
                -0.9595055956350168,
                0.9190360066027253,
                -3.1220817891968444
            ]
        },
        {
            "positions": [
                -0.2726865668614854,
                -1.33905798788793,
                2.3582926157851194,
                -0.995314724968392,
                1.0769258873081429,
                -3.1079992213938326
            ]
        },
        {
            "positions": [
                -0.33860290730250703,
                -1.3723192631728602,
                2.422750320577552,
                -1.0311238543017671,
                1.2348157680135605,
                -3.0939166535908202
            ]
        }
    ]
}