{
    "goal": {
        "global_pose": {
            "orientation": {
                "w": 0.7047431468963623,
                "x": -0.7094548344612122,
                "y": 0.0024358443915843964,
                "z": -0.0022348060738295317
            },
            "position": {
                "x": 0.6094750761985779,
                "y": 0.3671506643295288,
                "z": 0.19426114857196808
            }
        },
        "name": "move_to_magneteinheit_A"
    },
    "id": "LazyPRMstar_move_to_magneteinheit_A_143",
    "joint_names": [
        "shoulder_pan_joint",
        "shoulder_lift_joint",
        "elbow_joint",
        "wrist_1_joint",
        "wrist_2_joint",
        "wrist_3_joint"
    ],
    "metrics": {
        "cart_traj_len": 2.078035612662329,
        "distance_elbow_joint": 3.895590947240642,
        "distance_shoulder_lift_joint": 1.0666897994312678,
        "distance_shoulder_pan_joint": 1.2420987578648268,
        "distance_wrist_1_joint": 1.2172352673240998,
        "distance_wrist_2_joint": 1.4327085841230014,
        "distance_wrist_3_joint": 4.30905193759774,
        "smoothness": 3.7007434288494605e-16,
        "time": 5.069070377,
        "traj_len": 3.628136614514616,
        "weighted_distance": 4.942815292950381
    },
    "planner": "LazyPRMstar",
    "start": {
        "state": {
            "elbow_joint": -1.919643507792019,
            "shoulder_lift_joint": -0.07675430207160344,
            "shoulder_pan_joint": -1.1188671864651873,
            "wrist_1_joint": 0.42560062535961957,
            "wrist_2_joint": 1.5706038300724876,
            "wrist_3_joint": 1.1188968870953055
        }
    },
    "waypoints": [
        {
            "positions": [
                -1.1188671864651873,
                -0.07675430207160344,
                -1.919643507792019,
                0.42560062535961957,
                1.5706038300724876,
                1.1188968870953055
            ]
        },
        {
            "positions": [
                -1.0825262474914614,
                -0.10737640866534265,
                -1.8056363894488507,
                0.3917556951753689,
                1.5299092684022615,
                0.9890254643740706
            ]
        },
        {
            "positions": [
                -1.0461853085177357,
                -0.13799851525908186,
                -1.6916292711056826,
                0.35791076499111824,
                1.4892147067320356,
                0.8591540416528356
            ]
        },
        {
            "positions": [
                -1.0098443695440098,
                -0.16862062185282106,
                -1.5776221527625145,
                0.32406583480686757,
                1.4485201450618095,
                0.7292826189316006
            ]
        },
        {
            "positions": [
                -0.973503430570284,
                -0.19924272844656027,
                -1.4636150344193462,
                0.2902209046226169,
                1.4078255833915834,
                0.5994111962103655
            ]
        },
        {
            "positions": [
                -0.9371624915965582,
                -0.2298648350402995,
                -1.3496079160761778,
                0.25637597443836624,
                1.3671310217213573,
                0.46953977348913056
            ]
        },
        {
            "positions": [
                -0.9008215526228324,
                -0.26048694163403874,
                -1.2356007977330097,
                0.22253104425411555,
                1.3264364600511311,
                0.3396683507678956
            ]
        },
        {
            "positions": [
                -0.8644806136491066,
                -0.29110904822777794,
                -1.1215936793898416,
                0.18868611406986488,
                1.2857418983809052,
                0.2097969280466606
            ]
        },
        {
            "positions": [
                -0.8281396746753806,
                -0.32173115482151715,
                -1.0075865610466732,
                0.15484118388561424,
                1.2450473367106791,
                0.07992550532542553
            ]
        },
        {
            "positions": [
                -0.7917987357016549,
                -0.3523532614152563,
                -0.8935794427035051,
                0.12099625370136358,
                1.204352775040453,
                -0.049945917395809225
            ]
        },
        {
            "positions": [
                -0.755457796727929,
                -0.38297536800899556,
                -0.7795723243603367,
                0.08715132351711291,
                1.163658213370227,
                -0.17981734011704442
            ]
        },
        {
            "positions": [
                -0.7191168577542033,
                -0.4135974746027347,
                -0.6655652060171686,
                0.053306393332862245,
                1.122963651700001,
                -0.3096887628382792
            ]
        },
        {
            "positions": [
                -0.6827759187804774,
                -0.444219581196474,
                -0.5515580876740003,
                0.019461463148611524,
                1.082269090029775,
                -0.43956018555951437
            ]
        },
        {
            "positions": [
                -0.6464349798067516,
                -0.47484168779021313,
                -0.43755096933083215,
                -0.014383467035639086,
                1.0415745283595488,
                -0.5694316082807491
            ]
        },
        {
            "positions": [
                -0.6100940408330258,
                -0.5054637943839524,
                -0.3235438509876638,
                -0.04822839721988981,
                1.0008799666893227,
                -0.6993030310019843
            ]
        },
        {
            "positions": [
                -0.5737531018593,
                -0.5360859009776916,
                -0.20953673264449568,
                -0.08207332740414047,
                0.9601854050190967,
                -0.8291744537232193
            ]
        },
        {
            "positions": [
                -0.537412162885574,
                -0.5667080075714308,
                -0.09552961430132734,
                -0.11591825758839108,
                0.9194908433488707,
                -0.9590458764444545
            ]
        },
        {
            "positions": [
                -0.5010712239118483,
                -0.5973301141651699,
                0.018477504041840787,
                -0.1497631877726418,
                0.8787962816786445,
                -1.088917299165689
            ]
        },
        {
            "positions": [
                -0.4647302849381225,
                -0.6279522207589092,
                0.1324846223850089,
                -0.1836081179568924,
                0.8381017200084185,
                -1.218788721886924
            ]
        },
        {
            "positions": [
                -0.4283893459643966,
                -0.6585743273526485,
                0.24649174072817748,
                -0.21745304814114313,
                0.7974071583381924,
                -1.3486601446081594
            ]
        },
        {
            "positions": [
                -0.3920484069906708,
                -0.6891964339463876,
                0.3604988590713456,
                -0.25129797832539374,
                0.7567125966679663,
                -1.4785315673293944
            ]
        },
        {
            "positions": [
                -0.35570746801694497,
                -0.719818540540127,
                0.4745059774145137,
                -0.28514290850964447,
                0.7160180349977403,
                -1.6084029900506294
            ]
        },
        {
            "positions": [
                -0.31936652904321916,
                -0.750440647133866,
                0.5885130957576818,
                -0.3189878386938951,
                0.6753234733275143,
                -1.738274412771864
            ]
        },
        {
            "positions": [
                -0.28302559006949324,
                -0.7810627537276054,
                0.7025202141008504,
                -0.3528327688781458,
                0.6346289116572882,
                -1.8681458354930993
            ]
        },
        {
            "positions": [
                -0.24668465109576743,
                -0.8116848603213445,
                0.8165273324440185,
                -0.3866776990623965,
                0.5939343499870621,
                -1.9980172582143343
            ]
        },
        {
            "positions": [
                -0.21034371212204162,
                -0.8423069669150838,
                0.9305344507871867,
                -0.42052262924664713,
                0.5532397883168361,
                -2.1278886809355693
            ]
        },
        {
            "positions": [
                -0.1740027731483158,
                -0.8729290735088229,
                1.0445415691303548,
                -0.45436755943089774,
                0.5125452266466102,
                -2.257760103656804
            ]
        },
        {
            "positions": [
                -0.13766183417458988,
                -0.9035511801025622,
                1.1585486874735234,
                -0.48821248961514846,
                0.47185066497638384,
                -2.387631526378039
            ]
        },
        {
            "positions": [
                -0.10132089520086418,
                -0.9341732866963013,
                1.2725558058166915,
                -0.5220574197993992,
                0.43115610330615795,
                -2.517502949099274
            ]
        },
        {
            "positions": [
                -0.06497995622713826,
                -0.9647953932900406,
                1.3865629241598596,
                -0.5559023499836497,
                0.39046154163593183,
                -2.647374371820509
            ]
        },
        {
            "positions": [
                -0.028639017253412558,
                -0.9954174998837797,
                1.5005700425030277,
                -0.5897472801679005,
                0.3497669799657057,
                -2.777245794541744
            ]
        },
        {
            "positions": [
                0.007701921720313365,
                -1.026039606477519,
                1.6145771608461963,
                -0.6235922103521512,
                0.3090724182954796,
                -2.907117217262979
            ]
        },
        {
            "positions": [
                0.04404286069403929,
                -1.0566617130712581,
                1.7285842791893644,
                -0.6574371405364017,
                0.2683778566252537,
                -3.0369886399842145
            ]
        },
        {
            "positions": [
                0.08038379966776507,
                -1.0872838196649974,
                1.8425913975325328,
                -0.6912820707206524,
                0.22768329495502762,
                -3.1668600627054486
            ]
        },
        {
            "positions": [
                0.10180768553370226,
                -1.1153639605839345,
                1.9092694184905779,
                -0.7414583563425663,
                0.18278927045225696,
                -3.1785075566039414
            ]
        },
        {
            "positions": [
                0.12323157139963944,
                -1.1434441015028713,
                1.975947439448623,
                -0.7916346419644801,
                0.1378952459494863,
                -3.1901550505024345
            ]
        }
    ]
}