{
    "goal": {
        "global_pose": {
            "orientation": {
                "w": 0.7047431468963623,
                "x": -0.7094548344612122,
                "y": 0.0024358443915843964,
                "z": -0.0022348060738295317
            },
            "position": {
                "x": 0.6094750761985779,
                "y": 0.3671506643295288,
                "z": 0.19426114857196808
            }
        },
        "name": "move_to_magneteinheit_A"
    },
    "id": "LazyPRM_move_to_magneteinheit_A_39",
    "joint_names": [
        "shoulder_pan_joint",
        "shoulder_lift_joint",
        "elbow_joint",
        "wrist_1_joint",
        "wrist_2_joint",
        "wrist_3_joint"
    ],
    "metrics": {
        "cart_traj_len": 1.8674071706715816,
        "distance_elbow_joint": 3.937409897541783,
        "distance_shoulder_lift_joint": 0.7118985105656044,
        "distance_shoulder_pan_joint": 1.2408217101400711,
        "distance_wrist_1_joint": 1.5786074146212463,
        "distance_wrist_2_joint": 1.7037552866314534,
        "distance_wrist_3_joint": 1.2144393065568704,
        "smoothness": 4.7580986884836835e-16,
        "time": 0.11362386,
        "traj_len": 3.222876374615854,
        "weighted_distance": 4.012252913317338
    },
    "planner": "LazyPRM",
    "start": {
        "state": {
            "elbow_joint": -1.919643507792019,
            "shoulder_lift_joint": -0.07675430207160344,
            "shoulder_pan_joint": -1.1188671864651873,
            "wrist_1_joint": 0.42560062535961957,
            "wrist_2_joint": 1.5706038300724876,
            "wrist_3_joint": 1.1188968870953055
        }
    },
    "waypoints": [
        {
            "positions": [
                -1.1188671864651873,
                -0.07675430207160344,
                -1.919643507792019,
                0.42560062535961957,
                1.5706038300724876,
                1.1188968870953055
            ]
        },
        {
            "positions": [
                -1.07291082683037,
                -0.10312091357403323,
                -1.773813511586768,
                0.48406756664188794,
                1.5075017824194707,
                1.0739176535191253
            ]
        },
        {
            "positions": [
                -1.0269544671955524,
                -0.12948752507646302,
                -1.6279835153815168,
                0.5425345079241564,
                1.4443997347664541,
                1.0289384199429448
            ]
        },
        {
            "positions": [
                -0.980998107560735,
                -0.1558541365788928,
                -1.4821535191762654,
                0.6010014492064247,
                1.3812976871134373,
                0.9839591863667644
            ]
        },
        {
            "positions": [
                -0.9350417479259175,
                -0.1822207480813226,
                -1.3363235229710142,
                0.6594683904886931,
                1.3181956394604204,
                0.938979952790584
            ]
        },
        {
            "positions": [
                -0.8890853882911001,
                -0.2085873595837524,
                -1.190493526765763,
                0.7179353317709615,
                1.2550935918074035,
                0.8940007192144036
            ]
        },
        {
            "positions": [
                -0.8431290286562827,
                -0.23495397108618218,
                -1.0446635305605119,
                0.7764022730532298,
                1.191991544154387,
                0.8490214856382232
            ]
        },
        {
            "positions": [
                -0.7971726690214652,
                -0.261320582588612,
                -0.8988335343552607,
                0.8348692143354982,
                1.12888949650137,
                0.8040422520620429
            ]
        },
        {
            "positions": [
                -0.7512163093866477,
                -0.28768719409104176,
                -0.7530035381500095,
                0.8933361556177666,
                1.0657874488483534,
                0.7590630184858624
            ]
        },
        {
            "positions": [
                -0.7052599497518304,
                -0.31405380559347157,
                -0.6071735419447581,
                0.9518030969000351,
                1.0026854011953366,
                0.7140837849096822
            ]
        },
        {
            "positions": [
                -0.6593035901170129,
                -0.3404204170959014,
                -0.461343545739507,
                1.0102700381823033,
                0.9395833535423197,
                0.6691045513335017
            ]
        },
        {
            "positions": [
                -0.6133472304821954,
                -0.3667870285983311,
                -0.3155135495342558,
                1.0687369794645718,
                0.876481305889303,
                0.6241253177573214
            ]
        },
        {
            "positions": [
                -0.5673908708473779,
                -0.3931536401007609,
                -0.16968355332900464,
                1.12720392074684,
                0.8133792582362861,
                0.579146084181141
            ]
        },
        {
            "positions": [
                -0.5214345112125606,
                -0.41952025160319073,
                -0.023853557123753477,
                1.1856708620291085,
                0.7502772105832693,
                0.5341668506049606
            ]
        },
        {
            "positions": [
                -0.4754781515777431,
                -0.44588686310562053,
                0.12197643908149769,
                1.2441378033113768,
                0.6871751629302526,
                0.4891876170287802
            ]
        },
        {
            "positions": [
                -0.4295217919429256,
                -0.47225347460805034,
                0.2678064352867493,
                1.3026047445936453,
                0.6240731152772357,
                0.4442083834525997
            ]
        },
        {
            "positions": [
                -0.38356543230810825,
                -0.4986200861104801,
                0.413636431492,
                1.3610716858759135,
                0.560971067624219,
                0.39922914987641944
            ]
        },
        {
            "positions": [
                -0.33760907267329066,
                -0.5249866976129098,
                0.5594664276972516,
                1.419538627158182,
                0.49786901997120214,
                0.35424991630023894
            ]
        },
        {
            "positions": [
                -0.2916527130384733,
                -0.5513533091153398,
                0.7052964239025028,
                1.4780055684404505,
                0.4347669723181855,
                0.30927068272405867
            ]
        },
        {
            "positions": [
                -0.2456963534036558,
                -0.5777199206177694,
                0.851126420107754,
                1.536472509722719,
                0.37166492466516865,
                0.2642914491478783
            ]
        },
        {
            "positions": [
                -0.19973999376883844,
                -0.6040865321201994,
                0.9969564163130051,
                1.5949394510049872,
                0.3085628770121518,
                0.2193122155716979
            ]
        },
        {
            "positions": [
                -0.15378363413402085,
                -0.630453143622629,
                1.1427864125182563,
                1.6534063922872557,
                0.24546082935913494,
                0.1743329819955175
            ]
        },
        {
            "positions": [
                -0.10782727449920348,
                -0.6568197551250587,
                1.2886164087235075,
                1.711873333569524,
                0.1823587817061183,
                0.1293537484193371
            ]
        },
        {
            "positions": [
                -0.061870914864385895,
                -0.6831863666274887,
                1.434446404928759,
                1.7703402748517925,
                0.11925673405310144,
                0.08437451484315672
            ]
        },
        {
            "positions": [
                -0.015914555229568528,
                -0.7095529781299184,
                1.5802764011340098,
                1.8288072161340607,
                0.056154686400084586,
                0.039395281266976445
            ]
        },
        {
            "positions": [
                0.03004180440524884,
                -0.7359195896323483,
                1.7261063973392614,
                1.8872741574163292,
                -0.0069473612529322715,
                -0.005583952309204054
            ]
        },
        {
            "positions": [
                0.07599816404006621,
                -0.762286201134778,
                1.8719363935445121,
                1.9457410986985975,
                -0.0700494089059489,
                -0.05056318588538433
            ]
        },
        {
            "positions": [
                0.12195452367488381,
                -0.7886528126372079,
                2.017766389749764,
                2.004208039980866,
                -0.13315145655896574,
                -0.09554241946156483
            ]
        }
    ]
}