{
    "goal": {
        "global_pose": {
            "orientation": {
                "w": 0.7047431468963623,
                "x": -0.7094548344612122,
                "y": 0.0024358443915843964,
                "z": -0.0022348060738295317
            },
            "position": {
                "x": 0.6094750761985779,
                "y": 0.3671506643295288,
                "z": 0.19426114857196808
            }
        },
        "name": "move_to_magneteinheit_A"
    },
    "id": "LazyPRMstar_move_to_magneteinheit_A_42",
    "joint_names": [
        "shoulder_pan_joint",
        "shoulder_lift_joint",
        "elbow_joint",
        "wrist_1_joint",
        "wrist_2_joint",
        "wrist_3_joint"
    ],
    "metrics": {
        "cart_traj_len": 2.0689279115714077,
        "distance_elbow_joint": 3.8995349410629516,
        "distance_shoulder_lift_joint": 1.0684801445343037,
        "distance_shoulder_pan_joint": 1.2419759060504056,
        "distance_wrist_1_joint": 1.237105692427248,
        "distance_wrist_2_joint": 1.4355050234164564,
        "distance_wrist_3_joint": 1.9917763423685568,
        "smoothness": 6.737905271695828e-16,
        "time": 5.000307898000001,
        "traj_len": 3.297632188383041,
        "weighted_distance": 4.1869489428987245
    },
    "planner": "LazyPRMstar",
    "start": {
        "state": {
            "elbow_joint": -1.919643507792019,
            "shoulder_lift_joint": -0.07675430207160344,
            "shoulder_pan_joint": -1.1188671864651873,
            "wrist_1_joint": 0.42560062535961957,
            "wrist_2_joint": 1.5706038300724876,
            "wrist_3_joint": 1.1188968870953055
        }
    },
    "waypoints": [
        {
            "positions": [
                -1.1188671864651873,
                -0.07675430207160344,
                -1.919643507792019,
                0.42560062535961957,
                1.5706038300724876,
                1.1188968870953055
            ]
        },
        {
            "positions": [
                -1.0745109041062444,
                -0.11491430723354286,
                -1.7803744027540565,
                0.38141827920150356,
                1.5193357935218998,
                1.190031756465611
            ]
        },
        {
            "positions": [
                -1.0301546217473012,
                -0.15307431239548228,
                -1.641105297716094,
                0.33723593304338756,
                1.468067756971312,
                1.2611666258359167
            ]
        },
        {
            "positions": [
                -0.9857983393883581,
                -0.1912343175574217,
                -1.5018361926781314,
                0.29305358688527156,
                1.4167997204207246,
                1.3323014952062224
            ]
        },
        {
            "positions": [
                -0.9414420570294151,
                -0.2293943227193611,
                -1.3625670876401688,
                0.24887124072715555,
                1.3655316838701368,
                1.403436364576528
            ]
        },
        {
            "positions": [
                -0.897085774670472,
                -0.2675543278813005,
                -1.2232979826022063,
                0.20468889456903955,
                1.314263647319549,
                1.4745712339468335
            ]
        },
        {
            "positions": [
                -0.852729492311529,
                -0.3057143330432399,
                -1.084028877564244,
                0.16050654841092354,
                1.2629956107689613,
                1.545706103317139
            ]
        },
        {
            "positions": [
                -0.808373209952586,
                -0.3438743382051794,
                -0.9447597725262812,
                0.11632420225280754,
                1.2117275742183735,
                1.6168409726874446
            ]
        },
        {
            "positions": [
                -0.7640169275936428,
                -0.3820343433671188,
                -0.8054906674883187,
                0.07214185609469154,
                1.1604595376677858,
                1.6879758420577504
            ]
        },
        {
            "positions": [
                -0.7196606452346999,
                -0.42019434852905824,
                -0.666221562450356,
                0.027959509936575477,
                1.109191501117198,
                1.759110711428056
            ]
        },
        {
            "positions": [
                -0.6753043628757567,
                -0.45835435369099764,
                -0.5269524574123934,
                -0.01622283622154047,
                1.0579234645666102,
                1.8302455807983615
            ]
        },
        {
            "positions": [
                -0.6309480805168137,
                -0.49651435885293704,
                -0.38768335237443097,
                -0.060405182379656475,
                1.0066554280160225,
                1.9013804501686673
            ]
        },
        {
            "positions": [
                -0.5865917981578707,
                -0.5346743640148764,
                -0.24841424733646855,
                -0.10458752853777248,
                0.9553873914654349,
                1.9725153195389726
            ]
        },
        {
            "positions": [
                -0.5422355157989276,
                -0.5728343691768158,
                -0.10914514229850569,
                -0.14876987469588848,
                0.9041193549148472,
                2.0436501889092784
            ]
        },
        {
            "positions": [
                -0.4978792334399845,
                -0.6109943743387554,
                0.030123962739456722,
                -0.19295222085400449,
                0.8528513183642594,
                2.114785058279584
            ]
        },
        {
            "positions": [
                -0.45352295108104146,
                -0.6491543795006947,
                0.16939306777741936,
                -0.2371345670121205,
                0.8015832818136717,
                2.1859199276498895
            ]
        },
        {
            "positions": [
                -0.4091666687220984,
                -0.6873143846626342,
                0.3086621728153818,
                -0.2813169131702365,
                0.750315245263084,
                2.257054797020195
            ]
        },
        {
            "positions": [
                -0.36481038636315544,
                -0.7254743898245735,
                0.4479312778533442,
                -0.3254992593283524,
                0.6990472087124963,
                2.3281896663905006
            ]
        },
        {
            "positions": [
                -0.32045410400421226,
                -0.763634394986513,
                0.587200382891307,
                -0.3696816054864686,
                0.6477791721619085,
                2.3993245357608064
            ]
        },
        {
            "positions": [
                -0.2760978216452692,
                -0.8017944001484525,
                0.7264694879292695,
                -0.4138639516445845,
                0.5965111356113207,
                2.4704594051311117
            ]
        },
        {
            "positions": [
                -0.23174153928632613,
                -0.8399544053103918,
                0.8657385929672323,
                -0.4580462978027005,
                0.5452430990607331,
                2.5415942745014175
            ]
        },
        {
            "positions": [
                -0.18738525692738306,
                -0.8781144104723313,
                1.0050076980051947,
                -0.5022286439608166,
                0.49397506251014534,
                2.6127291438717233
            ]
        },
        {
            "positions": [
                -0.1430289745684401,
                -0.9162744156342706,
                1.1442768030431572,
                -0.5464109901189325,
                0.4427070259595576,
                2.6838640132420286
            ]
        },
        {
            "positions": [
                -0.09867269220949693,
                -0.9544344207962101,
                1.2835459080811196,
                -0.5905933362770484,
                0.3914389894089698,
                2.7549988826123344
            ]
        },
        {
            "positions": [
                -0.05431640985055397,
                -0.9925944259581494,
                1.422815013119082,
                -0.6347756824351645,
                0.3401709528583823,
                2.82613375198264
            ]
        },
        {
            "positions": [
                -0.009960127491610793,
                -1.030754431120089,
                1.5620841181570448,
                -0.6789580285932806,
                0.2889029163077943,
                2.8972686213529455
            ]
        },
        {
            "positions": [
                0.03439615486733216,
                -1.0689144362820284,
                1.7013532231950077,
                -0.7231403747513965,
                0.23763487975720676,
                2.9684034907232513
            ]
        },
        {
            "positions": [
                0.07875243722627534,
                -1.107074441443968,
                1.8406223282329701,
                -0.7673227209095126,
                0.186366843206619,
                3.039538360093557
            ]
        },
        {
            "positions": [
                0.12310871958521838,
                -1.1452344466059072,
                1.9798914332709325,
                -0.8115050670676286,
                0.13509880665603133,
                3.1106732294638624
            ]
        }
    ]
}