{
    "goal": {
        "global_pose": {
            "orientation": {
                "w": 0.7031023502349854,
                "x": -0.7110244035720825,
                "y": 0.007748599164187908,
                "z": 0.005598929710686207
            },
            "position": {
                "x": 0.11585023208521307,
                "y": 0.44412534475326537,
                "z": 0.3711530566215515
            }
        },
        "name": "move_to_auspresseinheit_A"
    },
    "id": "LazyPRM_move_to_auspresseinheit_A_72",
    "joint_names": [
        "shoulder_pan_joint",
        "shoulder_lift_joint",
        "elbow_joint",
        "wrist_1_joint",
        "wrist_2_joint",
        "wrist_3_joint"
    ],
    "metrics": {
        "cart_traj_len": 0.7579505292682683,
        "distance_elbow_joint": 0.027342478353690414,
        "distance_shoulder_lift_joint": 0.8094146614335689,
        "distance_shoulder_pan_joint": 1.042298348974336,
        "distance_wrist_1_joint": 0.5474825700868895,
        "distance_wrist_2_joint": 0.5646656882273519,
        "distance_wrist_3_joint": 0.60272201495758,
        "smoothness": 1.0358958501310533,
        "time": 0.051980985,
        "traj_len": 1.89576521806721,
        "weighted_distance": 2.431361357400997
    },
    "planner": "LazyPRM",
    "start": {
        "state": {
            "elbow_joint": 2.422574709923281,
            "shoulder_lift_joint": -1.3736533754116391,
            "shoulder_pan_joint": -0.33786336945926293,
            "wrist_1_joint": -1.0288603412921917,
            "wrist_2_joint": 1.2330224858903978,
            "wrist_3_joint": -3.094022268022082
        }
    },
    "waypoints": [
        {
            "positions": [
                -0.33786336945926293,
                -1.3736533754116391,
                2.422574709923281,
                -1.0288603412921917,
                1.2330224858903978,
                -3.094022268022082
            ]
        },
        {
            "positions": [
                -0.21272550972744023,
                -1.4578097744101213,
                2.4194728849363996,
                -0.9710428868401382,
                1.1643002121095223,
                -3.058403845400917
            ]
        },
        {
            "positions": [
                -0.08758764999561752,
                -1.5419661734086034,
                2.416371059949518,
                -0.9132254323880847,
                1.0955779383286466,
                -3.022785422779752
            ]
        },
        {
            "positions": [
                0.03755020973620521,
                -1.6261225724070854,
                2.4132692349626366,
                -0.8554079779360312,
                1.0268556645477709,
                -2.987167000158587
            ]
        },
        {
            "positions": [
                0.16268806946802788,
                -1.7102789714055675,
                2.410167409975755,
                -0.7975905234839777,
                0.9581333907668954,
                -2.951548577537422
            ]
        },
        {
            "positions": [
                0.28782592919985056,
                -1.7944353704040497,
                2.4070655849888736,
                -0.7397730690319242,
                0.8894111169860198,
                -2.915930154916257
            ]
        },
        {
            "positions": [
                0.41296378893167335,
                -1.8785917694025316,
                2.403963760001992,
                -0.6819556145798706,
                0.8206888432051442,
                -2.880311732295092
            ]
        },
        {
            "positions": [
                0.538101648663496,
                -1.9627481684010137,
                2.4008619350151106,
                -0.6241381601278171,
                0.7519665694242686,
                -2.844693309673927
            ]
        },
        {
            "positions": [
                0.6632395083953188,
                -2.046904567399496,
                2.397760110028229,
                -0.5663207056757636,
                0.6832442956433931,
                -2.8090748870527618
            ]
        },
        {
            "positions": [
                0.6838372439551959,
                -1.9788228326766397,
                2.39649617079891,
                -0.5238492384405329,
                0.6906880446335666,
                -2.9679622040468914
            ]
        },
        {
            "positions": [
                0.7044349795150731,
                -1.9107410979537838,
                2.3952322315695906,
                -0.4813777712053022,
                0.6981317936237402,
                -3.1268495210410214
            ]
        }
    ]
}