{
    "goal": {
        "global_pose": {
            "orientation": {
                "w": 0.5084816217422485,
                "x": -0.49083608388900757,
                "y": 0.5182115435600281,
                "z": -0.4816462993621826
            },
            "position": {
                "x": 0.5540239810943604,
                "y": 0.030875300988554955,
                "z": 0.16403168439865112
            }
        },
        "name": "move_to_storage_A"
    },
    "id": "LazyPRM_move_to_storage_A_17",
    "joint_names": [
        "shoulder_pan_joint",
        "shoulder_lift_joint",
        "elbow_joint",
        "wrist_1_joint",
        "wrist_2_joint",
        "wrist_3_joint"
    ],
    "metrics": {
        "cart_traj_len": 0.3533590153102844,
        "distance_elbow_joint": 0.452237328015757,
        "distance_shoulder_lift_joint": 0.23528153471118274,
        "distance_shoulder_pan_joint": 0.4625129714634753,
        "distance_wrist_1_joint": 0.25024459181678094,
        "distance_wrist_2_joint": 1.0981681604998237,
        "distance_wrist_3_joint": 0.10821732542716545,
        "smoothness": 6.661338165333112e-16,
        "time": 0.021867454999999997,
        "traj_len": 1.6145159992809563,
        "weighted_distance": 2.04242730962576
    },
    "planner": "LazyPRM",
    "start": {
        "state": {
            "elbow_joint": 1.9715463870305268,
            "shoulder_lift_joint": -1.1394903361783484,
            "shoulder_pan_joint": 0.12281147578464417,
            "wrist_1_joint": -0.7804599489681411,
            "wrist_2_joint": 0.12958660307563738,
            "wrist_3_joint": -3.1924946282119055
        }
    },
    "waypoints": [
        {
            "positions": [
                0.12281147578464417,
                -1.1394903361783484,
                1.9715463870305268,
                -0.7804599489681411,
                0.12958660307563738,
                -3.1924946282119055
            ]
        },
        {
            "positions": [
                0.056738194147004845,
                -1.1731019839942316,
                2.0361517196042063,
                -0.8162091763705384,
                0.28646776886132647,
                -3.1770350102937392
            ]
        },
        {
            "positions": [
                -0.009335087490634483,
                -1.2067136318101148,
                2.1007570521778858,
                -0.8519584037729356,
                0.4433489346470155,
                -3.1615753923755725
            ]
        },
        {
            "positions": [
                -0.0754083691282738,
                -1.240325279625998,
                2.1653623847515653,
                -0.8877076311753329,
                0.6002301004327046,
                -3.146115774457406
            ]
        },
        {
            "positions": [
                -0.14148165076591313,
                -1.2739369274418815,
                2.229967717325245,
                -0.9234568585777302,
                0.7571112662183938,
                -3.1306561565392395
            ]
        },
        {
            "positions": [
                -0.2075549324035525,
                -1.3075485752577647,
                2.2945730498989247,
                -0.9592060859801275,
                0.9139924320040829,
                -3.115196538621073
            ]
        },
        {
            "positions": [
                -0.27362821404119175,
                -1.341160223073648,
                2.3591783824726043,
                -0.9949553133825247,
                1.0708735977897719,
                -3.0997369207029064
            ]
        },
        {
            "positions": [
                -0.3397014956788311,
                -1.3747718708895311,
                2.4237837150462838,
                -1.030704540784922,
                1.227754763575461,
                -3.08427730278474
            ]
        }
    ]
}