{
    "goal": {
        "global_pose": {
            "orientation": {
                "w": 0.7047431468963623,
                "x": -0.7094548344612122,
                "y": 0.0024358443915843964,
                "z": -0.0022348060738295317
            },
            "position": {
                "x": 0.6094750761985779,
                "y": 0.3671506643295288,
                "z": 0.19426114857196808
            }
        },
        "name": "move_to_magneteinheit_A"
    },
    "id": "LazyPRMstar_move_to_magneteinheit_A_62",
    "joint_names": [
        "shoulder_pan_joint",
        "shoulder_lift_joint",
        "elbow_joint",
        "wrist_1_joint",
        "wrist_2_joint",
        "wrist_3_joint"
    ],
    "metrics": {
        "cart_traj_len": 1.8669934190603186,
        "distance_elbow_joint": 3.9428418325150876,
        "distance_shoulder_lift_joint": 0.71390356294515,
        "distance_shoulder_pan_joint": 1.2419065692537063,
        "distance_wrist_1_joint": 1.5931940368469844,
        "distance_wrist_2_joint": 1.7042083737656812,
        "distance_wrist_3_joint": 1.2184168450371278,
        "smoothness": 6.026924993809617e-16,
        "time": 5.000345426,
        "traj_len": 3.227145986837865,
        "weighted_distance": 4.01854542353955
    },
    "planner": "LazyPRMstar",
    "start": {
        "state": {
            "elbow_joint": -1.919643507792019,
            "shoulder_lift_joint": -0.07675430207160344,
            "shoulder_pan_joint": -1.1188671864651873,
            "wrist_1_joint": 0.42560062535961957,
            "wrist_2_joint": 1.5706038300724876,
            "wrist_3_joint": 1.1188968870953055
        }
    },
    "waypoints": [
        {
            "positions": [
                -1.1188671864651873,
                -0.07675430207160344,
                -1.919643507792019,
                0.42560062535961957,
                1.5706038300724876,
                1.1188968870953055
            ]
        },
        {
            "positions": [
                -1.0728706468631983,
                -0.10319517477327567,
                -1.7736123288099788,
                0.48460781190950786,
                1.5074850014144994,
                1.0737703372791156
            ]
        },
        {
            "positions": [
                -1.026874107261209,
                -0.1296360474749479,
                -1.6275811498279387,
                0.5436149984593962,
                1.4443661727565111,
                1.0286437874629257
            ]
        },
        {
            "positions": [
                -0.98087756765922,
                -0.15607692017662012,
                -1.4815499708458983,
                0.6026221850092846,
                1.3812473440985231,
                0.9835172376467358
            ]
        },
        {
            "positions": [
                -0.9348810280572308,
                -0.18251779287829234,
                -1.335518791863858,
                0.6616293715591728,
                1.3181285154405349,
                0.9383906878305459
            ]
        },
        {
            "positions": [
                -0.8888844884552417,
                -0.20895866557996454,
                -1.1894876128818177,
                0.720636558109061,
                1.2550096867825467,
                0.893264138014356
            ]
        },
        {
            "positions": [
                -0.8428879488532526,
                -0.23539953828163676,
                -1.0434564338997774,
                0.7796437446589495,
                1.1918908581245584,
                0.8481375881981661
            ]
        },
        {
            "positions": [
                -0.7968914092512636,
                -0.261840410983309,
                -0.8974252549177373,
                0.8386509312088377,
                1.1287720294665702,
                0.8030110383819762
            ]
        },
        {
            "positions": [
                -0.7508948696492743,
                -0.2882812836849812,
                -0.751394075935697,
                0.897658117758726,
                1.065653200808582,
                0.7578844885657863
            ]
        },
        {
            "positions": [
                -0.7048983300472853,
                -0.31472215638665346,
                -0.6053628969536566,
                0.9566653043086144,
                1.002534372150594,
                0.7127579387495964
            ]
        },
        {
            "positions": [
                -0.6589017904452961,
                -0.34116302908832563,
                -0.4593317179716163,
                1.0156724908585026,
                0.9394155434926057,
                0.6676313889334065
            ]
        },
        {
            "positions": [
                -0.612905250843307,
                -0.36760390178999786,
                -0.313300538989576,
                1.0746796774083909,
                0.8762967148346175,
                0.6225048391172165
            ]
        },
        {
            "positions": [
                -0.5669087112413179,
                -0.3940447744916701,
                -0.1672693600075359,
                1.1336868639582793,
                0.8131778861766293,
                0.5773782893010265
            ]
        },
        {
            "positions": [
                -0.5209121716393288,
                -0.4204856471933423,
                -0.021238181025495573,
                1.1926940505081676,
                0.7500590575186411,
                0.5322517394848366
            ]
        },
        {
            "positions": [
                -0.47491563203733966,
                -0.44692651989501453,
                0.12479299795654453,
                1.2517012370580558,
                0.686940228860653,
                0.4871251896686467
            ]
        },
        {
            "positions": [
                -0.4289190924353504,
                -0.4733673925966868,
                0.27082417693858507,
                1.3107084236079443,
                0.6238214002026646,
                0.4419986398524568
            ]
        },
        {
            "positions": [
                -0.3829225528333614,
                -0.499808265298359,
                0.41685535592062517,
                1.3697156101578325,
                0.5607025715446765,
                0.3968720900362669
            ]
        },
        {
            "positions": [
                -0.33692601323137217,
                -0.5262491380000313,
                0.5628865349026657,
                1.428722796707721,
                0.4975837428866883,
                0.351745540220077
            ]
        },
        {
            "positions": [
                -0.29092947362938315,
                -0.5526900107017034,
                0.7089177138847058,
                1.4877299832576092,
                0.43446491422870026,
                0.30661899040388707
            ]
        },
        {
            "positions": [
                -0.24493293402739402,
                -0.5791308834033757,
                0.8549488928667464,
                1.5467371698074974,
                0.3713460855707118,
                0.26149244058769705
            ]
        },
        {
            "positions": [
                -0.1989363944254049,
                -0.6055717561050478,
                1.0009800718487865,
                1.6057443563573857,
                0.3082272569127238,
                0.21636589077150725
            ]
        },
        {
            "positions": [
                -0.15293985482341577,
                -0.63201262880672,
                1.147011250830827,
                1.6647515429072741,
                0.24510842825473556,
                0.17123934095531723
            ]
        },
        {
            "positions": [
                -0.10694331522142675,
                -0.6584535015083923,
                1.293042429812867,
                1.7237587294571624,
                0.18198959959674732,
                0.12611279113912743
            ]
        },
        {
            "positions": [
                -0.06094677561943751,
                -0.6848943742100646,
                1.4390736087949072,
                1.7827659160070508,
                0.11887077093875908,
                0.08098624132293741
            ]
        },
        {
            "positions": [
                -0.014950236017448493,
                -0.7113352469117367,
                1.5851047877769473,
                1.841773102556939,
                0.05575194228077107,
                0.035859691506747504
            ]
        },
        {
            "positions": [
                0.031046303584540746,
                -0.7377761196134089,
                1.7311359667589878,
                1.9007802891068273,
                -0.007366886377217163,
                -0.009266858309442405
            ]
        },
        {
            "positions": [
                0.07704284318652976,
                -0.7642169923150812,
                1.877167145741028,
                1.9597874756567155,
                -0.0704857150352054,
                -0.054393408125632314
            ]
        },
        {
            "positions": [
                0.12303938278851898,
                -0.7906578650167535,
                2.0231983247230683,
                2.018794662206604,
                -0.1336045436931937,
                -0.09951995794182221
            ]
        }
    ]
}