{
    "goal": {
        "global_pose": {
            "orientation": {
                "w": 0.7047431468963623,
                "x": -0.7094548344612122,
                "y": 0.0024358443915843964,
                "z": -0.0022348060738295317
            },
            "position": {
                "x": 0.6094750761985779,
                "y": 0.3671506643295288,
                "z": 0.19426114857196808
            }
        },
        "name": "move_to_magneteinheit_A"
    },
    "id": "LazyPRMstar_move_to_magneteinheit_A_137",
    "joint_names": [
        "shoulder_pan_joint",
        "shoulder_lift_joint",
        "elbow_joint",
        "wrist_1_joint",
        "wrist_2_joint",
        "wrist_3_joint"
    ],
    "metrics": {
        "cart_traj_len": 2.070070215826455,
        "distance_elbow_joint": 3.886452326759537,
        "distance_shoulder_lift_joint": 1.0604900177790257,
        "distance_shoulder_pan_joint": 1.242019828304398,
        "distance_wrist_1_joint": 1.1870356849021206,
        "distance_wrist_2_joint": 1.4363700079178503,
        "distance_wrist_3_joint": 4.328792220561241,
        "smoothness": 0.002661999345040929,
        "time": 5.057631789,
        "traj_len": 3.6250738042451185,
        "weighted_distance": 4.94187719598197
    },
    "planner": "LazyPRMstar",
    "start": {
        "state": {
            "elbow_joint": -1.919643507792019,
            "shoulder_lift_joint": -0.07675430207160344,
            "shoulder_pan_joint": -1.1188671864651873,
            "wrist_1_joint": 0.42560062535961957,
            "wrist_2_joint": 1.5706038300724876,
            "wrist_3_joint": 1.1188968870953055
        }
    },
    "waypoints": [
        {
            "positions": [
                -1.1188671864651873,
                -0.07675430207160344,
                -1.919643507792019,
                0.42560062535961957,
                1.5706038300724876,
                1.1188968870953055
            ]
        },
        {
            "positions": [
                -1.0826369440821781,
                -0.10765659727811751,
                -1.8058666205055427,
                0.3906959432262245,
                1.5285718016746195,
                0.991783437595412
            ]
        },
        {
            "positions": [
                -1.0464067016991687,
                -0.13855889248463157,
                -1.692089733219066,
                0.3557912610928293,
                1.4865397732767511,
                0.8646699880955184
            ]
        },
        {
            "positions": [
                -1.0101764593161593,
                -0.16946118769114565,
                -1.5783128459325897,
                0.3208865789594342,
                1.4445077448788828,
                0.737556538595625
            ]
        },
        {
            "positions": [
                -0.9739462169331501,
                -0.2003634828976597,
                -1.464535958646113,
                0.2859818968260391,
                1.4024757164810147,
                0.6104430890957314
            ]
        },
        {
            "positions": [
                -0.9377159745501408,
                -0.23126577810417379,
                -1.3507590713596365,
                0.25107721469264394,
                1.3604436880831465,
                0.48332963959583797
            ]
        },
        {
            "positions": [
                -0.9014857321671315,
                -0.26216807331068787,
                -1.23698218407316,
                0.21617253255924881,
                1.3184116596852782,
                0.3562161900959444
            ]
        },
        {
            "positions": [
                -0.8652554897841221,
                -0.2930703685172019,
                -1.1232052967866837,
                0.18126785042585372,
                1.2763796312874098,
                0.22910274059605096
            ]
        },
        {
            "positions": [
                -0.8290252474011128,
                -0.323972663723716,
                -1.0094284095002073,
                0.1463631682924586,
                1.2343476028895417,
                0.10198929109615729
            ]
        },
        {
            "positions": [
                -0.7927950050181035,
                -0.3548749589302301,
                -0.8956515222137307,
                0.11145848615906345,
                1.1923155744916736,
                -0.025124158403736052
            ]
        },
        {
            "positions": [
                -0.7565647626350942,
                -0.38577725413674413,
                -0.7818746349272541,
                0.0765538040256683,
                1.1502835460938052,
                -0.1522376079036296
            ]
        },
        {
            "positions": [
                -0.7203345202520849,
                -0.41667954934325824,
                -0.6680977476407777,
                0.04164912189227321,
                1.1082515176959369,
                -0.2793510574035232
            ]
        },
        {
            "positions": [
                -0.6841042778690756,
                -0.4475818445497723,
                -0.5543208603543011,
                0.0067444397588780625,
                1.0662194892980688,
                -0.40646450690341673
            ]
        },
        {
            "positions": [
                -0.6478740354860664,
                -0.4784841397562863,
                -0.44054397306782467,
                -0.028160242374516975,
                1.0241874609002006,
                -0.5335779564033101
            ]
        },
        {
            "positions": [
                -0.6116437931030569,
                -0.5093864349628003,
                -0.3267670857813483,
                -0.06306492450791212,
                0.9821554325023323,
                -0.6606914059032036
            ]
        },
        {
            "positions": [
                -0.5754135507200476,
                -0.5402887301693144,
                -0.21299019849487166,
                -0.09796960664130722,
                0.940123404104464,
                -0.7878048554030972
            ]
        },
        {
            "positions": [
                -0.5391833083370383,
                -0.5711910253758286,
                -0.09921331120839527,
                -0.13287428877470236,
                0.8980913757065958,
                -0.914918304902991
            ]
        },
        {
            "positions": [
                -0.502953065954029,
                -0.6020933205823427,
                0.014563576078081342,
                -0.1677789709080975,
                0.8560593473087276,
                -1.0420317544028843
            ]
        },
        {
            "positions": [
                -0.4667228235710197,
                -0.6329956157888568,
                0.12834046336455773,
                -0.20268365304149266,
                0.8140273189108593,
                -1.1691452039027777
            ]
        },
        {
            "positions": [
                -0.43049258118801037,
                -0.6638979109953707,
                0.24211735065103457,
                -0.2375883351748878,
                0.7719952905129911,
                -1.2962586534026714
            ]
        },
        {
            "positions": [
                -0.39426233880500106,
                -0.6948002062018848,
                0.35589423793751096,
                -0.27249301730828296,
                0.7299632621151229,
                -1.4233721029025648
            ]
        },
        {
            "positions": [
                -0.35803209642199174,
                -0.7257025014083989,
                0.46967112522398735,
                -0.307397699441678,
                0.6879312337172546,
                -1.5504855524024586
            ]
        },
        {
            "positions": [
                -0.3218018540389824,
                -0.756604796614913,
                0.5834480125104637,
                -0.34230238157507314,
                0.6458992053193864,
                -1.677599001902352
            ]
        },
        {
            "positions": [
                -0.2855716116559731,
                -0.7875070918214271,
                0.6972248997969406,
                -0.3772070637084683,
                0.603867176921518,
                -1.8047124514022457
            ]
        },
        {
            "positions": [
                -0.2493413692729637,
                -0.8184093870279412,
                0.811001787083417,
                -0.41211174584186344,
                0.5618351485236499,
                -1.931825900902139
            ]
        },
        {
            "positions": [
                -0.21311112688995437,
                -0.8493116822344553,
                0.9247786743698934,
                -0.4470164279752586,
                0.5198031201257816,
                -2.058939350402033
            ]
        },
        {
            "positions": [
                -0.17688088450694528,
                -0.8802139774409692,
                1.0385555616563698,
                -0.4819211101086535,
                0.47777109172791343,
                -2.1860527999019257
            ]
        },
        {
            "positions": [
                -0.14065064212393596,
                -0.9111162726474833,
                1.1523324489428461,
                -0.5168257922420487,
                0.4357390633300453,
                -2.3131662494018195
            ]
        },
        {
            "positions": [
                -0.10442039974092654,
                -0.9420185678539974,
                1.2661093362293225,
                -0.5517304743754439,
                0.39370703493217696,
                -2.440279698901713
            ]
        },
        {
            "positions": [
                -0.06819015735791734,
                -0.9729208630605113,
                1.3798862235157994,
                -0.5866351565088388,
                0.35167500653430883,
                -2.5673931484016066
            ]
        },
        {
            "positions": [
                -0.03195991497490791,
                -1.0038231582670254,
                1.4936631108022758,
                -0.6215398386422339,
                0.3096429781364405,
                -2.6945065979015
            ]
        },
        {
            "positions": [
                0.004270327408101293,
                -1.0347254534735395,
                1.6074399980887522,
                -0.6564445207756291,
                0.26761094973857236,
                -2.8216200474013937
            ]
        },
        {
            "positions": [
                0.04050056979111072,
                -1.0656277486800536,
                1.7212168853752285,
                -0.6913492029090242,
                0.225578921340704,
                -2.9487334969012875
            ]
        },
        {
            "positions": [
                0.07673081217411992,
                -1.0965300438865677,
                1.8349937726617054,
                -0.7262538850424194,
                0.18354689294283588,
                -3.0758469464011804
            ]
        },
        {
            "positions": [
                0.11296105455712942,
                -1.1274323390930818,
                1.948770659948182,
                -0.7611585671758145,
                0.14151486454496748,
                -3.2029603959010737
            ]
        },
        {
            "positions": [
                0.12315264183921074,
                -1.1372443198506292,
                1.966808818967518,
                -0.7608820748091281,
                0.13423382215463733,
                -3.2098953334659353
            ]
        }
    ]
}