{
    "goal": {
        "global_pose": {
            "orientation": {
                "w": 0.7047431468963623,
                "x": -0.7094548344612122,
                "y": 0.0024358443915843964,
                "z": -0.0022348060738295317
            },
            "position": {
                "x": 0.6094750761985779,
                "y": 0.3671506643295288,
                "z": 0.19426114857196808
            }
        },
        "name": "move_to_magneteinheit_A"
    },
    "id": "LazyPRM_move_to_magneteinheit_A_84",
    "joint_names": [
        "shoulder_pan_joint",
        "shoulder_lift_joint",
        "elbow_joint",
        "wrist_1_joint",
        "wrist_2_joint",
        "wrist_3_joint"
    ],
    "metrics": {
        "cart_traj_len": 1.8810459936632382,
        "distance_elbow_joint": 3.908905779783974,
        "distance_shoulder_lift_joint": 0.6982482381054094,
        "distance_shoulder_pan_joint": 1.240715467215737,
        "distance_wrist_1_joint": 1.477082849018642,
        "distance_wrist_2_joint": 1.6965028342865156,
        "distance_wrist_3_joint": 1.0912477058290684,
        "smoothness": 3.6185046736692446e-16,
        "time": 0.058606956,
        "traj_len": 3.1800476213791744,
        "weighted_distance": 3.933037499084217
    },
    "planner": "LazyPRM",
    "start": {
        "state": {
            "elbow_joint": -1.919643507792019,
            "shoulder_lift_joint": -0.07675430207160344,
            "shoulder_pan_joint": -1.1188671864651873,
            "wrist_1_joint": 0.42560062535961957,
            "wrist_2_joint": 1.5706038300724876,
            "wrist_3_joint": 1.1188968870953055
        }
    },
    "waypoints": [
        {
            "positions": [
                -1.1188671864651873,
                -0.07675430207160344,
                -1.919643507792019,
                0.42560062535961957,
                1.5706038300724876,
                1.1188968870953055
            ]
        },
        {
            "positions": [
                -1.0711473608030435,
                -0.10361000353719611,
                -1.7693009778003277,
                0.48241150416802886,
                1.5053537210614678,
                1.0769258214864952
            ]
        },
        {
            "positions": [
                -1.0234275351409,
                -0.13046570500278878,
                -1.6189584478086365,
                0.5392223829764382,
                1.440103612050448,
                1.0349547558776848
            ]
        },
        {
            "positions": [
                -0.9757077094787562,
                -0.15732140646838144,
                -1.4686159178169451,
                0.5960332617848475,
                1.3748535030394282,
                0.9929836902688746
            ]
        },
        {
            "positions": [
                -0.9279878838166125,
                -0.18417710793397413,
                -1.3182733878252537,
                0.6528441405932568,
                1.3096033940284082,
                0.9510126246600643
            ]
        },
        {
            "positions": [
                -0.8802680581544686,
                -0.21103280939956678,
                -1.1679308578335625,
                0.7096550194016662,
                1.2443532850173884,
                0.9090415590512539
            ]
        },
        {
            "positions": [
                -0.832548232492325,
                -0.23788851086515947,
                -1.0175883278418711,
                0.7664658982100754,
                1.1791031760063686,
                0.8670704934424436
            ]
        },
        {
            "positions": [
                -0.7848284068301812,
                -0.26474421233075207,
                -0.86724579785018,
                0.8232767770184848,
                1.1138530669953488,
                0.8250994278336333
            ]
        },
        {
            "positions": [
                -0.7371085811680375,
                -0.2915999137963448,
                -0.7169032678584886,
                0.8800876558268941,
                1.048602957984329,
                0.783128362224823
            ]
        },
        {
            "positions": [
                -0.6893887555058937,
                -0.31845561526193744,
                -0.5665607378667974,
                0.9368985346353034,
                0.9833528489733091,
                0.7411572966160127
            ]
        },
        {
            "positions": [
                -0.64166892984375,
                -0.3453113167275301,
                -0.4162182078751058,
                0.9937094134437128,
                0.9181027399622893,
                0.6991862310072023
            ]
        },
        {
            "positions": [
                -0.5939491041816063,
                -0.3721670181931228,
                -0.2658756778834146,
                1.050520292252122,
                0.8528526309512695,
                0.657215165398392
            ]
        },
        {
            "positions": [
                -0.5462292785194626,
                -0.3990227196587155,
                -0.1155331478917232,
                1.1073311710605314,
                0.7876025219402496,
                0.6152440997895816
            ]
        },
        {
            "positions": [
                -0.49850945285731885,
                -0.4258784211243081,
                0.03480938209996798,
                1.1641420498689405,
                0.7223524129292298,
                0.5732730341807714
            ]
        },
        {
            "positions": [
                -0.4507896271951751,
                -0.45273412258990076,
                0.18515191209165915,
                1.22095292867735,
                0.65710230391821,
                0.5313019685719611
            ]
        },
        {
            "positions": [
                -0.4030698015330314,
                -0.47958982405549344,
                0.33549444208335033,
                1.2777638074857591,
                0.5918521949071902,
                0.48933090296315074
            ]
        },
        {
            "positions": [
                -0.35534997587088757,
                -0.5064455255210862,
                0.48583697207504195,
                1.3345746862941685,
                0.5266020858961702,
                0.4473598373543404
            ]
        },
        {
            "positions": [
                -0.30763015020874396,
                -0.5333012269866788,
                0.6361795020667331,
                1.391385565102578,
                0.4613519768851504,
                0.40538877174553
            ]
        },
        {
            "positions": [
                -0.25991032454660024,
                -0.5601569284522714,
                0.7865220320584243,
                1.4481964439109871,
                0.3961018678741306,
                0.36341770613671975
            ]
        },
        {
            "positions": [
                -0.2121904988844565,
                -0.5870126299178642,
                0.9368645620501155,
                1.5050073227193965,
                0.3308517588631108,
                0.3214466405279095
            ]
        },
        {
            "positions": [
                -0.16447067322231268,
                -0.6138683313834568,
                1.0872070920418075,
                1.561818201527806,
                0.265601649852091,
                0.279475574919099
            ]
        },
        {
            "positions": [
                -0.11675084756016907,
                -0.6407240328490496,
                1.2375496220334987,
                1.618629080336215,
                0.2003515408410712,
                0.23750450931028877
            ]
        },
        {
            "positions": [
                -0.06903102189802524,
                -0.6675797343146421,
                1.38789215202519,
                1.6754399591446245,
                0.1351014318300514,
                0.19553344370147852
            ]
        },
        {
            "positions": [
                -0.021311196235881624,
                -0.6944354357802347,
                1.538234682016881,
                1.7322508379530337,
                0.06985132281903161,
                0.15356237809266815
            ]
        },
        {
            "positions": [
                0.02640862942626221,
                -0.7212911372458275,
                1.6885772120085727,
                1.789061716761443,
                0.004601213808011595,
                0.11159131248385767
            ]
        },
        {
            "positions": [
                0.07412845508840604,
                -0.7481468387114201,
                1.8389197420002639,
                1.8458725955698525,
                -0.0606488952030082,
                0.06962024687504753
            ]
        },
        {
            "positions": [
                0.12184828075054963,
                -0.7750025401770129,
                1.9892622719919548,
                1.9026834743782617,
                -0.12589900421402792,
                0.027649181266237204
            ]
        }
    ]
}