{
    "goal": {
        "global_pose": {
            "orientation": {
                "w": 0.7047431468963623,
                "x": -0.7094548344612122,
                "y": 0.0024358443915843964,
                "z": -0.0022348060738295317
            },
            "position": {
                "x": 0.6094750761985779,
                "y": 0.3671506643295288,
                "z": 0.19426114857196808
            }
        },
        "name": "move_to_magneteinheit_A"
    },
    "id": "LazyPRMstar_move_to_magneteinheit_A_148",
    "joint_names": [
        "shoulder_pan_joint",
        "shoulder_lift_joint",
        "elbow_joint",
        "wrist_1_joint",
        "wrist_2_joint",
        "wrist_3_joint"
    ],
    "metrics": {
        "cart_traj_len": 2.0655742873834932,
        "distance_elbow_joint": 3.880974786943222,
        "distance_shoulder_lift_joint": 1.056008387596724,
        "distance_shoulder_pan_joint": 1.241331174875663,
        "distance_wrist_1_joint": 1.1579956788104744,
        "distance_wrist_2_joint": 1.4413566551360664,
        "distance_wrist_3_joint": 1.924830969132282,
        "smoothness": 3.6752210588592913e-16,
        "time": 5.000079179,
        "traj_len": 3.2714672018063142,
        "weighted_distance": 4.1414383883749295
    },
    "planner": "LazyPRMstar",
    "start": {
        "state": {
            "elbow_joint": -1.919643507792019,
            "shoulder_lift_joint": -0.07675430207160344,
            "shoulder_pan_joint": -1.1188671864651873,
            "wrist_1_joint": 0.42560062535961957,
            "wrist_2_joint": 1.5706038300724876,
            "wrist_3_joint": 1.1188968870953055
        }
    },
    "waypoints": [
        {
            "positions": [
                -1.1188671864651873,
                -0.07675430207160344,
                -1.919643507792019,
                0.42560062535961957,
                1.5706038300724876,
                1.1188968870953055
            ]
        },
        {
            "positions": [
                -1.074533930219628,
                -0.11446888734291502,
                -1.7810372654011897,
                0.3842436368306741,
                1.519126806674771,
                1.1876408502786013
            ]
        },
        {
            "positions": [
                -1.0302006739740686,
                -0.1521834726142266,
                -1.6424310230103605,
                0.34288664830172855,
                1.4676497832770543,
                1.2563848134618971
            ]
        },
        {
            "positions": [
                -0.9858674177285092,
                -0.18989805788553815,
                -1.503824780619531,
                0.301529659772783,
                1.4161727598793377,
                1.325128776645193
            ]
        },
        {
            "positions": [
                -0.9415341614829498,
                -0.22761264315684973,
                -1.3652185382287017,
                0.26017267124383753,
                1.364695736481621,
                1.3938727398284887
            ]
        },
        {
            "positions": [
                -0.8972009052373904,
                -0.2653272284281613,
                -1.2266122958378722,
                0.218815682714892,
                1.3132187130839044,
                1.4626167030117845
            ]
        },
        {
            "positions": [
                -0.852867648991831,
                -0.3030418136994729,
                -1.088006053447043,
                0.1774586941859465,
                1.2617416896861877,
                1.5313606661950803
            ]
        },
        {
            "positions": [
                -0.8085343927462716,
                -0.34075639897078447,
                -0.9493998110562136,
                0.13610170565700097,
                1.210264666288471,
                1.600104629378376
            ]
        },
        {
            "positions": [
                -0.7642011365007122,
                -0.378470984242096,
                -0.8107935686653844,
                0.09474471712805549,
                1.1587876428907544,
                1.6688485925616718
            ]
        },
        {
            "positions": [
                -0.7198678802551528,
                -0.4161855695134076,
                -0.6721873262745548,
                0.053387728599109896,
                1.1073106194930378,
                1.7375925557449676
            ]
        },
        {
            "positions": [
                -0.6755346240095934,
                -0.4539001547847192,
                -0.5335810838837256,
                0.012030740070164414,
                1.055833596095321,
                1.8063365189282634
            ]
        },
        {
            "positions": [
                -0.631201367764034,
                -0.4916147400560308,
                -0.3949748414928962,
                -0.029326248458781068,
                1.0043565726976045,
                1.8750804821115592
            ]
        },
        {
            "positions": [
                -0.5868681115184746,
                -0.5293293253273423,
                -0.256368599102067,
                -0.07068323698772655,
                0.9528795492998877,
                1.943824445294855
            ]
        },
        {
            "positions": [
                -0.5425348552729152,
                -0.567043910598654,
                -0.11776235671123736,
                -0.11204022551667209,
                0.9014025259021711,
                2.0125684084781508
            ]
        },
        {
            "positions": [
                -0.49820159902735583,
                -0.6047584958699654,
                0.020843885679591834,
                -0.15339721404561762,
                0.8499255025044544,
                2.0813123716614466
            ]
        },
        {
            "positions": [
                -0.45386834278179644,
                -0.6424730811412771,
                0.15945012807042125,
                -0.19475420257456316,
                0.7984484791067378,
                2.1500563348447423
            ]
        },
        {
            "positions": [
                -0.40953508653623705,
                -0.6801876664125885,
                0.2980563704612502,
                -0.2361111911035086,
                0.7469714557090211,
                2.218800298028038
            ]
        },
        {
            "positions": [
                -0.36520183029067776,
                -0.7179022516839002,
                0.43666261285207963,
                -0.2774681796324541,
                0.6954944323113045,
                2.287544261211334
            ]
        },
        {
            "positions": [
                -0.32086857404511815,
                -0.7556168369552119,
                0.5752688552429095,
                -0.3188251681613998,
                0.6440174089135877,
                2.3562882243946297
            ]
        },
        {
            "positions": [
                -0.27653531779955887,
                -0.7933314222265233,
                0.7138750976337389,
                -0.3601821566903452,
                0.5925403855158711,
                2.4250321875779255
            ]
        },
        {
            "positions": [
                -0.23220206155399947,
                -0.831046007497835,
                0.8524813400245679,
                -0.40153914521929074,
                0.5410633621181544,
                2.4937761507612213
            ]
        },
        {
            "positions": [
                -0.18786880530844008,
                -0.8687605927691466,
                0.9910875824153973,
                -0.4428961337482363,
                0.4895863387204378,
                2.562520113944517
            ]
        },
        {
            "positions": [
                -0.14353554906288069,
                -0.9064751780404581,
                1.1296938248062267,
                -0.4842531222771817,
                0.4381093153227211,
                2.631264077127813
            ]
        },
        {
            "positions": [
                -0.09920229281732129,
                -0.9441897633117697,
                1.2683000671970557,
                -0.5256101108061273,
                0.3866322919250045,
                2.7000080403111086
            ]
        },
        {
            "positions": [
                -0.0548690365717619,
                -0.9819043485830812,
                1.406906309587885,
                -0.5669670993350726,
                0.33515526852728783,
                2.7687520034944044
            ]
        },
        {
            "positions": [
                -0.010535780326202504,
                -1.0196189338543928,
                1.545512551978715,
                -0.6083240878640184,
                0.2836782451295712,
                2.8374959666777
            ]
        },
        {
            "positions": [
                0.03379747591935689,
                -1.0573335191257045,
                1.6841187943695444,
                -0.6496810763929637,
                0.23220122173185453,
                2.906239929860996
            ]
        },
        {
            "positions": [
                0.07813073216491628,
                -1.095048104397016,
                1.8227250367603733,
                -0.6910380649219092,
                0.1807241983341379,
                2.974983893044292
            ]
        },
        {
            "positions": [
                0.12246398841047568,
                -1.1327626896683276,
                1.961331279151203,
                -0.7323950534508548,
                0.1292471749364212,
                3.0437278562275876
            ]
        }
    ]
}