{
    "goal": {
        "global_pose": {
            "orientation": {
                "w": 0.7031023502349854,
                "x": -0.7110244035720825,
                "y": 0.007748599164187908,
                "z": 0.005598929710686207
            },
            "position": {
                "x": 0.11585023208521307,
                "y": 0.44412534475326537,
                "z": 0.3711530566215515
            }
        },
        "name": "move_to_auspresseinheit_A"
    },
    "id": "LazyPRMstar_move_to_auspresseinheit_A_16",
    "joint_names": [
        "shoulder_pan_joint",
        "shoulder_lift_joint",
        "elbow_joint",
        "wrist_1_joint",
        "wrist_2_joint",
        "wrist_3_joint"
    ],
    "metrics": {
        "cart_traj_len": 0.7881594902306536,
        "distance_elbow_joint": 0.026067708282922375,
        "distance_shoulder_lift_joint": 1.0461818282953927,
        "distance_shoulder_pan_joint": 1.044513935046676,
        "distance_wrist_1_joint": 0.5472990012843848,
        "distance_wrist_2_joint": 0.7115208317914754,
        "distance_wrist_3_joint": 0.1892147983485728,
        "smoothness": 1.2751085139054767,
        "time": 5.013950579,
        "traj_len": 1.8880672930405378,
        "weighted_distance": 2.280799757283052
    },
    "planner": "LazyPRMstar",
    "start": {
        "state": {
            "elbow_joint": 2.422574709923281,
            "shoulder_lift_joint": -1.3736533754116391,
            "shoulder_pan_joint": -0.33786336945926293,
            "wrist_1_joint": -1.0288603412921917,
            "wrist_2_joint": 1.2330224858903978,
            "wrist_3_joint": -3.094022268022082
        }
    },
    "waypoints": [
        {
            "positions": [
                -0.33786336945926293,
                -1.3736533754116391,
                2.422574709923281,
                -1.0288603412921917,
                1.2330224858903978,
                -3.094022268022082
            ]
        },
        {
            "positions": [
                -0.21082815218133988,
                -1.4866508461607237,
                2.42143206140976,
                -0.9734752536092581,
                1.1450362297661374,
                -3.083192109624169
            ]
        },
        {
            "positions": [
                -0.08379293490341683,
                -1.5996483169098084,
                2.4202894128962393,
                -0.9180901659263245,
                1.0570499736418772,
                -3.0723619512262554
            ]
        },
        {
            "positions": [
                0.043242282374506225,
                -1.7126457876588932,
                2.4191467643827185,
                -0.8627050782433909,
                0.9690637175176169,
                -3.061531792828342
            ]
        },
        {
            "positions": [
                0.17027749965242928,
                -1.8256432584079778,
                2.4180041158691976,
                -0.8073199905604573,
                0.8810774613933566,
                -3.050701634430429
            ]
        },
        {
            "positions": [
                0.2973127169303524,
                -1.9386407291570626,
                2.4168614673556768,
                -0.7519349028775237,
                0.7930912052690964,
                -3.039871476032516
            ]
        },
        {
            "positions": [
                0.4243479342082754,
                -2.0516381999061473,
                2.415718818842156,
                -0.6965498151945901,
                0.7051049491448361,
                -3.0290413176346025
            ]
        },
        {
            "positions": [
                0.5513831514861984,
                -2.164635670655232,
                2.414576170328635,
                -0.6411647275116565,
                0.6171186930205758,
                -3.018211159236689
            ]
        },
        {
            "positions": [
                0.6031389561866033,
                -2.0795691596379653,
                2.4085531140992096,
                -0.5879635983437067,
                0.6489910393277936,
                -3.0560123890910824
            ]
        },
        {
            "positions": [
                0.654894760887008,
                -1.9945026486206985,
                2.402530057869784,
                -0.5347624691757568,
                0.6808633856350114,
                -3.0938136189454757
            ]
        },
        {
            "positions": [
                0.7066505655874129,
                -1.909436137603432,
                2.3965070016403587,
                -0.4815613400078069,
                0.7127357319422292,
                -3.131614848799869
            ]
        }
    ]
}