{
    "goal": {
        "global_pose": {
            "orientation": {
                "w": 0.7047431468963623,
                "x": -0.7094548344612122,
                "y": 0.0024358443915843964,
                "z": -0.0022348060738295317
            },
            "position": {
                "x": 0.6094750761985779,
                "y": 0.3671506643295288,
                "z": 0.19426114857196808
            }
        },
        "name": "move_to_magneteinheit_A"
    },
    "id": "LazyPRM_move_to_magneteinheit_A_5",
    "joint_names": [
        "shoulder_pan_joint",
        "shoulder_lift_joint",
        "elbow_joint",
        "wrist_1_joint",
        "wrist_2_joint",
        "wrist_3_joint"
    ],
    "metrics": {
        "cart_traj_len": 1.8664191549115496,
        "distance_elbow_joint": 3.944418192685011,
        "distance_shoulder_lift_joint": 0.7139131009086043,
        "distance_shoulder_pan_joint": 1.241017988094067,
        "distance_wrist_1_joint": 1.602321857871705,
        "distance_wrist_2_joint": 1.6974368377204117,
        "distance_wrist_3_joint": 1.2466386108566723,
        "smoothness": 4.4408920843237046e-16,
        "time": 0.128048324,
        "traj_len": 3.2319880241325873,
        "weighted_distance": 4.029737274989765
    },
    "planner": "LazyPRM",
    "start": {
        "state": {
            "elbow_joint": -1.919643507792019,
            "shoulder_lift_joint": -0.07675430207160344,
            "shoulder_pan_joint": -1.1188671864651873,
            "wrist_1_joint": 0.42560062535961957,
            "wrist_2_joint": 1.5706038300724876,
            "wrist_3_joint": 1.1188968870953055
        }
    },
    "waypoints": [
        {
            "positions": [
                -1.1188671864651873,
                -0.07675430207160344,
                -1.919643507792019,
                0.42560062535961957,
                1.5706038300724876,
                1.1188968870953055
            ]
        },
        {
            "positions": [
                -1.0729035572765182,
                -0.10319552803118139,
                -1.7735539450999815,
                0.4849458793548679,
                1.5077357990458058,
                1.0727250866932065
            ]
        },
        {
            "positions": [
                -1.026939928087849,
                -0.12963675399075933,
                -1.6274643824079442,
                0.5442911333501163,
                1.4448677680191238,
                1.0265532862911075
            ]
        },
        {
            "positions": [
                -0.9809762988991799,
                -0.15607797995033726,
                -1.481374819715907,
                0.6036363873453645,
                1.381999736992442,
                0.9803814858890086
            ]
        },
        {
            "positions": [
                -0.9350126697105108,
                -0.18251920590991522,
                -1.3352852570238694,
                0.6629816413406129,
                1.31913170596576,
                0.9342096854869096
            ]
        },
        {
            "positions": [
                -0.8890490405218416,
                -0.20896043186949315,
                -1.1891956943318318,
                0.7223268953358613,
                1.256263674939078,
                0.8880378850848107
            ]
        },
        {
            "positions": [
                -0.8430854113331725,
                -0.23540165782907108,
                -1.0431061316397945,
                0.7816721493311095,
                1.193395643912396,
                0.8418660846827117
            ]
        },
        {
            "positions": [
                -0.7971217821445034,
                -0.261842883788649,
                -0.8970165689477572,
                0.8410174033263578,
                1.1305276128857142,
                0.7956942842806127
            ]
        },
        {
            "positions": [
                -0.7511581529558342,
                -0.28828410974822694,
                -0.7509270062557196,
                0.9003626573216061,
                1.0676595818590324,
                0.7495224838785137
            ]
        },
        {
            "positions": [
                -0.7051945237671651,
                -0.3147253357078049,
                -0.6048374435636823,
                0.9597079113168545,
                1.0047915508323504,
                0.7033506834764148
            ]
        },
        {
            "positions": [
                -0.6592308945784959,
                -0.34116656166738285,
                -0.45874788087164475,
                1.0190531653121029,
                0.9419235198056685,
                0.6571788830743158
            ]
        },
        {
            "positions": [
                -0.6132672653898267,
                -0.3676077876269608,
                -0.31265831817960743,
                1.0783984193073513,
                0.8790554887789866,
                0.6110070826722169
            ]
        },
        {
            "positions": [
                -0.5673036362011575,
                -0.3940490135865387,
                -0.16656875548756989,
                1.1377436733025994,
                0.8161874577523047,
                0.5648352822701179
            ]
        },
        {
            "positions": [
                -0.5213400070124884,
                -0.42049023954611664,
                -0.020479192795532564,
                1.1970889272978478,
                0.7533194267256228,
                0.5186634818680189
            ]
        },
        {
            "positions": [
                -0.47537637782381925,
                -0.44693146550569457,
                0.12561036989650476,
                1.2564341812930961,
                0.6904513956989409,
                0.4724916814659199
            ]
        },
        {
            "positions": [
                -0.4294127486351501,
                -0.47337269146527255,
                0.2716999325885425,
                1.3157794352883445,
                0.6275833646722588,
                0.4263198810638209
            ]
        },
        {
            "positions": [
                -0.38344911944648097,
                -0.4998139174248505,
                0.41778949528057985,
                1.3751246892835929,
                0.564715333645577,
                0.380148080661722
            ]
        },
        {
            "positions": [
                -0.3374854902578118,
                -0.5262551433844285,
                0.5638790579726176,
                1.4344699432788413,
                0.501847302618895,
                0.333976280259623
            ]
        },
        {
            "positions": [
                -0.2915218610691427,
                -0.5526963693440063,
                0.7099686206646545,
                1.4938151972740894,
                0.43897927159221317,
                0.2878044798575241
            ]
        },
        {
            "positions": [
                -0.24555823188047343,
                -0.5791375953035842,
                0.8560581833566923,
                1.553160451269338,
                0.37611124056553114,
                0.241632679455425
            ]
        },
        {
            "positions": [
                -0.1995946026918044,
                -0.6055788212631623,
                1.0021477460487296,
                1.6125057052645861,
                0.3132432095388493,
                0.1954608790533261
            ]
        },
        {
            "positions": [
                -0.15363097350313515,
                -0.6320200472227402,
                1.1482373087407673,
                1.6718509592598345,
                0.2503751785121675,
                0.1492890786512271
            ]
        },
        {
            "positions": [
                -0.10766734431446601,
                -0.6584612731823181,
                1.2943268714328042,
                1.7311962132550829,
                0.1875071474854857,
                0.10311727824912831
            ]
        },
        {
            "positions": [
                -0.061703715125796865,
                -0.6849024991418962,
                1.440416434124842,
                1.7905414672503313,
                0.12463911645880366,
                0.05694547784702908
            ]
        },
        {
            "positions": [
                -0.015740085937127724,
                -0.711343725101474,
                1.5865059968168793,
                1.8498867212455794,
                0.06177108543212184,
                0.010773677444930296
            ]
        },
        {
            "positions": [
                0.030223543251541418,
                -0.7377849510610519,
                1.732595559508917,
                1.9092319752408278,
                -0.0010969455945601947,
                -0.03539812295716871
            ]
        },
        {
            "positions": [
                0.07618717244021056,
                -0.7642261770206298,
                1.878685122200954,
                1.9685772292360761,
                -0.06396497662124201,
                -0.08156992335926772
            ]
        },
        {
            "positions": [
                0.12215080162887966,
                -0.7906674029802078,
                2.024774684892992,
                2.0279224832313245,
                -0.12683300764792407,
                -0.12774172376136664
            ]
        }
    ]
}