{
    "goal": {
        "global_pose": {
            "orientation": {
                "w": 0.7031023502349854,
                "x": -0.7110244035720825,
                "y": 0.007748599164187908,
                "z": 0.005598929710686207
            },
            "position": {
                "x": 0.11585023208521307,
                "y": 0.44412534475326537,
                "z": 0.3711530566215515
            }
        },
        "name": "move_to_auspresseinheit_A"
    },
    "id": "LazyPRM_move_to_auspresseinheit_A_92",
    "joint_names": [
        "shoulder_pan_joint",
        "shoulder_lift_joint",
        "elbow_joint",
        "wrist_1_joint",
        "wrist_2_joint",
        "wrist_3_joint"
    ],
    "metrics": {
        "cart_traj_len": 1.283468405522928,
        "distance_elbow_joint": 1.0862344013022702,
        "distance_shoulder_lift_joint": 0.5350195609051982,
        "distance_shoulder_pan_joint": 1.101863881813136,
        "distance_wrist_1_joint": 0.7422344088340648,
        "distance_wrist_2_joint": 0.7527352470652879,
        "distance_wrist_3_joint": 1.5137394700833022,
        "smoothness": 1.0220004832642429,
        "time": 0.121898024,
        "traj_len": 2.3941234241373732,
        "weighted_distance": 3.202229780335761
    },
    "planner": "LazyPRM",
    "start": {
        "state": {
            "elbow_joint": 2.422574709923281,
            "shoulder_lift_joint": -1.3736533754116391,
            "shoulder_pan_joint": -0.33786336945926293,
            "wrist_1_joint": -1.0288603412921917,
            "wrist_2_joint": 1.2330224858903978,
            "wrist_3_joint": -3.094022268022082
        }
    },
    "waypoints": [
        {
            "positions": [
                -0.33786336945926293,
                -1.3736533754116391,
                2.422574709923281,
                -1.0288603412921917,
                1.2330224858903978,
                -3.094022268022082
            ]
        },
        {
            "positions": [
                -0.3417409805718217,
                -1.4178557433590617,
                2.342942065733413,
                -0.9361380182216693,
                1.2496340370914802,
                -2.9891129750451673
            ]
        },
        {
            "positions": [
                -0.34561859168438036,
                -1.4620581113064843,
                2.263309421543545,
                -0.843415695151147,
                1.2662455882925625,
                -2.884203682068252
            ]
        },
        {
            "positions": [
                -0.3494962027969391,
                -1.506260479253907,
                2.1836767773536767,
                -0.7506933720806246,
                1.282857139493645,
                -2.779294389091337
            ]
        },
        {
            "positions": [
                -0.3533738139094978,
                -1.5504628472013293,
                2.1040441331638084,
                -0.6579710490101023,
                1.2994686906947273,
                -2.6743850961144218
            ]
        },
        {
            "positions": [
                -0.35725142502205653,
                -1.594665215148752,
                2.02441148897394,
                -0.5652487259395798,
                1.3160802418958097,
                -2.569475803137507
            ]
        },
        {
            "positions": [
                -0.3611290361346152,
                -1.6388675830961745,
                1.9447788447840724,
                -0.47252640286905745,
                1.332691793096892,
                -2.4645665101605916
            ]
        },
        {
            "positions": [
                -0.36500664724717397,
                -1.6830699510435971,
                1.865146200594204,
                -0.37980407979853503,
                1.3493033442979745,
                -2.3596572171836767
            ]
        },
        {
            "positions": [
                -0.24559324679992672,
                -1.7081369494072904,
                1.9239024108134477,
                -0.3901572072808026,
                1.2785861900026732,
                -2.446254374877554
            ]
        },
        {
            "positions": [
                -0.1261798463526795,
                -1.7332039477709837,
                1.9826586210326915,
                -0.4005103347630702,
                1.207869035707372,
                -2.5328515325714314
            ]
        },
        {
            "positions": [
                -0.0067664459054322945,
                -1.7582709461346773,
                2.0414148312519353,
                -0.41086346224533776,
                1.1371518814120707,
                -2.619448690265309
            ]
        },
        {
            "positions": [
                0.11264695454181495,
                -1.7833379444983706,
                2.100171041471179,
                -0.42121658972760534,
                1.0664347271167696,
                -2.7060458479591865
            ]
        },
        {
            "positions": [
                0.23206035498906225,
                -1.8084049428620639,
                2.1589272516904225,
                -0.4315697172098729,
                0.9957175728214682,
                -2.792643005653064
            ]
        },
        {
            "positions": [
                0.3514737554363094,
                -1.8334719412257572,
                2.217683461909666,
                -0.44192284469214044,
                0.9250004185261671,
                -2.879240163346941
            ]
        },
        {
            "positions": [
                0.4708871558835566,
                -1.8585389395894507,
                2.27643967212891,
                -0.452275972174408,
                0.8542832642308658,
                -2.9658373210408184
            ]
        },
        {
            "positions": [
                0.5903005563308039,
                -1.883605937953144,
                2.335195882348154,
                -0.4626290996566756,
                0.7835661099355645,
                -3.052434478734696
            ]
        },
        {
            "positions": [
                0.7097139567780512,
                -1.9086729363168373,
                2.3939520925673974,
                -0.47298222713894317,
                0.7128489556402633,
                -3.1390316364285735
            ]
        }
    ]
}