{
    "goal": {
        "global_pose": {
            "orientation": {
                "w": 0.7031023502349854,
                "x": -0.7110244035720825,
                "y": 0.007748599164187908,
                "z": 0.005598929710686207
            },
            "position": {
                "x": 0.11585023208521307,
                "y": 0.44412534475326537,
                "z": 0.3711530566215515
            }
        },
        "name": "move_to_auspresseinheit_A"
    },
    "id": "LazyPRMstar_move_to_auspresseinheit_A_35",
    "joint_names": [
        "shoulder_pan_joint",
        "shoulder_lift_joint",
        "elbow_joint",
        "wrist_1_joint",
        "wrist_2_joint",
        "wrist_3_joint"
    ],
    "metrics": {
        "cart_traj_len": 0.6686883719778876,
        "distance_elbow_joint": 0.16960289682134055,
        "distance_shoulder_lift_joint": 0.8294356285250173,
        "distance_shoulder_pan_joint": 1.0421191655828475,
        "distance_wrist_1_joint": 0.8620042788745268,
        "distance_wrist_2_joint": 0.6217296709846654,
        "distance_wrist_3_joint": 0.4136579956145763,
        "smoothness": 1.2003710332293143,
        "time": 5.006785154999999,
        "traj_len": 1.9845779491879312,
        "weighted_distance": 2.4999199142155173
    },
    "planner": "LazyPRMstar",
    "start": {
        "state": {
            "elbow_joint": 2.422574709923281,
            "shoulder_lift_joint": -1.3736533754116391,
            "shoulder_pan_joint": -0.33786336945926293,
            "wrist_1_joint": -1.0288603412921917,
            "wrist_2_joint": 1.2330224858903978,
            "wrist_3_joint": -3.094022268022082
        }
    },
    "waypoints": [
        {
            "positions": [
                -0.33786336945926293,
                -1.3736533754116391,
                2.422574709923281,
                -1.0288603412921917,
                1.2330224858903978,
                -3.094022268022082
            ]
        },
        {
            "positions": [
                -0.2554884910702471,
                -1.4590077669123587,
                2.431474155951507,
                -0.9405685889038915,
                1.161087594052246,
                -3.070497308798295
            ]
        },
        {
            "positions": [
                -0.17311361268123132,
                -1.5443621584130782,
                2.440373601979733,
                -0.8522768365155912,
                1.0891527022140945,
                -3.046972349574508
            ]
        },
        {
            "positions": [
                -0.09073873429221552,
                -1.6297165499137976,
                2.449273048007959,
                -0.7639850841272909,
                1.0172178103759428,
                -3.0234473903507206
            ]
        },
        {
            "positions": [
                -0.008363855903199713,
                -1.715070941414517,
                2.458172494036185,
                -0.6756933317389906,
                0.9452829185377912,
                -2.9999224311269335
            ]
        },
        {
            "positions": [
                0.07401102248581609,
                -1.8004253329152367,
                2.467071940064411,
                -0.5874015793506904,
                0.8733480266996396,
                -2.9763974719031463
            ]
        },
        {
            "positions": [
                0.1563859008748319,
                -1.885779724415956,
                2.4759713860926373,
                -0.49910982696239015,
                0.8014131348614879,
                -2.952872512679359
            ]
        },
        {
            "positions": [
                0.2387607792638477,
                -1.9711341159166755,
                2.4848708321208632,
                -0.4108180745740898,
                0.7294782430233363,
                -2.929347553455572
            ]
        },
        {
            "positions": [
                0.32113565765286356,
                -2.056488507417395,
                2.493770278149089,
                -0.3225263221857896,
                0.6575433511851847,
                -2.905822594231785
            ]
        },
        {
            "positions": [
                0.44884237047643716,
                -2.007621675244308,
                2.4609678352839115,
                -0.37441640877516447,
                0.6729601966116688,
                -2.980975368173211
            ]
        },
        {
            "positions": [
                0.5765490833000109,
                -1.958754843071221,
                2.4281653924187343,
                -0.42630649536453935,
                0.6883770420381529,
                -3.0561281421146376
            ]
        },
        {
            "positions": [
                0.7042557961235845,
                -1.9098880108981338,
                2.3953629495535567,
                -0.4781965819539143,
                0.703793887464637,
                -3.1312809160560637
            ]
        }
    ]
}