{
    "goal": {
        "global_pose": {
            "orientation": {
                "w": 0.7031023502349854,
                "x": -0.7110244035720825,
                "y": 0.007748599164187908,
                "z": 0.005598929710686207
            },
            "position": {
                "x": 0.11585023208521307,
                "y": 0.44412534475326537,
                "z": 0.3711530566215515
            }
        },
        "name": "move_to_auspresseinheit_A"
    },
    "id": "LazyPRMstar_move_to_auspresseinheit_A_51",
    "joint_names": [
        "shoulder_pan_joint",
        "shoulder_lift_joint",
        "elbow_joint",
        "wrist_1_joint",
        "wrist_2_joint",
        "wrist_3_joint"
    ],
    "metrics": {
        "cart_traj_len": 0.6796577185050012,
        "distance_elbow_joint": 0.038549785517237645,
        "distance_shoulder_lift_joint": 0.5329268890893777,
        "distance_shoulder_pan_joint": 1.0421394872118999,
        "distance_wrist_1_joint": 0.5644370783954515,
        "distance_wrist_2_joint": 0.5432589313200404,
        "distance_wrist_3_joint": 0.07236047830781,
        "smoothness": 0.09273821886831651,
        "time": 5.010823047,
        "traj_len": 1.6714283262652387,
        "weighted_distance": 2.0114894024510614
    },
    "planner": "LazyPRMstar",
    "start": {
        "state": {
            "elbow_joint": 2.422574709923281,
            "shoulder_lift_joint": -1.3736533754116391,
            "shoulder_pan_joint": -0.33786336945926293,
            "wrist_1_joint": -1.0288603412921917,
            "wrist_2_joint": 1.2330224858903978,
            "wrist_3_joint": -3.094022268022082
        }
    },
    "waypoints": [
        {
            "positions": [
                -0.33786336945926293,
                -1.3736533754116391,
                2.422574709923281,
                -1.0288603412921917,
                1.2330224858903978,
                -3.094022268022082
            ]
        },
        {
            "positions": [
                -0.22390817543761368,
                -1.4311675148258078,
                2.423255646820469,
                -0.9591950048256429,
                1.143693134946195,
                -3.1044397659855982
            ]
        },
        {
            "positions": [
                -0.10995298141596443,
                -1.4886816542399766,
                2.4239365837176563,
                -0.8895296683590941,
                1.0543637840019922,
                -3.1148572639491143
            ]
        },
        {
            "positions": [
                0.004002212605684841,
                -1.5461957936541453,
                2.424617520614844,
                -0.8198643318925453,
                0.9650344330577894,
                -3.1252747619126304
            ]
        },
        {
            "positions": [
                0.11795740662733406,
                -1.603709933068314,
                2.425298457512032,
                -0.7501989954259964,
                0.8757050821135867,
                -3.1356922598761465
            ]
        },
        {
            "positions": [
                0.2319126006489834,
                -1.6612240724824827,
                2.4259793944092194,
                -0.6805336589594476,
                0.7863757311693838,
                -3.1461097578396626
            ]
        },
        {
            "positions": [
                0.34586779467063267,
                -1.7187382118966514,
                2.4266603313064072,
                -0.6108683224928988,
                0.6970463802251811,
                -3.1565272558031787
            ]
        },
        {
            "positions": [
                0.5250719562116348,
                -1.812659238198834,
                2.4094282492393515,
                -0.5376457926948195,
                0.700687793052593,
                -3.151599510539822
            ]
        },
        {
            "positions": [
                0.704276117752637,
                -1.9065802645010168,
                2.3921961671722958,
                -0.4644232628967402,
                0.7043292058800048,
                -3.1466717652764653
            ]
        }
    ]
}