{
    "goal": {
        "global_pose": {
            "orientation": {
                "w": 0.5084816217422485,
                "x": -0.49083608388900757,
                "y": 0.5182115435600281,
                "z": -0.4816462993621826
            },
            "position": {
                "x": 0.5540239810943604,
                "y": 0.030875300988554955,
                "z": 0.16403168439865112
            }
        },
        "name": "move_to_storage_A"
    },
    "id": "LazyPRMstar_move_to_storage_A_81",
    "joint_names": [
        "shoulder_pan_joint",
        "shoulder_lift_joint",
        "elbow_joint",
        "wrist_1_joint",
        "wrist_2_joint",
        "wrist_3_joint"
    ],
    "metrics": {
        "cart_traj_len": 0.35389787168349907,
        "distance_elbow_joint": 0.45088025204020266,
        "distance_shoulder_lift_joint": 0.2334226561653463,
        "distance_shoulder_pan_joint": 0.4628135955338069,
        "distance_wrist_1_joint": 0.2485671182089365,
        "distance_wrist_2_joint": 1.0997420099993391,
        "distance_wrist_3_joint": 0.09746970347453399,
        "smoothness": 6.661338165333112e-16,
        "time": 5.00158534,
        "traj_len": 1.6102469796345422,
        "weighted_distance": 2.033751182072062
    },
    "planner": "LazyPRMstar",
    "start": {
        "state": {
            "elbow_joint": 1.9715463870305268,
            "shoulder_lift_joint": -1.1394903361783484,
            "shoulder_pan_joint": 0.12281147578464417,
            "wrist_1_joint": -0.7804599489681411,
            "wrist_2_joint": 0.12958660307563738,
            "wrist_3_joint": -3.1924946282119055
        }
    },
    "waypoints": [
        {
            "positions": [
                0.12281147578464417,
                -1.1394903361783484,
                1.9715463870305268,
                -0.7804599489681411,
                0.12958660307563738,
                -3.1924946282119055
            ]
        },
        {
            "positions": [
                0.05669524785124319,
                -1.172836429916255,
                2.0359578516076984,
                -0.8159695372837035,
                0.2866926045041144,
                -3.178570384858401
            ]
        },
        {
            "positions": [
                -0.00942098008215779,
                -1.2061825236541617,
                2.1003693161848704,
                -0.8514791255992658,
                0.44379860593259135,
                -3.1646461415048956
            ]
        },
        {
            "positions": [
                -0.07553720801555878,
                -1.2395286173920683,
                2.164780780762042,
                -0.8869887139148281,
                0.6009046073610684,
                -3.150721898151391
            ]
        },
        {
            "positions": [
                -0.14165343594895974,
                -1.2728747111299747,
                2.229192245339214,
                -0.9224983022303905,
                0.7580106087895454,
                -3.136797654797886
            ]
        },
        {
            "positions": [
                -0.20776966388236073,
                -1.3062208048678814,
                2.2936037099163857,
                -0.9580078905459528,
                0.9151166102180225,
                -3.1228734114443815
            ]
        },
        {
            "positions": [
                -0.27388589181576173,
                -1.339566898605788,
                2.3580151744935574,
                -0.9935174788615152,
                1.0722226116464995,
                -3.1089491680908763
            ]
        },
        {
            "positions": [
                -0.3400021197491627,
                -1.3729129923436947,
                2.4224266390707294,
                -1.0290270671770776,
                1.2293286130749765,
                -3.0950249247373716
            ]
        }
    ]
}