{
    "goal": {
        "global_pose": {
            "orientation": {
                "w": 0.7031023502349854,
                "x": -0.7110244035720825,
                "y": 0.007748599164187908,
                "z": 0.005598929710686207
            },
            "position": {
                "x": 0.11585023208521307,
                "y": 0.44412534475326537,
                "z": 0.3711530566215515
            }
        },
        "name": "move_to_auspresseinheit_A"
    },
    "id": "LazyPRMstar_move_to_auspresseinheit_A_79",
    "joint_names": [
        "shoulder_pan_joint",
        "shoulder_lift_joint",
        "elbow_joint",
        "wrist_1_joint",
        "wrist_2_joint",
        "wrist_3_joint"
    ],
    "metrics": {
        "cart_traj_len": 0.9753451964084878,
        "distance_elbow_joint": 0.2909142021444362,
        "distance_shoulder_lift_joint": 1.2285324679612815,
        "distance_shoulder_pan_joint": 1.0424210052945768,
        "distance_wrist_1_joint": 1.0707001989420917,
        "distance_wrist_2_joint": 0.528946009157588,
        "distance_wrist_3_joint": 0.06804296243856767,
        "smoothness": 1.7621876621017631,
        "time": 5.013217739,
        "traj_len": 2.056588642859466,
        "weighted_distance": 2.4423941080250247
    },
    "planner": "LazyPRMstar",
    "start": {
        "state": {
            "elbow_joint": 2.422574709923281,
            "shoulder_lift_joint": -1.3736533754116391,
            "shoulder_pan_joint": -0.33786336945926293,
            "wrist_1_joint": -1.0288603412921917,
            "wrist_2_joint": 1.2330224858903978,
            "wrist_3_joint": -3.094022268022082
        }
    },
    "waypoints": [
        {
            "positions": [
                -0.33786336945926293,
                -1.3736533754116391,
                2.422574709923281,
                -1.0288603412921917,
                1.2330224858903978,
                -3.094022268022082
            ]
        },
        {
            "positions": [
                -0.22851739288091533,
                -1.4715961782363682,
                2.4048936281367257,
                -0.9387695044873062,
                1.1828808644587918,
                -3.100072398969714
            ]
        },
        {
            "positions": [
                -0.11917141630256775,
                -1.5695389810610973,
                2.3872125463501703,
                -0.8486786676824207,
                1.132739243027186,
                -3.106122529917346
            ]
        },
        {
            "positions": [
                -0.009825439724220175,
                -1.6674817838858262,
                2.369531464563615,
                -0.7585878308775352,
                1.0825976215955802,
                -3.112172660864978
            ]
        },
        {
            "positions": [
                0.09952053685412743,
                -1.7654245867105554,
                2.3518503827770596,
                -0.6684969940726497,
                1.0324560001639742,
                -3.11822279181261
            ]
        },
        {
            "positions": [
                0.20886651343247503,
                -1.8633673895352845,
                2.3341693009905047,
                -0.5784061572677642,
                0.9823143787323684,
                -3.124272922760242
            ]
        },
        {
            "positions": [
                0.3182124900108226,
                -1.9613101923600134,
                2.3164882192039493,
                -0.48831532046287873,
                0.9321727573007625,
                -3.130323053707874
            ]
        },
        {
            "positions": [
                0.42755846658917024,
                -2.0592529951847425,
                2.298807137417394,
                -0.39822448365799323,
                0.8820311358691566,
                -3.136373184655506
            ]
        },
        {
            "positions": [
                0.5369044431675178,
                -2.1571957980094716,
                2.2811260556308386,
                -0.30813364685310773,
                0.8318895144375509,
                -3.142423315603138
            ]
        },
        {
            "positions": [
                0.6462504197458655,
                -2.2551386008342007,
                2.2634449738442832,
                -0.21804281004822226,
                0.7817478930059449,
                -3.1484734465507698
            ]
        },
        {
            "positions": [
                0.6656861584423482,
                -2.1394561866546273,
                2.3073731291994295,
                -0.3046703659475963,
                0.7558574209148998,
                -3.1439428519141432
            ]
        },
        {
            "positions": [
                0.6851218971388311,
                -2.023773772475054,
                2.3513012845545753,
                -0.3912979218469703,
                0.7299669488238548,
                -3.1394122572775163
            ]
        },
        {
            "positions": [
                0.7045576358353138,
                -1.9080913582954808,
                2.3952294399097216,
                -0.4779254777463443,
                0.7040764767328097,
                -3.1348816626408897
            ]
        }
    ]
}