{
    "goal": {
        "global_pose": {
            "orientation": {
                "w": 0.7047431468963623,
                "x": -0.7094548344612122,
                "y": 0.0024358443915843964,
                "z": -0.0022348060738295317
            },
            "position": {
                "x": 0.6094750761985779,
                "y": 0.3671506643295288,
                "z": 0.19426114857196808
            }
        },
        "name": "move_to_magneteinheit_A"
    },
    "id": "LazyPRM_move_to_magneteinheit_A_57",
    "joint_names": [
        "shoulder_pan_joint",
        "shoulder_lift_joint",
        "elbow_joint",
        "wrist_1_joint",
        "wrist_2_joint",
        "wrist_3_joint"
    ],
    "metrics": {
        "cart_traj_len": 1.8673442594687302,
        "distance_elbow_joint": 3.936337127950557,
        "distance_shoulder_lift_joint": 0.7103417210361994,
        "distance_shoulder_pan_joint": 1.2412039475591155,
        "distance_wrist_1_joint": 1.5883902783229689,
        "distance_wrist_2_joint": 1.6953832412536545,
        "distance_wrist_3_joint": 1.2288734881799235,
        "smoothness": 4.123685525847481e-16,
        "time": 0.118060139,
        "traj_len": 3.224985240943347,
        "weighted_distance": 4.017717050793758
    },
    "planner": "LazyPRM",
    "start": {
        "state": {
            "elbow_joint": -1.919643507792019,
            "shoulder_lift_joint": -0.07675430207160344,
            "shoulder_pan_joint": -1.1188671864651873,
            "wrist_1_joint": 0.42560062535961957,
            "wrist_2_joint": 1.5706038300724876,
            "wrist_3_joint": 1.1188968870953055
        }
    },
    "waypoints": [
        {
            "positions": [
                -1.1188671864651873,
                -0.07675430207160344,
                -1.919643507792019,
                0.42560062535961957,
                1.5706038300724876,
                1.1188968870953055
            ]
        },
        {
            "positions": [
                -1.0728966698889237,
                -0.1030632547025738,
                -1.7738532437938503,
                0.48442989492713695,
                1.5078118581742042,
                1.0733830541997529
            ]
        },
        {
            "positions": [
                -1.0269261533126604,
                -0.12937220733354415,
                -1.6280629797956816,
                0.5432591644946543,
                1.4450198862759207,
                1.0278692213042002
            ]
        },
        {
            "positions": [
                -0.9809556367363967,
                -0.15568115996451448,
                -1.4822727157975129,
                0.6020884340621717,
                1.382227914377637,
                0.9823553884086473
            ]
        },
        {
            "positions": [
                -0.9349851201601332,
                -0.18199011259548487,
                -1.3364824517993439,
                0.660917703629689,
                1.3194359424793536,
                0.9368415555130947
            ]
        },
        {
            "positions": [
                -0.8890146035838697,
                -0.2082990652264552,
                -1.1906921878011754,
                0.7197469731972064,
                1.2566439705810701,
                0.891327722617542
            ]
        },
        {
            "positions": [
                -0.8430440870076061,
                -0.23460801785742555,
                -1.0449019238030064,
                0.7785762427647238,
                1.1938519986827867,
                0.8458138897219892
            ]
        },
        {
            "positions": [
                -0.7970735704313426,
                -0.2609169704883959,
                -0.8991116598048376,
                0.837405512332241,
                1.1310600267845032,
                0.8003000568264365
            ]
        },
        {
            "positions": [
                -0.7511030538550791,
                -0.28722592311936623,
                -0.7533213958066689,
                0.8962347818997585,
                1.0682680548862198,
                0.7547862239308838
            ]
        },
        {
            "positions": [
                -0.7051325372788155,
                -0.3135348757503366,
                -0.6075311318085002,
                0.9550640514672759,
                1.0054760829879361,
                0.7092723910353311
            ]
        },
        {
            "positions": [
                -0.659162020702552,
                -0.33984382838130694,
                -0.4617408678103314,
                1.0138933210347931,
                0.9426841110896527,
                0.6637585581397784
            ]
        },
        {
            "positions": [
                -0.6131915041262885,
                -0.36615278101227733,
                -0.31595060381216267,
                1.0727225906023106,
                0.8798921391913691,
                0.6182447252442257
            ]
        },
        {
            "positions": [
                -0.5672209875500249,
                -0.39246173364324766,
                -0.17016033981399392,
                1.131551860169828,
                0.8171001672930857,
                0.5727308923486729
            ]
        },
        {
            "positions": [
                -0.5212504709737614,
                -0.418770686274218,
                -0.024370075815825176,
                1.1903811297373452,
                0.7543081953948022,
                0.5272170594531203
            ]
        },
        {
            "positions": [
                -0.47527995439749793,
                -0.44507963890518837,
                0.12142018818234379,
                1.2492103993048627,
                0.6915162234965186,
                0.4817032265575675
            ]
        },
        {
            "positions": [
                -0.4293094378212343,
                -0.47138859153615875,
                0.26721045218051276,
                1.30803966887238,
                0.6287242515982351,
                0.4361893936620147
            ]
        },
        {
            "positions": [
                -0.3833389212449708,
                -0.4976975441671291,
                0.4130007161786813,
                1.3668689384398973,
                0.5659322796999517,
                0.39067556076646204
            ]
        },
        {
            "positions": [
                -0.3373684046687072,
                -0.5240064967980995,
                0.5587909801768502,
                1.4256982080074148,
                0.5031403078016681,
                0.34516172787090926
            ]
        },
        {
            "positions": [
                -0.2913978880924437,
                -0.5503154494290698,
                0.7045812441750188,
                1.4845274775749322,
                0.4403483359033846,
                0.2996478949753566
            ]
        },
        {
            "positions": [
                -0.2454273715161801,
                -0.5766244020600402,
                0.8503715081731877,
                1.5433567471424496,
                0.3775563640051012,
                0.2541340620798038
            ]
        },
        {
            "positions": [
                -0.19945685493991672,
                -0.6029333546910105,
                0.9961617721713563,
                1.6021860167099669,
                0.3147643921068177,
                0.20862022918425116
            ]
        },
        {
            "positions": [
                -0.1534863383636531,
                -0.6292423073219808,
                1.1419520361695252,
                1.6610152862774843,
                0.25197242020853405,
                0.16310639628869839
            ]
        },
        {
            "positions": [
                -0.10751582178738972,
                -0.6555512599529512,
                1.2877423001676938,
                1.7198445558450015,
                0.1891804483102506,
                0.11759256339314583
            ]
        },
        {
            "positions": [
                -0.06154530521112611,
                -0.6818602125839215,
                1.4335325641658627,
                1.778673825412519,
                0.12638847641196715,
                0.07207873049759295
            ]
        },
        {
            "positions": [
                -0.015574788634862502,
                -0.7081691652148918,
                1.5793228281640312,
                1.8375030949800364,
                0.0635965045136837,
                0.026564897602040283
            ]
        },
        {
            "positions": [
                0.030395727941401107,
                -0.7344781178458624,
                1.7251130921622002,
                1.8963323645475538,
                0.0008045326154000332,
                -0.018948935293512603
            ]
        },
        {
            "positions": [
                0.0763662445176645,
                -0.7607870704768325,
                1.8709033561603687,
                1.955161634115071,
                -0.061987439282883194,
                -0.06446276818906505
            ]
        },
        {
            "positions": [
                0.12233676109392806,
                -0.7870960231078029,
                2.0166936201585375,
                2.0139909036825885,
                -0.12477941118116678,
                -0.10997660108461789
            ]
        }
    ]
}