{
    "goal": {
        "global_pose": {
            "orientation": {
                "w": 0.5084816217422485,
                "x": -0.49083608388900757,
                "y": 0.5182115435600281,
                "z": -0.4816462993621826
            },
            "position": {
                "x": 0.5540239810943604,
                "y": 0.030875300988554955,
                "z": 0.16403168439865112
            }
        },
        "name": "move_to_storage_A"
    },
    "id": "LazyPRMstar_move_to_storage_A_74",
    "joint_names": [
        "shoulder_pan_joint",
        "shoulder_lift_joint",
        "elbow_joint",
        "wrist_1_joint",
        "wrist_2_joint",
        "wrist_3_joint"
    ],
    "metrics": {
        "cart_traj_len": 0.35328696378639207,
        "distance_elbow_joint": 0.45007009769166073,
        "distance_shoulder_lift_joint": 0.2353830905702996,
        "distance_shoulder_pan_joint": 0.46399137631403037,
        "distance_wrist_1_joint": 0.23980475533703383,
        "distance_wrist_2_joint": 1.0911765516109637,
        "distance_wrist_3_joint": 0.10356900626685439,
        "smoothness": 4.440892098500626e-16,
        "time": 5.000300853,
        "traj_len": 1.607480910552546,
        "weighted_distance": 2.0302990413415825
    },
    "planner": "LazyPRMstar",
    "start": {
        "state": {
            "elbow_joint": 1.9715463870305268,
            "shoulder_lift_joint": -1.1394903361783484,
            "shoulder_pan_joint": 0.12281147578464417,
            "wrist_1_joint": -0.7804599489681411,
            "wrist_2_joint": 0.12958660307563738,
            "wrist_3_joint": -3.1924946282119055
        }
    },
    "waypoints": [
        {
            "positions": [
                0.12281147578464417,
                -1.1394903361783484,
                1.9715463870305268,
                -0.7804599489681411,
                0.12958660307563738,
                -3.1924946282119055
            ]
        },
        {
            "positions": [
                0.056526993454068405,
                -1.1731164919741055,
                2.0358421152721924,
                -0.8147177711591459,
                0.2854689675914893,
                -3.1776990558880693
            ]
        },
        {
            "positions": [
                -0.009757488876507361,
                -1.2067426477698626,
                2.1001378435138585,
                -0.8489755933501507,
                0.44135133210734123,
                -3.1629034835642327
            ]
        },
        {
            "positions": [
                -0.07604197120708313,
                -1.2403688035656197,
                2.164433571755524,
                -0.8832334155411555,
                0.5972336966231933,
                -3.1481079112403965
            ]
        },
        {
            "positions": [
                -0.14232645353765888,
                -1.2739949593613766,
                2.22872929999719,
                -0.9174912377321605,
                0.7531160611390452,
                -3.1333123389165602
            ]
        },
        {
            "positions": [
                -0.20861093586823465,
                -1.3076211151571338,
                2.293025028238856,
                -0.9517490599231653,
                0.9089984256548972,
                -3.118516766592724
            ]
        },
        {
            "positions": [
                -0.2748954181988104,
                -1.3412472709528909,
                2.3573207564805214,
                -0.9860068821141701,
                1.064880790170749,
                -3.1037211942688874
            ]
        },
        {
            "positions": [
                -0.3411799005293862,
                -1.374873426748648,
                2.4216164847221875,
                -1.020264704305175,
                1.2207631546866011,
                -3.088925621945051
            ]
        }
    ]
}