{
    "goal": {
        "global_pose": {
            "orientation": {
                "w": 0.5084816217422485,
                "x": -0.49083608388900757,
                "y": 0.5182115435600281,
                "z": -0.4816462993621826
            },
            "position": {
                "x": 0.5540239810943604,
                "y": 0.030875300988554955,
                "z": 0.16403168439865112
            }
        },
        "name": "move_to_storage_A"
    },
    "id": "LazyPRM_move_to_storage_A_48",
    "joint_names": [
        "shoulder_pan_joint",
        "shoulder_lift_joint",
        "elbow_joint",
        "wrist_1_joint",
        "wrist_2_joint",
        "wrist_3_joint"
    ],
    "metrics": {
        "cart_traj_len": 0.3524020605155898,
        "distance_elbow_joint": 0.44766237939413944,
        "distance_shoulder_lift_joint": 0.23415935582819225,
        "distance_shoulder_pan_joint": 0.4583179940656042,
        "distance_wrist_1_joint": 0.2362635877340934,
        "distance_wrist_2_joint": 1.1077167556901548,
        "distance_wrist_3_joint": 0.09720407398440001,
        "smoothness": 4.440892098500626e-16,
        "time": 0.011822116,
        "traj_len": 1.6066499764094804,
        "weighted_distance": 2.029707525258167
    },
    "planner": "LazyPRM",
    "start": {
        "state": {
            "elbow_joint": 1.9715463870305268,
            "shoulder_lift_joint": -1.1394903361783484,
            "shoulder_pan_joint": 0.12281147578464417,
            "wrist_1_joint": -0.7804599489681411,
            "wrist_2_joint": 0.12958660307563738,
            "wrist_3_joint": -3.1924946282119055
        }
    },
    "waypoints": [
        {
            "positions": [
                0.12281147578464417,
                -1.1394903361783484,
                1.9715463870305268,
                -0.7804599489681411,
                0.12958660307563738,
                -3.1924946282119055
            ]
        },
        {
            "positions": [
                0.05733747663241501,
                -1.172941672725233,
                2.0354981555154037,
                -0.8142118900730115,
                0.2878318538885166,
                -3.17860833192842
            ]
        },
        {
            "positions": [
                -0.008136522519814157,
                -1.2063930092721176,
                2.099449924000281,
                -0.8479638311778821,
                0.44607710470139583,
                -3.164722035644934
            ]
        },
        {
            "positions": [
                -0.07361052167204334,
                -1.2398443458190023,
                2.163401692485158,
                -0.8817157722827526,
                0.6043223555142752,
                -3.1508357393614483
            ]
        },
        {
            "positions": [
                -0.13908452082427247,
                -1.2732956823658867,
                2.227353460970035,
                -0.915467713387623,
                0.7625676063271544,
                -3.1369494430779628
            ]
        },
        {
            "positions": [
                -0.20455851997650165,
                -1.3067470189127715,
                2.2913052294549123,
                -0.9492196544924936,
                0.9208128571400337,
                -3.123063146794477
            ]
        },
        {
            "positions": [
                -0.27003251912873083,
                -1.340198355459656,
                2.3552569979397893,
                -0.9829715955973639,
                1.079058107952913,
                -3.109176850510991
            ]
        },
        {
            "positions": [
                -0.33550651828096,
                -1.3736496920065406,
                2.419208766424666,
                -1.0167235367022345,
                1.2373033587657922,
                -3.0952905542275055
            ]
        }
    ]
}