{
    "goal": {
        "global_pose": {
            "orientation": {
                "w": 0.7047431468963623,
                "x": -0.7094548344612122,
                "y": 0.0024358443915843964,
                "z": -0.0022348060738295317
            },
            "position": {
                "x": 0.6094750761985779,
                "y": 0.3671506643295288,
                "z": 0.19426114857196808
            }
        },
        "name": "move_to_magneteinheit_A"
    },
    "id": "LazyPRMstar_move_to_magneteinheit_A_1",
    "joint_names": [
        "shoulder_pan_joint",
        "shoulder_lift_joint",
        "elbow_joint",
        "wrist_1_joint",
        "wrist_2_joint",
        "wrist_3_joint"
    ],
    "metrics": {
        "cart_traj_len": 1.8769442126307598,
        "distance_elbow_joint": 3.9196767827744035,
        "distance_shoulder_lift_joint": 0.7023968899516494,
        "distance_shoulder_pan_joint": 1.2407687412916881,
        "distance_wrist_1_joint": 1.5059944881525373,
        "distance_wrist_2_joint": 1.707710342683246,
        "distance_wrist_3_joint": 1.1332516494897218,
        "smoothness": 2.631639764355545e-16,
        "time": 5.000979859,
        "traj_len": 3.1952775926894437,
        "weighted_distance": 3.9610613507188286
    },
    "planner": "LazyPRMstar",
    "start": {
        "state": {
            "elbow_joint": -1.919643507792019,
            "shoulder_lift_joint": -0.07675430207160344,
            "shoulder_pan_joint": -1.1188671864651873,
            "wrist_1_joint": 0.42560062535961957,
            "wrist_2_joint": 1.5706038300724876,
            "wrist_3_joint": 1.1188968870953055
        }
    },
    "waypoints": [
        {
            "positions": [
                -1.1188671864651873,
                -0.07675430207160344,
                -1.919643507792019,
                0.42560062535961957,
                1.5706038300724876,
                1.1188968870953055
            ]
        },
        {
            "positions": [
                -1.0711453118001224,
                -0.1037695670697438,
                -1.768886708454542,
                0.48352349028856334,
                1.504922663046209,
                1.0753102851918548
            ]
        },
        {
            "positions": [
                -1.0234234371350575,
                -0.13078483206788416,
                -1.618129909117065,
                0.5414463552175071,
                1.4392414960199302,
                1.0317236832884038
            ]
        },
        {
            "positions": [
                -0.9757015624699925,
                -0.15780009706602455,
                -1.467373109779588,
                0.5993692201464508,
                1.3735603289936515,
                0.988137081384953
            ]
        },
        {
            "positions": [
                -0.9279796878049276,
                -0.1848153620641649,
                -1.316616310442111,
                0.6572920850753945,
                1.3078791619673729,
                0.9445504794815022
            ]
        },
        {
            "positions": [
                -0.8802578131398627,
                -0.21183062706230527,
                -1.165859511104634,
                0.7152149500043383,
                1.2421979949410942,
                0.9009638775780513
            ]
        },
        {
            "positions": [
                -0.8325359384747978,
                -0.23884589206044565,
                -1.0151027117671567,
                0.773137814933282,
                1.1765168279148155,
                0.8573772756746005
            ]
        },
        {
            "positions": [
                -0.7848140638097328,
                -0.265861157058586,
                -0.8643459124296797,
                0.8310606798622258,
                1.1108356608885368,
                0.8137906737711498
            ]
        },
        {
            "positions": [
                -0.7370921891446679,
                -0.29287642205672637,
                -0.7135891130922025,
                0.8889835447911696,
                1.045154493862258,
                0.7702040718676988
            ]
        },
        {
            "positions": [
                -0.6893703144796031,
                -0.3198916870548667,
                -0.5628323137547255,
                0.9469064097201132,
                0.9794733268359793,
                0.726617469964248
            ]
        },
        {
            "positions": [
                -0.6416484398145381,
                -0.3469069520530071,
                -0.41207551441724855,
                1.004829274649057,
                0.9137921598097006,
                0.6830308680607972
            ]
        },
        {
            "positions": [
                -0.5939265651494732,
                -0.3739222170511475,
                -0.26131871507977156,
                1.0627521395780006,
                0.848110992783422,
                0.6394442661573463
            ]
        },
        {
            "positions": [
                -0.5462046904844082,
                -0.40093748204928786,
                -0.11056191574229435,
                1.1206750045069445,
                0.7824298257571433,
                0.5958576642538954
            ]
        },
        {
            "positions": [
                -0.4984828158193433,
                -0.4279527470474282,
                0.04019488359518264,
                1.1785978694358883,
                0.7167486587308646,
                0.5522710623504447
            ]
        },
        {
            "positions": [
                -0.45076094115427834,
                -0.4549680120455685,
                0.19095168293265963,
                1.236520734364832,
                0.6510674917045859,
                0.5086844604469939
            ]
        },
        {
            "positions": [
                -0.4030390664892135,
                -0.4819832770437089,
                0.3417084822701366,
                1.2944435992937757,
                0.5853863246783073,
                0.465097858543543
            ]
        },
        {
            "positions": [
                -0.35531719182414845,
                -0.5089985420418492,
                0.49246528160761405,
                1.3523664642227196,
                0.5197051576520284,
                0.42151125664009215
            ]
        },
        {
            "positions": [
                -0.3075953171590836,
                -0.5360138070399897,
                0.643222080945091,
                1.4102893291516632,
                0.4540239906257497,
                0.3779246547366413
            ]
        },
        {
            "positions": [
                -0.25987344249401867,
                -0.56302907203813,
                0.793978880282568,
                1.468212194080607,
                0.38834282359947103,
                0.3343380528331905
            ]
        },
        {
            "positions": [
                -0.21215156782895372,
                -0.5900443370362705,
                0.944735679620045,
                1.5261350590095506,
                0.32266165657319257,
                0.29075145092973964
            ]
        },
        {
            "positions": [
                -0.16442969316388878,
                -0.6170596020344108,
                1.095492478957522,
                1.5840579239384946,
                0.25698048954691366,
                0.24716484902628877
            ]
        },
        {
            "positions": [
                -0.11670781849882395,
                -0.6440748670325511,
                1.246249278294999,
                1.6419807888674383,
                0.19129932252063497,
                0.2035782471228379
            ]
        },
        {
            "positions": [
                -0.068985943833759,
                -0.6710901320306915,
                1.397006077632476,
                1.6999036537963819,
                0.1256181554943563,
                0.15999164521938714
            ]
        },
        {
            "positions": [
                -0.021264069168694055,
                -0.6981053970288318,
                1.547762876969953,
                1.7578265187253257,
                0.0599369884680776,
                0.11640504331593626
            ]
        },
        {
            "positions": [
                0.02645780549637089,
                -0.7251206620269723,
                1.6985196763074304,
                1.8157493836542695,
                -0.005744178558201085,
                0.07281844141248528
            ]
        },
        {
            "positions": [
                0.07417968016143583,
                -0.7521359270251127,
                1.8492764756449074,
                1.8736722485832134,
                -0.07142534558447977,
                0.02923183950903452
            ]
        },
        {
            "positions": [
                0.12190155482650068,
                -0.7791511920232529,
                2.000033274982384,
                1.931595113512157,
                -0.13710651261075854,
                -0.014354762394416262
            ]
        }
    ]
}