{
    "goal": {
        "global_pose": {
            "orientation": {
                "w": 0.7031023502349854,
                "x": -0.7110244035720825,
                "y": 0.007748599164187908,
                "z": 0.005598929710686207
            },
            "position": {
                "x": 0.11585023208521307,
                "y": 0.44412534475326537,
                "z": 0.3711530566215515
            }
        },
        "name": "move_to_auspresseinheit_A"
    },
    "id": "LazyPRM_move_to_auspresseinheit_A_58",
    "joint_names": [
        "shoulder_pan_joint",
        "shoulder_lift_joint",
        "elbow_joint",
        "wrist_1_joint",
        "wrist_2_joint",
        "wrist_3_joint"
    ],
    "metrics": {
        "cart_traj_len": 0.7105454061249614,
        "distance_elbow_joint": 0.13377969031437464,
        "distance_shoulder_lift_joint": 0.5345636123837099,
        "distance_shoulder_pan_joint": 1.043926761457215,
        "distance_wrist_1_joint": 0.5530052013108493,
        "distance_wrist_2_joint": 1.9763360281918998,
        "distance_wrist_3_joint": 0.28839967628252117,
        "smoothness": 1.051249394588216,
        "time": 0.073275454,
        "traj_len": 2.1283822424415617,
        "weighted_distance": 2.763358744717805
    },
    "planner": "LazyPRM",
    "start": {
        "state": {
            "elbow_joint": 2.422574709923281,
            "shoulder_lift_joint": -1.3736533754116391,
            "shoulder_pan_joint": -0.33786336945926293,
            "wrist_1_joint": -1.0288603412921917,
            "wrist_2_joint": 1.2330224858903978,
            "wrist_3_joint": -3.094022268022082
        }
    },
    "waypoints": [
        {
            "positions": [
                -0.33786336945926293,
                -1.3736533754116391,
                2.422574709923281,
                -1.0288603412921917,
                1.2330224858903978,
                -3.094022268022082
            ]
        },
        {
            "positions": [
                -0.2565940664697356,
                -1.4339051679235753,
                2.4091220565427043,
                -1.0270438164491253,
                1.0243965074522605,
                -3.0736597358952373
            ]
        },
        {
            "positions": [
                -0.17532476348020823,
                -1.4941569604355114,
                2.395669403162127,
                -1.0252272916060592,
                0.8157705290141232,
                -3.0532972037683925
            ]
        },
        {
            "positions": [
                -0.09405546049068086,
                -1.5544087529474475,
                2.3822167497815503,
                -1.0234107667629928,
                0.6071445505759858,
                -3.0329346716415477
            ]
        },
        {
            "positions": [
                -0.012786157501153528,
                -1.6146605454593834,
                2.3687640964009735,
                -1.0215942419199264,
                0.3985185721378486,
                -3.0125721395147025
            ]
        },
        {
            "positions": [
                0.06848314548837386,
                -1.6749123379713196,
                2.3553114430203963,
                -1.0197777170768603,
                0.18989259369971112,
                -2.9922096073878577
            ]
        },
        {
            "positions": [
                0.14975244847790117,
                -1.7351641304832557,
                2.3418587896398195,
                -1.0179611922337939,
                -0.018733384738426187,
                -2.971847075261013
            ]
        },
        {
            "positions": [
                0.24247093906457634,
                -1.7640062733686046,
                2.3507027513116383,
                -0.927610183525052,
                0.10202997485541988,
                -2.9995511558479215
            ]
        },
        {
            "positions": [
                0.33518942965125154,
                -1.7928484162539535,
                2.359546712983457,
                -0.8372591748163101,
                0.22279333444926597,
                -3.02725523643483
            ]
        },
        {
            "positions": [
                0.4279079202379267,
                -1.8216905591393022,
                2.3683906746552763,
                -0.7469081661075682,
                0.34355669404311207,
                -3.054959317021739
            ]
        },
        {
            "positions": [
                0.5206264108246018,
                -1.8505327020246511,
                2.377234636327095,
                -0.6565571573988263,
                0.4643200536369581,
                -3.0826633976086475
            ]
        },
        {
            "positions": [
                0.6133449014112771,
                -1.87937484491,
                2.386078597998914,
                -0.5662061486900843,
                0.5850834132308042,
                -3.110367478195556
            ]
        },
        {
            "positions": [
                0.7060633919979522,
                -1.908216987795349,
                2.3949225596707326,
                -0.4758551399813425,
                0.7058467728246502,
                -3.138071558782465
            ]
        }
    ]
}