{
    "goal": {
        "global_pose": {
            "orientation": {
                "w": 0.5084816217422485,
                "x": -0.49083608388900757,
                "y": 0.5182115435600281,
                "z": -0.4816462993621826
            },
            "position": {
                "x": 0.5540239810943604,
                "y": 0.030875300988554955,
                "z": 0.16403168439865112
            }
        },
        "name": "move_to_storage_A"
    },
    "id": "LazyPRMstar_move_to_storage_A_109",
    "joint_names": [
        "shoulder_pan_joint",
        "shoulder_lift_joint",
        "elbow_joint",
        "wrist_1_joint",
        "wrist_2_joint",
        "wrist_3_joint"
    ],
    "metrics": {
        "cart_traj_len": 0.353697105540822,
        "distance_elbow_joint": 0.45197394244479616,
        "distance_shoulder_lift_joint": 0.23554730067714913,
        "distance_shoulder_pan_joint": 0.4642409653375647,
        "distance_wrist_1_joint": 0.24617129371559787,
        "distance_wrist_2_joint": 1.0936106724525285,
        "distance_wrist_3_joint": 0.10388178601554898,
        "smoothness": 0.0,
        "time": 5.000206373,
        "traj_len": 1.6110325759099924,
        "weighted_distance": 2.035429069961027
    },
    "planner": "LazyPRMstar",
    "start": {
        "state": {
            "elbow_joint": 1.9715463870305268,
            "shoulder_lift_joint": -1.1394903361783484,
            "shoulder_pan_joint": 0.12281147578464417,
            "wrist_1_joint": -0.7804599489681411,
            "wrist_2_joint": 0.12958660307563738,
            "wrist_3_joint": -3.1924946282119055
        }
    },
    "waypoints": [
        {
            "positions": [
                0.12281147578464417,
                -1.1394903361783484,
                1.9715463870305268,
                -0.7804599489681411,
                0.12958660307563738,
                -3.1924946282119055
            ]
        },
        {
            "positions": [
                0.05649133787927779,
                -1.1731399505607982,
                2.036114093094069,
                -0.8156272766417979,
                0.2858166991402843,
                -3.177654373066827
            ]
        },
        {
            "positions": [
                -0.009828800026088588,
                -1.206789564943248,
                2.1006817991576114,
                -0.8507946043154547,
                0.4420467952049312,
                -3.162814117921749
            ]
        },
        {
            "positions": [
                -0.07614893793145498,
                -1.240439179325698,
                2.1652495052211536,
                -0.8859619319891116,
                0.5982768912695782,
                -3.1479738627766705
            ]
        },
        {
            "positions": [
                -0.14246907583682134,
                -1.274088793708148,
                2.229817211284696,
                -0.9211292596627685,
                0.754506987334225,
                -3.1331336076315917
            ]
        },
        {
            "positions": [
                -0.20878921374218773,
                -1.3077384080905978,
                2.2943849173482382,
                -0.9562965873364253,
                0.910737083398872,
                -3.1182933524865133
            ]
        },
        {
            "positions": [
                -0.2751093516475541,
                -1.3413880224730477,
                2.3589526234117804,
                -0.9914639150100821,
                1.066967179463519,
                -3.103453097341435
            ]
        },
        {
            "positions": [
                -0.3414294895529205,
                -1.3750376368554975,
                2.423520329475323,
                -1.026631242683739,
                1.223197275528166,
                -3.0886128421963566
            ]
        }
    ]
}