{
    "goal": {
        "global_pose": {
            "orientation": {
                "w": 0.7031023502349854,
                "x": -0.7110244035720825,
                "y": 0.007748599164187908,
                "z": 0.005598929710686207
            },
            "position": {
                "x": 0.11585023208521307,
                "y": 0.44412534475326537,
                "z": 0.3711530566215515
            }
        },
        "name": "move_to_auspresseinheit_A"
    },
    "id": "LazyPRM_move_to_auspresseinheit_A_147",
    "joint_names": [
        "shoulder_pan_joint",
        "shoulder_lift_joint",
        "elbow_joint",
        "wrist_1_joint",
        "wrist_2_joint",
        "wrist_3_joint"
    ],
    "metrics": {
        "cart_traj_len": 0.6728510451478763,
        "distance_elbow_joint": 0.464492853169451,
        "distance_shoulder_lift_joint": 0.6005242142349456,
        "distance_shoulder_pan_joint": 1.048453729143178,
        "distance_wrist_1_joint": 0.5710304878119632,
        "distance_wrist_2_joint": 1.5554587215953366,
        "distance_wrist_3_joint": 1.033809646824126,
        "smoothness": 1.0459107660159732,
        "time": 0.138010168,
        "traj_len": 2.296468953149378,
        "weighted_distance": 3.076991738018572
    },
    "planner": "LazyPRM",
    "start": {
        "state": {
            "elbow_joint": 2.422574709923281,
            "shoulder_lift_joint": -1.3736533754116391,
            "shoulder_pan_joint": -0.33786336945926293,
            "wrist_1_joint": -1.0288603412921917,
            "wrist_2_joint": 1.2330224858903978,
            "wrist_3_joint": -3.094022268022082
        }
    },
    "waypoints": [
        {
            "positions": [
                -0.33786336945926293,
                -1.3736533754116391,
                2.422574709923281,
                -1.0288603412921917,
                1.2330224858903978,
                -3.094022268022082
            ]
        },
        {
            "positions": [
                -0.2708016190062942,
                -1.4444477659090822,
                2.449614185807918,
                -1.025201296602989,
                1.1038367266764424,
                -3.032520421781913
            ]
        },
        {
            "positions": [
                -0.20373986855332538,
                -1.515242156406525,
                2.4766536616925543,
                -1.0215422519137864,
                0.9746509674624872,
                -2.9710185755417435
            ]
        },
        {
            "positions": [
                -0.1366781181003566,
                -1.5860365469039681,
                2.5036931375771907,
                -1.017883207224584,
                0.8454652082485319,
                -2.9095167293015742
            ]
        },
        {
            "positions": [
                -0.06961636764738782,
                -1.656830937401411,
                2.5307326134618275,
                -1.0142241625353814,
                0.7162794490345766,
                -2.8480148830614045
            ]
        },
        {
            "positions": [
                -0.0025546171944190177,
                -1.727625327898854,
                2.5577720893464644,
                -1.0105651178461788,
                0.5870936898206214,
                -2.786513036821235
            ]
        },
        {
            "positions": [
                0.06450713325854973,
                -1.798419718396297,
                2.584811565231101,
                -1.0069060731569763,
                0.457907930606666,
                -2.725011190581066
            ]
        },
        {
            "positions": [
                0.13156888371151848,
                -1.8692141088937402,
                2.611851041115737,
                -1.0032470284677737,
                0.32872217139271076,
                -2.6635093443408966
            ]
        },
        {
            "positions": [
                0.19863063416448729,
                -1.940008499391183,
                2.638890517000374,
                -0.999587983778571,
                0.19953641217875545,
                -2.6020074981007273
            ]
        },
        {
            "positions": [
                0.27176773781011987,
                -1.9351272007832685,
                2.6034366532728943,
                -0.9221939651645221,
                0.27410393330499755,
                -2.6794067662296945
            ]
        },
        {
            "positions": [
                0.3449048414557524,
                -1.930245902175354,
                2.5679827895454146,
                -0.8447999465504732,
                0.3486714544312396,
                -2.756806034358662
            ]
        },
        {
            "positions": [
                0.4180419451013849,
                -1.9253646035674394,
                2.532528925817935,
                -0.7674059279364243,
                0.4232389755574817,
                -2.834205302487629
            ]
        },
        {
            "positions": [
                0.4911790487470175,
                -1.920483304959525,
                2.497075062090455,
                -0.6900119093223753,
                0.4978064966837238,
                -2.9116045706165963
            ]
        },
        {
            "positions": [
                0.5643161523926501,
                -1.9156020063516104,
                2.4616211983629754,
                -0.6126178907083264,
                0.5723740178099659,
                -2.989003838745564
            ]
        },
        {
            "positions": [
                0.6374532560382826,
                -1.9107207077436958,
                2.4261673346354957,
                -0.5352238720942775,
                0.6469415389362079,
                -3.066403106874531
            ]
        },
        {
            "positions": [
                0.7105903596839152,
                -1.9058394091357813,
                2.390713470908016,
                -0.4578298534802285,
                0.72150906006245,
                -3.1438023750034985
            ]
        }
    ]
}