{
    "goal": {
        "global_pose": {
            "orientation": {
                "w": -0.00223480608172531,
                "x": 0.0024358444001904467,
                "y": 0.7094548369677653,
                "z": -0.704743149386269
            },
            "position": {
                "x": 0.6205249238014221,
                "y": -0.6371506643295288,
                "z": 0.19426114857196808
            }
        },
        "name": "move_to_magneteinheit_B"
    },
    "id": "LBKPIECE_move_to_magneteinheit_B_44",
    "joint_names": [
        "shoulder_pan_joint",
        "shoulder_lift_joint",
        "elbow_joint",
        "wrist_1_joint",
        "wrist_2_joint",
        "wrist_3_joint"
    ],
    "metrics": {
        "cart_traj_len": 3.5668935538115005,
        "distance_elbow_joint": 4.437753185690424,
        "distance_shoulder_lift_joint": 2.5590026929467076,
        "distance_shoulder_pan_joint": 1.9881279293695777,
        "distance_wrist_1_joint": 3.79522028607414,
        "distance_wrist_2_joint": 1.1772847101807742,
        "distance_wrist_3_joint": 1.903053743920284,
        "smoothness": 0.7086531961731968,
        "time": 0.764968485,
        "traj_len": 3.9825171121015797,
        "weighted_distance": 4.963774272897328
    },
    "planner": "LBKPIECE",
    "start": {
        "state": {
            "elbow_joint": 2.39358713078474,
            "shoulder_lift_joint": -1.908514104345545,
            "shoulder_pan_joint": 0.7066247066606129,
            "wrist_1_joint": -0.4678290933515497,
            "wrist_2_joint": 0.7096259083745334,
            "wrist_3_joint": -3.1358149277392293
        }
    },
    "waypoints": [
        {
            "positions": [
                0.7066247066606129,
                -1.908514104345545,
                2.39358713078474,
                -0.4678290933515497,
                0.7096259083745334,
                -3.1358149277392293
            ]
        },
        {
            "positions": [
                0.7403237030216188,
                -1.930411983858497,
                2.3646048308029126,
                -0.3945772232104906,
                0.6738313843914253,
                -2.9773078922110288
            ]
        },
        {
            "positions": [
                0.7740226993826246,
                -1.9523098633714493,
                2.335622530821085,
                -0.32132535306943155,
                0.6380368604083172,
                -2.818800856682828
            ]
        },
        {
            "positions": [
                0.8077216957436304,
                -1.9742077428844014,
                2.3066402308392577,
                -0.24807348292837245,
                0.6022423364252091,
                -2.660293821154627
            ]
        },
        {
            "positions": [
                0.8414206921046362,
                -1.9961056223973535,
                2.27765793085743,
                -0.1748216127873134,
                0.566447812442101,
                -2.501786785626427
            ]
        },
        {
            "positions": [
                0.875119688465642,
                -2.0180035019103055,
                2.2486756308756024,
                -0.10156974264625424,
                0.5306532884589927,
                -2.343279750098226
            ]
        },
        {
            "positions": [
                0.9088186848266478,
                -2.039901381423258,
                2.219693330893775,
                -0.028317872505195168,
                0.49485876447588467,
                -2.1847727145700255
            ]
        },
        {
            "positions": [
                0.9772141813955355,
                -1.9942714580113208,
                2.07860574975176,
                -0.13572058112422594,
                0.4708072256049701,
                -2.1894745637808
            ]
        },
        {
            "positions": [
                1.045609677964423,
                -1.9486415345993835,
                1.9375181686097451,
                -0.24312328974325673,
                0.4467556867340555,
                -2.1941764129915744
            ]
        },
        {
            "positions": [
                1.1140051745333106,
                -1.9030116111874464,
                1.79643058746773,
                -0.3505259983622875,
                0.422704147863141,
                -2.198878262202349
            ]
        },
        {
            "positions": [
                1.1824006711021982,
                -1.8573816877755094,
                1.655343006325715,
                -0.4579287069813183,
                0.3986526089922264,
                -2.2035801114131233
            ]
        },
        {
            "positions": [
                1.250796167671086,
                -1.811751764363572,
                1.5142554251837002,
                -0.565331415600349,
                0.37460107012131183,
                -2.2082819606238977
            ]
        },
        {
            "positions": [
                1.3191916642399735,
                -1.766121840951635,
                1.3731678440416852,
                -0.6727341242193797,
                0.35054953125039723,
                -2.212983809834672
            ]
        },
        {
            "positions": [
                1.3875871608088612,
                -1.720491917539698,
                1.23208026289967,
                -0.7801368328384106,
                0.3264979923794826,
                -2.2176856590454466
            ]
        },
        {
            "positions": [
                1.4559826573777488,
                -1.674861994127761,
                1.0909926817576552,
                -0.8875395414574414,
                0.30244645350856814,
                -2.222387508256221
            ]
        },
        {
            "positions": [
                1.5243781539466363,
                -1.6292320707158237,
                0.9499051006156403,
                -0.9949422500764721,
                0.27839491463765353,
                -2.2270893574669954
            ]
        },
        {
            "positions": [
                1.5927736505155239,
                -1.5836021473038866,
                0.8088175194736253,
                -1.102344958695503,
                0.25434337576673893,
                -2.23179120667777
            ]
        },
        {
            "positions": [
                1.6611691470844114,
                -1.5379722238919493,
                0.6677299383316104,
                -1.2097476673145338,
                0.2302918368958244,
                -2.2364930558885443
            ]
        },
        {
            "positions": [
                1.729564643653299,
                -1.4923423004800123,
                0.5266423571895955,
                -1.3171503759335643,
                0.20624029802490984,
                -2.2411949050993187
            ]
        },
        {
            "positions": [
                1.7979601402221868,
                -1.4467123770680752,
                0.38555477604758037,
                -1.4245530845525953,
                0.18218875915399524,
                -2.2458967543100927
            ]
        },
        {
            "positions": [
                1.8663556367910745,
                -1.401082453656138,
                0.24446719490556523,
                -1.5319557931716261,
                0.15813722028308064,
                -2.250598603520867
            ]
        },
        {
            "positions": [
                1.9347511333599616,
                -1.355452530244201,
                0.10337961376355054,
                -1.6393585017906567,
                0.13408568141216615,
                -2.2553004527316416
            ]
        },
        {
            "positions": [
                2.0031466299288496,
                -1.3098226068322638,
                -0.0377079673784646,
                -1.7467612104096877,
                0.11003414254125155,
                -2.260002301942416
            ]
        },
        {
            "positions": [
                2.071542126497737,
                -1.2641926834203265,
                -0.17879554852047974,
                -1.8541639190287185,
                0.08598260367033694,
                -2.2647041511531905
            ]
        },
        {
            "positions": [
                2.1399376230666247,
                -1.2185627600083895,
                -0.31988312966249444,
                -1.961566627647749,
                0.0619310647994224,
                -2.269406000363965
            ]
        },
        {
            "positions": [
                2.2083331196355123,
                -1.1729328365964524,
                -0.46097071080450913,
                -2.06896933626678,
                0.03787952592850785,
                -2.2741078495747393
            ]
        },
        {
            "positions": [
                2.2767286162044,
                -1.1273029131845154,
                -0.6020582919465243,
                -2.176372044885811,
                0.01382798705759325,
                -2.2788096987855138
            ]
        },
        {
            "positions": [
                2.3451241127732874,
                -1.0816729897725783,
                -0.743145873088539,
                -2.2837747535048414,
                -0.010223551813321297,
                -2.283511547996288
            ]
        },
        {
            "positions": [
                2.413519609342175,
                -1.036043066360641,
                -0.8842334542305541,
                -2.3911774621238724,
                -0.0342750906842359,
                -2.2882133972070626
            ]
        },
        {
            "positions": [
                2.481915105911063,
                -0.9904131429487038,
                -1.0253210353725692,
                -2.498580170742903,
                -0.0583266295551505,
                -2.292915246417837
            ]
        },
        {
            "positions": [
                2.55031060247995,
                -0.9447832195367669,
                -1.166408616514584,
                -2.6059828793619335,
                -0.08237816842606499,
                -2.2976170956286115
            ]
        },
        {
            "positions": [
                2.618706099048838,
                -0.8991532961248296,
                -1.307496197656599,
                -2.7133855879809645,
                -0.10642970729697956,
                -2.302318944839386
            ]
        },
        {
            "positions": [
                2.616605367967671,
                -1.0482813507760864,
                -1.375102709339046,
                -2.6544887986286363,
                -0.11236847003900659,
                -2.373910047463154
            ]
        },
        {
            "positions": [
                2.6145046368865037,
                -1.1974094054273432,
                -1.442709221021493,
                -2.5955920092763076,
                -0.11830723278103361,
                -2.445501150086922
            ]
        },
        {
            "positions": [
                2.6124039058053365,
                -1.3465374600785998,
                -1.5103157327039396,
                -2.5366952199239794,
                -0.12424599552306062,
                -2.5170922527106905
            ]
        },
        {
            "positions": [
                2.6103031747241694,
                -1.4956655147298565,
                -1.5779222443863865,
                -2.477798430571651,
                -0.13018475826508763,
                -2.5886833553344584
            ]
        },
        {
            "positions": [
                2.6082024436430022,
                -1.6447935693811133,
                -1.6455287560688334,
                -2.4189016412193225,
                -0.13612352100711467,
                -2.6602744579582263
            ]
        },
        {
            "positions": [
                2.606101712561835,
                -1.7939216240323699,
                -1.71313526775128,
                -2.3600048518669943,
                -0.14206228374914168,
                -2.7318655605819946
            ]
        },
        {
            "positions": [
                2.604000981480668,
                -1.9430496786836267,
                -1.780741779433727,
                -2.3011080625146656,
                -0.1480010464911687,
                -2.803456663205763
            ]
        },
        {
            "positions": [
                2.601900250399501,
                -2.0921777333348834,
                -1.848348291116174,
                -2.2422112731623374,
                -0.15393980923319572,
                -2.875047765829531
            ]
        },
        {
            "positions": [
                2.6216471465101727,
                -2.1234586977883874,
                -1.7830757031863378,
                -2.3087002848068003,
                -0.258512806757544,
                -2.9622932589933892
            ]
        },
        {
            "positions": [
                2.641394042620844,
                -2.1547396622418917,
                -1.7178031152565016,
                -2.3751892964512633,
                -0.3630858042818923,
                -3.0495387521572472
            ]
        },
        {
            "positions": [
                2.661140938731516,
                -2.1860206266953957,
                -1.6525305273266655,
                -2.4416783080957263,
                -0.46765880180624064,
                -3.1367842453211057
            ]
        }
    ]
}