{
    "goal": {
        "global_pose": {
            "orientation": {
                "w": 0.7031023502349854,
                "x": -0.7110244035720825,
                "y": 0.007748599164187908,
                "z": 0.005598929710686207
            },
            "position": {
                "x": 0.11585023208521307,
                "y": 0.44412534475326537,
                "z": 0.3711530566215515
            }
        },
        "name": "move_to_auspresseinheit_A"
    },
    "id": "LBKPIECE_move_to_auspresseinheit_A_83",
    "joint_names": [
        "shoulder_pan_joint",
        "shoulder_lift_joint",
        "elbow_joint",
        "wrist_1_joint",
        "wrist_2_joint",
        "wrist_3_joint"
    ],
    "metrics": {
        "cart_traj_len": 0.7248033846371829,
        "distance_elbow_joint": 0.16204661477751303,
        "distance_shoulder_lift_joint": 0.5928924459226825,
        "distance_shoulder_pan_joint": 1.0443545782802452,
        "distance_wrist_1_joint": 0.6369094130951736,
        "distance_wrist_2_joint": 0.5175759602903574,
        "distance_wrist_3_joint": 0.15655224752125285,
        "smoothness": 0.7745551618939612,
        "time": 0.502761447,
        "traj_len": 1.7636131264784871,
        "weighted_distance": 2.139607704303586
    },
    "planner": "LBKPIECE",
    "start": {
        "state": {
            "elbow_joint": 2.422574709923281,
            "shoulder_lift_joint": -1.3736533754116391,
            "shoulder_pan_joint": -0.33786336945926293,
            "wrist_1_joint": -1.0288603412921917,
            "wrist_2_joint": 1.2330224858903978,
            "wrist_3_joint": -3.094022268022082
        }
    },
    "waypoints": [
        {
            "positions": [
                -0.33786336945926293,
                -1.3736533754116391,
                2.422574709923281,
                -1.0288603412921917,
                1.2330224858903978,
                -3.094022268022082
            ]
        },
        {
            "positions": [
                -0.21085364314678615,
                -1.454086662716757,
                2.408775784917688,
                -0.9421929215166516,
                1.160579117934283,
                -3.0859953254068535
            ]
        },
        {
            "positions": [
                -0.08384391683430936,
                -1.5345199500218747,
                2.3949768599120955,
                -0.8555255017411114,
                1.0881357499781683,
                -3.0779683827916244
            ]
        },
        {
            "positions": [
                0.043165809478167394,
                -1.6149532373269926,
                2.3811779349065025,
                -0.7688580819655713,
                1.0156923820220534,
                -3.069941440176396
            ]
        },
        {
            "positions": [
                0.1701755357906442,
                -1.6953865246321103,
                2.3673790099009095,
                -0.6821906621900311,
                0.9432490140659386,
                -3.0619144975611667
            ]
        },
        {
            "positions": [
                0.2971852621031211,
                -1.7758198119372282,
                2.3535800848953166,
                -0.595523242414491,
                0.8708056461098238,
                -3.053887554945938
            ]
        },
        {
            "positions": [
                0.4241949884155977,
                -1.8562530992423458,
                2.339781159889724,
                -0.5088558226389508,
                0.7983622781537091,
                -3.045860612330709
            ]
        },
        {
            "positions": [
                0.5512047147280746,
                -1.9366863865474637,
                2.325982234884131,
                -0.4221884028634107,
                0.7259189101975942,
                -3.0378336697154804
            ]
        },
        {
            "positions": [
                0.7064912088209823,
                -1.9068269517606058,
                2.391436374622494,
                -0.45242587752980323,
                0.7154465256000404,
                -3.1381973189301315
            ]
        }
    ]
}