{
    "goal": {
        "global_pose": {
            "orientation": {
                "w": 0.5084816217422485,
                "x": -0.49083608388900757,
                "y": 0.5182115435600281,
                "z": -0.4816462993621826
            },
            "position": {
                "x": 0.5540239810943604,
                "y": 0.030875300988554955,
                "z": 0.16403168439865112
            }
        },
        "name": "move_to_storage_A"
    },
    "id": "LBKPIECE_move_to_storage_A_117",
    "joint_names": [
        "shoulder_pan_joint",
        "shoulder_lift_joint",
        "elbow_joint",
        "wrist_1_joint",
        "wrist_2_joint",
        "wrist_3_joint"
    ],
    "metrics": {
        "cart_traj_len": 0.35216501934610206,
        "distance_elbow_joint": 0.44926832160042585,
        "distance_shoulder_lift_joint": 0.23506416983031375,
        "distance_shoulder_pan_joint": 0.4614051977517268,
        "distance_wrist_1_joint": 0.23742794201401363,
        "distance_wrist_2_joint": 1.0936117994204968,
        "distance_wrist_3_joint": 0.0979581604350992,
        "smoothness": 8.881784232165597e-16,
        "time": 0.39398061900000003,
        "traj_len": 1.6045982646918437,
        "weighted_distance": 2.025263354074424
    },
    "planner": "LBKPIECE",
    "start": {
        "state": {
            "elbow_joint": 1.9715463870305268,
            "shoulder_lift_joint": -1.1394903361783484,
            "shoulder_pan_joint": 0.12281147578464417,
            "wrist_1_joint": -0.7804599489681411,
            "wrist_2_joint": 0.12958660307563738,
            "wrist_3_joint": -3.1924946282119055
        }
    },
    "waypoints": [
        {
            "positions": [
                0.12281147578464417,
                -1.1394903361783484,
                1.9715463870305268,
                -0.7804599489681411,
                0.12958660307563738,
                -3.1924946282119055
            ]
        },
        {
            "positions": [
                0.05689644753439749,
                -1.1730709318683932,
                2.0357275758305877,
                -0.8143782263987145,
                0.28581686013570834,
                -3.1785006052926055
            ]
        },
        {
            "positions": [
                -0.009018580715849198,
                -1.206651527558438,
                2.0999087646306482,
                -0.8482965038292878,
                0.44204711719577927,
                -3.164506582373306
            ]
        },
        {
            "positions": [
                -0.07493360896609587,
                -1.2402321232484828,
                2.164089953430709,
                -0.8822147812598612,
                0.5982773742558503,
                -3.1505125594540058
            ]
        },
        {
            "positions": [
                -0.14084863721634255,
                -1.2738127189385278,
                2.22827114223077,
                -0.9161330586904346,
                0.7545076313159212,
                -3.136518536534706
            ]
        },
        {
            "positions": [
                -0.20676366546658925,
                -1.3073933146285726,
                2.292452331030831,
                -0.9500513361210079,
                0.9107378883759922,
                -3.122524513615406
            ]
        },
        {
            "positions": [
                -0.2726786937168359,
                -1.3409739103186173,
                2.3566335198308916,
                -0.9839696135515813,
                1.066968145436063,
                -3.1085304906961064
            ]
        },
        {
            "positions": [
                -0.3385937219670826,
                -1.3745545060086621,
                2.4208147086309526,
                -1.0178878909821547,
                1.2231984024961342,
                -3.0945364677768064
            ]
        }
    ]
}