{
    "goal": {
        "global_pose": {
            "orientation": {
                "w": 0.7047431468963623,
                "x": -0.7094548344612122,
                "y": 0.0024358443915843964,
                "z": -0.0022348060738295317
            },
            "position": {
                "x": 0.6094750761985779,
                "y": 0.3671506643295288,
                "z": 0.19426114857196808
            }
        },
        "name": "move_to_magneteinheit_A"
    },
    "id": "LBKPIECE_move_to_magneteinheit_A_130",
    "joint_names": [
        "shoulder_pan_joint",
        "shoulder_lift_joint",
        "elbow_joint",
        "wrist_1_joint",
        "wrist_2_joint",
        "wrist_3_joint"
    ],
    "metrics": {
        "cart_traj_len": 1.879904530470143,
        "distance_elbow_joint": 3.9093739533397547,
        "distance_shoulder_lift_joint": 0.6983712361043296,
        "distance_shoulder_pan_joint": 1.2422205133713033,
        "distance_wrist_1_joint": 1.48109814681782,
        "distance_wrist_2_joint": 1.7075877424034198,
        "distance_wrist_3_joint": 1.103933426594437,
        "smoothness": 4.276414619397388e-16,
        "time": 0.395264564,
        "traj_len": 3.1847425356896695,
        "weighted_distance": 3.9419713039342605
    },
    "planner": "LBKPIECE",
    "start": {
        "state": {
            "elbow_joint": -1.919643507792019,
            "shoulder_lift_joint": -0.07675430207160344,
            "shoulder_pan_joint": -1.1188671864651873,
            "wrist_1_joint": 0.42560062535961957,
            "wrist_2_joint": 1.5706038300724876,
            "wrist_3_joint": 1.1188968870953055
        }
    },
    "waypoints": [
        {
            "positions": [
                -1.1188671864651873,
                -0.07675430207160344,
                -1.919643507792019,
                0.42560062535961957,
                1.5706038300724876,
                1.1188968870953055
            ]
        },
        {
            "positions": [
                -1.0710894744124448,
                -0.10361473422946228,
                -1.7692829711251055,
                0.4825659386987665,
                1.5049273784415869,
                1.0764379091493657
            ]
        },
        {
            "positions": [
                -1.0233117623597026,
                -0.13047516638732112,
                -1.6189224344581918,
                0.5395312520379134,
                1.4392509268106861,
                1.0339789312034258
            ]
        },
        {
            "positions": [
                -0.97553405030696,
                -0.15733559854517995,
                -1.4685618977912782,
                0.5964965653770603,
                1.3735744751797854,
                0.9915199532574859
            ]
        },
        {
            "positions": [
                -0.9277563382542175,
                -0.1841960307030388,
                -1.3182013611243644,
                0.6534618787162072,
                1.3078980235488846,
                0.949060975311546
            ]
        },
        {
            "positions": [
                -0.8799786262014752,
                -0.21105646286089763,
                -1.1678408244574507,
                0.7104271920553542,
                1.2422215719179839,
                0.9066019973656061
            ]
        },
        {
            "positions": [
                -0.8322009141487328,
                -0.23791689501875646,
                -1.0174802877905371,
                0.7673925053945011,
                1.176545120287083,
                0.8641430194196662
            ]
        },
        {
            "positions": [
                -0.7844232020959903,
                -0.2647773271766153,
                -0.8671197511236237,
                0.824357818733648,
                1.1108686686561824,
                0.8216840414737263
            ]
        },
        {
            "positions": [
                -0.7366454900432478,
                -0.2916377593344741,
                -0.7167592144567099,
                0.881323132072795,
                1.0451922170252814,
                0.7792250635277864
            ]
        },
        {
            "positions": [
                -0.6888677779905055,
                -0.31849819149233294,
                -0.5663986777897962,
                0.9382884454119418,
                0.9795157653943808,
                0.7367660855818466
            ]
        },
        {
            "positions": [
                -0.641090065937763,
                -0.3453586236501918,
                -0.4160381411228826,
                0.9952537587510888,
                0.9138393137634799,
                0.6943071076359066
            ]
        },
        {
            "positions": [
                -0.5933123538850206,
                -0.37221905580805065,
                -0.265677604455969,
                1.0522190720902356,
                0.8481628621325792,
                0.6518481296899669
            ]
        },
        {
            "positions": [
                -0.5455346418322781,
                -0.3990794879659095,
                -0.11531706778905537,
                1.1091843854293826,
                0.7824864105016784,
                0.609389151744027
            ]
        },
        {
            "positions": [
                -0.4977569297795357,
                -0.4259399201237683,
                0.03504346887785825,
                1.1661496987685296,
                0.7168099588707777,
                0.5669301737980871
            ]
        },
        {
            "positions": [
                -0.4499792177267933,
                -0.4528003522816271,
                0.18540400554477166,
                1.2231150121076764,
                0.651133507239877,
                0.5244711958521472
            ]
        },
        {
            "positions": [
                -0.4022015056740509,
                -0.47966078443948595,
                0.3357645422116853,
                1.2800803254468234,
                0.5854570556089762,
                0.4820122179062074
            ]
        },
        {
            "positions": [
                -0.35442379362130827,
                -0.5065212165973448,
                0.48612507887859935,
                1.3370456387859704,
                0.5197806039780755,
                0.4395532399602674
            ]
        },
        {
            "positions": [
                -0.3066460815685659,
                -0.5333816487552037,
                0.636485615545513,
                1.3940109521251172,
                0.4541041523471747,
                0.3970942620143275
            ]
        },
        {
            "positions": [
                -0.2588683695158235,
                -0.5602420809130625,
                0.7868461522124266,
                1.4509762654642642,
                0.38842770071627397,
                0.35463528406838773
            ]
        },
        {
            "positions": [
                -0.2110906574630811,
                -0.5871025130709213,
                0.9372066888793398,
                1.507941578803411,
                0.3227512490853732,
                0.31217630612244784
            ]
        },
        {
            "positions": [
                -0.16331294541033858,
                -0.6139629452287803,
                1.0875672255462538,
                1.5649068921425582,
                0.25707479745447226,
                0.26971732817650784
            ]
        },
        {
            "positions": [
                -0.11553523335759608,
                -0.640823377386639,
                1.2379277622131675,
                1.621872205481705,
                0.19139834582357151,
                0.22725835023056795
            ]
        },
        {
            "positions": [
                -0.0677575213048538,
                -0.6676838095444979,
                1.388288298880081,
                1.6788375188208517,
                0.12572189419267077,
                0.18479937228462817
            ]
        },
        {
            "positions": [
                -0.01997980925211129,
                -0.6945442417023566,
                1.5386488355469947,
                1.7358028321599988,
                0.060045442561770024,
                0.14234039433868828
            ]
        },
        {
            "positions": [
                0.027797902800631213,
                -0.7214046738602156,
                1.6890093722139083,
                1.7927681454991458,
                -0.005631009069130721,
                0.09988141639274839
            ]
        },
        {
            "positions": [
                0.0755756148533735,
                -0.7482651060180743,
                1.839369908880822,
                1.8497334588382928,
                -0.07130746070003147,
                0.0574224384468085
            ]
        },
        {
            "positions": [
                0.1233533269061159,
                -0.7751255381759331,
                1.9897304455477356,
                1.9066987721774395,
                -0.13698391233093232,
                0.014963460500868705
            ]
        }
    ]
}