{
    "goal": {
        "global_pose": {
            "orientation": {
                "w": 0.7047431468963623,
                "x": -0.7094548344612122,
                "y": 0.0024358443915843964,
                "z": -0.0022348060738295317
            },
            "position": {
                "x": 0.6094750761985779,
                "y": 0.3671506643295288,
                "z": 0.19426114857196808
            }
        },
        "name": "move_to_magneteinheit_A"
    },
    "id": "LBKPIECE_move_to_magneteinheit_A_13",
    "joint_names": [
        "shoulder_pan_joint",
        "shoulder_lift_joint",
        "elbow_joint",
        "wrist_1_joint",
        "wrist_2_joint",
        "wrist_3_joint"
    ],
    "metrics": {
        "cart_traj_len": 1.8742168992004369,
        "distance_elbow_joint": 3.9196958778115807,
        "distance_shoulder_lift_joint": 0.7035809433712478,
        "distance_shoulder_pan_joint": 1.240693506185546,
        "distance_wrist_1_joint": 1.5262057730449423,
        "distance_wrist_2_joint": 1.6935452276432694,
        "distance_wrist_3_joint": 1.1474689252858954,
        "smoothness": 9.86864913096046e-16,
        "time": 0.532353831,
        "traj_len": 3.198623180892442,
        "weighted_distance": 3.968107748612994
    },
    "planner": "LBKPIECE",
    "start": {
        "state": {
            "elbow_joint": -1.919643507792019,
            "shoulder_lift_joint": -0.07675430207160344,
            "shoulder_pan_joint": -1.1188671864651873,
            "wrist_1_joint": 0.42560062535961957,
            "wrist_2_joint": 1.5706038300724876,
            "wrist_3_joint": 1.1188968870953055
        }
    },
    "waypoints": [
        {
            "positions": [
                -1.1188671864651873,
                -0.07675430207160344,
                -1.919643507792019,
                0.42560062535961957,
                1.5706038300724876,
                1.1188968870953055
            ]
        },
        {
            "positions": [
                -1.071148205458051,
                -0.10381510758588221,
                -1.7688859740300351,
                0.48430084739980966,
                1.5054674751631312,
                1.0747634668920019
            ]
        },
        {
            "positions": [
                -1.0234292244509147,
                -0.13087591310016097,
                -1.6181284402680514,
                0.5430010694399997,
                1.4403311202537745,
                1.0306300466886982
            ]
        },
        {
            "positions": [
                -0.9757102434437782,
                -0.15793671861443975,
                -1.4673709065060674,
                0.6017012914801898,
                1.375194765344418,
                0.9864966264853945
            ]
        },
        {
            "positions": [
                -0.9279912624366418,
                -0.1849975241287185,
                -1.3166133727440834,
                0.6604015135203799,
                1.3100584104350617,
                0.9423632062820908
            ]
        },
        {
            "positions": [
                -0.8802722814295054,
                -0.21205832964299728,
                -1.1658558389820997,
                0.71910173556057,
                1.244922055525705,
                0.8982297860787872
            ]
        },
        {
            "positions": [
                -0.8325533004223691,
                -0.23911913515727604,
                -1.015098305220116,
                0.7778019576007601,
                1.1797857006163484,
                0.8540963658754835
            ]
        },
        {
            "positions": [
                -0.7848343194152327,
                -0.2661799406715548,
                -0.8643407714581319,
                0.8365021796409502,
                1.114649345706992,
                0.8099629456721799
            ]
        },
        {
            "positions": [
                -0.7371153384080962,
                -0.29324074618583357,
                -0.713583237696148,
                0.8952024016811403,
                1.0495129907976355,
                0.7658295254688762
            ]
        },
        {
            "positions": [
                -0.6893963574009598,
                -0.3203015517001123,
                -0.5628257039341642,
                0.9539026237213304,
                0.984376635888279,
                0.7216961052655726
            ]
        },
        {
            "positions": [
                -0.6416773763938235,
                -0.3473623572143911,
                -0.4120681701721802,
                1.0126028457615206,
                0.9192402809789224,
                0.6775626850622689
            ]
        },
        {
            "positions": [
                -0.5939583953866872,
                -0.3744231627286698,
                -0.2613106364101965,
                1.0713030678017106,
                0.854103926069566,
                0.6334292648589652
            ]
        },
        {
            "positions": [
                -0.5462394143795507,
                -0.40148396824294863,
                -0.1105531026482125,
                1.1300032898419006,
                0.7889675711602093,
                0.5892958446556615
            ]
        },
        {
            "positions": [
                -0.49852043337241436,
                -0.4285447737572274,
                0.040204431113771255,
                1.1887035118820908,
                0.7238312162508529,
                0.5451624244523579
            ]
        },
        {
            "positions": [
                -0.450801452365278,
                -0.45560557927150613,
                0.19096196487575523,
                1.2474037339222808,
                0.6586948613414965,
                0.5010290042490542
            ]
        },
        {
            "positions": [
                -0.4030824713581417,
                -0.4826663847857849,
                0.34171949863773876,
                1.3061039559624708,
                0.5935585064321399,
                0.4568955840457506
            ]
        },
        {
            "positions": [
                -0.3553634903510051,
                -0.5097271903000637,
                0.4924770323997232,
                1.364804178002661,
                0.5284221515227834,
                0.4127621638424468
            ]
        },
        {
            "positions": [
                -0.3076445093438688,
                -0.5367879958143424,
                0.6432345661617067,
                1.4235044000428512,
                0.4632857966134267,
                0.3686287436391432
            ]
        },
        {
            "positions": [
                -0.25992552833673244,
                -0.5638488013286211,
                0.7939920999236907,
                1.4822046220830412,
                0.3981494417040703,
                0.32449532343583953
            ]
        },
        {
            "positions": [
                -0.2122065473295961,
                -0.5909096068428998,
                0.9447496336856742,
                1.5409048441232311,
                0.33301308679471386,
                0.28036190323253585
            ]
        },
        {
            "positions": [
                -0.16448756632245964,
                -0.6179704123571788,
                1.0955071674476586,
                1.5996050661634216,
                0.2678767318853572,
                0.23622848302923216
            ]
        },
        {
            "positions": [
                -0.1167685853153233,
                -0.6450312178714575,
                1.2462647012096422,
                1.6583052882036116,
                0.20274037697600078,
                0.19209506282592848
            ]
        },
        {
            "positions": [
                -0.06904960430818696,
                -0.6720920233857361,
                1.3970222349716261,
                1.7170055102438015,
                0.13760402206664435,
                0.1479616426226248
            ]
        },
        {
            "positions": [
                -0.021330623301050622,
                -0.6991528289000151,
                1.5477797687336097,
                1.7757057322839915,
                0.0724676671572877,
                0.10382822241932121
            ]
        },
        {
            "positions": [
                0.02638835770608594,
                -0.7262136344142938,
                1.698537302495594,
                1.8344059543241817,
                0.007331312247931043,
                0.05969480221601753
            ]
        },
        {
            "positions": [
                0.07410733871322228,
                -0.7532744399285727,
                1.8492948362575776,
                1.893106176364372,
                -0.05780504266142539,
                0.015561382012713842
            ]
        },
        {
            "positions": [
                0.12182631972035855,
                -0.7803352454428513,
                2.000052370019562,
                1.951806398404562,
                -0.12294139757078183,
                -0.028572038190589823
            ]
        }
    ]
}