{
    "goal": {
        "global_pose": {
            "orientation": {
                "w": 0.5084816217422485,
                "x": -0.49083608388900757,
                "y": 0.5182115435600281,
                "z": -0.4816462993621826
            },
            "position": {
                "x": 0.5540239810943604,
                "y": 0.030875300988554955,
                "z": 0.16403168439865112
            }
        },
        "name": "move_to_storage_A"
    },
    "id": "LBKPIECE_move_to_storage_A_56",
    "joint_names": [
        "shoulder_pan_joint",
        "shoulder_lift_joint",
        "elbow_joint",
        "wrist_1_joint",
        "wrist_2_joint",
        "wrist_3_joint"
    ],
    "metrics": {
        "cart_traj_len": 0.35367406196401185,
        "distance_elbow_joint": 0.4477679160476451,
        "distance_shoulder_lift_joint": 0.23379193811411647,
        "distance_shoulder_pan_joint": 0.46147500564938454,
        "distance_wrist_1_joint": 0.23555475565247697,
        "distance_wrist_2_joint": 1.1036403107681496,
        "distance_wrist_3_joint": 0.0884560990319101,
        "smoothness": 8.881784213138256e-16,
        "time": 0.199051498,
        "traj_len": 1.603335905312322,
        "weighted_distance": 2.0215818780717565
    },
    "planner": "LBKPIECE",
    "start": {
        "state": {
            "elbow_joint": 1.9715463870305268,
            "shoulder_lift_joint": -1.1394903361783484,
            "shoulder_pan_joint": 0.12281147578464417,
            "wrist_1_joint": -0.7804599489681411,
            "wrist_2_joint": 0.12958660307563738,
            "wrist_3_joint": -3.1924946282119055
        }
    },
    "waypoints": [
        {
            "positions": [
                0.12281147578464417,
                -1.1394903361783484,
                1.9715463870305268,
                -0.7804599489681411,
                0.12958660307563738,
                -3.1924946282119055
            ]
        },
        {
            "positions": [
                0.05688647497758924,
                -1.172889184480365,
                2.0355132321801905,
                -0.8141106283470664,
                0.2872495046139445,
                -3.179858042635918
            ]
        },
        {
            "positions": [
                -0.009038525829465696,
                -1.2062880327823817,
                2.099480077329854,
                -0.8477613077259917,
                0.4449124061522516,
                -3.1672214570599313
            ]
        },
        {
            "positions": [
                -0.07496352663652063,
                -1.2396868810843984,
                2.1634469224795176,
                -0.8814119871049169,
                0.6025753076905587,
                -3.154584871483944
            ]
        },
        {
            "positions": [
                -0.14088852744357555,
                -1.2730857293864148,
                2.227413767629181,
                -0.9150626664838422,
                0.7602382092288658,
                -3.141948285907957
            ]
        },
        {
            "positions": [
                -0.20681352825063049,
                -1.3064845776884315,
                2.2913806127788447,
                -0.9487133458627675,
                0.9179011107671728,
                -3.1293117003319697
            ]
        },
        {
            "positions": [
                -0.2727385290576854,
                -1.3398834259904482,
                2.355347457928508,
                -0.9823640252416928,
                1.07556401230548,
                -3.116675114755983
            ]
        },
        {
            "positions": [
                -0.33866352986474035,
                -1.3732822742924649,
                2.419314303078172,
                -1.016014704620618,
                1.233226913843787,
                -3.1040385291799955
            ]
        }
    ]
}