{
    "goal": {
        "global_pose": {
            "orientation": {
                "w": 0.5084816217422485,
                "x": -0.49083608388900757,
                "y": 0.5182115435600281,
                "z": -0.4816462993621826
            },
            "position": {
                "x": 0.5540239810943604,
                "y": 0.030875300988554955,
                "z": 0.16403168439865112
            }
        },
        "name": "move_to_storage_A"
    },
    "id": "LBKPIECE_move_to_storage_A_98",
    "joint_names": [
        "shoulder_pan_joint",
        "shoulder_lift_joint",
        "elbow_joint",
        "wrist_1_joint",
        "wrist_2_joint",
        "wrist_3_joint"
    ],
    "metrics": {
        "cart_traj_len": 0.3537259135487475,
        "distance_elbow_joint": 0.44837035409908177,
        "distance_shoulder_lift_joint": 0.2365672119185549,
        "distance_shoulder_pan_joint": 0.4622143797144583,
        "distance_wrist_1_joint": 0.23342717923282563,
        "distance_wrist_2_joint": 1.102311318942012,
        "distance_wrist_3_joint": 0.09532829170062529,
        "smoothness": 8.881784197001252e-16,
        "time": 0.679147618,
        "traj_len": 1.6056832612964358,
        "weighted_distance": 2.025984653738435
    },
    "planner": "LBKPIECE",
    "start": {
        "state": {
            "elbow_joint": 1.9715463870305268,
            "shoulder_lift_joint": -1.1394903361783484,
            "shoulder_pan_joint": 0.12281147578464417,
            "wrist_1_joint": -0.7804599489681411,
            "wrist_2_joint": 0.12958660307563738,
            "wrist_3_joint": -3.1924946282119055
        }
    },
    "waypoints": [
        {
            "positions": [
                0.12281147578464417,
                -1.1394903361783484,
                1.9715463870305268,
                -0.7804599489681411,
                0.12958660307563738,
                -3.1924946282119055
            ]
        },
        {
            "positions": [
                0.05678085011115014,
                -1.1732856521667134,
                2.035599294758967,
                -0.8138066888585448,
                0.287059648638782,
                -3.178876300826102
            ]
        },
        {
            "positions": [
                -0.009249775562343895,
                -1.2070809681550783,
                2.099652202487407,
                -0.8471534287489484,
                0.44453269420192654,
                -3.165257973440298
            ]
        },
        {
            "positions": [
                -0.07528040123583794,
                -1.2408762841434433,
                2.1637051102158473,
                -0.8805001686393521,
                0.6020057397650711,
                -3.1516396460544946
            ]
        },
        {
            "positions": [
                -0.14131102690933195,
                -1.2746716001318084,
                2.2277580179442875,
                -0.9138469085297557,
                0.7594787853282157,
                -3.138021318668691
            ]
        },
        {
            "positions": [
                -0.207341652582826,
                -1.3084669161201734,
                2.291810925672728,
                -0.9471936484201594,
                0.9169518308913602,
                -3.1244029912828877
            ]
        },
        {
            "positions": [
                -0.27337227825632004,
                -1.3422622321085382,
                2.3558638334011683,
                -0.980540388310563,
                1.0744248764545048,
                -3.1107846638970837
            ]
        },
        {
            "positions": [
                -0.3394029039298141,
                -1.3760575480969033,
                2.4199167411296085,
                -1.0138871282009667,
                1.2318979220176494,
                -3.0971663365112803
            ]
        }
    ]
}