{
    "goal": {
        "global_pose": {
            "orientation": {
                "w": -0.00223480608172531,
                "x": 0.0024358444001904467,
                "y": 0.7094548369677653,
                "z": -0.704743149386269
            },
            "position": {
                "x": 0.6205249238014221,
                "y": -0.6371506643295288,
                "z": 0.19426114857196808
            }
        },
        "name": "move_to_magneteinheit_B"
    },
    "id": "LBKPIECE_move_to_magneteinheit_B_16",
    "joint_names": [
        "shoulder_pan_joint",
        "shoulder_lift_joint",
        "elbow_joint",
        "wrist_1_joint",
        "wrist_2_joint",
        "wrist_3_joint"
    ],
    "metrics": {
        "cart_traj_len": 3.9094267212481673,
        "distance_elbow_joint": 4.619796870476794,
        "distance_shoulder_lift_joint": 1.1921544648305047,
        "distance_shoulder_pan_joint": 2.6350505188771987,
        "distance_wrist_1_joint": 1.9721776586532123,
        "distance_wrist_2_joint": 1.360673635585737,
        "distance_wrist_3_joint": 1.120149444677589,
        "smoothness": 0.320650731573019,
        "time": 0.543180452,
        "traj_len": 3.591657360203091,
        "weighted_distance": 4.298040574109924
    },
    "planner": "LBKPIECE",
    "start": {
        "state": {
            "elbow_joint": 2.39358713078474,
            "shoulder_lift_joint": -1.908514104345545,
            "shoulder_pan_joint": 0.7066247066606129,
            "wrist_1_joint": -0.4678290933515497,
            "wrist_2_joint": 0.7096259083745334,
            "wrist_3_joint": -3.1358149277392293
        }
    },
    "waypoints": [
        {
            "positions": [
                0.7066247066606129,
                -1.908514104345545,
                2.39358713078474,
                -0.4678290933515497,
                0.7096259083745334,
                -3.1358149277392293
            ]
        },
        {
            "positions": [
                0.5999978898887155,
                -1.9015498378611244,
                2.398333168339329,
                -0.5248071321897713,
                0.6585680169815535,
                -2.9885872714495205
            ]
        },
        {
            "positions": [
                0.493371073116818,
                -1.8945855713767037,
                2.4030792058939183,
                -0.5817851710279928,
                0.6075101255885735,
                -2.8413596151598117
            ]
        },
        {
            "positions": [
                0.3867442563449205,
                -1.8876213048922832,
                2.4078252434485075,
                -0.6387632098662143,
                0.5564522341955936,
                -2.694131958870103
            ]
        },
        {
            "positions": [
                0.4579628127112876,
                -1.8677314388761586,
                2.2107827073144586,
                -0.6823402584236151,
                0.5060809086067228,
                -2.689348037125458
            ]
        },
        {
            "positions": [
                0.5291813690776547,
                -1.8478415728600341,
                2.0137401711804097,
                -0.7259173069810161,
                0.455709583017852,
                -2.6845641153808133
            ]
        },
        {
            "positions": [
                0.6003999254440218,
                -1.8279517068439095,
                1.8166976350463608,
                -0.7694943555384168,
                0.4053382574289812,
                -2.679780193636169
            ]
        },
        {
            "positions": [
                0.671618481810389,
                -1.808061840827785,
                1.6196550989123117,
                -0.8130714040958178,
                0.35496693184011036,
                -2.674996271891524
            ]
        },
        {
            "positions": [
                0.742837038176756,
                -1.7881719748116605,
                1.4226125627782629,
                -0.8566484526532187,
                0.30459560625123955,
                -2.6702123501468793
            ]
        },
        {
            "positions": [
                0.8140555945431232,
                -1.768282108795536,
                1.225570026644214,
                -0.9002255012106195,
                0.25422428066236874,
                -2.6654284284022345
            ]
        },
        {
            "positions": [
                0.8852741509094901,
                -1.7483922427794114,
                1.0285274905101651,
                -0.9438025497680205,
                0.20385295507349793,
                -2.66064450665759
            ]
        },
        {
            "positions": [
                0.9564927072758573,
                -1.728502376763287,
                0.831484954376116,
                -0.9873795983254213,
                0.15348162948462707,
                -2.6558605849129453
            ]
        },
        {
            "positions": [
                1.0277112636422245,
                -1.7086125107471624,
                0.6344424182420672,
                -1.0309566468828222,
                0.10311030389575626,
                -2.6510766631683005
            ]
        },
        {
            "positions": [
                1.0989298200085915,
                -1.688722644731038,
                0.4373998821080183,
                -1.074533695440223,
                0.05273897830688545,
                -2.6462927414236557
            ]
        },
        {
            "positions": [
                1.1701483763749585,
                -1.6688327787149133,
                0.2403573459739694,
                -1.118110743997624,
                0.0023676527180146456,
                -2.641508819679011
            ]
        },
        {
            "positions": [
                1.2413669327413257,
                -1.648942912698789,
                0.04331480983992053,
                -1.1616877925550249,
                -0.04800367287085616,
                -2.6367248979343665
            ]
        },
        {
            "positions": [
                1.312585489107693,
                -1.6290530466826643,
                -0.15372772629412834,
                -1.2052648411124256,
                -0.09837499845972697,
                -2.6319409761897217
            ]
        },
        {
            "positions": [
                1.3838040454740599,
                -1.6091631806665396,
                -0.3507702624281772,
                -1.2488418896698266,
                -0.14874632404859778,
                -2.627157054445077
            ]
        },
        {
            "positions": [
                1.4550226018404269,
                -1.5892733146504152,
                -0.5478127985622261,
                -1.2924189382272275,
                -0.19911764963746859,
                -2.622373132700432
            ]
        },
        {
            "positions": [
                1.526241158206794,
                -1.5693834486342906,
                -0.7448553346962754,
                -1.3359959867846283,
                -0.2494889752263395,
                -2.6175892109557877
            ]
        },
        {
            "positions": [
                1.5974597145731613,
                -1.5494935826181662,
                -0.9418978708303238,
                -1.3795730353420292,
                -0.2998603008152102,
                -2.612805289211143
            ]
        },
        {
            "positions": [
                1.6686782709395285,
                -1.5296037166020415,
                -1.1389404069643732,
                -1.4231500838994302,
                -0.3502316264040811,
                -2.608021367466498
            ]
        },
        {
            "positions": [
                1.7398968273058952,
                -1.509713850585917,
                -1.335982943098422,
                -1.466727132456831,
                -0.40060295199295193,
                -2.6032374457218532
            ]
        },
        {
            "positions": [
                1.8111153836722624,
                -1.4898239845697925,
                -1.533025479232471,
                -1.5103041810142317,
                -0.45097427758182274,
                -2.598453523977209
            ]
        },
        {
            "positions": [
                1.8823339400386296,
                -1.469934118553668,
                -1.7300680153665198,
                -1.5538812295716329,
                -0.5013456031706937,
                -2.593669602232564
            ]
        },
        {
            "positions": [
                1.9535524964049968,
                -1.4500442525375434,
                -1.9271105515005684,
                -1.5974582781290336,
                -0.5517169287595645,
                -2.5888856804879192
            ]
        },
        {
            "positions": [
                2.0453152101669025,
                -1.491491357509301,
                -1.9176346457492615,
                -1.7013318163606488,
                -0.5549247128946168,
                -2.6589400260494522
            ]
        },
        {
            "positions": [
                2.1370779239288082,
                -1.5329384624810585,
                -1.9081587399979545,
                -1.805205354592264,
                -0.5581324970296689,
                -2.7289943716109857
            ]
        },
        {
            "positions": [
                2.2288406376907135,
                -1.5743855674528158,
                -1.8986828342466477,
                -1.9090788928238793,
                -0.5613402811647212,
                -2.7990487171725187
            ]
        },
        {
            "positions": [
                2.320603351452619,
                -1.6158326724245733,
                -1.8892069284953408,
                -2.0129524310554947,
                -0.5645480652997734,
                -2.869103062734052
            ]
        },
        {
            "positions": [
                2.412366065214525,
                -1.6572797773963308,
                -1.8797310227440338,
                -2.1168259692871096,
                -0.5677558494348257,
                -2.939157408295585
            ]
        },
        {
            "positions": [
                2.501964955365993,
                -1.7304157602641914,
                -1.8502657718618039,
                -2.2214409895656133,
                -0.5647178306901082,
                -3.010777812722907
            ]
        },
        {
            "positions": [
                2.5915638455174617,
                -1.8035517431320522,
                -1.8208005209795737,
                -2.3260560098441174,
                -0.5616798119453906,
                -3.082398217150228
            ]
        },
        {
            "positions": [
                2.68116273566893,
                -1.8766877259999128,
                -1.7913352700973437,
                -2.430671030122621,
                -0.5586417932006731,
                -3.1540186215775496
            ]
        },
        {
            "positions": [
                2.6707869410501814,
                -2.0302082957799796,
                -1.7239114293669808,
                -2.4353388910636915,
                -0.5215528824295602,
                -3.1499749934092254
            ]
        },
        {
            "positions": [
                2.6604111464314326,
                -2.1837288655600466,
                -1.656487588636618,
                -2.440006752004762,
                -0.4844639716584474,
                -3.145931365240901
            ]
        }
    ]
}