{
    "goal": {
        "global_pose": {
            "orientation": {
                "w": 0.7047431468963623,
                "x": -0.7094548344612122,
                "y": 0.0024358443915843964,
                "z": -0.0022348060738295317
            },
            "position": {
                "x": 0.6094750761985779,
                "y": 0.3671506643295288,
                "z": 0.19426114857196808
            }
        },
        "name": "move_to_magneteinheit_A"
    },
    "id": "LBKPIECE_move_to_magneteinheit_A_147",
    "joint_names": [
        "shoulder_pan_joint",
        "shoulder_lift_joint",
        "elbow_joint",
        "wrist_1_joint",
        "wrist_2_joint",
        "wrist_3_joint"
    ],
    "metrics": {
        "cart_traj_len": 2.1099213277052837,
        "distance_elbow_joint": 3.892320011019416,
        "distance_shoulder_lift_joint": 1.4129345056127498,
        "distance_shoulder_pan_joint": 1.241470488930445,
        "distance_wrist_1_joint": 1.2096591069321496,
        "distance_wrist_2_joint": 1.4360681116125391,
        "distance_wrist_3_joint": 4.301533676412042,
        "smoothness": 0.05161066760443736,
        "time": 0.586766331,
        "traj_len": 3.6734161077285186,
        "weighted_distance": 4.974211542736007
    },
    "planner": "LBKPIECE",
    "start": {
        "state": {
            "elbow_joint": -1.919643507792019,
            "shoulder_lift_joint": -0.07675430207160344,
            "shoulder_pan_joint": -1.1188671864651873,
            "wrist_1_joint": 0.42560062535961957,
            "wrist_2_joint": 1.5706038300724876,
            "wrist_3_joint": 1.1188968870953055
        }
    },
    "waypoints": [
        {
            "positions": [
                -1.1188671864651873,
                -0.07675430207160344,
                -1.919643507792019,
                0.42560062535961957,
                1.5706038300724876,
                1.1188968870953055
            ]
        },
        {
            "positions": [
                -1.098198973503745,
                -0.12262841403559505,
                -1.7762601803611948,
                0.39230016854566324,
                1.5440486864873861,
                0.9979014368405354
            ]
        },
        {
            "positions": [
                -1.0775307605423023,
                -0.16850252599958665,
                -1.6328768529303705,
                0.3589997117317069,
                1.5174935429022844,
                0.8769059865857654
            ]
        },
        {
            "positions": [
                -1.05686254758086,
                -0.21437663796357828,
                -1.4894935254995465,
                0.32569925491775065,
                1.4909383993171827,
                0.7559105363309953
            ]
        },
        {
            "positions": [
                -1.0361943346194176,
                -0.2602507499275699,
                -1.3461101980687222,
                0.2923987981037943,
                1.4643832557320813,
                0.6349150860762252
            ]
        },
        {
            "positions": [
                -1.0155261216579752,
                -0.3061248618915615,
                -1.202726870637898,
                0.259098341289838,
                1.4378281121469798,
                0.5139196358214551
            ]
        },
        {
            "positions": [
                -0.9948579086965327,
                -0.3519989738555531,
                -1.0593435432070737,
                0.22579788447588167,
                1.4112729685618781,
                0.39292418556668485
            ]
        },
        {
            "positions": [
                -0.9741896957350902,
                -0.3978730858195447,
                -0.9159602157762494,
                0.19249742766192537,
                1.3847178249767764,
                0.27192873531191475
            ]
        },
        {
            "positions": [
                -0.9535214827736478,
                -0.44374719778353633,
                -0.7725768883454252,
                0.15919697084796902,
                1.358162681391675,
                0.15093328505714465
            ]
        },
        {
            "positions": [
                -0.9328532698122054,
                -0.48962130974752793,
                -0.6291935609146011,
                0.12589651403401275,
                1.3316075378065735,
                0.029937834802374663
            ]
        },
        {
            "positions": [
                -0.9121850568507629,
                -0.5354954217115195,
                -0.48581023348377683,
                0.09259605722005643,
                1.3050523942214718,
                -0.09105761545239544
            ]
        },
        {
            "positions": [
                -0.8915168438893204,
                -0.5813695336755111,
                -0.34242690605295256,
                0.0592956004061001,
                1.27849725063637,
                -0.21205306570716553
            ]
        },
        {
            "positions": [
                -0.870848630927878,
                -0.6272436456395027,
                -0.1990435786221283,
                0.025995143592143777,
                1.2519421070512686,
                -0.33304851596193585
            ]
        },
        {
            "positions": [
                -0.8501804179664356,
                -0.6731177576034943,
                -0.05566025119130402,
                -0.007305313221812548,
                1.2253869634661672,
                -0.45404396621670595
            ]
        },
        {
            "positions": [
                -0.8295122050049931,
                -0.718991869567486,
                0.08772307623952025,
                -0.04060577003576882,
                1.1988318198810655,
                -0.575039416471476
            ]
        },
        {
            "positions": [
                -0.8088439920435506,
                -0.7648659815314776,
                0.23110640367034452,
                -0.0739062268497252,
                1.1722766762959638,
                -0.6960348667262461
            ]
        },
        {
            "positions": [
                -0.7881757790821082,
                -0.8107400934954692,
                0.3744897311011688,
                -0.10720668366368152,
                1.1457215327108623,
                -0.8170303169810162
            ]
        },
        {
            "positions": [
                -0.7675075661206657,
                -0.8566142054594608,
                0.5178730585319931,
                -0.14050714047763785,
                1.1191663891257608,
                -0.9380257672357866
            ]
        },
        {
            "positions": [
                -0.7468393531592233,
                -0.9024883174234524,
                0.6612563859628169,
                -0.17380759729159406,
                1.0926112455406591,
                -1.0590212174905562
            ]
        },
        {
            "positions": [
                -0.7261711401977808,
                -0.9483624293874442,
                0.8046397133936416,
                -0.2071080541055505,
                1.0660561019555574,
                -1.1800166677453268
            ]
        },
        {
            "positions": [
                -0.7055029272363385,
                -0.9942365413514356,
                0.9480230408244654,
                -0.2404085109195067,
                1.039500958370456,
                -1.3010121180000964
            ]
        },
        {
            "positions": [
                -0.684834714274896,
                -1.0401106533154274,
                1.0914063682552901,
                -0.27370896773346315,
                1.0129458147853545,
                -1.422007568254867
            ]
        },
        {
            "positions": [
                -0.6641665013134536,
                -1.085984765279419,
                1.234789695686114,
                -0.30700942454741936,
                0.9863906712002528,
                -1.5430030185096366
            ]
        },
        {
            "positions": [
                -0.6434982883520111,
                -1.1318588772434106,
                1.3781730231169382,
                -0.3403098813613757,
                0.9598355276151512,
                -1.6639984687644072
            ]
        },
        {
            "positions": [
                -0.6228300753905687,
                -1.1777329892074022,
                1.5215563505477625,
                -0.373610338175332,
                0.9332803840300496,
                -1.7849939190191773
            ]
        },
        {
            "positions": [
                -0.6021618624291262,
                -1.2236071011713938,
                1.6649396779785868,
                -0.40691079498928834,
                0.9067252404449481,
                -1.9059893692739474
            ]
        },
        {
            "positions": [
                -0.5814936494676838,
                -1.2694812131353854,
                1.808323005409411,
                -0.44021125180324466,
                0.8801700968598465,
                -2.0269848195287175
            ]
        },
        {
            "positions": [
                -0.5608254365062413,
                -1.315355325099377,
                1.9517063328402353,
                -0.47351170861720093,
                0.8536149532747449,
                -2.1479802697834876
            ]
        },
        {
            "positions": [
                -0.4753968441348039,
                -1.2935636397762549,
                1.9543276041386306,
                -0.512330055236617,
                0.7637300489228953,
                -2.2773123347251434
            ]
        },
        {
            "positions": [
                -0.3899682517633665,
                -1.271771954453133,
                1.9569488754370257,
                -0.5511484018560332,
                0.6738451445710458,
                -2.4066443996667997
            ]
        },
        {
            "positions": [
                -0.3045396593919292,
                -1.249980269130011,
                1.959570146735421,
                -0.5899667484754493,
                0.5839602402191962,
                -2.5359764646084555
            ]
        },
        {
            "positions": [
                -0.21911106702049177,
                -1.228188583806889,
                1.9621914180338162,
                -0.6287850950948655,
                0.49407533586734664,
                -2.6653085295501118
            ]
        },
        {
            "positions": [
                -0.13368247464905436,
                -1.2063968984837667,
                1.9648126893322113,
                -0.6676034417142815,
                0.40419043151549705,
                -2.7946405944917676
            ]
        },
        {
            "positions": [
                -0.048253882277617066,
                -1.1846052131606448,
                1.9674339606306066,
                -0.7064217883336976,
                0.31430552716364757,
                -2.9239726594334234
            ]
        },
        {
            "positions": [
                0.03717471009382034,
                -1.162813527837523,
                1.9700552319290017,
                -0.7452401349531137,
                0.22442062281179798,
                -3.0533047243750797
            ]
        },
        {
            "positions": [
                0.12260330246525775,
                -1.1410218425144008,
                1.972676503227397,
                -0.7840584815725299,
                0.13453571845994836,
                -3.1826367893167355
            ]
        }
    ]
}