{
    "goal": {
        "global_pose": {
            "orientation": {
                "w": 0.7031023502349854,
                "x": -0.7110244035720825,
                "y": 0.007748599164187908,
                "z": 0.005598929710686207
            },
            "position": {
                "x": 0.11585023208521307,
                "y": 0.44412534475326537,
                "z": 0.3711530566215515
            }
        },
        "name": "move_to_auspresseinheit_A"
    },
    "id": "LBKPIECE_move_to_auspresseinheit_A_49",
    "joint_names": [
        "shoulder_pan_joint",
        "shoulder_lift_joint",
        "elbow_joint",
        "wrist_1_joint",
        "wrist_2_joint",
        "wrist_3_joint"
    ],
    "metrics": {
        "cart_traj_len": 0.688933394387053,
        "distance_elbow_joint": 0.038028065050424775,
        "distance_shoulder_lift_joint": 0.5345256449789351,
        "distance_shoulder_pan_joint": 1.044860451779328,
        "distance_wrist_1_joint": 0.5688499541690816,
        "distance_wrist_2_joint": 0.6118462656627154,
        "distance_wrist_3_joint": 0.2243444379049988,
        "smoothness": 0.6052347314597889,
        "time": 0.428291425,
        "traj_len": 1.7385208711848943,
        "weighted_distance": 2.156812443210415
    },
    "planner": "LBKPIECE",
    "start": {
        "state": {
            "elbow_joint": 2.422574709923281,
            "shoulder_lift_joint": -1.3736533754116391,
            "shoulder_pan_joint": -0.33786336945926293,
            "wrist_1_joint": -1.0288603412921917,
            "wrist_2_joint": 1.2330224858903978,
            "wrist_3_joint": -3.094022268022082
        }
    },
    "waypoints": [
        {
            "positions": [
                -0.33786336945926293,
                -1.3736533754116391,
                2.422574709923281,
                -1.0288603412921917,
                1.2330224858903978,
                -3.094022268022082
            ]
        },
        {
            "positions": [
                -0.20815808139761435,
                -1.4488271110162967,
                2.4177673927673022,
                -0.9545818481899905,
                1.1522685097338472,
                -3.081959500415297
            ]
        },
        {
            "positions": [
                -0.07845279333596578,
                -1.5240008466209543,
                2.4129600756113234,
                -0.8803033550877893,
                1.0715145335772969,
                -3.069896732808512
            ]
        },
        {
            "positions": [
                0.05125249472568283,
                -1.599174582225612,
                2.4081527584553446,
                -0.8060248619855881,
                0.9907605574207464,
                -3.057833965201727
            ]
        },
        {
            "positions": [
                0.18095778278733138,
                -1.6743483178302696,
                2.4033454412993653,
                -0.731746368883387,
                0.910006581264196,
                -3.045771197594942
            ]
        },
        {
            "positions": [
                0.31066307084898,
                -1.7495220534349274,
                2.3985381241433865,
                -0.6574678757811856,
                0.8292526051076454,
                -3.033708429988157
            ]
        },
        {
            "positions": [
                0.4403683589106286,
                -1.824695789039585,
                2.3937308069874077,
                -0.5831893826789845,
                0.7484986289510951,
                -3.021645662381372
            ]
        },
        {
            "positions": [
                0.5700736469722772,
                -1.8998695246442425,
                2.388923489831429,
                -0.5089108895767832,
                0.6677446527945445,
                -3.009582894774587
            ]
        },
        {
            "positions": [
                0.7069970823200651,
                -1.9081790203905742,
                2.3933003347900015,
                -0.46001038712311015,
                0.7143130853614067,
                -3.1494879594320904
            ]
        }
    ]
}