{
    "goal": {
        "global_pose": {
            "orientation": {
                "w": -0.00223480608172531,
                "x": 0.0024358444001904467,
                "y": 0.7094548369677653,
                "z": -0.704743149386269
            },
            "position": {
                "x": 0.6205249238014221,
                "y": -0.6371506643295288,
                "z": 0.19426114857196808
            }
        },
        "name": "move_to_magneteinheit_B"
    },
    "id": "LBKPIECE_move_to_magneteinheit_B_122",
    "joint_names": [
        "shoulder_pan_joint",
        "shoulder_lift_joint",
        "elbow_joint",
        "wrist_1_joint",
        "wrist_2_joint",
        "wrist_3_joint"
    ],
    "metrics": {
        "cart_traj_len": 1.4517675074721843,
        "distance_elbow_joint": 0.7282934717078067,
        "distance_shoulder_lift_joint": 1.2473344123117114,
        "distance_shoulder_pan_joint": 1.621289901272708,
        "distance_wrist_1_joint": 2.6049799114429035,
        "distance_wrist_2_joint": 2.935775949757696,
        "distance_wrist_3_joint": 3.1384551996950694,
        "smoothness": 4.163336367482162e-16,
        "time": 0.319835542,
        "traj_len": 3.5037307040050747,
        "weighted_distance": 4.908543073741804
    },
    "planner": "LBKPIECE",
    "start": {
        "state": {
            "elbow_joint": 2.39358713078474,
            "shoulder_lift_joint": -1.908514104345545,
            "shoulder_pan_joint": 0.7066247066606129,
            "wrist_1_joint": -0.4678290933515497,
            "wrist_2_joint": 0.7096259083745334,
            "wrist_3_joint": -3.1358149277392293
        }
    },
    "waypoints": [
        {
            "positions": [
                0.7066247066606129,
                -1.908514104345545,
                2.39358713078474,
                -0.4678290933515497,
                0.7096259083745334,
                -3.1358149277392293
            ]
        },
        {
            "positions": [
                0.6543250324260095,
                -1.8682775104000058,
                2.370093792987714,
                -0.3837974833050044,
                0.6149234583823497,
                -3.0345744374264854
            ]
        },
        {
            "positions": [
                0.602025358191406,
                -1.8280409164544666,
                2.346600455190688,
                -0.29976587325845916,
                0.5202210083901659,
                -2.933333947113741
            ]
        },
        {
            "positions": [
                0.5497256839568025,
                -1.7878043225089277,
                2.323107117393662,
                -0.2157342632119139,
                0.4255185583979822,
                -2.832093456800997
            ]
        },
        {
            "positions": [
                0.497426009722199,
                -1.7475677285633886,
                2.299613779596636,
                -0.1317026531653686,
                0.33081610840579845,
                -2.7308529664882526
            ]
        },
        {
            "positions": [
                0.44512633548759556,
                -1.7073311346178495,
                2.27612044179961,
                -0.047671043118823364,
                0.2361136584136147,
                -2.6296124761755086
            ]
        },
        {
            "positions": [
                0.39282666125299204,
                -1.6670945406723106,
                2.252627104002584,
                0.03636056692772188,
                0.14141120842143096,
                -2.5283719858627642
            ]
        },
        {
            "positions": [
                0.34052698701838857,
                -1.6268579467267714,
                2.2291337662055577,
                0.12039217697426724,
                0.046708758429247266,
                -2.4271314955500203
            ]
        },
        {
            "positions": [
                0.2882273127837851,
                -1.5866213527812323,
                2.205640428408532,
                0.2044237870208125,
                -0.047993691562936536,
                -2.325891005237276
            ]
        },
        {
            "positions": [
                0.23592763854918158,
                -1.5463847588356932,
                2.182147090611506,
                0.28845539706735784,
                -0.14269614155512034,
                -2.224650514924532
            ]
        },
        {
            "positions": [
                0.18362796431457817,
                -1.5061481648901542,
                2.15865375281448,
                0.372487007113903,
                -0.23739859154730403,
                -2.1234100246117875
            ]
        },
        {
            "positions": [
                0.1313282900799746,
                -1.465911570944615,
                2.1351604150174537,
                0.45651861716044834,
                -0.3321010415394877,
                -2.022169534299043
            ]
        },
        {
            "positions": [
                0.07902861584537113,
                -1.425674976999076,
                2.111667077220428,
                0.5405502272069935,
                -0.4268034915316715,
                -1.9209290439862994
            ]
        },
        {
            "positions": [
                0.026728941610767665,
                -1.385438383053537,
                2.088173739423402,
                0.624581837253539,
                -0.5215059415238553,
                -1.819688553673555
            ]
        },
        {
            "positions": [
                -0.0255707326238358,
                -1.345201789107998,
                2.064680401626376,
                0.7086134473000842,
                -0.6162083915160389,
                -1.718448063360811
            ]
        },
        {
            "positions": [
                -0.07787040685843938,
                -1.3049651951624588,
                2.0411870638293497,
                0.7926450573466295,
                -0.7109108415082227,
                -1.6172075730480666
            ]
        },
        {
            "positions": [
                -0.13017008109304273,
                -1.2647286012169197,
                2.0176937260323236,
                0.8766766673931747,
                -0.8056132915004065,
                -1.5159670827353227
            ]
        },
        {
            "positions": [
                -0.1824697553276462,
                -1.2244920072713805,
                1.9942003882352977,
                0.96070827743972,
                -0.9003157414925901,
                -1.4147265924225785
            ]
        },
        {
            "positions": [
                -0.23476942956224978,
                -1.1842554133258414,
                1.9707070504382718,
                1.0447398874862655,
                -0.9950181914847741,
                -1.313486102109834
            ]
        },
        {
            "positions": [
                -0.28706910379685324,
                -1.1440188193803025,
                1.9472137126412457,
                1.1287714975328107,
                -1.0897206414769576,
                -1.21224561179709
            ]
        },
        {
            "positions": [
                -0.3393687780314566,
                -1.1037822254347636,
                1.9237203748442195,
                1.2128031075793557,
                -1.1844230914691414,
                -1.1110051214843457
            ]
        },
        {
            "positions": [
                -0.3916684522660602,
                -1.0635456314892244,
                1.9002270370471936,
                1.296834717625901,
                -1.2791255414613252,
                -1.0097646311716018
            ]
        },
        {
            "positions": [
                -0.44396812650066375,
                -1.0233090375436853,
                1.8767336992501675,
                1.3808663276724464,
                -1.373827991453509,
                -0.9085241408588574
            ]
        },
        {
            "positions": [
                -0.4962678007352671,
                -0.9830724435981462,
                1.8532403614531416,
                1.4648979377189917,
                -1.4685304414456928,
                -0.8072836505461134
            ]
        },
        {
            "positions": [
                -0.5485674749698707,
                -0.9428358496526071,
                1.8297470236561155,
                1.5489295477655367,
                -1.5632328914378766,
                -0.7060431602333694
            ]
        },
        {
            "positions": [
                -0.600867149204474,
                -0.9025992557070681,
                1.8062536858590894,
                1.632961157812082,
                -1.65793534143006,
                -0.604802669920625
            ]
        },
        {
            "positions": [
                -0.6531668234390776,
                -0.862362661761529,
                1.7827603480620635,
                1.7169927678586276,
                -1.7526377914222442,
                -0.5035621796078806
            ]
        },
        {
            "positions": [
                -0.7054664976736812,
                -0.8221260678159898,
                1.7592670102650376,
                1.801024377905173,
                -1.847340241414428,
                -0.4023216892951367
            ]
        },
        {
            "positions": [
                -0.7577661719082845,
                -0.7818894738704507,
                1.7357736724680115,
                1.8850559879517181,
                -1.9420426914066113,
                -0.3010811989823927
            ]
        },
        {
            "positions": [
                -0.8100658461428879,
                -0.7416528799249118,
                1.7122803346709854,
                1.9690875979982634,
                -2.036745141398795,
                -0.19984070866964831
            ]
        },
        {
            "positions": [
                -0.8623655203774917,
                -0.7014162859793727,
                1.6887869968739593,
                2.0531192080448086,
                -2.131447591390979,
                -0.09860021835690391
            ]
        },
        {
            "positions": [
                -0.914665194612095,
                -0.6611796920338334,
                1.6652936590769334,
                2.137150818091354,
                -2.2261500413831627,
                0.002640271955839977
            ]
        }
    ]
}