{
    "goal": {
        "global_pose": {
            "orientation": {
                "w": 0.7047431468963623,
                "x": -0.7094548344612122,
                "y": 0.0024358443915843964,
                "z": -0.0022348060738295317
            },
            "position": {
                "x": 0.6094750761985779,
                "y": 0.3671506643295288,
                "z": 0.19426114857196808
            }
        },
        "name": "move_to_magneteinheit_A"
    },
    "id": "LBKPIECE_move_to_magneteinheit_A_84",
    "joint_names": [
        "shoulder_pan_joint",
        "shoulder_lift_joint",
        "elbow_joint",
        "wrist_1_joint",
        "wrist_2_joint",
        "wrist_3_joint"
    ],
    "metrics": {
        "cart_traj_len": 1.8734737489092903,
        "distance_elbow_joint": 3.9219234924488937,
        "distance_shoulder_lift_joint": 0.7047082834287864,
        "distance_shoulder_pan_joint": 1.2413507745323586,
        "distance_wrist_1_joint": 1.5344553460116166,
        "distance_wrist_2_joint": 1.6940066775482514,
        "distance_wrist_3_joint": 1.159623596485049,
        "smoothness": 4.605369620097006e-16,
        "time": 0.373483979,
        "traj_len": 3.2025096675037465,
        "weighted_distance": 3.9753965068889565
    },
    "planner": "LBKPIECE",
    "start": {
        "state": {
            "elbow_joint": -1.919643507792019,
            "shoulder_lift_joint": -0.07675430207160344,
            "shoulder_pan_joint": -1.1188671864651873,
            "wrist_1_joint": 0.42560062535961957,
            "wrist_2_joint": 1.5706038300724876,
            "wrist_3_joint": 1.1188968870953055
        }
    },
    "waypoints": [
        {
            "positions": [
                -1.1188671864651873,
                -0.07675430207160344,
                -1.919643507792019,
                0.42560062535961957,
                1.5706038300724876,
                1.1188968870953055
            ]
        },
        {
            "positions": [
                -1.0711229259062505,
                -0.10385846681886446,
                -1.7688002965439846,
                0.48461813866775866,
                1.5054497270898626,
                1.0742959795381883
            ]
        },
        {
            "positions": [
                -1.0233786653473136,
                -0.13096263156612548,
                -1.6179570852959504,
                0.5436356519758978,
                1.4402956241072375,
                1.029695071981071
            ]
        },
        {
            "positions": [
                -0.9756344047883767,
                -0.1580667963133865,
                -1.467113874047916,
                0.6026531652840369,
                1.3751415211246125,
                0.9850941644239537
            ]
        },
        {
            "positions": [
                -0.9278901442294398,
                -0.18517096106064754,
                -1.3162706627998815,
                0.661670678592176,
                1.3099874181419873,
                0.9404932568668365
            ]
        },
        {
            "positions": [
                -0.880145883670503,
                -0.21227512580790855,
                -1.1654274515518472,
                0.7206881919003151,
                1.2448333151593622,
                0.8958923493097192
            ]
        },
        {
            "positions": [
                -0.8324016231115661,
                -0.23937929055516957,
                -1.0145842403038128,
                0.7797057052084542,
                1.1796792121767372,
                0.8512914417526019
            ]
        },
        {
            "positions": [
                -0.7846573625526292,
                -0.26648345530243056,
                -0.8637410290557785,
                0.8387232185165933,
                1.1145251091941122,
                0.8066905341954846
            ]
        },
        {
            "positions": [
                -0.7369131019936923,
                -0.29358762004969163,
                -0.7128978178077441,
                0.8977407318247324,
                1.0493710062114872,
                0.7620896266383674
            ]
        },
        {
            "positions": [
                -0.6891688414347555,
                -0.3206917847969526,
                -0.5620546065597098,
                0.9567582451328716,
                0.9842169032288621,
                0.7174887190812501
            ]
        },
        {
            "positions": [
                -0.6414245808758186,
                -0.34779594954421367,
                -0.41121139531167517,
                1.0157757584410105,
                0.919062800246237,
                0.6728878115241328
            ]
        },
        {
            "positions": [
                -0.5936803203168818,
                -0.3749001142914747,
                -0.26036818406364093,
                1.0747932717491497,
                0.8539086972636121,
                0.6282869039670156
            ]
        },
        {
            "positions": [
                -0.5459360597579449,
                -0.4020042790387357,
                -0.10952497281560647,
                1.1338107850572887,
                0.7887545942809869,
                0.5836859964098983
            ]
        },
        {
            "positions": [
                -0.498191799199008,
                -0.4291084437859967,
                0.04131823843242777,
                1.192828298365428,
                0.7236004912983619,
                0.5390850888527811
            ]
        },
        {
            "positions": [
                -0.45044753864007114,
                -0.45621260853325774,
                0.192161449680462,
                1.251845811673567,
                0.6584463883157369,
                0.49448418129566385
            ]
        },
        {
            "positions": [
                -0.4027032780811344,
                -0.48331677328051875,
                0.34300466092849624,
                1.3108633249817059,
                0.5932922853331118,
                0.44988327373854653
            ]
        },
        {
            "positions": [
                -0.3549590175221974,
                -0.5104209380277798,
                0.4938478721765309,
                1.3698808382898453,
                0.5281381823504867,
                0.4052823661814292
            ]
        },
        {
            "positions": [
                -0.3072147569632605,
                -0.5375251027750407,
                0.6446910834245652,
                1.4288983515979843,
                0.4629840793678617,
                0.360681458624312
            ]
        },
        {
            "positions": [
                -0.25947049640432374,
                -0.5646292675223018,
                0.7955342946725994,
                1.4879158649061235,
                0.39782997638523665,
                0.3160805510671947
            ]
        },
        {
            "positions": [
                -0.21172623584538686,
                -0.5917334322695629,
                0.9463775059206336,
                1.5469333782142625,
                0.3326758734026116,
                0.2714796435100775
            ]
        },
        {
            "positions": [
                -0.16398197528644987,
                -0.6188375970168238,
                1.0972207171686688,
                1.6059508915224017,
                0.26752177041998637,
                0.22687873595296015
            ]
        },
        {
            "positions": [
                -0.1162377147275131,
                -0.6459417617640848,
                1.248063928416703,
                1.6649684048305406,
                0.20236766743736134,
                0.18227782839584294
            ]
        },
        {
            "positions": [
                -0.06849345416857622,
                -0.673045926511346,
                1.3989071396647372,
                1.7239859181386799,
                0.13721356445473654,
                0.13767692083872562
            ]
        },
        {
            "positions": [
                -0.020749193609639338,
                -0.7001500912586069,
                1.5497503509127715,
                1.7830034314468188,
                0.07205946147211151,
                0.09307601328160842
            ]
        },
        {
            "positions": [
                0.02699506694929754,
                -0.7272542560058679,
                1.7005935621608061,
                1.842020944754958,
                0.006905358489486257,
                0.048475105724490986
            ]
        },
        {
            "positions": [
                0.07473932750823442,
                -0.7543584207531291,
                1.8514367734088404,
                1.9010384580630972,
                -0.05824874449313877,
                0.003874198167373777
            ]
        },
        {
            "positions": [
                0.12248358806717137,
                -0.7814625855003899,
                2.0022799846568744,
                1.9600559713712362,
                -0.1234028474757639,
                -0.0407267093897434
            ]
        }
    ]
}