{
    "goal": {
        "global_pose": {
            "orientation": {
                "w": -0.00223480608172531,
                "x": 0.0024358444001904467,
                "y": 0.7094548369677653,
                "z": -0.704743149386269
            },
            "position": {
                "x": 0.6205249238014221,
                "y": -0.6371506643295288,
                "z": 0.19426114857196808
            }
        },
        "name": "move_to_magneteinheit_B"
    },
    "id": "LBKPIECE_move_to_magneteinheit_B_105",
    "joint_names": [
        "shoulder_pan_joint",
        "shoulder_lift_joint",
        "elbow_joint",
        "wrist_1_joint",
        "wrist_2_joint",
        "wrist_3_joint"
    ],
    "metrics": {
        "cart_traj_len": 1.453993028421623,
        "distance_elbow_joint": 0.7314367538071349,
        "distance_shoulder_lift_joint": 1.2486424517884824,
        "distance_shoulder_pan_joint": 1.6201189126125026,
        "distance_wrist_1_joint": 2.611381690545424,
        "distance_wrist_2_joint": 2.9453136757971774,
        "distance_wrist_3_joint": 3.131215254303244,
        "smoothness": 5.921189496370268e-16,
        "time": 0.542766384,
        "traj_len": 3.5054398780829152,
        "weighted_distance": 4.909911874341845
    },
    "planner": "LBKPIECE",
    "start": {
        "state": {
            "elbow_joint": 2.39358713078474,
            "shoulder_lift_joint": -1.908514104345545,
            "shoulder_pan_joint": 0.7066247066606129,
            "wrist_1_joint": -0.4678290933515497,
            "wrist_2_joint": 0.7096259083745334,
            "wrist_3_joint": -3.1358149277392293
        }
    },
    "waypoints": [
        {
            "positions": [
                0.7066247066606129,
                -1.908514104345545,
                2.39358713078474,
                -0.4678290933515497,
                0.7096259083745334,
                -3.1358149277392293
            ]
        },
        {
            "positions": [
                0.6559959906414723,
                -1.8694940277271548,
                2.370729732228267,
                -0.38622341552200523,
                0.6175848560058717,
                -3.037964451042253
            ]
        },
        {
            "positions": [
                0.6053672746223315,
                -1.8304739511087647,
                2.347872333671794,
                -0.3046177376924607,
                0.5255438036372099,
                -2.9401139743452767
            ]
        },
        {
            "positions": [
                0.5547385586031908,
                -1.7914538744903747,
                2.325014935115321,
                -0.2230120598629162,
                0.43350275126854804,
                -2.8422634976483003
            ]
        },
        {
            "positions": [
                0.5041098425840501,
                -1.7524337978719846,
                2.3021575365588482,
                -0.1414063820333717,
                0.34146169889988626,
                -2.744413020951324
            ]
        },
        {
            "positions": [
                0.4534811265649094,
                -1.7134137212535945,
                2.2793001380023754,
                -0.05980070420382716,
                0.24942064653122448,
                -2.6465625442543477
            ]
        },
        {
            "positions": [
                0.4028524105457687,
                -1.6743936446352046,
                2.256442739445902,
                0.021804973625717317,
                0.15737959416256264,
                -2.5487120675573713
            ]
        },
        {
            "positions": [
                0.352223694526628,
                -1.6353735680168144,
                2.2335853408894293,
                0.10341065145526179,
                0.06533854179390086,
                -2.4508615908603946
            ]
        },
        {
            "positions": [
                0.3015949785074873,
                -1.5963534913984243,
                2.2107279423329564,
                0.18501632928480632,
                -0.026702510574760918,
                -2.3530111141634182
            ]
        },
        {
            "positions": [
                0.2509662624883466,
                -1.5573334147800342,
                2.1878705437764836,
                0.26662200711435086,
                -0.1187435629434227,
                -2.255160637466442
            ]
        },
        {
            "positions": [
                0.20033754646920587,
                -1.518313338161644,
                2.1650131452200103,
                0.3482276849438954,
                -0.21078461531208448,
                -2.1573101607694656
            ]
        },
        {
            "positions": [
                0.14970883045006522,
                -1.4792932615432541,
                2.1421557466635375,
                0.4298333627734398,
                -0.30282566768074626,
                -2.0594596840724892
            ]
        },
        {
            "positions": [
                0.09908011443092446,
                -1.440273184924864,
                2.1192983481070646,
                0.5114390406029843,
                -0.39486672004940815,
                -1.961609207375513
            ]
        },
        {
            "positions": [
                0.0484513984117837,
                -1.4012531083064739,
                2.0964409495505913,
                0.5930447184325289,
                -0.4869077724180698,
                -1.8637587306785366
            ]
        },
        {
            "positions": [
                -0.0021773176073569545,
                -1.362233031688084,
                2.0735835509941185,
                0.6746503962620733,
                -0.5789488247867317,
                -1.76590825398156
            ]
        },
        {
            "positions": [
                -0.052806033626497606,
                -1.3232129550696938,
                2.0507261524376457,
                0.756256074091618,
                -0.6709898771553934,
                -1.6680577772845837
            ]
        },
        {
            "positions": [
                -0.10343474964563837,
                -1.2841928784513037,
                2.0278687538811724,
                0.8378617519211624,
                -0.7630309295240553,
                -1.5702073005876074
            ]
        },
        {
            "positions": [
                -0.15406346566477913,
                -1.2451728018329136,
                2.0050113553246995,
                0.9194674297507068,
                -0.8550719818927172,
                -1.472356823890631
            ]
        },
        {
            "positions": [
                -0.20469218168391978,
                -1.2061527252145234,
                1.9821539567682267,
                1.0010731075802515,
                -0.9471130342613788,
                -1.3745063471936547
            ]
        },
        {
            "positions": [
                -0.25532089770306043,
                -1.1671326485961335,
                1.9592965582117536,
                1.082678785409796,
                -1.0391540866300408,
                -1.2766558704966782
            ]
        },
        {
            "positions": [
                -0.3059496137222012,
                -1.1281125719777434,
                1.9364391596552808,
                1.1642844632393405,
                -1.1311951389987023,
                -1.1788053937997018
            ]
        },
        {
            "positions": [
                -0.35657832974134196,
                -1.0890924953593533,
                1.9135817610988077,
                1.245890141068885,
                -1.2232361913673642,
                -1.0809549171027255
            ]
        },
        {
            "positions": [
                -0.4072070457604825,
                -1.0500724187409634,
                1.890724362542335,
                1.3274958188984294,
                -1.315277243736026,
                -0.9831044404057492
            ]
        },
        {
            "positions": [
                -0.45783576177962326,
                -1.0110523421225732,
                1.8678669639858618,
                1.409101496727974,
                -1.407318296104688,
                -0.8852539637087729
            ]
        },
        {
            "positions": [
                -0.508464477798764,
                -0.9720322655041831,
                1.8450095654293888,
                1.4907071745575184,
                -1.4993593484733498,
                -0.7874034870117965
            ]
        },
        {
            "positions": [
                -0.5590931938179048,
                -0.933012188885793,
                1.822152166872916,
                1.5723128523870629,
                -1.5914004008420117,
                -0.6895530103148202
            ]
        },
        {
            "positions": [
                -0.6097219098370456,
                -0.8939921122674028,
                1.799294768316443,
                1.6539185302166075,
                -1.6834414532106732,
                -0.5917025336178439
            ]
        },
        {
            "positions": [
                -0.6603506258561861,
                -0.8549720356490129,
                1.77643736975997,
                1.7355242080461522,
                -1.775482505579335,
                -0.4938520569208671
            ]
        },
        {
            "positions": [
                -0.7109793418753269,
                -0.8159519590306228,
                1.753579971203497,
                1.8171298858756963,
                -1.867523557947997,
                -0.39600158022389076
            ]
        },
        {
            "positions": [
                -0.7616080578944676,
                -0.7769318824122327,
                1.7307225726470241,
                1.898735563705241,
                -1.9595646103166589,
                -0.29815110352691443
            ]
        },
        {
            "positions": [
                -0.8122367739136082,
                -0.7379118057938427,
                1.707865174090551,
                1.9803412415347856,
                -2.0516056626853203,
                -0.2003006268299381
            ]
        },
        {
            "positions": [
                -0.8628654899327489,
                -0.6988917291754526,
                1.685007775534078,
                2.06194691936433,
                -2.143646715053982,
                -0.10245015013296177
            ]
        },
        {
            "positions": [
                -0.9134942059518898,
                -0.6598716525570626,
                1.6621503769776051,
                2.1435525971938745,
                -2.235687767422644,
                -0.004599673435985237
            ]
        }
    ]
}