{
    "goal": {
        "global_pose": {
            "orientation": {
                "w": 0.7031023502349854,
                "x": -0.7110244035720825,
                "y": 0.007748599164187908,
                "z": 0.005598929710686207
            },
            "position": {
                "x": 0.11585023208521307,
                "y": 0.44412534475326537,
                "z": 0.3711530566215515
            }
        },
        "name": "move_to_auspresseinheit_A"
    },
    "id": "LBKPIECE_move_to_auspresseinheit_A_138",
    "joint_names": [
        "shoulder_pan_joint",
        "shoulder_lift_joint",
        "elbow_joint",
        "wrist_1_joint",
        "wrist_2_joint",
        "wrist_3_joint"
    ],
    "metrics": {
        "cart_traj_len": 0.7789138712687076,
        "distance_elbow_joint": 0.3968029539015663,
        "distance_shoulder_lift_joint": 0.6287545624103545,
        "distance_shoulder_pan_joint": 1.0463807061912473,
        "distance_wrist_1_joint": 1.1866689983653935,
        "distance_wrist_2_joint": 0.5198075877497875,
        "distance_wrist_3_joint": 1.9333923485391509,
        "smoothness": 1.0864913626680988,
        "time": 0.44118386200000004,
        "traj_len": 2.389938735021779,
        "weighted_distance": 3.3593255930842703
    },
    "planner": "LBKPIECE",
    "start": {
        "state": {
            "elbow_joint": 2.422574709923281,
            "shoulder_lift_joint": -1.3736533754116391,
            "shoulder_pan_joint": -0.33786336945926293,
            "wrist_1_joint": -1.0288603412921917,
            "wrist_2_joint": 1.2330224858903978,
            "wrist_3_joint": -3.094022268022082
        }
    },
    "waypoints": [
        {
            "positions": [
                -0.33786336945926293,
                -1.3736533754116391,
                2.422574709923281,
                -1.0288603412921917,
                1.2330224858903978,
                -3.094022268022082
            ]
        },
        {
            "positions": [
                -0.27527382277633117,
                -1.4380885825002416,
                2.398668990267618,
                -0.9310508330180659,
                1.2007092289995307,
                -2.989065110944163
            ]
        },
        {
            "positions": [
                -0.21268427609339935,
                -1.5025237895888441,
                2.374763270611955,
                -0.8332413247439401,
                1.1683959721086636,
                -2.8841079538662435
            ]
        },
        {
            "positions": [
                -0.15009472941046756,
                -1.5669589966774469,
                2.3508575509562917,
                -0.7354318164698141,
                1.1360827152177968,
                -2.779150796788324
            ]
        },
        {
            "positions": [
                -0.08750518272753577,
                -1.6313942037660494,
                2.3269518313006285,
                -0.6376223081956884,
                1.1037694583269297,
                -2.674193639710405
            ]
        },
        {
            "positions": [
                -0.02491563604460395,
                -1.6958294108546519,
                2.303046111644965,
                -0.5398127999215625,
                1.0714562014360627,
                -2.569236482632485
            ]
        },
        {
            "positions": [
                0.03767391063832781,
                -1.7602646179432544,
                2.279140391989302,
                -0.4420032916474367,
                1.0391429445451956,
                -2.464279325554566
            ]
        },
        {
            "positions": [
                0.10026345732125963,
                -1.824699825031857,
                2.2552346723336387,
                -0.34419378337331075,
                1.0068296876543288,
                -2.3593221684766466
            ]
        },
        {
            "positions": [
                0.1628530040041914,
                -1.8891350321204596,
                2.2313289526779756,
                -0.24638427509918503,
                0.9745164307634617,
                -2.2543650113987272
            ]
        },
        {
            "positions": [
                0.22544255068712318,
                -1.9535702392090621,
                2.2074232330223125,
                -0.14857476682505907,
                0.9422031738725947,
                -2.149407854320808
            ]
        },
        {
            "positions": [
                0.30595501502793343,
                -1.9454306227735736,
                2.2376984791890786,
                -0.19963867080810252,
                0.9040384612505973,
                -2.3142041767937873
            ]
        },
        {
            "positions": [
                0.3864674793687436,
                -1.937291006338085,
                2.267973725355845,
                -0.250702574791146,
                0.8658737486285999,
                -2.4790004992667667
            ]
        },
        {
            "positions": [
                0.46697994370955387,
                -1.9291513899025965,
                2.2982489715226113,
                -0.3017664787741894,
                0.8277090360066024,
                -2.6437968217397465
            ]
        },
        {
            "positions": [
                0.547492408050364,
                -1.9210117734671077,
                2.3285242176893775,
                -0.3528303827572329,
                0.7895443233846051,
                -2.8085931442127254
            ]
        },
        {
            "positions": [
                0.6280048723911743,
                -1.9128721570316192,
                2.358799463856144,
                -0.4038942867402763,
                0.7513796107626076,
                -2.9733894666857053
            ]
        },
        {
            "positions": [
                0.7085173367319845,
                -1.9047325405961306,
                2.38907471002291,
                -0.4549581907233198,
                0.7132148981406102,
                -3.1381857891586846
            ]
        }
    ]
}