{
    "goal": {
        "global_pose": {
            "orientation": {
                "w": 0.5084816217422485,
                "x": -0.49083608388900757,
                "y": 0.5182115435600281,
                "z": -0.4816462993621826
            },
            "position": {
                "x": 0.5540239810943604,
                "y": 0.030875300988554955,
                "z": 0.16403168439865112
            }
        },
        "name": "move_to_storage_A"
    },
    "id": "LBKPIECE_move_to_storage_A_13",
    "joint_names": [
        "shoulder_pan_joint",
        "shoulder_lift_joint",
        "elbow_joint",
        "wrist_1_joint",
        "wrist_2_joint",
        "wrist_3_joint"
    ],
    "metrics": {
        "cart_traj_len": 0.3529942512934195,
        "distance_elbow_joint": 0.4554838551220861,
        "distance_shoulder_lift_joint": 0.23415091887297468,
        "distance_shoulder_pan_joint": 0.4623398304734956,
        "distance_wrist_1_joint": 0.26358537572855323,
        "distance_wrist_2_joint": 1.0961451130966662,
        "distance_wrist_3_joint": 0.10572609258903398,
        "smoothness": 4.440892098500626e-16,
        "time": 0.289908764,
        "traj_len": 1.617847701695932,
        "weighted_distance": 2.0466103341589226
    },
    "planner": "LBKPIECE",
    "start": {
        "state": {
            "elbow_joint": 1.9715463870305268,
            "shoulder_lift_joint": -1.1394903361783484,
            "shoulder_pan_joint": 0.12281147578464417,
            "wrist_1_joint": -0.7804599489681411,
            "wrist_2_joint": 0.12958660307563738,
            "wrist_3_joint": -3.1924946282119055
        }
    },
    "waypoints": [
        {
            "positions": [
                0.12281147578464417,
                -1.1394903361783484,
                1.9715463870305268,
                -0.7804599489681411,
                0.12958660307563738,
                -3.1924946282119055
            ]
        },
        {
            "positions": [
                0.056762928574144805,
                -1.1729404674459163,
                2.036615509190825,
                -0.8181150026436487,
                0.2861787620894468,
                -3.1773909006991863
            ]
        },
        {
            "positions": [
                -0.009285618636354562,
                -1.206390598713484,
                2.1016846313511226,
                -0.8557700563191563,
                0.4427709211032562,
                -3.1622871731864675
            ]
        },
        {
            "positions": [
                -0.07533416584685391,
                -1.2398407299810519,
                2.1667537535114207,
                -0.8934251099946638,
                0.5993630801170657,
                -3.147183445673748
            ]
        },
        {
            "positions": [
                -0.14138271305735328,
                -1.2732908612486196,
                2.231822875671719,
                -0.9310801636701715,
                0.7559552391308751,
                -3.132079718161029
            ]
        },
        {
            "positions": [
                -0.2074312602678527,
                -1.3067409925161875,
                2.296891997832017,
                -0.9687352173456791,
                0.9125473981446847,
                -3.1169759906483097
            ]
        },
        {
            "positions": [
                -0.273479807478352,
                -1.3401911237837552,
                2.3619611199923147,
                -1.0063902710211867,
                1.069139557158494,
                -3.101872263135591
            ]
        },
        {
            "positions": [
                -0.3395283546888514,
                -1.373641255051323,
                2.427030242152613,
                -1.0440453246966943,
                1.2257317161723036,
                -3.0867685356228716
            ]
        }
    ]
}