{
    "goal": {
        "global_pose": {
            "orientation": {
                "w": 0.5084816217422485,
                "x": -0.49083608388900757,
                "y": 0.5182115435600281,
                "z": -0.4816462993621826
            },
            "position": {
                "x": 0.5540239810943604,
                "y": 0.030875300988554955,
                "z": 0.16403168439865112
            }
        },
        "name": "move_to_storage_A"
    },
    "id": "LBKPIECE_move_to_storage_A_99",
    "joint_names": [
        "shoulder_pan_joint",
        "shoulder_lift_joint",
        "elbow_joint",
        "wrist_1_joint",
        "wrist_2_joint",
        "wrist_3_joint"
    ],
    "metrics": {
        "cart_traj_len": 0.3535252829141845,
        "distance_elbow_joint": 0.44774137086800936,
        "distance_shoulder_lift_joint": 0.23486984781660714,
        "distance_shoulder_pan_joint": 0.4631666735721703,
        "distance_wrist_1_joint": 0.23446046581971058,
        "distance_wrist_2_joint": 1.0956707955133216,
        "distance_wrist_3_joint": 0.08858934162902532,
        "smoothness": 1.1102230263833737e-15,
        "time": 0.294783745,
        "traj_len": 1.6014051627301706,
        "weighted_distance": 2.017872255572668
    },
    "planner": "LBKPIECE",
    "start": {
        "state": {
            "elbow_joint": 1.9715463870305268,
            "shoulder_lift_joint": -1.1394903361783484,
            "shoulder_pan_joint": 0.12281147578464417,
            "wrist_1_joint": -0.7804599489681411,
            "wrist_2_joint": 0.12958660307563738,
            "wrist_3_joint": -3.1924946282119055
        }
    },
    "waypoints": [
        {
            "positions": [
                0.12281147578464417,
                -1.1394903361783484,
                1.9715463870305268,
                -0.7804599489681411,
                0.12958660307563738,
                -3.1924946282119055
            ]
        },
        {
            "positions": [
                0.05664480813147699,
                -1.1730431715807208,
                2.035509440011671,
                -0.8139543012280998,
                0.28611100243468335,
                -3.179839007979188
            ]
        },
        {
            "positions": [
                -0.009521859521690199,
                -1.2065960069830932,
                2.099472492992815,
                -0.8474486534880584,
                0.4426354017937293,
                -3.1671833877464697
            ]
        },
        {
            "positions": [
                -0.07568852717485737,
                -1.2401488423854656,
                2.163435545973959,
                -0.880943005748017,
                0.5991598011527752,
                -3.154527767513752
            ]
        },
        {
            "positions": [
                -0.14185519482802456,
                -1.2737016777878383,
                2.2273985989551033,
                -0.9144373580079757,
                0.7556842005118212,
                -3.141872147281034
            ]
        },
        {
            "positions": [
                -0.20802186248119175,
                -1.3072545131902107,
                2.291361651936248,
                -0.9479317102679343,
                0.9122085998708671,
                -3.129216527048316
            ]
        },
        {
            "positions": [
                -0.2741885301343589,
                -1.340807348592583,
                2.355324704917392,
                -0.981426062527893,
                1.068732999229913,
                -3.116560906815598
            ]
        },
        {
            "positions": [
                -0.3403551977875261,
                -1.3743601839949555,
                2.419287757898536,
                -1.0149204147878517,
                1.225257398588959,
                -3.1039052865828802
            ]
        }
    ]
}