{
    "goal": {
        "global_pose": {
            "orientation": {
                "w": 0.7047431468963623,
                "x": -0.7094548344612122,
                "y": 0.0024358443915843964,
                "z": -0.0022348060738295317
            },
            "position": {
                "x": 0.6094750761985779,
                "y": 0.3671506643295288,
                "z": 0.19426114857196808
            }
        },
        "name": "move_to_magneteinheit_A"
    },
    "id": "LBKPIECE_move_to_magneteinheit_A_112",
    "joint_names": [
        "shoulder_pan_joint",
        "shoulder_lift_joint",
        "elbow_joint",
        "wrist_1_joint",
        "wrist_2_joint",
        "wrist_3_joint"
    ],
    "metrics": {
        "cart_traj_len": 2.0306547357819977,
        "distance_elbow_joint": 3.8754363696223377,
        "distance_shoulder_lift_joint": 1.1076985062166953,
        "distance_shoulder_pan_joint": 1.2411734922275657,
        "distance_wrist_1_joint": 1.1341836220229728,
        "distance_wrist_2_joint": 1.4458443130327796,
        "distance_wrist_3_joint": 4.384709347760408,
        "smoothness": 0.036172589304984334,
        "time": 0.377204227,
        "traj_len": 3.631672569338095,
        "weighted_distance": 4.953634249867396
    },
    "planner": "LBKPIECE",
    "start": {
        "state": {
            "elbow_joint": -1.919643507792019,
            "shoulder_lift_joint": -0.07675430207160344,
            "shoulder_pan_joint": -1.1188671864651873,
            "wrist_1_joint": 0.42560062535961957,
            "wrist_2_joint": 1.5706038300724876,
            "wrist_3_joint": 1.1188968870953055
        }
    },
    "waypoints": [
        {
            "positions": [
                -1.1188671864651873,
                -0.07675430207160344,
                -1.919643507792019,
                0.42560062535961957,
                1.5706038300724876,
                1.1188968870953055
            ]
        },
        {
            "positions": [
                -1.0843075122708012,
                -0.1105164342975189,
                -1.8027280282756477,
                0.3905283676203989,
                1.5280041148666004,
                0.9891284330926093
            ]
        },
        {
            "positions": [
                -1.049747838076415,
                -0.14427856652343435,
                -1.685812548759276,
                0.35545610988117815,
                1.485404399660713,
                0.8593599790899132
            ]
        },
        {
            "positions": [
                -1.0151881638820288,
                -0.17804069874934977,
                -1.5688970692429047,
                0.32038385214195747,
                1.4428046844548257,
                0.7295915250872171
            ]
        },
        {
            "positions": [
                -0.9806284896876426,
                -0.21180283097526523,
                -1.4519815897265334,
                0.2853115944027368,
                1.4002049692489384,
                0.5998230710845209
            ]
        },
        {
            "positions": [
                -0.9460688154932564,
                -0.24556496320118068,
                -1.3350661102101617,
                0.25023933666351605,
                1.3576052540430512,
                0.4700546170818247
            ]
        },
        {
            "positions": [
                -0.9115091412988703,
                -0.2793270954270961,
                -1.2181506306937904,
                0.21516707892429537,
                1.3150055388371638,
                0.3402861630791286
            ]
        },
        {
            "positions": [
                -0.8769494671044841,
                -0.31308922765301156,
                -1.101235151177419,
                0.18009482118507467,
                1.2724058236312765,
                0.21051770907643252
            ]
        },
        {
            "positions": [
                -0.8423897929100979,
                -0.346851359878927,
                -0.9843196716610475,
                0.14502256344585396,
                1.2298061084253893,
                0.08074925507373631
            ]
        },
        {
            "positions": [
                -0.8078301187157116,
                -0.38061349210484247,
                -0.867404192144676,
                0.10995030570663328,
                1.187206393219502,
                -0.049019198928959895
            ]
        },
        {
            "positions": [
                -0.7732704445213254,
                -0.4143756243307579,
                -0.7504887126283046,
                0.07487804796741254,
                1.1446066780136146,
                -0.1787876529316561
            ]
        },
        {
            "positions": [
                -0.7387107703269393,
                -0.44813775655667337,
                -0.6335732331119333,
                0.03980579022819186,
                1.1020069628077274,
                -0.3085561069343521
            ]
        },
        {
            "positions": [
                -0.7041510961325531,
                -0.48189988878258877,
                -0.5166577535955617,
                0.004733532488971182,
                1.0594072476018401,
                -0.4383245609370483
            ]
        },
        {
            "positions": [
                -0.6695914219381669,
                -0.5156620210085042,
                -0.3997422740791903,
                -0.030338725250249554,
                1.0168075323959527,
                -0.5680930149397445
            ]
        },
        {
            "positions": [
                -0.6350317477437808,
                -0.5494241532344197,
                -0.2828267945628189,
                -0.06541098298947023,
                0.9742078171900654,
                -0.6978614689424405
            ]
        },
        {
            "positions": [
                -0.6004720735493946,
                -0.5831862854603351,
                -0.1659113150464473,
                -0.10048324072869091,
                0.9316081019841782,
                -0.8276299229451367
            ]
        },
        {
            "positions": [
                -0.5659123993550084,
                -0.6169484176862505,
                -0.048995835530075915,
                -0.13555549846791165,
                0.8890083867782909,
                -0.9573983769478329
            ]
        },
        {
            "positions": [
                -0.5313527251606222,
                -0.6507105499121659,
                0.06791964398629546,
                -0.17062775620713239,
                0.8464086715724035,
                -1.0871668309505291
            ]
        },
        {
            "positions": [
                -0.49679305096623594,
                -0.6844726821380815,
                0.18483512350266706,
                -0.205700013946353,
                0.8038089563665163,
                -1.2169352849532253
            ]
        },
        {
            "positions": [
                -0.46223337677184984,
                -0.7182348143639969,
                0.3017506030190382,
                -0.24077227168557375,
                0.7612092411606289,
                -1.3467037389559215
            ]
        },
        {
            "positions": [
                -0.4276737025774636,
                -0.7519969465899123,
                0.4186660825354098,
                -0.2758445294247945,
                0.7186095259547417,
                -1.4764721929586178
            ]
        },
        {
            "positions": [
                -0.3931140283830774,
                -0.7857590788158277,
                0.5355815620517814,
                -0.3109167871640151,
                0.6760098107488544,
                -1.6062406469613135
            ]
        },
        {
            "positions": [
                -0.3585543541886913,
                -0.8195212110417434,
                0.6524970415681526,
                -0.34598904490323584,
                0.6334100955429671,
                -1.7360091009640097
            ]
        },
        {
            "positions": [
                -0.3239946799943051,
                -0.8532833432676588,
                0.7694125210845242,
                -0.3810613026424566,
                0.5908103803370798,
                -1.865777554966706
            ]
        },
        {
            "positions": [
                -0.2894350057999189,
                -0.8870454754935742,
                0.8863280006008958,
                -0.4161335603816772,
                0.5482106651311924,
                -1.9955460089694022
            ]
        },
        {
            "positions": [
                -0.25487533160553266,
                -0.9208076077194896,
                1.003243480117267,
                -0.45120581812089794,
                0.5056109499253052,
                -2.1253144629720984
            ]
        },
        {
            "positions": [
                -0.22031565741114645,
                -0.954569739945405,
                1.1201589596336385,
                -0.4862780758601187,
                0.46301123471941796,
                -2.2550829169747946
            ]
        },
        {
            "positions": [
                -0.18575598321676035,
                -0.9883318721713206,
                1.2370744391500101,
                -0.5213503335993395,
                0.4204115195135305,
                -2.384851370977491
            ]
        },
        {
            "positions": [
                -0.15119630902237413,
                -1.022094004397236,
                1.3539899186663813,
                -0.5564225913385601,
                0.3778118043076433,
                -2.5146198249801865
            ]
        },
        {
            "positions": [
                -0.11663663482798792,
                -1.0558561366231514,
                1.470905398182753,
                -0.5914948490777807,
                0.33521208910175604,
                -2.6443882789828828
            ]
        },
        {
            "positions": [
                -0.08207696063360181,
                -1.089618268849067,
                1.5878208776991245,
                -0.6265671068170013,
                0.2926123738958688,
                -2.774156732985579
            ]
        },
        {
            "positions": [
                -0.04751728643921549,
                -1.1233804010749824,
                1.7047363572154957,
                -0.6616393645562222,
                0.25001265868998135,
                -2.903925186988275
            ]
        },
        {
            "positions": [
                -0.012957612244829397,
                -1.1571425333008978,
                1.8216518367318673,
                -0.6967116222954428,
                0.20741294348409406,
                -3.0336936409909714
            ]
        },
        {
            "positions": [
                0.05467434675877436,
                -1.1434873958071972,
                1.888722349281093,
                -0.7026473094793981,
                0.16608623026190106,
                -3.1497530508280365
            ]
        },
        {
            "positions": [
                0.12230630576237814,
                -1.1298322583134968,
                1.9557928618303186,
                -0.7085829966633533,
                0.12475951703970803,
                -3.2658124606651016
            ]
        }
    ]
}