{
    "goal": {
        "global_pose": {
            "orientation": {
                "w": 0.7047431468963623,
                "x": -0.7094548344612122,
                "y": 0.0024358443915843964,
                "z": -0.0022348060738295317
            },
            "position": {
                "x": 0.6094750761985779,
                "y": 0.3671506643295288,
                "z": 0.19426114857196808
            }
        },
        "name": "move_to_magneteinheit_A"
    },
    "id": "LBKPIECE_move_to_magneteinheit_A_4",
    "joint_names": [
        "shoulder_pan_joint",
        "shoulder_lift_joint",
        "elbow_joint",
        "wrist_1_joint",
        "wrist_2_joint",
        "wrist_3_joint"
    ],
    "metrics": {
        "cart_traj_len": 1.8744044339073884,
        "distance_elbow_joint": 3.9252845926358955,
        "distance_shoulder_lift_joint": 0.7057370228622543,
        "distance_shoulder_pan_joint": 1.2412274248506874,
        "distance_wrist_1_joint": 1.5242177180503083,
        "distance_wrist_2_joint": 1.709276016545608,
        "distance_wrist_3_joint": 1.141858858366007,
        "smoothness": 4.276414619397388e-16,
        "time": 0.243796755,
        "traj_len": 3.2011875348549577,
        "weighted_distance": 3.970492801232448
    },
    "planner": "LBKPIECE",
    "start": {
        "state": {
            "elbow_joint": -1.919643507792019,
            "shoulder_lift_joint": -0.07675430207160344,
            "shoulder_pan_joint": -1.1188671864651873,
            "wrist_1_joint": 0.42560062535961957,
            "wrist_2_joint": 1.5706038300724876,
            "wrist_3_joint": 1.1188968870953055
        }
    },
    "waypoints": [
        {
            "positions": [
                -1.1188671864651873,
                -0.07675430207160344,
                -1.919643507792019,
                0.42560062535961957,
                1.5706038300724876,
                1.1188968870953055
            ]
        },
        {
            "positions": [
                -1.0711276701247763,
                -0.10389803372015169,
                -1.7686710234598693,
                0.4842243837461699,
                1.5048624448207335,
                1.074979238696613
            ]
        },
        {
            "positions": [
                -1.0233881537843652,
                -0.13104176536869994,
                -1.6176985391277194,
                0.5428481421327203,
                1.4391210595689792,
                1.0310615902979203
            ]
        },
        {
            "positions": [
                -0.9756486374439541,
                -0.15818549701724818,
                -1.4667260547955696,
                0.6014719005192706,
                1.373379674317225,
                0.9871439418992278
            ]
        },
        {
            "positions": [
                -0.9279091211035431,
                -0.18532922866579643,
                -1.3157535704634198,
                0.6600956589058209,
                1.307638289065471,
                0.9432262935005352
            ]
        },
        {
            "positions": [
                -0.8801696047631321,
                -0.21247296031434468,
                -1.16478108613127,
                0.7187194172923712,
                1.2418969038137169,
                0.8993086451018426
            ]
        },
        {
            "positions": [
                -0.832430088422721,
                -0.23961669196289292,
                -1.0138086017991201,
                0.7773431756789215,
                1.1761555185619628,
                0.8553909967031501
            ]
        },
        {
            "positions": [
                -0.78469057208231,
                -0.26676042361144114,
                -0.8628361174669703,
                0.8359669340654718,
                1.1104141333102087,
                0.8114733483044576
            ]
        },
        {
            "positions": [
                -0.7369510557418989,
                -0.2939041552599894,
                -0.7118636331348205,
                0.8945906924520222,
                1.0446727480584543,
                0.7675556999057649
            ]
        },
        {
            "positions": [
                -0.6892115394014879,
                -0.32104788690853764,
                -0.5608911488026707,
                0.9532144508385725,
                0.9789313628067002,
                0.7236380515070724
            ]
        },
        {
            "positions": [
                -0.6414720230610769,
                -0.3481916185570859,
                -0.40991866447052083,
                1.0118382092251228,
                0.913189977554946,
                0.6797204031083798
            ]
        },
        {
            "positions": [
                -0.5937325067206658,
                -0.37533535020563413,
                -0.258946180138371,
                1.0704619676116731,
                0.8474485923031919,
                0.6358027547096872
            ]
        },
        {
            "positions": [
                -0.5459929903802547,
                -0.4024790818541824,
                -0.10797369580622118,
                1.1290857259982234,
                0.7817072070514377,
                0.5918851063109946
            ]
        },
        {
            "positions": [
                -0.49825347403984366,
                -0.4296228135027306,
                0.042998788525928644,
                1.1877094843847738,
                0.7159658217996836,
                0.5479674579123021
            ]
        },
        {
            "positions": [
                -0.4505139576994326,
                -0.45676654515127885,
                0.19397127285807847,
                1.246333242771324,
                0.6502244365479295,
                0.5040498095136096
            ]
        },
        {
            "positions": [
                -0.40277444135902163,
                -0.48391027679982707,
                0.3449437571902283,
                1.3049570011578742,
                0.5844830512961754,
                0.46013216111491695
            ]
        },
        {
            "positions": [
                -0.35503492501861045,
                -0.5110540084483755,
                0.4959162415223781,
                1.3635807595444247,
                0.5187416660444211,
                0.41621451271622434
            ]
        },
        {
            "positions": [
                -0.3072954086781995,
                -0.5381977400969236,
                0.646888725854528,
                1.422204517930975,
                0.45300028079266697,
                0.37229686431753173
            ]
        },
        {
            "positions": [
                -0.2595558923377884,
                -0.5653414717454719,
                0.7978612101866778,
                1.4808282763175253,
                0.38725889554091286,
                0.32837921591883923
            ]
        },
        {
            "positions": [
                -0.21181637599737735,
                -0.59248520339402,
                0.9488336945188276,
                1.5394520347040757,
                0.32151751028915876,
                0.2844615675201466
            ]
        },
        {
            "positions": [
                -0.16407685965696628,
                -0.6196289350425683,
                1.0998061788509774,
                1.598075793090626,
                0.25577612503740443,
                0.240543919121454
            ]
        },
        {
            "positions": [
                -0.11633734331655532,
                -0.6467726666911167,
                1.2507786631831272,
                1.6566995514771763,
                0.19003473978565033,
                0.1966262707227614
            ]
        },
        {
            "positions": [
                -0.06859782697614425,
                -0.6739163983396648,
                1.401751147515277,
                1.7153233098637266,
                0.12429335453389623,
                0.1527086223240689
            ]
        },
        {
            "positions": [
                -0.02085831063573318,
                -0.7010601299882131,
                1.552723631847427,
                1.773947068250277,
                0.058551969282142124,
                0.10879097392537629
            ]
        },
        {
            "positions": [
                0.02688120570467789,
                -0.7282038616367614,
                1.7036961161795767,
                1.8325708266368272,
                -0.007189415969612201,
                0.06487332552668357
            ]
        },
        {
            "positions": [
                0.07462072204508896,
                -0.7553475932853095,
                1.8546686005117266,
                1.8911945850233776,
                -0.0729308012213663,
                0.020955677127991068
            ]
        },
        {
            "positions": [
                0.12236023838550002,
                -0.7824913249338578,
                2.005641084843876,
                1.9498183434099279,
                -0.13867218647312035,
                -0.022961971270701452
            ]
        }
    ]
}