{
    "goal": {
        "global_pose": {
            "orientation": {
                "w": 0.7047431468963623,
                "x": -0.7094548344612122,
                "y": 0.0024358443915843964,
                "z": -0.0022348060738295317
            },
            "position": {
                "x": 0.6094750761985779,
                "y": 0.3671506643295288,
                "z": 0.19426114857196808
            }
        },
        "name": "move_to_magneteinheit_A"
    },
    "id": "LBKPIECE_move_to_magneteinheit_A_8",
    "joint_names": [
        "shoulder_pan_joint",
        "shoulder_lift_joint",
        "elbow_joint",
        "wrist_1_joint",
        "wrist_2_joint",
        "wrist_3_joint"
    ],
    "metrics": {
        "cart_traj_len": 1.8786394793278551,
        "distance_elbow_joint": 3.909642264857583,
        "distance_shoulder_lift_joint": 0.6984640026344401,
        "distance_shoulder_pan_joint": 1.2413737819211281,
        "distance_wrist_1_joint": 1.4957306076900374,
        "distance_wrist_2_joint": 1.6925154109822436,
        "distance_wrist_3_joint": 1.1072247398198711,
        "smoothness": 3.289549710083688e-16,
        "time": 0.413526898,
        "traj_len": 3.1851139395483647,
        "weighted_distance": 3.943050380887534
    },
    "planner": "LBKPIECE",
    "start": {
        "state": {
            "elbow_joint": -1.919643507792019,
            "shoulder_lift_joint": -0.07675430207160344,
            "shoulder_pan_joint": -1.1188671864651873,
            "wrist_1_joint": 0.42560062535961957,
            "wrist_2_joint": 1.5706038300724876,
            "wrist_3_joint": 1.1188968870953055
        }
    },
    "waypoints": [
        {
            "positions": [
                -1.1188671864651873,
                -0.07675430207160344,
                -1.919643507792019,
                0.42560062535961957,
                1.5706038300724876,
                1.1188968870953055
            ]
        },
        {
            "positions": [
                -1.0711220410066824,
                -0.10361830217292807,
                -1.7692726514513428,
                0.4831287256553902,
                1.5055070834962474,
                1.0763113201791568
            ]
        },
        {
            "positions": [
                -1.0233768955481775,
                -0.1304823022742527,
                -1.6189017951106666,
                0.5406568259511609,
                1.4404103369200074,
                1.0337257532630078
            ]
        },
        {
            "positions": [
                -0.9756317500896725,
                -0.1573463023755773,
                -1.4685309387699903,
                0.5981849262469316,
                1.3753135903437672,
                0.9911401863468589
            ]
        },
        {
            "positions": [
                -0.9278866046311676,
                -0.18421030247690195,
                -1.318160082429314,
                0.6557130265427022,
                1.310216843767527,
                0.94855461943071
            ]
        },
        {
            "positions": [
                -0.8801414591726627,
                -0.21107430257822657,
                -1.1677892260886378,
                0.7132411268384728,
                1.245120097191287,
                0.9059690525145611
            ]
        },
        {
            "positions": [
                -0.8323963137141578,
                -0.23793830267955118,
                -1.0174183697479615,
                0.7707692271342437,
                1.1800233506150468,
                0.8633834855984122
            ]
        },
        {
            "positions": [
                -0.7846511682556528,
                -0.2648023027808758,
                -0.8670475134072853,
                0.8282973274300143,
                1.1149266040388066,
                0.8207979186822634
            ]
        },
        {
            "positions": [
                -0.7369060227971479,
                -0.2916663028822004,
                -0.716676657066609,
                0.8858254277257849,
                1.0498298574625666,
                0.7782123517661144
            ]
        },
        {
            "positions": [
                -0.6891608773386431,
                -0.318530302983525,
                -0.5663058007259327,
                0.9433535280215555,
                0.9847331108863264,
                0.7356267848499656
            ]
        },
        {
            "positions": [
                -0.6414157318801381,
                -0.3453943030848497,
                -0.41593494438525647,
                1.0008816283173263,
                0.9196363643100862,
                0.6930412179338166
            ]
        },
        {
            "positions": [
                -0.5936705864216332,
                -0.3722583031861743,
                -0.2655640880445802,
                1.058409728613097,
                0.8545396177338461,
                0.6504556510176678
            ]
        },
        {
            "positions": [
                -0.5459254409631282,
                -0.3991223032874989,
                -0.11519323170390394,
                1.1159378289088677,
                0.7894428711576059,
                0.6078700841015189
            ]
        },
        {
            "positions": [
                -0.4981802955046233,
                -0.42598630338882354,
                0.03517762463677232,
                1.1734659292046383,
                0.7243461245813658,
                0.56528451718537
            ]
        },
        {
            "positions": [
                -0.45043515004611834,
                -0.45285030349014815,
                0.18554848097744858,
                1.230994029500409,
                0.6592493780051257,
                0.5226989502692211
            ]
        },
        {
            "positions": [
                -0.4026900045876135,
                -0.47971430359147277,
                0.33591933731812484,
                1.2885221297961795,
                0.5941526314288856,
                0.4801133833530723
            ]
        },
        {
            "positions": [
                -0.35494485912910845,
                -0.5065783036927974,
                0.4862901936588011,
                1.3460502300919504,
                0.5290558848526454,
                0.4375278164369233
            ]
        },
        {
            "positions": [
                -0.3071997136706036,
                -0.533442303794122,
                0.6366610499994774,
                1.403578330387721,
                0.4639591382764052,
                0.3949422495207744
            ]
        },
        {
            "positions": [
                -0.25945456821209867,
                -0.5603063038954467,
                0.7870319063401536,
                1.4611064306834916,
                0.39886239170016524,
                0.3523566826046256
            ]
        },
        {
            "positions": [
                -0.21170942275359372,
                -0.5871703039967713,
                0.9374027626808299,
                1.5186345309792624,
                0.33376564512392504,
                0.3097711156884767
            ]
        },
        {
            "positions": [
                -0.16396427729508878,
                -0.614034304098096,
                1.0877736190215062,
                1.576162631275033,
                0.26866889854768483,
                0.2671855487723277
            ]
        },
        {
            "positions": [
                -0.11621913183658394,
                -0.6408983041994205,
                1.2381444753621824,
                1.6336907315708038,
                0.20357215197144463,
                0.2245999818561788
            ]
        },
        {
            "positions": [
                -0.068473986378079,
                -0.6677623043007452,
                1.3885153317028587,
                1.6912188318665744,
                0.13847540539520464,
                0.18201441494003
            ]
        },
        {
            "positions": [
                -0.020728840919574054,
                -0.6946263044020697,
                1.538886188043535,
                1.748746932162345,
                0.07337865881896444,
                0.1394288480238811
            ]
        },
        {
            "positions": [
                0.02701630453893089,
                -0.7214903045033945,
                1.6892570443842112,
                1.8062750324581158,
                0.008281912242724232,
                0.09684328110773222
            ]
        },
        {
            "positions": [
                0.07476144999743584,
                -0.748354304604719,
                1.8396279007248875,
                1.8638031327538864,
                -0.05681483433351597,
                0.054257714191583206
            ]
        },
        {
            "positions": [
                0.1225065954559408,
                -0.7752183047060436,
                1.9899987570655637,
                1.921331233049657,
                -0.12191158090975586,
                0.011672147275434312
            ]
        }
    ]
}