{
    "goal": {
        "global_pose": {
            "orientation": {
                "w": 0.7031023502349854,
                "x": -0.7110244035720825,
                "y": 0.007748599164187908,
                "z": 0.005598929710686207
            },
            "position": {
                "x": 0.11585023208521307,
                "y": 0.44412534475326537,
                "z": 0.3711530566215515
            }
        },
        "name": "move_to_auspresseinheit_A"
    },
    "id": "LBKPIECE_move_to_auspresseinheit_A_10",
    "joint_names": [
        "shoulder_pan_joint",
        "shoulder_lift_joint",
        "elbow_joint",
        "wrist_1_joint",
        "wrist_2_joint",
        "wrist_3_joint"
    ],
    "metrics": {
        "cart_traj_len": 3.684757153972994,
        "distance_elbow_joint": 4.327840425236149,
        "distance_shoulder_lift_joint": 0.696128024546099,
        "distance_shoulder_pan_joint": 2.0039796801778005,
        "distance_wrist_1_joint": 0.9726404330311518,
        "distance_wrist_2_joint": 1.8679362039462624,
        "distance_wrist_3_joint": 2.1641787237956494,
        "smoothness": 0.8095483646869974,
        "time": 0.21247270099999999,
        "traj_len": 3.4688187457307587,
        "weighted_distance": 4.381967317918041
    },
    "planner": "LBKPIECE",
    "start": {
        "state": {
            "elbow_joint": 2.422574709923281,
            "shoulder_lift_joint": -1.3736533754116391,
            "shoulder_pan_joint": -0.33786336945926293,
            "wrist_1_joint": -1.0288603412921917,
            "wrist_2_joint": 1.2330224858903978,
            "wrist_3_joint": -3.094022268022082
        }
    },
    "waypoints": [
        {
            "positions": [
                -0.33786336945926293,
                -1.3736533754116391,
                2.422574709923281,
                -1.0288603412921917,
                1.2330224858903978,
                -3.094022268022082
            ]
        },
        {
            "positions": [
                -0.2532364382999831,
                -1.403559616470997,
                2.3016304421002842,
                -1.0023536722630282,
                1.1665378530782058,
                -3.0345938560684367
            ]
        },
        {
            "positions": [
                -0.16860950714070327,
                -1.4334658575303545,
                2.1806861742772874,
                -0.9758470032338649,
                1.1000532202660138,
                -2.975165444114791
            ]
        },
        {
            "positions": [
                -0.08398257598142345,
                -1.4633720985897123,
                2.0597419064542906,
                -0.9493403342047013,
                1.0335685874538216,
                -2.9157370321611453
            ]
        },
        {
            "positions": [
                0.0006443551778563816,
                -1.49327833964907,
                1.9387976386312935,
                -0.9228336651755379,
                0.9670839546416297,
                -2.8563086202074994
            ]
        },
        {
            "positions": [
                0.08527128633713627,
                -1.5231845807084277,
                1.8178533708082967,
                -0.8963269961463745,
                0.9005993218294377,
                -2.796880208253854
            ]
        },
        {
            "positions": [
                0.16989821749641604,
                -1.5530908217677855,
                1.6969091029852998,
                -0.869820327117211,
                0.8341146890172457,
                -2.737451796300208
            ]
        },
        {
            "positions": [
                0.2545251486556959,
                -1.5829970628271433,
                1.5759648351623028,
                -0.8433136580880476,
                0.7676300562050536,
                -2.6780233843465626
            ]
        },
        {
            "positions": [
                0.3391520798149757,
                -1.6129033038865008,
                1.455020567339306,
                -0.816806989058884,
                0.7011454233928617,
                -2.618594972392917
            ]
        },
        {
            "positions": [
                0.4237790109742556,
                -1.6428095449458586,
                1.3340762995163091,
                -0.7903003200297206,
                0.6346607905806696,
                -2.5591665604392713
            ]
        },
        {
            "positions": [
                0.5084059421335354,
                -1.6727157860052164,
                1.2131320316933123,
                -0.7637936510005572,
                0.5681761577684775,
                -2.4997381484856254
            ]
        },
        {
            "positions": [
                0.5930328732928154,
                -1.702622027064574,
                1.0921877638703152,
                -0.7372869819713936,
                0.5016915249562856,
                -2.44030973653198
            ]
        },
        {
            "positions": [
                0.677659804452095,
                -1.7325282681239318,
                0.9712434960473186,
                -0.7107803129422303,
                0.4352068921440936,
                -2.3808813245783345
            ]
        },
        {
            "positions": [
                0.7622867356113749,
                -1.7624345091832896,
                0.8502992282243216,
                -0.6842736439130668,
                0.3687222593319015,
                -2.3214529126246886
            ]
        },
        {
            "positions": [
                0.8469136667706547,
                -1.7923407502426472,
                0.7293549604013247,
                -0.6577669748839033,
                0.30223762651970953,
                -2.262024500671043
            ]
        },
        {
            "positions": [
                0.9315405979299345,
                -1.822246991302005,
                0.6084106925783277,
                -0.6312603058547399,
                0.23575299370751746,
                -2.202596088717397
            ]
        },
        {
            "positions": [
                1.0161675290892143,
                -1.8521532323613625,
                0.4874664247553311,
                -0.6047536368255764,
                0.1692683608953256,
                -2.1431676767637518
            ]
        },
        {
            "positions": [
                1.1007944602484943,
                -1.8820594734207203,
                0.36652215693233403,
                -0.578246967796413,
                0.10278372808313341,
                -2.083739264810106
            ]
        },
        {
            "positions": [
                1.185421391407774,
                -1.9119657144800781,
                0.24557788910933728,
                -0.5517402987672495,
                0.03629909527094139,
                -2.0243108528564604
            ]
        },
        {
            "positions": [
                1.1535379069562446,
                -1.9191646836474865,
                0.4320503775221935,
                -0.5258939269418985,
                0.07089232904650926,
                -2.1166201693974656
            ]
        },
        {
            "positions": [
                1.1216544225047154,
                -1.9263636528148949,
                0.6185228659350497,
                -0.5000475551165476,
                0.10548556282207713,
                -2.2089294859384703
            ]
        },
        {
            "positions": [
                1.089770938053186,
                -1.9335626219823034,
                0.8049953543479059,
                -0.47420118329119665,
                0.140078796597645,
                -2.3012388024794754
            ]
        },
        {
            "positions": [
                1.0578874536016567,
                -1.9407615911497118,
                0.9914678427607622,
                -0.4483548114658457,
                0.17467203037321286,
                -2.3935481190204806
            ]
        },
        {
            "positions": [
                1.0260039691501273,
                -1.9479605603171202,
                1.1779403311736183,
                -0.4225084396404948,
                0.20926526414878072,
                -2.4858574355614858
            ]
        },
        {
            "positions": [
                0.9941204846985978,
                -1.9551595294845285,
                1.3644128195864744,
                -0.3966620678151438,
                0.24385849792434858,
                -2.5781667521024905
            ]
        },
        {
            "positions": [
                0.9622370002470685,
                -1.962358498651937,
                1.5508853079993306,
                -0.37081569598979286,
                0.2784517316999165,
                -2.6704760686434956
            ]
        },
        {
            "positions": [
                0.9303535157955392,
                -1.9695574678193453,
                1.737357796412187,
                -0.3449693241644419,
                0.3130449654754843,
                -2.762785385184501
            ]
        },
        {
            "positions": [
                0.8984700313440097,
                -1.9767564369867539,
                1.9238302848250433,
                -0.31912295233909094,
                0.3476381992510522,
                -2.855094701725506
            ]
        },
        {
            "positions": [
                0.8665865468924805,
                -1.9839554061541622,
                2.1103027732378994,
                -0.29327658051374,
                0.38223143302662005,
                -2.9474040182665107
            ]
        },
        {
            "positions": [
                0.834703062440951,
                -1.9911543753215706,
                2.2967752616507555,
                -0.26743020868838907,
                0.41682466680218794,
                -3.039713334807516
            ]
        },
        {
            "positions": [
                0.7967887500461912,
                -1.9690730989863496,
                2.3377463584868954,
                -0.32897683497754826,
                0.5015482509203035,
                -3.0666406999619666
            ]
        },
        {
            "positions": [
                0.7588744376514314,
                -1.9469918226511287,
                2.3787174553230352,
                -0.39052346126670745,
                0.5862718350384191,
                -3.0935680651164175
            ]
        },
        {
            "positions": [
                0.7047264720970108,
                -1.912527350685403,
                2.396421493531543,
                -0.4786405091157379,
                0.7075119085977472,
                -3.118778161486488
            ]
        }
    ]
}