{
    "goal": {
        "global_pose": {
            "orientation": {
                "w": 0.7047431468963623,
                "x": -0.7094548344612122,
                "y": 0.0024358443915843964,
                "z": -0.0022348060738295317
            },
            "position": {
                "x": 0.6094750761985779,
                "y": 0.3671506643295288,
                "z": 0.19426114857196808
            }
        },
        "name": "move_to_magneteinheit_A"
    },
    "id": "LBKPIECE_move_to_magneteinheit_A_21",
    "joint_names": [
        "shoulder_pan_joint",
        "shoulder_lift_joint",
        "elbow_joint",
        "wrist_1_joint",
        "wrist_2_joint",
        "wrist_3_joint"
    ],
    "metrics": {
        "cart_traj_len": 2.065284940763286,
        "distance_elbow_joint": 3.8784122219648607,
        "distance_shoulder_lift_joint": 1.056828928561131,
        "distance_shoulder_pan_joint": 1.2430079825682334,
        "distance_wrist_1_joint": 1.1374047742938949,
        "distance_wrist_2_joint": 1.4291862197958956,
        "distance_wrist_3_joint": 4.364506032099317,
        "smoothness": 5.836601054171115e-16,
        "time": 0.492187977,
        "traj_len": 3.620683106719411,
        "weighted_distance": 4.940136558595497
    },
    "planner": "LBKPIECE",
    "start": {
        "state": {
            "elbow_joint": -1.919643507792019,
            "shoulder_lift_joint": -0.07675430207160344,
            "shoulder_pan_joint": -1.1188671864651873,
            "wrist_1_joint": 0.42560062535961957,
            "wrist_2_joint": 1.5706038300724876,
            "wrist_3_joint": 1.1188968870953055
        }
    },
    "waypoints": [
        {
            "positions": [
                -1.1188671864651873,
                -0.07675430207160344,
                -1.919643507792019,
                0.42560062535961957,
                1.5706038300724876,
                1.1188968870953055
            ]
        },
        {
            "positions": [
                -1.0853637644460008,
                -0.11180849245682316,
                -1.8291122933580455,
                0.36826732803995804,
                1.520509421894472,
                1.005407788350985
            ]
        },
        {
            "positions": [
                -1.0518603424268145,
                -0.14686268284204287,
                -1.738581078924072,
                0.3109340307202966,
                1.4704150137164562,
                0.8919186896066646
            ]
        },
        {
            "positions": [
                -1.018356920407628,
                -0.18191687322726258,
                -1.6480498644900985,
                0.25360073340063505,
                1.4203206055384405,
                0.7784295908623442
            ]
        },
        {
            "positions": [
                -0.9848534983884414,
                -0.2169710636124823,
                -1.5575186500561249,
                0.19626743608097355,
                1.3702261973604248,
                0.6649404921180238
            ]
        },
        {
            "positions": [
                -0.951350076369255,
                -0.25202525399770204,
                -1.4669874356221513,
                0.13893413876131205,
                1.3201317891824091,
                0.5514513933737033
            ]
        },
        {
            "positions": [
                -0.9178466543500684,
                -0.28707944438292177,
                -1.3764562211881777,
                0.08160084144165053,
                1.2700373810043932,
                0.43796229462938274
            ]
        },
        {
            "positions": [
                -0.884343232330882,
                -0.32213363476814144,
                -1.2859250067542043,
                0.02426754412198906,
                1.2199429728263775,
                0.3244731958850623
            ]
        },
        {
            "positions": [
                -0.8508398103116954,
                -0.35718782515336117,
                -1.1953937923202307,
                -0.033065753197672465,
                1.1698485646483618,
                0.21098409714074184
            ]
        },
        {
            "positions": [
                -0.817336388292509,
                -0.39224201553858085,
                -1.1048625778862573,
                -0.09039905051733393,
                1.1197541564703462,
                0.0974949983964215
            ]
        },
        {
            "positions": [
                -0.7838329662733226,
                -0.4272962059238006,
                -1.0143313634522837,
                -0.14773234783699546,
                1.0696597482923305,
                -0.015994100347898943
            ]
        },
        {
            "positions": [
                -0.750329544254136,
                -0.4623503963090203,
                -0.9238001490183102,
                -0.20506564515665687,
                1.0195653401143148,
                -0.1294831990922194
            ]
        },
        {
            "positions": [
                -0.7168261222349495,
                -0.49740458669424004,
                -0.8332689345843365,
                -0.2623989424763185,
                0.969470931936299,
                -0.24297229783654006
            ]
        },
        {
            "positions": [
                -0.683322700215763,
                -0.5324587770794598,
                -0.7427377201503629,
                -0.31973223979598003,
                0.9193765237582833,
                -0.3564613965808605
            ]
        },
        {
            "positions": [
                -0.6498192781965766,
                -0.5675129674646795,
                -0.6522065057163895,
                -0.37706553711564145,
                0.8692821155802676,
                -0.46995049532518096
            ]
        },
        {
            "positions": [
                -0.61631585617739,
                -0.6025671578498992,
                -0.5616752912824159,
                -0.434398834435303,
                0.8191877074022519,
                -0.5834395940695013
            ]
        },
        {
            "positions": [
                -0.5773444534257882,
                -0.6305153722068906,
                -0.429020343626876,
                -0.4489991141457752,
                0.7835155970272172,
                -0.7235537809607913
            ]
        },
        {
            "positions": [
                -0.5383730506741863,
                -0.6584635865638819,
                -0.29636539597133615,
                -0.4635993938562474,
                0.7478434866521825,
                -0.8636679678520812
            ]
        },
        {
            "positions": [
                -0.4994016479225844,
                -0.6864118009208732,
                -0.1637104483157963,
                -0.47819967356671955,
                0.7121713762771478,
                -1.0037821547433712
            ]
        },
        {
            "positions": [
                -0.4604302451709825,
                -0.7143600152778645,
                -0.03105550066025642,
                -0.4927999532771917,
                0.6764992659021131,
                -1.1438963416346613
            ]
        },
        {
            "positions": [
                -0.4214588424193807,
                -0.7423082296348559,
                0.10159944699528345,
                -0.5074002329876639,
                0.6408271555270784,
                -1.284010528525951
            ]
        },
        {
            "positions": [
                -0.38248743966777876,
                -0.7702564439918472,
                0.23425439465082332,
                -0.5220005126981361,
                0.6051550451520437,
                -1.4241247154172412
            ]
        },
        {
            "positions": [
                -0.34351603691617694,
                -0.7982046583488385,
                0.3669093423063632,
                -0.5366007924086083,
                0.569482934777009,
                -1.564238902308531
            ]
        },
        {
            "positions": [
                -0.30454463416457506,
                -0.8261528727058298,
                0.49956428996190305,
                -0.5512010721190804,
                0.5338108244019741,
                -1.704353089199821
            ]
        },
        {
            "positions": [
                -0.2655732314129732,
                -0.8541010870628212,
                0.6322192376174429,
                -0.5658013518295526,
                0.4981387140269395,
                -1.8444672760911112
            ]
        },
        {
            "positions": [
                -0.2266018286613713,
                -0.8820493014198125,
                0.7648741852729828,
                -0.5804016315400249,
                0.4624666036519048,
                -1.9845814629824008
            ]
        },
        {
            "positions": [
                -0.18763042590976936,
                -0.9099975157768039,
                0.8975291329285227,
                -0.5950019112504971,
                0.4267944932768701,
                -2.1246956498736913
            ]
        },
        {
            "positions": [
                -0.14865902315816754,
                -0.9379457301337952,
                1.0301840805840625,
                -0.6096021909609692,
                0.3911223829018354,
                -2.264809836764981
            ]
        },
        {
            "positions": [
                -0.10968762040656566,
                -0.9658939444907866,
                1.1628390282396024,
                -0.6242024706714414,
                0.3554502725268006,
                -2.404924023656271
            ]
        },
        {
            "positions": [
                -0.07071621765496383,
                -0.9938421588477778,
                1.2954939758951423,
                -0.6388027503819136,
                0.31977816215176597,
                -2.545038210547561
            ]
        },
        {
            "positions": [
                -0.031744814903361895,
                -1.021790373204769,
                1.4281489235506821,
                -0.6534030300923858,
                0.2841060517767312,
                -2.685152397438851
            ]
        },
        {
            "positions": [
                0.007226587848239929,
                -1.0497385875617604,
                1.560803871206222,
                -0.6680033098028579,
                0.2484339414016965,
                -2.8252665843301408
            ]
        },
        {
            "positions": [
                0.046197990599841865,
                -1.0776868019187518,
                1.6934588188617619,
                -0.6826035895133301,
                0.2127618310266618,
                -2.965380771221431
            ]
        },
        {
            "positions": [
                0.08516939335144369,
                -1.1056350162757431,
                1.8261137665173017,
                -0.6972038692238023,
                0.1770897206516271,
                -3.105494958112721
            ]
        },
        {
            "positions": [
                0.12414079610304565,
                -1.1335832306327345,
                1.9587687141728416,
                -0.7118041489342745,
                0.14141761027659244,
                -3.245609145004011
            ]
        }
    ]
}