{
    "goal": {
        "global_pose": {
            "orientation": {
                "w": -0.00223480608172531,
                "x": 0.0024358444001904467,
                "y": 0.7094548369677653,
                "z": -0.704743149386269
            },
            "position": {
                "x": 0.6205249238014221,
                "y": -0.6371506643295288,
                "z": 0.19426114857196808
            }
        },
        "name": "move_to_magneteinheit_B"
    },
    "id": "LBKPIECE_move_to_magneteinheit_B_62",
    "joint_names": [
        "shoulder_pan_joint",
        "shoulder_lift_joint",
        "elbow_joint",
        "wrist_1_joint",
        "wrist_2_joint",
        "wrist_3_joint"
    ],
    "metrics": {
        "cart_traj_len": 4.04499714541592,
        "distance_elbow_joint": 4.3312693866674135,
        "distance_shoulder_lift_joint": 3.2261027139328933,
        "distance_shoulder_pan_joint": 2.497380579778234,
        "distance_wrist_1_joint": 3.1051280166796973,
        "distance_wrist_2_joint": 1.9053303052882193,
        "distance_wrist_3_joint": 6.300827970748356,
        "smoothness": 0.24064698784695743,
        "time": 0.643339882,
        "traj_len": 4.622341286955649,
        "weighted_distance": 6.243248612426022
    },
    "planner": "LBKPIECE",
    "start": {
        "state": {
            "elbow_joint": 2.39358713078474,
            "shoulder_lift_joint": -1.908514104345545,
            "shoulder_pan_joint": 0.7066247066606129,
            "wrist_1_joint": -0.4678290933515497,
            "wrist_2_joint": 0.7096259083745334,
            "wrist_3_joint": -3.1358149277392293
        }
    },
    "waypoints": [
        {
            "positions": [
                0.7066247066606129,
                -1.908514104345545,
                2.39358713078474,
                -0.4678290933515497,
                0.7096259083745334,
                -3.1358149277392293
            ]
        },
        {
            "positions": [
                0.6641249699606009,
                -1.9473772396945725,
                2.371201820944525,
                -0.3777044368426974,
                0.635995950918251,
                -3.0320372748649627
            ]
        },
        {
            "positions": [
                0.6216252332605887,
                -1.9862403750436002,
                2.3488165111043102,
                -0.2875797803338451,
                0.5623659934619685,
                -2.9282596219906956
            ]
        },
        {
            "positions": [
                0.5791254965605765,
                -2.025103510392628,
                2.326431201264095,
                -0.1974551238249928,
                0.48873603600568605,
                -2.8244819691164285
            ]
        },
        {
            "positions": [
                0.5366257598605645,
                -2.0639666457416554,
                2.30404589142388,
                -0.10733046731614052,
                0.4151060785494036,
                -2.720704316242162
            ]
        },
        {
            "positions": [
                0.5106887266553528,
                -2.084726912854963,
                2.2582798275310845,
                -0.047823054218622534,
                0.34609554645509266,
                -2.6236217132288657
            ]
        },
        {
            "positions": [
                0.48475169345014113,
                -2.1054871799682706,
                2.2125137636382886,
                0.011684358878895448,
                0.2770850143607817,
                -2.5265391102155697
            ]
        },
        {
            "positions": [
                0.4891054032228515,
                -2.0961677670606846,
                2.100780278459224,
                0.02450840441812403,
                0.19375912197124748,
                -2.4061131543878553
            ]
        },
        {
            "positions": [
                0.4934591129955619,
                -2.0868483541530987,
                1.9890467932801592,
                0.03733244995735261,
                0.11043322958171325,
                -2.2856871985601406
            ]
        },
        {
            "positions": [
                0.49781282276827227,
                -2.0775289412455127,
                1.8773133081010946,
                0.050156495496581195,
                0.02710733719217904,
                -2.1652612427324263
            ]
        },
        {
            "positions": [
                0.5193188236683428,
                -2.061358371341778,
                1.8252132297216352,
                0.026279642063620164,
                0.00946577313886078,
                -2.125607566640614
            ]
        },
        {
            "positions": [
                0.5324384353660435,
                -2.001850610026493,
                1.7233703447735917,
                -0.023848744530037554,
                -0.02291313411608252,
                -1.9943496512815355
            ]
        },
        {
            "positions": [
                0.5455580470637443,
                -1.9423428487112078,
                1.621527459825548,
                -0.07397713112369528,
                -0.05529204137102582,
                -1.8630917359224568
            ]
        },
        {
            "positions": [
                0.558677658761445,
                -1.8828350873959225,
                1.5196845748775045,
                -0.12410551771735301,
                -0.08767094862596912,
                -1.731833820563378
            ]
        },
        {
            "positions": [
                0.5717972704591459,
                -1.8233273260806373,
                1.417841689929461,
                -0.1742339043110107,
                -0.12004985588091242,
                -1.6005759052042996
            ]
        },
        {
            "positions": [
                0.5849168821568466,
                -1.763819564765352,
                1.3159988049814173,
                -0.22436229090466847,
                -0.15242876313585574,
                -1.469317989845221
            ]
        },
        {
            "positions": [
                0.5980364938545473,
                -1.704311803450067,
                1.2141559200333738,
                -0.2744906774983262,
                -0.18480767039079904,
                -1.3380600744861424
            ]
        },
        {
            "positions": [
                0.6111561055522481,
                -1.6448040421347818,
                1.11231303508533,
                -0.32461906409198393,
                -0.21718657764574234,
                -1.2068021591270637
            ]
        },
        {
            "positions": [
                0.6242757172499488,
                -1.5852962808194968,
                1.0104701501372868,
                -0.3747474506856416,
                -0.24956548490068564,
                -1.0755442437679852
            ]
        },
        {
            "positions": [
                0.6373953289476495,
                -1.5257885195042116,
                0.9086272651892431,
                -0.42487583727929934,
                -0.28194439215562894,
                -0.9442863284089067
            ]
        },
        {
            "positions": [
                0.6505149406453503,
                -1.4662807581889263,
                0.8067843802411994,
                -0.4750042238729571,
                -0.31432329941057224,
                -0.813028413049828
            ]
        },
        {
            "positions": [
                0.663634552343051,
                -1.4067729968736413,
                0.7049414952931561,
                -0.5251326104666147,
                -0.34670220666551554,
                -0.6817704976907495
            ]
        },
        {
            "positions": [
                0.6767541640407517,
                -1.347265235558356,
                0.6030986103451124,
                -0.5752609970602724,
                -0.37908111392045885,
                -0.5505125823316708
            ]
        },
        {
            "positions": [
                0.6898737757384525,
                -1.287757474243071,
                0.5012557253970689,
                -0.6253893836539302,
                -0.4114600211754021,
                -0.4192546669725923
            ]
        },
        {
            "positions": [
                0.7029933874361532,
                -1.2282497129277856,
                0.39941284044902514,
                -0.675517770247588,
                -0.4438389284303455,
                -0.28799675161351335
            ]
        },
        {
            "positions": [
                0.716112999133854,
                -1.1687419516125006,
                0.29756995550098164,
                -0.7256461568412456,
                -0.47621783568528875,
                -0.15673883625443485
            ]
        },
        {
            "positions": [
                0.7292326108315548,
                -1.1092341902972156,
                0.19572707055293814,
                -0.7757745434349033,
                -0.508596742940232,
                -0.025480920895356363
            ]
        },
        {
            "positions": [
                0.7423522225292556,
                -1.0497264289819301,
                0.09388418560489442,
                -0.8259029300285611,
                -0.5409756501951754,
                0.10577699446372257
            ]
        },
        {
            "positions": [
                0.7554718342269563,
                -0.9902186676666451,
                -0.007958699343149078,
                -0.8760313166222188,
                -0.5733545574501187,
                0.23703490982280062
            ]
        },
        {
            "positions": [
                0.768591445924657,
                -0.9307109063513601,
                -0.10980158429119258,
                -0.9261597032158765,
                -0.605733464705062,
                0.3682928251818791
            ]
        },
        {
            "positions": [
                0.7817110576223578,
                -0.8712031450360747,
                -0.21164446923923652,
                -0.9762880898095343,
                -0.6381123719600053,
                0.49955074054095805
            ]
        },
        {
            "positions": [
                0.7948306693200585,
                -0.8116953837207896,
                -0.3134873541872798,
                -1.026416476403192,
                -0.6704912792149486,
                0.6308086559000365
            ]
        },
        {
            "positions": [
                0.8079502810177592,
                -0.7521876224055046,
                -0.4153302391353231,
                -1.0765448629968497,
                -0.7028701864698919,
                0.762066571259115
            ]
        },
        {
            "positions": [
                0.82106989271546,
                -0.6926798610902192,
                -0.5171731240833672,
                -1.1266732495905074,
                -0.7352490937248352,
                0.893324486618194
            ]
        },
        {
            "positions": [
                0.8341895044131608,
                -0.6331720997749342,
                -0.6190160090314105,
                -1.1768016361841651,
                -0.7676280009797785,
                1.0245824019772725
            ]
        },
        {
            "positions": [
                0.9275009212113376,
                -0.6912161500539152,
                -0.6775750071473314,
                -1.2420923006894349,
                -0.7493577099655827,
                1.1154503839998449
            ]
        },
        {
            "positions": [
                1.0208123380095144,
                -0.7492602003328963,
                -0.7361340052632525,
                -1.3073829651947044,
                -0.731087418951387,
                1.206318366022417
            ]
        },
        {
            "positions": [
                1.1141237548076914,
                -0.8073042506118775,
                -0.7946930033791734,
                -1.3726736296999742,
                -0.7128171279371913,
                1.2971863480449892
            ]
        },
        {
            "positions": [
                1.2074351716058684,
                -0.8653483008908586,
                -0.8532520014950943,
                -1.4379642942052437,
                -0.6945468369229956,
                1.3880543300675616
            ]
        },
        {
            "positions": [
                1.3007465884040452,
                -0.9233923511698396,
                -0.9118109996110153,
                -1.5032549587105135,
                -0.6762765459087998,
                1.478922312090134
            ]
        },
        {
            "positions": [
                1.394058005202222,
                -0.9814364014488207,
                -0.9703699977269362,
                -1.5685456232157833,
                -0.6580062548946042,
                1.5697902941127062
            ]
        },
        {
            "positions": [
                1.487369422000399,
                -1.0394804517278018,
                -1.0289289958428571,
                -1.6338362877210528,
                -0.6397359638804084,
                1.6606582761352784
            ]
        },
        {
            "positions": [
                1.580680838798576,
                -1.097524502006783,
                -1.087487993958778,
                -1.6991269522263226,
                -0.6214656728662127,
                1.7515262581578508
            ]
        },
        {
            "positions": [
                1.6739922555967528,
                -1.155568552285764,
                -1.146046992074699,
                -1.7644176167315924,
                -0.6031953818520169,
                1.8423942401804232
            ]
        },
        {
            "positions": [
                1.7673036723949296,
                -1.2136126025647451,
                -1.20460599019062,
                -1.829708281236862,
                -0.5849250908378212,
                1.9332622222029954
            ]
        },
        {
            "positions": [
                1.8606150891931068,
                -1.2716566528437263,
                -1.263164988306541,
                -1.8949989457421317,
                -0.5666547998236255,
                2.0241302042255676
            ]
        },
        {
            "positions": [
                1.9539265059912836,
                -1.3297007031227073,
                -1.321723986422462,
                -1.9602896102474012,
                -0.5483845088094298,
                2.11499818624814
            ]
        },
        {
            "positions": [
                2.0472379227894604,
                -1.3877447534016885,
                -1.3802829845383828,
                -2.025580274752671,
                -0.530114217795234,
                2.2058661682707124
            ]
        },
        {
            "positions": [
                2.140549339587637,
                -1.4457888036806694,
                -1.4388419826543037,
                -2.0908709392579405,
                -0.5118439267810384,
                2.2967341502932843
            ]
        },
        {
            "positions": [
                2.2338607563858144,
                -1.5038328539596506,
                -1.4974009807702247,
                -2.15616160376321,
                -0.49357363576684266,
                2.3876021323158567
            ]
        },
        {
            "positions": [
                2.327172173183991,
                -1.5618769042386318,
                -1.5559599788861456,
                -2.22145226826848,
                -0.4753033447526469,
                2.478470114338429
            ]
        },
        {
            "positions": [
                2.420483589982168,
                -1.6199209545176128,
                -1.6145189770020667,
                -2.2867429327737496,
                -0.4570330537384512,
                2.569338096361001
            ]
        },
        {
            "positions": [
                2.5137950067803447,
                -1.677965004796594,
                -1.6730779751179876,
                -2.3520335972790196,
                -0.43876276272425546,
                2.660206078383574
            ]
        },
        {
            "positions": [
                2.6071064235785215,
                -1.736009055075575,
                -1.7316369732339085,
                -2.417324261784289,
                -0.42049247171005977,
                2.751074060406146
            ]
        },
        {
            "positions": [
                2.7004178403766987,
                -1.794053105354556,
                -1.7901959713498294,
                -2.4826149262895587,
                -0.402222180695864,
                2.8419420424287183
            ]
        },
        {
            "positions": [
                2.7109954403648464,
                -1.8926514526668772,
                -1.775460838801788,
                -2.510984395329767,
                -0.40644949131449704,
                2.96603802796393
            ]
        },
        {
            "positions": [
                2.6863635305383182,
                -2.0413190552793212,
                -1.7090852628093884,
                -2.497983626827157,
                -0.43567112383017825,
                3.065525535486528
            ]
        },
        {
            "positions": [
                2.6617316207117896,
                -2.189986657891765,
                -1.642709686816989,
                -2.484982858324547,
                -0.46489275634585947,
                3.165013043009126
            ]
        }
    ]
}