{
    "goal": {
        "global_pose": {
            "orientation": {
                "w": 0.5084816217422485,
                "x": -0.49083608388900757,
                "y": 0.5182115435600281,
                "z": -0.4816462993621826
            },
            "position": {
                "x": 0.5540239810943604,
                "y": 0.030875300988554955,
                "z": 0.16403168439865112
            }
        },
        "name": "move_to_storage_A"
    },
    "id": "LBKPIECE_move_to_storage_A_97",
    "joint_names": [
        "shoulder_pan_joint",
        "shoulder_lift_joint",
        "elbow_joint",
        "wrist_1_joint",
        "wrist_2_joint",
        "wrist_3_joint"
    ],
    "metrics": {
        "cart_traj_len": 0.35372331564671283,
        "distance_elbow_joint": 0.45046301263761146,
        "distance_shoulder_lift_joint": 0.23478140301246087,
        "distance_shoulder_pan_joint": 0.4646203052609791,
        "distance_wrist_1_joint": 0.24313184269308785,
        "distance_wrist_2_joint": 1.0914102107152706,
        "distance_wrist_3_joint": 0.09959929269748757,
        "smoothness": 1.1102230279970742e-15,
        "time": 0.203604492,
        "traj_len": 1.6074843909092547,
        "weighted_distance": 2.0292231779230767
    },
    "planner": "LBKPIECE",
    "start": {
        "state": {
            "elbow_joint": 1.9715463870305268,
            "shoulder_lift_joint": -1.1394903361783484,
            "shoulder_pan_joint": 0.12281147578464417,
            "wrist_1_joint": -0.7804599489681411,
            "wrist_2_joint": 0.12958660307563738,
            "wrist_3_joint": -3.1924946282119055
        }
    },
    "waypoints": [
        {
            "positions": [
                0.12281147578464417,
                -1.1394903361783484,
                1.9715463870305268,
                -0.7804599489681411,
                0.12958660307563738,
                -3.1924946282119055
            ]
        },
        {
            "positions": [
                0.05643714646164716,
                -1.1730305366087,
                2.035898245978757,
                -0.815193069352868,
                0.2855023474635332,
                -3.1782661578265503
            ]
        },
        {
            "positions": [
                -0.009937182861349855,
                -1.2065707370390515,
                2.100250104926987,
                -0.8499261897375947,
                0.441418091851429,
                -3.1640376874411946
            ]
        },
        {
            "positions": [
                -0.07631151218434686,
                -1.240110937469403,
                2.164601963875217,
                -0.8846593101223216,
                0.5973338362393248,
                -3.1498092170558394
            ]
        },
        {
            "positions": [
                -0.14268584150734387,
                -1.2736511378997546,
                2.2289538228234473,
                -0.9193924305070484,
                0.7532495806272206,
                -3.135580746670484
            ]
        },
        {
            "positions": [
                -0.2090601708303409,
                -1.3071913383301061,
                2.293305681771678,
                -0.9541255508917752,
                0.9091653250151164,
                -3.121352276285129
            ]
        },
        {
            "positions": [
                -0.27543450015333787,
                -1.3407315387604577,
                2.357657540719908,
                -0.9888586712765021,
                1.0650810694030122,
                -3.107123805899773
            ]
        },
        {
            "positions": [
                -0.3418088294763349,
                -1.3742717391908092,
                2.422009399668138,
                -1.023591791661229,
                1.220996813790908,
                -3.092895335514418
            ]
        }
    ]
}