{
    "goal": {
        "global_pose": {
            "orientation": {
                "w": 0.7047431468963623,
                "x": -0.7094548344612122,
                "y": 0.0024358443915843964,
                "z": -0.0022348060738295317
            },
            "position": {
                "x": 0.6094750761985779,
                "y": 0.3671506643295288,
                "z": 0.19426114857196808
            }
        },
        "name": "move_to_magneteinheit_A"
    },
    "id": "LBKPIECE_move_to_magneteinheit_A_129",
    "joint_names": [
        "shoulder_pan_joint",
        "shoulder_lift_joint",
        "elbow_joint",
        "wrist_1_joint",
        "wrist_2_joint",
        "wrist_3_joint"
    ],
    "metrics": {
        "cart_traj_len": 2.076469216551121,
        "distance_elbow_joint": 4.004133117575639,
        "distance_shoulder_lift_joint": 1.2286651778587865,
        "distance_shoulder_pan_joint": 1.2415811236713457,
        "distance_wrist_1_joint": 1.2418355660734504,
        "distance_wrist_2_joint": 1.4317977338470556,
        "distance_wrist_3_joint": 4.4142288532524905,
        "smoothness": 0.2780854018892608,
        "time": 0.382523341,
        "traj_len": 3.682694879063261,
        "weighted_distance": 5.006429124506234
    },
    "planner": "LBKPIECE",
    "start": {
        "state": {
            "elbow_joint": -1.919643507792019,
            "shoulder_lift_joint": -0.07675430207160344,
            "shoulder_pan_joint": -1.1188671864651873,
            "wrist_1_joint": 0.42560062535961957,
            "wrist_2_joint": 1.5706038300724876,
            "wrist_3_joint": 1.1188968870953055
        }
    },
    "waypoints": [
        {
            "positions": [
                -1.1188671864651873,
                -0.07675430207160344,
                -1.919643507792019,
                0.42560062535961957,
                1.5706038300724876,
                1.1188968870953055
            ]
        },
        {
            "positions": [
                -1.0899306329531218,
                -0.11143221429515383,
                -1.8001057405478345,
                0.3889673362478847,
                1.5303643136653526,
                0.9863789421382207
            ]
        },
        {
            "positions": [
                -1.0609940794410562,
                -0.14611012651870423,
                -1.6805679733036498,
                0.3523340471361499,
                1.4901247972582177,
                0.8538609971811358
            ]
        },
        {
            "positions": [
                -1.0320575259289906,
                -0.18078803874225463,
                -1.5610302060594652,
                0.315700758024415,
                1.449885280851083,
                0.7213430522240509
            ]
        },
        {
            "positions": [
                -1.003120972416925,
                -0.215465950965805,
                -1.4414924388152806,
                0.2790674689126802,
                1.409645764443948,
                0.5888251072669661
            ]
        },
        {
            "positions": [
                -0.9741844189048593,
                -0.2501438631893554,
                -1.321954671571096,
                0.24243417980094534,
                1.369406248036813,
                0.4563071623098812
            ]
        },
        {
            "positions": [
                -0.9452478653927937,
                -0.28482177541290576,
                -1.2024169043269115,
                0.20580089068921048,
                1.329166731629678,
                0.3237892173527964
            ]
        },
        {
            "positions": [
                -0.9163113118807281,
                -0.3194996876364562,
                -1.0828791370827267,
                0.16916760157747562,
                1.288927215222543,
                0.1912712723957115
            ]
        },
        {
            "positions": [
                -0.8873747583686624,
                -0.3541775998600066,
                -0.9633413698385421,
                0.13253431246574082,
                1.248687698815408,
                0.05875332743862671
            ]
        },
        {
            "positions": [
                -0.8584382048565968,
                -0.3888555120835569,
                -0.8438036025943576,
                0.09590102335400597,
                1.2084481824082733,
                -0.07376461751845809
            ]
        },
        {
            "positions": [
                -0.8295016513445312,
                -0.42353342430710733,
                -0.724265835350173,
                0.05926773424227111,
                1.1682086660011384,
                -0.2062825624755431
            ]
        },
        {
            "positions": [
                -0.8005650978324657,
                -0.4582113365306577,
                -0.6047280681059883,
                0.022634445130536307,
                1.1279691495940034,
                -0.3388005074326279
            ]
        },
        {
            "positions": [
                -0.7716285443204001,
                -0.49288924875420814,
                -0.4851903008618037,
                -0.013998843981198605,
                1.0877296331868684,
                -0.4713184523897127
            ]
        },
        {
            "positions": [
                -0.7426919908083345,
                -0.5275671609777585,
                -0.36565253361761907,
                -0.05063213309293341,
                1.0474901167797337,
                -0.6038363973467975
            ]
        },
        {
            "positions": [
                -0.7137554372962689,
                -0.5622450732013089,
                -0.24611476637343443,
                -0.08726542220466832,
                1.0072506003725987,
                -0.7363543423038825
            ]
        },
        {
            "positions": [
                -0.6848188837842033,
                -0.5969229854248592,
                -0.12657699912925002,
                -0.12389871131640312,
                0.9670110839654638,
                -0.8688722872609673
            ]
        },
        {
            "positions": [
                -0.6558823302721376,
                -0.6316008976484098,
                -0.007039231885065167,
                -0.16053200042813792,
                0.9267715675583288,
                -1.0013902322180521
            ]
        },
        {
            "positions": [
                -0.626945776760072,
                -0.6662788098719601,
                0.11249853535911947,
                -0.19716528953987283,
                0.8865320511511938,
                -1.1339081771751371
            ]
        },
        {
            "positions": [
                -0.5980092232480064,
                -0.7009567220955104,
                0.23203630260330388,
                -0.23379857865160764,
                0.846292534744059,
                -1.2664261221322217
            ]
        },
        {
            "positions": [
                -0.5690726697359407,
                -0.735634634319061,
                0.35157406984748873,
                -0.27043186776334255,
                0.8060530183369239,
                -1.3989440670893072
            ]
        },
        {
            "positions": [
                -0.5401361162238751,
                -0.7703125465426113,
                0.47111183709167315,
                -0.30706515687507735,
                0.765813501929789,
                -1.5314620120463918
            ]
        },
        {
            "positions": [
                -0.5111995627118096,
                -0.8049904587661616,
                0.5906496043358576,
                -0.34369844598681215,
                0.7255739855226542,
                -1.6639799570034763
            ]
        },
        {
            "positions": [
                -0.48226300919974396,
                -0.8396683709897119,
                0.7101873715800424,
                -0.38033173509854695,
                0.6853344691155192,
                -1.7964979019605614
            ]
        },
        {
            "positions": [
                -0.45332645568767826,
                -0.8743462832132625,
                0.8297251388242273,
                -0.416965024210282,
                0.6450949527083842,
                -1.9290158469176464
            ]
        },
        {
            "positions": [
                -0.4243899021756127,
                -0.9090241954368128,
                0.9492629060684117,
                -0.4535983133220168,
                0.6048554363012493,
                -2.061533791874731
            ]
        },
        {
            "positions": [
                -0.3954533486635472,
                -0.9437021076603631,
                1.068800673312596,
                -0.4902316024337516,
                0.5646159198941145,
                -2.194051736831816
            ]
        },
        {
            "positions": [
                -0.3665167951514816,
                -0.9783800198839134,
                1.188338440556781,
                -0.5268648915454863,
                0.5243764034869796,
                -2.3265696817889006
            ]
        },
        {
            "positions": [
                -0.3375802416394159,
                -1.013057932107464,
                1.3078762078009658,
                -0.5634981806572212,
                0.4841368870798446,
                -2.459087626745986
            ]
        },
        {
            "positions": [
                -0.3086436881273503,
                -1.0477358443310143,
                1.4274139750451502,
                -0.6001314697689561,
                0.4438973706727096,
                -2.5916055717030706
            ]
        },
        {
            "positions": [
                -0.27970713461528474,
                -1.0824137565545648,
                1.5469517422893346,
                -0.6367647588806908,
                0.40365785426557466,
                -2.724123516660155
            ]
        },
        {
            "positions": [
                -0.25077058110321915,
                -1.1170916687781152,
                1.666489509533519,
                -0.6733980479924258,
                0.3634183378584399,
                -2.85664146161724
            ]
        },
        {
            "positions": [
                -0.22183402759115345,
                -1.1517695810016657,
                1.7860272767777043,
                -0.7100313371041607,
                0.3231788214513047,
                -2.9891594065743257
            ]
        },
        {
            "positions": [
                -0.19289747407908786,
                -1.186447493225216,
                1.9055650440218888,
                -0.7466646262158954,
                0.28293930504417,
                -3.12167735153141
            ]
        },
        {
            "positions": [
                -0.16396092056702233,
                -1.2211254054487664,
                2.0251028112660734,
                -0.7832979153276303,
                0.242699788637035,
                -3.2541952964884944
            ]
        },
        {
            "positions": [
                -0.02062349168043201,
                -1.1789783682079547,
                1.9954094120073,
                -0.7668294026345299,
                0.19075294243123359,
                -3.2336269616541493
            ]
        },
        {
            "positions": [
                0.12271393720615831,
                -1.1368313309671427,
                1.9657160127485267,
                -0.7503608899414297,
                0.1388060962254322,
                -3.213058626819804
            ]
        }
    ]
}