{
    "goal": {
        "global_pose": {
            "orientation": {
                "w": 0.7031023502349854,
                "x": -0.7110244035720825,
                "y": 0.007748599164187908,
                "z": 0.005598929710686207
            },
            "position": {
                "x": 0.11585023208521307,
                "y": 0.44412534475326537,
                "z": 0.3711530566215515
            }
        },
        "name": "move_to_auspresseinheit_A"
    },
    "id": "LBKPIECE_move_to_auspresseinheit_A_31",
    "joint_names": [
        "shoulder_pan_joint",
        "shoulder_lift_joint",
        "elbow_joint",
        "wrist_1_joint",
        "wrist_2_joint",
        "wrist_3_joint"
    ],
    "metrics": {
        "cart_traj_len": 1.204010622442091,
        "distance_elbow_joint": 1.3497313151572232,
        "distance_shoulder_lift_joint": 0.647604065960917,
        "distance_shoulder_pan_joint": 1.041554222863518,
        "distance_wrist_1_joint": 1.388355799244982,
        "distance_wrist_2_joint": 1.4374314178243104,
        "distance_wrist_3_joint": 4.0828195933802185,
        "smoothness": 0.7829336394684961,
        "time": 0.291022572,
        "traj_len": 3.1539651891596985,
        "weighted_distance": 4.575906775521208
    },
    "planner": "LBKPIECE",
    "start": {
        "state": {
            "elbow_joint": 2.422574709923281,
            "shoulder_lift_joint": -1.3736533754116391,
            "shoulder_pan_joint": -0.33786336945926293,
            "wrist_1_joint": -1.0288603412921917,
            "wrist_2_joint": 1.2330224858903978,
            "wrist_3_joint": -3.094022268022082
        }
    },
    "waypoints": [
        {
            "positions": [
                -0.33786336945926293,
                -1.3736533754116391,
                2.422574709923281,
                -1.0288603412921917,
                1.2330224858903978,
                -3.094022268022082
            ]
        },
        {
            "positions": [
                -0.3097463237189731,
                -1.4063124555034385,
                2.373438033212527,
                -0.9595718074724169,
                1.17993755282581,
                -2.949380619719528
            ]
        },
        {
            "positions": [
                -0.28162927797868326,
                -1.438971535595238,
                2.324301356501773,
                -0.890283273652642,
                1.126852619761222,
                -2.804738971416974
            ]
        },
        {
            "positions": [
                -0.25351223223839336,
                -1.4716306156870373,
                2.2751646797910197,
                -0.8209947398328672,
                1.0737676866966344,
                -2.66009732311442
            ]
        },
        {
            "positions": [
                -0.22539518649810353,
                -1.5042896957788368,
                2.2260280030802657,
                -0.7517062060130923,
                1.0206827536320464,
                -2.5154556748118657
            ]
        },
        {
            "positions": [
                -0.1972781407578137,
                -1.5369487758706362,
                2.1768913263695118,
                -0.6824176721933174,
                0.9675978205674587,
                -2.3708140265093114
            ]
        },
        {
            "positions": [
                -0.16916109501752385,
                -1.5696078559624356,
                2.1277546496587583,
                -0.6131291383735427,
                0.914512887502871,
                -2.2261723782067575
            ]
        },
        {
            "positions": [
                -0.141044049277234,
                -1.602266936054235,
                2.0786179729480043,
                -0.5438406045537677,
                0.861427954438283,
                -2.0815307299042036
            ]
        },
        {
            "positions": [
                -0.11292700353694415,
                -1.6349260161460344,
                2.0294812962372504,
                -0.47455207073399286,
                0.8083430213736953,
                -1.9368890816016493
            ]
        },
        {
            "positions": [
                -0.08480995779665429,
                -1.6675850962378338,
                1.9803446195264964,
                -0.4052635369142179,
                0.7552580883091073,
                -1.7922474332990952
            ]
        },
        {
            "positions": [
                -0.05669291205636445,
                -1.7002441763296332,
                1.9312079428157427,
                -0.33597500309444306,
                0.7021731552445196,
                -1.647605784996541
            ]
        },
        {
            "positions": [
                -0.028575866316074616,
                -1.7329032564214326,
                1.882071266104989,
                -0.2666864692746683,
                0.6490882221799318,
                -1.502964136693987
            ]
        },
        {
            "positions": [
                -0.00045882057578477964,
                -1.765562336513232,
                1.832934589394235,
                -0.19739793545489348,
                0.5960032891153441,
                -1.3583224883914329
            ]
        },
        {
            "positions": [
                0.027658225164505112,
                -1.7982214166050314,
                1.783797912683481,
                -0.12810940163511852,
                0.5429183560507562,
                -1.2136808400888788
            ]
        },
        {
            "positions": [
                0.055775270904794935,
                -1.8308804966968308,
                1.7346612359727274,
                -0.05882086781534368,
                0.4898334229861684,
                -1.0690391917863247
            ]
        },
        {
            "positions": [
                0.12998751159124322,
                -1.8529521265019337,
                1.8256356029117722,
                -0.07311962998232989,
                0.44932133394485035,
                -1.1983443999322285
            ]
        },
        {
            "positions": [
                0.2041997522776915,
                -1.8750237563070364,
                1.916609969850817,
                -0.0874183921493161,
                0.4088092449035323,
                -1.3276496080781324
            ]
        },
        {
            "positions": [
                0.27841199296413977,
                -1.8970953861121393,
                2.007584336789862,
                -0.10171715431630232,
                0.36829715586221423,
                -1.456954816224036
            ]
        },
        {
            "positions": [
                0.35262423365058804,
                -1.9191670159172423,
                2.098558703728907,
                -0.11601591648328853,
                0.32778506682089625,
                -1.5862600243699398
            ]
        },
        {
            "positions": [
                0.4268364743370363,
                -1.941238645722345,
                2.1895330706679514,
                -0.13031467865027474,
                0.28727297777957816,
                -1.7155652325158437
            ]
        },
        {
            "positions": [
                0.5010487150234846,
                -1.9633102755274479,
                2.2805074376069965,
                -0.14461344081726096,
                0.24676088873826013,
                -1.8448704406617475
            ]
        },
        {
            "positions": [
                0.5243429784063107,
                -1.9658564982080176,
                2.2869615705575885,
                -0.15210698704406403,
                0.25722356287892983,
                -1.8494049698327517
            ]
        },
        {
            "positions": [
                0.5499641034060171,
                -1.9579420777559406,
                2.3026069286464184,
                -0.1985398736925517,
                0.3201817266691445,
                -2.0319007897038994
            ]
        },
        {
            "positions": [
                0.5755852284057233,
                -1.9500276573038637,
                2.318252286735248,
                -0.24497276034103935,
                0.38313989045935914,
                -2.214396609575047
            ]
        },
        {
            "positions": [
                0.6012063534054297,
                -1.9421132368517868,
                2.333897644824078,
                -0.291405646989527,
                0.4460980542495738,
                -2.396892429446195
            ]
        },
        {
            "positions": [
                0.626827478405136,
                -1.9341988163997097,
                2.3495430029129074,
                -0.33783853363801464,
                0.5090562180397885,
                -2.5793882493173426
            ]
        },
        {
            "positions": [
                0.6524486034048423,
                -1.9262843959476328,
                2.3651883610017372,
                -0.3842714202865023,
                0.5720143818300032,
                -2.7618840691884903
            ]
        },
        {
            "positions": [
                0.6780697284045486,
                -1.9183699754955559,
                2.380833719090567,
                -0.43070430693498996,
                0.6349725456202179,
                -2.944379889059638
            ]
        },
        {
            "positions": [
                0.703690853404255,
                -1.910455555043479,
                2.396479077179397,
                -0.4771371935834776,
                0.6979307094104326,
                -3.1268757089307857
            ]
        }
    ]
}