{
    "goal": {
        "global_pose": {
            "orientation": {
                "w": -0.00223480608172531,
                "x": 0.0024358444001904467,
                "y": 0.7094548369677653,
                "z": -0.704743149386269
            },
            "position": {
                "x": 0.6205249238014221,
                "y": -0.6371506643295288,
                "z": 0.19426114857196808
            }
        },
        "name": "move_to_magneteinheit_B"
    },
    "id": "LBKPIECE_move_to_magneteinheit_B_95",
    "joint_names": [
        "shoulder_pan_joint",
        "shoulder_lift_joint",
        "elbow_joint",
        "wrist_1_joint",
        "wrist_2_joint",
        "wrist_3_joint"
    ],
    "metrics": {
        "cart_traj_len": 3.5519951818791164,
        "distance_elbow_joint": 5.395273180400679,
        "distance_shoulder_lift_joint": 1.1456560247766894,
        "distance_shoulder_pan_joint": 2.7664421097364813,
        "distance_wrist_1_joint": 2.8277921807516857,
        "distance_wrist_2_joint": 2.616543267610864,
        "distance_wrist_3_joint": 4.09046911955434,
        "smoothness": 0.3289610308369782,
        "time": 0.580632727,
        "traj_len": 4.34075752407696,
        "weighted_distance": 5.698021548774799
    },
    "planner": "LBKPIECE",
    "start": {
        "state": {
            "elbow_joint": 2.39358713078474,
            "shoulder_lift_joint": -1.908514104345545,
            "shoulder_pan_joint": 0.7066247066606129,
            "wrist_1_joint": -0.4678290933515497,
            "wrist_2_joint": 0.7096259083745334,
            "wrist_3_joint": -3.1358149277392293
        }
    },
    "waypoints": [
        {
            "positions": [
                0.7066247066606129,
                -1.908514104345545,
                2.39358713078474,
                -0.4678290933515497,
                0.7096259083745334,
                -3.1358149277392293
            ]
        },
        {
            "positions": [
                0.6168441720136895,
                -1.9001217764693565,
                2.358715834403492,
                -0.37849191746119093,
                0.6600025387422694,
                -3.0538679024873776
            ]
        },
        {
            "positions": [
                0.5270636373667661,
                -1.8917294485931682,
                2.3238445380222448,
                -0.2891547415708322,
                0.6103791691100053,
                -2.9719208772355263
            ]
        },
        {
            "positions": [
                0.4372831027198426,
                -1.8833371207169798,
                2.288973241640997,
                -0.19981756568047343,
                0.5607557994777412,
                -2.889973851983675
            ]
        },
        {
            "positions": [
                0.3475025680729191,
                -1.8749447928407914,
                2.254101945259749,
                -0.11048038979011467,
                0.5111324298454772,
                -2.8080268267318234
            ]
        },
        {
            "positions": [
                0.37898730069035136,
                -1.8681793801721343,
                2.1165872593602453,
                -0.09111519317836198,
                0.4308749064780888,
                -2.7038284372606007
            ]
        },
        {
            "positions": [
                0.4104720333077836,
                -1.861413967503477,
                1.979072573460742,
                -0.0717499965666093,
                0.35061738311070034,
                -2.599630047789378
            ]
        },
        {
            "positions": [
                0.4419567659252159,
                -1.85464855483482,
                1.8415578875612382,
                -0.0523847999548566,
                0.2703598597433119,
                -2.4954316583181555
            ]
        },
        {
            "positions": [
                0.5265841976933755,
                -1.8374880078351645,
                1.6822156522453948,
                -0.05882390582555244,
                0.2102281049787701,
                -2.431275056392261
            ]
        },
        {
            "positions": [
                0.6112116294615351,
                -1.820327460835509,
                1.5228734169295515,
                -0.06526301169624829,
                0.1500963502142283,
                -2.367118454466366
            ]
        },
        {
            "positions": [
                0.6958390612296946,
                -1.8031669138358535,
                1.3635311816137081,
                -0.07170211756694413,
                0.08996459544968655,
                -2.3029618525404714
            ]
        },
        {
            "positions": [
                0.7804664929978542,
                -1.7860063668361978,
                1.2041889462978648,
                -0.07814122343763998,
                0.029832840685144718,
                -2.2388052506145764
            ]
        },
        {
            "positions": [
                0.8650939247660139,
                -1.7688458198365424,
                1.0448467109820214,
                -0.08458032930833581,
                -0.030298914079397055,
                -2.174648648688682
            ]
        },
        {
            "positions": [
                0.9497213565341733,
                -1.7516852728368868,
                0.8855044756661782,
                -0.09101943517903166,
                -0.0904306688439388,
                -2.1104920467627872
            ]
        },
        {
            "positions": [
                1.034348788302333,
                -1.7345247258372314,
                0.7261622403503347,
                -0.09745854104972751,
                -0.15056242360848066,
                -2.0463354448368922
            ]
        },
        {
            "positions": [
                1.1189762200704927,
                -1.7173641788375757,
                0.5668200050344914,
                -0.10389764692042334,
                -0.21069417837302246,
                -1.9821788429109974
            ]
        },
        {
            "positions": [
                1.2036036518386524,
                -1.7002036318379203,
                0.407477769718648,
                -0.11033675279111918,
                -0.2708259331375642,
                -1.9180222409851027
            ]
        },
        {
            "positions": [
                1.2882310836068118,
                -1.683043084838265,
                0.24813553440280467,
                -0.11677585866181503,
                -0.330957687902106,
                -1.853865639059208
            ]
        },
        {
            "positions": [
                1.3728585153749715,
                -1.6658825378386093,
                0.08879329908696132,
                -0.12321496453251088,
                -0.3910894426666478,
                -1.789709037133313
            ]
        },
        {
            "positions": [
                1.457485947143131,
                -1.6487219908389539,
                -0.07054893622888181,
                -0.1296540704032067,
                -0.4512211974311895,
                -1.7255524352074185
            ]
        },
        {
            "positions": [
                1.5421133789112909,
                -1.6315614438392982,
                -0.22989117154472538,
                -0.13609317627390255,
                -0.5113529521957314,
                -1.6613958332815235
            ]
        },
        {
            "positions": [
                1.6267408106794503,
                -1.6144008968396428,
                -0.38923340686056873,
                -0.1425322821445984,
                -0.5714847069602732,
                -1.597239231355629
            ]
        },
        {
            "positions": [
                1.7113682424476098,
                -1.5972403498399872,
                -0.5485756421764121,
                -0.14897138801529425,
                -0.6316164617248149,
                -1.5330826294297344
            ]
        },
        {
            "positions": [
                1.7959956742157694,
                -1.5800798028403318,
                -0.7079178774922554,
                -0.1554104938859901,
                -0.6917482164893568,
                -1.4689260275038394
            ]
        },
        {
            "positions": [
                1.8806231059839291,
                -1.5629192558406761,
                -0.8672601128080988,
                -0.16184959975668592,
                -0.7518799712538986,
                -1.4047694255779446
            ]
        },
        {
            "positions": [
                1.9652505377520888,
                -1.5457587088410207,
                -1.0266023481239421,
                -0.16828870562738177,
                -0.8120117260184403,
                -1.3406128236520498
            ]
        },
        {
            "positions": [
                2.049877969520248,
                -1.528598161841365,
                -1.1859445834397855,
                -0.17472781149807762,
                -0.8721434807829822,
                -1.2764562217261552
            ]
        },
        {
            "positions": [
                2.1345054012884077,
                -1.5114376148417097,
                -1.3452868187556288,
                -0.18116691736877344,
                -0.9322752355475239,
                -1.2122996198002605
            ]
        },
        {
            "positions": [
                2.2191328330565674,
                -1.494277067842054,
                -1.5046290540714722,
                -0.1876060232394693,
                -0.9924069903120658,
                -1.1481430178743657
            ]
        },
        {
            "positions": [
                2.303760264824727,
                -1.4771165208423986,
                -1.6639712893873155,
                -0.19404512911016514,
                -1.0525387450766075,
                -1.083986415948471
            ]
        },
        {
            "positions": [
                2.3290608527111805,
                -1.579743923980871,
                -1.795992205269505,
                -0.27730590194317817,
                -1.0432475571714976,
                -1.1240263331441358
            ]
        },
        {
            "positions": [
                2.354361440597634,
                -1.6823713271193435,
                -1.9280131211516947,
                -0.3605666747761912,
                -1.0339563692663878,
                -1.164066250339801
            ]
        },
        {
            "positions": [
                2.3796620284840877,
                -1.7849987302578159,
                -2.0600340370338843,
                -0.4438274476092041,
                -1.024665181361278,
                -1.2041061675354658
            ]
        },
        {
            "positions": [
                2.404962616370541,
                -1.8876261333962883,
                -2.1920549529160738,
                -0.5270882204422171,
                -1.015373993456168,
                -1.244146084731131
            ]
        },
        {
            "positions": [
                2.4302632042569945,
                -1.9902535365347607,
                -2.3240758687982632,
                -0.6103489932752302,
                -1.0060828055510582,
                -1.2841860019267959
            ]
        },
        {
            "positions": [
                2.454939615066561,
                -2.007788856844938,
                -2.2755104553212506,
                -0.7065391867790057,
                -0.9459218558626158,
                -1.393701151506309
            ]
        },
        {
            "positions": [
                2.4796160258761284,
                -2.0253241771551154,
                -2.226945041844238,
                -0.8027293802827813,
                -0.8857609061741732,
                -1.5032163010858217
            ]
        },
        {
            "positions": [
                2.504292436685695,
                -2.0428594974652925,
                -2.178379628367226,
                -0.8989195737865567,
                -0.8255999564857308,
                -1.6127314506653347
            ]
        },
        {
            "positions": [
                2.5289688474952623,
                -2.06039481777547,
                -2.1298142148902133,
                -0.9951097672903324,
                -0.7654390067972883,
                -1.7222466002448478
            ]
        },
        {
            "positions": [
                2.553645258304829,
                -2.077930138085647,
                -2.0812488014132007,
                -1.0912999607941078,
                -0.7052780571088458,
                -1.8317617498243606
            ]
        },
        {
            "positions": [
                2.5783216691143958,
                -2.0954654583958243,
                -2.032683387936188,
                -1.1874901542978833,
                -0.6451171074204034,
                -1.9412768994038736
            ]
        },
        {
            "positions": [
                2.602998079923963,
                -2.113000778706002,
                -1.9841179744591757,
                -1.283680347801659,
                -0.5849561577319609,
                -2.0507920489833866
            ]
        },
        {
            "positions": [
                2.6276744907335297,
                -2.130536099016179,
                -1.935552560982163,
                -1.3798705413054346,
                -0.5247952080435183,
                -2.1603071985629
            ]
        },
        {
            "positions": [
                2.652350901543097,
                -2.1480714193263566,
                -1.8869871475051507,
                -1.4760607348092099,
                -0.4646342583550759,
                -2.2698223481424127
            ]
        },
        {
            "positions": [
                2.6770273123526636,
                -2.1656067396365337,
                -1.8384217340281381,
                -1.5722509283129855,
                -0.4044733086666335,
                -2.3793374977219255
            ]
        },
        {
            "positions": [
                2.696498235832771,
                -2.1802321791925063,
                -1.7945907195920199,
                -1.6721894826175814,
                -0.35800109717791107,
                -2.48610066026802
            ]
        },
        {
            "positions": [
                2.7077849801260045,
                -2.1902991701841814,
                -1.7580878200307382,
                -1.7785247680008056,
                -0.33307151174502886,
                -2.58896329677819
            ]
        },
        {
            "positions": [
                2.696025590352079,
                -2.1900302222012415,
                -1.7301822870182004,
                -1.9500767478280663,
                -0.366799356952065,
                -2.722379228511656
            ]
        },
        {
            "positions": [
                2.6842662005781537,
                -2.1897612742183012,
                -1.702276754005663,
                -2.1216287276553274,
                -0.4005272021591012,
                -2.8557951602451217
            ]
        },
        {
            "positions": [
                2.6725068108042285,
                -2.189492326235361,
                -1.6743712209931254,
                -2.293180707482588,
                -0.43425504736613735,
                -2.9892110919785875
            ]
        },
        {
            "positions": [
                2.660747421030303,
                -2.189223378252421,
                -1.6464656879805877,
                -2.4647326873098487,
                -0.4679828925731735,
                -3.1226270237120533
            ]
        }
    ]
}