{
    "goal": {
        "global_pose": {
            "orientation": {
                "w": -0.00223480608172531,
                "x": 0.0024358444001904467,
                "y": 0.7094548369677653,
                "z": -0.704743149386269
            },
            "position": {
                "x": 0.6205249238014221,
                "y": -0.6371506643295288,
                "z": 0.19426114857196808
            }
        },
        "name": "move_to_magneteinheit_B"
    },
    "id": "LBKPIECE_move_to_magneteinheit_B_49",
    "joint_names": [
        "shoulder_pan_joint",
        "shoulder_lift_joint",
        "elbow_joint",
        "wrist_1_joint",
        "wrist_2_joint",
        "wrist_3_joint"
    ],
    "metrics": {
        "cart_traj_len": 1.4522998209236317,
        "distance_elbow_joint": 0.7270081699599924,
        "distance_shoulder_lift_joint": 1.2465140037530527,
        "distance_shoulder_pan_joint": 1.6223201143830863,
        "distance_wrist_1_joint": 2.6079337723537743,
        "distance_wrist_2_joint": 2.93434052034213,
        "distance_wrist_3_joint": 3.1302450433437405,
        "smoothness": 3.8857806169568487e-16,
        "time": 0.576006397,
        "traj_len": 3.5026221069558408,
        "weighted_distance": 4.9062333824961035
    },
    "planner": "LBKPIECE",
    "start": {
        "state": {
            "elbow_joint": 2.39358713078474,
            "shoulder_lift_joint": -1.908514104345545,
            "shoulder_pan_joint": 0.7066247066606129,
            "wrist_1_joint": -0.4678290933515497,
            "wrist_2_joint": 0.7096259083745334,
            "wrist_3_joint": -3.1358149277392293
        }
    },
    "waypoints": [
        {
            "positions": [
                0.7066247066606129,
                -1.908514104345545,
                2.39358713078474,
                -0.4678290933515497,
                0.7096259083745334,
                -3.1358149277392293
            ]
        },
        {
            "positions": [
                0.6542917997450295,
                -1.8683039751922206,
                2.370135254334418,
                -0.3837021974691699,
                0.6149697625570454,
                -3.034839281179754
            ]
        },
        {
            "positions": [
                0.6019588928294461,
                -1.8280938460388962,
                2.346683377884095,
                -0.2995753015867901,
                0.5203136167395573,
                -2.933863634620278
            ]
        },
        {
            "positions": [
                0.5496259859138627,
                -1.7878837168855721,
                2.323231501433773,
                -0.21544840570441026,
                0.42565747092206924,
                -2.832887988060803
            ]
        },
        {
            "positions": [
                0.49729307899827924,
                -1.7476735877322478,
                2.299779624983451,
                -0.13132150982203045,
                0.3310013251045812,
                -2.731912341501327
            ]
        },
        {
            "positions": [
                0.4449601720826958,
                -1.7074634585789235,
                2.2763277485331286,
                -0.04719461393965063,
                0.23634517928709314,
                -2.630936694941852
            ]
        },
        {
            "positions": [
                0.3926272651671124,
                -1.6672533294255993,
                2.252875872082806,
                0.036932281942729184,
                0.14168903346960504,
                -2.5299610483823765
            ]
        },
        {
            "positions": [
                0.34029435825152893,
                -1.627043200272275,
                2.2294239956324837,
                0.12105917782510894,
                0.047032887652116995,
                -2.4289854018229007
            ]
        },
        {
            "positions": [
                0.28796145133594553,
                -1.5868330711189507,
                2.2059721191821615,
                0.20518607370748881,
                -0.04762325816537105,
                -2.3280097552634254
            ]
        },
        {
            "positions": [
                0.23562854442036202,
                -1.5466229419656263,
                2.182520242731839,
                0.2893129695898687,
                -0.1422794039828592,
                -2.2270341087039496
            ]
        },
        {
            "positions": [
                0.18329563750477862,
                -1.5064128128123022,
                2.1590683662815167,
                0.37343986547224844,
                -0.23693554980034714,
                -2.1260584621444742
            ]
        },
        {
            "positions": [
                0.13096273058919516,
                -1.4662026836589779,
                2.1356164898311945,
                0.4575667613546283,
                -0.3315916956178354,
                -2.025082815584999
            ]
        },
        {
            "positions": [
                0.07862982367361182,
                -1.4259925545056535,
                2.1121646133808722,
                0.5416936572370081,
                -0.42624784143532335,
                -1.9241071690255234
            ]
        },
        {
            "positions": [
                0.026296916758028366,
                -1.3857824253523292,
                2.0887127369305496,
                0.6258205531193881,
                -0.5209039872528115,
                -1.8231315224660478
            ]
        },
        {
            "positions": [
                -0.02603599015755509,
                -1.345572296199005,
                2.0652608604802274,
                0.7099474490017676,
                -0.6155601330702994,
                -1.7221558759065723
            ]
        },
        {
            "positions": [
                -0.07836889707313854,
                -1.3053621670456808,
                2.041808984029905,
                0.7940743448841476,
                -0.7102162788877876,
                -1.6211802293470967
            ]
        },
        {
            "positions": [
                -0.1307018039887219,
                -1.2651520378923564,
                2.0183571075795825,
                0.8782012407665274,
                -0.8048724247052755,
                -1.5202045827876214
            ]
        },
        {
            "positions": [
                -0.18303471090430534,
                -1.2249419087390323,
                1.9949052311292603,
                0.9623281366489072,
                -0.8995285705227635,
                -1.4192289362281458
            ]
        },
        {
            "positions": [
                -0.2353676178198889,
                -1.1847317795857077,
                1.9714533546789381,
                1.0464550325312871,
                -0.9941847163402519,
                -1.3182532896686703
            ]
        },
        {
            "positions": [
                -0.28770052473547225,
                -1.1445216504323836,
                1.9480014782286157,
                1.130581928413667,
                -1.0888408621577397,
                -1.2172776431091947
            ]
        },
        {
            "positions": [
                -0.3400334316510557,
                -1.1043115212790595,
                1.9245496017782933,
                1.2147088242960467,
                -1.1834970079752276,
                -1.1163019965497192
            ]
        },
        {
            "positions": [
                -0.39236633856663905,
                -1.064101392125735,
                1.901097725327971,
                1.2988357201784264,
                -1.278153153792716,
                -1.0153263499902438
            ]
        },
        {
            "positions": [
                -0.4446992454822226,
                -1.0238912629724108,
                1.8776458488776486,
                1.3829626160608064,
                -1.3728092996102044,
                -0.9143507034307681
            ]
        },
        {
            "positions": [
                -0.49703215239780596,
                -0.9836811338190865,
                1.8541939724273262,
                1.4670895119431862,
                -1.4674654454276923,
                -0.8133750568712927
            ]
        },
        {
            "positions": [
                -0.5493650593133893,
                -0.9434710046657623,
                1.830742095977004,
                1.551216407825566,
                -1.5621215912451802,
                -0.7123994103118174
            ]
        },
        {
            "positions": [
                -0.6016979662289726,
                -0.903260875512438,
                1.8072902195266818,
                1.6353433037079457,
                -1.6567777370626682,
                -0.6114237637523421
            ]
        },
        {
            "positions": [
                -0.6540308731445562,
                -0.8630507463591137,
                1.7838383430763594,
                1.7194701995903259,
                -1.7514338828801566,
                -0.5104481171928663
            ]
        },
        {
            "positions": [
                -0.7063637800601396,
                -0.8228406172057894,
                1.760386466626037,
                1.8035970954727056,
                -1.8460900286976445,
                -0.409472470633391
            ]
        },
        {
            "positions": [
                -0.7586966869757231,
                -0.782630488052465,
                1.7369345901757147,
                1.887723991355085,
                -1.9407461745151324,
                -0.3084968240739152
            ]
        },
        {
            "positions": [
                -0.8110295938913065,
                -0.7424203588991409,
                1.7134827137253925,
                1.9718508872374647,
                -2.0354023203326204,
                -0.20752117751443988
            ]
        },
        {
            "positions": [
                -0.86336250080689,
                -0.7022102297458166,
                1.6900308372750699,
                2.055977783119845,
                -2.1300584661501087,
                -0.10654553095496411
            ]
        },
        {
            "positions": [
                -0.9156954077224733,
                -0.6620001005924923,
                1.6665789608247477,
                2.1401046790022247,
                -2.2247146119675967,
                -0.005569884395488568
            ]
        }
    ]
}