{
    "goal": {
        "global_pose": {
            "orientation": {
                "w": 0.7047431468963623,
                "x": -0.7094548344612122,
                "y": 0.0024358443915843964,
                "z": -0.0022348060738295317
            },
            "position": {
                "x": 0.6094750761985779,
                "y": 0.3671506643295288,
                "z": 0.19426114857196808
            }
        },
        "name": "move_to_magneteinheit_A"
    },
    "id": "LBKPIECE_move_to_magneteinheit_A_40",
    "joint_names": [
        "shoulder_pan_joint",
        "shoulder_lift_joint",
        "elbow_joint",
        "wrist_1_joint",
        "wrist_2_joint",
        "wrist_3_joint"
    ],
    "metrics": {
        "cart_traj_len": 2.068466083128498,
        "distance_elbow_joint": 3.892419896329446,
        "distance_shoulder_lift_joint": 1.0623692963673845,
        "distance_shoulder_pan_joint": 1.241287871239252,
        "distance_wrist_1_joint": 1.2121779497620848,
        "distance_wrist_2_joint": 1.4425168949837397,
        "distance_wrist_3_joint": 1.9766860591457833,
        "smoothness": 2.7564157984637776e-16,
        "time": 0.29659505799999997,
        "traj_len": 3.290510289883272,
        "weighted_distance": 4.175586776833297
    },
    "planner": "LBKPIECE",
    "start": {
        "state": {
            "elbow_joint": -1.919643507792019,
            "shoulder_lift_joint": -0.07675430207160344,
            "shoulder_pan_joint": -1.1188671864651873,
            "wrist_1_joint": 0.42560062535961957,
            "wrist_2_joint": 1.5706038300724876,
            "wrist_3_joint": 1.1188968870953055
        }
    },
    "waypoints": [
        {
            "positions": [
                -1.1188671864651873,
                -0.07675430207160344,
                -1.919643507792019,
                0.42560062535961957,
                1.5706038300724876,
                1.1188968870953055
            ]
        },
        {
            "positions": [
                -1.0745354767780713,
                -0.1146960626561529,
                -1.7806285114945388,
                0.3823085557252594,
                1.519085369537354,
                1.1894928177790836
            ]
        },
        {
            "positions": [
                -1.030203767090955,
                -0.15263782324070235,
                -1.6416135151970588,
                0.33901648609089924,
                1.4675669090022205,
                1.2600887484628616
            ]
        },
        {
            "positions": [
                -0.9858720574038389,
                -0.19057958382525178,
                -1.5025985188995785,
                0.295724416456539,
                1.416048448467087,
                1.3306846791466396
            ]
        },
        {
            "positions": [
                -0.9415403477167228,
                -0.22852134440980124,
                -1.3635835226020983,
                0.25243234682217885,
                1.3645299879319535,
                1.4012806098304174
            ]
        },
        {
            "positions": [
                -0.8972086380296066,
                -0.26646310499435066,
                -1.224568526304618,
                0.2091402771878187,
                1.31301152739682,
                1.4718765405141954
            ]
        },
        {
            "positions": [
                -0.8528769283424904,
                -0.3044048655789001,
                -1.0855535300071377,
                0.16584820755345853,
                1.2614930668616862,
                1.5424724711979734
            ]
        },
        {
            "positions": [
                -0.8085452186553743,
                -0.3423466261634496,
                -0.9465385337096576,
                0.12255613791909836,
                1.2099746063265526,
                1.6130684018817514
            ]
        },
        {
            "positions": [
                -0.7642135089682582,
                -0.38028838674799903,
                -0.8075235374121774,
                0.0792640682847382,
                1.158456145791419,
                1.6836643325655292
            ]
        },
        {
            "positions": [
                -0.7198817992811419,
                -0.4182301473325485,
                -0.6685085411146972,
                0.03597199865037798,
                1.1069376852562856,
                1.7542602632493074
            ]
        },
        {
            "positions": [
                -0.6755500895940258,
                -0.45617190791709794,
                -0.5294935448172169,
                -0.007320070983982185,
                1.055419224721152,
                1.8248561939330852
            ]
        },
        {
            "positions": [
                -0.6312183799069098,
                -0.49411366850164734,
                -0.3904785485197366,
                -0.050612140618342294,
                1.0039007641860185,
                1.8954521246168632
            ]
        },
        {
            "positions": [
                -0.5868866702197936,
                -0.5320554290861967,
                -0.2514635522222566,
                -0.09390421025270251,
                0.9523823036508849,
                1.9660480553006412
            ]
        },
        {
            "positions": [
                -0.5425549605326774,
                -0.5699971896707463,
                -0.11244855592477632,
                -0.13719627988706268,
                0.9008638431157513,
                2.036643985984419
            ]
        },
        {
            "positions": [
                -0.4982232508455613,
                -0.6079389502552957,
                0.026566440372703948,
                -0.18048834952142284,
                0.8493453825806178,
                2.107239916668197
            ]
        },
        {
            "positions": [
                -0.4538915411584452,
                -0.6458807108398452,
                0.1655814366701842,
                -0.223780419155783,
                0.7978269220454842,
                2.177835847351975
            ]
        },
        {
            "positions": [
                -0.409559831471329,
                -0.6838224714243946,
                0.30459643296766425,
                -0.26707248879014317,
                0.7463084615103507,
                2.2484317780357532
            ]
        },
        {
            "positions": [
                -0.36522812178421293,
                -0.7217642320089439,
                0.4436114292651443,
                -0.31036455842450333,
                0.6947900009752171,
                2.3190277087195312
            ]
        },
        {
            "positions": [
                -0.32089641209709663,
                -0.7597059925934935,
                0.5826264255626248,
                -0.3536566280588636,
                0.6432715404400835,
                2.3896236394033092
            ]
        },
        {
            "positions": [
                -0.27656470240998055,
                -0.797647753178043,
                0.7216414218601053,
                -0.3969486976932238,
                0.59175307990495,
                2.4602195700870872
            ]
        },
        {
            "positions": [
                -0.23223299272286435,
                -0.8355895137625924,
                0.8606564181575853,
                -0.44024076732758394,
                0.5402346193698164,
                2.5308155007708653
            ]
        },
        {
            "positions": [
                -0.18790128303574827,
                -0.873531274347142,
                0.9996714144550654,
                -0.4835328369619441,
                0.4887161588346829,
                2.6014114314546433
            ]
        },
        {
            "positions": [
                -0.14356957334863218,
                -0.9114730349316913,
                1.1386864107525458,
                -0.5268249065963042,
                0.43719769829954935,
                2.6720073621384213
            ]
        },
        {
            "positions": [
                -0.0992378636615161,
                -0.9494147955162406,
                1.2777014070500259,
                -0.5701169762306644,
                0.3856792377644158,
                2.742603292822199
            ]
        },
        {
            "positions": [
                -0.054906153974399796,
                -0.9873565561007902,
                1.416716403347506,
                -0.6134090458650245,
                0.3341607772292823,
                2.813199223505977
            ]
        },
        {
            "positions": [
                -0.010574444287283713,
                -1.0252983166853398,
                1.5557313996449864,
                -0.6567011154993847,
                0.2826423166941485,
                2.8837951541897553
            ]
        },
        {
            "positions": [
                0.03375726539983259,
                -1.0632400772698891,
                1.6947463959424665,
                -0.6999931851337449,
                0.23112385615901498,
                2.9543910848735333
            ]
        },
        {
            "positions": [
                0.07808897508694868,
                -1.1011818378544387,
                1.833761392239947,
                -0.743285254768105,
                0.17960539562388145,
                3.024987015557311
            ]
        },
        {
            "positions": [
                0.12242068477406484,
                -1.139123598438988,
                1.972776388537427,
                -0.7865773244024652,
                0.12808693508874783,
                3.095582946241089
            ]
        }
    ]
}