{
    "goal": {
        "global_pose": {
            "orientation": {
                "w": 0.5084816217422485,
                "x": -0.49083608388900757,
                "y": 0.5182115435600281,
                "z": -0.4816462993621826
            },
            "position": {
                "x": 0.5540239810943604,
                "y": 0.030875300988554955,
                "z": 0.16403168439865112
            }
        },
        "name": "move_to_storage_A"
    },
    "id": "LBKPIECE_move_to_storage_A_74",
    "joint_names": [
        "shoulder_pan_joint",
        "shoulder_lift_joint",
        "elbow_joint",
        "wrist_1_joint",
        "wrist_2_joint",
        "wrist_3_joint"
    ],
    "metrics": {
        "cart_traj_len": 0.35285023464853155,
        "distance_elbow_joint": 0.4515568790269535,
        "distance_shoulder_lift_joint": 0.23504840197152022,
        "distance_shoulder_pan_joint": 0.4620207913908011,
        "distance_wrist_1_joint": 0.24675317019373189,
        "distance_wrist_2_joint": 1.096375502143275,
        "distance_wrist_3_joint": 0.0964218785934512,
        "smoothness": 1.2212453303493557e-15,
        "time": 0.16054975700000002,
        "traj_len": 1.608781098633289,
        "weighted_distance": 2.0308001016455663
    },
    "planner": "LBKPIECE",
    "start": {
        "state": {
            "elbow_joint": 1.9715463870305268,
            "shoulder_lift_joint": -1.1394903361783484,
            "shoulder_pan_joint": 0.12281147578464417,
            "wrist_1_joint": -0.7804599489681411,
            "wrist_2_joint": 0.12958660307563738,
            "wrist_3_joint": -3.1924946282119055
        }
    },
    "waypoints": [
        {
            "positions": [
                0.12281147578464417,
                -1.1394903361783484,
                1.9715463870305268,
                -0.7804599489681411,
                0.12958660307563738,
                -3.1924946282119055
            ]
        },
        {
            "positions": [
                0.056808505585958305,
                -1.173068679317137,
                2.036054512605806,
                -0.81571040185296,
                0.28621167481039095,
                -3.178720074127127
            ]
        },
        {
            "positions": [
                -0.009194464612727563,
                -1.2066470224559256,
                2.100562638181085,
                -0.8509608547377787,
                0.4428367465451445,
                -3.164945520042348
            ]
        },
        {
            "positions": [
                -0.07519743481141343,
                -1.2402253655947142,
                2.165070763756364,
                -0.8862113076225976,
                0.5994618182798981,
                -3.1511709659575695
            ]
        },
        {
            "positions": [
                -0.14120040501009928,
                -1.2738037087335028,
                2.229578889331643,
                -0.9214617605074165,
                0.7560868900146517,
                -3.1373964118727904
            ]
        },
        {
            "positions": [
                -0.20720337520878518,
                -1.3073820518722914,
                2.294087014906922,
                -0.9567122133922352,
                0.9127119617494053,
                -3.1236218577880117
            ]
        },
        {
            "positions": [
                -0.273206345407471,
                -1.34096039501108,
                2.358595140482201,
                -0.9919626662770541,
                1.0693370334841588,
                -3.109847303703233
            ]
        },
        {
            "positions": [
                -0.3392093156061569,
                -1.3745387381498686,
                2.4231032660574803,
                -1.027213119161873,
                1.2259621052189125,
                -3.0960727496184544
            ]
        }
    ]
}