{
    "goal": {
        "global_pose": {
            "orientation": {
                "w": 0.7031023502349854,
                "x": -0.7110244035720825,
                "y": 0.007748599164187908,
                "z": 0.005598929710686207
            },
            "position": {
                "x": 0.11585023208521307,
                "y": 0.44412534475326537,
                "z": 0.3711530566215515
            }
        },
        "name": "move_to_auspresseinheit_A"
    },
    "id": "LBKPIECE_move_to_auspresseinheit_A_132",
    "joint_names": [
        "shoulder_pan_joint",
        "shoulder_lift_joint",
        "elbow_joint",
        "wrist_1_joint",
        "wrist_2_joint",
        "wrist_3_joint"
    ],
    "metrics": {
        "cart_traj_len": 0.7801961801101353,
        "distance_elbow_joint": 0.5531805741897888,
        "distance_shoulder_lift_joint": 0.532410485102339,
        "distance_shoulder_pan_joint": 1.0427498097402443,
        "distance_wrist_1_joint": 1.0143355381360846,
        "distance_wrist_2_joint": 1.538209835507741,
        "distance_wrist_3_joint": 2.5124123596841095,
        "smoothness": 1.0385154028189238,
        "time": 0.355534389,
        "traj_len": 2.68203255057807,
        "weighted_distance": 3.8432627668912196
    },
    "planner": "LBKPIECE",
    "start": {
        "state": {
            "elbow_joint": 2.422574709923281,
            "shoulder_lift_joint": -1.3736533754116391,
            "shoulder_pan_joint": -0.33786336945926293,
            "wrist_1_joint": -1.0288603412921917,
            "wrist_2_joint": 1.2330224858903978,
            "wrist_3_joint": -3.094022268022082
        }
    },
    "waypoints": [
        {
            "positions": [
                -0.33786336945926293,
                -1.3736533754116391,
                2.422574709923281,
                -1.0288603412921917,
                1.2330224858903978,
                -3.094022268022082
            ]
        },
        {
            "positions": [
                -0.299204720155662,
                -1.4076088635471404,
                2.3960476687018453,
                -0.9569623778027072,
                1.13902508378438,
                -2.9821592456774426
            ]
        },
        {
            "positions": [
                -0.26054607085206105,
                -1.441564351682642,
                2.3695206274804095,
                -0.8850644143132227,
                1.0450276816783626,
                -2.8702962233328027
            ]
        },
        {
            "positions": [
                -0.22188742154846014,
                -1.4755198398181433,
                2.3429935862589737,
                -0.8131664508237381,
                0.951030279572345,
                -2.758433200988163
            ]
        },
        {
            "positions": [
                -0.1832287722448592,
                -1.5094753279536448,
                2.316466545037538,
                -0.7412684873342535,
                0.8570328774663274,
                -2.646570178643523
            ]
        },
        {
            "positions": [
                -0.1445701229412583,
                -1.5434308160891461,
                2.289939503816102,
                -0.6693705238447689,
                0.7630354753603097,
                -2.5347071562988837
            ]
        },
        {
            "positions": [
                -0.10591147363765735,
                -1.5773863042246477,
                2.2634124625946663,
                -0.5974725603552844,
                0.6690380732542922,
                -2.422844133954244
            ]
        },
        {
            "positions": [
                -0.06725282433405644,
                -1.611341792360149,
                2.2368854213732305,
                -0.5255745968657999,
                0.5750406711482745,
                -2.310981111609604
            ]
        },
        {
            "positions": [
                -0.02859417503045547,
                -1.6452972804956505,
                2.2103583801517948,
                -0.45367663337631536,
                0.4810432690422569,
                -2.1991180892649647
            ]
        },
        {
            "positions": [
                0.010064474273145496,
                -1.6792527686311518,
                2.183831338930359,
                -0.38177866988683073,
                0.3870458669362393,
                -2.0872550669203247
            ]
        },
        {
            "positions": [
                0.04872312357674635,
                -1.7132082567666531,
                2.157304297708923,
                -0.3098807063973462,
                0.29304846483022173,
                -1.9753920445756852
            ]
        },
        {
            "positions": [
                0.0873817728803473,
                -1.7471637449021546,
                2.1307772564874874,
                -0.2379827429078617,
                0.1990510627242041,
                -1.8635290222310454
            ]
        },
        {
            "positions": [
                0.15306496815287945,
                -1.765954434138598,
                2.1652013019498217,
                -0.26119118535352126,
                0.25442376982530623,
                -2.0066513827220054
            ]
        },
        {
            "positions": [
                0.21874816342541165,
                -1.7847451233750413,
                2.199625347412156,
                -0.2843996277991809,
                0.3097964769264083,
                -2.149773743212965
            ]
        },
        {
            "positions": [
                0.28443135869794384,
                -1.8035358126114849,
                2.23404939287449,
                -0.30760807024484044,
                0.36516918402751053,
                -2.292896103703925
            ]
        },
        {
            "positions": [
                0.350114553970476,
                -1.8223265018479282,
                2.2684734383368244,
                -0.3308165126905,
                0.4205418911286126,
                -2.436018464194885
            ]
        },
        {
            "positions": [
                0.4157977492430082,
                -1.8411171910843716,
                2.3028974837991587,
                -0.3540249551361596,
                0.47591459822971477,
                -2.5791408246858447
            ]
        },
        {
            "positions": [
                0.48148094451554035,
                -1.8599078803208149,
                2.337321529261493,
                -0.3772333975818192,
                0.5312873053308169,
                -2.7222631851768044
            ]
        },
        {
            "positions": [
                0.5559494431040206,
                -1.8752932070518693,
                2.355601145254823,
                -0.4053024926077516,
                0.5886213619091284,
                -2.8633248354925755
            ]
        },
        {
            "positions": [
                0.6304179416925009,
                -1.8906785337829237,
                2.3738807612481527,
                -0.43337158763368394,
                0.64595541848744,
                -3.004386485808347
            ]
        },
        {
            "positions": [
                0.7048864402809812,
                -1.9060638605139781,
                2.3921603772414826,
                -0.46144068265961635,
                0.7032894750657515,
                -3.145448136124118
            ]
        }
    ]
}