{
    "goal": {
        "global_pose": {
            "orientation": {
                "w": 0.7047431468963623,
                "x": -0.7094548344612122,
                "y": 0.0024358443915843964,
                "z": -0.0022348060738295317
            },
            "position": {
                "x": 0.6094750761985779,
                "y": 0.3671506643295288,
                "z": 0.19426114857196808
            }
        },
        "name": "move_to_magneteinheit_A"
    },
    "id": "LBKPIECE_move_to_magneteinheit_A_114",
    "joint_names": [
        "shoulder_pan_joint",
        "shoulder_lift_joint",
        "elbow_joint",
        "wrist_1_joint",
        "wrist_2_joint",
        "wrist_3_joint"
    ],
    "metrics": {
        "cart_traj_len": 1.878667428807458,
        "distance_elbow_joint": 3.9106556689670637,
        "distance_shoulder_lift_joint": 0.6987768559673393,
        "distance_shoulder_pan_joint": 1.241311800279862,
        "distance_wrist_1_joint": 1.4863360513330623,
        "distance_wrist_2_joint": 1.7079160995622775,
        "distance_wrist_3_joint": 1.1060315505450413,
        "smoothness": 2.631639764355545e-16,
        "time": 0.39278340300000003,
        "traj_len": 3.186067800071845,
        "weighted_distance": 3.9442798174876064
    },
    "planner": "LBKPIECE",
    "start": {
        "state": {
            "elbow_joint": -1.919643507792019,
            "shoulder_lift_joint": -0.07675430207160344,
            "shoulder_pan_joint": -1.1188671864651873,
            "wrist_1_joint": 0.42560062535961957,
            "wrist_2_joint": 1.5706038300724876,
            "wrist_3_joint": 1.1188968870953055
        }
    },
    "waypoints": [
        {
            "positions": [
                -1.1188671864651873,
                -0.07675430207160344,
                -1.919643507792019,
                0.42560062535961957,
                1.5706038300724876,
                1.1188968870953055
            ]
        },
        {
            "positions": [
                -1.071124424915962,
                -0.10363033499342418,
                -1.7692336743702088,
                0.48276739656473733,
                1.5049147493200923,
                1.0763572120743423
            ]
        },
        {
            "positions": [
                -1.0233816633667363,
                -0.13050636791524492,
                -1.6188238409483988,
                0.5399341677698551,
                1.439225668567697,
                1.0338175370533793
            ]
        },
        {
            "positions": [
                -0.9756389018175109,
                -0.15738240083706567,
                -1.4684140075265886,
                0.597100938974973,
                1.3735365878153016,
                0.9912778620324162
            ]
        },
        {
            "positions": [
                -0.9278961402682855,
                -0.1842584337588864,
                -1.3180041741047783,
                0.6542677101800907,
                1.3078475070629065,
                0.9487381870114531
            ]
        },
        {
            "positions": [
                -0.8801533787190601,
                -0.21113446668070715,
                -1.1675943406829683,
                0.7114344813852085,
                1.2421584263105112,
                0.9061985119904898
            ]
        },
        {
            "positions": [
                -0.8324106171698346,
                -0.2380104996025279,
                -1.0171845072611583,
                0.7686012525903263,
                1.1764693455581159,
                0.8636588369695268
            ]
        },
        {
            "positions": [
                -0.7846678556206091,
                -0.26488653252434863,
                -0.866774673839348,
                0.825768023795444,
                1.1107802648057206,
                0.8211191619485636
            ]
        },
        {
            "positions": [
                -0.7369250940713836,
                -0.2917625654461694,
                -0.7163648404175378,
                0.8829347950005619,
                1.0450911840533252,
                0.7785794869276005
            ]
        },
        {
            "positions": [
                -0.6891823325221582,
                -0.31863859836799013,
                -0.5659550069957278,
                0.9401015662056795,
                0.97940210330093,
                0.7360398119066374
            ]
        },
        {
            "positions": [
                -0.6414395709729327,
                -0.34551463128981086,
                -0.4155451735739175,
                0.9972683374107973,
                0.9137130225485347,
                0.6935001368856742
            ]
        },
        {
            "positions": [
                -0.5936968094237073,
                -0.3723906642116316,
                -0.2651353401521075,
                1.0544351086159152,
                0.8480239417961394,
                0.6509604618647111
            ]
        },
        {
            "positions": [
                -0.5459540478744818,
                -0.39926669713345236,
                -0.11472550673029724,
                1.111601879821033,
                0.7823348610437441,
                0.608420786843748
            ]
        },
        {
            "positions": [
                -0.49821128632525635,
                -0.4261427300552731,
                0.03568432669151278,
                1.1687686510261508,
                0.7166457802913488,
                0.5658811118227849
            ]
        },
        {
            "positions": [
                -0.45046852477603094,
                -0.4530187629770938,
                0.18609416011332303,
                1.2259354222312684,
                0.6509566995389536,
                0.5233414368018218
            ]
        },
        {
            "positions": [
                -0.40272576322680553,
                -0.47989479589891454,
                0.33650399353513305,
                1.2831021934363862,
                0.5852676187865583,
                0.48080176178085865
            ]
        },
        {
            "positions": [
                -0.3549830016775799,
                -0.5067708288207353,
                0.4869138269569435,
                1.3402689646415042,
                0.5195785380341629,
                0.4382620867598954
            ]
        },
        {
            "positions": [
                -0.3072402401283545,
                -0.533646861742556,
                0.6373236603787535,
                1.3974357358466218,
                0.45388945728176777,
                0.3957224117389324
            ]
        },
        {
            "positions": [
                -0.2594974785791291,
                -0.5605228946643768,
                0.7877334938005636,
                1.4546025070517397,
                0.38820037652937245,
                0.3531827367179693
            ]
        },
        {
            "positions": [
                -0.21175471702990367,
                -0.5873989275861975,
                0.9381433272223736,
                1.5117692782568575,
                0.3225112957769771,
                0.3106430616970062
            ]
        },
        {
            "positions": [
                -0.16401195548067804,
                -0.6142749605080182,
                1.088553160644184,
                1.5689360494619753,
                0.2568222150245818,
                0.26810338667604294
            ]
        },
        {
            "positions": [
                -0.11626919393145263,
                -0.641150993429839,
                1.238962994065994,
                1.626102820667093,
                0.19113313427218648,
                0.22556371165507982
            ]
        },
        {
            "positions": [
                -0.06852643238222722,
                -0.6680270263516597,
                1.389372827487804,
                1.683269591872211,
                0.12544405351979115,
                0.1830240366341167
            ]
        },
        {
            "positions": [
                -0.02078367083300181,
                -0.6949030592734804,
                1.5397826609096141,
                1.7404363630773285,
                0.05975497276739605,
                0.1404843616131537
            ]
        },
        {
            "positions": [
                0.02695909071622382,
                -0.7217790921953013,
                1.6901924943314246,
                1.7976031342824466,
                -0.005934107984999493,
                0.09794468659219047
            ]
        },
        {
            "positions": [
                0.07470185226544923,
                -0.7486551251171221,
                1.8406023277532346,
                1.8547699054875642,
                -0.0716231887373946,
                0.055405011571227236
            ]
        },
        {
            "positions": [
                0.12244461381467463,
                -0.7755311580389428,
                1.9910121611750446,
                1.911936676692682,
                -0.13731226948978995,
                0.012865336550264301
            ]
        }
    ]
}