{
    "goal": {
        "global_pose": {
            "orientation": {
                "w": 0.7031023502349854,
                "x": -0.7110244035720825,
                "y": 0.007748599164187908,
                "z": 0.005598929710686207
            },
            "position": {
                "x": 0.11585023208521307,
                "y": 0.44412534475326537,
                "z": 0.3711530566215515
            }
        },
        "name": "move_to_auspresseinheit_A"
    },
    "id": "LBKPIECE_move_to_auspresseinheit_A_129",
    "joint_names": [
        "shoulder_pan_joint",
        "shoulder_lift_joint",
        "elbow_joint",
        "wrist_1_joint",
        "wrist_2_joint",
        "wrist_3_joint"
    ],
    "metrics": {
        "cart_traj_len": 1.3901241644481805,
        "distance_elbow_joint": 1.5985435231491913,
        "distance_shoulder_lift_joint": 0.5360508829786801,
        "distance_shoulder_pan_joint": 1.0449338972817475,
        "distance_wrist_1_joint": 1.2613572050094386,
        "distance_wrist_2_joint": 0.5228732065983006,
        "distance_wrist_3_joint": 2.3527992587666082,
        "smoothness": 0.8962815963435518,
        "time": 0.293739249,
        "traj_len": 2.7049136721499942,
        "weighted_distance": 3.7156946729952023
    },
    "planner": "LBKPIECE",
    "start": {
        "state": {
            "elbow_joint": 2.422574709923281,
            "shoulder_lift_joint": -1.3736533754116391,
            "shoulder_pan_joint": -0.33786336945926293,
            "wrist_1_joint": -1.0288603412921917,
            "wrist_2_joint": 1.2330224858903978,
            "wrist_3_joint": -3.094022268022082
        }
    },
    "waypoints": [
        {
            "positions": [
                -0.33786336945926293,
                -1.3736533754116391,
                2.422574709923281,
                -1.0288603412921917,
                1.2330224858903978,
                -3.094022268022082
            ]
        },
        {
            "positions": [
                -0.2831611732670208,
                -1.4148517765421535,
                2.3486418848165944,
                -0.9461282479050417,
                1.206586588544333,
                -2.988499977968717
            ]
        },
        {
            "positions": [
                -0.2284589770747787,
                -1.4560501776726682,
                2.2747090597099078,
                -0.8633961545178918,
                1.1801506911982684,
                -2.8829776879153517
            ]
        },
        {
            "positions": [
                -0.17375678088253657,
                -1.4972485788031826,
                2.200776234603221,
                -0.7806640611307417,
                1.1537147938522039,
                -2.7774553978619867
            ]
        },
        {
            "positions": [
                -0.11905458469029442,
                -1.5384469799336973,
                2.1268434094965345,
                -0.6979319677435918,
                1.127278896506139,
                -2.6719331078086217
            ]
        },
        {
            "positions": [
                -0.0643523884980523,
                -1.5796453810642117,
                2.052910584389848,
                -0.6151998743564417,
                1.1008429991600743,
                -2.5664108177552567
            ]
        },
        {
            "positions": [
                -0.009650192305810212,
                -1.6208437821947261,
                1.9789777592831614,
                -0.5324677809692917,
                1.0744071018140098,
                -2.4608885277018913
            ]
        },
        {
            "positions": [
                0.045052003886431935,
                -1.6620421833252408,
                1.9050449341764746,
                -0.4497356875821418,
                1.0479712044679452,
                -2.3553662376485263
            ]
        },
        {
            "positions": [
                0.09975420007867408,
                -1.7032405844557552,
                1.831112109069788,
                -0.36700359419499173,
                1.0215353071218805,
                -2.249843947595161
            ]
        },
        {
            "positions": [
                0.15445639627091623,
                -1.7444389855862696,
                1.7571792839631013,
                -0.2842715008078417,
                0.9950994097758158,
                -2.144321657541796
            ]
        },
        {
            "positions": [
                0.20915859246315832,
                -1.7856373867167843,
                1.6832464588564149,
                -0.20153940742069176,
                0.9686635124297511,
                -2.038799367488431
            ]
        },
        {
            "positions": [
                0.26386078865540047,
                -1.8268357878472987,
                1.6093136337497282,
                -0.11880731403354174,
                0.9422276150836865,
                -1.9332770774350656
            ]
        },
        {
            "positions": [
                0.3347664520251582,
                -1.8458113217964645,
                1.7270101106720597,
                -0.1443127466236025,
                0.9071094514474515,
                -2.0500124309367567
            ]
        },
        {
            "positions": [
                0.40567211539491593,
                -1.8647868557456304,
                1.8447065875943909,
                -0.16981817921366327,
                0.8719912878112166,
                -2.1667477844384475
            ]
        },
        {
            "positions": [
                0.47657777876467367,
                -1.8837623896947961,
                1.9624030645167223,
                -0.195323611803724,
                0.8368731241749816,
                -2.2834831379401384
            ]
        },
        {
            "positions": [
                0.5106189480172556,
                -1.8843610882343094,
                2.0683064365866697,
                -0.237916445296124,
                0.8160045848297669,
                -2.424951474837328
            ]
        },
        {
            "positions": [
                0.5446601172698375,
                -1.8849597867738224,
                2.174209808656617,
                -0.280509278788524,
                0.7951360454845521,
                -2.5664198117345185
            ]
        },
        {
            "positions": [
                0.5787012865224195,
                -1.8855584853133356,
                2.2801131807265644,
                -0.323102112280924,
                0.7742675061393374,
                -2.7078881486317083
            ]
        },
        {
            "positions": [
                0.6213779095265104,
                -1.8898069993048257,
                2.3684712999678648,
                -0.3754369856672344,
                0.7512895757106233,
                -2.866539087758112
            ]
        },
        {
            "positions": [
                0.6642242186744974,
                -1.8997556288475725,
                2.3815336903466156,
                -0.42277423872578246,
                0.7307194275013602,
                -2.9959351166863843
            ]
        },
        {
            "positions": [
                0.7070705278224845,
                -1.9097042583903192,
                2.394596080725367,
                -0.47011149178433054,
                0.7101492792920971,
                -3.1253311456146573
            ]
        }
    ]
}