{
    "goal": {
        "global_pose": {
            "orientation": {
                "w": -0.00223480608172531,
                "x": 0.0024358444001904467,
                "y": 0.7094548369677653,
                "z": -0.704743149386269
            },
            "position": {
                "x": 0.6205249238014221,
                "y": -0.6371506643295288,
                "z": 0.19426114857196808
            }
        },
        "name": "move_to_magneteinheit_B"
    },
    "id": "LBKPIECE_move_to_magneteinheit_B_8",
    "joint_names": [
        "shoulder_pan_joint",
        "shoulder_lift_joint",
        "elbow_joint",
        "wrist_1_joint",
        "wrist_2_joint",
        "wrist_3_joint"
    ],
    "metrics": {
        "cart_traj_len": 1.4533036615551995,
        "distance_elbow_joint": 0.7303960006931123,
        "distance_shoulder_lift_joint": 1.2487378177976316,
        "distance_shoulder_pan_joint": 1.6213935670049335,
        "distance_wrist_1_joint": 2.6066052471521797,
        "distance_wrist_2_joint": 2.9398831030683312,
        "distance_wrist_3_joint": 3.1340281694314966,
        "smoothness": 4.718447868532788e-16,
        "time": 0.37103958000000004,
        "traj_len": 3.504432037455954,
        "weighted_distance": 4.908725760748016
    },
    "planner": "LBKPIECE",
    "start": {
        "state": {
            "elbow_joint": 2.39358713078474,
            "shoulder_lift_joint": -1.908514104345545,
            "shoulder_pan_joint": 0.7066247066606129,
            "wrist_1_joint": -0.4678290933515497,
            "wrist_2_joint": 0.7096259083745334,
            "wrist_3_joint": -3.1358149277392293
        }
    },
    "waypoints": [
        {
            "positions": [
                0.7066247066606129,
                -1.908514104345545,
                2.39358713078474,
                -0.4678290933515497,
                0.7096259083745334,
                -3.1358149277392293
            ]
        },
        {
            "positions": [
                0.6543216883701313,
                -1.8682322392552988,
                2.370025969472059,
                -0.38374505312083423,
                0.6147909695658775,
                -3.0347172448543422
            ]
        },
        {
            "positions": [
                0.6020186700796495,
                -1.8279503741650525,
                2.346464808159378,
                -0.29966101289011876,
                0.5199560307572217,
                -2.933619561969455
            ]
        },
        {
            "positions": [
                0.5497156517891677,
                -1.7876685090748063,
                2.322903646846697,
                -0.2155769726594033,
                0.4251210919485659,
                -2.8325218790845685
            ]
        },
        {
            "positions": [
                0.49741263349868603,
                -1.7473866439845602,
                2.299342485534016,
                -0.13149293242868781,
                0.33028615313991005,
                -2.7314241961996815
            ]
        },
        {
            "positions": [
                0.4451096152082043,
                -1.7071047788943141,
                2.275781324221335,
                -0.04740889219797234,
                0.2354512143312542,
                -2.6303265133147944
            ]
        },
        {
            "positions": [
                0.3928065969177226,
                -1.6668229138040678,
                2.252220162908654,
                0.03667514803274313,
                0.14061627552259837,
                -2.5292288304299073
            ]
        },
        {
            "positions": [
                0.34050357862724084,
                -1.6265410487138217,
                2.2286590015959726,
                0.1207591882634586,
                0.04578133671394258,
                -2.4281311475450202
            ]
        },
        {
            "positions": [
                0.2882005603367591,
                -1.5862591836235755,
                2.2050978402832917,
                0.20484322849417408,
                -0.04905360209471332,
                -2.3270334646601336
            ]
        },
        {
            "positions": [
                0.2358975420462774,
                -1.5459773185333292,
                2.1815366789706108,
                0.28892726872488955,
                -0.14388854090336922,
                -2.225935781775246
            ]
        },
        {
            "positions": [
                0.18359452375579566,
                -1.505695453443083,
                2.15797551765793,
                0.373011308955605,
                -0.238723479712025,
                -2.1248380988903595
            ]
        },
        {
            "positions": [
                0.13129150546531387,
                -1.465413588352837,
                2.1344143563452485,
                0.4570953491863205,
                -0.3335584185206809,
                -2.0237404160054724
            ]
        },
        {
            "positions": [
                0.0789884871748322,
                -1.4251317232625906,
                2.1108531950325675,
                0.541179389417036,
                -0.4283933573293367,
                -1.9226427331205855
            ]
        },
        {
            "positions": [
                0.026685468884350416,
                -1.3848498581723445,
                2.0872920337198866,
                0.6252634296477515,
                -0.5232282961379927,
                -1.8215450502356985
            ]
        },
        {
            "positions": [
                -0.025617549406131257,
                -1.3445679930820984,
                2.0637308724072057,
                0.709347469878467,
                -0.6180632349466483,
                -1.7204473673508116
            ]
        },
        {
            "positions": [
                -0.07792056769661293,
                -1.304286127991852,
                2.0401697110945243,
                0.7934315101091824,
                -0.7128981737553043,
                -1.6193496844659245
            ]
        },
        {
            "positions": [
                -0.13022358598709471,
                -1.2640042629016062,
                2.0166085497818433,
                0.8775155503398979,
                -0.8077331125639601,
                -1.5182520015810375
            ]
        },
        {
            "positions": [
                -0.1825266042775764,
                -1.2237223978113598,
                1.9930473884691624,
                0.9615995905706132,
                -0.9025680513726159,
                -1.4171543186961506
            ]
        },
        {
            "positions": [
                -0.23482962256805817,
                -1.1834405327211135,
                1.9694862271564813,
                1.0456836308013289,
                -0.9974029901812719,
                -1.3160566358112633
            ]
        },
        {
            "positions": [
                -0.28713264085853984,
                -1.1431586676308676,
                1.9459250658438003,
                1.1297676710320443,
                -1.0922379289899276,
                -1.2149589529263765
            ]
        },
        {
            "positions": [
                -0.33943565914902163,
                -1.1028768025406213,
                1.9223639045311192,
                1.2138517112627598,
                -1.1870728677985833,
                -1.1138612700414896
            ]
        },
        {
            "positions": [
                -0.3917386774395032,
                -1.0625949374503751,
                1.8988027432184382,
                1.297935751493475,
                -1.2819078066072391,
                -1.0127635871566025
            ]
        },
        {
            "positions": [
                -0.4440416957299852,
                -1.022313072360129,
                1.875241581905757,
                1.3820197917241908,
                -1.3767427454158954,
                -0.9116659042717155
            ]
        },
        {
            "positions": [
                -0.49634471402046676,
                -0.9820312072698828,
                1.8516804205930761,
                1.4661038319549062,
                -1.4715776842245512,
                -0.8105682213868284
            ]
        },
        {
            "positions": [
                -0.5486477323109485,
                -0.9417493421796366,
                1.828119259280395,
                1.5501878721856217,
                -1.566412623033207,
                -0.7094705385019417
            ]
        },
        {
            "positions": [
                -0.6009507506014301,
                -0.9014674770893905,
                1.804558097967714,
                1.6342719124163372,
                -1.6612475618418627,
                -0.6083728556170547
            ]
        },
        {
            "positions": [
                -0.6532537688919121,
                -0.8611856119991441,
                1.7809969366550331,
                1.7183559526470527,
                -1.756082500650519,
                -0.5072751727321676
            ]
        },
        {
            "positions": [
                -0.7055567871823937,
                -0.820903746908898,
                1.757435775342352,
                1.8024399928777681,
                -1.8509174394591748,
                -0.4061774898472805
            ]
        },
        {
            "positions": [
                -0.7578598054728755,
                -0.7806218818186519,
                1.7338746140296708,
                1.8865240331084836,
                -1.94575237826783,
                -0.3050798069623939
            ]
        },
        {
            "positions": [
                -0.810162823763357,
                -0.7403400167284058,
                1.7103134527169899,
                1.970608073339199,
                -2.040587317076486,
                -0.20398212407750682
            ]
        },
        {
            "positions": [
                -0.8624658420538388,
                -0.7000581516381594,
                1.686752291404309,
                2.0546921135699145,
                -2.135422255885142,
                -0.10288444119261975
            ]
        },
        {
            "positions": [
                -0.9147688603443206,
                -0.6597762865479133,
                1.6631911300916278,
                2.13877615380063,
                -2.230257194693798,
                -0.001786758307732691
            ]
        }
    ]
}