{
    "goal": {
        "global_pose": {
            "orientation": {
                "w": -0.00223480608172531,
                "x": 0.0024358444001904467,
                "y": 0.7094548369677653,
                "z": -0.704743149386269
            },
            "position": {
                "x": 0.6205249238014221,
                "y": -0.6371506643295288,
                "z": 0.19426114857196808
            }
        },
        "name": "move_to_magneteinheit_B"
    },
    "id": "LBKPIECE_move_to_magneteinheit_B_3",
    "joint_names": [
        "shoulder_pan_joint",
        "shoulder_lift_joint",
        "elbow_joint",
        "wrist_1_joint",
        "wrist_2_joint",
        "wrist_3_joint"
    ],
    "metrics": {
        "cart_traj_len": 3.5965418833097433,
        "distance_elbow_joint": 4.2721013390168565,
        "distance_shoulder_lift_joint": 0.6993997796138594,
        "distance_shoulder_pan_joint": 2.418794264902579,
        "distance_wrist_1_joint": 1.9620023078357693,
        "distance_wrist_2_joint": 3.4083668120454225,
        "distance_wrist_3_joint": 3.216725306252926,
        "smoothness": 0.3559497114754263,
        "time": 0.32126282899999997,
        "traj_len": 3.997172727024367,
        "weighted_distance": 5.270788322637749
    },
    "planner": "LBKPIECE",
    "start": {
        "state": {
            "elbow_joint": 2.39358713078474,
            "shoulder_lift_joint": -1.908514104345545,
            "shoulder_pan_joint": 0.7066247066606129,
            "wrist_1_joint": -0.4678290933515497,
            "wrist_2_joint": 0.7096259083745334,
            "wrist_3_joint": -3.1358149277392293
        }
    },
    "waypoints": [
        {
            "positions": [
                0.7066247066606129,
                -1.908514104345545,
                2.39358713078474,
                -0.4678290933515497,
                0.7096259083745334,
                -3.1358149277392293
            ]
        },
        {
            "positions": [
                0.63949121791403,
                -1.9379666034966503,
                2.396388651097161,
                -0.45059526231665104,
                0.7637259894591779,
                -2.975657425872919
            ]
        },
        {
            "positions": [
                0.572357729167447,
                -1.9674191026477559,
                2.3991901714095816,
                -0.4333614312817523,
                0.8178260705438223,
                -2.8154999240066085
            ]
        },
        {
            "positions": [
                0.505224240420864,
                -1.9968716017988613,
                2.4019916917220026,
                -0.41612760024685364,
                0.8719261516284668,
                -2.6553424221402984
            ]
        },
        {
            "positions": [
                0.48996982359966557,
                -1.9871305774042969,
                2.3012110525942724,
                -0.3974298299487463,
                0.8296650948644515,
                -2.4899788194984995
            ]
        },
        {
            "positions": [
                0.47471540677846713,
                -1.9773895530097327,
                2.200430413466542,
                -0.37873205965063894,
                0.7874040381004364,
                -2.3246152168567007
            ]
        },
        {
            "positions": [
                0.546842753996059,
                -1.9756424754861863,
                2.0479094223800467,
                -0.388580341590883,
                0.7204141903575639,
                -2.234608123508329
            ]
        },
        {
            "positions": [
                0.6189701012136508,
                -1.97389539796264,
                1.895388431293552,
                -0.39842862353112707,
                0.6534243426146916,
                -2.1446010301599574
            ]
        },
        {
            "positions": [
                0.6910974484312427,
                -1.9721483204390933,
                1.742867440207057,
                -0.40827690547137113,
                0.5864344948718192,
                -2.054593936811586
            ]
        },
        {
            "positions": [
                0.7632247956488345,
                -1.9704012429155469,
                1.5903464491205621,
                -0.4181251874116152,
                0.5194446471289469,
                -1.9645868434632145
            ]
        },
        {
            "positions": [
                0.8353521428664263,
                -1.9686541653920004,
                1.4378254580340672,
                -0.42797346935185926,
                0.45245479938607447,
                -1.874579750114843
            ]
        },
        {
            "positions": [
                0.9074794900840182,
                -1.966907087868454,
                1.2853044669475724,
                -0.4378217512921033,
                0.3854649516432021,
                -1.7845726567664713
            ]
        },
        {
            "positions": [
                0.97960683730161,
                -1.9651600103449076,
                1.1327834758610775,
                -0.44767003323234733,
                0.3184751039003298,
                -1.6945655634181
            ]
        },
        {
            "positions": [
                1.0517341845192019,
                -1.963412932821361,
                0.9802624847745824,
                -0.45751831517259145,
                0.2514852561574573,
                -1.6045584700697284
            ]
        },
        {
            "positions": [
                1.1238615317367937,
                -1.9616658552978146,
                0.8277414936880878,
                -0.46736659711283546,
                0.184495408414585,
                -1.5145513767213568
            ]
        },
        {
            "positions": [
                1.1959888789543855,
                -1.9599187777742682,
                0.6752205026015927,
                -0.4772148790530795,
                0.11750556067171258,
                -1.424544283372985
            ]
        },
        {
            "positions": [
                1.2681162261719774,
                -1.9581717002507217,
                0.5226995115150979,
                -0.4870631609933236,
                0.05051571292884027,
                -1.3345371900246137
            ]
        },
        {
            "positions": [
                1.3402435733895692,
                -1.9564246227271753,
                0.370178520428603,
                -0.49691144293356765,
                -0.01647413481403215,
                -1.244530096676242
            ]
        },
        {
            "positions": [
                1.412370920607161,
                -1.9546775452036287,
                0.21765752934210814,
                -0.5067597248738117,
                -0.08346398255690446,
                -1.1545230033278706
            ]
        },
        {
            "positions": [
                1.484498267824753,
                -1.9529304676800823,
                0.06513653825561327,
                -0.5166080068140557,
                -0.15045383029977677,
                -1.0645159099794992
            ]
        },
        {
            "positions": [
                1.5566256150423448,
                -1.9511833901565359,
                -0.08738445283088137,
                -0.5264562887542998,
                -0.2174436780426492,
                -0.9745088166311275
            ]
        },
        {
            "positions": [
                1.6287529622599366,
                -1.9494363126329894,
                -0.2399054439173769,
                -0.536304570694544,
                -0.2844335257855217,
                -0.8845017232827559
            ]
        },
        {
            "positions": [
                1.7008803094775284,
                -1.947689235109443,
                -0.39242643500387153,
                -0.546152852634788,
                -0.35142337352839403,
                -0.7944946299343845
            ]
        },
        {
            "positions": [
                1.7730076566951203,
                -1.9459421575858966,
                -0.5449474260903662,
                -0.556001134575032,
                -0.41841322127126634,
                -0.7044875365860128
            ]
        },
        {
            "positions": [
                1.8451350039127121,
                -1.94419508006235,
                -0.6974684171768613,
                -0.5658494165152761,
                -0.48540306901413866,
                -0.6144804432376414
            ]
        },
        {
            "positions": [
                1.917262351130304,
                -1.9424480025388036,
                -0.8499894082633563,
                -0.5756976984555201,
                -0.5523929167570112,
                -0.5244733498892697
            ]
        },
        {
            "positions": [
                1.9893896983478958,
                -1.9407009250152572,
                -1.002510399349851,
                -0.5855459803957642,
                -0.6193827644998835,
                -0.4344662565408983
            ]
        },
        {
            "positions": [
                2.0615170455654876,
                -1.9389538474917107,
                -1.155031390436346,
                -0.5953942623360082,
                -0.6863726122427558,
                -0.3444591631925267
            ]
        },
        {
            "positions": [
                2.1336443927830793,
                -1.9372067699681643,
                -1.3075523815228407,
                -0.6052425442762523,
                -0.7533624599856281,
                -0.254452069844155
            ]
        },
        {
            "positions": [
                2.2057717400006713,
                -1.9354596924446177,
                -1.4600733726093358,
                -0.6150908262164964,
                -0.8203523077285007,
                -0.16444497649578338
            ]
        },
        {
            "positions": [
                2.2778990872182634,
                -1.9337126149210713,
                -1.6125943636958309,
                -0.6249391081567404,
                -0.887342155471373,
                -0.07443788314741218
            ]
        },
        {
            "positions": [
                2.350026434435855,
                -1.9319655373975249,
                -1.7651153547823255,
                -0.6347873900969845,
                -0.9543320032142453,
                0.015569210200959485
            ]
        },
        {
            "positions": [
                2.38429227311418,
                -1.9849381491614744,
                -1.761287029597523,
                -0.4840157821990239,
                -0.821005467327018,
                0.011395013327243615
            ]
        },
        {
            "positions": [
                2.418558111792505,
                -2.037910760925424,
                -1.7574587044127206,
                -0.33324417430106335,
                -0.6876789314397905,
                0.0072208164535277446
            ]
        },
        {
            "positions": [
                2.45282395047083,
                -2.090883372689374,
                -1.753630379227918,
                -0.18247256640310278,
                -0.5543523955525631,
                0.0030466195798118743
            ]
        },
        {
            "positions": [
                2.487089789149155,
                -2.143855984453323,
                -1.7498020540431156,
                -0.03170095850514221,
                -0.4210258596653358,
                -0.001127577293903996
            ]
        },
        {
            "positions": [
                2.52135562782748,
                -2.196828596217273,
                -1.745973728858313,
                0.11907064939281842,
                -0.2876993237781085,
                -0.005301774167619865
            ]
        },
        {
            "positions": [
                2.555621466505805,
                -2.2498012079812226,
                -1.7421454036735105,
                0.26984225729077893,
                -0.15437278789088105,
                -0.009475971041335737
            ]
        },
        {
            "positions": [
                2.58988730518413,
                -2.302773819745172,
                -1.738317078488708,
                0.42061386518873944,
                -0.02104625200365362,
                -0.013650167915051609
            ]
        },
        {
            "positions": [
                2.624153143862455,
                -2.3557464315091217,
                -1.7344887533039055,
                0.5713854730867001,
                0.1122802838835738,
                -0.017824364788767477
            ]
        },
        {
            "positions": [
                2.6366355531746035,
                -2.3965315393916584,
                -1.7125010432716223,
                0.7082778332549761,
                0.2300123261672267,
                -0.0071751670144309145
            ]
        },
        {
            "positions": [
                2.6491179624867516,
                -2.4373166472741947,
                -1.6905133332393392,
                0.8451701934232521,
                0.3477443684508796,
                0.0034740307599056483
            ]
        },
        {
            "positions": [
                2.6616003717989,
                -2.4781017551567315,
                -1.668525623207056,
                0.9820625535915282,
                0.4654764107345325,
                0.014123228534242213
            ]
        }
    ]
}