{
    "goal": {
        "global_pose": {
            "orientation": {
                "w": 0.5084816217422485,
                "x": -0.49083608388900757,
                "y": 0.5182115435600281,
                "z": -0.4816462993621826
            },
            "position": {
                "x": 0.5540239810943604,
                "y": 0.030875300988554955,
                "z": 0.16403168439865112
            }
        },
        "name": "move_to_storage_A"
    },
    "id": "LBKPIECE_move_to_storage_A_119",
    "joint_names": [
        "shoulder_pan_joint",
        "shoulder_lift_joint",
        "elbow_joint",
        "wrist_1_joint",
        "wrist_2_joint",
        "wrist_3_joint"
    ],
    "metrics": {
        "cart_traj_len": 0.3530514062164911,
        "distance_elbow_joint": 0.4486758094140497,
        "distance_shoulder_lift_joint": 0.23560806929525357,
        "distance_shoulder_pan_joint": 0.46142218123766454,
        "distance_wrist_1_joint": 0.23414744646495123,
        "distance_wrist_2_joint": 1.1004240396977791,
        "distance_wrist_3_joint": 0.10436015795843234,
        "smoothness": 4.440892133664971e-16,
        "time": 0.717531256,
        "traj_len": 1.6076808464580683,
        "weighted_distance": 2.0317306677184663
    },
    "planner": "LBKPIECE",
    "start": {
        "state": {
            "elbow_joint": 1.9715463870305268,
            "shoulder_lift_joint": -1.1394903361783484,
            "shoulder_pan_joint": 0.12281147578464417,
            "wrist_1_joint": -0.7804599489681411,
            "wrist_2_joint": 0.12958660307563738,
            "wrist_3_joint": -3.1924946282119055
        }
    },
    "waypoints": [
        {
            "positions": [
                0.12281147578464417,
                -1.1394903361783484,
                1.9715463870305268,
                -0.7804599489681411,
                0.12958660307563738,
                -3.1924946282119055
            ]
        },
        {
            "positions": [
                0.056894021322120666,
                -1.173148631791956,
                2.035642931232534,
                -0.8139095841774199,
                0.28679003731817726,
                -3.177586034217844
            ]
        },
        {
            "positions": [
                -0.00902343314040284,
                -1.2068069274055637,
                2.099739475434541,
                -0.8473592193866986,
                0.4439934715607171,
                -3.162677440223782
            ]
        },
        {
            "positions": [
                -0.07494088760292635,
                -1.2404652230191713,
                2.1638360196365483,
                -0.8808088545959774,
                0.601196905803257,
                -3.14776884622972
            ]
        },
        {
            "positions": [
                -0.14085834206544984,
                -1.274123518632779,
                2.227932563838555,
                -0.914258489805256,
                0.7584003400457969,
                -3.1328602522356586
            ]
        },
        {
            "positions": [
                -0.20677579652797334,
                -1.3077818142463866,
                2.292029108040562,
                -0.9477081250145348,
                0.9156037742883368,
                -3.117951658241597
            ]
        },
        {
            "positions": [
                -0.27269325099049685,
                -1.3414401098599944,
                2.3561256522425693,
                -0.9811577602238135,
                1.0728072085308766,
                -3.103043064247535
            ]
        },
        {
            "positions": [
                -0.33861070545302036,
                -1.375098405473602,
                2.4202221964445765,
                -1.0146073954330923,
                1.2300106427734165,
                -3.088134470253473
            ]
        }
    ]
}