{
    "goal": {
        "global_pose": {
            "orientation": {
                "w": 0.5084816217422485,
                "x": -0.49083608388900757,
                "y": 0.5182115435600281,
                "z": -0.4816462993621826
            },
            "position": {
                "x": 0.5540239810943604,
                "y": 0.030875300988554955,
                "z": 0.16403168439865112
            }
        },
        "name": "move_to_storage_A"
    },
    "id": "LBKPIECE_move_to_storage_A_14",
    "joint_names": [
        "shoulder_pan_joint",
        "shoulder_lift_joint",
        "elbow_joint",
        "wrist_1_joint",
        "wrist_2_joint",
        "wrist_3_joint"
    ],
    "metrics": {
        "cart_traj_len": 0.35317800879646544,
        "distance_elbow_joint": 0.4540010714578897,
        "distance_shoulder_lift_joint": 0.23166116034095308,
        "distance_shoulder_pan_joint": 0.461120923818028,
        "distance_wrist_1_joint": 0.2642694445176589,
        "distance_wrist_2_joint": 1.1010933953636637,
        "distance_wrist_3_joint": 0.10034026674053775,
        "smoothness": 0.0,
        "time": 0.25147746800000004,
        "traj_len": 1.616318737823308,
        "weighted_distance": 2.0441452090302024
    },
    "planner": "LBKPIECE",
    "start": {
        "state": {
            "elbow_joint": 1.9715463870305268,
            "shoulder_lift_joint": -1.1394903361783484,
            "shoulder_pan_joint": 0.12281147578464417,
            "wrist_1_joint": -0.7804599489681411,
            "wrist_2_joint": 0.12958660307563738,
            "wrist_3_joint": -3.1924946282119055
        }
    },
    "waypoints": [
        {
            "positions": [
                0.12281147578464417,
                -1.1394903361783484,
                1.9715463870305268,
                -0.7804599489681411,
                0.12958660307563738,
                -3.1924946282119055
            ]
        },
        {
            "positions": [
                0.056937058096354465,
                -1.1725847876556275,
                2.0364036829530825,
                -0.818212726756378,
                0.28688565955616074,
                -3.1781603043918287
            ]
        },
        {
            "positions": [
                -0.008937359591935243,
                -1.2056792391329063,
                2.1012609788756382,
                -0.8559655045446151,
                0.4441847160366841,
                -3.163825980571752
            ]
        },
        {
            "positions": [
                -0.07481177728022496,
                -1.2387736906101854,
                2.166118274798194,
                -0.893718282332852,
                0.6014837725172075,
                -3.149491656751675
            ]
        },
        {
            "positions": [
                -0.14068619496851464,
                -1.2718681420874645,
                2.2309755707207493,
                -0.931471060121089,
                0.7587828289977309,
                -3.1351573329315983
            ]
        },
        {
            "positions": [
                -0.20656061265680437,
                -1.3049625935647435,
                2.295832866643305,
                -0.969223837909326,
                0.9160818854782543,
                -3.1208230091115214
            ]
        },
        {
            "positions": [
                -0.2724350303450941,
                -1.3380570450420224,
                2.3606901625658607,
                -1.006976615697563,
                1.0733809419587776,
                -3.1064886852914446
            ]
        },
        {
            "positions": [
                -0.3383094480333838,
                -1.3711514965193015,
                2.4255474584884165,
                -1.0447293934858,
                1.230679998439301,
                -3.092154361471368
            ]
        }
    ]
}