{
    "goal": {
        "global_pose": {
            "orientation": {
                "w": 0.7047431468963623,
                "x": -0.7094548344612122,
                "y": 0.0024358443915843964,
                "z": -0.0022348060738295317
            },
            "position": {
                "x": 0.6094750761985779,
                "y": 0.3671506643295288,
                "z": 0.19426114857196808
            }
        },
        "name": "move_to_magneteinheit_A"
    },
    "id": "LBKPIECE_move_to_magneteinheit_A_74",
    "joint_names": [
        "shoulder_pan_joint",
        "shoulder_lift_joint",
        "elbow_joint",
        "wrist_1_joint",
        "wrist_2_joint",
        "wrist_3_joint"
    ],
    "metrics": {
        "cart_traj_len": 2.062748425720457,
        "distance_elbow_joint": 3.870312588909589,
        "distance_shoulder_lift_joint": 1.0498618249514033,
        "distance_shoulder_pan_joint": 1.2413564774481585,
        "distance_wrist_1_joint": 1.1207469841519049,
        "distance_wrist_2_joint": 1.4495615641304738,
        "distance_wrist_3_joint": 1.8919503546220264,
        "smoothness": 5.709718439674967e-16,
        "time": 0.214549331,
        "traj_len": 3.259415560221427,
        "weighted_distance": 4.120436754973917
    },
    "planner": "LBKPIECE",
    "start": {
        "state": {
            "elbow_joint": -1.919643507792019,
            "shoulder_lift_joint": -0.07675430207160344,
            "shoulder_pan_joint": -1.1188671864651873,
            "wrist_1_joint": 0.42560062535961957,
            "wrist_2_joint": 1.5706038300724876,
            "wrist_3_joint": 1.1188968870953055
        }
    },
    "waypoints": [
        {
            "positions": [
                -1.1188671864651873,
                -0.07675430207160344,
                -1.919643507792019,
                0.42560062535961957,
                1.5706038300724876,
                1.1188968870953055
            ]
        },
        {
            "positions": [
                -1.072891020633774,
                -0.11563807336609985,
                -1.776298597091664,
                0.3840914777984379,
                1.516916364734322,
                1.188969122451677
            ]
        },
        {
            "positions": [
                -1.0269148548023608,
                -0.15452184466059626,
                -1.6329536863913088,
                0.34258233023725626,
                1.4632288993961562,
                1.2590413578080482
            ]
        },
        {
            "positions": [
                -0.9809386889709475,
                -0.1934056159550927,
                -1.4896087756909537,
                0.3010731826760746,
                1.4095414340579906,
                1.3291135931644196
            ]
        },
        {
            "positions": [
                -0.9349625231395342,
                -0.2322893872495891,
                -1.3462638649905987,
                0.2595640351148929,
                1.3558539687198248,
                1.399185828520791
            ]
        },
        {
            "positions": [
                -0.8889863573081209,
                -0.2711731585440855,
                -1.2029189542902434,
                0.21805488755371127,
                1.3021665033816592,
                1.4692580638771622
            ]
        },
        {
            "positions": [
                -0.8430101914767076,
                -0.31005692983858196,
                -1.0595740435898882,
                0.1765457399925296,
                1.2484790380434934,
                1.5393302992335336
            ]
        },
        {
            "positions": [
                -0.7970340256452944,
                -0.34894070113307835,
                -0.9162291328895331,
                0.13503659243134797,
                1.1947915727053278,
                1.609402534589905
            ]
        },
        {
            "positions": [
                -0.7510578598138812,
                -0.3878244724275748,
                -0.7728842221891781,
                0.09352744487016629,
                1.1411041073671622,
                1.6794747699462764
            ]
        },
        {
            "positions": [
                -0.7050816939824679,
                -0.4267082437220712,
                -0.6295393114888228,
                0.05201829730898461,
                1.0874166420289963,
                1.7495470053026476
            ]
        },
        {
            "positions": [
                -0.6591055281510546,
                -0.4655920150165676,
                -0.48619440078846776,
                0.010509149747802982,
                1.0337291766908305,
                1.819619240659019
            ]
        },
        {
            "positions": [
                -0.6131293623196413,
                -0.504475786311064,
                -0.3428494900881127,
                -0.0309999978133787,
                0.980041711352665,
                1.8896914760153902
            ]
        },
        {
            "positions": [
                -0.567153196488228,
                -0.5433595576055605,
                -0.19950457938775745,
                -0.07250914537456038,
                0.9263542460144993,
                1.9597637113717616
            ]
        },
        {
            "positions": [
                -0.5211770306568148,
                -0.5822433289000568,
                -0.05615966868740241,
                -0.114018292935742,
                0.8726667806763336,
                2.029835946728133
            ]
        },
        {
            "positions": [
                -0.47520086482540147,
                -0.6211271001945533,
                0.08718524201295286,
                -0.15552744049692363,
                0.8189793153381679,
                2.0999081820845045
            ]
        },
        {
            "positions": [
                -0.4292246989939882,
                -0.6600108714890498,
                0.23053015271330835,
                -0.19703658805810537,
                0.7652918500000021,
                2.169980417440876
            ]
        },
        {
            "positions": [
                -0.383248533162575,
                -0.6988946427835461,
                0.37387506341366294,
                -0.238545735619287,
                0.7116043846618365,
                2.240052652797247
            ]
        },
        {
            "positions": [
                -0.3372723673311616,
                -0.7377784140780426,
                0.5172199741140184,
                -0.28005488318046873,
                0.6579169193236708,
                2.3101248881536183
            ]
        },
        {
            "positions": [
                -0.29129620149974844,
                -0.7766621853725391,
                0.6605648848143735,
                -0.32156403074165035,
                0.6042294539855051,
                2.3801971235099897
            ]
        },
        {
            "positions": [
                -0.24532003566833505,
                -0.8155459566670353,
                0.8039097955147285,
                -0.363073178302832,
                0.5505419886473393,
                2.450269358866361
            ]
        },
        {
            "positions": [
                -0.19934386983692187,
                -0.8544297279615318,
                0.9472547062150836,
                -0.4045823258640136,
                0.4968545233091737,
                2.5203415942227325
            ]
        },
        {
            "positions": [
                -0.15336770400550848,
                -0.8933134992560283,
                1.090599616915439,
                -0.44609147342519534,
                0.4431670579710081,
                2.590413829579104
            ]
        },
        {
            "positions": [
                -0.1073915381740953,
                -0.9321972705505246,
                1.2339445276157937,
                -0.48760062098637696,
                0.3894795926328425,
                2.6604860649354753
            ]
        },
        {
            "positions": [
                -0.06141537234268202,
                -0.9710810418450211,
                1.3772894383161491,
                -0.5291097685475588,
                0.33579212729467667,
                2.7305583002918468
            ]
        },
        {
            "positions": [
                -0.015439206511268733,
                -1.0099648131395176,
                1.5206343490165042,
                -0.5706189161087403,
                0.28210466195651107,
                2.8006305356482177
            ]
        },
        {
            "positions": [
                0.030536959320144552,
                -1.0488485844340139,
                1.6639792597168597,
                -0.612128063669922,
                0.22841719661834525,
                2.8707027710045896
            ]
        },
        {
            "positions": [
                0.07651312515155784,
                -1.0877323557285103,
                1.8073241704172143,
                -0.6536372112311035,
                0.17472973128017966,
                2.9407750063609606
            ]
        },
        {
            "positions": [
                0.12248929098297114,
                -1.1266161270230068,
                1.9506690811175698,
                -0.6951463587922854,
                0.12104226594201381,
                3.010847241717332
            ]
        }
    ]
}