{
    "goal": {
        "global_pose": {
            "orientation": {
                "w": 0.7031023502349854,
                "x": -0.7110244035720825,
                "y": 0.007748599164187908,
                "z": 0.005598929710686207
            },
            "position": {
                "x": 0.11585023208521307,
                "y": 0.44412534475326537,
                "z": 0.3711530566215515
            }
        },
        "name": "move_to_auspresseinheit_A"
    },
    "id": "LBKPIECE_move_to_auspresseinheit_A_68",
    "joint_names": [
        "shoulder_pan_joint",
        "shoulder_lift_joint",
        "elbow_joint",
        "wrist_1_joint",
        "wrist_2_joint",
        "wrist_3_joint"
    ],
    "metrics": {
        "cart_traj_len": 0.7589972339156248,
        "distance_elbow_joint": 0.47981870572616137,
        "distance_shoulder_lift_joint": 0.5371826046873582,
        "distance_shoulder_pan_joint": 1.042476624159578,
        "distance_wrist_1_joint": 0.6260148317610241,
        "distance_wrist_2_joint": 2.8608389716681826,
        "distance_wrist_3_joint": 3.398018014611963,
        "smoothness": 0.9443563420981488,
        "time": 0.504901765,
        "traj_len": 2.990710576537668,
        "weighted_distance": 4.384887636561215
    },
    "planner": "LBKPIECE",
    "start": {
        "state": {
            "elbow_joint": 2.422574709923281,
            "shoulder_lift_joint": -1.3736533754116391,
            "shoulder_pan_joint": -0.33786336945926293,
            "wrist_1_joint": -1.0288603412921917,
            "wrist_2_joint": 1.2330224858903978,
            "wrist_3_joint": -3.094022268022082
        }
    },
    "waypoints": [
        {
            "positions": [
                -0.33786336945926293,
                -1.3736533754116391,
                2.422574709923281,
                -1.0288603412921917,
                1.2330224858903978,
                -3.094022268022082
            ]
        },
        {
            "positions": [
                -0.29395569241780484,
                -1.373686309375102,
                2.3995959881374067,
                -1.032542033306052,
                1.0790822598776775,
                -2.94109471861958
            ]
        },
        {
            "positions": [
                -0.25004801537634674,
                -1.373719243338565,
                2.376617266351533,
                -1.0362237253199125,
                0.9251420338649571,
                -2.7881671692170773
            ]
        },
        {
            "positions": [
                -0.20614033833488868,
                -1.3737521773020278,
                2.3536385445656585,
                -1.0399054173337727,
                0.7712018078522367,
                -2.635239619814575
            ]
        },
        {
            "positions": [
                -0.16223266129343059,
                -1.3737851112654906,
                2.330659822779784,
                -1.043587109347633,
                0.6172615818395164,
                -2.482312070412073
            ]
        },
        {
            "positions": [
                -0.11832498425197252,
                -1.3738180452289535,
                2.3076811009939098,
                -1.0472688013614935,
                0.4633213558267961,
                -2.3293845210095707
            ]
        },
        {
            "positions": [
                -0.07441730721051443,
                -1.3738509791924165,
                2.284702379208036,
                -1.0509504933753537,
                0.30938112981407573,
                -2.1764569716070685
            ]
        },
        {
            "positions": [
                -0.030509630169056334,
                -1.3738839131558793,
                2.2617236574221615,
                -1.0546321853892142,
                0.15544090380135533,
                -2.023529422204566
            ]
        },
        {
            "positions": [
                0.013398046872401759,
                -1.3739168471193421,
                2.238744935636287,
                -1.0583138774030745,
                0.001500677788635052,
                -1.8706018728020635
            ]
        },
        {
            "positions": [
                0.05730572391385985,
                -1.373949781082805,
                2.215766213850413,
                -1.0619955694169347,
                -0.15243954822408545,
                -1.7176743233995613
            ]
        },
        {
            "positions": [
                0.10121340095531789,
                -1.373982715046268,
                2.192787492064539,
                -1.0656772614307952,
                -0.3063797742368055,
                -1.564746773997059
            ]
        },
        {
            "positions": [
                0.14512107799677598,
                -1.3740156490097308,
                2.1698087702786646,
                -1.0693589534446555,
                -0.460320000249526,
                -1.4118192245945567
            ]
        },
        {
            "positions": [
                0.18815893774320208,
                -1.4153095206319821,
                2.1872743676695525,
                -1.024319244243997,
                -0.37051257828581385,
                -1.5438049916087442
            ]
        },
        {
            "positions": [
                0.23119679748962818,
                -1.4566033922542334,
                2.204739965060441,
                -0.9792795350433385,
                -0.28070515632210163,
                -1.6757907586229317
            ]
        },
        {
            "positions": [
                0.2742346572360543,
                -1.4978972638764847,
                2.222205562451329,
                -0.9342398258426801,
                -0.19089773435838947,
                -1.8077765256371192
            ]
        },
        {
            "positions": [
                0.3172725169824804,
                -1.539191135498736,
                2.2396711598422168,
                -0.8892001166420215,
                -0.10109031239467725,
                -1.9397622926513067
            ]
        },
        {
            "positions": [
                0.3603103767289065,
                -1.5804850071209873,
                2.257136757233105,
                -0.844160407441363,
                -0.011282890430965087,
                -2.0717480596654942
            ]
        },
        {
            "positions": [
                0.4033482364753326,
                -1.6217788787432386,
                2.274602354623993,
                -0.7991206982407045,
                0.07852453153274708,
                -2.2037338266796818
            ]
        },
        {
            "positions": [
                0.4463860962217586,
                -1.6630727503654898,
                2.292067952014881,
                -0.7540809890400461,
                0.16833195349645924,
                -2.3357195936938693
            ]
        },
        {
            "positions": [
                0.4894239559681848,
                -1.7043666219877411,
                2.309533549405769,
                -0.7090412798393875,
                0.2581393754601715,
                -2.467705360708057
            ]
        },
        {
            "positions": [
                0.5324618157146108,
                -1.7456604936099922,
                2.3269991467966573,
                -0.664001570638729,
                0.34794679742388357,
                -2.5996911277222443
            ]
        },
        {
            "positions": [
                0.575499675461037,
                -1.7869543652322435,
                2.3444647441875452,
                -0.6189618614380705,
                0.43775421938759584,
                -2.731676894736432
            ]
        },
        {
            "positions": [
                0.618537535207463,
                -1.8282482368544948,
                2.361930341578433,
                -0.573922152237412,
                0.527561641351308,
                -2.8636626617506193
            ]
        },
        {
            "positions": [
                0.6615753949538892,
                -1.869542108476746,
                2.3793959389693216,
                -0.5288824430367536,
                0.6173690633150202,
                -2.995648428764807
            ]
        },
        {
            "positions": [
                0.7046132547003152,
                -1.9108359800989974,
                2.3968615363602095,
                -0.48384273383609516,
                0.7071764852787323,
                -3.1276341957789944
            ]
        }
    ]
}