{
    "goal": {
        "global_pose": {
            "orientation": {
                "w": -0.00223480608172531,
                "x": 0.0024358444001904467,
                "y": 0.7094548369677653,
                "z": -0.704743149386269
            },
            "position": {
                "x": 0.6205249238014221,
                "y": -0.6371506643295288,
                "z": 0.19426114857196808
            }
        },
        "name": "move_to_magneteinheit_B"
    },
    "id": "LBKPIECE_move_to_magneteinheit_B_27",
    "joint_names": [
        "shoulder_pan_joint",
        "shoulder_lift_joint",
        "elbow_joint",
        "wrist_1_joint",
        "wrist_2_joint",
        "wrist_3_joint"
    ],
    "metrics": {
        "cart_traj_len": 1.4531380848492064,
        "distance_elbow_joint": 0.7292356033297802,
        "distance_shoulder_lift_joint": 1.2489015755066477,
        "distance_shoulder_pan_joint": 1.6217466865769874,
        "distance_wrist_1_joint": 2.6064067789608987,
        "distance_wrist_2_joint": 2.9329963516269157,
        "distance_wrist_3_joint": 3.138553766367245,
        "smoothness": 4.718447868532788e-16,
        "time": 0.701622982,
        "traj_len": 3.503974994540982,
        "weighted_distance": 4.90859974185009
    },
    "planner": "LBKPIECE",
    "start": {
        "state": {
            "elbow_joint": 2.39358713078474,
            "shoulder_lift_joint": -1.908514104345545,
            "shoulder_pan_joint": 0.7066247066606129,
            "wrist_1_joint": -0.4678290933515497,
            "wrist_2_joint": 0.7096259083745334,
            "wrist_3_joint": -3.1358149277392293
        }
    },
    "waypoints": [
        {
            "positions": [
                0.7066247066606129,
                -1.908514104345545,
                2.39358713078474,
                -0.4678290933515497,
                0.7096259083745334,
                -3.1358149277392293
            ]
        },
        {
            "positions": [
                0.654310297416194,
                -1.8682269567485563,
                2.3700634016450697,
                -0.383751455320553,
                0.6150131228381813,
                -3.034571257856415
            ]
        },
        {
            "positions": [
                0.6019958881717751,
                -1.8279398091515677,
                2.3465396725053993,
                -0.2996738172895562,
                0.5204003373018292,
                -2.9333275879736007
            ]
        },
        {
            "positions": [
                0.5496814789273561,
                -1.787652661554579,
                2.323015943365729,
                -0.2155961792585595,
                0.42578755176547706,
                -2.8320839180907864
            ]
        },
        {
            "positions": [
                0.49736706968293715,
                -1.7473655139575903,
                2.2994922142260585,
                -0.1315185412275628,
                0.33117476622912495,
                -2.730840248207972
            ]
        },
        {
            "positions": [
                0.4450526604385182,
                -1.7070783663606017,
                2.2759684850863886,
                -0.047440903196566075,
                0.23656198069277284,
                -2.629596578325158
            ]
        },
        {
            "positions": [
                0.3927382511940993,
                -1.6667912187636131,
                2.2524447559467182,
                0.036636734834430695,
                0.14194919515642068,
                -2.528352908442343
            ]
        },
        {
            "positions": [
                0.34042384194968034,
                -1.6265040711666245,
                2.228921026807048,
                0.12071437286542736,
                0.047336409620068576,
                -2.4271092385595288
            ]
        },
        {
            "positions": [
                0.28810943270526135,
                -1.5862169235696357,
                2.2053972976673775,
                0.20479201089642413,
                -0.04727637591628353,
                -2.3258655686767145
            ]
        },
        {
            "positions": [
                0.23579502346084236,
                -1.5459297759726471,
                2.181873568527707,
                0.2888696489274209,
                -0.14188916145263575,
                -2.2246218987939
            ]
        },
        {
            "positions": [
                0.18348061421642348,
                -1.5056426283756585,
                2.1583498393880367,
                0.37294728695841756,
                -0.23650194698898774,
                -2.123378228911086
            ]
        },
        {
            "positions": [
                0.13116620497200449,
                -1.46535548077867,
                2.1348261102483663,
                0.45702492498941444,
                -0.33111473252533996,
                -2.022134559028271
            ]
        },
        {
            "positions": [
                0.0788517957275856,
                -1.4250683331816814,
                2.111302381108696,
                0.5411025630204112,
                -0.42572751806169207,
                -1.920890889145457
            ]
        },
        {
            "positions": [
                0.026537386483166614,
                -1.3847811855846928,
                2.0877786519690256,
                0.6251802010514078,
                -0.5203403035980442,
                -1.8196472192626425
            ]
        },
        {
            "positions": [
                -0.025777022761252266,
                -1.3444940379877042,
                2.0642549228293556,
                0.7092578390824045,
                -0.6149530891343963,
                -1.7184035493798284
            ]
        },
        {
            "positions": [
                -0.07809143200567126,
                -1.3042068903907154,
                2.0407311936896853,
                0.7933354771134014,
                -0.7095658746707484,
                -1.617159879497014
            ]
        },
        {
            "positions": [
                -0.13040584125009025,
                -1.2639197427937268,
                2.017207464550015,
                0.877413115144398,
                -0.8041786602071005,
                -1.5159162096141996
            ]
        },
        {
            "positions": [
                -0.18272025049450913,
                -1.2236325951967382,
                1.9936837354103445,
                0.9614907531753947,
                -0.8987914457434526,
                -1.4146725397313853
            ]
        },
        {
            "positions": [
                -0.23503465973892823,
                -1.1833454475997494,
                1.9701600062706741,
                1.0455683912063916,
                -0.9934042312798049,
                -1.3134288698485708
            ]
        },
        {
            "positions": [
                -0.2873490689833471,
                -1.1430583000027608,
                1.9466362771310037,
                1.1296460292373882,
                -1.0880170168161567,
                -1.2121851999657565
            ]
        },
        {
            "positions": [
                -0.339663478227766,
                -1.1027711524057722,
                1.9231125479913334,
                1.2137236672683849,
                -1.1826298023525088,
                -1.1109415300829424
            ]
        },
        {
            "positions": [
                -0.391977887472185,
                -1.0624840048087836,
                1.8995888188516632,
                1.2978013052993815,
                -1.277242587888861,
                -1.009697860200128
            ]
        },
        {
            "positions": [
                -0.444292296716604,
                -1.022196857211795,
                1.8760650897119928,
                1.3818789433303786,
                -1.3718553734252135,
                -0.9084541903173133
            ]
        },
        {
            "positions": [
                -0.49660670596102297,
                -0.9819097096148063,
                1.8525413605723224,
                1.4659565813613753,
                -1.4664681589615656,
                -0.807210520434499
            ]
        },
        {
            "positions": [
                -0.5489211152054417,
                -0.9416225620178177,
                1.8290176314326523,
                1.550034219392372,
                -1.5610809444979177,
                -0.7059668505516847
            ]
        },
        {
            "positions": [
                -0.6012355244498607,
                -0.901335414420829,
                1.805493902292982,
                1.6341118574233686,
                -1.6556937300342693,
                -0.6047231806688704
            ]
        },
        {
            "positions": [
                -0.6535499336942797,
                -0.8610482668238404,
                1.7819701731533115,
                1.7181894954543653,
                -1.750306515570622,
                -0.5034795107860557
            ]
        },
        {
            "positions": [
                -0.7058643429386987,
                -0.8207611192268518,
                1.7584464440136411,
                1.802267133485362,
                -1.844919301106974,
                -0.4022358409032414
            ]
        },
        {
            "positions": [
                -0.7581787521831175,
                -0.7804739716298632,
                1.7349227148739708,
                1.8863447715163586,
                -1.939532086643326,
                -0.3009921710204275
            ]
        },
        {
            "positions": [
                -0.8104931614275365,
                -0.7401868240328746,
                1.7113989857343004,
                1.9704224095473553,
                -2.034144872179678,
                -0.19974850113761322
            ]
        },
        {
            "positions": [
                -0.8628075706719555,
                -0.6998996764358858,
                1.68787525659463,
                2.0545000475783524,
                -2.1287576577160303,
                -0.09850483125479848
            ]
        },
        {
            "positions": [
                -0.9151219799163745,
                -0.6596125288388972,
                1.6643515274549598,
                2.138577685609349,
                -2.2233704432523824,
                0.0027388386280159513
            ]
        }
    ]
}