{
    "goal": {
        "global_pose": {
            "orientation": {
                "w": 0.7031023502349854,
                "x": -0.7110244035720825,
                "y": 0.007748599164187908,
                "z": 0.005598929710686207
            },
            "position": {
                "x": 0.11585023208521307,
                "y": 0.44412534475326537,
                "z": 0.3711530566215515
            }
        },
        "name": "move_to_auspresseinheit_A"
    },
    "id": "LBKPIECE_move_to_auspresseinheit_A_81",
    "joint_names": [
        "shoulder_pan_joint",
        "shoulder_lift_joint",
        "elbow_joint",
        "wrist_1_joint",
        "wrist_2_joint",
        "wrist_3_joint"
    ],
    "metrics": {
        "cart_traj_len": 0.8997901399731802,
        "distance_elbow_joint": 0.395247184636462,
        "distance_shoulder_lift_joint": 0.546807851294832,
        "distance_shoulder_pan_joint": 1.0412575451824266,
        "distance_wrist_1_joint": 1.2743515224875417,
        "distance_wrist_2_joint": 0.9527345978041017,
        "distance_wrist_3_joint": 0.7670732863335856,
        "smoothness": 1.117781475378686,
        "time": 0.76425722,
        "traj_len": 2.2310248738503455,
        "weighted_distance": 2.95613001755636
    },
    "planner": "LBKPIECE",
    "start": {
        "state": {
            "elbow_joint": 2.422574709923281,
            "shoulder_lift_joint": -1.3736533754116391,
            "shoulder_pan_joint": -0.33786336945926293,
            "wrist_1_joint": -1.0288603412921917,
            "wrist_2_joint": 1.2330224858903978,
            "wrist_3_joint": -3.094022268022082
        }
    },
    "waypoints": [
        {
            "positions": [
                -0.33786336945926293,
                -1.3736533754116391,
                2.422574709923281,
                -1.0288603412921917,
                1.2330224858903978,
                -3.094022268022082
            ]
        },
        {
            "positions": [
                -0.3198345668384486,
                -1.3702839122165031,
                2.3158419615280237,
                -1.0301277806823932,
                1.1996137244546823,
                -2.997993847323187
            ]
        },
        {
            "positions": [
                -0.30180576421763416,
                -1.3669144490213672,
                2.2091092131327663,
                -1.0313952200725949,
                1.1662049630189666,
                -2.901965426624291
            ]
        },
        {
            "positions": [
                -0.2176329426377392,
                -1.4312309622129826,
                2.219775542742307,
                -0.916073311124406,
                1.0819325322603914,
                -2.8814817944201865
            ]
        },
        {
            "positions": [
                -0.13346012105784422,
                -1.4955474754045979,
                2.230441872351847,
                -0.8007514021762172,
                0.9976601015018163,
                -2.860998162216082
            ]
        },
        {
            "positions": [
                -0.04928729947794924,
                -1.5598639885962133,
                2.2411082019613877,
                -0.6854294932280284,
                0.913387670743241,
                -2.840514530011977
            ]
        },
        {
            "positions": [
                0.03488552210194573,
                -1.6241805017878286,
                2.251774531570928,
                -0.5701075842798395,
                0.8291152399846659,
                -2.8200308978078725
            ]
        },
        {
            "positions": [
                0.1190583436818407,
                -1.688497014979444,
                2.2624408611804685,
                -0.4547856753316507,
                0.7448428092260907,
                -2.7995472656037683
            ]
        },
        {
            "positions": [
                0.20323116526173568,
                -1.7528135281710595,
                2.273107190790009,
                -0.3394637663834619,
                0.6605703784675154,
                -2.7790636333996637
            ]
        },
        {
            "positions": [
                0.2874039868416307,
                -1.8171300413626748,
                2.2837735203995493,
                -0.22414185743527304,
                0.5762979477089403,
                -2.758580001195559
            ]
        },
        {
            "positions": [
                0.3715768084215257,
                -1.8814465545542902,
                2.29443985000909,
                -0.10881994848708415,
                0.4920255169503651,
                -2.7380963689914544
            ]
        },
        {
            "positions": [
                0.45453115024693513,
                -1.8878307593971995,
                2.3185526127514957,
                -0.19613029151749112,
                0.5449599241663824,
                -2.8408832158171937
            ]
        },
        {
            "positions": [
                0.5374854920723446,
                -1.8942149642401087,
                2.342665375493902,
                -0.2834406345478981,
                0.5978943313823997,
                -2.9436700626429335
            ]
        },
        {
            "positions": [
                0.6204398338977541,
                -1.900599169083018,
                2.366778138236308,
                -0.37075097757830505,
                0.650828738598417,
                -3.046456909468673
            ]
        },
        {
            "positions": [
                0.7033941757231635,
                -1.9069833739259272,
                2.3908909009787136,
                -0.458061320608712,
                0.7037631458144342,
                -3.1492437562944122
            ]
        }
    ]
}