{
    "goal": {
        "global_pose": {
            "orientation": {
                "w": 0.5084816217422485,
                "x": -0.49083608388900757,
                "y": 0.5182115435600281,
                "z": -0.4816462993621826
            },
            "position": {
                "x": 0.5540239810943604,
                "y": 0.030875300988554955,
                "z": 0.16403168439865112
            }
        },
        "name": "move_to_storage_A"
    },
    "id": "LBKPIECE_move_to_storage_A_91",
    "joint_names": [
        "shoulder_pan_joint",
        "shoulder_lift_joint",
        "elbow_joint",
        "wrist_1_joint",
        "wrist_2_joint",
        "wrist_3_joint"
    ],
    "metrics": {
        "cart_traj_len": 0.35284080164863985,
        "distance_elbow_joint": 0.44921516182595056,
        "distance_shoulder_lift_joint": 0.23405850429053454,
        "distance_shoulder_pan_joint": 0.45972642562872507,
        "distance_wrist_1_joint": 0.24684756940614994,
        "distance_wrist_2_joint": 1.104645760334178,
        "distance_wrist_3_joint": 0.10774961202161171,
        "smoothness": 1.1102230263833737e-15,
        "time": 0.280769496,
        "traj_len": 1.6131469348782677,
        "weighted_distance": 2.041870609830775
    },
    "planner": "LBKPIECE",
    "start": {
        "state": {
            "elbow_joint": 1.9715463870305268,
            "shoulder_lift_joint": -1.1394903361783484,
            "shoulder_pan_joint": 0.12281147578464417,
            "wrist_1_joint": -0.7804599489681411,
            "wrist_2_joint": 0.12958660307563738,
            "wrist_3_joint": -3.1924946282119055
        }
    },
    "waypoints": [
        {
            "positions": [
                0.12281147578464417,
                -1.1394903361783484,
                1.9715463870305268,
                -0.7804599489681411,
                0.12958660307563738,
                -3.1924946282119055
            ]
        },
        {
            "positions": [
                0.05713627212339774,
                -1.1729272653627105,
                2.035719981577091,
                -0.8157238874547339,
                0.2873931402662342,
                -3.1771018264945323
            ]
        },
        {
            "positions": [
                -0.008538931537848696,
                -1.2063641945470724,
                2.0998935761236557,
                -0.8509878259413268,
                0.4451996774568311,
                -3.1617090247771595
            ]
        },
        {
            "positions": [
                -0.07421413519909513,
                -1.2398011237314346,
                2.16406717067022,
                -0.8862517644279196,
                0.6030062146474279,
                -3.1463162230597863
            ]
        },
        {
            "positions": [
                -0.13988933886034155,
                -1.2732380529157967,
                2.228240765216784,
                -0.9215157029145125,
                0.7608127518380248,
                -3.130923421342413
            ]
        },
        {
            "positions": [
                -0.205564542521588,
                -1.3066749821001589,
                2.292414359763349,
                -0.9567796414011054,
                0.9186192890286217,
                -3.11553061962504
            ]
        },
        {
            "positions": [
                -0.2712397461828344,
                -1.3401119112845208,
                2.356587954309913,
                -0.9920435798876981,
                1.0764258262192183,
                -3.100137817907667
            ]
        },
        {
            "positions": [
                -0.3369149498440809,
                -1.373548840468883,
                2.4207615488564773,
                -1.027307518374291,
                1.2342323634098153,
                -3.084745016190294
            ]
        }
    ]
}