{
    "goal": {
        "global_pose": {
            "orientation": {
                "w": 0.7031023502349854,
                "x": -0.7110244035720825,
                "y": 0.007748599164187908,
                "z": 0.005598929710686207
            },
            "position": {
                "x": 0.11585023208521307,
                "y": 0.44412534475326537,
                "z": 0.3711530566215515
            }
        },
        "name": "move_to_auspresseinheit_A"
    },
    "id": "LBKPIECE_move_to_auspresseinheit_A_29",
    "joint_names": [
        "shoulder_pan_joint",
        "shoulder_lift_joint",
        "elbow_joint",
        "wrist_1_joint",
        "wrist_2_joint",
        "wrist_3_joint"
    ],
    "metrics": {
        "cart_traj_len": 0.8300649760105787,
        "distance_elbow_joint": 0.8460501472473592,
        "distance_shoulder_lift_joint": 0.5313792633408383,
        "distance_shoulder_pan_joint": 1.0394494494853035,
        "distance_wrist_1_joint": 1.197025504832645,
        "distance_wrist_2_joint": 1.9667869152207003,
        "distance_wrist_3_joint": 3.001858698345076,
        "smoothness": 0.8620197691160044,
        "time": 0.365254564,
        "traj_len": 2.9295989449875086,
        "weighted_distance": 4.213084356527344
    },
    "planner": "LBKPIECE",
    "start": {
        "state": {
            "elbow_joint": 2.422574709923281,
            "shoulder_lift_joint": -1.3736533754116391,
            "shoulder_pan_joint": -0.33786336945926293,
            "wrist_1_joint": -1.0288603412921917,
            "wrist_2_joint": 1.2330224858903978,
            "wrist_3_joint": -3.094022268022082
        }
    },
    "waypoints": [
        {
            "positions": [
                -0.33786336945926293,
                -1.3736533754116391,
                2.422574709923281,
                -1.0288603412921917,
                1.2330224858903978,
                -3.094022268022082
            ]
        },
        {
            "positions": [
                -0.3050972765627753,
                -1.390127060292545,
                2.385941521575238,
                -0.9561865393214593,
                1.1286761153724711,
                -2.971225547902828
            ]
        },
        {
            "positions": [
                -0.2723311836662877,
                -1.406600745173451,
                2.349308333227195,
                -0.8835127373507269,
                1.0243297448545445,
                -2.848428827783574
            ]
        },
        {
            "positions": [
                -0.2395650907698001,
                -1.4230744300543572,
                2.3126751448791514,
                -0.8108389353799944,
                0.9199833743366177,
                -2.7256321076643197
            ]
        },
        {
            "positions": [
                -0.20679899787331252,
                -1.4395481149352631,
                2.2760419565311083,
                -0.738165133409262,
                0.8156370038186911,
                -2.602835387545066
            ]
        },
        {
            "positions": [
                -0.1740329049768249,
                -1.456021799816169,
                2.2394087681830652,
                -0.6654913314385296,
                0.7112906333007644,
                -2.480038667425812
            ]
        },
        {
            "positions": [
                -0.14126681208033728,
                -1.472495484697075,
                2.2027755798350217,
                -0.5928175294677971,
                0.6069442627828378,
                -2.357241947306558
            ]
        },
        {
            "positions": [
                -0.10850071918384965,
                -1.488969169577981,
                2.1661423914869786,
                -0.5201437274970647,
                0.502597892264911,
                -2.2344452271873037
            ]
        },
        {
            "positions": [
                -0.0757346262873621,
                -1.505442854458887,
                2.1295092031389355,
                -0.44746992552633236,
                0.3982515217469844,
                -2.1116485070680495
            ]
        },
        {
            "positions": [
                -0.042968533390874475,
                -1.5219165393397929,
                2.0928760147908925,
                -0.3747961235555999,
                0.2939051512290578,
                -1.9888517869487954
            ]
        },
        {
            "positions": [
                -0.010202440494386844,
                -1.538390224220699,
                2.0562428264428494,
                -0.3021223215848674,
                0.18955878071113097,
                -1.8660550668295413
            ]
        },
        {
            "positions": [
                0.02256365240210073,
                -1.554863909101605,
                2.019609638094806,
                -0.22944851961413504,
                0.08521241019320436,
                -1.7432583467102873
            ]
        },
        {
            "positions": [
                0.05532974529858836,
                -1.571337593982511,
                1.9829764497467628,
                -0.15677471764340256,
                -0.01913396032472217,
                -1.6204616265910332
            ]
        },
        {
            "positions": [
                0.1141868609025279,
                -1.6035167214176334,
                2.051142889757215,
                -0.15192654975170608,
                0.030997283351089602,
                -1.7596401124990406
            ]
        },
        {
            "positions": [
                0.17304397650646744,
                -1.635695848852756,
                2.1193093297676673,
                -0.1470783818600096,
                0.08112852702690138,
                -1.8988185984070483
            ]
        },
        {
            "positions": [
                0.231901092110407,
                -1.6678749762878784,
                2.1874757697781195,
                -0.14223021396831312,
                0.13125977070271316,
                -2.0379970843150557
            ]
        },
        {
            "positions": [
                0.2906117155998612,
                -1.6975196840959532,
                2.212719840658055,
                -0.18102963615690892,
                0.20178936294998123,
                -2.176842409213806
            ]
        },
        {
            "positions": [
                0.34932233908931537,
                -1.727164391904028,
                2.2379639115379906,
                -0.2198290583455047,
                0.2723189551972493,
                -2.315687734112557
            ]
        },
        {
            "positions": [
                0.40803296257876953,
                -1.756809099712103,
                2.263207982417926,
                -0.2586284805341005,
                0.34284854744451737,
                -2.4545330590113075
            ]
        },
        {
            "positions": [
                0.46674358606822375,
                -1.786453807520178,
                2.2884520532978616,
                -0.29742790272269626,
                0.41337813969178544,
                -2.593378383910058
            ]
        },
        {
            "positions": [
                0.525454209557678,
                -1.8160985153282527,
                2.313696124177797,
                -0.33622732491129204,
                0.4839077319390535,
                -2.7322237088088084
            ]
        },
        {
            "positions": [
                0.5841648330471321,
                -1.8457432231363278,
                2.3389401950577327,
                -0.37502674709988787,
                0.5544373241863216,
                -2.871069033707559
            ]
        },
        {
            "positions": [
                0.6428754565365863,
                -1.8753879309444026,
                2.364184265937668,
                -0.4138261692884837,
                0.6249669164335896,
                -3.0099143586063097
            ]
        },
        {
            "positions": [
                0.7015860800260405,
                -1.9050326387524774,
                2.3894283368176037,
                -0.4526255914770794,
                0.6954965086808578,
                -3.14875968350506
            ]
        }
    ]
}