{
    "goal": {
        "global_pose": {
            "orientation": {
                "w": 0.7031023502349854,
                "x": -0.7110244035720825,
                "y": 0.007748599164187908,
                "z": 0.005598929710686207
            },
            "position": {
                "x": 0.11585023208521307,
                "y": 0.44412534475326537,
                "z": 0.3711530566215515
            }
        },
        "name": "move_to_auspresseinheit_A"
    },
    "id": "LBKPIECE_move_to_auspresseinheit_A_65",
    "joint_names": [
        "shoulder_pan_joint",
        "shoulder_lift_joint",
        "elbow_joint",
        "wrist_1_joint",
        "wrist_2_joint",
        "wrist_3_joint"
    ],
    "metrics": {
        "cart_traj_len": 0.6974571021772878,
        "distance_elbow_joint": 0.06819768909175528,
        "distance_shoulder_lift_joint": 0.5361384235270443,
        "distance_shoulder_pan_joint": 1.0433121964025136,
        "distance_wrist_1_joint": 0.5465483424824572,
        "distance_wrist_2_joint": 0.6601416552960442,
        "distance_wrist_3_joint": 0.050307319069546885,
        "smoothness": 0.8202745053241252,
        "time": 0.216183318,
        "traj_len": 1.7043020934885227,
        "weighted_distance": 2.052303647559726
    },
    "planner": "LBKPIECE",
    "start": {
        "state": {
            "elbow_joint": 2.422574709923281,
            "shoulder_lift_joint": -1.3736533754116391,
            "shoulder_pan_joint": -0.33786336945926293,
            "wrist_1_joint": -1.0288603412921917,
            "wrist_2_joint": 1.2330224858903978,
            "wrist_3_joint": -3.094022268022082
        }
    },
    "waypoints": [
        {
            "positions": [
                -0.33786336945926293,
                -1.3736533754116391,
                2.422574709923281,
                -1.0288603412921917,
                1.2330224858903978,
                -3.094022268022082
            ]
        },
        {
            "positions": [
                -0.2080944423547668,
                -1.449107896557262,
                2.415789019292323,
                -0.9586078200344762,
                1.1483964984462456,
                -3.0921419865379676
            ]
        },
        {
            "positions": [
                -0.07832551525027065,
                -1.5245624177028847,
                2.4090033286613646,
                -0.8883552987767606,
                1.0637705110020932,
                -3.0902617050538526
            ]
        },
        {
            "positions": [
                0.05144341185422546,
                -1.6000169388485077,
                2.4022176380304066,
                -0.818102777519045,
                0.979144523557941,
                -3.088381423569738
            ]
        },
        {
            "positions": [
                0.18121233895872163,
                -1.6754714599941305,
                2.395431947399448,
                -0.7478502562613294,
                0.8945185361137886,
                -3.0865011420856234
            ]
        },
        {
            "positions": [
                0.3109812660632178,
                -1.7509259811397535,
                2.38864625676849,
                -0.6775977350036139,
                0.8098925486696364,
                -3.084620860601509
            ]
        },
        {
            "positions": [
                0.44075019316771386,
                -1.8263805022853763,
                2.3818605661375316,
                -0.6073452137458983,
                0.7252665612254842,
                -3.082740579117394
            ]
        },
        {
            "positions": [
                0.57051912027221,
                -1.901835023430999,
                2.3750748755065736,
                -0.5370926924881827,
                0.6406405737813319,
                -3.0808602976332793
            ]
        },
        {
            "positions": [
                0.7054488269432505,
                -1.9097917989386834,
                2.3957727301816214,
                -0.4823119988097345,
                0.7084003169683102,
                -3.1180056463140233
            ]
        }
    ]
}