{
    "goal": {
        "global_pose": {
            "orientation": {
                "w": -0.00223480608172531,
                "x": 0.0024358444001904467,
                "y": 0.7094548369677653,
                "z": -0.704743149386269
            },
            "position": {
                "x": 0.6205249238014221,
                "y": -0.6371506643295288,
                "z": 0.19426114857196808
            }
        },
        "name": "move_to_magneteinheit_B"
    },
    "id": "LBKPIECE_move_to_magneteinheit_B_24",
    "joint_names": [
        "shoulder_pan_joint",
        "shoulder_lift_joint",
        "elbow_joint",
        "wrist_1_joint",
        "wrist_2_joint",
        "wrist_3_joint"
    ],
    "metrics": {
        "cart_traj_len": 1.4537197928765497,
        "distance_elbow_joint": 0.7335745333967811,
        "distance_shoulder_lift_joint": 1.2490211022494806,
        "distance_shoulder_pan_joint": 1.6195844795445509,
        "distance_wrist_1_joint": 2.6078158043529664,
        "distance_wrist_2_joint": 2.950058242203243,
        "distance_wrist_3_joint": 3.134707791677668,
        "smoothness": 1.8840148369936264e-16,
        "time": 0.5245619349999999,
        "traj_len": 3.5063887339290685,
        "weighted_distance": 4.9114205260124315
    },
    "planner": "LBKPIECE",
    "start": {
        "state": {
            "elbow_joint": 2.39358713078474,
            "shoulder_lift_joint": -1.908514104345545,
            "shoulder_pan_joint": 0.7066247066606129,
            "wrist_1_joint": -0.4678290933515497,
            "wrist_2_joint": 0.7096259083745334,
            "wrist_3_joint": -3.1358149277392293
        }
    },
    "waypoints": [
        {
            "positions": [
                0.7066247066606129,
                -1.908514104345545,
                2.39358713078474,
                -0.4678290933515497,
                0.7096259083745334,
                -3.1358149277392293
            ]
        },
        {
            "positions": [
                0.6560126916748458,
                -1.8694821949002487,
                2.370662926616091,
                -0.3863348494655195,
                0.617436588305682,
                -3.037855309249302
            ]
        },
        {
            "positions": [
                0.6054006766890785,
                -1.8304502854549525,
                2.347738722447441,
                -0.30484060557948933,
                0.5252472682368308,
                -2.939895690759375
            ]
        },
        {
            "positions": [
                0.5547886617033113,
                -1.791418376009656,
                2.324814518278792,
                -0.22334636169345912,
                0.4330579481679794,
                -2.8419360722694478
            ]
        },
        {
            "positions": [
                0.5041766467175441,
                -1.7523864665643598,
                2.3018903141101426,
                -0.1418521178074289,
                0.34086862809912805,
                -2.7439764537795206
            ]
        },
        {
            "positions": [
                0.45356463173177686,
                -1.7133545571190636,
                2.278966109941493,
                -0.060357873921398686,
                0.2486793080302767,
                -2.646016835289594
            ]
        },
        {
            "positions": [
                0.4029526167460097,
                -1.6743226476737674,
                2.2560419057728436,
                0.021136369964631474,
                0.15648998796142533,
                -2.5480572167996667
            ]
        },
        {
            "positions": [
                0.35234060176024246,
                -1.6352907382284712,
                2.2331177016041943,
                0.10263061385066169,
                0.06430066789257405,
                -2.4500975983097395
            ]
        },
        {
            "positions": [
                0.3017285867744752,
                -1.5962588287831747,
                2.2101934974355446,
                0.1841248577366919,
                -0.02788865217627734,
                -2.3521379798198123
            ]
        },
        {
            "positions": [
                0.251116571788708,
                -1.5572269193378785,
                2.1872692932668953,
                0.2656191016227221,
                -0.12007797224512873,
                -2.254178361329885
            ]
        },
        {
            "positions": [
                0.20050455680294077,
                -1.5181950098925823,
                2.164345089098246,
                0.34711334550875234,
                -0.21226729231398,
                -2.156218742839958
            ]
        },
        {
            "positions": [
                0.1498925418171736,
                -1.4791631004472858,
                2.1414208849295964,
                0.42860758939478255,
                -0.3044566123828313,
                -2.0582591243500312
            ]
        },
        {
            "positions": [
                0.09928052683140642,
                -1.4401311910019898,
                2.118496680760947,
                0.5101018332808127,
                -0.3966459324516828,
                -1.9602995058601038
            ]
        },
        {
            "positions": [
                0.04866851184563914,
                -1.4010992815566934,
                2.095572476592298,
                0.5915960771668429,
                -0.48883525252053406,
                -1.8623398873701766
            ]
        },
        {
            "positions": [
                -0.0019435031401280334,
                -1.3620673721113972,
                2.072648272423648,
                0.6730903210528731,
                -0.5810245725893853,
                -1.7643802688802497
            ]
        },
        {
            "positions": [
                -0.05255551812589532,
                -1.323035462666101,
                2.049724068254999,
                0.7545845649389034,
                -0.6732138926582368,
                -1.6664206503903225
            ]
        },
        {
            "positions": [
                -0.10316753311166249,
                -1.2840035532208045,
                2.0267998640863496,
                0.8360788088249336,
                -0.7654032127270881,
                -1.5684610319003953
            ]
        },
        {
            "positions": [
                -0.15377954809742966,
                -1.2449716437755085,
                2.0038756599177,
                0.9175730527109638,
                -0.8575925327959394,
                -1.4705014134104681
            ]
        },
        {
            "positions": [
                -0.20439156308319695,
                -1.205939734330212,
                1.9809514557490506,
                0.999067296596994,
                -0.9497818528647909,
                -1.372541794920541
            ]
        },
        {
            "positions": [
                -0.2550035780689641,
                -1.1669078248849158,
                1.9580272515804014,
                1.0805615404830242,
                -1.0419711729336423,
                -1.274582176430614
            ]
        },
        {
            "positions": [
                -0.3056155930547314,
                -1.1278759154396196,
                1.9351030474117519,
                1.1620557843690544,
                -1.1341604930024936,
                -1.1766225579406868
            ]
        },
        {
            "positions": [
                -0.3562276080404986,
                -1.0888440059943232,
                1.9121788432431024,
                1.2435500282550846,
                -1.2263498130713448,
                -1.0786629394507599
            ]
        },
        {
            "positions": [
                -0.40683962302626575,
                -1.049812096549027,
                1.8892546390744531,
                1.3250442721411149,
                -1.318539133140196,
                -0.9807033209608327
            ]
        },
        {
            "positions": [
                -0.4574516380120329,
                -1.0107801871037307,
                1.8663304349058036,
                1.406538516027145,
                -1.4107284532090478,
                -0.8827437024709055
            ]
        },
        {
            "positions": [
                -0.5080636529978001,
                -0.9717482776584345,
                1.8434062307371542,
                1.488032759913175,
                -1.502917773277899,
                -0.7847840839809783
            ]
        },
        {
            "positions": [
                -0.5586756679835675,
                -0.9327163682131382,
                1.8204820265685049,
                1.5695270037992053,
                -1.5951070933467504,
                -0.6868244654910511
            ]
        },
        {
            "positions": [
                -0.6092876829693347,
                -0.8936844587678419,
                1.7975578223998554,
                1.6510212476852355,
                -1.6872964134156017,
                -0.588864847001124
            ]
        },
        {
            "positions": [
                -0.6598996979551018,
                -0.8546525493225456,
                1.774633618231206,
                1.7325154915712657,
                -1.779485733484453,
                -0.4909052285111968
            ]
        },
        {
            "positions": [
                -0.710511712940869,
                -0.8156206398772494,
                1.7517094140625566,
                1.814009735457296,
                -1.8716750535533042,
                -0.39294561002127004
            ]
        },
        {
            "positions": [
                -0.7611237279266362,
                -0.7765887304319532,
                1.7287852098939072,
                1.8955039793433262,
                -1.963864373622156,
                -0.29498599153134286
            ]
        },
        {
            "positions": [
                -0.8117357429124036,
                -0.7375568209866568,
                1.7058610057252577,
                1.9769982232293564,
                -2.056053693691007,
                -0.19702637304141568
            ]
        },
        {
            "positions": [
                -0.8623477578981708,
                -0.6985249115413605,
                1.6829368015566084,
                2.0584924671153866,
                -2.1482430137598585,
                -0.0990667545514885
            ]
        },
        {
            "positions": [
                -0.9129597728839379,
                -0.6594930020960643,
                1.660012597387959,
                2.139986711001417,
                -2.2404323338287098,
                -0.0011071360615611424
            ]
        }
    ]
}