{
    "goal": {
        "global_pose": {
            "orientation": {
                "w": 0.7031023502349854,
                "x": -0.7110244035720825,
                "y": 0.007748599164187908,
                "z": 0.005598929710686207
            },
            "position": {
                "x": 0.11585023208521307,
                "y": 0.44412534475326537,
                "z": 0.3711530566215515
            }
        },
        "name": "move_to_auspresseinheit_A"
    },
    "id": "LBKPIECE_move_to_auspresseinheit_A_35",
    "joint_names": [
        "shoulder_pan_joint",
        "shoulder_lift_joint",
        "elbow_joint",
        "wrist_1_joint",
        "wrist_2_joint",
        "wrist_3_joint"
    ],
    "metrics": {
        "cart_traj_len": 0.6964906304475541,
        "distance_elbow_joint": 0.10777628973751874,
        "distance_shoulder_lift_joint": 0.5858799646122459,
        "distance_shoulder_pan_joint": 1.045689478928289,
        "distance_wrist_1_joint": 1.1421379466486887,
        "distance_wrist_2_joint": 0.5133079551340882,
        "distance_wrist_3_joint": 1.275169954409881,
        "smoothness": 1.1316405048687626,
        "time": 0.202963705,
        "traj_len": 2.1610093913425525,
        "weighted_distance": 2.979219260154118
    },
    "planner": "LBKPIECE",
    "start": {
        "state": {
            "elbow_joint": 2.422574709923281,
            "shoulder_lift_joint": -1.3736533754116391,
            "shoulder_pan_joint": -0.33786336945926293,
            "wrist_1_joint": -1.0288603412921917,
            "wrist_2_joint": 1.2330224858903978,
            "wrist_3_joint": -3.094022268022082
        }
    },
    "waypoints": [
        {
            "positions": [
                -0.33786336945926293,
                -1.3736533754116391,
                2.422574709923281,
                -1.0288603412921917,
                1.2330224858903978,
                -3.094022268022082
            ]
        },
        {
            "positions": [
                -0.2235698298151214,
                -1.4359676655881288,
                2.41483972796989,
                -0.9332553763704801,
                1.195777703772918,
                -3.025690240656635
            ]
        },
        {
            "positions": [
                -0.1092762901709799,
                -1.4982819557646185,
                2.407104746016499,
                -0.8376504114487685,
                1.158532921655438,
                -2.9573582132911875
            ]
        },
        {
            "positions": [
                0.005017249473161622,
                -1.5605962459411085,
                2.399369764063108,
                -0.742045446527057,
                1.1212881395379584,
                -2.8890261859257405
            ]
        },
        {
            "positions": [
                0.11931078911730314,
                -1.6229105361175982,
                2.3916347821097172,
                -0.6464404816053453,
                1.0840433574204784,
                -2.820694158560293
            ]
        },
        {
            "positions": [
                0.2336043287614447,
                -1.6852248262940879,
                2.383899800156326,
                -0.5508355166836336,
                1.0467985753029987,
                -2.752362131194846
            ]
        },
        {
            "positions": [
                0.3478978684055862,
                -1.7475391164705776,
                2.3761648182029353,
                -0.45523055176192206,
                1.009553793185519,
                -2.6840301038293983
            ]
        },
        {
            "positions": [
                0.46219140804972775,
                -1.8098534066470675,
                2.368429836249544,
                -0.3596255868402104,
                0.972309011068039,
                -2.6156980764639512
            ]
        },
        {
            "positions": [
                0.5764849476938692,
                -1.8721676968235572,
                2.3606948542961534,
                -0.26402062191849884,
                0.9350642289505593,
                -2.547366049098504
            ]
        },
        {
            "positions": [
                0.6907784873380107,
                -1.934481987000047,
                2.3529598723427623,
                -0.16841565699678715,
                0.8978194468330795,
                -2.4790340217330566
            ]
        },
        {
            "positions": [
                0.6950403928707645,
                -1.9282191487440874,
                2.3625002353820124,
                -0.2388389725851082,
                0.853293217813887,
                -2.6440794487632706
            ]
        },
        {
            "positions": [
                0.6993022984035182,
                -1.9219563104881279,
                2.372040598421262,
                -0.30926228817342927,
                0.8087669887946944,
                -2.8091248757934846
            ]
        },
        {
            "positions": [
                0.7035642039362721,
                -1.9156934722321683,
                2.381580961460512,
                -0.3796856037617503,
                0.764240759775502,
                -2.974170302823698
            ]
        },
        {
            "positions": [
                0.7078261094690258,
                -1.9094306339762088,
                2.3911213244997622,
                -0.45010891935007136,
                0.7197145307563095,
                -3.139215729853912
            ]
        }
    ]
}