{
    "goal": {
        "global_pose": {
            "orientation": {
                "w": 0.7031023502349854,
                "x": -0.7110244035720825,
                "y": 0.007748599164187908,
                "z": 0.005598929710686207
            },
            "position": {
                "x": 0.11585023208521307,
                "y": 0.44412534475326537,
                "z": 0.3711530566215515
            }
        },
        "name": "move_to_auspresseinheit_A"
    },
    "id": "LBKPIECE_move_to_auspresseinheit_A_85",
    "joint_names": [
        "shoulder_pan_joint",
        "shoulder_lift_joint",
        "elbow_joint",
        "wrist_1_joint",
        "wrist_2_joint",
        "wrist_3_joint"
    ],
    "metrics": {
        "cart_traj_len": 2.6446304282182873,
        "distance_elbow_joint": 0.4906806290274677,
        "distance_shoulder_lift_joint": 1.3748762236650482,
        "distance_shoulder_pan_joint": 6.2312037245491965,
        "distance_wrist_1_joint": 4.959854759116552,
        "distance_wrist_2_joint": 0.6066567208364112,
        "distance_wrist_3_joint": 7.3279912844966475,
        "smoothness": 0.6869711336507123,
        "time": 0.5687058309999999,
        "traj_len": 4.581622348218078,
        "weighted_distance": 6.419794186002974
    },
    "planner": "LBKPIECE",
    "start": {
        "state": {
            "elbow_joint": 2.422574709923281,
            "shoulder_lift_joint": -1.3736533754116391,
            "shoulder_pan_joint": -0.33786336945926293,
            "wrist_1_joint": -1.0288603412921917,
            "wrist_2_joint": 1.2330224858903978,
            "wrist_3_joint": -3.094022268022082
        }
    },
    "waypoints": [
        {
            "positions": [
                -0.33786336945926293,
                -1.3736533754116391,
                2.422574709923281,
                -1.0288603412921917,
                1.2330224858903978,
                -3.094022268022082
            ]
        },
        {
            "positions": [
                -0.4416105808051745,
                -1.4118126286425579,
                2.4121122737620575,
                -1.1158669638910663,
                1.2290277258518474,
                -2.948336547165873
            ]
        },
        {
            "positions": [
                -0.545357792151086,
                -1.4499718818734764,
                2.4016498376008335,
                -1.202873586489941,
                1.225032965813297,
                -2.8026508263096637
            ]
        },
        {
            "positions": [
                -0.6491050034969976,
                -1.488131135104395,
                2.39118740143961,
                -1.2898802090888157,
                1.2210382057747466,
                -2.656965105453454
            ]
        },
        {
            "positions": [
                -0.7528522148429092,
                -1.5262903883353136,
                2.380724965278386,
                -1.3768868316876903,
                1.2170434457361963,
                -2.5112793845972448
            ]
        },
        {
            "positions": [
                -0.8565994261888208,
                -1.5644496415662323,
                2.3702625291171624,
                -1.463893454286565,
                1.213048685697646,
                -2.3655936637410355
            ]
        },
        {
            "positions": [
                -0.9603466375347323,
                -1.6026088947971509,
                2.3598000929559384,
                -1.5509000768854395,
                1.2090539256590955,
                -2.2199079428848263
            ]
        },
        {
            "positions": [
                -1.064093848880644,
                -1.6407681480280696,
                2.349337656794715,
                -1.637906699484314,
                1.205059165620545,
                -2.0742222220286166
            ]
        },
        {
            "positions": [
                -1.1678410602265554,
                -1.678927401258988,
                2.338875220633491,
                -1.724913322083189,
                1.2010644055819946,
                -1.9285365011724076
            ]
        },
        {
            "positions": [
                -1.2715882715724671,
                -1.7170866544899068,
                2.3284127844722673,
                -1.8119199446820633,
                1.1970696455434442,
                -1.7828507803161984
            ]
        },
        {
            "positions": [
                -1.3753354829183788,
                -1.7552459077208253,
                2.3179503483110437,
                -1.8989265672809381,
                1.1930748855048938,
                -1.637165059459989
            ]
        },
        {
            "positions": [
                -1.4790826942642903,
                -1.793405160951744,
                2.3074879121498197,
                -1.9859331898798127,
                1.1890801254663435,
                -1.4914793386037797
            ]
        },
        {
            "positions": [
                -1.5828299056102018,
                -1.8315644141826626,
                2.297025475988596,
                -2.0729398124786873,
                1.185085365427793,
                -1.3457936177475702
            ]
        },
        {
            "positions": [
                -1.6865771169561135,
                -1.8697236674135813,
                2.286563039827372,
                -2.159946435077562,
                1.1810906053892427,
                -1.200107896891361
            ]
        },
        {
            "positions": [
                -1.7903243283020251,
                -1.9078829206445,
                2.2761006036661486,
                -2.2469530576764365,
                1.1770958453506923,
                -1.0544221760351515
            ]
        },
        {
            "positions": [
                -1.8940715396479364,
                -1.9460421738754183,
                2.2656381675049246,
                -2.3339596802753113,
                1.173101085312142,
                -0.9087364551789423
            ]
        },
        {
            "positions": [
                -1.997818750993848,
                -1.984201427106337,
                2.255175731343701,
                -2.420966302874186,
                1.1691063252735916,
                -0.7630507343227331
            ]
        },
        {
            "positions": [
                -2.10156596233976,
                -2.022360680337256,
                2.2447132951824775,
                -2.5079729254730605,
                1.1651115652350412,
                -0.6173650134665234
            ]
        },
        {
            "positions": [
                -2.205313173685671,
                -2.060519933568174,
                2.2342508590212535,
                -2.594979548071935,
                1.1611168051964909,
                -0.4716792926103146
            ]
        },
        {
            "positions": [
                -2.3090603850315827,
                -2.0986791867990933,
                2.22378842286003,
                -2.68198617067081,
                1.1571220451579403,
                -0.3259935717541049
            ]
        },
        {
            "positions": [
                -2.4128075963774944,
                -2.1368384400300116,
                2.213325986698806,
                -2.7689927932696845,
                1.1531272851193899,
                -0.1803078508978957
            ]
        },
        {
            "positions": [
                -2.5165548077234057,
                -2.1749976932609303,
                2.2028635505375824,
                -2.855999415868559,
                1.1491325250808395,
                -0.03462213004168646
            ]
        },
        {
            "positions": [
                -2.6203020190693174,
                -2.213156946491849,
                2.1924011143763584,
                -2.9430060384674337,
                1.1451377650422891,
                0.11106359081452277
            ]
        },
        {
            "positions": [
                -2.724049230415229,
                -2.2513161997227673,
                2.181938678215135,
                -3.0300126610663085,
                1.1411430050037388,
                0.25674931167073245
            ]
        },
        {
            "positions": [
                -2.8277964417611403,
                -2.289475452953686,
                2.1714762420539113,
                -3.117019283665183,
                1.1371482449651884,
                0.4024350325269417
            ]
        },
        {
            "positions": [
                -2.931543653107052,
                -2.3276347061846048,
                2.1610138058926873,
                -3.2040259062640577,
                1.133153484926638,
                0.5481207533831509
            ]
        },
        {
            "positions": [
                -2.803543930282088,
                -2.312980307156862,
                2.1691564925959175,
                -3.1051708003197835,
                1.1163947933804446,
                0.4188168597892463
            ]
        },
        {
            "positions": [
                -2.6755442074571243,
                -2.29832590812912,
                2.177299179299148,
                -3.0063156943755094,
                1.099636101834251,
                0.2895129661953418
            ]
        },
        {
            "positions": [
                -2.5475444846321604,
                -2.2836715091013775,
                2.185441866002378,
                -2.9074605884312352,
                1.0828774102880576,
                0.16020907260143719
            ]
        },
        {
            "positions": [
                -2.419544761807196,
                -2.269017110073635,
                2.1935845527056084,
                -2.808605482486961,
                1.0661187187418641,
                0.030905179007532646
            ]
        },
        {
            "positions": [
                -2.2915450389822323,
                -2.254362711045893,
                2.2017272394088385,
                -2.709750376542687,
                1.0493600271956705,
                -0.09839871458637195
            ]
        },
        {
            "positions": [
                -2.1635453161572684,
                -2.2397083120181502,
                2.209869926112069,
                -2.610895270598413,
                1.032601335649477,
                -0.22770260818027654
            ]
        },
        {
            "positions": [
                -2.0355455933323046,
                -2.2250539129904077,
                2.2180126128152993,
                -2.512040164654139,
                1.0158426441032835,
                -0.35700650177418114
            ]
        },
        {
            "positions": [
                -1.9075458705073407,
                -2.2103995139626655,
                2.2261552995185294,
                -2.413185058709865,
                0.99908395255709,
                -0.4863103953680856
            ]
        },
        {
            "positions": [
                -1.7795461476823766,
                -2.195745114934923,
                2.23429798622176,
                -2.3143299527655907,
                0.9823252610108966,
                -0.6156142889619904
            ]
        },
        {
            "positions": [
                -1.6515464248574128,
                -2.1810907159071804,
                2.24244067292499,
                -2.2154748468213166,
                0.9655665694647031,
                -0.7449181825558948
            ]
        },
        {
            "positions": [
                -1.523546702032449,
                -2.1664363168794383,
                2.2505833596282203,
                -2.1166197408770424,
                0.9488078779185096,
                -0.8742220761497994
            ]
        },
        {
            "positions": [
                -1.395546979207485,
                -2.1517819178516957,
                2.2587260463314505,
                -2.0177646349327683,
                0.9320491863723162,
                -1.003525969743704
            ]
        },
        {
            "positions": [
                -1.267547256382521,
                -2.137127518823953,
                2.266868733034681,
                -1.918909528988494,
                0.9152904948261226,
                -1.1328298633376086
            ]
        },
        {
            "positions": [
                -1.1395475335575571,
                -2.1224731197962106,
                2.275011419737911,
                -1.82005442304422,
                0.8985318032799291,
                -1.2621337569315132
            ]
        },
        {
            "positions": [
                -1.0115478107325933,
                -2.1078187207684684,
                2.2831541064411414,
                -1.7211993170999458,
                0.8817731117337356,
                -1.3914376505254178
            ]
        },
        {
            "positions": [
                -0.8835480879076294,
                -2.093164321740726,
                2.291296793144372,
                -1.6223442111556718,
                0.865014420187542,
                -1.5207415441193222
            ]
        },
        {
            "positions": [
                -0.7555483650826655,
                -2.0785099227129837,
                2.299439479847602,
                -1.5234891052113977,
                0.8482557286413486,
                -1.650045437713227
            ]
        },
        {
            "positions": [
                -0.6275486422577012,
                -2.063855523685241,
                2.3075821665508323,
                -1.4246339992671233,
                0.8314970370951551,
                -1.7793493313071318
            ]
        },
        {
            "positions": [
                -0.4995489194327374,
                -2.0492011246574986,
                2.3157248532540624,
                -1.3257788933228492,
                0.8147383455489616,
                -1.9086532249010362
            ]
        },
        {
            "positions": [
                -0.3715491966077735,
                -2.034546725629756,
                2.323867539957293,
                -1.2269237873785752,
                0.7979796540027682,
                -2.0379571184949405
            ]
        },
        {
            "positions": [
                -0.24354947378280967,
                -2.019892326602014,
                2.332010226660523,
                -1.1280686814343013,
                0.7812209624565747,
                -2.1672610120888454
            ]
        },
        {
            "positions": [
                -0.11554975095784581,
                -2.0052379275742713,
                2.3401529133637533,
                -1.0292135754900271,
                0.7644622709103812,
                -2.2965649056827497
            ]
        },
        {
            "positions": [
                0.012449971867118048,
                -1.990583528546529,
                2.348295600066984,
                -0.930358469545753,
                0.7477035793641876,
                -2.425868799276654
            ]
        },
        {
            "positions": [
                0.1404496946920819,
                -1.9759291295187866,
                2.356438286770214,
                -0.8315033636014788,
                0.7309448878179942,
                -2.555172692870559
            ]
        },
        {
            "positions": [
                0.2684494175170462,
                -1.961274730491044,
                2.364580973473444,
                -0.7326482576572042,
                0.7141861962718006,
                -2.6844765864644637
            ]
        },
        {
            "positions": [
                0.39644914034201006,
                -1.9466203314633017,
                2.3727236601766744,
                -0.6337931517129305,
                0.6974275047256071,
                -2.813780480058368
            ]
        },
        {
            "positions": [
                0.5244488631669739,
                -1.9319659324355591,
                2.380866346879905,
                -0.5349380457686563,
                0.6806688131794136,
                -2.943084373652273
            ]
        },
        {
            "positions": [
                0.6524485859919378,
                -1.9173115334078168,
                2.389009033583135,
                -0.4360829398243821,
                0.6639101216332202,
                -3.0723882672461773
            ]
        },
        {
            "positions": [
                0.7059797877943592,
                -1.9067398132925222,
                2.3901335308895613,
                -0.452829167529391,
                0.7014544782124538,
                -3.137727509708258
            ]
        }
    ]
}