{
    "goal": {
        "global_pose": {
            "orientation": {
                "w": -0.00223480608172531,
                "x": 0.0024358444001904467,
                "y": 0.7094548369677653,
                "z": -0.704743149386269
            },
            "position": {
                "x": 0.6205249238014221,
                "y": -0.6371506643295288,
                "z": 0.19426114857196808
            }
        },
        "name": "move_to_magneteinheit_B"
    },
    "id": "LBKPIECE_move_to_magneteinheit_B_6",
    "joint_names": [
        "shoulder_pan_joint",
        "shoulder_lift_joint",
        "elbow_joint",
        "wrist_1_joint",
        "wrist_2_joint",
        "wrist_3_joint"
    ],
    "metrics": {
        "cart_traj_len": 3.472202315465302,
        "distance_elbow_joint": 4.498570419764507,
        "distance_shoulder_lift_joint": 1.31441696515299,
        "distance_shoulder_pan_joint": 1.9542551444003189,
        "distance_wrist_1_joint": 1.9818473429547758,
        "distance_wrist_2_joint": 2.542882845457216,
        "distance_wrist_3_joint": 0.5344154038615598,
        "smoothness": 0.6076724752229674,
        "time": 0.44483501299999995,
        "traj_len": 3.581394717367993,
        "weighted_distance": 4.291846818996046
    },
    "planner": "LBKPIECE",
    "start": {
        "state": {
            "elbow_joint": 2.39358713078474,
            "shoulder_lift_joint": -1.908514104345545,
            "shoulder_pan_joint": 0.7066247066606129,
            "wrist_1_joint": -0.4678290933515497,
            "wrist_2_joint": 0.7096259083745334,
            "wrist_3_joint": -3.1358149277392293
        }
    },
    "waypoints": [
        {
            "positions": [
                0.7066247066606129,
                -1.908514104345545,
                2.39358713078474,
                -0.4678290933515497,
                0.7096259083745334,
                -3.1358149277392293
            ]
        },
        {
            "positions": [
                0.7366769268195591,
                -1.991212226679983,
                2.3804947091271775,
                -0.5465241839135077,
                0.7927163567327892,
                -3.0781694872198146
            ]
        },
        {
            "positions": [
                0.7667291469785052,
                -2.073910349014421,
                2.367402287469615,
                -0.6252192744754655,
                0.8758068050910448,
                -3.0205240467003995
            ]
        },
        {
            "positions": [
                0.7967813671374514,
                -2.156608471348859,
                2.3543098658120525,
                -0.7039143650374236,
                0.9588972534493005,
                -2.9628786061809844
            ]
        },
        {
            "positions": [
                0.8268335872963976,
                -2.239306593683297,
                2.34121744415449,
                -0.7826094555993814,
                1.0419877018075563,
                -2.9052331656615697
            ]
        },
        {
            "positions": [
                0.8996053076534143,
                -2.218556627929221,
                2.1724256308710257,
                -0.8349489641658876,
                0.967302395375338,
                -2.9036630727803483
            ]
        },
        {
            "positions": [
                0.9723770280104309,
                -2.197806662175145,
                2.003633817587561,
                -0.8872884727323936,
                0.8926170889431199,
                -2.902092979899127
            ]
        },
        {
            "positions": [
                1.0451487483674475,
                -2.1770566964210687,
                1.8348420043040967,
                -0.9396279812988998,
                0.8179317825109016,
                -2.9005228870179054
            ]
        },
        {
            "positions": [
                1.1179204687244644,
                -2.1563067306669925,
                1.666050191020632,
                -0.9919674898654058,
                0.7432464760786834,
                -2.898952794136684
            ]
        },
        {
            "positions": [
                1.190692189081481,
                -2.135556764912916,
                1.4972583777371677,
                -1.044306998431912,
                0.6685611696464651,
                -2.8973827012554625
            ]
        },
        {
            "positions": [
                1.2634639094384976,
                -2.1148067991588397,
                1.3284665644537033,
                -1.0966465069984181,
                0.5938758632142469,
                -2.895812608374241
            ]
        },
        {
            "positions": [
                1.3362356297955145,
                -2.0940568334047636,
                1.1596747511702388,
                -1.1489860155649243,
                0.5191905567820286,
                -2.8942425154930196
            ]
        },
        {
            "positions": [
                1.409007350152531,
                -2.0733068676506874,
                0.9908829378867743,
                -1.2013255241314305,
                0.4445052503498105,
                -2.892672422611798
            ]
        },
        {
            "positions": [
                1.481779070509548,
                -2.052556901896611,
                0.82209112460331,
                -1.2536650326979364,
                0.3698199439175922,
                -2.8911023297305767
            ]
        },
        {
            "positions": [
                1.5545507908665646,
                -2.031806936142535,
                0.6532993113198455,
                -1.3060045412644425,
                0.29513463748537394,
                -2.8895322368493552
            ]
        },
        {
            "positions": [
                1.6273225112235812,
                -2.011056970388459,
                0.48450749803638105,
                -1.3583440498309487,
                0.22044933105315578,
                -2.8879621439681338
            ]
        },
        {
            "positions": [
                1.7000942315805978,
                -1.9903070046343825,
                0.31571568475291656,
                -1.4106835583974546,
                0.14576402462093763,
                -2.8863920510869123
            ]
        },
        {
            "positions": [
                1.7728659519376146,
                -1.9695570388803063,
                0.1469238714694523,
                -1.4630230669639608,
                0.07107871818871925,
                -2.8848219582056913
            ]
        },
        {
            "positions": [
                1.8456376722946315,
                -1.94880707312623,
                -0.021867941814012415,
                -1.515362575530467,
                -0.0036065882434990204,
                -2.88325186532447
            ]
        },
        {
            "positions": [
                1.9184093926516481,
                -1.9280571073721537,
                -0.19065975509747668,
                -1.567702084096973,
                -0.07829189467571718,
                -2.8816817724432484
            ]
        },
        {
            "positions": [
                1.9911811130086647,
                -1.9073071416180776,
                -0.3594515683809414,
                -1.6200415926634792,
                -0.15297720110793533,
                -2.880111679562027
            ]
        },
        {
            "positions": [
                2.0639528333656814,
                -1.8865571758640014,
                -0.5282433816644057,
                -1.6723811012299854,
                -0.2276625075401537,
                -2.8785415866808055
            ]
        },
        {
            "positions": [
                2.136724553722698,
                -1.8658072101099252,
                -0.6970351949478699,
                -1.7247206097964913,
                -0.30234781397237187,
                -2.876971493799584
            ]
        },
        {
            "positions": [
                2.2094962740797146,
                -1.845057244355849,
                -0.8658270082313346,
                -1.7770601183629977,
                -0.37703312040459,
                -2.8754014009183626
            ]
        },
        {
            "positions": [
                2.2822679944367317,
                -1.8243072786017727,
                -1.034618821514799,
                -1.8293996269295036,
                -0.4517184268368084,
                -2.873831308037141
            ]
        },
        {
            "positions": [
                2.355039714793748,
                -1.8035573128476965,
                -1.2034106347982632,
                -1.8817391354960098,
                -0.5264037332690263,
                -2.8722612151559197
            ]
        },
        {
            "positions": [
                2.427811435150765,
                -1.7828073470936203,
                -1.3722024480817279,
                -1.934078644062516,
                -0.6010890397012447,
                -2.8706911222746982
            ]
        },
        {
            "positions": [
                2.5005831555077815,
                -1.762057381339544,
                -1.5409942613651926,
                -1.986418152629022,
                -0.6757743461334631,
                -2.869121029393477
            ]
        },
        {
            "positions": [
                2.573354875864798,
                -1.7413074155854678,
                -1.7097860746486568,
                -2.038757661195528,
                -0.750459652565681,
                -2.8675509365122553
            ]
        },
        {
            "positions": [
                2.646126596221815,
                -1.7205574498313916,
                -1.878577887932121,
                -2.091097169762034,
                -0.8251449589978994,
                -2.865980843631034
            ]
        },
        {
            "positions": [
                2.6487081192048336,
                -1.802138343750568,
                -1.8388326289061252,
                -2.1540075813046613,
                -0.7648100440663756,
                -2.9124959076698924
            ]
        },
        {
            "positions": [
                2.6512896421878525,
                -1.8837192376697445,
                -1.799087369880129,
                -2.2169179928472884,
                -0.7044751291348518,
                -2.9590109717087505
            ]
        },
        {
            "positions": [
                2.6538711651708713,
                -1.965300131588921,
                -1.7593421108541332,
                -2.2798284043899155,
                -0.644140214203328,
                -3.005526035747609
            ]
        },
        {
            "positions": [
                2.6573755081159014,
                -2.0753664566918224,
                -1.705757298869305,
                -2.3647524203481205,
                -0.5629483909912456,
                -3.068044099566004
            ]
        },
        {
            "positions": [
                2.660879851060932,
                -2.1854327817947237,
                -1.6521724868844767,
                -2.4496764363063255,
                -0.4817565677791632,
                -3.1305621633843983
            ]
        }
    ]
}