{
    "goal": {
        "global_pose": {
            "orientation": {
                "w": 0.5084816217422485,
                "x": -0.49083608388900757,
                "y": 0.5182115435600281,
                "z": -0.4816462993621826
            },
            "position": {
                "x": 0.5540239810943604,
                "y": 0.030875300988554955,
                "z": 0.16403168439865112
            }
        },
        "name": "move_to_storage_A"
    },
    "id": "LBKPIECE_move_to_storage_A_48",
    "joint_names": [
        "shoulder_pan_joint",
        "shoulder_lift_joint",
        "elbow_joint",
        "wrist_1_joint",
        "wrist_2_joint",
        "wrist_3_joint"
    ],
    "metrics": {
        "cart_traj_len": 0.3530956462656283,
        "distance_elbow_joint": 0.44990033245602756,
        "distance_shoulder_lift_joint": 0.23288731186532652,
        "distance_shoulder_pan_joint": 0.46308243247205483,
        "distance_wrist_1_joint": 0.24273326963417052,
        "distance_wrist_2_joint": 1.092419346076023,
        "distance_wrist_3_joint": 0.10162487360453021,
        "smoothness": 1.3322676365830568e-15,
        "time": 0.481841941,
        "traj_len": 1.607061780426668,
        "weighted_distance": 2.030036927995988
    },
    "planner": "LBKPIECE",
    "start": {
        "state": {
            "elbow_joint": 1.9715463870305268,
            "shoulder_lift_joint": -1.1394903361783484,
            "shoulder_pan_joint": 0.12281147578464417,
            "wrist_1_joint": -0.7804599489681411,
            "wrist_2_joint": 0.12958660307563738,
            "wrist_3_joint": -3.1924946282119055
        }
    },
    "waypoints": [
        {
            "positions": [
                0.12281147578464417,
                -1.1394903361783484,
                1.9715463870305268,
                -0.7804599489681411,
                0.12958660307563738,
                -3.1924946282119055
            ]
        },
        {
            "positions": [
                0.056656842574350635,
                -1.1727599521591092,
                2.0358178630956734,
                -0.8151361303444512,
                0.2856465096579264,
                -3.177976789125544
            ]
        },
        {
            "positions": [
                -0.009497790635942902,
                -1.2060295681398703,
                2.1000893391608204,
                -0.8498123117207612,
                0.44170641624021534,
                -3.1634589500391828
            ]
        },
        {
            "positions": [
                -0.07565242384623645,
                -1.2392991841206311,
                2.164360815225967,
                -0.8844884930970713,
                0.5977663228225043,
                -3.1489411109528214
            ]
        },
        {
            "positions": [
                -0.14180705705652996,
                -1.2725688001013922,
                2.228632291291114,
                -0.9191646744733813,
                0.7538262294047934,
                -3.1344232718664595
            ]
        },
        {
            "positions": [
                -0.20796169026682354,
                -1.305838416082153,
                2.2929037673562607,
                -0.9538408558496915,
                0.9098861359870825,
                -3.119905432780098
            ]
        },
        {
            "positions": [
                -0.27411632347711706,
                -1.339108032062914,
                2.3571752434214073,
                -0.9885170372260015,
                1.0659460425693712,
                -3.1053875936937367
            ]
        },
        {
            "positions": [
                -0.34027095668741064,
                -1.372377648043675,
                2.4214467194865543,
                -1.0231932186023116,
                1.2220059491516604,
                -3.0908697546073753
            ]
        }
    ]
}