{
    "goal": {
        "global_pose": {
            "orientation": {
                "w": 0.7047431468963623,
                "x": -0.7094548344612122,
                "y": 0.0024358443915843964,
                "z": -0.0022348060738295317
            },
            "position": {
                "x": 0.6094750761985779,
                "y": 0.3671506643295288,
                "z": 0.19426114857196808
            }
        },
        "name": "move_to_magneteinheit_A"
    },
    "id": "LBKPIECE_move_to_magneteinheit_A_44",
    "joint_names": [
        "shoulder_pan_joint",
        "shoulder_lift_joint",
        "elbow_joint",
        "wrist_1_joint",
        "wrist_2_joint",
        "wrist_3_joint"
    ],
    "metrics": {
        "cart_traj_len": 1.878664398469183,
        "distance_elbow_joint": 3.909683367725842,
        "distance_shoulder_lift_joint": 0.7000973687757734,
        "distance_shoulder_pan_joint": 1.2411666679603177,
        "distance_wrist_1_joint": 1.483232482262718,
        "distance_wrist_2_joint": 1.7019617360518922,
        "distance_wrist_3_joint": 1.0919550025204123,
        "smoothness": 2.631639764355545e-16,
        "time": 0.340484553,
        "traj_len": 3.182467065862105,
        "weighted_distance": 3.9366484283781795
    },
    "planner": "LBKPIECE",
    "start": {
        "state": {
            "elbow_joint": -1.919643507792019,
            "shoulder_lift_joint": -0.07675430207160344,
            "shoulder_pan_joint": -1.1188671864651873,
            "wrist_1_joint": 0.42560062535961957,
            "wrist_2_joint": 1.5706038300724876,
            "wrist_3_joint": 1.1188968870953055
        }
    },
    "waypoints": [
        {
            "positions": [
                -1.1188671864651873,
                -0.07675430207160344,
                -1.919643507792019,
                0.42560062535961957,
                1.5706038300724876,
                1.1188968870953055
            ]
        },
        {
            "positions": [
                -1.071130006928252,
                -0.10368112394759472,
                -1.7692710705717944,
                0.48264802852357025,
                1.505143763301261,
                1.0768986177675974
            ]
        },
        {
            "positions": [
                -1.0233928273913167,
                -0.130607945823586,
                -1.6188986333515696,
                0.539695431687521,
                1.4396836965300344,
                1.0349003484398893
            ]
        },
        {
            "positions": [
                -0.9756556478543814,
                -0.1575347676995773,
                -1.468526196131345,
                0.5967428348514716,
                1.3742236297588077,
                0.992902079112181
            ]
        },
        {
            "positions": [
                -0.9279184683174462,
                -0.18446158957556857,
                -1.3181537589111203,
                0.6537902380154224,
                1.3087635629875811,
                0.9509038097844729
            ]
        },
        {
            "positions": [
                -0.8801812887805108,
                -0.21138841145155987,
                -1.1677813216908954,
                0.7108376411793731,
                1.2433034962163545,
                0.9089055404567647
            ]
        },
        {
            "positions": [
                -0.8324441092435755,
                -0.23831523332755117,
                -1.017408884470671,
                0.7678850443433238,
                1.1778434294451279,
                0.8669072711290565
            ]
        },
        {
            "positions": [
                -0.7847069297066402,
                -0.26524205520354244,
                -0.8670364472504464,
                0.8249324475072743,
                1.1123833626739013,
                0.8249090018013484
            ]
        },
        {
            "positions": [
                -0.736969750169705,
                -0.29216887707953376,
                -0.7166640100302215,
                0.8819798506712251,
                1.0469232959026746,
                0.7829107324736402
            ]
        },
        {
            "positions": [
                -0.6892325706327697,
                -0.31909569895552503,
                -0.5662915728099969,
                0.9390272538351758,
                0.981463229131448,
                0.7409124631459321
            ]
        },
        {
            "positions": [
                -0.6414953910958343,
                -0.3460225208315163,
                -0.415919135589772,
                0.9960746569991266,
                0.9160031623602214,
                0.6989141938182238
            ]
        },
        {
            "positions": [
                -0.5937582115588991,
                -0.37294934270750757,
                -0.2655466983695476,
                1.0531220601630773,
                0.8505430955889948,
                0.6569159244905157
            ]
        },
        {
            "positions": [
                -0.5460210320219637,
                -0.3998761645834989,
                -0.11517426114932272,
                1.110169463327028,
                0.7850830288177681,
                0.6149176551628075
            ]
        },
        {
            "positions": [
                -0.4982838524850285,
                -0.42680298645949016,
                0.03519817607090192,
                1.1672168664909786,
                0.7196229620465415,
                0.5729193858350994
            ]
        },
        {
            "positions": [
                -0.45054667294809325,
                -0.45372980833548143,
                0.18557061329112634,
                1.2242642696549293,
                0.6541628952753149,
                0.5309211165073913
            ]
        },
        {
            "positions": [
                -0.4028094934111579,
                -0.4806566302114727,
                0.3359430505113512,
                1.28131167281888,
                0.5887028285040884,
                0.48892284717968315
            ]
        },
        {
            "positions": [
                -0.35507231387422256,
                -0.507583452087464,
                0.48631548773157607,
                1.3383590759828308,
                0.5232427617328617,
                0.4469245778519748
            ]
        },
        {
            "positions": [
                -0.3073351343372873,
                -0.5345102739634553,
                0.6366879249518009,
                1.3954064791467815,
                0.45778269496163504,
                0.4049263085242667
            ]
        },
        {
            "positions": [
                -0.25959795480035197,
                -0.5614370958394466,
                0.7870603621720254,
                1.452453882310732,
                0.3923226281904084,
                0.3629280391965586
            ]
        },
        {
            "positions": [
                -0.21186077526341673,
                -0.5883639177154378,
                0.9374327993922498,
                1.5095012854746828,
                0.3268625614191818,
                0.32092976986885047
            ]
        },
        {
            "positions": [
                -0.16412359572648139,
                -0.6152907395914291,
                1.087805236612475,
                1.5665486886386335,
                0.2614024946479552,
                0.27893150054114213
            ]
        },
        {
            "positions": [
                -0.11638641618954604,
                -0.6422175614674204,
                1.2381776738326995,
                1.6235960918025842,
                0.19594242787672855,
                0.23693323121343401
            ]
        },
        {
            "positions": [
                -0.0686492366526108,
                -0.6691443833434116,
                1.388550111052924,
                1.680643494966535,
                0.13048236110550193,
                0.1949349618857259
            ]
        },
        {
            "positions": [
                -0.020912057115675564,
                -0.6960712052194029,
                1.5389225482731488,
                1.7376908981304855,
                0.06502229433427531,
                0.15293669255801778
            ]
        },
        {
            "positions": [
                0.026825122421259895,
                -0.7229980270953944,
                1.6892949854933736,
                1.7947383012944365,
                -0.0004377724369513114,
                0.11093842323030945
            ]
        },
        {
            "positions": [
                0.07456230195819513,
                -0.7499248489713857,
                1.8396674227135985,
                1.851785704458387,
                -0.06589783920817793,
                0.06894015390260133
            ]
        },
        {
            "positions": [
                0.12229948149513042,
                -0.7768516708473769,
                1.9900398599338227,
                1.9088331076223377,
                -0.13135790597940467,
                0.026941884574893202
            ]
        }
    ]
}