{
    "goal": {
        "global_pose": {
            "orientation": {
                "w": -0.00223480608172531,
                "x": 0.0024358444001904467,
                "y": 0.7094548369677653,
                "z": -0.704743149386269
            },
            "position": {
                "x": 0.6205249238014221,
                "y": -0.6371506643295288,
                "z": 0.19426114857196808
            }
        },
        "name": "move_to_magneteinheit_B"
    },
    "id": "LBKPIECE_move_to_magneteinheit_B_12",
    "joint_names": [
        "shoulder_pan_joint",
        "shoulder_lift_joint",
        "elbow_joint",
        "wrist_1_joint",
        "wrist_2_joint",
        "wrist_3_joint"
    ],
    "metrics": {
        "cart_traj_len": 1.453654766216834,
        "distance_elbow_joint": 0.732224109015637,
        "distance_shoulder_lift_joint": 1.2491556305249547,
        "distance_shoulder_pan_joint": 1.6209878448466664,
        "distance_wrist_1_joint": 2.605743135528623,
        "distance_wrist_2_joint": 2.941385736451784,
        "distance_wrist_3_joint": 3.1348650088969636,
        "smoothness": 2.960594733002109e-16,
        "time": 0.746416338,
        "traj_len": 3.5049053432674366,
        "weighted_distance": 4.9092993751694305
    },
    "planner": "LBKPIECE",
    "start": {
        "state": {
            "elbow_joint": 2.39358713078474,
            "shoulder_lift_joint": -1.908514104345545,
            "shoulder_pan_joint": 0.7066247066606129,
            "wrist_1_joint": -0.4678290933515497,
            "wrist_2_joint": 0.7096259083745334,
            "wrist_3_joint": -3.1358149277392293
        }
    },
    "waypoints": [
        {
            "positions": [
                0.7066247066606129,
                -1.908514104345545,
                2.39358713078474,
                -0.4678290933515497,
                0.7096259083745334,
                -3.1358149277392293
            ]
        },
        {
            "positions": [
                0.6559688365091546,
                -1.8694779908916401,
                2.3707051273780015,
                -0.3863996203662802,
                0.6177076041104151,
                -3.037850396211199
            ]
        },
        {
            "positions": [
                0.6053129663576963,
                -1.8304418774377353,
                2.3478231239712626,
                -0.3049701473810108,
                0.525789299846297,
                -2.939885864683169
            ]
        },
        {
            "positions": [
                0.554657096206238,
                -1.7914057639838303,
                2.324941120564524,
                -0.22354067439574132,
                0.4338709955821787,
                -2.841921333155139
            ]
        },
        {
            "positions": [
                0.5040012260547797,
                -1.7523696505299255,
                2.3020591171577856,
                -0.14211120141047184,
                0.34195269131806044,
                -2.743956801627109
            ]
        },
        {
            "positions": [
                0.4533453559033213,
                -1.7133335370760208,
                2.2791771137510466,
                -0.060681728425202364,
                0.2500343870539422,
                -2.645992270099079
            ]
        },
        {
            "positions": [
                0.40268948575186303,
                -1.674297423622116,
                2.256295110344308,
                0.02074774456006706,
                0.15811608278982392,
                -2.5480277385710486
            ]
        },
        {
            "positions": [
                0.3520336156004047,
                -1.635261310168211,
                2.2334131069375696,
                0.10217721754533654,
                0.06619777852570574,
                -2.4500632070430184
            ]
        },
        {
            "positions": [
                0.30137774544894635,
                -1.5962251967143062,
                2.2105311035308306,
                0.18360669053060602,
                -0.025720525738412547,
                -2.3520986755149886
            ]
        },
        {
            "positions": [
                0.250721875297488,
                -1.5571890832604014,
                2.187649100124092,
                0.2650361635158755,
                -0.11763883000253084,
                -2.2541341439869584
            ]
        },
        {
            "positions": [
                0.20006600514602968,
                -1.5181529698064966,
                2.1647670967173536,
                0.346465636501145,
                -0.20955713426664901,
                -2.1561696124589282
            ]
        },
        {
            "positions": [
                0.14941013499457134,
                -1.4791168563525918,
                2.1418850933106146,
                0.42789510948641446,
                -0.3014754385307673,
                -2.058205080930898
            ]
        },
        {
            "positions": [
                0.09875426484311312,
                -1.440080742898687,
                2.119003089903876,
                0.5093245824716839,
                -0.3933937427948856,
                -1.9602405494028678
            ]
        },
        {
            "positions": [
                0.04809839469165478,
                -1.401044629444782,
                2.0961210864971376,
                0.5907540554569535,
                -0.4853120470590039,
                -1.8622760178748379
            ]
        },
        {
            "positions": [
                -0.00255747545980356,
                -1.3620085159908772,
                2.073239083090399,
                0.6721835284422228,
                -0.577230351323122,
                -1.7643114863468077
            ]
        },
        {
            "positions": [
                -0.0532133456112619,
                -1.3229724025369722,
                2.05035707968366,
                0.7536130014274924,
                -0.6691486555872402,
                -1.6663469548187777
            ]
        },
        {
            "positions": [
                -0.10386921576272024,
                -1.2839362890830675,
                2.0274750762769216,
                0.8350424744127618,
                -0.7610669598513585,
                -1.5683824232907475
            ]
        },
        {
            "positions": [
                -0.15452508591417857,
                -1.2449001756291627,
                2.004593072870183,
                0.9164719473980312,
                -0.8529852641154768,
                -1.4704178917627173
            ]
        },
        {
            "positions": [
                -0.2051809560656369,
                -1.2058640621752579,
                1.9817110694634443,
                0.9979014203833008,
                -0.9449035683795951,
                -1.3724533602346873
            ]
        },
        {
            "positions": [
                -0.25583682621709525,
                -1.166827948721353,
                1.9588290660567056,
                1.0793308933685701,
                -1.036821872643713,
                -1.2744888287066571
            ]
        },
        {
            "positions": [
                -0.3064926963685536,
                -1.1277918352674483,
                1.935947062649967,
                1.1607603663538397,
                -1.1287401769078316,
                -1.1765242971786272
            ]
        },
        {
            "positions": [
                -0.3571485665200119,
                -1.0887557218135435,
                1.9130650592432283,
                1.242189839339109,
                -1.2206584811719496,
                -1.078559765650597
            ]
        },
        {
            "positions": [
                -0.40780443667147026,
                -1.0497196083596385,
                1.8901830558364896,
                1.3236193123243787,
                -1.3125767854360681,
                -0.9805952341225668
            ]
        },
        {
            "positions": [
                -0.4584603068229286,
                -1.0106834949057337,
                1.867301052429751,
                1.405048785309648,
                -1.4044950897001862,
                -0.8826307025945366
            ]
        },
        {
            "positions": [
                -0.5091161769743867,
                -0.9716473814518289,
                1.8444190490230123,
                1.4864782582949174,
                -1.4964133939643047,
                -0.7846661710665064
            ]
        },
        {
            "positions": [
                -0.559772047125845,
                -0.932611267997924,
                1.8215370456162736,
                1.567907731280187,
                -1.5883316982284228,
                -0.6867016395384766
            ]
        },
        {
            "positions": [
                -0.6104279172773034,
                -0.8935751545440191,
                1.798655042209535,
                1.6493372042654566,
                -1.6802500024925413,
                -0.5887371080104464
            ]
        },
        {
            "positions": [
                -0.6610837874287617,
                -0.8545390410901144,
                1.7757730388027964,
                1.7307666772507257,
                -1.7721683067566594,
                -0.49077257648241623
            ]
        },
        {
            "positions": [
                -0.7117396575802201,
                -0.8155029276362096,
                1.7528910353960576,
                1.8121961502359953,
                -1.8640866110207774,
                -0.39280804495438604
            ]
        },
        {
            "positions": [
                -0.7623955277316784,
                -0.7764668141823048,
                1.730009031989319,
                1.893625623221265,
                -1.956004915284896,
                -0.29484351342635584
            ]
        },
        {
            "positions": [
                -0.8130513978831367,
                -0.7374307007283998,
                1.7071270285825804,
                1.9750550962065345,
                -2.047923219549014,
                -0.1968789818983261
            ]
        },
        {
            "positions": [
                -0.8637072680345951,
                -0.698394587274495,
                1.6842450251758416,
                2.0564845691918037,
                -2.1398415238131325,
                -0.09891445037029589
            ]
        },
        {
            "positions": [
                -0.9143631381860533,
                -0.6593584738205902,
                1.661363021769103,
                2.1379140421770733,
                -2.2317598280772506,
                -0.000949918842265774
            ]
        }
    ]
}