{
    "goal": {
        "global_pose": {
            "orientation": {
                "w": 0.7031023502349854,
                "x": -0.7110244035720825,
                "y": 0.007748599164187908,
                "z": 0.005598929710686207
            },
            "position": {
                "x": 0.11585023208521307,
                "y": 0.44412534475326537,
                "z": 0.3711530566215515
            }
        },
        "name": "move_to_auspresseinheit_A"
    },
    "id": "LBKPIECE_move_to_auspresseinheit_A_122",
    "joint_names": [
        "shoulder_pan_joint",
        "shoulder_lift_joint",
        "elbow_joint",
        "wrist_1_joint",
        "wrist_2_joint",
        "wrist_3_joint"
    ],
    "metrics": {
        "cart_traj_len": 2.389030053032084,
        "distance_elbow_joint": 2.310948214757834,
        "distance_shoulder_lift_joint": 1.6576517254307717,
        "distance_shoulder_pan_joint": 2.565682355720998,
        "distance_wrist_1_joint": 2.3739720692601787,
        "distance_wrist_2_joint": 1.0369119549976902,
        "distance_wrist_3_joint": 1.0670095396602055,
        "smoothness": 1.142047912007223,
        "time": 0.8941648839999999,
        "traj_len": 3.3184598626211645,
        "weighted_distance": 4.069039071255763
    },
    "planner": "LBKPIECE",
    "start": {
        "state": {
            "elbow_joint": 2.422574709923281,
            "shoulder_lift_joint": -1.3736533754116391,
            "shoulder_pan_joint": -0.33786336945926293,
            "wrist_1_joint": -1.0288603412921917,
            "wrist_2_joint": 1.2330224858903978,
            "wrist_3_joint": -3.094022268022082
        }
    },
    "waypoints": [
        {
            "positions": [
                -0.33786336945926293,
                -1.3736533754116391,
                2.422574709923281,
                -1.0288603412921917,
                1.2330224858903978,
                -3.094022268022082
            ]
        },
        {
            "positions": [
                -0.2684958041695648,
                -1.4132548021453757,
                2.3314519588029032,
                -0.9504664758984291,
                1.214958236875153,
                -3.0297249981482253
            ]
        },
        {
            "positions": [
                -0.19912823887986666,
                -1.4528562288791123,
                2.240329207682525,
                -0.8720726105046667,
                1.1968939878599083,
                -2.9654277282743684
            ]
        },
        {
            "positions": [
                -0.12976067359016855,
                -1.4924576556128488,
                2.149206456562147,
                -0.7936787451109041,
                1.1788297388446636,
                -2.9011304584005115
            ]
        },
        {
            "positions": [
                -0.0603931083004704,
                -1.5320590823465854,
                2.0580837054417693,
                -0.7152848797171416,
                1.160765489829419,
                -2.8368331885266547
            ]
        },
        {
            "positions": [
                0.008974456989227775,
                -1.571660509080322,
                1.966960954321391,
                -0.636891014323379,
                1.1427012408141743,
                -2.772535918652798
            ]
        },
        {
            "positions": [
                0.07834202227892584,
                -1.6112619358140585,
                1.8758382032010132,
                -0.5584971489296164,
                1.1246369917989296,
                -2.708238648778941
            ]
        },
        {
            "positions": [
                0.147709587568624,
                -1.650863362547795,
                1.7847154520806352,
                -0.4801032835358539,
                1.106572742783685,
                -2.643941378905084
            ]
        },
        {
            "positions": [
                0.2676808017154581,
                -1.693722071286534,
                1.7609716567063045,
                -0.3578982124620591,
                1.041575874563815,
                -2.638009177198197
            ]
        },
        {
            "positions": [
                0.3876520158622922,
                -1.7365807800252726,
                1.7372278613319736,
                -0.23569314138826436,
                0.9765790063439452,
                -2.632076975491309
            ]
        },
        {
            "positions": [
                0.5076232300091263,
                -1.7794394887640115,
                1.7134840659576427,
                -0.11348807031446956,
                0.9115821381240754,
                -2.6261447737844215
            ]
        },
        {
            "positions": [
                0.6275944441559604,
                -1.8222981975027503,
                1.689740270583312,
                0.008717000759325189,
                0.8465852699042057,
                -2.620212572077534
            ]
        },
        {
            "positions": [
                0.7475656583027945,
                -1.865156906241489,
                1.6659964752089813,
                0.13092207183312005,
                0.7815884016843357,
                -2.614280370370647
            ]
        },
        {
            "positions": [
                0.8675368724496285,
                -1.9080156149802279,
                1.6422526798346504,
                0.25312714290691485,
                0.716591533464466,
                -2.6083481686637593
            ]
        },
        {
            "positions": [
                0.9209238359643899,
                -1.999845848047471,
                1.6806300644141956,
                0.15697813584779646,
                0.6433224331485805,
                -2.646173507855859
            ]
        },
        {
            "positions": [
                0.9743107994791511,
                -2.091676081114714,
                1.7190074489937406,
                0.06082912878867811,
                0.5700533328326949,
                -2.6839988470479583
            ]
        },
        {
            "positions": [
                1.028993683908121,
                -2.133518643882241,
                1.8370363751718994,
                -0.01775202243609312,
                0.598499871994565,
                -2.737242778614709
            ]
        },
        {
            "positions": [
                1.0836765683370908,
                -2.1753612066497676,
                1.9550653013500583,
                -0.09633317366086436,
                0.6269464111564351,
                -2.7904867101814594
            ]
        },
        {
            "positions": [
                1.1383594527660608,
                -2.2172037694172944,
                2.073094227528217,
                -0.1749143248856356,
                0.6553929503183051,
                -2.84373064174821
            ]
        },
        {
            "positions": [
                1.1930423371950305,
                -2.259046332184821,
                2.191123153706376,
                -0.2534954761104068,
                0.6838394894801753,
                -2.8969745733149606
            ]
        },
        {
            "positions": [
                1.2477252216240005,
                -2.3008888949523474,
                2.3091520798845346,
                -0.33207662733517807,
                0.7122860286420454,
                -2.950218504881711
            ]
        },
        {
            "positions": [
                1.3024081060529702,
                -2.342731457719874,
                2.4271810060626935,
                -0.4106577785599493,
                0.7407325678039154,
                -3.0034624364484617
            ]
        },
        {
            "positions": [
                1.3570909904819402,
                -2.384574020487401,
                2.5452099322408523,
                -0.48923892978472056,
                0.7691791069657856,
                -3.0567063680152122
            ]
        },
        {
            "positions": [
                1.4117738749109099,
                -2.4264165832549276,
                2.663238858419011,
                -0.5678200810094918,
                0.7976256461276556,
                -3.109950299581963
            ]
        },
        {
            "positions": [
                1.4664567593398798,
                -2.4682591460224543,
                2.78126778459717,
                -0.646401232234263,
                0.8260721852895258,
                -3.1631942311487133
            ]
        },
        {
            "positions": [
                1.339563054852904,
                -2.3744181535524618,
                2.7159992712793892,
                -0.6143251972476138,
                0.8064181937089997,
                -3.158779334845892
            ]
        },
        {
            "positions": [
                1.2126693503659283,
                -2.2805771610824688,
                2.650730757961609,
                -0.5822491622609647,
                0.7867642021284735,
                -3.1543644385430705
            ]
        },
        {
            "positions": [
                1.0857756458789525,
                -2.186736168612476,
                2.5854622446438285,
                -0.5501731272743154,
                0.7671102105479475,
                -3.149949542240249
            ]
        },
        {
            "positions": [
                0.9588819413919766,
                -2.092895176142483,
                2.5201937313260476,
                -0.5180970922876662,
                0.7474562189674214,
                -3.1455346459374276
            ]
        },
        {
            "positions": [
                0.8319882369050007,
                -1.9990541836724907,
                2.454925218008267,
                -0.486021057301017,
                0.7278022273868953,
                -3.141119749634606
            ]
        },
        {
            "positions": [
                0.7050945324180249,
                -1.9052131912024979,
                2.3896567046904864,
                -0.45394502231436784,
                0.7081482358063692,
                -3.1367048533317847
            ]
        }
    ]
}