{
    "goal": {
        "global_pose": {
            "orientation": {
                "w": 0.5084816217422485,
                "x": -0.49083608388900757,
                "y": 0.5182115435600281,
                "z": -0.4816462993621826
            },
            "position": {
                "x": 0.5540239810943604,
                "y": 0.030875300988554955,
                "z": 0.16403168439865112
            }
        },
        "name": "move_to_storage_A"
    },
    "id": "LBKPIECE_move_to_storage_A_122",
    "joint_names": [
        "shoulder_pan_joint",
        "shoulder_lift_joint",
        "elbow_joint",
        "wrist_1_joint",
        "wrist_2_joint",
        "wrist_3_joint"
    ],
    "metrics": {
        "cart_traj_len": 0.3532282169671591,
        "distance_elbow_joint": 0.44940257791084015,
        "distance_shoulder_lift_joint": 0.23280167006740315,
        "distance_shoulder_pan_joint": 0.45912814734224844,
        "distance_wrist_1_joint": 0.2465532032790564,
        "distance_wrist_2_joint": 1.1098382328122973,
        "distance_wrist_3_joint": 0.10774684763924336,
        "smoothness": 1.5543122362334363e-15,
        "time": 0.403108476,
        "traj_len": 1.6141470438132608,
        "weighted_distance": 2.0438580700285742
    },
    "planner": "LBKPIECE",
    "start": {
        "state": {
            "elbow_joint": 1.9715463870305268,
            "shoulder_lift_joint": -1.1394903361783484,
            "shoulder_pan_joint": 0.12281147578464417,
            "wrist_1_joint": -0.7804599489681411,
            "wrist_2_joint": 0.12958660307563738,
            "wrist_3_joint": -3.1924946282119055
        }
    },
    "waypoints": [
        {
            "positions": [
                0.12281147578464417,
                -1.1394903361783484,
                1.9715463870305268,
                -0.7804599489681411,
                0.12958660307563738,
                -3.1924946282119055
            ]
        },
        {
            "positions": [
                0.05722174045003725,
                -1.1727477176165488,
                2.035746755303504,
                -0.8156818351508635,
                0.28813492204882274,
                -3.177102221406299
            ]
        },
        {
            "positions": [
                -0.008367994884569671,
                -1.2060050990547493,
                2.0999471235764813,
                -0.8509037213335857,
                0.44668324102200807,
                -3.1617098146006932
            ]
        },
        {
            "positions": [
                -0.07395773021917658,
                -1.2392624804929497,
                2.1641474918494583,
                -0.8861256075163081,
                0.6052315599951934,
                -3.146317407795087
            ]
        },
        {
            "positions": [
                -0.1395474655537835,
                -1.2725198619311502,
                2.2283478601224354,
                -0.9213474936990305,
                0.7637798789683787,
                -3.130925000989481
            ]
        },
        {
            "positions": [
                -0.20513720088839044,
                -1.3057772433693506,
                2.292548228395413,
                -0.9565693798817527,
                0.9223281979415641,
                -3.1155325941838745
            ]
        },
        {
            "positions": [
                -0.2707269362229973,
                -1.339034624807551,
                2.35674859666839,
                -0.9917912660644751,
                1.0808765169147494,
                -3.1001401873782686
            ]
        },
        {
            "positions": [
                -0.33631667155760425,
                -1.3722920062457515,
                2.420948964941367,
                -1.0270131522471975,
                1.2394248358879347,
                -3.084747780572662
            ]
        }
    ]
}