{
    "goal": {
        "global_pose": {
            "orientation": {
                "w": 0.7047431468963623,
                "x": -0.7094548344612122,
                "y": 0.0024358443915843964,
                "z": -0.0022348060738295317
            },
            "position": {
                "x": 0.6094750761985779,
                "y": 0.3671506643295288,
                "z": 0.19426114857196808
            }
        },
        "name": "move_to_magneteinheit_A"
    },
    "id": "LBKPIECE_move_to_magneteinheit_A_58",
    "joint_names": [
        "shoulder_pan_joint",
        "shoulder_lift_joint",
        "elbow_joint",
        "wrist_1_joint",
        "wrist_2_joint",
        "wrist_3_joint"
    ],
    "metrics": {
        "cart_traj_len": 1.8726720530784693,
        "distance_elbow_joint": 3.9270428385285694,
        "distance_shoulder_lift_joint": 0.7053060619990199,
        "distance_shoulder_pan_joint": 1.2414813558953055,
        "distance_wrist_1_joint": 1.5419853905396406,
        "distance_wrist_2_joint": 1.7084379563784353,
        "distance_wrist_3_joint": 1.1778796673446774,
        "smoothness": 5.709718439674967e-16,
        "time": 0.41458084100000003,
        "traj_len": 3.209693641250773,
        "weighted_distance": 3.9885230289285127
    },
    "planner": "LBKPIECE",
    "start": {
        "state": {
            "elbow_joint": -1.919643507792019,
            "shoulder_lift_joint": -0.07675430207160344,
            "shoulder_pan_joint": -1.1188671864651873,
            "wrist_1_joint": 0.42560062535961957,
            "wrist_2_joint": 1.5706038300724876,
            "wrist_3_joint": 1.1188968870953055
        }
    },
    "waypoints": [
        {
            "positions": [
                -1.1188671864651873,
                -0.07675430207160344,
                -1.919643507792019,
                0.42560062535961957,
                1.5706038300724876,
                1.1188968870953055
            ]
        },
        {
            "positions": [
                -1.0728863955061019,
                -0.10287674881230788,
                -1.7741974767354054,
                0.4827111953796063,
                1.5073283502066197,
                1.0752717142306878
            ]
        },
        {
            "positions": [
                -1.0269056045470166,
                -0.1289991955530123,
                -1.6287514456787917,
                0.5398217653995929,
                1.4440528703407516,
                1.0316465413660703
            ]
        },
        {
            "positions": [
                -0.9809248135879312,
                -0.15512164229371678,
                -1.483305414622178,
                0.5969323354195797,
                1.3807773904748837,
                0.9880213685014525
            ]
        },
        {
            "positions": [
                -0.9349440226288458,
                -0.18124408903442119,
                -1.3378593835655646,
                0.6540429054395663,
                1.3175019106090158,
                0.9443961956368349
            ]
        },
        {
            "positions": [
                -0.8889632316697604,
                -0.20736653577512565,
                -1.1924133525089506,
                0.711153475459553,
                1.2542264307431479,
                0.9007710227722172
            ]
        },
        {
            "positions": [
                -0.842982440710675,
                -0.23348898251583008,
                -1.0469673214523372,
                0.7682640454795397,
                1.1909509508772798,
                0.8571458499075995
            ]
        },
        {
            "positions": [
                -0.7970016497515897,
                -0.2596114292565345,
                -0.9015212903957235,
                0.8253746154995263,
                1.1276754710114119,
                0.8135206770429818
            ]
        },
        {
            "positions": [
                -0.7510208587925042,
                -0.285733875997239,
                -0.7560752593391098,
                0.882485185519513,
                1.0643999911455437,
                0.7698955041783642
            ]
        },
        {
            "positions": [
                -0.7050400678334189,
                -0.3118563227379434,
                -0.6106292282824961,
                0.9395957555394998,
                1.0011245112796758,
                0.7262703313137464
            ]
        },
        {
            "positions": [
                -0.6590592768743335,
                -0.33797876947864786,
                -0.4651831972258824,
                0.9967063255594864,
                0.9378490314138079,
                0.6826451584491288
            ]
        },
        {
            "positions": [
                -0.613078485915248,
                -0.36410121621935226,
                -0.3197371661692687,
                1.0538168955794731,
                0.8745735515479399,
                0.6390199855845111
            ]
        },
        {
            "positions": [
                -0.5670976949561627,
                -0.3902236629600567,
                -0.17429113511265504,
                1.1109274655994599,
                0.8112980716820719,
                0.5953948127198934
            ]
        },
        {
            "positions": [
                -0.5211169039970773,
                -0.41634610970076114,
                -0.02884510405604135,
                1.1680380356194464,
                0.748022591816204,
                0.5517696398552757
            ]
        },
        {
            "positions": [
                -0.47513611303799197,
                -0.4424685564414656,
                0.11660092700057212,
                1.2251486056394332,
                0.684747111950336,
                0.5081444669906581
            ]
        },
        {
            "positions": [
                -0.4291553220789065,
                -0.46859100318217006,
                0.26204695805718603,
                1.28225917565942,
                0.621471632084468,
                0.4645192941260403
            ]
        },
        {
            "positions": [
                -0.38317453111982114,
                -0.49471344992287447,
                0.4074929891137995,
                1.3393697456794065,
                0.5581961522186001,
                0.42089412126142267
            ]
        },
        {
            "positions": [
                -0.33719374016073567,
                -0.5208358966635789,
                0.5529390201704134,
                1.3964803156993932,
                0.49492067235273196,
                0.3772689483968049
            ]
        },
        {
            "positions": [
                -0.2912129492016504,
                -0.5469583434042833,
                0.6983850512270269,
                1.45359088571938,
                0.43164519248686406,
                0.33364377553218727
            ]
        },
        {
            "positions": [
                -0.24523215824256495,
                -0.5730807901449878,
                0.8438310822836408,
                1.5107014557393668,
                0.36836971262099616,
                0.2900186026675695
            ]
        },
        {
            "positions": [
                -0.19925136728347959,
                -0.5992032368856923,
                0.9892771133402543,
                1.5678120257593533,
                0.30509423275512826,
                0.24639342980295198
            ]
        },
        {
            "positions": [
                -0.15327057632439411,
                -0.6253256836263967,
                1.1347231443968682,
                1.62492259577934,
                0.24181875288926014,
                0.20276825693833422
            ]
        },
        {
            "positions": [
                -0.10728978536530875,
                -0.6514481303671011,
                1.2801691754534816,
                1.6820331657993266,
                0.17854327302339223,
                0.15914308407371658
            ]
        },
        {
            "positions": [
                -0.06130899440622328,
                -0.6775705771078055,
                1.4256152065100955,
                1.7391437358193134,
                0.11526779315752411,
                0.11551791120909893
            ]
        },
        {
            "positions": [
                -0.015328203447138034,
                -0.70369302384851,
                1.571061237566709,
                1.7962543058393001,
                0.05199231329165621,
                0.07189273834448118
            ]
        },
        {
            "positions": [
                0.030652587511947438,
                -0.7298154705892144,
                1.716507268623323,
                1.8533648758592869,
                -0.01128316657421169,
                0.02826756547986342
            ]
        },
        {
            "positions": [
                0.07663337847103269,
                -0.7559379173299188,
                1.8619532996799364,
                1.9104754458792734,
                -0.07455864644007959,
                -0.015357607384754113
            ]
        },
        {
            "positions": [
                0.1226141694301181,
                -0.7820603640706234,
                2.0073993307365505,
                1.9675860158992602,
                -0.1378341263059477,
                -0.05898278024937182
            ]
        }
    ]
}