{
    "goal": {
        "global_pose": {
            "orientation": {
                "w": -0.00223480608172531,
                "x": 0.0024358444001904467,
                "y": 0.7094548369677653,
                "z": -0.704743149386269
            },
            "position": {
                "x": 0.6205249238014221,
                "y": -0.6371506643295288,
                "z": 0.19426114857196808
            }
        },
        "name": "move_to_magneteinheit_B"
    },
    "id": "LBKPIECE_move_to_magneteinheit_B_52",
    "joint_names": [
        "shoulder_pan_joint",
        "shoulder_lift_joint",
        "elbow_joint",
        "wrist_1_joint",
        "wrist_2_joint",
        "wrist_3_joint"
    ],
    "metrics": {
        "cart_traj_len": 1.4518951802976625,
        "distance_elbow_joint": 0.7271399836182653,
        "distance_shoulder_lift_joint": 1.2461106217443265,
        "distance_shoulder_pan_joint": 1.620326723135916,
        "distance_wrist_1_joint": 2.6114265225493476,
        "distance_wrist_2_joint": 2.9393580303180977,
        "distance_wrist_3_joint": 3.131184254423198,
        "smoothness": 4.440892118007475e-16,
        "time": 0.659491304,
        "traj_len": 3.503647547312536,
        "weighted_distance": 4.908023960567327
    },
    "planner": "LBKPIECE",
    "start": {
        "state": {
            "elbow_joint": 2.39358713078474,
            "shoulder_lift_joint": -1.908514104345545,
            "shoulder_pan_joint": 0.7066247066606129,
            "wrist_1_joint": -0.4678290933515497,
            "wrist_2_joint": 0.7096259083745334,
            "wrist_3_joint": -3.1358149277392293
        }
    },
    "waypoints": [
        {
            "positions": [
                0.7066247066606129,
                -1.908514104345545,
                2.39358713078474,
                -0.4678290933515497,
                0.7096259083745334,
                -3.1358149277392293
            ]
        },
        {
            "positions": [
                0.6543561026884867,
                -1.8683169875150827,
                2.370131002280925,
                -0.3835895281080224,
                0.6148079073965302,
                -3.0348089840481585
            ]
        },
        {
            "positions": [
                0.6020874987163602,
                -1.8281198706846207,
                2.34667487377711,
                -0.299349962864495,
                0.5199899064185272,
                -2.9338030403570876
            ]
        },
        {
            "positions": [
                0.549818894744234,
                -1.7879227538541584,
                2.323218745273295,
                -0.21511039762096767,
                0.42517190544052397,
                -2.8327970966660168
            ]
        },
        {
            "positions": [
                0.49755029077210766,
                -1.7477256370236964,
                2.2997626167694802,
                -0.13087083237744035,
                0.33035390446252083,
                -2.731791152974946
            ]
        },
        {
            "positions": [
                0.44528168679998137,
                -1.7075285201932342,
                2.276306488265665,
                -0.046631267133913024,
                0.2355359034845177,
                -2.630785209283875
            ]
        },
        {
            "positions": [
                0.393013082827855,
                -1.667331403362772,
                2.25285035976185,
                0.03760829810961436,
                0.1407179025065145,
                -2.529779265592804
            ]
        },
        {
            "positions": [
                0.3407444788557287,
                -1.62713428653231,
                2.229394231258035,
                0.12184786335314163,
                0.04589990152851142,
                -2.428773321901733
            ]
        },
        {
            "positions": [
                0.2884758748836024,
                -1.5869371697018477,
                2.20593810275422,
                0.206087428596669,
                -0.04891809944949177,
                -2.327767378210662
            ]
        },
        {
            "positions": [
                0.23620727091147603,
                -1.5467400528713855,
                2.182481974250405,
                0.2903269938401964,
                -0.14373610042749496,
                -2.226761434519591
            ]
        },
        {
            "positions": [
                0.1839386669393498,
                -1.5065429360409235,
                2.15902584574659,
                0.37456655908372366,
                -0.23855410140549804,
                -2.1257554908285203
            ]
        },
        {
            "positions": [
                0.1316700629672234,
                -1.4663458192104613,
                2.135569717242775,
                0.45880612432725115,
                -0.33337210238350135,
                -2.0247495471374495
            ]
        },
        {
            "positions": [
                0.0794014589950971,
                -1.4261487023799992,
                2.11211358873896,
                0.5430456895707785,
                -0.4281901033615044,
                -1.9237436034463786
            ]
        },
        {
            "positions": [
                0.027132855022970692,
                -1.385951585549537,
                2.088657460235145,
                0.6272852548143057,
                -0.5230081043395075,
                -1.8227376597553075
            ]
        },
        {
            "positions": [
                -0.02513574894915549,
                -1.345754468719075,
                2.06520133173133,
                0.711524820057833,
                -0.6178261053175106,
                -1.7217317160642367
            ]
        },
        {
            "positions": [
                -0.0774043529212819,
                -1.3055573518886128,
                2.041745203227515,
                0.7957643853013605,
                -0.7126441062955139,
                -1.6207257723731658
            ]
        },
        {
            "positions": [
                -0.1296729568934082,
                -1.2653602350581505,
                2.0182890747237,
                0.8800039505448878,
                -0.807462107273517,
                -1.519719828682095
            ]
        },
        {
            "positions": [
                -0.18194156086553448,
                -1.2251631182276885,
                1.9948329462198848,
                0.964243515788415,
                -0.90228010825152,
                -1.4187138849910241
            ]
        },
        {
            "positions": [
                -0.23421016483766088,
                -1.184966001397226,
                1.9713768177160698,
                1.0484830810319425,
                -0.9970981092295234,
                -1.317707941299953
            ]
        },
        {
            "positions": [
                -0.2864787688097872,
                -1.1447688845667643,
                1.947920689212255,
                1.1327226462754698,
                -1.0919161102075265,
                -1.2167019976088822
            ]
        },
        {
            "positions": [
                -0.33874737278191336,
                -1.104571767736302,
                1.9244645607084399,
                1.216962211518997,
                -1.1867341111855296,
                -1.1156960539178113
            ]
        },
        {
            "positions": [
                -0.39101597675403965,
                -1.0643746509058398,
                1.901008432204625,
                1.3012017767625244,
                -1.2815521121635327,
                -1.0146901102267405
            ]
        },
        {
            "positions": [
                -0.44328458072616617,
                -1.0241775340753776,
                1.87755230370081,
                1.385441342006052,
                -1.3763701131415362,
                -0.9136841665356696
            ]
        },
        {
            "positions": [
                -0.49555318469829246,
                -0.9839804172449156,
                1.8540961751969949,
                1.4696809072495793,
                -1.4711881141195393,
                -0.8126782228445988
            ]
        },
        {
            "positions": [
                -0.5478217886704188,
                -0.9437833004144535,
                1.8306400466931798,
                1.5539204724931066,
                -1.5660061150975424,
                -0.7116722791535279
            ]
        },
        {
            "positions": [
                -0.600090392642545,
                -0.9035861835839913,
                1.8071839181893647,
                1.6381600377366339,
                -1.6608241160755455,
                -0.6106663354624571
            ]
        },
        {
            "positions": [
                -0.6523589966146716,
                -0.8633890667535291,
                1.7837277896855497,
                1.7223996029801611,
                -1.7556421170535486,
                -0.5096603917713858
            ]
        },
        {
            "positions": [
                -0.7046276005867979,
                -0.8231919499230669,
                1.7602716611817348,
                1.8066391682236884,
                -1.8504601180315516,
                -0.4086544480803149
            ]
        },
        {
            "positions": [
                -0.7568962045589239,
                -0.7829948330926049,
                1.73681553267792,
                1.8908787334672157,
                -1.9452781190095547,
                -0.30764850438924407
            ]
        },
        {
            "positions": [
                -0.8091648085310502,
                -0.7427977162621429,
                1.713359404174105,
                1.975118298710743,
                -2.040096119987558,
                -0.20664256069817366
            ]
        },
        {
            "positions": [
                -0.8614334125031767,
                -0.7026005994316804,
                1.6899032756702899,
                2.0593578639542707,
                -2.1349141209655613,
                -0.10563661700710236
            ]
        },
        {
            "positions": [
                -0.9137020164753031,
                -0.6624034826012185,
                1.6664471471664748,
                2.143597429197798,
                -2.2297321219435644,
                -0.004630673316031662
            ]
        }
    ]
}