{
    "goal": {
        "global_pose": {
            "orientation": {
                "w": -0.00223480608172531,
                "x": 0.0024358444001904467,
                "y": 0.7094548369677653,
                "z": -0.704743149386269
            },
            "position": {
                "x": 0.6205249238014221,
                "y": -0.6371506643295288,
                "z": 0.19426114857196808
            }
        },
        "name": "move_to_magneteinheit_B"
    },
    "id": "LBKPIECE_move_to_magneteinheit_B_107",
    "joint_names": [
        "shoulder_pan_joint",
        "shoulder_lift_joint",
        "elbow_joint",
        "wrist_1_joint",
        "wrist_2_joint",
        "wrist_3_joint"
    ],
    "metrics": {
        "cart_traj_len": 3.8305627255208385,
        "distance_elbow_joint": 4.703114601182891,
        "distance_shoulder_lift_joint": 0.8536582569232762,
        "distance_shoulder_pan_joint": 1.969758658551284,
        "distance_wrist_1_joint": 3.2302455507863757,
        "distance_wrist_2_joint": 1.3149800131794855,
        "distance_wrist_3_joint": 6.292716109956087,
        "smoothness": 0.3619786507947215,
        "time": 0.574354689,
        "traj_len": 4.285379001976301,
        "weighted_distance": 5.9577790303482585
    },
    "planner": "LBKPIECE",
    "start": {
        "state": {
            "elbow_joint": 2.39358713078474,
            "shoulder_lift_joint": -1.908514104345545,
            "shoulder_pan_joint": 0.7066247066606129,
            "wrist_1_joint": -0.4678290933515497,
            "wrist_2_joint": 0.7096259083745334,
            "wrist_3_joint": -3.1358149277392293
        }
    },
    "waypoints": [
        {
            "positions": [
                0.7066247066606129,
                -1.908514104345545,
                2.39358713078474,
                -0.4678290933515497,
                0.7096259083745334,
                -3.1358149277392293
            ]
        },
        {
            "positions": [
                0.7108162380113652,
                -1.9530397384912204,
                2.403540833426024,
                -0.4829947683994865,
                0.7441871419882209,
                -2.9846766989146984
            ]
        },
        {
            "positions": [
                0.7150077693621173,
                -1.9975653726368958,
                2.4134945360673083,
                -0.4981604434474234,
                0.7787483756019085,
                -2.8335384700901676
            ]
        },
        {
            "positions": [
                0.7628450766932955,
                -1.9932364987771347,
                2.402404476906599,
                -0.43258880485210754,
                0.7594977201878369,
                -2.6063251489445802
            ]
        },
        {
            "positions": [
                0.8106823840244737,
                -1.9889076249173738,
                2.391314417745889,
                -0.3670171662567917,
                0.7402470647737653,
                -2.379111827798993
            ]
        },
        {
            "positions": [
                0.8585196913556519,
                -1.9845787510576127,
                2.3802243585851794,
                -0.30144552766147586,
                0.7209964093596938,
                -2.151898506653406
            ]
        },
        {
            "positions": [
                0.9063569986868302,
                -1.9802498771978516,
                2.36913429942447,
                -0.23587388906616003,
                0.7017457539456222,
                -1.9246851855078186
            ]
        },
        {
            "positions": [
                0.9541943060180084,
                -1.9759210033380907,
                2.35804424026376,
                -0.17030225047084413,
                0.6824950985315505,
                -1.6974718643622313
            ]
        },
        {
            "positions": [
                1.0020316133491867,
                -1.9715921294783296,
                2.3469541811030505,
                -0.10473061187552835,
                0.663244443117479,
                -1.4702585432166442
            ]
        },
        {
            "positions": [
                1.0498689206803649,
                -1.9672632556185685,
                2.335864121942341,
                -0.03915897328021245,
                0.6439937877034074,
                -1.2430452220710568
            ]
        },
        {
            "positions": [
                1.097706228011543,
                -1.9629343817588076,
                2.324774062781631,
                0.026412665315103334,
                0.6247431322893359,
                -1.0158319009254697
            ]
        },
        {
            "positions": [
                1.1455435353427212,
                -1.9586055078990465,
                2.3136840036209216,
                0.09198430391041924,
                0.6054924768752643,
                -0.7886185797798821
            ]
        },
        {
            "positions": [
                1.1941833620202296,
                -1.9483077947429874,
                2.164439216202547,
                -0.004029891537717892,
                0.5966381800993386,
                -0.7214281390207352
            ]
        },
        {
            "positions": [
                1.242823188697738,
                -1.9380100815869286,
                2.0151944287841723,
                -0.10004408698585503,
                0.5877838833234128,
                -0.6542376982615883
            ]
        },
        {
            "positions": [
                1.2914630153752462,
                -1.9277123684308695,
                1.8659496413657979,
                -0.1960582824339922,
                0.5789295865474872,
                -0.5870472575024412
            ]
        },
        {
            "positions": [
                1.3401028420527545,
                -1.9174146552748106,
                1.7167048539474234,
                -0.2920724778821293,
                0.5700752897715614,
                -0.5198568167432944
            ]
        },
        {
            "positions": [
                1.3887426687302629,
                -1.9071169421187515,
                1.5674600665290486,
                -0.38808667333026653,
                0.5612209929956357,
                -0.4526663759841474
            ]
        },
        {
            "positions": [
                1.4373824954077712,
                -1.8968192289626926,
                1.4182152791106741,
                -0.48410086877840364,
                0.5523666962197099,
                -0.38547593522500045
            ]
        },
        {
            "positions": [
                1.4860223220852795,
                -1.8865215158066335,
                1.2689704916922995,
                -0.5801150642265408,
                0.5435123994437842,
                -0.31828549446585347
            ]
        },
        {
            "positions": [
                1.5346621487627876,
                -1.8762238026505744,
                1.119725704273925,
                -0.6761292596746779,
                0.5346581026678585,
                -0.2510950537067066
            ]
        },
        {
            "positions": [
                1.583301975440296,
                -1.8659260894945155,
                0.9704809168555504,
                -0.7721434551228151,
                0.5258038058919328,
                -0.18390461294755966
            ]
        },
        {
            "positions": [
                1.6319418021178043,
                -1.8556283763384565,
                0.8212361294371757,
                -0.8681576505709523,
                0.516949509116007,
                -0.11671417218841262
            ]
        },
        {
            "positions": [
                1.6805816287953126,
                -1.8453306631823976,
                0.6719913420188013,
                -0.9641718460190892,
                0.5080952123400813,
                -0.049523731429265694
            ]
        },
        {
            "positions": [
                1.729221455472821,
                -1.8350329500263385,
                0.5227465546004266,
                -1.0601860414672264,
                0.49924091556415556,
                0.017666709329881236
            ]
        },
        {
            "positions": [
                1.777861282150329,
                -1.8247352368702794,
                0.3735017671820522,
                -1.1562002369153634,
                0.49038661878822987,
                0.08485715008902817
            ]
        },
        {
            "positions": [
                1.8265011088278376,
                -1.8144375237142205,
                0.2242569797636773,
                -1.2522144323635007,
                0.4815323220123041,
                0.1520475908481752
            ]
        },
        {
            "positions": [
                1.8751409355053459,
                -1.8041398105581614,
                0.07501219234530287,
                -1.3482286278116378,
                0.47267802523637836,
                0.21923803160732214
            ]
        },
        {
            "positions": [
                1.923780762182854,
                -1.7938420974021025,
                -0.07423259507307156,
                -1.4442428232597748,
                0.46382372846045267,
                0.28642847236646896
            ]
        },
        {
            "positions": [
                1.9724205888603625,
                -1.7835443842460434,
                -0.22347738249144644,
                -1.540257018707912,
                0.4549694316845269,
                0.353618913125616
            ]
        },
        {
            "positions": [
                2.0210604155378706,
                -1.7732466710899843,
                -0.3727221699098209,
                -1.6362712141560494,
                0.4461151349086012,
                0.4208093538847628
            ]
        },
        {
            "positions": [
                2.069700242215379,
                -1.7629489579339255,
                -0.5219669573281953,
                -1.7322854096041864,
                0.43726083813267547,
                0.48799979464390986
            ]
        },
        {
            "positions": [
                2.1183400688928873,
                -1.7526512447778664,
                -0.6712117447465702,
                -1.8282996050523237,
                0.4284065413567497,
                0.5551902354030569
            ]
        },
        {
            "positions": [
                2.1669798955703956,
                -1.7423535316218075,
                -0.8204565321649446,
                -1.9243138005004605,
                0.419552244580824,
                0.6223806761622037
            ]
        },
        {
            "positions": [
                2.215619722247904,
                -1.7320558184657484,
                -0.9697013195833191,
                -2.020327995948598,
                0.4106979478048983,
                0.6895711169213508
            ]
        },
        {
            "positions": [
                2.2642595489254123,
                -1.7217581053096893,
                -1.118946107001694,
                -2.1163421913967353,
                0.40184365102897257,
                0.7567615576804978
            ]
        },
        {
            "positions": [
                2.3128993756029206,
                -1.7114603921536304,
                -1.2681908944200682,
                -2.2123563868448723,
                0.3929893542530468,
                0.8239519984396446
            ]
        },
        {
            "positions": [
                2.310856978631132,
                -1.72139939819721,
                -1.4232867072940552,
                -2.225990381509906,
                0.3312649892588031,
                0.899526733487898
            ]
        },
        {
            "positions": [
                2.308814581659343,
                -1.7313384042407893,
                -1.578382520168042,
                -2.2396243761749393,
                0.2695406242645594,
                0.9751014685361515
            ]
        },
        {
            "positions": [
                2.306772184687554,
                -1.7412774102843689,
                -1.733478333042029,
                -2.2532583708399727,
                0.20781625927031566,
                1.050676203584405
            ]
        },
        {
            "positions": [
                2.3047297877157655,
                -1.7512164163279484,
                -1.888574145916016,
                -2.266892365505006,
                0.14609189427607194,
                1.1262509386326585
            ]
        },
        {
            "positions": [
                2.339063621842758,
                -1.8092612368656407,
                -1.8438438769411367,
                -2.299628097541368,
                0.10486489451862324,
                1.3051221090480436
            ]
        },
        {
            "positions": [
                2.373397455969751,
                -1.8673060574033327,
                -1.7991136079662573,
                -2.33236382957773,
                0.06363789476117453,
                1.483993279463429
            ]
        },
        {
            "positions": [
                2.4077312900967436,
                -1.9253508779410249,
                -1.754383338991378,
                -2.365099561614092,
                0.022410895003725825,
                1.662864449878814
            ]
        },
        {
            "positions": [
                2.442065124223736,
                -1.983395698478717,
                -1.7096530700164987,
                -2.3978352936504534,
                -0.01881610475372289,
                1.8417356202941995
            ]
        },
        {
            "positions": [
                2.4763989583507287,
                -2.041440519016409,
                -1.6649228010416195,
                -2.4305710256868154,
                -0.06004310451117162,
                2.020606790709585
            ]
        },
        {
            "positions": [
                2.5107327924777216,
                -2.0994853395541013,
                -1.6201925320667403,
                -2.4633067577231773,
                -0.10127010426862029,
                2.1994779611249697
            ]
        },
        {
            "positions": [
                2.545066626604714,
                -2.1575301600917935,
                -1.5754622630918609,
                -2.4960424897595392,
                -0.14249710402606902,
                2.378349131540355
            ]
        },
        {
            "positions": [
                2.5738110173129325,
                -2.1656382201444178,
                -1.592468920865072,
                -2.490606824843864,
                -0.22365012060710232,
                2.5729871442094803
            ]
        },
        {
            "positions": [
                2.602555408021151,
                -2.173746280197042,
                -1.6094755786382828,
                -2.4851711599281887,
                -0.30480313718813556,
                2.767625156878606
            ]
        },
        {
            "positions": [
                2.6312997987293687,
                -2.181854340249666,
                -1.626482236411494,
                -2.4797354950125134,
                -0.38595615376916886,
                2.9622631695477315
            ]
        },
        {
            "positions": [
                2.660044189437587,
                -2.1899624003022904,
                -1.643488894184705,
                -2.474299830096838,
                -0.46710917035020216,
                3.1569011822168567
            ]
        }
    ]
}