{
    "goal": {
        "global_pose": {
            "orientation": {
                "w": -0.00223480608172531,
                "x": 0.0024358444001904467,
                "y": 0.7094548369677653,
                "z": -0.704743149386269
            },
            "position": {
                "x": 0.6205249238014221,
                "y": -0.6371506643295288,
                "z": 0.19426114857196808
            }
        },
        "name": "move_to_magneteinheit_B"
    },
    "id": "LBKPIECE_move_to_magneteinheit_B_42",
    "joint_names": [
        "shoulder_pan_joint",
        "shoulder_lift_joint",
        "elbow_joint",
        "wrist_1_joint",
        "wrist_2_joint",
        "wrist_3_joint"
    ],
    "metrics": {
        "cart_traj_len": 1.4529857570816234,
        "distance_elbow_joint": 0.7300432874296376,
        "distance_shoulder_lift_joint": 1.2482135163822479,
        "distance_shoulder_pan_joint": 1.6211102408247544,
        "distance_wrist_1_joint": 2.607043445334946,
        "distance_wrist_2_joint": 2.9339188767715947,
        "distance_wrist_3_joint": 3.130668316957204,
        "smoothness": 4.163336351824667e-16,
        "time": 0.5114825940000001,
        "traj_len": 3.50299838476988,
        "weighted_distance": 4.90645458959128
    },
    "planner": "LBKPIECE",
    "start": {
        "state": {
            "elbow_joint": 2.39358713078474,
            "shoulder_lift_joint": -1.908514104345545,
            "shoulder_pan_joint": 0.7066247066606129,
            "wrist_1_joint": -0.4678290933515497,
            "wrist_2_joint": 0.7096259083745334,
            "wrist_3_joint": -3.1358149277392293
        }
    },
    "waypoints": [
        {
            "positions": [
                0.7066247066606129,
                -1.908514104345545,
                2.39358713078474,
                -0.4678290933515497,
                0.7096259083745334,
                -3.1358149277392293
            ]
        },
        {
            "positions": [
                0.6543308279243305,
                -1.8682491522041822,
                2.370037347319268,
                -0.3837309176955837,
                0.6149833639625465,
                -3.0348256271922227
            ]
        },
        {
            "positions": [
                0.6020369491880482,
                -1.8279842000628193,
                2.346487563853796,
                -0.29963274203961776,
                0.5203408195505596,
                -2.933836326645216
            ]
        },
        {
            "positions": [
                0.5497430704517657,
                -1.7877192479214563,
                2.3229377803883233,
                -0.21553456638365176,
                0.42569827513857267,
                -2.8328470260982095
            ]
        },
        {
            "positions": [
                0.49744919171548335,
                -1.7474542957800936,
                2.2993879969228512,
                -0.13143639072768576,
                0.33105573072658573,
                -2.731857725551203
            ]
        },
        {
            "positions": [
                0.44515531297920097,
                -1.7071893436387309,
                2.275838213457379,
                -0.04733821507171976,
                0.23641318631459884,
                -2.6308684250041963
            ]
        },
        {
            "positions": [
                0.39286143424291853,
                -1.666924391497368,
                2.252288429991907,
                0.03675996058424619,
                0.1417706419026119,
                -2.5298791244571897
            ]
        },
        {
            "positions": [
                0.34056755550663614,
                -1.626659439356005,
                2.228738646526435,
                0.12085813624021219,
                0.047128097490624965,
                -2.4288898239101835
            ]
        },
        {
            "positions": [
                0.28827367677035376,
                -1.5863944872146423,
                2.2051888630609624,
                0.2049563118961782,
                -0.047514446921361975,
                -2.3279005233631764
            ]
        },
        {
            "positions": [
                0.23597979803407132,
                -1.5461295350732793,
                2.1816390795954903,
                0.2890544875521443,
                -0.14215699133334891,
                -2.2269112228161703
            ]
        },
        {
            "positions": [
                0.183685919297789,
                -1.5058645829319166,
                2.158089296130018,
                0.3731526632081102,
                -0.23679953574533574,
                -2.125921922269163
            ]
        },
        {
            "positions": [
                0.13139204056150655,
                -1.4655996307905537,
                2.134539512664546,
                0.4572508388640763,
                -0.3314420801573229,
                -2.024932621722157
            ]
        },
        {
            "positions": [
                0.07909816182522411,
                -1.425334678649191,
                2.110989729199074,
                0.5413490145200421,
                -0.4260846245693096,
                -1.9239433211751504
            ]
        },
        {
            "positions": [
                0.02680428308894167,
                -1.385069726507828,
                2.0874399457336015,
                0.6254471901760084,
                -0.5207271689812966,
                -1.8229540206281436
            ]
        },
        {
            "positions": [
                -0.025489595647340657,
                -1.3448047743664653,
                2.0638901622681294,
                0.7095453658319741,
                -0.6153697133932835,
                -1.7219647200811372
            ]
        },
        {
            "positions": [
                -0.0777834743836231,
                -1.3045398222251023,
                2.0403403788026573,
                0.7936435414879404,
                -0.7100122578052704,
                -1.6209754195341306
            ]
        },
        {
            "positions": [
                -0.13007735311990543,
                -1.2642748700837396,
                2.016790595337185,
                0.8777417171439061,
                -0.8046548022172574,
                -1.519986118987124
            ]
        },
        {
            "positions": [
                -0.18237123185618775,
                -1.224009917942377,
                1.993240811871713,
                0.9618398927998721,
                -0.8992973466292441,
                -1.4189968184401176
            ]
        },
        {
            "positions": [
                -0.2346651105924703,
                -1.1837449658010137,
                1.9696910284062408,
                1.0459380684558384,
                -0.9939398910412313,
                -1.3180075178931108
            ]
        },
        {
            "positions": [
                -0.28695898932875263,
                -1.143480013659651,
                1.9461412449407685,
                1.1300362441118044,
                -1.088582435453218,
                -1.2170182173461042
            ]
        },
        {
            "positions": [
                -0.33925286806503496,
                -1.1032150615182883,
                1.9225914614752964,
                1.2141344197677701,
                -1.183224979865205,
                -1.1160289167990975
            ]
        },
        {
            "positions": [
                -0.3915467468013173,
                -1.0629501093769256,
                1.8990416780098243,
                1.2982325954237361,
                -1.277867524277192,
                -1.0150396162520914
            ]
        },
        {
            "positions": [
                -0.44384062553759984,
                -1.0226851572355624,
                1.8754918945443522,
                1.3823307710797024,
                -1.3725100686891794,
                -0.9140503157050843
            ]
        },
        {
            "positions": [
                -0.49613450427388217,
                -0.9824202050941997,
                1.8519421110788798,
                1.4664289467356681,
                -1.4671526131011658,
                -0.8130610151580777
            ]
        },
        {
            "positions": [
                -0.5484283830101647,
                -0.9421552529528369,
                1.8283923276134078,
                1.550527122391634,
                -1.5617951575131528,
                -0.7120717146110715
            ]
        },
        {
            "positions": [
                -0.600722261746447,
                -0.901890300811474,
                1.8048425441479354,
                1.6346252980476002,
                -1.6564377019251397,
                -0.6110824140640649
            ]
        },
        {
            "positions": [
                -0.6530161404827296,
                -0.8616253486701111,
                1.7812927606824633,
                1.7187234737035664,
                -1.7510802463371267,
                -0.5100931135170579
            ]
        },
        {
            "positions": [
                -0.7053100192190119,
                -0.8213603965287484,
                1.7577429772169912,
                1.8028216493595322,
                -1.8457227907491136,
                -0.4091038129700517
            ]
        },
        {
            "positions": [
                -0.7576038979552943,
                -0.7810954443873857,
                1.734193193751519,
                1.886919825015498,
                -1.9403653351611005,
                -0.3081145124230451
            ]
        },
        {
            "positions": [
                -0.8098977766915766,
                -0.7408304922460227,
                1.7106434102860468,
                1.9710180006714642,
                -2.0350078795730875,
                -0.2071252118760385
            ]
        },
        {
            "positions": [
                -0.8621916554278591,
                -0.7005655401046598,
                1.6870936268205745,
                2.0551161763274304,
                -2.1296504239850744,
                -0.10613591132903188
            ]
        },
        {
            "positions": [
                -0.9144855341641415,
                -0.660300587963297,
                1.6635438433551024,
                2.139214351983396,
                -2.2242929683970614,
                -0.005146610782025293
            ]
        }
    ]
}