{
    "goal": {
        "global_pose": {
            "orientation": {
                "w": 0.7047431468963623,
                "x": -0.7094548344612122,
                "y": 0.0024358443915843964,
                "z": -0.0022348060738295317
            },
            "position": {
                "x": 0.6094750761985779,
                "y": 0.3671506643295288,
                "z": 0.19426114857196808
            }
        },
        "name": "move_to_magneteinheit_A"
    },
    "id": "LBKPIECE_move_to_magneteinheit_A_59",
    "joint_names": [
        "shoulder_pan_joint",
        "shoulder_lift_joint",
        "elbow_joint",
        "wrist_1_joint",
        "wrist_2_joint",
        "wrist_3_joint"
    ],
    "metrics": {
        "cart_traj_len": 1.8790397537883914,
        "distance_elbow_joint": 3.9063934541732435,
        "distance_shoulder_lift_joint": 0.698278349425356,
        "distance_shoulder_pan_joint": 1.2418131449937144,
        "distance_wrist_1_joint": 1.4874599414864753,
        "distance_wrist_2_joint": 1.6921120983461857,
        "distance_wrist_3_joint": 1.0974126441048633,
        "smoothness": 5.921189492996263e-16,
        "time": 0.375215849,
        "traj_len": 3.181740032204051,
        "weighted_distance": 3.936733031407163
    },
    "planner": "LBKPIECE",
    "start": {
        "state": {
            "elbow_joint": -1.919643507792019,
            "shoulder_lift_joint": -0.07675430207160344,
            "shoulder_pan_joint": -1.1188671864651873,
            "wrist_1_joint": 0.42560062535961957,
            "wrist_2_joint": 1.5706038300724876,
            "wrist_3_joint": 1.1188968870953055
        }
    },
    "waypoints": [
        {
            "positions": [
                -1.1188671864651873,
                -0.07675430207160344,
                -1.919643507792019,
                0.42560062535961957,
                1.5706038300724876,
                1.1188968870953055
            ]
        },
        {
            "positions": [
                -1.0711051424269675,
                -0.10361116166488638,
                -1.7693976057084329,
                0.4828106231090994,
                1.5055225955207112,
                1.0766887084758878
            ]
        },
        {
            "positions": [
                -1.0233430983887477,
                -0.1304680212581693,
                -1.6191517036248464,
                0.5400206208585792,
                1.4404413609689348,
                1.0344805298564699
            ]
        },
        {
            "positions": [
                -0.975581054350528,
                -0.15732488085145224,
                -1.4689058015412602,
                0.597230618608059,
                1.3753601264171584,
                0.9922723512370522
            ]
        },
        {
            "positions": [
                -0.9278190103123082,
                -0.18418174044473518,
                -1.318659899457674,
                0.6544406163575389,
                1.310278891865382,
                0.9500641726176342
            ]
        },
        {
            "positions": [
                -0.8800569662740885,
                -0.21103860003801808,
                -1.1684139973740875,
                0.7116506141070187,
                1.2451976573136057,
                0.9078559939982165
            ]
        },
        {
            "positions": [
                -0.8322949222358687,
                -0.23789545963130102,
                -1.0181680952905015,
                0.7688606118564985,
                1.1801164227618293,
                0.8656478153787986
            ]
        },
        {
            "positions": [
                -0.7845328781976488,
                -0.264752319224584,
                -0.8679221932069152,
                0.8260706096059782,
                1.115035188210053,
                0.8234396367593808
            ]
        },
        {
            "positions": [
                -0.736770834159429,
                -0.29160917881786685,
                -0.7176762911233288,
                0.8832806073554582,
                1.0499539536582767,
                0.781231458139963
            ]
        },
        {
            "positions": [
                -0.6890087901212093,
                -0.3184660384111498,
                -0.5674303890397425,
                0.940490605104938,
                0.9848727191065003,
                0.7390232795205451
            ]
        },
        {
            "positions": [
                -0.6412467460829895,
                -0.3453228980044327,
                -0.41718448695615606,
                0.9977006028544178,
                0.9197914845547238,
                0.6968151009011274
            ]
        },
        {
            "positions": [
                -0.5934847020447697,
                -0.37217975759771565,
                -0.26693858487257005,
                1.0549106006038975,
                0.8547102500029475,
                0.6546069222817095
            ]
        },
        {
            "positions": [
                -0.5457226580065498,
                -0.3990366171909986,
                -0.11669268278898359,
                1.1121205983533775,
                0.789629015451171,
                0.6123987436622917
            ]
        },
        {
            "positions": [
                -0.49796061396833013,
                -0.4258934767842815,
                0.03355321929460264,
                1.1693305961028573,
                0.7245477808993948,
                0.5701905650428739
            ]
        },
        {
            "positions": [
                -0.4501985699301104,
                -0.45275033637756446,
                0.18379912137818866,
                1.226540593852337,
                0.6594665463476185,
                0.5279823864234561
            ]
        },
        {
            "positions": [
                -0.4024365258918906,
                -0.47960719597084733,
                0.3340450234617751,
                1.2837505916018168,
                0.5943853117958421,
                0.48577420780403835
            ]
        },
        {
            "positions": [
                -0.3546744818536708,
                -0.5064640555641303,
                0.4842909255453616,
                1.3409605893512968,
                0.5293040772440656,
                0.4435660291846204
            ]
        },
        {
            "positions": [
                -0.30691243781545097,
                -0.5333209151574132,
                0.634536827628948,
                1.3981705871007766,
                0.4642228426922892,
                0.4013578505652027
            ]
        },
        {
            "positions": [
                -0.25915039377723126,
                -0.5601777747506962,
                0.784782729712534,
                1.4553805848502563,
                0.399141608140513,
                0.35914967194578484
            ]
        },
        {
            "positions": [
                -0.21138834973901144,
                -0.5870346343439792,
                0.9350286317961201,
                1.5125905825997361,
                0.33406037358873664,
                0.316941493326367
            ]
        },
        {
            "positions": [
                -0.16362630570079162,
                -0.613891493937262,
                1.085274533879707,
                1.569800580349216,
                0.26897913903696,
                0.27473331470694917
            ]
        },
        {
            "positions": [
                -0.1158642616625718,
                -0.6407483535305449,
                1.235520435963293,
                1.6270105780986959,
                0.20389790448518363,
                0.23252513608753134
            ]
        },
        {
            "positions": [
                -0.06810221762435198,
                -0.6676052131238279,
                1.385766338046879,
                1.6842205758481756,
                0.13881666993340747,
                0.1903169574681135
            ]
        },
        {
            "positions": [
                -0.020340173586132382,
                -0.6944620727171107,
                1.5360122401304654,
                1.7414305735976554,
                0.07373543538163108,
                0.14810877884869578
            ]
        },
        {
            "positions": [
                0.02742187045208766,
                -0.7213189323103937,
                1.686258142214052,
                1.7986405713471354,
                0.008654200829854464,
                0.10590060022927794
            ]
        },
        {
            "positions": [
                0.07518391449030726,
                -0.7481757919036767,
                1.8365040442976384,
                1.8558505690966152,
                -0.056427033721921704,
                0.06369242160986
            ]
        },
        {
            "positions": [
                0.12294595852852702,
                -0.7750326514969595,
                1.9867499463812244,
                1.913060566846095,
                -0.12150826827369812,
                0.0214842429904422
            ]
        }
    ]
}