{
    "goal": {
        "global_pose": {
            "orientation": {
                "w": 0.5084816217422485,
                "x": -0.49083608388900757,
                "y": 0.5182115435600281,
                "z": -0.4816462993621826
            },
            "position": {
                "x": 0.5540239810943604,
                "y": 0.030875300988554955,
                "z": 0.16403168439865112
            }
        },
        "name": "move_to_storage_A"
    },
    "id": "LBKPIECE_move_to_storage_A_114",
    "joint_names": [
        "shoulder_pan_joint",
        "shoulder_lift_joint",
        "elbow_joint",
        "wrist_1_joint",
        "wrist_2_joint",
        "wrist_3_joint"
    ],
    "metrics": {
        "cart_traj_len": 0.3537920815376529,
        "distance_elbow_joint": 0.4485617118330416,
        "distance_shoulder_lift_joint": 0.23412342315773893,
        "distance_shoulder_pan_joint": 0.4643523903973953,
        "distance_wrist_1_joint": 0.2375001575134611,
        "distance_wrist_2_joint": 1.0924204409821412,
        "distance_wrist_3_joint": 0.0869143088540687,
        "smoothness": 1.7763568394002505e-15,
        "time": 0.542666491,
        "traj_len": 1.6012096779428504,
        "weighted_distance": 2.016834561619169
    },
    "planner": "LBKPIECE",
    "start": {
        "state": {
            "elbow_joint": 1.9715463870305268,
            "shoulder_lift_joint": -1.1394903361783484,
            "shoulder_pan_joint": 0.12281147578464417,
            "wrist_1_joint": -0.7804599489681411,
            "wrist_2_joint": 0.12958660307563738,
            "wrist_3_joint": -3.1924946282119055
        }
    },
    "waypoints": [
        {
            "positions": [
                0.12281147578464417,
                -1.1394903361783484,
                1.9715463870305268,
                -0.7804599489681411,
                0.12958660307563738,
                -3.1924946282119055
            ]
        },
        {
            "positions": [
                0.05647542001358771,
                -1.1729365394865967,
                2.035626631578104,
                -0.8143885428986355,
                0.2856466660730861,
                -3.18007829837561
            ]
        },
        {
            "positions": [
                -0.009860635757468747,
                -1.2063827427948453,
                2.0997068761256816,
                -0.84831713682913,
                0.4417067290705349,
                -3.1676619685393144
            ]
        },
        {
            "positions": [
                -0.07619669152852522,
                -1.2398289461030936,
                2.163787120673259,
                -0.8822457307596244,
                0.5977667920679836,
                -3.1552456387030188
            ]
        },
        {
            "positions": [
                -0.14253274729958165,
                -1.2732751494113421,
                2.227867365220836,
                -0.9161743246901188,
                0.7538268550654323,
                -3.1428293088667236
            ]
        },
        {
            "positions": [
                -0.20886880307063815,
                -1.3067213527195904,
                2.2919476097684135,
                -0.9501029186206134,
                0.9098869180628811,
                -3.130412979030428
            ]
        },
        {
            "positions": [
                -0.2752048588416946,
                -1.340167556027839,
                2.356027854315991,
                -0.9840315125511077,
                1.0659469810603297,
                -3.1179966491941324
            ]
        },
        {
            "positions": [
                -0.3415409146127511,
                -1.3736137593360873,
                2.4201080988635684,
                -1.0179601064816022,
                1.2220070440577786,
                -3.105580319357837
            ]
        }
    ]
}