{
    "goal": {
        "global_pose": {
            "orientation": {
                "w": 0.7047431468963623,
                "x": -0.7094548344612122,
                "y": 0.0024358443915843964,
                "z": -0.0022348060738295317
            },
            "position": {
                "x": 0.6094750761985779,
                "y": 0.3671506643295288,
                "z": 0.19426114857196808
            }
        },
        "name": "move_to_magneteinheit_A"
    },
    "id": "LBKPIECE_move_to_magneteinheit_A_150",
    "joint_names": [
        "shoulder_pan_joint",
        "shoulder_lift_joint",
        "elbow_joint",
        "wrist_1_joint",
        "wrist_2_joint",
        "wrist_3_joint"
    ],
    "metrics": {
        "cart_traj_len": 2.0662489137806443,
        "distance_elbow_joint": 3.8853543605834786,
        "distance_shoulder_lift_joint": 1.0596660179715178,
        "distance_shoulder_pan_joint": 1.2421664699935633,
        "distance_wrist_1_joint": 1.1734213906706017,
        "distance_wrist_2_joint": 1.4337499275304464,
        "distance_wrist_3_joint": 1.9353199206433906,
        "smoothness": 5.512831580310795e-16,
        "time": 0.226193799,
        "traj_len": 3.2756187335208895,
        "weighted_distance": 4.148191081288425
    },
    "planner": "LBKPIECE",
    "start": {
        "state": {
            "elbow_joint": -1.919643507792019,
            "shoulder_lift_joint": -0.07675430207160344,
            "shoulder_pan_joint": -1.1188671864651873,
            "wrist_1_joint": 0.42560062535961957,
            "wrist_2_joint": 1.5706038300724876,
            "wrist_3_joint": 1.1188968870953055
        }
    },
    "waypoints": [
        {
            "positions": [
                -1.1188671864651873,
                -0.07675430207160344,
                -1.919643507792019,
                0.42560062535961957,
                1.5706038300724876,
                1.1188968870953055
            ]
        },
        {
            "positions": [
                -1.0745040982511316,
                -0.11459951699915766,
                -1.7808808520568948,
                0.38369271854995524,
                1.519398475517829,
                1.1880154556897125
            ]
        },
        {
            "positions": [
                -1.0301410100370756,
                -0.15244473192671187,
                -1.6421181963217706,
                0.34178481174029085,
                1.46819312096317,
                1.2571340242841191
            ]
        },
        {
            "positions": [
                -0.9857779218230198,
                -0.19028994685426606,
                -1.5033555405866463,
                0.2998769049306266,
                1.416987766408511,
                1.326252592878526
            ]
        },
        {
            "positions": [
                -0.941414833608964,
                -0.22813516178182028,
                -1.3645928848515223,
                0.2579689981209622,
                1.3657824118538524,
                1.3953711614729327
            ]
        },
        {
            "positions": [
                -0.8970517453949082,
                -0.26598037670937447,
                -1.225830229116398,
                0.21606109131129783,
                1.3145770572991937,
                1.4644897300673396
            ]
        },
        {
            "positions": [
                -0.8526886571808523,
                -0.3038255916369287,
                -1.0870675733812738,
                0.17415318450163353,
                1.2633717027445348,
                1.5336082986617463
            ]
        },
        {
            "positions": [
                -0.8083255689667965,
                -0.3416708065644829,
                -0.9483049176461494,
                0.13224527769196914,
                1.212166348189876,
                1.6027268672561532
            ]
        },
        {
            "positions": [
                -0.7639624807527408,
                -0.3795160214920371,
                -0.8095422619110253,
                0.09033737088230481,
                1.1609609936352172,
                1.67184543585056
            ]
        },
        {
            "positions": [
                -0.7195993925386848,
                -0.41736123641959133,
                -0.6707796061759008,
                0.04842946407264043,
                1.1097556390805583,
                1.740964004444967
            ]
        },
        {
            "positions": [
                -0.675236304324629,
                -0.45520645134714555,
                -0.5320169504407768,
                0.0065215572629760965,
                1.0585502845258996,
                1.8100825730393737
            ]
        },
        {
            "positions": [
                -0.6308732161105732,
                -0.4930516662746997,
                -0.39325429470565254,
                -0.035386349546688234,
                1.0073449299712407,
                1.8792011416337804
            ]
        },
        {
            "positions": [
                -0.5865101278965174,
                -0.5308968812022539,
                -0.2544916389705283,
                -0.07729425635635251,
                0.956139575416582,
                1.948319710228187
            ]
        },
        {
            "positions": [
                -0.5421470396824615,
                -0.5687420961298082,
                -0.11572898323540404,
                -0.119202163166017,
                0.9049342208619232,
                2.017438278822594
            ]
        },
        {
            "positions": [
                -0.4977839514684057,
                -0.6065873110573623,
                0.023033672499720215,
                -0.16111006997568128,
                0.8537288663072644,
                2.086556847417001
            ]
        },
        {
            "positions": [
                -0.45342086325434994,
                -0.6444325259849166,
                0.16179632823484424,
                -0.20301797678534556,
                0.8025235117526056,
                2.1556754160114076
            ]
        },
        {
            "positions": [
                -0.40905777504029406,
                -0.6822777409124707,
                0.3005589839699685,
                -0.24492588359500994,
                0.7513181571979468,
                2.2247939846058147
            ]
        },
        {
            "positions": [
                -0.3646946868262383,
                -0.7201229558400248,
                0.43932163970509275,
                -0.2868337904046742,
                0.7001128026432881,
                2.2939125532002214
            ]
        },
        {
            "positions": [
                -0.3203315986121823,
                -0.7579681707675792,
                0.5780842954402174,
                -0.3287416972143387,
                0.6489074480886291,
                2.363031121794628
            ]
        },
        {
            "positions": [
                -0.27596851039812653,
                -0.7958133856951335,
                0.7168469511753417,
                -0.3706496040240031,
                0.5977020935339704,
                2.4321496903890347
            ]
        },
        {
            "positions": [
                -0.23160542218407065,
                -0.8336586006226876,
                0.8556096069104655,
                -0.4125575108336674,
                0.5464967389793116,
                2.501268258983442
            ]
        },
        {
            "positions": [
                -0.18724233397001488,
                -0.8715038155502419,
                0.9943722626455898,
                -0.45446541764333165,
                0.4952913844246527,
                2.5703868275778485
            ]
        },
        {
            "positions": [
                -0.14287924575595912,
                -0.909349030477796,
                1.133134918380714,
                -0.49637332445299603,
                0.444086029869994,
                2.639505396172255
            ]
        },
        {
            "positions": [
                -0.09851615754190335,
                -0.9471942454053501,
                1.2718975741158383,
                -0.5382812312626604,
                0.3928806753153353,
                2.7086239647666623
            ]
        },
        {
            "positions": [
                -0.05415306932784736,
                -0.9850394603329045,
                1.4106602298509625,
                -0.5801891380723245,
                0.3416753207606764,
                2.777742533361069
            ]
        },
        {
            "positions": [
                -0.00978998111379159,
                -1.0228846752604588,
                1.5494228855860872,
                -0.6220970448819891,
                0.2904699662060175,
                2.8468611019554757
            ]
        },
        {
            "positions": [
                0.0345731071002644,
                -1.060729890188013,
                1.688185541321211,
                -0.6640049516916535,
                0.23926461165135882,
                2.9159796705498824
            ]
        },
        {
            "positions": [
                0.07893619531432017,
                -1.0985751051155672,
                1.8269481970563353,
                -0.7059128585013177,
                0.1880592570966999,
                2.9850982391442895
            ]
        },
        {
            "positions": [
                0.12329928352837591,
                -1.1364203200431213,
                1.9657108527914595,
                -0.7478207653109821,
                0.13685390254204133,
                3.054216807738696
            ]
        }
    ]
}