{
    "goal": {
        "global_pose": {
            "orientation": {
                "w": 0.5084816217422485,
                "x": -0.49083608388900757,
                "y": 0.5182115435600281,
                "z": -0.4816462993621826
            },
            "position": {
                "x": 0.5540239810943604,
                "y": 0.030875300988554955,
                "z": 0.16403168439865112
            }
        },
        "name": "move_to_storage_A"
    },
    "id": "LBKPIECE_move_to_storage_A_67",
    "joint_names": [
        "shoulder_pan_joint",
        "shoulder_lift_joint",
        "elbow_joint",
        "wrist_1_joint",
        "wrist_2_joint",
        "wrist_3_joint"
    ],
    "metrics": {
        "cart_traj_len": 0.3523700828483702,
        "distance_elbow_joint": 0.4490289637017373,
        "distance_shoulder_lift_joint": 0.23536432557456766,
        "distance_shoulder_pan_joint": 0.4594537450934631,
        "distance_wrist_1_joint": 0.23890968445973015,
        "distance_wrist_2_joint": 1.1034256660514854,
        "distance_wrist_3_joint": 0.1040653905257023,
        "smoothness": 2.2204460668324854e-16,
        "time": 0.131817384,
        "traj_len": 1.6094246721753354,
        "weighted_distance": 2.0348744204420344
    },
    "planner": "LBKPIECE",
    "start": {
        "state": {
            "elbow_joint": 1.9715463870305268,
            "shoulder_lift_joint": -1.1394903361783484,
            "shoulder_pan_joint": 0.12281147578464417,
            "wrist_1_joint": -0.7804599489681411,
            "wrist_2_joint": 0.12958660307563738,
            "wrist_3_joint": -3.1924946282119055
        }
    },
    "waypoints": [
        {
            "positions": [
                0.12281147578464417,
                -1.1394903361783484,
                1.9715463870305268,
                -0.7804599489681411,
                0.12958660307563738,
                -3.1924946282119055
            ]
        },
        {
            "positions": [
                0.05717522648557802,
                -1.1731138112604296,
                2.0356933818450607,
                -0.8145899038909596,
                0.28721884108299245,
                -3.177628143851091
            ]
        },
        {
            "positions": [
                -0.008461022813488137,
                -1.2067372863425105,
                2.0998403766595946,
                -0.8487198588137783,
                0.4448510790903475,
                -3.1627616594902763
            ]
        },
        {
            "positions": [
                -0.07409727211255428,
                -1.2403607614245917,
                2.1639873714741285,
                -0.8828498137365969,
                0.6024833170977025,
                -3.1478951751294617
            ]
        },
        {
            "positions": [
                -0.13973352141162043,
                -1.2739842365066727,
                2.2281343662886623,
                -0.9169797686594154,
                0.7601155551050576,
                -3.133028690768647
            ]
        },
        {
            "positions": [
                -0.20536977071068663,
                -1.3076077115887539,
                2.2922813611031962,
                -0.9511097235822341,
                0.9177477931124127,
                -3.1181622064078325
            ]
        },
        {
            "positions": [
                -0.2710060200097527,
                -1.3412311866708349,
                2.35642835591773,
                -0.9852396785050526,
                1.0753800311197677,
                -3.103295722047018
            ]
        },
        {
            "positions": [
                -0.3366422693088189,
                -1.374854661752916,
                2.420575350732264,
                -1.0193696334278712,
                1.2330122691271228,
                -3.0884292376862033
            ]
        }
    ]
}