{
    "goal": {
        "global_pose": {
            "orientation": {
                "w": 0.7047431468963623,
                "x": -0.7094548344612122,
                "y": 0.0024358443915843964,
                "z": -0.0022348060738295317
            },
            "position": {
                "x": 0.6094750761985779,
                "y": 0.3671506643295288,
                "z": 0.19426114857196808
            }
        },
        "name": "move_to_magneteinheit_A"
    },
    "id": "LBKPIECE_move_to_magneteinheit_A_64",
    "joint_names": [
        "shoulder_pan_joint",
        "shoulder_lift_joint",
        "elbow_joint",
        "wrist_1_joint",
        "wrist_2_joint",
        "wrist_3_joint"
    ],
    "metrics": {
        "cart_traj_len": 2.059373229954364,
        "distance_elbow_joint": 3.8783996914816816,
        "distance_shoulder_lift_joint": 1.0558804260776917,
        "distance_shoulder_pan_joint": 1.2412608207940872,
        "distance_wrist_1_joint": 1.135255212472585,
        "distance_wrist_2_joint": 1.4310422958689293,
        "distance_wrist_3_joint": 4.37568050519222,
        "smoothness": 3.8064789502396956e-16,
        "time": 0.473171503,
        "traj_len": 3.621811556650511,
        "weighted_distance": 4.943195067020231
    },
    "planner": "LBKPIECE",
    "start": {
        "state": {
            "elbow_joint": -1.919643507792019,
            "shoulder_lift_joint": -0.07675430207160344,
            "shoulder_pan_joint": -1.1188671864651873,
            "wrist_1_joint": 0.42560062535961957,
            "wrist_2_joint": 1.5706038300724876,
            "wrist_3_joint": 1.1188968870953055
        }
    },
    "waypoints": [
        {
            "positions": [
                -1.1188671864651873,
                -0.07675430207160344,
                -1.919643507792019,
                0.42560062535961957,
                1.5706038300724876,
                1.1188968870953055
            ]
        },
        {
            "positions": [
                -1.0817344579832457,
                -0.1086499969381747,
                -1.8029162872789317,
                0.3917629112699533,
                1.5272441296199208,
                0.9868579679951333
            ]
        },
        {
            "positions": [
                -1.0446017295013041,
                -0.14054569180474596,
                -1.6861890667658443,
                0.357925197180287,
                1.483884429167354,
                0.854819048894961
            ]
        },
        {
            "positions": [
                -1.0074690010193625,
                -0.17244138667131725,
                -1.5694618462527568,
                0.3240874830906207,
                1.4405247287147875,
                0.7227801297947887
            ]
        },
        {
            "positions": [
                -0.970336272537421,
                -0.20433708153788852,
                -1.4527346257396694,
                0.29024976900095434,
                1.3971650282622208,
                0.5907412106946165
            ]
        },
        {
            "positions": [
                -0.9332035440554795,
                -0.23623277640445978,
                -1.336007405226582,
                0.25641205491128805,
                1.353805327809654,
                0.4587022915944442
            ]
        },
        {
            "positions": [
                -0.896070815573538,
                -0.268128471271031,
                -1.2192801847134946,
                0.22257434082162178,
                1.3104456273570873,
                0.3266633724942719
            ]
        },
        {
            "positions": [
                -0.8589380870915964,
                -0.3000241661376023,
                -1.1025529642004073,
                0.1887366267319555,
                1.2670859269045205,
                0.19462445339409962
            ]
        },
        {
            "positions": [
                -0.8218053586096548,
                -0.3319198610041736,
                -0.9858257436873199,
                0.15489891264228917,
                1.2237262264519537,
                0.06258553429392744
            ]
        },
        {
            "positions": [
                -0.7846726301277132,
                -0.3638155558707448,
                -0.8690985231742325,
                0.12106119855262293,
                1.1803665259993872,
                -0.06945338480624486
            ]
        },
        {
            "positions": [
                -0.7475399016457716,
                -0.3957112507373161,
                -0.7523713026611452,
                0.08722348446295658,
                1.1370068255468204,
                -0.20149230390641715
            ]
        },
        {
            "positions": [
                -0.7104071731638301,
                -0.42760694560388735,
                -0.6356440821480578,
                0.05338577037329034,
                1.0936471250942537,
                -0.33353122300658944
            ]
        },
        {
            "positions": [
                -0.6732744446818885,
                -0.45950264047045863,
                -0.5189168616349702,
                0.019548056283623994,
                1.050287424641687,
                -0.46557014210676173
            ]
        },
        {
            "positions": [
                -0.636141716199947,
                -0.49139833533702987,
                -0.40218964112188305,
                -0.014289657806042244,
                1.0069277241891204,
                -0.5976090612069338
            ]
        },
        {
            "positions": [
                -0.5990089877180053,
                -0.5232940302036011,
                -0.28546242060879545,
                -0.04812737189570859,
                0.9635680237365535,
                -0.7296479803071063
            ]
        },
        {
            "positions": [
                -0.5618762592360638,
                -0.5551897250701724,
                -0.16873520009570808,
                -0.08196508598537483,
                0.9202083232839868,
                -0.8616868994072784
            ]
        },
        {
            "positions": [
                -0.5247435307541222,
                -0.5870854199367437,
                -0.05200797958262071,
                -0.11580280007504123,
                0.8768486228314201,
                -0.9937258185074507
            ]
        },
        {
            "positions": [
                -0.48761080227218057,
                -0.6189811148033149,
                0.06471924093046666,
                -0.14964051416470742,
                0.8334889223788533,
                -1.1257647376076232
            ]
        },
        {
            "positions": [
                -0.4504780737902391,
                -0.6508768096698863,
                0.18144646144355403,
                -0.1834782282543737,
                0.7901292219262867,
                -1.2578036567077953
            ]
        },
        {
            "positions": [
                -0.41334534530829736,
                -0.6827725045364574,
                0.29817368195664185,
                -0.21731594234404011,
                0.7467695214737198,
                -1.3898425758079678
            ]
        },
        {
            "positions": [
                -0.3762126168263559,
                -0.7146681994030288,
                0.41490090246972877,
                -0.2511536564337064,
                0.7034098210211531,
                -1.5218814949081398
            ]
        },
        {
            "positions": [
                -0.33907988834441427,
                -0.7465638942696,
                0.5316281229828161,
                -0.2849913705233727,
                0.6600501205685865,
                -1.653920414008312
            ]
        },
        {
            "positions": [
                -0.3019471598624728,
                -0.7784595891361712,
                0.6483553434959035,
                -0.3188290846130389,
                0.6166904201160197,
                -1.7859593331084844
            ]
        },
        {
            "positions": [
                -0.26481443138053107,
                -0.8103552840027426,
                0.7650825640089913,
                -0.3526667987027053,
                0.573330719663453,
                -1.917998252208657
            ]
        },
        {
            "positions": [
                -0.22768170289858958,
                -0.8422509788693138,
                0.8818097845220787,
                -0.3865045127923716,
                0.5299710192108862,
                -2.050037171308829
            ]
        },
        {
            "positions": [
                -0.19054897441664798,
                -0.8741466737358852,
                0.9985370050351656,
                -0.4203422268820379,
                0.48661131875831964,
                -2.182076090409001
            ]
        },
        {
            "positions": [
                -0.15341624593470649,
                -0.9060423686024563,
                1.115264225548253,
                -0.45417994097170405,
                0.4432516183057529,
                -2.314115009509173
            ]
        },
        {
            "positions": [
                -0.11628351745276477,
                -0.9379380634690277,
                1.2319914460613408,
                -0.48801765506137046,
                0.3998919178531861,
                -2.446153928609346
            ]
        },
        {
            "positions": [
                -0.07915078897082317,
                -0.9698337583355989,
                1.3487186665744282,
                -0.5218553691510368,
                0.35653221740061936,
                -2.578192847709518
            ]
        },
        {
            "positions": [
                -0.04201806048888179,
                -1.00172945320217,
                1.4654458870875156,
                -0.555693083240703,
                0.3131725169480526,
                -2.7102317668096902
            ]
        },
        {
            "positions": [
                -0.004885332006940191,
                -1.0336251480687413,
                1.582173107600603,
                -0.5895307973303692,
                0.26981281649548605,
                -2.8422706859098623
            ]
        },
        {
            "positions": [
                0.03224739647500163,
                -1.0655208429353127,
                1.6989003281136903,
                -0.6233685114200356,
                0.22645311604291907,
                -2.9743096050100353
            ]
        },
        {
            "positions": [
                0.06938012495694301,
                -1.097416537801884,
                1.8156275486267777,
                -0.657206225509702,
                0.18309341559035253,
                -3.106348524110207
            ]
        },
        {
            "positions": [
                0.10651285343888454,
                -1.1293122326684553,
                1.932354769139865,
                -0.6910439395993683,
                0.13973371513778585,
                -3.2383874432103794
            ]
        },
        {
            "positions": [
                0.12239363432889983,
                -1.1326347281492952,
                1.9587561836896623,
                -0.7096545871129653,
                0.13956153420355835,
                -3.256783618096914
            ]
        }
    ]
}