{
    "goal": {
        "global_pose": {
            "orientation": {
                "w": -0.00223480608172531,
                "x": 0.0024358444001904467,
                "y": 0.7094548369677653,
                "z": -0.704743149386269
            },
            "position": {
                "x": 0.6205249238014221,
                "y": -0.6371506643295288,
                "z": 0.19426114857196808
            }
        },
        "name": "move_to_magneteinheit_B"
    },
    "id": "LBKPIECE_move_to_magneteinheit_B_86",
    "joint_names": [
        "shoulder_pan_joint",
        "shoulder_lift_joint",
        "elbow_joint",
        "wrist_1_joint",
        "wrist_2_joint",
        "wrist_3_joint"
    ],
    "metrics": {
        "cart_traj_len": 3.735880930763425,
        "distance_elbow_joint": 4.381894982503766,
        "distance_shoulder_lift_joint": 0.7220402314656731,
        "distance_shoulder_pan_joint": 2.4705301916270748,
        "distance_wrist_1_joint": 1.471872403437338,
        "distance_wrist_2_joint": 0.40632452491482673,
        "distance_wrist_3_joint": 3.144917946559734,
        "smoothness": 0.4238998081602267,
        "time": 0.527963469,
        "traj_len": 3.5493070141238015,
        "weighted_distance": 4.556930227903434
    },
    "planner": "LBKPIECE",
    "start": {
        "state": {
            "elbow_joint": 2.39358713078474,
            "shoulder_lift_joint": -1.908514104345545,
            "shoulder_pan_joint": 0.7066247066606129,
            "wrist_1_joint": -0.4678290933515497,
            "wrist_2_joint": 0.7096259083745334,
            "wrist_3_joint": -3.1358149277392293
        }
    },
    "waypoints": [
        {
            "positions": [
                0.7066247066606129,
                -1.908514104345545,
                2.39358713078474,
                -0.4678290933515497,
                0.7096259083745334,
                -3.1358149277392293
            ]
        },
        {
            "positions": [
                0.6311405260244268,
                -1.896027639861441,
                2.392492367453311,
                -0.45476717920934684,
                0.6708806184610329,
                -2.9889174542049743
            ]
        },
        {
            "positions": [
                0.5556563453882406,
                -1.883541175377337,
                2.3913976041218823,
                -0.44170526506714397,
                0.6321353285475323,
                -2.84201998067072
            ]
        },
        {
            "positions": [
                0.4801721647520545,
                -1.8710547108932332,
                2.3903028407904534,
                -0.4286433509249411,
                0.5933900386340317,
                -2.695122507136465
            ]
        },
        {
            "positions": [
                0.5046811850022718,
                -1.8679378351475653,
                2.236184861408288,
                -0.36685482105626405,
                0.600704580106181,
                -2.5557260803193085
            ]
        },
        {
            "positions": [
                0.5291902052524892,
                -1.8648209594018972,
                2.0820668820261226,
                -0.305066291187587,
                0.6080191215783304,
                -2.416329653502152
            ]
        },
        {
            "positions": [
                0.5536992255027064,
                -1.8617040836562293,
                1.9279489026439576,
                -0.24327776131890994,
                0.6153336630504797,
                -2.2769332266849958
            ]
        },
        {
            "positions": [
                0.5782082457529237,
                -1.8585872079105614,
                1.7738309232617921,
                -0.18148923145023288,
                0.6226482045226289,
                -2.1375367998678394
            ]
        },
        {
            "positions": [
                0.6027172660031411,
                -1.8554703321648933,
                1.6197129438796267,
                -0.11970070158155582,
                0.6299627459947782,
                -1.998140373050683
            ]
        },
        {
            "positions": [
                0.6272262862533584,
                -1.8523534564192254,
                1.4655949644974615,
                -0.05791217171287877,
                0.6372772874669275,
                -1.8587439462335267
            ]
        },
        {
            "positions": [
                0.6517353065035758,
                -1.8492365806735576,
                1.311476985115296,
                0.0038763581557982874,
                0.6445918289390768,
                -1.7193475194163703
            ]
        },
        {
            "positions": [
                0.676244326753793,
                -1.8461197049278895,
                1.1573590057331309,
                0.06566488802447534,
                0.6519063704112261,
                -1.579951092599214
            ]
        },
        {
            "positions": [
                0.7007533470040104,
                -1.8430028291822216,
                1.0032410263509655,
                0.12745341789315245,
                0.6592209118833754,
                -1.4405546657820576
            ]
        },
        {
            "positions": [
                0.7252623672542278,
                -1.8398859534365537,
                0.8491230469688003,
                0.18924194776182945,
                0.6665354533555248,
                -1.3011582389649012
            ]
        },
        {
            "positions": [
                0.7497713875044449,
                -1.8367690776908856,
                0.695005067586635,
                0.25103047763050645,
                0.673849994827674,
                -1.1617618121477449
            ]
        },
        {
            "positions": [
                0.7742804077546623,
                -1.8336522019452177,
                0.5408870882044697,
                0.31281900749918357,
                0.6811645362998233,
                -1.0223653853305885
            ]
        },
        {
            "positions": [
                0.8998317449413475,
                -1.8415834000015125,
                0.384838172847845,
                0.34017168468300346,
                0.6718509492018402,
                -0.9680993997243164
            ]
        },
        {
            "positions": [
                1.0253830821280328,
                -1.8495145980578074,
                0.22878925749122025,
                0.36752436186682336,
                0.6625373621038569,
                -0.9138334141180442
            ]
        },
        {
            "positions": [
                1.150934419314718,
                -1.8574457961141024,
                0.07274034213459551,
                0.3948770390506433,
                0.6532237750058738,
                -0.8595674285117719
            ]
        },
        {
            "positions": [
                1.276485756501403,
                -1.8653769941703973,
                -0.08330857322202923,
                0.4222297162344632,
                0.6439101879078906,
                -0.8053014429054998
            ]
        },
        {
            "positions": [
                1.4020370936880882,
                -1.873308192226692,
                -0.2393574885786539,
                0.4495823934182831,
                0.6345966008099074,
                -0.7510354572992276
            ]
        },
        {
            "positions": [
                1.5275884308747734,
                -1.881239390282987,
                -0.3954064039352787,
                0.47693507060210305,
                0.6252830137119243,
                -0.6967694716929553
            ]
        },
        {
            "positions": [
                1.6531397680614586,
                -1.8891705883392818,
                -0.5514553192919033,
                0.5042877477859229,
                0.615969426613941,
                -0.6425034860866832
            ]
        },
        {
            "positions": [
                1.7786911052481438,
                -1.8971017863955768,
                -0.7075042346485282,
                0.5316404249697428,
                0.6066558395159579,
                -0.588237500480411
            ]
        },
        {
            "positions": [
                1.904242442434829,
                -1.9050329844518716,
                -0.8635531500051529,
                0.5589931021535627,
                0.5973422524179747,
                -0.5339715148741389
            ]
        },
        {
            "positions": [
                2.0297937796215137,
                -1.9129641825081665,
                -1.0196020653617777,
                0.5863457793373826,
                0.5880286653199915,
                -0.4797055292678667
            ]
        },
        {
            "positions": [
                2.155345116808199,
                -1.9208953805644613,
                -1.1756509807184021,
                0.6136984565212025,
                0.5787150782220084,
                -0.4254395436615944
            ]
        },
        {
            "positions": [
                2.2808964539948846,
                -1.9288265786207561,
                -1.331699896075027,
                0.6410511337050224,
                0.5694014911240252,
                -0.37117355805532215
            ]
        },
        {
            "positions": [
                2.40644779118157,
                -1.9367577766770512,
                -1.487748811431652,
                0.6684038108888424,
                0.560087904026042,
                -0.31690757244905
            ]
        },
        {
            "positions": [
                2.5319991283682546,
                -1.944688974733346,
                -1.6437977267882764,
                0.6957564880726623,
                0.5507743169280588,
                -0.26264158684277783
            ]
        },
        {
            "positions": [
                2.65755046555494,
                -1.9526201727896408,
                -1.7998466421449013,
                0.7231091652564822,
                0.5414607298300756,
                -0.20837560123650561
            ]
        },
        {
            "positions": [
                2.6924139289969733,
                -1.9562412970710403,
                -1.825740473316488,
                0.7226026733601512,
                0.5358174141398246,
                -0.2087006529309081
            ]
        },
        {
            "positions": [
                2.684454957628574,
                -2.087388605555921,
                -1.7850986287158532,
                0.7927095865933949,
                0.5215756553026909,
                -0.1544122608402562
            ]
        },
        {
            "positions": [
                2.6764959862601745,
                -2.218535914040802,
                -1.7444567841152183,
                0.8628164998266387,
                0.5073338964655573,
                -0.10012386874960429
            ]
        },
        {
            "positions": [
                2.668537014891775,
                -2.349683222525683,
                -1.7038149395145834,
                0.9329234130598825,
                0.4930921376284236,
                -0.04583547665895238
            ]
        },
        {
            "positions": [
                2.6605780435233757,
                -2.4808305310105636,
                -1.6631730949139487,
                1.0030303262931262,
                0.4788503787912899,
                0.008452915431699515
            ]
        }
    ]
}