{
    "goal": {
        "global_pose": {
            "orientation": {
                "w": 0.7031023502349854,
                "x": -0.7110244035720825,
                "y": 0.007748599164187908,
                "z": 0.005598929710686207
            },
            "position": {
                "x": 0.11585023208521307,
                "y": 0.44412534475326537,
                "z": 0.3711530566215515
            }
        },
        "name": "move_to_auspresseinheit_A"
    },
    "id": "LBKPIECE_move_to_auspresseinheit_A_26",
    "joint_names": [
        "shoulder_pan_joint",
        "shoulder_lift_joint",
        "elbow_joint",
        "wrist_1_joint",
        "wrist_2_joint",
        "wrist_3_joint"
    ],
    "metrics": {
        "cart_traj_len": 0.9374933741302939,
        "distance_elbow_joint": 0.4772804662713246,
        "distance_shoulder_lift_joint": 0.5359587221988171,
        "distance_shoulder_pan_joint": 1.0414354613966372,
        "distance_wrist_1_joint": 0.845303682895548,
        "distance_wrist_2_joint": 0.6753606873946275,
        "distance_wrist_3_joint": 0.37763896246136497,
        "smoothness": 1.1039462496622567,
        "time": 0.513707497,
        "traj_len": 1.9882097431152275,
        "weighted_distance": 2.4957804947212856
    },
    "planner": "LBKPIECE",
    "start": {
        "state": {
            "elbow_joint": 2.422574709923281,
            "shoulder_lift_joint": -1.3736533754116391,
            "shoulder_pan_joint": -0.33786336945926293,
            "wrist_1_joint": -1.0288603412921917,
            "wrist_2_joint": 1.2330224858903978,
            "wrist_3_joint": -3.094022268022082
        }
    },
    "waypoints": [
        {
            "positions": [
                -0.33786336945926293,
                -1.3736533754116391,
                2.422574709923281,
                -1.0288603412921917,
                1.2330224858903978,
                -3.094022268022082
            ]
        },
        {
            "positions": [
                -0.33130757345798445,
                -1.3906738311802234,
                2.296504373307233,
                -0.9674651012692973,
                1.201535291045852,
                -3.0356919151855877
            ]
        },
        {
            "positions": [
                -0.3247517774567059,
                -1.4076942869488076,
                2.1704340366911845,
                -0.9060698612464029,
                1.1700480962013065,
                -2.977361562349093
            ]
        },
        {
            "positions": [
                -0.20618724530087268,
                -1.4787238502998223,
                2.194770760286346,
                -0.8234905154575908,
                1.092531427944579,
                -2.9691493008037404
            ]
        },
        {
            "positions": [
                -0.08762271314503942,
                -1.5497534136508373,
                2.219107483881507,
                -0.7409111696687787,
                1.0150147596878518,
                -2.960937039258388
            ]
        },
        {
            "positions": [
                0.030941819010793847,
                -1.620782977001852,
                2.2434442074766685,
                -0.6583318238799666,
                0.9374980914311245,
                -2.952724777713035
            ]
        },
        {
            "positions": [
                0.14950635116662708,
                -1.691812540352867,
                2.26778093107183,
                -0.5757524780911545,
                0.8599814231743972,
                -2.944512516167683
            ]
        },
        {
            "positions": [
                0.26807088332246043,
                -1.7628421037038817,
                2.2921176546669915,
                -0.4931731323023424,
                0.7824647549176699,
                -2.93630025462233
            ]
        },
        {
            "positions": [
                0.3866354154782936,
                -1.8338716670548965,
                2.3164543782621525,
                -0.4105937865135303,
                0.7049480866609426,
                -2.9280879930769776
            ]
        },
        {
            "positions": [
                0.5051999476341269,
                -1.9049012304059114,
                2.340791101857314,
                -0.3280144407247182,
                0.6274314184042152,
                -2.919875731531625
            ]
        },
        {
            "positions": [
                0.6043860197857505,
                -1.9072566640081838,
                2.368182465793863,
                -0.4002433318887555,
                0.6623162283584377,
                -3.0216219445170784
            ]
        },
        {
            "positions": [
                0.7035720919373741,
                -1.9096120976104562,
                2.3955738297304126,
                -0.47247222305279274,
                0.6972010383126602,
                -3.1233681575025325
            ]
        }
    ]
}