{
    "goal": {
        "global_pose": {
            "orientation": {
                "w": -0.00223480608172531,
                "x": 0.0024358444001904467,
                "y": 0.7094548369677653,
                "z": -0.704743149386269
            },
            "position": {
                "x": 0.6205249238014221,
                "y": -0.6371506643295288,
                "z": 0.19426114857196808
            }
        },
        "name": "move_to_magneteinheit_B"
    },
    "id": "LBKPIECE_move_to_magneteinheit_B_22",
    "joint_names": [
        "shoulder_pan_joint",
        "shoulder_lift_joint",
        "elbow_joint",
        "wrist_1_joint",
        "wrist_2_joint",
        "wrist_3_joint"
    ],
    "metrics": {
        "cart_traj_len": 1.453180078442919,
        "distance_elbow_joint": 0.7323060985200498,
        "distance_shoulder_lift_joint": 1.2497114845244675,
        "distance_shoulder_pan_joint": 1.6201430947972435,
        "distance_wrist_1_joint": 2.6049863536540627,
        "distance_wrist_2_joint": 2.952680151066268,
        "distance_wrist_3_joint": 3.13544751335952,
        "smoothness": 3.7680296739872524e-16,
        "time": 0.261456313,
        "traj_len": 3.506461848633407,
        "weighted_distance": 4.9116022057329705
    },
    "planner": "LBKPIECE",
    "start": {
        "state": {
            "elbow_joint": 2.39358713078474,
            "shoulder_lift_joint": -1.908514104345545,
            "shoulder_pan_joint": 0.7066247066606129,
            "wrist_1_joint": -0.4678290933515497,
            "wrist_2_joint": 0.7096259083745334,
            "wrist_3_joint": -3.1358149277392293
        }
    },
    "waypoints": [
        {
            "positions": [
                0.7066247066606129,
                -1.908514104345545,
                2.39358713078474,
                -0.4678290933515497,
                0.7096259083745334,
                -3.1358149277392293
            ]
        },
        {
            "positions": [
                0.6559952349481991,
                -1.8694606204541553,
                2.3707025652059883,
                -0.38642326979986025,
                0.6173546536537126,
                -3.0378321929467442
            ]
        },
        {
            "positions": [
                0.6053657632357852,
                -1.8304071365627657,
                2.347817999627237,
                -0.3050174462481708,
                0.5250833989328917,
                -2.939849458154259
            ]
        },
        {
            "positions": [
                0.5547362915233713,
                -1.791353652671376,
                2.3249334340484853,
                -0.22361162269648133,
                0.4328121442120708,
                -2.8418667233617745
            ]
        },
        {
            "positions": [
                0.5041068198109575,
                -1.7523001687799864,
                2.302048868469734,
                -0.14220579914479187,
                0.34054088949124994,
                -2.7438839885692894
            ]
        },
        {
            "positions": [
                0.4534773480985437,
                -1.7132466848885968,
                2.2791643028909823,
                -0.06079997559310241,
                0.24826963477042907,
                -2.6459012537768043
            ]
        },
        {
            "positions": [
                0.4028478763861298,
                -1.6741932009972071,
                2.2562797373122305,
                0.020605847958587054,
                0.1559983800496082,
                -2.547918518984319
            ]
        },
        {
            "positions": [
                0.3522184046737159,
                -1.6351397171058177,
                2.2333951717334792,
                0.10201167151027651,
                0.06372712532878733,
                -2.449935784191834
            ]
        },
        {
            "positions": [
                0.30158893296130207,
                -1.596086233214428,
                2.2105106061547275,
                0.18341749506196597,
                -0.028544129392033546,
                -2.3519530493993495
            ]
        },
        {
            "positions": [
                0.25095946124888824,
                -1.5570327493230385,
                2.187626040575976,
                0.26482331861365543,
                -0.12081538411285442,
                -2.2539703146068644
            ]
        },
        {
            "positions": [
                0.2003299895364744,
                -1.5179792654316488,
                2.1647414749972245,
                0.3462291421653449,
                -0.2130866388336753,
                -2.1559875798143793
            ]
        },
        {
            "positions": [
                0.14970051782406046,
                -1.4789257815402592,
                2.1418569094184727,
                0.42763496571703435,
                -0.30535789355449616,
                -2.0580048450218946
            ]
        },
        {
            "positions": [
                0.09907104611164663,
                -1.4398722976488696,
                2.1189723438397214,
                0.5090407892687239,
                -0.39762914827531703,
                -1.9600221102294093
            ]
        },
        {
            "positions": [
                0.0484415743992328,
                -1.40081881375748,
                2.0960877782609697,
                0.5904466128204133,
                -0.4899004029961379,
                -1.8620393754369244
            ]
        },
        {
            "positions": [
                -0.002187897313181142,
                -1.3617653298660906,
                2.0732032126822184,
                0.6718524363721028,
                -0.5821716577169588,
                -1.7640566406444393
            ]
        },
        {
            "positions": [
                -0.052817369025594973,
                -1.322711845974701,
                2.0503186471034667,
                0.7532582599237923,
                -0.6744429124377797,
                -1.6660739058519545
            ]
        },
        {
            "positions": [
                -0.1034468407380088,
                -1.2836583620833113,
                2.0274340815247154,
                0.8346640834754817,
                -0.7667141671586005,
                -1.5680911710594694
            ]
        },
        {
            "positions": [
                -0.15407631245042264,
                -1.2446048781919217,
                2.0045495159459636,
                0.9160699070271712,
                -0.8589854218794214,
                -1.4701084362669843
            ]
        },
        {
            "positions": [
                -0.20470578416283647,
                -1.205551394300532,
                1.981664950367212,
                0.9974757305788606,
                -0.9512566766002423,
                -1.3721257014744994
            ]
        },
        {
            "positions": [
                -0.2553352558752504,
                -1.1664979104091424,
                1.9587803847884606,
                1.07888155413055,
                -1.043527931321063,
                -1.2741429666820143
            ]
        },
        {
            "positions": [
                -0.30596472758766413,
                -1.1274444265177528,
                1.9358958192097089,
                1.1602873776822396,
                -1.1357991860418841,
                -1.1761602318895295
            ]
        },
        {
            "positions": [
                -0.3565941993000782,
                -1.0883909426263632,
                1.9130112536309574,
                1.241693201233929,
                -1.2280704407627048,
                -1.0781774970970446
            ]
        },
        {
            "positions": [
                -0.407223671012492,
                -1.0493374587349735,
                1.8901266880522058,
                1.3230990247856185,
                -1.3203416954835259,
                -0.9801947623045595
            ]
        },
        {
            "positions": [
                -0.45785314272490585,
                -1.010283974843584,
                1.8672421224734541,
                1.404504848337308,
                -1.412612950204347,
                -0.8822120275120744
            ]
        },
        {
            "positions": [
                -0.5084826144373197,
                -0.9712304909521943,
                1.8443575568947028,
                1.4859106718889974,
                -1.5048842049251676,
                -0.7842292927195893
            ]
        },
        {
            "positions": [
                -0.5591120861497335,
                -0.9321770070608048,
                1.821472991315951,
                1.5673164954406866,
                -1.5971554596459883,
                -0.6862465579271042
            ]
        },
        {
            "positions": [
                -0.6097415578621473,
                -0.893123523169415,
                1.7985884257371996,
                1.6487223189923763,
                -1.6894267143668094,
                -0.5882638231346196
            ]
        },
        {
            "positions": [
                -0.6603710295745612,
                -0.8540700392780256,
                1.775703860158448,
                1.730128142544066,
                -1.7816979690876305,
                -0.49028108834213446
            ]
        },
        {
            "positions": [
                -0.7110005012869752,
                -0.815016555386636,
                1.7528192945796965,
                1.8115339660957552,
                -1.873969223808451,
                -0.39229835354964937
            ]
        },
        {
            "positions": [
                -0.7616299729993891,
                -0.7759630714952463,
                1.729934729000945,
                1.8929397896474445,
                -1.9662404785292718,
                -0.2943156187571643
            ]
        },
        {
            "positions": [
                -0.8122594447118029,
                -0.7369095876038567,
                1.7070501634221933,
                1.9743456131991342,
                -2.058511733250093,
                -0.19633288396467963
            ]
        },
        {
            "positions": [
                -0.8628889164242167,
                -0.6978561037124671,
                1.6841655978434418,
                2.055751436750824,
                -2.150782987970914,
                -0.09835014917219453
            ]
        },
        {
            "positions": [
                -0.9135183881366304,
                -0.6588026198210775,
                1.6612810322646903,
                2.137157260302513,
                -2.2430542426917346,
                -0.0003674143797093646
            ]
        }
    ]
}