{
    "goal": {
        "global_pose": {
            "orientation": {
                "w": 0.7031023502349854,
                "x": -0.7110244035720825,
                "y": 0.007748599164187908,
                "z": 0.005598929710686207
            },
            "position": {
                "x": 0.11585023208521307,
                "y": 0.44412534475326537,
                "z": 0.3711530566215515
            }
        },
        "name": "move_to_auspresseinheit_A"
    },
    "id": "LBKPIECE_move_to_auspresseinheit_A_11",
    "joint_names": [
        "shoulder_pan_joint",
        "shoulder_lift_joint",
        "elbow_joint",
        "wrist_1_joint",
        "wrist_2_joint",
        "wrist_3_joint"
    ],
    "metrics": {
        "cart_traj_len": 1.4146136529125846,
        "distance_elbow_joint": 1.3400615904596704,
        "distance_shoulder_lift_joint": 0.7126323841836613,
        "distance_shoulder_pan_joint": 1.04348132862988,
        "distance_wrist_1_joint": 0.8674194370251309,
        "distance_wrist_2_joint": 1.7324880660410122,
        "distance_wrist_3_joint": 1.6682000315908811,
        "smoothness": 0.9537496758581621,
        "time": 0.506996414,
        "traj_len": 2.7137212159560966,
        "weighted_distance": 3.646997450530798
    },
    "planner": "LBKPIECE",
    "start": {
        "state": {
            "elbow_joint": 2.422574709923281,
            "shoulder_lift_joint": -1.3736533754116391,
            "shoulder_pan_joint": -0.33786336945926293,
            "wrist_1_joint": -1.0288603412921917,
            "wrist_2_joint": 1.2330224858903978,
            "wrist_3_joint": -3.094022268022082
        }
    },
    "waypoints": [
        {
            "positions": [
                -0.33786336945926293,
                -1.3736533754116391,
                2.422574709923281,
                -1.0288603412921917,
                1.2330224858903978,
                -3.094022268022082
            ]
        },
        {
            "positions": [
                -0.2812461266965064,
                -1.4212296151827952,
                2.354128402194204,
                -1.044167158884168,
                1.1407081452796293,
                -3.012268696297144
            ]
        },
        {
            "positions": [
                -0.22462888393374983,
                -1.4688058549539513,
                2.285682094465127,
                -1.0594739764761443,
                1.0483938046688606,
                -2.9305151245722056
            ]
        },
        {
            "positions": [
                -0.1680116411709933,
                -1.5163820947251074,
                2.2172357867360497,
                -1.0747807940681204,
                0.9560794640580921,
                -2.8487615528472676
            ]
        },
        {
            "positions": [
                -0.11139439840823673,
                -1.5639583344962635,
                2.1487894790069726,
                -1.0900876116600968,
                0.8637651234473235,
                -2.7670079811223296
            ]
        },
        {
            "positions": [
                -0.05477715564548019,
                -1.6115345742674196,
                2.080343171277895,
                -1.105394429252073,
                0.7714507828365549,
                -2.685254409397391
            ]
        },
        {
            "positions": [
                0.0018400871172763456,
                -1.6591108140385755,
                2.011896863548818,
                -1.1207012468440491,
                0.6791364422257864,
                -2.603500837672453
            ]
        },
        {
            "positions": [
                0.05845732988003288,
                -1.7066870538097316,
                1.943450555819741,
                -1.1360080644360255,
                0.5868221016150178,
                -2.521747265947515
            ]
        },
        {
            "positions": [
                0.11507457264278947,
                -1.7542632935808877,
                1.8750042480906637,
                -1.1513148820280017,
                0.4945077610042492,
                -2.4399936942225766
            ]
        },
        {
            "positions": [
                0.17169181540554607,
                -1.8018395333520438,
                1.8065579403615866,
                -1.166621699619978,
                0.4021934203934807,
                -2.3582401224976386
            ]
        },
        {
            "positions": [
                0.22830905816830255,
                -1.8494157731232,
                1.7381116326325095,
                -1.1819285172119542,
                0.3098790797827121,
                -2.2764865507727006
            ]
        },
        {
            "positions": [
                0.255202288638582,
                -1.8790567018290316,
                1.8446971825216951,
                -1.135889345902558,
                0.26935385192019157,
                -2.380081220212335
            ]
        },
        {
            "positions": [
                0.28209551910886144,
                -1.908697630534863,
                1.951282732410881,
                -1.089850174593162,
                0.22882862405767102,
                -2.4836758896519697
            ]
        },
        {
            "positions": [
                0.3089887495791409,
                -1.9383385592406948,
                2.057868282300067,
                -1.0438110032837657,
                0.18830339619515052,
                -2.587270559091604
            ]
        },
        {
            "positions": [
                0.3358819800494204,
                -1.9679794879465262,
                2.1644538321892526,
                -0.9977718319743696,
                0.14777816833262994,
                -2.6908652285312384
            ]
        },
        {
            "positions": [
                0.3627752105196998,
                -1.997620416652358,
                2.2710393820784383,
                -0.9517326606649734,
                0.10725294047010943,
                -2.794459897970873
            ]
        },
        {
            "positions": [
                0.4099096445715975,
                -1.9896543997208653,
                2.309087932180181,
                -0.8788432604687784,
                0.1795367181637802,
                -2.8613858040169795
            ]
        },
        {
            "positions": [
                0.4570440786234952,
                -1.9816883827893725,
                2.3471364822819236,
                -0.8059538602725833,
                0.2518204958574509,
                -2.9283117100630864
            ]
        },
        {
            "positions": [
                0.5041785126753929,
                -1.97372236585788,
                2.3851850323836663,
                -0.7330644600763883,
                0.3241042735511217,
                -2.995237616109193
            ]
        },
        {
            "positions": [
                0.5713249948404676,
                -1.9521332684750585,
                2.388026736856247,
                -0.6445687254197875,
                0.45406000273102554,
                -3.039208699110862
            ]
        },
        {
            "positions": [
                0.6384714770055423,
                -1.9305441710922369,
                2.3908684413288275,
                -0.5560729907631867,
                0.5840157319109294,
                -3.083179782112531
            ]
        },
        {
            "positions": [
                0.705617959170617,
                -1.9089550737094154,
                2.3937101458014083,
                -0.46757725610658585,
                0.7139714610908333,
                -3.1271508651142
            ]
        }
    ]
}