{
    "goal": {
        "global_pose": {
            "orientation": {
                "w": 0.7031023502349854,
                "x": -0.7110244035720825,
                "y": 0.007748599164187908,
                "z": 0.005598929710686207
            },
            "position": {
                "x": 0.11585023208521307,
                "y": 0.44412534475326537,
                "z": 0.3711530566215515
            }
        },
        "name": "move_to_auspresseinheit_A"
    },
    "id": "LBKPIECE_move_to_auspresseinheit_A_51",
    "joint_names": [
        "shoulder_pan_joint",
        "shoulder_lift_joint",
        "elbow_joint",
        "wrist_1_joint",
        "wrist_2_joint",
        "wrist_3_joint"
    ],
    "metrics": {
        "cart_traj_len": 2.8481053933938125,
        "distance_elbow_joint": 0.7842610324651211,
        "distance_shoulder_lift_joint": 1.6009817369095831,
        "distance_shoulder_pan_joint": 6.450276938763794,
        "distance_wrist_1_joint": 1.7645163177977263,
        "distance_wrist_2_joint": 4.162079743157647,
        "distance_wrist_3_joint": 3.0878155883367926,
        "smoothness": 0.780125619765619,
        "time": 0.400709871,
        "traj_len": 4.2249179113245106,
        "weighted_distance": 5.472856529734688
    },
    "planner": "LBKPIECE",
    "start": {
        "state": {
            "elbow_joint": 2.422574709923281,
            "shoulder_lift_joint": -1.3736533754116391,
            "shoulder_pan_joint": -0.33786336945926293,
            "wrist_1_joint": -1.0288603412921917,
            "wrist_2_joint": 1.2330224858903978,
            "wrist_3_joint": -3.094022268022082
        }
    },
    "waypoints": [
        {
            "positions": [
                -0.33786336945926293,
                -1.3736533754116391,
                2.422574709923281,
                -1.0288603412921917,
                1.2330224858903978,
                -3.094022268022082
            ]
        },
        {
            "positions": [
                -0.4607719957908073,
                -1.4214798501039891,
                2.4041004889512108,
                -1.0500905549378445,
                1.1263594260327963,
                -3.0246306563758645
            ]
        },
        {
            "positions": [
                -0.5836806221223516,
                -1.469306324796339,
                2.385626267979141,
                -1.0713207685834973,
                1.019696366175195,
                -2.9552390447296464
            ]
        },
        {
            "positions": [
                -0.7065892484538959,
                -1.517132799488689,
                2.3671520470070706,
                -1.0925509822291501,
                0.9130333063175936,
                -2.8858474330834287
            ]
        },
        {
            "positions": [
                -0.8294978747854402,
                -1.5649592741810388,
                2.3486778260350007,
                -1.113781195874803,
                0.8063702464599922,
                -2.8164558214372106
            ]
        },
        {
            "positions": [
                -0.9524065011169847,
                -1.6127857488733888,
                2.3302036050629304,
                -1.1350114095204558,
                0.6997071866023908,
                -2.747064209790993
            ]
        },
        {
            "positions": [
                -1.0753151274485289,
                -1.6606122235657386,
                2.3117293840908606,
                -1.1562416231661086,
                0.5930441267447895,
                -2.6776725981447753
            ]
        },
        {
            "positions": [
                -1.1982237537800733,
                -1.7084386982580886,
                2.2932551631187903,
                -1.1774718368117614,
                0.48638106688718796,
                -2.608280986498557
            ]
        },
        {
            "positions": [
                -1.3211323801116177,
                -1.7562651729504384,
                2.2747809421467204,
                -1.1987020504574142,
                0.3797180070295866,
                -2.5388893748523396
            ]
        },
        {
            "positions": [
                -1.4440410064431621,
                -1.8040916476427884,
                2.25630672117465,
                -1.219932264103067,
                0.2730549471719852,
                -2.469497763206122
            ]
        },
        {
            "positions": [
                -1.5669496327747063,
                -1.8519181223351384,
                2.2378325002025803,
                -1.2411624777487198,
                0.16639188731438392,
                -2.400106151559904
            ]
        },
        {
            "positions": [
                -1.6898582591062508,
                -1.8997445970274882,
                2.21935827923051,
                -1.2623926913943726,
                0.05972882745678243,
                -2.330714539913686
            ]
        },
        {
            "positions": [
                -1.812766885437795,
                -1.947571071719838,
                2.20088405825844,
                -1.2836229050400252,
                -0.04693423240081884,
                -2.261322928267468
            ]
        },
        {
            "positions": [
                -1.9356755117693396,
                -1.995397546412188,
                2.18240983728637,
                -1.3048531186856782,
                -0.15359729225842034,
                -2.1919313166212504
            ]
        },
        {
            "positions": [
                -2.058584138100884,
                -2.043224021104538,
                2.1639356163142995,
                -1.3260833323313308,
                -0.26026035211602183,
                -2.1225397049750327
            ]
        },
        {
            "positions": [
                -2.181492764432428,
                -2.091050495796888,
                2.1454613953422297,
                -1.3473135459769836,
                -0.3669234119736231,
                -2.053148093328815
            ]
        },
        {
            "positions": [
                -2.304401390763972,
                -2.138876970489238,
                2.1269871743701594,
                -1.3685437596226364,
                -0.4735864718312246,
                -1.9837564816825968
            ]
        },
        {
            "positions": [
                -2.4273100170955164,
                -2.1867034451815877,
                2.1085129533980895,
                -1.3897739732682892,
                -0.5802495316888259,
                -1.9143648700363791
            ]
        },
        {
            "positions": [
                -2.550218643427061,
                -2.2345299198739377,
                2.0900387324260192,
                -1.411004186913942,
                -0.6869125915464274,
                -1.8449732583901612
            ]
        },
        {
            "positions": [
                -2.6731272697586053,
                -2.2823563945662877,
                2.0715645114539494,
                -1.4322344005595948,
                -0.7935756514040286,
                -1.7755816467439434
            ]
        },
        {
            "positions": [
                -2.7960358960901495,
                -2.3301828692586373,
                2.053090290481879,
                -1.4534646142052476,
                -0.9002387112616299,
                -1.7061900350977257
            ]
        },
        {
            "positions": [
                -2.918944522421694,
                -2.3780093439509873,
                2.0346160695098092,
                -1.4746948278509004,
                -1.0069017711192316,
                -1.6367984234515076
            ]
        },
        {
            "positions": [
                -3.0418531487532383,
                -2.4258358186433373,
                2.016141848537739,
                -1.4959250414965533,
                -1.113564830976833,
                -1.56740681180529
            ]
        },
        {
            "positions": [
                -2.8792024937983594,
                -2.4015773263202007,
                2.0311157115856178,
                -1.4430857982701293,
                -1.0385939882448787,
                -1.6316345118488893
            ]
        },
        {
            "positions": [
                -2.71655183884348,
                -2.3773188339970637,
                2.046089574633496,
                -1.3902465550437053,
                -0.9636231455129244,
                -1.6958622118924884
            ]
        },
        {
            "positions": [
                -2.553901183888601,
                -2.353060341673927,
                2.0610634376813746,
                -1.3374073118172813,
                -0.8886523027809702,
                -1.7600899119360878
            ]
        },
        {
            "positions": [
                -2.3912505289337216,
                -2.32880184935079,
                2.0760373007292534,
                -1.2845680685908574,
                -0.8136814600490159,
                -1.8243176119796871
            ]
        },
        {
            "positions": [
                -2.2285998739788426,
                -2.3045433570276534,
                2.0910111637771323,
                -1.2317288253644334,
                -0.7387106173170617,
                -1.8885453120232865
            ]
        },
        {
            "positions": [
                -2.0659492190239637,
                -2.280284864704517,
                2.1059850268250107,
                -1.1788895821380097,
                -0.6637397745851075,
                -1.9527730120668858
            ]
        },
        {
            "positions": [
                -1.9032985640690843,
                -2.25602637238138,
                2.120958889872889,
                -1.1260503389115855,
                -0.5887689318531533,
                -2.017000712110485
            ]
        },
        {
            "positions": [
                -1.740647909114205,
                -2.2317678800582432,
                2.135932752920768,
                -1.0732110956851615,
                -0.513798089121199,
                -2.0812284121540845
            ]
        },
        {
            "positions": [
                -1.577997254159326,
                -2.207509387735106,
                2.1509066159686467,
                -1.0203718524587375,
                -0.43882724638924464,
                -2.1454561121976834
            ]
        },
        {
            "positions": [
                -1.415346599204447,
                -2.1832508954119696,
                2.165880479016525,
                -0.9675326092323137,
                -0.36385640365729055,
                -2.2096838122412827
            ]
        },
        {
            "positions": [
                -1.2526959442495678,
                -2.158992403088833,
                2.1808543420644035,
                -0.9146933660058897,
                -0.28888556092533624,
                -2.273911512284882
            ]
        },
        {
            "positions": [
                -1.0900452892946888,
                -2.134733910765696,
                2.1958282051122824,
                -0.8618541227794658,
                -0.21391471819338204,
                -2.3381392123284814
            ]
        },
        {
            "positions": [
                -0.9273946343398092,
                -2.1104754184425594,
                2.2108020681601612,
                -0.8090148795530417,
                -0.13894387546142772,
                -2.4023669123720808
            ]
        },
        {
            "positions": [
                -0.7647439793849302,
                -2.0862169261194223,
                2.2257759312080396,
                -0.7561756363266178,
                -0.06397303272947363,
                -2.46659461241568
            ]
        },
        {
            "positions": [
                -0.6020933244300513,
                -2.0619584337962857,
                2.240749794255918,
                -0.7033363931001939,
                0.010997810002480568,
                -2.5308223124592795
            ]
        },
        {
            "positions": [
                -0.43944266947517185,
                -2.0376999414731487,
                2.255723657303797,
                -0.6504971498737698,
                0.08596865273443499,
                -2.5950500125028784
            ]
        },
        {
            "positions": [
                -0.2767920145202929,
                -2.013441449150012,
                2.2706975203516757,
                -0.597657906647346,
                0.1609394954663892,
                -2.659277712546478
            ]
        },
        {
            "positions": [
                -0.11414135956541349,
                -1.9891829568268753,
                2.285671383399554,
                -0.5448186634209219,
                0.23591033819834362,
                -2.723505412590077
            ]
        },
        {
            "positions": [
                0.04850929538946547,
                -1.9649244645037385,
                2.3006452464474325,
                -0.49197942019449803,
                0.3108811809302978,
                -2.787733112633677
            ]
        },
        {
            "positions": [
                0.21115995034434443,
                -1.9406659721806019,
                2.3156191094953114,
                -0.43914017696807406,
                0.3858520236622518,
                -2.8519608126772757
            ]
        },
        {
            "positions": [
                0.37381060529922383,
                -1.9164074798574648,
                2.33059297254319,
                -0.3863009337416501,
                0.4608228663942062,
                -2.916188512720875
            ]
        },
        {
            "positions": [
                0.5364612602541028,
                -1.8921489875343283,
                2.3455668355910686,
                -0.3334616905152261,
                0.5357937091261603,
                -2.9804162127644744
            ]
        },
        {
            "positions": [
                0.6204476354853424,
                -1.8997052188187662,
                2.3697684276041935,
                -0.40095582382124495,
                0.6188606522198714,
                -3.0545115783448824
            ]
        },
        {
            "positions": [
                0.7044340107165821,
                -1.9072614501032041,
                2.393970019617318,
                -0.4684499571272638,
                0.7019275953135824,
                -3.1286069439252904
            ]
        }
    ]
}