{
    "goal": {
        "global_pose": {
            "orientation": {
                "w": 0.5084816217422485,
                "x": -0.49083608388900757,
                "y": 0.5182115435600281,
                "z": -0.4816462993621826
            },
            "position": {
                "x": 0.5540239810943604,
                "y": 0.030875300988554955,
                "z": 0.16403168439865112
            }
        },
        "name": "move_to_storage_A"
    },
    "id": "LBKPIECE_move_to_storage_A_43",
    "joint_names": [
        "shoulder_pan_joint",
        "shoulder_lift_joint",
        "elbow_joint",
        "wrist_1_joint",
        "wrist_2_joint",
        "wrist_3_joint"
    ],
    "metrics": {
        "cart_traj_len": 0.35287891233729085,
        "distance_elbow_joint": 0.4497981728700089,
        "distance_shoulder_lift_joint": 0.23621588237926283,
        "distance_shoulder_pan_joint": 0.4629124832224935,
        "distance_wrist_1_joint": 0.23841897050077498,
        "distance_wrist_2_joint": 1.0930456569244713,
        "distance_wrist_3_joint": 0.09207094171412011,
        "smoothness": 4.440892098500626e-16,
        "time": 0.34469371,
        "traj_len": 1.6038896806236804,
        "weighted_distance": 2.021897281877746
    },
    "planner": "LBKPIECE",
    "start": {
        "state": {
            "elbow_joint": 1.9715463870305268,
            "shoulder_lift_joint": -1.1394903361783484,
            "shoulder_pan_joint": 0.12281147578464417,
            "wrist_1_joint": -0.7804599489681411,
            "wrist_2_joint": 0.12958660307563738,
            "wrist_3_joint": -3.1924946282119055
        }
    },
    "waypoints": [
        {
            "positions": [
                0.12281147578464417,
                -1.1394903361783484,
                1.9715463870305268,
                -0.7804599489681411,
                0.12958660307563738,
                -3.1924946282119055
            ]
        },
        {
            "positions": [
                0.05668112103857367,
                -1.1732354622325287,
                2.0358032688690995,
                -0.8145198018968233,
                0.28573598263627614,
                -3.1793416365384597
            ]
        },
        {
            "positions": [
                -0.009449233707496826,
                -1.2069805882867093,
                2.100060150707672,
                -0.8485796548255053,
                0.4418853621969149,
                -3.1661886448650143
            ]
        },
        {
            "positions": [
                -0.07557958845356731,
                -1.2407257143408896,
                2.164317032546245,
                -0.8826395077541875,
                0.5980347417575537,
                -3.1530356531915684
            ]
        },
        {
            "positions": [
                -0.1417099431996378,
                -1.27447084039507,
                2.2285739143848176,
                -0.9166993606828696,
                0.7541841213181925,
                -3.1398826615181226
            ]
        },
        {
            "positions": [
                -0.20784029794570835,
                -1.3082159664492505,
                2.2928307962233903,
                -0.9507592136115518,
                0.9103335008788312,
                -3.1267296698446767
            ]
        },
        {
            "positions": [
                -0.2739706526917788,
                -1.3419610925034309,
                2.357087678061963,
                -0.9848190665402339,
                1.06648288043947,
                -3.1135766781712313
            ]
        },
        {
            "positions": [
                -0.3401010074378493,
                -1.3757062185576112,
                2.4213445599005357,
                -1.018878919468916,
                1.2226322600001087,
                -3.1004236864977854
            ]
        }
    ]
}