{
    "goal": {
        "global_pose": {
            "orientation": {
                "w": 0.7031023502349854,
                "x": -0.7110244035720825,
                "y": 0.007748599164187908,
                "z": 0.005598929710686207
            },
            "position": {
                "x": 0.11585023208521307,
                "y": 0.44412534475326537,
                "z": 0.3711530566215515
            }
        },
        "name": "move_to_auspresseinheit_A"
    },
    "id": "LBKPIECE_move_to_auspresseinheit_A_119",
    "joint_names": [
        "shoulder_pan_joint",
        "shoulder_lift_joint",
        "elbow_joint",
        "wrist_1_joint",
        "wrist_2_joint",
        "wrist_3_joint"
    ],
    "metrics": {
        "cart_traj_len": 1.2625660198964646,
        "distance_elbow_joint": 0.5697361332564399,
        "distance_shoulder_lift_joint": 1.0648740618886694,
        "distance_shoulder_pan_joint": 1.2999782910328754,
        "distance_wrist_1_joint": 0.6998514656567477,
        "distance_wrist_2_joint": 2.8006224776759616,
        "distance_wrist_3_joint": 2.6957623099540022,
        "smoothness": 0.93095274561419,
        "time": 0.7148032440000001,
        "traj_len": 3.0217254573280967,
        "weighted_distance": 4.245329587052742
    },
    "planner": "LBKPIECE",
    "start": {
        "state": {
            "elbow_joint": 2.422574709923281,
            "shoulder_lift_joint": -1.3736533754116391,
            "shoulder_pan_joint": -0.33786336945926293,
            "wrist_1_joint": -1.0288603412921917,
            "wrist_2_joint": 1.2330224858903978,
            "wrist_3_joint": -3.094022268022082
        }
    },
    "waypoints": [
        {
            "positions": [
                -0.33786336945926293,
                -1.3736533754116391,
                2.422574709923281,
                -1.0288603412921917,
                1.2330224858903978,
                -3.094022268022082
            ]
        },
        {
            "positions": [
                -0.29010542961328645,
                -1.4327878759411448,
                2.3951917928604085,
                -0.9813880434720968,
                1.1591052399328396,
                -2.974057657204854
            ]
        },
        {
            "positions": [
                -0.24234748976731,
                -1.4919223764706506,
                2.3678088757975364,
                -0.933915745652002,
                1.0851879939752815,
                -2.8540930463876255
            ]
        },
        {
            "positions": [
                -0.19458954992133354,
                -1.5510568770001563,
                2.340425958734664,
                -0.8864434478319071,
                1.0112707480177237,
                -2.734128435570397
            ]
        },
        {
            "positions": [
                -0.14683161007535706,
                -1.6101913775296621,
                2.3130430416717913,
                -0.8389711500118122,
                0.9373535020601655,
                -2.614163824753169
            ]
        },
        {
            "positions": [
                -0.0990736702293806,
                -1.6693258780591678,
                2.2856601246089188,
                -0.7914988521917175,
                0.8634362561026074,
                -2.49419921393594
            ]
        },
        {
            "positions": [
                -0.051315730383404146,
                -1.7284603785886734,
                2.2582772075460467,
                -0.7440265543716225,
                0.7895190101450493,
                -2.374234603118712
            ]
        },
        {
            "positions": [
                -0.003557790537427663,
                -1.787594879118179,
                2.230894290483174,
                -0.6965542565515277,
                0.7156017641874913,
                -2.2542699923014835
            ]
        },
        {
            "positions": [
                0.04420014930854882,
                -1.846729379647685,
                2.2035113734203016,
                -0.6490819587314327,
                0.6416845182299332,
                -2.134305381484255
            ]
        },
        {
            "positions": [
                0.0919580891545253,
                -1.9058638801771908,
                2.176128456357429,
                -0.6016096609113379,
                0.5677672722723751,
                -2.014340770667027
            ]
        },
        {
            "positions": [
                0.13971602900050173,
                -1.9649983807066964,
                2.148745539294557,
                -0.5541373630912431,
                0.4938500263148171,
                -1.8943761598497986
            ]
        },
        {
            "positions": [
                0.18747396884647827,
                -2.024132881236202,
                2.1213626222316844,
                -0.5066650652711482,
                0.419932780357259,
                -1.7744115490325703
            ]
        },
        {
            "positions": [
                0.29490520971590733,
                -2.0487732257982323,
                2.1576583077372042,
                -0.5169207111686575,
                0.2774675561009376,
                -1.7891777401991293
            ]
        },
        {
            "positions": [
                0.4023364505853364,
                -2.0734135703602625,
                2.193953993242724,
                -0.5271763570661667,
                0.13500233184461619,
                -1.8039439313656884
            ]
        },
        {
            "positions": [
                0.5097676914547655,
                -2.0980539149222928,
                2.230249678748244,
                -0.5374320029636759,
                -0.00746289241170528,
                -1.8187101225322475
            ]
        },
        {
            "positions": [
                0.6171989323241945,
                -2.122694259484323,
                2.2665453642537643,
                -0.5476876488611852,
                -0.14992811666802663,
                -1.8334763136988066
            ]
        },
        {
            "positions": [
                0.7246301731936237,
                -2.1473346040463532,
                2.302841049759284,
                -0.5579432947586944,
                -0.2923933409243482,
                -1.8482425048653657
            ]
        },
        {
            "positions": [
                0.8320614140630527,
                -2.1719749486083835,
                2.339136735264804,
                -0.5681989406562037,
                -0.4348585651806695,
                -1.8630086960319248
            ]
        },
        {
            "positions": [
                0.8158047256242328,
                -2.138655887521893,
                2.3454804768312694,
                -0.5536836513748726,
                -0.29326588685505783,
                -2.0239530015275666
            ]
        },
        {
            "positions": [
                0.7995480371854129,
                -2.105336826435402,
                2.351824218397735,
                -0.5391683620935415,
                -0.1516732085294461,
                -2.184897307023209
            ]
        },
        {
            "positions": [
                0.7832913487465929,
                -2.0720177653489116,
                2.3581679599642005,
                -0.5246530728122104,
                -0.010080530203834426,
                -2.345841612518851
            ]
        },
        {
            "positions": [
                0.767034660307773,
                -2.038698704262421,
                2.364511701530666,
                -0.5101377835308794,
                0.1315121481217773,
                -2.5067859180144927
            ]
        },
        {
            "positions": [
                0.7507779718689531,
                -2.0053796431759303,
                2.370855443097131,
                -0.4956224942495483,
                0.27310482644738904,
                -2.6677302235101346
            ]
        },
        {
            "positions": [
                0.7345212834301331,
                -1.9720605820894397,
                2.3771991846635965,
                -0.4811072049682172,
                0.41469750477300066,
                -2.8286745290057764
            ]
        },
        {
            "positions": [
                0.7182645949913132,
                -1.938741521002949,
                2.3835429262300623,
                -0.46659191568688607,
                0.5562901830986124,
                -2.9896188345014187
            ]
        },
        {
            "positions": [
                0.7020079065524933,
                -1.9054224599164584,
                2.3898866677965276,
                -0.452076626405555,
                0.6978828614242241,
                -3.1505631399970606
            ]
        }
    ]
}