{
    "goal": {
        "global_pose": {
            "orientation": {
                "w": -0.00223480608172531,
                "x": 0.0024358444001904467,
                "y": 0.7094548369677653,
                "z": -0.704743149386269
            },
            "position": {
                "x": 0.6205249238014221,
                "y": -0.6371506643295288,
                "z": 0.19426114857196808
            }
        },
        "name": "move_to_magneteinheit_B"
    },
    "id": "LBKPIECE_move_to_magneteinheit_B_109",
    "joint_names": [
        "shoulder_pan_joint",
        "shoulder_lift_joint",
        "elbow_joint",
        "wrist_1_joint",
        "wrist_2_joint",
        "wrist_3_joint"
    ],
    "metrics": {
        "cart_traj_len": 3.5415023736802813,
        "distance_elbow_joint": 4.400788966242709,
        "distance_shoulder_lift_joint": 0.7848744644817742,
        "distance_shoulder_pan_joint": 2.526484804066735,
        "distance_wrist_1_joint": 2.8616847787791495,
        "distance_wrist_2_joint": 0.7281898350943856,
        "distance_wrist_3_joint": 3.288218099993513,
        "smoothness": 0.24946293641774864,
        "time": 1.074924457,
        "traj_len": 3.8197173912029494,
        "weighted_distance": 4.975595618870049
    },
    "planner": "LBKPIECE",
    "start": {
        "state": {
            "elbow_joint": 2.39358713078474,
            "shoulder_lift_joint": -1.908514104345545,
            "shoulder_pan_joint": 0.7066247066606129,
            "wrist_1_joint": -0.4678290933515497,
            "wrist_2_joint": 0.7096259083745334,
            "wrist_3_joint": -3.1358149277392293
        }
    },
    "waypoints": [
        {
            "positions": [
                0.7066247066606129,
                -1.908514104345545,
                2.39358713078474,
                -0.4678290933515497,
                0.7096259083745334,
                -3.1358149277392293
            ]
        },
        {
            "positions": [
                0.5655777879186781,
                -1.9126871759285815,
                2.334315574754327,
                -0.3192901847703076,
                0.7261129448541871,
                -3.1261599815713295
            ]
        },
        {
            "positions": [
                0.551077196318121,
                -1.901779473165791,
                2.1866716623857854,
                -0.21363756350802882,
                0.737070864705164,
                -3.0217657186956
            ]
        },
        {
            "positions": [
                0.536576604717564,
                -1.8908717704030007,
                2.039027750017244,
                -0.10798494224575006,
                0.7480287845561409,
                -2.917371455819871
            ]
        },
        {
            "positions": [
                0.5220760131170069,
                -1.8799640676402103,
                1.8913838376487022,
                -0.0023323209834713587,
                0.7589867044071177,
                -2.812977192944142
            ]
        },
        {
            "positions": [
                0.50757542151645,
                -1.8690563648774199,
                1.7437399252801606,
                0.10332030027880745,
                0.7699446242580946,
                -2.7085829300684128
            ]
        },
        {
            "positions": [
                0.4930748299158929,
                -1.8581486621146295,
                1.596096012911619,
                0.20897292154108615,
                0.7809025441090716,
                -2.6041886671926835
            ]
        },
        {
            "positions": [
                0.47857423831533585,
                -1.847240959351839,
                1.4484521005430775,
                0.31462554280336485,
                0.7918604639600484,
                -2.499794404316954
            ]
        },
        {
            "positions": [
                0.4640736467147788,
                -1.8363332565890487,
                1.3008081881745361,
                0.42027816406564356,
                0.8028183838110252,
                -2.3954001414412254
            ]
        },
        {
            "positions": [
                0.44957305511422174,
                -1.8254255538262583,
                1.1531642758059946,
                0.5259307853279225,
                0.8137763036620022,
                -2.291005878565496
            ]
        },
        {
            "positions": [
                0.4350724635136647,
                -1.8145178510634679,
                1.005520363437453,
                0.6315834065902012,
                0.8247342235129791,
                -2.186611615689767
            ]
        },
        {
            "positions": [
                0.4205718719131077,
                -1.8036101483006775,
                0.8578764510689114,
                0.7372360278524799,
                0.8356921433639559,
                -2.0822173528140375
            ]
        },
        {
            "positions": [
                0.5051056818568609,
                -1.8159477960809405,
                0.725698424483197,
                0.7881196273571286,
                0.8428754202591725,
                -1.9781930528622649
            ]
        },
        {
            "positions": [
                0.5896394918006141,
                -1.8282854438612037,
                0.5935203978974826,
                0.8390032268617772,
                0.8500586971543891,
                -1.874168752910492
            ]
        },
        {
            "positions": [
                0.6741733017443674,
                -1.8406230916414668,
                0.46134237131176825,
                0.8898868263664259,
                0.8572419740496056,
                -1.7701444529587194
            ]
        },
        {
            "positions": [
                0.7587071116881207,
                -1.85296073942173,
                0.3291643447260538,
                0.9407704258710745,
                0.8644252509448221,
                -1.6661201530069467
            ]
        },
        {
            "positions": [
                0.8432409216318739,
                -1.865298387201993,
                0.1969863181403395,
                0.9916540253757232,
                0.8716085278400387,
                -1.5620958530551738
            ]
        },
        {
            "positions": [
                0.9277747315756271,
                -1.877636034982256,
                0.06480829155462509,
                1.042537624880372,
                0.8787918047352553,
                -1.4580715531034012
            ]
        },
        {
            "positions": [
                1.0123085415193804,
                -1.8899736827625193,
                -0.06736973503108923,
                1.0934212243850205,
                0.8859750816304719,
                -1.3540472531516285
            ]
        },
        {
            "positions": [
                1.0968423514631336,
                -1.9023113305427823,
                -0.19954776161680376,
                1.1443048238896691,
                0.8931583585256885,
                -1.250022953199856
            ]
        },
        {
            "positions": [
                1.1813761614068867,
                -1.9146489783230456,
                -0.33172578820251797,
                1.195188423394318,
                0.900341635420905,
                -1.1459986532480833
            ]
        },
        {
            "positions": [
                1.26590997135064,
                -1.9269866261033086,
                -0.4639038147882324,
                1.2460720228989666,
                0.9075249123161215,
                -1.0419743532963104
            ]
        },
        {
            "positions": [
                1.3504437812943932,
                -1.9393242738835719,
                -0.5960818413739468,
                1.2969556224036154,
                0.9147081892113381,
                -0.9379500533445377
            ]
        },
        {
            "positions": [
                1.4349775912381466,
                -1.951661921663835,
                -0.7282598679596612,
                1.3478392219082638,
                0.9218914661065547,
                -0.8339257533927649
            ]
        },
        {
            "positions": [
                1.5195114011818998,
                -1.963999569444098,
                -0.8604378945453754,
                1.3987228214129126,
                0.9290747430017713,
                -0.7299014534409924
            ]
        },
        {
            "positions": [
                1.6040452111256531,
                -1.9763372172243612,
                -0.9926159211310899,
                1.4496064209175612,
                0.9362580198969879,
                -0.6258771534892196
            ]
        },
        {
            "positions": [
                1.6885790210694063,
                -1.9886748650046242,
                -1.1247939477168043,
                1.5004900204222098,
                0.9434412967922043,
                -0.5218528535374469
            ]
        },
        {
            "positions": [
                1.7731128310131596,
                -2.0010125127848872,
                -1.256971974302519,
                1.5513736199268586,
                0.9506245736874209,
                -0.41782855358567406
            ]
        },
        {
            "positions": [
                1.8576466409569128,
                -2.0133501605651505,
                -1.3891500008882334,
                1.6022572194315072,
                0.9578078505826375,
                -0.31380425363390135
            ]
        },
        {
            "positions": [
                1.9819757697569533,
                -2.045169722097513,
                -1.5000545312535654,
                1.6298657948461854,
                0.9542672931101887,
                -0.2260189457901367
            ]
        },
        {
            "positions": [
                2.106304898556994,
                -2.076989283629875,
                -1.6109590616188971,
                1.6574743702608634,
                0.9507267356377399,
                -0.13823363794637203
            ]
        },
        {
            "positions": [
                2.230634027357034,
                -2.1088088451622373,
                -1.7218635919842291,
                1.6850829456755416,
                0.947186178165291,
                -0.05044833010260737
            ]
        },
        {
            "positions": [
                2.329186915788786,
                -2.1660060381133506,
                -1.7514075137838376,
                1.6119774740476218,
                0.8859258167045009,
                -0.014386825751545283
            ]
        },
        {
            "positions": [
                2.4277398042205385,
                -2.2232032310644634,
                -1.7809514355834462,
                1.5388720024197018,
                0.8246654552437107,
                0.0216746785995168
            ]
        },
        {
            "positions": [
                2.526292692652291,
                -2.2804004240155766,
                -1.8104953573830547,
                1.465766530791782,
                0.7634050937829204,
                0.057736182950578877
            ]
        },
        {
            "positions": [
                2.6248455810840428,
                -2.33759761696669,
                -1.8400392791826632,
                1.3926610591638622,
                0.7021447323221303,
                0.09379768730164097
            ]
        },
        {
            "positions": [
                2.6368983344668075,
                -2.3834765825016304,
                -1.784318427090895,
                1.253877441417069,
                0.6273631407802055,
                0.07426252565075969
            ]
        },
        {
            "positions": [
                2.6489510878495723,
                -2.4293555480365705,
                -1.7285975749991265,
                1.1150938236702759,
                0.5525815492382807,
                0.05472736399987841
            ]
        },
        {
            "positions": [
                2.661003841232337,
                -2.475234513571511,
                -1.6728767229073582,
                0.9763102059234828,
                0.4777999576963559,
                0.03519220234899713
            ]
        }
    ]
}