{
    "goal": {
        "global_pose": {
            "orientation": {
                "w": 0.5084816217422485,
                "x": -0.49083608388900757,
                "y": 0.5182115435600281,
                "z": -0.4816462993621826
            },
            "position": {
                "x": 0.5540239810943604,
                "y": 0.030875300988554955,
                "z": 0.16403168439865112
            }
        },
        "name": "move_to_storage_A"
    },
    "id": "LBKPIECE_move_to_storage_A_7",
    "joint_names": [
        "shoulder_pan_joint",
        "shoulder_lift_joint",
        "elbow_joint",
        "wrist_1_joint",
        "wrist_2_joint",
        "wrist_3_joint"
    ],
    "metrics": {
        "cart_traj_len": 0.35217895677395517,
        "distance_elbow_joint": 0.4502305792377972,
        "distance_shoulder_lift_joint": 0.23527225007037011,
        "distance_shoulder_pan_joint": 0.4607333597677398,
        "distance_wrist_1_joint": 0.24380858150700224,
        "distance_wrist_2_joint": 1.0965603166364262,
        "distance_wrist_3_joint": 0.09450687242661537,
        "smoothness": 1.3322676365830568e-15,
        "time": 0.50436134,
        "traj_len": 1.60658394105193,
        "weighted_distance": 2.0274354743474845
    },
    "planner": "LBKPIECE",
    "start": {
        "state": {
            "elbow_joint": 1.9715463870305268,
            "shoulder_lift_joint": -1.1394903361783484,
            "shoulder_pan_joint": 0.12281147578464417,
            "wrist_1_joint": -0.7804599489681411,
            "wrist_2_joint": 0.12958660307563738,
            "wrist_3_joint": -3.1924946282119055
        }
    },
    "waypoints": [
        {
            "positions": [
                0.12281147578464417,
                -1.1394903361783484,
                1.9715463870305268,
                -0.7804599489681411,
                0.12958660307563738,
                -3.1924946282119055
            ]
        },
        {
            "positions": [
                0.05699242438925277,
                -1.1731006576169727,
                2.035865041207355,
                -0.8152897463262843,
                0.28623807688084113,
                -3.1789936464366746
            ]
        },
        {
            "positions": [
                -0.008826627006138635,
                -1.206710979055597,
                2.100183695384183,
                -0.8501195436844274,
                0.44288955068604485,
                -3.165492664661444
            ]
        },
        {
            "positions": [
                -0.07464567840153004,
                -1.2403213004942213,
                2.1645023495610114,
                -0.8849493410425706,
                0.5995410244912486,
                -3.151991682886213
            ]
        },
        {
            "positions": [
                -0.14046472979692143,
                -1.2739316219328456,
                2.2288210037378393,
                -0.9197791384007138,
                0.7561924982964523,
                -3.1384907011109826
            ]
        },
        {
            "positions": [
                -0.20628378119231283,
                -1.30754194337147,
                2.2931396579146677,
                -0.954608935758857,
                0.9128439721016561,
                -3.1249897193357516
            ]
        },
        {
            "positions": [
                -0.27210283258770424,
                -1.3411522648100942,
                2.3574583120914956,
                -0.9894387331170001,
                1.0694954459068597,
                -3.111488737560521
            ]
        },
        {
            "positions": [
                -0.33792188398309564,
                -1.3747625862487185,
                2.421776966268324,
                -1.0242685304751433,
                1.2261469197120636,
                -3.09798775578529
            ]
        }
    ]
}