{
    "goal": {
        "global_pose": {
            "orientation": {
                "w": 0.7031023502349854,
                "x": -0.7110244035720825,
                "y": 0.007748599164187908,
                "z": 0.005598929710686207
            },
            "position": {
                "x": 0.11585023208521307,
                "y": 0.44412534475326537,
                "z": 0.3711530566215515
            }
        },
        "name": "move_to_auspresseinheit_A"
    },
    "id": "LBKPIECE_move_to_auspresseinheit_A_147",
    "joint_names": [
        "shoulder_pan_joint",
        "shoulder_lift_joint",
        "elbow_joint",
        "wrist_1_joint",
        "wrist_2_joint",
        "wrist_3_joint"
    ],
    "metrics": {
        "cart_traj_len": 5.593787864643519,
        "distance_elbow_joint": 6.886240339591783,
        "distance_shoulder_lift_joint": 0.5361855530887982,
        "distance_shoulder_pan_joint": 4.983622440908003,
        "distance_wrist_1_joint": 2.239554932718997,
        "distance_wrist_2_joint": 1.887088612399758,
        "distance_wrist_3_joint": 6.147615697675162,
        "smoothness": 0.6781888092529796,
        "time": 0.717669267,
        "traj_len": 4.762384652291592,
        "weighted_distance": 6.25317379550989
    },
    "planner": "LBKPIECE",
    "start": {
        "state": {
            "elbow_joint": 2.422574709923281,
            "shoulder_lift_joint": -1.3736533754116391,
            "shoulder_pan_joint": -0.33786336945926293,
            "wrist_1_joint": -1.0288603412921917,
            "wrist_2_joint": 1.2330224858903978,
            "wrist_3_joint": -3.094022268022082
        }
    },
    "waypoints": [
        {
            "positions": [
                -0.33786336945926293,
                -1.3736533754116391,
                2.422574709923281,
                -1.0288603412921917,
                1.2330224858903978,
                -3.094022268022082
            ]
        },
        {
            "positions": [
                -0.24542879578955817,
                -1.3816762828790636,
                2.307368433414864,
                -0.9823493719232578,
                1.25586336818732,
                -2.992094375852351
            ]
        },
        {
            "positions": [
                -0.1529942221198534,
                -1.389699190346488,
                2.1921621569064462,
                -0.9358384025543237,
                1.278704250484242,
                -2.890166483682619
            ]
        },
        {
            "positions": [
                -0.060559648450148607,
                -1.3977220978139124,
                2.076955880398029,
                -0.8893274331853898,
                1.3015451327811642,
                -2.7882385915128878
            ]
        },
        {
            "positions": [
                0.03187492521955615,
                -1.405745005281337,
                1.9617496038896114,
                -0.8428164638164557,
                1.3243860150780862,
                -2.6863106993431565
            ]
        },
        {
            "positions": [
                0.1243094988892609,
                -1.4137679127487612,
                1.8465433273811942,
                -0.7963054944475217,
                1.3472268973750083,
                -2.5843828071734247
            ]
        },
        {
            "positions": [
                0.21674407255896572,
                -1.4217908202161857,
                1.7313370508727766,
                -0.7497945250785877,
                1.3700677796719305,
                -2.4824549150036934
            ]
        },
        {
            "positions": [
                0.3091786462286705,
                -1.42981372768361,
                1.6161307743643594,
                -0.7032835557096537,
                1.3929086619688527,
                -2.380527022833962
            ]
        },
        {
            "positions": [
                0.40161321989837523,
                -1.4378366351510345,
                1.500924497855942,
                -0.6567725863407197,
                1.4157495442657748,
                -2.278599130664231
            ]
        },
        {
            "positions": [
                0.49404779356808,
                -1.445859542618459,
                1.3857182213475245,
                -0.6102616169717857,
                1.438590426562697,
                -2.1766712384944995
            ]
        },
        {
            "positions": [
                0.5864823672377848,
                -1.4538824500858833,
                1.2705119448391073,
                -0.5637506476028518,
                1.4614313088596191,
                -2.0747433463247678
            ]
        },
        {
            "positions": [
                0.6789169409074893,
                -1.4619053575533079,
                1.15530566833069,
                -0.5172396782339177,
                1.484272191156541,
                -1.9728154541550365
            ]
        },
        {
            "positions": [
                0.7713515145771943,
                -1.4699282650207324,
                1.0400993918222723,
                -0.47072870886498364,
                1.5071130734534632,
                -1.8708875619853047
            ]
        },
        {
            "positions": [
                0.8637860882468991,
                -1.4779511724881567,
                0.9248931153138551,
                -0.4242177394960497,
                1.5299539557503854,
                -1.7689596698155734
            ]
        },
        {
            "positions": [
                0.9562206619166038,
                -1.4859740799555812,
                0.8096868388054377,
                -0.3777067701271156,
                1.5527948380473076,
                -1.6670317776458419
            ]
        },
        {
            "positions": [
                1.0486552355863086,
                -1.4939969874230057,
                0.6944805622970203,
                -0.33119580075818167,
                1.5756357203442297,
                -1.5651038854761106
            ]
        },
        {
            "positions": [
                1.1410898092560133,
                -1.50201989489043,
                0.5792742857886028,
                -0.2846848313892477,
                1.5984766026411519,
                -1.4631759933063793
            ]
        },
        {
            "positions": [
                1.233524382925718,
                -1.5100428023578545,
                0.46406800928018543,
                -0.23817386202031365,
                1.621317484938074,
                -1.3612481011366477
            ]
        },
        {
            "positions": [
                1.3259589565954228,
                -1.5180657098252788,
                0.348861732771768,
                -0.1916628926513797,
                1.6441583672349962,
                -1.2593202089669164
            ]
        },
        {
            "positions": [
                1.4183935302651276,
                -1.5260886172927033,
                0.23365545626335082,
                -0.14515192328244575,
                1.6669992495319184,
                -1.157392316797185
            ]
        },
        {
            "positions": [
                1.5108281039348324,
                -1.5341115247601278,
                0.11844917975493363,
                -0.09864095391351169,
                1.6898401318288403,
                -1.0554644246274534
            ]
        },
        {
            "positions": [
                1.6032626776045371,
                -1.542134432227552,
                0.0032429032465159935,
                -0.052129984544577734,
                1.7126810141257625,
                -0.9535365324577221
            ]
        },
        {
            "positions": [
                1.6956972512742416,
                -1.5501573396949766,
                -0.1119633732619012,
                -0.005619015175643671,
                1.7355218964226846,
                -0.8516086402879908
            ]
        },
        {
            "positions": [
                1.788131824943947,
                -1.558180247162401,
                -0.22716964977031884,
                0.04089195419329039,
                1.7583627787196068,
                -0.749680748118259
            ]
        },
        {
            "positions": [
                1.8805663986136516,
                -1.5662031546298254,
                -0.3423759262787365,
                0.08740292356222445,
                1.781203661016529,
                -0.6477528559485273
            ]
        },
        {
            "positions": [
                1.9730009722833566,
                -1.57422606209725,
                -0.45758220278715367,
                0.13391389293115852,
                1.804044543313451,
                -0.545824963778796
            ]
        },
        {
            "positions": [
                2.0654355459530613,
                -1.5822489695646742,
                -0.5727884792955709,
                0.18042486230009236,
                1.826885425610373,
                -0.44389707160906466
            ]
        },
        {
            "positions": [
                2.1578701196227663,
                -1.5902718770320987,
                -0.6879947558039885,
                0.22693583166902642,
                1.8497263079072952,
                -0.34196917943933336
            ]
        },
        {
            "positions": [
                2.250304693292471,
                -1.5982947844995232,
                -0.8032010323124057,
                0.2734468010379605,
                1.8725671902042174,
                -0.2400412872696016
            ]
        },
        {
            "positions": [
                2.342739266962176,
                -1.6063176919669475,
                -0.9184073088208233,
                0.3199577704068943,
                1.8954080725011395,
                -0.1381133950998703
            ]
        },
        {
            "positions": [
                2.4351738406318804,
                -1.614340599434372,
                -1.0336135853292405,
                0.3664687397758284,
                1.9182489547980617,
                -0.036185502930139
            ]
        },
        {
            "positions": [
                2.3622459022660087,
                -1.6227291783572408,
                -0.9069557727858498,
                0.3354004795658223,
                1.877648760081421,
                -0.13834858051509794
            ]
        },
        {
            "positions": [
                2.289317963900137,
                -1.6311177572801094,
                -0.7802979602424591,
                0.3043322193558162,
                1.83704856536478,
                -0.24051165810005687
            ]
        },
        {
            "positions": [
                2.2163900255342655,
                -1.6395063362029783,
                -0.6536401476990685,
                0.2732639591458101,
                1.7964483706481391,
                -0.3426747356850158
            ]
        },
        {
            "positions": [
                2.143462087168394,
                -1.6478949151258468,
                -0.5269823351556778,
                0.242195698935804,
                1.7558481759314981,
                -0.44483781326997474
            ]
        },
        {
            "positions": [
                2.0705341488025217,
                -1.6562834940487157,
                -0.40032452261228724,
                0.2111274387257979,
                1.7152479812148573,
                -0.5470008908549336
            ]
        },
        {
            "positions": [
                1.99760621043665,
                -1.6646720729715845,
                -0.27366671006889653,
                0.1800591785157918,
                1.6746477864982163,
                -0.6491639684398925
            ]
        },
        {
            "positions": [
                1.9246782720707785,
                -1.673060651894453,
                -0.14700889752550583,
                0.1489909183057857,
                1.6340475917815755,
                -0.7513270460248516
            ]
        },
        {
            "positions": [
                1.8517503337049068,
                -1.681449230817322,
                -0.02035108498211513,
                0.11792265809577962,
                1.5934473970649345,
                -0.8534901236098105
            ]
        },
        {
            "positions": [
                1.7788223953390352,
                -1.6898378097401905,
                0.10630672756127546,
                0.08685439788577354,
                1.5528472023482938,
                -0.9556532011947694
            ]
        },
        {
            "positions": [
                1.7058944569731636,
                -1.6982263886630593,
                0.23296454010466605,
                0.0557861376757674,
                1.5122470076316528,
                -1.0578162787797283
            ]
        },
        {
            "positions": [
                1.632966518607292,
                -1.706614967585928,
                0.35962235264805686,
                0.024717877465761318,
                1.471646812915012,
                -1.1599793563646872
            ]
        },
        {
            "positions": [
                1.56003858024142,
                -1.7150035465087967,
                0.48628016519144746,
                -0.006350382744244765,
                1.431046618198371,
                -1.262142433949646
            ]
        },
        {
            "positions": [
                1.4871106418755484,
                -1.7233921254316655,
                0.612937977734838,
                -0.03741864295425085,
                1.3904464234817302,
                -1.3643055115346052
            ]
        },
        {
            "positions": [
                1.4141827035096768,
                -1.7317807043545341,
                0.7395957902782289,
                -0.06848690316425698,
                1.3498462287650894,
                -1.4664685891195641
            ]
        },
        {
            "positions": [
                1.341254765143805,
                -1.740169283277403,
                0.8662536028216197,
                -0.09955516337426312,
                1.3092460340484484,
                -1.5686316667045233
            ]
        },
        {
            "positions": [
                1.2683268267779333,
                -1.7485578622002715,
                0.9929114153650103,
                -0.13062342358426915,
                1.2686458393318074,
                -1.670794744289482
            ]
        },
        {
            "positions": [
                1.1953988884120614,
                -1.7569464411231404,
                1.1195692279084009,
                -0.16169168379427534,
                1.2280456446151664,
                -1.772957821874441
            ]
        },
        {
            "positions": [
                1.12247095004619,
                -1.7653350200460092,
                1.2462270404517914,
                -0.19275994400428131,
                1.1874454498985259,
                -1.8751208994593997
            ]
        },
        {
            "positions": [
                1.0495430116803182,
                -1.7737235989688778,
                1.3728848529951825,
                -0.2238282042142875,
                1.1468452551818848,
                -1.9772839770443589
            ]
        },
        {
            "positions": [
                0.9766150733144465,
                -1.7821121778917466,
                1.4995426655385726,
                -0.2548964644242936,
                1.1062450604652438,
                -2.0794470546293176
            ]
        },
        {
            "positions": [
                0.9036871349485747,
                -1.7905007568146152,
                1.6262004780819637,
                -0.28596472463429967,
                1.065644865748603,
                -2.181610132214277
            ]
        },
        {
            "positions": [
                0.8307591965827033,
                -1.798889335737484,
                1.7528582906253543,
                -0.31703298484430575,
                1.0250446710319623,
                -2.2837732097992354
            ]
        },
        {
            "positions": [
                0.7578312582168314,
                -1.8072779146603528,
                1.8795161031687448,
                -0.34810124505431184,
                0.9844444763153213,
                -2.3859362873841947
            ]
        },
        {
            "positions": [
                0.6849033198509598,
                -1.8156664935832214,
                2.0061739157121354,
                -0.3791695052643179,
                0.9438442815986804,
                -2.488099364969153
            ]
        },
        {
            "positions": [
                0.6119753814850879,
                -1.8240550725060902,
                2.1328317282555265,
                -0.4102377654743241,
                0.9032440868820395,
                -2.5902624425541125
            ]
        },
        {
            "positions": [
                0.5390474431192165,
                -1.8324436514289588,
                2.2594895407989166,
                -0.4413060256843301,
                0.8626438921653987,
                -2.6924255201390714
            ]
        },
        {
            "positions": [
                0.46611950475334457,
                -1.8408322303518276,
                2.3861473533423077,
                -0.4723742858943363,
                0.8220436974487577,
                -2.7945885977240303
            ]
        },
        {
            "positions": [
                0.5868849522225063,
                -1.8753355794261326,
                2.391292906176165,
                -0.4750656988847428,
                0.7692152543773628,
                -2.9602765166186944
            ]
        },
        {
            "positions": [
                0.707650399691668,
                -1.9098389285004373,
                2.396438459010023,
                -0.4777571118751494,
                0.7163868113059679,
                -3.1259644355133585
            ]
        }
    ]
}