{
    "goal": {
        "global_pose": {
            "orientation": {
                "w": 0.5084816217422485,
                "x": -0.49083608388900757,
                "y": 0.5182115435600281,
                "z": -0.4816462993621826
            },
            "position": {
                "x": 0.5540239810943604,
                "y": 0.030875300988554955,
                "z": 0.16403168439865112
            }
        },
        "name": "move_to_storage_A"
    },
    "id": "LBKPIECE_move_to_storage_A_19",
    "joint_names": [
        "shoulder_pan_joint",
        "shoulder_lift_joint",
        "elbow_joint",
        "wrist_1_joint",
        "wrist_2_joint",
        "wrist_3_joint"
    ],
    "metrics": {
        "cart_traj_len": 0.35225263165969306,
        "distance_elbow_joint": 0.45110338166709596,
        "distance_shoulder_lift_joint": 0.23364088143717066,
        "distance_shoulder_pan_joint": 0.46113695465536597,
        "distance_wrist_1_joint": 0.24935302569487827,
        "distance_wrist_2_joint": 1.0947130747646605,
        "distance_wrist_3_joint": 0.10836634113804777,
        "smoothness": 7.771561092534257e-16,
        "time": 0.448446684,
        "traj_len": 1.6119285528078529,
        "weighted_distance": 2.039390213297312
    },
    "planner": "LBKPIECE",
    "start": {
        "state": {
            "elbow_joint": 1.9715463870305268,
            "shoulder_lift_joint": -1.1394903361783484,
            "shoulder_pan_joint": 0.12281147578464417,
            "wrist_1_joint": -0.7804599489681411,
            "wrist_2_joint": 0.12958660307563738,
            "wrist_3_joint": -3.1924946282119055
        }
    },
    "waypoints": [
        {
            "positions": [
                0.12281147578464417,
                -1.1394903361783484,
                1.9715463870305268,
                -0.7804599489681411,
                0.12958660307563738,
                -3.1924946282119055
            ]
        },
        {
            "positions": [
                0.056934767976734746,
                -1.172867604955087,
                2.0359897272686833,
                -0.8160818097816951,
                0.2859741851848746,
                -3.1770137223350416
            ]
        },
        {
            "positions": [
                -0.00894193983117468,
                -1.2062448737318257,
                2.10043306750684,
                -0.8517036705952492,
                0.4423617672941118,
                -3.1615328164581777
            ]
        },
        {
            "positions": [
                -0.0748186476390841,
                -1.2396221425085643,
                2.1648764077449965,
                -0.8873255314088032,
                0.598749349403349,
                -3.146051910581314
            ]
        },
        {
            "positions": [
                -0.14069535544699352,
                -1.2729994112853031,
                2.229319747983153,
                -0.9229473922223572,
                0.7551369315125862,
                -3.1305710047044495
            ]
        },
        {
            "positions": [
                -0.20657206325490296,
                -1.3063766800620418,
                2.2937630882213096,
                -0.9585692530359113,
                0.9115245136218235,
                -3.1150900988275856
            ]
        },
        {
            "positions": [
                -0.27244877106281234,
                -1.3397539488387804,
                2.358206428459466,
                -0.9941911138494652,
                1.0679120957310606,
                -3.0996091929507217
            ]
        },
        {
            "positions": [
                -0.3383254788707218,
                -1.373131217615519,
                2.4226497686976227,
                -1.0298129746630194,
                1.224299677840298,
                -3.0841282870738578
            ]
        }
    ]
}