{
    "goal": {
        "global_pose": {
            "orientation": {
                "w": 0.7047431468963623,
                "x": -0.7094548344612122,
                "y": 0.0024358443915843964,
                "z": -0.0022348060738295317
            },
            "position": {
                "x": 0.6094750761985779,
                "y": 0.3671506643295288,
                "z": 0.19426114857196808
            }
        },
        "name": "move_to_magneteinheit_A"
    },
    "id": "LBKPIECE_move_to_magneteinheit_A_148",
    "joint_names": [
        "shoulder_pan_joint",
        "shoulder_lift_joint",
        "elbow_joint",
        "wrist_1_joint",
        "wrist_2_joint",
        "wrist_3_joint"
    ],
    "metrics": {
        "cart_traj_len": 2.067554808950396,
        "distance_elbow_joint": 3.8919489367599196,
        "distance_shoulder_lift_joint": 1.0636407641945365,
        "distance_shoulder_pan_joint": 1.2418637944610547,
        "distance_wrist_1_joint": 1.2140864158228162,
        "distance_wrist_2_joint": 1.4445479000242283,
        "distance_wrist_3_joint": 1.9716335115473456,
        "smoothness": 2.450147366813783e-16,
        "time": 0.584235239,
        "traj_len": 3.2905503069866446,
        "weighted_distance": 4.174879957765449
    },
    "planner": "LBKPIECE",
    "start": {
        "state": {
            "elbow_joint": -1.919643507792019,
            "shoulder_lift_joint": -0.07675430207160344,
            "shoulder_pan_joint": -1.1188671864651873,
            "wrist_1_joint": 0.42560062535961957,
            "wrist_2_joint": 1.5706038300724876,
            "wrist_3_joint": 1.1188968870953055
        }
    },
    "waypoints": [
        {
            "positions": [
                -1.1188671864651873,
                -0.07675430207160344,
                -1.919643507792019,
                0.42560062535961957,
                1.5706038300724876,
                1.1188968870953055
            ]
        },
        {
            "positions": [
                -1.0745149080915783,
                -0.11474147222140832,
                -1.7806453314791648,
                0.3822403962230904,
                1.5190128336430508,
                1.1893123696505679
            ]
        },
        {
            "positions": [
                -1.0301626297179691,
                -0.1527286423712132,
                -1.6416471551663105,
                0.33888016708656127,
                1.467421837213614,
                1.2597278522058302
            ]
        },
        {
            "positions": [
                -0.9858103513443601,
                -0.19071581252101805,
                -1.5026489788534563,
                0.2955199379500321,
                1.4158308407841775,
                1.3301433347610925
            ]
        },
        {
            "positions": [
                -0.941458072970751,
                -0.22870298267082292,
                -1.363650802540602,
                0.25215970881350297,
                1.3642398443547408,
                1.4005588173163548
            ]
        },
        {
            "positions": [
                -0.8971057945971419,
                -0.2666901528206278,
                -1.2246526262277477,
                0.20879947967697382,
                1.312648847925304,
                1.4709742998716173
            ]
        },
        {
            "positions": [
                -0.8527535162235328,
                -0.3046773229704327,
                -1.0856544499148935,
                0.16543925054044467,
                1.2610578514958672,
                1.5413897824268796
            ]
        },
        {
            "positions": [
                -0.8084012378499237,
                -0.34266449312023756,
                -0.9466562736020392,
                0.12207902140391552,
                1.2094668550664305,
                1.611805264982142
            ]
        },
        {
            "positions": [
                -0.7640489594763147,
                -0.3806516632700424,
                -0.8076580972891849,
                0.07871879226738637,
                1.1578758586369937,
                1.6822207475374042
            ]
        },
        {
            "positions": [
                -0.7196966811027055,
                -0.4186388334198473,
                -0.6686599209763306,
                0.03535856313085717,
                1.106284862207557,
                1.7526362300926666
            ]
        },
        {
            "positions": [
                -0.6753444027290965,
                -0.45662600356965216,
                -0.5296617446634764,
                -0.008001666005671926,
                1.0546938657781202,
                1.823051712647929
            ]
        },
        {
            "positions": [
                -0.6309921243554872,
                -0.49461317371945707,
                -0.3906635683506221,
                -0.051361895142201075,
                1.0031028693486836,
                1.8934671952031912
            ]
        },
        {
            "positions": [
                -0.5866398459818782,
                -0.5326003438692619,
                -0.25166539203776783,
                -0.09472212427873022,
                0.951511872919247,
                1.9638826777584537
            ]
        },
        {
            "positions": [
                -0.5422875676082691,
                -0.5705875140190668,
                -0.11266721572491356,
                -0.13808235341525937,
                0.8999208764898101,
                2.034298160313716
            ]
        },
        {
            "positions": [
                -0.49793528923466,
                -0.6085746841688717,
                0.02633096058794071,
                -0.18144258255178852,
                0.8483298800603735,
                2.1047136428689783
            ]
        },
        {
            "positions": [
                -0.4535830108610509,
                -0.6465618543186766,
                0.16532913690079476,
                -0.22480281168831767,
                0.7967388836309368,
                2.175129125424241
            ]
        },
        {
            "positions": [
                -0.4092307324874419,
                -0.6845490244684813,
                0.30432731321364925,
                -0.2681630408248468,
                0.7451478872015,
                2.245544607979503
            ]
        },
        {
            "positions": [
                -0.3648784541138328,
                -0.7225361946182862,
                0.4433254895265033,
                -0.31152326996137586,
                0.6935568907720634,
                2.315960090534765
            ]
        },
        {
            "positions": [
                -0.3205261757402236,
                -0.7605233647680911,
                0.5823236658393578,
                -0.35488349909790523,
                0.6419658943426265,
                2.386375573090028
            ]
        },
        {
            "positions": [
                -0.27617389736661446,
                -0.798510534917896,
                0.7213218421522123,
                -0.39824372823443427,
                0.5903748979131898,
                2.45679105564529
            ]
        },
        {
            "positions": [
                -0.23182161899300546,
                -0.8364977050677009,
                0.8603200184650663,
                -0.4416039573709634,
                0.538783901483753,
                2.527206538200552
            ]
        },
        {
            "positions": [
                -0.18746934061939635,
                -0.8744848752175058,
                0.9993181947779204,
                -0.48496418650749257,
                0.48719290505431645,
                2.5976220207558147
            ]
        },
        {
            "positions": [
                -0.14311706224578724,
                -0.9124720453673107,
                1.1383163710907749,
                -0.5283244156440217,
                0.4356019086248797,
                2.6680375033110773
            ]
        },
        {
            "positions": [
                -0.09876478387217813,
                -0.9504592155171154,
                1.277314547403629,
                -0.5716846447805508,
                0.3840109121954429,
                2.7384529858663393
            ]
        },
        {
            "positions": [
                -0.05441250549856913,
                -0.9884463856669203,
                1.4163127237164834,
                -0.61504487391708,
                0.3324199157660064,
                2.8088684684216014
            ]
        },
        {
            "positions": [
                -0.010060227124959908,
                -1.0264335558167252,
                1.555310900029338,
                -0.6584051030536091,
                0.2808289193365694,
                2.8792839509768644
            ]
        },
        {
            "positions": [
                0.03429205124864909,
                -1.0644207259665301,
                1.694309076342192,
                -0.7017653321901383,
                0.22923792290713263,
                2.9496994335321265
            ]
        },
        {
            "positions": [
                0.07864432962225831,
                -1.102407896116335,
                1.8333072526550465,
                -0.7451255613266674,
                0.1776469264776961,
                3.0201149160873886
            ]
        },
        {
            "positions": [
                0.1229966079958673,
                -1.14039506626614,
                1.9723054289679005,
                -0.7884857904631966,
                0.12605593004825924,
                3.090530398642651
            ]
        }
    ]
}