{
    "goal": {
        "global_pose": {
            "orientation": {
                "w": -0.00223480608172531,
                "x": 0.0024358444001904467,
                "y": 0.7094548369677653,
                "z": -0.704743149386269
            },
            "position": {
                "x": 0.6205249238014221,
                "y": -0.6371506643295288,
                "z": 0.19426114857196808
            }
        },
        "name": "move_to_magneteinheit_B"
    },
    "id": "LBKPIECE_move_to_magneteinheit_B_78",
    "joint_names": [
        "shoulder_pan_joint",
        "shoulder_lift_joint",
        "elbow_joint",
        "wrist_1_joint",
        "wrist_2_joint",
        "wrist_3_joint"
    ],
    "metrics": {
        "cart_traj_len": 3.105893874696307,
        "distance_elbow_joint": 4.055855077062338,
        "distance_shoulder_lift_joint": 0.5726906636340501,
        "distance_shoulder_pan_joint": 2.106342275512751,
        "distance_wrist_1_joint": 2.366182943825104,
        "distance_wrist_2_joint": 1.252121977095951,
        "distance_wrist_3_joint": 3.14545301874603,
        "smoothness": 0.2542110029808954,
        "time": 0.408446066,
        "traj_len": 3.674050347487936,
        "weighted_distance": 4.838166689386521
    },
    "planner": "LBKPIECE",
    "start": {
        "state": {
            "elbow_joint": 2.39358713078474,
            "shoulder_lift_joint": -1.908514104345545,
            "shoulder_pan_joint": 0.7066247066606129,
            "wrist_1_joint": -0.4678290933515497,
            "wrist_2_joint": 0.7096259083745334,
            "wrist_3_joint": -3.1358149277392293
        }
    },
    "waypoints": [
        {
            "positions": [
                0.7066247066606129,
                -1.908514104345545,
                2.39358713078474,
                -0.4678290933515497,
                0.7096259083745334,
                -3.1358149277392293
            ]
        },
        {
            "positions": [
                0.7522108511091771,
                -1.9327438274280513,
                2.357595899569769,
                -0.3206468715631459,
                0.7884612046886706,
                -3.1300039724257536
            ]
        },
        {
            "positions": [
                0.7977969955577411,
                -1.9569735505105579,
                2.3216046683547975,
                -0.17346464977474213,
                0.867296501002808,
                -3.1241930171122783
            ]
        },
        {
            "positions": [
                0.8433831400063052,
                -1.9812032735930643,
                2.2856134371398262,
                -0.02628242798633834,
                0.9461317973169452,
                -3.1183820617988025
            ]
        },
        {
            "positions": [
                0.8889692844548693,
                -2.005432996675571,
                2.249622205924855,
                0.12089979380206545,
                1.0249670936310824,
                -3.112571106485327
            ]
        },
        {
            "positions": [
                0.9345554289034333,
                -2.029662719758077,
                2.2136309747098837,
                0.2680820155904692,
                1.1038023899452196,
                -3.1067601511718514
            ]
        },
        {
            "positions": [
                1.003188552823831,
                -2.035253146704942,
                2.0786453014432533,
                0.3134656564277431,
                1.0752350614566983,
                -3.005367355162291
            ]
        },
        {
            "positions": [
                1.0718216767442286,
                -2.0408435736518067,
                1.9436596281766232,
                0.358849297265017,
                1.046667732968177,
                -2.9039745591527297
            ]
        },
        {
            "positions": [
                1.140454800664626,
                -2.046434000598671,
                1.8086739549099928,
                0.404232938102291,
                1.0181004044796558,
                -2.802581763143169
            ]
        },
        {
            "positions": [
                1.2090879245850235,
                -2.0520244275455357,
                1.6736882816433627,
                0.4496165789395649,
                0.9895330759911345,
                -2.701188967133608
            ]
        },
        {
            "positions": [
                1.2777210485054211,
                -2.0576148544924004,
                1.5387026083767323,
                0.49500021977683883,
                0.9609657475026131,
                -2.5997961711240474
            ]
        },
        {
            "positions": [
                1.3463541724258186,
                -2.063205281439265,
                1.403716935110102,
                0.5403838606141128,
                0.9323984190140918,
                -2.4984033751144867
            ]
        },
        {
            "positions": [
                1.4149872963462162,
                -2.0687957083861295,
                1.268731261843472,
                0.5857675014513867,
                0.9038310905255705,
                -2.3970105791049257
            ]
        },
        {
            "positions": [
                1.4836204202666137,
                -2.074386135332994,
                1.1337455885768415,
                0.6311511422886606,
                0.8752637620370493,
                -2.295617783095365
            ]
        },
        {
            "positions": [
                1.5522535441870113,
                -2.079976562279859,
                0.9987599153102114,
                0.6765347831259345,
                0.846696433548528,
                -2.1942249870858044
            ]
        },
        {
            "positions": [
                1.620886668107409,
                -2.0855669892267237,
                0.863774242043581,
                0.7219184239632086,
                0.8181291050600066,
                -2.0928321910762433
            ]
        },
        {
            "positions": [
                1.6895197920278062,
                -2.091157416173588,
                0.7287885687769509,
                0.7673020648004825,
                0.7895617765714854,
                -1.9914393950666827
            ]
        },
        {
            "positions": [
                1.7581529159482039,
                -2.0967478431204527,
                0.5938028955103205,
                0.8126857056377564,
                0.760994448082964,
                -1.8900465990571216
            ]
        },
        {
            "positions": [
                1.8267860398686016,
                -2.1023382700673174,
                0.45881722224369037,
                0.8580693464750303,
                0.7324271195944427,
                -1.788653803047561
            ]
        },
        {
            "positions": [
                1.895419163788999,
                -2.107928697014182,
                0.32383154897706024,
                0.9034529873123042,
                0.7038597911059215,
                -1.6872610070380003
            ]
        },
        {
            "positions": [
                1.9640522877093964,
                -2.113519123961047,
                0.1888458757104301,
                0.9488366281495781,
                0.6752924626174002,
                -1.5858682110284394
            ]
        },
        {
            "positions": [
                2.032685411629794,
                -2.119109550907911,
                0.0538602024437993,
                0.9942202689868521,
                0.6467251341288789,
                -1.4844754150188784
            ]
        },
        {
            "positions": [
                2.1013185355501918,
                -2.124699977854776,
                -0.08112547082283061,
                1.039603909824126,
                0.6181578056403576,
                -1.3830826190093177
            ]
        },
        {
            "positions": [
                2.169951659470589,
                -2.1302904048016407,
                -0.21611114408946097,
                1.0849875506614,
                0.5895904771518363,
                -1.2816898229997569
            ]
        },
        {
            "positions": [
                2.2385847833909867,
                -2.1358808317485054,
                -0.3510968173560909,
                1.1303711914986738,
                0.561023148663315,
                -1.1802970269901962
            ]
        },
        {
            "positions": [
                2.3072179073113843,
                -2.1414712586953697,
                -0.4860824906227217,
                1.175754832335948,
                0.5324558201747936,
                -1.0789042309806351
            ]
        },
        {
            "positions": [
                2.375851031231782,
                -2.1470616856422344,
                -0.6210681638893516,
                1.2211384731732218,
                0.5038884916862724,
                -0.9775114349710745
            ]
        },
        {
            "positions": [
                2.444484155152179,
                -2.152652112589099,
                -0.756053837155982,
                1.2665221140104956,
                0.4753211631977512,
                -0.8761186389615139
            ]
        },
        {
            "positions": [
                2.513117279072577,
                -2.158242539535964,
                -0.8910395104226119,
                1.3119057548477695,
                0.4467538347092299,
                -0.7747258429519528
            ]
        },
        {
            "positions": [
                2.5817504029929745,
                -2.163832966482828,
                -1.0260251836892427,
                1.3572893956850436,
                0.4181865062207085,
                -0.6733330469423917
            ]
        },
        {
            "positions": [
                2.650383526913372,
                -2.169423393429693,
                -1.1610108569558726,
                1.4026730365223177,
                0.38961917773218724,
                -0.5719402509328311
            ]
        },
        {
            "positions": [
                2.7190166508337694,
                -2.1750138203765577,
                -1.295996530222503,
                1.4480566773595913,
                0.36105184924366596,
                -0.4705474549232705
            ]
        },
        {
            "positions": [
                2.724828261326632,
                -2.238145334911423,
                -1.4025052706733494,
                1.3631965891752866,
                0.39135987147641144,
                -0.368922026968835
            ]
        },
        {
            "positions": [
                2.730639871819495,
                -2.301276849446288,
                -1.5090140111241956,
                1.2783365009909817,
                0.42166789370915686,
                -0.2672965990143995
            ]
        },
        {
            "positions": [
                2.7364514823123574,
                -2.3644083639811533,
                -1.615522751575042,
                1.193476412806677,
                0.45197591594190234,
                -0.16567117105996407
            ]
        },
        {
            "positions": [
                2.698193732381854,
                -2.422806565980374,
                -1.63889534892632,
                1.0956179585261527,
                0.46411136000463993,
                -0.07801654002658151
            ]
        },
        {
            "positions": [
                2.659935982451351,
                -2.481204767979595,
                -1.662267946277598,
                0.9977595042456285,
                0.47624680406737746,
                0.009638091006801042
            ]
        }
    ]
}