{
    "goal": {
        "global_pose": {
            "orientation": {
                "w": -0.00223480608172531,
                "x": 0.0024358444001904467,
                "y": 0.7094548369677653,
                "z": -0.704743149386269
            },
            "position": {
                "x": 0.6205249238014221,
                "y": -0.6371506643295288,
                "z": 0.19426114857196808
            }
        },
        "name": "move_to_magneteinheit_B"
    },
    "id": "LBKPIECE_move_to_magneteinheit_B_30",
    "joint_names": [
        "shoulder_pan_joint",
        "shoulder_lift_joint",
        "elbow_joint",
        "wrist_1_joint",
        "wrist_2_joint",
        "wrist_3_joint"
    ],
    "metrics": {
        "cart_traj_len": 4.255425909652334,
        "distance_elbow_joint": 4.465910004504346,
        "distance_shoulder_lift_joint": 0.5906544094903041,
        "distance_shoulder_pan_joint": 2.5891361965218795,
        "distance_wrist_1_joint": 2.1560434449106483,
        "distance_wrist_2_joint": 3.137388007003308,
        "distance_wrist_3_joint": 6.282068874353127,
        "smoothness": 0.1740828649191031,
        "time": 0.600568421,
        "traj_len": 4.384199007433811,
        "weighted_distance": 6.089233953249279
    },
    "planner": "LBKPIECE",
    "start": {
        "state": {
            "elbow_joint": 2.39358713078474,
            "shoulder_lift_joint": -1.908514104345545,
            "shoulder_pan_joint": 0.7066247066606129,
            "wrist_1_joint": -0.4678290933515497,
            "wrist_2_joint": 0.7096259083745334,
            "wrist_3_joint": -3.1358149277392293
        }
    },
    "waypoints": [
        {
            "positions": [
                0.7066247066606129,
                -1.908514104345545,
                2.39358713078474,
                -0.4678290933515497,
                0.7096259083745334,
                -3.1358149277392293
            ]
        },
        {
            "positions": [
                0.650799707868802,
                -1.880715308264116,
                2.3527844742047606,
                -0.47237815651544457,
                0.5427570101506626,
                -3.0543811508040717
            ]
        },
        {
            "positions": [
                0.5949747090769912,
                -1.852916512182687,
                2.3119818176247815,
                -0.4769272196793394,
                0.37588811192679167,
                -2.9729473738689145
            ]
        },
        {
            "positions": [
                0.5391497102851803,
                -1.825117716101258,
                2.271179161044802,
                -0.48147628284323424,
                0.20901921370292076,
                -2.8915135969337573
            ]
        },
        {
            "positions": [
                0.4833247114933694,
                -1.797318920019829,
                2.2303765044648225,
                -0.4860253460071291,
                0.04215031547904986,
                -2.8100798199985997
            ]
        },
        {
            "positions": [
                0.46435720665785635,
                -1.7881049164157754,
                2.121031845278157,
                -0.46762732423532105,
                -0.029826705856263847,
                -2.7143677215778332
            ]
        },
        {
            "positions": [
                0.4453897018223433,
                -1.7788909128117218,
                2.0116871860914918,
                -0.44922930246351306,
                -0.10180372719157756,
                -2.618655623157067
            ]
        },
        {
            "positions": [
                0.42642219698683015,
                -1.7696769092076683,
                1.9023425269048266,
                -0.430831280691705,
                -0.17378074852689124,
                -2.5229435247363003
            ]
        },
        {
            "positions": [
                0.4074546921513171,
                -1.7604629056036147,
                1.7929978677181615,
                -0.412433258919897,
                -0.245757769862205,
                -2.427231426315534
            ]
        },
        {
            "positions": [
                0.388487187315804,
                -1.7512489019995612,
                1.6836532085314961,
                -0.39403523714808897,
                -0.3177347911975187,
                -2.3315193278947675
            ]
        },
        {
            "positions": [
                0.43629499628131946,
                -1.7541250991309902,
                1.5100105395299965,
                -0.45988447036761804,
                -0.2917690099106379,
                -2.257466815200308
            ]
        },
        {
            "positions": [
                0.4841028052468349,
                -1.757001296262419,
                1.3363678705284967,
                -0.525733703587147,
                -0.2658032286237571,
                -2.183414302505849
            ]
        },
        {
            "positions": [
                0.5319106142123503,
                -1.7598774933938481,
                1.1627252015269969,
                -0.5915829368066761,
                -0.23983744733687634,
                -2.1093617898113894
            ]
        },
        {
            "positions": [
                0.5797184231778658,
                -1.7627536905252772,
                0.9890825325254973,
                -0.6574321700262051,
                -0.21387166604999558,
                -2.0353092771169297
            ]
        },
        {
            "positions": [
                0.6275262321433812,
                -1.765629887656706,
                0.8154398635239976,
                -0.7232814032457342,
                -0.1879058847631148,
                -1.9612567644224703
            ]
        },
        {
            "positions": [
                0.6753340411088966,
                -1.768506084788135,
                0.6417971945224978,
                -0.7891306364652633,
                -0.16194010347623403,
                -1.887204251728011
            ]
        },
        {
            "positions": [
                0.7231418500744121,
                -1.7713822819195642,
                0.46815452552099823,
                -0.8549798696847923,
                -0.13597432218935324,
                -1.8131517390335516
            ]
        },
        {
            "positions": [
                0.7709496590399275,
                -1.774258479050993,
                0.2945118565194984,
                -0.9208291029043213,
                -0.11000854090247245,
                -1.7390992263390923
            ]
        },
        {
            "positions": [
                0.818757468005443,
                -1.777134676182422,
                0.1208691875179988,
                -0.9866783361238504,
                -0.08404275961559168,
                -1.665046713644633
            ]
        },
        {
            "positions": [
                0.8665652769709584,
                -1.780010873313851,
                -0.05277348148350103,
                -1.0525275693433795,
                -0.05807697832871089,
                -1.5909942009501734
            ]
        },
        {
            "positions": [
                0.9143730859364739,
                -1.7828870704452802,
                -0.22641615048500086,
                -1.1183768025629086,
                -0.032111197041830075,
                -1.5169416882557138
            ]
        },
        {
            "positions": [
                0.9621808949019893,
                -1.785763267576709,
                -0.40005881948650046,
                -1.1842260357824375,
                -0.006145415754949368,
                -1.4428891755612545
            ]
        },
        {
            "positions": [
                1.0099887038675048,
                -1.788639464708138,
                -0.5737014884880005,
                -1.2500752690019665,
                0.01982036553193145,
                -1.3688366628667952
            ]
        },
        {
            "positions": [
                1.0577965128330202,
                -1.7915156618395671,
                -0.7473441574894997,
                -1.3159245022214956,
                0.04578614681881221,
                -1.2947841501723358
            ]
        },
        {
            "positions": [
                1.1056043217985356,
                -1.794391858970996,
                -0.9209868264909997,
                -1.3817737354410247,
                0.07175192810569303,
                -1.2207316374778763
            ]
        },
        {
            "positions": [
                1.153412130764051,
                -1.797268056102425,
                -1.0946294954924993,
                -1.4476229686605535,
                0.09771770939257379,
                -1.146679124783417
            ]
        },
        {
            "positions": [
                1.2012199397295666,
                -1.800144253233854,
                -1.2682721644939994,
                -1.5134722018800826,
                0.12368349067945456,
                -1.0726266120889576
            ]
        },
        {
            "positions": [
                1.2490277486950818,
                -1.803020450365283,
                -1.4419148334954985,
                -1.5793214350996116,
                0.14964927196633532,
                -0.9985740993944983
            ]
        },
        {
            "positions": [
                1.2968355576605974,
                -1.805896647496712,
                -1.6155575024969986,
                -1.6451706683191407,
                0.1756150532532161,
                -0.9245215867000386
            ]
        },
        {
            "positions": [
                1.3707182476021564,
                -1.81981976367392,
                -1.6613410674729723,
                -1.6834447916672035,
                0.28105500046635945,
                -0.9042726935514467
            ]
        },
        {
            "positions": [
                1.4446009375437154,
                -1.833742879851128,
                -1.707124632448946,
                -1.7217189150152665,
                0.38649494767950276,
                -0.8840238004028547
            ]
        },
        {
            "positions": [
                1.5184836274852747,
                -1.8476659960283357,
                -1.7529081974249197,
                -1.7599930383633295,
                0.4919348948926461,
                -0.8637749072542628
            ]
        },
        {
            "positions": [
                1.5923663174268337,
                -1.8615891122055437,
                -1.7986917624008933,
                -1.7982671617113923,
                0.5973748421057894,
                -0.8435260141056709
            ]
        },
        {
            "positions": [
                1.6605020892069975,
                -1.8765889194461778,
                -1.8266133840958065,
                -1.8319062559115684,
                0.6557990332527839,
                -0.76714163156398
            ]
        },
        {
            "positions": [
                1.733098809086139,
                -1.896564990646116,
                -1.8307525288344275,
                -1.8739180162867521,
                0.6320799348139217,
                -0.5637745611081654
            ]
        },
        {
            "positions": [
                1.8056955289652805,
                -1.9165410618460539,
                -1.8348916735730485,
                -1.9159297766619359,
                0.6083608363750594,
                -0.3604074906523507
            ]
        },
        {
            "positions": [
                1.8782922488444218,
                -1.936517133045992,
                -1.8390308183116693,
                -1.9579415370371198,
                0.5846417379361972,
                -0.15704042019653608
            ]
        },
        {
            "positions": [
                1.9508889687235633,
                -1.95649320424593,
                -1.8431699630502902,
                -1.9999532974123035,
                0.5609226394973351,
                0.04632665025927851
            ]
        },
        {
            "positions": [
                2.0234856886027046,
                -1.9764692754458681,
                -1.8473091077889112,
                -2.0419650577874875,
                0.5372035410584729,
                0.24969372071509321
            ]
        },
        {
            "positions": [
                2.096082408481846,
                -1.996445346645806,
                -1.8514482525275322,
                -2.083976818162671,
                0.5134844426196107,
                0.4530607911709078
            ]
        },
        {
            "positions": [
                2.1686791283609876,
                -2.016421417845744,
                -1.855587397266153,
                -2.125988578537855,
                0.48976534418074846,
                0.6564278616267226
            ]
        },
        {
            "positions": [
                2.241275848240129,
                -2.036397489045682,
                -1.859726542004774,
                -2.1680003389130387,
                0.4660462457418863,
                0.859794932082537
            ]
        },
        {
            "positions": [
                2.3138725681192707,
                -2.0563735602456203,
                -1.863865686743395,
                -2.2100120992882224,
                0.4423271473030241,
                1.063162002538352
            ]
        },
        {
            "positions": [
                2.3583912115172456,
                -2.0710220402624766,
                -1.851024869742079,
                -2.2394802921752603,
                0.37615800430535973,
                1.261122953807353
            ]
        },
        {
            "positions": [
                2.40290985491522,
                -2.085670520279333,
                -1.8381840527407634,
                -2.268948485062298,
                0.3099888613076953,
                1.459083905076354
            ]
        },
        {
            "positions": [
                2.4314183004238483,
                -2.0966669190420606,
                -1.8178756579659214,
                -2.287942244560278,
                0.2221351600814882,
                1.6465472430249701
            ]
        },
        {
            "positions": [
                2.4599267459324765,
                -2.1076633178047883,
                -1.7975672631910795,
                -2.306936004058258,
                0.1342814588552811,
                1.834010580973586
            ]
        },
        {
            "positions": [
                2.4884351914411047,
                -2.1186597165675156,
                -1.7772588684162376,
                -2.3259297635562377,
                0.046427757629073974,
                2.021473918922202
            ]
        },
        {
            "positions": [
                2.516943636949733,
                -2.1296561153302433,
                -1.7569504736413957,
                -2.344923523054218,
                -0.04142594359713314,
                2.208937256870818
            ]
        },
        {
            "positions": [
                2.5454520824583615,
                -2.140652514092971,
                -1.7366420788665538,
                -2.363917282552198,
                -0.1292796448233403,
                2.3964005948194345
            ]
        },
        {
            "positions": [
                2.5739605279669897,
                -2.151648912855699,
                -1.7163336840917118,
                -2.382911042050178,
                -0.21713334604954737,
                2.5838639327680504
            ]
        },
        {
            "positions": [
                2.602468973475618,
                -2.162645311618426,
                -1.69602528931687,
                -2.4019048015481577,
                -0.30498704727575454,
                2.7713272707166663
            ]
        },
        {
            "positions": [
                2.630977418984246,
                -2.173641710381154,
                -1.675716894542028,
                -2.4208985610461378,
                -0.3928407485019616,
                2.958790608665282
            ]
        },
        {
            "positions": [
                2.6594858644928743,
                -2.1846381091438816,
                -1.655408499767186,
                -2.439892320544118,
                -0.48069444972816877,
                3.1462539466138986
            ]
        }
    ]
}