{
    "goal": {
        "global_pose": {
            "orientation": {
                "w": 0.7047431468963623,
                "x": -0.7094548344612122,
                "y": 0.0024358443915843964,
                "z": -0.0022348060738295317
            },
            "position": {
                "x": 0.6094750761985779,
                "y": 0.3671506643295288,
                "z": 0.19426114857196808
            }
        },
        "name": "move_to_magneteinheit_A"
    },
    "id": "LBKPIECE_move_to_magneteinheit_A_56",
    "joint_names": [
        "shoulder_pan_joint",
        "shoulder_lift_joint",
        "elbow_joint",
        "wrist_1_joint",
        "wrist_2_joint",
        "wrist_3_joint"
    ],
    "metrics": {
        "cart_traj_len": 2.0647739136881866,
        "distance_elbow_joint": 3.8812094113826334,
        "distance_shoulder_lift_joint": 1.057966883946463,
        "distance_shoulder_pan_joint": 1.242080794025403,
        "distance_wrist_1_joint": 1.1616070387520927,
        "distance_wrist_2_joint": 1.4446868356412113,
        "distance_wrist_3_joint": 1.9303385539032902,
        "smoothness": 3.981489473232051e-16,
        "time": 0.296432897,
        "traj_len": 3.273818797314704,
        "weighted_distance": 4.145462640025957
    },
    "planner": "LBKPIECE",
    "start": {
        "state": {
            "elbow_joint": -1.919643507792019,
            "shoulder_lift_joint": -0.07675430207160344,
            "shoulder_pan_joint": -1.1188671864651873,
            "wrist_1_joint": 0.42560062535961957,
            "wrist_2_joint": 1.5706038300724876,
            "wrist_3_joint": 1.1188968870953055
        }
    },
    "waypoints": [
        {
            "positions": [
                -1.1188671864651873,
                -0.07675430207160344,
                -1.919643507792019,
                0.42560062535961957,
                1.5706038300724876,
                1.1188968870953055
            ]
        },
        {
            "positions": [
                -1.0745071581071373,
                -0.11453883364111997,
                -1.781028885956925,
                0.384114659689902,
                1.5190078716567301,
                1.1878375497347087
            ]
        },
        {
            "positions": [
                -1.0301471297490872,
                -0.1523233652106365,
                -1.6424142641218311,
                0.34262869402018437,
                1.4674119132409724,
                1.256778212374112
            ]
        },
        {
            "positions": [
                -0.9857871013910371,
                -0.19010789678015305,
                -1.503799642286737,
                0.3011427283504668,
                1.415815954825215,
                1.3257188750135152
            ]
        },
        {
            "positions": [
                -0.9414270730329869,
                -0.22789242834966958,
                -1.365185020451643,
                0.2596567626807492,
                1.3642199964094575,
                1.3946595376529185
            ]
        },
        {
            "positions": [
                -0.8970670446749368,
                -0.26567695991918616,
                -1.2265703986165488,
                0.21817079701103162,
                1.3126240379936998,
                1.4636002002923216
            ]
        },
        {
            "positions": [
                -0.8527070163168867,
                -0.30346149148870266,
                -1.0879557767814547,
                0.17668483134131405,
                1.2610280795779423,
                1.5325408629317248
            ]
        },
        {
            "positions": [
                -0.8083469879588365,
                -0.3412460230582192,
                -0.9493411549463607,
                0.13519886567159645,
                1.2094321211621848,
                1.601481525571128
            ]
        },
        {
            "positions": [
                -0.7639869596007864,
                -0.3790305546277357,
                -0.8107265331112667,
                0.09371290000187887,
                1.1578361627464273,
                1.6704221882105315
            ]
        },
        {
            "positions": [
                -0.7196269312427364,
                -0.4168150861972523,
                -0.6721119112761726,
                0.052226934332161246,
                1.1062402043306696,
                1.7393628508499346
            ]
        },
        {
            "positions": [
                -0.6752669028846863,
                -0.4545996177667688,
                -0.5334972894410785,
                0.010740968662443673,
                1.0546442459149121,
                1.8083035134893377
            ]
        },
        {
            "positions": [
                -0.6309068745266362,
                -0.4923841493362854,
                -0.39488266760598445,
                -0.0307449970072739,
                1.0030482874991546,
                1.877244176128741
            ]
        },
        {
            "positions": [
                -0.5865468461685861,
                -0.5301686809058019,
                -0.2562680457708906,
                -0.07223096267699147,
                0.951452329083397,
                1.9461848387681442
            ]
        },
        {
            "positions": [
                -0.5421868178105359,
                -0.5679532124753185,
                -0.11765342393579648,
                -0.11371692834670916,
                0.8998563706676395,
                2.0151255014075473
            ]
        },
        {
            "positions": [
                -0.4978267894524858,
                -0.605737744044835,
                0.020961197899297623,
                -0.15520289401642667,
                0.848260412251882,
                2.0840661640469507
            ]
        },
        {
            "positions": [
                -0.45346676109443573,
                -0.6435222756143515,
                0.1595758197343915,
                -0.1966888596861442,
                0.7966644538361245,
                2.1530068266863536
            ]
        },
        {
            "positions": [
                -0.40910673273638565,
                -0.6813068071838679,
                0.2981904415694856,
                -0.23817482535586182,
                0.7450684954203669,
                2.221947489325757
            ]
        },
        {
            "positions": [
                -0.36474670437833556,
                -0.7190913387533846,
                0.4368050634045797,
                -0.27966079102557934,
                0.6934725370046094,
                2.2908881519651603
            ]
        },
        {
            "positions": [
                -0.32038667602028537,
                -0.7568758703229013,
                0.5754196852396738,
                -0.3211467566952971,
                0.6418765785888517,
                2.3598288146045636
            ]
        },
        {
            "positions": [
                -0.2760266476622353,
                -0.7946604018924177,
                0.7140343070747679,
                -0.3626327223650147,
                0.5902806201730942,
                2.428769477243967
            ]
        },
        {
            "positions": [
                -0.2316666193041852,
                -0.8324449334619342,
                0.852648928909862,
                -0.4041186880347322,
                0.5386846617573366,
                2.4977101398833703
            ]
        },
        {
            "positions": [
                -0.1873065909461351,
                -0.8702294650314508,
                0.9912635507449561,
                -0.44560465370444985,
                0.48708870334157917,
                2.5666508025227732
            ]
        },
        {
            "positions": [
                -0.1429465625880849,
                -0.9080139966009673,
                1.1298781725800502,
                -0.48709061937416737,
                0.4354927449258217,
                2.635591465162176
            ]
        },
        {
            "positions": [
                -0.09858653423003494,
                -0.9457985281704837,
                1.2684927944151438,
                -0.5285765850438848,
                0.3838967865100642,
                2.7045321278015795
            ]
        },
        {
            "positions": [
                -0.054226505871984854,
                -0.9835830597400004,
                1.407107416250238,
                -0.5700625507136026,
                0.3323008280943065,
                2.773472790440983
            ]
        },
        {
            "positions": [
                -0.009866477513934546,
                -1.021367591309517,
                1.5457220380853325,
                -0.6115485163833201,
                0.280704869678549,
                2.842413453080386
            ]
        },
        {
            "positions": [
                0.03449355084411554,
                -1.0591521228790335,
                1.6843366599204261,
                -0.6530344820530378,
                0.22910891126279131,
                2.9113541157197895
            ]
        },
        {
            "positions": [
                0.07885357920216562,
                -1.0969366544485502,
                1.8229512817555202,
                -0.6945204477227553,
                0.17751295284703383,
                2.980294778359193
            ]
        },
        {
            "positions": [
                0.12321360756021578,
                -1.1347211860180666,
                1.9615659035906143,
                -0.736006413392473,
                0.1259169944312764,
                3.049235440998596
            ]
        }
    ]
}