{
    "goal": {
        "global_pose": {
            "orientation": {
                "w": 0.7031023502349854,
                "x": -0.7110244035720825,
                "y": 0.007748599164187908,
                "z": 0.005598929710686207
            },
            "position": {
                "x": 0.11585023208521307,
                "y": 0.44412534475326537,
                "z": 0.3711530566215515
            }
        },
        "name": "move_to_auspresseinheit_A"
    },
    "id": "LBKPIECE_move_to_auspresseinheit_A_43",
    "joint_names": [
        "shoulder_pan_joint",
        "shoulder_lift_joint",
        "elbow_joint",
        "wrist_1_joint",
        "wrist_2_joint",
        "wrist_3_joint"
    ],
    "metrics": {
        "cart_traj_len": 1.7602092603014896,
        "distance_elbow_joint": 1.8619690484622393,
        "distance_shoulder_lift_joint": 0.5344407606910817,
        "distance_shoulder_pan_joint": 1.0465034060472114,
        "distance_wrist_1_joint": 1.304852712381995,
        "distance_wrist_2_joint": 0.8496739706403481,
        "distance_wrist_3_joint": 4.03754466450734,
        "smoothness": 0.1590924838505931,
        "time": 0.379163194,
        "traj_len": 3.1040271523828875,
        "weighted_distance": 4.456972130804414
    },
    "planner": "LBKPIECE",
    "start": {
        "state": {
            "elbow_joint": 2.422574709923281,
            "shoulder_lift_joint": -1.3736533754116391,
            "shoulder_pan_joint": -0.33786336945926293,
            "wrist_1_joint": -1.0288603412921917,
            "wrist_2_joint": 1.2330224858903978,
            "wrist_3_joint": -3.094022268022082
        }
    },
    "waypoints": [
        {
            "positions": [
                -0.33786336945926293,
                -1.3736533754116391,
                2.422574709923281,
                -1.0288603412921917,
                1.2330224858903978,
                -3.094022268022082
            ]
        },
        {
            "positions": [
                -0.30207285908053444,
                -1.404235401480966,
                2.336518412099038,
                -0.9906011664930675,
                1.248237075293493,
                -2.920973202942059
            ]
        },
        {
            "positions": [
                -0.266282348701806,
                -1.4348174275502927,
                2.250462114274795,
                -0.9523419916939433,
                1.2634516646965885,
                -2.7479241378620367
            ]
        },
        {
            "positions": [
                -0.2304918383230775,
                -1.4653994536196193,
                2.164405816450552,
                -0.9140828168948191,
                1.2786662540996838,
                -2.5748750727820138
            ]
        },
        {
            "positions": [
                -0.19470132794434902,
                -1.4959814796889461,
                2.0783495186263092,
                -0.8758236420956949,
                1.293880843502779,
                -2.4018260077019913
            ]
        },
        {
            "positions": [
                -0.15891081756562056,
                -1.526563505758273,
                1.992293220802066,
                -0.8375644672965707,
                1.3090954329058744,
                -2.2287769426219683
            ]
        },
        {
            "positions": [
                -0.1231203071868921,
                -1.5571455318275997,
                1.9062369229778233,
                -0.7993052924974465,
                1.3243100223089699,
                -2.055727877541946
            ]
        },
        {
            "positions": [
                -0.0873297968081636,
                -1.5877275578969265,
                1.8201806251535801,
                -0.7610461176983223,
                1.3395246117120652,
                -1.882678812461923
            ]
        },
        {
            "positions": [
                -0.051539286429435116,
                -1.6183095839662534,
                1.7341243273293372,
                -0.722786942899198,
                1.3547392011151604,
                -1.7096297473819002
            ]
        },
        {
            "positions": [
                -0.015748776050706625,
                -1.6488916100355802,
                1.6480680295050942,
                -0.6845277681000739,
                1.369953790518256,
                -1.5365806823018775
            ]
        },
        {
            "positions": [
                0.02004173432802181,
                -1.6794736361049067,
                1.5620117316808513,
                -0.6462685933009497,
                1.3851683799213512,
                -1.3635316172218548
            ]
        },
        {
            "positions": [
                0.055832244706750314,
                -1.7100556621742335,
                1.4759554338566083,
                -0.6080094185018254,
                1.4003829693244465,
                -1.190482552141832
            ]
        },
        {
            "positions": [
                0.16150763215809083,
                -1.7121765651964522,
                1.4831777133670743,
                -0.4813155646586192,
                1.334639249546988,
                -1.1671242955120986
            ]
        },
        {
            "positions": [
                0.2671830196094313,
                -1.7142974682186711,
                1.49039999287754,
                -0.35462171081541294,
                1.26889552976953,
                -1.143766038882365
            ]
        },
        {
            "positions": [
                0.3728584070607718,
                -1.7164183712408898,
                1.4976222723880057,
                -0.2279278569722067,
                1.2031518099920717,
                -1.1204077822526313
            ]
        },
        {
            "positions": [
                0.4785337945121123,
                -1.7185392742631085,
                1.5048445518984717,
                -0.10123400312900047,
                1.1374080902146133,
                -1.0970495256228978
            ]
        },
        {
            "positions": [
                0.5043731700138754,
                -1.7345434333634149,
                1.6161135483450852,
                -0.0998245247827199,
                1.0960251192763515,
                -1.2879931351593201
            ]
        },
        {
            "positions": [
                0.5302125455156383,
                -1.7505475924637213,
                1.7273825447916986,
                -0.09841504643643934,
                1.0546421483380897,
                -1.4789367446957424
            ]
        },
        {
            "positions": [
                0.5560519210174014,
                -1.7665517515640277,
                1.8386515412383122,
                -0.09700556809015877,
                1.0132591773998278,
                -1.669880354232165
            ]
        },
        {
            "positions": [
                0.5818912965191645,
                -1.7825559106643338,
                1.9499205376849258,
                -0.09559608974387822,
                0.9718762064615661,
                -1.860823963768587
            ]
        },
        {
            "positions": [
                0.6077306720209275,
                -1.7985600697646402,
                2.061189534131539,
                -0.09418661139759765,
                0.9304932355233044,
                -2.0517675733050096
            ]
        },
        {
            "positions": [
                0.6335700475226905,
                -1.8145642288649466,
                2.1724585305781527,
                -0.09277713305131709,
                0.8891102645850426,
                -2.2427111828414317
            ]
        },
        {
            "positions": [
                0.6594094230244536,
                -1.830568387965253,
                2.2837275270247663,
                -0.09136765470503652,
                0.8477272936467808,
                -2.433654792377854
            ]
        },
        {
            "positions": [
                0.6717170764153273,
                -1.84994982499962,
                2.3106219468316187,
                -0.1832076611537464,
                0.8153128407646224,
                -2.6096464562161543
            ]
        },
        {
            "positions": [
                0.684024729806201,
                -1.8693312620339868,
                2.3375163666384706,
                -0.27504766760245625,
                0.782898387882464,
                -2.7856381200544544
            ]
        },
        {
            "positions": [
                0.6963323831970747,
                -1.8887126990683538,
                2.3644107864453225,
                -0.3668876740511662,
                0.7504839350003055,
                -2.9616297838927546
            ]
        },
        {
            "positions": [
                0.7086400365879484,
                -1.9080941361027208,
                2.391305206252175,
                -0.45872768049987606,
                0.7180694821181471,
                -3.1376214477310547
            ]
        }
    ]
}