{
    "goal": {
        "global_pose": {
            "orientation": {
                "w": 0.5084816217422485,
                "x": -0.49083608388900757,
                "y": 0.5182115435600281,
                "z": -0.4816462993621826
            },
            "position": {
                "x": 0.5540239810943604,
                "y": 0.030875300988554955,
                "z": 0.16403168439865112
            }
        },
        "name": "move_to_storage_A"
    },
    "id": "LBKPIECE_move_to_storage_A_104",
    "joint_names": [
        "shoulder_pan_joint",
        "shoulder_lift_joint",
        "elbow_joint",
        "wrist_1_joint",
        "wrist_2_joint",
        "wrist_3_joint"
    ],
    "metrics": {
        "cart_traj_len": 0.35301083270797545,
        "distance_elbow_joint": 0.44962702345894323,
        "distance_shoulder_lift_joint": 0.23567722620138998,
        "distance_shoulder_pan_joint": 0.46193323878959136,
        "distance_wrist_1_joint": 0.23918083568412574,
        "distance_wrist_2_joint": 1.0979264980142618,
        "distance_wrist_3_joint": 0.0926753167851917,
        "smoothness": 8.881784197001252e-16,
        "time": 0.232711968,
        "traj_len": 1.6053099821945616,
        "weighted_distance": 2.024716796542735
    },
    "planner": "LBKPIECE",
    "start": {
        "state": {
            "elbow_joint": 1.9715463870305268,
            "shoulder_lift_joint": -1.1394903361783484,
            "shoulder_pan_joint": 0.12281147578464417,
            "wrist_1_joint": -0.7804599489681411,
            "wrist_2_joint": 0.12958660307563738,
            "wrist_3_joint": -3.1924946282119055
        }
    },
    "waypoints": [
        {
            "positions": [
                0.12281147578464417,
                -1.1394903361783484,
                1.9715463870305268,
                -0.7804599489681411,
                0.12958660307563738,
                -3.1924946282119055
            ]
        },
        {
            "positions": [
                0.056821013100416845,
                -1.1731585113499756,
                2.035778818953233,
                -0.8146286397801591,
                0.28643324564910333,
                -3.1792552972425923
            ]
        },
        {
            "positions": [
                -0.009169449583810482,
                -1.2068266865216026,
                2.100011250875939,
                -0.848797330592177,
                0.44327988822256925,
                -3.1660159662732794
            ]
        },
        {
            "positions": [
                -0.07515991226803782,
                -1.2404948616932299,
                2.164243682798645,
                -0.882966021404195,
                0.6001265307960353,
                -3.152776635303966
            ]
        },
        {
            "positions": [
                -0.14115037495226512,
                -1.2741630368648569,
                2.228476114721351,
                -0.9171347122162129,
                0.7569731733695012,
                -3.1395373043346533
            ]
        },
        {
            "positions": [
                -0.2071408376364925,
                -1.3078312120364841,
                2.2927085466440578,
                -0.9513034030282309,
                0.9138198159429672,
                -3.12629797336534
            ]
        },
        {
            "positions": [
                -0.2731313003207198,
                -1.3414993872081111,
                2.356940978566764,
                -0.9854720938402488,
                1.0706664585164332,
                -3.113058642396027
            ]
        },
        {
            "positions": [
                -0.3391217630049472,
                -1.3751675623797384,
                2.42117341048947,
                -1.0196407846522668,
                1.2275131010898992,
                -3.099819311426714
            ]
        }
    ]
}