{
    "goal": {
        "global_pose": {
            "orientation": {
                "w": 0.7047431468963623,
                "x": -0.7094548344612122,
                "y": 0.0024358443915843964,
                "z": -0.0022348060738295317
            },
            "position": {
                "x": 0.6094750761985779,
                "y": 0.3671506643295288,
                "z": 0.19426114857196808
            }
        },
        "name": "move_to_magneteinheit_A"
    },
    "id": "LBKPIECE_move_to_magneteinheit_A_99",
    "joint_names": [
        "shoulder_pan_joint",
        "shoulder_lift_joint",
        "elbow_joint",
        "wrist_1_joint",
        "wrist_2_joint",
        "wrist_3_joint"
    ],
    "metrics": {
        "cart_traj_len": 2.0401279106602104,
        "distance_elbow_joint": 3.8773602152707225,
        "distance_shoulder_lift_joint": 1.0665689354144001,
        "distance_shoulder_pan_joint": 1.2419251112967673,
        "distance_wrist_1_joint": 1.144092630397846,
        "distance_wrist_2_joint": 1.4439072066673488,
        "distance_wrist_3_joint": 4.365277952620598,
        "smoothness": 0.013383104888570158,
        "time": 0.427000052,
        "traj_len": 3.624794070242844,
        "weighted_distance": 4.945471443045048
    },
    "planner": "LBKPIECE",
    "start": {
        "state": {
            "elbow_joint": -1.919643507792019,
            "shoulder_lift_joint": -0.07675430207160344,
            "shoulder_pan_joint": -1.1188671864651873,
            "wrist_1_joint": 0.42560062535961957,
            "wrist_2_joint": 1.5706038300724876,
            "wrist_3_joint": 1.1188968870953055
        }
    },
    "waypoints": [
        {
            "positions": [
                -1.1188671864651873,
                -0.07675430207160344,
                -1.919643507792019,
                0.42560062535961957,
                1.5706038300724876,
                1.1188968870953055
            ]
        },
        {
            "positions": [
                -1.0830787810091045,
                -0.10890259076896242,
                -1.8048437924540524,
                0.392871665776468,
                1.5269861367186488,
                0.9916749176788637
            ]
        },
        {
            "positions": [
                -1.0472903755530216,
                -0.1410508794663214,
                -1.6900440771160856,
                0.36014270619331634,
                1.4833684433648098,
                0.8644529482624219
            ]
        },
        {
            "positions": [
                -1.0115019700969388,
                -0.17319916816368036,
                -1.575244361778119,
                0.32741374661016476,
                1.439750750010971,
                0.7372309788459801
            ]
        },
        {
            "positions": [
                -0.975713564640856,
                -0.20534745686103933,
                -1.4604446464401524,
                0.2946847870270132,
                1.3961330566571322,
                0.6100090094295383
            ]
        },
        {
            "positions": [
                -0.9399251591847732,
                -0.2374957455583983,
                -1.3456449311021856,
                0.2619558274438616,
                1.3525153633032931,
                0.48278704001309647
            ]
        },
        {
            "positions": [
                -0.9041367537286903,
                -0.2696440342557573,
                -1.230845215764219,
                0.22922686786070995,
                1.3088976699494543,
                0.35556507059665465
            ]
        },
        {
            "positions": [
                -0.8683483482726074,
                -0.30179232295311625,
                -1.1160455004262522,
                0.19649790827755836,
                1.2652799765956155,
                0.22834310118021284
            ]
        },
        {
            "positions": [
                -0.8325599428165247,
                -0.3339406116504752,
                -1.0012457850882854,
                0.16376894869440672,
                1.2216622832417765,
                0.10112113176377102
            ]
        },
        {
            "positions": [
                -0.7967715373604418,
                -0.3660889003478342,
                -0.8864460697503189,
                0.1310399891112552,
                1.1780445898879377,
                -0.026100837652670794
            ]
        },
        {
            "positions": [
                -0.760983131904359,
                -0.3982371890451932,
                -0.7716463544123522,
                0.09831102952810356,
                1.1344268965340987,
                -0.1533228070691126
            ]
        },
        {
            "positions": [
                -0.7251947264482761,
                -0.43038547774255215,
                -0.6568466390743855,
                0.06558206994495197,
                1.0908092031802599,
                -0.2805447764855544
            ]
        },
        {
            "positions": [
                -0.6894063209921932,
                -0.4625337664399111,
                -0.5420469237364187,
                0.03285311036180033,
                1.0471915098264208,
                -0.40776674590199624
            ]
        },
        {
            "positions": [
                -0.6536179155361104,
                -0.4946820551372701,
                -0.4272472083984522,
                0.00012415077864874613,
                1.0035738164725823,
                -0.5349887153184381
            ]
        },
        {
            "positions": [
                -0.6178295100800275,
                -0.5268303438346291,
                -0.31244749306048525,
                -0.03260480880450284,
                0.9599561231187432,
                -0.6622106847348799
            ]
        },
        {
            "positions": [
                -0.5820411046239448,
                -0.5589786325319881,
                -0.19764777772251874,
                -0.06533376838765442,
                0.9163384297649043,
                -0.7894326541513217
            ]
        },
        {
            "positions": [
                -0.5462526991678619,
                -0.5911269212293471,
                -0.082848062384552,
                -0.09806272797080612,
                0.8727207364110654,
                -0.9166546235677635
            ]
        },
        {
            "positions": [
                -0.510464293711779,
                -0.623275209926706,
                0.03195165295341473,
                -0.1307916875539576,
                0.8291030430572266,
                -1.0438765929842053
            ]
        },
        {
            "positions": [
                -0.4746758882556963,
                -0.655423498624065,
                0.14675136829138125,
                -0.16352064713710918,
                0.7854853497033877,
                -1.1710985624006471
            ]
        },
        {
            "positions": [
                -0.4388874827996133,
                -0.687571787321424,
                0.2615510836293484,
                -0.19624960672026087,
                0.7418676563495488,
                -1.298320531817089
            ]
        },
        {
            "positions": [
                -0.40309907734353045,
                -0.719720076018783,
                0.3763507989673147,
                -0.22897856630341246,
                0.6982499629957098,
                -1.4255425012335308
            ]
        },
        {
            "positions": [
                -0.3673106718874477,
                -0.7518683647161419,
                0.49115051430528145,
                -0.26170752588656404,
                0.654632269641871,
                -1.5527644706499726
            ]
        },
        {
            "positions": [
                -0.33152226643136484,
                -0.7840166534135009,
                0.6059502296432482,
                -0.2944364854697156,
                0.6110145762880321,
                -1.6799864400664144
            ]
        },
        {
            "positions": [
                -0.295733860975282,
                -0.8161649421108599,
                0.7207499449812149,
                -0.3271654450528673,
                0.5673968829341931,
                -1.8072084094828562
            ]
        },
        {
            "positions": [
                -0.2599454555191991,
                -0.8483132308082189,
                0.8355496603191817,
                -0.3598944046360189,
                0.5237791895803543,
                -1.934430378899298
            ]
        },
        {
            "positions": [
                -0.22415705006311637,
                -0.8804615195055778,
                0.9503493756571484,
                -0.3926233642191705,
                0.4801614962265155,
                -2.06165234831574
            ]
        },
        {
            "positions": [
                -0.1883686446070335,
                -0.9126098082029368,
                1.0651490909951147,
                -0.4253523238023221,
                0.4365438028726767,
                -2.1888743177321817
            ]
        },
        {
            "positions": [
                -0.15258023915095054,
                -0.9447580969002958,
                1.1799488063330819,
                -0.45808128338547377,
                0.39292610951883766,
                -2.3160962871486235
            ]
        },
        {
            "positions": [
                -0.11679183369486767,
                -0.9769063855976547,
                1.2947485216710486,
                -0.49081024296862524,
                0.34930841616499886,
                -2.4433182565650653
            ]
        },
        {
            "positions": [
                -0.08100342823878504,
                -1.0090546742950137,
                1.4095482370090149,
                -0.5235392025517769,
                0.30569072281115983,
                -2.570540225981507
            ]
        },
        {
            "positions": [
                -0.045215022782702174,
                -1.0412029629923727,
                1.5243479523469816,
                -0.5562681621349284,
                0.262073029457321,
                -2.697762195397949
            ]
        },
        {
            "positions": [
                -0.009426617326619313,
                -1.0733512516897317,
                1.6391476676849488,
                -0.58899712171808,
                0.218455336103482,
                -2.824984164814391
            ]
        },
        {
            "positions": [
                0.026361788129463548,
                -1.1054995403870906,
                1.753947383022915,
                -0.6217260813012317,
                0.1748376427496432,
                -2.9522061342308326
            ]
        },
        {
            "positions": [
                0.06215019358554635,
                -1.1376478290844496,
                1.868747098360882,
                -0.6544550408843832,
                0.13121994939580434,
                -3.0794281036472744
            ]
        },
        {
            "positions": [
                0.12305792483157986,
                -1.1319724206828956,
                1.9577167074787034,
                -0.7184920050382263,
                0.1266966234051386,
                -3.246381065525293
            ]
        }
    ]
}