{
    "goal": {
        "global_pose": {
            "orientation": {
                "w": 0.7031023502349854,
                "x": -0.7110244035720825,
                "y": 0.007748599164187908,
                "z": 0.005598929710686207
            },
            "position": {
                "x": 0.11585023208521307,
                "y": 0.44412534475326537,
                "z": 0.3711530566215515
            }
        },
        "name": "move_to_auspresseinheit_A"
    },
    "id": "LBKPIECE_move_to_auspresseinheit_A_97",
    "joint_names": [
        "shoulder_pan_joint",
        "shoulder_lift_joint",
        "elbow_joint",
        "wrist_1_joint",
        "wrist_2_joint",
        "wrist_3_joint"
    ],
    "metrics": {
        "cart_traj_len": 2.1256483188582176,
        "distance_elbow_joint": 2.0797867413609628,
        "distance_shoulder_lift_joint": 0.8940529695915129,
        "distance_shoulder_pan_joint": 2.0493003859663577,
        "distance_wrist_1_joint": 2.9068376648578362,
        "distance_wrist_2_joint": 1.3471221267228772,
        "distance_wrist_3_joint": 4.723354627853514,
        "smoothness": 0.5254350274555799,
        "time": 0.662752103,
        "traj_len": 3.741718123583477,
        "weighted_distance": 5.263185685840923
    },
    "planner": "LBKPIECE",
    "start": {
        "state": {
            "elbow_joint": 2.422574709923281,
            "shoulder_lift_joint": -1.3736533754116391,
            "shoulder_pan_joint": -0.33786336945926293,
            "wrist_1_joint": -1.0288603412921917,
            "wrist_2_joint": 1.2330224858903978,
            "wrist_3_joint": -3.094022268022082
        }
    },
    "waypoints": [
        {
            "positions": [
                -0.33786336945926293,
                -1.3736533754116391,
                2.422574709923281,
                -1.0288603412921917,
                1.2330224858903978,
                -3.094022268022082
            ]
        },
        {
            "positions": [
                -0.30386965103468344,
                -1.385171308360818,
                2.3521394641186526,
                -0.9416112897190169,
                1.1910854009987695,
                -2.962349201901706
            ]
        },
        {
            "positions": [
                -0.2698759326101039,
                -1.3966892413099967,
                2.281704218314024,
                -0.854362238145842,
                1.1491483161071412,
                -2.83067613578133
            ]
        },
        {
            "positions": [
                -0.2358822141855244,
                -1.4082071742591757,
                2.2112689725093957,
                -0.767113186572667,
                1.1072112312155127,
                -2.699003069660954
            ]
        },
        {
            "positions": [
                -0.20188849576094492,
                -1.4197251072083545,
                2.1408337267047672,
                -0.6798641349994923,
                1.0652741463238844,
                -2.567330003540578
            ]
        },
        {
            "positions": [
                -0.16789477733636543,
                -1.4312430401575333,
                2.070398480900139,
                -0.5926150834263174,
                1.0233370614322561,
                -2.4356569374202026
            ]
        },
        {
            "positions": [
                -0.13390105891178591,
                -1.4427609731067121,
                1.9999632350955105,
                -0.5053660318531424,
                0.9813999765406276,
                -2.303983871299826
            ]
        },
        {
            "positions": [
                -0.09990734048720643,
                -1.454278906055891,
                1.929527989290882,
                -0.4181169802799676,
                0.9394628916489993,
                -2.1723108051794506
            ]
        },
        {
            "positions": [
                -0.06591362206262691,
                -1.46579683900507,
                1.8590927434862536,
                -0.3308679287067928,
                0.897525806757371,
                -2.0406377390590746
            ]
        },
        {
            "positions": [
                -0.03191990363804742,
                -1.4773147719542488,
                1.7886574976816254,
                -0.24361887713361796,
                0.8555887218657428,
                -1.9089646729386984
            ]
        },
        {
            "positions": [
                0.002073814786532069,
                -1.4888327049034276,
                1.718222251876997,
                -0.1563698255604431,
                0.8136516369741144,
                -1.7772916068183227
            ]
        },
        {
            "positions": [
                0.03606753321111156,
                -1.5003506378526064,
                1.6477870060723685,
                -0.06912077398726824,
                0.771714552082486,
                -1.6456185406979467
            ]
        },
        {
            "positions": [
                0.0700612516356911,
                -1.5118685708017852,
                1.57735176026774,
                0.01812827758590685,
                0.7297774671908576,
                -1.5139454745775704
            ]
        },
        {
            "positions": [
                0.10405497006027059,
                -1.5233865037509642,
                1.5069165144631116,
                0.1053773291590816,
                0.6878403822992293,
                -1.3822724084571945
            ]
        },
        {
            "positions": [
                0.13804868848485008,
                -1.534904436700143,
                1.4364812686584831,
                0.19262638073225657,
                0.6459032974076009,
                -1.2505993423368187
            ]
        },
        {
            "positions": [
                0.17204240690942957,
                -1.5464223696493218,
                1.3660460228538547,
                0.2798754323054313,
                0.6039662125159726,
                -1.1189262762164427
            ]
        },
        {
            "positions": [
                0.29556884736355926,
                -1.5979743732777483,
                1.390010367200209,
                0.36600391983648733,
                0.5998950822663673,
                -1.0434717820396413
            ]
        },
        {
            "positions": [
                0.4190952878176889,
                -1.649526376906175,
                1.4139747115465635,
                0.45213240736754334,
                0.595823952016762,
                -0.9680172878628399
            ]
        },
        {
            "positions": [
                0.5426217282718186,
                -1.7010783805346015,
                1.437939055892918,
                0.5382608948985994,
                0.5917528217671566,
                -0.8925627936860384
            ]
        },
        {
            "positions": [
                0.6661481687259483,
                -1.752630384163028,
                1.4619034002392723,
                0.6243893824296554,
                0.5876816915175513,
                -0.817108299509237
            ]
        },
        {
            "positions": [
                0.7382162493186031,
                -1.7835246441666328,
                1.4839850398556949,
                0.6677818625740626,
                0.5892553266908356,
                -0.7858794984481161
            ]
        },
        {
            "positions": [
                0.810284329911258,
                -1.8144189041702377,
                1.5060666794721176,
                0.7111743427184697,
                0.5908289618641197,
                -0.7546506973869951
            ]
        },
        {
            "positions": [
                0.8502417203803707,
                -1.8415880172742267,
                1.590514516700622,
                0.6633534640592859,
                0.5620773563916872,
                -0.9187609607242634
            ]
        },
        {
            "positions": [
                0.8901991108494833,
                -1.8687571303782156,
                1.6749623539291267,
                0.6155325854001021,
                0.5333257509192546,
                -1.0828712240615317
            ]
        },
        {
            "positions": [
                0.930156501318596,
                -1.8959262434822046,
                1.7594101911576314,
                0.5677117067409183,
                0.504574145446822,
                -1.2469814873988
            ]
        },
        {
            "positions": [
                0.9701138917877087,
                -1.9230953565861935,
                1.8438580283861359,
                0.5198908280817345,
                0.4758225399743895,
                -1.4110917507360683
            ]
        },
        {
            "positions": [
                1.0100712822568214,
                -1.9502644696901825,
                1.9283058656146403,
                0.4720699494225507,
                0.44707093450195695,
                -1.5752020140733367
            ]
        },
        {
            "positions": [
                1.050028672725934,
                -1.9774335827941716,
                2.012753702843145,
                0.42424907076336693,
                0.4183193290295244,
                -1.7393122774106051
            ]
        },
        {
            "positions": [
                1.0899860631950467,
                -2.0046026958981606,
                2.0972015400716497,
                0.37642819210418316,
                0.38956772355709185,
                -1.9034225407478733
            ]
        },
        {
            "positions": [
                1.1299434536641595,
                -2.0317718090021493,
                2.181649377300154,
                0.32860731344499927,
                0.3608161180846593,
                -2.0675328040851415
            ]
        },
        {
            "positions": [
                1.1699008441332721,
                -2.0589409221061383,
                2.2660972145286586,
                0.2807864347858155,
                0.33206451261222675,
                -2.23164306742241
            ]
        },
        {
            "positions": [
                1.2098582346023847,
                -2.0861100352101274,
                2.3505450517571633,
                0.23296555612663172,
                0.3033129071397942,
                -2.3957533307596783
            ]
        },
        {
            "positions": [
                1.138204122901712,
                -2.0601677052396954,
                2.356082055384053,
                0.134594956947298,
                0.3620440510368137,
                -2.501879105594784
            ]
        },
        {
            "positions": [
                1.066550011201039,
                -2.0342253752692634,
                2.3616190590109425,
                0.03622435776796426,
                0.42077519493383325,
                -2.6080048804298905
            ]
        },
        {
            "positions": [
                0.9948958995003662,
                -2.008283045298831,
                2.3671560626378323,
                -0.062146241411369485,
                0.4795063388308528,
                -2.7141306552649964
            ]
        },
        {
            "positions": [
                0.9232417877996932,
                -1.982340715328399,
                2.372693066264722,
                -0.1605168405907032,
                0.5382374827278723,
                -2.8202564301001023
            ]
        },
        {
            "positions": [
                0.8515876760990204,
                -1.956398385357967,
                2.378230069891612,
                -0.258887439770037,
                0.5969686266248919,
                -2.9263822049352086
            ]
        },
        {
            "positions": [
                0.7799335643983476,
                -1.930456055387535,
                2.3837670735185013,
                -0.3572580389493707,
                0.6556997705219114,
                -3.0325079797703145
            ]
        },
        {
            "positions": [
                0.7082794526976747,
                -1.9045137254171027,
                2.389304077145391,
                -0.4556286381287045,
                0.7144309144189309,
                -3.1386337546054204
            ]
        }
    ]
}