{
    "goal": {
        "global_pose": {
            "orientation": {
                "w": 0.7047431468963623,
                "x": -0.7094548344612122,
                "y": 0.0024358443915843964,
                "z": -0.0022348060738295317
            },
            "position": {
                "x": 0.6094750761985779,
                "y": 0.3671506643295288,
                "z": 0.19426114857196808
            }
        },
        "name": "move_to_magneteinheit_A"
    },
    "id": "LBKPIECE_move_to_magneteinheit_A_9",
    "joint_names": [
        "shoulder_pan_joint",
        "shoulder_lift_joint",
        "elbow_joint",
        "wrist_1_joint",
        "wrist_2_joint",
        "wrist_3_joint"
    ],
    "metrics": {
        "cart_traj_len": 1.870897275031629,
        "distance_elbow_joint": 3.930788674339336,
        "distance_shoulder_lift_joint": 0.7083376218626296,
        "distance_shoulder_pan_joint": 1.2413552531080019,
        "distance_wrist_1_joint": 1.5546519480156251,
        "distance_wrist_2_joint": 1.7037830011101796,
        "distance_wrist_3_joint": 1.1840443017315567,
        "smoothness": 9.516197344836317e-16,
        "time": 0.15306699899999998,
        "traj_len": 3.2129364762110266,
        "weighted_distance": 3.9936805521669165
    },
    "planner": "LBKPIECE",
    "start": {
        "state": {
            "elbow_joint": -1.919643507792019,
            "shoulder_lift_joint": -0.07675430207160344,
            "shoulder_pan_joint": -1.1188671864651873,
            "wrist_1_joint": 0.42560062535961957,
            "wrist_2_joint": 1.5706038300724876,
            "wrist_3_joint": 1.1188968870953055
        }
    },
    "waypoints": [
        {
            "positions": [
                -1.1188671864651873,
                -0.07675430207160344,
                -1.919643507792019,
                0.42560062535961957,
                1.5706038300724876,
                1.1188968870953055
            ]
        },
        {
            "positions": [
                -1.0728910659797057,
                -0.10298902880725638,
                -1.7740587420757474,
                0.48318032713797604,
                1.5075007559572957,
                1.0750433944385813
            ]
        },
        {
            "positions": [
                -1.0269149454942244,
                -0.12922375554290932,
                -1.6284739763594758,
                0.5407600289163326,
                1.444397681842104,
                1.0311899017818569
            ]
        },
        {
            "positions": [
                -0.9809388250087427,
                -0.1554584822785623,
                -1.482889210643204,
                0.598339730694689,
                1.3812946077269121,
                0.9873364091251327
            ]
        },
        {
            "positions": [
                -0.9349627045232611,
                -0.18169320901421523,
                -1.3373044449269322,
                0.6559194324730455,
                1.3181915336117203,
                0.9434829164684082
            ]
        },
        {
            "positions": [
                -0.8889865840377796,
                -0.20792793574986818,
                -1.1917196792106606,
                0.713499134251402,
                1.2550884594965286,
                0.899629423811684
            ]
        },
        {
            "positions": [
                -0.843010463552298,
                -0.23416266248552112,
                -1.046134913494389,
                0.7710788360297585,
                1.1919853853813367,
                0.8557759311549596
            ]
        },
        {
            "positions": [
                -0.7970343430668165,
                -0.26039738922117406,
                -0.9005501477781173,
                0.8286585378081149,
                1.1288823112661448,
                0.8119224384982353
            ]
        },
        {
            "positions": [
                -0.7510582225813349,
                -0.286632115956827,
                -0.7549653820618456,
                0.8862382395864714,
                1.065779237150953,
                0.768068945841511
            ]
        },
        {
            "positions": [
                -0.7050821020958534,
                -0.31286684269248,
                -0.6093806163455737,
                0.943817941364828,
                1.002676163035761,
                0.7242154531847866
            ]
        },
        {
            "positions": [
                -0.6591059816103719,
                -0.3391015694281329,
                -0.46379585062930206,
                1.0013976431431844,
                0.9395730889205693,
                0.6803619605280624
            ]
        },
        {
            "positions": [
                -0.6131298611248903,
                -0.3653362961637859,
                -0.3182110849130304,
                1.058977344921541,
                0.8764700148053775,
                0.636508467871338
            ]
        },
        {
            "positions": [
                -0.5671537406394087,
                -0.3915710228994388,
                -0.17262631919675875,
                1.1165570466998973,
                0.8133669406901857,
                0.5926549752146137
            ]
        },
        {
            "positions": [
                -0.5211776201539272,
                -0.41780574963509176,
                -0.02704155348048709,
                1.1741367484782539,
                0.7502638665749938,
                0.5488014825578894
            ]
        },
        {
            "positions": [
                -0.4752014996684457,
                -0.4440404763707447,
                0.11854321223578457,
                1.2317164502566103,
                0.687160792459802,
                0.5049479899011651
            ]
        },
        {
            "positions": [
                -0.4292253791829641,
                -0.4702752031063977,
                0.26412797795205667,
                1.2892961520349668,
                0.62405771834461,
                0.4610944972444406
            ]
        },
        {
            "positions": [
                -0.3832492586974826,
                -0.4965099298420506,
                0.4097127436683279,
                1.3468758538133232,
                0.5609546442294182,
                0.4172410045877164
            ]
        },
        {
            "positions": [
                -0.337273138212001,
                -0.5227446565777036,
                0.5552975093846,
                1.4044555555916798,
                0.4978515701142263,
                0.37338751193099207
            ]
        },
        {
            "positions": [
                -0.2912970177265195,
                -0.5489793833133565,
                0.7008822751008716,
                1.4620352573700364,
                0.43474849599903465,
                0.32953401927426773
            ]
        },
        {
            "positions": [
                -0.2453208972410379,
                -0.5752141100490095,
                0.8464670408171433,
                1.519614959148393,
                0.37164542188384275,
                0.2856805266175434
            ]
        },
        {
            "positions": [
                -0.1993447767555564,
                -0.6014488367846624,
                0.992051806533415,
                1.5771946609267493,
                0.3085423477686511,
                0.24182703396081917
            ]
        },
        {
            "positions": [
                -0.1533686562700748,
                -0.6276835635203153,
                1.1376365722496866,
                1.634774362705106,
                0.24543927365345897,
                0.19797354130409472
            ]
        },
        {
            "positions": [
                -0.10739253578459329,
                -0.6539182902559684,
                1.2832213379659583,
                1.6923540644834623,
                0.1823361995382673,
                0.1541200486473705
            ]
        },
        {
            "positions": [
                -0.06141641529911168,
                -0.6801530169916212,
                1.4288061036822304,
                1.7499337662618188,
                0.1192331254230754,
                0.11026655599064616
            ]
        },
        {
            "positions": [
                -0.015440294813630073,
                -0.7063877437272741,
                1.5743908693985016,
                1.8075134680401752,
                0.05613005130788373,
                0.06641306333392194
            ]
        },
        {
            "positions": [
                0.030535825671851535,
                -0.7326224704629272,
                1.7199756351147737,
                1.8650931698185318,
                -0.006973022807308382,
                0.022559570677197494
            ]
        },
        {
            "positions": [
                0.07651194615733292,
                -0.75885719719858,
                1.865560400831045,
                1.9226728715968882,
                -0.07007609692250005,
                -0.02129392197952673
            ]
        },
        {
            "positions": [
                0.12248806664281453,
                -0.7850919239342331,
                2.0111451665473172,
                1.9802525733752447,
                -0.133179171037692,
                -0.06514741463625115
            ]
        }
    ]
}