{
    "goal": {
        "global_pose": {
            "orientation": {
                "w": 0.5084816217422485,
                "x": -0.49083608388900757,
                "y": 0.5182115435600281,
                "z": -0.4816462993621826
            },
            "position": {
                "x": 0.5540239810943604,
                "y": 0.030875300988554955,
                "z": 0.16403168439865112
            }
        },
        "name": "move_to_storage_A"
    },
    "id": "LBKPIECE_move_to_storage_A_81",
    "joint_names": [
        "shoulder_pan_joint",
        "shoulder_lift_joint",
        "elbow_joint",
        "wrist_1_joint",
        "wrist_2_joint",
        "wrist_3_joint"
    ],
    "metrics": {
        "cart_traj_len": 0.35302294515231514,
        "distance_elbow_joint": 0.4525985248411164,
        "distance_shoulder_lift_joint": 0.23372959672191995,
        "distance_shoulder_pan_joint": 0.4596151203880157,
        "distance_wrist_1_joint": 0.2583252637268004,
        "distance_wrist_2_joint": 1.1070057495110757,
        "distance_wrist_3_joint": 0.10866134936074578,
        "smoothness": 8.881784197001252e-16,
        "time": 0.534798458,
        "traj_len": 1.618621513680599,
        "weighted_distance": 2.050021784398654
    },
    "planner": "LBKPIECE",
    "start": {
        "state": {
            "elbow_joint": 1.9715463870305268,
            "shoulder_lift_joint": -1.1394903361783484,
            "shoulder_pan_joint": 0.12281147578464417,
            "wrist_1_joint": -0.7804599489681411,
            "wrist_2_joint": 0.12958660307563738,
            "wrist_3_joint": -3.1924946282119055
        }
    },
    "waypoints": [
        {
            "positions": [
                0.12281147578464417,
                -1.1394903361783484,
                1.9715463870305268,
                -0.7804599489681411,
                0.12958660307563738,
                -3.1924946282119055
            ]
        },
        {
            "positions": [
                0.0571521728720705,
                -1.1728802785671941,
                2.0362033191506863,
                -0.8173635580719697,
                0.2877302815772196,
                -3.1769715783032275
            ]
        },
        {
            "positions": [
                -0.008507130040503172,
                -1.2062702209560399,
                2.100860251270846,
                -0.8542671671757983,
                0.44587396007880187,
                -3.1614485283945495
            ]
        },
        {
            "positions": [
                -0.07416643295307683,
                -1.2396601633448856,
                2.1655171833910054,
                -0.8911707762796269,
                0.604017638580384,
                -3.1459254784858715
            ]
        },
        {
            "positions": [
                -0.1398257358656505,
                -1.2730501057337311,
                2.2301741155111645,
                -0.9280743853834557,
                0.7621613170819663,
                -3.130402428577194
            ]
        },
        {
            "positions": [
                -0.20548503877822422,
                -1.3064400481225769,
                2.294831047631324,
                -0.9649779944872843,
                0.9203049955835486,
                -3.114879378668516
            ]
        },
        {
            "positions": [
                -0.2711443416907978,
                -1.3398299905114226,
                2.3594879797514836,
                -1.001881603591113,
                1.0784486740851307,
                -3.099356328759838
            ]
        },
        {
            "positions": [
                -0.33680364460337153,
                -1.3732199329002683,
                2.424144911871643,
                -1.0387852126949415,
                1.236592352586713,
                -3.0838332788511598
            ]
        }
    ]
}