{
    "goal": {
        "global_pose": {
            "orientation": {
                "w": -0.00223480608172531,
                "x": 0.0024358444001904467,
                "y": 0.7094548369677653,
                "z": -0.704743149386269
            },
            "position": {
                "x": 0.6205249238014221,
                "y": -0.6371506643295288,
                "z": 0.19426114857196808
            }
        },
        "name": "move_to_magneteinheit_B"
    },
    "id": "LBKPIECE_move_to_magneteinheit_B_110",
    "joint_names": [
        "shoulder_pan_joint",
        "shoulder_lift_joint",
        "elbow_joint",
        "wrist_1_joint",
        "wrist_2_joint",
        "wrist_3_joint"
    ],
    "metrics": {
        "cart_traj_len": 1.4520426765141579,
        "distance_elbow_joint": 0.7266317703818024,
        "distance_shoulder_lift_joint": 1.2468974648023354,
        "distance_shoulder_pan_joint": 1.620895395747736,
        "distance_wrist_1_joint": 2.610277569507556,
        "distance_wrist_2_joint": 2.9338516194990016,
        "distance_wrist_3_joint": 3.1432378650480532,
        "smoothness": 6.106226652474344e-16,
        "time": 0.319058055,
        "traj_len": 3.5045387264212797,
        "weighted_distance": 4.91043751656501
    },
    "planner": "LBKPIECE",
    "start": {
        "state": {
            "elbow_joint": 2.39358713078474,
            "shoulder_lift_joint": -1.908514104345545,
            "shoulder_pan_joint": 0.7066247066606129,
            "wrist_1_joint": -0.4678290933515497,
            "wrist_2_joint": 0.7096259083745334,
            "wrist_3_joint": -3.1358149277392293
        }
    },
    "waypoints": [
        {
            "positions": [
                0.7066247066606129,
                -1.908514104345545,
                2.39358713078474,
                -0.4678290933515497,
                0.7096259083745334,
                -3.1358149277392293
            ]
        },
        {
            "positions": [
                0.654337758410686,
                -1.8682916054809535,
                2.3701473962562947,
                -0.3836265911093705,
                0.614985533551985,
                -3.0344201578989694
            ]
        },
        {
            "positions": [
                0.602050810160759,
                -1.828069106616362,
                2.3467076617278497,
                -0.29942408886719124,
                0.5203451587294365,
                -2.93302538805871
            ]
        },
        {
            "positions": [
                0.549763861910832,
                -1.7878466077517705,
                2.3232679271994043,
                -0.215221586625012,
                0.4257047839068881,
                -2.83163061821845
            ]
        },
        {
            "positions": [
                0.4974769136609051,
                -1.7476241088871791,
                2.299828192670959,
                -0.13101908438283277,
                0.3310644090843397,
                -2.7302358483781903
            ]
        },
        {
            "positions": [
                0.4451899654109781,
                -1.7074016100225875,
                2.276388458142514,
                -0.04681658214065354,
                0.23642403426179126,
                -2.6288410785379304
            ]
        },
        {
            "positions": [
                0.3929030171610512,
                -1.667179111157996,
                2.2529487236140686,
                0.037385920101525694,
                0.14178365943924276,
                -2.5274463086976704
            ]
        },
        {
            "positions": [
                0.3406160689111242,
                -1.6269566122934047,
                2.2295089890856232,
                0.12158842234370487,
                0.04714328461669437,
                -2.426051538857411
            ]
        },
        {
            "positions": [
                0.28832912066119726,
                -1.5867341134288133,
                2.2060692545571783,
                0.20579092458588416,
                -0.04749709020585402,
                -2.3246567690171513
            ]
        },
        {
            "positions": [
                0.23604217241127023,
                -1.5465116145642217,
                2.182629520028733,
                0.28999342682806345,
                -0.14213746502840263,
                -2.2232619991768914
            ]
        },
        {
            "positions": [
                0.18375522416134327,
                -1.5062891156996303,
                2.1591897855002875,
                0.37419592907024263,
                -0.2367778398509509,
                -2.1218672293366314
            ]
        },
        {
            "positions": [
                0.1314682759114163,
                -1.4660666168350387,
                2.1357500509718426,
                0.4583984313124219,
                -0.3314182146734995,
                -2.0204724594963714
            ]
        },
        {
            "positions": [
                0.07918132766148944,
                -1.4258441179704473,
                2.112310316443397,
                0.5426009335546012,
                -0.4260585894960479,
                -1.919077689656112
            ]
        },
        {
            "positions": [
                0.026894379411562364,
                -1.385621619105856,
                2.088870581914952,
                0.6268034357967804,
                -0.5206989643185963,
                -1.8176829198158522
            ]
        },
        {
            "positions": [
                -0.025392568838364493,
                -1.3453991202412645,
                2.065430847386507,
                0.7110059380389595,
                -0.6153393391411447,
                -1.7162881499755924
            ]
        },
        {
            "positions": [
                -0.07767951708829157,
                -1.305176621376673,
                2.0419911128580615,
                0.7952084402811388,
                -0.7099797139636933,
                -1.6148933801353325
            ]
        },
        {
            "positions": [
                -0.12996646533821843,
                -1.2649541225120815,
                2.018551378329616,
                0.8794109425233181,
                -0.8046200887862415,
                -1.513498610295073
            ]
        },
        {
            "positions": [
                -0.1822534135881454,
                -1.22473162364749,
                1.9951116438011711,
                0.9636134447654972,
                -0.8992604636087899,
                -1.4121038404548132
            ]
        },
        {
            "positions": [
                -0.23454036183807248,
                -1.1845091247828985,
                1.9716719092727257,
                1.0478159470076767,
                -0.9939008384313387,
                -1.3107090706145532
            ]
        },
        {
            "positions": [
                -0.28682731008799944,
                -1.144286625918307,
                1.9482321747442806,
                1.1320184492498557,
                -1.0885412132538868,
                -1.2093143007742935
            ]
        },
        {
            "positions": [
                -0.3391142583379264,
                -1.1040641270537157,
                1.9247924402158354,
                1.216220951492035,
                -1.1831815880764354,
                -1.107919530934034
            ]
        },
        {
            "positions": [
                -0.39140120658785327,
                -1.0638416281891243,
                1.90135270568739,
                1.300423453734214,
                -1.2778219628989835,
                -1.006524761093774
            ]
        },
        {
            "positions": [
                -0.44368815483778035,
                -1.0236191293245325,
                1.8779129711589448,
                1.3846259559763936,
                -1.3724623377215326,
                -0.905129991253514
            ]
        },
        {
            "positions": [
                -0.4959751030877072,
                -0.9833966304599412,
                1.8544732366304997,
                1.4688284582185727,
                -1.4671027125440808,
                -0.8037352214132545
            ]
        },
        {
            "positions": [
                -0.5482620513376341,
                -0.9431741315953498,
                1.8310335021020543,
                1.553030960460752,
                -1.5617430873666294,
                -0.7023404515729945
            ]
        },
        {
            "positions": [
                -0.6005489995875611,
                -0.9029516327307583,
                1.8075937675736091,
                1.6372334627029308,
                -1.6563834621891775,
                -0.600945681732735
            ]
        },
        {
            "positions": [
                -0.6528359478374882,
                -0.8627291338661667,
                1.784154033045164,
                1.7214359649451105,
                -1.7510238370117261,
                -0.499550911892475
            ]
        },
        {
            "positions": [
                -0.7051228960874151,
                -0.8225066350015753,
                1.7607142985167186,
                1.8056384671872898,
                -1.8456642118342748,
                -0.39815614205221506
            ]
        },
        {
            "positions": [
                -0.7574098443373419,
                -0.7822841361369839,
                1.7372745639882734,
                1.8898409694294687,
                -1.940304586656823,
                -0.29676137221195553
            ]
        },
        {
            "positions": [
                -0.809696792587269,
                -0.7420616372723925,
                1.7138348294598282,
                1.974043471671648,
                -2.034944961479371,
                -0.195366602371696
            ]
        },
        {
            "positions": [
                -0.8619837408371961,
                -0.7018391384078009,
                1.6903950949313828,
                2.0582459739138272,
                -2.12958533630192,
                -0.0939718325314356
            ]
        },
        {
            "positions": [
                -0.9142706890871228,
                -0.6616166395432096,
                1.6669553604029377,
                2.1424484761560065,
                -2.2242257111244683,
                0.007422937308823899
            ]
        }
    ]
}