{
    "goal": {
        "global_pose": {
            "orientation": {
                "w": -0.00223480608172531,
                "x": 0.0024358444001904467,
                "y": 0.7094548369677653,
                "z": -0.704743149386269
            },
            "position": {
                "x": 0.6205249238014221,
                "y": -0.6371506643295288,
                "z": 0.19426114857196808
            }
        },
        "name": "move_to_magneteinheit_B"
    },
    "id": "LBKPIECE_move_to_magneteinheit_B_47",
    "joint_names": [
        "shoulder_pan_joint",
        "shoulder_lift_joint",
        "elbow_joint",
        "wrist_1_joint",
        "wrist_2_joint",
        "wrist_3_joint"
    ],
    "metrics": {
        "cart_traj_len": 3.584642621893759,
        "distance_elbow_joint": 4.264540358451547,
        "distance_shoulder_lift_joint": 1.1175019613371715,
        "distance_shoulder_pan_joint": 2.239626609397569,
        "distance_wrist_1_joint": 1.4656800046207317,
        "distance_wrist_2_joint": 0.7464377172158789,
        "distance_wrist_3_joint": 3.132973773238262,
        "smoothness": 0.3055314589867725,
        "time": 0.687554349,
        "traj_len": 3.600938825398338,
        "weighted_distance": 4.6308558272283
    },
    "planner": "LBKPIECE",
    "start": {
        "state": {
            "elbow_joint": 2.39358713078474,
            "shoulder_lift_joint": -1.908514104345545,
            "shoulder_pan_joint": 0.7066247066606129,
            "wrist_1_joint": -0.4678290933515497,
            "wrist_2_joint": 0.7096259083745334,
            "wrist_3_joint": -3.1358149277392293
        }
    },
    "waypoints": [
        {
            "positions": [
                0.7066247066606129,
                -1.908514104345545,
                2.39358713078474,
                -0.4678290933515497,
                0.7096259083745334,
                -3.1358149277392293
            ]
        },
        {
            "positions": [
                0.6766174215568543,
                -1.8961980281084436,
                2.364648808688079,
                -0.37945718008461815,
                0.7746196895086356,
                -3.0325623975097384
            ]
        },
        {
            "positions": [
                0.6466101364530958,
                -1.8838819518713423,
                2.3357104865914176,
                -0.29108526681768665,
                0.8396134706427376,
                -2.929309867280248
            ]
        },
        {
            "positions": [
                0.6166028513493373,
                -1.8715658756342413,
                2.3067721644947565,
                -0.2027133535507551,
                0.9046072517768398,
                -2.8260573370507576
            ]
        },
        {
            "positions": [
                0.5865955662455787,
                -1.85924979939714,
                2.2778338423980955,
                -0.11434144028382362,
                0.9696010329109419,
                -2.7228048068212667
            ]
        },
        {
            "positions": [
                0.6434062044745944,
                -1.8313138677105083,
                2.135632889428495,
                -0.06600527663299473,
                0.9678156127722157,
                -2.62952954406984
            ]
        },
        {
            "positions": [
                0.7002168427036101,
                -1.8033779360238769,
                1.9934319364588944,
                -0.017669112982165835,
                0.9660301926334897,
                -2.536254281318414
            ]
        },
        {
            "positions": [
                0.7570274809326258,
                -1.7754420043372452,
                1.8512309834892937,
                0.03066705066866307,
                0.9642447724947636,
                -2.4429790185669873
            ]
        },
        {
            "positions": [
                0.8138381191616415,
                -1.7475060726506135,
                1.7090300305196933,
                0.07900321431949195,
                0.9624593523560374,
                -2.349703755815561
            ]
        },
        {
            "positions": [
                0.8706487573906572,
                -1.719570140963982,
                1.5668290775500926,
                0.12733937797032083,
                0.9606739322173112,
                -2.2564284930641345
            ]
        },
        {
            "positions": [
                0.9274593956196728,
                -1.6916342092773504,
                1.424628124580492,
                0.17567554162114976,
                0.9588885120785852,
                -2.163153230312708
            ]
        },
        {
            "positions": [
                0.9842700338486885,
                -1.663698277590719,
                1.2824271716108915,
                0.22401170527197864,
                0.9571030919398591,
                -2.0698779675612817
            ]
        },
        {
            "positions": [
                1.0410806720777042,
                -1.6357623459040873,
                1.1402262186412908,
                0.2723478689228075,
                0.9553176718011329,
                -1.9766027048098551
            ]
        },
        {
            "positions": [
                1.1263379162491414,
                -1.6522592692206404,
                0.988730628053515,
                0.3081737595523447,
                0.937386217783433,
                -1.8874417734696585
            ]
        },
        {
            "positions": [
                1.2115951604205788,
                -1.6687561925371936,
                0.8372350374657391,
                0.34399965018188194,
                0.9194547637657332,
                -1.7982808421294618
            ]
        },
        {
            "positions": [
                1.2968524045920162,
                -1.6852531158537467,
                0.6857394468779632,
                0.37982554081141917,
                0.9015233097480333,
                -1.709119910789265
            ]
        },
        {
            "positions": [
                1.3821096487634534,
                -1.7017500391702998,
                0.5342438562901873,
                0.4156514314409564,
                0.8835918557303335,
                -1.6199589794490683
            ]
        },
        {
            "positions": [
                1.4673668929348906,
                -1.718246962486853,
                0.3827482657024115,
                0.4514773220704936,
                0.8656604017126336,
                -1.5307980481088717
            ]
        },
        {
            "positions": [
                1.552624137106328,
                -1.734743885803406,
                0.23125267511463565,
                0.48730321270003085,
                0.8477289476949337,
                -1.4416371167686748
            ]
        },
        {
            "positions": [
                1.6378813812777655,
                -1.7512408091199594,
                0.07975708452685981,
                0.5231291033295681,
                0.8297974936772339,
                -1.3524761854284781
            ]
        },
        {
            "positions": [
                1.7231386254492027,
                -1.7677377324365124,
                -0.07173850606091614,
                0.5589549939591054,
                0.811866039659534,
                -1.2633152540882815
            ]
        },
        {
            "positions": [
                1.80839586962064,
                -1.7842346557530655,
                -0.22323409664869187,
                0.5947808845886426,
                0.7939345856418341,
                -1.1741543227480848
            ]
        },
        {
            "positions": [
                1.8936531137920773,
                -1.8007315790696188,
                -0.3747296872364678,
                0.6306067752181799,
                0.7760031316241343,
                -1.0849933914078882
            ]
        },
        {
            "positions": [
                1.9789103579635148,
                -1.8172285023861718,
                -0.5262252778242438,
                0.6664326658477171,
                0.7580716776064343,
                -0.9958324600676913
            ]
        },
        {
            "positions": [
                2.064167602134952,
                -1.833725425702725,
                -0.6777208684120195,
                0.7022585564772543,
                0.7401402235887344,
                -0.9066715287274947
            ]
        },
        {
            "positions": [
                2.149424846306389,
                -1.8502223490192782,
                -0.8292164589997955,
                0.7380844471067916,
                0.7222087695710346,
                -0.8175105973872978
            ]
        },
        {
            "positions": [
                2.2346820904778264,
                -1.8667192723358312,
                -0.9807120495875712,
                0.7739103377363287,
                0.7042773155533348,
                -0.7283496660471014
            ]
        },
        {
            "positions": [
                2.319939334649264,
                -1.8832161956523845,
                -1.1322076401753474,
                0.809736228365866,
                0.6863458615356348,
                -0.6391887347069045
            ]
        },
        {
            "positions": [
                2.4051965788207013,
                -1.8997131189689376,
                -1.283703230763123,
                0.8455621189954032,
                0.668414407517935,
                -0.5500278033667079
            ]
        },
        {
            "positions": [
                2.490453822992139,
                -1.9162100422854906,
                -1.4351988213508988,
                0.8813880096249405,
                0.6504829535002351,
                -0.460866872026511
            ]
        },
        {
            "positions": [
                2.575711067163576,
                -1.9327069656020437,
                -1.5866944119386746,
                0.9172139002544777,
                0.6325514994825353,
                -0.3717059406863146
            ]
        },
        {
            "positions": [
                2.6609683113350133,
                -1.949203888918597,
                -1.738190002526451,
                0.9530397908840149,
                0.6146200454648354,
                -0.2825450093461177
            ]
        },
        {
            "positions": [
                2.6834883262172093,
                -1.9808863224066506,
                -1.7685748539838468,
                0.9618001562252357,
                0.6032294871268075,
                -0.25230971111416417
            ]
        },
        {
            "positions": [
                2.675920089880241,
                -2.147428397871034,
                -1.7344487294228597,
                0.9738170745732178,
                0.5631991381616954,
                -0.16915352557643168
            ]
        },
        {
            "positions": [
                2.6683518535432733,
                -2.313970473335418,
                -1.7003226048618725,
                0.9858339929211997,
                0.5231687891965835,
                -0.08599734003869919
            ]
        },
        {
            "positions": [
                2.660783617206305,
                -2.480512548799801,
                -1.6661964803008853,
                0.9978509112691817,
                0.48313844023147146,
                -0.002841154500966667
            ]
        }
    ]
}