{
    "goal": {
        "global_pose": {
            "orientation": {
                "w": 0.7047431468963623,
                "x": -0.7094548344612122,
                "y": 0.0024358443915843964,
                "z": -0.0022348060738295317
            },
            "position": {
                "x": 0.6094750761985779,
                "y": 0.3671506643295288,
                "z": 0.19426114857196808
            }
        },
        "name": "move_to_magneteinheit_A"
    },
    "id": "LBKPIECE_move_to_magneteinheit_A_46",
    "joint_names": [
        "shoulder_pan_joint",
        "shoulder_lift_joint",
        "elbow_joint",
        "wrist_1_joint",
        "wrist_2_joint",
        "wrist_3_joint"
    ],
    "metrics": {
        "cart_traj_len": 2.085326237733556,
        "distance_elbow_joint": 3.9071642789764507,
        "distance_shoulder_lift_joint": 1.07037146863709,
        "distance_shoulder_pan_joint": 1.2421458534676628,
        "distance_wrist_1_joint": 1.2892876301532317,
        "distance_wrist_2_joint": 1.4660949840253725,
        "distance_wrist_3_joint": 4.227859185678076,
        "smoothness": 0.023149176293497272,
        "time": 0.36076920300000004,
        "traj_len": 3.63358272245698,
        "weighted_distance": 4.941054987193791
    },
    "planner": "LBKPIECE",
    "start": {
        "state": {
            "elbow_joint": -1.919643507792019,
            "shoulder_lift_joint": -0.07675430207160344,
            "shoulder_pan_joint": -1.1188671864651873,
            "wrist_1_joint": 0.42560062535961957,
            "wrist_2_joint": 1.5706038300724876,
            "wrist_3_joint": 1.1188968870953055
        }
    },
    "waypoints": [
        {
            "positions": [
                -1.1188671864651873,
                -0.07675430207160344,
                -1.919643507792019,
                0.42560062535961957,
                1.5706038300724876,
                1.1188968870953055
            ]
        },
        {
            "positions": [
                -1.0853282964028201,
                -0.10887899542041432,
                -1.8014752747012461,
                0.39138466442840825,
                1.5264759292067305,
                0.9929605956500724
            ]
        },
        {
            "positions": [
                -1.051789406340453,
                -0.1410036887692252,
                -1.683307041610473,
                0.3571687034971969,
                1.4823480283409733,
                0.8670243042048393
            ]
        },
        {
            "positions": [
                -1.0182505162780857,
                -0.1731283821180361,
                -1.5651388085197,
                0.3229527425659856,
                1.438220127475216,
                0.7410880127596063
            ]
        },
        {
            "positions": [
                -0.9847116262157185,
                -0.20525307546684698,
                -1.446970575428927,
                0.28873678163477423,
                1.3940922266094589,
                0.6151517213143732
            ]
        },
        {
            "positions": [
                -0.9511727361533512,
                -0.23737776881565786,
                -1.328802342338154,
                0.2545208207035629,
                1.3499643257437017,
                0.48921542986914024
            ]
        },
        {
            "positions": [
                -0.917633846090984,
                -0.2695024621644687,
                -1.2106341092473811,
                0.2203048597723516,
                1.3058364248779446,
                0.36327913842390713
            ]
        },
        {
            "positions": [
                -0.8840949560286168,
                -0.3016271555132797,
                -1.092465876156608,
                0.18608889884114027,
                1.2617085240121875,
                0.23734284697867403
            ]
        },
        {
            "positions": [
                -0.8505560659662496,
                -0.3337518488620905,
                -0.974297643065835,
                0.15187293790992895,
                1.2175806231464303,
                0.11140655553344092
            ]
        },
        {
            "positions": [
                -0.8170171759038823,
                -0.3658765422109014,
                -0.856129409975062,
                0.11765697697871763,
                1.1734527222806732,
                -0.014529735911791963
            ]
        },
        {
            "positions": [
                -0.783478285841515,
                -0.3980012355597123,
                -0.7379611768842891,
                0.08344101604750626,
                1.129324821414916,
                -0.14046602735702507
            ]
        },
        {
            "positions": [
                -0.7499393957791479,
                -0.43012592890852314,
                -0.6197929437935161,
                0.04922505511629499,
                1.085196920549159,
                -0.2664023188022582
            ]
        },
        {
            "positions": [
                -0.7164005057167806,
                -0.46225062225733404,
                -0.501624710702743,
                0.015009094185083616,
                1.0410690196834016,
                -0.3923386102474913
            ]
        },
        {
            "positions": [
                -0.6828616156544134,
                -0.49437531560614495,
                -0.3834564776119702,
                -0.019206866746127704,
                0.9969411188176445,
                -0.5182749016927242
            ]
        },
        {
            "positions": [
                -0.6493227255920462,
                -0.5265000089549559,
                -0.26528824452119704,
                -0.053422827677339024,
                0.9528132179518873,
                -0.6442111931379575
            ]
        },
        {
            "positions": [
                -0.615783835529679,
                -0.5586247023037667,
                -0.14712001143042408,
                -0.08763878860855029,
                0.9086853170861302,
                -0.7701474845831904
            ]
        },
        {
            "positions": [
                -0.5822449454673118,
                -0.5907493956525776,
                -0.028951778339650902,
                -0.12185474953976166,
                0.864557416220373,
                -0.8960837760284237
            ]
        },
        {
            "positions": [
                -0.5487060554049445,
                -0.6228740890013884,
                0.08921645475112183,
                -0.15607071047097304,
                0.8204295153546158,
                -1.0220200674736564
            ]
        },
        {
            "positions": [
                -0.5151671653425773,
                -0.6549987823501993,
                0.207384687841895,
                -0.1902866714021843,
                0.7763016144888587,
                -1.1479563589188895
            ]
        },
        {
            "positions": [
                -0.48162827528021,
                -0.6871234756990103,
                0.3255529209326682,
                -0.22450263233339568,
                0.7321737136231015,
                -1.273892650364123
            ]
        },
        {
            "positions": [
                -0.4480893852178428,
                -0.7192481690478212,
                0.4437211540234409,
                -0.25871859326460706,
                0.6880458127573443,
                -1.3998289418093557
            ]
        },
        {
            "positions": [
                -0.4145504951554757,
                -0.751372862396632,
                0.5618893871142141,
                -0.2929345541958183,
                0.6439179118915872,
                -1.5257652332545888
            ]
        },
        {
            "positions": [
                -0.3810116050931085,
                -0.7834975557454429,
                0.6800576202049868,
                -0.3271505151270296,
                0.5997900110258301,
                -1.651701524699822
            ]
        },
        {
            "positions": [
                -0.3474727150307412,
                -0.8156222490942537,
                0.79822585329576,
                -0.36136647605824107,
                0.5556621101600727,
                -1.777637816145055
            ]
        },
        {
            "positions": [
                -0.31393382496837396,
                -0.8477469424430646,
                0.9163940863865332,
                -0.39558243698945234,
                0.5115342092943156,
                -1.9035741075902881
            ]
        },
        {
            "positions": [
                -0.28039493490600675,
                -0.8798716357918757,
                1.034562319477306,
                -0.4297983979206636,
                0.46740630842855846,
                -2.029510399035521
            ]
        },
        {
            "positions": [
                -0.24685604484363954,
                -0.9119963291406865,
                1.1527305525680787,
                -0.464014358851875,
                0.42327840756280133,
                -2.155446690480754
            ]
        },
        {
            "positions": [
                -0.21331715478127222,
                -0.9441210224894974,
                1.2708987856588523,
                -0.49823031978308635,
                0.3791505066970442,
                -2.2813829819259874
            ]
        },
        {
            "positions": [
                -0.179778264718905,
                -0.9762457158383082,
                1.389067018749625,
                -0.5324462807142976,
                0.33502260583128707,
                -2.4073192733712205
            ]
        },
        {
            "positions": [
                -0.1462393746565379,
                -1.008370409187119,
                1.5072352518403982,
                -0.5666622416455089,
                0.29089470496552994,
                -2.533255564816453
            ]
        },
        {
            "positions": [
                -0.11270048459417059,
                -1.04049510253593,
                1.625403484931171,
                -0.6008782025767201,
                0.2467668040997728,
                -2.6591918562616863
            ]
        },
        {
            "positions": [
                -0.07916159453180338,
                -1.072619795884741,
                1.743571718021944,
                -0.6350941635079317,
                0.20263890323401546,
                -2.78512814770692
            ]
        },
        {
            "positions": [
                -0.04562270446943617,
                -1.1047444892335518,
                1.8617399511127173,
                -0.6693101244391428,
                0.15851100236825832,
                -2.911064439152153
            ]
        },
        {
            "positions": [
                -0.012083814407068898,
                -1.1368691825823627,
                1.97990818420349,
                -0.7035260853703542,
                0.11438310150250126,
                -3.0370007305973856
            ]
        },
        {
            "positions": [
                0.12327866700247556,
                -1.1471257707086935,
                1.9875207711844318,
                -0.8636870047936119,
                0.12425735695788745,
                -3.10896229858277
            ]
        }
    ]
}