{
    "goal": {
        "global_pose": {
            "orientation": {
                "w": 0.5084816217422485,
                "x": -0.49083608388900757,
                "y": 0.5182115435600281,
                "z": -0.4816462993621826
            },
            "position": {
                "x": 0.5540239810943604,
                "y": 0.030875300988554955,
                "z": 0.16403168439865112
            }
        },
        "name": "move_to_storage_A"
    },
    "id": "LBKPIECE_move_to_storage_A_130",
    "joint_names": [
        "shoulder_pan_joint",
        "shoulder_lift_joint",
        "elbow_joint",
        "wrist_1_joint",
        "wrist_2_joint",
        "wrist_3_joint"
    ],
    "metrics": {
        "cart_traj_len": 0.3535450982670716,
        "distance_elbow_joint": 0.44815814881818294,
        "distance_shoulder_lift_joint": 0.23525420045166734,
        "distance_shoulder_pan_joint": 0.4628663773351198,
        "distance_wrist_1_joint": 0.23537015892999447,
        "distance_wrist_2_joint": 1.0973798439651528,
        "distance_wrist_3_joint": 0.10223841206764517,
        "smoothness": 2.2204460668324854e-16,
        "time": 0.481874448,
        "traj_len": 1.606632235941929,
        "weighted_distance": 2.0294072949011985
    },
    "planner": "LBKPIECE",
    "start": {
        "state": {
            "elbow_joint": 1.9715463870305268,
            "shoulder_lift_joint": -1.1394903361783484,
            "shoulder_pan_joint": 0.12281147578464417,
            "wrist_1_joint": -0.7804599489681411,
            "wrist_2_joint": 0.12958660307563738,
            "wrist_3_joint": -3.1924946282119055
        }
    },
    "waypoints": [
        {
            "positions": [
                0.12281147578464417,
                -1.1394903361783484,
                1.9715463870305268,
                -0.7804599489681411,
                0.12958660307563738,
                -3.1924946282119055
            ]
        },
        {
            "positions": [
                0.05668770759391277,
                -1.1730980791000152,
                2.0355689797188385,
                -0.8140842573867118,
                0.2863551522135164,
                -3.1778891407736705
            ]
        },
        {
            "positions": [
                -0.009436060596818632,
                -1.206705822021682,
                2.0995915724071503,
                -0.8477085658052823,
                0.44312370135139534,
                -3.1632836533354354
            ]
        },
        {
            "positions": [
                -0.07555982878755003,
                -1.2403135649433488,
                2.163614165095462,
                -0.881332874223853,
                0.5998922504892743,
                -3.1486781658972003
            ]
        },
        {
            "positions": [
                -0.14168359697828142,
                -1.2739213078650153,
                2.227636757783774,
                -0.9149571826424236,
                0.7566607996271533,
                -3.1340726784589656
            ]
        },
        {
            "positions": [
                -0.20780736516901283,
                -1.3075290507866821,
                2.291659350472086,
                -0.9485814910609942,
                0.9134293487650322,
                -3.1194671910207306
            ]
        },
        {
            "positions": [
                -0.27393113335974423,
                -1.341136793708349,
                2.355681943160398,
                -0.9822057994795649,
                1.0701978979029112,
                -3.1048617035824955
            ]
        },
        {
            "positions": [
                -0.34005490155047563,
                -1.3747445366300157,
                2.4197045358487097,
                -1.0158301078981355,
                1.2269664470407902,
                -3.0902562161442604
            ]
        }
    ]
}