{
    "goal": {
        "global_pose": {
            "orientation": {
                "w": 0.7047431468963623,
                "x": -0.7094548344612122,
                "y": 0.0024358443915843964,
                "z": -0.0022348060738295317
            },
            "position": {
                "x": 0.6094750761985779,
                "y": 0.3671506643295288,
                "z": 0.19426114857196808
            }
        },
        "name": "move_to_magneteinheit_A"
    },
    "id": "LBKPIECE_move_to_magneteinheit_A_16",
    "joint_names": [
        "shoulder_pan_joint",
        "shoulder_lift_joint",
        "elbow_joint",
        "wrist_1_joint",
        "wrist_2_joint",
        "wrist_3_joint"
    ],
    "metrics": {
        "cart_traj_len": 1.8799588381005568,
        "distance_elbow_joint": 3.9111864209326836,
        "distance_shoulder_lift_joint": 0.6986614925354246,
        "distance_shoulder_pan_joint": 1.2416753277279031,
        "distance_wrist_1_joint": 1.4860538814309874,
        "distance_wrist_2_joint": 1.7029849531801409,
        "distance_wrist_3_joint": 1.1000287018320574,
        "smoothness": 5.921189474439232e-16,
        "time": 0.697035171,
        "traj_len": 3.184429427329046,
        "weighted_distance": 3.9407723882399552
    },
    "planner": "LBKPIECE",
    "start": {
        "state": {
            "elbow_joint": -1.919643507792019,
            "shoulder_lift_joint": -0.07675430207160344,
            "shoulder_pan_joint": -1.1188671864651873,
            "wrist_1_joint": 0.42560062535961957,
            "wrist_2_joint": 1.5706038300724876,
            "wrist_3_joint": 1.1188968870953055
        }
    },
    "waypoints": [
        {
            "positions": [
                -1.1188671864651873,
                -0.07675430207160344,
                -1.919643507792019,
                0.42560062535961957,
                1.5706038300724876,
                1.1188968870953055
            ]
        },
        {
            "positions": [
                -1.0711104430910372,
                -0.10362589793835054,
                -1.7692132608330697,
                0.482756543876196,
                1.5051044087963283,
                1.0765880908709957
            ]
        },
        {
            "positions": [
                -1.023353699716887,
                -0.13049749380509765,
                -1.6187830138741204,
                0.5399124623927725,
                1.439604987520169,
                1.0342792946466857
            ]
        },
        {
            "positions": [
                -0.9755969563427369,
                -0.15736908967184476,
                -1.468352766915171,
                0.5970683809093489,
                1.3741055662440098,
                0.9919704984223758
            ]
        },
        {
            "positions": [
                -0.9278402129685869,
                -0.18424068553859185,
                -1.3179225199562214,
                0.6542242994259253,
                1.3086061449678505,
                0.9496617021980659
            ]
        },
        {
            "positions": [
                -0.8800834695944367,
                -0.21111228140533897,
                -1.167492272997272,
                0.7113802179425017,
                1.2431067236916913,
                0.907352905973756
            ]
        },
        {
            "positions": [
                -0.8323267262202866,
                -0.23798387727208606,
                -1.0170620260383227,
                0.7685361364590781,
                1.177607302415532,
                0.8650441097494461
            ]
        },
        {
            "positions": [
                -0.7845699828461365,
                -0.2648554731388332,
                -0.8666317790793736,
                0.8256920549756546,
                1.1121078811393728,
                0.8227353135251363
            ]
        },
        {
            "positions": [
                -0.7368132394719864,
                -0.29172706900558026,
                -0.716201532120424,
                0.8828479734922311,
                1.0466084598632135,
                0.7804265173008262
            ]
        },
        {
            "positions": [
                -0.6890564960978363,
                -0.31859866487232735,
                -0.5657712851614747,
                0.9400038920088074,
                0.9811090385870542,
                0.7381177210765164
            ]
        },
        {
            "positions": [
                -0.6412997527236861,
                -0.3454702607390745,
                -0.4153410382025253,
                0.997159810525384,
                0.915609617310895,
                0.6958089248522065
            ]
        },
        {
            "positions": [
                -0.5935430093495361,
                -0.37234185660582153,
                -0.26491079124357597,
                1.0543157290419605,
                0.8501101960347357,
                0.6535001286278965
            ]
        },
        {
            "positions": [
                -0.5457862659753858,
                -0.3992134524725687,
                -0.11448054428462662,
                1.111471647558537,
                0.7846107747585764,
                0.6111913324035866
            ]
        },
        {
            "positions": [
                -0.4980295226012358,
                -0.42608504833931576,
                0.03594970267432274,
                1.1686275660751133,
                0.7191113534824172,
                0.5688825361792768
            ]
        },
        {
            "positions": [
                -0.45027277922708575,
                -0.45295664420606285,
                0.18637994963327187,
                1.2257834845916897,
                0.6536119322062579,
                0.5265737399549669
            ]
        },
        {
            "positions": [
                -0.4025160358529356,
                -0.47982824007280994,
                0.3368101965922212,
                1.2829394031082662,
                0.5881125109300988,
                0.484264943730657
            ]
        },
        {
            "positions": [
                -0.35475929247878535,
                -0.5066998359395571,
                0.487240443551171,
                1.3400953216248426,
                0.5226130896539394,
                0.44195614750634704
            ]
        },
        {
            "positions": [
                -0.3070025491046353,
                -0.5335714318063042,
                0.6376706905101204,
                1.397251240141419,
                0.4571136683777801,
                0.3996473512820371
            ]
        },
        {
            "positions": [
                -0.25924580573048517,
                -0.5604430276730512,
                0.7881009374690697,
                1.4544071586579954,
                0.39161424710162085,
                0.35733855505772727
            ]
        },
        {
            "positions": [
                -0.21148906235633513,
                -0.5873146235397984,
                0.9385311844280186,
                1.5115630771745718,
                0.3261148258254616,
                0.31502975883341733
            ]
        },
        {
            "positions": [
                -0.16373231898218488,
                -0.6141862194065455,
                1.0889614313869684,
                1.5687189956911485,
                0.2606154045493023,
                0.2727209626091074
            ]
        },
        {
            "positions": [
                -0.11597557560803473,
                -0.6410578152732926,
                1.2393916783459178,
                1.625874914207725,
                0.19511598327314306,
                0.23041216638479745
            ]
        },
        {
            "positions": [
                -0.06821883223388481,
                -0.6679294111400396,
                1.3898219253048671,
                1.6830308327243013,
                0.1296165619969838,
                0.18810337016048762
            ]
        },
        {
            "positions": [
                -0.020462088859734662,
                -0.6948010070067867,
                1.5402521722638165,
                1.7401867512408777,
                0.06411714072082453,
                0.14579457393617767
            ]
        },
        {
            "positions": [
                0.027294654514415706,
                -0.7216726028735339,
                1.6906824192227659,
                1.7973426697574542,
                -0.0013822805553347361,
                0.10348577771186762
            ]
        },
        {
            "positions": [
                0.07505139788856563,
                -0.748544198740281,
                1.8411126661817152,
                1.8544985882740306,
                -0.066881701831494,
                0.06117698148755779
            ]
        },
        {
            "positions": [
                0.12280814126271584,
                -0.7754157946070281,
                1.9915429131406646,
                1.911654506790607,
                -0.1323811231076532,
                0.01886818526324807
            ]
        }
    ]
}