{
    "goal": {
        "global_pose": {
            "orientation": {
                "w": -0.00223480608172531,
                "x": 0.0024358444001904467,
                "y": 0.7094548369677653,
                "z": -0.704743149386269
            },
            "position": {
                "x": 0.6205249238014221,
                "y": -0.6371506643295288,
                "z": 0.19426114857196808
            }
        },
        "name": "move_to_magneteinheit_B"
    },
    "id": "LBKPIECE_move_to_magneteinheit_B_144",
    "joint_names": [
        "shoulder_pan_joint",
        "shoulder_lift_joint",
        "elbow_joint",
        "wrist_1_joint",
        "wrist_2_joint",
        "wrist_3_joint"
    ],
    "metrics": {
        "cart_traj_len": 3.6439497641657175,
        "distance_elbow_joint": 5.039877972197122,
        "distance_shoulder_lift_joint": 0.9238130056703726,
        "distance_shoulder_pan_joint": 2.098569969539577,
        "distance_wrist_1_joint": 3.090432019608238,
        "distance_wrist_2_joint": 1.2579328352705992,
        "distance_wrist_3_joint": 6.269401403361266,
        "smoothness": 0.16045399012673434,
        "time": 0.331517495,
        "traj_len": 4.322039704311749,
        "weighted_distance": 5.963823846094765
    },
    "planner": "LBKPIECE",
    "start": {
        "state": {
            "elbow_joint": 2.39358713078474,
            "shoulder_lift_joint": -1.908514104345545,
            "shoulder_pan_joint": 0.7066247066606129,
            "wrist_1_joint": -0.4678290933515497,
            "wrist_2_joint": 0.7096259083745334,
            "wrist_3_joint": -3.1358149277392293
        }
    },
    "waypoints": [
        {
            "positions": [
                0.7066247066606129,
                -1.908514104345545,
                2.39358713078474,
                -0.4678290933515497,
                0.7096259083745334,
                -3.1358149277392293
            ]
        },
        {
            "positions": [
                0.7638448061349198,
                -1.9403312456237596,
                2.4000062417608685,
                -0.45265940901735646,
                0.6688613445765965,
                -2.954142980520893
            ]
        },
        {
            "positions": [
                0.8210649056092266,
                -1.9721483869019742,
                2.406425352736997,
                -0.4374897246831632,
                0.6280967807786596,
                -2.772471033302556
            ]
        },
        {
            "positions": [
                0.8782850050835334,
                -2.003965528180189,
                2.4128444637131254,
                -0.42232004034896997,
                0.5873322169807227,
                -2.59079908608422
            ]
        },
        {
            "positions": [
                0.9355051045578402,
                -2.0357826694584036,
                2.4192635746892543,
                -0.4071503560147767,
                0.5465676531827859,
                -2.4091271388658835
            ]
        },
        {
            "positions": [
                0.992725204032147,
                -2.0675998107366182,
                2.425682685665383,
                -0.3919806716805835,
                0.5058030893848489,
                -2.2274551916475467
            ]
        },
        {
            "positions": [
                1.0499453035064539,
                -2.099416952014833,
                2.4321017966415113,
                -0.37681098734639024,
                0.465038525586912,
                -2.0457832444292103
            ]
        },
        {
            "positions": [
                1.0821465943184732,
                -2.0840259203168814,
                2.2431477953568533,
                -0.36055747718830317,
                0.45031454898526907,
                -1.9248464857352512
            ]
        },
        {
            "positions": [
                1.1143478851304922,
                -2.06863488861893,
                2.0541937940721953,
                -0.34430396703021615,
                0.4355905723836261,
                -1.8039097270412918
            ]
        },
        {
            "positions": [
                1.1465491759425115,
                -2.053243856920978,
                1.8652397927875373,
                -0.3280504568721291,
                0.42086659578198315,
                -1.6829729683473327
            ]
        },
        {
            "positions": [
                1.1787504667545305,
                -2.0378528252230264,
                1.6762857915028793,
                -0.311796946714042,
                0.40614261918034017,
                -1.5620362096533733
            ]
        },
        {
            "positions": [
                1.2109517575665498,
                -2.022461793525075,
                1.4873317902182213,
                -0.29554343655595494,
                0.39141864257869724,
                -1.4410994509594142
            ]
        },
        {
            "positions": [
                1.2431530483785689,
                -2.0070707618271233,
                1.2983777889335635,
                -0.2792899263978679,
                0.37669466597705425,
                -1.320162692265455
            ]
        },
        {
            "positions": [
                1.2753543391905882,
                -1.9916797301291715,
                1.1094237876489055,
                -0.26303641623978086,
                0.3619706893754113,
                -1.1992259335714959
            ]
        },
        {
            "positions": [
                1.3075556300026072,
                -1.9762886984312198,
                0.9204697863642475,
                -0.24678290608169381,
                0.34724671277376834,
                -1.0782891748775365
            ]
        },
        {
            "positions": [
                1.3397569208146265,
                -1.9608976667332683,
                0.7315157850795895,
                -0.23052939592360674,
                0.3325227361721254,
                -0.9573524161835774
            ]
        },
        {
            "positions": [
                1.3719582116266456,
                -1.9455066350353165,
                0.5425617837949315,
                -0.2142758857655197,
                0.3177987595704824,
                -0.836415657489618
            ]
        },
        {
            "positions": [
                1.4041595024386648,
                -1.930115603337365,
                0.35360778251027325,
                -0.19802237560743263,
                0.3030747829688395,
                -0.7154788987956588
            ]
        },
        {
            "positions": [
                1.4363607932506839,
                -1.9147245716394132,
                0.1646537812256157,
                -0.1817688654493456,
                0.28835080636719657,
                -0.5945421401016997
            ]
        },
        {
            "positions": [
                1.4685620840627032,
                -1.8993335399414617,
                -0.024300220059042754,
                -0.16551535529125852,
                0.2736268297655535,
                -0.47360538140774033
            ]
        },
        {
            "positions": [
                1.5007633748747222,
                -1.88394250824351,
                -0.2132542213437003,
                -0.14926184513317148,
                0.2589028531639106,
                -0.3526686227137812
            ]
        },
        {
            "positions": [
                1.5329646656867415,
                -1.8685514765455584,
                -0.4022082226283583,
                -0.1330083349750844,
                0.24417887656226767,
                -0.23173186401982182
            ]
        },
        {
            "positions": [
                1.5651659564987606,
                -1.8531604448476067,
                -0.5911622239130163,
                -0.1167548248169974,
                0.2294548999606247,
                -0.11079510532586268
            ]
        },
        {
            "positions": [
                1.5973672473107798,
                -1.8377694131496551,
                -0.7801162251976743,
                -0.10050131465891032,
                0.21473092335898175,
                0.01014165336809647
            ]
        },
        {
            "positions": [
                1.6295685381227991,
                -1.8223783814517036,
                -0.9690702264823323,
                -0.08424780450082325,
                0.20000694675733882,
                0.13107841206205562
            ]
        },
        {
            "positions": [
                1.6617698289348182,
                -1.8069873497537519,
                -1.1580242277669903,
                -0.06799429434273618,
                0.18528297015569584,
                0.2520151707560152
            ]
        },
        {
            "positions": [
                1.6939711197468372,
                -1.7915963180558,
                -1.3469782290516483,
                -0.05174078418464917,
                0.1705589935540529,
                0.37295192944997435
            ]
        },
        {
            "positions": [
                1.7261724105588565,
                -1.7762052863578486,
                -1.5359322303363063,
                -0.0354872740265621,
                0.15583501695240992,
                0.4938886881439334
            ]
        },
        {
            "positions": [
                1.8593780655055705,
                -1.7777561807035394,
                -1.6798922524610016,
                -0.003943036309556454,
                0.16507819936341966,
                0.5081840006251193
            ]
        },
        {
            "positions": [
                1.9925837204522847,
                -1.7793070750492301,
                -1.8238522745856969,
                0.02760120140744919,
                0.1743213817744294,
                0.5224793131063052
            ]
        },
        {
            "positions": [
                2.1257893753989987,
                -1.780857969394921,
                -1.9678122967103922,
                0.05914543912445483,
                0.18356456418543915,
                0.5367746255874911
            ]
        },
        {
            "positions": [
                2.2589950303457127,
                -1.7824088637406117,
                -2.1117723188350874,
                0.09068967684146048,
                0.1928077465964489,
                0.551069938068677
            ]
        },
        {
            "positions": [
                2.306558078404147,
                -1.8055142179345314,
                -2.1054097806359753,
                -0.0349322130476456,
                0.1683957554169185,
                0.6786245025803878
            ]
        },
        {
            "positions": [
                2.3541211264625814,
                -1.8286195721284513,
                -2.099047242436863,
                -0.16055410293675168,
                0.14398376423738812,
                0.8061790670920985
            ]
        },
        {
            "positions": [
                2.401684174521016,
                -1.851724926322371,
                -2.0926847042377514,
                -0.2861759928258577,
                0.11957177305785774,
                0.9337336316038092
            ]
        },
        {
            "positions": [
                2.44924722257945,
                -1.8748302805162909,
                -2.0863221660386393,
                -0.41179788271496387,
                0.09515978187832734,
                1.06128819611552
            ]
        },
        {
            "positions": [
                2.4968102706378845,
                -1.8979356347102105,
                -2.079959627839527,
                -0.5374197726040699,
                0.07074779069879696,
                1.1888427606272307
            ]
        },
        {
            "positions": [
                2.5263328686344275,
                -1.9193800370421523,
                -2.062109460268316,
                -0.6662699510318439,
                0.0399309346999611,
                1.320100197421828
            ]
        },
        {
            "positions": [
                2.55585546663097,
                -1.940824439374094,
                -2.0442592926971046,
                -0.795120129459618,
                0.009114078701125239,
                1.4513576342164254
            ]
        },
        {
            "positions": [
                2.5853780646275126,
                -1.962268841706036,
                -2.0264091251258933,
                -0.923970307887392,
                -0.021702777297710626,
                1.5826150710110227
            ]
        },
        {
            "positions": [
                2.6149006626240556,
                -1.9837132440379779,
                -2.008558957554682,
                -1.052820486315166,
                -0.05251963329654648,
                1.71387250780562
            ]
        },
        {
            "positions": [
                2.6444232606205986,
                -2.00515764636992,
                -1.9907087899834708,
                -1.18167066474294,
                -0.08333648929538233,
                1.8451299446002174
            ]
        },
        {
            "positions": [
                2.673945858617141,
                -2.0266020487018617,
                -1.9728586224122595,
                -1.310520843170714,
                -0.11415334529421821,
                1.9763873813948147
            ]
        },
        {
            "positions": [
                2.7034684566136837,
                -2.0480464510338035,
                -1.9550084548410482,
                -1.439371021598488,
                -0.14497020129305405,
                2.107644818189412
            ]
        },
        {
            "positions": [
                2.7329910546102267,
                -2.0694908533657452,
                -1.937158287269837,
                -1.568221200026262,
                -0.1757870572918899,
                2.2389022549840094
            ]
        },
        {
            "positions": [
                2.722676251525946,
                -2.086121271270917,
                -1.8967475502271935,
                -1.6929358246759056,
                -0.21844054447990377,
                2.366714286503728
            ]
        },
        {
            "positions": [
                2.7123614484416656,
                -2.102751689176089,
                -1.85633681318455,
                -1.8176504493255492,
                -0.26109403166791767,
                2.494526318023446
            ]
        },
        {
            "positions": [
                2.702046645357385,
                -2.119382107081261,
                -1.8159260761419065,
                -1.942365073975193,
                -0.30374751885593154,
                2.6223383495431642
            ]
        },
        {
            "positions": [
                2.691731842273105,
                -2.136012524986433,
                -1.775515339099263,
                -2.0670796986248368,
                -0.3464010060439454,
                2.7501503810628822
            ]
        },
        {
            "positions": [
                2.6814170391888243,
                -2.152642942891605,
                -1.7351046020566194,
                -2.1917943232744803,
                -0.3890544932319593,
                2.8779624125826007
            ]
        },
        {
            "positions": [
                2.671102236104544,
                -2.169273360796777,
                -1.694693865013976,
                -2.316508947924124,
                -0.43170798041997316,
                3.0057744441023186
            ]
        },
        {
            "positions": [
                2.660787433020263,
                -2.185903778701949,
                -1.6542831279713326,
                -2.4412235725737674,
                -0.47436146760798703,
                3.133586475622037
            ]
        }
    ]
}