{
    "goal": {
        "global_pose": {
            "orientation": {
                "w": 0.7047431468963623,
                "x": -0.7094548344612122,
                "y": 0.0024358443915843964,
                "z": -0.0022348060738295317
            },
            "position": {
                "x": 0.6094750761985779,
                "y": 0.3671506643295288,
                "z": 0.19426114857196808
            }
        },
        "name": "move_to_magneteinheit_A"
    },
    "id": "LBKPIECE_move_to_magneteinheit_A_141",
    "joint_names": [
        "shoulder_pan_joint",
        "shoulder_lift_joint",
        "elbow_joint",
        "wrist_1_joint",
        "wrist_2_joint",
        "wrist_3_joint"
    ],
    "metrics": {
        "cart_traj_len": 2.1129765157771123,
        "distance_elbow_joint": 3.882700315543792,
        "distance_shoulder_lift_joint": 1.0591843555400695,
        "distance_shoulder_pan_joint": 1.2420578819188348,
        "distance_wrist_1_joint": 1.1576346620763576,
        "distance_wrist_2_joint": 1.4352776138765109,
        "distance_wrist_3_joint": 4.347809428675982,
        "smoothness": 6.597896870534068e-16,
        "time": 0.693625112,
        "traj_len": 3.622797849401971,
        "weighted_distance": 4.940971097966106
    },
    "planner": "LBKPIECE",
    "start": {
        "state": {
            "elbow_joint": -1.919643507792019,
            "shoulder_lift_joint": -0.07675430207160344,
            "shoulder_pan_joint": -1.1188671864651873,
            "wrist_1_joint": 0.42560062535961957,
            "wrist_2_joint": 1.5706038300724876,
            "wrist_3_joint": 1.1188968870953055
        }
    },
    "waypoints": [
        {
            "positions": [
                -1.1188671864651873,
                -0.07675430207160344,
                -1.919643507792019,
                0.42560062535961957,
                1.5706038300724876,
                1.1188968870953055
            ]
        },
        {
            "positions": [
                -1.080112186961436,
                -0.10618004492774055,
                -1.805213523634354,
                0.3916189116721527,
                1.526852672133027,
                0.9938435684154061
            ]
        },
        {
            "positions": [
                -1.041357187457685,
                -0.13560578778387766,
                -1.6907835394766888,
                0.35763719798468574,
                1.4831015141935664,
                0.8687902497355068
            ]
        },
        {
            "positions": [
                -1.0026021879539337,
                -0.16503153064001475,
                -1.5763535553190238,
                0.3236554842972188,
                1.4393503562541057,
                0.7437369310556075
            ]
        },
        {
            "positions": [
                -0.9638471884501825,
                -0.19445727349615186,
                -1.4619235711613587,
                0.2896737706097519,
                1.3955991983146452,
                0.618683612375708
            ]
        },
        {
            "positions": [
                -0.9250921889464312,
                -0.22388301635228897,
                -1.3474935870036937,
                0.255692056922285,
                1.3518480403751845,
                0.4936302936958086
            ]
        },
        {
            "positions": [
                -0.88633718944268,
                -0.25330875920842605,
                -1.2330636028460285,
                0.22171034323481809,
                1.308096882435724,
                0.36857697501590925
            ]
        },
        {
            "positions": [
                -0.8475821899389289,
                -0.2827345020645632,
                -1.1186336186883634,
                0.18772862954735117,
                1.2643457244962633,
                0.24352365633600992
            ]
        },
        {
            "positions": [
                -0.8088271904351776,
                -0.31216024492070027,
                -1.0042036345306982,
                0.15374691585988426,
                1.2205945665568025,
                0.11847033765611048
            ]
        },
        {
            "positions": [
                -0.7700721909314263,
                -0.34158598777683735,
                -0.8897736503730331,
                0.11976520217241732,
                1.176843408617342,
                -0.0065829810237889586
            ]
        },
        {
            "positions": [
                -0.7313171914276752,
                -0.3710117306329745,
                -0.7753436662153681,
                0.08578348848495043,
                1.1330922506778813,
                -0.1316362997036884
            ]
        },
        {
            "positions": [
                -0.692562191923924,
                -0.4004374734891116,
                -0.6609136820577031,
                0.051801774797483546,
                1.0893410927384206,
                -0.2566896183835876
            ]
        },
        {
            "positions": [
                -0.6538071924201727,
                -0.42986321634524866,
                -0.5464836979000378,
                0.017820061110016605,
                1.0455899347989601,
                -0.38174293706348705
            ]
        },
        {
            "positions": [
                -0.6150521929164214,
                -0.4592889592013858,
                -0.4320537137423728,
                -0.016161652577450336,
                1.0018387768594996,
                -0.5067962557433865
            ]
        },
        {
            "positions": [
                -0.5762971934126703,
                -0.4887147020575229,
                -0.31762372958470775,
                -0.05014336626491722,
                0.9580876189200388,
                -0.6318495744232857
            ]
        },
        {
            "positions": [
                -0.5375421939089191,
                -0.51814044491366,
                -0.2031937454270425,
                -0.08412507995238411,
                0.9143364609805782,
                -0.7569028931031851
            ]
        },
        {
            "positions": [
                -0.49878719440516783,
                -0.547566187769797,
                -0.08876376126937746,
                -0.11810679363985105,
                0.8705853030411176,
                -0.8819562117830846
            ]
        },
        {
            "positions": [
                -0.46003219490141656,
                -0.5769919306259341,
                0.02566622288828757,
                -0.152088507327318,
                0.826834145101657,
                -1.0070095304629838
            ]
        },
        {
            "positions": [
                -0.4212771953976654,
                -0.6064176734820712,
                0.14009620704595283,
                -0.18607022101478493,
                0.7830829871621964,
                -1.1320628491428835
            ]
        },
        {
            "positions": [
                -0.38252219589391423,
                -0.6358434163382085,
                0.25452619120361786,
                -0.22005193470225176,
                0.7393318292227357,
                -1.2571161678227827
            ]
        },
        {
            "positions": [
                -0.34376719639016295,
                -0.6652691591943456,
                0.3689561753612829,
                -0.2540336483897187,
                0.695580671283275,
                -1.3821694865026823
            ]
        },
        {
            "positions": [
                -0.3050121968864117,
                -0.6946949020504827,
                0.4833861595189479,
                -0.28801536207718564,
                0.6518295133438144,
                -1.5072228051825816
            ]
        },
        {
            "positions": [
                -0.2662571973826605,
                -0.7241206449066198,
                0.597816143676613,
                -0.3219970757646525,
                0.6080783554043538,
                -1.6322761238624808
            ]
        },
        {
            "positions": [
                -0.22750219787890935,
                -0.7535463877627568,
                0.7122461278342784,
                -0.3559787894521194,
                0.5643271974648931,
                -1.7573294425423804
            ]
        },
        {
            "positions": [
                -0.18874719837515808,
                -0.7829721306188939,
                0.8266761119919435,
                -0.38996050313958636,
                0.5205760395254326,
                -1.8823827612222797
            ]
        },
        {
            "positions": [
                -0.1499921988714068,
                -0.812397873475031,
                0.9411060961496085,
                -0.4239422168270533,
                0.4768248815859719,
                -2.007436079902179
            ]
        },
        {
            "positions": [
                -0.11123719936765553,
                -0.8418236163311681,
                1.0555360803072735,
                -0.45792393051452024,
                0.4330737236465114,
                -2.1324893985820785
            ]
        },
        {
            "positions": [
                -0.07248219986390447,
                -0.8712493591873052,
                1.1699660644649386,
                -0.49190564420198707,
                0.3893225657070507,
                -2.2575427172619777
            ]
        },
        {
            "positions": [
                -0.0337272003601532,
                -0.9006751020434423,
                1.2843960486226036,
                -0.5258873578894541,
                0.34557140776759,
                -2.382596035941877
            ]
        },
        {
            "positions": [
                0.005027799143598077,
                -0.9301008448995793,
                1.398826032780269,
                -0.559869071576921,
                0.3018202498281295,
                -2.5076493546217766
            ]
        },
        {
            "positions": [
                0.04378279864734913,
                -0.9595265877557166,
                1.513256016937934,
                -0.5938507852643877,
                0.2580690918886688,
                -2.632702673301676
            ]
        },
        {
            "positions": [
                0.0825377981511004,
                -0.9889523306118537,
                1.6276860010955991,
                -0.6278324989518547,
                0.21431793394920828,
                -2.7577559919815755
            ]
        },
        {
            "positions": [
                0.12129279765485178,
                -1.0183780734679908,
                1.7421159852532642,
                -0.6618142126393217,
                0.17056677600974754,
                -2.8828093106614747
            ]
        },
        {
            "positions": [
                0.12224174655424969,
                -1.077158365539832,
                1.8525863965025184,
                -0.6969241246780299,
                0.1529464961028621,
                -3.055860926121076
            ]
        },
        {
            "positions": [
                0.12319069545364761,
                -1.135938657611673,
                1.963056807751773,
                -0.7320340367167381,
                0.13532621619597662,
                -3.2289125415806765
            ]
        }
    ]
}