{
    "goal": {
        "global_pose": {
            "orientation": {
                "w": 0.5084816217422485,
                "x": -0.49083608388900757,
                "y": 0.5182115435600281,
                "z": -0.4816462993621826
            },
            "position": {
                "x": 0.5540239810943604,
                "y": 0.030875300988554955,
                "z": 0.16403168439865112
            }
        },
        "name": "move_to_storage_A"
    },
    "id": "LBKPIECE_move_to_storage_A_51",
    "joint_names": [
        "shoulder_pan_joint",
        "shoulder_lift_joint",
        "elbow_joint",
        "wrist_1_joint",
        "wrist_2_joint",
        "wrist_3_joint"
    ],
    "metrics": {
        "cart_traj_len": 0.3537278640636379,
        "distance_elbow_joint": 0.4508561139656826,
        "distance_shoulder_lift_joint": 0.23472206691274433,
        "distance_shoulder_pan_joint": 0.4640875561119353,
        "distance_wrist_1_joint": 0.24791793367489212,
        "distance_wrist_2_joint": 1.0934478468855415,
        "distance_wrist_3_joint": 0.10101215541026987,
        "smoothness": 6.661338165333112e-16,
        "time": 0.36519426400000005,
        "traj_len": 1.6099825070357336,
        "weighted_distance": 2.0335765941665533
    },
    "planner": "LBKPIECE",
    "start": {
        "state": {
            "elbow_joint": 1.9715463870305268,
            "shoulder_lift_joint": -1.1394903361783484,
            "shoulder_pan_joint": 0.12281147578464417,
            "wrist_1_joint": -0.7804599489681411,
            "wrist_2_joint": 0.12958660307563738,
            "wrist_3_joint": -3.1924946282119055
        }
    },
    "waypoints": [
        {
            "positions": [
                0.12281147578464417,
                -1.1394903361783484,
                1.9715463870305268,
                -0.7804599489681411,
                0.12958660307563738,
                -3.1924946282119055
            ]
        },
        {
            "positions": [
                0.05651325348293913,
                -1.1730220600230261,
                2.0359544033113384,
                -0.8158767966359828,
                0.2857934383450005,
                -3.1780643202961527
            ]
        },
        {
            "positions": [
                -0.009784968818765907,
                -1.2065537838677038,
                2.1003624195921504,
                -0.8512936443038246,
                0.44200027361436356,
                -3.1636340123804
            ]
        },
        {
            "positions": [
                -0.07608319112047095,
                -1.2400855077123816,
                2.164770435872962,
                -0.8867104919716663,
                0.5982071088837266,
                -3.149203704464647
            ]
        },
        {
            "positions": [
                -0.14238141342217597,
                -1.2736172315570595,
                2.229178452153774,
                -0.922127339639508,
                0.7544139441530897,
                -3.134773396548894
            ]
        },
        {
            "positions": [
                -0.20867963572388104,
                -1.3071489554017373,
                2.2935864684345857,
                -0.9575441873073498,
                0.9106207794224528,
                -3.1203430886331414
            ]
        },
        {
            "positions": [
                -0.27497785802558605,
                -1.340680679246415,
                2.3579944847153973,
                -0.9929610349751914,
                1.0668276146918159,
                -3.1059127807173885
            ]
        },
        {
            "positions": [
                -0.3412760803272911,
                -1.3742124030910927,
                2.4224025009962094,
                -1.0283778826430332,
                1.223034449961179,
                -3.0914824728016357
            ]
        }
    ]
}