{
    "goal": {
        "global_pose": {
            "orientation": {
                "w": 0.7047431468963623,
                "x": -0.7094548344612122,
                "y": 0.0024358443915843964,
                "z": -0.0022348060738295317
            },
            "position": {
                "x": 0.6094750761985779,
                "y": 0.3671506643295288,
                "z": 0.19426114857196808
            }
        },
        "name": "move_to_magneteinheit_A"
    },
    "id": "LBKPIECE_move_to_magneteinheit_A_42",
    "joint_names": [
        "shoulder_pan_joint",
        "shoulder_lift_joint",
        "elbow_joint",
        "wrist_1_joint",
        "wrist_2_joint",
        "wrist_3_joint"
    ],
    "metrics": {
        "cart_traj_len": 1.8790131438214337,
        "distance_elbow_joint": 3.907419315414633,
        "distance_shoulder_lift_joint": 0.6986940504311093,
        "distance_shoulder_pan_joint": 1.2402779425826131,
        "distance_wrist_1_joint": 1.4847391349623937,
        "distance_wrist_2_joint": 1.6908105739245307,
        "distance_wrist_3_joint": 1.108991836888295,
        "smoothness": 6.579099420876775e-16,
        "time": 0.14017916,
        "traj_len": 3.1829126369103466,
        "weighted_distance": 3.9401099270029367
    },
    "planner": "LBKPIECE",
    "start": {
        "state": {
            "elbow_joint": -1.919643507792019,
            "shoulder_lift_joint": -0.07675430207160344,
            "shoulder_pan_joint": -1.1188671864651873,
            "wrist_1_joint": 0.42560062535961957,
            "wrist_2_joint": 1.5706038300724876,
            "wrist_3_joint": 1.1188968870953055
        }
    },
    "waypoints": [
        {
            "positions": [
                -1.1188671864651873,
                -0.07675430207160344,
                -1.919643507792019,
                0.42560062535961957,
                1.5706038300724876,
                1.1188968870953055
            ]
        },
        {
            "positions": [
                -1.0711641886735483,
                -0.10362715016510765,
                -1.769358149506841,
                0.482705976704327,
                1.5055726541523133,
                1.0762433549072943
            ]
        },
        {
            "positions": [
                -1.0234611908819093,
                -0.13049999825861186,
                -1.6190727912216627,
                0.5398113280490344,
                1.440541478232139,
                1.0335898227192828
            ]
        },
        {
            "positions": [
                -0.9757581930902705,
                -0.15737284635211607,
                -1.4687874329364845,
                0.5969166793937419,
                1.3755103023119648,
                0.9909362905312715
            ]
        },
        {
            "positions": [
                -0.9280551952986315,
                -0.18424569444562028,
                -1.3185020746513063,
                0.6540220307384494,
                1.3104791263917905,
                0.9482827583432601
            ]
        },
        {
            "positions": [
                -0.8803521975069926,
                -0.2111185425391245,
                -1.1682167163661281,
                0.7111273820831568,
                1.2454479504716163,
                0.9056292261552488
            ]
        },
        {
            "positions": [
                -0.8326491997153536,
                -0.2379913906326287,
                -1.01793135808095,
                0.7682327334278642,
                1.180416774551442,
                0.8629756939672375
            ]
        },
        {
            "positions": [
                -0.7849462019237146,
                -0.2648642387261329,
                -0.8676459997957717,
                0.8253380847725718,
                1.1153855986312677,
                0.8203221617792262
            ]
        },
        {
            "positions": [
                -0.7372432041320756,
                -0.2917370868196371,
                -0.7173606415105935,
                0.8824434361172793,
                1.0503544227110935,
                0.7776686295912147
            ]
        },
        {
            "positions": [
                -0.6895402063404367,
                -0.3186099349131413,
                -0.5670752832254153,
                0.9395487874619866,
                0.9853232467909193,
                0.7350150974032035
            ]
        },
        {
            "positions": [
                -0.6418372085487977,
                -0.34548278300664553,
                -0.41678992494023714,
                0.9966541388066941,
                0.9202920708707449,
                0.6923615652151921
            ]
        },
        {
            "positions": [
                -0.5941342107571587,
                -0.37235563110014974,
                -0.26650456665505895,
                1.0537594901514016,
                0.8552608949505708,
                0.6497080330271807
            ]
        },
        {
            "positions": [
                -0.5464312129655197,
                -0.39922847919365395,
                -0.11621920836988076,
                1.110864841496109,
                0.7902297190303965,
                0.6070545008391693
            ]
        },
        {
            "positions": [
                -0.4987282151738808,
                -0.42610132728715816,
                0.03406614991529744,
                1.1679701928408164,
                0.7251985431102222,
                0.5644009686511581
            ]
        },
        {
            "positions": [
                -0.4510252173822419,
                -0.45297417538066237,
                0.18435150820047563,
                1.225075544185524,
                0.660167367190048,
                0.5217474364631468
            ]
        },
        {
            "positions": [
                -0.4033222195906029,
                -0.4798470234741665,
                0.33463686648565383,
                1.2821808955302312,
                0.5951361912698738,
                0.47909390427513543
            ]
        },
        {
            "positions": [
                -0.3556192217989639,
                -0.5067198715676708,
                0.484922224770832,
                1.339286246874939,
                0.5301050153496993,
                0.43644037208712405
            ]
        },
        {
            "positions": [
                -0.3079162240073249,
                -0.5335927196611749,
                0.6352075830560102,
                1.3963915982196462,
                0.4650738394295253,
                0.3937868398991127
            ]
        },
        {
            "positions": [
                -0.260213226215686,
                -0.5604655677546793,
                0.7854929413411884,
                1.4534969495643537,
                0.400042663509351,
                0.3511333077111014
            ]
        },
        {
            "positions": [
                -0.212510228424047,
                -0.5873384158481834,
                0.9357782996263666,
                1.5106023009090612,
                0.33501148758917676,
                0.30847977552309
            ]
        },
        {
            "positions": [
                -0.16480723063240799,
                -0.6142112639416877,
                1.0860636579115448,
                1.5677076522537687,
                0.26998031166900227,
                0.26582624333507865
            ]
        },
        {
            "positions": [
                -0.11710423284076898,
                -0.6410841120351918,
                1.236349016196723,
                1.624813003598476,
                0.20494913574882823,
                0.22317271114706727
            ]
        },
        {
            "positions": [
                -0.06940123504912998,
                -0.6679569601286961,
                1.3866343744819012,
                1.6819183549431835,
                0.13991795982865396,
                0.180519178959056
            ]
        },
        {
            "positions": [
                -0.021698237257491204,
                -0.6948298082222002,
                1.5369197327670794,
                1.739023706287891,
                0.07488678390847969,
                0.13786564677104463
            ]
        },
        {
            "positions": [
                0.02600476053414802,
                -0.7217026563157045,
                1.6872050910522576,
                1.7961290576325986,
                0.009855607988305426,
                0.09521211458303314
            ]
        },
        {
            "positions": [
                0.0737077583257868,
                -0.7485755044092086,
                1.8374904493374358,
                1.8532344089773058,
                -0.05517556793186884,
                0.05255858239502187
            ]
        },
        {
            "positions": [
                0.1214107561174259,
                -0.7754483525027128,
                1.987775807622614,
                1.9103397603220134,
                -0.12020674385204319,
                0.00990505020701067
            ]
        }
    ]
}