{
    "goal": {
        "global_pose": {
            "orientation": {
                "w": 0.7047431468963623,
                "x": -0.7094548344612122,
                "y": 0.0024358443915843964,
                "z": -0.0022348060738295317
            },
            "position": {
                "x": 0.6094750761985779,
                "y": 0.3671506643295288,
                "z": 0.19426114857196808
            }
        },
        "name": "move_to_magneteinheit_A"
    },
    "id": "LBKPIECE_move_to_magneteinheit_A_120",
    "joint_names": [
        "shoulder_pan_joint",
        "shoulder_lift_joint",
        "elbow_joint",
        "wrist_1_joint",
        "wrist_2_joint",
        "wrist_3_joint"
    ],
    "metrics": {
        "cart_traj_len": 2.0645983258964167,
        "distance_elbow_joint": 3.8822289260934344,
        "distance_shoulder_lift_joint": 1.0581886619878667,
        "distance_shoulder_pan_joint": 1.2411561278624275,
        "distance_wrist_1_joint": 1.155980890416763,
        "distance_wrist_2_joint": 1.4315004863419647,
        "distance_wrist_3_joint": 1.9319732430250074,
        "smoothness": 2.143878952441023e-16,
        "time": 0.66907019,
        "traj_len": 3.271242628685231,
        "weighted_distance": 4.141552389930159
    },
    "planner": "LBKPIECE",
    "start": {
        "state": {
            "elbow_joint": -1.919643507792019,
            "shoulder_lift_joint": -0.07675430207160344,
            "shoulder_pan_joint": -1.1188671864651873,
            "wrist_1_joint": 0.42560062535961957,
            "wrist_2_joint": 1.5706038300724876,
            "wrist_3_joint": 1.1188968870953055
        }
    },
    "waypoints": [
        {
            "positions": [
                -1.1188671864651873,
                -0.07675430207160344,
                -1.919643507792019,
                0.42560062535961957,
                1.5706038300724876,
                1.1188968870953055
            ]
        },
        {
            "positions": [
                -1.0745401818986722,
                -0.11454675428545583,
                -1.7809924747172536,
                0.3843155935590209,
                1.5194788127031318,
                1.1878959314890558
            ]
        },
        {
            "positions": [
                -1.0302131773321568,
                -0.1523392064993082,
                -1.642341441642488,
                0.3430305617584222,
                1.4683537953337757,
                1.256894975882806
            ]
        },
        {
            "positions": [
                -0.9858861727656416,
                -0.19013165871316057,
                -1.5036904085677225,
                0.30174552995782356,
                1.41722877796442,
                1.3258940202765563
            ]
        },
        {
            "positions": [
                -0.9415591681991263,
                -0.22792411092701295,
                -1.365039375492957,
                0.26046049815722483,
                1.366103760595064,
                1.3948930646703066
            ]
        },
        {
            "positions": [
                -0.897232163632611,
                -0.26571656314086534,
                -1.2263883424181916,
                0.21917546635662616,
                1.314978743225708,
                1.4638921090640569
            ]
        },
        {
            "positions": [
                -0.8529051590660958,
                -0.30350901535471775,
                -1.0877373093434262,
                0.17789043455602752,
                1.2638537258563523,
                1.5328911534578071
            ]
        },
        {
            "positions": [
                -0.8085781544995805,
                -0.3413014675685701,
                -0.9490862762686605,
                0.13660540275542882,
                1.2127287084869964,
                1.6018901978515574
            ]
        },
        {
            "positions": [
                -0.7642511499330653,
                -0.37909391978242246,
                -0.810435243193895,
                0.09532037095483015,
                1.1616036911176406,
                1.6708892422453077
            ]
        },
        {
            "positions": [
                -0.7199241453665499,
                -0.4168863719962749,
                -0.6717842101191294,
                0.05403533915423142,
                1.1104786737482846,
                1.739888286639058
            ]
        },
        {
            "positions": [
                -0.6755971408000347,
                -0.45467882421012723,
                -0.5331331770443639,
                0.01275030735363275,
                1.0593536563789288,
                1.8088873310328082
            ]
        },
        {
            "positions": [
                -0.6312701362335194,
                -0.49247127642397964,
                -0.39448214396959846,
                -0.028534724446965865,
                1.008228639009573,
                1.8778863754265585
            ]
        },
        {
            "positions": [
                -0.5869431316670042,
                -0.530263728637832,
                -0.255831110894833,
                -0.06981975624756454,
                0.957103621640217,
                1.9468854198203087
            ]
        },
        {
            "positions": [
                -0.5426161271004889,
                -0.5680561808516844,
                -0.11718007782006734,
                -0.11110478804816332,
                0.9059786042708611,
                2.015884464214059
            ]
        },
        {
            "positions": [
                -0.4982891225339736,
                -0.6058486330655368,
                0.02147095525469811,
                -0.15238981984876193,
                0.8548535869015053,
                2.0848835086078092
            ]
        },
        {
            "positions": [
                -0.45396211796745833,
                -0.6436410852793892,
                0.16012198832946356,
                -0.19367485164936055,
                0.8037285695321494,
                2.1538825530015595
            ]
        },
        {
            "positions": [
                -0.40963511340094316,
                -0.6814335374932414,
                0.298773021404229,
                -0.23495988344995927,
                0.7526035521627935,
                2.2228815973953098
            ]
        },
        {
            "positions": [
                -0.3653081088344279,
                -0.7192259897070938,
                0.43742405447899446,
                -0.2762449152505579,
                0.7014785347934377,
                2.29188064178906
            ]
        },
        {
            "positions": [
                -0.3209811042679125,
                -0.7570184419209463,
                0.5760750875537604,
                -0.3175299470511567,
                0.6503535174240817,
                2.3608796861828103
            ]
        },
        {
            "positions": [
                -0.2766540997013972,
                -0.7948108941347987,
                0.7147261206285258,
                -0.35881497885175534,
                0.5992285000547258,
                2.4298787305765606
            ]
        },
        {
            "positions": [
                -0.23232709513488203,
                -0.8326033463486511,
                0.8533771537032913,
                -0.40010001065235407,
                0.5481034826853699,
                2.498877774970311
            ]
        },
        {
            "positions": [
                -0.18800009056836675,
                -0.8703957985625035,
                0.9920281867780567,
                -0.4413850424529527,
                0.4969784653160141,
                2.567876819364061
            ]
        },
        {
            "positions": [
                -0.14367308600185147,
                -0.9081882507763559,
                1.1306792198528222,
                -0.4826700742535513,
                0.44585344794665827,
                2.6368758637578114
            ]
        },
        {
            "positions": [
                -0.09934608143533619,
                -0.9459807029902081,
                1.2693302529275876,
                -0.5239551060541501,
                0.39472843057730245,
                2.7058749081515616
            ]
        },
        {
            "positions": [
                -0.055019076868821015,
                -0.9837731552040605,
                1.407981286002353,
                -0.5652401378547487,
                0.3436034132079464,
                2.774873952545312
            ]
        },
        {
            "positions": [
                -0.010692072302305622,
                -1.021565607417913,
                1.546632319077119,
                -0.6065251696553473,
                0.2924783958385906,
                2.843872996939062
            ]
        },
        {
            "positions": [
                0.03363493226420955,
                -1.0593580596317653,
                1.6852833521518844,
                -0.6478102014559461,
                0.24135337846923455,
                2.9128720413328124
            ]
        },
        {
            "positions": [
                0.07796193683072494,
                -1.0971505118456177,
                1.8239343852266499,
                -0.6890952332565448,
                0.19022836109987873,
                2.9818710857265627
            ]
        },
        {
            "positions": [
                0.12228894139724014,
                -1.1349429640594701,
                1.9625854183014153,
                -0.7303802650571435,
                0.13910334373052294,
                3.050870130120313
            ]
        }
    ]
}