{
    "goal": {
        "global_pose": {
            "orientation": {
                "w": 0.5084816217422485,
                "x": -0.49083608388900757,
                "y": 0.5182115435600281,
                "z": -0.4816462993621826
            },
            "position": {
                "x": 0.5540239810943604,
                "y": 0.030875300988554955,
                "z": 0.16403168439865112
            }
        },
        "name": "move_to_storage_A"
    },
    "id": "LBKPIECE_move_to_storage_A_144",
    "joint_names": [
        "shoulder_pan_joint",
        "shoulder_lift_joint",
        "elbow_joint",
        "wrist_1_joint",
        "wrist_2_joint",
        "wrist_3_joint"
    ],
    "metrics": {
        "cart_traj_len": 0.3536918369490588,
        "distance_elbow_joint": 0.44908578884903916,
        "distance_shoulder_lift_joint": 0.23458760274615664,
        "distance_shoulder_pan_joint": 0.46482236943510397,
        "distance_wrist_1_joint": 0.24026510229006204,
        "distance_wrist_2_joint": 1.089782653317156,
        "distance_wrist_3_joint": 0.10246024971970868,
        "smoothness": 8.881784232165597e-16,
        "time": 0.8673831280000001,
        "traj_len": 1.6065502688547364,
        "weighted_distance": 2.028785849074234
    },
    "planner": "LBKPIECE",
    "start": {
        "state": {
            "elbow_joint": 1.9715463870305268,
            "shoulder_lift_joint": -1.1394903361783484,
            "shoulder_pan_joint": 0.12281147578464417,
            "wrist_1_joint": -0.7804599489681411,
            "wrist_2_joint": 0.12958660307563738,
            "wrist_3_joint": -3.1924946282119055
        }
    },
    "waypoints": [
        {
            "positions": [
                0.12281147578464417,
                -1.1394903361783484,
                1.9715463870305268,
                -0.7804599489681411,
                0.12958660307563738,
                -3.1924946282119055
            ]
        },
        {
            "positions": [
                0.056408280151057894,
                -1.1730028508563708,
                2.0357014997232468,
                -0.8147835350095786,
                0.2852698392638025,
                -3.1778574496805185
            ]
        },
        {
            "positions": [
                -0.009994915482528385,
                -1.2065153655343932,
                2.0998566124159663,
                -0.8491071210510159,
                0.4409530754519676,
                -3.1632202711491315
            ]
        },
        {
            "positions": [
                -0.07639811111611465,
                -1.2400278802124156,
                2.1640117251086863,
                -0.8834307070924534,
                0.5966363116401328,
                -3.1485830926177445
            ]
        },
        {
            "positions": [
                -0.14280130674970093,
                -1.2735403948904378,
                2.2281668378014063,
                -0.9177542931338908,
                0.7523195478282979,
                -3.133945914086358
            ]
        },
        {
            "positions": [
                -0.20920450238328725,
                -1.3070529095684602,
                2.2923219504941263,
                -0.9520778791753283,
                0.9080027840164631,
                -3.119308735554971
            ]
        },
        {
            "positions": [
                -0.27560769801687346,
                -1.3405654242464826,
                2.356477063186846,
                -0.9864014652167656,
                1.063686020204628,
                -3.104671557023584
            ]
        },
        {
            "positions": [
                -0.3420108936504598,
                -1.374077938924505,
                2.420632175879566,
                -1.0207250512582031,
                1.2193692563927934,
                -3.090034378492197
            ]
        }
    ]
}