{
    "goal": {
        "global_pose": {
            "orientation": {
                "w": -0.00223480608172531,
                "x": 0.0024358444001904467,
                "y": 0.7094548369677653,
                "z": -0.704743149386269
            },
            "position": {
                "x": 0.6205249238014221,
                "y": -0.6371506643295288,
                "z": 0.19426114857196808
            }
        },
        "name": "move_to_magneteinheit_B"
    },
    "id": "LBKPIECE_move_to_magneteinheit_B_54",
    "joint_names": [
        "shoulder_pan_joint",
        "shoulder_lift_joint",
        "elbow_joint",
        "wrist_1_joint",
        "wrist_2_joint",
        "wrist_3_joint"
    ],
    "metrics": {
        "cart_traj_len": 1.453146720720711,
        "distance_elbow_joint": 0.7317835253789089,
        "distance_shoulder_lift_joint": 1.2504814295847575,
        "distance_shoulder_pan_joint": 1.621024535809016,
        "distance_wrist_1_joint": 2.60224778417988,
        "distance_wrist_2_joint": 2.9390366502994767,
        "distance_wrist_3_joint": 3.133645809002357,
        "smoothness": 4.718447852875294e-16,
        "time": 0.539082547,
        "traj_len": 3.504029071548122,
        "weighted_distance": 4.9078300486812365
    },
    "planner": "LBKPIECE",
    "start": {
        "state": {
            "elbow_joint": 2.39358713078474,
            "shoulder_lift_joint": -1.908514104345545,
            "shoulder_pan_joint": 0.7066247066606129,
            "wrist_1_joint": -0.4678290933515497,
            "wrist_2_joint": 0.7096259083745334,
            "wrist_3_joint": -3.1358149277392293
        }
    },
    "waypoints": [
        {
            "positions": [
                0.7066247066606129,
                -1.908514104345545,
                2.39358713078474,
                -0.4678290933515497,
                0.7096259083745334,
                -3.1358149277392293
            ]
        },
        {
            "positions": [
                0.6543335926022575,
                -1.8681759937137785,
                2.369981210611227,
                -0.38388561644252134,
                0.6148182744939051,
                -3.034729579061734
            ]
        },
        {
            "positions": [
                0.6020424785439022,
                -1.8278378830820121,
                2.3463752904377135,
                -0.2999421395334929,
                0.5200106406132768,
                -2.9336442303842385
            ]
        },
        {
            "positions": [
                0.5497513644855468,
                -1.7874997724502457,
                2.3227693702642007,
                -0.21599866262446454,
                0.4252030067326486,
                -2.8325588817067433
            ]
        },
        {
            "positions": [
                0.49746025042719155,
                -1.7471616618184793,
                2.2991634500906875,
                -0.13205518571543617,
                0.3303953728520203,
                -2.7314735330292477
            ]
        },
        {
            "positions": [
                0.44516913636883615,
                -1.7068235511867131,
                2.275557529917174,
                -0.048111708806407805,
                0.23558773897139207,
                -2.6303881843517525
            ]
        },
        {
            "positions": [
                0.3928780223104808,
                -1.6664854405549467,
                2.251951609743661,
                0.03583176810262062,
                0.14078010509076377,
                -2.529302835674257
            ]
        },
        {
            "positions": [
                0.34058690825212545,
                -1.6261473299231803,
                2.2283456895701477,
                0.11977524501164899,
                0.04597247121013548,
                -2.4282174869967617
            ]
        },
        {
            "positions": [
                0.2882957941937701,
                -1.585809219291414,
                2.2047397693966344,
                0.20371872192067736,
                -0.048835162670492815,
                -2.327132138319266
            ]
        },
        {
            "positions": [
                0.2360046801354147,
                -1.5454711086596475,
                2.181133849223121,
                0.28766219882970584,
                -0.1436427965511211,
                -2.226046789641771
            ]
        },
        {
            "positions": [
                0.18371356607705935,
                -1.5051329980278811,
                2.1575279290496083,
                0.3716056757387341,
                -0.2384504304317493,
                -2.1249614409642756
            ]
        },
        {
            "positions": [
                0.13142245201870395,
                -1.4647948873961147,
                2.133922008876095,
                0.4555491526477626,
                -0.3332580643123778,
                -2.02387609228678
            ]
        },
        {
            "positions": [
                0.07913133796034866,
                -1.4244567767643486,
                2.110316088702582,
                0.539492629556791,
                -0.4280656981930059,
                -1.9227907436092846
            ]
        },
        {
            "positions": [
                0.026840223901993254,
                -1.384118666132582,
                2.0867101685290685,
                0.6234361064658194,
                -0.5228733320736342,
                -1.8217053949317892
            ]
        },
        {
            "positions": [
                -0.025450890156362038,
                -1.3437805555008158,
                2.0631042483555553,
                0.7073795833748477,
                -0.6176809659542625,
                -1.720620046254294
            ]
        },
        {
            "positions": [
                -0.07774200421471744,
                -1.3034424448690494,
                2.039498328182042,
                0.7913230602838761,
                -0.7124885998348908,
                -1.6195346975767984
            ]
        },
        {
            "positions": [
                -0.13003311827307273,
                -1.263104334237283,
                2.015892408008529,
                0.8752665371929045,
                -0.8072962337155191,
                -1.5184493488993032
            ]
        },
        {
            "positions": [
                -0.18232423233142803,
                -1.2227662236055168,
                1.992286487835016,
                0.9592100141019329,
                -0.9021038675961471,
                -1.4173640002218078
            ]
        },
        {
            "positions": [
                -0.23461534638978354,
                -1.1824281129737502,
                1.9686805676615027,
                1.0431534910109614,
                -0.9969115014767757,
                -1.3162786515443121
            ]
        },
        {
            "positions": [
                -0.28690646044813883,
                -1.142090002341984,
                1.9450746474879894,
                1.1270969679199896,
                -1.0917191353574038,
                -1.215193302866817
            ]
        },
        {
            "positions": [
                -0.33919757450649424,
                -1.1017518917102174,
                1.9214687273144762,
                1.211040444829018,
                -1.1865267692380321,
                -1.1141079541893215
            ]
        },
        {
            "positions": [
                -0.39148868856484953,
                -1.0614137810784512,
                1.8978628071409631,
                1.2949839217380463,
                -1.2813344031186604,
                -1.0130226055118263
            ]
        },
        {
            "positions": [
                -0.44377980262320504,
                -1.0210756704466846,
                1.8742568869674499,
                1.378927398647075,
                -1.3761420369992892,
                -0.9119372568343307
            ]
        },
        {
            "positions": [
                -0.49607091668156034,
                -0.9807375598149184,
                1.8506509667939368,
                1.4628708755561033,
                -1.470949670879917,
                -0.8108519081568355
            ]
        },
        {
            "positions": [
                -0.5483620307399156,
                -0.940399449183152,
                1.8270450466204236,
                1.5468143524651317,
                -1.5657573047605453,
                -0.7097665594793399
            ]
        },
        {
            "positions": [
                -0.6006531447982709,
                -0.9000613385513858,
                1.8034391264469103,
                1.63075782937416,
                -1.6605649386411736,
                -0.6086812108018447
            ]
        },
        {
            "positions": [
                -0.6529442588566264,
                -0.8597232279196192,
                1.779833206273397,
                1.7147013062831884,
                -1.755372572521802,
                -0.507595862124349
            ]
        },
        {
            "positions": [
                -0.7052353729149817,
                -0.8193851172878528,
                1.7562272860998838,
                1.7986447831922168,
                -1.8501802064024302,
                -0.40651051344685385
            ]
        },
        {
            "positions": [
                -0.757526486973337,
                -0.7790470066560866,
                1.7326213659263707,
                1.8825882601012451,
                -1.9449878402830585,
                -0.30542516476935866
            ]
        },
        {
            "positions": [
                -0.8098176010316923,
                -0.7387088960243202,
                1.7090154457528577,
                1.9665317370102735,
                -2.039795474163687,
                -0.20433981609186302
            ]
        },
        {
            "positions": [
                -0.8621087150900478,
                -0.6983707853925538,
                1.6854095255793444,
                2.050475213919302,
                -2.134603108044315,
                -0.10325446741436739
            ]
        },
        {
            "positions": [
                -0.9143998291484032,
                -0.6580326747607874,
                1.6618036054058312,
                2.1344186908283302,
                -2.2294107419249434,
                -0.002169118736872021
            ]
        }
    ]
}