{
    "goal": {
        "global_pose": {
            "orientation": {
                "w": 0.5084816217422485,
                "x": -0.49083608388900757,
                "y": 0.5182115435600281,
                "z": -0.4816462993621826
            },
            "position": {
                "x": 0.5540239810943604,
                "y": 0.030875300988554955,
                "z": 0.16403168439865112
            }
        },
        "name": "move_to_storage_A"
    },
    "id": "LBKPIECE_move_to_storage_A_85",
    "joint_names": [
        "shoulder_pan_joint",
        "shoulder_lift_joint",
        "elbow_joint",
        "wrist_1_joint",
        "wrist_2_joint",
        "wrist_3_joint"
    ],
    "metrics": {
        "cart_traj_len": 0.3534915048722537,
        "distance_elbow_joint": 0.4513413931223442,
        "distance_shoulder_lift_joint": 0.23497875849282557,
        "distance_shoulder_pan_joint": 0.4627645959411622,
        "distance_wrist_1_joint": 0.2514679443654394,
        "distance_wrist_2_joint": 1.0973736171435666,
        "distance_wrist_3_joint": 0.1066844377334486,
        "smoothness": 0.0,
        "time": 0.40729112199999995,
        "traj_len": 1.6138806482509127,
        "weighted_distance": 2.041279300775543
    },
    "planner": "LBKPIECE",
    "start": {
        "state": {
            "elbow_joint": 1.9715463870305268,
            "shoulder_lift_joint": -1.1394903361783484,
            "shoulder_pan_joint": 0.12281147578464417,
            "wrist_1_joint": -0.7804599489681411,
            "wrist_2_joint": 0.12958660307563738,
            "wrist_3_joint": -3.1924946282119055
        }
    },
    "waypoints": [
        {
            "positions": [
                0.12281147578464417,
                -1.1394903361783484,
                1.9715463870305268,
                -0.7804599489681411,
                0.12958660307563738,
                -3.1924946282119055
            ]
        },
        {
            "positions": [
                0.05670224779304958,
                -1.173058730248752,
                2.0360237289051475,
                -0.8163839410203467,
                0.28635426266757547,
                -3.1772539942499844
            ]
        },
        {
            "positions": [
                -0.009406980198545009,
                -1.2066271243191558,
                2.1005010707797678,
                -0.8523079330725524,
                0.4431219222595135,
                -3.162013360288063
            ]
        },
        {
            "positions": [
                -0.07551620819013961,
                -1.2401955183895594,
                2.1649784126543885,
                -0.8882319251247579,
                0.5998895818514516,
                -3.146772726326142
            ]
        },
        {
            "positions": [
                -0.14162543618173418,
                -1.273763912459963,
                2.2294557545290092,
                -0.9241559171769635,
                0.7566572414433897,
                -3.1315320923642207
            ]
        },
        {
            "positions": [
                -0.2077346641733288,
                -1.3073323065303666,
                2.29393309640363,
                -0.9600799092291692,
                0.9134249010353279,
                -3.1162914584022996
            ]
        },
        {
            "positions": [
                -0.2738438921649234,
                -1.3409007006007703,
                2.3584104382782503,
                -0.9960039012813748,
                1.0701925606272658,
                -3.101050824440378
            ]
        },
        {
            "positions": [
                -0.339953120156518,
                -1.374469094671174,
                2.422887780152871,
                -1.0319278933335805,
                1.226960220219204,
                -3.085810190478457
            ]
        }
    ]
}