{
    "goal": {
        "global_pose": {
            "orientation": {
                "w": -0.00223480608172531,
                "x": 0.0024358444001904467,
                "y": 0.7094548369677653,
                "z": -0.704743149386269
            },
            "position": {
                "x": 0.6205249238014221,
                "y": -0.6371506643295288,
                "z": 0.19426114857196808
            }
        },
        "name": "move_to_magneteinheit_B"
    },
    "id": "LBKPIECE_move_to_magneteinheit_B_92",
    "joint_names": [
        "shoulder_pan_joint",
        "shoulder_lift_joint",
        "elbow_joint",
        "wrist_1_joint",
        "wrist_2_joint",
        "wrist_3_joint"
    ],
    "metrics": {
        "cart_traj_len": 6.21764548549293,
        "distance_elbow_joint": 4.905896771267597,
        "distance_shoulder_lift_joint": 2.61726619082024,
        "distance_shoulder_pan_joint": 4.4395174738122,
        "distance_wrist_1_joint": 4.396708974124941,
        "distance_wrist_2_joint": 3.1727630223814023,
        "distance_wrist_3_joint": 4.467715412468089,
        "smoothness": 1.0091373053130215,
        "time": 0.735627849,
        "traj_len": 4.898965997521769,
        "weighted_distance": 6.364335838586538
    },
    "planner": "LBKPIECE",
    "start": {
        "state": {
            "elbow_joint": 2.39358713078474,
            "shoulder_lift_joint": -1.908514104345545,
            "shoulder_pan_joint": 0.7066247066606129,
            "wrist_1_joint": -0.4678290933515497,
            "wrist_2_joint": 0.7096259083745334,
            "wrist_3_joint": -3.1358149277392293
        }
    },
    "waypoints": [
        {
            "positions": [
                0.7066247066606129,
                -1.908514104345545,
                2.39358713078474,
                -0.4678290933515497,
                0.7096259083745334,
                -3.1358149277392293
            ]
        },
        {
            "positions": [
                0.7010026019799984,
                -1.9348651023706371,
                2.3634456170114233,
                -0.33362593692338927,
                0.5800463109821896,
                -3.0696485871824084
            ]
        },
        {
            "positions": [
                0.6953804972993839,
                -1.9612161003957291,
                2.3333041032381066,
                -0.19942278049522882,
                0.45046671358984575,
                -3.0034822466255875
            ]
        },
        {
            "positions": [
                0.6897583926187694,
                -1.9875670984208214,
                2.30316258946479,
                -0.06521962406706833,
                0.3208871161975019,
                -2.9373159060687666
            ]
        },
        {
            "positions": [
                0.7614489549917827,
                -1.9868935189120562,
                2.1455810470234398,
                -0.02709871763316104,
                0.3339163447470248,
                -2.8331521567571754
            ]
        },
        {
            "positions": [
                0.8331395173647961,
                -1.986219939403291,
                1.9879995045820895,
                0.01102218880074625,
                0.3469455732965477,
                -2.728988407445584
            ]
        },
        {
            "positions": [
                0.9048300797378094,
                -1.9855463598945258,
                1.8304179621407395,
                0.04914309523465353,
                0.35997480184607056,
                -2.624824658133993
            ]
        },
        {
            "positions": [
                0.9765206421108228,
                -1.9848727803857606,
                1.6728364196993892,
                0.08726400166856083,
                0.3730040303955935,
                -2.5206609088224017
            ]
        },
        {
            "positions": [
                1.048211204483836,
                -1.9841992008769955,
                1.5152548772580392,
                0.1253849081024681,
                0.3860332589451164,
                -2.4164971595108105
            ]
        },
        {
            "positions": [
                1.1199017668568494,
                -1.9835256213682302,
                1.3576733348166892,
                0.1635058145363754,
                0.3990624874946393,
                -2.3123334101992192
            ]
        },
        {
            "positions": [
                1.191592329229863,
                -1.982852041859465,
                1.2000917923753387,
                0.20162672097028272,
                0.4120917160441622,
                -2.208169660887628
            ]
        },
        {
            "positions": [
                1.2632828916028762,
                -1.9821784623507,
                1.0425102499339887,
                0.23974762740418998,
                0.4251209445936851,
                -2.104005911576037
            ]
        },
        {
            "positions": [
                1.3349734539758895,
                -1.9815048828419346,
                0.8849287074926386,
                0.27786853383809723,
                0.43815017314320803,
                -1.999842162264446
            ]
        },
        {
            "positions": [
                1.4066640163489028,
                -1.9808313033331695,
                0.7273471650512884,
                0.31598944027200454,
                0.45117940169273096,
                -1.8956784129528546
            ]
        },
        {
            "positions": [
                1.4783545787219161,
                -1.9801577238244044,
                0.5697656226099383,
                0.35411034670591185,
                0.4642086302422538,
                -1.7915146636412635
            ]
        },
        {
            "positions": [
                1.5500451410949294,
                -1.9794841443156392,
                0.4121840801685883,
                0.3922312531398191,
                0.4772378587917767,
                -1.6873509143296723
            ]
        },
        {
            "positions": [
                1.6217357034679432,
                -1.978810564806874,
                0.25460253772723807,
                0.4303521595737264,
                0.49026708734129965,
                -1.583187165018081
            ]
        },
        {
            "positions": [
                1.6934262658409565,
                -1.9781369852981088,
                0.09702099528588759,
                0.4684730660076338,
                0.5032963158908226,
                -1.4790234157064899
            ]
        },
        {
            "positions": [
                1.7651168282139695,
                -1.9774634057893437,
                -0.060560547155462,
                0.5065939724415409,
                0.5163255444403454,
                -1.3748596663948989
            ]
        },
        {
            "positions": [
                1.836807390586983,
                -1.9767898262805785,
                -0.21814208959681247,
                0.5447148788754483,
                0.5293547729898683,
                -1.2706959170833074
            ]
        },
        {
            "positions": [
                1.9084979529599964,
                -1.9761162467718132,
                -0.37572363203816295,
                0.5828357853093555,
                0.5423840015393913,
                -1.1665321677717162
            ]
        },
        {
            "positions": [
                1.9801885153330097,
                -1.975442667263048,
                -0.5333051744795125,
                0.6209566917432627,
                0.5554132300889141,
                -1.0623684184601252
            ]
        },
        {
            "positions": [
                2.0518790777060234,
                -1.974769087754283,
                -0.690886716920863,
                0.6590775981771702,
                0.5684424586384371,
                -0.958204669148534
            ]
        },
        {
            "positions": [
                2.1235696400790367,
                -1.9740955082455176,
                -0.848468259362213,
                0.6971985046110774,
                0.5814716871879599,
                -0.8540409198369425
            ]
        },
        {
            "positions": [
                2.19526020245205,
                -1.9734219287367525,
                -1.006049801803563,
                0.7353194110449848,
                0.5945009157374829,
                -0.7498771705253517
            ]
        },
        {
            "positions": [
                2.2669507648250633,
                -1.9727483492279874,
                -1.163631344244913,
                0.773440317478892,
                0.6075301442870058,
                -0.6457134212137605
            ]
        },
        {
            "positions": [
                2.3386413271980766,
                -1.9720747697192222,
                -1.3212128866862636,
                0.8115612239127994,
                0.6205593728365286,
                -0.5415496719021693
            ]
        },
        {
            "positions": [
                2.41033188957109,
                -1.971401190210457,
                -1.4787944291276132,
                0.8496821303467066,
                0.6335886013860516,
                -0.43738592259057807
            ]
        },
        {
            "positions": [
                2.482022451944103,
                -1.9707276107016918,
                -1.6363759715689634,
                0.8878030367806138,
                0.6466178299355745,
                -0.3332221732789866
            ]
        },
        {
            "positions": [
                2.400263261943879,
                -1.9035361740726702,
                -1.6168867056211984,
                0.7894084411230549,
                0.5751012262829879,
                -0.284723952961962
            ]
        },
        {
            "positions": [
                2.3185040719436545,
                -1.8363447374436486,
                -1.5973974396734332,
                0.6910138454654959,
                0.5035846226304012,
                -0.23622573264493735
            ]
        },
        {
            "positions": [
                2.23674488194343,
                -1.769153300814627,
                -1.5779081737256682,
                0.592619249807937,
                0.43206801897781455,
                -0.18772751232791274
            ]
        },
        {
            "positions": [
                2.1549856919432058,
                -1.7019618641856054,
                -1.558418907777903,
                0.4942246541503782,
                0.3605514153252279,
                -0.1392292920108881
            ]
        },
        {
            "positions": [
                2.0732265019429814,
                -1.634770427556584,
                -1.538929641830138,
                0.3958300584928193,
                0.2890348116726413,
                -0.09073107169386349
            ]
        },
        {
            "positions": [
                1.9914673119427573,
                -1.5675789909275621,
                -1.5194403758823727,
                0.29743546283526034,
                0.21751820802005462,
                -0.042232851376838854
            ]
        },
        {
            "positions": [
                1.9097081219425331,
                -1.5003875542985408,
                -1.4999511099346077,
                0.19904086717770153,
                0.146001604367468,
                0.006265368940185756
            ]
        },
        {
            "positions": [
                1.8279489319423088,
                -1.4331961176695192,
                -1.4804618439868424,
                0.1006462715201426,
                0.07448500071488129,
                0.05476358925721042
            ]
        },
        {
            "positions": [
                1.7461897419420844,
                -1.3660046810404975,
                -1.4609725780390774,
                0.0022516758625837907,
                0.002968397062294681,
                0.10326180957423503
            ]
        },
        {
            "positions": [
                1.66443055194186,
                -1.298813244411476,
                -1.4414833120913122,
                -0.09614291979497513,
                -0.06854820659029193,
                0.15176002989125964
            ]
        },
        {
            "positions": [
                1.5826713619416357,
                -1.2316218077824543,
                -1.4219940461435472,
                -0.19453751545253395,
                -0.14006481024287853,
                0.20025825020828425
            ]
        },
        {
            "positions": [
                1.5009121719414114,
                -1.1644303711534327,
                -1.402504780195782,
                -0.2929321111100931,
                -0.21158141389546525,
                0.24875647052530891
            ]
        },
        {
            "positions": [
                1.419152981941187,
                -1.0972389345244111,
                -1.383015514248017,
                -0.3913267067676518,
                -0.28309801754805197,
                0.2972546908423336
            ]
        },
        {
            "positions": [
                1.3373937919409629,
                -1.0300474978953895,
                -1.3635262483002517,
                -0.4897213024252107,
                -0.35461462120063847,
                0.34575291115935813
            ]
        },
        {
            "positions": [
                1.2556346019407385,
                -0.9628560612663679,
                -1.3440369823524867,
                -0.5881158980827697,
                -0.4261312248532251,
                0.3942511314763828
            ]
        },
        {
            "positions": [
                1.3427032032320958,
                -1.0269424521341437,
                -1.3724680979331874,
                -0.4957991508405472,
                -0.3544227595325107,
                0.35341623218710205
            ]
        },
        {
            "positions": [
                1.4297718045234533,
                -1.0910288430019197,
                -1.400899213513888,
                -0.40348240359832477,
                -0.2827142942117962,
                0.31258133289782125
            ]
        },
        {
            "positions": [
                1.5168404058148106,
                -1.1551152338696955,
                -1.4293303290945887,
                -0.31116565635610227,
                -0.2110058288910818,
                0.27174643360854045
            ]
        },
        {
            "positions": [
                1.603909007106168,
                -1.2192016247374715,
                -1.4577614446752891,
                -0.21884890911387983,
                -0.13929736357036737,
                0.2309115343192597
            ]
        },
        {
            "positions": [
                1.6909776083975254,
                -1.2832880156052473,
                -1.4861925602559898,
                -0.1265321618716574,
                -0.06758889824965297,
                0.19007663502997893
            ]
        },
        {
            "positions": [
                1.7780462096888827,
                -1.347374406473023,
                -1.5146236758366904,
                -0.03421541462943489,
                0.004119567071061481,
                0.14924173574069816
            ]
        },
        {
            "positions": [
                1.86511481098024,
                -1.411460797340799,
                -1.543054791417391,
                0.05810133261278749,
                0.07582803239177593,
                0.10840683645141735
            ]
        },
        {
            "positions": [
                1.9521834122715975,
                -1.4755471882085749,
                -1.5714859069980918,
                0.15041807985501,
                0.14753649771249033,
                0.06757193716213661
            ]
        },
        {
            "positions": [
                2.0392520135629546,
                -1.5396335790763507,
                -1.5999170225787924,
                0.2427348270972325,
                0.21924496303320473,
                0.026737037872855862
            ]
        },
        {
            "positions": [
                2.126320614854312,
                -1.6037199699441267,
                -1.628348138159493,
                0.33505157433945487,
                0.29095342835391913,
                -0.01409786141642494
            ]
        },
        {
            "positions": [
                2.2133892161456696,
                -1.6678063608119025,
                -1.6567792537401935,
                0.42736832158167726,
                0.36266189367463364,
                -0.05493276070570574
            ]
        },
        {
            "positions": [
                2.300457817437027,
                -1.7318927516796783,
                -1.6852103693208944,
                0.5196850688238999,
                0.43437035899534804,
                -0.09576765999498649
            ]
        },
        {
            "positions": [
                2.3875264187283842,
                -1.7959791425474543,
                -1.7136414849015948,
                0.6120018160661223,
                0.5060788243160624,
                -0.13660255928426723
            ]
        },
        {
            "positions": [
                2.4745950200197413,
                -1.86006553341523,
                -1.7420726004822955,
                0.7043185633083446,
                0.577787289636777,
                -0.1774374585735481
            ]
        },
        {
            "positions": [
                2.561663621311099,
                -1.9241519242830059,
                -1.7705037160629962,
                0.7966353105505672,
                0.6494957549574912,
                -0.21827235786282884
            ]
        },
        {
            "positions": [
                2.6487322226024563,
                -1.9882383151507819,
                -1.7989348316436968,
                0.8889520577927896,
                0.7212042202782057,
                -0.2591072571521096
            ]
        },
        {
            "positions": [
                2.6514576300474415,
                -2.110268291577306,
                -1.766760624042146,
                0.9109745461062483,
                0.661651966141689,
                -0.18803451599611215
            ]
        },
        {
            "positions": [
                2.6541830374924262,
                -2.23229826800383,
                -1.7345864164405953,
                0.9329970344197069,
                0.6020997120051722,
                -0.11696177484011472
            ]
        },
        {
            "positions": [
                2.656908444937411,
                -2.3543282444303535,
                -1.7024122088390445,
                0.9550195227331655,
                0.5425474578686553,
                -0.045889033684117286
            ]
        },
        {
            "positions": [
                2.659633852382396,
                -2.4763582208568775,
                -1.6702380012374938,
                0.9770420110466241,
                0.4829952037321386,
                0.02518370747188016
            ]
        }
    ]
}