{
    "goal": {
        "global_pose": {
            "orientation": {
                "w": -0.00223480608172531,
                "x": 0.0024358444001904467,
                "y": 0.7094548369677653,
                "z": -0.704743149386269
            },
            "position": {
                "x": 0.6205249238014221,
                "y": -0.6371506643295288,
                "z": 0.19426114857196808
            }
        },
        "name": "move_to_magneteinheit_B"
    },
    "id": "LBKPIECE_move_to_magneteinheit_B_59",
    "joint_names": [
        "shoulder_pan_joint",
        "shoulder_lift_joint",
        "elbow_joint",
        "wrist_1_joint",
        "wrist_2_joint",
        "wrist_3_joint"
    ],
    "metrics": {
        "cart_traj_len": 1.4536421873401304,
        "distance_elbow_joint": 0.7319144781868452,
        "distance_shoulder_lift_joint": 1.2497805213711608,
        "distance_shoulder_pan_joint": 1.6220189611539126,
        "distance_wrist_1_joint": 2.6026828075410653,
        "distance_wrist_2_joint": 2.937620849398208,
        "distance_wrist_3_joint": 3.142793487232155,
        "smoothness": 3.7680296739872524e-16,
        "time": 0.7759402929999999,
        "traj_len": 3.505254784588896,
        "weighted_distance": 4.910468586223409
    },
    "planner": "LBKPIECE",
    "start": {
        "state": {
            "elbow_joint": 2.39358713078474,
            "shoulder_lift_joint": -1.908514104345545,
            "shoulder_pan_joint": 0.7066247066606129,
            "wrist_1_joint": -0.4678290933515497,
            "wrist_2_joint": 0.7096259083745334,
            "wrist_3_joint": -3.1358149277392293
        }
    },
    "waypoints": [
        {
            "positions": [
                0.7066247066606129,
                -1.908514104345545,
                2.39358713078474,
                -0.4678290933515497,
                0.7096259083745334,
                -3.1358149277392293
            ]
        },
        {
            "positions": [
                0.6559366141245532,
                -1.869458463052696,
                2.370714803341401,
                -0.38649525561589143,
                0.6178252568308394,
                -3.0376026312632245
            ]
        },
        {
            "positions": [
                0.6052485215884934,
                -1.8304028217598474,
                2.3478424758980623,
                -0.3051614178802331,
                0.5260246052871455,
                -2.9393903347872197
            ]
        },
        {
            "positions": [
                0.5545604290524336,
                -1.7913471804669987,
                2.324970148454723,
                -0.22382758014457482,
                0.4342239537434514,
                -2.841178038311215
            ]
        },
        {
            "positions": [
                0.5038723365163739,
                -1.7522915391741498,
                2.3020978210113845,
                -0.14249374240891655,
                0.3424233021997574,
                -2.74296574183521
            ]
        },
        {
            "positions": [
                0.4531842439803141,
                -1.713235897881301,
                2.2792254935680454,
                -0.06115990467325827,
                0.25062265065606343,
                -2.644753445359205
            ]
        },
        {
            "positions": [
                0.4024961514442543,
                -1.6741802565884523,
                2.2563531661247067,
                0.020173933062400062,
                0.15882199911236938,
                -2.5465411488832004
            ]
        },
        {
            "positions": [
                0.35180805890819455,
                -1.6351246152956036,
                2.2334808386813676,
                0.10150777079805834,
                0.0670213475686754,
                -2.4483288524071956
            ]
        },
        {
            "positions": [
                0.3011199663721348,
                -1.5960689740027547,
                2.210608511238029,
                0.18284160853371662,
                -0.024779303975018596,
                -2.3501165559311907
            ]
        },
        {
            "positions": [
                0.250431873836075,
                -1.5570133327099058,
                2.18773618379469,
                0.2641754462693749,
                -0.11657995551871259,
                -2.251904259455186
            ]
        },
        {
            "positions": [
                0.19974378130001524,
                -1.5179576914170572,
                2.164863856351351,
                0.34550928400503317,
                -0.20838060706240658,
                -2.153691962979181
            ]
        },
        {
            "positions": [
                0.14905568876395547,
                -1.4789020501242085,
                2.141991528908012,
                0.42684312174069144,
                -0.3001812586061007,
                -2.0554796665031763
            ]
        },
        {
            "positions": [
                0.0983675962278957,
                -1.4398464088313596,
                2.119119201464673,
                0.5081769594763499,
                -0.39198191014979467,
                -1.9572673700271712
            ]
        },
        {
            "positions": [
                0.047679503691835934,
                -1.4007907675385107,
                2.0962468740213342,
                0.5895107972120082,
                -0.48378256169348866,
                -1.8590550735511664
            ]
        },
        {
            "positions": [
                -0.003008588844223836,
                -1.361735126245662,
                2.073374546577995,
                0.6708446349476664,
                -0.5755832132371826,
                -1.7608427770751616
            ]
        },
        {
            "positions": [
                -0.053696681380283606,
                -1.3226794849528134,
                2.0505022191346565,
                0.7521784726833247,
                -0.6673838647808766,
                -1.6626304805991567
            ]
        },
        {
            "positions": [
                -0.10438477391634338,
                -1.2836238436599645,
                2.0276298916913174,
                0.833512310418983,
                -0.7591845163245706,
                -1.564418184123152
            ]
        },
        {
            "positions": [
                -0.15507286645240315,
                -1.2445682023671156,
                2.0047575642479787,
                0.9148461481546413,
                -0.8509851678682646,
                -1.466205887647147
            ]
        },
        {
            "positions": [
                -0.20576095898846292,
                -1.205512561074267,
                1.9818852368046396,
                0.9961799858902995,
                -0.9427858194119586,
                -1.3679935911711423
            ]
        },
        {
            "positions": [
                -0.2564490515245227,
                -1.1664569197814183,
                1.9590129093613007,
                1.0775138236259578,
                -1.0345864709556527,
                -1.2697812946951375
            ]
        },
        {
            "positions": [
                -0.30713714406058246,
                -1.1274012784885694,
                1.9361405819179618,
                1.158847661361616,
                -1.1263871224993465,
                -1.1715689982191326
            ]
        },
        {
            "positions": [
                -0.3578252365966422,
                -1.0883456371957205,
                1.913268254474623,
                1.2401814990972744,
                -1.2181877740430407,
                -1.0733567017431276
            ]
        },
        {
            "positions": [
                -0.408513329132702,
                -1.0492899959028719,
                1.890395927031284,
                1.3215153368329327,
                -1.309988425586735,
                -0.9751444052671228
            ]
        },
        {
            "positions": [
                -0.45920142166876177,
                -1.0102343546100232,
                1.8675235995879451,
                1.402849174568591,
                -1.4017890771304287,
                -0.8769321087911179
            ]
        },
        {
            "positions": [
                -0.5098895142048215,
                -0.9711787133171743,
                1.8446512721446062,
                1.4841830123042494,
                -1.4935897286741229,
                -0.7787198123151131
            ]
        },
        {
            "positions": [
                -0.5605776067408813,
                -0.9321230720243255,
                1.8217789447012671,
                1.5655168500399075,
                -1.5853903802178166,
                -0.6805075158391083
            ]
        },
        {
            "positions": [
                -0.6112656992769411,
                -0.8930674307314768,
                1.7989066172579284,
                1.646850687775566,
                -1.6771910317615109,
                -0.5822952193631035
            ]
        },
        {
            "positions": [
                -0.6619537918130008,
                -0.8540117894386281,
                1.7760342898145893,
                1.728184525511224,
                -1.7689916833052046,
                -0.48408292288709864
            ]
        },
        {
            "positions": [
                -0.7126418843490606,
                -0.8149561481457792,
                1.7531619623712507,
                1.8095183632468825,
                -1.8607923348488988,
                -0.3858706264110938
            ]
        },
        {
            "positions": [
                -0.7633299768851204,
                -0.7759005068529303,
                1.7302896349279115,
                1.8908522009825406,
                -1.9525929863925926,
                -0.287658329935089
            ]
        },
        {
            "positions": [
                -0.8140180694211802,
                -0.7368448655600817,
                1.7074173074845727,
                1.972186038718199,
                -2.044393637936287,
                -0.18944603345908417
            ]
        },
        {
            "positions": [
                -0.8647061619572399,
                -0.697789224267233,
                1.6845449800412338,
                2.053519876453857,
                -2.1361942894799806,
                -0.09123373698307935
            ]
        },
        {
            "positions": [
                -0.9153942544932997,
                -0.658733582974384,
                1.6616726525978949,
                2.1348537141895156,
                -2.227994941023675,
                0.006978559492925579
            ]
        }
    ]
}