{
    "goal": {
        "global_pose": {
            "orientation": {
                "w": 0.5084816217422485,
                "x": -0.49083608388900757,
                "y": 0.5182115435600281,
                "z": -0.4816462993621826
            },
            "position": {
                "x": 0.5540239810943604,
                "y": 0.030875300988554955,
                "z": 0.16403168439865112
            }
        },
        "name": "move_to_storage_A"
    },
    "id": "LBKPIECE_move_to_storage_A_71",
    "joint_names": [
        "shoulder_pan_joint",
        "shoulder_lift_joint",
        "elbow_joint",
        "wrist_1_joint",
        "wrist_2_joint",
        "wrist_3_joint"
    ],
    "metrics": {
        "cart_traj_len": 0.3534368534578935,
        "distance_elbow_joint": 0.45058154757347024,
        "distance_shoulder_lift_joint": 0.2361152419997785,
        "distance_shoulder_pan_joint": 0.46315575639824913,
        "distance_wrist_1_joint": 0.23950676559764872,
        "distance_wrist_2_joint": 1.0964701884659305,
        "distance_wrist_3_joint": 0.09114691959929022,
        "smoothness": 4.440892098500626e-16,
        "time": 0.798974219,
        "traj_len": 1.6052963650473913,
        "weighted_distance": 2.023671715693167
    },
    "planner": "LBKPIECE",
    "start": {
        "state": {
            "elbow_joint": 1.9715463870305268,
            "shoulder_lift_joint": -1.1394903361783484,
            "shoulder_pan_joint": 0.12281147578464417,
            "wrist_1_joint": -0.7804599489681411,
            "wrist_2_joint": 0.12958660307563738,
            "wrist_3_joint": -3.1924946282119055
        }
    },
    "waypoints": [
        {
            "positions": [
                0.12281147578464417,
                -1.1394903361783484,
                1.9715463870305268,
                -0.7804599489681411,
                0.12958660307563738,
                -3.1924946282119055
            ]
        },
        {
            "positions": [
                0.056646367727751445,
                -1.1732210850354596,
                2.0359151795410226,
                -0.8146752011963766,
                0.2862252014279132,
                -3.1794736396977212
            ]
        },
        {
            "positions": [
                -0.009518740329141281,
                -1.2069518338925709,
                2.100283972051518,
                -0.8488904534246121,
                0.44286379978018897,
                -3.166452651183537
            ]
        },
        {
            "positions": [
                -0.07568384838603402,
                -1.2406825827496821,
                2.164652764562014,
                -0.8831057056528476,
                0.5995023981324648,
                -3.1534316626693526
            ]
        },
        {
            "positions": [
                -0.14184895644292672,
                -1.2744133316067932,
                2.22902155707251,
                -0.9173209578810833,
                0.7561409964847405,
                -3.1404106741551683
            ]
        },
        {
            "positions": [
                -0.20801406449981946,
                -1.3081440804639044,
                2.2933903495830057,
                -0.9515362101093188,
                0.9127795948370163,
                -3.127389685640984
            ]
        },
        {
            "positions": [
                -0.2741791725567122,
                -1.3418748293210156,
                2.357759142093501,
                -0.9857514623375543,
                1.069418193189292,
                -3.1143686971267996
            ]
        },
        {
            "positions": [
                -0.34034428061360494,
                -1.375605578178127,
                2.422127934603997,
                -1.0199667145657898,
                1.2260567915415679,
                -3.1013477086126153
            ]
        }
    ]
}