{
    "goal": {
        "global_pose": {
            "orientation": {
                "w": 0.5084816217422485,
                "x": -0.49083608388900757,
                "y": 0.5182115435600281,
                "z": -0.4816462993621826
            },
            "position": {
                "x": 0.5540239810943604,
                "y": 0.030875300988554955,
                "z": 0.16403168439865112
            }
        },
        "name": "move_to_storage_A"
    },
    "id": "LBKPIECE_move_to_storage_A_149",
    "joint_names": [
        "shoulder_pan_joint",
        "shoulder_lift_joint",
        "elbow_joint",
        "wrist_1_joint",
        "wrist_2_joint",
        "wrist_3_joint"
    ],
    "metrics": {
        "cart_traj_len": 0.35236946398749436,
        "distance_elbow_joint": 0.4488316726146069,
        "distance_shoulder_lift_joint": 0.23637795208004508,
        "distance_shoulder_pan_joint": 0.46161407500662244,
        "distance_wrist_1_joint": 0.2360363556036068,
        "distance_wrist_2_joint": 1.0946068010410706,
        "distance_wrist_3_joint": 0.10496611592263827,
        "smoothness": 8.881784267329941e-16,
        "time": 0.8155678190000001,
        "traj_len": 1.6069950131436594,
        "weighted_distance": 2.030519234274461
    },
    "planner": "LBKPIECE",
    "start": {
        "state": {
            "elbow_joint": 1.9715463870305268,
            "shoulder_lift_joint": -1.1394903361783484,
            "shoulder_pan_joint": 0.12281147578464417,
            "wrist_1_joint": -0.7804599489681411,
            "wrist_2_joint": 0.12958660307563738,
            "wrist_3_joint": -3.1924946282119055
        }
    },
    "waypoints": [
        {
            "positions": [
                0.12281147578464417,
                -1.1394903361783484,
                1.9715463870305268,
                -0.7804599489681411,
                0.12958660307563738,
                -3.1924946282119055
            ]
        },
        {
            "positions": [
                0.05686660792655526,
                -1.1732586150469262,
                2.035665197404042,
                -0.8141794283400849,
                0.28595900322436174,
                -3.1774994687943856
            ]
        },
        {
            "positions": [
                -0.009078259931533647,
                -1.2070268939155042,
                2.0997840077775574,
                -0.8478989077120287,
                0.4423314033730861,
                -3.162504309376866
            ]
        },
        {
            "positions": [
                -0.07502312778962257,
                -1.240795172784082,
                2.1639028181510724,
                -0.8816183870839726,
                0.5987038035218104,
                -3.147509149959346
            ]
        },
        {
            "positions": [
                -0.14096799564771145,
                -1.2745634516526598,
                2.228021628524588,
                -0.9153378664559164,
                0.7550762036705349,
                -3.1325139905418267
            ]
        },
        {
            "positions": [
                -0.2069128635058004,
                -1.3083317305212376,
                2.292140438898103,
                -0.9490573458278602,
                0.9114486038192593,
                -3.1175188311243067
            ]
        },
        {
            "positions": [
                -0.2728577313638893,
                -1.3421000093898157,
                2.356259249271618,
                -0.982776825199804,
                1.0678210039679834,
                -3.1025236717067872
            ]
        },
        {
            "positions": [
                -0.33880259922197825,
                -1.3758682882583935,
                2.4203780596451336,
                -1.0164963045717479,
                1.224193404116708,
                -3.0875285122892673
            ]
        }
    ]
}