{
    "goal": {
        "global_pose": {
            "orientation": {
                "w": 0.7031023502349854,
                "x": -0.7110244035720825,
                "y": 0.007748599164187908,
                "z": 0.005598929710686207
            },
            "position": {
                "x": 0.11585023208521307,
                "y": 0.44412534475326537,
                "z": 0.3711530566215515
            }
        },
        "name": "move_to_auspresseinheit_A"
    },
    "id": "LBKPIECE_move_to_auspresseinheit_A_142",
    "joint_names": [
        "shoulder_pan_joint",
        "shoulder_lift_joint",
        "elbow_joint",
        "wrist_1_joint",
        "wrist_2_joint",
        "wrist_3_joint"
    ],
    "metrics": {
        "cart_traj_len": 0.6882831694618522,
        "distance_elbow_joint": 0.03362116539856075,
        "distance_shoulder_lift_joint": 0.5332034605576679,
        "distance_shoulder_pan_joint": 1.0413248009815965,
        "distance_wrist_1_joint": 0.577534671250002,
        "distance_wrist_2_joint": 0.5361312650281731,
        "distance_wrist_3_joint": 0.052996700786956286,
        "smoothness": 1.9737298371844314e-16,
        "time": 0.594819647,
        "traj_len": 1.6657767149299922,
        "weighted_distance": 1.998617372549094
    },
    "planner": "LBKPIECE",
    "start": {
        "state": {
            "elbow_joint": 2.422574709923281,
            "shoulder_lift_joint": -1.3736533754116391,
            "shoulder_pan_joint": -0.33786336945926293,
            "wrist_1_joint": -1.0288603412921917,
            "wrist_2_joint": 1.2330224858903978,
            "wrist_3_joint": -3.094022268022082
        }
    },
    "waypoints": [
        {
            "positions": [
                -0.33786336945926293,
                -1.3736533754116391,
                2.422574709923281,
                -1.0288603412921917,
                1.2330224858903978,
                -3.094022268022082
            ]
        },
        {
            "positions": [
                -0.20769776933656336,
                -1.4403038079813477,
                2.418372064248461,
                -0.9566685073859414,
                1.1660060777618761,
                -3.1006468556204516
            ]
        },
        {
            "positions": [
                -0.0775321692138638,
                -1.506954240551056,
                2.414169418573641,
                -0.8844766734796912,
                1.0989896696333545,
                -3.107271443218821
            ]
        },
        {
            "positions": [
                0.052633430908835765,
                -1.5736046731207645,
                2.4099667728988208,
                -0.812284839573441,
                1.031973261504833,
                -3.1138960308171906
            ]
        },
        {
            "positions": [
                0.18279903103153533,
                -1.640255105690473,
                2.4057641272240007,
                -0.7400930056671907,
                0.9649568533763112,
                -3.1205206184155605
            ]
        },
        {
            "positions": [
                0.31296463115423495,
                -1.7069055382601817,
                2.4015614815491806,
                -0.6679011717609404,
                0.8979404452477896,
                -3.12714520601393
            ]
        },
        {
            "positions": [
                0.44313023127693446,
                -1.77355597082989,
                2.3973588358743605,
                -0.5957093378546903,
                0.8309240371192679,
                -3.1337697936122995
            ]
        },
        {
            "positions": [
                0.5732958313996339,
                -1.8402064033995984,
                2.3931561901995404,
                -0.52351750394844,
                0.7639076289907463,
                -3.140394381210669
            ]
        },
        {
            "positions": [
                0.7034614315223335,
                -1.906856835969307,
                2.3889535445247203,
                -0.45132567004218965,
                0.6968912208622247,
                -3.1470189688090384
            ]
        }
    ]
}