{
    "goal": {
        "global_pose": {
            "orientation": {
                "w": -0.00223480608172531,
                "x": 0.0024358444001904467,
                "y": 0.7094548369677653,
                "z": -0.704743149386269
            },
            "position": {
                "x": 0.6205249238014221,
                "y": -0.6371506643295288,
                "z": 0.19426114857196808
            }
        },
        "name": "move_to_magneteinheit_B"
    },
    "id": "LBKPIECE_move_to_magneteinheit_B_93",
    "joint_names": [
        "shoulder_pan_joint",
        "shoulder_lift_joint",
        "elbow_joint",
        "wrist_1_joint",
        "wrist_2_joint",
        "wrist_3_joint"
    ],
    "metrics": {
        "cart_traj_len": 4.226671580723033,
        "distance_elbow_joint": 6.460539906823016,
        "distance_shoulder_lift_joint": 1.0587366946072838,
        "distance_shoulder_pan_joint": 3.255874694554058,
        "distance_wrist_1_joint": 2.745088767559859,
        "distance_wrist_2_joint": 2.3090160780348707,
        "distance_wrist_3_joint": 6.281163310683029,
        "smoothness": 0.29821729627401283,
        "time": 0.8865235330000001,
        "traj_len": 4.702171780386392,
        "weighted_distance": 6.302923997576275
    },
    "planner": "LBKPIECE",
    "start": {
        "state": {
            "elbow_joint": 2.39358713078474,
            "shoulder_lift_joint": -1.908514104345545,
            "shoulder_pan_joint": 0.7066247066606129,
            "wrist_1_joint": -0.4678290933515497,
            "wrist_2_joint": 0.7096259083745334,
            "wrist_3_joint": -3.1358149277392293
        }
    },
    "waypoints": [
        {
            "positions": [
                0.7066247066606129,
                -1.908514104345545,
                2.39358713078474,
                -0.4678290933515497,
                0.7096259083745334,
                -3.1358149277392293
            ]
        },
        {
            "positions": [
                0.6254285293687605,
                -1.8179309424063739,
                2.375271729234684,
                -0.44603244042079104,
                0.6614777946339232,
                -3.091603132394354
            ]
        },
        {
            "positions": [
                0.5442323520769079,
                -1.7273477804672028,
                2.3569563276846273,
                -0.4242357874900324,
                0.6133296808933131,
                -3.0473913370494783
            ]
        },
        {
            "positions": [
                0.4953960790507368,
                -1.7552884537104099,
                2.2419888177717393,
                -0.4147547432272923,
                0.522181415445571,
                -2.96176703137757
            ]
        },
        {
            "positions": [
                0.4465598060245657,
                -1.7832291269536167,
                2.127021307858851,
                -0.40527369896455223,
                0.43103314999782877,
                -2.8761427257056615
            ]
        },
        {
            "positions": [
                0.3977235329983946,
                -1.8111698001968237,
                2.012053797945963,
                -0.39579265470181213,
                0.33988488455008664,
                -2.790518420033753
            ]
        },
        {
            "positions": [
                0.3488872599722234,
                -1.8391104734400305,
                1.897086288033075,
                -0.38631161043907203,
                0.24873661910234446,
                -2.704894114361845
            ]
        },
        {
            "positions": [
                0.3000509869460523,
                -1.8670511466832376,
                1.7821187781201868,
                -0.3768305661763319,
                0.15758835365460233,
                -2.6192698086899364
            ]
        },
        {
            "positions": [
                0.2512147139198812,
                -1.8949918199264446,
                1.6671512682072986,
                -0.3673495219135919,
                0.0664400882068602,
                -2.5336455030180285
            ]
        },
        {
            "positions": [
                0.2023784408937101,
                -1.9229324931696514,
                1.5521837582944107,
                -0.3578684776508518,
                -0.024708177240881923,
                -2.44802119734612
            ]
        },
        {
            "positions": [
                0.15354216786753894,
                -1.9508731664128585,
                1.4372162483815225,
                -0.3483874333881117,
                -0.11585644268862416,
                -2.3623968916742117
            ]
        },
        {
            "positions": [
                0.10470589484136783,
                -1.9788138396560653,
                1.3222487384686343,
                -0.33890638912537163,
                -0.2070047081363663,
                -2.2767725860023034
            ]
        },
        {
            "positions": [
                0.055869621815196696,
                -2.0067545128992723,
                1.2072812285557464,
                -0.32942534486263153,
                -0.2981529735841084,
                -2.191148280330395
            ]
        },
        {
            "positions": [
                0.1192297325185469,
                -1.999775430577305,
                1.07167545519978,
                -0.3210913520338005,
                -0.32278644088606406,
                -2.043918611121846
            ]
        },
        {
            "positions": [
                0.1825898432218971,
                -1.9927963482553377,
                0.9360696818438135,
                -0.3127573592049695,
                -0.34741990818801965,
                -1.8966889419132973
            ]
        },
        {
            "positions": [
                0.24594995392524735,
                -1.9858172659333704,
                0.8004639084878471,
                -0.3044233663761384,
                -0.3720533754899753,
                -1.7494592727047484
            ]
        },
        {
            "positions": [
                0.30931006462859756,
                -1.9788381836114033,
                0.6648581351318806,
                -0.2960893735473074,
                -0.39668684279193095,
                -1.6022296034961996
            ]
        },
        {
            "positions": [
                0.3726701753319478,
                -1.971859101289436,
                0.5292523617759142,
                -0.2877553807184764,
                -0.42132031009388654,
                -1.4549999342876507
            ]
        },
        {
            "positions": [
                0.43603028603529803,
                -1.9648800189674687,
                0.3936465884199477,
                -0.2794213878896453,
                -0.4459537773958422,
                -1.3077702650791019
            ]
        },
        {
            "positions": [
                0.49939039673864816,
                -1.9579009366455014,
                0.25804081506398124,
                -0.2710873950608143,
                -0.4705872446977978,
                -1.160540595870553
            ]
        },
        {
            "positions": [
                0.5627505074419984,
                -1.950921854323534,
                0.12243504170801489,
                -0.2627534022319833,
                -0.4952207119997535,
                -1.0133109266620042
            ]
        },
        {
            "positions": [
                0.6261106181453486,
                -1.9439427720015667,
                -0.013170731647951461,
                -0.2544194094031523,
                -0.5198541793017091,
                -0.8660812574534553
            ]
        },
        {
            "positions": [
                0.6894707288486989,
                -1.9369636896795994,
                -0.14877650500391804,
                -0.24608541657432123,
                -0.5444876466036647,
                -0.7188515882449065
            ]
        },
        {
            "positions": [
                0.752830839552049,
                -1.9299846073576323,
                -0.2843822783598844,
                -0.2377514237454902,
                -0.5691211139056203,
                -0.5716219190363578
            ]
        },
        {
            "positions": [
                0.8161909502553993,
                -1.923005525035665,
                -0.41998805171585096,
                -0.22941743091665917,
                -0.593754581207576,
                -0.42439224982780877
            ]
        },
        {
            "positions": [
                0.8795510609587496,
                -1.9160264427136977,
                -0.5555938250718173,
                -0.22108343808782813,
                -0.6183880485095317,
                -0.2771625806192599
            ]
        },
        {
            "positions": [
                0.9429111716620997,
                -1.9090473603917304,
                -0.6911995984277839,
                -0.21274944525899708,
                -0.6430215158114871,
                -0.12993291141071106
            ]
        },
        {
            "positions": [
                1.0062712823654498,
                -1.902068278069763,
                -0.8268053717837502,
                -0.20441545243016607,
                -0.6676549831134428,
                0.017296757797837792
            ]
        },
        {
            "positions": [
                1.0696313930688,
                -1.8950891957477958,
                -0.9624111451397166,
                -0.19608145960133505,
                -0.6922884504153985,
                0.16452642700638664
            ]
        },
        {
            "positions": [
                1.1329915037721503,
                -1.8881101134258285,
                -1.098016918495683,
                -0.187747466772504,
                -0.716921917717354,
                0.3117560962149355
            ]
        },
        {
            "positions": [
                1.1963516144755004,
                -1.8811310311038612,
                -1.2336226918516493,
                -0.179413473943673,
                -0.7415553850193097,
                0.45898576542348435
            ]
        },
        {
            "positions": [
                1.2597117251788505,
                -1.8741519487818938,
                -1.369228465207616,
                -0.17107948111484195,
                -0.7661888523212653,
                0.6062154346320332
            ]
        },
        {
            "positions": [
                1.323071835882201,
                -1.8671728664599267,
                -1.5048342385635824,
                -0.16274548828601093,
                -0.7908223196232209,
                0.753445103840582
            ]
        },
        {
            "positions": [
                1.386431946585551,
                -1.8601937841379594,
                -1.6404400119195488,
                -0.1544114954571799,
                -0.8154557869251766,
                0.9006747730491309
            ]
        },
        {
            "positions": [
                1.4497920572889011,
                -1.8532147018159921,
                -1.7760457852755152,
                -0.14607750262834887,
                -0.8400892542271322,
                1.0479044422576793
            ]
        },
        {
            "positions": [
                1.5131521679922517,
                -1.8462356194940248,
                -1.911651558631482,
                -0.1377435097995178,
                -0.8647227215290879,
                1.195134111466229
            ]
        },
        {
            "positions": [
                1.5765122786956018,
                -1.8392565371720575,
                -2.0472573319874483,
                -0.12940951697068678,
                -0.8893561888310435,
                1.3423637806747775
            ]
        },
        {
            "positions": [
                1.639872389398952,
                -1.8322774548500902,
                -2.1828631053434147,
                -0.12107552414185574,
                -0.9139896561329992,
                1.4895934498833263
            ]
        },
        {
            "positions": [
                1.7032325001023023,
                -1.825298372528123,
                -2.318468878699381,
                -0.11274153131302472,
                -0.9386231234349548,
                1.6368231190918752
            ]
        },
        {
            "positions": [
                1.7665926108056524,
                -1.8183192902061558,
                -2.454074652055348,
                -0.10440753848419368,
                -0.9632565907369104,
                1.784052788300424
            ]
        },
        {
            "positions": [
                1.8299527215090026,
                -1.8113402078841885,
                -2.589680425411314,
                -0.09607354565536266,
                -0.987890058038866,
                1.9312824575089729
            ]
        },
        {
            "positions": [
                1.893312832212353,
                -1.8043611255622212,
                -2.7252861987672805,
                -0.08773955282653162,
                -1.0125235253408218,
                2.078512126717522
            ]
        },
        {
            "positions": [
                1.956672942915703,
                -1.7973820432402539,
                -2.860891972123247,
                -0.0794055599977006,
                -1.0371569926427773,
                2.2257417959260706
            ]
        },
        {
            "positions": [
                2.0006927109537114,
                -1.8216814912801198,
                -2.7855131718785575,
                -0.22669713713557627,
                -1.0020174190791797,
                2.2832172076146784
            ]
        },
        {
            "positions": [
                2.0447124789917197,
                -1.8459809393199855,
                -2.710134371633868,
                -0.3739887142734519,
                -0.9668778455155824,
                2.3406926193032866
            ]
        },
        {
            "positions": [
                2.0887322470297285,
                -1.8702803873598515,
                -2.6347555713891784,
                -0.5212802914113276,
                -0.931738271951985,
                2.3981680309918945
            ]
        },
        {
            "positions": [
                2.132752015067737,
                -1.8945798353997172,
                -2.559376771144489,
                -0.6685718685492033,
                -0.8965986983883876,
                2.4556434426805023
            ]
        },
        {
            "positions": [
                2.176771783105745,
                -1.9188792834395831,
                -2.4839979708997997,
                -0.8158634456870789,
                -0.86145912482479,
                2.5131188543691105
            ]
        },
        {
            "positions": [
                2.220791551143754,
                -1.943178731479449,
                -2.4086191706551103,
                -0.9631550228249546,
                -0.8263195512611926,
                2.5705942660577183
            ]
        },
        {
            "positions": [
                2.2648113191817623,
                -1.9674781795193148,
                -2.333240370410421,
                -1.1104465999628301,
                -0.7911799776975952,
                2.6280696777463266
            ]
        },
        {
            "positions": [
                2.3088310872197706,
                -1.9917776275591808,
                -2.2578615701657316,
                -1.257738177100706,
                -0.7560404041339978,
                2.6855450894349344
            ]
        },
        {
            "positions": [
                2.352850855257779,
                -2.0160770755990467,
                -2.182482769921042,
                -1.4050297542385817,
                -0.7209008305704003,
                2.7430205011235422
            ]
        },
        {
            "positions": [
                2.3968706232957873,
                -2.0403765236389124,
                -2.1071039696763525,
                -1.5523213313764572,
                -0.6857612570068029,
                2.8004959128121505
            ]
        },
        {
            "positions": [
                2.440890391333796,
                -2.0646759716787786,
                -2.031725169431663,
                -1.6996129085143328,
                -0.6506216834432055,
                2.8579713245007583
            ]
        },
        {
            "positions": [
                2.4849101593718044,
                -2.0889754197186443,
                -1.9563463691869738,
                -1.8469044856522085,
                -0.6154821098796079,
                2.9154467361893666
            ]
        },
        {
            "positions": [
                2.5289299274098127,
                -2.11327486775851,
                -1.8809675689422842,
                -1.9941960627900843,
                -0.5803425363160106,
                2.9729221478779744
            ]
        },
        {
            "positions": [
                2.5729496954478215,
                -2.1375743157983758,
                -1.8055887686975949,
                -2.1414876399279597,
                -0.5452029627524131,
                3.030397559566582
            ]
        },
        {
            "positions": [
                2.61696946348583,
                -2.161873763838242,
                -1.7302099684529053,
                -2.2887792170658354,
                -0.5100633891888157,
                3.08787297125519
            ]
        },
        {
            "positions": [
                2.660989231523838,
                -2.1861732118781076,
                -1.654831168208216,
                -2.436070794203711,
                -0.47492381562521824,
                3.1453483829437983
            ]
        }
    ]
}