{
    "goal": {
        "global_pose": {
            "orientation": {
                "w": 0.5084816217422485,
                "x": -0.49083608388900757,
                "y": 0.5182115435600281,
                "z": -0.4816462993621826
            },
            "position": {
                "x": 0.5540239810943604,
                "y": 0.030875300988554955,
                "z": 0.16403168439865112
            }
        },
        "name": "move_to_storage_A"
    },
    "id": "LBKPIECE_move_to_storage_A_60",
    "joint_names": [
        "shoulder_pan_joint",
        "shoulder_lift_joint",
        "elbow_joint",
        "wrist_1_joint",
        "wrist_2_joint",
        "wrist_3_joint"
    ],
    "metrics": {
        "cart_traj_len": 0.35339535418606166,
        "distance_elbow_joint": 0.4502364699466197,
        "distance_shoulder_lift_joint": 0.23323854038902425,
        "distance_shoulder_pan_joint": 0.46219975779711236,
        "distance_wrist_1_joint": 0.2506158526679657,
        "distance_wrist_2_joint": 1.0979979010020264,
        "distance_wrist_3_joint": 0.10893162891699903,
        "smoothness": 6.661338200497456e-16,
        "time": 0.456875953,
        "traj_len": 1.6134497670270829,
        "weighted_distance": 2.0419836341713755
    },
    "planner": "LBKPIECE",
    "start": {
        "state": {
            "elbow_joint": 1.9715463870305268,
            "shoulder_lift_joint": -1.1394903361783484,
            "shoulder_pan_joint": 0.12281147578464417,
            "wrist_1_joint": -0.7804599489681411,
            "wrist_2_joint": 0.12958660307563738,
            "wrist_3_joint": -3.1924946282119055
        }
    },
    "waypoints": [
        {
            "positions": [
                0.12281147578464417,
                -1.1394903361783484,
                1.9715463870305268,
                -0.7804599489681411,
                0.12958660307563738,
                -3.1924946282119055
            ]
        },
        {
            "positions": [
                0.05678293895648527,
                -1.1728101276624947,
                2.0358658827371867,
                -0.8162622136349933,
                0.28644344607592687,
                -3.1769329669380486
            ]
        },
        {
            "positions": [
                -0.00924559787167363,
                -1.206129919146641,
                2.1001853784438467,
                -0.8520644783018456,
                0.4433002890762163,
                -3.1613713056641917
            ]
        },
        {
            "positions": [
                -0.07527413469983253,
                -1.2394497106307873,
                2.1645048741505066,
                -0.8878667429686978,
                0.6001571320765058,
                -3.1458096443903347
            ]
        },
        {
            "positions": [
                -0.14130267152799142,
                -1.2727695021149337,
                2.2288243698571666,
                -0.92366900763555,
                0.7570139750767954,
                -3.1302479831164773
            ]
        },
        {
            "positions": [
                -0.20733120835615038,
                -1.30608929359908,
                2.2931438655638265,
                -0.9594712723024024,
                0.9138708180770849,
                -3.1146863218426204
            ]
        },
        {
            "positions": [
                -0.2733597451843092,
                -1.3394090850832263,
                2.3574633612704865,
                -0.9952735369692545,
                1.0707276610773742,
                -3.0991246605687635
            ]
        },
        {
            "positions": [
                -0.3393882820124682,
                -1.3727288765673726,
                2.4217828569771465,
                -1.0310758016361068,
                1.2275845040776638,
                -3.0835629992949065
            ]
        }
    ]
}