{
    "goal": {
        "global_pose": {
            "orientation": {
                "w": -0.00223480608172531,
                "x": 0.0024358444001904467,
                "y": 0.7094548369677653,
                "z": -0.704743149386269
            },
            "position": {
                "x": 0.6205249238014221,
                "y": -0.6371506643295288,
                "z": 0.19426114857196808
            }
        },
        "name": "move_to_magneteinheit_B"
    },
    "id": "LBKPIECE_move_to_magneteinheit_B_73",
    "joint_names": [
        "shoulder_pan_joint",
        "shoulder_lift_joint",
        "elbow_joint",
        "wrist_1_joint",
        "wrist_2_joint",
        "wrist_3_joint"
    ],
    "metrics": {
        "cart_traj_len": 3.774140713424847,
        "distance_elbow_joint": 4.698245563733156,
        "distance_shoulder_lift_joint": 0.7072826672886263,
        "distance_shoulder_pan_joint": 2.768608657864245,
        "distance_wrist_1_joint": 2.0565650169680656,
        "distance_wrist_2_joint": 3.5447043138132868,
        "distance_wrist_3_joint": 3.2624422047506645,
        "smoothness": 0.37629776054814795,
        "time": 0.733036649,
        "traj_len": 4.127692869439058,
        "weighted_distance": 5.40037055809143
    },
    "planner": "LBKPIECE",
    "start": {
        "state": {
            "elbow_joint": 2.39358713078474,
            "shoulder_lift_joint": -1.908514104345545,
            "shoulder_pan_joint": 0.7066247066606129,
            "wrist_1_joint": -0.4678290933515497,
            "wrist_2_joint": 0.7096259083745334,
            "wrist_3_joint": -3.1358149277392293
        }
    },
    "waypoints": [
        {
            "positions": [
                0.7066247066606129,
                -1.908514104345545,
                2.39358713078474,
                -0.4678290933515497,
                0.7096259083745334,
                -3.1358149277392293
            ]
        },
        {
            "positions": [
                0.6291913210537653,
                -1.894001443730346,
                2.37504689167626,
                -0.4091431544660633,
                0.6442107191455623,
                -3.0609937695105485
            ]
        },
        {
            "positions": [
                0.5517579354469175,
                -1.8794887831151472,
                2.3565066525677802,
                -0.3504572155805769,
                0.5787955299165912,
                -2.9861726112818676
            ]
        },
        {
            "positions": [
                0.4743245498400699,
                -1.8649761224999484,
                2.3379664134593003,
                -0.2917712766950905,
                0.5133803406876201,
                -2.9113514530531868
            ]
        },
        {
            "positions": [
                0.4679799880137267,
                -1.8566906159080812,
                2.18484483578218,
                -0.3181694844239241,
                0.43563245834464037,
                -2.8041944627717728
            ]
        },
        {
            "positions": [
                0.46163542618738346,
                -1.8484051093162137,
                2.0317232581050595,
                -0.34456769215275773,
                0.3578845760016606,
                -2.6970374724903587
            ]
        },
        {
            "positions": [
                0.45529086436104027,
                -1.8401196027243465,
                1.8786016804279388,
                -0.37096589988159134,
                0.2801366936586809,
                -2.5898804822089447
            ]
        },
        {
            "positions": [
                0.5256445802484078,
                -1.8400393193606874,
                1.715366503287977,
                -0.3818597852939564,
                0.21060544746270304,
                -2.517410554834116
            ]
        },
        {
            "positions": [
                0.5959982961357752,
                -1.8399590359970286,
                1.552131326148015,
                -0.3927536707063215,
                0.14107420126672524,
                -2.4449406274592875
            ]
        },
        {
            "positions": [
                0.6663520120231425,
                -1.8398787526333695,
                1.3888961490080531,
                -0.4036475561186866,
                0.07154295507074743,
                -2.3724707000844587
            ]
        },
        {
            "positions": [
                0.73670572791051,
                -1.8397984692697105,
                1.2256609718680913,
                -0.41454144153105166,
                0.002011708874769591,
                -2.30000077270963
            ]
        },
        {
            "positions": [
                0.8070594437978775,
                -1.8397181859060514,
                1.0624257947281293,
                -0.42543532694341674,
                -0.06751953732120825,
                -2.2275308453348015
            ]
        },
        {
            "positions": [
                0.8774131596852449,
                -1.8396379025423926,
                0.8991906175881674,
                -0.4363292123557818,
                -0.13705078351718603,
                -2.1550609179599727
            ]
        },
        {
            "positions": [
                0.9477668755726123,
                -1.8395576191787335,
                0.7359554404482056,
                -0.4472230977681469,
                -0.20658202971316386,
                -2.082590990585144
            ]
        },
        {
            "positions": [
                1.0181205914599798,
                -1.8394773358150744,
                0.5727202633082438,
                -0.45811698318051197,
                -0.2761132759091417,
                -2.010121063210315
            ]
        },
        {
            "positions": [
                1.0884743073473473,
                -1.8393970524514156,
                0.4094850861682817,
                -0.46901086859287705,
                -0.34564452210511953,
                -1.9376511358354866
            ]
        },
        {
            "positions": [
                1.1588280232347148,
                -1.8393167690877565,
                0.2462499090283199,
                -0.47990475400524213,
                -0.41517576830109737,
                -1.8651812084606578
            ]
        },
        {
            "positions": [
                1.2291817391220823,
                -1.8392364857240975,
                0.08301473188835784,
                -0.49079863941760726,
                -0.4847070144970752,
                -1.792711281085829
            ]
        },
        {
            "positions": [
                1.2995354550094496,
                -1.8391562023604384,
                -0.08022044525160399,
                -0.5016925248299723,
                -0.5542382606930529,
                -1.7202413537110006
            ]
        },
        {
            "positions": [
                1.369889170896817,
                -1.8390759189967796,
                -0.24345562239156604,
                -0.5125864102423374,
                -0.6237695068890309,
                -1.6477714263361718
            ]
        },
        {
            "positions": [
                1.4402428867841843,
                -1.8389956356331205,
                -0.40669079953152765,
                -0.5234802956547024,
                -0.6933007530850086,
                -1.5753014989613432
            ]
        },
        {
            "positions": [
                1.510596602671552,
                -1.8389153522694615,
                -0.5699259766714897,
                -0.5343741810670676,
                -0.7628319992809864,
                -1.5028315715865144
            ]
        },
        {
            "positions": [
                1.5809503185589193,
                -1.8388350689058026,
                -0.7331611538114513,
                -0.5452680664794326,
                -0.8323632454769643,
                -1.4303616442116858
            ]
        },
        {
            "positions": [
                1.6513040344462868,
                -1.8387547855421436,
                -0.8963963309514134,
                -0.5561619518917977,
                -0.9018944916729421,
                -1.357891716836857
            ]
        },
        {
            "positions": [
                1.721657750333654,
                -1.8386745021784845,
                -1.0596315080913754,
                -0.5670558373041628,
                -0.97142573786892,
                -1.2854217894620283
            ]
        },
        {
            "positions": [
                1.7920114662210218,
                -1.8385942188148254,
                -1.2228666852313375,
                -0.5779497227165279,
                -1.0409569840648978,
                -1.2129518620871997
            ]
        },
        {
            "positions": [
                1.862365182108389,
                -1.8385139354511666,
                -1.386101862371299,
                -0.5888436081288929,
                -1.1104882302608756,
                -1.1404819347123711
            ]
        },
        {
            "positions": [
                1.9327188979957566,
                -1.8384336520875075,
                -1.5493370395112613,
                -0.599737493541258,
                -1.1800194764568535,
                -1.0680120073375423
            ]
        },
        {
            "positions": [
                2.0203520105610053,
                -1.871264927462837,
                -1.6101784556030214,
                -0.5190933141718457,
                -1.1274228542923628,
                -1.0168714565425967
            ]
        },
        {
            "positions": [
                2.077235348619562,
                -1.9006654913707632,
                -1.6372392029362905,
                -0.4354268254450928,
                -1.0155864463534583,
                -0.938936474665549
            ]
        },
        {
            "positions": [
                2.1341186866781188,
                -1.9300660552786897,
                -1.6642999502695597,
                -0.35176033671833995,
                -0.9037500384145539,
                -0.8610014927885011
            ]
        },
        {
            "positions": [
                2.1910020247366755,
                -1.9594666191866161,
                -1.6913606976028288,
                -0.26809384799158703,
                -0.7919136304756494,
                -0.7830665109114534
            ]
        },
        {
            "positions": [
                2.2478853627952318,
                -1.9888671830945424,
                -1.718421444936098,
                -0.18442735926483417,
                -0.6800772225367451,
                -0.7051315290344056
            ]
        },
        {
            "positions": [
                2.3047687008537885,
                -2.0182677470024686,
                -1.745482192269367,
                -0.10076087053808125,
                -0.5682408145978405,
                -0.6271965471573578
            ]
        },
        {
            "positions": [
                2.361652038912345,
                -2.047668310910395,
                -1.7725429396026362,
                -0.017094381811328385,
                -0.4564044066589361,
                -0.5492615652803101
            ]
        },
        {
            "positions": [
                2.418535376970902,
                -2.0770688748183215,
                -1.7996036869359053,
                0.06657210691542448,
                -0.34456799872003163,
                -0.4713265834032623
            ]
        },
        {
            "positions": [
                2.4754187150294586,
                -2.106469438726248,
                -1.8266644342691745,
                0.15023859564217734,
                -0.23273159078112726,
                -0.39339160152621455
            ]
        },
        {
            "positions": [
                2.5323020530880154,
                -2.135870002634174,
                -1.8537251816024438,
                0.23390508436893032,
                -0.12089518284222267,
                -0.3154566196491667
            ]
        },
        {
            "positions": [
                2.5891853911465716,
                -2.1652705665421004,
                -1.880785928935713,
                0.3175715730956832,
                -0.00905877490331819,
                -0.237521637772119
            ]
        },
        {
            "positions": [
                2.646068729205129,
                -2.194671130450027,
                -1.907846676268982,
                0.40123806182243593,
                0.10277763303558607,
                -0.15958665589507115
            ]
        },
        {
            "positions": [
                2.702952067263685,
                -2.224071694357953,
                -1.9349074236022512,
                0.4849045505491889,
                0.21461404097449055,
                -0.08165167401802342
            ]
        },
        {
            "positions": [
                2.759835405322242,
                -2.2534722582658793,
                -1.9619681709355203,
                0.5685710392759418,
                0.32645044891339503,
                -0.003716692140975697
            ]
        },
        {
            "positions": [
                2.8167187433807985,
                -2.2828728221738057,
                -1.9890289182687895,
                0.6522375280026946,
                0.43828685685229957,
                0.07421828973607203
            ]
        },
        {
            "positions": [
                2.764769764532494,
                -2.3471271704885694,
                -1.883819080042249,
                0.7590928486431902,
                0.4505377220765487,
                0.056748627310950275
            ]
        },
        {
            "positions": [
                2.712820785684189,
                -2.4113815188033327,
                -1.7786092418157087,
                0.8659481692836856,
                0.4627885873007978,
                0.03927896488582852
            ]
        },
        {
            "positions": [
                2.6608718068358845,
                -2.4756358671180965,
                -1.6733994035891682,
                0.9728034899241811,
                0.4750394525250469,
                0.02180930246070677
            ]
        }
    ]
}