{
    "goal": {
        "global_pose": {
            "orientation": {
                "w": -0.00223480608172531,
                "x": 0.0024358444001904467,
                "y": 0.7094548369677653,
                "z": -0.704743149386269
            },
            "position": {
                "x": 0.6205249238014221,
                "y": -0.6371506643295288,
                "z": 0.19426114857196808
            }
        },
        "name": "move_to_magneteinheit_B"
    },
    "id": "LBKPIECE_move_to_magneteinheit_B_91",
    "joint_names": [
        "shoulder_pan_joint",
        "shoulder_lift_joint",
        "elbow_joint",
        "wrist_1_joint",
        "wrist_2_joint",
        "wrist_3_joint"
    ],
    "metrics": {
        "cart_traj_len": 4.379793399244811,
        "distance_elbow_joint": 4.37061240016304,
        "distance_shoulder_lift_joint": 1.5724464926484072,
        "distance_shoulder_pan_joint": 3.4906114127324037,
        "distance_wrist_1_joint": 4.105703213132039,
        "distance_wrist_2_joint": 1.5631099300333462,
        "distance_wrist_3_joint": 6.264823768695105,
        "smoothness": 0.23556597257338624,
        "time": 0.5335004919999999,
        "traj_len": 4.622478471275375,
        "weighted_distance": 6.290132581906358
    },
    "planner": "LBKPIECE",
    "start": {
        "state": {
            "elbow_joint": 2.39358713078474,
            "shoulder_lift_joint": -1.908514104345545,
            "shoulder_pan_joint": 0.7066247066606129,
            "wrist_1_joint": -0.4678290933515497,
            "wrist_2_joint": 0.7096259083745334,
            "wrist_3_joint": -3.1358149277392293
        }
    },
    "waypoints": [
        {
            "positions": [
                0.7066247066606129,
                -1.908514104345545,
                2.39358713078474,
                -0.4678290933515497,
                0.7096259083745334,
                -3.1358149277392293
            ]
        },
        {
            "positions": [
                0.6289290647470427,
                -1.8736406552587177,
                2.3547275050381478,
                -0.3868748397856455,
                0.641253587663821,
                -3.057067875645718
            ]
        },
        {
            "positions": [
                0.5512334228334724,
                -1.8387672061718905,
                2.3158678792915555,
                -0.3059205862197414,
                0.5728812669531085,
                -2.978320823552207
            ]
        },
        {
            "positions": [
                0.4735377809199022,
                -1.8038937570850633,
                2.2770082535449627,
                -0.2249663326538372,
                0.5045089462423962,
                -2.899573771458696
            ]
        },
        {
            "positions": [
                0.3958421390063319,
                -1.769020307998236,
                2.2381486277983704,
                -0.14401207908793306,
                0.43613662553168364,
                -2.820826719365185
            ]
        },
        {
            "positions": [
                0.31814649709276166,
                -1.7341468589114089,
                2.199289002051778,
                -0.06305782552202882,
                0.3677643048209712,
                -2.742079667271674
            ]
        },
        {
            "positions": [
                0.2404508551791914,
                -1.6992734098245816,
                2.160429376305186,
                0.017896428043875312,
                0.2993919841102588,
                -2.6633326151781627
            ]
        },
        {
            "positions": [
                0.16275521326562115,
                -1.6643999607377544,
                2.121569750558593,
                0.09885068160977944,
                0.23101966339954633,
                -2.5845855630846515
            ]
        },
        {
            "positions": [
                0.08505957135205089,
                -1.6295265116509272,
                2.082710124812001,
                0.17980493517568358,
                0.16264734268883385,
                -2.5058385109911407
            ]
        },
        {
            "positions": [
                0.007363929438480604,
                -1.5946530625641,
                2.0438504990654085,
                0.2607591887415879,
                0.09427502197812145,
                -2.4270914588976296
            ]
        },
        {
            "positions": [
                0.0018909802090423707,
                -1.5468634446604865,
                1.9151181941345503,
                0.3089908092131391,
                0.10416105470296191,
                -2.305330029032565
            ]
        },
        {
            "positions": [
                -0.003581969020395863,
                -1.4990738267568728,
                1.7863858892036921,
                0.3572224296846903,
                0.1140470874278024,
                -2.1835685991675002
            ]
        },
        {
            "positions": [
                -0.009054918249834096,
                -1.4512842088532594,
                1.6576535842728337,
                0.4054540501562415,
                0.12393312015264288,
                -2.0618071693024356
            ]
        },
        {
            "positions": [
                -0.01452786747927233,
                -1.4034945909496457,
                1.5289212793419755,
                0.4536856706277927,
                0.13381915287748336,
                -1.9400457394373707
            ]
        },
        {
            "positions": [
                -0.020000816708710567,
                -1.3557049730460322,
                1.4001889744111171,
                0.5019172910993439,
                0.14370518560232381,
                -1.8182843095723058
            ]
        },
        {
            "positions": [
                -0.025473765938148797,
                -1.3079153551424185,
                1.271456669480259,
                0.5501489115708951,
                0.1535912183271643,
                -1.6965228797072411
            ]
        },
        {
            "positions": [
                -0.030946715167587034,
                -1.260125737238805,
                1.1427243645494007,
                0.5983805320424463,
                0.16347725105200478,
                -1.5747614498421765
            ]
        },
        {
            "positions": [
                0.04352770068721252,
                -1.2661328252827921,
                1.0500686035619584,
                0.531284273186471,
                0.14464648779245337,
                -1.4438802677530198
            ]
        },
        {
            "positions": [
                0.11800211654201206,
                -1.2721399133267792,
                0.9574128425745161,
                0.46418801433049567,
                0.125815724532902,
                -1.3129990856638631
            ]
        },
        {
            "positions": [
                0.19247653239681162,
                -1.2781470013707665,
                0.8647570815870738,
                0.39709175547452036,
                0.1069849612733506,
                -1.1821179035747065
            ]
        },
        {
            "positions": [
                0.2669509482516112,
                -1.2841540894147536,
                0.7721013205996315,
                0.329995496618545,
                0.0881541980137992,
                -1.0512367214855496
            ]
        },
        {
            "positions": [
                0.3414253641064108,
                -1.2901611774587407,
                0.6794455596121892,
                0.2628992377625696,
                0.06932343475424779,
                -0.9203555393963929
            ]
        },
        {
            "positions": [
                0.4158997799612103,
                -1.2961682655027278,
                0.5867897986247469,
                0.19580297890659432,
                0.05049267149469641,
                -0.7894743573072363
            ]
        },
        {
            "positions": [
                0.4903741958160099,
                -1.3021753535467149,
                0.49413403763730457,
                0.12870672005061895,
                0.031661908235145,
                -0.6585931752180795
            ]
        },
        {
            "positions": [
                0.5648486116708094,
                -1.308182441590702,
                0.40147827664986235,
                0.06161046119464364,
                0.012831144975593622,
                -0.5277119931289227
            ]
        },
        {
            "positions": [
                0.6393230275256089,
                -1.3141895296346893,
                0.30882251566242,
                -0.005485797661331726,
                -0.005999618283957786,
                -0.39683081103976603
            ]
        },
        {
            "positions": [
                0.7137974433804085,
                -1.3201966176786764,
                0.2161667546749777,
                -0.07258205651730709,
                -0.024830381543509195,
                -0.26594962895060936
            ]
        },
        {
            "positions": [
                0.7882718592352079,
                -1.3262037057226634,
                0.12351099368753538,
                -0.13967831537328235,
                -0.04366114480306055,
                -0.1350684468614527
            ]
        },
        {
            "positions": [
                0.8627462750900076,
                -1.3322107937666505,
                0.03085523270009305,
                -0.2067745742292577,
                -0.062491908062611956,
                -0.004187264772296029
            ]
        },
        {
            "positions": [
                0.9372206909448071,
                -1.3382178818106376,
                -0.06180052828734928,
                -0.2738708330852331,
                -0.08132267132216336,
                0.12669391731686086
            ]
        },
        {
            "positions": [
                1.0116951067996067,
                -1.3442249698546247,
                -0.1544562892747916,
                -0.34096709194120844,
                -0.10015343458171477,
                0.2575750994060175
            ]
        },
        {
            "positions": [
                1.0861695226544064,
                -1.350232057898612,
                -0.24711205026223393,
                -0.4080633507971839,
                -0.11898419784126618,
                0.3884562814951744
            ]
        },
        {
            "positions": [
                1.1606439385092058,
                -1.356239145942599,
                -0.33976781124967603,
                -0.47515960965315907,
                -0.13781496110081753,
                0.5193374635843311
            ]
        },
        {
            "positions": [
                1.2351183543640052,
                -1.3622462339865862,
                -0.43242357223711836,
                -0.5422558685091344,
                -0.1566457243603689,
                0.6502186456734873
            ]
        },
        {
            "positions": [
                1.3095927702188048,
                -1.3682533220305733,
                -0.5250793332245607,
                -0.6093521273651098,
                -0.17547648761992035,
                0.7810998277626444
            ]
        },
        {
            "positions": [
                1.3840671860736045,
                -1.3742604100745603,
                -0.617735094212003,
                -0.6764483862210852,
                -0.1943072508794717,
                0.9119810098518011
            ]
        },
        {
            "positions": [
                1.458541601928404,
                -1.3802674981185477,
                -0.7103908551994453,
                -0.7435446450770605,
                -0.21313801413902317,
                1.0428621919409578
            ]
        },
        {
            "positions": [
                1.5330160177832035,
                -1.3862745861625347,
                -0.8030466161868877,
                -0.8106409039330359,
                -0.23196877739857452,
                1.1737433740301144
            ]
        },
        {
            "positions": [
                1.607490433638003,
                -1.3922816742065218,
                -0.89570237717433,
                -0.877737162789011,
                -0.2507995406581259,
                1.304624556119271
            ]
        },
        {
            "positions": [
                1.6819648494928028,
                -1.398288762250509,
                -0.9883581381617721,
                -0.9448334216449866,
                -0.26963030391767734,
                1.4355057382084282
            ]
        },
        {
            "positions": [
                1.7564392653476022,
                -1.404295850294496,
                -1.0810138991492146,
                -1.0119296805009617,
                -0.2884610671772287,
                1.5663869202975844
            ]
        },
        {
            "positions": [
                1.8309136812024016,
                -1.410302938338483,
                -1.1736696601366567,
                -1.0790259393569372,
                -0.30729183043678004,
                1.697268102386741
            ]
        },
        {
            "positions": [
                1.9053880970572012,
                -1.4163100263824702,
                -1.2663254211240993,
                -1.1461221982129124,
                -0.3261225936963315,
                1.8281492844758982
            ]
        },
        {
            "positions": [
                1.9798625129120007,
                -1.4223171144264575,
                -1.3589811821115414,
                -1.213218457068888,
                -0.34495335695588286,
                1.9590304665650549
            ]
        },
        {
            "positions": [
                2.0543369287668005,
                -1.4283242024704446,
                -1.451636943098984,
                -1.2803147159248631,
                -0.3637841202154343,
                2.0899116486542115
            ]
        },
        {
            "positions": [
                2.1288113446216,
                -1.4343312905144316,
                -1.544292704086426,
                -1.3474109747808387,
                -0.3826148834749856,
                2.220792830743368
            ]
        },
        {
            "positions": [
                2.1991265501146358,
                -1.4713223204631654,
                -1.5782239652324281,
                -1.4540222092838169,
                -0.4091973328973116,
                2.2962672528282897
            ]
        },
        {
            "positions": [
                2.269441755607671,
                -1.508313350411899,
                -1.6121552263784305,
                -1.560633443786795,
                -0.43577978231963754,
                2.371741674913211
            ]
        },
        {
            "positions": [
                2.339756961100707,
                -1.5453043803606328,
                -1.6460864875244328,
                -1.6672446782897734,
                -0.4623622317419635,
                2.4472160969981327
            ]
        },
        {
            "positions": [
                2.410072166593743,
                -1.5822954103093667,
                -1.6800177486704349,
                -1.7738559127927516,
                -0.48894468116428946,
                2.5226905190830538
            ]
        },
        {
            "positions": [
                2.4803873720867786,
                -1.6192864402581004,
                -1.713949009816437,
                -1.8804671472957297,
                -0.5155271305866154,
                2.5981649411679753
            ]
        },
        {
            "positions": [
                2.5507025775798144,
                -1.6562774702068341,
                -1.7478802709624393,
                -1.987078381798708,
                -0.5421095800089414,
                2.6736393632528968
            ]
        },
        {
            "positions": [
                2.62101778307285,
                -1.6932685001555678,
                -1.7818115321084416,
                -2.0936896163016865,
                -0.5686920294312674,
                2.7491137853378182
            ]
        },
        {
            "positions": [
                2.6913329885658857,
                -1.7302595301043016,
                -1.8157427932544437,
                -2.2003008508046644,
                -0.5952744788535933,
                2.8245882074227397
            ]
        },
        {
            "positions": [
                2.683642916773203,
                -1.8437406132733443,
                -1.7754221742234797,
                -2.2605039020273976,
                -0.5653232076892301,
                2.900693365806024
            ]
        },
        {
            "positions": [
                2.67595284498052,
                -1.957221696442387,
                -1.7351015551925157,
                -2.3207069532501308,
                -0.5353719365248667,
                2.976798524189308
            ]
        },
        {
            "positions": [
                2.6682627731878372,
                -2.0707027796114295,
                -1.6947809361615518,
                -2.3809100044728644,
                -0.5054206653605035,
                3.052903682572592
            ]
        },
        {
            "positions": [
                2.6605727013951546,
                -2.1841838627804724,
                -1.6544603171305878,
                -2.4411130556955976,
                -0.47546939419614015,
                3.1290088409558763
            ]
        }
    ]
}