{
    "goal": {
        "global_pose": {
            "orientation": {
                "w": 0.5084816217422485,
                "x": -0.49083608388900757,
                "y": 0.5182115435600281,
                "z": -0.4816462993621826
            },
            "position": {
                "x": 0.5540239810943604,
                "y": 0.030875300988554955,
                "z": 0.16403168439865112
            }
        },
        "name": "move_to_storage_A"
    },
    "id": "LBKPIECE_move_to_storage_A_78",
    "joint_names": [
        "shoulder_pan_joint",
        "shoulder_lift_joint",
        "elbow_joint",
        "wrist_1_joint",
        "wrist_2_joint",
        "wrist_3_joint"
    ],
    "metrics": {
        "cart_traj_len": 0.3538003659483023,
        "distance_elbow_joint": 0.45223654921869105,
        "distance_shoulder_lift_joint": 0.23579659989329116,
        "distance_shoulder_pan_joint": 0.46527969789995344,
        "distance_wrist_1_joint": 0.2486066505082961,
        "distance_wrist_2_joint": 1.0898713142478151,
        "distance_wrist_3_joint": 0.10325488608356537,
        "smoothness": 1.1102230263833737e-15,
        "time": 0.175806439,
        "traj_len": 1.6109145532434712,
        "weighted_distance": 2.0347072110686724
    },
    "planner": "LBKPIECE",
    "start": {
        "state": {
            "elbow_joint": 1.9715463870305268,
            "shoulder_lift_joint": -1.1394903361783484,
            "shoulder_pan_joint": 0.12281147578464417,
            "wrist_1_joint": -0.7804599489681411,
            "wrist_2_joint": 0.12958660307563738,
            "wrist_3_joint": -3.1924946282119055
        }
    },
    "waypoints": [
        {
            "positions": [
                0.12281147578464417,
                -1.1394903361783484,
                1.9715463870305268,
                -0.7804599489681411,
                0.12958660307563738,
                -3.1924946282119055
            ]
        },
        {
            "positions": [
                0.05634294751322226,
                -1.1731755647345328,
                2.0361516083474824,
                -0.8159751847550405,
                0.28528250511103953,
                -3.1777439301999677
            ]
        },
        {
            "positions": [
                -0.010125580758199651,
                -1.2068607932907174,
                2.1007568296644386,
                -0.85149042054194,
                0.44097840714644165,
                -3.16299323218803
            ]
        },
        {
            "positions": [
                -0.07659410902962156,
                -1.2405460218469018,
                2.1653620509813942,
                -0.8870056563288394,
                0.5966743091818438,
                -3.148242534176092
            ]
        },
        {
            "positions": [
                -0.14306263730104346,
                -1.2742312504030862,
                2.2299672722983503,
                -0.9225208921157388,
                0.752370211217246,
                -3.1334918361641537
            ]
        },
        {
            "positions": [
                -0.20953116557246543,
                -1.3079164789592705,
                2.294572493615306,
                -0.9580361279026384,
                0.9080661132526482,
                -3.118741138152216
            ]
        },
        {
            "positions": [
                -0.2759996938438873,
                -1.3416017075154552,
                2.3591777149322617,
                -0.9935513636895377,
                1.0637620152880503,
                -3.103990440140278
            ]
        },
        {
            "positions": [
                -0.34246822211530925,
                -1.3752869360716395,
                2.423782936249218,
                -1.0290665994764372,
                1.2194579173234525,
                -3.08923974212834
            ]
        }
    ]
}