{
    "goal": {
        "global_pose": {
            "orientation": {
                "w": 0.7031023502349854,
                "x": -0.7110244035720825,
                "y": 0.007748599164187908,
                "z": 0.005598929710686207
            },
            "position": {
                "x": 0.11585023208521307,
                "y": 0.44412534475326537,
                "z": 0.3711530566215515
            }
        },
        "name": "move_to_auspresseinheit_A"
    },
    "id": "LBKPIECE_move_to_auspresseinheit_A_14",
    "joint_names": [
        "shoulder_pan_joint",
        "shoulder_lift_joint",
        "elbow_joint",
        "wrist_1_joint",
        "wrist_2_joint",
        "wrist_3_joint"
    ],
    "metrics": {
        "cart_traj_len": 1.7164205970728619,
        "distance_elbow_joint": 1.7006673217351156,
        "distance_shoulder_lift_joint": 1.2765133845928103,
        "distance_shoulder_pan_joint": 1.348829244522423,
        "distance_wrist_1_joint": 1.6985582522259146,
        "distance_wrist_2_joint": 0.5571024422322943,
        "distance_wrist_3_joint": 5.171616756894689,
        "smoothness": 0.6147155304865057,
        "time": 0.288861762,
        "traj_len": 3.4283067835599614,
        "weighted_distance": 4.934792965307748
    },
    "planner": "LBKPIECE",
    "start": {
        "state": {
            "elbow_joint": 2.422574709923281,
            "shoulder_lift_joint": -1.3736533754116391,
            "shoulder_pan_joint": -0.33786336945926293,
            "wrist_1_joint": -1.0288603412921917,
            "wrist_2_joint": 1.2330224858903978,
            "wrist_3_joint": -3.094022268022082
        }
    },
    "waypoints": [
        {
            "positions": [
                -0.33786336945926293,
                -1.3736533754116391,
                2.422574709923281,
                -1.0288603412921917,
                1.2330224858903978,
                -3.094022268022082
            ]
        },
        {
            "positions": [
                -0.2948939808714278,
                -1.4137535868655289,
                2.368448889625971,
                -0.9665586677687225,
                1.2003165305840418,
                -2.933543151136886
            ]
        },
        {
            "positions": [
                -0.25192459228359265,
                -1.4538537983194186,
                2.314323069328661,
                -0.9042569942452532,
                1.1676105752776857,
                -2.7730640342516892
            ]
        },
        {
            "positions": [
                -0.20895520369575754,
                -1.4939540097733084,
                2.260197249031351,
                -0.8419553207217839,
                1.1349046199713295,
                -2.612584917366493
            ]
        },
        {
            "positions": [
                -0.16598581510792243,
                -1.5340542212271981,
                2.206071428734041,
                -0.7796536471983146,
                1.1021986646649735,
                -2.452105800481297
            ]
        },
        {
            "positions": [
                -0.12301642652008732,
                -1.5741544326810881,
                2.151945608436731,
                -0.7173519736748455,
                1.0694927093586175,
                -2.2916266835961
            ]
        },
        {
            "positions": [
                -0.08004703793225215,
                -1.6142546441349779,
                2.097819788139421,
                -0.6550503001513761,
                1.0367867540522615,
                -2.131147566710904
            ]
        },
        {
            "positions": [
                -0.03707764934441704,
                -1.6543548555888676,
                2.043693967842111,
                -0.592748626627907,
                1.0040807987459055,
                -1.9706684498257074
            ]
        },
        {
            "positions": [
                0.00589173924341807,
                -1.6944550670427574,
                1.989568147544801,
                -0.5304469531044376,
                0.9713748434395494,
                -1.810189332940511
            ]
        },
        {
            "positions": [
                0.04886112783125318,
                -1.7345552784966471,
                1.935442327247491,
                -0.4681452795809684,
                0.9386688881331933,
                -1.6497102160553145
            ]
        },
        {
            "positions": [
                0.09183051641908829,
                -1.774655489950537,
                1.881316506950181,
                -0.40584360605749914,
                0.9059629328268373,
                -1.489231099170118
            ]
        },
        {
            "positions": [
                0.13479990500692346,
                -1.8147557014044269,
                1.827190686652871,
                -0.34354193253402987,
                0.8732569775204813,
                -1.3287519822849219
            ]
        },
        {
            "positions": [
                0.17776929359475863,
                -1.8548559128583166,
                1.773064866355561,
                -0.2812402590105606,
                0.8405510222141253,
                -1.1682728653997254
            ]
        },
        {
            "positions": [
                0.22073868218259368,
                -1.8949561243122064,
                1.718939046058251,
                -0.21893858548709133,
                0.8078450669077691,
                -1.007793748514529
            ]
        },
        {
            "positions": [
                0.26370807077042885,
                -1.9350563357660961,
                1.6648132257609412,
                -0.15663691196362206,
                0.7751391116014131,
                -0.8473146316293327
            ]
        },
        {
            "positions": [
                0.3066774593582639,
                -1.975156547219986,
                1.610687405463631,
                -0.09433523844015279,
                0.742433156295057,
                -0.6868355147441361
            ]
        },
        {
            "positions": [
                0.349646847946099,
                -2.0152567586738757,
                1.556561585166321,
                -0.032033564916683535,
                0.709727200988701,
                -0.5263563978589396
            ]
        },
        {
            "positions": [
                0.4515927491104329,
                -2.067972942110076,
                1.6604557649640117,
                -0.005033692397149403,
                0.7130839505845753,
                -0.6227814809310528
            ]
        },
        {
            "positions": [
                0.5535386502747668,
                -2.1206891255462765,
                1.7643499447617024,
                0.02196618012238473,
                0.7164407001804497,
                -0.7192065640031661
            ]
        },
        {
            "positions": [
                0.6554845514391008,
                -2.1734053089824767,
                1.8682441245593933,
                0.04896605264191885,
                0.719797449776324,
                -0.8156316470752792
            ]
        },
        {
            "positions": [
                0.7574304526034347,
                -2.2261214924186774,
                1.972138304357084,
                0.075965925161453,
                0.7231541993721984,
                -0.9120567301473925
            ]
        },
        {
            "positions": [
                0.8593763537677686,
                -2.2788376758548776,
                2.0760324841547746,
                0.10296579768098711,
                0.7265109489680727,
                -1.0084818132195057
            ]
        },
        {
            "positions": [
                0.8518960527756715,
                -2.2432608314337616,
                2.1193359767501483,
                0.043244445295440054,
                0.7267268174606808,
                -1.2414635932866742
            ]
        },
        {
            "positions": [
                0.8444157517835745,
                -2.2076839870126457,
                2.162639469345522,
                -0.016476907090107004,
                0.7269426859532888,
                -1.4744453733538427
            ]
        },
        {
            "positions": [
                0.8369354507914775,
                -2.17210714259153,
                2.2059429619408957,
                -0.07619825947565408,
                0.7271585544458969,
                -1.7074271534210113
            ]
        },
        {
            "positions": [
                0.8294551497993804,
                -2.136530298170414,
                2.2492464545362694,
                -0.1359196118612011,
                0.7273744229385051,
                -1.9404089334881798
            ]
        },
        {
            "positions": [
                0.8219748488072834,
                -2.100953453749298,
                2.292549947131643,
                -0.1956409642467482,
                0.7275902914311131,
                -2.1733907135553485
            ]
        },
        {
            "positions": [
                0.8144945478151864,
                -2.0653766093281822,
                2.3358534397270168,
                -0.25536231663229525,
                0.7278061599237212,
                -2.406372493622517
            ]
        },
        {
            "positions": [
                0.7878176189794841,
                -2.025909604922463,
                2.349694025331382,
                -0.3074633163671585,
                0.7238741103248268,
                -2.5873561913645093
            ]
        },
        {
            "positions": [
                0.7611406901437818,
                -1.9864426005167442,
                2.363534610935747,
                -0.35956431610202183,
                0.7199420607259326,
                -2.7683398891065023
            ]
        },
        {
            "positions": [
                0.7344637613080794,
                -1.9469755961110249,
                2.3773751965401115,
                -0.41166531583688515,
                0.7160100111270382,
                -2.949323586848495
            ]
        },
        {
            "positions": [
                0.7077868324723772,
                -1.9075085917053058,
                2.3912157821444766,
                -0.4637663155717484,
                0.7120779615281438,
                -3.1303072845904873
            ]
        }
    ]
}