{
    "goal": {
        "global_pose": {
            "orientation": {
                "w": 0.7031023502349854,
                "x": -0.7110244035720825,
                "y": 0.007748599164187908,
                "z": 0.005598929710686207
            },
            "position": {
                "x": 0.11585023208521307,
                "y": 0.44412534475326537,
                "z": 0.3711530566215515
            }
        },
        "name": "move_to_auspresseinheit_A"
    },
    "id": "LBKPIECE_move_to_auspresseinheit_A_88",
    "joint_names": [
        "shoulder_pan_joint",
        "shoulder_lift_joint",
        "elbow_joint",
        "wrist_1_joint",
        "wrist_2_joint",
        "wrist_3_joint"
    ],
    "metrics": {
        "cart_traj_len": 2.1793635507780826,
        "distance_elbow_joint": 2.5734560368430683,
        "distance_shoulder_lift_joint": 0.9658140621836127,
        "distance_shoulder_pan_joint": 2.1245467326458,
        "distance_wrist_1_joint": 1.410784423465247,
        "distance_wrist_2_joint": 1.7492090850208517,
        "distance_wrist_3_joint": 3.9206534181905823,
        "smoothness": 0.7649570007675618,
        "time": 0.231505928,
        "traj_len": 3.569938901206737,
        "weighted_distance": 4.872962559184755
    },
    "planner": "LBKPIECE",
    "start": {
        "state": {
            "elbow_joint": 2.422574709923281,
            "shoulder_lift_joint": -1.3736533754116391,
            "shoulder_pan_joint": -0.33786336945926293,
            "wrist_1_joint": -1.0288603412921917,
            "wrist_2_joint": 1.2330224858903978,
            "wrist_3_joint": -3.094022268022082
        }
    },
    "waypoints": [
        {
            "positions": [
                -0.33786336945926293,
                -1.3736533754116391,
                2.422574709923281,
                -1.0288603412921917,
                1.2330224858903978,
                -3.094022268022082
            ]
        },
        {
            "positions": [
                -0.3399398927997677,
                -1.3855354582015451,
                2.4264141654637994,
                -0.9787230636730696,
                1.1401997088040594,
                -3.0659633445206946
            ]
        },
        {
            "positions": [
                -0.2891050354811989,
                -1.4045667827234398,
                2.346338525393995,
                -0.9121416905334491,
                1.0948339288265265,
                -2.9413929629916282
            ]
        },
        {
            "positions": [
                -0.23827017816263008,
                -1.4235981072453343,
                2.26626288532419,
                -0.8455603173938285,
                1.0494681488489939,
                -2.8168225814625623
            ]
        },
        {
            "positions": [
                -0.18743532084406128,
                -1.442629431767229,
                2.1861872452543856,
                -0.778978944254208,
                1.004102368871461,
                -2.6922521999334963
            ]
        },
        {
            "positions": [
                -0.13660046352549246,
                -1.4616607562891237,
                2.106111605184581,
                -0.7123975711145875,
                0.9587365888939283,
                -2.56768181840443
            ]
        },
        {
            "positions": [
                -0.08576560620692364,
                -1.4806920808110184,
                2.026035965114777,
                -0.6458161979749669,
                0.9133708089163954,
                -2.4431114368753635
            ]
        },
        {
            "positions": [
                -0.034930748888354846,
                -1.499723405332913,
                1.9459603250449722,
                -0.5792348248353464,
                0.8680050289388628,
                -2.3185410553462975
            ]
        },
        {
            "positions": [
                0.015904108430214003,
                -1.5187547298548076,
                1.8658846849751676,
                -0.5126534516957258,
                0.8226392489613299,
                -2.1939706738172315
            ]
        },
        {
            "positions": [
                0.0667389657487828,
                -1.5377860543767023,
                1.785809044905363,
                -0.4460720785561053,
                0.7772734689837972,
                -2.069400292288165
            ]
        },
        {
            "positions": [
                0.11757382306735165,
                -1.556817378898597,
                1.7057334048355584,
                -0.3794907054164848,
                0.7319076890062644,
                -1.944829910759099
            ]
        },
        {
            "positions": [
                0.16840868038592044,
                -1.5758487034204915,
                1.6256577647657537,
                -0.31290933227686424,
                0.6865419090287316,
                -1.8202595292300328
            ]
        },
        {
            "positions": [
                0.2192435377044893,
                -1.5948800279423863,
                1.5455821246959491,
                -0.2463279591372437,
                0.6411761290511988,
                -1.6956891477009666
            ]
        },
        {
            "positions": [
                0.270078395023058,
                -1.6139113524642807,
                1.4655064846261447,
                -0.17974658599762317,
                0.595810349073666,
                -1.5711187661719004
            ]
        },
        {
            "positions": [
                0.3209132523416269,
                -1.6329426769861755,
                1.3854308445563401,
                -0.11316521285800263,
                0.5504445690961333,
                -1.4465483846428342
            ]
        },
        {
            "positions": [
                0.3717481096601957,
                -1.6519740015080702,
                1.3053552044865355,
                -0.04658383971838205,
                0.5050787891186005,
                -1.321978003113768
            ]
        },
        {
            "positions": [
                0.4774923372949834,
                -1.7192087446409172,
                1.4033255608577513,
                -0.05630342261408056,
                0.5761187393370251,
                -1.2879239242283356
            ]
        },
        {
            "positions": [
                0.5832365649297712,
                -1.786443487773764,
                1.5012959172289673,
                -0.06602300550977908,
                0.6471586895554496,
                -1.2538698453429031
            ]
        },
        {
            "positions": [
                0.6889807925645588,
                -1.853678230906611,
                1.599266273600183,
                -0.07574258840547758,
                0.7181986397738742,
                -1.219815766457471
            ]
        },
        {
            "positions": [
                0.7947250201993465,
                -1.920912974039458,
                1.6972366299713988,
                -0.0854621713011761,
                0.7892385899922988,
                -1.1857616875720385
            ]
        },
        {
            "positions": [
                0.9004692478341342,
                -1.988147717172305,
                1.7952069863426146,
                -0.09518175419687461,
                0.8602785402107234,
                -1.151707608686606
            ]
        },
        {
            "positions": [
                0.9436099913181346,
                -2.005132870762201,
                1.8926012154682093,
                -0.10892541398830007,
                0.893000743876527,
                -1.3202529251392936
            ]
        },
        {
            "positions": [
                0.986750734802135,
                -2.022118024352097,
                1.989995444593804,
                -0.12266907377972552,
                0.9257229475423305,
                -1.4887982415919812
            ]
        },
        {
            "positions": [
                1.0298914782861355,
                -2.039103177941993,
                2.0873896737193984,
                -0.13641273357115097,
                0.958445151208134,
                -1.6573435580446687
            ]
        },
        {
            "positions": [
                1.073032221770136,
                -2.056088331531889,
                2.1847839028449934,
                -0.1501563933625764,
                0.9911673548739376,
                -1.8258888744973563
            ]
        },
        {
            "positions": [
                1.1161729652541363,
                -2.073073485121785,
                2.2821781319705883,
                -0.16390005315400188,
                1.0238895585397412,
                -1.9944341909500438
            ]
        },
        {
            "positions": [
                1.1593137087381369,
                -2.0900586387116813,
                2.3795723610961828,
                -0.17764371294542733,
                1.0566117622055446,
                -2.1629795074027314
            ]
        },
        {
            "positions": [
                1.2024544522221374,
                -2.1070437923015772,
                2.4769665902217772,
                -0.1913873727368528,
                1.0893339658713483,
                -2.331524823855419
            ]
        },
        {
            "positions": [
                1.2455951957061377,
                -2.124028945891473,
                2.574360819347372,
                -0.20513103252827825,
                1.1220561695371518,
                -2.5000701403081065
            ]
        },
        {
            "positions": [
                1.1561060089062394,
                -2.08812253060751,
                2.544435485103297,
                -0.2501244873752018,
                1.0546748348987345,
                -2.6050661781803743
            ]
        },
        {
            "positions": [
                1.0666168221063412,
                -2.0522161153235468,
                2.5145101508592225,
                -0.2951179422221254,
                0.9872935002603174,
                -2.7100622160526417
            ]
        },
        {
            "positions": [
                0.9771276353064429,
                -2.0163097000395838,
                2.4845848166151474,
                -0.3401113970690489,
                0.9199121656219,
                -2.815058253924909
            ]
        },
        {
            "positions": [
                0.8876384485065446,
                -1.9804032847556208,
                2.4546594823710723,
                -0.3851048519159725,
                0.8525308309834829,
                -2.920054291797177
            ]
        },
        {
            "positions": [
                0.7981492617066462,
                -1.9444968694716578,
                2.4247341481269977,
                -0.43009830676289607,
                0.7851494963450656,
                -3.025050329669445
            ]
        },
        {
            "positions": [
                0.708660074906748,
                -1.9085904541876946,
                2.3948088138829227,
                -0.47509176160981964,
                0.7177681617066484,
                -3.1300463675417123
            ]
        }
    ]
}