{
    "goal": {
        "global_pose": {
            "orientation": {
                "w": 0.5084816217422485,
                "x": -0.49083608388900757,
                "y": 0.5182115435600281,
                "z": -0.4816462993621826
            },
            "position": {
                "x": 0.5540239810943604,
                "y": 0.030875300988554955,
                "z": 0.16403168439865112
            }
        },
        "name": "move_to_storage_A"
    },
    "id": "LBKPIECE_move_to_storage_A_2",
    "joint_names": [
        "shoulder_pan_joint",
        "shoulder_lift_joint",
        "elbow_joint",
        "wrist_1_joint",
        "wrist_2_joint",
        "wrist_3_joint"
    ],
    "metrics": {
        "cart_traj_len": 0.35280914291572296,
        "distance_elbow_joint": 0.4482348767205502,
        "distance_shoulder_lift_joint": 0.2337708340563831,
        "distance_shoulder_pan_joint": 0.4602118109365476,
        "distance_wrist_1_joint": 0.2388174121981489,
        "distance_wrist_2_joint": 1.1025060232613004,
        "distance_wrist_3_joint": 0.1015781343537916,
        "smoothness": 8.881784197001252e-16,
        "time": 0.573305951,
        "traj_len": 1.6078305543578657,
        "weighted_distance": 2.0321414310263335
    },
    "planner": "LBKPIECE",
    "start": {
        "state": {
            "elbow_joint": 1.9715463870305268,
            "shoulder_lift_joint": -1.1394903361783484,
            "shoulder_pan_joint": 0.12281147578464417,
            "wrist_1_joint": -0.7804599489681411,
            "wrist_2_joint": 0.12958660307563738,
            "wrist_3_joint": -3.1924946282119055
        }
    },
    "waypoints": [
        {
            "positions": [
                0.12281147578464417,
                -1.1394903361783484,
                1.9715463870305268,
                -0.7804599489681411,
                0.12958660307563738,
                -3.1924946282119055
            ]
        },
        {
            "positions": [
                0.05706693136513738,
                -1.1728861696149746,
                2.0355799408477484,
                -0.8145767221393052,
                0.28708746354153747,
                -3.177983466161364
            ]
        },
        {
            "positions": [
                -0.008677613054369412,
                -1.2062820030516006,
                2.0996134946649696,
                -0.8486934953104693,
                0.44458832400743753,
                -3.1634723041108224
            ]
        },
        {
            "positions": [
                -0.07442215747387622,
                -1.2396778364882268,
                2.1636470484821912,
                -0.8828102684816335,
                0.6020891844733376,
                -3.1489611420602808
            ]
        },
        {
            "positions": [
                -0.14016670189338298,
                -1.273073669924853,
                2.2276806022994124,
                -0.9169270416527976,
                0.7595900449392377,
                -3.1344499800097387
            ]
        },
        {
            "positions": [
                -0.20591124631288982,
                -1.3064695033614793,
                2.291714156116634,
                -0.9510438148239617,
                0.9170909054051377,
                -3.119938817959197
            ]
        },
        {
            "positions": [
                -0.2716557907323966,
                -1.3398653367981053,
                2.3557477099338553,
                -0.9851605879951258,
                1.0745917658710378,
                -3.1054276559086555
            ]
        },
        {
            "positions": [
                -0.33740033515190343,
                -1.3732611702347315,
                2.419781263751077,
                -1.01927736116629,
                1.2320926263369378,
                -3.090916493858114
            ]
        }
    ]
}