{
    "goal": {
        "global_pose": {
            "orientation": {
                "w": 0.7031023502349854,
                "x": -0.7110244035720825,
                "y": 0.007748599164187908,
                "z": 0.005598929710686207
            },
            "position": {
                "x": 0.11585023208521307,
                "y": 0.44412534475326537,
                "z": 0.3711530566215515
            }
        },
        "name": "move_to_auspresseinheit_A"
    },
    "id": "LBKPIECE_move_to_auspresseinheit_A_46",
    "joint_names": [
        "shoulder_pan_joint",
        "shoulder_lift_joint",
        "elbow_joint",
        "wrist_1_joint",
        "wrist_2_joint",
        "wrist_3_joint"
    ],
    "metrics": {
        "cart_traj_len": 0.8847528863137243,
        "distance_elbow_joint": 0.3746708939533998,
        "distance_shoulder_lift_joint": 1.3319827148794985,
        "distance_shoulder_pan_joint": 1.0431491367432475,
        "distance_wrist_1_joint": 1.8109834895441286,
        "distance_wrist_2_joint": 0.6055455568852626,
        "distance_wrist_3_joint": 0.1387685883126215,
        "smoothness": 1.5933560989039088,
        "time": 0.518520131,
        "traj_len": 2.303280352088768,
        "weighted_distance": 2.8282797958074783
    },
    "planner": "LBKPIECE",
    "start": {
        "state": {
            "elbow_joint": 2.422574709923281,
            "shoulder_lift_joint": -1.3736533754116391,
            "shoulder_pan_joint": -0.33786336945926293,
            "wrist_1_joint": -1.0288603412921917,
            "wrist_2_joint": 1.2330224858903978,
            "wrist_3_joint": -3.094022268022082
        }
    },
    "waypoints": [
        {
            "positions": [
                -0.33786336945926293,
                -1.3736533754116391,
                2.422574709923281,
                -1.0288603412921917,
                1.2330224858903978,
                -3.094022268022082
            ]
        },
        {
            "positions": [
                -0.25272718016276613,
                -1.4668376084830481,
                2.439690026043592,
                -0.909507541359046,
                1.1761512191906212,
                -3.1035146823843136
            ]
        },
        {
            "positions": [
                -0.16759099086626933,
                -1.5600218415544573,
                2.456805342163903,
                -0.7901547414259003,
                1.1192799524908446,
                -3.113007096746545
            ]
        },
        {
            "positions": [
                -0.08245480156977253,
                -1.6532060746258663,
                2.473920658284214,
                -0.6708019414927544,
                1.0624086857910682,
                -3.1224995111087765
            ]
        },
        {
            "positions": [
                0.0026813877267242714,
                -1.7463903076972755,
                2.4910359744045247,
                -0.5514491415596087,
                1.0055374190912916,
                -3.131991925471008
            ]
        },
        {
            "positions": [
                0.08781757702322107,
                -1.8395745407686845,
                2.508151290524836,
                -0.43209634162646293,
                0.948666152391515,
                -3.1414843398332395
            ]
        },
        {
            "positions": [
                0.17295376631971787,
                -1.9327587738400935,
                2.525266606645147,
                -0.3127435416933172,
                0.8917948856917385,
                -3.150976754195471
            ]
        },
        {
            "positions": [
                0.2580899556162147,
                -2.0259430069115028,
                2.5423819227654576,
                -0.19339074176017146,
                0.834923618991962,
                -3.1604691685577024
            ]
        },
        {
            "positions": [
                0.3432261449127115,
                -2.119127239982912,
                2.5594972388857684,
                -0.07403794182702561,
                0.7780523522921854,
                -3.169961582919934
            ]
        },
        {
            "positions": [
                0.4283623342092083,
                -2.2123114730543207,
                2.5766125550060797,
                0.04531485810612024,
                0.7211810855924088,
                -3.1794539972821654
            ]
        },
        {
            "positions": [
                0.513498523505705,
                -2.30549570612573,
                2.5937278711263905,
                0.16466765803926575,
                0.6643098188926323,
                -3.188946411644397
            ]
        },
        {
            "positions": [
                0.5614453344502749,
                -2.205460610084378,
                2.542848437938818,
                0.010303785486098033,
                0.6735180413645065,
                -3.1779853004718204
            ]
        },
        {
            "positions": [
                0.6093921453948448,
                -2.1054255140430262,
                2.4919690047512453,
                -0.1440600870670697,
                0.6827262638363809,
                -3.1670241892992435
            ]
        },
        {
            "positions": [
                0.6573389563394147,
                -2.0053904180016744,
                2.4410895715636727,
                -0.2984239596202374,
                0.6919344863082552,
                -3.1560630781266665
            ]
        },
        {
            "positions": [
                0.7052857672839846,
                -1.9053553219603223,
                2.3902101383761,
                -0.4527878321734051,
                0.7011427087801294,
                -3.14510196695409
            ]
        }
    ]
}