{
    "goal": {
        "global_pose": {
            "orientation": {
                "w": 0.7031023502349854,
                "x": -0.7110244035720825,
                "y": 0.007748599164187908,
                "z": 0.005598929710686207
            },
            "position": {
                "x": 0.11585023208521307,
                "y": 0.44412534475326537,
                "z": 0.3711530566215515
            }
        },
        "name": "move_to_auspresseinheit_A"
    },
    "id": "LBKPIECE_move_to_auspresseinheit_A_126",
    "joint_names": [
        "shoulder_pan_joint",
        "shoulder_lift_joint",
        "elbow_joint",
        "wrist_1_joint",
        "wrist_2_joint",
        "wrist_3_joint"
    ],
    "metrics": {
        "cart_traj_len": 0.7057987940355699,
        "distance_elbow_joint": 0.2235885178789876,
        "distance_shoulder_lift_joint": 0.5336705831052821,
        "distance_shoulder_pan_joint": 1.039828168602425,
        "distance_wrist_1_joint": 0.9710764298651842,
        "distance_wrist_2_joint": 0.9197112210853922,
        "distance_wrist_3_joint": 0.7637566340826636,
        "smoothness": 0.9514451884448809,
        "time": 0.709490949,
        "traj_len": 2.1098889910656284,
        "weighted_distance": 2.8053399925384865
    },
    "planner": "LBKPIECE",
    "start": {
        "state": {
            "elbow_joint": 2.422574709923281,
            "shoulder_lift_joint": -1.3736533754116391,
            "shoulder_pan_joint": -0.33786336945926293,
            "wrist_1_joint": -1.0288603412921917,
            "wrist_2_joint": 1.2330224858903978,
            "wrist_3_joint": -3.094022268022082
        }
    },
    "waypoints": [
        {
            "positions": [
                -0.33786336945926293,
                -1.3736533754116391,
                2.422574709923281,
                -1.0288603412921917,
                1.2330224858903978,
                -3.094022268022082
            ]
        },
        {
            "positions": [
                -0.3127267243118188,
                -1.4031305936575957,
                2.3972806328776244,
                -0.9459239634741629,
                1.171258936418469,
                -3.0419828364525143
            ]
        },
        {
            "positions": [
                -0.28759007916437473,
                -1.4326078119035521,
                2.3719865558319677,
                -0.862987585656134,
                1.10949538694654,
                -2.9899434048829465
            ]
        },
        {
            "positions": [
                -0.2624534340169306,
                -1.4620850301495087,
                2.346692478786311,
                -0.7800512078381051,
                1.0477318374746112,
                -2.9379039733133787
            ]
        },
        {
            "positions": [
                -0.17127699142276798,
                -1.5189079140459856,
                2.338066417468785,
                -0.6929220313637319,
                0.9572970674713283,
                -2.9043796354832145
            ]
        },
        {
            "positions": [
                -0.08010054882860532,
                -1.5757307979424622,
                2.329440356151258,
                -0.6057928548893587,
                0.8668622974680453,
                -2.87085529765305
            ]
        },
        {
            "positions": [
                0.011075893765557343,
                -1.632553681838939,
                2.320814294833732,
                -0.5186636784149855,
                0.7764275274647624,
                -2.8373309598228857
            ]
        },
        {
            "positions": [
                0.10225233635971998,
                -1.6893765657354158,
                2.312188233516206,
                -0.4315345019406123,
                0.6859927574614795,
                -2.8038066219927216
            ]
        },
        {
            "positions": [
                0.19342877895388266,
                -1.7461994496318924,
                2.303562172198679,
                -0.3444053254662391,
                0.5955579874581965,
                -2.770282284162557
            ]
        },
        {
            "positions": [
                0.28460522154804524,
                -1.8030223335283693,
                2.294936110881153,
                -0.25727614899186585,
                0.5051232174549136,
                -2.7367579463323928
            ]
        },
        {
            "positions": [
                0.38894511594682446,
                -1.8290977397755073,
                2.318923590590368,
                -0.3071492083830804,
                0.5530762056173906,
                -2.8383810244306362
            ]
        },
        {
            "positions": [
                0.49328501034560374,
                -1.8551731460226453,
                2.342911070299583,
                -0.35702226777429497,
                0.6010291937798676,
                -2.9400041025288797
            ]
        },
        {
            "positions": [
                0.597624904744383,
                -1.8812485522697833,
                2.3668985500087976,
                -0.4068953271655095,
                0.6489821819423447,
                -3.0416271806271236
            ]
        },
        {
            "positions": [
                0.7019647991431622,
                -1.9073239585169213,
                2.3908860297180126,
                -0.4567683865567241,
                0.6969351701048216,
                -3.143250258725367
            ]
        }
    ]
}