{
    "goal": {
        "global_pose": {
            "orientation": {
                "w": 0.7047431468963623,
                "x": -0.7094548344612122,
                "y": 0.0024358443915843964,
                "z": -0.0022348060738295317
            },
            "position": {
                "x": 0.6094750761985779,
                "y": 0.3671506643295288,
                "z": 0.19426114857196808
            }
        },
        "name": "move_to_magneteinheit_A"
    },
    "id": "LBTRRT_move_to_magneteinheit_A_38",
    "joint_names": [
        "shoulder_pan_joint",
        "shoulder_lift_joint",
        "elbow_joint",
        "wrist_1_joint",
        "wrist_2_joint",
        "wrist_3_joint"
    ],
    "metrics": {
        "cart_traj_len": 2.0689437778187827,
        "distance_elbow_joint": 3.894060804832023,
        "distance_shoulder_lift_joint": 1.063151106061856,
        "distance_shoulder_pan_joint": 1.2411529806590484,
        "distance_wrist_1_joint": 1.2165623221703399,
        "distance_wrist_2_joint": 1.4441262895867952,
        "distance_wrist_3_joint": 1.9780326281334104,
        "smoothness": 2.4501473840910184e-16,
        "time": 5.020476151,
        "traj_len": 3.2919729846162884,
        "weighted_distance": 4.1777793143567825
    },
    "planner": "LBTRRT",
    "start": {
        "state": {
            "elbow_joint": -1.919643507792019,
            "shoulder_lift_joint": -0.07675430207160344,
            "shoulder_pan_joint": -1.1188671864651873,
            "wrist_1_joint": 0.42560062535961957,
            "wrist_2_joint": 1.5706038300724876,
            "wrist_3_joint": 1.1188968870953055
        }
    },
    "waypoints": [
        {
            "positions": [
                -1.1188671864651873,
                -0.07675430207160344,
                -1.919643507792019,
                0.42560062535961957,
                1.5706038300724876,
                1.1188968870953055
            ]
        },
        {
            "positions": [
                -1.0745402942987927,
                -0.11472398443095544,
                -1.7805699076194468,
                0.38215197099639314,
                1.5190278911586734,
                1.1895409095286416
            ]
        },
        {
            "positions": [
                -1.030213402132398,
                -0.15269366679030744,
                -1.6414963074468747,
                0.3387033166331667,
                1.4674519522448595,
                1.2601849319619778
            ]
        },
        {
            "positions": [
                -0.9858865099660036,
                -0.19066334914965943,
                -1.5024227072743024,
                0.29525466226994035,
                1.4158760133310453,
                1.3308289543953138
            ]
        },
        {
            "positions": [
                -0.9415596177996091,
                -0.22863303150901143,
                -1.36334910710173,
                0.2518060079067139,
                1.3643000744172311,
                1.4014729768286498
            ]
        },
        {
            "positions": [
                -0.8972327256332144,
                -0.26660271386836343,
                -1.2242755069291578,
                0.20835735354348747,
                1.3127241355034172,
                1.472116999261986
            ]
        },
        {
            "positions": [
                -0.8529058334668198,
                -0.3045723962277154,
                -1.0852019067565857,
                0.16490869918026108,
                1.261148196589603,
                1.542761021695322
            ]
        },
        {
            "positions": [
                -0.8085789413004252,
                -0.3425420785870674,
                -0.9461283065840134,
                0.12146004481703465,
                1.2095722576757888,
                1.6134050441286583
            ]
        },
        {
            "positions": [
                -0.7642520491340307,
                -0.3805117609464194,
                -0.8070547064114413,
                0.07801139045380823,
                1.1579963187619748,
                1.684049066561994
            ]
        },
        {
            "positions": [
                -0.719925156967636,
                -0.4184814433057714,
                -0.6679811062388687,
                0.0345627360905818,
                1.1064203798481604,
                1.7546930889953303
            ]
        },
        {
            "positions": [
                -0.6755982648012415,
                -0.4564511256651234,
                -0.5289075060662967,
                -0.008885918272644622,
                1.0548444409343465,
                1.8253371114286665
            ]
        },
        {
            "positions": [
                -0.6312713726348469,
                -0.4944208080244754,
                -0.38983390589372435,
                -0.05233457263587099,
                1.0032685020205323,
                1.8959811338620025
            ]
        },
        {
            "positions": [
                -0.5869444804684524,
                -0.5323904903838275,
                -0.25076030572115227,
                -0.09578322699909741,
                0.9516925631067182,
                1.9666251562953385
            ]
        },
        {
            "positions": [
                -0.5426175883020576,
                -0.5703601727431794,
                -0.11168670554857973,
                -0.13923188136232384,
                0.9001166241929041,
                2.0372691787286747
            ]
        },
        {
            "positions": [
                -0.4982906961356631,
                -0.6083298551025313,
                0.027386894623992353,
                -0.18268053572555026,
                0.84854068527909,
                2.1079132011620105
            ]
        },
        {
            "positions": [
                -0.4539638039692686,
                -0.6462995374618834,
                0.16646049479656466,
                -0.2261291900887767,
                0.7969647463652759,
                2.1785572235953468
            ]
        },
        {
            "positions": [
                -0.409636911802874,
                -0.6842692198212355,
                0.3055340949691365,
                -0.2695778444520031,
                0.7453888074514619,
                2.249201246028683
            ]
        },
        {
            "positions": [
                -0.36531001963647947,
                -0.7222389021805873,
                0.44460769514170884,
                -0.3130264988152294,
                0.6938128685376477,
                2.3198452684620188
            ]
        },
        {
            "positions": [
                -0.32098312747008473,
                -0.7602085845399393,
                0.5836812953142816,
                -0.35647515317845596,
                0.6422369296238335,
                2.3904892908953554
            ]
        },
        {
            "positions": [
                -0.2766562353036901,
                -0.7981782668992914,
                0.7227548954868539,
                -0.3999238075416824,
                0.5906609907100193,
                2.4611333133286912
            ]
        },
        {
            "positions": [
                -0.23232934313729559,
                -0.8361479492586434,
                0.8618284956594258,
                -0.4433724619049088,
                0.5390850517962054,
                2.531777335762027
            ]
        },
        {
            "positions": [
                -0.18800245097090107,
                -0.8741176316179955,
                1.000902095831998,
                -0.4868211162681351,
                0.4875091128823912,
                2.6024213581953632
            ]
        },
        {
            "positions": [
                -0.14367555880450644,
                -0.9120873139773473,
                1.1399756960045704,
                -0.5302697706313615,
                0.435933173968577,
                2.6730653806286995
            ]
        },
        {
            "positions": [
                -0.09934866663811182,
                -0.9500569963366994,
                1.2790492961771422,
                -0.5737184249945879,
                0.38435723505476305,
                2.7437094030620353
            ]
        },
        {
            "positions": [
                -0.05502177447171741,
                -0.9880266786960514,
                1.4181228963497146,
                -0.6171670793578143,
                0.33278129614094887,
                2.8143534254953715
            ]
        },
        {
            "positions": [
                -0.010694882305322562,
                -1.0259963610554035,
                1.5571964965222873,
                -0.6606157337210408,
                0.2812053572271347,
                2.8849974479287077
            ]
        },
        {
            "positions": [
                0.033632009861072065,
                -1.0639660434147553,
                1.6962700966948596,
                -0.7040643880842672,
                0.2296294183133205,
                2.955641470362044
            ]
        },
        {
            "positions": [
                0.07795890202746647,
                -1.1019357257741074,
                1.8353436968674315,
                -0.7475130424474936,
                0.17805347939950655,
                3.02628549279538
            ]
        },
        {
            "positions": [
                0.12228579419386112,
                -1.1399054081334594,
                1.9744172970400038,
                -0.7909616968107201,
                0.12647754048569226,
                3.096929515228716
            ]
        }
    ]
}