{
    "goal": {
        "global_pose": {
            "orientation": {
                "w": 0.7047431468963623,
                "x": -0.7094548344612122,
                "y": 0.0024358443915843964,
                "z": -0.0022348060738295317
            },
            "position": {
                "x": 0.6094750761985779,
                "y": 0.3671506643295288,
                "z": 0.19426114857196808
            }
        },
        "name": "move_to_magneteinheit_A"
    },
    "id": "LBTRRT_move_to_magneteinheit_A_105",
    "joint_names": [
        "shoulder_pan_joint",
        "shoulder_lift_joint",
        "elbow_joint",
        "wrist_1_joint",
        "wrist_2_joint",
        "wrist_3_joint"
    ],
    "metrics": {
        "cart_traj_len": 2.0707145334461945,
        "distance_elbow_joint": 3.906627358937448,
        "distance_shoulder_lift_joint": 1.07201887389463,
        "distance_shoulder_pan_joint": 1.2419578813452952,
        "distance_wrist_1_joint": 1.2762886836369676,
        "distance_wrist_2_joint": 1.4378722539938615,
        "distance_wrist_3_joint": 2.0397832419739244,
        "smoothness": 6.125368426333549e-16,
        "time": 5.017421132,
        "traj_len": 3.312785579204021,
        "weighted_distance": 4.215243256961667
    },
    "planner": "LBTRRT",
    "start": {
        "state": {
            "elbow_joint": -1.919643507792019,
            "shoulder_lift_joint": -0.07675430207160344,
            "shoulder_pan_joint": -1.1188671864651873,
            "wrist_1_joint": 0.42560062535961957,
            "wrist_2_joint": 1.5706038300724876,
            "wrist_3_joint": 1.1188968870953055
        }
    },
    "waypoints": [
        {
            "positions": [
                -1.1188671864651873,
                -0.07675430207160344,
                -1.919643507792019,
                0.42560062535961957,
                1.5706038300724876,
                1.1188968870953055
            ]
        },
        {
            "positions": [
                -1.0745115478457126,
                -0.11504069042498308,
                -1.7801211021156818,
                0.3800188866582993,
                1.5192512495727069,
                1.1917462885943744
            ]
        },
        {
            "positions": [
                -1.0301559092262378,
                -0.1533270787783627,
                -1.6405986964393442,
                0.33443714795697904,
                1.467898669072926,
                1.264595690093443
            ]
        },
        {
            "positions": [
                -0.9858002706067629,
                -0.19161346713174235,
                -1.5010762907630069,
                0.2888554092556588,
                1.4165460885731453,
                1.3374450915925118
            ]
        },
        {
            "positions": [
                -0.941444631987288,
                -0.22989985548512198,
                -1.3615538850866695,
                0.24327367055433852,
                1.3651935080733646,
                1.4102944930915804
            ]
        },
        {
            "positions": [
                -0.8970889933678132,
                -0.26818624383850165,
                -1.222031479410332,
                0.19769193185301825,
                1.3138409275735836,
                1.4831438945906492
            ]
        },
        {
            "positions": [
                -0.8527333547483384,
                -0.30647263219188126,
                -1.0825090737339944,
                0.152110193151698,
                1.262488347073803,
                1.5559932960897178
            ]
        },
        {
            "positions": [
                -0.8083777161288636,
                -0.3447590205452609,
                -0.9429866680576571,
                0.10652845445037773,
                1.211135766574022,
                1.6288426975887866
            ]
        },
        {
            "positions": [
                -0.7640220775093887,
                -0.3830454088986405,
                -0.8034642623813197,
                0.06094671574905747,
                1.1597831860742414,
                1.7016920990878552
            ]
        },
        {
            "positions": [
                -0.7196664388899139,
                -0.42133179725202025,
                -0.6639418567049822,
                0.01536497704773715,
                1.1084306055744606,
                1.774541500586924
            ]
        },
        {
            "positions": [
                -0.6753108002704391,
                -0.45961818560539985,
                -0.5244194510286448,
                -0.030216761653583057,
                1.0570780250746799,
                1.8473909020859929
            ]
        },
        {
            "positions": [
                -0.6309551616509643,
                -0.49790457395877946,
                -0.3848970453523073,
                -0.07579850035490326,
                1.005725444574899,
                1.9202403035850615
            ]
        },
        {
            "positions": [
                -0.5865995230314894,
                -0.536190962312159,
                -0.24537463967596995,
                -0.12138023905622358,
                0.9543728640751185,
                1.99308970508413
            ]
        },
        {
            "positions": [
                -0.5422438844120145,
                -0.5744773506655387,
                -0.1058522339996324,
                -0.1669619777575439,
                0.9030202835753376,
                2.065939106583199
            ]
        },
        {
            "positions": [
                -0.49788824579253976,
                -0.6127637390189185,
                0.03367017167670494,
                -0.2125437164588641,
                0.8516677030755568,
                2.1387885080822677
            ]
        },
        {
            "positions": [
                -0.453532607173065,
                -0.651050127372298,
                0.17319257735304228,
                -0.2581254551601843,
                0.8003151225757761,
                2.211637909581336
            ]
        },
        {
            "positions": [
                -0.4091769685535901,
                -0.6893365157256777,
                0.3127149830293796,
                -0.30370719386150463,
                0.7489625420759953,
                2.2844873110804054
            ]
        },
        {
            "positions": [
                -0.3648213299341153,
                -0.7276229040790572,
                0.45223738870571695,
                -0.34928893256282484,
                0.6976099615762146,
                2.3573367125794737
            ]
        },
        {
            "positions": [
                -0.3204656913146404,
                -0.7659092924324371,
                0.5917597943820547,
                -0.39487067126414527,
                0.6462573810764337,
                2.430186114078543
            ]
        },
        {
            "positions": [
                -0.27611005269516564,
                -0.8041956807858166,
                0.7312822000583921,
                -0.4404524099654655,
                0.594904800576653,
                2.5030355155776114
            ]
        },
        {
            "positions": [
                -0.23175441407569075,
                -0.8424820691391963,
                0.8708046057347294,
                -0.4860341486667857,
                0.5435522200768721,
                2.57588491707668
            ]
        },
        {
            "positions": [
                -0.18739877545621597,
                -0.8807684574925758,
                1.0103270114110667,
                -0.5316158873681058,
                0.49219963957709134,
                2.648734318575749
            ]
        },
        {
            "positions": [
                -0.1430431368367412,
                -0.9190548458459555,
                1.1498494170874045,
                -0.577197626069426,
                0.4408470590773108,
                2.7215837200748174
            ]
        },
        {
            "positions": [
                -0.0986874982172663,
                -0.957341234199335,
                1.2893718227637418,
                -0.6227793647707465,
                0.38949447857753006,
                2.7944331215738862
            ]
        },
        {
            "positions": [
                -0.05433185959779152,
                -0.9956276225527148,
                1.4288942284400792,
                -0.6683611034720667,
                0.3381418980777493,
                2.867282523072955
            ]
        },
        {
            "positions": [
                -0.009976220978316519,
                -1.0339140109060945,
                1.568416634116417,
                -0.7139428421733871,
                0.28678931757796833,
                2.940131924572024
            ]
        },
        {
            "positions": [
                0.03437941764115826,
                -1.0722003992594742,
                1.7079390397927543,
                -0.7595245808747073,
                0.23543673707818757,
                3.0129813260710927
            ]
        },
        {
            "positions": [
                0.07873505626063304,
                -1.1104867876128537,
                1.8474614454690916,
                -0.8051063195760275,
                0.18408415657840682,
                3.085830727570161
            ]
        },
        {
            "positions": [
                0.1230906948801079,
                -1.1487731759662334,
                1.9869838511454287,
                -0.8506880582773478,
                0.13273157607862607,
                3.15868012906923
            ]
        }
    ]
}