{
    "goal": {
        "global_pose": {
            "orientation": {
                "w": 0.7047431468963623,
                "x": -0.7094548344612122,
                "y": 0.0024358443915843964,
                "z": -0.0022348060738295317
            },
            "position": {
                "x": 0.6094750761985779,
                "y": 0.3671506643295288,
                "z": 0.19426114857196808
            }
        },
        "name": "move_to_magneteinheit_A"
    },
    "id": "LBTRRT_move_to_magneteinheit_A_47",
    "joint_names": [
        "shoulder_pan_joint",
        "shoulder_lift_joint",
        "elbow_joint",
        "wrist_1_joint",
        "wrist_2_joint",
        "wrist_3_joint"
    ],
    "metrics": {
        "cart_traj_len": 2.0659588214001463,
        "distance_elbow_joint": 3.8827915561334074,
        "distance_shoulder_lift_joint": 1.0580710892224963,
        "distance_shoulder_pan_joint": 1.2424104655386752,
        "distance_wrist_1_joint": 1.1806386195450602,
        "distance_wrist_2_joint": 1.449568691400527,
        "distance_wrist_3_joint": 1.9576910419478621,
        "smoothness": 5.819100011960789e-16,
        "time": 5.016897527,
        "traj_len": 3.2819462920328277,
        "weighted_distance": 4.161341233139784
    },
    "planner": "LBTRRT",
    "start": {
        "state": {
            "elbow_joint": -1.919643507792019,
            "shoulder_lift_joint": -0.07675430207160344,
            "shoulder_pan_joint": -1.1188671864651873,
            "wrist_1_joint": 0.42560062535961957,
            "wrist_2_joint": 1.5706038300724876,
            "wrist_3_joint": 1.1188968870953055
        }
    },
    "waypoints": [
        {
            "positions": [
                -1.1188671864651873,
                -0.07675430207160344,
                -1.919643507792019,
                0.42560062535961957,
                1.5706038300724876,
                1.1188968870953055
            ]
        },
        {
            "positions": [
                -1.0744953841245204,
                -0.11454255525812115,
                -1.7809723807872546,
                0.38343496037586744,
                1.518833519665326,
                1.1888144243077292
            ]
        },
        {
            "positions": [
                -1.0301235817838534,
                -0.15233080844463887,
                -1.64230125378249,
                0.34126929539211526,
                1.4670632092581641,
                1.2587319615201529
            ]
        },
        {
            "positions": [
                -0.9857517794431865,
                -0.1901190616311566,
                -1.5036301267777255,
                0.2991036304083632,
                1.4152928988510025,
                1.3286494987325765
            ]
        },
        {
            "positions": [
                -0.9413799771025195,
                -0.22790731481767432,
                -1.364958999772961,
                0.256937965424611,
                1.3635225884438409,
                1.3985670359450002
            ]
        },
        {
            "positions": [
                -0.8970081747618525,
                -0.26569556800419203,
                -1.2262878727681963,
                0.21477230044085885,
                1.3117522780366793,
                1.4684845731574239
            ]
        },
        {
            "positions": [
                -0.8526363724211856,
                -0.30348382119070977,
                -1.0876167457634318,
                0.17260663545710675,
                1.2599819676295176,
                1.5384021103698475
            ]
        },
        {
            "positions": [
                -0.8082645700805186,
                -0.3412720743772275,
                -0.9489456187586672,
                0.13044097047335457,
                1.2082116572223558,
                1.6083196475822712
            ]
        },
        {
            "positions": [
                -0.7638927677398516,
                -0.3790603275637452,
                -0.8102744917539026,
                0.08827530548960244,
                1.1564413468151942,
                1.6782371847946949
            ]
        },
        {
            "positions": [
                -0.7195209653991845,
                -0.416848580750263,
                -0.671603364749138,
                0.04610964050585026,
                1.1046710364080323,
                1.7481547220071185
            ]
        },
        {
            "positions": [
                -0.6751491630585176,
                -0.45463683393678067,
                -0.5329322377443735,
                0.003943975522098131,
                1.0529007260008707,
                1.8180722592195422
            ]
        },
        {
            "positions": [
                -0.6307773607178506,
                -0.4924250871232984,
                -0.394261110739609,
                -0.038221689461653996,
                1.001130415593709,
                1.8879897964319656
            ]
        },
        {
            "positions": [
                -0.5864055583771838,
                -0.5302133403098162,
                -0.25558998373484454,
                -0.08038735444540607,
                0.9493601051865475,
                1.9579073336443893
            ]
        },
        {
            "positions": [
                -0.5420337560365167,
                -0.5680015934963338,
                -0.11691885673007985,
                -0.12255301942915836,
                0.8975897947793857,
                2.027824870856813
            ]
        },
        {
            "positions": [
                -0.49766195369584976,
                -0.6057898466828515,
                0.021752270274684626,
                -0.16471868441291043,
                0.8458194843722241,
                2.0977424080692364
            ]
        },
        {
            "positions": [
                -0.4532901513551828,
                -0.6435780998693692,
                0.16042339727944932,
                -0.2068843493966625,
                0.7940491739650625,
                2.1676599452816605
            ]
        },
        {
            "positions": [
                -0.40891834901451585,
                -0.6813663530558869,
                0.2990945242842138,
                -0.24905001438041469,
                0.7422788635579007,
                2.2375774824940837
            ]
        },
        {
            "positions": [
                -0.3645465466738489,
                -0.7191546062424048,
                0.43776565128897826,
                -0.29121567936416676,
                0.6905085531507391,
                2.3074950197065074
            ]
        },
        {
            "positions": [
                -0.3201747443331818,
                -0.7569428594289225,
                0.5764367782937432,
                -0.33338134434791905,
                0.6387382427435773,
                2.377412556918931
            ]
        },
        {
            "positions": [
                -0.27580294199251487,
                -0.7947311126154402,
                0.7151079052985077,
                -0.37554700933167123,
                0.5869679323364156,
                2.447330094131355
            ]
        },
        {
            "positions": [
                -0.23143113965184792,
                -0.8325193658019578,
                0.8537790323032721,
                -0.4177126743154233,
                0.535197621929254,
                2.5172476313437784
            ]
        },
        {
            "positions": [
                -0.18705933731118096,
                -0.8703076189884758,
                0.9924501593080366,
                -0.4598783392991755,
                0.4834273115220924,
                2.587165168556202
            ]
        },
        {
            "positions": [
                -0.142687534970514,
                -0.9080958721749934,
                1.131121286312801,
                -0.5020440042829275,
                0.43165700111493077,
                2.6570827057686257
            ]
        },
        {
            "positions": [
                -0.09831573262984716,
                -0.9458841253615111,
                1.2697924133175655,
                -0.5442096692666796,
                0.3798866907077689,
                2.7270002429810494
            ]
        },
        {
            "positions": [
                -0.05394393028918021,
                -0.9836723785480288,
                1.40846354032233,
                -0.5863753342504316,
                0.3281163803006073,
                2.796917780193473
            ]
        },
        {
            "positions": [
                -0.009572127948513032,
                -1.0214606317345465,
                1.547134667327095,
                -0.6285409992341839,
                0.27634606989344546,
                2.866835317405897
            ]
        },
        {
            "positions": [
                0.03479967439215392,
                -1.0592488849210644,
                1.6858057943318594,
                -0.6707066642179362,
                0.22457575948628383,
                2.9367528546183204
            ]
        },
        {
            "positions": [
                0.07917147673282088,
                -1.097037138107582,
                1.8244769213366239,
                -0.7128723292016883,
                0.1728054490791222,
                3.006670391830744
            ]
        },
        {
            "positions": [
                0.12354327907348793,
                -1.1348253912940998,
                1.9631480483413883,
                -0.7550379941854405,
                0.12103513867196054,
                3.0765879290431677
            ]
        }
    ]
}