{
    "goal": {
        "global_pose": {
            "orientation": {
                "w": 0.7047431468963623,
                "x": -0.7094548344612122,
                "y": 0.0024358443915843964,
                "z": -0.0022348060738295317
            },
            "position": {
                "x": 0.6094750761985779,
                "y": 0.3671506643295288,
                "z": 0.19426114857196808
            }
        },
        "name": "move_to_magneteinheit_A"
    },
    "id": "LBTRRT_move_to_magneteinheit_A_22",
    "joint_names": [
        "shoulder_pan_joint",
        "shoulder_lift_joint",
        "elbow_joint",
        "wrist_1_joint",
        "wrist_2_joint",
        "wrist_3_joint"
    ],
    "metrics": {
        "cart_traj_len": 1.87060090430155,
        "distance_elbow_joint": 3.933079958510154,
        "distance_shoulder_lift_joint": 0.7082805667132209,
        "distance_shoulder_pan_joint": 1.241677533336253,
        "distance_wrist_1_joint": 1.565755712774133,
        "distance_wrist_2_joint": 1.701289325417844,
        "distance_wrist_3_joint": 1.186553760632224,
        "smoothness": 6.026924980256911e-16,
        "time": 5.025062982,
        "traj_len": 3.215064051832223,
        "weighted_distance": 3.997097624131822
    },
    "planner": "LBTRRT",
    "start": {
        "state": {
            "elbow_joint": -1.919643507792019,
            "shoulder_lift_joint": -0.07675430207160344,
            "shoulder_pan_joint": -1.1188671864651873,
            "wrist_1_joint": 0.42560062535961957,
            "wrist_2_joint": 1.5706038300724876,
            "wrist_3_joint": 1.1188968870953055
        }
    },
    "waypoints": [
        {
            "positions": [
                -1.1188671864651873,
                -0.07675430207160344,
                -1.919643507792019,
                0.42560062535961957,
                1.5706038300724876,
                1.1188968870953055
            ]
        },
        {
            "positions": [
                -1.0728791296749558,
                -0.1029869156535746,
                -1.7739738796990505,
                0.48359157768458744,
                1.507593114316271,
                1.0749504515163344
            ]
        },
        {
            "positions": [
                -1.0268910728847243,
                -0.12921952923554575,
                -1.6283042516060817,
                0.5415825300095554,
                1.4445823985600548,
                1.031004015937363
            ]
        },
        {
            "positions": [
                -0.9809030160944926,
                -0.1554521428175169,
                -1.4826346235131131,
                0.5995734823345232,
                1.3815716828038382,
                0.9870575803583918
            ]
        },
        {
            "positions": [
                -0.9349149593042609,
                -0.18168475639948803,
                -1.3369649954201446,
                0.6575644346594911,
                1.3185609670476217,
                0.9431111447794205
            ]
        },
        {
            "positions": [
                -0.8889269025140294,
                -0.20791736998145918,
                -1.1912953673271758,
                0.7155553869844591,
                1.2555502512914054,
                0.8991647092004492
            ]
        },
        {
            "positions": [
                -0.8429388457237978,
                -0.23414998356343034,
                -1.045625739234207,
                0.7735463393094268,
                1.1925395355351889,
                0.855218273621478
            ]
        },
        {
            "positions": [
                -0.7969507889335662,
                -0.26038259714540146,
                -0.8999561111412384,
                0.8315372916343948,
                1.1295288197789726,
                0.8112718380425068
            ]
        },
        {
            "positions": [
                -0.7509627321433345,
                -0.2866152107273726,
                -0.7542864830482698,
                0.8895282439593626,
                1.066518104022756,
                0.7673254024635354
            ]
        },
        {
            "positions": [
                -0.704974675353103,
                -0.31284782430934377,
                -0.608616854955301,
                0.9475191962843306,
                1.0035073882665397,
                0.7233789668845643
            ]
        },
        {
            "positions": [
                -0.6589866185628714,
                -0.3390804378913149,
                -0.4629472268623325,
                1.0055101486092985,
                0.9404966725103232,
                0.6794325313055929
            ]
        },
        {
            "positions": [
                -0.6129985617726398,
                -0.3653130514732861,
                -0.3172775987693639,
                1.0635011009342663,
                0.8774859567541067,
                0.6354860957266217
            ]
        },
        {
            "positions": [
                -0.5670105049824082,
                -0.39154566505525723,
                -0.1716079706763951,
                1.1214920532592343,
                0.8144752409978903,
                0.5915396601476505
            ]
        },
        {
            "positions": [
                -0.5210224481921767,
                -0.4177782786372284,
                -0.025938342583426532,
                1.179483005584202,
                0.7514645252416738,
                0.5475932245686792
            ]
        },
        {
            "positions": [
                -0.47503439140194503,
                -0.44401089221919954,
                0.11973128550954226,
                1.23747395790917,
                0.6884538094854574,
                0.5036467889897079
            ]
        },
        {
            "positions": [
                -0.4290463346117134,
                -0.4702435058011707,
                0.2654009136025113,
                1.295464910234138,
                0.6254430937292409,
                0.45970035341073656
            ]
        },
        {
            "positions": [
                -0.38305827782148183,
                -0.4964761193831418,
                0.4110705416954794,
                1.3534558625591058,
                0.5624323779730245,
                0.4157539178317654
            ]
        },
        {
            "positions": [
                -0.3370702210312502,
                -0.522708732965113,
                0.5567401697884484,
                1.4114468148840738,
                0.49942166221680795,
                0.37180748225279403
            ]
        },
        {
            "positions": [
                -0.2910821642410186,
                -0.548941346547084,
                0.702409797881417,
                1.4694377672090415,
                0.43641094646059164,
                0.3278610466738229
            ]
        },
        {
            "positions": [
                -0.24509410745078697,
                -0.5751739601290553,
                0.8480794259743856,
                1.5274287195340095,
                0.3734002307043751,
                0.2839146110948516
            ]
        },
        {
            "positions": [
                -0.19910605066055553,
                -0.6014065737110263,
                0.9937490540673541,
                1.5854196718589775,
                0.3103895149481588,
                0.23996817551588034
            ]
        },
        {
            "positions": [
                -0.15311799387032388,
                -0.6276391872929976,
                1.1394186821603232,
                1.6434106241839455,
                0.24737879919194228,
                0.19602173993690908
            ]
        },
        {
            "positions": [
                -0.10712993708009222,
                -0.6538718008749687,
                1.2850883102532913,
                1.7014015765089132,
                0.18436808343572575,
                0.1520753043579378
            ]
        },
        {
            "positions": [
                -0.06114188028986067,
                -0.6801044144569399,
                1.4307579383462603,
                1.7593925288338812,
                0.12135736767950922,
                0.10812886877896655
            ]
        },
        {
            "positions": [
                -0.015153823499629127,
                -0.706337028038911,
                1.5764275664392289,
                1.817383481158849,
                0.058346651923292914,
                0.06418243319999539
            ]
        },
        {
            "positions": [
                0.03083423329060264,
                -0.7325696416208822,
                1.722097194532198,
                1.875374433483817,
                -0.004664063832923615,
                0.020235997621024016
            ]
        },
        {
            "positions": [
                0.07682229008083397,
                -0.7588022552028533,
                1.867766822625166,
                1.9333653858087847,
                -0.06767477958913992,
                -0.02371043795794714
            ]
        },
        {
            "positions": [
                0.12281034687106573,
                -0.7850348687848244,
                2.013436450718135,
                1.9913563381337527,
                -0.1306854953453564,
                -0.06765687353691856
            ]
        }
    ]
}