{
    "goal": {
        "global_pose": {
            "orientation": {
                "w": 0.7047431468963623,
                "x": -0.7094548344612122,
                "y": 0.0024358443915843964,
                "z": -0.0022348060738295317
            },
            "position": {
                "x": 0.6094750761985779,
                "y": 0.3671506643295288,
                "z": 0.19426114857196808
            }
        },
        "name": "move_to_magneteinheit_A"
    },
    "id": "LBTRRT_move_to_magneteinheit_A_60",
    "joint_names": [
        "shoulder_pan_joint",
        "shoulder_lift_joint",
        "elbow_joint",
        "wrist_1_joint",
        "wrist_2_joint",
        "wrist_3_joint"
    ],
    "metrics": {
        "cart_traj_len": 2.1957188866835513,
        "distance_elbow_joint": 3.881426646301011,
        "distance_shoulder_lift_joint": 1.0587477067085802,
        "distance_shoulder_pan_joint": 1.242559749839268,
        "distance_wrist_1_joint": 1.153976916992998,
        "distance_wrist_2_joint": 1.4297000209815094,
        "distance_wrist_3_joint": 4.3609909930562,
        "smoothness": 6.851662090941549e-16,
        "time": 5.041935282,
        "traj_len": 3.6231756835515947,
        "weighted_distance": 4.942980978920157
    },
    "planner": "LBTRRT",
    "start": {
        "state": {
            "elbow_joint": -1.919643507792019,
            "shoulder_lift_joint": -0.07675430207160344,
            "shoulder_pan_joint": -1.1188671864651873,
            "wrist_1_joint": 0.42560062535961957,
            "wrist_2_joint": 1.5706038300724876,
            "wrist_3_joint": 1.1188968870953055
        }
    },
    "waypoints": [
        {
            "positions": [
                -1.1188671864651873,
                -0.07675430207160344,
                -1.919643507792019,
                0.42560062535961957,
                1.5706038300724876,
                1.1188968870953055
            ]
        },
        {
            "positions": [
                -1.0645158057578539,
                -0.10972887417082758,
                -1.8655274824334573,
                0.3570115778737654,
                1.5666162179654335,
                0.9694327699124952
            ]
        },
        {
            "positions": [
                -1.0101644250505206,
                -0.14270344627005171,
                -1.8114114570748954,
                0.2884225303879113,
                1.5626286058583791,
                0.8199686527296848
            ]
        },
        {
            "positions": [
                -0.9558130443431871,
                -0.17567801836927585,
                -1.7572954317163336,
                0.2198334829020572,
                1.5586409937513248,
                0.6705045355468744
            ]
        },
        {
            "positions": [
                -0.9014616636358537,
                -0.2086525904685,
                -1.7031794063577719,
                0.15124443541620303,
                1.5546533816442707,
                0.521040418364064
            ]
        },
        {
            "positions": [
                -0.8471102829285202,
                -0.24162716256772412,
                -1.64906338099921,
                0.08265538793034893,
                1.5506657695372166,
                0.3715763011812536
            ]
        },
        {
            "positions": [
                -0.7927589022211868,
                -0.27460173466694826,
                -1.5949473556406482,
                0.01406634044449484,
                1.5466781574301622,
                0.22211218399844324
            ]
        },
        {
            "positions": [
                -0.7384075215138535,
                -0.30757630676617237,
                -1.5408313302820864,
                -0.05452270704135931,
                1.5426905453231081,
                0.07264806681563285
            ]
        },
        {
            "positions": [
                -0.68405614080652,
                -0.34055087886539653,
                -1.4867153049235244,
                -0.12311175452721351,
                1.5387029332160538,
                -0.07681605036717754
            ]
        },
        {
            "positions": [
                -0.6297047600991865,
                -0.3735254509646207,
                -1.4325992795649627,
                -0.19170080201306755,
                1.5347153211089997,
                -0.22628016754998792
            ]
        },
        {
            "positions": [
                -0.5753533793918532,
                -0.4065000230638448,
                -1.378483254206401,
                -0.26028984949892175,
                1.5307277090019453,
                -0.3757442847327984
            ]
        },
        {
            "positions": [
                -0.5462264651099392,
                -0.4368751058020256,
                -1.2393054878432597,
                -0.27979345125452415,
                1.4728183798389884,
                -0.4951755272839691
            ]
        },
        {
            "positions": [
                -0.5170995508280254,
                -0.4672501885402064,
                -1.1001277214801182,
                -0.2992970530101265,
                1.4149090506760313,
                -0.6146067698351397
            ]
        },
        {
            "positions": [
                -0.4879726365461115,
                -0.4976252712783872,
                -0.9609499551169769,
                -0.31880065476572883,
                1.3569997215130745,
                -0.7340380123863104
            ]
        },
        {
            "positions": [
                -0.4588457222641976,
                -0.528000354016568,
                -0.8217721887538355,
                -0.3383042565213312,
                1.2990903923501174,
                -0.8534692549374812
            ]
        },
        {
            "positions": [
                -0.4297188079822837,
                -0.5583754367547488,
                -0.6825944223906941,
                -0.3578078582769336,
                1.2411810631871605,
                -0.9729004974886518
            ]
        },
        {
            "positions": [
                -0.40059189370036985,
                -0.5887505194929296,
                -0.5434166560275527,
                -0.37731146003253596,
                1.1832717340242036,
                -1.0923317400398225
            ]
        },
        {
            "positions": [
                -0.3714649794184559,
                -0.6191256022311104,
                -0.40423888966441135,
                -0.3968150617881383,
                1.1253624048612465,
                -1.2117629825909932
            ]
        },
        {
            "positions": [
                -0.3423380651365421,
                -0.649500684969291,
                -0.2650611233012701,
                -0.4163186635437407,
                1.0674530756982896,
                -1.3311942251421638
            ]
        },
        {
            "positions": [
                -0.31321115085462814,
                -0.6798757677074718,
                -0.12588335693812858,
                -0.4358222652993431,
                1.0095437465353325,
                -1.4506254676933343
            ]
        },
        {
            "positions": [
                -0.28408423657271425,
                -0.7102508504456526,
                0.013294409425012699,
                -0.45532586705494543,
                0.9516344173723756,
                -1.570056710244505
            ]
        },
        {
            "positions": [
                -0.25495732229080037,
                -0.7406259331838334,
                0.15247217578815397,
                -0.4748294688105478,
                0.8937250882094188,
                -1.6894879527956759
            ]
        },
        {
            "positions": [
                -0.22583040800888649,
                -0.7710010159220142,
                0.29164994215129547,
                -0.49433307056615017,
                0.8358157590464618,
                -1.8089191953468466
            ]
        },
        {
            "positions": [
                -0.1967034937269726,
                -0.801376098660195,
                0.43082770851443675,
                -0.5138366723217525,
                0.7779064298835049,
                -1.928350437898017
            ]
        },
        {
            "positions": [
                -0.16757657944505866,
                -0.8317511813983758,
                0.5700054748775782,
                -0.533340274077355,
                0.7199971007205478,
                -2.047781680449188
            ]
        },
        {
            "positions": [
                -0.13844966516314483,
                -0.8621262641365566,
                0.7091832412407197,
                -0.5528438758329572,
                0.6620877715575909,
                -2.1672129230003585
            ]
        },
        {
            "positions": [
                -0.10932275088123095,
                -0.8925013468747374,
                0.8483610076038608,
                -0.5723474775885596,
                0.6041784423946339,
                -2.2866441655515293
            ]
        },
        {
            "positions": [
                -0.080195836599317,
                -0.9228764296129183,
                0.9875387739670023,
                -0.591851079344162,
                0.5462691132316769,
                -2.4060754081027
            ]
        },
        {
            "positions": [
                -0.05106892231740312,
                -0.953251512351099,
                1.1267165403301438,
                -0.6113546810997643,
                0.48835978406871994,
                -2.5255066506538704
            ]
        },
        {
            "positions": [
                -0.02194200803548929,
                -0.9836265950892797,
                1.2658943066932848,
                -0.6308582828553667,
                0.43045045490576306,
                -2.644937893205041
            ]
        },
        {
            "positions": [
                0.007184906246424649,
                -1.0140016778274605,
                1.4050720730564263,
                -0.6503618846109691,
                0.37254112574280596,
                -2.764369135756212
            ]
        },
        {
            "positions": [
                0.03631182052833848,
                -1.0443767605656413,
                1.5442498394195678,
                -0.6698654863665715,
                0.3146317965798491,
                -2.8838003783073827
            ]
        },
        {
            "positions": [
                0.06543873481025242,
                -1.0747518433038221,
                1.683427605782709,
                -0.6893690881221739,
                0.2567224674168922,
                -3.003231620858553
            ]
        },
        {
            "positions": [
                0.09456564909216636,
                -1.105126926042003,
                1.8226053721458508,
                -0.7088726898777762,
                0.1988131382539351,
                -3.1226628634097238
            ]
        },
        {
            "positions": [
                0.12369256337408022,
                -1.1355020087801837,
                1.9617831385089919,
                -0.7283762916333786,
                0.14090380909097816,
                -3.2420941059608945
            ]
        }
    ]
}