{
    "goal": {
        "global_pose": {
            "orientation": {
                "w": 0.7047431468963623,
                "x": -0.7094548344612122,
                "y": 0.0024358443915843964,
                "z": -0.0022348060738295317
            },
            "position": {
                "x": 0.6094750761985779,
                "y": 0.3671506643295288,
                "z": 0.19426114857196808
            }
        },
        "name": "move_to_magneteinheit_A"
    },
    "id": "LBTRRT_move_to_magneteinheit_A_82",
    "joint_names": [
        "shoulder_pan_joint",
        "shoulder_lift_joint",
        "elbow_joint",
        "wrist_1_joint",
        "wrist_2_joint",
        "wrist_3_joint"
    ],
    "metrics": {
        "cart_traj_len": 1.8712890156428583,
        "distance_elbow_joint": 3.926446567233861,
        "distance_shoulder_lift_joint": 0.7072324850369938,
        "distance_shoulder_pan_joint": 1.2419696729581111,
        "distance_wrist_1_joint": 1.5487847882381853,
        "distance_wrist_2_joint": 1.6993134580773468,
        "distance_wrist_3_joint": 1.1641497789827566,
        "smoothness": 9.539694167374905e-16,
        "time": 5.025924988,
        "traj_len": 3.2074751363848875,
        "weighted_distance": 3.983000697314564
    },
    "planner": "LBTRRT",
    "start": {
        "state": {
            "elbow_joint": -1.919643507792019,
            "shoulder_lift_joint": -0.07675430207160344,
            "shoulder_pan_joint": -1.1188671864651873,
            "wrist_1_joint": 0.42560062535961957,
            "wrist_2_joint": 1.5706038300724876,
            "wrist_3_joint": 1.1188968870953055
        }
    },
    "waypoints": [
        {
            "positions": [
                -1.1188671864651873,
                -0.07675430207160344,
                -1.919643507792019,
                0.42560062535961957,
                1.5706038300724876,
                1.1188968870953055
            ]
        },
        {
            "positions": [
                -1.0710991221206445,
                -0.10395555149610321,
                -1.7686263321291782,
                0.48516927106108826,
                1.5052456201464357,
                1.0741218955959688
            ]
        },
        {
            "positions": [
                -1.023331057776102,
                -0.13115680092060297,
                -1.6176091564663375,
                0.5447379167625569,
                1.439887410220384,
                1.0293469040966319
            ]
        },
        {
            "positions": [
                -0.9755629934315592,
                -0.15835805034510272,
                -1.4665919808034966,
                0.6043065624640256,
                1.3745292002943321,
                0.9845719125972952
            ]
        },
        {
            "positions": [
                -0.9277949290870164,
                -0.1855592997696025,
                -1.3155748051406557,
                0.6638752081654943,
                1.3091709903682804,
                0.9397969210979584
            ]
        },
        {
            "positions": [
                -0.8800268647424736,
                -0.21276054919410226,
                -1.164557629477815,
                0.723443853866963,
                1.2438127804422285,
                0.8950219295986216
            ]
        },
        {
            "positions": [
                -0.832258800397931,
                -0.239961798618602,
                -1.0135404538149742,
                0.7830124995684316,
                1.1784545705161769,
                0.8502469380992848
            ]
        },
        {
            "positions": [
                -0.7844907360533881,
                -0.26716304804310176,
                -0.8625232781521335,
                0.8425811452699001,
                1.113096360590125,
                0.805471946599948
            ]
        },
        {
            "positions": [
                -0.7367226717088454,
                -0.2943642974676015,
                -0.7115061024892926,
                0.9021497909713689,
                1.047738150664073,
                0.7606969551006112
            ]
        },
        {
            "positions": [
                -0.6889546073643027,
                -0.32156554689210126,
                -0.5604889268264519,
                0.9617184366728375,
                0.9823799407380214,
                0.7159219636012744
            ]
        },
        {
            "positions": [
                -0.64118654301976,
                -0.34876679631660107,
                -0.4094717511636108,
                1.0212870823743063,
                0.9170217308119696,
                0.6711469721019376
            ]
        },
        {
            "positions": [
                -0.5934184786752172,
                -0.3759680457411008,
                -0.2584545755007701,
                1.080855728075775,
                0.8516635208859178,
                0.6263719806026009
            ]
        },
        {
            "positions": [
                -0.5456504143306745,
                -0.40316929516560057,
                -0.10743739983792921,
                1.1404243737772437,
                0.786305310959866,
                0.581596989103264
            ]
        },
        {
            "positions": [
                -0.4978823499861318,
                -0.4303705445901003,
                0.04357977582491146,
                1.1999930194787123,
                0.7209471010338142,
                0.5368219976039272
            ]
        },
        {
            "positions": [
                -0.45011428564158906,
                -0.4575717940146001,
                0.19459695148775213,
                1.2595616651801809,
                0.6555888911077624,
                0.4920470061045905
            ]
        },
        {
            "positions": [
                -0.40234622129704634,
                -0.4847730434390998,
                0.3456141271505928,
                1.3191303108816494,
                0.5902306811817107,
                0.4472720146052537
            ]
        },
        {
            "positions": [
                -0.3545781569525035,
                -0.5119742928635996,
                0.49663130281343393,
                1.3786989565831183,
                0.5248724712556587,
                0.40249702310591684
            ]
        },
        {
            "positions": [
                -0.3068100926079609,
                -0.5391755422880994,
                0.6476484784762746,
                1.438267602284587,
                0.45951426132960704,
                0.35772203160658
            ]
        },
        {
            "positions": [
                -0.25904202826341816,
                -0.5663767917125991,
                0.7986656541391153,
                1.4978362479860556,
                0.39415605140355514,
                0.3129470401072433
            ]
        },
        {
            "positions": [
                -0.21127396391887543,
                -0.5935780411370988,
                0.949682829801956,
                1.5574048936875242,
                0.32879784147750346,
                0.26817204860790655
            ]
        },
        {
            "positions": [
                -0.1635058995743326,
                -0.6207792905615988,
                1.1007000054647975,
                1.616973539388993,
                0.26343963155145156,
                0.2233970571085696
            ]
        },
        {
            "positions": [
                -0.11573783522978998,
                -0.6479805399860985,
                1.2517171811276382,
                1.6765421850904616,
                0.19808142162539988,
                0.17862206560923288
            ]
        },
        {
            "positions": [
                -0.06796977088524714,
                -0.6751817894105983,
                1.4027343567904789,
                1.7361108307919302,
                0.13272321169934798,
                0.13384707410989616
            ]
        },
        {
            "positions": [
                -0.020201706540704523,
                -0.702383038835098,
                1.5537515324533195,
                1.795679476493399,
                0.0673650017732963,
                0.08907208261055932
            ]
        },
        {
            "positions": [
                0.027566357803838315,
                -0.7295842882595978,
                1.7047687081161607,
                1.8552481221948678,
                0.0020067918472443935,
                0.044297091111222375
            ]
        },
        {
            "positions": [
                0.07533442214838115,
                -0.7567855376840975,
                1.8557858837790013,
                1.9148167678963364,
                -0.06335141807880751,
                -0.00047790038811434954
            ]
        },
        {
            "positions": [
                0.12310248649292388,
                -0.7839867871085973,
                2.006803059441842,
                1.974385413597805,
                -0.12870962800485927,
                -0.045252891887451005
            ]
        }
    ]
}