{
    "goal": {
        "global_pose": {
            "orientation": {
                "w": 0.5084816217422485,
                "x": -0.49083608388900757,
                "y": 0.5182115435600281,
                "z": -0.4816462993621826
            },
            "position": {
                "x": 0.5540239810943604,
                "y": 0.030875300988554955,
                "z": 0.16403168439865112
            }
        },
        "name": "move_to_storage_A"
    },
    "id": "LBTRRT_move_to_storage_A_108",
    "joint_names": [
        "shoulder_pan_joint",
        "shoulder_lift_joint",
        "elbow_joint",
        "wrist_1_joint",
        "wrist_2_joint",
        "wrist_3_joint"
    ],
    "metrics": {
        "cart_traj_len": 0.35351740514182073,
        "distance_elbow_joint": 0.4550696196557267,
        "distance_shoulder_lift_joint": 0.2332720980864469,
        "distance_shoulder_pan_joint": 0.45890145682396666,
        "distance_wrist_1_joint": 0.26244662099754124,
        "distance_wrist_2_joint": 1.1144901083312277,
        "distance_wrist_3_joint": 0.10885624406688255,
        "smoothness": 4.440892098500626e-16,
        "time": 5.002645492,
        "traj_len": 1.6226632885357923,
        "weighted_distance": 2.056133596200482
    },
    "planner": "LBTRRT",
    "start": {
        "state": {
            "elbow_joint": 1.9715463870305268,
            "shoulder_lift_joint": -1.1394903361783484,
            "shoulder_pan_joint": 0.12281147578464417,
            "wrist_1_joint": -0.7804599489681411,
            "wrist_2_joint": 0.12958660307563738,
            "wrist_3_joint": -3.1924946282119055
        }
    },
    "waypoints": [
        {
            "positions": [
                0.12281147578464417,
                -1.1394903361783484,
                1.9715463870305268,
                -0.7804599489681411,
                0.12958660307563738,
                -3.1924946282119055
            ]
        },
        {
            "positions": [
                0.05725412480979179,
                -1.1728149216192694,
                2.0365563326956306,
                -0.8179523233963613,
                0.2887994756943842,
                -3.1769437362023507
            ]
        },
        {
            "positions": [
                -0.008303226165060587,
                -1.2061395070601904,
                2.1015662783607345,
                -0.8554446978245814,
                0.44801234831313097,
                -3.1613928441927963
            ]
        },
        {
            "positions": [
                -0.07386057713991297,
                -1.2394640925011113,
                2.1665762240258384,
                -0.8929370722528016,
                0.6072252209318778,
                -3.1458419521832415
            ]
        },
        {
            "positions": [
                -0.13941792811476533,
                -1.2727886779420323,
                2.231586169690942,
                -0.9304294466810218,
                0.7664380935506246,
                -3.130291060173687
            ]
        },
        {
            "positions": [
                -0.2049752790896177,
                -1.3061132633829533,
                2.2965961153560457,
                -0.967921821109242,
                0.9256509661693715,
                -3.1147401681641322
            ]
        },
        {
            "positions": [
                -0.2705326300644701,
                -1.3394378488238743,
                2.3616060610211496,
                -1.0054141955374623,
                1.0848638387881182,
                -3.099189276154578
            ]
        },
        {
            "positions": [
                -0.33608998103932247,
                -1.3727624342647953,
                2.4266160066862534,
                -1.0429065699656823,
                1.2440767114068652,
                -3.083638384145023
            ]
        }
    ]
}