{
    "goal": {
        "global_pose": {
            "orientation": {
                "w": 0.7047431468963623,
                "x": -0.7094548344612122,
                "y": 0.0024358443915843964,
                "z": -0.0022348060738295317
            },
            "position": {
                "x": 0.6094750761985779,
                "y": 0.3671506643295288,
                "z": 0.19426114857196808
            }
        },
        "name": "move_to_magneteinheit_A"
    },
    "id": "LBTRRT_move_to_magneteinheit_A_121",
    "joint_names": [
        "shoulder_pan_joint",
        "shoulder_lift_joint",
        "elbow_joint",
        "wrist_1_joint",
        "wrist_2_joint",
        "wrist_3_joint"
    ],
    "metrics": {
        "cart_traj_len": 2.0978447539160388,
        "distance_elbow_joint": 4.08074096904728,
        "distance_shoulder_lift_joint": 1.1830419752268793,
        "distance_shoulder_pan_joint": 1.240592385002766,
        "distance_wrist_1_joint": 1.370751925539622,
        "distance_wrist_2_joint": 1.9485448915881494,
        "distance_wrist_3_joint": 4.391983945867375,
        "smoothness": 0.4168166301494425,
        "time": 5.063806927,
        "traj_len": 3.770365511760374,
        "weighted_distance": 5.130196955394072
    },
    "planner": "LBTRRT",
    "start": {
        "state": {
            "elbow_joint": -1.919643507792019,
            "shoulder_lift_joint": -0.07675430207160344,
            "shoulder_pan_joint": -1.1188671864651873,
            "wrist_1_joint": 0.42560062535961957,
            "wrist_2_joint": 1.5706038300724876,
            "wrist_3_joint": 1.1188968870953055
        }
    },
    "waypoints": [
        {
            "positions": [
                -1.1188671864651873,
                -0.07675430207160344,
                -1.919643507792019,
                0.42560062535961957,
                1.5706038300724876,
                1.1188968870953055
            ]
        },
        {
            "positions": [
                -1.0876027950741023,
                -0.10961053463307971,
                -1.8026928446510855,
                0.38888472071482083,
                1.5206886239809783,
                0.9906875895854452
            ]
        },
        {
            "positions": [
                -1.056338403683017,
                -0.14246676719455598,
                -1.6857421815101516,
                0.35216881607002215,
                1.470773417889469,
                0.8624782920755848
            ]
        },
        {
            "positions": [
                -1.025074012291932,
                -0.17532299975603227,
                -1.568791518369218,
                0.31545291142522347,
                1.4208582117979596,
                0.7342689945657244
            ]
        },
        {
            "positions": [
                -0.9938096209008467,
                -0.20817923231750854,
                -1.4518408552282844,
                0.27873700678042473,
                1.3709430057064502,
                0.606059697055864
            ]
        },
        {
            "positions": [
                -0.9625452295097615,
                -0.24103546487898483,
                -1.3348901920873506,
                0.24202110213562603,
                1.3210277996149409,
                0.4778503995460036
            ]
        },
        {
            "positions": [
                -0.9312808381186763,
                -0.2738916974404611,
                -1.2179395289464168,
                0.20530519749082732,
                1.2711125935234315,
                0.3496411020361433
            ]
        },
        {
            "positions": [
                -0.9000164467275913,
                -0.30674793000193734,
                -1.1009888658054834,
                0.16858929284602864,
                1.2211973874319222,
                0.22143180452628297
            ]
        },
        {
            "positions": [
                -0.868752055336506,
                -0.33960416256341364,
                -0.9840382026645496,
                0.1318733882012299,
                1.1712821813404128,
                0.09322250701642254
            ]
        },
        {
            "positions": [
                -0.837487663945421,
                -0.37246039512488993,
                -0.8670875395236157,
                0.09515748355643122,
                1.1213669752489035,
                -0.03498679049343778
            ]
        },
        {
            "positions": [
                -0.8062232725543357,
                -0.4053166276863662,
                -0.7501368763826821,
                0.058441578911632486,
                1.0714517691573942,
                -0.16319608800329832
            ]
        },
        {
            "positions": [
                -0.7749588811632506,
                -0.43817286024784247,
                -0.6331862132417483,
                0.02172567426683375,
                1.0215365630658848,
                -0.29140538551315864
            ]
        },
        {
            "positions": [
                -0.7436944897721653,
                -0.47102909280931876,
                -0.5162355501008147,
                -0.01499023037796493,
                0.9716213569743753,
                -0.41961468302301896
            ]
        },
        {
            "positions": [
                -0.7124300983810803,
                -0.503885325370795,
                -0.39928488695988107,
                -0.05170613502276361,
                0.9217061508828661,
                -0.5478239805328793
            ]
        },
        {
            "positions": [
                -0.6811657069899951,
                -0.5367415579322713,
                -0.28233422381894746,
                -0.08842203966756229,
                0.8717909447913567,
                -0.6760332780427396
            ]
        },
        {
            "positions": [
                -0.64990131559891,
                -0.5695977904937475,
                -0.16538356067801363,
                -0.12513794431236097,
                0.8218757386998473,
                -0.8042425755525999
            ]
        },
        {
            "positions": [
                -0.6186369242078248,
                -0.6024540230552238,
                -0.04843289753708002,
                -0.16185384895715976,
                0.771960532608338,
                -0.9324518730624605
            ]
        },
        {
            "positions": [
                -0.5873725328167396,
                -0.6353102556167001,
                0.06851776560385381,
                -0.19856975360195844,
                0.7220453265168286,
                -1.0606611705723208
            ]
        },
        {
            "positions": [
                -0.5561081414256545,
                -0.6681664881781764,
                0.18546842874478764,
                -0.23528565824675712,
                0.6721301204253193,
                -1.188870468082181
            ]
        },
        {
            "positions": [
                -0.5248437500345693,
                -0.7010227207396527,
                0.30241909188572147,
                -0.2720015628915559,
                0.6222149143338099,
                -1.3170797655920414
            ]
        },
        {
            "positions": [
                -0.4935793586434841,
                -0.733878953301129,
                0.41936975502665486,
                -0.3087174675363546,
                0.5722997082423006,
                -1.4452890631019022
            ]
        },
        {
            "positions": [
                -0.46231496725239896,
                -0.7667351858626053,
                0.5363204181675887,
                -0.3454333721811533,
                0.5223845021507911,
                -1.5734983606117625
            ]
        },
        {
            "positions": [
                -0.4310505758613138,
                -0.7995914184240815,
                0.6532710813085225,
                -0.38214927682595207,
                0.4724692960592818,
                -1.7017076581216228
            ]
        },
        {
            "positions": [
                -0.3997861844702286,
                -0.8324476509855578,
                0.7702217444494563,
                -0.41886518147075075,
                0.42255408996777244,
                -1.8299169556314832
            ]
        },
        {
            "positions": [
                -0.36852179307914346,
                -0.8653038835470341,
                0.8871724075903897,
                -0.4555810861155494,
                0.3726388838762631,
                -1.9581262531413435
            ]
        },
        {
            "positions": [
                -0.3372574016880583,
                -0.8981601161085104,
                1.0041230707313236,
                -0.4922969907603481,
                0.32272367778475375,
                -2.086335550651204
            ]
        },
        {
            "positions": [
                -0.30599301029697323,
                -0.9310163486699865,
                1.121073733872257,
                -0.5290128954051467,
                0.2728084716932446,
                -2.214544848161064
            ]
        },
        {
            "positions": [
                -0.27472861890588807,
                -0.9638725812314628,
                1.2380243970131908,
                -0.5657288000499454,
                0.22289326560173528,
                -2.3427541456709244
            ]
        },
        {
            "positions": [
                -0.2434642275148029,
                -0.9967288137929391,
                1.3549750601541242,
                -0.6024447046947441,
                0.1729780595102257,
                -2.4709634431807848
            ]
        },
        {
            "positions": [
                -0.21219983612371773,
                -1.0295850463544154,
                1.471925723295058,
                -0.6391606093395428,
                0.12306285341871637,
                -2.599172740690645
            ]
        },
        {
            "positions": [
                -0.18093544473263257,
                -1.0624412789158917,
                1.5888763864359918,
                -0.6758765139843415,
                0.07314764732720702,
                -2.7273820382005054
            ]
        },
        {
            "positions": [
                -0.1496710533415474,
                -1.095297511477368,
                1.7058270495769257,
                -0.7125924186291404,
                0.023232441235697676,
                -2.8555913357103657
            ]
        },
        {
            "positions": [
                -0.11840666195046223,
                -1.1281537440388443,
                1.822777712717859,
                -0.749308323273939,
                -0.02668276485581167,
                -2.9838006332202265
            ]
        },
        {
            "positions": [
                -0.08714227055937718,
                -1.1610099766003206,
                1.9397283758587929,
                -0.7860242279187377,
                -0.07659797094732101,
                -3.112009930730087
            ]
        },
        {
            "positions": [
                -0.05587787916829186,
                -1.1938662091617969,
                2.0566790389997265,
                -0.8227401325635364,
                -0.1265131770388303,
                -3.2402192282399467
            ]
        },
        {
            "positions": [
                0.03292365968464338,
                -1.160901175093454,
                2.0044698278719597,
                -0.7615345487553032,
                -0.00079923480041455,
                -3.2566531435060084
            ]
        },
        {
            "positions": [
                0.12172519853757861,
                -1.127936141025111,
                1.952260616744193,
                -0.7003289649470701,
                0.12491470743800118,
                -3.27308705877207
            ]
        }
    ]
}