{
    "goal": {
        "global_pose": {
            "orientation": {
                "w": 0.5084816217422485,
                "x": -0.49083608388900757,
                "y": 0.5182115435600281,
                "z": -0.4816462993621826
            },
            "position": {
                "x": 0.5540239810943604,
                "y": 0.030875300988554955,
                "z": 0.16403168439865112
            }
        },
        "name": "move_to_storage_A"
    },
    "id": "LBTRRT_move_to_storage_A_91",
    "joint_names": [
        "shoulder_pan_joint",
        "shoulder_lift_joint",
        "elbow_joint",
        "wrist_1_joint",
        "wrist_2_joint",
        "wrist_3_joint"
    ],
    "metrics": {
        "cart_traj_len": 0.3538469580269977,
        "distance_elbow_joint": 0.4505847857064267,
        "distance_shoulder_lift_joint": 0.23589916609480865,
        "distance_shoulder_pan_joint": 0.4611488723433677,
        "distance_wrist_1_joint": 0.24204979853835817,
        "distance_wrist_2_joint": 1.1078878079091214,
        "distance_wrist_3_joint": 0.08731453345390339,
        "smoothness": 1.7763568464331194e-15,
        "time": 5.002104483,
        "traj_len": 1.607757744203394,
        "weighted_distance": 2.0271782450986575
    },
    "planner": "LBTRRT",
    "start": {
        "state": {
            "elbow_joint": 1.9715463870305268,
            "shoulder_lift_joint": -1.1394903361783484,
            "shoulder_pan_joint": 0.12281147578464417,
            "wrist_1_joint": -0.7804599489681411,
            "wrist_2_joint": 0.12958660307563738,
            "wrist_3_joint": -3.1924946282119055
        }
    },
    "waypoints": [
        {
            "positions": [
                0.12281147578464417,
                -1.1394903361783484,
                1.9715463870305268,
                -0.7804599489681411,
                0.12958660307563738,
                -3.1924946282119055
            ]
        },
        {
            "positions": [
                0.05693306544987736,
                -1.1731902170490354,
                2.035915642131445,
                -0.815038491616478,
                0.2878562899197976,
                -3.1800211234327764
            ]
        },
        {
            "positions": [
                -0.008945344884889447,
                -1.2068900979197223,
                2.100284897232363,
                -0.8496170342648148,
                0.4461259767639578,
                -3.1675476186536473
            ]
        },
        {
            "positions": [
                -0.07482375521965627,
                -1.2405899787904093,
                2.164654152333281,
                -0.8841955769131518,
                0.604395663608118,
                -3.155074113874518
            ]
        },
        {
            "positions": [
                -0.14070216555442305,
                -1.274289859661096,
                2.229023407434199,
                -0.9187741195614886,
                0.7626653504522782,
                -3.1426006090953895
            ]
        },
        {
            "positions": [
                -0.20658057588918988,
                -1.307989740531783,
                2.2933926625351173,
                -0.9533526622098255,
                0.9209350372964384,
                -3.1301271043162604
            ]
        },
        {
            "positions": [
                -0.2724589862239567,
                -1.34168962140247,
                2.357761917636035,
                -0.9879312048581623,
                1.0792047241405986,
                -3.1176535995371313
            ]
        },
        {
            "positions": [
                -0.3383373965587235,
                -1.375389502273157,
                2.4221311727369534,
                -1.0225097475064993,
                1.2374744109847589,
                -3.105180094758002
            ]
        }
    ]
}