{
    "goal": {
        "global_pose": {
            "orientation": {
                "w": 0.7047431468963623,
                "x": -0.7094548344612122,
                "y": 0.0024358443915843964,
                "z": -0.0022348060738295317
            },
            "position": {
                "x": 0.6094750761985779,
                "y": 0.3671506643295288,
                "z": 0.19426114857196808
            }
        },
        "name": "move_to_magneteinheit_A"
    },
    "id": "LBTRRT_move_to_magneteinheit_A_53",
    "joint_names": [
        "shoulder_pan_joint",
        "shoulder_lift_joint",
        "elbow_joint",
        "wrist_1_joint",
        "wrist_2_joint",
        "wrist_3_joint"
    ],
    "metrics": {
        "cart_traj_len": 2.5240775990878963,
        "distance_elbow_joint": 3.8851143867006623,
        "distance_shoulder_lift_joint": 1.0593891779162405,
        "distance_shoulder_pan_joint": 2.1013316992941538,
        "distance_wrist_1_joint": 1.1800528485279869,
        "distance_wrist_2_joint": 1.4490585424657585,
        "distance_wrist_3_joint": 4.33604233404599,
        "smoothness": 0.08113683343707558,
        "time": 5.062824344,
        "traj_len": 3.7431255641443273,
        "weighted_distance": 5.0311216490993855
    },
    "planner": "LBTRRT",
    "start": {
        "state": {
            "elbow_joint": -1.919643507792019,
            "shoulder_lift_joint": -0.07675430207160344,
            "shoulder_pan_joint": -1.1188671864651873,
            "wrist_1_joint": 0.42560062535961957,
            "wrist_2_joint": 1.5706038300724876,
            "wrist_3_joint": 1.1188968870953055
        }
    },
    "waypoints": [
        {
            "positions": [
                -1.1188671864651873,
                -0.07675430207160344,
                -1.919643507792019,
                0.42560062535961957,
                1.5706038300724876,
                1.1188968870953055
            ]
        },
        {
            "positions": [
                -1.1546741373794216,
                -0.13047400849152777,
                -1.8203874237002,
                0.3871376083653069,
                1.487550901969147,
                1.045765045589763
            ]
        },
        {
            "positions": [
                -1.190481088293656,
                -0.1841937149114521,
                -1.721131339608381,
                0.34867459137099427,
                1.4044979738658068,
                0.9726332040842203
            ]
        },
        {
            "positions": [
                -1.2262880392078905,
                -0.23791342133137644,
                -1.6218752555165619,
                0.3102115743766816,
                1.3214450457624662,
                0.8995013625786776
            ]
        },
        {
            "positions": [
                -1.2620949901221248,
                -0.2916331277513008,
                -1.522619171424743,
                0.27174855738236897,
                1.2383921176591257,
                0.8263695210731351
            ]
        },
        {
            "positions": [
                -1.297901941036359,
                -0.34535283417122514,
                -1.423363087332924,
                0.23328554038805632,
                1.1553391895557854,
                0.7532376795675924
            ]
        },
        {
            "positions": [
                -1.3337088919505935,
                -0.39907254059114944,
                -1.3241070032411049,
                0.19482252339374367,
                1.0722862614524449,
                0.6801058380620498
            ]
        },
        {
            "positions": [
                -1.369515842864828,
                -0.4527922470110738,
                -1.2248509191492858,
                0.15635950639943103,
                0.9892333333491045,
                0.6069739965565072
            ]
        },
        {
            "positions": [
                -1.4053227937790622,
                -0.5065119534309981,
                -1.1255948350574667,
                0.11789648940511838,
                0.906180405245764,
                0.5338421550509647
            ]
        },
        {
            "positions": [
                -1.4411297446932965,
                -0.5602316598509225,
                -1.0263387509656479,
                0.07943347241080573,
                0.8231274771424236,
                0.460710313545422
            ]
        },
        {
            "positions": [
                -1.476936695607531,
                -0.6139513662708469,
                -0.9270826668738287,
                0.04097045541649308,
                0.7400745490390831,
                0.3875784720398793
            ]
        },
        {
            "positions": [
                -1.5127436465217654,
                -0.6676710726907711,
                -0.8278265827820097,
                0.0025074384221804302,
                0.6570216209357428,
                0.31444663053433675
            ]
        },
        {
            "positions": [
                -1.5485505974359997,
                -0.7213907791106955,
                -0.7285704986901906,
                -0.035955578572132205,
                0.5739686928324023,
                0.24131478902879408
            ]
        },
        {
            "positions": [
                -1.4788985854225272,
                -0.7386721416472434,
                -0.6163187746235725,
                -0.06589293876364198,
                0.5551177176146659,
                0.09721227919631578
            ]
        },
        {
            "positions": [
                -1.4092465734090545,
                -0.7559535041837913,
                -0.5040670505569544,
                -0.09583029895515177,
                0.5362667423969295,
                -0.046890230636162517
            ]
        },
        {
            "positions": [
                -1.339594561395582,
                -0.773234866720339,
                -0.3918153264903364,
                -0.12576765914666155,
                0.5174157671791932,
                -0.19099274046864087
            ]
        },
        {
            "positions": [
                -1.2699425493821095,
                -0.7905162292568869,
                -0.27956360242371836,
                -0.15570501933817132,
                0.49856479196145687,
                -0.3350952503011191
            ]
        },
        {
            "positions": [
                -1.2002905373686368,
                -0.8077975917934348,
                -0.16731187835710026,
                -0.1856423795296811,
                0.4797138167437205,
                -0.4791977601335975
            ]
        },
        {
            "positions": [
                -1.1306385253551643,
                -0.8250789543299826,
                -0.055060154290482166,
                -0.21557973972119088,
                0.4608628415259841,
                -0.6233002699660758
            ]
        },
        {
            "positions": [
                -1.0609865133416916,
                -0.8423603168665305,
                0.05719156977613593,
                -0.2455170999127007,
                0.44201186630824774,
                -0.7674027797985541
            ]
        },
        {
            "positions": [
                -0.9913345013282192,
                -0.8596416794030783,
                0.16944329384275392,
                -0.27545446010421043,
                0.4231608910905114,
                -0.9115052896310323
            ]
        },
        {
            "positions": [
                -0.9216824893147466,
                -0.8769230419396262,
                0.281695017909372,
                -0.30539182029572026,
                0.40430991587277504,
                -1.0556077994635107
            ]
        },
        {
            "positions": [
                -0.852030477301274,
                -0.8942044044761741,
                0.3939467419759901,
                -0.33532918048723004,
                0.38545894065503866,
                -1.199710309295989
            ]
        },
        {
            "positions": [
                -0.7823784652878015,
                -0.9114857670127219,
                0.5061984660426082,
                -0.3652665406787398,
                0.36660796543730234,
                -1.3438128191284673
            ]
        },
        {
            "positions": [
                -0.7127264532743289,
                -0.9287671295492698,
                0.6184501901092263,
                -0.3952039008702496,
                0.34775699021956596,
                -1.4879153289609457
            ]
        },
        {
            "positions": [
                -0.6430744412608564,
                -0.9460484920858176,
                0.7307019141758442,
                -0.42514126106175937,
                0.3289060150018296,
                -1.6320178387934239
            ]
        },
        {
            "positions": [
                -0.5734224292473837,
                -0.9633298546223655,
                0.8429536382424625,
                -0.4550786212532692,
                0.3100550397840932,
                -1.7761203486259023
            ]
        },
        {
            "positions": [
                -0.5037704172339112,
                -0.9806112171589133,
                0.9552053623090806,
                -0.4850159814447789,
                0.2912040645663569,
                -1.9202228584583805
            ]
        },
        {
            "positions": [
                -0.43411840522043876,
                -0.9978925796954612,
                1.0674570863756985,
                -0.5149533416362887,
                0.27235308934862057,
                -2.064325368290859
            ]
        },
        {
            "positions": [
                -0.36446639320696606,
                -1.0151739422320092,
                1.1797088104423168,
                -0.5448907018277984,
                0.25350211413088414,
                -2.2084278781233375
            ]
        },
        {
            "positions": [
                -0.29481438119349357,
                -1.032455304768557,
                1.2919605345089347,
                -0.5748280620193083,
                0.23465113891314782,
                -2.3525303879558157
            ]
        },
        {
            "positions": [
                -0.22516236918002108,
                -1.0497366673051047,
                1.4042122585755525,
                -0.604765422210818,
                0.2158001636954115,
                -2.496632897788294
            ]
        },
        {
            "positions": [
                -0.15551035716654837,
                -1.0670180298416527,
                1.5164639826421709,
                -0.6347027824023278,
                0.19694918847767506,
                -2.6407354076207725
            ]
        },
        {
            "positions": [
                -0.08585834515307589,
                -1.0842993923782005,
                1.6287157067087892,
                -0.6646401425938375,
                0.17809821325993874,
                -2.7848379174532507
            ]
        },
        {
            "positions": [
                -0.0162063331396034,
                -1.1015807549147483,
                1.740967430775407,
                -0.6945775027853474,
                0.15924723804220242,
                -2.928940427285729
            ]
        },
        {
            "positions": [
                0.05344567887386931,
                -1.1188621174512963,
                1.8532191548420254,
                -0.7245148629768572,
                0.140396262824466,
                -3.0730429371182075
            ]
        },
        {
            "positions": [
                0.12309769088734186,
                -1.136143479987844,
                1.9654708789086432,
                -0.7544522231683669,
                0.12154528760672964,
                -3.2171454469506857
            ]
        }
    ]
}