{
    "goal": {
        "global_pose": {
            "orientation": {
                "w": 0.5084816217422485,
                "x": -0.49083608388900757,
                "y": 0.5182115435600281,
                "z": -0.4816462993621826
            },
            "position": {
                "x": 0.5540239810943604,
                "y": 0.030875300988554955,
                "z": 0.16403168439865112
            }
        },
        "name": "move_to_storage_A"
    },
    "id": "LBTRRT_move_to_storage_A_72",
    "joint_names": [
        "shoulder_pan_joint",
        "shoulder_lift_joint",
        "elbow_joint",
        "wrist_1_joint",
        "wrist_2_joint",
        "wrist_3_joint"
    ],
    "metrics": {
        "cart_traj_len": 0.35276397525104164,
        "distance_elbow_joint": 0.45252917254153013,
        "distance_shoulder_lift_joint": 0.23401369278423134,
        "distance_shoulder_pan_joint": 0.4575075669491355,
        "distance_wrist_1_joint": 0.2576621060949461,
        "distance_wrist_2_joint": 1.114273825560839,
        "distance_wrist_3_joint": 0.09104629176646561,
        "smoothness": 6.661338200497456e-16,
        "time": 5.003442788,
        "traj_len": 1.6146308109586995,
        "weighted_distance": 2.039867929765519
    },
    "planner": "LBTRRT",
    "start": {
        "state": {
            "elbow_joint": 1.9715463870305268,
            "shoulder_lift_joint": -1.1394903361783484,
            "shoulder_pan_joint": 0.12281147578464417,
            "wrist_1_joint": -0.7804599489681411,
            "wrist_2_joint": 0.12958660307563738,
            "wrist_3_joint": -3.1924946282119055
        }
    },
    "waypoints": [
        {
            "positions": [
                0.12281147578464417,
                -1.1394903361783484,
                1.9715463870305268,
                -0.7804599489681411,
                0.12958660307563738,
                -3.1924946282119055
            ]
        },
        {
            "positions": [
                0.05745325193476768,
                -1.1729208637189528,
                2.0361934116793168,
                -0.8172688212674191,
                0.28876857815575724,
                -3.1794880151024105
            ]
        },
        {
            "positions": [
                -0.007904971915108819,
                -1.2063513912595574,
                2.100840436328107,
                -0.8540776935666972,
                0.44795055323587707,
                -3.1664814019929155
            ]
        },
        {
            "positions": [
                -0.07326319576498531,
                -1.2397819188001618,
                2.165487460976897,
                -0.8908865658659751,
                0.607132528315997,
                -3.1534747888834205
            ]
        },
        {
            "positions": [
                -0.1386214196148618,
                -1.2732124463407664,
                2.230134485625687,
                -0.9276954381652531,
                0.7663145033961168,
                -3.140468175773925
            ]
        },
        {
            "positions": [
                -0.20397964346473835,
                -1.3066429738813707,
                2.294781510274477,
                -0.9645043104645312,
                0.9254964784762367,
                -3.12746156266443
            ]
        },
        {
            "positions": [
                -0.2693378673146148,
                -1.3400735014219753,
                2.359428534923267,
                -1.001313182763809,
                1.0846784535563565,
                -3.114454949554935
            ]
        },
        {
            "positions": [
                -0.33469609116449134,
                -1.3735040289625797,
                2.424075559572057,
                -1.0381220550630872,
                1.2438604286364765,
                -3.10144833644544
            ]
        }
    ]
}