{
    "goal": {
        "global_pose": {
            "orientation": {
                "w": 0.7047431468963623,
                "x": -0.7094548344612122,
                "y": 0.0024358443915843964,
                "z": -0.0022348060738295317
            },
            "position": {
                "x": 0.6094750761985779,
                "y": 0.3671506643295288,
                "z": 0.19426114857196808
            }
        },
        "name": "move_to_magneteinheit_A"
    },
    "id": "LBTRRT_move_to_magneteinheit_A_39",
    "joint_names": [
        "shoulder_pan_joint",
        "shoulder_lift_joint",
        "elbow_joint",
        "wrist_1_joint",
        "wrist_2_joint",
        "wrist_3_joint"
    ],
    "metrics": {
        "cart_traj_len": 2.0699938993537024,
        "distance_elbow_joint": 3.900233086148997,
        "distance_shoulder_lift_joint": 1.0675647376786408,
        "distance_shoulder_pan_joint": 1.241887239828869,
        "distance_wrist_1_joint": 1.254650397361154,
        "distance_wrist_2_joint": 1.4458811242500051,
        "distance_wrist_3_joint": 2.0209849548336485,
        "smoothness": 3.0626842128365373e-16,
        "time": 5.006857815,
        "traj_len": 3.3062367640720036,
        "weighted_distance": 4.204010343871643
    },
    "planner": "LBTRRT",
    "start": {
        "state": {
            "elbow_joint": -1.919643507792019,
            "shoulder_lift_joint": -0.07675430207160344,
            "shoulder_pan_joint": -1.1188671864651873,
            "wrist_1_joint": 0.42560062535961957,
            "wrist_2_joint": 1.5706038300724876,
            "wrist_3_joint": 1.1188968870953055
        }
    },
    "waypoints": [
        {
            "positions": [
                -1.1188671864651873,
                -0.07675430207160344,
                -1.919643507792019,
                0.42560062535961957,
                1.5706038300724876,
                1.1188968870953055
            ]
        },
        {
            "positions": [
                -1.0745140707570136,
                -0.1148816141315549,
                -1.7803494690009836,
                0.3807916825967212,
                1.5189652184921303,
                1.1910749211965073
            ]
        },
        {
            "positions": [
                -1.0301609550488395,
                -0.15300892619150636,
                -1.6410554302099478,
                0.3359827398338229,
                1.467326606911773,
                1.263252955297709
            ]
        },
        {
            "positions": [
                -0.9858078393406657,
                -0.1911362382514578,
                -1.5017613914189123,
                0.2911737970709245,
                1.4156879953314156,
                1.3354309893989107
            ]
        },
        {
            "positions": [
                -0.9414547236324918,
                -0.22926355031140927,
                -1.3624673526278768,
                0.24636485430802615,
                1.3640493837510583,
                1.4076090235001124
            ]
        },
        {
            "positions": [
                -0.8971016079243179,
                -0.2673908623713607,
                -1.223173313836841,
                0.20155591154512778,
                1.312410772170701,
                1.4797870576013143
            ]
        },
        {
            "positions": [
                -0.852748492216144,
                -0.3055181744313122,
                -1.0838792750458055,
                0.15674696878222943,
                1.2607721605903437,
                1.5519650917025158
            ]
        },
        {
            "positions": [
                -0.8083953765079701,
                -0.34364548649126364,
                -0.9445852362547699,
                0.11193802601933106,
                1.2091335490099864,
                1.6241431258037178
            ]
        },
        {
            "positions": [
                -0.7640422607997963,
                -0.3817727985512151,
                -0.8052911974637342,
                0.06712908325643274,
                1.157494937429629,
                1.6963211599049193
            ]
        },
        {
            "positions": [
                -0.7196891450916223,
                -0.41990011061116655,
                -0.6659971586726985,
                0.022320140493534313,
                1.1058563258492717,
                1.7684991940061212
            ]
        },
        {
            "positions": [
                -0.6753360293834485,
                -0.458027422671118,
                -0.526703119881663,
                -0.022488802269364006,
                1.0542177142689142,
                1.840677228107323
            ]
        },
        {
            "positions": [
                -0.6309829136752745,
                -0.49615473473106947,
                -0.38740908109062744,
                -0.06729774503226238,
                1.002579102688557,
                1.9128552622085246
            ]
        },
        {
            "positions": [
                -0.5866297979671007,
                -0.534282046791021,
                -0.24811504229959191,
                -0.1121066877951607,
                0.9509404911081997,
                1.9850332963097261
            ]
        },
        {
            "positions": [
                -0.5422766822589268,
                -0.5724093588509724,
                -0.10882100350855617,
                -0.15691563055805907,
                0.8993018795278424,
                2.057211330410928
            ]
        },
        {
            "positions": [
                -0.49792356655075287,
                -0.6105366709109239,
                0.030473035282479355,
                -0.20172457332095745,
                0.847663267947485,
                2.1293893645121296
            ]
        },
        {
            "positions": [
                -0.45357045084257896,
                -0.6486639829708754,
                0.16976707407351488,
                -0.24653351608385582,
                0.7960246563671277,
                2.2015673986133315
            ]
        },
        {
            "positions": [
                -0.40921733513440517,
                -0.6867912950308268,
                0.3090611128645506,
                -0.2913424588467541,
                0.7443860447867704,
                2.2737454327145334
            ]
        },
        {
            "positions": [
                -0.36486421942623126,
                -0.7249186070907783,
                0.4483551516555859,
                -0.33615140160965246,
                0.6927474332064131,
                2.345923466815735
            ]
        },
        {
            "positions": [
                -0.32051110371805724,
                -0.7630459191507297,
                0.5876491904466221,
                -0.38096034437255094,
                0.6411088216260556,
                2.418101500916937
            ]
        },
        {
            "positions": [
                -0.27615798800988334,
                -0.8011732312106812,
                0.7269432292376574,
                -0.4257692871354493,
                0.5894702100456983,
                2.4902795350181384
            ]
        },
        {
            "positions": [
                -0.23180487230170954,
                -0.8393005432706326,
                0.8662372680286932,
                -0.4705782298983476,
                0.537831598465341,
                2.5624575691193403
            ]
        },
        {
            "positions": [
                -0.18745175659353563,
                -0.8774278553305841,
                1.0055313068197285,
                -0.515387172661246,
                0.4861929868849837,
                2.634635603220542
            ]
        },
        {
            "positions": [
                -0.14309864088536173,
                -0.9155551673905356,
                1.1448253456107642,
                -0.5601961154241444,
                0.4345543753046264,
                2.7068136373217433
            ]
        },
        {
            "positions": [
                -0.09874552517718782,
                -0.953682479450487,
                1.2841193844017995,
                -0.6050050581870425,
                0.38291576372426905,
                2.7789916714229452
            ]
        },
        {
            "positions": [
                -0.054392409469014025,
                -0.9918097915104385,
                1.4234134231928353,
                -0.6498140009499409,
                0.33127715214391174,
                2.851169705524147
            ]
        },
        {
            "positions": [
                -0.010039293760840007,
                -1.02993710357039,
                1.562707461983871,
                -0.6946229437128393,
                0.2796385405635544,
                2.923347739625349
            ]
        },
        {
            "positions": [
                0.03431382194733379,
                -1.0680644156303414,
                1.7020015007749068,
                -0.7394318864757377,
                0.2279999289831971,
                2.9955257737265506
            ]
        },
        {
            "positions": [
                0.07866693765550781,
                -1.1061917276902928,
                1.841295539565942,
                -0.784240829238636,
                0.17636131740283978,
                3.067703807827752
            ]
        },
        {
            "positions": [
                0.12302005336368155,
                -1.1443190397502443,
                1.9805895783569778,
                -0.8290497720015345,
                0.12472270582248247,
                3.139881841928954
            ]
        }
    ]
}