{
    "goal": {
        "global_pose": {
            "orientation": {
                "w": 0.7047431468963623,
                "x": -0.7094548344612122,
                "y": 0.0024358443915843964,
                "z": -0.0022348060738295317
            },
            "position": {
                "x": 0.6094750761985779,
                "y": 0.3671506643295288,
                "z": 0.19426114857196808
            }
        },
        "name": "move_to_magneteinheit_A"
    },
    "id": "LBTRRT_move_to_magneteinheit_A_127",
    "joint_names": [
        "shoulder_pan_joint",
        "shoulder_lift_joint",
        "elbow_joint",
        "wrist_1_joint",
        "wrist_2_joint",
        "wrist_3_joint"
    ],
    "metrics": {
        "cart_traj_len": 2.067863229102316,
        "distance_elbow_joint": 3.8816671897312607,
        "distance_shoulder_lift_joint": 1.0580081000188164,
        "distance_shoulder_pan_joint": 1.2420433589058564,
        "distance_wrist_1_joint": 1.2875994839535565,
        "distance_wrist_2_joint": 1.4455475370863626,
        "distance_wrist_3_joint": 4.335049688849378,
        "smoothness": 0.11969157904957523,
        "time": 5.0437354249999995,
        "traj_len": 3.6400433182237317,
        "weighted_distance": 4.965195037184733
    },
    "planner": "LBTRRT",
    "start": {
        "state": {
            "elbow_joint": -1.919643507792019,
            "shoulder_lift_joint": -0.07675430207160344,
            "shoulder_pan_joint": -1.1188671864651873,
            "wrist_1_joint": 0.42560062535961957,
            "wrist_2_joint": 1.5706038300724876,
            "wrist_3_joint": 1.1188968870953055
        }
    },
    "waypoints": [
        {
            "positions": [
                -1.1188671864651873,
                -0.07675430207160344,
                -1.919643507792019,
                0.42560062535961957,
                1.5706038300724876,
                1.1188968870953055
            ]
        },
        {
            "positions": [
                -1.0817801087122825,
                -0.10870791177263214,
                -1.803154034947515,
                0.3883970286007421,
                1.5272162387069383,
                0.9905256639895879
            ]
        },
        {
            "positions": [
                -1.0446930309593776,
                -0.14066152147366084,
                -1.6866645621030107,
                0.3511934318418646,
                1.483828647341389,
                0.8621544408838702
            ]
        },
        {
            "positions": [
                -1.0076059532064727,
                -0.17261513117468952,
                -1.5701750892585067,
                0.3139898350829871,
                1.4404410559758398,
                0.7337832177781525
            ]
        },
        {
            "positions": [
                -0.970518875453568,
                -0.20456874087571822,
                -1.4536856164140026,
                0.27678623832410965,
                1.3970534646102906,
                0.6054119946724347
            ]
        },
        {
            "positions": [
                -0.9334317977006631,
                -0.23652235057674692,
                -1.3371961435694986,
                0.23958264156523215,
                1.3536658732447413,
                0.477040771566717
            ]
        },
        {
            "positions": [
                -0.8963447199477582,
                -0.26847596027777565,
                -1.2207066707249943,
                0.20237904480635469,
                1.3102782818791923,
                0.3486695484609993
            ]
        },
        {
            "positions": [
                -0.8592576421948533,
                -0.3004295699788043,
                -1.1042171978804902,
                0.1651754480474772,
                1.2668906905136428,
                0.2202983253552816
            ]
        },
        {
            "positions": [
                -0.8221705644419486,
                -0.332383179679833,
                -0.987727725035986,
                0.12797185128859973,
                1.2235030991480937,
                0.0919271022495638
            ]
        },
        {
            "positions": [
                -0.7850834866890437,
                -0.36433678938086167,
                -0.8712382521914821,
                0.09076825452972226,
                1.1801155077825445,
                -0.03644412085615367
            ]
        },
        {
            "positions": [
                -0.7479964089361388,
                -0.3962903990818904,
                -0.7547487793469778,
                0.05356465777084474,
                1.1367279164169952,
                -0.16481534396187159
            ]
        },
        {
            "positions": [
                -0.710909331183234,
                -0.42824400878291907,
                -0.6382593065024738,
                0.01636106101196727,
                1.093340325051446,
                -0.2931865670675893
            ]
        },
        {
            "positions": [
                -0.6738222534303291,
                -0.4601976184839478,
                -0.5217698336579695,
                -0.020842535746910196,
                1.0499527336858967,
                -0.42155779017330697
            ]
        },
        {
            "positions": [
                -0.6367351756774242,
                -0.4921512281849764,
                -0.4052803608134654,
                -0.05804613250578766,
                1.0065651423203477,
                -0.5499290132790247
            ]
        },
        {
            "positions": [
                -0.5996480979245193,
                -0.5241048378860051,
                -0.28879088796896135,
                -0.09524972926466518,
                0.9631775509547982,
                -0.6783002363847423
            ]
        },
        {
            "positions": [
                -0.5625610201716146,
                -0.5560584475870338,
                -0.1723014151244573,
                -0.1324533260235426,
                0.919789959589249,
                -0.80667145949046
            ]
        },
        {
            "positions": [
                -0.5254739424187097,
                -0.5880120572880625,
                -0.05581194227995301,
                -0.16965692278242012,
                0.8764023682236998,
                -0.935042682596178
            ]
        },
        {
            "positions": [
                -0.48838686466580483,
                -0.6199656669890912,
                0.06067753056455105,
                -0.20686051954129764,
                0.8330147768581505,
                -1.0634139057018954
            ]
        },
        {
            "positions": [
                -0.45129978691290007,
                -0.6519192766901198,
                0.1771670034090549,
                -0.24406411630017505,
                0.7896271854926014,
                -1.191785128807613
            ]
        },
        {
            "positions": [
                -0.4142127091599951,
                -0.6838728863911487,
                0.2936564762535594,
                -0.2812677130590527,
                0.746239594127052,
                -1.3201563519133312
            ]
        },
        {
            "positions": [
                -0.3771256314070902,
                -0.7158264960921774,
                0.41014594909806346,
                -0.3184713098179301,
                0.7028520027615027,
                -1.4485275750190487
            ]
        },
        {
            "positions": [
                -0.34003855365418545,
                -0.7477801057932061,
                0.5266354219425675,
                -0.3556749065768075,
                0.6594644113959536,
                -1.5768987981247662
            ]
        },
        {
            "positions": [
                -0.3029514759012806,
                -0.7797337154942348,
                0.6431248947870716,
                -0.392878503335685,
                0.6160768200304043,
                -1.705270021230484
            ]
        },
        {
            "positions": [
                -0.2658643981483757,
                -0.8116873251952634,
                0.7596143676315761,
                -0.43008210009456255,
                0.572689228664855,
                -1.833641244336202
            ]
        },
        {
            "positions": [
                -0.22877732039547083,
                -0.8436409348962921,
                0.8761038404760801,
                -0.46728569685343996,
                0.5293016372993058,
                -1.9620124674419195
            ]
        },
        {
            "positions": [
                -0.19169024264256607,
                -0.8755945445973208,
                0.9925933133205842,
                -0.5044892936123175,
                0.48591404593375653,
                -2.0903836905476374
            ]
        },
        {
            "positions": [
                -0.1546031648896612,
                -0.9075481542983495,
                1.1090827861650883,
                -0.5416928903711948,
                0.4425264545682075,
                -2.218754913653355
            ]
        },
        {
            "positions": [
                -0.11751608713675621,
                -0.9395017639993781,
                1.2255722590095928,
                -0.5788964871300724,
                0.399138863202658,
                -2.347126136759073
            ]
        },
        {
            "positions": [
                -0.08042900938385134,
                -0.9714553737004068,
                1.3420617318540964,
                -0.6161000838889499,
                0.35575127183710875,
                -2.4754973598647902
            ]
        },
        {
            "positions": [
                -0.043341931630946684,
                -1.0034089834014355,
                1.4585512046986004,
                -0.6533036806478274,
                0.3123636804715597,
                -2.603868582970508
            ]
        },
        {
            "positions": [
                -0.006254853878041811,
                -1.0353625931024641,
                1.5750406775431045,
                -0.6905072774067047,
                0.26897608910601045,
                -2.7322398060762256
            ]
        },
        {
            "positions": [
                0.030832223874863063,
                -1.067316202803493,
                1.691530150387609,
                -0.7277108741655824,
                0.22558849774046097,
                -2.8606110291819435
            ]
        },
        {
            "positions": [
                0.06791930162776794,
                -1.0992698125045217,
                1.808019623232113,
                -0.7649144709244597,
                0.18220090637491193,
                -2.9889822522876615
            ]
        },
        {
            "positions": [
                0.10500637938067282,
                -1.1312234222055504,
                1.924509096076617,
                -0.8021180676833373,
                0.13881331500936264,
                -3.117353475393379
            ]
        },
        {
            "positions": [
                0.12317617244066902,
                -1.13476240209042,
                1.9620236819392414,
                -0.7422372767727375,
                0.12505629298612497,
                -3.2161528017540726
            ]
        }
    ]
}