{
    "goal": {
        "global_pose": {
            "orientation": {
                "w": 0.7047431468963623,
                "x": -0.7094548344612122,
                "y": 0.0024358443915843964,
                "z": -0.0022348060738295317
            },
            "position": {
                "x": 0.6094750761985779,
                "y": 0.3671506643295288,
                "z": 0.19426114857196808
            }
        },
        "name": "move_to_magneteinheit_A"
    },
    "id": "LBTRRT_move_to_magneteinheit_A_97",
    "joint_names": [
        "shoulder_pan_joint",
        "shoulder_lift_joint",
        "elbow_joint",
        "wrist_1_joint",
        "wrist_2_joint",
        "wrist_3_joint"
    ],
    "metrics": {
        "cart_traj_len": 2.0707092330906733,
        "distance_elbow_joint": 3.907511403165034,
        "distance_shoulder_lift_joint": 1.0719597640497167,
        "distance_shoulder_pan_joint": 1.2410826697767685,
        "distance_wrist_1_joint": 1.2767385541669285,
        "distance_wrist_2_joint": 1.4324873211008697,
        "distance_wrist_3_joint": 2.0258985086122983,
        "smoothness": 5.51283159758803e-16,
        "time": 5.014993317,
        "traj_len": 3.309936286527524,
        "weighted_distance": 4.209121180646147
    },
    "planner": "LBTRRT",
    "start": {
        "state": {
            "elbow_joint": -1.919643507792019,
            "shoulder_lift_joint": -0.07675430207160344,
            "shoulder_pan_joint": -1.1188671864651873,
            "wrist_1_joint": 0.42560062535961957,
            "wrist_2_joint": 1.5706038300724876,
            "wrist_3_joint": 1.1188968870953055
        }
    },
    "waypoints": [
        {
            "positions": [
                -1.1188671864651873,
                -0.07675430207160344,
                -1.919643507792019,
                0.42560062535961957,
                1.5706038300724876,
                1.1188968870953055
            ]
        },
        {
            "positions": [
                -1.0745428054017314,
                -0.11503857935909331,
                -1.7800895291075536,
                0.38000281985365786,
                1.5194435686045995,
                1.1912504052600306
            ]
        },
        {
            "positions": [
                -1.0302184243382753,
                -0.15332285664658318,
                -1.640535550423088,
                0.3344050143476961,
                1.4682833071367112,
                1.2636039234247554
            ]
        },
        {
            "positions": [
                -0.9858940432748193,
                -0.19160713393407308,
                -1.5009815717386226,
                0.2888072088417344,
                1.417123045668823,
                1.3359574415894804
            ]
        },
        {
            "positions": [
                -0.9415696622113633,
                -0.22989141122156295,
                -1.361427593054157,
                0.24320940333577265,
                1.3659627842009348,
                1.4083109597542052
            ]
        },
        {
            "positions": [
                -0.8972452811479072,
                -0.2681756885090528,
                -1.2218736143696916,
                0.19761159782981091,
                1.3148025227330467,
                1.4806644779189302
            ]
        },
        {
            "positions": [
                -0.8529209000844513,
                -0.3064599657965427,
                -1.082319635685226,
                0.1520137923238492,
                1.2636422612651583,
                1.5530179960836552
            ]
        },
        {
            "positions": [
                -0.8085965190209952,
                -0.3447442430840326,
                -0.9427656570007605,
                0.10641598681788744,
                1.2124819997972702,
                1.6253715142483802
            ]
        },
        {
            "positions": [
                -0.7642721379575392,
                -0.38302852037152246,
                -0.803211678316295,
                0.060818181311925734,
                1.1613217383293821,
                1.697725032413105
            ]
        },
        {
            "positions": [
                -0.7199477568940831,
                -0.4213127976590124,
                -0.6636576996318295,
                0.01522037580596397,
                1.1101614768614938,
                1.77007855057783
            ]
        },
        {
            "positions": [
                -0.6756233758306271,
                -0.45959707494650226,
                -0.524103720947364,
                -0.030377429699997738,
                1.0590012153936055,
                1.8424320687425548
            ]
        },
        {
            "positions": [
                -0.6312989947671712,
                -0.49788135223399216,
                -0.3845497422628985,
                -0.07597523520595945,
                1.0078409539257174,
                1.9147855869072798
            ]
        },
        {
            "positions": [
                -0.5869746137037152,
                -0.5361656295214821,
                -0.244995763578433,
                -0.12157304071192115,
                0.9566806924578292,
                1.9871391050720049
            ]
        },
        {
            "positions": [
                -0.5426502326402591,
                -0.5744499068089719,
                -0.1054417848939675,
                -0.16717084621788297,
                0.905520430989941,
                2.05949262323673
            ]
        },
        {
            "positions": [
                -0.4983258515768031,
                -0.6127341840964617,
                0.03411219379049801,
                -0.21276865172384468,
                0.8543601695220527,
                2.1318461414014545
            ]
        },
        {
            "positions": [
                -0.45400147051334705,
                -0.6510184613839516,
                0.1736661724749633,
                -0.2583664572298064,
                0.8031999080541645,
                2.2041996595661795
            ]
        },
        {
            "positions": [
                -0.4096770894498911,
                -0.6893027386714414,
                0.31322015115942903,
                -0.3039642627357681,
                0.7520396465862764,
                2.2765531777309045
            ]
        },
        {
            "positions": [
                -0.3653527083864351,
                -0.7275870159589315,
                0.4527741298438943,
                -0.3495620682417298,
                0.7008793851183882,
                2.3489066958956295
            ]
        },
        {
            "positions": [
                -0.3210283273229789,
                -0.7658712932464213,
                0.59232810852836,
                -0.3951598737476916,
                0.6497191236504999,
                2.4212602140603545
            ]
        },
        {
            "positions": [
                -0.276703946259523,
                -0.8041555705339112,
                0.7318820872128258,
                -0.44075767925365333,
                0.5985588621826117,
                2.4936137322250795
            ]
        },
        {
            "positions": [
                -0.23237956519606695,
                -0.842439847821401,
                0.8714360658972911,
                -0.48635548475961504,
                0.5473986007147236,
                2.5659672503898046
            ]
        },
        {
            "positions": [
                -0.18805518413261102,
                -0.8807241251088911,
                1.0109900445817563,
                -0.5319532902655768,
                0.49623833924683525,
                2.638320768554529
            ]
        },
        {
            "positions": [
                -0.14373080306915498,
                -0.9190084023963809,
                1.150544023266222,
                -0.5775510957715384,
                0.44507807777894715,
                2.710674286719254
            ]
        },
        {
            "positions": [
                -0.09940642200569894,
                -0.9572926796838708,
                1.2900980019506874,
                -0.6231489012775002,
                0.39391781631105904,
                2.7830278048839787
            ]
        },
        {
            "positions": [
                -0.055082040942243005,
                -0.9955769569713606,
                1.429651980635153,
                -0.6687467067834618,
                0.3427575548431707,
                2.8553813230487037
            ]
        },
        {
            "positions": [
                -0.010757659878786852,
                -1.0338612342588505,
                1.5692059593196188,
                -0.7143445122894236,
                0.2915972933752824,
                2.927734841213429
            ]
        },
        {
            "positions": [
                0.03356672118466908,
                -1.0721455115463405,
                1.708759938004084,
                -0.7599423177953855,
                0.2404370319073943,
                3.0000883593781538
            ]
        },
        {
            "positions": [
                0.07789110224812523,
                -1.1104297888338304,
                1.8483139166885498,
                -0.805540123301347,
                0.18927677043950597,
                3.072441877542879
            ]
        },
        {
            "positions": [
                0.12221548331158114,
                -1.1487140661213202,
                1.9878678953730151,
                -0.8511379288073089,
                0.13811650897161787,
                3.144795395707604
            ]
        }
    ]
}