{
    "goal": {
        "global_pose": {
            "orientation": {
                "w": 0.7031023502349854,
                "x": -0.7110244035720825,
                "y": 0.007748599164187908,
                "z": 0.005598929710686207
            },
            "position": {
                "x": 0.11585023208521307,
                "y": 0.44412534475326537,
                "z": 0.3711530566215515
            }
        },
        "name": "move_to_auspresseinheit_A"
    },
    "id": "LBTRRT_move_to_auspresseinheit_A_86",
    "joint_names": [
        "shoulder_pan_joint",
        "shoulder_lift_joint",
        "elbow_joint",
        "wrist_1_joint",
        "wrist_2_joint",
        "wrist_3_joint"
    ],
    "metrics": {
        "cart_traj_len": 0.8038234522029826,
        "distance_elbow_joint": 0.2268301121181575,
        "distance_shoulder_lift_joint": 1.221453542617789,
        "distance_shoulder_pan_joint": 1.041052042481583,
        "distance_wrist_1_joint": 0.5524420182186636,
        "distance_wrist_2_joint": 0.6112970410178237,
        "distance_wrist_3_joint": 0.12138142509965677,
        "smoothness": 1.2237312103293083,
        "time": 5.015775933,
        "traj_len": 1.9427959701300788,
        "weighted_distance": 2.2761718061230516
    },
    "planner": "LBTRRT",
    "start": {
        "state": {
            "elbow_joint": 2.422574709923281,
            "shoulder_lift_joint": -1.3736533754116391,
            "shoulder_pan_joint": -0.33786336945926293,
            "wrist_1_joint": -1.0288603412921917,
            "wrist_2_joint": 1.2330224858903978,
            "wrist_3_joint": -3.094022268022082
        }
    },
    "waypoints": [
        {
            "positions": [
                -0.33786336945926293,
                -1.3736533754116391,
                2.422574709923281,
                -1.0288603412921917,
                1.2330224858903978,
                -3.094022268022082
            ]
        },
        {
            "positions": [
                -0.21820361052091972,
                -1.483483727196426,
                2.4350403508095226,
                -0.9673217879729098,
                1.1612795908594182,
                -3.088857878512999
            ]
        },
        {
            "positions": [
                -0.0985438515825765,
                -1.593314078981213,
                2.4475059916957647,
                -0.9057832346536278,
                1.089536695828439,
                -3.0836934890039163
            ]
        },
        {
            "positions": [
                0.021115907355766683,
                -1.703144430766,
                2.4599716325820062,
                -0.8442446813343458,
                1.0177938007974594,
                -3.0785290994948333
            ]
        },
        {
            "positions": [
                0.14077566629410992,
                -1.812974782550787,
                2.4724372734682483,
                -0.7827061280150638,
                0.9460509057664799,
                -3.0733647099857504
            ]
        },
        {
            "positions": [
                0.26043542523245317,
                -1.9228051343355739,
                2.48490291435449,
                -0.7211675746957819,
                0.8743080107355005,
                -3.0682003204766675
            ]
        },
        {
            "positions": [
                0.3800951841707963,
                -2.032635486120361,
                2.4973685552407314,
                -0.6596290213764999,
                0.802565115704521,
                -3.0630359309675845
            ]
        },
        {
            "positions": [
                0.49975494310913954,
                -2.1424658379051476,
                2.5098341961269734,
                -0.5980904680572179,
                0.7308222206735415,
                -3.0578715414585016
            ]
        },
        {
            "positions": [
                0.6194147020474827,
                -2.2522961896899347,
                2.522299837013215,
                -0.536551914737936,
                0.6590793256425621,
                -3.0527071519494187
            ]
        },
        {
            "positions": [
                0.6613016875349014,
                -2.080890825520188,
                2.4587473444991033,
                -0.5064851189057321,
                0.6777562660275561,
                -3.0927403064629155
            ]
        },
        {
            "positions": [
                0.70318867302232,
                -1.9094854613504413,
                2.3951948519849915,
                -0.4764183230735282,
                0.6964332064125501,
                -3.132773460976412
            ]
        }
    ]
}