{
    "goal": {
        "global_pose": {
            "orientation": {
                "w": 0.7047431468963623,
                "x": -0.7094548344612122,
                "y": 0.0024358443915843964,
                "z": -0.0022348060738295317
            },
            "position": {
                "x": 0.6094750761985779,
                "y": 0.3671506643295288,
                "z": 0.19426114857196808
            }
        },
        "name": "move_to_magneteinheit_A"
    },
    "id": "LBTRRT_move_to_magneteinheit_A_141",
    "joint_names": [
        "shoulder_pan_joint",
        "shoulder_lift_joint",
        "elbow_joint",
        "wrist_1_joint",
        "wrist_2_joint",
        "wrist_3_joint"
    ],
    "metrics": {
        "cart_traj_len": 1.8765746187810735,
        "distance_elbow_joint": 3.920227261447331,
        "distance_shoulder_lift_joint": 0.7021983055984724,
        "distance_shoulder_pan_joint": 1.242644241865892,
        "distance_wrist_1_joint": 1.520397092205963,
        "distance_wrist_2_joint": 1.7021523141343957,
        "distance_wrist_3_joint": 1.1498532251171891,
        "smoothness": 3.6185046922262754e-16,
        "time": 5.023167644,
        "traj_len": 3.1996050444342727,
        "weighted_distance": 3.9698524276028175
    },
    "planner": "LBTRRT",
    "start": {
        "state": {
            "elbow_joint": -1.919643507792019,
            "shoulder_lift_joint": -0.07675430207160344,
            "shoulder_pan_joint": -1.1188671864651873,
            "wrist_1_joint": 0.42560062535961957,
            "wrist_2_joint": 1.5706038300724876,
            "wrist_3_joint": 1.1188968870953055
        }
    },
    "waypoints": [
        {
            "positions": [
                -1.1188671864651873,
                -0.07675430207160344,
                -1.919643507792019,
                0.42560062535961957,
                1.5706038300724876,
                1.1188968870953055
            ]
        },
        {
            "positions": [
                -1.071073177162653,
                -0.10376192921000622,
                -1.7688655361978909,
                0.4840774365983105,
                1.5051364333750108,
                1.0746717630523368
            ]
        },
        {
            "positions": [
                -1.0232791678601187,
                -0.130769556348409,
                -1.618087564603763,
                0.5425542478370013,
                1.439669036677534,
                1.0304466390093678
            ]
        },
        {
            "positions": [
                -0.9754851585575844,
                -0.1577771834868118,
                -1.4673095930096347,
                0.6010310590756922,
                1.3742016399800574,
                0.9862215149663991
            ]
        },
        {
            "positions": [
                -0.9276911492550501,
                -0.18478481062521457,
                -1.3165316214155065,
                0.6595078703143831,
                1.3087342432825806,
                0.9419963909234303
            ]
        },
        {
            "positions": [
                -0.8798971399525157,
                -0.21179243776361736,
                -1.1657536498213785,
                0.717984681553074,
                1.2432668465851038,
                0.8977712668804615
            ]
        },
        {
            "positions": [
                -0.8321031306499815,
                -0.23880006490202016,
                -1.0149756782272503,
                0.7764614927917649,
                1.177799449887627,
                0.8535461428374926
            ]
        },
        {
            "positions": [
                -0.7843091213474471,
                -0.2658076920404229,
                -0.8641977066331223,
                0.8349383040304558,
                1.1123320531901504,
                0.8093210187945239
            ]
        },
        {
            "positions": [
                -0.7365151120449128,
                -0.29281531917882575,
                -0.7134197350389941,
                0.8934151152691467,
                1.0468646564926734,
                0.765095894751555
            ]
        },
        {
            "positions": [
                -0.6887211027423785,
                -0.3198229463172285,
                -0.5626417634448662,
                0.9518919265078376,
                0.9813972597951968,
                0.7208707707085862
            ]
        },
        {
            "positions": [
                -0.6409270934398442,
                -0.3468305734556313,
                -0.41186379185073774,
                1.0103687377465285,
                0.91592986309772,
                0.6766456466656174
            ]
        },
        {
            "positions": [
                -0.5931330841373099,
                -0.37383820059403405,
                -0.26108582025660976,
                1.0688455489852193,
                0.8504624664002433,
                0.6324205226226487
            ]
        },
        {
            "positions": [
                -0.5453390748347756,
                -0.4008458277324369,
                -0.11030784866248156,
                1.1273223602239102,
                0.7849950697027664,
                0.5881953985796797
            ]
        },
        {
            "positions": [
                -0.4975450655322413,
                -0.42785345487083964,
                0.040470122931646424,
                1.185799171462601,
                0.7195276730052897,
                0.543970274536711
            ]
        },
        {
            "positions": [
                -0.449751056229707,
                -0.4548610820092424,
                0.1912480945257744,
                1.244275982701292,
                0.654060276307813,
                0.49974515049374224
            ]
        },
        {
            "positions": [
                -0.4019570469271727,
                -0.4818687091476452,
                0.3420260661199024,
                1.3027527939399828,
                0.5885928796103364,
                0.4555200264507734
            ]
        },
        {
            "positions": [
                -0.3541630376246383,
                -0.508876336286048,
                0.4928040377140308,
                1.3612296051786739,
                0.5231254829128593,
                0.41129490240780453
            ]
        },
        {
            "positions": [
                -0.3063690283221041,
                -0.5358839634244508,
                0.6435820093081588,
                1.4197064164173647,
                0.45765808621538273,
                0.3670697783648357
            ]
        },
        {
            "positions": [
                -0.2585750190195698,
                -0.5628915905628535,
                0.7943599809022868,
                1.4781832276560556,
                0.3921906895179059,
                0.32284465432186693
            ]
        },
        {
            "positions": [
                -0.2107810097170355,
                -0.5898992177012563,
                0.9451379524964147,
                1.5366600388947464,
                0.32672329282042933,
                0.2786195302788982
            ]
        },
        {
            "positions": [
                -0.1629870004145011,
                -0.6169068448396591,
                1.0959159240905436,
                1.5951368501334375,
                0.2612558961229523,
                0.23439440623592922
            ]
        },
        {
            "positions": [
                -0.1151929911119669,
                -0.6439144719780618,
                1.2466938956846716,
                1.6536136613721284,
                0.19578849942547571,
                0.19016928219296048
            ]
        },
        {
            "positions": [
                -0.06739898180943249,
                -0.6709220991164646,
                1.3974718672787996,
                1.712090472610819,
                0.1303211027279989,
                0.14594415814999173
            ]
        },
        {
            "positions": [
                -0.0196049725068983,
                -0.6979297262548674,
                1.5482498388729276,
                1.77056728384951,
                0.06485370603052232,
                0.10171903410702288
            ]
        },
        {
            "positions": [
                0.028189036795636113,
                -0.7249373533932704,
                1.699027810467056,
                1.829044095088201,
                -0.0006136906669547137,
                0.05749391006405391
            ]
        },
        {
            "positions": [
                0.07598304609817053,
                -0.7519449805316731,
                1.849805782061184,
                1.8875209063268918,
                -0.0660810873644313,
                0.013268786021085166
            ]
        },
        {
            "positions": [
                0.12377705540070474,
                -0.7789526076700759,
                2.000583753655312,
                1.9459977175655827,
                -0.13154848406190817,
                -0.030956338021883488
            ]
        }
    ]
}