{
    "goal": {
        "global_pose": {
            "orientation": {
                "w": 0.5084816217422485,
                "x": -0.49083608388900757,
                "y": 0.5182115435600281,
                "z": -0.4816462993621826
            },
            "position": {
                "x": 0.5540239810943604,
                "y": 0.030875300988554955,
                "z": 0.16403168439865112
            }
        },
        "name": "move_to_storage_A"
    },
    "id": "LBTRRT_move_to_storage_A_63",
    "joint_names": [
        "shoulder_pan_joint",
        "shoulder_lift_joint",
        "elbow_joint",
        "wrist_1_joint",
        "wrist_2_joint",
        "wrist_3_joint"
    ],
    "metrics": {
        "cart_traj_len": 0.3524831916672719,
        "distance_elbow_joint": 0.4507918557617687,
        "distance_shoulder_lift_joint": 0.23295736040673853,
        "distance_shoulder_pan_joint": 0.4611461481485802,
        "distance_wrist_1_joint": 0.247653466134223,
        "distance_wrist_2_joint": 1.0961810297682786,
        "distance_wrist_3_joint": 0.09001846511150724,
        "smoothness": 8.881784232165597e-16,
        "time": 5.002860855,
        "traj_len": 1.605848163847098,
        "weighted_distance": 2.025492471340393
    },
    "planner": "LBTRRT",
    "start": {
        "state": {
            "elbow_joint": 1.9715463870305268,
            "shoulder_lift_joint": -1.1394903361783484,
            "shoulder_pan_joint": 0.12281147578464417,
            "wrist_1_joint": -0.7804599489681411,
            "wrist_2_joint": 0.12958660307563738,
            "wrist_3_joint": -3.1924946282119055
        }
    },
    "waypoints": [
        {
            "positions": [
                0.12281147578464417,
                -1.1394903361783484,
                1.9715463870305268,
                -0.7804599489681411,
                0.12958660307563738,
                -3.1924946282119055
            ]
        },
        {
            "positions": [
                0.05693345462056129,
                -1.1727699590935967,
                2.0359452235679223,
                -0.8158390155587444,
                0.28618389304253433,
                -3.1796348474816902
            ]
        },
        {
            "positions": [
                -0.00894456654352159,
                -1.206049582008845,
                2.100344060105318,
                -0.8512180821493477,
                0.44278118300943126,
                -3.166775066751475
            ]
        },
        {
            "positions": [
                -0.07482258770760446,
                -1.2393292049240934,
                2.1647428966427134,
                -0.8865971487399509,
                0.5993784729763282,
                -3.1539152860212596
            ]
        },
        {
            "positions": [
                -0.14070060887168734,
                -1.272608827839342,
                2.229141733180109,
                -0.9219762153305542,
                0.7559757629432251,
                -3.1410555052910443
            ]
        },
        {
            "positions": [
                -0.20657863003577026,
                -1.3058884507545903,
                2.2935405697175044,
                -0.9573552819211575,
                0.9125730529101221,
                -3.128195724560829
            ]
        },
        {
            "positions": [
                -0.2724566511998531,
                -1.3391680736698386,
                2.3579394062549,
                -0.9927343485117608,
                1.069170342877019,
                -3.1153359438306136
            ]
        },
        {
            "positions": [
                -0.338334672363936,
                -1.372447696585087,
                2.4223382427922955,
                -1.028113415102364,
                1.225767632843916,
                -3.1024761631003983
            ]
        }
    ]
}