{
    "goal": {
        "global_pose": {
            "orientation": {
                "w": 0.5084816217422485,
                "x": -0.49083608388900757,
                "y": 0.5182115435600281,
                "z": -0.4816462993621826
            },
            "position": {
                "x": 0.5540239810943604,
                "y": 0.030875300988554955,
                "z": 0.16403168439865112
            }
        },
        "name": "move_to_storage_A"
    },
    "id": "LBTRRT_move_to_storage_A_76",
    "joint_names": [
        "shoulder_pan_joint",
        "shoulder_lift_joint",
        "elbow_joint",
        "wrist_1_joint",
        "wrist_2_joint",
        "wrist_3_joint"
    ],
    "metrics": {
        "cart_traj_len": 0.3535611390395,
        "distance_elbow_joint": 0.4509123890100053,
        "distance_shoulder_lift_joint": 0.23629738332562367,
        "distance_shoulder_pan_joint": 0.4638340916343707,
        "distance_wrist_1_joint": 0.2411471808469442,
        "distance_wrist_2_joint": 1.0945456544505325,
        "distance_wrist_3_joint": 0.0986652141220068,
        "smoothness": 1.8873791433662325e-15,
        "time": 5.003509456,
        "traj_len": 1.6079185033419707,
        "weighted_distance": 2.029390346121459
    },
    "planner": "LBTRRT",
    "start": {
        "state": {
            "elbow_joint": 1.9715463870305268,
            "shoulder_lift_joint": -1.1394903361783484,
            "shoulder_pan_joint": 0.12281147578464417,
            "wrist_1_joint": -0.7804599489681411,
            "wrist_2_joint": 0.12958660307563738,
            "wrist_3_joint": -3.1924946282119055
        }
    },
    "waypoints": [
        {
            "positions": [
                0.12281147578464417,
                -1.1394903361783484,
                1.9715463870305268,
                -0.7804599489681411,
                0.12958660307563738,
                -3.1924946282119055
            ]
        },
        {
            "positions": [
                0.05654946269401978,
                -1.173247105224866,
                2.0359624426033847,
                -0.8149095462319903,
                0.285950267997142,
                -3.1783995976230472
            ]
        },
        {
            "positions": [
                -0.00971255039660461,
                -1.2070038742713838,
                2.1003784981762426,
                -0.8493591434958394,
                0.4423139329186466,
                -3.1643045670341894
            ]
        },
        {
            "positions": [
                -0.07597456348722899,
                -1.2407606433179015,
                2.1647945537491005,
                -0.8838087407596886,
                0.5986775978401513,
                -3.150209536445331
            ]
        },
        {
            "positions": [
                -0.14223657657785338,
                -1.274517412364419,
                2.2292106093219584,
                -0.9182583380235377,
                0.755041262761656,
                -3.1361145058564732
            ]
        },
        {
            "positions": [
                -0.20849858966847779,
                -1.3082741814109367,
                2.2936266648948163,
                -0.952707935287387,
                0.9114049276831606,
                -3.122019475267615
            ]
        },
        {
            "positions": [
                -0.27476060275910213,
                -1.3420309504574544,
                2.358042720467674,
                -0.9871575325512361,
                1.0677685926046652,
                -3.107924444678757
            ]
        },
        {
            "positions": [
                -0.34102261584972654,
                -1.375787719503972,
                2.422458776040532,
                -1.0216071298150853,
                1.22413225752617,
                -3.0938294140898988
            ]
        }
    ]
}