{
    "goal": {
        "global_pose": {
            "orientation": {
                "w": 0.5084816217422485,
                "x": -0.49083608388900757,
                "y": 0.5182115435600281,
                "z": -0.4816462993621826
            },
            "position": {
                "x": 0.5540239810943604,
                "y": 0.030875300988554955,
                "z": 0.16403168439865112
            }
        },
        "name": "move_to_storage_A"
    },
    "id": "LBTRRT_move_to_storage_A_148",
    "joint_names": [
        "shoulder_pan_joint",
        "shoulder_lift_joint",
        "elbow_joint",
        "wrist_1_joint",
        "wrist_2_joint",
        "wrist_3_joint"
    ],
    "metrics": {
        "cart_traj_len": 0.3539092923345775,
        "distance_elbow_joint": 0.4497151862131594,
        "distance_shoulder_lift_joint": 0.23455652304885444,
        "distance_shoulder_pan_joint": 0.4654716661324635,
        "distance_wrist_1_joint": 0.2395608604023044,
        "distance_wrist_2_joint": 1.0890148638278463,
        "distance_wrist_3_joint": 0.09689238909742315,
        "smoothness": 1.998401446083499e-15,
        "time": 5.003375333,
        "traj_len": 1.604746549683797,
        "weighted_distance": 2.0242460302905494
    },
    "planner": "LBTRRT",
    "start": {
        "state": {
            "elbow_joint": 1.9715463870305268,
            "shoulder_lift_joint": -1.1394903361783484,
            "shoulder_pan_joint": 0.12281147578464417,
            "wrist_1_joint": -0.7804599489681411,
            "wrist_2_joint": 0.12958660307563738,
            "wrist_3_joint": -3.1924946282119055
        }
    },
    "waypoints": [
        {
            "positions": [
                0.12281147578464417,
                -1.1394903361783484,
                1.9715463870305268,
                -0.7804599489681411,
                0.12958660307563738,
                -3.1924946282119055
            ]
        },
        {
            "positions": [
                0.05631552348000654,
                -1.1729984108996132,
                2.0357914136324067,
                -0.8146829290256131,
                0.285160155051044,
                -3.178652858340845
            ]
        },
        {
            "positions": [
                -0.010180428824631091,
                -1.2065064856208783,
                2.1000364402342866,
                -0.8489059090830852,
                0.44073370702645054,
                -3.1648110884697847
            ]
        },
        {
            "positions": [
                -0.07667638112926874,
                -1.240014560342143,
                2.1642814668361665,
                -0.8831288891405572,
                0.5963072590018572,
                -3.150969318598724
            ]
        },
        {
            "positions": [
                -0.14317233343390634,
                -1.2735226350634081,
                2.2285264934380464,
                -0.9173518691980294,
                0.7518808109772638,
                -3.1371275487276638
            ]
        },
        {
            "positions": [
                -0.209668285738544,
                -1.307030709784673,
                2.2927715200399263,
                -0.9515748492555014,
                0.9074543629526705,
                -3.1232857788566033
            ]
        },
        {
            "positions": [
                -0.27616423804318163,
                -1.340538784505938,
                2.3570165466418063,
                -0.9857978293129734,
                1.063027914928077,
                -3.109444008985543
            ]
        },
        {
            "positions": [
                -0.3426601903478193,
                -1.3740468592272028,
                2.421261573243686,
                -1.0200208093704455,
                1.2186014669034837,
                -3.0956022391144824
            ]
        }
    ]
}