{
    "goal": {
        "global_pose": {
            "orientation": {
                "w": 0.7031023502349854,
                "x": -0.7110244035720825,
                "y": 0.007748599164187908,
                "z": 0.005598929710686207
            },
            "position": {
                "x": 0.11585023208521307,
                "y": 0.44412534475326537,
                "z": 0.3711530566215515
            }
        },
        "name": "move_to_auspresseinheit_A"
    },
    "id": "LBTRRT_move_to_auspresseinheit_A_48",
    "joint_names": [
        "shoulder_pan_joint",
        "shoulder_lift_joint",
        "elbow_joint",
        "wrist_1_joint",
        "wrist_2_joint",
        "wrist_3_joint"
    ],
    "metrics": {
        "cart_traj_len": 2.189340241078407,
        "distance_elbow_joint": 1.7648626013368758,
        "distance_shoulder_lift_joint": 1.3131829088504086,
        "distance_shoulder_pan_joint": 5.561266030877545,
        "distance_wrist_1_joint": 3.4422698316436735,
        "distance_wrist_2_joint": 4.475937993228248,
        "distance_wrist_3_joint": 0.15555854023510296,
        "smoothness": 0.7263427807778147,
        "time": 5.0245296690000005,
        "traj_len": 4.088163145738176,
        "weighted_distance": 4.994236959888266
    },
    "planner": "LBTRRT",
    "start": {
        "state": {
            "elbow_joint": 2.422574709923281,
            "shoulder_lift_joint": -1.3736533754116391,
            "shoulder_pan_joint": -0.33786336945926293,
            "wrist_1_joint": -1.0288603412921917,
            "wrist_2_joint": 1.2330224858903978,
            "wrist_3_joint": -3.094022268022082
        }
    },
    "waypoints": [
        {
            "positions": [
                -0.33786336945926293,
                -1.3736533754116391,
                2.422574709923281,
                -1.0288603412921917,
                1.2330224858903978,
                -3.094022268022082
            ]
        },
        {
            "positions": [
                -0.44057337870854174,
                -1.4156641929543388,
                2.3817965356520014,
                -0.937716017920534,
                1.119351622163201,
                -3.0984282049185063
            ]
        },
        {
            "positions": [
                -0.5432833879578205,
                -1.4576750104970384,
                2.3410183613807223,
                -0.8465716945488764,
                1.0056807584360041,
                -3.102834141814931
            ]
        },
        {
            "positions": [
                -0.6459933972070993,
                -1.499685828039738,
                2.3002401871094427,
                -0.7554273711772188,
                0.8920098947088073,
                -3.107240078711355
            ]
        },
        {
            "positions": [
                -0.7487034064563781,
                -1.541696645582438,
                2.259462012838163,
                -0.6642830478055611,
                0.7783390309816104,
                -3.1116460156077794
            ]
        },
        {
            "positions": [
                -0.851413415705657,
                -1.5837074631251375,
                2.218683838566884,
                -0.5731387244339035,
                0.6646681672544136,
                -3.116051952504204
            ]
        },
        {
            "positions": [
                -0.9541234249549357,
                -1.6257182806678372,
                2.1779056642956043,
                -0.4819944010622459,
                0.5509973035272168,
                -3.1204578894006283
            ]
        },
        {
            "positions": [
                -1.0568334342042145,
                -1.6677290982105368,
                2.1371274900243247,
                -0.3908500776905882,
                0.43732643980001995,
                -3.1248638262970525
            ]
        },
        {
            "positions": [
                -1.1595434434534932,
                -1.7097399157532367,
                2.0963493157530455,
                -0.29970575431893054,
                0.323655576072823,
                -3.129269763193477
            ]
        },
        {
            "positions": [
                -1.2622534527027722,
                -1.7517507332959363,
                2.055571141481766,
                -0.20856143094727286,
                0.2099847123456262,
                -3.1336757000899014
            ]
        },
        {
            "positions": [
                -1.364963461952051,
                -1.793761550838636,
                2.0147929672104867,
                -0.1174171075756153,
                0.0963138486184294,
                -3.1380816369863256
            ]
        },
        {
            "positions": [
                -1.4676734712013297,
                -1.8357723683813356,
                1.9740147929392071,
                -0.026272784203957622,
                -0.017357015108767415,
                -3.1424875738827502
            ]
        },
        {
            "positions": [
                -1.5703834804506085,
                -1.8777831859240353,
                1.9332366186679277,
                0.06487153916769994,
                -0.13102787883596423,
                -3.1468935107791745
            ]
        },
        {
            "positions": [
                -1.6730934896998875,
                -1.919794003466735,
                1.8924584443966483,
                0.15601586253935773,
                -0.24469874256316126,
                -3.1512994476755987
            ]
        },
        {
            "positions": [
                -1.775803498949166,
                -1.9618048210094345,
                1.8516802701253687,
                0.2471601859110153,
                -0.35836960629035786,
                -3.155705384572023
            ]
        },
        {
            "positions": [
                -1.8785135081984448,
                -2.003815638552134,
                1.8109020958540893,
                0.33830450928267286,
                -0.47204047001755467,
                -3.1601113214684475
            ]
        },
        {
            "positions": [
                -1.9812235174477237,
                -2.045826456094834,
                1.77012392158281,
                0.42944883265433065,
                -0.5857113337447517,
                -3.1645172583648717
            ]
        },
        {
            "positions": [
                -2.0839335266970025,
                -2.0878372736375335,
                1.7293457473115303,
                0.5205931560259882,
                -0.6993821974719483,
                -3.168923195261296
            ]
        },
        {
            "positions": [
                -2.1866435359462812,
                -2.1298480911802335,
                1.688567573040251,
                0.611737479397646,
                -0.8130530611991453,
                -3.1733291321577206
            ]
        },
        {
            "positions": [
                -2.28935354519556,
                -2.171858908722933,
                1.6477893987689716,
                0.7028818027693036,
                -0.9267239249263421,
                -3.177735069054145
            ]
        },
        {
            "positions": [
                -2.3920635544448388,
                -2.213869726265633,
                1.607011224497692,
                0.7940261261409611,
                -1.040394788653539,
                -3.182141005950569
            ]
        },
        {
            "positions": [
                -2.4947735636941175,
                -2.2558805438083325,
                1.5662330502264126,
                0.8851704495126189,
                -1.1540656523807358,
                -3.1865469428469937
            ]
        },
        {
            "positions": [
                -2.5974835729433963,
                -2.297891361351032,
                1.5254548759551332,
                0.9763147728842765,
                -1.2677365161079326,
                -3.190952879743418
            ]
        },
        {
            "positions": [
                -2.4402623430675194,
                -2.2793701745457455,
                1.5667759601155489,
                0.9078816911001237,
                -1.1736803736684127,
                -3.1881610736237147
            ]
        },
        {
            "positions": [
                -2.2830411131916426,
                -2.2608489877404594,
                1.6080970442759643,
                0.8394486093159711,
                -1.0796242312288928,
                -3.1853692675040115
            ]
        },
        {
            "positions": [
                -2.125819883315766,
                -2.242327800935173,
                1.64941812843638,
                0.7710155275318183,
                -0.9855680887893727,
                -3.1825774613843083
            ]
        },
        {
            "positions": [
                -1.9685986534398894,
                -2.2238066141298862,
                1.6907392125967957,
                0.7025824457476657,
                -0.8915119463498529,
                -3.179785655264605
            ]
        },
        {
            "positions": [
                -1.8113774235640125,
                -2.2052854273245996,
                1.7320602967572112,
                0.634149363963513,
                -0.797455803910333,
                -3.176993849144902
            ]
        },
        {
            "positions": [
                -1.654156193688136,
                -2.1867642405193135,
                1.7733813809176269,
                0.5657162821793602,
                -0.703399661470813,
                -3.1742020430251987
            ]
        },
        {
            "positions": [
                -1.4969349638122593,
                -2.168243053714027,
                1.8147024650780423,
                0.49728320039520746,
                -0.609343519031293,
                -3.1714102369054955
            ]
        },
        {
            "positions": [
                -1.3397137339363825,
                -2.1497218669087403,
                1.856023549238458,
                0.4288501186110548,
                -0.5152873765917731,
                -3.1686184307857923
            ]
        },
        {
            "positions": [
                -1.1824925040605059,
                -2.131200680103454,
                1.8973446333988737,
                0.36041703682690207,
                -0.42123123415225316,
                -3.165826624666089
            ]
        },
        {
            "positions": [
                -1.025271274184629,
                -2.1126794932981676,
                1.9386657175592892,
                0.2919839550427493,
                -0.3271750917127333,
                -3.163034818546386
            ]
        },
        {
            "positions": [
                -0.8680500443087522,
                -2.094158306492881,
                1.979986801719705,
                0.22355087325859657,
                -0.2331189492732133,
                -3.1602430124266827
            ]
        },
        {
            "positions": [
                -0.7108288144328756,
                -2.0756371196875945,
                2.0213078858801206,
                0.15511779147444393,
                -0.13906280683369343,
                -3.1574512063069795
            ]
        },
        {
            "positions": [
                -0.5536075845569988,
                -2.0571159328823083,
                2.062628970040536,
                0.08668470969029107,
                -0.045006664394173335,
                -3.1546594001872763
            ]
        },
        {
            "positions": [
                -0.3963863546811224,
                -2.0385947460770217,
                2.1039500542009515,
                0.018251627906138435,
                0.04904947804534654,
                -3.151867594067573
            ]
        },
        {
            "positions": [
                -0.2391651248052451,
                -2.020073559271735,
                2.1452711383613674,
                -0.050181453878014315,
                0.1431056204848664,
                -3.14907578794787
            ]
        },
        {
            "positions": [
                -0.08194389492936871,
                -2.001552372466449,
                2.186592222521783,
                -0.11861453566216684,
                0.2371617629243863,
                -3.1462839818281667
            ]
        },
        {
            "positions": [
                0.07527733494650812,
                -1.9830311856611624,
                2.227913306682199,
                -0.1870476174463198,
                0.3312179053639064,
                -3.1434921757084635
            ]
        },
        {
            "positions": [
                0.2324985648223845,
                -1.9645099988558758,
                2.2692343908426142,
                -0.25548069923047234,
                0.42527404780342626,
                -3.1407003695887603
            ]
        },
        {
            "positions": [
                0.3897197946982618,
                -1.9459888120505895,
                2.3105554750030297,
                -0.3239137810146251,
                0.5193301902429461,
                -3.137908563469057
            ]
        },
        {
            "positions": [
                0.5469410245741382,
                -1.9274676252453031,
                2.351876559163445,
                -0.39234686279877784,
                0.613386332682466,
                -3.135116757349354
            ]
        },
        {
            "positions": [
                0.7041622544500148,
                -1.9089464384400165,
                2.393197643323861,
                -0.46077994458293053,
                0.707442475121986,
                -3.1323249512296507
            ]
        }
    ]
}