{
    "goal": {
        "global_pose": {
            "orientation": {
                "w": 0.7047431468963623,
                "x": -0.7094548344612122,
                "y": 0.0024358443915843964,
                "z": -0.0022348060738295317
            },
            "position": {
                "x": 0.6094750761985779,
                "y": 0.3671506643295288,
                "z": 0.19426114857196808
            }
        },
        "name": "move_to_magneteinheit_A"
    },
    "id": "LBTRRT_move_to_magneteinheit_A_129",
    "joint_names": [
        "shoulder_pan_joint",
        "shoulder_lift_joint",
        "elbow_joint",
        "wrist_1_joint",
        "wrist_2_joint",
        "wrist_3_joint"
    ],
    "metrics": {
        "cart_traj_len": 1.9930372673173236,
        "distance_elbow_joint": 3.8934425341847785,
        "distance_shoulder_lift_joint": 1.162597037918336,
        "distance_shoulder_pan_joint": 1.2420116576071796,
        "distance_wrist_1_joint": 1.225075837080847,
        "distance_wrist_2_joint": 1.447336934216362,
        "distance_wrist_3_joint": 4.296313551416096,
        "smoothness": 0.014664080567970344,
        "time": 5.069719215,
        "traj_len": 3.642358789633937,
        "weighted_distance": 4.952960470925746
    },
    "planner": "LBTRRT",
    "start": {
        "state": {
            "elbow_joint": -1.919643507792019,
            "shoulder_lift_joint": -0.07675430207160344,
            "shoulder_pan_joint": -1.1188671864651873,
            "wrist_1_joint": 0.42560062535961957,
            "wrist_2_joint": 1.5706038300724876,
            "wrist_3_joint": 1.1188968870953055
        }
    },
    "waypoints": [
        {
            "positions": [
                -1.1188671864651873,
                -0.07675430207160344,
                -1.919643507792019,
                0.42560062535961957,
                1.5706038300724876,
                1.1188968870953055
            ]
        },
        {
            "positions": [
                -1.0952922534078258,
                -0.11956460347421091,
                -1.803223691094128,
                0.3796320628206712,
                1.5327805652658777,
                0.9925669131657908
            ]
        },
        {
            "positions": [
                -1.0717173203504642,
                -0.16237490487681838,
                -1.6868038743962366,
                0.33366350028172287,
                1.494957300459268,
                0.8662369392362762
            ]
        },
        {
            "positions": [
                -1.0481423872931026,
                -0.20518520627942585,
                -1.5703840576983454,
                0.28769493774277455,
                1.457134035652658,
                0.7399069653067616
            ]
        },
        {
            "positions": [
                -1.024567454235741,
                -0.24799550768203332,
                -1.4539642410004543,
                0.24172637520382617,
                1.4193107708460484,
                0.6135769913772469
            ]
        },
        {
            "positions": [
                -1.0009925211783794,
                -0.2908058090846408,
                -1.3375444243025632,
                0.19575781266487782,
                1.3814875060394385,
                0.48724701744773224
            ]
        },
        {
            "positions": [
                -0.977417588121018,
                -0.33361611048724826,
                -1.2211246076046718,
                0.14978925012592947,
                1.3436642412328288,
                0.3609170435182175
            ]
        },
        {
            "positions": [
                -0.9538426550636565,
                -0.3764264118898557,
                -1.1047047909067806,
                0.10382068758698115,
                1.3058409764262189,
                0.234587069588703
            ]
        },
        {
            "positions": [
                -0.9302677220062949,
                -0.4192367132924632,
                -0.9882849742088894,
                0.057852125048032776,
                1.268017711619609,
                0.10825709565918817
            ]
        },
        {
            "positions": [
                -0.9066927889489333,
                -0.46204701469507065,
                -0.8718651575109981,
                0.011883562509084455,
                1.2301944468129993,
                -0.01807287827032633
            ]
        },
        {
            "positions": [
                -0.8831178558915718,
                -0.5048573160976781,
                -0.755445340813107,
                -0.03408500002986392,
                1.1923711820063896,
                -0.14440285219984106
            ]
        },
        {
            "positions": [
                -0.8595429228342102,
                -0.5476676175002856,
                -0.6390255241152158,
                -0.08005356256881219,
                1.1545479171997797,
                -0.2707328261293558
            ]
        },
        {
            "positions": [
                -0.8359679897768486,
                -0.590477918902893,
                -0.5226057074173245,
                -0.12602212510776062,
                1.1167246523931698,
                -0.3970628000588705
            ]
        },
        {
            "positions": [
                -0.812393056719487,
                -0.6332882203055006,
                -0.40618589071943334,
                -0.17199068764670894,
                1.07890138758656,
                -0.523392773988385
            ]
        },
        {
            "positions": [
                -0.7888181236621256,
                -0.6760985217081079,
                -0.2897660740215422,
                -0.21795925018565726,
                1.0410781227799504,
                -0.6497227479178995
            ]
        },
        {
            "positions": [
                -0.765243190604764,
                -0.7189088231107155,
                -0.17334625732365105,
                -0.2639278127246056,
                1.0032548579733405,
                -0.7760527218474143
            ]
        },
        {
            "positions": [
                -0.7416682575474024,
                -0.761719124513323,
                -0.05692644062575969,
                -0.309896375263554,
                0.9654315931667306,
                -0.9023826957769292
            ]
        },
        {
            "positions": [
                -0.7180933244900408,
                -0.8045294259159304,
                0.059493376072131454,
                -0.35586493780250233,
                0.9276083283601209,
                -1.0287126697064437
            ]
        },
        {
            "positions": [
                -0.6945183914326793,
                -0.8473397273185379,
                0.17591319277002282,
                -0.40183350034145066,
                0.8897850635535111,
                -1.1550426436359582
            ]
        },
        {
            "positions": [
                -0.6709434583753178,
                -0.8901500287211452,
                0.29233300946791396,
                -0.447802062880399,
                0.8519617987469013,
                -1.2813726175654727
            ]
        },
        {
            "positions": [
                -0.6473685253179562,
                -0.9329603301237528,
                0.4087528261658051,
                -0.4937706254193474,
                0.8141385339402913,
                -1.4077025914949877
            ]
        },
        {
            "positions": [
                -0.6237935922605946,
                -0.9757706315263603,
                0.5251726428636962,
                -0.5397391879582958,
                0.7763152691336815,
                -1.5340325654245022
            ]
        },
        {
            "positions": [
                -0.600218659203233,
                -1.0185809329289677,
                0.6415924595615874,
                -0.5857077504972439,
                0.7384920043270717,
                -1.6603625393540171
            ]
        },
        {
            "positions": [
                -0.5766437261458716,
                -1.0613912343315752,
                0.7580122762594785,
                -0.6316763130361922,
                0.700668739520462,
                -1.7866925132835316
            ]
        },
        {
            "positions": [
                -0.5530687930885099,
                -1.1042015357341828,
                0.8744320929573701,
                -0.6776448755751407,
                0.6628454747138521,
                -1.9130224872130466
            ]
        },
        {
            "positions": [
                -0.5294938600311484,
                -1.1470118371367903,
                0.9908519096552613,
                -0.7236134381140891,
                0.6250222099072423,
                -2.039352461142561
            ]
        },
        {
            "positions": [
                -0.5059189269737868,
                -1.1898221385393977,
                1.1072717263531524,
                -0.7695820006530374,
                0.5871989451006325,
                -2.1656824350720756
            ]
        },
        {
            "positions": [
                -0.4272860022093144,
                -1.18363098835808,
                1.215587638858103,
                -0.7733186520365611,
                0.5292074389450692,
                -2.2921492137281647
            ]
        },
        {
            "positions": [
                -0.348653077444842,
                -1.1774398381767623,
                1.3239035513630537,
                -0.7770553034200849,
                0.47121593278950585,
                -2.4186159923842543
            ]
        },
        {
            "positions": [
                -0.2700201526803696,
                -1.1712486879954445,
                1.4322194638680044,
                -0.7807919548036086,
                0.41322442663394254,
                -2.5450827710403434
            ]
        },
        {
            "positions": [
                -0.19138722791589718,
                -1.1650575378141268,
                1.540535376372955,
                -0.7845286061871324,
                0.3552329204783792,
                -2.671549549696433
            ]
        },
        {
            "positions": [
                -0.11275430315142476,
                -1.1588663876328091,
                1.6488512888779057,
                -0.7882652575706562,
                0.29724141432281587,
                -2.798016328352522
            ]
        },
        {
            "positions": [
                -0.034121378386952395,
                -1.1526752374514913,
                1.7571672013828563,
                -0.79200190895418,
                0.23924990816725256,
                -2.9244831070086112
            ]
        },
        {
            "positions": [
                0.044511546377520084,
                -1.1464840872701736,
                1.865483113887807,
                -0.7957385603377037,
                0.1812584020116892,
                -3.050949885664701
            ]
        },
        {
            "positions": [
                0.12314447114199249,
                -1.140292937088856,
                1.9737990263927576,
                -0.7994752117212275,
                0.12326689585612587,
                -3.17741666432079
            ]
        }
    ]
}