{
    "goal": {
        "global_pose": {
            "orientation": {
                "w": 0.5084816217422485,
                "x": -0.49083608388900757,
                "y": 0.5182115435600281,
                "z": -0.4816462993621826
            },
            "position": {
                "x": 0.5540239810943604,
                "y": 0.030875300988554955,
                "z": 0.16403168439865112
            }
        },
        "name": "move_to_storage_A"
    },
    "id": "LBTRRT_move_to_storage_A_111",
    "joint_names": [
        "shoulder_pan_joint",
        "shoulder_lift_joint",
        "elbow_joint",
        "wrist_1_joint",
        "wrist_2_joint",
        "wrist_3_joint"
    ],
    "metrics": {
        "cart_traj_len": 0.35306201012378946,
        "distance_elbow_joint": 0.44908098137876795,
        "distance_shoulder_lift_joint": 0.23546598591400691,
        "distance_shoulder_pan_joint": 0.45996510846927496,
        "distance_wrist_1_joint": 0.23795286078742361,
        "distance_wrist_2_joint": 1.106576851970534,
        "distance_wrist_3_joint": 0.08973880914718713,
        "smoothness": 6.661338165333112e-16,
        "time": 5.0043426250000005,
        "traj_len": 1.605858212192843,
        "weighted_distance": 2.025533986068742
    },
    "planner": "LBTRRT",
    "start": {
        "state": {
            "elbow_joint": 1.9715463870305268,
            "shoulder_lift_joint": -1.1394903361783484,
            "shoulder_pan_joint": 0.12281147578464417,
            "wrist_1_joint": -0.7804599489681411,
            "wrist_2_joint": 0.12958660307563738,
            "wrist_3_joint": -3.1924946282119055
        }
    },
    "waypoints": [
        {
            "positions": [
                0.12281147578464417,
                -1.1394903361783484,
                1.9715463870305268,
                -0.7804599489681411,
                0.12958660307563738,
                -3.1924946282119055
            ]
        },
        {
            "positions": [
                0.057102174574747755,
                -1.1731283341660637,
                2.0357008129417795,
                -0.8144532147949158,
                0.2876690104999994,
                -3.179674798333736
            ]
        },
        {
            "positions": [
                -0.008607126635148662,
                -1.206766332153779,
                2.099855238853032,
                -0.8484464806216907,
                0.44575141792436135,
                -3.1668549684555662
            ]
        },
        {
            "positions": [
                -0.0743164278450451,
                -1.2404043301414942,
                2.1640096647642846,
                -0.8824397464484655,
                0.6038338253487233,
                -3.1540351385773966
            ]
        },
        {
            "positions": [
                -0.14002572905494148,
                -1.2740423281292095,
                2.228164090675537,
                -0.9164330122752403,
                0.7619162327730853,
                -3.1412153086992274
            ]
        },
        {
            "positions": [
                -0.20573503026483791,
                -1.3076803261169248,
                2.2923185165867896,
                -0.9504262781020151,
                0.9199986401974474,
                -3.1283954788210577
            ]
        },
        {
            "positions": [
                -0.27144433147473435,
                -1.34131832410464,
                2.356472942498042,
                -0.9844195439287899,
                1.0780810476218092,
                -3.115575648942888
            ]
        },
        {
            "positions": [
                -0.3371536326846308,
                -1.3749563220923553,
                2.4206273684092947,
                -1.0184128097555647,
                1.2361634550461713,
                -3.1027558190647184
            ]
        }
    ]
}