{
    "goal": {
        "global_pose": {
            "orientation": {
                "w": 0.7031023502349854,
                "x": -0.7110244035720825,
                "y": 0.007748599164187908,
                "z": 0.005598929710686207
            },
            "position": {
                "x": 0.11585023208521307,
                "y": 0.44412534475326537,
                "z": 0.3711530566215515
            }
        },
        "name": "move_to_auspresseinheit_A"
    },
    "id": "LBTRRT_move_to_auspresseinheit_A_108",
    "joint_names": [
        "shoulder_pan_joint",
        "shoulder_lift_joint",
        "elbow_joint",
        "wrist_1_joint",
        "wrist_2_joint",
        "wrist_3_joint"
    ],
    "metrics": {
        "cart_traj_len": 0.7130375988373207,
        "distance_elbow_joint": 0.10618413063564613,
        "distance_shoulder_lift_joint": 0.8425113071911843,
        "distance_shoulder_pan_joint": 1.0452644532383535,
        "distance_wrist_1_joint": 1.1598211588979008,
        "distance_wrist_2_joint": 0.5296507643786612,
        "distance_wrist_3_joint": 0.1567020581210432,
        "smoothness": 1.489263507528256,
        "time": 5.017927868,
        "traj_len": 1.9596259521813821,
        "weighted_distance": 2.417231869718219
    },
    "planner": "LBTRRT",
    "start": {
        "state": {
            "elbow_joint": 2.422574709923281,
            "shoulder_lift_joint": -1.3736533754116391,
            "shoulder_pan_joint": -0.33786336945926293,
            "wrist_1_joint": -1.0288603412921917,
            "wrist_2_joint": 1.2330224858903978,
            "wrist_3_joint": -3.094022268022082
        }
    },
    "waypoints": [
        {
            "positions": [
                -0.33786336945926293,
                -1.3736533754116391,
                2.422574709923281,
                -1.0288603412921917,
                1.2330224858903978,
                -3.094022268022082
            ]
        },
        {
            "positions": [
                -0.2566675388474118,
                -1.4596434721182063,
                2.413953553127516,
                -0.9208624071142386,
                1.1673176602419169,
                -3.1061993612773233
            ]
        },
        {
            "positions": [
                -0.17547170823556066,
                -1.5456335688247735,
                2.405332396331751,
                -0.8128644729362855,
                1.1016128345934357,
                -3.118376454532564
            ]
        },
        {
            "positions": [
                -0.09427587762370954,
                -1.631623665531341,
                2.396711239535986,
                -0.7048665387583324,
                1.0359080089449546,
                -3.1305535477878053
            ]
        },
        {
            "positions": [
                -0.013080047011858387,
                -1.7176137622379082,
                2.388090082740221,
                -0.5968686045803793,
                0.9702031832964737,
                -3.1427306410430464
            ]
        },
        {
            "positions": [
                0.06811578359999276,
                -1.8036038589444754,
                2.379468925944456,
                -0.48887067040242616,
                0.9044983576479927,
                -3.154907734298287
            ]
        },
        {
            "positions": [
                0.14931161421184386,
                -1.8895939556510428,
                2.370847769148691,
                -0.38087273622447304,
                0.8387935319995117,
                -3.1670848275535284
            ]
        },
        {
            "positions": [
                0.23050744482369506,
                -1.97558405235761,
                2.362226612352926,
                -0.2728748020465199,
                0.7730887063510307,
                -3.179261920808769
            ]
        },
        {
            "positions": [
                0.31170327543554616,
                -2.0615741490641772,
                2.353605455557161,
                -0.16487686786856678,
                0.7073838807025497,
                -3.1914390140640103
            ]
        },
        {
            "positions": [
                0.44360254488339423,
                -2.0100439712179616,
                2.3660104143136693,
                -0.2634894296933254,
                0.706046494305612,
                -3.171677243370972
            ]
        },
        {
            "positions": [
                0.5755018143312423,
                -1.9585137933717465,
                2.3784153730701783,
                -0.362101991518084,
                0.7047091079086742,
                -3.1519154726779335
            ]
        },
        {
            "positions": [
                0.7074010837790904,
                -1.906983615525531,
                2.3908203318266867,
                -0.4607145533428426,
                0.7033717215117365,
                -3.1321537019848953
            ]
        }
    ]
}