{
    "goal": {
        "global_pose": {
            "orientation": {
                "w": 0.7047431468963623,
                "x": -0.7094548344612122,
                "y": 0.0024358443915843964,
                "z": -0.0022348060738295317
            },
            "position": {
                "x": 0.6094750761985779,
                "y": 0.3671506643295288,
                "z": 0.19426114857196808
            }
        },
        "name": "move_to_magneteinheit_A"
    },
    "id": "LBTRRT_move_to_magneteinheit_A_93",
    "joint_names": [
        "shoulder_pan_joint",
        "shoulder_lift_joint",
        "elbow_joint",
        "wrist_1_joint",
        "wrist_2_joint",
        "wrist_3_joint"
    ],
    "metrics": {
        "cart_traj_len": 2.065679158450419,
        "distance_elbow_joint": 3.8790603997006725,
        "distance_shoulder_lift_joint": 1.0554015171460278,
        "distance_shoulder_pan_joint": 1.2428606307702355,
        "distance_wrist_1_joint": 1.15463641962481,
        "distance_wrist_2_joint": 1.4440750305700212,
        "distance_wrist_3_joint": 1.9307636337059924,
        "smoothness": 2.450147366813783e-16,
        "time": 5.013686052000001,
        "traj_len": 3.2721243300824865,
        "weighted_distance": 4.143312243739854
    },
    "planner": "LBTRRT",
    "start": {
        "state": {
            "elbow_joint": -1.919643507792019,
            "shoulder_lift_joint": -0.07675430207160344,
            "shoulder_pan_joint": -1.1188671864651873,
            "wrist_1_joint": 0.42560062535961957,
            "wrist_2_joint": 1.5706038300724876,
            "wrist_3_joint": 1.1188968870953055
        }
    },
    "waypoints": [
        {
            "positions": [
                -1.1188671864651873,
                -0.07675430207160344,
                -1.919643507792019,
                0.42560062535961957,
                1.5706038300724876,
                1.1188968870953055
            ]
        },
        {
            "positions": [
                -1.0744793067948217,
                -0.11444721339824729,
                -1.781105636374138,
                0.3843636103730192,
                1.519029721837844,
                1.187852731156234
            ]
        },
        {
            "positions": [
                -1.0300914271244563,
                -0.15214012472489113,
                -1.6425677649562567,
                0.3431265953864189,
                1.4674556136032004,
                1.256808575217162
            ]
        },
        {
            "positions": [
                -0.9857035474540907,
                -0.18983303605153498,
                -1.5040298935383756,
                0.3018895803998185,
                1.4158815053685567,
                1.3257644192780904
            ]
        },
        {
            "positions": [
                -0.9413156677837251,
                -0.22752594737817883,
                -1.3654920221204945,
                0.26065256541321813,
                1.3643073971339132,
                1.3947202633390188
            ]
        },
        {
            "positions": [
                -0.8969277881133596,
                -0.2652188587048227,
                -1.2269541507026132,
                0.21941555042661778,
                1.3127332888992695,
                1.4636761073999471
            ]
        },
        {
            "positions": [
                -0.8525399084429941,
                -0.3029117700314665,
                -1.0884162792847323,
                0.17817853544001744,
                1.261159180664626,
                1.5326319514608753
            ]
        },
        {
            "positions": [
                -0.8081520287726285,
                -0.3406046813581104,
                -0.949878407866851,
                0.13694152045341706,
                1.2095850724299824,
                1.6015877955218036
            ]
        },
        {
            "positions": [
                -0.7637641491022629,
                -0.3782975926847542,
                -0.8113405364489699,
                0.09570450546681675,
                1.1580109641953387,
                1.670543639582732
            ]
        },
        {
            "positions": [
                -0.7193762694318974,
                -0.41599050401139814,
                -0.6728026650310885,
                0.05446749048021632,
                1.1064368559606952,
                1.7394994836436601
            ]
        },
        {
            "positions": [
                -0.6749883897615319,
                -0.45368341533804196,
                -0.5342647936132074,
                0.013230475493616,
                1.0548627477260515,
                1.8084553277045885
            ]
        },
        {
            "positions": [
                -0.6306005100911662,
                -0.4913763266646858,
                -0.39572692219532635,
                -0.028006539492984373,
                1.0032886394914078,
                1.8774111717655169
            ]
        },
        {
            "positions": [
                -0.5862126304208007,
                -0.5290692379913295,
                -0.25718905077744525,
                -0.06924355447958469,
                0.9517145312567643,
                1.946367015826445
            ]
        },
        {
            "positions": [
                -0.5418247507504351,
                -0.5667621493179735,
                -0.11865117935956393,
                -0.11048056946618506,
                0.9001404230221206,
                2.0153228598873736
            ]
        },
        {
            "positions": [
                -0.4974368710800696,
                -0.6044550606446173,
                0.019886692058317168,
                -0.15171758445278544,
                0.848566314787477,
                2.0842787039483017
            ]
        },
        {
            "positions": [
                -0.4530489914097041,
                -0.6421479719712613,
                0.1584245634761985,
                -0.1929545994393858,
                0.7969922065528334,
                2.1532345480092303
            ]
        },
        {
            "positions": [
                -0.4086611117393385,
                -0.679840883297905,
                0.29696243489407936,
                -0.23419161442598607,
                0.7454180983181898,
                2.222190392070158
            ]
        },
        {
            "positions": [
                -0.364273232068973,
                -0.7175337946245488,
                0.4355003063119607,
                -0.27542862941258645,
                0.6938439900835462,
                2.2911462361310866
            ]
        },
        {
            "positions": [
                -0.3198853523986074,
                -0.7552267059511928,
                0.574038177729842,
                -0.31666564439918693,
                0.6422698818489025,
                2.360102080192015
            ]
        },
        {
            "positions": [
                -0.2754974727282419,
                -0.7929196172778366,
                0.7125760491477229,
                -0.3579026593857873,
                0.590695773614259,
                2.4290579242529433
            ]
        },
        {
            "positions": [
                -0.23110959305787626,
                -0.8306125286044805,
                0.8511139205656042,
                -0.39913967437238757,
                0.5391216653796154,
                2.4980137683138715
            ]
        },
        {
            "positions": [
                -0.18672171338751076,
                -0.8683054399311243,
                0.9896517919834851,
                -0.44037668935898794,
                0.48754755714497167,
                2.5669696123748
            ]
        },
        {
            "positions": [
                -0.14233383371714525,
                -0.9059983512577681,
                1.1281896634013664,
                -0.4816137043455883,
                0.4359734489103282,
                2.635925456435728
            ]
        },
        {
            "positions": [
                -0.09794595404677975,
                -0.943691262584412,
                1.2667275348192477,
                -0.5228507193321885,
                0.3843993406756845,
                2.7048813004966563
            ]
        },
        {
            "positions": [
                -0.05355807437641413,
                -0.9813841739110558,
                1.4052654062371286,
                -0.5640877343187889,
                0.332825232441041,
                2.773837144557585
            ]
        },
        {
            "positions": [
                -0.009170194706048518,
                -1.0190770852376998,
                1.54380327765501,
                -0.6053247493053893,
                0.2812511242063973,
                2.842792988618513
            ]
        },
        {
            "positions": [
                0.0352176849643171,
                -1.0567699965643436,
                1.6823411490728912,
                -0.6465617642919896,
                0.2296770159717536,
                2.911748832679441
            ]
        },
        {
            "positions": [
                0.07960556463468249,
                -1.0944629078909875,
                1.820879020490772,
                -0.68779877927859,
                0.17810290773711013,
                2.9807046767403698
            ]
        },
        {
            "positions": [
                0.12399344430504815,
                -1.1321558192176313,
                1.9594168919086536,
                -0.7290357942651905,
                0.1265287995024664,
                3.049660520801298
            ]
        }
    ]
}