{
    "goal": {
        "global_pose": {
            "orientation": {
                "w": 0.5084816217422485,
                "x": -0.49083608388900757,
                "y": 0.5182115435600281,
                "z": -0.4816462993621826
            },
            "position": {
                "x": 0.5540239810943604,
                "y": 0.030875300988554955,
                "z": 0.16403168439865112
            }
        },
        "name": "move_to_storage_A"
    },
    "id": "LBTRRT_move_to_storage_A_57",
    "joint_names": [
        "shoulder_pan_joint",
        "shoulder_lift_joint",
        "elbow_joint",
        "wrist_1_joint",
        "wrist_2_joint",
        "wrist_3_joint"
    ],
    "metrics": {
        "cart_traj_len": 0.3525986164204671,
        "distance_elbow_joint": 0.45493298634708434,
        "distance_shoulder_lift_joint": 0.23458240737635916,
        "distance_shoulder_pan_joint": 0.4604687587681075,
        "distance_wrist_1_joint": 0.261793252481031,
        "distance_wrist_2_joint": 1.1012831030526034,
        "distance_wrist_3_joint": 0.10488190216159676,
        "smoothness": 1.3322676330666223e-15,
        "time": 5.004042984,
        "traj_len": 1.6180056891700914,
        "weighted_distance": 2.04714009536319
    },
    "planner": "LBTRRT",
    "start": {
        "state": {
            "elbow_joint": 1.9715463870305268,
            "shoulder_lift_joint": -1.1394903361783484,
            "shoulder_pan_joint": 0.12281147578464417,
            "wrist_1_joint": -0.7804599489681411,
            "wrist_2_joint": 0.12958660307563738,
            "wrist_3_joint": -3.1924946282119055
        }
    },
    "waypoints": [
        {
            "positions": [
                0.12281147578464417,
                -1.1394903361783484,
                1.9715463870305268,
                -0.7804599489681411,
                0.12958660307563738,
                -3.1924946282119055
            ]
        },
        {
            "positions": [
                0.05703022453205739,
                -1.1730021086606854,
                2.036536813651539,
                -0.8178589850368598,
                0.2869127606545807,
                -3.1775114993316773
            ]
        },
        {
            "positions": [
                -0.008751026720529395,
                -1.2065138811430225,
                2.1015272402725507,
                -0.8552580211055785,
                0.444238918233524,
                -3.1625283704514495
            ]
        },
        {
            "positions": [
                -0.07453227797311616,
                -1.2400256536253595,
                2.166517666893563,
                -0.8926570571742972,
                0.6015650758124673,
                -3.1475452415712213
            ]
        },
        {
            "positions": [
                -0.14031352922570295,
                -1.2735374261076964,
                2.231508093514575,
                -0.930056093243016,
                0.7588912333914107,
                -3.132562112690993
            ]
        },
        {
            "positions": [
                -0.20609478047828977,
                -1.3070491985900334,
                2.296498520135587,
                -0.9674551293117346,
                0.9162173909703542,
                -3.117578983810765
            ]
        },
        {
            "positions": [
                -0.2718760317308765,
                -1.3405609710723705,
                2.361488946756599,
                -1.0048541653804535,
                1.0735435485492972,
                -3.102595854930537
            ]
        },
        {
            "positions": [
                -0.3376572829834633,
                -1.3740727435547075,
                2.426479373377611,
                -1.042253201449172,
                1.2308697061282408,
                -3.087612726050309
            ]
        }
    ]
}