{
    "goal": {
        "global_pose": {
            "orientation": {
                "w": 0.5084816217422485,
                "x": -0.49083608388900757,
                "y": 0.5182115435600281,
                "z": -0.4816462993621826
            },
            "position": {
                "x": 0.5540239810943604,
                "y": 0.030875300988554955,
                "z": 0.16403168439865112
            }
        },
        "name": "move_to_storage_A"
    },
    "id": "LBTRRT_move_to_storage_A_33",
    "joint_names": [
        "shoulder_pan_joint",
        "shoulder_lift_joint",
        "elbow_joint",
        "wrist_1_joint",
        "wrist_2_joint",
        "wrist_3_joint"
    ],
    "metrics": {
        "cart_traj_len": 0.35358061054521145,
        "distance_elbow_joint": 0.4530423267481569,
        "distance_shoulder_lift_joint": 0.2327682887387459,
        "distance_shoulder_pan_joint": 0.4626790744813137,
        "distance_wrist_1_joint": 0.2594577153284886,
        "distance_wrist_2_joint": 1.0977532536482864,
        "distance_wrist_3_joint": 0.10674690718890822,
        "smoothness": 8.881784197001252e-16,
        "time": 5.003137097000001,
        "traj_len": 1.6163067673353038,
        "weighted_distance": 2.0452756169984747
    },
    "planner": "LBTRRT",
    "start": {
        "state": {
            "elbow_joint": 1.9715463870305268,
            "shoulder_lift_joint": -1.1394903361783484,
            "shoulder_pan_joint": 0.12281147578464417,
            "wrist_1_joint": -0.7804599489681411,
            "wrist_2_joint": 0.12958660307563738,
            "wrist_3_joint": -3.1924946282119055
        }
    },
    "waypoints": [
        {
            "positions": [
                0.12281147578464417,
                -1.1394903361783484,
                1.9715463870305268,
                -0.7804599489681411,
                0.12958660307563738,
                -3.1924946282119055
            ]
        },
        {
            "positions": [
                0.05671446514445651,
                -1.172742948855312,
                2.0362667194231205,
                -0.8175253368722109,
                0.286408496453964,
                -3.1772450700420616
            ]
        },
        {
            "positions": [
                -0.009382545495731157,
                -1.2059955615322757,
                2.1009870518157143,
                -0.8545907247762807,
                0.44323038983229057,
                -3.1619955118722176
            ]
        },
        {
            "positions": [
                -0.07547955613591882,
                -1.2392481742092394,
                2.165707384208308,
                -0.8916561126803505,
                0.6000522832106172,
                -3.1467459537023736
            ]
        },
        {
            "positions": [
                -0.14157656677610647,
                -1.2725007868862033,
                2.230427716600902,
                -0.9287215005844203,
                0.7568741765889438,
                -3.1314963955325292
            ]
        },
        {
            "positions": [
                -0.20767357741629416,
                -1.305753399563167,
                2.295148048993496,
                -0.9657868884884901,
                0.9136960699672705,
                -3.1162468373626853
            ]
        },
        {
            "positions": [
                -0.2737705880564818,
                -1.3390060122401306,
                2.35986838138609,
                -1.0028522763925598,
                1.070517963345597,
                -3.1009972791928413
            ]
        },
        {
            "positions": [
                -0.3398675986966695,
                -1.3722586249170943,
                2.4245887137786837,
                -1.0399176642966297,
                1.2273398567239238,
                -3.0857477210229973
            ]
        }
    ]
}