{
    "goal": {
        "global_pose": {
            "orientation": {
                "w": 0.5084816217422485,
                "x": -0.49083608388900757,
                "y": 0.5182115435600281,
                "z": -0.4816462993621826
            },
            "position": {
                "x": 0.5540239810943604,
                "y": 0.030875300988554955,
                "z": 0.16403168439865112
            }
        },
        "name": "move_to_storage_A"
    },
    "id": "LBTRRT_move_to_storage_A_85",
    "joint_names": [
        "shoulder_pan_joint",
        "shoulder_lift_joint",
        "elbow_joint",
        "wrist_1_joint",
        "wrist_2_joint",
        "wrist_3_joint"
    ],
    "metrics": {
        "cart_traj_len": 0.35281637367173746,
        "distance_elbow_joint": 0.45091337025907263,
        "distance_shoulder_lift_joint": 0.2335063978030274,
        "distance_shoulder_pan_joint": 0.46000453390939566,
        "distance_wrist_1_joint": 0.24690353354476435,
        "distance_wrist_2_joint": 1.103951081432713,
        "distance_wrist_3_joint": 0.09607349497964712,
        "smoothness": 4.440892133664971e-16,
        "time": 5.001989415,
        "traj_len": 1.6097678130490185,
        "weighted_distance": 2.0333110969218144
    },
    "planner": "LBTRRT",
    "start": {
        "state": {
            "elbow_joint": 1.9715463870305268,
            "shoulder_lift_joint": -1.1394903361783484,
            "shoulder_pan_joint": 0.12281147578464417,
            "wrist_1_joint": -0.7804599489681411,
            "wrist_2_joint": 0.12958660307563738,
            "wrist_3_joint": -3.1924946282119055
        }
    },
    "waypoints": [
        {
            "positions": [
                0.12281147578464417,
                -1.1394903361783484,
                1.9715463870305268,
                -0.7804599489681411,
                0.12958660307563738,
                -3.1924946282119055
            ]
        },
        {
            "positions": [
                0.05709654236901622,
                -1.1728483930073523,
                2.035962582781823,
                -0.8157318823316788,
                0.2872939004231678,
                -3.178769843214813
            ]
        },
        {
            "positions": [
                -0.008618391046611731,
                -1.2062064498363563,
                2.100378778533119,
                -0.8510038156952167,
                0.44500119777069824,
                -3.1650450582177205
            ]
        },
        {
            "positions": [
                -0.07433332446223968,
                -1.2395645066653602,
                2.164794974284415,
                -0.8862757490587544,
                0.6027084951182287,
                -3.151320273220628
            ]
        },
        {
            "positions": [
                -0.14004825787786762,
                -1.272922563494364,
                2.229211170035711,
                -0.9215476824222921,
                0.7604157924657591,
                -3.137595488223536
            ]
        },
        {
            "positions": [
                -0.20576319129349557,
                -1.306280620323368,
                2.293627365787007,
                -0.95681961578583,
                0.9181230898132895,
                -3.1238707032264434
            ]
        },
        {
            "positions": [
                -0.2714781247091235,
                -1.3396386771523718,
                2.3580435615383033,
                -0.9920915491493676,
                1.07583038716082,
                -3.110145918229351
            ]
        },
        {
            "positions": [
                -0.3371930581247515,
                -1.3729967339813758,
                2.4224597572895994,
                -1.0273634825129054,
                1.2335376845083503,
                -3.0964211332322584
            ]
        }
    ]
}