{
    "goal": {
        "global_pose": {
            "orientation": {
                "w": 0.7047431468963623,
                "x": -0.7094548344612122,
                "y": 0.0024358443915843964,
                "z": -0.0022348060738295317
            },
            "position": {
                "x": 0.6094750761985779,
                "y": 0.3671506643295288,
                "z": 0.19426114857196808
            }
        },
        "name": "move_to_magneteinheit_A"
    },
    "id": "LBTRRT_move_to_magneteinheit_A_2",
    "joint_names": [
        "shoulder_pan_joint",
        "shoulder_lift_joint",
        "elbow_joint",
        "wrist_1_joint",
        "wrist_2_joint",
        "wrist_3_joint"
    ],
    "metrics": {
        "cart_traj_len": 1.873585172670694,
        "distance_elbow_joint": 3.921240832527757,
        "distance_shoulder_lift_joint": 0.7048547966041004,
        "distance_shoulder_pan_joint": 1.2418303810707578,
        "distance_wrist_1_joint": 1.5333802695001126,
        "distance_wrist_2_joint": 1.693713075952418,
        "distance_wrist_3_joint": 1.1498410654783102,
        "smoothness": 5.592234510853675e-16,
        "time": 5.0140400750000005,
        "traj_len": 3.200759350706244,
        "weighted_distance": 3.971351897974115
    },
    "planner": "LBTRRT",
    "start": {
        "state": {
            "elbow_joint": -1.919643507792019,
            "shoulder_lift_joint": -0.07675430207160344,
            "shoulder_pan_joint": -1.1188671864651873,
            "wrist_1_joint": 0.42560062535961957,
            "wrist_2_joint": 1.5706038300724876,
            "wrist_3_joint": 1.1188968870953055
        }
    },
    "waypoints": [
        {
            "positions": [
                -1.1188671864651873,
                -0.07675430207160344,
                -1.919643507792019,
                0.42560062535961957,
                1.5706038300724876,
                1.1188968870953055
            ]
        },
        {
            "positions": [
                -1.0711044795009275,
                -0.10386410194099192,
                -1.7688265526947977,
                0.48457678957116235,
                1.505461019458933,
                1.0746722307307552
            ]
        },
        {
            "positions": [
                -1.0233417725366676,
                -0.1309739018103804,
                -1.6180095975975761,
                0.5435529537827052,
                1.4403182088453785,
                1.0304475743662047
            ]
        },
        {
            "positions": [
                -0.9755790655724076,
                -0.1580837016797689,
                -1.4671926425003547,
                0.602529117994248,
                1.375175398231824,
                0.9862229180016544
            ]
        },
        {
            "positions": [
                -0.9278163586081477,
                -0.18519350154915737,
                -1.3163756874031334,
                0.6615052822057907,
                1.3100325876182695,
                0.941998261637104
            ]
        },
        {
            "positions": [
                -0.8800536516438877,
                -0.21230330141854586,
                -1.1655587323059118,
                0.7204814464173335,
                1.244889777004715,
                0.8977736052725536
            ]
        },
        {
            "positions": [
                -0.8322909446796278,
                -0.23941310128793436,
                -1.0147417772086906,
                0.7794576106288764,
                1.1797469663911604,
                0.8535489489080033
            ]
        },
        {
            "positions": [
                -0.784528237715368,
                -0.2665229011573228,
                -0.8639248221114693,
                0.8384337748404191,
                1.1146041557776059,
                0.8093242925434527
            ]
        },
        {
            "positions": [
                -0.7367655307511081,
                -0.29363270102671135,
                -0.7131078670142477,
                0.8974099390519619,
                1.0494613451640513,
                0.7650996361789024
            ]
        },
        {
            "positions": [
                -0.6890028237868482,
                -0.3207425008960998,
                -0.5622909119170263,
                0.9563861032635046,
                0.9843185345504968,
                0.720874979814352
            ]
        },
        {
            "positions": [
                -0.6412401168225881,
                -0.3478523007654883,
                -0.4114739568198047,
                1.0153622674750475,
                0.9191757239369422,
                0.6766503234498016
            ]
        },
        {
            "positions": [
                -0.5934774098583283,
                -0.3749621006348767,
                -0.26065700172258355,
                1.0743384316865903,
                0.8540329133233877,
                0.6324256670852513
            ]
        },
        {
            "positions": [
                -0.5457147028940683,
                -0.4020719005042653,
                -0.10984004662536195,
                1.1333145958981332,
                0.7888901027098332,
                0.5882010107207009
            ]
        },
        {
            "positions": [
                -0.49795199592980843,
                -0.4291817003736537,
                0.04097690847185942,
                1.192290760109676,
                0.7237472920962786,
                0.5439763543561504
            ]
        },
        {
            "positions": [
                -0.45018928896554855,
                -0.45629150024304216,
                0.19179386356908057,
                1.2512669243212187,
                0.6586044814827241,
                0.4997516979916
            ]
        },
        {
            "positions": [
                -0.40242658200128867,
                -0.48340130011243065,
                0.34261081866630216,
                1.3102430885327614,
                0.5934616708691697,
                0.4555270416270497
            ]
        },
        {
            "positions": [
                -0.3546638750370287,
                -0.5105110999818192,
                0.49342777376352376,
                1.3692192527443043,
                0.528318860255615,
                0.4113023852624992
            ]
        },
        {
            "positions": [
                -0.3069011680727688,
                -0.5376208998512076,
                0.6442447288607454,
                1.428195416955847,
                0.4631760496420605,
                0.3670777288979489
            ]
        },
        {
            "positions": [
                -0.2591384611085089,
                -0.5647306997205961,
                0.7950616839579665,
                1.4871715811673898,
                0.39803323902850596,
                0.32285307253339846
            ]
        },
        {
            "positions": [
                -0.21137575414424903,
                -0.5918404995899846,
                0.9458786390551877,
                1.5461477453789327,
                0.3328904284149514,
                0.27862841616884815
            ]
        },
        {
            "positions": [
                -0.16361304717998892,
                -0.6189502994593732,
                1.0966955941524097,
                1.6051239095904755,
                0.2677476178013969,
                0.23440375980429762
            ]
        },
        {
            "positions": [
                -0.11585034021572915,
                -0.6460600993287615,
                1.2475125492496308,
                1.6641000738020184,
                0.20260480718784235,
                0.1901791034397473
            ]
        },
        {
            "positions": [
                -0.06808763325146927,
                -0.6731698991981501,
                1.398329504346852,
                1.7230762380135611,
                0.13746199657428781,
                0.1459544470751969
            ]
        },
        {
            "positions": [
                -0.02032492628720939,
                -0.7002796990675386,
                1.5491464594440736,
                1.7820524022251039,
                0.07231918596073328,
                0.10172979071064647
            ]
        },
        {
            "positions": [
                0.027437780677050716,
                -0.7273894989369272,
                1.6999634145412952,
                1.8410285664366468,
                0.007176375347178743,
                0.057505134346096165
            ]
        },
        {
            "positions": [
                0.0752004876413106,
                -0.7544992988063155,
                1.8507803696385168,
                1.9000047306481895,
                -0.05796643526637579,
                0.013280477981545635
            ]
        },
        {
            "positions": [
                0.12296319460557052,
                -0.7816090986757039,
                2.001597324735738,
                1.9589808948597323,
                -0.12310924587993043,
                -0.03094417838300462
            ]
        }
    ]
}