{
    "goal": {
        "global_pose": {
            "orientation": {
                "w": 0.7047431468963623,
                "x": -0.7094548344612122,
                "y": 0.0024358443915843964,
                "z": -0.0022348060738295317
            },
            "position": {
                "x": 0.6094750761985779,
                "y": 0.3671506643295288,
                "z": 0.19426114857196808
            }
        },
        "name": "move_to_magneteinheit_A"
    },
    "id": "LBTRRT_move_to_magneteinheit_A_91",
    "joint_names": [
        "shoulder_pan_joint",
        "shoulder_lift_joint",
        "elbow_joint",
        "wrist_1_joint",
        "wrist_2_joint",
        "wrist_3_joint"
    ],
    "metrics": {
        "cart_traj_len": 1.9733849545747186,
        "distance_elbow_joint": 3.8923293080966017,
        "distance_shoulder_lift_joint": 1.0641086823434502,
        "distance_shoulder_pan_joint": 1.2421534473631115,
        "distance_wrist_1_joint": 1.2225793379727943,
        "distance_wrist_2_joint": 1.4493325715022234,
        "distance_wrist_3_joint": 4.2938947787043595,
        "smoothness": 2.2204460598735987e-16,
        "time": 5.081852464,
        "traj_len": 3.6282775701402095,
        "weighted_distance": 4.942074422028291
    },
    "planner": "LBTRRT",
    "start": {
        "state": {
            "elbow_joint": -1.919643507792019,
            "shoulder_lift_joint": -0.07675430207160344,
            "shoulder_pan_joint": -1.1188671864651873,
            "wrist_1_joint": 0.42560062535961957,
            "wrist_2_joint": 1.5706038300724876,
            "wrist_3_joint": 1.1188968870953055
        }
    },
    "waypoints": [
        {
            "positions": [
                -1.1188671864651873,
                -0.07675430207160344,
                -1.919643507792019,
                0.42560062535961957,
                1.5706038300724876,
                1.1188968870953055
            ]
        },
        {
            "positions": [
                -1.0905208005068332,
                -0.11272919383186947,
                -1.8165886487457144,
                0.38836800695905604,
                1.5295980966696376,
                0.980512708021419
            ]
        },
        {
            "positions": [
                -1.062174414548479,
                -0.1487040855921355,
                -1.7135337896994094,
                0.3511353885584925,
                1.4885923632667877,
                0.8421285289475324
            ]
        },
        {
            "positions": [
                -1.033828028590125,
                -0.18467897735240152,
                -1.6104789306531047,
                0.313902770157929,
                1.4475866298639377,
                0.703744349873646
            ]
        },
        {
            "positions": [
                -1.0054816426317708,
                -0.22065386911266754,
                -1.5074240716068,
                0.27667015175736553,
                1.4065808964610875,
                0.5653601707997593
            ]
        },
        {
            "positions": [
                -0.9771352566734166,
                -0.25662876087293357,
                -1.404369212560495,
                0.23943753335680198,
                1.3655751630582376,
                0.42697599172587275
            ]
        },
        {
            "positions": [
                -0.9487888707150625,
                -0.2926036526331996,
                -1.3013143535141904,
                0.20220491495623846,
                1.3245694296553876,
                0.2885918126519863
            ]
        },
        {
            "positions": [
                -0.9204424847567083,
                -0.3285785443934656,
                -1.1982594944678855,
                0.16497229655567497,
                1.2835636962525376,
                0.15020763357809963
            ]
        },
        {
            "positions": [
                -0.8920960987983542,
                -0.36455343615373165,
                -1.0952046354215808,
                0.12773967815511145,
                1.2425579628496877,
                0.011823454504213071
            ]
        },
        {
            "positions": [
                -0.86374971284,
                -0.4005283279139977,
                -0.9921497763752759,
                0.09050705975454792,
                1.2015522294468375,
                -0.12656072456967338
            ]
        },
        {
            "positions": [
                -0.8354033268816459,
                -0.4365032196742637,
                -0.8890949173289711,
                0.0532744413539844,
                1.1605464960439875,
                -0.26494490364356005
            ]
        },
        {
            "positions": [
                -0.8070569409232917,
                -0.4724781114345297,
                -0.7860400582826665,
                0.016041822953420937,
                1.1195407626411376,
                -0.4033290827174465
            ]
        },
        {
            "positions": [
                -0.7787105549649376,
                -0.5084530031947958,
                -0.6829851992363616,
                -0.02119079544714264,
                1.0785350292382876,
                -0.541713261791333
            ]
        },
        {
            "positions": [
                -0.7503641690065834,
                -0.5444278949550618,
                -0.5799303401900568,
                -0.05842341384770616,
                1.0375292958354376,
                -0.6800974408652196
            ]
        },
        {
            "positions": [
                -0.7220177830482293,
                -0.5804027867153279,
                -0.4768754811437519,
                -0.09565603224826963,
                0.9965235624325876,
                -0.8184816199391063
            ]
        },
        {
            "positions": [
                -0.693671397089875,
                -0.6163776784755939,
                -0.37382062209744715,
                -0.1328886506488332,
                0.9555178290297375,
                -0.9568657990129927
            ]
        },
        {
            "positions": [
                -0.665325011131521,
                -0.6523525702358599,
                -0.2707657630511424,
                -0.17012126904939667,
                0.9145120956268876,
                -1.0952499780868794
            ]
        },
        {
            "positions": [
                -0.6369786251731668,
                -0.6883274619961259,
                -0.1677109040048379,
                -0.20735388744996014,
                0.8735063622240377,
                -1.2336341571607656
            ]
        },
        {
            "positions": [
                -0.6086322392148126,
                -0.724302353756392,
                -0.06465604495853272,
                -0.24458650585052372,
                0.8325006288211876,
                -1.3720183362346523
            ]
        },
        {
            "positions": [
                -0.5802858532564585,
                -0.760277245516658,
                0.03839881408777179,
                -0.2818191242510872,
                0.7914948954183376,
                -1.510402515308539
            ]
        },
        {
            "positions": [
                -0.5519394672981043,
                -0.796252137276924,
                0.14145367313407697,
                -0.31905174265165076,
                0.7504891620154875,
                -1.6487866943824256
            ]
        },
        {
            "positions": [
                -0.5235930813397501,
                -0.83222702903719,
                0.2445085321803815,
                -0.3562843610522142,
                0.7094834286126376,
                -1.7871708734563119
            ]
        },
        {
            "positions": [
                -0.4952466953813961,
                -0.8682019207974561,
                0.347563391226686,
                -0.3935169794527777,
                0.6684776952097876,
                -1.9255550525301985
            ]
        },
        {
            "positions": [
                -0.46690030942304184,
                -0.9041768125577221,
                0.45061825027299096,
                -0.4307495978533414,
                0.6274719618069375,
                -2.063939231604085
            ]
        },
        {
            "positions": [
                -0.4385539234646877,
                -0.9401517043179881,
                0.5536731093192959,
                -0.46798221625390485,
                0.5864662284040876,
                -2.2023234106779714
            ]
        },
        {
            "positions": [
                -0.41020753750633365,
                -0.9761265960782539,
                0.6567279683656004,
                -0.5052148346544683,
                0.5454604950012376,
                -2.340707589751858
            ]
        },
        {
            "positions": [
                -0.3818611515479794,
                -1.0121014878385202,
                0.7597828274119054,
                -0.5424474530550318,
                0.5044547615983874,
                -2.479091768825745
            ]
        },
        {
            "positions": [
                -0.35351476558962525,
                -1.0480763795987862,
                0.8628376864582104,
                -0.5796800714555952,
                0.46344902819553746,
                -2.617475947899631
            ]
        },
        {
            "positions": [
                -0.3251683796312711,
                -1.0840512713590522,
                0.9658925455045153,
                -0.6169126898561588,
                0.4224432947926875,
                -2.755860126973518
            ]
        },
        {
            "positions": [
                -0.29682199367291695,
                -1.1200261631193182,
                1.0689474045508196,
                -0.6541453082567225,
                0.38143756138983764,
                -2.894244306047404
            ]
        },
        {
            "positions": [
                -0.22680395124444344,
                -1.1234989666686075,
                1.2195704705097803,
                -0.6779508756494645,
                0.33807651091990876,
                -2.941036570307679
            ]
        },
        {
            "positions": [
                -0.15678590881596993,
                -1.1269717702178967,
                1.370193536468741,
                -0.7017564430422066,
                0.2947154604499798,
                -2.987828834567954
            ]
        },
        {
            "positions": [
                -0.08676786638749642,
                -1.130444573767186,
                1.5208166024277014,
                -0.7255620104349487,
                0.2513544099800509,
                -3.0346210988282287
            ]
        },
        {
            "positions": [
                -0.016749823959022914,
                -1.1339173773164752,
                1.6714396683866621,
                -0.7493675778276909,
                0.207993359510122,
                -3.081413363088503
            ]
        },
        {
            "positions": [
                0.05326821846945062,
                -1.1373901808657645,
                1.8220627343456228,
                -0.773173145220433,
                0.16463230904019308,
                -3.128205627348778
            ]
        },
        {
            "positions": [
                0.12328626089792412,
                -1.1408629844150537,
                1.9726858003045835,
                -0.7969787126131751,
                0.12127125857026418,
                -3.174997891609053
            ]
        }
    ]
}