{
    "goal": {
        "global_pose": {
            "orientation": {
                "w": 0.7031023502349854,
                "x": -0.7110244035720825,
                "y": 0.007748599164187908,
                "z": 0.005598929710686207
            },
            "position": {
                "x": 0.11585023208521307,
                "y": 0.44412534475326537,
                "z": 0.3711530566215515
            }
        },
        "name": "move_to_auspresseinheit_A"
    },
    "id": "LBTRRT_move_to_auspresseinheit_A_11",
    "joint_names": [
        "shoulder_pan_joint",
        "shoulder_lift_joint",
        "elbow_joint",
        "wrist_1_joint",
        "wrist_2_joint",
        "wrist_3_joint"
    ],
    "metrics": {
        "cart_traj_len": 3.0202603252140885,
        "distance_elbow_joint": 3.146084345034884,
        "distance_shoulder_lift_joint": 1.5756435037041259,
        "distance_shoulder_pan_joint": 1.043382761686757,
        "distance_wrist_1_joint": 5.156379894233687,
        "distance_wrist_2_joint": 5.012570694335652,
        "distance_wrist_3_joint": 2.6669176905461143,
        "smoothness": 0.9869532949818162,
        "time": 5.0218497929999995,
        "traj_len": 4.312885216365167,
        "weighted_distance": 5.839842879667464
    },
    "planner": "LBTRRT",
    "start": {
        "state": {
            "elbow_joint": 2.422574709923281,
            "shoulder_lift_joint": -1.3736533754116391,
            "shoulder_pan_joint": -0.33786336945926293,
            "wrist_1_joint": -1.0288603412921917,
            "wrist_2_joint": 1.2330224858903978,
            "wrist_3_joint": -3.094022268022082
        }
    },
    "waypoints": [
        {
            "positions": [
                -0.33786336945926293,
                -1.3736533754116391,
                2.422574709923281,
                -1.0288603412921917,
                1.2330224858903978,
                -3.094022268022082
            ]
        },
        {
            "positions": [
                -0.33494155042274043,
                -1.4144323711065299,
                2.356478982968669,
                -0.9125736460982272,
                1.1205360241026012,
                -3.039436433520619
            ]
        },
        {
            "positions": [
                -0.33201973138621793,
                -1.4552113668014208,
                2.2903832560140573,
                -0.7962869509042626,
                1.0080495623148047,
                -2.9848505990191563
            ]
        },
        {
            "positions": [
                -0.3290979123496955,
                -1.4959903624963116,
                2.2242875290594455,
                -0.680000255710298,
                0.895563100527008,
                -2.930264764517694
            ]
        },
        {
            "positions": [
                -0.326176093313173,
                -1.5367693581912025,
                2.1581918021048336,
                -0.5637135605163335,
                0.7830766387392115,
                -2.875678930016231
            ]
        },
        {
            "positions": [
                -0.3232542742766505,
                -1.5775483538860933,
                2.0920960751502213,
                -0.44742686532236886,
                0.6705901769514149,
                -2.821093095514768
            ]
        },
        {
            "positions": [
                -0.320332455240128,
                -1.618327349580984,
                2.0260003481956095,
                -0.33114017012840435,
                0.5581037151636183,
                -2.766507261013305
            ]
        },
        {
            "positions": [
                -0.3174106362036055,
                -1.659106345275875,
                1.9599046212409976,
                -0.21485347493443974,
                0.4456172533758217,
                -2.711921426511842
            ]
        },
        {
            "positions": [
                -0.31448881716708305,
                -1.6998853409707657,
                1.8938088942863858,
                -0.09856677974047523,
                0.3331307915880253,
                -2.657335592010379
            ]
        },
        {
            "positions": [
                -0.31156699813056055,
                -1.7406643366656567,
                1.827713167331774,
                0.017719915453489277,
                0.22064432980022852,
                -2.6027497575089167
            ]
        },
        {
            "positions": [
                -0.30864517909403805,
                -1.7814433323605474,
                1.761617440377162,
                0.134006610647454,
                0.10815786801243199,
                -2.5481639230074538
            ]
        },
        {
            "positions": [
                -0.30572336005751555,
                -1.8222223280554384,
                1.6955217134225502,
                0.2502933058414185,
                -0.004328593775364542,
                -2.493578088505991
            ]
        },
        {
            "positions": [
                -0.3028015410209931,
                -1.8630013237503291,
                1.6294259864679381,
                0.366580001035383,
                -0.11681505556316107,
                -2.438992254004528
            ]
        },
        {
            "positions": [
                -0.2998797219844706,
                -1.9037803194452199,
                1.5633302595133263,
                0.4828666962293475,
                -0.2293015173509576,
                -2.3844064195030654
            ]
        },
        {
            "positions": [
                -0.2969579029479481,
                -1.9445593151401108,
                1.4972345325587142,
                0.5991533914233123,
                -0.34178797913875436,
                -2.3298205850016025
            ]
        },
        {
            "positions": [
                -0.2940360839114256,
                -1.9853383108350016,
                1.4311388056041023,
                0.7154400866172768,
                -0.45427444092655067,
                -2.2752347505001396
            ]
        },
        {
            "positions": [
                -0.2911142648749031,
                -2.0261173065298923,
                1.3650430786494905,
                0.8317267818112413,
                -0.5667609027143472,
                -2.2206489159986766
            ]
        },
        {
            "positions": [
                -0.28819244583838066,
                -2.0668963022247833,
                1.2989473516948784,
                0.948013477005206,
                -0.679247364502144,
                -2.1660630814972137
            ]
        },
        {
            "positions": [
                -0.28527062680185816,
                -2.1076752979196742,
                1.2328516247402668,
                1.0643001721991703,
                -0.7917338262899407,
                -2.111477246995751
            ]
        },
        {
            "positions": [
                -0.28234880776533566,
                -2.1484542936145647,
                1.166755897785655,
                1.180586867393135,
                -0.9042202880777368,
                -2.056891412494288
            ]
        },
        {
            "positions": [
                -0.27942698872881316,
                -2.1892332893094557,
                1.1006601708310428,
                1.2968735625870997,
                -1.0167067498655338,
                -2.002305577992825
            ]
        },
        {
            "positions": [
                -0.27650516969229066,
                -2.2300122850043467,
                1.034564443876431,
                1.413160257781064,
                -1.1291932116533303,
                -1.9477197434913625
            ]
        },
        {
            "positions": [
                -0.2735833506557682,
                -2.270791280699237,
                0.9684687169218191,
                1.5294469529750288,
                -1.2416796734411268,
                -1.8931339089898995
            ]
        },
        {
            "positions": [
                -0.2706615316192457,
                -2.311570276394128,
                0.902372989967207,
                1.6457336481689935,
                -1.3541661352289234,
                -1.8385480744884366
            ]
        },
        {
            "positions": [
                -0.2677397125827232,
                -2.352349272089019,
                0.8362772630125952,
                1.7620203433629578,
                -1.46665259701672,
                -1.783962239986974
            ]
        },
        {
            "positions": [
                -0.23185170243144554,
                -2.329729498935504,
                0.9040774021365675,
                1.6620243319092265,
                -1.36912188525441,
                -1.8429263273461807
            ]
        },
        {
            "positions": [
                -0.19596369228016786,
                -2.3071097257819893,
                0.9718775412605398,
                1.5620283204554954,
                -1.2715911734921002,
                -1.9018904147053877
            ]
        },
        {
            "positions": [
                -0.1600756821288902,
                -2.284489952628474,
                1.0396776803845122,
                1.4620323090017642,
                -1.1740604617297903,
                -1.9608545020645944
            ]
        },
        {
            "positions": [
                -0.12418767197761252,
                -2.261870179474959,
                1.1074778195084845,
                1.3620362975480331,
                -1.0765297499674804,
                -2.019818589423801
            ]
        },
        {
            "positions": [
                -0.08829966182633484,
                -2.2392504063214442,
                1.1752779586324569,
                1.2620402860943019,
                -0.9789990382051706,
                -2.078782676783008
            ]
        },
        {
            "positions": [
                -0.05241165167505718,
                -2.216630633167929,
                1.2430780977564293,
                1.1620442746405706,
                -0.8814683264428608,
                -2.137746764142215
            ]
        },
        {
            "positions": [
                -0.016523641523779498,
                -2.1940108600144144,
                1.3108782368804017,
                1.0620482631868393,
                -0.7839376146805509,
                -2.1967108515014218
            ]
        },
        {
            "positions": [
                0.019364368627498185,
                -2.171391086860899,
                1.378678376004374,
                0.9620522517331083,
                -0.6864069029182411,
                -2.2556749388606288
            ]
        },
        {
            "positions": [
                0.05525237877877587,
                -2.148771313707384,
                1.4464785151283464,
                0.862056240279377,
                -0.5888761911559312,
                -2.3146390262198357
            ]
        },
        {
            "positions": [
                0.09114038893005355,
                -2.1261515405538693,
                1.5142786542523186,
                0.7620602288256458,
                -0.4913454793936214,
                -2.3736031135790423
            ]
        },
        {
            "positions": [
                0.12702839908133123,
                -2.103531767400354,
                1.582078793376291,
                0.6620642173719147,
                -0.3938147676313115,
                -2.4325672009382493
            ]
        },
        {
            "positions": [
                0.16291640923260886,
                -2.080911994246839,
                1.6498789325002634,
                0.5620682059181834,
                -0.29628405586900164,
                -2.4915312882974563
            ]
        },
        {
            "positions": [
                0.19880441938388654,
                -2.0582922210933243,
                1.7176790716242356,
                0.46207219446445236,
                -0.198753344106692,
                -2.550495375656663
            ]
        },
        {
            "positions": [
                0.23469242953516423,
                -2.035672447939809,
                1.7854792107482083,
                0.36207618301072086,
                -0.10122263234438189,
                -2.60945946301587
            ]
        },
        {
            "positions": [
                0.27058043968644196,
                -2.0130526747862945,
                1.8532793498721805,
                0.2620801715569898,
                -0.003691920582072017,
                -2.668423550375077
            ]
        },
        {
            "positions": [
                0.3064684498377196,
                -1.9904329016327793,
                1.9210794889961527,
                0.16208416010325877,
                0.09383879118023764,
                -2.7273876377342834
            ]
        },
        {
            "positions": [
                0.3423564599889972,
                -1.9678131284792644,
                1.988879628120125,
                0.0620881486495275,
                0.1913695029425475,
                -2.7863517250934904
            ]
        },
        {
            "positions": [
                0.37824447014027496,
                -1.9451933553257492,
                2.0566797672440975,
                -0.037907862804203774,
                0.2889002147048576,
                -2.8453158124526974
            ]
        },
        {
            "positions": [
                0.4141324802915526,
                -1.9225735821722343,
                2.1244799063680695,
                -0.13790387425793482,
                0.38643092646716726,
                -2.904279899811904
            ]
        },
        {
            "positions": [
                0.4500204904428303,
                -1.8999538090187194,
                2.1922800454920424,
                -0.2378998857116661,
                0.48396163822947713,
                -2.963243987171111
            ]
        },
        {
            "positions": [
                0.48590850059410795,
                -1.8773340358652044,
                2.2600801846160143,
                -0.33789589716539714,
                0.581492349991787,
                -3.022208074530318
            ]
        },
        {
            "positions": [
                0.5217965107453857,
                -1.8547142627116893,
                2.327880323739987,
                -0.4378919086191284,
                0.6790230617540969,
                -3.0811721618895245
            ]
        },
        {
            "positions": [
                0.5576845208966633,
                -1.8320944895581743,
                2.395680462863959,
                -0.5378879200728599,
                0.7765537735164068,
                -3.1401362492487315
            ]
        },
        {
            "positions": [
                0.705519392227494,
                -1.9087873140540754,
                2.395296764591125,
                -0.47229697393014064,
                0.7068645326209998,
                -3.14081990249798
            ]
        }
    ]
}