{
    "goal": {
        "global_pose": {
            "orientation": {
                "w": 0.5084816217422485,
                "x": -0.49083608388900757,
                "y": 0.5182115435600281,
                "z": -0.4816462993621826
            },
            "position": {
                "x": 0.5540239810943604,
                "y": 0.030875300988554955,
                "z": 0.16403168439865112
            }
        },
        "name": "move_to_storage_A"
    },
    "id": "LBTRRT_move_to_storage_A_113",
    "joint_names": [
        "shoulder_pan_joint",
        "shoulder_lift_joint",
        "elbow_joint",
        "wrist_1_joint",
        "wrist_2_joint",
        "wrist_3_joint"
    ],
    "metrics": {
        "cart_traj_len": 0.3528810626729598,
        "distance_elbow_joint": 0.4480274685133079,
        "distance_shoulder_lift_joint": 0.23380909561396557,
        "distance_shoulder_pan_joint": 0.45702870599127965,
        "distance_wrist_1_joint": 0.23928612652099035,
        "distance_wrist_2_joint": 1.1166406152815835,
        "distance_wrist_3_joint": 0.08799417819179389,
        "smoothness": 4.440892098500626e-16,
        "time": 5.003805893,
        "traj_len": 1.6071049094918854,
        "weighted_distance": 2.028472649137543
    },
    "planner": "LBTRRT",
    "start": {
        "state": {
            "elbow_joint": 1.9715463870305268,
            "shoulder_lift_joint": -1.1394903361783484,
            "shoulder_pan_joint": 0.12281147578464417,
            "wrist_1_joint": -0.7804599489681411,
            "wrist_2_joint": 0.12958660307563738,
            "wrist_3_joint": -3.1924946282119055
        }
    },
    "waypoints": [
        {
            "positions": [
                0.12281147578464417,
                -1.1394903361783484,
                1.9715463870305268,
                -0.7804599489681411,
                0.12958660307563738,
                -3.1924946282119055
            ]
        },
        {
            "positions": [
                0.057521660643032796,
                -1.172891635551772,
                2.0355503111038566,
                -0.8146436813282826,
                0.28910669097300645,
                -3.1799240313273636
            ]
        },
        {
            "positions": [
                -0.0077681544985785805,
                -1.2062929349251956,
                2.099554235177186,
                -0.8488274136884241,
                0.4486267788703755,
                -3.1673534344428216
            ]
        },
        {
            "positions": [
                -0.07305796964018994,
                -1.2396942342986192,
                2.163558159250516,
                -0.8830111460485655,
                0.6081468667677445,
                -3.1547828375582796
            ]
        },
        {
            "positions": [
                -0.13834778478180132,
                -1.273095533672043,
                2.2275620833238454,
                -0.917194878408707,
                0.7676669546651137,
                -3.1422122406737376
            ]
        },
        {
            "positions": [
                -0.20363759992341274,
                -1.3064968330454667,
                2.2915660073971753,
                -0.9513786107688484,
                0.9271870425624829,
                -3.1296416437891956
            ]
        },
        {
            "positions": [
                -0.26892741506502404,
                -1.3398981324188903,
                2.3555699314705048,
                -0.9855623431289899,
                1.0867071304598517,
                -3.1170710469046536
            ]
        },
        {
            "positions": [
                -0.33421723020663546,
                -1.373299431792314,
                2.4195738555438346,
                -1.0197460754891314,
                1.246227218357221,
                -3.1045004500201117
            ]
        }
    ]
}