{
    "goal": {
        "global_pose": {
            "orientation": {
                "w": 0.7047431468963623,
                "x": -0.7094548344612122,
                "y": 0.0024358443915843964,
                "z": -0.0022348060738295317
            },
            "position": {
                "x": 0.6094750761985779,
                "y": 0.3671506643295288,
                "z": 0.19426114857196808
            }
        },
        "name": "move_to_magneteinheit_A"
    },
    "id": "LBTRRT_move_to_magneteinheit_A_131",
    "joint_names": [
        "shoulder_pan_joint",
        "shoulder_lift_joint",
        "elbow_joint",
        "wrist_1_joint",
        "wrist_2_joint",
        "wrist_3_joint"
    ],
    "metrics": {
        "cart_traj_len": 2.0717276449690205,
        "distance_elbow_joint": 3.9068082231403167,
        "distance_shoulder_lift_joint": 1.0704243967816993,
        "distance_shoulder_pan_joint": 1.241512087645601,
        "distance_wrist_1_joint": 1.2810673510419075,
        "distance_wrist_2_joint": 1.4405433701460313,
        "distance_wrist_3_joint": 2.0314353657567685,
        "smoothness": 3.368952644486532e-16,
        "time": 5.008074663,
        "traj_len": 3.312369362633389,
        "weighted_distance": 4.2138191996351475
    },
    "planner": "LBTRRT",
    "start": {
        "state": {
            "elbow_joint": -1.919643507792019,
            "shoulder_lift_joint": -0.07675430207160344,
            "shoulder_pan_joint": -1.1188671864651873,
            "wrist_1_joint": 0.42560062535961957,
            "wrist_2_joint": 1.5706038300724876,
            "wrist_3_joint": 1.1188968870953055
        }
    },
    "waypoints": [
        {
            "positions": [
                -1.1188671864651873,
                -0.07675430207160344,
                -1.919643507792019,
                0.42560062535961957,
                1.5706038300724876,
                1.1188968870953055
            ]
        },
        {
            "positions": [
                -1.074527469049273,
                -0.11498374481380699,
                -1.7801146426798649,
                0.37984821996526574,
                1.5191558525672721,
                1.1914481501580472
            ]
        },
        {
            "positions": [
                -1.0301877516333586,
                -0.15321318755601054,
                -1.6405857775677108,
                0.33409581457091186,
                1.467707875062057,
                1.263999413220789
            ]
        },
        {
            "positions": [
                -0.9858480342174444,
                -0.19144263029821407,
                -1.5010569124555566,
                0.2883434091765581,
                1.4162598975568415,
                1.3365506762835309
            ]
        },
        {
            "positions": [
                -0.9415083168015301,
                -0.22967207304041762,
                -1.3615280473434024,
                0.24259100378220422,
                1.364811920051626,
                1.4091019393462725
            ]
        },
        {
            "positions": [
                -0.8971685993856158,
                -0.26790151578262117,
                -1.2219991822312481,
                0.19683859838785037,
                1.3133639425464105,
                1.481653202409014
            ]
        },
        {
            "positions": [
                -0.8528288819697014,
                -0.30613095852482475,
                -1.0824703171190941,
                0.15108619299349657,
                1.261915965041195,
                1.554204465471756
            ]
        },
        {
            "positions": [
                -0.808489164553787,
                -0.34436040126702827,
                -0.9429414520069399,
                0.10533378759914269,
                1.2104679875359798,
                1.6267557285344978
            ]
        },
        {
            "positions": [
                -0.7641494471378728,
                -0.3825898440092318,
                -0.8034125868947859,
                0.05958138220478887,
                1.1590200100307644,
                1.6993069915972394
            ]
        },
        {
            "positions": [
                -0.7198097297219584,
                -0.4208192867514354,
                -0.6638837217826314,
                0.01382897681043499,
                1.107572032525549,
                1.771858254659981
            ]
        },
        {
            "positions": [
                -0.6754700123060442,
                -0.4590487294936389,
                -0.5243548566704774,
                -0.031923428583918834,
                1.0561240550203337,
                1.8444095177227229
            ]
        },
        {
            "positions": [
                -0.6311302948901298,
                -0.4972781722358425,
                -0.3848259915583232,
                -0.07767583397827266,
                1.0046760775151182,
                1.9169607807854647
            ]
        },
        {
            "positions": [
                -0.5867905774742156,
                -0.535507614978046,
                -0.2452971264461692,
                -0.12342823937262642,
                0.9532281000099028,
                1.9895120438482063
            ]
        },
        {
            "positions": [
                -0.5424508600583011,
                -0.5737370577202496,
                -0.10576826133401473,
                -0.16918064476698041,
                0.9017801225046873,
                2.062063306910948
            ]
        },
        {
            "positions": [
                -0.4981111426423869,
                -0.611966500462453,
                0.033760603778139275,
                -0.21493305016133418,
                0.850332144999472,
                2.1346145699736896
            ]
        },
        {
            "positions": [
                -0.4537714252264726,
                -0.6501959432046567,
                0.1732894688902935,
                -0.26068545555568795,
                0.7988841674942566,
                2.2071658330364317
            ]
        },
        {
            "positions": [
                -0.40943170781055827,
                -0.6884253859468601,
                0.3128183340024473,
                -0.30643786095004183,
                0.7474361899890412,
                2.2797170960991733
            ]
        },
        {
            "positions": [
                -0.365091990394644,
                -0.7266548286890637,
                0.45234719911460153,
                -0.3521902663443956,
                0.6959882124838258,
                2.352268359161915
            ]
        },
        {
            "positions": [
                -0.32075227297872955,
                -0.7648842714312674,
                0.5918760642267562,
                -0.3979426717387496,
                0.6445402349786102,
                2.424819622224657
            ]
        },
        {
            "positions": [
                -0.2764125555628152,
                -0.8031137141734708,
                0.7314049293389104,
                -0.44369507713310347,
                0.5930922574733949,
                2.4973708852873986
            ]
        },
        {
            "positions": [
                -0.23207283814690094,
                -0.8413431569156744,
                0.8709337944510642,
                -0.48944748252745723,
                0.5416442799681795,
                2.56992214835014
            ]
        },
        {
            "positions": [
                -0.1877331207309867,
                -0.879572599657878,
                1.0104626595632185,
                -0.535199887921811,
                0.4901963024629641,
                2.642473411412882
            ]
        },
        {
            "positions": [
                -0.14339340331507233,
                -0.9178020424000815,
                1.1499915246753727,
                -0.5809522933161648,
                0.43874832495774885,
                2.7150246744756235
            ]
        },
        {
            "positions": [
                -0.09905368589915797,
                -0.9560314851422851,
                1.2895203897875265,
                -0.6267046987105187,
                0.3873003474525334,
                2.7875759375383655
            ]
        },
        {
            "positions": [
                -0.054713968483243836,
                -0.9942609278844885,
                1.4290492548996807,
                -0.6724571041048724,
                0.33585236994731793,
                2.860127200601107
            ]
        },
        {
            "positions": [
                -0.010374251067329254,
                -1.0324903706266921,
                1.5685781200118354,
                -0.7182095094992265,
                0.28440439244210247,
                2.9326784636638488
            ]
        },
        {
            "positions": [
                0.033965466348585105,
                -1.0707198133688958,
                1.7081069851239896,
                -0.7639619148935803,
                0.232956414936887,
                3.005229726726591
            ]
        },
        {
            "positions": [
                0.07830518376449924,
                -1.1089492561110992,
                1.8476358502361434,
                -0.809714320287934,
                0.18150843743167178,
                3.0777809897893325
            ]
        },
        {
            "positions": [
                0.12264490118041355,
                -1.1471786988533028,
                1.9871647153482976,
                -0.8554667256822879,
                0.13006045992645635,
                3.150332252852074
            ]
        }
    ]
}