{
    "goal": {
        "global_pose": {
            "orientation": {
                "w": 0.5084816217422485,
                "x": -0.49083608388900757,
                "y": 0.5182115435600281,
                "z": -0.4816462993621826
            },
            "position": {
                "x": 0.5540239810943604,
                "y": 0.030875300988554955,
                "z": 0.16403168439865112
            }
        },
        "name": "move_to_storage_A"
    },
    "id": "LBTRRT_move_to_storage_A_21",
    "joint_names": [
        "shoulder_pan_joint",
        "shoulder_lift_joint",
        "elbow_joint",
        "wrist_1_joint",
        "wrist_2_joint",
        "wrist_3_joint"
    ],
    "metrics": {
        "cart_traj_len": 0.3530570193259548,
        "distance_elbow_joint": 0.45283067614188033,
        "distance_shoulder_lift_joint": 0.23429468204510662,
        "distance_shoulder_pan_joint": 0.45765843550581964,
        "distance_wrist_1_joint": 0.25830803068562214,
        "distance_wrist_2_joint": 1.1160065932273604,
        "distance_wrist_3_joint": 0.0931140456930013,
        "smoothness": 2.2204460668324854e-16,
        "time": 5.002941276,
        "traj_len": 1.6162340372912551,
        "weighted_distance": 2.0427322826542333
    },
    "planner": "LBTRRT",
    "start": {
        "state": {
            "elbow_joint": 1.9715463870305268,
            "shoulder_lift_joint": -1.1394903361783484,
            "shoulder_pan_joint": 0.12281147578464417,
            "wrist_1_joint": -0.7804599489681411,
            "wrist_2_joint": 0.12958660307563738,
            "wrist_3_joint": -3.1924946282119055
        }
    },
    "waypoints": [
        {
            "positions": [
                0.12281147578464417,
                -1.1394903361783484,
                1.9715463870305268,
                -0.7804599489681411,
                0.12958660307563738,
                -3.1924946282119055
            ]
        },
        {
            "positions": [
                0.057431699283812795,
                -1.172961005041935,
                2.0362364836222238,
                -0.8173610962089443,
                0.28901611639383173,
                -3.179192621684334
            ]
        },
        {
            "positions": [
                -0.007948077217018581,
                -1.2064316739055216,
                2.100926580213921,
                -0.8542622434497474,
                0.44844562971202606,
                -3.1658906151567625
            ]
        },
        {
            "positions": [
                -0.07332785371784996,
                -1.2399023427691083,
                2.165616676805618,
                -0.8911633906905505,
                0.6078751430302204,
                -3.1525886086291908
            ]
        },
        {
            "positions": [
                -0.13870763021868132,
                -1.2733730116326951,
                2.2303067733973156,
                -0.9280645379313537,
                0.7673046563484147,
                -3.139286602101619
            ]
        },
        {
            "positions": [
                -0.2040874067195127,
                -1.3068436804962817,
                2.2949968699890126,
                -0.9649656851721569,
                0.9267341696666092,
                -3.1259845955740473
            ]
        },
        {
            "positions": [
                -0.2694671832203441,
                -1.3403143493598684,
                2.3596869665807096,
                -1.00186683241296,
                1.0861636829848034,
                -3.112682589046476
            ]
        },
        {
            "positions": [
                -0.33484695972117545,
                -1.373785018223455,
                2.424377063172407,
                -1.0387679796537632,
                1.2455931963029978,
                -3.0993805825189042
            ]
        }
    ]
}