{
    "goal": {
        "global_pose": {
            "orientation": {
                "w": 0.5084816217422485,
                "x": -0.49083608388900757,
                "y": 0.5182115435600281,
                "z": -0.4816462993621826
            },
            "position": {
                "x": 0.5540239810943604,
                "y": 0.030875300988554955,
                "z": 0.16403168439865112
            }
        },
        "name": "move_to_storage_A"
    },
    "id": "LBTRRT_move_to_storage_A_45",
    "joint_names": [
        "shoulder_pan_joint",
        "shoulder_lift_joint",
        "elbow_joint",
        "wrist_1_joint",
        "wrist_2_joint",
        "wrist_3_joint"
    ],
    "metrics": {
        "cart_traj_len": 0.353146026660318,
        "distance_elbow_joint": 0.44896837806648504,
        "distance_shoulder_lift_joint": 0.2328506680853597,
        "distance_shoulder_pan_joint": 0.46257602758392347,
        "distance_wrist_1_joint": 0.24083518055581588,
        "distance_wrist_2_joint": 1.0946786610349422,
        "distance_wrist_3_joint": 0.10259741810505618,
        "smoothness": 2.2204460668324854e-16,
        "time": 5.006509613,
        "traj_len": 1.6070178385542528,
        "weighted_distance": 2.03057011975269
    },
    "planner": "LBTRRT",
    "start": {
        "state": {
            "elbow_joint": 1.9715463870305268,
            "shoulder_lift_joint": -1.1394903361783484,
            "shoulder_pan_joint": 0.12281147578464417,
            "wrist_1_joint": -0.7804599489681411,
            "wrist_2_joint": 0.12958660307563738,
            "wrist_3_joint": -3.1924946282119055
        }
    },
    "waypoints": [
        {
            "positions": [
                0.12281147578464417,
                -1.1394903361783484,
                1.9715463870305268,
                -0.7804599489681411,
                0.12958660307563738,
                -3.1924946282119055
            ]
        },
        {
            "positions": [
                0.056729186129797965,
                -1.1727547173333999,
                2.0356847267543103,
                -0.8148649747618291,
                0.28596926893777197,
                -3.1778378541968975
            ]
        },
        {
            "positions": [
                -0.009353103525048242,
                -1.2060190984884511,
                2.099823066478094,
                -0.849270000555517,
                0.44235193479990653,
                -3.1631810801818894
            ]
        },
        {
            "positions": [
                -0.07543539317989444,
                -1.2392834796435026,
                2.1639614062018775,
                -0.883675026349205,
                0.5987346006620411,
                -3.1485243061668813
            ]
        },
        {
            "positions": [
                -0.14151768283474064,
                -1.2725478607985539,
                2.228099745925661,
                -0.918080052142893,
                0.7551172665241758,
                -3.1338675321518736
            ]
        },
        {
            "positions": [
                -0.2075999724895869,
                -1.3058122419536053,
                2.2922380856494446,
                -0.952485077936581,
                0.9114999323863104,
                -3.1192107581368655
            ]
        },
        {
            "positions": [
                -0.27368226214443303,
                -1.3390766231086566,
                2.3563764253732282,
                -0.986890103730269,
                1.0678825982484448,
                -3.1045539841218575
            ]
        },
        {
            "positions": [
                -0.3397645517992793,
                -1.372341004263708,
                2.420514765097012,
                -1.021295129523957,
                1.2242652641105796,
                -3.0898972101068494
            ]
        }
    ]
}