{
    "goal": {
        "global_pose": {
            "orientation": {
                "w": 0.7047431468963623,
                "x": -0.7094548344612122,
                "y": 0.0024358443915843964,
                "z": -0.0022348060738295317
            },
            "position": {
                "x": 0.6094750761985779,
                "y": 0.3671506643295288,
                "z": 0.19426114857196808
            }
        },
        "name": "move_to_magneteinheit_A"
    },
    "id": "LBTRRT_move_to_magneteinheit_A_4",
    "joint_names": [
        "shoulder_pan_joint",
        "shoulder_lift_joint",
        "elbow_joint",
        "wrist_1_joint",
        "wrist_2_joint",
        "wrist_3_joint"
    ],
    "metrics": {
        "cart_traj_len": 2.453584136076616,
        "distance_elbow_joint": 3.9019026816567566,
        "distance_shoulder_lift_joint": 1.0673544710015814,
        "distance_shoulder_pan_joint": 1.2939156196771338,
        "distance_wrist_1_joint": 1.2551105571293977,
        "distance_wrist_2_joint": 1.4486444546692794,
        "distance_wrist_3_joint": 4.262966905028616,
        "smoothness": 0.012730825140455853,
        "time": 5.052300456999999,
        "traj_len": 3.637292219380066,
        "weighted_distance": 4.945663101245239
    },
    "planner": "LBTRRT",
    "start": {
        "state": {
            "elbow_joint": -1.919643507792019,
            "shoulder_lift_joint": -0.07675430207160344,
            "shoulder_pan_joint": -1.1188671864651873,
            "wrist_1_joint": 0.42560062535961957,
            "wrist_2_joint": 1.5706038300724876,
            "wrist_3_joint": 1.1188968870953055
        }
    },
    "waypoints": [
        {
            "positions": [
                -1.1188671864651873,
                -0.07675430207160344,
                -1.919643507792019,
                0.42560062535961957,
                1.5706038300724876,
                1.1188968870953055
            ]
        },
        {
            "positions": [
                -1.1241578355938069,
                -0.17089315865183802,
                -1.8493009635270736,
                0.3519418698238016,
                1.5194227704930359,
                1.0435833601837874
            ]
        },
        {
            "positions": [
                -1.1294484847224262,
                -0.2650320152320726,
                -1.7789584192621282,
                0.2782831142879837,
                1.4682417109135841,
                0.9682698332722693
            ]
        },
        {
            "positions": [
                -1.1347391338510457,
                -0.3591708718123071,
                -1.7086158749971827,
                0.2046243587521657,
                1.4170606513341322,
                0.8929563063607512
            ]
        },
        {
            "positions": [
                -1.140029782979665,
                -0.45330972839254174,
                -1.6382733307322372,
                0.13096560321634776,
                1.3658795917546804,
                0.8176427794492331
            ]
        },
        {
            "positions": [
                -1.1453204321082846,
                -0.5474485849727763,
                -1.5679307864672918,
                0.057306847680529766,
                1.3146985321752287,
                0.742329252537715
            ]
        },
        {
            "positions": [
                -1.1016148330036626,
                -0.568023074217618,
                -1.4455104430075667,
                0.02672695873396743,
                1.273569595734814,
                0.6083154845904383
            ]
        },
        {
            "positions": [
                -1.0579092338990408,
                -0.5885975634624596,
                -1.3230900995478414,
                -0.0038529302125949044,
                1.2324406592943997,
                0.47430171664316156
            ]
        },
        {
            "positions": [
                -1.0142036347944188,
                -0.6091720527073013,
                -1.2006697560881163,
                -0.03443281915915723,
                1.1913117228539851,
                0.34028794869588486
            ]
        },
        {
            "positions": [
                -0.9704980356897968,
                -0.629746541952143,
                -1.0782494126283912,
                -0.06501270810571957,
                1.1501827864135707,
                0.20627418074860815
            ]
        },
        {
            "positions": [
                -0.9267924365851749,
                -0.6503210311969847,
                -0.955829069168666,
                -0.0955925970522819,
                1.1090538499731561,
                0.07226041280133133
            ]
        },
        {
            "positions": [
                -0.8830868374805529,
                -0.6708955204418263,
                -0.8334087257089409,
                -0.12617248599884423,
                1.0679249135327418,
                -0.061753355145945266
            ]
        },
        {
            "positions": [
                -0.8393812383759309,
                -0.691470009686668,
                -0.7109883822492157,
                -0.1567523749454066,
                1.0267959770923272,
                -0.19576712309322208
            ]
        },
        {
            "positions": [
                -0.795675639271309,
                -0.7120444989315097,
                -0.5885680387894906,
                -0.18733226389196891,
                0.9856670406519128,
                -0.3297808910404987
            ]
        },
        {
            "positions": [
                -0.7519700401666871,
                -0.7326189881763514,
                -0.4661476953297654,
                -0.21791215283853124,
                0.9445381042114982,
                -0.4637946589877755
            ]
        },
        {
            "positions": [
                -0.7082644410620651,
                -0.753193477421193,
                -0.3437273518700401,
                -0.24849204178509357,
                0.9034091677710838,
                -0.5978084269350523
            ]
        },
        {
            "positions": [
                -0.6645588419574432,
                -0.7737679666660346,
                -0.22130700841031525,
                -0.2790719307316559,
                0.8622802313306693,
                -0.7318221948823287
            ]
        },
        {
            "positions": [
                -0.6208532428528213,
                -0.7943424559108764,
                -0.09888666495058995,
                -0.3096518196782182,
                0.8211512948902548,
                -0.8658359628296055
            ]
        },
        {
            "positions": [
                -0.5771476437481993,
                -0.8149169451557181,
                0.023533678509135347,
                -0.3402317086247806,
                0.7800223584498402,
                -0.9998497307768823
            ]
        },
        {
            "positions": [
                -0.5334420446435773,
                -0.8354914344005597,
                0.14595402196886043,
                -0.37081159757134297,
                0.7388934220094258,
                -1.1338634987241591
            ]
        },
        {
            "positions": [
                -0.48973644553895535,
                -0.8560659236454015,
                0.2683743654285857,
                -0.40139148651790524,
                0.6977644855690113,
                -1.267877266671436
            ]
        },
        {
            "positions": [
                -0.44603084643433344,
                -0.8766404128902431,
                0.3907947088883106,
                -0.4319713754644676,
                0.6566355491285969,
                -1.4018910346187123
            ]
        },
        {
            "positions": [
                -0.40232524732971153,
                -0.8972149021350848,
                0.5132150523480359,
                -0.4625512644110299,
                0.6155066126881824,
                -1.5359048025659887
            ]
        },
        {
            "positions": [
                -0.3586196482250895,
                -0.9177893913799264,
                0.635635395807761,
                -0.4931311533575923,
                0.5743776762477678,
                -1.669918570513266
            ]
        },
        {
            "positions": [
                -0.3149140491204676,
                -0.938363880624768,
                0.758055739267486,
                -0.5237110423041546,
                0.5332487398073534,
                -1.8039323384605424
            ]
        },
        {
            "positions": [
                -0.2712084500158456,
                -0.9589383698696099,
                0.8804760827272116,
                -0.5542909312507169,
                0.49211980336693883,
                -1.9379461064078196
            ]
        },
        {
            "positions": [
                -0.2275028509112237,
                -0.9795128591144515,
                1.0028964261869366,
                -0.5848708201972793,
                0.45099086692652435,
                -2.071959874355096
            ]
        },
        {
            "positions": [
                -0.18379725180660178,
                -1.0000873483592931,
                1.1253167696466613,
                -0.6154507091438416,
                0.40986193048610997,
                -2.2059736423023724
            ]
        },
        {
            "positions": [
                -0.14009165270197976,
                -1.020661837604135,
                1.2477371131063868,
                -0.646030598090404,
                0.3687329940456954,
                -2.3399874102496496
            ]
        },
        {
            "positions": [
                -0.09638605359735797,
                -1.0412363268489766,
                1.3701574565661119,
                -0.6766104870369662,
                0.3276040576052809,
                -2.474001178196926
            ]
        },
        {
            "positions": [
                -0.05268045449273595,
                -1.0618108160938182,
                1.492577800025837,
                -0.7071903759835285,
                0.2864751211648664,
                -2.6080149461442024
            ]
        },
        {
            "positions": [
                -0.008974855388113934,
                -1.08238530533866,
                1.6149981434855625,
                -0.7377702649300909,
                0.2453461847244518,
                -2.7420287140914796
            ]
        },
        {
            "positions": [
                0.03473074371650786,
                -1.1029597945835015,
                1.737418486945287,
                -0.7683501538766533,
                0.20421724828403742,
                -2.876042482038756
            ]
        },
        {
            "positions": [
                0.0784363428211301,
                -1.1235342838283433,
                1.8598388304050126,
                -0.7989300428232157,
                0.16308831184362282,
                -3.0100562499860333
            ]
        },
        {
            "positions": [
                0.12214194192575191,
                -1.144108773073185,
                1.982259173864738,
                -0.8295099317697779,
                0.1219593754032084,
                -3.1440700179333096
            ]
        }
    ]
}