{
    "goal": {
        "global_pose": {
            "orientation": {
                "w": 0.5084816217422485,
                "x": -0.49083608388900757,
                "y": 0.5182115435600281,
                "z": -0.4816462993621826
            },
            "position": {
                "x": 0.5540239810943604,
                "y": 0.030875300988554955,
                "z": 0.16403168439865112
            }
        },
        "name": "move_to_storage_A"
    },
    "id": "LBTRRT_move_to_storage_A_104",
    "joint_names": [
        "shoulder_pan_joint",
        "shoulder_lift_joint",
        "elbow_joint",
        "wrist_1_joint",
        "wrist_2_joint",
        "wrist_3_joint"
    ],
    "metrics": {
        "cart_traj_len": 0.3527923065748264,
        "distance_elbow_joint": 0.45141592558079546,
        "distance_shoulder_lift_joint": 0.23548181802128432,
        "distance_shoulder_pan_joint": 0.4614953552837583,
        "distance_wrist_1_joint": 0.2505777435685269,
        "distance_wrist_2_joint": 1.097898113746167,
        "distance_wrist_3_joint": 0.08978917946618203,
        "smoothness": 1.332267634315338e-15,
        "time": 5.003241519,
        "traj_len": 1.6083090920798508,
        "weighted_distance": 2.0284753762157854
    },
    "planner": "LBTRRT",
    "start": {
        "state": {
            "elbow_joint": 1.9715463870305268,
            "shoulder_lift_joint": -1.1394903361783484,
            "shoulder_pan_joint": 0.12281147578464417,
            "wrist_1_joint": -0.7804599489681411,
            "wrist_2_joint": 0.12958660307563738,
            "wrist_3_joint": -3.1924946282119055
        }
    },
    "waypoints": [
        {
            "positions": [
                0.12281147578464417,
                -1.1394903361783484,
                1.9715463870305268,
                -0.7804599489681411,
                0.12958660307563738,
                -3.1924946282119055
            ]
        },
        {
            "positions": [
                0.056883567886964415,
                -1.1731305958956748,
                2.0360343763992117,
                -0.8162567694779307,
                0.28642919075366124,
                -3.1796676025738795
            ]
        },
        {
            "positions": [
                -0.009044340010715343,
                -1.206770855613001,
                2.100522365767897,
                -0.8520535899877202,
                0.4432717784316851,
                -3.1668405769358534
            ]
        },
        {
            "positions": [
                -0.07497224790839509,
                -1.2404111153303274,
                2.165010355136582,
                -0.8878504104975098,
                0.6001143661097089,
                -3.1540135512978273
            ]
        },
        {
            "positions": [
                -0.14090015580607484,
                -1.2740513750476536,
                2.229498344505267,
                -0.9236472310072993,
                0.7569569537877328,
                -3.1411865256598017
            ]
        },
        {
            "positions": [
                -0.20682806370375462,
                -1.30769163476498,
                2.293986333873952,
                -0.9594440515170889,
                0.9137995414657567,
                -3.1283595000217757
            ]
        },
        {
            "positions": [
                -0.27275597160143433,
                -1.3413318944823063,
                2.3584743232426373,
                -0.9952408720268784,
                1.0706421291437804,
                -3.1155324743837496
            ]
        },
        {
            "positions": [
                -0.3386838794991141,
                -1.3749721541996327,
                2.4229623126113222,
                -1.031037692536668,
                1.2274847168218044,
                -3.1027054487457235
            ]
        }
    ]
}