{
    "goal": {
        "global_pose": {
            "orientation": {
                "w": 0.5084816217422485,
                "x": -0.49083608388900757,
                "y": 0.5182115435600281,
                "z": -0.4816462993621826
            },
            "position": {
                "x": 0.5540239810943604,
                "y": 0.030875300988554955,
                "z": 0.16403168439865112
            }
        },
        "name": "move_to_storage_A"
    },
    "id": "LBTRRT_move_to_storage_A_95",
    "joint_names": [
        "shoulder_pan_joint",
        "shoulder_lift_joint",
        "elbow_joint",
        "wrist_1_joint",
        "wrist_2_joint",
        "wrist_3_joint"
    ],
    "metrics": {
        "cart_traj_len": 0.35354065832972925,
        "distance_elbow_joint": 0.4511719182157292,
        "distance_shoulder_lift_joint": 0.23346194386113073,
        "distance_shoulder_pan_joint": 0.4619934721514373,
        "distance_wrist_1_joint": 0.2550406289289796,
        "distance_wrist_2_joint": 1.1001071752979998,
        "distance_wrist_3_joint": 0.09535519311029628,
        "smoothness": 4.440892098500626e-16,
        "time": 5.003172985,
        "traj_len": 1.6115614575825439,
        "weighted_distance": 2.0354332516722686
    },
    "planner": "LBTRRT",
    "start": {
        "state": {
            "elbow_joint": 1.9715463870305268,
            "shoulder_lift_joint": -1.1394903361783484,
            "shoulder_pan_joint": 0.12281147578464417,
            "wrist_1_joint": -0.7804599489681411,
            "wrist_2_joint": 0.12958660307563738,
            "wrist_3_joint": -3.1924946282119055
        }
    },
    "waypoints": [
        {
            "positions": [
                0.12281147578464417,
                -1.1394903361783484,
                1.9715463870305268,
                -0.7804599489681411,
                0.12958660307563738,
                -3.1924946282119055
            ]
        },
        {
            "positions": [
                0.056812408334438846,
                -1.1728420424442243,
                2.0359995182042026,
                -0.8168943245294239,
                0.28674477097535167,
                -3.1788724577675773
            ]
        },
        {
            "positions": [
                -0.00918665911576648,
                -1.2061937487101,
                2.100452649377878,
                -0.8533287000907067,
                0.44390293887506593,
                -3.1652502873232495
            ]
        },
        {
            "positions": [
                -0.07518572656597182,
                -1.239545454975976,
                2.1649057805515537,
                -0.8897630756519894,
                0.6010611067747802,
                -3.1516281168789213
            ]
        },
        {
            "positions": [
                -0.14118479401617712,
                -1.2728971612418516,
                2.229358911725229,
                -0.9261974512132722,
                0.7582192746744945,
                -3.1380059464345935
            ]
        },
        {
            "positions": [
                -0.20718386146638246,
                -1.3062488675077275,
                2.293812042898905,
                -0.962631826774555,
                0.9153774425742087,
                -3.1243837759902653
            ]
        },
        {
            "positions": [
                -0.2731829289165878,
                -1.3396005737736032,
                2.35826517407258,
                -0.9990662023358379,
                1.072535610473923,
                -3.1107616055459375
            ]
        },
        {
            "positions": [
                -0.33918199636679314,
                -1.3729522800394791,
                2.422718305246256,
                -1.0355005778971207,
                1.2296937783736372,
                -3.0971394351016093
            ]
        }
    ]
}