{
    "goal": {
        "global_pose": {
            "orientation": {
                "w": 0.7031023502349854,
                "x": -0.7110244035720825,
                "y": 0.007748599164187908,
                "z": 0.005598929710686207
            },
            "position": {
                "x": 0.11585023208521307,
                "y": 0.44412534475326537,
                "z": 0.3711530566215515
            }
        },
        "name": "move_to_auspresseinheit_A"
    },
    "id": "LBTRRT_move_to_auspresseinheit_A_70",
    "joint_names": [
        "shoulder_pan_joint",
        "shoulder_lift_joint",
        "elbow_joint",
        "wrist_1_joint",
        "wrist_2_joint",
        "wrist_3_joint"
    ],
    "metrics": {
        "cart_traj_len": 0.7387785430307675,
        "distance_elbow_joint": 0.10177920070571922,
        "distance_shoulder_lift_joint": 0.7970832817176057,
        "distance_shoulder_pan_joint": 1.046720992367618,
        "distance_wrist_1_joint": 0.7039422855023649,
        "distance_wrist_2_joint": 0.5114954026485005,
        "distance_wrist_3_joint": 0.08307676527357488,
        "smoothness": 0.5828106824028709,
        "time": 5.015501765000001,
        "traj_len": 1.8011379536879963,
        "weighted_distance": 2.1507415341954497
    },
    "planner": "LBTRRT",
    "start": {
        "state": {
            "elbow_joint": 2.422574709923281,
            "shoulder_lift_joint": -1.3736533754116391,
            "shoulder_pan_joint": -0.33786336945926293,
            "wrist_1_joint": -1.0288603412921917,
            "wrist_2_joint": 1.2330224858903978,
            "wrist_3_joint": -3.094022268022082
        }
    },
    "waypoints": [
        {
            "positions": [
                -0.33786336945926293,
                -1.3736533754116391,
                2.422574709923281,
                -1.0288603412921917,
                1.2330224858903978,
                -3.094022268022082
            ]
        },
        {
            "positions": [
                -0.2782761074832473,
                -1.4847686755138345,
                2.4116103665718356,
                -0.9224513195825865,
                1.1901403941392017,
                -3.1054198796735104
            ]
        },
        {
            "positions": [
                -0.2186888455072317,
                -1.59588397561603,
                2.40064602322039,
                -0.8160422978729813,
                1.1472583023880056,
                -3.1168174913249382
            ]
        },
        {
            "positions": [
                -0.15910158353121606,
                -1.7069992757182253,
                2.3896816798689446,
                -0.7096332761633761,
                1.1043762106368096,
                -3.128215102976366
            ]
        },
        {
            "positions": [
                -0.09951432155520046,
                -1.8181145758204207,
                2.378717336517499,
                -0.603224254453771,
                1.0614941188856133,
                -3.1396127146277943
            ]
        },
        {
            "positions": [
                -0.0399270595791848,
                -1.929229875922616,
                2.3677529931660537,
                -0.49681523274416584,
                1.0186120271344172,
                -3.1510103262792226
            ]
        },
        {
            "positions": [
                0.019660202396830834,
                -2.0403451760248115,
                2.3567886498146082,
                -0.39040621103456064,
                0.9757299353832212,
                -3.1624079379306504
            ]
        },
        {
            "positions": [
                0.1919595575247119,
                -2.007747305748703,
                2.36578693496387,
                -0.40677824984574407,
                0.9121792223478902,
                -3.158735164089399
            ]
        },
        {
            "positions": [
                0.3642589126525929,
                -1.975149435472595,
                2.3747852201131314,
                -0.42315028865692755,
                0.8486285093125592,
                -3.155062390248147
            ]
        },
        {
            "positions": [
                0.536558267780474,
                -1.9425515651964864,
                2.383783505262393,
                -0.43952232746811104,
                0.7850777962772283,
                -3.1513896164068953
            ]
        },
        {
            "positions": [
                0.7088576229083551,
                -1.9099536949203781,
                2.3927817904116546,
                -0.45589436627929447,
                0.7215270832418973,
                -3.147716842565644
            ]
        }
    ]
}