{
    "goal": {
        "global_pose": {
            "orientation": {
                "w": 0.5084816217422485,
                "x": -0.49083608388900757,
                "y": 0.5182115435600281,
                "z": -0.4816462993621826
            },
            "position": {
                "x": 0.5540239810943604,
                "y": 0.030875300988554955,
                "z": 0.16403168439865112
            }
        },
        "name": "move_to_storage_A"
    },
    "id": "LBTRRT_move_to_storage_A_103",
    "joint_names": [
        "shoulder_pan_joint",
        "shoulder_lift_joint",
        "elbow_joint",
        "wrist_1_joint",
        "wrist_2_joint",
        "wrist_3_joint"
    ],
    "metrics": {
        "cart_traj_len": 0.35255728266737274,
        "distance_elbow_joint": 0.45252087804536245,
        "distance_shoulder_lift_joint": 0.2350826326123292,
        "distance_shoulder_pan_joint": 0.46246240185469184,
        "distance_wrist_1_joint": 0.2502558142998911,
        "distance_wrist_2_joint": 1.0924206602941327,
        "distance_wrist_3_joint": 0.1073294632927353,
        "smoothness": 1.7763568394002505e-15,
        "time": 5.002565853,
        "traj_len": 1.6124738293687568,
        "weighted_distance": 2.038972106621039
    },
    "planner": "LBTRRT",
    "start": {
        "state": {
            "elbow_joint": 1.9715463870305268,
            "shoulder_lift_joint": -1.1394903361783484,
            "shoulder_pan_joint": 0.12281147578464417,
            "wrist_1_joint": -0.7804599489681411,
            "wrist_2_joint": 0.12958660307563738,
            "wrist_3_joint": -3.1924946282119055
        }
    },
    "waypoints": [
        {
            "positions": [
                0.12281147578464417,
                -1.1394903361783484,
                1.9715463870305268,
                -0.7804599489681411,
                0.12958660307563738,
                -3.1924946282119055
            ]
        },
        {
            "positions": [
                0.05674541837683106,
                -1.1730735694086811,
                2.0361922267512926,
                -0.8162107795824113,
                0.2856466974033706,
                -3.1771618477415147
            ]
        },
        {
            "positions": [
                -0.009320639030982056,
                -1.2066568026390139,
                2.100838066472059,
                -0.8519616101966814,
                0.44170679173110383,
                -3.1618290672711242
            ]
        },
        {
            "positions": [
                -0.07538669643879518,
                -1.2402400358693466,
                2.165483906192825,
                -0.8877124408109516,
                0.5977668860588371,
                -3.1464962868007333
            ]
        },
        {
            "positions": [
                -0.14145275384660827,
                -1.2738232690996794,
                2.230129745913591,
                -0.9234632714252217,
                0.7538269803865704,
                -3.1311635063303425
            ]
        },
        {
            "positions": [
                -0.2075188112544214,
                -1.307406502330012,
                2.294775585634357,
                -0.9592141020394919,
                0.9098870747143036,
                -3.1158307258599516
            ]
        },
        {
            "positions": [
                -0.2735848686622345,
                -1.3409897355603448,
                2.359421425355123,
                -0.994964932653762,
                1.0659471690420368,
                -3.100497945389561
            ]
        },
        {
            "positions": [
                -0.33965092607004765,
                -1.3745729687906776,
                2.424067265075889,
                -1.0307157632680322,
                1.22200726336977,
                -3.0851651649191703
            ]
        }
    ]
}