{
    "goal": {
        "global_pose": {
            "orientation": {
                "w": 0.7047431468963623,
                "x": -0.7094548344612122,
                "y": 0.0024358443915843964,
                "z": -0.0022348060738295317
            },
            "position": {
                "x": 0.6094750761985779,
                "y": 0.3671506643295288,
                "z": 0.19426114857196808
            }
        },
        "name": "move_to_magneteinheit_A"
    },
    "id": "LBTRRT_move_to_magneteinheit_A_48",
    "joint_names": [
        "shoulder_pan_joint",
        "shoulder_lift_joint",
        "elbow_joint",
        "wrist_1_joint",
        "wrist_2_joint",
        "wrist_3_joint"
    ],
    "metrics": {
        "cart_traj_len": 2.066030780837947,
        "distance_elbow_joint": 3.883009225576321,
        "distance_shoulder_lift_joint": 1.0569049517557192,
        "distance_shoulder_pan_joint": 1.24077805364128,
        "distance_wrist_1_joint": 1.17097131317065,
        "distance_wrist_2_joint": 1.4490180889846187,
        "distance_wrist_3_joint": 1.944769846571107,
        "smoothness": 2.7564157984637776e-16,
        "time": 5.004135335,
        "traj_len": 3.278025545919326,
        "weighted_distance": 4.153911478955369
    },
    "planner": "LBTRRT",
    "start": {
        "state": {
            "elbow_joint": -1.919643507792019,
            "shoulder_lift_joint": -0.07675430207160344,
            "shoulder_pan_joint": -1.1188671864651873,
            "wrist_1_joint": 0.42560062535961957,
            "wrist_2_joint": 1.5706038300724876,
            "wrist_3_joint": 1.1188968870953055
        }
    },
    "waypoints": [
        {
            "positions": [
                -1.1188671864651873,
                -0.07675430207160344,
                -1.919643507792019,
                0.42560062535961957,
                1.5706038300724876,
                1.1188968870953055
            ]
        },
        {
            "positions": [
                -1.0745536845494272,
                -0.11450090749145056,
                -1.780964606878579,
                0.38378022131781064,
                1.5188531840373227,
                1.1883529530442736
            ]
        },
        {
            "positions": [
                -1.0302401826336673,
                -0.15224751291129768,
                -1.642285705965139,
                0.3419598172760017,
                1.4671025380021576,
                1.2578090189932418
            ]
        },
        {
            "positions": [
                -0.9859266807179073,
                -0.18999411833114477,
                -1.503606805051699,
                0.3001394132341928,
                1.4153518919669927,
                1.3272650849422098
            ]
        },
        {
            "positions": [
                -0.9416131788021473,
                -0.22774072375099189,
                -1.364927904138259,
                0.2583190091923838,
                1.3636012459318279,
                1.3967211508911779
            ]
        },
        {
            "positions": [
                -0.8972996768863873,
                -0.265487329170839,
                -1.2262490032248188,
                0.2164986051505749,
                1.3118505998966628,
                1.4661772168401461
            ]
        },
        {
            "positions": [
                -0.8529861749706273,
                -0.30323393459068615,
                -1.0875701023113789,
                0.17467820110876597,
                1.2600999538614979,
                1.5356332827891142
            ]
        },
        {
            "positions": [
                -0.8086726730548673,
                -0.34098054001053324,
                -0.9488912013979388,
                0.13285779706695705,
                1.208349307826333,
                1.6050893487380824
            ]
        },
        {
            "positions": [
                -0.7643591711391073,
                -0.37872714543038033,
                -0.8102123004844988,
                0.09103739302514813,
                1.1565986617911679,
                1.6745454146870502
            ]
        },
        {
            "positions": [
                -0.7200456692233472,
                -0.4164737508502275,
                -0.6715333995710586,
                0.04921698898333915,
                1.104848015756003,
                1.7440014806360185
            ]
        },
        {
            "positions": [
                -0.6757321673075873,
                -0.45422035627007457,
                -0.5328544986576187,
                0.0073965849415302265,
                1.0530973697208381,
                1.8134575465849867
            ]
        },
        {
            "positions": [
                -0.6314186653918273,
                -0.4919669616899217,
                -0.39417559774417876,
                -0.03442381910027864,
                1.001346723685673,
                1.8829136125339547
            ]
        },
        {
            "positions": [
                -0.5871051634760673,
                -0.5297135671097688,
                -0.2554966968307386,
                -0.07624422314208762,
                0.9495960776505082,
                1.9523696784829228
            ]
        },
        {
            "positions": [
                -0.5427916615603073,
                -0.567460172529616,
                -0.11681779591729846,
                -0.1180646271838966,
                0.8978454316153431,
                2.021825744431891
            ]
        },
        {
            "positions": [
                -0.49847815964454734,
                -0.605206777949463,
                0.021861104996141467,
                -0.15988503122570547,
                0.8460947855801783,
                2.091281810380859
            ]
        },
        {
            "positions": [
                -0.45416465772878734,
                -0.6429533833693102,
                0.16054000590958162,
                -0.20170543526751433,
                0.7943441395450134,
                2.160737876329827
            ]
        },
        {
            "positions": [
                -0.40985115581302733,
                -0.6806999887891572,
                0.29921890682302155,
                -0.2435258393093233,
                0.7425934935098484,
                2.2301939422787953
            ]
        },
        {
            "positions": [
                -0.36553765389726744,
                -0.7184465942090044,
                0.4378978077364615,
                -0.2853462433511322,
                0.6908428474746835,
                2.299650008227763
            ]
        },
        {
            "positions": [
                -0.3212241519815072,
                -0.7561931996288516,
                0.5765767086499018,
                -0.32716664739294127,
                0.6390922014395184,
                2.369106074176732
            ]
        },
        {
            "positions": [
                -0.27691065006574733,
                -0.7939398050486985,
                0.7152556095633418,
                -0.36898705143475014,
                0.5873415554043534,
                2.4385621401256996
            ]
        },
        {
            "positions": [
                -0.23259714814998733,
                -0.8316864104685457,
                0.8539345104767817,
                -0.4108074554765591,
                0.5355909093691884,
                2.5080182060746674
            ]
        },
        {
            "positions": [
                -0.18828364623422733,
                -0.869433015888393,
                0.9926134113902216,
                -0.452627859518368,
                0.4838402633340235,
                2.5774742720236357
            ]
        },
        {
            "positions": [
                -0.14397014431846733,
                -0.9071796213082399,
                1.1312923123036616,
                -0.49444826356017685,
                0.43208961729885864,
                2.646930337972604
            ]
        },
        {
            "positions": [
                -0.09965664240270744,
                -0.9449262267280871,
                1.2699712132171015,
                -0.5362686676019859,
                0.38033897126369376,
                2.7163864039215717
            ]
        },
        {
            "positions": [
                -0.05534314048694733,
                -0.9826728321479341,
                1.4086501141305419,
                -0.5780890716437947,
                0.3285883252285289,
                2.78584246987054
            ]
        },
        {
            "positions": [
                -0.011029638571187217,
                -1.0204194375677813,
                1.5473290150439822,
                -0.6199094756856036,
                0.2768376791933638,
                2.855298535819508
            ]
        },
        {
            "positions": [
                0.03328386334457267,
                -1.0581660429876285,
                1.6860079159574222,
                -0.6617298797274127,
                0.22508703315819867,
                2.9247546017684765
            ]
        },
        {
            "positions": [
                0.07759736526033278,
                -1.0959126484074755,
                1.824686816870862,
                -0.7035502837692216,
                0.17333638712303379,
                2.9942106677174447
            ]
        },
        {
            "positions": [
                0.12191086717609258,
                -1.1336592538273227,
                1.963365717784302,
                -0.7453706878110306,
                0.12158574108786897,
                3.0636667336664125
            ]
        }
    ]
}