{
    "goal": {
        "global_pose": {
            "orientation": {
                "w": 0.7031023502349854,
                "x": -0.7110244035720825,
                "y": 0.007748599164187908,
                "z": 0.005598929710686207
            },
            "position": {
                "x": 0.11585023208521307,
                "y": 0.44412534475326537,
                "z": 0.3711530566215515
            }
        },
        "name": "move_to_auspresseinheit_A"
    },
    "id": "LBTRRT_move_to_auspresseinheit_A_92",
    "joint_names": [
        "shoulder_pan_joint",
        "shoulder_lift_joint",
        "elbow_joint",
        "wrist_1_joint",
        "wrist_2_joint",
        "wrist_3_joint"
    ],
    "metrics": {
        "cart_traj_len": 0.6768946118966445,
        "distance_elbow_joint": 0.027220276479934746,
        "distance_shoulder_lift_joint": 0.6000909529090479,
        "distance_shoulder_pan_joint": 1.0454120432585512,
        "distance_wrist_1_joint": 0.5903652915656796,
        "distance_wrist_2_joint": 0.5258434286853682,
        "distance_wrist_3_joint": 0.028607846992384278,
        "smoothness": 0.2989141164882281,
        "time": 5.006428249,
        "traj_len": 1.6785529005339588,
        "weighted_distance": 1.9977397863903052
    },
    "planner": "LBTRRT",
    "start": {
        "state": {
            "elbow_joint": 2.422574709923281,
            "shoulder_lift_joint": -1.3736533754116391,
            "shoulder_pan_joint": -0.33786336945926293,
            "wrist_1_joint": -1.0288603412921917,
            "wrist_2_joint": 1.2330224858903978,
            "wrist_3_joint": -3.094022268022082
        }
    },
    "waypoints": [
        {
            "positions": [
                -0.33786336945926293,
                -1.3736533754116391,
                2.422574709923281,
                -1.0288603412921917,
                1.2330224858903978,
                -3.094022268022082
            ]
        },
        {
            "positions": [
                -0.20805070111370944,
                -1.4681760632444945,
                2.4217804630754283,
                -0.9338291714622533,
                1.1789844093915784,
                -3.0962545675199347
            ]
        },
        {
            "positions": [
                -0.07823803276815594,
                -1.5626987510773496,
                2.420986216227575,
                -0.838798001632315,
                1.1249463328927594,
                -3.0984868670177876
            ]
        },
        {
            "positions": [
                0.051574635577397554,
                -1.657221438910205,
                2.4201919693797223,
                -0.7437668318023766,
                1.07090825639394,
                -3.10071916651564
            ]
        },
        {
            "positions": [
                0.18138730392295105,
                -1.75174412674306,
                2.4193977225318695,
                -0.6487356619724383,
                1.0168701798951207,
                -3.1029514660134927
            ]
        },
        {
            "positions": [
                0.31119997226850454,
                -1.8462668145759156,
                2.4186034756840162,
                -0.5537044921424998,
                0.9628321033963015,
                -3.1051837655113457
            ]
        },
        {
            "positions": [
                0.441012640614058,
                -1.9407895024087707,
                2.4178092288361634,
                -0.4586733223125614,
                0.9087940268974823,
                -3.107416065009198
            ]
        },
        {
            "positions": [
                0.5742806572066731,
                -1.9243120894528125,
                2.406581831139755,
                -0.4687624586055861,
                0.807986542051256,
                -3.1150230900118325
            ]
        },
        {
            "positions": [
                0.7075486737992882,
                -1.9078346764968543,
                2.3953544334433463,
                -0.47885159489861073,
                0.7071790572050296,
                -3.1226301150144664
            ]
        }
    ]
}