{
    "goal": {
        "global_pose": {
            "orientation": {
                "w": 0.7047431468963623,
                "x": -0.7094548344612122,
                "y": 0.0024358443915843964,
                "z": -0.0022348060738295317
            },
            "position": {
                "x": 0.6094750761985779,
                "y": 0.3671506643295288,
                "z": 0.19426114857196808
            }
        },
        "name": "move_to_magneteinheit_A"
    },
    "id": "LBTRRT_move_to_magneteinheit_A_57",
    "joint_names": [
        "shoulder_pan_joint",
        "shoulder_lift_joint",
        "elbow_joint",
        "wrist_1_joint",
        "wrist_2_joint",
        "wrist_3_joint"
    ],
    "metrics": {
        "cart_traj_len": 1.870024949603117,
        "distance_elbow_joint": 3.9331334395724076,
        "distance_shoulder_lift_joint": 0.7101026810956931,
        "distance_shoulder_pan_joint": 1.2416517019905833,
        "distance_wrist_1_joint": 1.5604813735978844,
        "distance_wrist_2_joint": 1.704647084056317,
        "distance_wrist_3_joint": 1.1853284652927738,
        "smoothness": 8.24737105306309e-16,
        "time": 5.0240897250000005,
        "traj_len": 3.21486309904569,
        "weighted_distance": 3.9963896373909042
    },
    "planner": "LBTRRT",
    "start": {
        "state": {
            "elbow_joint": -1.919643507792019,
            "shoulder_lift_joint": -0.07675430207160344,
            "shoulder_pan_joint": -1.1188671864651873,
            "wrist_1_joint": 0.42560062535961957,
            "wrist_2_joint": 1.5706038300724876,
            "wrist_3_joint": 1.1188968870953055
        }
    },
    "waypoints": [
        {
            "positions": [
                -1.1188671864651873,
                -0.07675430207160344,
                -1.919643507792019,
                0.42560062535961957,
                1.5706038300724876,
                1.1188968870953055
            ]
        },
        {
            "positions": [
                -1.072880086391462,
                -0.10305440137144392,
                -1.773971898918967,
                0.48339623178917085,
                1.5074687528852166,
                1.0749958328252027
            ]
        },
        {
            "positions": [
                -1.0268929863177367,
                -0.1293545006712844,
                -1.628300290045915,
                0.5411918382187221,
                1.4443336756979457,
                1.0310947785551001
            ]
        },
        {
            "positions": [
                -0.9809058862440114,
                -0.1556545999711249,
                -1.4826286811728626,
                0.5989874446482734,
                1.3811985985106747,
                0.9871937242849973
            ]
        },
        {
            "positions": [
                -0.9349187861702861,
                -0.1819546992709654,
                -1.3369570722998105,
                0.6567830510778246,
                1.3180635213234035,
                0.9432926700148946
            ]
        },
        {
            "positions": [
                -0.8889316860965608,
                -0.20825479857080587,
                -1.1912854634267585,
                0.7145786575073759,
                1.2549284441361326,
                0.8993916157447919
            ]
        },
        {
            "positions": [
                -0.8429445860228355,
                -0.23455489787064637,
                -1.0456138545537064,
                0.7723742639369272,
                1.1917933669488616,
                0.8554905614746892
            ]
        },
        {
            "positions": [
                -0.7969574859491102,
                -0.2608549971704869,
                -0.8999422456806543,
                0.8301698703664785,
                1.1286582897615907,
                0.8115895072045864
            ]
        },
        {
            "positions": [
                -0.7509703858753849,
                -0.28715509647032733,
                -0.7542706368076022,
                0.8879654767960297,
                1.0655232125743197,
                0.7676884529344836
            ]
        },
        {
            "positions": [
                -0.7049832858016596,
                -0.31345519577016784,
                -0.6085990279345499,
                0.945761083225581,
                1.0023881353870485,
                0.723787398664381
            ]
        },
        {
            "positions": [
                -0.6589961857279343,
                -0.3397552950700083,
                -0.4629274190614978,
                1.0035566896551322,
                0.9392530581997777,
                0.6798863443942782
            ]
        },
        {
            "positions": [
                -0.613009085654209,
                -0.3660553943698488,
                -0.31725581018844573,
                1.0613522960846835,
                0.8761179810125066,
                0.6359852901241755
            ]
        },
        {
            "positions": [
                -0.5670219855804837,
                -0.3923554936696893,
                -0.17158420131539365,
                1.1191479025142348,
                0.8129829038252356,
                0.5920842358540728
            ]
        },
        {
            "positions": [
                -0.5210348855067584,
                -0.41865559296952976,
                -0.025912592442341564,
                1.176943508943786,
                0.7498478266379647,
                0.5481831815839701
            ]
        },
        {
            "positions": [
                -0.47504778543303305,
                -0.44495569226937026,
                0.11975901643071052,
                1.2347391153733374,
                0.6867127494506936,
                0.5042821273138673
            ]
        },
        {
            "positions": [
                -0.42906068535930775,
                -0.47125579156921077,
                0.26543062530376305,
                1.2925347218028886,
                0.6235776722634225,
                0.4603810730437645
            ]
        },
        {
            "positions": [
                -0.38307358528558244,
                -0.4975558908690512,
                0.4111022341768147,
                1.35033032823244,
                0.5604425950761516,
                0.4164800187736618
            ]
        },
        {
            "positions": [
                -0.33708648521185713,
                -0.5238559901688917,
                0.5567738430498672,
                1.4081259346619912,
                0.4973075178888806,
                0.3725789645035591
            ]
        },
        {
            "positions": [
                -0.2910993851381318,
                -0.5501560894687323,
                0.7024454519229193,
                1.4659215410915425,
                0.43417244070160965,
                0.3286779102334564
            ]
        },
        {
            "positions": [
                -0.24511228506440652,
                -0.5764561887685727,
                0.8481170607959714,
                1.5237171475210938,
                0.37103736351433847,
                0.28477685596335356
            ]
        },
        {
            "positions": [
                -0.19912518499068121,
                -0.6027562880684132,
                0.9937886696690235,
                1.581512753950645,
                0.30790228632706773,
                0.24087580169325096
            ]
        },
        {
            "positions": [
                -0.1531380849169559,
                -0.6290563873682538,
                1.1394602785420755,
                1.6393083603801963,
                0.24476720913979655,
                0.19697474742314813
            ]
        },
        {
            "positions": [
                -0.1071509848432306,
                -0.6553564866680941,
                1.2851318874151276,
                1.6971039668097476,
                0.1816321319525256,
                0.15307369315304542
            ]
        },
        {
            "positions": [
                -0.061163884769505295,
                -0.6816565859679347,
                1.4308034962881802,
                1.754899573239299,
                0.11849705476525463,
                0.1091726388829426
            ]
        },
        {
            "positions": [
                -0.015176784695779988,
                -0.7079566852677752,
                1.5764751051612318,
                1.8126951796688502,
                0.05536197757798367,
                0.06527158461284
            ]
        },
        {
            "positions": [
                0.03081031537794532,
                -0.7342567845676156,
                1.7221467140342843,
                1.8704907860984015,
                -0.007773099609287515,
                0.02137053034273717
            ]
        },
        {
            "positions": [
                0.07679741545167063,
                -0.7605568838674561,
                1.867818322907336,
                1.9282863925279528,
                -0.07090817679655825,
                -0.02253052392736543
            ]
        },
        {
            "positions": [
                0.12278451552539588,
                -0.7868569831672966,
                2.0134899317803883,
                1.986081998957504,
                -0.13404325398382955,
                -0.06643157819746823
            ]
        }
    ]
}