{
    "goal": {
        "global_pose": {
            "orientation": {
                "w": 0.5084816217422485,
                "x": -0.49083608388900757,
                "y": 0.5182115435600281,
                "z": -0.4816462993621826
            },
            "position": {
                "x": 0.5540239810943604,
                "y": 0.030875300988554955,
                "z": 0.16403168439865112
            }
        },
        "name": "move_to_storage_A"
    },
    "id": "LBTRRT_move_to_storage_A_89",
    "joint_names": [
        "shoulder_pan_joint",
        "shoulder_lift_joint",
        "elbow_joint",
        "wrist_1_joint",
        "wrist_2_joint",
        "wrist_3_joint"
    ],
    "metrics": {
        "cart_traj_len": 0.35290083968224034,
        "distance_elbow_joint": 0.4511641892462297,
        "distance_shoulder_lift_joint": 0.2338760240033675,
        "distance_shoulder_pan_joint": 0.4579205783608311,
        "distance_wrist_1_joint": 0.24518543335671927,
        "distance_wrist_2_joint": 1.1139844782029926,
        "distance_wrist_3_joint": 0.10266491753133078,
        "smoothness": 9.992007236661072e-16,
        "time": 5.003373334,
        "traj_len": 1.6139379234349354,
        "weighted_distance": 2.041885248324167
    },
    "planner": "LBTRRT",
    "start": {
        "state": {
            "elbow_joint": 1.9715463870305268,
            "shoulder_lift_joint": -1.1394903361783484,
            "shoulder_pan_joint": 0.12281147578464417,
            "wrist_1_joint": -0.7804599489681411,
            "wrist_2_joint": 0.12958660307563738,
            "wrist_3_joint": -3.1924946282119055
        }
    },
    "waypoints": [
        {
            "positions": [
                0.12281147578464417,
                -1.1394903361783484,
                1.9715463870305268,
                -0.7804599489681411,
                0.12958660307563738,
                -3.1924946282119055
            ]
        },
        {
            "positions": [
                0.05739425030452544,
                -1.172901196750258,
                2.0359984140657024,
                -0.8154864394476724,
                0.28872724281892204,
                -3.1778282114217156
            ]
        },
        {
            "positions": [
                -0.008022975175593292,
                -1.2063120573221677,
                2.100450441100878,
                -0.8505129299272037,
                0.44786788256220667,
                -3.163161794631525
            ]
        },
        {
            "positions": [
                -0.07344020065571201,
                -1.2397229178940774,
                2.1649024681360536,
                -0.8855394204067351,
                0.6070085223054913,
                -3.148495377841335
            ]
        },
        {
            "positions": [
                -0.13885742613583074,
                -1.2731337784659869,
                2.229354495171229,
                -0.9205659108862664,
                0.766149162048776,
                -3.133828961051145
            ]
        },
        {
            "positions": [
                -0.2042746516159495,
                -1.3065446390378965,
                2.2938065222064052,
                -0.9555924013657977,
                0.9252898017920608,
                -3.119162544260955
            ]
        },
        {
            "positions": [
                -0.2696918770960682,
                -1.3399554996098062,
                2.358258549241581,
                -0.990618891845329,
                1.0844304415353452,
                -3.1044961274707648
            ]
        },
        {
            "positions": [
                -0.3351091025761869,
                -1.3733663601817159,
                2.4227105762767565,
                -1.0256453823248604,
                1.24357108127863,
                -3.0898297106805748
            ]
        }
    ]
}