{
    "goal": {
        "global_pose": {
            "orientation": {
                "w": 0.5084816217422485,
                "x": -0.49083608388900757,
                "y": 0.5182115435600281,
                "z": -0.4816462993621826
            },
            "position": {
                "x": 0.5540239810943604,
                "y": 0.030875300988554955,
                "z": 0.16403168439865112
            }
        },
        "name": "move_to_storage_A"
    },
    "id": "LBTRRT_move_to_storage_A_27",
    "joint_names": [
        "shoulder_pan_joint",
        "shoulder_lift_joint",
        "elbow_joint",
        "wrist_1_joint",
        "wrist_2_joint",
        "wrist_3_joint"
    ],
    "metrics": {
        "cart_traj_len": 0.353122437367574,
        "distance_elbow_joint": 0.4509977897769568,
        "distance_shoulder_lift_joint": 0.23150882240879667,
        "distance_shoulder_pan_joint": 0.4611908666248553,
        "distance_wrist_1_joint": 0.25385663640921374,
        "distance_wrist_2_joint": 1.0997862113239993,
        "distance_wrist_3_joint": 0.09035737384545373,
        "smoothness": 0.0,
        "time": 5.003330518,
        "traj_len": 1.6086322452286215,
        "weighted_distance": 2.0302845356780406
    },
    "planner": "LBTRRT",
    "start": {
        "state": {
            "elbow_joint": 1.9715463870305268,
            "shoulder_lift_joint": -1.1394903361783484,
            "shoulder_pan_joint": 0.12281147578464417,
            "wrist_1_joint": -0.7804599489681411,
            "wrist_2_joint": 0.12958660307563738,
            "wrist_3_joint": -3.1924946282119055
        }
    },
    "waypoints": [
        {
            "positions": [
                0.12281147578464417,
                -1.1394903361783484,
                1.9715463870305268,
                -0.7804599489681411,
                0.12958660307563738,
                -3.1924946282119055
            ]
        },
        {
            "positions": [
                0.0569270662668077,
                -1.1725630250938908,
                2.035974642712949,
                -0.8167251827408859,
                0.28669891897906585,
                -3.179586431948269
            ]
        },
        {
            "positions": [
                -0.008957343251028774,
                -1.2056357140094331,
                2.1004028983953718,
                -0.8529904165136307,
                0.4438112348824943,
                -3.1666782356846332
            ]
        },
        {
            "positions": [
                -0.07484175276886525,
                -1.2387084029249755,
                2.164831154077794,
                -0.8892556502863755,
                0.6009235507859227,
                -3.153770039420997
            ]
        },
        {
            "positions": [
                -0.1407261622867017,
                -1.271781091840518,
                2.2292594097602163,
                -0.9255208840591204,
                0.7580358666893513,
                -3.1408618431573605
            ]
        },
        {
            "positions": [
                -0.20661057180453818,
                -1.3048537807560603,
                2.293687665442639,
                -0.9617861178318652,
                0.9151481825927799,
                -3.127953646893724
            ]
        },
        {
            "positions": [
                -0.27249498132237465,
                -1.3379264696716027,
                2.3581159211250613,
                -0.99805135160461,
                1.072260498496208,
                -3.115045450630088
            ]
        },
        {
            "positions": [
                -0.3383793908402111,
                -1.370999158587145,
                2.4225441768074836,
                -1.0343165853773548,
                1.2293728143996367,
                -3.102137254366452
            ]
        }
    ]
}