{
    "goal": {
        "global_pose": {
            "orientation": {
                "w": 0.5084816217422485,
                "x": -0.49083608388900757,
                "y": 0.5182115435600281,
                "z": -0.4816462993621826
            },
            "position": {
                "x": 0.5540239810943604,
                "y": 0.030875300988554955,
                "z": 0.16403168439865112
            }
        },
        "name": "move_to_storage_A"
    },
    "id": "LBTRRT_move_to_storage_A_54",
    "joint_names": [
        "shoulder_pan_joint",
        "shoulder_lift_joint",
        "elbow_joint",
        "wrist_1_joint",
        "wrist_2_joint",
        "wrist_3_joint"
    ],
    "metrics": {
        "cart_traj_len": 0.35305533595197114,
        "distance_elbow_joint": 0.45266325961954523,
        "distance_shoulder_lift_joint": 0.23378743695075577,
        "distance_shoulder_pan_joint": 0.45827859865942777,
        "distance_wrist_1_joint": 0.25154528405916954,
        "distance_wrist_2_joint": 1.113716197771227,
        "distance_wrist_3_joint": 0.10640297789393038,
        "smoothness": 2.2204460668324854e-16,
        "time": 5.003600565,
        "traj_len": 1.6175270492186695,
        "weighted_distance": 2.048038376733286
    },
    "planner": "LBTRRT",
    "start": {
        "state": {
            "elbow_joint": 1.9715463870305268,
            "shoulder_lift_joint": -1.1394903361783484,
            "shoulder_pan_joint": 0.12281147578464417,
            "wrist_1_joint": -0.7804599489681411,
            "wrist_2_joint": 0.12958660307563738,
            "wrist_3_joint": -3.1924946282119055
        }
    },
    "waypoints": [
        {
            "positions": [
                0.12281147578464417,
                -1.1394903361783484,
                1.9715463870305268,
                -0.7804599489681411,
                0.12958660307563738,
                -3.1924946282119055
            ]
        },
        {
            "positions": [
                0.05734310454758307,
                -1.1728885414570278,
                2.036212566976176,
                -0.8163949895480225,
                0.2886889170429555,
                -3.1772942027984867
            ]
        },
        {
            "positions": [
                -0.008125266689478036,
                -1.2062867467357072,
                2.1008787469218255,
                -0.8523300301279038,
                0.4477912310102736,
                -3.1620937773850684
            ]
        },
        {
            "positions": [
                -0.07359363792653915,
                -1.2396849520143867,
                2.165544926867475,
                -0.8882650707077852,
                0.6068935449775918,
                -3.1468933519716495
            ]
        },
        {
            "positions": [
                -0.13906200916360023,
                -1.2730831572930659,
                2.230211106813124,
                -0.9242001112876665,
                0.76599585894491,
                -3.131692926558231
            ]
        },
        {
            "positions": [
                -0.20453038040066135,
                -1.3064813625717453,
                2.2948772867587732,
                -0.9601351518675478,
                0.9250981729122282,
                -3.1164925011448124
            ]
        },
        {
            "positions": [
                -0.26999875163772247,
                -1.3398795678504247,
                2.3595434667044226,
                -0.9960701924474292,
                1.0842004868795463,
                -3.101292075731394
            ]
        },
        {
            "positions": [
                -0.3354671228747836,
                -1.3732777731291042,
                2.424209646650072,
                -1.0320052330273106,
                1.2433028008468645,
                -3.086091650317975
            ]
        }
    ]
}