{
    "goal": {
        "global_pose": {
            "orientation": {
                "w": 0.7047431468963623,
                "x": -0.7094548344612122,
                "y": 0.0024358443915843964,
                "z": -0.0022348060738295317
            },
            "position": {
                "x": 0.6094750761985779,
                "y": 0.3671506643295288,
                "z": 0.19426114857196808
            }
        },
        "name": "move_to_magneteinheit_A"
    },
    "id": "LBTRRT_move_to_magneteinheit_A_115",
    "joint_names": [
        "shoulder_pan_joint",
        "shoulder_lift_joint",
        "elbow_joint",
        "wrist_1_joint",
        "wrist_2_joint",
        "wrist_3_joint"
    ],
    "metrics": {
        "cart_traj_len": 1.8701367132079378,
        "distance_elbow_joint": 3.931900886011178,
        "distance_shoulder_lift_joint": 0.7084167052171774,
        "distance_shoulder_pan_joint": 1.24106170304837,
        "distance_wrist_1_joint": 1.5677003815109398,
        "distance_wrist_2_joint": 1.693452095923526,
        "distance_wrist_3_joint": 1.2056608995137812,
        "smoothness": 3.172065809760693e-16,
        "time": 5.025782381,
        "traj_len": 3.216860685703528,
        "weighted_distance": 4.002582534775143
    },
    "planner": "LBTRRT",
    "start": {
        "state": {
            "elbow_joint": -1.919643507792019,
            "shoulder_lift_joint": -0.07675430207160344,
            "shoulder_pan_joint": -1.1188671864651873,
            "wrist_1_joint": 0.42560062535961957,
            "wrist_2_joint": 1.5706038300724876,
            "wrist_3_joint": 1.1188968870953055
        }
    },
    "waypoints": [
        {
            "positions": [
                -1.1188671864651873,
                -0.07675430207160344,
                -1.919643507792019,
                0.42560062535961957,
                1.5706038300724876,
                1.1188968870953055
            ]
        },
        {
            "positions": [
                -1.0729019382041367,
                -0.1029919578203878,
                -1.7740175490508643,
                0.48366360245261736,
                1.50788338207532,
                1.0742427797059062
            ]
        },
        {
            "positions": [
                -1.0269366899430858,
                -0.12922961356917215,
                -1.6283915903097097,
                0.5417265795456151,
                1.4451629340781524,
                1.0295886723165069
            ]
        },
        {
            "positions": [
                -0.9809714416820352,
                -0.15546726931795649,
                -1.482765631568555,
                0.5997895566386129,
                1.3824424860809847,
                0.9849345649271076
            ]
        },
        {
            "positions": [
                -0.9350061934209843,
                -0.18170492506674085,
                -1.3371396728274,
                0.6578525337316107,
                1.319722038083817,
                0.9402804575377084
            ]
        },
        {
            "positions": [
                -0.8890409451599337,
                -0.2079425808155252,
                -1.1915137140862453,
                0.7159155108246085,
                1.2570015900866496,
                0.895626350148309
            ]
        },
        {
            "positions": [
                -0.843075696898883,
                -0.23418023656430953,
                -1.0458877553450907,
                0.7739784879176062,
                1.1942811420894819,
                0.8509722427589097
            ]
        },
        {
            "positions": [
                -0.7971104486378322,
                -0.26041789231309387,
                -0.9002617966039359,
                0.8320414650106039,
                1.1315606940923142,
                0.8063181353695104
            ]
        },
        {
            "positions": [
                -0.7511452003767815,
                -0.2866555480618782,
                -0.7546358378627813,
                0.8901044421036017,
                1.0688402460951467,
                0.7616640279801111
            ]
        },
        {
            "positions": [
                -0.7051799521157307,
                -0.3128932038106626,
                -0.6090098791216265,
                0.9481674191965994,
                1.006119798097979,
                0.7170099205907119
            ]
        },
        {
            "positions": [
                -0.6592147038546801,
                -0.33913085955944694,
                -0.4633839203804717,
                1.0062303962895973,
                0.9433993501008113,
                0.6723558132013125
            ]
        },
        {
            "positions": [
                -0.6132494555936292,
                -0.3653685153082313,
                -0.31775796163931713,
                1.064293373382595,
                0.8806789021036437,
                0.6277017058119132
            ]
        },
        {
            "positions": [
                -0.5672842073325786,
                -0.3916061710570156,
                -0.17213200289816233,
                1.1223563504755927,
                0.817958454106476,
                0.583047598422514
            ]
        },
        {
            "positions": [
                -0.5213189590715278,
                -0.4178438268058,
                -0.026506044157007524,
                1.1804193275685906,
                0.7552380061093085,
                0.5383934910331146
            ]
        },
        {
            "positions": [
                -0.47535371081047706,
                -0.44408148255458435,
                0.11911991458414728,
                1.2384823046615883,
                0.6925175581121409,
                0.4937393836437153
            ]
        },
        {
            "positions": [
                -0.4293884625494262,
                -0.47031913830336874,
                0.2647458733253021,
                1.2965452817545862,
                0.6297971101149732,
                0.44908527625431593
            ]
        },
        {
            "positions": [
                -0.38342321428837556,
                -0.496556794052153,
                0.41037183206645644,
                1.3546082588475838,
                0.5670766621178056,
                0.4044311688649167
            ]
        },
        {
            "positions": [
                -0.3374579660273248,
                -0.5227944498009374,
                0.5559977908076117,
                1.4126712359405817,
                0.5043562141206379,
                0.35977706147551736
            ]
        },
        {
            "positions": [
                -0.29149271776627406,
                -0.5490321055497218,
                0.701623749548766,
                1.4707342130335794,
                0.44163576612347044,
                0.3151229540861181
            ]
        },
        {
            "positions": [
                -0.2455274695052233,
                -0.575269761298506,
                0.8472497082899209,
                1.5287971901265773,
                0.37891531812630275,
                0.2704688466967188
            ]
        },
        {
            "positions": [
                -0.19956222124417267,
                -0.6015074170472905,
                0.9928756670310757,
                1.586860167219575,
                0.31619487012913505,
                0.22581473930731955
            ]
        },
        {
            "positions": [
                -0.1535969729831218,
                -0.6277450727960747,
                1.1385016257722305,
                1.644923144312573,
                0.25347442213196736,
                0.1811606319179202
            ]
        },
        {
            "positions": [
                -0.10763172472207105,
                -0.6539827285448592,
                1.2841275845133848,
                1.7029861214055706,
                0.1907539741347999,
                0.13650652452852097
            ]
        },
        {
            "positions": [
                -0.061666476461020414,
                -0.6802203842936436,
                1.42975354325454,
                1.7610490984985683,
                0.1280335261376322,
                0.09185241713912151
            ]
        },
        {
            "positions": [
                -0.015701228199969774,
                -0.7064580400424278,
                1.5753795019956944,
                1.819112075591566,
                0.0653130781404645,
                0.04719830974972239
            ]
        },
        {
            "positions": [
                0.030264020061081087,
                -0.7326956957912123,
                1.7210054607368492,
                1.8771750526845639,
                0.0025926301432968035,
                0.0025442023603230446
            ]
        },
        {
            "positions": [
                0.07622926832213173,
                -0.7589333515399965,
                1.866631419478004,
                1.9352380297775615,
                -0.06012781785387067,
                -0.0421099050290763
            ]
        },
        {
            "positions": [
                0.12219451658318249,
                -0.7851710072887809,
                2.012257378219159,
                1.9933010068705594,
                -0.12284826585103835,
                -0.08676401241847563
            ]
        }
    ]
}