{
    "goal": {
        "global_pose": {
            "orientation": {
                "w": 0.5084816217422485,
                "x": -0.49083608388900757,
                "y": 0.5182115435600281,
                "z": -0.4816462993621826
            },
            "position": {
                "x": 0.5540239810943604,
                "y": 0.030875300988554955,
                "z": 0.16403168439865112
            }
        },
        "name": "move_to_storage_A"
    },
    "id": "LBTRRT_move_to_storage_A_96",
    "joint_names": [
        "shoulder_pan_joint",
        "shoulder_lift_joint",
        "elbow_joint",
        "wrist_1_joint",
        "wrist_2_joint",
        "wrist_3_joint"
    ],
    "metrics": {
        "cart_traj_len": 0.35348497240452853,
        "distance_elbow_joint": 0.4530440774957376,
        "distance_shoulder_lift_joint": 0.2318142322119774,
        "distance_shoulder_pan_joint": 0.45846288100544047,
        "distance_wrist_1_joint": 0.26078787090885813,
        "distance_wrist_2_joint": 1.114764539696316,
        "distance_wrist_3_joint": 0.10072435933389601,
        "smoothness": 2.2204460668324854e-16,
        "time": 5.004360017,
        "traj_len": 1.6185172104899674,
        "weighted_distance": 2.048560248058424
    },
    "planner": "LBTRRT",
    "start": {
        "state": {
            "elbow_joint": 1.9715463870305268,
            "shoulder_lift_joint": -1.1394903361783484,
            "shoulder_pan_joint": 0.12281147578464417,
            "wrist_1_joint": -0.7804599489681411,
            "wrist_2_joint": 0.12958660307563738,
            "wrist_3_joint": -3.1924946282119055
        }
    },
    "waypoints": [
        {
            "positions": [
                0.12281147578464417,
                -1.1394903361783484,
                1.9715463870305268,
                -0.7804599489681411,
                0.12958660307563738,
                -3.1924946282119055
            ]
        },
        {
            "positions": [
                0.057316778498152685,
                -1.1726066550657737,
                2.036266969529918,
                -0.817715359097978,
                0.28883868017511105,
                -3.178105434021349
            ]
        },
        {
            "positions": [
                -0.008177918788338803,
                -1.2057229739531992,
                2.100987552029309,
                -0.8549707692278148,
                0.4480907572745848,
                -3.1637162398307925
            ]
        },
        {
            "positions": [
                -0.07367261607483029,
                -1.2388392928406244,
                2.1657081345287,
                -0.8922261793576517,
                0.6073428343740584,
                -3.149327045640236
            ]
        },
        {
            "positions": [
                -0.13916731336132176,
                -1.2719556117280497,
                2.230428717028091,
                -0.9294815894874886,
                0.7665949114735322,
                -3.134937851449679
            ]
        },
        {
            "positions": [
                -0.2046620106478133,
                -1.3050719306154752,
                2.2951492995274823,
                -0.9667369996173254,
                0.925846988573006,
                -3.1205486572591226
            ]
        },
        {
            "positions": [
                -0.27015670793430474,
                -1.3381882495029005,
                2.359869882026873,
                -1.0039924097471624,
                1.0850990656724795,
                -3.106159463068566
            ]
        },
        {
            "positions": [
                -0.3356514052207963,
                -1.3713045683903258,
                2.4245904645262644,
                -1.0412478198769992,
                1.2443511427719534,
                -3.0917702688780095
            ]
        }
    ]
}