{
    "goal": {
        "global_pose": {
            "orientation": {
                "w": 0.7031023502349854,
                "x": -0.7110244035720825,
                "y": 0.007748599164187908,
                "z": 0.005598929710686207
            },
            "position": {
                "x": 0.11585023208521307,
                "y": 0.44412534475326537,
                "z": 0.3711530566215515
            }
        },
        "name": "move_to_auspresseinheit_A"
    },
    "id": "LBTRRT_move_to_auspresseinheit_A_141",
    "joint_names": [
        "shoulder_pan_joint",
        "shoulder_lift_joint",
        "elbow_joint",
        "wrist_1_joint",
        "wrist_2_joint",
        "wrist_3_joint"
    ],
    "metrics": {
        "cart_traj_len": 0.8472338396869952,
        "distance_elbow_joint": 0.6024650159766769,
        "distance_shoulder_lift_joint": 0.6388498921066437,
        "distance_shoulder_pan_joint": 1.0442923540807714,
        "distance_wrist_1_joint": 1.5602652279799045,
        "distance_wrist_2_joint": 0.5257582077115502,
        "distance_wrist_3_joint": 0.043383262245101584,
        "smoothness": 0.6061389364332134,
        "time": 5.025778487,
        "traj_len": 2.1011934608932727,
        "weighted_distance": 2.566671759357302
    },
    "planner": "LBTRRT",
    "start": {
        "state": {
            "elbow_joint": 2.422574709923281,
            "shoulder_lift_joint": -1.3736533754116391,
            "shoulder_pan_joint": -0.33786336945926293,
            "wrist_1_joint": -1.0288603412921917,
            "wrist_2_joint": 1.2330224858903978,
            "wrist_3_joint": -3.094022268022082
        }
    },
    "waypoints": [
        {
            "positions": [
                -0.33786336945926293,
                -1.3736533754116391,
                2.422574709923281,
                -1.0288603412921917,
                1.2330224858903978,
                -3.094022268022082
            ]
        },
        {
            "positions": [
                -0.25350843333547424,
                -1.4468971300429285,
                2.382944475804528,
                -0.8952857352357244,
                1.1797155926941199,
                -3.0982505514337464
            ]
        },
        {
            "positions": [
                -0.16915349721168554,
                -1.520140884674218,
                2.343314241685775,
                -0.7617111291792571,
                1.1264086994978422,
                -3.102478834845411
            ]
        },
        {
            "positions": [
                -0.08479856108789685,
                -1.5933846393055073,
                2.3036840075670217,
                -0.6281365231227898,
                1.0731018063015643,
                -3.1067071182570754
            ]
        },
        {
            "positions": [
                -0.000443624964108158,
                -1.6666283939367967,
                2.2640537734482686,
                -0.49456191706632247,
                1.0197949131052866,
                -3.1109354016687396
            ]
        },
        {
            "positions": [
                0.08391131115968053,
                -1.739872148568086,
                2.2244235393295155,
                -0.36098731100985515,
                0.9664880199090087,
                -3.1151636850804043
            ]
        },
        {
            "positions": [
                0.16826624728346923,
                -1.8131159031993753,
                2.1847933052107624,
                -0.22741270495338783,
                0.9131811267127308,
                -3.1193919684920686
            ]
        },
        {
            "positions": [
                0.25262118340725787,
                -1.8863596578306647,
                2.1451630710920093,
                -0.09383809889692052,
                0.859874233516453,
                -3.1236202519037333
            ]
        },
        {
            "positions": [
                0.33697611953104667,
                -1.9596034124619541,
                2.105532836973256,
                0.03973650715954691,
                0.8065673403201752,
                -3.1278485353153975
            ]
        },
        {
            "positions": [
                0.43299077619445164,
                -1.948659039914952,
                2.1932651946070454,
                0.014833434643114091,
                0.7597134139860888,
                -3.134809758144524
            ]
        },
        {
            "positions": [
                0.5241368456701372,
                -1.9346738790785099,
                2.259162123071333,
                -0.14075500102746366,
                0.7422303687170084,
                -3.1356750155187436
            ]
        },
        {
            "positions": [
                0.6152829151458228,
                -1.9206887182420675,
                2.3250590515356206,
                -0.2963434366980414,
                0.7247473234479279,
                -3.136540272892964
            ]
        },
        {
            "positions": [
                0.7064289846215084,
                -1.9067035574056255,
                2.3909559799999083,
                -0.4519318723686192,
                0.7072642781788475,
                -3.1374055302671837
            ]
        }
    ]
}