{
    "goal": {
        "global_pose": {
            "orientation": {
                "w": 0.5084816217422485,
                "x": -0.49083608388900757,
                "y": 0.5182115435600281,
                "z": -0.4816462993621826
            },
            "position": {
                "x": 0.5540239810943604,
                "y": 0.030875300988554955,
                "z": 0.16403168439865112
            }
        },
        "name": "move_to_storage_A"
    },
    "id": "LBTRRT_move_to_storage_A_107",
    "joint_names": [
        "shoulder_pan_joint",
        "shoulder_lift_joint",
        "elbow_joint",
        "wrist_1_joint",
        "wrist_2_joint",
        "wrist_3_joint"
    ],
    "metrics": {
        "cart_traj_len": 0.35285826262134456,
        "distance_elbow_joint": 0.4513464620264931,
        "distance_shoulder_lift_joint": 0.2315580666036019,
        "distance_shoulder_pan_joint": 0.4571825699082243,
        "distance_wrist_1_joint": 0.2541400470016796,
        "distance_wrist_2_joint": 1.1152716405952234,
        "distance_wrist_3_joint": 0.10434610460092841,
        "smoothness": 0.0,
        "time": 5.005399435,
        "traj_len": 1.6167389680267346,
        "weighted_distance": 2.0474249162142457
    },
    "planner": "LBTRRT",
    "start": {
        "state": {
            "elbow_joint": 1.9715463870305268,
            "shoulder_lift_joint": -1.1394903361783484,
            "shoulder_pan_joint": 0.12281147578464417,
            "wrist_1_joint": -0.7804599489681411,
            "wrist_2_joint": 0.12958660307563738,
            "wrist_3_joint": -3.1924946282119055
        }
    },
    "waypoints": [
        {
            "positions": [
                0.12281147578464417,
                -1.1394903361783484,
                1.9715463870305268,
                -0.7804599489681411,
                0.12958660307563738,
                -3.1924946282119055
            ]
        },
        {
            "positions": [
                0.05749968008346927,
                -1.1725700599788629,
                2.0360244530343117,
                -0.8167656699683811,
                0.2889111231606693,
                -3.177588041840344
            ]
        },
        {
            "positions": [
                -0.007812115617705631,
                -1.2056497837793776,
                2.100502519038096,
                -0.853071390968621,
                0.4482356432457012,
                -3.162681455468783
            ]
        },
        {
            "positions": [
                -0.07312391131888053,
                -1.238729507579892,
                2.164980585041881,
                -0.8893771119688609,
                0.6075601633307331,
                -3.147774869097222
            ]
        },
        {
            "positions": [
                -0.13843570702005542,
                -1.2718092313804066,
                2.2294586510456655,
                -0.9256828329691008,
                0.7668846834157651,
                -3.132868282725661
            ]
        },
        {
            "positions": [
                -0.20374750272123032,
                -1.304888955180921,
                2.2939367170494505,
                -0.9619885539693408,
                0.926209203500797,
                -3.1179616963540995
            ]
        },
        {
            "positions": [
                -0.2690592984224052,
                -1.3379686789814358,
                2.358414783053235,
                -0.9982942749695807,
                1.085533723585829,
                -3.1030551099825385
            ]
        },
        {
            "positions": [
                -0.3343710941235801,
                -1.3710484027819503,
                2.42289284905702,
                -1.0345999959698207,
                1.2448582436708608,
                -3.088148523610977
            ]
        }
    ]
}