{
    "goal": {
        "global_pose": {
            "orientation": {
                "w": 0.7047431468963623,
                "x": -0.7094548344612122,
                "y": 0.0024358443915843964,
                "z": -0.0022348060738295317
            },
            "position": {
                "x": 0.6094750761985779,
                "y": 0.3671506643295288,
                "z": 0.19426114857196808
            }
        },
        "name": "move_to_magneteinheit_A"
    },
    "id": "LBTRRT_move_to_magneteinheit_A_65",
    "joint_names": [
        "shoulder_pan_joint",
        "shoulder_lift_joint",
        "elbow_joint",
        "wrist_1_joint",
        "wrist_2_joint",
        "wrist_3_joint"
    ],
    "metrics": {
        "cart_traj_len": 2.068629058074317,
        "distance_elbow_joint": 3.893807255477527,
        "distance_shoulder_lift_joint": 1.063521679512255,
        "distance_shoulder_pan_joint": 1.2415967837313306,
        "distance_wrist_1_joint": 1.218874358071003,
        "distance_wrist_2_joint": 1.4385971125957242,
        "distance_wrist_3_joint": 1.97692898237313,
        "smoothness": 3.0626842301137724e-16,
        "time": 5.0202079180000005,
        "traj_len": 3.291401855100797,
        "weighted_distance": 4.176679974234794
    },
    "planner": "LBTRRT",
    "start": {
        "state": {
            "elbow_joint": -1.919643507792019,
            "shoulder_lift_joint": -0.07675430207160344,
            "shoulder_pan_joint": -1.1188671864651873,
            "wrist_1_joint": 0.42560062535961957,
            "wrist_2_joint": 1.5706038300724876,
            "wrist_3_joint": 1.1188968870953055
        }
    },
    "waypoints": [
        {
            "positions": [
                -1.1188671864651873,
                -0.07675430207160344,
                -1.919643507792019,
                0.42560062535961957,
                1.5706038300724876,
                1.1188968870953055
            ]
        },
        {
            "positions": [
                -1.0745244441890685,
                -0.11473721919704112,
                -1.780578962953536,
                0.38206939828565517,
                1.5192253617654974,
                1.1895014936086317
            ]
        },
        {
            "positions": [
                -1.0301817019129493,
                -0.1527201363224788,
                -1.641514418115053,
                0.3385381712116908,
                1.4678468934585074,
                1.2601061001219578
            ]
        },
        {
            "positions": [
                -0.9858389596368304,
                -0.1907030534479165,
                -1.5024498732765699,
                0.29500694413772643,
                1.4164684251515172,
                1.3307107066352837
            ]
        },
        {
            "positions": [
                -0.9414962173607115,
                -0.22868597057335416,
                -1.3633853284380866,
                0.25147571706376204,
                1.365089956844527,
                1.4013153131486098
            ]
        },
        {
            "positions": [
                -0.8971534750845926,
                -0.2666688876987918,
                -1.2243207835996035,
                0.20794448998979762,
                1.3137114885375367,
                1.471919919661936
            ]
        },
        {
            "positions": [
                -0.8528107328084736,
                -0.3046518048242295,
                -1.0852562387611204,
                0.16441326291583325,
                1.2623330202305467,
                1.5425245261752618
            ]
        },
        {
            "positions": [
                -0.8084679905323546,
                -0.3426347219496672,
                -0.9461916939226374,
                0.12088203584186885,
                1.2109545519235565,
                1.613129132688588
            ]
        },
        {
            "positions": [
                -0.7641252482562357,
                -0.3806176390751049,
                -0.8071271490841543,
                0.07735080876790446,
                1.1595760836165665,
                1.683733739201914
            ]
        },
        {
            "positions": [
                -0.7197825059801167,
                -0.4186005562005426,
                -0.668062604245671,
                0.03381958169394006,
                1.1081976153095763,
                1.7543383457152402
            ]
        },
        {
            "positions": [
                -0.6754397637039978,
                -0.45658347332598026,
                -0.5289980594071879,
                -0.009711645380024336,
                1.056819147002586,
                1.8249429522285663
            ]
        },
        {
            "positions": [
                -0.6310970214278788,
                -0.4945663904514179,
                -0.38993351456870506,
                -0.05324287245398868,
                1.0054406786955958,
                1.8955475587418924
            ]
        },
        {
            "positions": [
                -0.5867542791517599,
                -0.5325493075768556,
                -0.250868969730222,
                -0.09677409952795307,
                0.9540622103886058,
                1.9661521652552183
            ]
        },
        {
            "positions": [
                -0.5424115368756409,
                -0.5705322247022933,
                -0.1118044248917387,
                -0.14030532660191747,
                0.9026837420816156,
                2.0367567717685446
            ]
        },
        {
            "positions": [
                -0.498068794599522,
                -0.608515141827731,
                0.027260119946744377,
                -0.18383655367588186,
                0.8513052737746255,
                2.1073613782818708
            ]
        },
        {
            "positions": [
                -0.45372605232340313,
                -0.6464980589531686,
                0.16632466478522745,
                -0.22736778074984626,
                0.7999268054676354,
                2.177965984795197
            ]
        },
        {
            "positions": [
                -0.4093833100472841,
                -0.6844809760786064,
                0.3053892096237105,
                -0.27089900782381066,
                0.7485483371606453,
                2.2485705913085225
            ]
        },
        {
            "positions": [
                -0.3650405677711652,
                -0.7224638932040439,
                0.4444537544621936,
                -0.31443023489777494,
                0.6971698688536552,
                2.3191751978218487
            ]
        },
        {
            "positions": [
                -0.3206978254950461,
                -0.7604468103294817,
                0.5835182993006771,
                -0.35796146197173945,
                0.6457914005466648,
                2.3897798043351752
            ]
        },
        {
            "positions": [
                -0.2763550832189272,
                -0.7984297274549195,
                0.7225828441391602,
                -0.40149268904570384,
                0.5944129322396747,
                2.460384410848501
            ]
        },
        {
            "positions": [
                -0.23201234094280831,
                -0.836412644580357,
                0.8616473889776433,
                -0.44502391611966824,
                0.5430344639326845,
                2.530989017361827
            ]
        },
        {
            "positions": [
                -0.18766959866668942,
                -0.8743955617057948,
                1.0007119338161263,
                -0.48855514319363263,
                0.4916559956256945,
                2.601593623875153
            ]
        },
        {
            "positions": [
                -0.1433268563905704,
                -0.9123784788312324,
                1.139776478654609,
                -0.5320863702675969,
                0.4402775273187043,
                2.672198230388479
            ]
        },
        {
            "positions": [
                -0.0989841141144514,
                -0.9503613959566701,
                1.278841023493092,
                -0.5756175973415614,
                0.3888990590117143,
                2.742802836901805
            ]
        },
        {
            "positions": [
                -0.05464137183833251,
                -0.9883443130821077,
                1.417905568331575,
                -0.6191488244155257,
                0.33752059070472407,
                2.813407443415131
            ]
        },
        {
            "positions": [
                -0.01029862956221339,
                -1.0263272302075455,
                1.5569701131700586,
                -0.6626800514894902,
                0.28614212239773384,
                2.884012049928457
            ]
        },
        {
            "positions": [
                0.034044112713905506,
                -1.0643101473329832,
                1.6960346580085417,
                -0.7062112785634544,
                0.23476365409074362,
                2.9546166564417833
            ]
        },
        {
            "positions": [
                0.0783868549900244,
                -1.102293064458421,
                1.8350992028470248,
                -0.749742505637419,
                0.18338518578375362,
                3.0252212629551094
            ]
        },
        {
            "positions": [
                0.12272959726614321,
                -1.1402759815838586,
                1.9741637476855078,
                -0.7932737327113834,
                0.13200671747676332,
                3.0958258694684355
            ]
        }
    ]
}