{
    "goal": {
        "global_pose": {
            "orientation": {
                "w": 0.7047431468963623,
                "x": -0.7094548344612122,
                "y": 0.0024358443915843964,
                "z": -0.0022348060738295317
            },
            "position": {
                "x": 0.6094750761985779,
                "y": 0.3671506643295288,
                "z": 0.19426114857196808
            }
        },
        "name": "move_to_magneteinheit_A"
    },
    "id": "LBTRRT_move_to_magneteinheit_A_33",
    "joint_names": [
        "shoulder_pan_joint",
        "shoulder_lift_joint",
        "elbow_joint",
        "wrist_1_joint",
        "wrist_2_joint",
        "wrist_3_joint"
    ],
    "metrics": {
        "cart_traj_len": 2.069399129296888,
        "distance_elbow_joint": 3.897561121708452,
        "distance_shoulder_lift_joint": 1.06565110281911,
        "distance_shoulder_pan_joint": 1.2413464531259406,
        "distance_wrist_1_joint": 1.2214145132491088,
        "distance_wrist_2_joint": 1.4321609248051774,
        "distance_wrist_3_joint": 1.990113113681105,
        "smoothness": 3.981489473232051e-16,
        "time": 5.020240737,
        "traj_len": 3.293667747267307,
        "weighted_distance": 4.181154014719548
    },
    "planner": "LBTRRT",
    "start": {
        "state": {
            "elbow_joint": -1.919643507792019,
            "shoulder_lift_joint": -0.07675430207160344,
            "shoulder_pan_joint": -1.1188671864651873,
            "wrist_1_joint": 0.42560062535961957,
            "wrist_2_joint": 1.5706038300724876,
            "wrist_3_joint": 1.1188968870953055
        }
    },
    "waypoints": [
        {
            "positions": [
                -1.1188671864651873,
                -0.07675430207160344,
                -1.919643507792019,
                0.42560062535961957,
                1.5706038300724876,
                1.1188968870953055
            ]
        },
        {
            "positions": [
                -1.0745333845678324,
                -0.11481327002942879,
                -1.7804448963024315,
                0.3819786784578657,
                1.5194552256151599,
                1.1899723554410593
            ]
        },
        {
            "positions": [
                -1.0301995826704773,
                -0.15287223798725413,
                -1.641246284812844,
                0.3383567315561118,
                1.4683066211578322,
                1.261047823786813
            ]
        },
        {
            "positions": [
                -0.9858657807731223,
                -0.1909312059450795,
                -1.5020476733232564,
                0.29473478465435793,
                1.4171580167005042,
                1.3321232921325667
            ]
        },
        {
            "positions": [
                -0.9415319788757672,
                -0.22899017390290485,
                -1.3628490618336688,
                0.25111283775260407,
                1.3660094122431765,
                1.4031987604783205
            ]
        },
        {
            "positions": [
                -0.8971981769784122,
                -0.26704914186073025,
                -1.2236504503440813,
                0.20749089085085015,
                1.3148608077858488,
                1.4742742288240742
            ]
        },
        {
            "positions": [
                -0.8528643750810572,
                -0.3051081098185556,
                -1.0844518388544937,
                0.1638689439490963,
                1.263712203328521,
                1.545349697169828
            ]
        },
        {
            "positions": [
                -0.8085305731837023,
                -0.34316707777638095,
                -0.9452532273649061,
                0.12024699704734237,
                1.2125635988711934,
                1.6164251655155817
            ]
        },
        {
            "positions": [
                -0.7641967712863471,
                -0.38122604573420626,
                -0.8060546158753186,
                0.07662505014558851,
                1.1614149944138656,
                1.6875006338613354
            ]
        },
        {
            "positions": [
                -0.7198629693889922,
                -0.4192850136920317,
                -0.666856004385731,
                0.0330031032438346,
                1.1102663899565377,
                1.7585761022070894
            ]
        },
        {
            "positions": [
                -0.675529167491637,
                -0.457343981649857,
                -0.5276573928961434,
                -0.010618843657919264,
                1.05911778549921,
                1.829651570552843
            ]
        },
        {
            "positions": [
                -0.6311953655942821,
                -0.4954029496076824,
                -0.3884587814065559,
                -0.05424079055967318,
                1.007969181041882,
                1.9007270388985966
            ]
        },
        {
            "positions": [
                -0.5868615636969271,
                -0.5334619175655078,
                -0.2492601699169683,
                -0.09786273746142699,
                0.9568205765845544,
                1.9718025072443504
            ]
        },
        {
            "positions": [
                -0.5425277617995721,
                -0.5715208855233331,
                -0.11006155842738075,
                -0.1414846843631809,
                0.9056719721272266,
                2.0428779755901045
            ]
        },
        {
            "positions": [
                -0.49819395990221704,
                -0.6095798534811585,
                0.02913705306220682,
                -0.18510663126493482,
                0.8545233676698989,
                2.1139534439358583
            ]
        },
        {
            "positions": [
                -0.453860158004862,
                -0.6476388214389839,
                0.16833566455179416,
                -0.22872857816668873,
                0.8033747632125712,
                2.185028912281612
            ]
        },
        {
            "positions": [
                -0.409526356107507,
                -0.685697789396809,
                0.30753427604138195,
                -0.27235052506844254,
                0.7522261587552435,
                2.2561043806273657
            ]
        },
        {
            "positions": [
                -0.36519255421015206,
                -0.7237567573546344,
                0.4467328875309693,
                -0.31597247197019646,
                0.7010775542979156,
                2.3271798489731195
            ]
        },
        {
            "positions": [
                -0.3208587523127969,
                -0.76181572531246,
                0.5859314990205571,
                -0.35959441887195037,
                0.6499289498405878,
                2.398255317318873
            ]
        },
        {
            "positions": [
                -0.2765249504154419,
                -0.7998746932702854,
                0.7251301105101449,
                -0.4032163657737043,
                0.59878034538326,
                2.469330785664627
            ]
        },
        {
            "positions": [
                -0.23219114851808687,
                -0.8379336612281105,
                0.8643287219997322,
                -0.4468383126754581,
                0.5476317409259324,
                2.5404062540103807
            ]
        },
        {
            "positions": [
                -0.18785734662073184,
                -0.8759926291859359,
                1.0035273334893196,
                -0.490460259577212,
                0.49648313646860465,
                2.6114817223561344
            ]
        },
        {
            "positions": [
                -0.14352354472337692,
                -0.9140515971437613,
                1.1427259449789073,
                -0.5340822064789659,
                0.4453345320112767,
                2.682557190701888
            ]
        },
        {
            "positions": [
                -0.09918974282602178,
                -0.9521105651015866,
                1.2819245564684947,
                -0.5777041533807197,
                0.394185927553949,
                2.753632659047642
            ]
        },
        {
            "positions": [
                -0.05485594092866686,
                -0.990169533059412,
                1.4211231679580825,
                -0.6213261002824735,
                0.34303732309662127,
                2.8247081273933956
            ]
        },
        {
            "positions": [
                -0.010522139031311717,
                -1.0282285010172374,
                1.5603217794476703,
                -0.6649480471842275,
                0.29188871863929333,
                2.8957835957391493
            ]
        },
        {
            "positions": [
                0.0338116628660432,
                -1.0662874689750628,
                1.6995203909372576,
                -0.7085699940859813,
                0.24074011418196561,
                2.966859064084903
            ]
        },
        {
            "positions": [
                0.07814546476339834,
                -1.1043464369328881,
                1.8387190024268454,
                -0.7521919409877353,
                0.1895915097246379,
                3.037934532430657
            ]
        },
        {
            "positions": [
                0.12247926666075325,
                -1.1424054048907135,
                1.9779176139164325,
                -0.7958138878894893,
                0.13844290526731015,
                3.1090100007764105
            ]
        }
    ]
}