{
    "goal": {
        "global_pose": {
            "orientation": {
                "w": 0.5084816217422485,
                "x": -0.49083608388900757,
                "y": 0.5182115435600281,
                "z": -0.4816462993621826
            },
            "position": {
                "x": 0.5540239810943604,
                "y": 0.030875300988554955,
                "z": 0.16403168439865112
            }
        },
        "name": "move_to_storage_A"
    },
    "id": "LBTRRT_move_to_storage_A_80",
    "joint_names": [
        "shoulder_pan_joint",
        "shoulder_lift_joint",
        "elbow_joint",
        "wrist_1_joint",
        "wrist_2_joint",
        "wrist_3_joint"
    ],
    "metrics": {
        "cart_traj_len": 0.3537011472648339,
        "distance_elbow_joint": 0.45260799970400356,
        "distance_shoulder_lift_joint": 0.23424143404162767,
        "distance_shoulder_pan_joint": 0.46436623641152464,
        "distance_wrist_1_joint": 0.25842054692048044,
        "distance_wrist_2_joint": 1.091733712943473,
        "distance_wrist_3_joint": 0.10799732615055602,
        "smoothness": 4.440892098500626e-16,
        "time": 5.004520684,
        "traj_len": 1.6153536009715226,
        "weighted_distance": 2.0434079789255817
    },
    "planner": "LBTRRT",
    "start": {
        "state": {
            "elbow_joint": 1.9715463870305268,
            "shoulder_lift_joint": -1.1394903361783484,
            "shoulder_pan_joint": 0.12281147578464417,
            "wrist_1_joint": -0.7804599489681411,
            "wrist_2_joint": 0.12958660307563738,
            "wrist_3_joint": -3.1924946282119055
        }
    },
    "waypoints": [
        {
            "positions": [
                0.12281147578464417,
                -1.1394903361783484,
                1.9715463870305268,
                -0.7804599489681411,
                0.12958660307563738,
                -3.1924946282119055
            ]
        },
        {
            "positions": [
                0.05647344201156923,
                -1.1729533981842952,
                2.036204672702527,
                -0.8173771699567811,
                0.2855485620675621,
                -3.177066438761826
            ]
        },
        {
            "positions": [
                -0.009864591761505712,
                -1.206416460190242,
                2.100862958374528,
                -0.8542943909454213,
                0.44151052105948674,
                -3.1616382493117468
            ]
        },
        {
            "positions": [
                -0.07620262553458067,
                -1.239879522196189,
                2.1655212440465283,
                -0.8912116119340613,
                0.5974724800514115,
                -3.146210059861667
            ]
        },
        {
            "positions": [
                -0.14254065930765558,
                -1.2733425842021355,
                2.2301795297185287,
                -0.9281288329227013,
                0.7534344390433362,
                -3.130781870411588
            ]
        },
        {
            "positions": [
                -0.20887869308073054,
                -1.3068056462080824,
                2.2948378153905296,
                -0.9650460539113415,
                0.909396398035261,
                -3.1153536809615083
            ]
        },
        {
            "positions": [
                -0.2752167268538055,
                -1.3402687082140292,
                2.35949610106253,
                -1.0019632748999814,
                1.0653583570271856,
                -3.099925491511429
            ]
        },
        {
            "positions": [
                -0.34155476062688045,
                -1.373731770219976,
                2.4241543867345303,
                -1.0388804958886215,
                1.2213203160191104,
                -3.0844973020613495
            ]
        }
    ]
}