{
    "goal": {
        "global_pose": {
            "orientation": {
                "w": 0.7047431468963623,
                "x": -0.7094548344612122,
                "y": 0.0024358443915843964,
                "z": -0.0022348060738295317
            },
            "position": {
                "x": 0.6094750761985779,
                "y": 0.3671506643295288,
                "z": 0.19426114857196808
            }
        },
        "name": "move_to_magneteinheit_A"
    },
    "id": "LBTRRT_move_to_magneteinheit_A_138",
    "joint_names": [
        "shoulder_pan_joint",
        "shoulder_lift_joint",
        "elbow_joint",
        "wrist_1_joint",
        "wrist_2_joint",
        "wrist_3_joint"
    ],
    "metrics": {
        "cart_traj_len": 2.0702361903465327,
        "distance_elbow_joint": 3.902456228963019,
        "distance_shoulder_lift_joint": 1.069292945755968,
        "distance_shoulder_pan_joint": 1.2419114476081679,
        "distance_wrist_1_joint": 1.2460393828354177,
        "distance_wrist_2_joint": 1.436000801540802,
        "distance_wrist_3_joint": 1.9992541648658753,
        "smoothness": 5.20656316527756e-16,
        "time": 5.018150915,
        "traj_len": 3.300750667888935,
        "weighted_distance": 4.192314812329487
    },
    "planner": "LBTRRT",
    "start": {
        "state": {
            "elbow_joint": -1.919643507792019,
            "shoulder_lift_joint": -0.07675430207160344,
            "shoulder_pan_joint": -1.1188671864651873,
            "wrist_1_joint": 0.42560062535961957,
            "wrist_2_joint": 1.5706038300724876,
            "wrist_3_joint": 1.1188968870953055
        }
    },
    "waypoints": [
        {
            "positions": [
                -1.1188671864651873,
                -0.07675430207160344,
                -1.919643507792019,
                0.42560062535961957,
                1.5706038300724876,
                1.1188968870953055
            ]
        },
        {
            "positions": [
                -1.074513206193467,
                -0.1149433358486023,
                -1.78027007104334,
                0.3810992188297832,
                1.519318087160316,
                1.1902988215548012
            ]
        },
        {
            "positions": [
                -1.0301592259217467,
                -0.15313236962560114,
                -1.6408966342946605,
                0.3365978122999469,
                1.4680323442481447,
                1.2617007560142965
            ]
        },
        {
            "positions": [
                -0.9858052456500265,
                -0.1913214034026,
                -1.5015231975459813,
                0.29209640577011053,
                1.416746601335973,
                1.3331026904737922
            ]
        },
        {
            "positions": [
                -0.9414512653783063,
                -0.22951043717959885,
                -1.362149760797302,
                0.2475949992402742,
                1.3654608584238017,
                1.4045046249332878
            ]
        },
        {
            "positions": [
                -0.8970972851065859,
                -0.26769947095659774,
                -1.2227763240486227,
                0.20309359271043784,
                1.3141751155116301,
                1.4759065593927834
            ]
        },
        {
            "positions": [
                -0.8527433048348656,
                -0.3058885047335965,
                -1.0834028872999437,
                0.1585921861806015,
                1.2628893725994588,
                1.5473084938522788
            ]
        },
        {
            "positions": [
                -0.8083893245631454,
                -0.3440775385105954,
                -0.9440294505512643,
                0.11409077965076514,
                1.2116036296872872,
                1.6187104283117744
            ]
        },
        {
            "positions": [
                -0.7640353442914252,
                -0.38226657228759425,
                -0.8046560138025851,
                0.06958937312092883,
                1.1603178867751156,
                1.69011236277127
            ]
        },
        {
            "positions": [
                -0.7196813640197048,
                -0.42045560606459315,
                -0.6652825770539057,
                0.025087966591092414,
                1.1090321438629442,
                1.7615142972307654
            ]
        },
        {
            "positions": [
                -0.6753273837479845,
                -0.458644639841592,
                -0.5259091403052265,
                -0.019413439938743893,
                1.0577464009507727,
                1.832916231690261
            ]
        },
        {
            "positions": [
                -0.6309734034762643,
                -0.4968336736185908,
                -0.3865357035565473,
                -0.06391484646858026,
                1.006460658038601,
                1.9043181661497566
            ]
        },
        {
            "positions": [
                -0.586619423204544,
                -0.5350227073955897,
                -0.24716226680786813,
                -0.10841625299841656,
                0.9551749151264297,
                1.975720100609252
            ]
        },
        {
            "positions": [
                -0.5422654429328236,
                -0.5732117411725886,
                -0.10778883005918871,
                -0.15291765952825292,
                0.9038891722142581,
                2.047122035068748
            ]
        },
        {
            "positions": [
                -0.4979114626611034,
                -0.6114007749495873,
                0.03158460668949048,
                -0.1974190660580893,
                0.8526034293020867,
                2.118523969528243
            ]
        },
        {
            "positions": [
                -0.4535574823893832,
                -0.6495898087265861,
                0.1709580434381699,
                -0.24192047258792565,
                0.8013176863899152,
                2.1899259039877386
            ]
        },
        {
            "positions": [
                -0.4092035021176629,
                -0.6877788425035851,
                0.31033148018684886,
                -0.2864218791177619,
                0.7500319434777437,
                2.261327838447234
            ]
        },
        {
            "positions": [
                -0.36484952184594266,
                -0.7259678762805839,
                0.4497049169355283,
                -0.33092328564759826,
                0.6987462005655722,
                2.33272977290673
            ]
        },
        {
            "positions": [
                -0.3204955415742222,
                -0.7641569100575829,
                0.5890783536842077,
                -0.37542469217743474,
                0.6474604576534007,
                2.4041317073662256
            ]
        },
        {
            "positions": [
                -0.276141561302502,
                -0.8023459438345817,
                0.7284517904328867,
                -0.4199260987072711,
                0.5961747147412292,
                2.475533641825721
            ]
        },
        {
            "positions": [
                -0.23178758103078168,
                -0.8405349776115805,
                0.8678252271815661,
                -0.46442750523710735,
                0.5448889718290577,
                2.5469355762852164
            ]
        },
        {
            "positions": [
                -0.18743360075906146,
                -0.8787240113885795,
                1.0071986639302455,
                -0.5089289117669438,
                0.4936032289168861,
                2.6183375107447118
            ]
        },
        {
            "positions": [
                -0.14307962048734124,
                -0.9169130451655783,
                1.1465721006789245,
                -0.5534303182967801,
                0.44231748600471477,
                2.6897394452042076
            ]
        },
        {
            "positions": [
                -0.09872564021562091,
                -0.955102078942577,
                1.2859455374276039,
                -0.5979317248266163,
                0.3910317430925432,
                2.761141379663703
            ]
        },
        {
            "positions": [
                -0.054371659943900585,
                -0.9932911127195758,
                1.4253189741762828,
                -0.6424331313564526,
                0.3397460001803718,
                2.832543314123199
            ]
        },
        {
            "positions": [
                -0.010017679672180257,
                -1.0314801464965748,
                1.5646924109249623,
                -0.686934537886289,
                0.28846025726820024,
                2.903945248582694
            ]
        },
        {
            "positions": [
                0.03433630059954007,
                -1.0696691802735736,
                1.7040658476736417,
                -0.7314359444161254,
                0.23717451435602865,
                2.9753471830421896
            ]
        },
        {
            "positions": [
                0.07869028087126018,
                -1.1078582140505726,
                1.8434392844223206,
                -0.7759373509459617,
                0.1858887714438573,
                3.046749117501685
            ]
        },
        {
            "positions": [
                0.12304426114298062,
                -1.1460472478275714,
                1.9828127211709998,
                -0.8204387574757981,
                0.13460302853168574,
                3.118151051961181
            ]
        }
    ]
}