{
    "goal": {
        "global_pose": {
            "orientation": {
                "w": 0.7031023502349854,
                "x": -0.7110244035720825,
                "y": 0.007748599164187908,
                "z": 0.005598929710686207
            },
            "position": {
                "x": 0.11585023208521307,
                "y": 0.44412534475326537,
                "z": 0.3711530566215515
            }
        },
        "name": "move_to_auspresseinheit_A"
    },
    "id": "LBTRRT_move_to_auspresseinheit_A_60",
    "joint_names": [
        "shoulder_pan_joint",
        "shoulder_lift_joint",
        "elbow_joint",
        "wrist_1_joint",
        "wrist_2_joint",
        "wrist_3_joint"
    ],
    "metrics": {
        "cart_traj_len": 0.6711228282311584,
        "distance_elbow_joint": 0.08161700917475967,
        "distance_shoulder_lift_joint": 0.5361697979474607,
        "distance_shoulder_pan_joint": 1.0482347206359153,
        "distance_wrist_1_joint": 0.55148672322675,
        "distance_wrist_2_joint": 0.5115500963984038,
        "distance_wrist_3_joint": 0.1696720773324789,
        "smoothness": 0.2586071366981242,
        "time": 5.017472917,
        "traj_len": 1.7025658356479987,
        "weighted_distance": 2.0739121001155953
    },
    "planner": "LBTRRT",
    "start": {
        "state": {
            "elbow_joint": 2.422574709923281,
            "shoulder_lift_joint": -1.3736533754116391,
            "shoulder_pan_joint": -0.33786336945926293,
            "wrist_1_joint": -1.0288603412921917,
            "wrist_2_joint": 1.2330224858903978,
            "wrist_3_joint": -3.094022268022082
        }
    },
    "waypoints": [
        {
            "positions": [
                -0.33786336945926293,
                -1.3736533754116391,
                2.422574709923281,
                -1.0288603412921917,
                1.2330224858903978,
                -3.094022268022082
            ]
        },
        {
            "positions": [
                -0.21238812413304167,
                -1.4468244831056056,
                2.428068207205075,
                -0.9428124514231312,
                1.1577344043046889,
                -3.113819197624608
            ]
        },
        {
            "positions": [
                -0.08691287880682042,
                -1.519995590799572,
                2.433561704486869,
                -0.8567645615540707,
                1.0824463227189802,
                -3.133616127227134
            ]
        },
        {
            "positions": [
                0.038562366519400815,
                -1.5931666984935384,
                2.439055201768663,
                -0.77071667168501,
                1.0071582411332713,
                -3.1534130568296606
            ]
        },
        {
            "positions": [
                0.1640376118456221,
                -1.6663378061875047,
                2.444548699050457,
                -0.6846687818159495,
                0.9318701595475626,
                -3.1732099864321865
            ]
        },
        {
            "positions": [
                0.28951285717184333,
                -1.7395089138814712,
                2.4500421963322507,
                -0.5986208919468889,
                0.8565820779618538,
                -3.1930069160347125
            ]
        },
        {
            "positions": [
                0.4297990218401129,
                -1.7962803337073474,
                2.431992355410321,
                -0.5582051339864065,
                0.8115455151385672,
                -3.169444439594763
            ]
        },
        {
            "positions": [
                0.5700851865083825,
                -1.8530517535332236,
                2.4139425144883906,
                -0.5177893760259241,
                0.7665089523152806,
                -3.1458819631548134
            ]
        },
        {
            "positions": [
                0.7103713511766522,
                -1.9098231733590998,
                2.3958926735664607,
                -0.4773736180654417,
                0.721472389491994,
                -3.122319486714864
            ]
        }
    ]
}