{
    "goal": {
        "global_pose": {
            "orientation": {
                "w": 0.7047431468963623,
                "x": -0.7094548344612122,
                "y": 0.0024358443915843964,
                "z": -0.0022348060738295317
            },
            "position": {
                "x": 0.6094750761985779,
                "y": 0.3671506643295288,
                "z": 0.19426114857196808
            }
        },
        "name": "move_to_magneteinheit_A"
    },
    "id": "LBTRRT_move_to_magneteinheit_A_147",
    "joint_names": [
        "shoulder_pan_joint",
        "shoulder_lift_joint",
        "elbow_joint",
        "wrist_1_joint",
        "wrist_2_joint",
        "wrist_3_joint"
    ],
    "metrics": {
        "cart_traj_len": 2.06461163764729,
        "distance_elbow_joint": 3.8837713503429776,
        "distance_shoulder_lift_joint": 1.0596757527901348,
        "distance_shoulder_pan_joint": 1.2412829004635184,
        "distance_wrist_1_joint": 1.1668369520051347,
        "distance_wrist_2_joint": 1.433177725789002,
        "distance_wrist_3_joint": 1.9380785589714993,
        "smoothness": 8.575515775209619e-16,
        "time": 5.014600463,
        "traj_len": 3.274572222499035,
        "weighted_distance": 4.147167109738815
    },
    "planner": "LBTRRT",
    "start": {
        "state": {
            "elbow_joint": -1.919643507792019,
            "shoulder_lift_joint": -0.07675430207160344,
            "shoulder_pan_joint": -1.1188671864651873,
            "wrist_1_joint": 0.42560062535961957,
            "wrist_2_joint": 1.5706038300724876,
            "wrist_3_joint": 1.1188968870953055
        }
    },
    "waypoints": [
        {
            "positions": [
                -1.1188671864651873,
                -0.07675430207160344,
                -1.919643507792019,
                0.42560062535961957,
                1.5706038300724876,
                1.1188968870953055
            ]
        },
        {
            "positions": [
                -1.074535654305776,
                -0.1145998646712511,
                -1.7809373881369128,
                0.3839278770737219,
                1.519418911294309,
                1.1881139784871448
            ]
        },
        {
            "positions": [
                -1.0302041221463647,
                -0.15244542727089877,
                -1.6422312684818063,
                0.34225512878782427,
                1.4682339925161303,
                1.2573310698789841
            ]
        },
        {
            "positions": [
                -0.9858725899869533,
                -0.19029098987054643,
                -1.5035251488267,
                0.3005823805019266,
                1.4170490737379517,
                1.3265481612708232
            ]
        },
        {
            "positions": [
                -0.9415410578275418,
                -0.22813655247019413,
                -1.3648190291715938,
                0.2589096322160289,
                1.365864154959773,
                1.3957652526626625
            ]
        },
        {
            "positions": [
                -0.8972095256681305,
                -0.2659821150698418,
                -1.2261129095164873,
                0.21723688393013127,
                1.3146792361815944,
                1.4649823440545018
            ]
        },
        {
            "positions": [
                -0.8528779935087192,
                -0.3038276776694895,
                -1.087406789861381,
                0.17556413564423362,
                1.2634943174034157,
                1.534199435446341
            ]
        },
        {
            "positions": [
                -0.8085464613493077,
                -0.34167324026913715,
                -0.9487006702062747,
                0.13389138735833594,
                1.2123093986252371,
                1.6034165268381804
            ]
        },
        {
            "positions": [
                -0.7642149291898963,
                -0.3795188028687848,
                -0.8099945505511683,
                0.09221863907243832,
                1.1611244798470586,
                1.6726336182300194
            ]
        },
        {
            "positions": [
                -0.719883397030485,
                -0.41736436546843253,
                -0.6712884308960618,
                0.05054589078654059,
                1.1099395610688798,
                1.741850709621859
            ]
        },
        {
            "positions": [
                -0.6755518648710737,
                -0.4552099280680802,
                -0.5325823112409556,
                0.008873142500642972,
                1.058754642290701,
                1.811067801013698
            ]
        },
        {
            "positions": [
                -0.6312203327116623,
                -0.4930554906677278,
                -0.3938761915858493,
                -0.032799605785254704,
                1.0075697235125225,
                1.8802848924055375
            ]
        },
        {
            "positions": [
                -0.5868888005522509,
                -0.5309010532673755,
                -0.25517007193074304,
                -0.07447235407115232,
                0.956384804734344,
                1.9495019837973766
            ]
        },
        {
            "positions": [
                -0.5425572683928395,
                -0.5687466158670231,
                -0.11646395227563655,
                -0.11614510235705006,
                0.9051998859561653,
                2.018719075189216
            ]
        },
        {
            "positions": [
                -0.49822573623342814,
                -0.6065921784666708,
                0.022242167379469713,
                -0.15781785064294768,
                0.8540149671779866,
                2.087936166581055
            ]
        },
        {
            "positions": [
                -0.4538942040740168,
                -0.6444377410663185,
                0.1609482870345762,
                -0.1994905989288453,
                0.802830048399808,
                2.1571532579728947
            ]
        },
        {
            "positions": [
                -0.4095626719146054,
                -0.6822833036659661,
                0.29965440668968246,
                -0.24116334721474292,
                0.7516451296216294,
                2.2263703493647338
            ]
        },
        {
            "positions": [
                -0.36523113975519406,
                -0.7201288662656138,
                0.4383605263447887,
                -0.28283609550064065,
                0.7004602108434508,
                2.295587440756573
            ]
        },
        {
            "positions": [
                -0.3208996075957826,
                -0.7579744288652617,
                0.5770666459998954,
                -0.3245088437865384,
                0.649275292065272,
                2.3648045321484124
            ]
        },
        {
            "positions": [
                -0.2765680754363713,
                -0.7958199914649093,
                0.7157727656550017,
                -0.366181592072436,
                0.5980903732870934,
                2.434021623540252
            ]
        },
        {
            "positions": [
                -0.23223654327695986,
                -0.833665554064557,
                0.854478885310108,
                -0.4078543403583336,
                0.5469054545089147,
                2.503238714932091
            ]
        },
        {
            "positions": [
                -0.18790501111754854,
                -0.8715111166642047,
                0.9931850049652142,
                -0.44952708864423135,
                0.49572053573073616,
                2.57245580632393
            ]
        },
        {
            "positions": [
                -0.1435734789581372,
                -0.9093566792638521,
                1.1318911246203205,
                -0.491199836930129,
                0.4445356169525576,
                2.641672897715769
            ]
        },
        {
            "positions": [
                -0.09924194679872578,
                -0.9472022418634998,
                1.2705972442754268,
                -0.5328725852160265,
                0.39335069817437884,
                2.710889989107608
            ]
        },
        {
            "positions": [
                -0.05491041463931445,
                -0.9850478044631474,
                1.409303363930533,
                -0.5745453335019242,
                0.3421657793962003,
                2.7801070804994477
            ]
        },
        {
            "positions": [
                -0.010578882479902907,
                -1.0228933670627953,
                1.5480094835856397,
                -0.616218081787822,
                0.29098086061802153,
                2.849324171891287
            ]
        },
        {
            "positions": [
                0.03375264967950842,
                -1.060738929662443,
                1.686715603240746,
                -0.6578908300737196,
                0.23979594183984299,
                2.9185412632831262
            ]
        },
        {
            "positions": [
                0.07808418183891974,
                -1.0985844922620907,
                1.8254217228958523,
                -0.6995635783596172,
                0.18861102306166422,
                2.9877583546749653
            ]
        },
        {
            "positions": [
                0.12241571399833101,
                -1.1364300548617383,
                1.9641278425509585,
                -0.741236326645515,
                0.13742610428348576,
                3.056975446066805
            ]
        }
    ]
}