{
    "goal": {
        "global_pose": {
            "orientation": {
                "w": 0.7031023502349854,
                "x": -0.7110244035720825,
                "y": 0.007748599164187908,
                "z": 0.005598929710686207
            },
            "position": {
                "x": 0.11585023208521307,
                "y": 0.44412534475326537,
                "z": 0.3711530566215515
            }
        },
        "name": "move_to_auspresseinheit_A"
    },
    "id": "LBTRRT_move_to_auspresseinheit_A_132",
    "joint_names": [
        "shoulder_pan_joint",
        "shoulder_lift_joint",
        "elbow_joint",
        "wrist_1_joint",
        "wrist_2_joint",
        "wrist_3_joint"
    ],
    "metrics": {
        "cart_traj_len": 0.6929302897704128,
        "distance_elbow_joint": 0.027496399927576576,
        "distance_shoulder_lift_joint": 0.693066633001792,
        "distance_shoulder_pan_joint": 1.0417135012124095,
        "distance_wrist_1_joint": 0.558946106717676,
        "distance_wrist_2_joint": 0.9734652145151307,
        "distance_wrist_3_joint": 0.047981566701081224,
        "smoothness": 1.0231241237665072,
        "time": 5.0337610680000004,
        "traj_len": 1.8282968637712165,
        "weighted_distance": 2.229583790017912
    },
    "planner": "LBTRRT",
    "start": {
        "state": {
            "elbow_joint": 2.422574709923281,
            "shoulder_lift_joint": -1.3736533754116391,
            "shoulder_pan_joint": -0.33786336945926293,
            "wrist_1_joint": -1.0288603412921917,
            "wrist_2_joint": 1.2330224858903978,
            "wrist_3_joint": -3.094022268022082
        }
    },
    "waypoints": [
        {
            "positions": [
                -0.33786336945926293,
                -1.3736533754116391,
                2.422574709923281,
                -1.0288603412921917,
                1.2330224858903978,
                -3.094022268022082
            ]
        },
        {
            "positions": [
                -0.2349771748074953,
                -1.4614980756885945,
                2.420761650789577,
                -0.9647459367867994,
                1.125956885305128,
                -3.093708380197234
            ]
        },
        {
            "positions": [
                -0.13209098015572768,
                -1.5493427759655498,
                2.418948591655873,
                -0.9006315322814072,
                1.0188912847198583,
                -3.093394492372386
            ]
        },
        {
            "positions": [
                -0.02920478550396005,
                -1.637187476242505,
                2.417135532522169,
                -0.836517127776015,
                0.9118256841345886,
                -3.093080604547538
            ]
        },
        {
            "positions": [
                0.07368140914780757,
                -1.7250321765194603,
                2.4153224733884655,
                -0.7724027232706228,
                0.8047600835493189,
                -3.0927667167226898
            ]
        },
        {
            "positions": [
                0.1765676037995752,
                -1.8128768767964156,
                2.4135094142547615,
                -0.7082883187652305,
                0.6976944829640491,
                -3.0924528288978417
            ]
        },
        {
            "positions": [
                0.2794537984513428,
                -1.900721577073371,
                2.4116963551210575,
                -0.6441739142598382,
                0.5906288823787794,
                -3.0921389410729936
            ]
        },
        {
            "positions": [
                0.3823399931031104,
                -1.9885662773503263,
                2.4098832959873535,
                -0.5800595097544459,
                0.4835632817935097,
                -3.0918250532481455
            ]
        },
        {
            "positions": [
                0.48951003931978915,
                -1.9625150336626247,
                2.404948300656804,
                -0.5433444180278025,
                0.558231951932924,
                -3.107086503890527
            ]
        },
        {
            "positions": [
                0.5966800855364679,
                -1.936463789974923,
                2.400013305326254,
                -0.5066293263011592,
                0.6329006220723381,
                -3.1223479545329087
            ]
        },
        {
            "positions": [
                0.7038501317531467,
                -1.9104125462872215,
                2.3950783099957045,
                -0.4699142345745158,
                0.7075692922117524,
                -3.13760940517529
            ]
        }
    ]
}