{
    "goal": {
        "global_pose": {
            "orientation": {
                "w": 0.7047431468963623,
                "x": -0.7094548344612122,
                "y": 0.0024358443915843964,
                "z": -0.0022348060738295317
            },
            "position": {
                "x": 0.6094750761985779,
                "y": 0.3671506643295288,
                "z": 0.19426114857196808
            }
        },
        "name": "move_to_magneteinheit_A"
    },
    "id": "LBTRRT_move_to_magneteinheit_A_81",
    "joint_names": [
        "shoulder_pan_joint",
        "shoulder_lift_joint",
        "elbow_joint",
        "wrist_1_joint",
        "wrist_2_joint",
        "wrist_3_joint"
    ],
    "metrics": {
        "cart_traj_len": 2.0651988763375786,
        "distance_elbow_joint": 3.880136373908826,
        "distance_shoulder_lift_joint": 1.0561194502373017,
        "distance_shoulder_pan_joint": 1.2420878542579454,
        "distance_wrist_1_joint": 1.142739739504045,
        "distance_wrist_2_joint": 1.4310188611502879,
        "distance_wrist_3_joint": 1.9112115580360998,
        "smoothness": 3.4892723817896226e-16,
        "time": 5.018205374,
        "traj_len": 3.2654729882659423,
        "weighted_distance": 4.130314219744188
    },
    "planner": "LBTRRT",
    "start": {
        "state": {
            "elbow_joint": -1.919643507792019,
            "shoulder_lift_joint": -0.07675430207160344,
            "shoulder_pan_joint": -1.1188671864651873,
            "wrist_1_joint": 0.42560062535961957,
            "wrist_2_joint": 1.5706038300724876,
            "wrist_3_joint": 1.1188968870953055
        }
    },
    "waypoints": [
        {
            "positions": [
                -1.1188671864651873,
                -0.07675430207160344,
                -1.919643507792019,
                0.42560062535961957,
                1.5706038300724876,
                1.1188968870953055
            ]
        },
        {
            "positions": [
                -1.0728639326037819,
                -0.11586983726557758,
                -1.7759347532028034,
                0.3832769313039142,
                1.5176031315113658,
                1.1896825003559017
            ]
        },
        {
            "positions": [
                -1.0268606787423766,
                -0.1549853724595517,
                -1.6322259986135876,
                0.3409532372482088,
                1.464602432950244,
                1.2604681136164981
            ]
        },
        {
            "positions": [
                -0.9808574248809712,
                -0.19410090765352583,
                -1.4885172440243717,
                0.29862954319250345,
                1.4116017343891223,
                1.3312537268770943
            ]
        },
        {
            "positions": [
                -0.9348541710195658,
                -0.23321644284749998,
                -1.344808489435156,
                0.2563058491367981,
                1.3586010358280005,
                1.4020393401376907
            ]
        },
        {
            "positions": [
                -0.8888509171581604,
                -0.27233197804147413,
                -1.2010997348459402,
                0.21398215508109272,
                1.3056003372668787,
                1.472824953398287
            ]
        },
        {
            "positions": [
                -0.842847663296755,
                -0.3114475132354483,
                -1.0573909802567245,
                0.17165846102538734,
                1.252599638705757,
                1.5436105666588833
            ]
        },
        {
            "positions": [
                -0.7968444094353497,
                -0.3505630484294224,
                -0.9136822256675088,
                0.129334766969682,
                1.1995989401446352,
                1.6143961799194795
            ]
        },
        {
            "positions": [
                -0.7508411555739443,
                -0.3896785836233965,
                -0.7699734710782931,
                0.08701107291397658,
                1.1465982415835134,
                1.6851817931800759
            ]
        },
        {
            "positions": [
                -0.7048379017125389,
                -0.4287941188173707,
                -0.6262647164890771,
                0.04468737885827123,
                1.0935975430223916,
                1.755967406440672
            ]
        },
        {
            "positions": [
                -0.6588346478511335,
                -0.46790965401134477,
                -0.4825559618998614,
                0.0023636848025658797,
                1.0405968444612699,
                1.8267530197012682
            ]
        },
        {
            "positions": [
                -0.6128313939897281,
                -0.5070251892053189,
                -0.33884720731064566,
                -0.03996000925313953,
                0.9875961459001481,
                1.8975386329618646
            ]
        },
        {
            "positions": [
                -0.5668281401283227,
                -0.5461407243992931,
                -0.19513845272142993,
                -0.08228370330884488,
                0.9345954473390263,
                1.968324246222461
            ]
        },
        {
            "positions": [
                -0.5208248862669174,
                -0.5852562595932671,
                -0.05142969813221421,
                -0.12460739736455023,
                0.8815947487779046,
                2.039109859483057
            ]
        },
        {
            "positions": [
                -0.474821632405512,
                -0.6243717947872414,
                0.09227905645700152,
                -0.16693109142025558,
                0.8285940502167828,
                2.1098954727436534
            ]
        },
        {
            "positions": [
                -0.42881837854410654,
                -0.6634873299812156,
                0.2359878110462177,
                -0.20925478547596105,
                0.775593351655661,
                2.18068108600425
            ]
        },
        {
            "positions": [
                -0.3828151246827012,
                -0.7026028651751897,
                0.37969656563543297,
                -0.2515784795316664,
                0.7225926530945392,
                2.2514666992648458
            ]
        },
        {
            "positions": [
                -0.3368118708212957,
                -0.7417184003691637,
                0.5234053202246491,
                -0.29390217358737175,
                0.6695919545334175,
                2.3222523125254426
            ]
        },
        {
            "positions": [
                -0.29080861695989046,
                -0.780833935563138,
                0.6671140748138649,
                -0.3362258676430771,
                0.6165912559722957,
                2.3930379257860386
            ]
        },
        {
            "positions": [
                -0.244805363098485,
                -0.819949470757112,
                0.8108228294030806,
                -0.37854956169878257,
                0.5635905574111739,
                2.463823539046635
            ]
        },
        {
            "positions": [
                -0.19880210923707964,
                -0.859065005951086,
                0.9545315839922963,
                -0.4208732557544878,
                0.5105898588500521,
                2.5346091523072314
            ]
        },
        {
            "positions": [
                -0.15279885537567417,
                -0.8981805411450603,
                1.098240338581512,
                -0.46319694981019327,
                0.4575891602889304,
                2.6053947655678273
            ]
        },
        {
            "positions": [
                -0.10679560151426881,
                -0.9372960763390343,
                1.2419490931707278,
                -0.5055206438658986,
                0.4045884617278086,
                2.6761803788284237
            ]
        },
        {
            "positions": [
                -0.06079234765286334,
                -0.9764116115330086,
                1.385657847759944,
                -0.547844337921604,
                0.35158776316668683,
                2.74696599208902
            ]
        },
        {
            "positions": [
                -0.014789093791458097,
                -1.0155271467269826,
                1.5293666023491592,
                -0.5901680319773093,
                0.29858706460556506,
                2.817751605349616
            ]
        },
        {
            "positions": [
                0.031214160069947372,
                -1.054642681920957,
                1.6730753569383754,
                -0.6324917260330147,
                0.24558636604444328,
                2.888537218610213
            ]
        },
        {
            "positions": [
                0.07721741393135262,
                -1.093758217114931,
                1.8167841115275907,
                -0.67481542008872,
                0.1925856674833215,
                2.959322831870809
            ]
        },
        {
            "positions": [
                0.1232206677927581,
                -1.1328737523089052,
                1.9604928661168068,
                -0.7171391141444254,
                0.13958496892219982,
                3.0301084451314053
            ]
        }
    ]
}