{
    "goal": {
        "global_pose": {
            "orientation": {
                "w": 0.7047431468963623,
                "x": -0.7094548344612122,
                "y": 0.0024358443915843964,
                "z": -0.0022348060738295317
            },
            "position": {
                "x": 0.6094750761985779,
                "y": 0.3671506643295288,
                "z": 0.19426114857196808
            }
        },
        "name": "move_to_magneteinheit_A"
    },
    "id": "LBTRRT_move_to_magneteinheit_A_123",
    "joint_names": [
        "shoulder_pan_joint",
        "shoulder_lift_joint",
        "elbow_joint",
        "wrist_1_joint",
        "wrist_2_joint",
        "wrist_3_joint"
    ],
    "metrics": {
        "cart_traj_len": 1.8704136969947318,
        "distance_elbow_joint": 3.9324392216902684,
        "distance_shoulder_lift_joint": 0.7084292381579469,
        "distance_shoulder_pan_joint": 1.2413466395184172,
        "distance_wrist_1_joint": 1.5642337595414484,
        "distance_wrist_2_joint": 1.6999327505054698,
        "distance_wrist_3_joint": 1.1977573097405898,
        "smoothness": 4.123685525847481e-16,
        "time": 5.022527513,
        "traj_len": 3.216230545087547,
        "weighted_distance": 4.000477477587174
    },
    "planner": "LBTRRT",
    "start": {
        "state": {
            "elbow_joint": -1.919643507792019,
            "shoulder_lift_joint": -0.07675430207160344,
            "shoulder_pan_joint": -1.1188671864651873,
            "wrist_1_joint": 0.42560062535961957,
            "wrist_2_joint": 1.5706038300724876,
            "wrist_3_joint": 1.1188968870953055
        }
    },
    "waypoints": [
        {
            "positions": [
                -1.1188671864651873,
                -0.07675430207160344,
                -1.919643507792019,
                0.42560062535961957,
                1.5706038300724876,
                1.1188968870953055
            ]
        },
        {
            "positions": [
                -1.0728913850015422,
                -0.10299242200337926,
                -1.7739976106923796,
                0.4835352090463399,
                1.5076433578315442,
                1.0745355052530614
            ]
        },
        {
            "positions": [
                -1.0269155835378971,
                -0.12923054193515507,
                -1.62835171359274,
                0.5414697927330602,
                1.4446828855906009,
                1.0301741234108175
            ]
        },
        {
            "positions": [
                -0.9809397820742521,
                -0.15546866186693087,
                -1.4827058164931004,
                0.5994043764197805,
                1.3817224133496577,
                0.9858127415685733
            ]
        },
        {
            "positions": [
                -0.934963980610607,
                -0.1817067817987067,
                -1.337059919393461,
                0.6573389601065008,
                1.3187619411087144,
                0.9414513597263293
            ]
        },
        {
            "positions": [
                -0.8889881791469619,
                -0.2079449017304825,
                -1.1914140222938214,
                0.7152735437932212,
                1.255801468867771,
                0.8970899778840853
            ]
        },
        {
            "positions": [
                -0.8430123776833169,
                -0.2341830216622583,
                -1.0457681251941817,
                0.7732081274799414,
                1.1928409966268276,
                0.8527285960418411
            ]
        },
        {
            "positions": [
                -0.7970365762196718,
                -0.26042114159403407,
                -0.9001222280945422,
                0.8311427111666617,
                1.1298805243858845,
                0.8083672141995971
            ]
        },
        {
            "positions": [
                -0.7510607747560267,
                -0.2866592615258099,
                -0.7544763309949025,
                0.889077294853382,
                1.066920052144941,
                0.7640058323573531
            ]
        },
        {
            "positions": [
                -0.7050849732923816,
                -0.3128973814575857,
                -0.608830433895263,
                0.9470118785401023,
                1.0039595799039978,
                0.719644450515109
            ]
        },
        {
            "positions": [
                -0.6591091718287365,
                -0.33913550138936155,
                -0.46318453679562355,
                1.0049464622268227,
                0.9409991076630544,
                0.6752830686728649
            ]
        },
        {
            "positions": [
                -0.6131333703650915,
                -0.3653736213211373,
                -0.31753863969598384,
                1.062881045913543,
                0.878038635422111,
                0.6309216868306209
            ]
        },
        {
            "positions": [
                -0.5671575689014464,
                -0.39161174125291315,
                -0.17189274259634435,
                1.1208156296002632,
                0.8150781631811678,
                0.5865603049883767
            ]
        },
        {
            "positions": [
                -0.5211817674378013,
                -0.417849861184689,
                -0.026246845496704863,
                1.1787502132869836,
                0.7521176909402244,
                0.5421989231461327
            ]
        },
        {
            "positions": [
                -0.4752059659741562,
                -0.44408798111646475,
                0.11939905160293462,
                1.2366847969737038,
                0.6891572186992811,
                0.4978375413038887
            ]
        },
        {
            "positions": [
                -0.4292301645105111,
                -0.47032610104824063,
                0.26504494870257456,
                1.2946193806604243,
                0.6261967464583377,
                0.45347615946164455
            ]
        },
        {
            "positions": [
                -0.3832543630468661,
                -0.4965642209800164,
                0.41069084580221404,
                1.3525539643471445,
                0.5632362742173944,
                0.4091147776194005
            ]
        },
        {
            "positions": [
                -0.337278561583221,
                -0.5228023409117922,
                0.5563367429018535,
                1.410488548033865,
                0.500275801976451,
                0.3647533957771564
            ]
        },
        {
            "positions": [
                -0.2913027601195759,
                -0.549040460843568,
                0.701982640001493,
                1.4684231317205851,
                0.4373153297355079,
                0.32039201393491235
            ]
        },
        {
            "positions": [
                -0.2453269586559308,
                -0.5752785807753439,
                0.847628537101133,
                1.5263577154073056,
                0.3743548574945643,
                0.2760306320926682
            ]
        },
        {
            "positions": [
                -0.1993511571922858,
                -0.6015167007071196,
                0.993274434200772,
                1.5842922990940258,
                0.3113943852536212,
                0.23166925025042429
            ]
        },
        {
            "positions": [
                -0.1533753557286407,
                -0.6277548206388954,
                1.138920331300412,
                1.6422268827807462,
                0.2484339130126778,
                0.18730786840818014
            ]
        },
        {
            "positions": [
                -0.1073995542649957,
                -0.6539929405706713,
                1.2845662284000514,
                1.7001614664674665,
                0.18547344077173444,
                0.14294648656593612
            ]
        },
        {
            "positions": [
                -0.061423752801350595,
                -0.6802310605024471,
                1.430212125499691,
                1.7580960501541867,
                0.12251296853079108,
                0.09858510472369209
            ]
        },
        {
            "positions": [
                -0.01544795133770549,
                -0.7064691804342229,
                1.5758580225993304,
                1.816030633840907,
                0.059552496289847934,
                0.054223722881447944
            ]
        },
        {
            "positions": [
                0.030527850125939615,
                -0.7327073003659987,
                1.7215039196989703,
                1.8739652175276273,
                -0.003407975951095432,
                0.009862341039203804
            ]
        },
        {
            "positions": [
                0.07650365158958472,
                -0.7589454202977746,
                1.8671498167986094,
                1.9318998012143476,
                -0.0663684481920388,
                -0.034499040803040115
            ]
        },
        {
            "positions": [
                0.1224794530532298,
                -0.7851835402295504,
                2.012795713898249,
                1.989834384901068,
                -0.12932892043298208,
                -0.07886042264528428
            ]
        }
    ]
}