{
    "goal": {
        "global_pose": {
            "orientation": {
                "w": 0.7047431468963623,
                "x": -0.7094548344612122,
                "y": 0.0024358443915843964,
                "z": -0.0022348060738295317
            },
            "position": {
                "x": 0.6094750761985779,
                "y": 0.3671506643295288,
                "z": 0.19426114857196808
            }
        },
        "name": "move_to_magneteinheit_A"
    },
    "id": "LBTRRT_move_to_magneteinheit_A_146",
    "joint_names": [
        "shoulder_pan_joint",
        "shoulder_lift_joint",
        "elbow_joint",
        "wrist_1_joint",
        "wrist_2_joint",
        "wrist_3_joint"
    ],
    "metrics": {
        "cart_traj_len": 2.0683566144687844,
        "distance_elbow_joint": 3.8975907479849337,
        "distance_shoulder_lift_joint": 1.066394508741875,
        "distance_shoulder_pan_joint": 1.2406730870109008,
        "distance_wrist_1_joint": 1.2312697504756855,
        "distance_wrist_2_joint": 1.4346476196158249,
        "distance_wrist_3_joint": 1.9967464114475435,
        "smoothness": 2.4501473840910184e-16,
        "time": 5.016143157999999,
        "traj_len": 3.296562167664484,
        "weighted_distance": 4.186494036573246
    },
    "planner": "LBTRRT",
    "start": {
        "state": {
            "elbow_joint": -1.919643507792019,
            "shoulder_lift_joint": -0.07675430207160344,
            "shoulder_pan_joint": -1.1188671864651873,
            "wrist_1_joint": 0.42560062535961957,
            "wrist_2_joint": 1.5706038300724876,
            "wrist_3_joint": 1.1188968870953055
        }
    },
    "waypoints": [
        {
            "positions": [
                -1.1188671864651873,
                -0.07675430207160344,
                -1.919643507792019,
                0.42560062535961957,
                1.5706038300724876,
                1.1188968870953055
            ]
        },
        {
            "positions": [
                -1.074557433357655,
                -0.11483982024095613,
                -1.7804438382211285,
                0.38162670569977364,
                1.519366415086208,
                1.1902092589327178
            ]
        },
        {
            "positions": [
                -1.030247680250123,
                -0.1529253384103088,
                -1.6412441686502381,
                0.33765278603992777,
                1.4681290000999287,
                1.26152163077013
            ]
        },
        {
            "positions": [
                -0.9859379271425909,
                -0.19101085657966146,
                -1.5020444990793478,
                0.29367886638008184,
                1.4168915851136492,
                1.3328340026075423
            ]
        },
        {
            "positions": [
                -0.9416281740350587,
                -0.22909637474901415,
                -1.3628448295084572,
                0.24970494672023594,
                1.3656541701273697,
                1.4041463744449545
            ]
        },
        {
            "positions": [
                -0.8973184209275265,
                -0.2671818929183668,
                -1.2236451599375666,
                0.20573102706039,
                1.3144167551410904,
                1.475458746282367
            ]
        },
        {
            "positions": [
                -0.8530086678199944,
                -0.3052674110877195,
                -1.0844454903666763,
                0.1617571074005441,
                1.2631793401548108,
                1.5467711181197792
            ]
        },
        {
            "positions": [
                -0.8086989147124621,
                -0.34335292925707217,
                -0.9452458207957857,
                0.11778318774069818,
                1.2119419251685315,
                1.6180834899571914
            ]
        },
        {
            "positions": [
                -0.76438916160493,
                -0.38143844742642485,
                -0.8060461512248953,
                0.07380926808085231,
                1.160704510182252,
                1.6893958617946037
            ]
        },
        {
            "positions": [
                -0.7200794084973978,
                -0.41952396559577754,
                -0.6668464816540045,
                0.029835348421006325,
                1.1094670951959724,
                1.7607082336320161
            ]
        },
        {
            "positions": [
                -0.6757696553898656,
                -0.4576094837651302,
                -0.5276468120831141,
                -0.014138571238839548,
                1.0582296802096929,
                1.8320206054694284
            ]
        },
        {
            "positions": [
                -0.6314599022823335,
                -0.49569500193448285,
                -0.3884471425122238,
                -0.058112490898685476,
                1.0069922652234136,
                1.9033329773068406
            ]
        },
        {
            "positions": [
                -0.5871501491748014,
                -0.5337805201038355,
                -0.24924747294133343,
                -0.10208641055853135,
                0.9557548502371341,
                1.9746453491442528
            ]
        },
        {
            "positions": [
                -0.5428403960672691,
                -0.5718660382731882,
                -0.11004780337044262,
                -0.14606033021837733,
                0.9045174352508546,
                2.045957720981665
            ]
        },
        {
            "positions": [
                -0.4985306429597369,
                -0.6099515564425408,
                0.02915186620044774,
                -0.1900342498782232,
                0.8532800202645752,
                2.1172700928190773
            ]
        },
        {
            "positions": [
                -0.45422088985220477,
                -0.6480370746118935,
                0.1683515357713381,
                -0.23400816953806908,
                0.8020426052782957,
                2.1885824646564895
            ]
        },
        {
            "positions": [
                -0.4099111367446726,
                -0.6861225927812462,
                0.30755120534222846,
                -0.27798208919791495,
                0.7508051902920163,
                2.2598948364939018
            ]
        },
        {
            "positions": [
                -0.36560138363714045,
                -0.7242081109505989,
                0.4467508749131188,
                -0.32195600885776093,
                0.6995677753057369,
                2.331207208331314
            ]
        },
        {
            "positions": [
                -0.3212916305296082,
                -0.7622936291199516,
                0.5859505444840101,
                -0.3659299285176069,
                0.6483303603194572,
                2.4025195801687262
            ]
        },
        {
            "positions": [
                -0.27698187742207603,
                -0.8003791472893043,
                0.7251502140549004,
                -0.4099038481774528,
                0.5970929453331778,
                2.4738319520061385
            ]
        },
        {
            "positions": [
                -0.23267212431454387,
                -0.8384646654586569,
                0.8643498836257908,
                -0.45387776783729866,
                0.5458555303468984,
                2.5451443238435507
            ]
        },
        {
            "positions": [
                -0.18836237120701171,
                -0.8765501836280096,
                1.0035495531966812,
                -0.49785168749714465,
                0.49461811536061906,
                2.616456695680963
            ]
        },
        {
            "positions": [
                -0.14405261809947956,
                -0.9146357017973623,
                1.1427492227675715,
                -0.5418256071569905,
                0.4433807003743395,
                2.687769067518375
            ]
        },
        {
            "positions": [
                -0.0997428649919474,
                -0.952721219966715,
                1.2819488923384619,
                -0.5857995268168363,
                0.39214328538806,
                2.7590814393557874
            ]
        },
        {
            "positions": [
                -0.055433111884415354,
                -0.9908067381360677,
                1.4211485619093522,
                -0.6297734464766822,
                0.34090587040178066,
                2.8303938111931997
            ]
        },
        {
            "positions": [
                -0.011123358776882863,
                -1.0288922563054204,
                1.5603482314802435,
                -0.6737473661365283,
                0.2896684554155011,
                2.9017061830306123
            ]
        },
        {
            "positions": [
                0.03318639433064918,
                -1.066977774474773,
                1.6995479010511338,
                -0.7177212857963742,
                0.23843104042922159,
                2.9730185548680246
            ]
        },
        {
            "positions": [
                0.07749614743818145,
                -1.1050632926441257,
                1.8387475706220242,
                -0.76169520545622,
                0.18719362544294227,
                3.044330926705437
            ]
        },
        {
            "positions": [
                0.12180590054571344,
                -1.1431488108134784,
                1.9779472401929146,
                -0.8056691251160659,
                0.13595621045666267,
                3.115643298542849
            ]
        }
    ]
}