{
    "goal": {
        "global_pose": {
            "orientation": {
                "w": 0.5084816217422485,
                "x": -0.49083608388900757,
                "y": 0.5182115435600281,
                "z": -0.4816462993621826
            },
            "position": {
                "x": 0.5540239810943604,
                "y": 0.030875300988554955,
                "z": 0.16403168439865112
            }
        },
        "name": "move_to_storage_A"
    },
    "id": "LBTRRT_move_to_storage_A_2",
    "joint_names": [
        "shoulder_pan_joint",
        "shoulder_lift_joint",
        "elbow_joint",
        "wrist_1_joint",
        "wrist_2_joint",
        "wrist_3_joint"
    ],
    "metrics": {
        "cart_traj_len": 0.3525633087172813,
        "distance_elbow_joint": 0.45449676268832784,
        "distance_shoulder_lift_joint": 0.2332869666083499,
        "distance_shoulder_pan_joint": 0.4579023632295967,
        "distance_wrist_1_joint": 0.2621584685774073,
        "distance_wrist_2_joint": 1.111376806432837,
        "distance_wrist_3_joint": 0.1096426523662406,
        "smoothness": 4.440892133664971e-16,
        "time": 5.003401682,
        "traj_len": 1.6213771985268448,
        "weighted_distance": 2.054673842644006
    },
    "planner": "LBTRRT",
    "start": {
        "state": {
            "elbow_joint": 1.9715463870305268,
            "shoulder_lift_joint": -1.1394903361783484,
            "shoulder_pan_joint": 0.12281147578464417,
            "wrist_1_joint": -0.7804599489681411,
            "wrist_2_joint": 0.12958660307563738,
            "wrist_3_joint": -3.1924946282119055
        }
    },
    "waypoints": [
        {
            "positions": [
                0.12281147578464417,
                -1.1394903361783484,
                1.9715463870305268,
                -0.7804599489681411,
                0.12958660307563738,
                -3.1924946282119055
            ]
        },
        {
            "positions": [
                0.057396852466130355,
                -1.172817045693827,
                2.036474495986002,
                -0.8179111587649136,
                0.2883547182803284,
                -3.1768313921595857
            ]
        },
        {
            "positions": [
                -0.008017770852383463,
                -1.2061437552093055,
                2.1014026049414776,
                -0.855362368561686,
                0.44712283348501936,
                -3.1611681561072653
            ]
        },
        {
            "positions": [
                -0.07343239417089727,
                -1.239470464724784,
                2.166330713896953,
                -0.8928135783584585,
                0.6058909486897104,
                -3.1455049200549454
            ]
        },
        {
            "positions": [
                -0.13884701748941108,
                -1.2727971742402626,
                2.2312588228524284,
                -0.930264788155231,
                0.7646590638944014,
                -3.129841684002625
            ]
        },
        {
            "positions": [
                -0.20426164080792492,
                -1.3061238837557412,
                2.296186931807904,
                -0.9677159979520035,
                0.9234271790990924,
                -3.114178447950305
            ]
        },
        {
            "positions": [
                -0.2696762641264387,
                -1.3394505932712197,
                2.361115040763379,
                -1.0051672077487759,
                1.0821952943037834,
                -3.098515211897985
            ]
        },
        {
            "positions": [
                -0.3350908874449525,
                -1.3727773027866983,
                2.4260431497188546,
                -1.0426184175455484,
                1.2409634095084745,
                -3.082851975845665
            ]
        }
    ]
}