{
    "goal": {
        "global_pose": {
            "orientation": {
                "w": 0.7047431468963623,
                "x": -0.7094548344612122,
                "y": 0.0024358443915843964,
                "z": -0.0022348060738295317
            },
            "position": {
                "x": 0.6094750761985779,
                "y": 0.3671506643295288,
                "z": 0.19426114857196808
            }
        },
        "name": "move_to_magneteinheit_A"
    },
    "id": "LBTRRT_move_to_magneteinheit_A_35",
    "joint_names": [
        "shoulder_pan_joint",
        "shoulder_lift_joint",
        "elbow_joint",
        "wrist_1_joint",
        "wrist_2_joint",
        "wrist_3_joint"
    ],
    "metrics": {
        "cart_traj_len": 1.880223513086785,
        "distance_elbow_joint": 3.9117913996443026,
        "distance_shoulder_lift_joint": 0.6991918047040151,
        "distance_shoulder_pan_joint": 1.2411159572004755,
        "distance_wrist_1_joint": 1.487124433619526,
        "distance_wrist_2_joint": 1.696622774137322,
        "distance_wrist_3_joint": 1.1038979836939693,
        "smoothness": 4.605369582982944e-16,
        "time": 5.015075054,
        "traj_len": 3.184296524037862,
        "weighted_distance": 3.940975453887578
    },
    "planner": "LBTRRT",
    "start": {
        "state": {
            "elbow_joint": -1.919643507792019,
            "shoulder_lift_joint": -0.07675430207160344,
            "shoulder_pan_joint": -1.1188671864651873,
            "wrist_1_joint": 0.42560062535961957,
            "wrist_2_joint": 1.5706038300724876,
            "wrist_3_joint": 1.1188968870953055
        }
    },
    "waypoints": [
        {
            "positions": [
                -1.1188671864651873,
                -0.07675430207160344,
                -1.919643507792019,
                0.42560062535961957,
                1.5706038300724876,
                1.1188968870953055
            ]
        },
        {
            "positions": [
                -1.071131957342092,
                -0.10364629456021941,
                -1.7691899924210843,
                0.48279771896037055,
                1.505349107990283,
                1.076439272337845
            ]
        },
        {
            "positions": [
                -1.0233967282189969,
                -0.13053828704883538,
                -1.6187364770501498,
                0.5399948125611216,
                1.4400943859080781,
                1.0339816575803848
            ]
        },
        {
            "positions": [
                -0.9756614990959017,
                -0.15743027953745134,
                -1.4682829616792148,
                0.5971919061618726,
                1.3748396638258735,
                0.9915240428229245
            ]
        },
        {
            "positions": [
                -0.9279262699728065,
                -0.18432227202606732,
                -1.3178294463082803,
                0.6543889997626235,
                1.309584941743669,
                0.9490664280654642
            ]
        },
        {
            "positions": [
                -0.8801910408497113,
                -0.21121426451468328,
                -1.1673759309373455,
                0.7115860933633746,
                1.244330219661464,
                0.9066088133080037
            ]
        },
        {
            "positions": [
                -0.8324558117266161,
                -0.23810625700329924,
                -1.0169224155664107,
                0.7687831869641255,
                1.1790754975792594,
                0.8641511985505435
            ]
        },
        {
            "positions": [
                -0.7847205826035208,
                -0.2649982494919152,
                -0.8664689001954762,
                0.8259802805648766,
                1.1138207754970548,
                0.821693583793083
            ]
        },
        {
            "positions": [
                -0.7369853534804256,
                -0.29189024198053115,
                -0.7160153848245414,
                0.8831773741656276,
                1.04856605341485,
                0.7792359690356226
            ]
        },
        {
            "positions": [
                -0.6892501243573305,
                -0.3187822344691471,
                -0.5655618694536066,
                0.9403744677663786,
                0.9833113313326454,
                0.7367783542781623
            ]
        },
        {
            "positions": [
                -0.6415148952342352,
                -0.3456742269577631,
                -0.4151083540826719,
                0.9975715613671297,
                0.9180566092504406,
                0.694320739520702
            ]
        },
        {
            "positions": [
                -0.59377966611114,
                -0.3725662194463791,
                -0.26465483871173734,
                1.0547686549678805,
                0.8528018871682359,
                0.6518631247632416
            ]
        },
        {
            "positions": [
                -0.5460444369880447,
                -0.39945821193499503,
                -0.11420132334080235,
                1.1119657485686316,
                0.7875471650860312,
                0.6094055100057812
            ]
        },
        {
            "positions": [
                -0.4983092078649496,
                -0.426350204423611,
                0.03625219203013219,
                1.1691628421693825,
                0.7222924430038266,
                0.5669478952483209
            ]
        },
        {
            "positions": [
                -0.45057397874185445,
                -0.45324219691222695,
                0.18670570740106673,
                1.2263599357701336,
                0.6570377209216219,
                0.5244902804908605
            ]
        },
        {
            "positions": [
                -0.4028387496187592,
                -0.4801341894008429,
                0.3371592227720013,
                1.2835570293708845,
                0.5917829988394172,
                0.4820326657334002
            ]
        },
        {
            "positions": [
                -0.35510352049566396,
                -0.5070261818894589,
                0.48761273814293626,
                1.3407541229716355,
                0.5265282767572124,
                0.43957505097593974
            ]
        },
        {
            "positions": [
                -0.3073682913725687,
                -0.5339181743780749,
                0.6380662535138713,
                1.3979512165723866,
                0.46127355467500775,
                0.3971174362184795
            ]
        },
        {
            "positions": [
                -0.2596330622494736,
                -0.5608101668666908,
                0.7885197688848058,
                1.4551483101731375,
                0.3960188325928031,
                0.35465982146101915
            ]
        },
        {
            "positions": [
                -0.21189783312637833,
                -0.5877021593553067,
                0.9389732842557403,
                1.5123454037738886,
                0.3307641105105985,
                0.3122022067035588
            ]
        },
        {
            "positions": [
                -0.16416260400328309,
                -0.6145941518439229,
                1.0894267996266753,
                1.5695424973746397,
                0.26550938842839367,
                0.26974459194609834
            ]
        },
        {
            "positions": [
                -0.11642737488018784,
                -0.6414861443325388,
                1.2398803149976099,
                1.6267395909753906,
                0.20025466634618905,
                0.227286977188638
            ]
        },
        {
            "positions": [
                -0.0686921457570926,
                -0.6683781368211548,
                1.3903338303685444,
                1.6839366845761417,
                0.1349999442639842,
                0.18482936243117765
            ]
        },
        {
            "positions": [
                -0.02095691663399757,
                -0.6952701293097707,
                1.5407873457394794,
                1.7411337781768925,
                0.06974522218177959,
                0.1423717476737174
            ]
        },
        {
            "positions": [
                0.0267783124890979,
                -0.7221621217983867,
                1.6912408611104144,
                1.7983308717776436,
                0.004490500099574746,
                0.09991413291625695
            ]
        },
        {
            "positions": [
                0.07451354161219292,
                -0.7490541142870026,
                1.841694376481349,
                1.8555279653783947,
                -0.060764221982629874,
                0.05745651815879649
            ]
        },
        {
            "positions": [
                0.1222487707352882,
                -0.7759461067756186,
                1.9921478918522832,
                1.9127250589791456,
                -0.12601894406483458,
                0.014998903401336161
            ]
        }
    ]
}