{
    "goal": {
        "global_pose": {
            "orientation": {
                "w": 0.7047431468963623,
                "x": -0.7094548344612122,
                "y": 0.0024358443915843964,
                "z": -0.0022348060738295317
            },
            "position": {
                "x": 0.6094750761985779,
                "y": 0.3671506643295288,
                "z": 0.19426114857196808
            }
        },
        "name": "move_to_magneteinheit_A"
    },
    "id": "LBTRRT_move_to_magneteinheit_A_83",
    "joint_names": [
        "shoulder_pan_joint",
        "shoulder_lift_joint",
        "elbow_joint",
        "wrist_1_joint",
        "wrist_2_joint",
        "wrist_3_joint"
    ],
    "metrics": {
        "cart_traj_len": 2.113701074359717,
        "distance_elbow_joint": 3.9008629494242473,
        "distance_shoulder_lift_joint": 1.0685089422894334,
        "distance_shoulder_pan_joint": 1.2411366432182398,
        "distance_wrist_1_joint": 1.2380691977695615,
        "distance_wrist_2_joint": 1.5254822826380094,
        "distance_wrist_3_joint": 4.291032365966403,
        "smoothness": 0.027695341187004553,
        "time": 5.066148323,
        "traj_len": 3.642127452644387,
        "weighted_distance": 4.960918120030431
    },
    "planner": "LBTRRT",
    "start": {
        "state": {
            "elbow_joint": -1.919643507792019,
            "shoulder_lift_joint": -0.07675430207160344,
            "shoulder_pan_joint": -1.1188671864651873,
            "wrist_1_joint": 0.42560062535961957,
            "wrist_2_joint": 1.5706038300724876,
            "wrist_3_joint": 1.1188968870953055
        }
    },
    "waypoints": [
        {
            "positions": [
                -1.1188671864651873,
                -0.07675430207160344,
                -1.919643507792019,
                0.42560062535961957,
                1.5706038300724876,
                1.1188968870953055
            ]
        },
        {
            "positions": [
                -1.0987568078353955,
                -0.11920999579132283,
                -1.8431700164653246,
                0.4046184664319434,
                1.581851153401818,
                0.9365017131986539
            ]
        },
        {
            "positions": [
                -1.0786464292056037,
                -0.1616656895110422,
                -1.76669652513863,
                0.38363630750426714,
                1.5930984767311487,
                0.7541065393020023
            ]
        },
        {
            "positions": [
                -1.058536050575812,
                -0.20412138323076157,
                -1.6902230338119355,
                0.36265414857659095,
                1.604345800060479,
                0.5717113654053506
            ]
        },
        {
            "positions": [
                -1.03842567194602,
                -0.24657707695048095,
                -1.613749542485241,
                0.34167198964891476,
                1.6155931233898095,
                0.389316191508699
            ]
        },
        {
            "positions": [
                -0.9997358343227176,
                -0.2765332825308328,
                -1.4939172430146588,
                0.3032006375802862,
                1.5662433570791199,
                0.27060113582937245
            ]
        },
        {
            "positions": [
                -0.9610459966994153,
                -0.3064894881111847,
                -1.3740849435440765,
                0.26472928551165764,
                1.5168935907684304,
                0.15188608015004587
            ]
        },
        {
            "positions": [
                -0.9223561590761128,
                -0.33644569369153654,
                -1.2542526440734942,
                0.22625793344302908,
                1.4675438244577408,
                0.03317102447071929
            ]
        },
        {
            "positions": [
                -0.8836663214528104,
                -0.3664018992718884,
                -1.134420344602912,
                0.18778658137440055,
                1.4181940581470511,
                -0.08554403120860726
            ]
        },
        {
            "positions": [
                -0.844976483829508,
                -0.39635810485224027,
                -1.0145880451323297,
                0.14931522930577198,
                1.3688442918363617,
                -0.20425908688793382
            ]
        },
        {
            "positions": [
                -0.8062866462062056,
                -0.42631431043259216,
                -0.8947557456617472,
                0.1108438772371434,
                1.319494525525672,
                -0.3229741425672604
            ]
        },
        {
            "positions": [
                -0.7675968085829031,
                -0.456270516012944,
                -0.7749234461911649,
                0.07237252516851483,
                1.2701447592149824,
                -0.4416891982465869
            ]
        },
        {
            "positions": [
                -0.7289069709596008,
                -0.48622672159329583,
                -0.6550911467205827,
                0.03390117309988633,
                1.220794992904293,
                -0.5604042539259135
            ]
        },
        {
            "positions": [
                -0.6902171333362983,
                -0.5161829271736478,
                -0.5352588472500004,
                -0.004570178968742233,
                1.1714452265936033,
                -0.67911930960524
            ]
        },
        {
            "positions": [
                -0.651527295712996,
                -0.5461391327539996,
                -0.4154265477794181,
                -0.043041531037370795,
                1.1220954602829138,
                -0.7978343652845666
            ]
        },
        {
            "positions": [
                -0.6128374580896936,
                -0.5760953383343514,
                -0.29559424830883585,
                -0.08151288310599936,
                1.0727456939722242,
                -0.916549420963893
            ]
        },
        {
            "positions": [
                -0.5741476204663911,
                -0.6060515439147034,
                -0.17576194883825336,
                -0.11998423517462797,
                1.0233959276615345,
                -1.0352644766432197
            ]
        },
        {
            "positions": [
                -0.5354577828430886,
                -0.6360077494950552,
                -0.055929649367671086,
                -0.15845558724325648,
                0.9740461613508449,
                -1.1539795323225466
            ]
        },
        {
            "positions": [
                -0.4967679452197862,
                -0.6659639550754071,
                0.06390265010291118,
                -0.1969269393118851,
                0.9246963950401553,
                -1.272694588001873
            ]
        },
        {
            "positions": [
                -0.4580781075964838,
                -0.6959201606557589,
                0.18373494957349346,
                -0.2353982913805136,
                0.8753466287294658,
                -1.3914096436811993
            ]
        },
        {
            "positions": [
                -0.41938826997318146,
                -0.7258763662361107,
                0.3035672490440757,
                -0.2738696434491421,
                0.8259968624187762,
                -1.5101246993605262
            ]
        },
        {
            "positions": [
                -0.380698432349879,
                -0.7558325718164626,
                0.423399548514658,
                -0.3123409955177707,
                0.7766470961080867,
                -1.6288397550398526
            ]
        },
        {
            "positions": [
                -0.34200859472657663,
                -0.7857887773968145,
                0.5432318479852403,
                -0.35081234758639923,
                0.727297329797397,
                -1.747554810719179
            ]
        },
        {
            "positions": [
                -0.30331875710327416,
                -0.8157449829771664,
                0.6630641474558225,
                -0.38928369965502785,
                0.6779475634867075,
                -1.8662698663985053
            ]
        },
        {
            "positions": [
                -0.2646289194799718,
                -0.8457011885575182,
                0.7828964469264048,
                -0.42775505172365635,
                0.6285977971760179,
                -1.9849849220778322
            ]
        },
        {
            "positions": [
                -0.22593908185666933,
                -0.87565739413787,
                0.9027287463969871,
                -0.46622640379228486,
                0.5792480308653283,
                -2.1036999777571586
            ]
        },
        {
            "positions": [
                -0.18724924423336697,
                -0.9056135997182219,
                1.0225610458675694,
                -0.5046977558609135,
                0.5298982645546388,
                -2.222415033436485
            ]
        },
        {
            "positions": [
                -0.1485594066100644,
                -0.9355698052985739,
                1.142393345338152,
                -0.5431691079295421,
                0.48054849824394896,
                -2.341130089115812
            ]
        },
        {
            "positions": [
                -0.10986956898676203,
                -0.9655260108789258,
                1.2622256448087343,
                -0.5816404599981707,
                0.4311987319332595,
                -2.4598451447951386
            ]
        },
        {
            "positions": [
                -0.07117973136345956,
                -0.9954822164592776,
                1.3820579442793166,
                -0.6201118120667992,
                0.38184896562256987,
                -2.578560200474465
            ]
        },
        {
            "positions": [
                -0.032489893740157205,
                -1.0254384220396295,
                1.5018902437498989,
                -0.6585831641354277,
                0.3324991993118802,
                -2.697275256153792
            ]
        },
        {
            "positions": [
                0.006199943883145265,
                -1.0553946276199813,
                1.6217225432204811,
                -0.6970545162040563,
                0.2831494330011908,
                -2.815990311833118
            ]
        },
        {
            "positions": [
                0.044889781506447735,
                -1.0853508332003332,
                1.7415548426910634,
                -0.735525868272685,
                0.23379966669050112,
                -2.9347053675124446
            ]
        },
        {
            "positions": [
                0.08357961912974998,
                -1.1153070387806852,
                1.8613871421616457,
                -0.7739972203413134,
                0.18444990037981168,
                -3.0534204231917714
            ]
        },
        {
            "positions": [
                0.1222694567530524,
                -1.1452632443610369,
                1.981219441632228,
                -0.8124685724099421,
                0.13510013406912208,
                -3.172135478871098
            ]
        }
    ]
}