{
    "goal": {
        "global_pose": {
            "orientation": {
                "w": 0.7047431468963623,
                "x": -0.7094548344612122,
                "y": 0.0024358443915843964,
                "z": -0.0022348060738295317
            },
            "position": {
                "x": 0.6094750761985779,
                "y": 0.3671506643295288,
                "z": 0.19426114857196808
            }
        },
        "name": "move_to_magneteinheit_A"
    },
    "id": "LBTRRT_move_to_magneteinheit_A_78",
    "joint_names": [
        "shoulder_pan_joint",
        "shoulder_lift_joint",
        "elbow_joint",
        "wrist_1_joint",
        "wrist_2_joint",
        "wrist_3_joint"
    ],
    "metrics": {
        "cart_traj_len": 2.0691782978281235,
        "distance_elbow_joint": 3.89387624168951,
        "distance_shoulder_lift_joint": 1.0633169693949232,
        "distance_shoulder_pan_joint": 1.242251276023842,
        "distance_wrist_1_joint": 1.2130083692412723,
        "distance_wrist_2_joint": 1.4315574119986212,
        "distance_wrist_3_joint": 1.9722027115230483,
        "smoothness": 2.143878952441023e-16,
        "time": 5.008068111,
        "traj_len": 3.288801146294987,
        "weighted_distance": 4.171952083156902
    },
    "planner": "LBTRRT",
    "start": {
        "state": {
            "elbow_joint": -1.919643507792019,
            "shoulder_lift_joint": -0.07675430207160344,
            "shoulder_pan_joint": -1.1188671864651873,
            "wrist_1_joint": 0.42560062535961957,
            "wrist_2_joint": 1.5706038300724876,
            "wrist_3_joint": 1.1188968870953055
        }
    },
    "waypoints": [
        {
            "positions": [
                -1.1188671864651873,
                -0.07675430207160344,
                -1.919643507792019,
                0.42560062535961957,
                1.5706038300724876,
                1.1188968870953055
            ]
        },
        {
            "positions": [
                -1.0745010694643358,
                -0.11472990812142211,
                -1.7805764991602508,
                0.382278897886717,
                1.5194767796439654,
                1.1893326982211287
            ]
        },
        {
            "positions": [
                -1.0301349524634844,
                -0.15270551417124079,
                -1.6415094905284826,
                0.3389571704138144,
                1.4683497292154433,
                1.259768509346952
            ]
        },
        {
            "positions": [
                -0.9857688354626328,
                -0.19068112022105949,
                -1.5024424818967144,
                0.2956354429409118,
                1.417222678786921,
                1.330204320472775
            ]
        },
        {
            "positions": [
                -0.9414027184617814,
                -0.22865672627087816,
                -1.3633754732649463,
                0.25231371546800924,
                1.366095628358399,
                1.4006401315985981
            ]
        },
        {
            "positions": [
                -0.8970366014609299,
                -0.26663233232069683,
                -1.2243084646331779,
                0.20899198799510665,
                1.3149685779298768,
                1.4710759427244213
            ]
        },
        {
            "positions": [
                -0.8526704844600783,
                -0.30460793837051553,
                -1.0852414560014099,
                0.16567026052220407,
                1.2638415275013546,
                1.5415117538502443
            ]
        },
        {
            "positions": [
                -0.8083043674592268,
                -0.34258354442033423,
                -0.9461744473696416,
                0.12234853304930149,
                1.2127144770728324,
                1.6119475649760675
            ]
        },
        {
            "positions": [
                -0.7639382504583754,
                -0.3805591504701529,
                -0.8071074387378734,
                0.0790268055763989,
                1.16158742664431,
                1.6823833761018907
            ]
        },
        {
            "positions": [
                -0.7195721334575238,
                -0.41853475651997163,
                -0.6680404301061051,
                0.03570507810349627,
                1.1104603762157879,
                1.752819187227714
            ]
        },
        {
            "positions": [
                -0.6752060164566723,
                -0.4565103625697903,
                -0.5289734214743369,
                -0.007616649369406259,
                1.0593333257872657,
                1.823254998353537
            ]
        },
        {
            "positions": [
                -0.6308398994558209,
                -0.494485968619609,
                -0.3899064128425689,
                -0.05093837684230884,
                1.0082062753587437,
                1.8936908094793603
            ]
        },
        {
            "positions": [
                -0.5864737824549694,
                -0.5324615746694277,
                -0.25083940421080064,
                -0.09426010431521142,
                0.9570792249302215,
                1.9641266206051833
            ]
        },
        {
            "positions": [
                -0.5421076654541178,
                -0.5704371807192463,
                -0.1117723955790324,
                -0.13758183178811406,
                0.9059521745016992,
                2.0345624317310067
            ]
        },
        {
            "positions": [
                -0.49774154845326635,
                -0.608412786769065,
                0.02729461305273584,
                -0.1809035592610166,
                0.854825124073177,
                2.10499824285683
            ]
        },
        {
            "positions": [
                -0.4533754314524149,
                -0.6463883928188836,
                0.16636162168450386,
                -0.22422528673391912,
                0.8036980736446548,
                2.175434053982653
            ]
        },
        {
            "positions": [
                -0.4090093144515634,
                -0.6843639988687023,
                0.3054286303162723,
                -0.26754701420682175,
                0.7525710232161327,
                2.245869865108476
            ]
        },
        {
            "positions": [
                -0.36464319745071194,
                -0.7223396049185211,
                0.44449563894804034,
                -0.3108687416797243,
                0.7014439727876105,
                2.316305676234299
            ]
        },
        {
            "positions": [
                -0.32027708044986025,
                -0.7603152109683398,
                0.5835626475798088,
                -0.35419046915262703,
                0.6503169223590882,
                2.3867414873601227
            ]
        },
        {
            "positions": [
                -0.2759109634490088,
                -0.7982908170181584,
                0.7226296562115768,
                -0.39751219662552956,
                0.599189871930566,
                2.4571772984859455
            ]
        },
        {
            "positions": [
                -0.23154484644815732,
                -0.836266423067977,
                0.8616966648433453,
                -0.4408339240984321,
                0.5480628215020438,
                2.5276131096117687
            ]
        },
        {
            "positions": [
                -0.18717872944730585,
                -0.8742420291177959,
                1.0007636734751133,
                -0.4841556515713346,
                0.4969357710735218,
                2.598048920737592
            ]
        },
        {
            "positions": [
                -0.14281261244645438,
                -0.9122176351676146,
                1.1398306821068813,
                -0.5274773790442373,
                0.44580872064499966,
                2.6684847318634146
            ]
        },
        {
            "positions": [
                -0.0984464954456028,
                -0.9501932412174332,
                1.2788976907386498,
                -0.5707991065171398,
                0.3946816702164775,
                2.738920542989238
            ]
        },
        {
            "positions": [
                -0.05408037844475144,
                -0.9881688472672518,
                1.4179646993704178,
                -0.6141208339900424,
                0.3435546197879553,
                2.809356354115061
            ]
        },
        {
            "positions": [
                -0.009714261443899863,
                -1.0261444533170705,
                1.5570317080021863,
                -0.6574425614629451,
                0.2924275693594329,
                2.879792165240884
            ]
        },
        {
            "positions": [
                0.034651855556951716,
                -1.0641200593668894,
                1.6960987166339543,
                -0.7007642889358476,
                0.24130051893091076,
                2.9502279763667074
            ]
        },
        {
            "positions": [
                0.07901797255780307,
                -1.102095665416708,
                1.8351657252657227,
                -0.7440860164087502,
                0.1901734685023886,
                3.0206637874925306
            ]
        },
        {
            "positions": [
                0.1233840895586546,
                -1.1400712714665266,
                1.9742327338974908,
                -0.7874077438816527,
                0.1390464180738664,
                3.091099598618354
            ]
        }
    ]
}