{
    "goal": {
        "global_pose": {
            "orientation": {
                "w": 0.5084816217422485,
                "x": -0.49083608388900757,
                "y": 0.5182115435600281,
                "z": -0.4816462993621826
            },
            "position": {
                "x": 0.5540239810943604,
                "y": 0.030875300988554955,
                "z": 0.16403168439865112
            }
        },
        "name": "move_to_storage_A"
    },
    "id": "LBTRRT_move_to_storage_A_144",
    "joint_names": [
        "shoulder_pan_joint",
        "shoulder_lift_joint",
        "elbow_joint",
        "wrist_1_joint",
        "wrist_2_joint",
        "wrist_3_joint"
    ],
    "metrics": {
        "cart_traj_len": 0.3538656824144474,
        "distance_elbow_joint": 0.4492859600441914,
        "distance_shoulder_lift_joint": 0.23472479755260567,
        "distance_shoulder_pan_joint": 0.46413668132376573,
        "distance_wrist_1_joint": 0.24108062113824336,
        "distance_wrist_2_joint": 1.0941345645065537,
        "distance_wrist_3_joint": 0.10183635758920939,
        "smoothness": 4.440892098500626e-16,
        "time": 5.002758245,
        "traj_len": 1.6078553983970603,
        "weighted_distance": 2.0307847948460185
    },
    "planner": "LBTRRT",
    "start": {
        "state": {
            "elbow_joint": 1.9715463870305268,
            "shoulder_lift_joint": -1.1394903361783484,
            "shoulder_pan_joint": 0.12281147578464417,
            "wrist_1_joint": -0.7804599489681411,
            "wrist_2_joint": 0.12958660307563738,
            "wrist_3_joint": -3.1924946282119055
        }
    },
    "waypoints": [
        {
            "positions": [
                0.12281147578464417,
                -1.1394903361783484,
                1.9715463870305268,
                -0.7804599489681411,
                0.12958660307563738,
                -3.1924946282119055
            ]
        },
        {
            "positions": [
                0.05650623559553479,
                -1.1730224501144348,
                2.0357300956082685,
                -0.8149000377021759,
                0.2858915408622879,
                -3.1779465771277327
            ]
        },
        {
            "positions": [
                -0.009799004593574592,
                -1.2065545640505215,
                2.09991380418601,
                -0.8493401264362106,
                0.4421964786489384,
                -3.16339852604356
            ]
        },
        {
            "positions": [
                -0.07610424478268397,
                -1.240086677986608,
                2.164097512763752,
                -0.8837802151702454,
                0.598501416435589,
                -3.1488504749593873
            ]
        },
        {
            "positions": [
                -0.14240948497179334,
                -1.2736187919226944,
                2.228281221341493,
                -0.9182203039042801,
                0.7548063542222395,
                -3.1343024238752144
            ]
        },
        {
            "positions": [
                -0.20871472516090278,
                -1.307150905858781,
                2.292464929919235,
                -0.9526603926383149,
                0.9111112920088901,
                -3.1197543727910415
            ]
        },
        {
            "positions": [
                -0.2750199653500121,
                -1.3406830197948676,
                2.3566486384969765,
                -0.9871004813723496,
                1.0674162297955405,
                -3.105206321706869
            ]
        },
        {
            "positions": [
                -0.34132520553912155,
                -1.374215133730954,
                2.420832347074718,
                -1.0215405701063844,
                1.223721167582191,
                -3.090658270622696
            ]
        }
    ]
}