{
    "goal": {
        "global_pose": {
            "orientation": {
                "w": 0.5084816217422485,
                "x": -0.49083608388900757,
                "y": 0.5182115435600281,
                "z": -0.4816462993621826
            },
            "position": {
                "x": 0.5540239810943604,
                "y": 0.030875300988554955,
                "z": 0.16403168439865112
            }
        },
        "name": "move_to_storage_A"
    },
    "id": "LBTRRT_move_to_storage_A_4",
    "joint_names": [
        "shoulder_pan_joint",
        "shoulder_lift_joint",
        "elbow_joint",
        "wrist_1_joint",
        "wrist_2_joint",
        "wrist_3_joint"
    ],
    "metrics": {
        "cart_traj_len": 0.35322386914329534,
        "distance_elbow_joint": 0.4512320832136565,
        "distance_shoulder_lift_joint": 0.23628586720652422,
        "distance_shoulder_pan_joint": 0.45904579100174076,
        "distance_wrist_1_joint": 0.24301242103397247,
        "distance_wrist_2_joint": 1.1126341696367166,
        "distance_wrist_3_joint": 0.0990826970549783,
        "smoothness": 4.440892098500626e-16,
        "time": 5.003382438,
        "traj_len": 1.6128524511397775,
        "weighted_distance": 2.0384074700432775
    },
    "planner": "LBTRRT",
    "start": {
        "state": {
            "elbow_joint": 1.9715463870305268,
            "shoulder_lift_joint": -1.1394903361783484,
            "shoulder_pan_joint": 0.12281147578464417,
            "wrist_1_joint": -0.7804599489681411,
            "wrist_2_joint": 0.12958660307563738,
            "wrist_3_joint": -3.1924946282119055
        }
    },
    "waypoints": [
        {
            "positions": [
                0.12281147578464417,
                -1.1394903361783484,
                1.9715463870305268,
                -0.7804599489681411,
                0.12958660307563738,
                -3.1924946282119055
            ]
        },
        {
            "positions": [
                0.057233505641538354,
                -1.1732454600649946,
                2.036008113203906,
                -0.8151760091158514,
                0.28853434159516833,
                -3.1783399572040514
            ]
        },
        {
            "positions": [
                -0.008344464501567464,
                -1.2070005839516411,
                2.100469839377286,
                -0.8498920692635618,
                0.44748208011469925,
                -3.1641852861961977
            ]
        },
        {
            "positions": [
                -0.07392243464467328,
                -1.2407557078382874,
                2.164931565550665,
                -0.8846081294112721,
                0.6064298186342302,
                -3.1500306151883435
            ]
        },
        {
            "positions": [
                -0.1395004047877791,
                -1.2745108317249336,
                2.229393291724045,
                -0.9193241895589825,
                0.7653775571537611,
                -3.1358759441804893
            ]
        },
        {
            "positions": [
                -0.20507837493088493,
                -1.30826595561158,
                2.293855017897424,
                -0.9540402497066929,
                0.9243252956732921,
                -3.121721273172635
            ]
        },
        {
            "positions": [
                -0.2706563450739907,
                -1.3420210794982264,
                2.3583167440708035,
                -0.9887563098544032,
                1.083273034192823,
                -3.1075666021647814
            ]
        },
        {
            "positions": [
                -0.33623431521709657,
                -1.3757762033848726,
                2.4227784702441832,
                -1.0234723700021136,
                1.242220772712354,
                -3.0934119311569273
            ]
        }
    ]
}