{
    "goal": {
        "global_pose": {
            "orientation": {
                "w": 0.7031023502349854,
                "x": -0.7110244035720825,
                "y": 0.007748599164187908,
                "z": 0.005598929710686207
            },
            "position": {
                "x": 0.11585023208521307,
                "y": 0.44412534475326537,
                "z": 0.3711530566215515
            }
        },
        "name": "move_to_auspresseinheit_A"
    },
    "id": "LBTRRT_move_to_auspresseinheit_A_135",
    "joint_names": [
        "shoulder_pan_joint",
        "shoulder_lift_joint",
        "elbow_joint",
        "wrist_1_joint",
        "wrist_2_joint",
        "wrist_3_joint"
    ],
    "metrics": {
        "cart_traj_len": 0.6522962078788297,
        "distance_elbow_joint": 0.1457527088591788,
        "distance_shoulder_lift_joint": 0.5329737729362172,
        "distance_shoulder_pan_joint": 1.0442853231398779,
        "distance_wrist_1_joint": 0.833195225917746,
        "distance_wrist_2_joint": 0.5184507683621215,
        "distance_wrist_3_joint": 0.12081498852760131,
        "smoothness": 0.4832179835537322,
        "time": 5.029189027,
        "traj_len": 1.7875885398331304,
        "weighted_distance": 2.1883209908689842
    },
    "planner": "LBTRRT",
    "start": {
        "state": {
            "elbow_joint": 2.422574709923281,
            "shoulder_lift_joint": -1.3736533754116391,
            "shoulder_pan_joint": -0.33786336945926293,
            "wrist_1_joint": -1.0288603412921917,
            "wrist_2_joint": 1.2330224858903978,
            "wrist_3_joint": -3.094022268022082
        }
    },
    "waypoints": [
        {
            "positions": [
                -0.33786336945926293,
                -1.3736533754116391,
                2.422574709923281,
                -1.0288603412921917,
                1.2330224858903978,
                -3.094022268022082
            ]
        },
        {
            "positions": [
                -0.2923640190466268,
                -1.4513267732112372,
                2.433884208069646,
                -0.8879564212351331,
                1.1942382271733636,
                -3.111050743678918
            ]
        },
        {
            "positions": [
                -0.2468646686339907,
                -1.5290001710108354,
                2.4451937062160103,
                -0.7470525011780744,
                1.1554539684563292,
                -3.128079219335754
            ]
        },
        {
            "positions": [
                -0.2013653182213546,
                -1.6066735688104334,
                2.456503204362375,
                -0.6061485811210159,
                1.116669709739295,
                -3.14510769499259
            ]
        },
        {
            "positions": [
                -0.15586596780871848,
                -1.6843469666100317,
                2.4678127025087395,
                -0.46524466106395723,
                1.0778854510222606,
                -3.162136170649426
            ]
        },
        {
            "positions": [
                -0.11036661739608236,
                -1.7620203644096297,
                2.4791222006551044,
                -0.3243407410068985,
                1.0391011923052265,
                -3.179164646306262
            ]
        },
        {
            "positions": [
                0.093830525373092,
                -1.7981720603941864,
                2.4568208961232654,
                -0.35650964741501173,
                0.9579688236109889,
                -3.1702464937454065
            ]
        },
        {
            "positions": [
                0.29802766814226633,
                -1.8343237563787431,
                2.4345195915914264,
                -0.3886785538231249,
                0.8768364549167513,
                -3.161328341184551
            ]
        },
        {
            "positions": [
                0.5022248109114408,
                -1.8704754523632996,
                2.412218287059588,
                -0.4208474602312381,
                0.7957040862225139,
                -3.152410188623696
            ]
        },
        {
            "positions": [
                0.7064219536806151,
                -1.9066271483478563,
                2.389916982527749,
                -0.4530163666393513,
                0.7145717175282763,
                -3.1434920360628404
            ]
        }
    ]
}