{
    "goal": {
        "global_pose": {
            "orientation": {
                "w": 0.5084816217422485,
                "x": -0.49083608388900757,
                "y": 0.5182115435600281,
                "z": -0.4816462993621826
            },
            "position": {
                "x": 0.5540239810943604,
                "y": 0.030875300988554955,
                "z": 0.16403168439865112
            }
        },
        "name": "move_to_storage_A"
    },
    "id": "LBTRRT_move_to_storage_A_49",
    "joint_names": [
        "shoulder_pan_joint",
        "shoulder_lift_joint",
        "elbow_joint",
        "wrist_1_joint",
        "wrist_2_joint",
        "wrist_3_joint"
    ],
    "metrics": {
        "cart_traj_len": 0.35335203479986066,
        "distance_elbow_joint": 0.45114667707001965,
        "distance_shoulder_lift_joint": 0.23653206439630958,
        "distance_shoulder_pan_joint": 0.4634817740181694,
        "distance_wrist_1_joint": 0.2400595475322721,
        "distance_wrist_2_joint": 1.0948040852558467,
        "distance_wrist_3_joint": 0.10606731915168988,
        "smoothness": 2.2204460668324854e-16,
        "time": 5.007993005,
        "traj_len": 1.6099973501295917,
        "weighted_distance": 2.0344752980844487
    },
    "planner": "LBTRRT",
    "start": {
        "state": {
            "elbow_joint": 1.9715463870305268,
            "shoulder_lift_joint": -1.1394903361783484,
            "shoulder_pan_joint": 0.12281147578464417,
            "wrist_1_joint": -0.7804599489681411,
            "wrist_2_joint": 0.12958660307563738,
            "wrist_3_joint": -3.1924946282119055
        }
    },
    "waypoints": [
        {
            "positions": [
                0.12281147578464417,
                -1.1394903361783484,
                1.9715463870305268,
                -0.7804599489681411,
                0.12958660307563738,
                -3.1924946282119055
            ]
        },
        {
            "positions": [
                0.056599793782048546,
                -1.173280631092107,
                2.0359959123262437,
                -0.8147541700441799,
                0.28598718668361545,
                -3.1773421540473783
            ]
        },
        {
            "positions": [
                -0.00961188822054708,
                -1.2070709260058654,
                2.100445437621961,
                -0.8490483911202188,
                0.4423877702915936,
                -3.1621896798828515
            ]
        },
        {
            "positions": [
                -0.07582357022314272,
                -1.240861220919624,
                2.164894962917678,
                -0.8833426121962576,
                0.5987883538995716,
                -3.1470372057183242
            ]
        },
        {
            "positions": [
                -0.14203525222573832,
                -1.2746515158333824,
                2.2293444882133953,
                -0.9176368332722966,
                0.7551889375075498,
                -3.131884731553797
            ]
        },
        {
            "positions": [
                -0.20824693422833396,
                -1.308441810747141,
                2.293794013509112,
                -0.9519310543483355,
                0.9115895211155279,
                -3.1167322573892697
            ]
        },
        {
            "positions": [
                -0.2744586162309296,
                -1.3422321056608995,
                2.358243538804829,
                -0.9862252754243743,
                1.0679901047235059,
                -3.101579783224743
            ]
        },
        {
            "positions": [
                -0.34067029823352524,
                -1.376022400574658,
                2.4226930641005464,
                -1.0205194965004132,
                1.2243906883314841,
                -3.0864273090602157
            ]
        }
    ]
}