{
    "goal": {
        "global_pose": {
            "orientation": {
                "w": 0.5084816217422485,
                "x": -0.49083608388900757,
                "y": 0.5182115435600281,
                "z": -0.4816462993621826
            },
            "position": {
                "x": 0.5540239810943604,
                "y": 0.030875300988554955,
                "z": 0.16403168439865112
            }
        },
        "name": "move_to_storage_A"
    },
    "id": "LBTRRT_move_to_storage_A_110",
    "joint_names": [
        "shoulder_pan_joint",
        "shoulder_lift_joint",
        "elbow_joint",
        "wrist_1_joint",
        "wrist_2_joint",
        "wrist_3_joint"
    ],
    "metrics": {
        "cart_traj_len": 0.3536394507013239,
        "distance_elbow_joint": 0.4497805202083529,
        "distance_shoulder_lift_joint": 0.2368592955257598,
        "distance_shoulder_pan_joint": 0.4626992493406847,
        "distance_wrist_1_joint": 0.23619336498303578,
        "distance_wrist_2_joint": 1.1001304202725692,
        "distance_wrist_3_joint": 0.0967386791904028,
        "smoothness": 1.1102230263833737e-15,
        "time": 5.00268763,
        "traj_len": 1.6069852300257166,
        "weighted_distance": 2.0278566697765443
    },
    "planner": "LBTRRT",
    "start": {
        "state": {
            "elbow_joint": 1.9715463870305268,
            "shoulder_lift_joint": -1.1394903361783484,
            "shoulder_pan_joint": 0.12281147578464417,
            "wrist_1_joint": -0.7804599489681411,
            "wrist_2_joint": 0.12958660307563738,
            "wrist_3_joint": -3.1924946282119055
        }
    },
    "waypoints": [
        {
            "positions": [
                0.12281147578464417,
                -1.1394903361783484,
                1.9715463870305268,
                -0.7804599489681411,
                0.12958660307563738,
                -3.1924946282119055
            ]
        },
        {
            "positions": [
                0.056711583021689216,
                -1.173327378396314,
                2.0358007470602915,
                -0.8142018582514319,
                0.2867480916860044,
                -3.1786748168989907
            ]
        },
        {
            "positions": [
                -0.00938830974126574,
                -1.2071644206142798,
                2.100055107090056,
                -0.8479437675347228,
                0.4439095802963714,
                -3.1648550055860762
            ]
        },
        {
            "positions": [
                -0.07548820250422068,
                -1.2410014628322454,
                2.164309467119821,
                -0.8816856768180136,
                0.6010710689067384,
                -3.1510351942731614
            ]
        },
        {
            "positions": [
                -0.14158809526717564,
                -1.2748385050502111,
                2.2285638271495856,
                -0.9154275861013044,
                0.7582325575171055,
                -3.137215382960247
            ]
        },
        {
            "positions": [
                -0.2076879880301306,
                -1.3086755472681768,
                2.2928181871793503,
                -0.9491694953845953,
                0.9153940461274725,
                -3.123395571647332
            ]
        },
        {
            "positions": [
                -0.2737878807930855,
                -1.3425125894861425,
                2.357072547209115,
                -0.982911404667886,
                1.0725555347378395,
                -3.1095757603344176
            ]
        },
        {
            "positions": [
                -0.3398877735560405,
                -1.3763496317041082,
                2.4213269072388797,
                -1.0166533139511769,
                1.2297170233482067,
                -3.0957559490215028
            ]
        }
    ]
}