{
    "goal": {
        "global_pose": {
            "orientation": {
                "w": 0.7047431468963623,
                "x": -0.7094548344612122,
                "y": 0.0024358443915843964,
                "z": -0.0022348060738295317
            },
            "position": {
                "x": 0.6094750761985779,
                "y": 0.3671506643295288,
                "z": 0.19426114857196808
            }
        },
        "name": "move_to_magneteinheit_A"
    },
    "id": "LBTRRT_move_to_magneteinheit_A_49",
    "joint_names": [
        "shoulder_pan_joint",
        "shoulder_lift_joint",
        "elbow_joint",
        "wrist_1_joint",
        "wrist_2_joint",
        "wrist_3_joint"
    ],
    "metrics": {
        "cart_traj_len": 2.0632809340245735,
        "distance_elbow_joint": 3.8695802508925023,
        "distance_shoulder_lift_joint": 1.0500419690493767,
        "distance_shoulder_pan_joint": 1.242542094536818,
        "distance_wrist_1_joint": 1.1182365762384563,
        "distance_wrist_2_joint": 1.4430865258861685,
        "distance_wrist_3_joint": 4.387620513034621,
        "smoothness": 6.090366326109682e-16,
        "time": 5.053070416,
        "traj_len": 3.620926391082529,
        "weighted_distance": 4.944458722431791
    },
    "planner": "LBTRRT",
    "start": {
        "state": {
            "elbow_joint": -1.919643507792019,
            "shoulder_lift_joint": -0.07675430207160344,
            "shoulder_pan_joint": -1.1188671864651873,
            "wrist_1_joint": 0.42560062535961957,
            "wrist_2_joint": 1.5706038300724876,
            "wrist_3_joint": 1.1188968870953055
        }
    },
    "waypoints": [
        {
            "positions": [
                -1.1188671864651873,
                -0.07675430207160344,
                -1.919643507792019,
                0.42560062535961957,
                1.5706038300724876,
                1.1188968870953055
            ]
        },
        {
            "positions": [
                -1.0831888695815026,
                -0.10737582171439497,
                -1.8055168583906287,
                0.3930151580559839,
                1.5270480685377592,
                0.9884566155258792
            ]
        },
        {
            "positions": [
                -1.0475105526978181,
                -0.1379973413571865,
                -1.691390208989238,
                0.3604296907523482,
                1.4834923070030306,
                0.8580163439564529
            ]
        },
        {
            "positions": [
                -1.0118322358141334,
                -0.16861886099997803,
                -1.5772635595878477,
                0.32784422344871256,
                1.4399365454683022,
                0.7275760723870265
            ]
        },
        {
            "positions": [
                -0.9761539189304487,
                -0.19924038064276955,
                -1.4631369101864573,
                0.2952587561450769,
                1.3963807839335736,
                0.5971358008176002
            ]
        },
        {
            "positions": [
                -0.9404756020467641,
                -0.22986190028556108,
                -1.3490102607850667,
                0.2626732888414412,
                1.3528250223988452,
                0.4666955292481738
            ]
        },
        {
            "positions": [
                -0.9047972851630793,
                -0.2604834199283526,
                -1.2348836113836763,
                0.23008782153780552,
                1.3092692608641165,
                0.3362552576787474
            ]
        },
        {
            "positions": [
                -0.8691189682793947,
                -0.29110493957114414,
                -1.120756961982286,
                0.19750235423416987,
                1.2657134993293881,
                0.20581498610932114
            ]
        },
        {
            "positions": [
                -0.83344065139571,
                -0.32172645921393567,
                -1.0066303125808953,
                0.1649168869305342,
                1.2221577377946597,
                0.07537471453989486
            ]
        },
        {
            "positions": [
                -0.7977623345120254,
                -0.35234797885672714,
                -0.8925036631795049,
                0.13233141962689854,
                1.1786019762599311,
                -0.05506555702953153
            ]
        },
        {
            "positions": [
                -0.7620840176283408,
                -0.3829694984995187,
                -0.7783770137781145,
                0.09974595232326283,
                1.1350462147252027,
                -0.18550582859895792
            ]
        },
        {
            "positions": [
                -0.726405700744656,
                -0.4135910181423102,
                -0.6642503643767241,
                0.06716048501962718,
                1.0914904531904743,
                -0.3159461001683841
            ]
        },
        {
            "positions": [
                -0.6907273838609713,
                -0.4442125377851018,
                -0.5501237149753335,
                0.034575017715991474,
                1.0479346916557457,
                -0.4463863717378107
            ]
        },
        {
            "positions": [
                -0.6550490669772868,
                -0.47483405742789325,
                -0.43599706557394313,
                0.0019895504123558783,
                1.0043789301210173,
                -0.5768266433072369
            ]
        },
        {
            "positions": [
                -0.6193707500936021,
                -0.5054555770706848,
                -0.3218704161725525,
                -0.03059591689127983,
                0.9608231685862888,
                -0.7072669148766633
            ]
        },
        {
            "positions": [
                -0.5836924332099174,
                -0.5360770967134763,
                -0.20774376677116213,
                -0.06318138419491548,
                0.9172674070515603,
                -0.8377071864460897
            ]
        },
        {
            "positions": [
                -0.5480141163262328,
                -0.566698616356268,
                -0.09361711736977152,
                -0.09576685149855119,
                0.8737116455168318,
                -0.9681474580155158
            ]
        },
        {
            "positions": [
                -0.512335799442548,
                -0.5973201359990594,
                0.02050953203161865,
                -0.12835231880218684,
                0.8301558839821034,
                -1.0985877295849424
            ]
        },
        {
            "positions": [
                -0.4766574825588634,
                -0.6279416556418509,
                0.13463618143300926,
                -0.1609377861058225,
                0.7866001224473749,
                -1.2290280011543686
            ]
        },
        {
            "positions": [
                -0.4409791656751787,
                -0.6585631752846426,
                0.24876283083439987,
                -0.19352325340945825,
                0.7430443609126463,
                -1.3594682727237952
            ]
        },
        {
            "positions": [
                -0.4053008487914941,
                -0.6891846949274341,
                0.36288948023579004,
                -0.2261087207130939,
                0.6994885993779179,
                -1.4899085442932214
            ]
        },
        {
            "positions": [
                -0.36962253190780947,
                -0.7198062145702255,
                0.47701612963718065,
                -0.25869418801672955,
                0.6559328378431895,
                -1.6203488158626476
            ]
        },
        {
            "positions": [
                -0.33394421502412475,
                -0.750427734213017,
                0.5911427790385708,
                -0.2912796553203652,
                0.6123770763084609,
                -1.7507890874320737
            ]
        },
        {
            "positions": [
                -0.29826589814044,
                -0.7810492538558087,
                0.7052694284399619,
                -0.32386512262400097,
                0.5688213147737324,
                -1.8812293590015008
            ]
        },
        {
            "positions": [
                -0.2625875812567554,
                -0.8116707734986002,
                0.819396077841352,
                -0.3564505899276366,
                0.5252655532390038,
                -2.011669630570927
            ]
        },
        {
            "positions": [
                -0.2269092643730708,
                -0.8422922931413916,
                0.9335227272427427,
                -0.38903605723127216,
                0.4817097917042754,
                -2.142109902140353
            ]
        },
        {
            "positions": [
                -0.19123094748938618,
                -0.8729138127841831,
                1.0476493766441328,
                -0.4216215245349078,
                0.438154030169547,
                -2.2725501737097793
            ]
        },
        {
            "positions": [
                -0.15555263060570135,
                -0.9035353324269748,
                1.1617760260455234,
                -0.45420699183854357,
                0.3945982686348184,
                -2.402990445279206
            ]
        },
        {
            "positions": [
                -0.11987431372201673,
                -0.9341568520697663,
                1.275902675446914,
                -0.4867924591421792,
                0.35104250710009,
                -2.533430716848632
            ]
        },
        {
            "positions": [
                -0.08419599683833212,
                -0.9647783717125578,
                1.3900293248483042,
                -0.5193779264458149,
                0.3074867455653616,
                -2.6638709884180582
            ]
        },
        {
            "positions": [
                -0.0485176799546474,
                -0.9953998913553492,
                1.5041559742496948,
                -0.5519633937494506,
                0.263930984030633,
                -2.794311259987485
            ]
        },
        {
            "positions": [
                -0.012839363070962673,
                -1.026021410998141,
                1.6182826236510854,
                -0.5845488610530862,
                0.22037522249590435,
                -2.9247515315569115
            ]
        },
        {
            "positions": [
                0.02283895381272183,
                -1.0566429306409324,
                1.732409273052476,
                -0.6171343283567219,
                0.17681946096117596,
                -3.055191803126337
            ]
        },
        {
            "positions": [
                0.05851727069640644,
                -1.0872644502837239,
                1.846535922453866,
                -0.6497197956603575,
                0.1332636994264476,
                -3.1856320746957643
            ]
        },
        {
            "positions": [
                0.12367490807163051,
                -1.1267962711209802,
                1.9499367431004833,
                -0.6926359508788367,
                0.12751730418631912,
                -3.2687236259393164
            ]
        }
    ]
}