{
    "goal": {
        "global_pose": {
            "orientation": {
                "w": 0.7031023502349854,
                "x": -0.7110244035720825,
                "y": 0.007748599164187908,
                "z": 0.005598929710686207
            },
            "position": {
                "x": 0.11585023208521307,
                "y": 0.44412534475326537,
                "z": 0.3711530566215515
            }
        },
        "name": "move_to_auspresseinheit_A"
    },
    "id": "LBTRRT_move_to_auspresseinheit_A_105",
    "joint_names": [
        "shoulder_pan_joint",
        "shoulder_lift_joint",
        "elbow_joint",
        "wrist_1_joint",
        "wrist_2_joint",
        "wrist_3_joint"
    ],
    "metrics": {
        "cart_traj_len": 0.7231342996862526,
        "distance_elbow_joint": 0.028350090969964103,
        "distance_shoulder_lift_joint": 0.53412940669131,
        "distance_shoulder_pan_joint": 1.043407177344642,
        "distance_wrist_1_joint": 0.5609975818464663,
        "distance_wrist_2_joint": 0.5280881970932567,
        "distance_wrist_3_joint": 0.05775381668057733,
        "smoothness": 0.025728103714104857,
        "time": 5.014987091,
        "traj_len": 1.6591341930736696,
        "weighted_distance": 1.9893013052142439
    },
    "planner": "LBTRRT",
    "start": {
        "state": {
            "elbow_joint": 2.422574709923281,
            "shoulder_lift_joint": -1.3736533754116391,
            "shoulder_pan_joint": -0.33786336945926293,
            "wrist_1_joint": -1.0288603412921917,
            "wrist_2_joint": 1.2330224858903978,
            "wrist_3_joint": -3.094022268022082
        }
    },
    "waypoints": [
        {
            "positions": [
                -0.33786336945926293,
                -1.3736533754116391,
                2.422574709923281,
                -1.0288603412921917,
                1.2330224858903978,
                -3.094022268022082
            ]
        },
        {
            "positions": [
                -0.31583535462955403,
                -1.48208280685334,
                2.417227944123635,
                -0.9342326727035251,
                1.1657565669533272,
                -3.0915761293182578
            ]
        },
        {
            "positions": [
                -0.29380733979984514,
                -1.590512238295041,
                2.411881178323989,
                -0.8396050041148585,
                1.0984906480162566,
                -3.089129990614434
            ]
        },
        {
            "positions": [
                -0.27177932497013624,
                -1.6989416697367419,
                2.4065344125243433,
                -0.7449773355261919,
                1.0312247290791858,
                -3.0866838519106095
            ]
        },
        {
            "positions": [
                -0.24975131014042737,
                -1.8073711011784428,
                2.401187646724697,
                -0.6503496669375253,
                0.9639588101421153,
                -3.084237713206785
            ]
        },
        {
            "positions": [
                -0.010927530633975724,
                -1.8324740214095694,
                2.399446889781852,
                -0.6047279400645753,
                0.8992026798058717,
                -3.096230028673105
            ]
        },
        {
            "positions": [
                0.22789624887247592,
                -1.857576941640696,
                2.397706132839007,
                -0.5591062131916253,
                0.8344465494696282,
                -3.108222344139425
            ]
        },
        {
            "positions": [
                0.46672002837892756,
                -1.8826798618718226,
                2.395965375896162,
                -0.5134844863186754,
                0.7696904191333847,
                -3.1202146596057454
            ]
        },
        {
            "positions": [
                0.7055438078853792,
                -1.9077827821029492,
                2.394224618953317,
                -0.46786275944572536,
                0.704934288797141,
                -3.1322069750720654
            ]
        }
    ]
}