{
    "goal": {
        "global_pose": {
            "orientation": {
                "w": 0.5084816217422485,
                "x": -0.49083608388900757,
                "y": 0.5182115435600281,
                "z": -0.4816462993621826
            },
            "position": {
                "x": 0.5540239810943604,
                "y": 0.030875300988554955,
                "z": 0.16403168439865112
            }
        },
        "name": "move_to_storage_A"
    },
    "id": "LBTRRT_move_to_storage_A_65",
    "joint_names": [
        "shoulder_pan_joint",
        "shoulder_lift_joint",
        "elbow_joint",
        "wrist_1_joint",
        "wrist_2_joint",
        "wrist_3_joint"
    ],
    "metrics": {
        "cart_traj_len": 0.3538933155089973,
        "distance_elbow_joint": 0.4533639258572624,
        "distance_shoulder_lift_joint": 0.23498421888025645,
        "distance_shoulder_pan_joint": 0.4620817296509237,
        "distance_wrist_1_joint": 0.2576520540971702,
        "distance_wrist_2_joint": 1.1037953079338596,
        "distance_wrist_3_joint": 0.09541302745939761,
        "smoothness": 8.881784232165597e-16,
        "time": 5.003327618,
        "traj_len": 1.6147105820792995,
        "weighted_distance": 2.0395008410953634
    },
    "planner": "LBTRRT",
    "start": {
        "state": {
            "elbow_joint": 1.9715463870305268,
            "shoulder_lift_joint": -1.1394903361783484,
            "shoulder_pan_joint": 0.12281147578464417,
            "wrist_1_joint": -0.7804599489681411,
            "wrist_2_joint": 0.12958660307563738,
            "wrist_3_joint": -3.1924946282119055
        }
    },
    "waypoints": [
        {
            "positions": [
                0.12281147578464417,
                -1.1394903361783484,
                1.9715463870305268,
                -0.7804599489681411,
                0.12958660307563738,
                -3.1924946282119055
            ]
        },
        {
            "positions": [
                0.05679980012022651,
                -1.1730595103040993,
                2.036312662152993,
                -0.8172673852677368,
                0.28727164706618874,
                -3.178864195717706
            ]
        },
        {
            "positions": [
                -0.009211875544191159,
                -1.2066286844298502,
                2.101078937275459,
                -0.8540748215673326,
                0.4449566910567401,
                -3.1652337632235064
            ]
        },
        {
            "positions": [
                -0.07522355120860884,
                -1.240197858555601,
                2.165845212397925,
                -0.8908822578669283,
                0.6026417350472915,
                -3.1516033307293068
            ]
        },
        {
            "positions": [
                -0.14123522687302648,
                -1.2737670326813522,
                2.230611487520391,
                -0.927689694166524,
                0.7603267790378428,
                -3.1379728982351067
            ]
        },
        {
            "positions": [
                -0.20724690253744416,
                -1.307336206807103,
                2.295377762642857,
                -0.9644971304661198,
                0.9180118230283942,
                -3.124342465740907
            ]
        },
        {
            "positions": [
                -0.27325857820186183,
                -1.340905380932854,
                2.360144037765323,
                -1.0013045667657154,
                1.0756968670189455,
                -3.1107120332467075
            ]
        },
        {
            "positions": [
                -0.3392702538662795,
                -1.3744745550586048,
                2.424910312887789,
                -1.0381120030653113,
                1.233381911009497,
                -3.097081600752508
            ]
        }
    ]
}