{
    "goal": {
        "global_pose": {
            "orientation": {
                "w": 0.7047431468963623,
                "x": -0.7094548344612122,
                "y": 0.0024358443915843964,
                "z": -0.0022348060738295317
            },
            "position": {
                "x": 0.6094750761985779,
                "y": 0.3671506643295288,
                "z": 0.19426114857196808
            }
        },
        "name": "move_to_magneteinheit_A"
    },
    "id": "LBTRRT_move_to_magneteinheit_A_124",
    "joint_names": [
        "shoulder_pan_joint",
        "shoulder_lift_joint",
        "elbow_joint",
        "wrist_1_joint",
        "wrist_2_joint",
        "wrist_3_joint"
    ],
    "metrics": {
        "cart_traj_len": 2.066294972319517,
        "distance_elbow_joint": 3.887095699878319,
        "distance_shoulder_lift_joint": 1.061263438420215,
        "distance_shoulder_pan_joint": 1.2423202908668736,
        "distance_wrist_1_joint": 1.1835657789061425,
        "distance_wrist_2_joint": 1.433465372106801,
        "distance_wrist_3_joint": 1.952900749783101,
        "smoothness": 2.7564157984637776e-16,
        "time": 5.01387272,
        "traj_len": 3.2803370756618064,
        "weighted_distance": 4.157336164004614
    },
    "planner": "LBTRRT",
    "start": {
        "state": {
            "elbow_joint": -1.919643507792019,
            "shoulder_lift_joint": -0.07675430207160344,
            "shoulder_pan_joint": -1.1188671864651873,
            "wrist_1_joint": 0.42560062535961957,
            "wrist_2_joint": 1.5706038300724876,
            "wrist_3_joint": 1.1188968870953055
        }
    },
    "waypoints": [
        {
            "positions": [
                -1.1188671864651873,
                -0.07675430207160344,
                -1.919643507792019,
                0.42560062535961957,
                1.5706038300724876,
                1.1188968870953055
            ]
        },
        {
            "positions": [
                -1.0744986046485132,
                -0.11465656772946826,
                -1.7808186613677934,
                0.3833304189701145,
                1.5194086382115304,
                1.188643342444702
            ]
        },
        {
            "positions": [
                -1.0301300228318393,
                -0.1525588333873331,
                -1.6419938149435678,
                0.34106021258060937,
                1.4682134463505732,
                1.2583897977940985
            ]
        },
        {
            "positions": [
                -0.9857614410151652,
                -0.19046109904519792,
                -1.5031689685193421,
                0.2987900061911043,
                1.4170182544896162,
                1.3281362531434948
            ]
        },
        {
            "positions": [
                -0.9413928591984911,
                -0.22836336470306273,
                -1.3643441220951165,
                0.2565197998015992,
                1.365823062628659,
                1.3978827084928913
            ]
        },
        {
            "positions": [
                -0.8970242773818171,
                -0.26626563036092754,
                -1.2255192756708908,
                0.21424959341209412,
                1.3146278707677017,
                1.4676291638422878
            ]
        },
        {
            "positions": [
                -0.852655695565143,
                -0.30416789601879235,
                -1.0866944292466652,
                0.17197938702258908,
                1.2634326789067445,
                1.5373756191916843
            ]
        },
        {
            "positions": [
                -0.808287113748469,
                -0.3420701616766572,
                -0.9478695828224394,
                0.12970918063308395,
                1.2122374870457873,
                1.6071220745410808
            ]
        },
        {
            "positions": [
                -0.7639185319317949,
                -0.379972427334522,
                -0.8090447363982138,
                0.08743897424357888,
                1.1610422951848303,
                1.676868529890477
            ]
        },
        {
            "positions": [
                -0.7195499501151208,
                -0.4178746929923869,
                -0.670219889973988,
                0.045168767854073755,
                1.109847103323873,
                1.7466149852398738
            ]
        },
        {
            "positions": [
                -0.6751813682984468,
                -0.4557769586502517,
                -0.5313950435497623,
                0.002898561464568683,
                1.0586519114629158,
                1.81636144058927
            ]
        },
        {
            "positions": [
                -0.6308127864817727,
                -0.4936792243081165,
                -0.39257019712553665,
                -0.03937164492493639,
                1.0074567196019588,
                1.8861078959386668
            ]
        },
        {
            "positions": [
                -0.5864442046650987,
                -0.5315814899659813,
                -0.2537453507013112,
                -0.0816418513144414,
                0.9562615277410015,
                1.955854351288063
            ]
        },
        {
            "positions": [
                -0.5420756228484246,
                -0.5694837556238461,
                -0.11492050427708533,
                -0.12391205770394659,
                0.9050663358800443,
                2.02560080663746
            ]
        },
        {
            "positions": [
                -0.49770704103175056,
                -0.607386021281711,
                0.023904342147140323,
                -0.16618226409345166,
                0.8538711440190871,
                2.095347261986856
            ]
        },
        {
            "positions": [
                -0.45333845921507654,
                -0.6452882869395757,
                0.16272918857136598,
                -0.20845247048295673,
                0.80267595215813,
                2.1650937173362523
            ]
        },
        {
            "positions": [
                -0.4089698773984025,
                -0.6831905525974407,
                0.3015540349955914,
                -0.2507226768724618,
                0.7514807602971728,
                2.234840172685649
            ]
        },
        {
            "positions": [
                -0.3646012955817285,
                -0.7210928182553054,
                0.4403788814198173,
                -0.2929928832619669,
                0.7002855684362157,
                2.3045866280350453
            ]
        },
        {
            "positions": [
                -0.32023271376505424,
                -0.7589950839131703,
                0.5792037278440432,
                -0.33526308965147206,
                0.6490903765752584,
                2.374333083384442
            ]
        },
        {
            "positions": [
                -0.2758641319483802,
                -0.7968973495710352,
                0.7180285742682686,
                -0.37753329604097713,
                0.5978951847143013,
                2.4440795387338383
            ]
        },
        {
            "positions": [
                -0.2314955501317062,
                -0.8347996152288999,
                0.8568534206924945,
                -0.4198035024304822,
                0.546699992853344,
                2.513825994083235
            ]
        },
        {
            "positions": [
                -0.18712696831503217,
                -0.8727018808867648,
                0.9956782671167199,
                -0.46207370881998727,
                0.4955048009923868,
                2.5835724494326313
            ]
        },
        {
            "positions": [
                -0.14275838649835815,
                -0.9106041465446295,
                1.1345031135409458,
                -0.5043439152094924,
                0.4443096091314298,
                2.6533189047820276
            ]
        },
        {
            "positions": [
                -0.09838980468168401,
                -0.9485064122024944,
                1.2733279599651712,
                -0.5466141215989975,
                0.3931144172704726,
                2.7230653601314243
            ]
        },
        {
            "positions": [
                -0.0540212228650101,
                -0.9864086778603591,
                1.4121528063893967,
                -0.5888843279885023,
                0.34191922540951536,
                2.7928118154808206
            ]
        },
        {
            "positions": [
                -0.009652641048335964,
                -1.024310943518224,
                1.550977652813623,
                -0.6311545343780076,
                0.29072403354855814,
                2.8625582708302173
            ]
        },
        {
            "positions": [
                0.03471594076833817,
                -1.062213209176089,
                1.6898024992378484,
                -0.6734247407675127,
                0.2395288416876009,
                2.9323047261796136
            ]
        },
        {
            "positions": [
                0.07908452258501208,
                -1.1001154748339539,
                1.8286273456620743,
                -0.7156949471570178,
                0.1883336498266439,
                3.0020511815290103
            ]
        },
        {
            "positions": [
                0.12345310440168633,
                -1.1380177404918186,
                1.9674521920862997,
                -0.7579651535465228,
                0.1371384579656866,
                3.0717976368784066
            ]
        }
    ]
}