{
    "goal": {
        "global_pose": {
            "orientation": {
                "w": 0.7031023502349854,
                "x": -0.7110244035720825,
                "y": 0.007748599164187908,
                "z": 0.005598929710686207
            },
            "position": {
                "x": 0.11585023208521307,
                "y": 0.44412534475326537,
                "z": 0.3711530566215515
            }
        },
        "name": "move_to_auspresseinheit_A"
    },
    "id": "LBTRRT_move_to_auspresseinheit_A_67",
    "joint_names": [
        "shoulder_pan_joint",
        "shoulder_lift_joint",
        "elbow_joint",
        "wrist_1_joint",
        "wrist_2_joint",
        "wrist_3_joint"
    ],
    "metrics": {
        "cart_traj_len": 3.1947316233547873,
        "distance_elbow_joint": 5.044087221876447,
        "distance_shoulder_lift_joint": 1.0365647505176225,
        "distance_shoulder_pan_joint": 1.0434499715312946,
        "distance_wrist_1_joint": 2.221929903900148,
        "distance_wrist_2_joint": 0.21451981496242145,
        "distance_wrist_3_joint": 3.4775321579320657,
        "smoothness": 0.06393486167846545,
        "time": 5.033908884,
        "traj_len": 3.6108286889189296,
        "weighted_distance": 4.735989638443764
    },
    "planner": "LBTRRT",
    "start": {
        "state": {
            "elbow_joint": 2.422574709923281,
            "shoulder_lift_joint": -1.3736533754116391,
            "shoulder_pan_joint": -0.33786336945926293,
            "wrist_1_joint": -1.0288603412921917,
            "wrist_2_joint": 1.2330224858903978,
            "wrist_3_joint": -3.094022268022082
        }
    },
    "waypoints": [
        {
            "positions": [
                -0.33786336945926293,
                -1.3736533754116391,
                2.422574709923281,
                -1.0288603412921917,
                1.2330224858903978,
                -3.094022268022082
            ]
        },
        {
            "positions": [
                -0.3713838341790238,
                -1.3613979316350602,
                2.253262190481963,
                -0.9724807975686235,
                1.2382890651726601,
                -2.9763822866142977
            ]
        },
        {
            "positions": [
                -0.4049042988987847,
                -1.3491424878584812,
                2.0839496710406453,
                -0.9161012538450553,
                1.2435556444549225,
                -2.8587423052065133
            ]
        },
        {
            "positions": [
                -0.4384247636185456,
                -1.336887044081902,
                1.9146371515993272,
                -0.8597217101214869,
                1.2488222237371849,
                -2.741102323798729
            ]
        },
        {
            "positions": [
                -0.47194522833830654,
                -1.3246316003053231,
                1.7453246321580091,
                -0.8033421663979187,
                1.254088803019447,
                -2.623462342390944
            ]
        },
        {
            "positions": [
                -0.5054656930580674,
                -1.3123761565287442,
                1.5760121127166913,
                -0.7469626226743504,
                1.2593553823017094,
                -2.5058223609831596
            ]
        },
        {
            "positions": [
                -0.5389861577778283,
                -1.3001207127521652,
                1.4066995932753734,
                -0.6905830789507821,
                1.2646219615839718,
                -2.388182379575375
            ]
        },
        {
            "positions": [
                -0.5725066224975892,
                -1.2878652689755863,
                1.2373870738340553,
                -0.6342035352272138,
                1.2698885408662342,
                -2.2705423981675907
            ]
        },
        {
            "positions": [
                -0.6060270872173501,
                -1.2756098251990071,
                1.0680745543927375,
                -0.5778239915036456,
                1.2751551201484965,
                -2.1529024167598063
            ]
        },
        {
            "positions": [
                -0.639547551937111,
                -1.2633543814224282,
                0.8987620349514194,
                -0.5214444477800773,
                1.280421699430759,
                -2.0352624353520214
            ]
        },
        {
            "positions": [
                -0.6730680166568719,
                -1.2510989376458492,
                0.7294495155101015,
                -0.465064904056509,
                1.2856882787130213,
                -1.9176224539442372
            ]
        },
        {
            "positions": [
                -0.7065884813766328,
                -1.2388434938692703,
                0.5601369960687834,
                -0.4086853603329408,
                1.2909548579952834,
                -1.7999824725364528
            ]
        },
        {
            "positions": [
                -0.7401089460963937,
                -1.2265880500926913,
                0.3908244766274658,
                -0.35230581660937255,
                1.2962214372775458,
                -1.6823424911286684
            ]
        },
        {
            "positions": [
                -0.7736294108161546,
                -1.2143326063161122,
                0.2215119571861477,
                -0.2959262728858042,
                1.3014880165598082,
                -1.5647025097208838
            ]
        },
        {
            "positions": [
                -0.8071498755359154,
                -1.2020771625395332,
                0.0521994377448296,
                -0.23954672916223596,
                1.3067545958420705,
                -1.4470625283130993
            ]
        },
        {
            "positions": [
                -0.8406703402556763,
                -1.1898217187629543,
                -0.11711308169648849,
                -0.18316718543866772,
                1.312021175124333,
                -1.329422546905315
            ]
        },
        {
            "positions": [
                -0.8741908049754372,
                -1.1775662749863753,
                -0.28642560113780613,
                -0.12678764171509949,
                1.3172877544065953,
                -1.2117825654975305
            ]
        },
        {
            "positions": [
                -0.9077112696951981,
                -1.1653108312097962,
                -0.4557381205791242,
                -0.07040809799153125,
                1.3225543336888577,
                -1.094142584089746
            ]
        },
        {
            "positions": [
                -0.9412317344149592,
                -1.1530553874332172,
                -0.6250506400204423,
                -0.01402855426796279,
                1.3278209129711198,
                -0.9765026026819612
            ]
        },
        {
            "positions": [
                -0.9747521991347201,
                -1.1407999436566383,
                -0.7943631594617604,
                0.04235098945560534,
                1.3330874922533822,
                -0.8588626212741768
            ]
        },
        {
            "positions": [
                -1.008272663854481,
                -1.1285444998800593,
                -0.963675678903078,
                0.09873053317917369,
                1.3383540715356446,
                -0.7412226398663924
            ]
        },
        {
            "positions": [
                -1.0417931285742419,
                -1.1162890561034802,
                -1.1329881983443961,
                0.15511007690274203,
                1.343620650817907,
                -0.6235826584586079
            ]
        },
        {
            "positions": [
                -1.0753135932940026,
                -1.1040336123269012,
                -1.3023007177857142,
                0.21148962062631016,
                1.3488872301001693,
                -0.5059426770508235
            ]
        },
        {
            "positions": [
                -1.1088340580137634,
                -1.0917781685503223,
                -1.4716132372270319,
                0.2678691643498785,
                1.3541538093824317,
                -0.3883026956430391
            ]
        },
        {
            "positions": [
                -1.1423545227335243,
                -1.0795227247737433,
                -1.6409257566683495,
                0.32424870807344663,
                1.3594203886646938,
                -0.2706627142352547
            ]
        },
        {
            "positions": [
                -1.1758749874532854,
                -1.0672672809971644,
                -1.8102382761096685,
                0.380628251797015,
                1.3646869679469562,
                -0.1530227328274698
            ]
        },
        {
            "positions": [
                -1.2093954521730463,
                -1.0550118372205852,
                -1.9795507955509857,
                0.43700779552058333,
                1.3699535472292186,
                -0.03538275141968539
            ]
        },
        {
            "positions": [
                -1.2429159168928072,
                -1.0427563934440063,
                -2.1488633149923038,
                0.49338733924415146,
                1.375220126511481,
                0.08225722998809903
            ]
        },
        {
            "positions": [
                -1.2764363816125681,
                -1.0305009496674273,
                -2.3181758344336223,
                0.5497668829677197,
                1.3804867057937433,
                0.19989721139588332
            ]
        },
        {
            "positions": [
                -1.2882922728301922,
                -1.1045945203351664,
                -2.3849452380269276,
                0.6666425067286891,
                1.3893516895056626,
                0.19028921734965162
            ]
        },
        {
            "positions": [
                -1.3001481640478165,
                -1.1786880910029056,
                -2.4517146416202333,
                0.7835181304896583,
                1.3982166732175816,
                0.18068122330341993
            ]
        },
        {
            "positions": [
                -1.3120040552654406,
                -1.2527816616706446,
                -2.5184840452135386,
                0.9003937542506277,
                1.4070816569295008,
                0.17107322925718824
            ]
        },
        {
            "positions": [
                -1.3167001015520143,
                -1.350212270628981,
                -2.5655597115467685,
                1.0086490225836942,
                1.408622653214362,
                0.1313843571314794
            ]
        },
        {
            "positions": [
                -1.3213961478385883,
                -1.4476428795873173,
                -2.612635377879998,
                1.1169042909167604,
                1.4101636494992231,
                0.09169548500577056
            ]
        },
        {
            "positions": [
                -1.3513547444145728,
                -1.5857780770140777,
                -2.6170739449165823,
                1.154986926762358,
                1.391474323822425,
                0.05399000894377723
            ]
        },
        {
            "positions": [
                -1.3813133409905576,
                -1.723913274440838,
                -2.6215125119531666,
                1.193069562607956,
                1.372784998145627,
                0.016284532881783897
            ]
        }
    ]
}