{
    "goal": {
        "global_pose": {
            "orientation": {
                "w": 0.5084816217422485,
                "x": -0.49083608388900757,
                "y": 0.5182115435600281,
                "z": -0.4816462993621826
            },
            "position": {
                "x": 0.5540239810943604,
                "y": 0.030875300988554955,
                "z": 0.16403168439865112
            }
        },
        "name": "move_to_storage_A"
    },
    "id": "LBTRRT_move_to_storage_A_70",
    "joint_names": [
        "shoulder_pan_joint",
        "shoulder_lift_joint",
        "elbow_joint",
        "wrist_1_joint",
        "wrist_2_joint",
        "wrist_3_joint"
    ],
    "metrics": {
        "cart_traj_len": 0.3532471056557846,
        "distance_elbow_joint": 0.4511945731937801,
        "distance_shoulder_lift_joint": 0.23250505736018923,
        "distance_shoulder_pan_joint": 0.4597572040338688,
        "distance_wrist_1_joint": 0.2510540624967722,
        "distance_wrist_2_joint": 1.1076454981839234,
        "distance_wrist_3_joint": 0.09632858895587404,
        "smoothness": 1.7763568394002505e-15,
        "time": 5.0028035200000005,
        "traj_len": 1.6119816947547536,
        "weighted_distance": 2.037116030769198
    },
    "planner": "LBTRRT",
    "start": {
        "state": {
            "elbow_joint": 1.9715463870305268,
            "shoulder_lift_joint": -1.1394903361783484,
            "shoulder_pan_joint": 0.12281147578464417,
            "wrist_1_joint": -0.7804599489681411,
            "wrist_2_joint": 0.12958660307563738,
            "wrist_3_joint": -3.1924946282119055
        }
    },
    "waypoints": [
        {
            "positions": [
                0.12281147578464417,
                -1.1394903361783484,
                1.9715463870305268,
                -0.7804599489681411,
                0.12958660307563738,
                -3.1924946282119055
            ]
        },
        {
            "positions": [
                0.0571318752083772,
                -1.1727053443726612,
                2.036002754629638,
                -0.8163248150391086,
                0.2878216742447693,
                -3.178733401218209
            ]
        },
        {
            "positions": [
                -0.008547725367889766,
                -1.205920352566974,
                2.1004591222287496,
                -0.852189681110076,
                0.44605674541390117,
                -3.164972174224513
            ]
        },
        {
            "positions": [
                -0.07422732594415675,
                -1.2391353607612867,
                2.164915489827861,
                -0.8880545471810435,
                0.6042918165830331,
                -3.1512109472308167
            ]
        },
        {
            "positions": [
                -0.1399069265204237,
                -1.2723503689555993,
                2.2293718574269725,
                -0.9239194132520109,
                0.762526887752165,
                -3.1374497202371203
            ]
        },
        {
            "positions": [
                -0.20558652709669067,
                -1.305565377149912,
                2.293828225026084,
                -0.9597842793229784,
                0.920761958921297,
                -3.123688493243424
            ]
        },
        {
            "positions": [
                -0.27126612767295766,
                -1.3387803853442248,
                2.3582845926251954,
                -0.9956491453939458,
                1.0789970300904288,
                -3.109927266249728
            ]
        },
        {
            "positions": [
                -0.33694572824922464,
                -1.3719953935385376,
                2.422740960224307,
                -1.0315140114649133,
                1.2372321012595608,
                -3.0961660392560315
            ]
        }
    ]
}