{
    "goal": {
        "global_pose": {
            "orientation": {
                "w": 0.5084816217422485,
                "x": -0.49083608388900757,
                "y": 0.5182115435600281,
                "z": -0.4816462993621826
            },
            "position": {
                "x": 0.5540239810943604,
                "y": 0.030875300988554955,
                "z": 0.16403168439865112
            }
        },
        "name": "move_to_storage_A"
    },
    "id": "LBTRRT_move_to_storage_A_3",
    "joint_names": [
        "shoulder_pan_joint",
        "shoulder_lift_joint",
        "elbow_joint",
        "wrist_1_joint",
        "wrist_2_joint",
        "wrist_3_joint"
    ],
    "metrics": {
        "cart_traj_len": 0.3529322992677335,
        "distance_elbow_joint": 0.4517074664318179,
        "distance_shoulder_lift_joint": 0.23312168361962637,
        "distance_shoulder_pan_joint": 0.4572443176691577,
        "distance_wrist_1_joint": 0.2532810120068719,
        "distance_wrist_2_joint": 1.1163701675104853,
        "distance_wrist_3_joint": 0.10304550841929272,
        "smoothness": 4.440892133664971e-16,
        "time": 5.0026280729999995,
        "traj_len": 1.6170250943189632,
        "weighted_distance": 2.0470740953891227
    },
    "planner": "LBTRRT",
    "start": {
        "state": {
            "elbow_joint": 1.9715463870305268,
            "shoulder_lift_joint": -1.1394903361783484,
            "shoulder_pan_joint": 0.12281147578464417,
            "wrist_1_joint": -0.7804599489681411,
            "wrist_2_joint": 0.12958660307563738,
            "wrist_3_joint": -3.1924946282119055
        }
    },
    "waypoints": [
        {
            "positions": [
                0.12281147578464417,
                -1.1394903361783484,
                1.9715463870305268,
                -0.7804599489681411,
                0.12958660307563738,
                -3.1924946282119055
            ]
        },
        {
            "positions": [
                0.05749085897476451,
                -1.172793433838295,
                2.036076025092215,
                -0.8166429506834085,
                0.2890680555771353,
                -3.1777738412948637
            ]
        },
        {
            "positions": [
                -0.00782975783511515,
                -1.2060965314982417,
                2.100605663153903,
                -0.8528259523986759,
                0.44854950807863314,
                -3.163053054377822
            ]
        },
        {
            "positions": [
                -0.07315037464499481,
                -1.2393996291581884,
                2.1651353012155914,
                -0.8890089541139433,
                0.6080309605801311,
                -3.14833226746078
            ]
        },
        {
            "positions": [
                -0.13847099145487446,
                -1.2727027268181348,
                2.2296649392772796,
                -0.9251919558292108,
                0.767512413081629,
                -3.1336114805437383
            ]
        },
        {
            "positions": [
                -0.20379160826475418,
                -1.3060058244780814,
                2.2941945773389683,
                -0.9613749575444781,
                0.9269938655831269,
                -3.1188906936266965
            ]
        },
        {
            "positions": [
                -0.2691122250746338,
                -1.339308922138028,
                2.3587242154006565,
                -0.9975579592597456,
                1.0864753180846247,
                -3.1041699067096546
            ]
        },
        {
            "positions": [
                -0.3344328418845135,
                -1.3726120197979748,
                2.4232538534623447,
                -1.033740960975013,
                1.2459567705861228,
                -3.089449119792613
            ]
        }
    ]
}