{
    "goal": {
        "global_pose": {
            "orientation": {
                "w": 0.7031023502349854,
                "x": -0.7110244035720825,
                "y": 0.007748599164187908,
                "z": 0.005598929710686207
            },
            "position": {
                "x": 0.11585023208521307,
                "y": 0.44412534475326537,
                "z": 0.3711530566215515
            }
        },
        "name": "move_to_auspresseinheit_A"
    },
    "id": "LBTRRT_move_to_auspresseinheit_A_75",
    "joint_names": [
        "shoulder_pan_joint",
        "shoulder_lift_joint",
        "elbow_joint",
        "wrist_1_joint",
        "wrist_2_joint",
        "wrist_3_joint"
    ],
    "metrics": {
        "cart_traj_len": 2.554671807301607,
        "distance_elbow_joint": 1.5027148212053318,
        "distance_shoulder_lift_joint": 1.6770948199078095,
        "distance_shoulder_pan_joint": 2.1099894326989714,
        "distance_wrist_1_joint": 6.373760999857591,
        "distance_wrist_2_joint": 1.9067183775493162,
        "distance_wrist_3_joint": 2.7257341159974895,
        "smoothness": 0.7973916312999217,
        "time": 5.03151892,
        "traj_len": 4.036831996407146,
        "weighted_distance": 5.479777383855879
    },
    "planner": "LBTRRT",
    "start": {
        "state": {
            "elbow_joint": 2.422574709923281,
            "shoulder_lift_joint": -1.3736533754116391,
            "shoulder_pan_joint": -0.33786336945926293,
            "wrist_1_joint": -1.0288603412921917,
            "wrist_2_joint": 1.2330224858903978,
            "wrist_3_joint": -3.094022268022082
        }
    },
    "waypoints": [
        {
            "positions": [
                -0.33786336945926293,
                -1.3736533754116391,
                2.422574709923281,
                -1.0288603412921917,
                1.2330224858903978,
                -3.094022268022082
            ]
        },
        {
            "positions": [
                -0.3031719826898619,
                -1.4887525420463221,
                2.411065742977317,
                -0.9672287425068286,
                1.1865052246936125,
                -3.1160214141889426
            ]
        },
        {
            "positions": [
                -0.23894489244522188,
                -1.5299965389380796,
                2.379605506152348,
                -0.8252521498570969,
                1.1377295910672054,
                -3.060265435507056
            ]
        },
        {
            "positions": [
                -0.17471780220058186,
                -1.5712405358298374,
                2.3481452693273783,
                -0.6832755572073653,
                1.0889539574407983,
                -3.0045094568251693
            ]
        },
        {
            "positions": [
                -0.11049071195594184,
                -1.6124845327215949,
                2.3166850325024093,
                -0.5412989645576337,
                1.040178323814391,
                -2.9487534781432827
            ]
        },
        {
            "positions": [
                -0.04626362171130183,
                -1.6537285296133526,
                2.28522479567744,
                -0.3993223719079021,
                0.9914026901879839,
                -2.892997499461396
            ]
        },
        {
            "positions": [
                0.01796346853333819,
                -1.69497252650511,
                2.253764558852471,
                -0.2573457792581705,
                0.9426270565615766,
                -2.8372415207795094
            ]
        },
        {
            "positions": [
                0.0821905587779782,
                -1.7362165233968678,
                2.222304322027502,
                -0.11536918660843887,
                0.8938514229351695,
                -2.7814855420976228
            ]
        },
        {
            "positions": [
                0.14641764902261828,
                -1.7774605202886253,
                2.1908440852025324,
                0.026607406041292858,
                0.8450757893087624,
                -2.7257295634157357
            ]
        },
        {
            "positions": [
                0.21064473926725824,
                -1.8187045171803828,
                2.1593838483775634,
                0.16858399869102436,
                0.7963001556823552,
                -2.6699735847338495
            ]
        },
        {
            "positions": [
                0.27487182951189826,
                -1.8599485140721406,
                2.127923611552594,
                0.310560591340756,
                0.747524522055948,
                -2.6142176060519624
            ]
        },
        {
            "positions": [
                0.3390989197565383,
                -1.9011925109638983,
                2.096463374727625,
                0.4525371839904876,
                0.6987488884295407,
                -2.5584616273700758
            ]
        },
        {
            "positions": [
                0.4033260100011783,
                -1.9424365078556558,
                2.0650031379026554,
                0.5945137766402192,
                0.6499732548031337,
                -2.502705648688189
            ]
        },
        {
            "positions": [
                0.4675531002458183,
                -1.9836805047474133,
                2.0335429010776864,
                0.7364903692899508,
                0.6011976211767265,
                -2.4469496700063025
            ]
        },
        {
            "positions": [
                0.5317801904904582,
                -2.024924501639171,
                2.0020826642527174,
                0.8784669619396822,
                0.5524219875503193,
                -2.391193691324416
            ]
        },
        {
            "positions": [
                0.5960072807350985,
                -2.0661684985309288,
                1.970622427427748,
                1.0204435545894142,
                0.5036463539239121,
                -2.335437712642529
            ]
        },
        {
            "positions": [
                0.6602343709797384,
                -2.107412495422686,
                1.939162190602779,
                1.1624201472391458,
                0.45487072029750497,
                -2.2796817339606426
            ]
        },
        {
            "positions": [
                0.7244614612243784,
                -2.1486564923144438,
                1.9077019537778097,
                1.3043967398888774,
                0.40609508667109784,
                -2.223925755278756
            ]
        },
        {
            "positions": [
                0.7886885514690184,
                -2.1899004892062015,
                1.8762417169528405,
                1.446373332538609,
                0.3573194530446906,
                -2.1681697765968693
            ]
        },
        {
            "positions": [
                0.8529156417136584,
                -2.231144486097959,
                1.8447814801278712,
                1.5883499251883406,
                0.30854381941828346,
                -2.1124137979149826
            ]
        },
        {
            "positions": [
                0.9171427319582984,
                -2.2723884829897165,
                1.813321243302902,
                1.7303265178380722,
                0.2597681857918763,
                -2.056657819233096
            ]
        },
        {
            "positions": [
                0.9813698222029384,
                -2.3136324798814742,
                1.7818610064779328,
                1.8723031104878038,
                0.21099255216546908,
                -2.000901840551209
            ]
        },
        {
            "positions": [
                1.0455969124475786,
                -2.354876476773232,
                1.7504007696529635,
                2.0142797031375355,
                0.16221691853906206,
                -1.9451458618693225
            ]
        },
        {
            "positions": [
                1.1098240026922186,
                -2.3961204736649897,
                1.7189405328279945,
                2.156256295787267,
                0.11344128491265493,
                -1.8893898831874358
            ]
        },
        {
            "positions": [
                1.1740510929368586,
                -2.437364470556747,
                1.687480296003025,
                2.2982328884369987,
                0.06466565128624757,
                -1.8336339045055492
            ]
        },
        {
            "positions": [
                1.2382781831814986,
                -2.4786084674485047,
                1.656020059178056,
                2.4402094810867303,
                0.01589001765984044,
                -1.7778779258236626
            ]
        },
        {
            "positions": [
                1.2086199676227092,
                -2.44682292701123,
                1.6969178464258399,
                2.278837749004582,
                0.054200345955327016,
                -1.853744119238404
            ]
        },
        {
            "positions": [
                1.1789617520639197,
                -2.4150373865739554,
                1.7378156336736235,
                2.117466016922434,
                0.0925106742508136,
                -1.9296103126531459
            ]
        },
        {
            "positions": [
                1.1493035365051303,
                -2.3832518461366807,
                1.7787134209214073,
                1.9560942848402856,
                0.13082100254630016,
                -2.0054765060678874
            ]
        },
        {
            "positions": [
                1.1196453209463408,
                -2.351466305699406,
                1.8196112081691909,
                1.7947225527581372,
                0.16913133084178675,
                -2.081342699482629
            ]
        },
        {
            "positions": [
                1.0899871053875514,
                -2.3196807652621314,
                1.8605089954169747,
                1.633350820675989,
                0.20744165913727333,
                -2.1572088928973705
            ]
        },
        {
            "positions": [
                1.060328889828762,
                -2.2878952248248567,
                1.9014067826647583,
                1.4719790885938409,
                0.2457519874327599,
                -2.233075086312112
            ]
        },
        {
            "positions": [
                1.0306706742699725,
                -2.256109684387582,
                1.942304569912542,
                1.3106073565116925,
                0.2840623157282465,
                -2.308941279726854
            ]
        },
        {
            "positions": [
                1.001012458711183,
                -2.2243241439503074,
                1.9832023571603257,
                1.1492356244295443,
                0.32237264402373306,
                -2.3848074731415956
            ]
        },
        {
            "positions": [
                0.9713542431523936,
                -2.1925386035130328,
                2.0241001444081093,
                0.9878638923473959,
                0.36068297231921964,
                -2.460673666556337
            ]
        },
        {
            "positions": [
                0.9416960275936042,
                -2.160753063075758,
                2.0649979316558933,
                0.8264921602652475,
                0.3989933006147062,
                -2.5365398599710787
            ]
        },
        {
            "positions": [
                0.9120378120348146,
                -2.1289675226384834,
                2.105895718903677,
                0.6651204281830991,
                0.4373036289101928,
                -2.61240605338582
            ]
        },
        {
            "positions": [
                0.8823795964760253,
                -2.0971819822012088,
                2.1467935061514605,
                0.5037486961009512,
                0.47561395720567934,
                -2.6882722468005618
            ]
        },
        {
            "positions": [
                0.8527213809172358,
                -2.065396441763934,
                2.1876912933992445,
                0.3423769640188028,
                0.5139242855011659,
                -2.7641384402153033
            ]
        },
        {
            "positions": [
                0.8230631653584463,
                -2.0336109013266594,
                2.228589080647028,
                0.18100523193665463,
                0.5522346137966525,
                -2.840004633630045
            ]
        },
        {
            "positions": [
                0.7934049497996568,
                -2.001825360889385,
                2.2694868678948117,
                0.01963349985450602,
                0.5905449420921391,
                -2.9158708270447864
            ]
        },
        {
            "positions": [
                0.7637467342408675,
                -1.9700398204521101,
                2.3103846551425953,
                -0.1417382322276417,
                0.6288552703876257,
                -2.991737020459528
            ]
        },
        {
            "positions": [
                0.7340885186820779,
                -1.9382542800148355,
                2.3512824423903793,
                -0.3031099643097903,
                0.6671655986831122,
                -3.06760321387427
            ]
        },
        {
            "positions": [
                0.7044303031232885,
                -1.9064687395775608,
                2.392180229638163,
                -0.4644816963919383,
                0.7054759269785988,
                -3.1434694072890115
            ]
        }
    ]
}