{
    "goal": {
        "global_pose": {
            "orientation": {
                "w": 0.7031023502349854,
                "x": -0.7110244035720825,
                "y": 0.007748599164187908,
                "z": 0.005598929710686207
            },
            "position": {
                "x": 0.11585023208521307,
                "y": 0.44412534475326537,
                "z": 0.3711530566215515
            }
        },
        "name": "move_to_auspresseinheit_A"
    },
    "id": "LBTRRT_move_to_auspresseinheit_A_84",
    "joint_names": [
        "shoulder_pan_joint",
        "shoulder_lift_joint",
        "elbow_joint",
        "wrist_1_joint",
        "wrist_2_joint",
        "wrist_3_joint"
    ],
    "metrics": {
        "cart_traj_len": 0.697014926931157,
        "distance_elbow_joint": 0.027777778175863688,
        "distance_shoulder_lift_joint": 0.5366169882529945,
        "distance_shoulder_pan_joint": 1.0482157171635909,
        "distance_wrist_1_joint": 0.5614906627613883,
        "distance_wrist_2_joint": 1.107622456982134,
        "distance_wrist_3_joint": 0.1888651082834003,
        "smoothness": 0.8166265868993466,
        "time": 5.014272178,
        "traj_len": 1.8629516127960413,
        "weighted_distance": 2.348921464827995
    },
    "planner": "LBTRRT",
    "start": {
        "state": {
            "elbow_joint": 2.422574709923281,
            "shoulder_lift_joint": -1.3736533754116391,
            "shoulder_pan_joint": -0.33786336945926293,
            "wrist_1_joint": -1.0288603412921917,
            "wrist_2_joint": 1.2330224858903978,
            "wrist_3_joint": -3.094022268022082
        }
    },
    "waypoints": [
        {
            "positions": [
                -0.33786336945926293,
                -1.3736533754116391,
                2.422574709923281,
                -1.0288603412921917,
                1.2330224858903978,
                -3.094022268022082
            ]
        },
        {
            "positions": [
                -0.3031530531058662,
                -1.4571470684927452,
                2.4181875862916233,
                -0.9584430546768864,
                1.0980555440116777,
                -3.113172144984473
            ]
        },
        {
            "positions": [
                -0.2684427367524695,
                -1.540640761573851,
                2.413800462659965,
                -0.8880257680615811,
                0.9630886021329579,
                -3.1323220219468633
            ]
        },
        {
            "positions": [
                -0.23373242039907277,
                -1.6241344546549572,
                2.4094133390283075,
                -0.8176084814462756,
                0.8281216602542378,
                -3.1514718989092536
            ]
        },
        {
            "positions": [
                -0.19902210404567605,
                -1.707628147736063,
                2.4050262153966497,
                -0.7471911948309703,
                0.6931547183755179,
                -3.1706217758716444
            ]
        },
        {
            "positions": [
                -0.16431178769227933,
                -1.7911218408171692,
                2.4006390917649916,
                -0.6767739082156649,
                0.5581877764967978,
                -3.189771652834035
            ]
        },
        {
            "positions": [
                -0.1296014713388826,
                -1.8746155338982753,
                2.396251968133334,
                -0.6063566216003595,
                0.42322083461807797,
                -3.2089215297964255
            ]
        },
        {
            "positions": [
                0.08038698342192002,
                -1.8835292413398648,
                2.3958882090368547,
                -0.5716098858329705,
                0.4976760360455315,
                -3.190430068169161
            ]
        },
        {
            "positions": [
                0.29037543818272266,
                -1.8924429487814545,
                2.3955244499403756,
                -0.5368631500655815,
                0.572131237472985,
                -3.171938606541897
            ]
        },
        {
            "positions": [
                0.5003638929435252,
                -1.9013566562230442,
                2.3951606908438965,
                -0.5021164142981924,
                0.6465864389004385,
                -3.153447144914633
            ]
        },
        {
            "positions": [
                0.7103523477043279,
                -1.9102703636646337,
                2.3947969317474174,
                -0.4673696785308034,
                0.7210416403278921,
                -3.1349556832873686
            ]
        }
    ]
}