{
    "goal": {
        "global_pose": {
            "orientation": {
                "w": 0.5084816217422485,
                "x": -0.49083608388900757,
                "y": 0.5182115435600281,
                "z": -0.4816462993621826
            },
            "position": {
                "x": 0.5540239810943604,
                "y": 0.030875300988554955,
                "z": 0.16403168439865112
            }
        },
        "name": "move_to_storage_A"
    },
    "id": "LBTRRT_move_to_storage_A_61",
    "joint_names": [
        "shoulder_pan_joint",
        "shoulder_lift_joint",
        "elbow_joint",
        "wrist_1_joint",
        "wrist_2_joint",
        "wrist_3_joint"
    ],
    "metrics": {
        "cart_traj_len": 0.35329124793029393,
        "distance_elbow_joint": 0.45000517517900906,
        "distance_shoulder_lift_joint": 0.23406030324520022,
        "distance_shoulder_pan_joint": 0.4599556869167959,
        "distance_wrist_1_joint": 0.23811645468727038,
        "distance_wrist_2_joint": 1.1083124443075056,
        "distance_wrist_3_joint": 0.10087249273976218,
        "smoothness": 1.2212453191034883e-15,
        "time": 5.0026143770000004,
        "traj_len": 1.609758539991493,
        "weighted_distance": 2.034575248436352
    },
    "planner": "LBTRRT",
    "start": {
        "state": {
            "elbow_joint": 1.9715463870305268,
            "shoulder_lift_joint": -1.1394903361783484,
            "shoulder_pan_joint": 0.12281147578464417,
            "wrist_1_joint": -0.7804599489681411,
            "wrist_2_joint": 0.12958660307563738,
            "wrist_3_joint": -3.1924946282119055
        }
    },
    "waypoints": [
        {
            "positions": [
                0.12281147578464417,
                -1.1394903361783484,
                1.9715463870305268,
                -0.7804599489681411,
                0.12958660307563738,
                -3.1924946282119055
            ]
        },
        {
            "positions": [
                0.057103520510816186,
                -1.172927522356234,
                2.035832840627528,
                -0.8144765853520368,
                0.28791695226242386,
                -3.1780842721062252
            ]
        },
        {
            "positions": [
                -0.0086044347630118,
                -1.2063647085341198,
                2.1001192942245295,
                -0.8484932217359327,
                0.44624730144921043,
                -3.163673916000545
            ]
        },
        {
            "positions": [
                -0.07431239003683977,
                -1.2398018947120055,
                2.164405747821531,
                -0.8825098581198284,
                0.6045776506359969,
                -3.1492635598948646
            ]
        },
        {
            "positions": [
                -0.14002034531066776,
                -1.2732390808898915,
                2.2286922014185317,
                -0.9165264945037241,
                0.7629079998227835,
                -3.1348532037891843
            ]
        },
        {
            "positions": [
                -0.20572830058449576,
                -1.3066762670677772,
                2.292978655015533,
                -0.95054313088762,
                0.92123834900957,
                -3.120442847683504
            ]
        },
        {
            "positions": [
                -0.2714362558583237,
                -1.3401134532456629,
                2.3572651086125345,
                -0.9845597672715156,
                1.0795686981963564,
                -3.1060324915778237
            ]
        },
        {
            "positions": [
                -0.3371442111321517,
                -1.3735506394235486,
                2.421551562209536,
                -1.0185764036554115,
                1.237899047383143,
                -3.0916221354721434
            ]
        }
    ]
}