{
    "goal": {
        "global_pose": {
            "orientation": {
                "w": 0.7047431468963623,
                "x": -0.7094548344612122,
                "y": 0.0024358443915843964,
                "z": -0.0022348060738295317
            },
            "position": {
                "x": 0.6094750761985779,
                "y": 0.3671506643295288,
                "z": 0.19426114857196808
            }
        },
        "name": "move_to_magneteinheit_A"
    },
    "id": "PRM_move_to_magneteinheit_A_106",
    "joint_names": [
        "shoulder_pan_joint",
        "shoulder_lift_joint",
        "elbow_joint",
        "wrist_1_joint",
        "wrist_2_joint",
        "wrist_3_joint"
    ],
    "metrics": {
        "cart_traj_len": 2.070954216106908,
        "distance_elbow_joint": 3.9050261666697907,
        "distance_shoulder_lift_joint": 1.0706516011707543,
        "distance_shoulder_pan_joint": 1.2422615790677003,
        "distance_wrist_1_joint": 1.2746724808320218,
        "distance_wrist_2_joint": 1.4440679960648815,
        "distance_wrist_3_joint": 2.0241013939278854,
        "smoothness": 4.900294733627565e-16,
        "time": 0.057867848,
        "traj_len": 3.31070705706999,
        "weighted_distance": 4.2104304390983245
    },
    "planner": "PRM",
    "start": {
        "state": {
            "elbow_joint": -1.919643507792019,
            "shoulder_lift_joint": -0.07675430207160344,
            "shoulder_pan_joint": -1.1188671864651873,
            "wrist_1_joint": 0.42560062535961957,
            "wrist_2_joint": 1.5706038300724876,
            "wrist_3_joint": 1.1188968870953055
        }
    },
    "waypoints": [
        {
            "positions": [
                -1.1188671864651873,
                -0.07675430207160344,
                -1.919643507792019,
                0.42560062535961957,
                1.5706038300724876,
                1.1188968870953055
            ]
        },
        {
            "positions": [
                -1.0745007014984838,
                -0.11499185925627323,
                -1.7801782875538124,
                0.38007660818704736,
                1.5190299730701704,
                1.19118622259273
            ]
        },
        {
            "positions": [
                -1.0301342165317802,
                -0.153229416440943,
                -1.6407130673156054,
                0.33455259101447515,
                1.4674561160678532,
                1.2634755580901544
            ]
        },
        {
            "positions": [
                -0.9857677315650766,
                -0.19146697362561282,
                -1.5012478470773987,
                0.28902857384190295,
                1.415882259065536,
                1.335764893587579
            ]
        },
        {
            "positions": [
                -0.941401246598373,
                -0.2297045308102826,
                -1.361782626839192,
                0.24350455666933074,
                1.3643084020632188,
                1.4080542290850033
            ]
        },
        {
            "positions": [
                -0.8970347616316694,
                -0.26794208799495245,
                -1.222317406600985,
                0.19798053949675853,
                1.3127345450609016,
                1.4803435645824279
            ]
        },
        {
            "positions": [
                -0.8526682766649658,
                -0.3061796451796222,
                -1.0828521863627782,
                0.15245652232418633,
                1.2611606880585844,
                1.5526329000798524
            ]
        },
        {
            "positions": [
                -0.8083017916982622,
                -0.344417202364292,
                -0.9433869661245714,
                0.10693250515161412,
                1.2095868310562672,
                1.624922235577277
            ]
        },
        {
            "positions": [
                -0.7639353067315586,
                -0.3826547595489618,
                -0.8039217458863646,
                0.061408487979041915,
                1.1580129740539502,
                1.6972115710747013
            ]
        },
        {
            "positions": [
                -0.719568821764855,
                -0.42089231673363164,
                -0.6644565256481576,
                0.015884470806469653,
                1.1064391170516328,
                1.7695009065721259
            ]
        },
        {
            "positions": [
                -0.6752023367981514,
                -0.4591298739183014,
                -0.5249913054099509,
                -0.029639546366102498,
                1.0548652600493158,
                1.8417902420695502
            ]
        },
        {
            "positions": [
                -0.630835851831448,
                -0.4973674311029712,
                -0.38552608517174414,
                -0.07516356353867465,
                1.0032914030469984,
                1.9140795775669748
            ]
        },
        {
            "positions": [
                -0.5864693668647444,
                -0.535604988287641,
                -0.2460608649335374,
                -0.12068758071124691,
                0.9517175460446813,
                1.9863689130643993
            ]
        },
        {
            "positions": [
                -0.5421028818980408,
                -0.5738425454723108,
                -0.10659564469533045,
                -0.16621159788381917,
                0.9001436890423641,
                2.058658248561824
            ]
        },
        {
            "positions": [
                -0.4977363969313372,
                -0.6120801026569807,
                0.032869575542876284,
                -0.21173561505639132,
                0.8485698320400469,
                2.130947584059248
            ]
        },
        {
            "positions": [
                -0.4533699119646336,
                -0.6503176598416505,
                0.17233479578108324,
                -0.2572596322289635,
                0.7969959750377297,
                2.2032369195566726
            ]
        },
        {
            "positions": [
                -0.40900342699793,
                -0.68855521702632,
                0.31180001601928997,
                -0.30278364940153574,
                0.7454221180354126,
                2.275526255054097
            ]
        },
        {
            "positions": [
                -0.36463694203122654,
                -0.7267927742109899,
                0.4512652362574967,
                -0.3483076665741079,
                0.6938482610330954,
                2.3478155905515212
            ]
        },
        {
            "positions": [
                -0.32027045706452284,
                -0.7650303313956599,
                0.5907304564957039,
                -0.39383168374668026,
                0.6422744040307781,
                2.4201049260489462
            ]
        },
        {
            "positions": [
                -0.27590397209781925,
                -0.8032678885803297,
                0.7301956767339106,
                -0.4393557009192524,
                0.5907005470284609,
                2.492394261546371
            ]
        },
        {
            "positions": [
                -0.23153748713111566,
                -0.8415054457649993,
                0.8696608969721173,
                -0.48487971809182456,
                0.5391266900261438,
                2.5646835970437953
            ]
        },
        {
            "positions": [
                -0.18717100216441218,
                -0.8797430029496691,
                1.009126117210324,
                -0.5304037352643967,
                0.48755283302382657,
                2.6369729325412194
            ]
        },
        {
            "positions": [
                -0.1428045171977086,
                -0.9179805601343389,
                1.1485913374485308,
                -0.5759277524369688,
                0.43597897602150937,
                2.709262268038644
            ]
        },
        {
            "positions": [
                -0.098438032231005,
                -0.9562181173190087,
                1.2880565576867375,
                -0.6214517696095412,
                0.38440511901919217,
                2.7815516035360686
            ]
        },
        {
            "positions": [
                -0.05407154726430141,
                -0.9944556745036786,
                1.4275217779249443,
                -0.6669757867821133,
                0.33283126201687496,
                2.8538409390334927
            ]
        },
        {
            "positions": [
                -0.009705062297597822,
                -1.0326932316883484,
                1.5669869981631515,
                -0.7124998039546857,
                0.28125740501455776,
                2.9261302745309177
            ]
        },
        {
            "positions": [
                0.03466142266910577,
                -1.0709307888730182,
                1.7064522184013582,
                -0.7580238211272579,
                0.22968354801224056,
                2.998419610028342
            ]
        },
        {
            "positions": [
                0.07902790763580936,
                -1.109168346057688,
                1.845917438639565,
                -0.80354783829983,
                0.17810969100992335,
                3.070708945525767
            ]
        },
        {
            "positions": [
                0.12339439260251296,
                -1.1474059032423578,
                1.9853826588777717,
                -0.8490718554724022,
                0.12653583400760615,
                3.142998281023191
            ]
        }
    ]
}