{
    "goal": {
        "global_pose": {
            "orientation": {
                "w": 0.5084816217422485,
                "x": -0.49083608388900757,
                "y": 0.5182115435600281,
                "z": -0.4816462993621826
            },
            "position": {
                "x": 0.5540239810943604,
                "y": 0.030875300988554955,
                "z": 0.16403168439865112
            }
        },
        "name": "move_to_storage_A"
    },
    "id": "PRM_move_to_storage_A_32",
    "joint_names": [
        "shoulder_pan_joint",
        "shoulder_lift_joint",
        "elbow_joint",
        "wrist_1_joint",
        "wrist_2_joint",
        "wrist_3_joint"
    ],
    "metrics": {
        "cart_traj_len": 0.3532961395800926,
        "distance_elbow_joint": 0.4482275039816459,
        "distance_shoulder_lift_joint": 0.23480069496696387,
        "distance_shoulder_pan_joint": 0.4608672181586203,
        "distance_wrist_1_joint": 0.235217688829637,
        "distance_wrist_2_joint": 1.1040457392816312,
        "distance_wrist_3_joint": 0.09329676036339585,
        "smoothness": 1.1102230244806396e-15,
        "time": 0.011675159,
        "traj_len": 1.6051341394356717,
        "weighted_distance": 2.0254166372428055
    },
    "planner": "PRM",
    "start": {
        "state": {
            "elbow_joint": 1.9715463870305268,
            "shoulder_lift_joint": -1.1394903361783484,
            "shoulder_pan_joint": 0.12281147578464417,
            "wrist_1_joint": -0.7804599489681411,
            "wrist_2_joint": 0.12958660307563738,
            "wrist_3_joint": -3.1924946282119055
        }
    },
    "waypoints": [
        {
            "positions": [
                0.12281147578464417,
                -1.1394903361783484,
                1.9715463870305268,
                -0.7804599489681411,
                0.12958660307563738,
                -3.1924946282119055
            ]
        },
        {
            "positions": [
                0.05697330176198413,
                -1.1730332926022005,
                2.0355788875993333,
                -0.8140624759438035,
                0.28730742297301326,
                -3.1791665195885632
            ]
        },
        {
            "positions": [
                -0.008864872260675907,
                -1.2065762490260523,
                2.0996113881681397,
                -0.8476650029194659,
                0.4450282428703891,
                -3.165838410965221
            ]
        },
        {
            "positions": [
                -0.07470304628333595,
                -1.2401192054499044,
                2.1636438887369462,
                -0.8812675298951284,
                0.602749062767765,
                -3.1525103023418786
            ]
        },
        {
            "positions": [
                -0.14054122030599597,
                -1.2736621618737562,
                2.2276763893057527,
                -0.9148700568707908,
                0.7604698826651409,
                -3.1391821937185367
            ]
        },
        {
            "positions": [
                -0.20637939432865604,
                -1.3072051182976083,
                2.2917088898745597,
                -0.9484725838464532,
                0.9181907025625169,
                -3.1258540850951944
            ]
        },
        {
            "positions": [
                -0.27221756835131605,
                -1.3407480747214602,
                2.355741390443366,
                -0.9820751108221156,
                1.0759115224598925,
                -3.112525976471852
            ]
        },
        {
            "positions": [
                -0.3380557423739761,
                -1.3742910311453123,
                2.4197738910121727,
                -1.015677637797778,
                1.2336323423572686,
                -3.0991978678485097
            ]
        }
    ]
}