{
    "goal": {
        "global_pose": {
            "orientation": {
                "w": -0.00223480608172531,
                "x": 0.0024358444001904467,
                "y": 0.7094548369677653,
                "z": -0.704743149386269
            },
            "position": {
                "x": 0.6205249238014221,
                "y": -0.6371506643295288,
                "z": 0.19426114857196808
            }
        },
        "name": "move_to_magneteinheit_B"
    },
    "id": "PRM_move_to_magneteinheit_B_88",
    "joint_names": [
        "shoulder_pan_joint",
        "shoulder_lift_joint",
        "elbow_joint",
        "wrist_1_joint",
        "wrist_2_joint",
        "wrist_3_joint"
    ],
    "metrics": {
        "cart_traj_len": 3.286394203896878,
        "distance_elbow_joint": 5.10647421430821,
        "distance_shoulder_lift_joint": 1.4272148702104102,
        "distance_shoulder_pan_joint": 2.1463960187736904,
        "distance_wrist_1_joint": 4.814990829992098,
        "distance_wrist_2_joint": 1.7584919556142056,
        "distance_wrist_3_joint": 1.6253004196428562,
        "smoothness": 0.48590935490012743,
        "time": 0.916999807,
        "traj_len": 4.108389989830744,
        "weighted_distance": 5.167489906466532
    },
    "planner": "PRM",
    "start": {
        "state": {
            "elbow_joint": 2.39358713078474,
            "shoulder_lift_joint": -1.908514104345545,
            "shoulder_pan_joint": 0.7066247066606129,
            "wrist_1_joint": -0.4678290933515497,
            "wrist_2_joint": 0.7096259083745334,
            "wrist_3_joint": -3.1358149277392293
        }
    },
    "waypoints": [
        {
            "positions": [
                0.7066247066606129,
                -1.908514104345545,
                2.39358713078474,
                -0.4678290933515497,
                0.7096259083745334,
                -3.1358149277392293
            ]
        },
        {
            "positions": [
                0.688277275975004,
                -1.9576053468452344,
                2.3455894440121563,
                -0.282155305639801,
                0.6772718618728782,
                -3.098185227485919
            ]
        },
        {
            "positions": [
                0.6699298452893951,
                -2.006696589344924,
                2.297591757239573,
                -0.09648151792805232,
                0.6449178153712232,
                -3.0605555272326086
            ]
        },
        {
            "positions": [
                0.6515824146037862,
                -2.055787831844613,
                2.2495940704669892,
                0.08919226978369638,
                0.612563768869568,
                -3.0229258269792982
            ]
        },
        {
            "positions": [
                0.6332349839181772,
                -2.104879074344302,
                2.2015963836944055,
                0.274866057495445,
                0.5802097223679128,
                -2.985296126725988
            ]
        },
        {
            "positions": [
                0.6296776028590412,
                -2.1378083072985845,
                2.0904002553995458,
                0.4082153100051429,
                0.5398020039272421,
                -2.916830569450217
            ]
        },
        {
            "positions": [
                0.6261202217999051,
                -2.170737540252867,
                1.9792041271046856,
                0.5415645625148406,
                0.4993942854865713,
                -2.8483650121744453
            ]
        },
        {
            "positions": [
                0.6225628407407691,
                -2.2036667732071487,
                1.868007998809826,
                0.6749138150245384,
                0.4589865670459006,
                -2.779899454898674
            ]
        },
        {
            "positions": [
                0.619005459681633,
                -2.236596006161431,
                1.756811870514966,
                0.8082630675342364,
                0.41857884860522976,
                -2.7114338976229027
            ]
        },
        {
            "positions": [
                0.615448078622497,
                -2.2695252391157132,
                1.645615742220106,
                0.9416123200439341,
                0.37817113016455906,
                -2.6429683403471316
            ]
        },
        {
            "positions": [
                0.6897547002114071,
                -2.2482410033934883,
                1.5038480494513546,
                0.8513729440873051,
                0.33580193836189104,
                -2.6310931071470574
            ]
        },
        {
            "positions": [
                0.7640613218003172,
                -2.226956767671263,
                1.3620803566826032,
                0.761133568130676,
                0.2934327465592231,
                -2.619217873946983
            ]
        },
        {
            "positions": [
                0.8383679433892273,
                -2.205672531949038,
                1.220312663913852,
                0.670894192174047,
                0.25106355475655506,
                -2.607342640746909
            ]
        },
        {
            "positions": [
                0.9126745649781374,
                -2.184388296226813,
                1.0785449711451005,
                0.5806548162174179,
                0.20869436295388707,
                -2.5954674075468347
            ]
        },
        {
            "positions": [
                0.9869811865670475,
                -2.163104060504588,
                0.9367772783763492,
                0.49041544026078887,
                0.1663251711512191,
                -2.5835921743467605
            ]
        },
        {
            "positions": [
                1.0612878081559576,
                -2.1418198247823628,
                0.7950095856075977,
                0.40017606430415975,
                0.12395597934855107,
                -2.5717169411466863
            ]
        },
        {
            "positions": [
                1.1355944297448677,
                -2.120535589060138,
                0.6532418928388464,
                0.30993668834753074,
                0.08158678754588311,
                -2.559841707946612
            ]
        },
        {
            "positions": [
                1.2099010513337778,
                -2.099251353337913,
                0.5114742000700949,
                0.21969731239090173,
                0.039217595743215095,
                -2.547966474746538
            ]
        },
        {
            "positions": [
                1.284207672922688,
                -2.0779671176156875,
                0.36970650730134347,
                0.1294579364342726,
                -0.0031515960594529213,
                -2.5360912415464636
            ]
        },
        {
            "positions": [
                1.358514294511598,
                -2.0566828818934626,
                0.22793881453259224,
                0.039218560477643605,
                -0.04552078786212088,
                -2.5242160083463894
            ]
        },
        {
            "positions": [
                1.432820916100508,
                -2.0353986461712377,
                0.08617112176384079,
                -0.051020815478985515,
                -0.0878899796647889,
                -2.512340775146315
            ]
        },
        {
            "positions": [
                1.5071275376894182,
                -2.0141144104490127,
                -0.055596571004910667,
                -0.14126019143561463,
                -0.1302591714674569,
                -2.500465541946241
            ]
        },
        {
            "positions": [
                1.5814341592783283,
                -1.9928301747267874,
                -0.19736426377366212,
                -0.23149956739224353,
                -0.17262836327012487,
                -2.4885903087461667
            ]
        },
        {
            "positions": [
                1.6557407808672384,
                -1.9715459390045624,
                -0.33913195654241335,
                -0.32173894334887265,
                -0.21499755507279283,
                -2.476715075546093
            ]
        },
        {
            "positions": [
                1.7300474024561485,
                -1.9502617032823373,
                -0.48089964931116524,
                -0.41197831930550177,
                -0.2573667468754609,
                -2.4648398423460187
            ]
        },
        {
            "positions": [
                1.8043540240450586,
                -1.9289774675601121,
                -0.6226673420799163,
                -0.5022176952621307,
                -0.29973593867812887,
                -2.4529646091459445
            ]
        },
        {
            "positions": [
                1.8786606456339687,
                -1.9076932318378872,
                -0.7644350348486677,
                -0.59245707121876,
                -0.34210513048079694,
                -2.4410893759458703
            ]
        },
        {
            "positions": [
                1.9529672672228788,
                -1.8864089961156623,
                -0.9062027276174192,
                -0.6826964471753889,
                -0.3844743222834649,
                -2.429214142745796
            ]
        },
        {
            "positions": [
                2.0272738888117887,
                -1.865124760393437,
                -1.0479704203861706,
                -0.772935823132018,
                -0.42684351408613297,
                -2.417338909545722
            ]
        },
        {
            "positions": [
                2.101580510400699,
                -1.843840524671212,
                -1.1897381131549216,
                -0.8631751990886469,
                -0.4692127058888008,
                -2.4054636763456476
            ]
        },
        {
            "positions": [
                2.175887131989609,
                -1.822556288948987,
                -1.3315058059236735,
                -0.9534145750452763,
                -0.5115818976914689,
                -2.3935884431455734
            ]
        },
        {
            "positions": [
                2.250193753578519,
                -1.8012720532267619,
                -1.4732734986924245,
                -1.0436539510019052,
                -0.5539510894941369,
                -2.381713209945499
            ]
        },
        {
            "positions": [
                2.324500375167429,
                -1.7799878175045367,
                -1.6150411914611764,
                -1.1338933269585345,
                -0.5963202812968049,
                -2.369837976745425
            ]
        },
        {
            "positions": [
                2.3988069967563392,
                -1.7587035817823118,
                -1.7568088842299274,
                -1.2241327029151634,
                -0.6386894730994729,
                -2.3579627435453507
            ]
        },
        {
            "positions": [
                2.4731136183452493,
                -1.7374193460600866,
                -1.8985765769986789,
                -1.3143720788717923,
                -0.681058664902141,
                -2.3460875103452765
            ]
        },
        {
            "positions": [
                2.5474202399341594,
                -1.7161351103378615,
                -2.0403442697674303,
                -1.4046114548284212,
                -0.7234278567048088,
                -2.3342122771452023
            ]
        },
        {
            "positions": [
                2.6217268615230696,
                -1.6948508746156365,
                -2.182111962536182,
                -1.4948508307850505,
                -0.765797048507477,
                -2.322337043945128
            ]
        },
        {
            "positions": [
                2.6290296467092107,
                -1.7558362584754013,
                -2.1168566731719745,
                -1.6174256657257031,
                -0.731961828766909,
                -2.426534493885719
            ]
        },
        {
            "positions": [
                2.6363324318953514,
                -1.8168216423351657,
                -2.0516013838077667,
                -1.7400005006663555,
                -0.6981266090263409,
                -2.5307319438263103
            ]
        },
        {
            "positions": [
                2.6436352170814925,
                -1.8778070261949305,
                -1.9863460944435591,
                -1.862575335607008,
                -0.6642913892857729,
                -2.6349293937669014
            ]
        },
        {
            "positions": [
                2.6509380022676337,
                -1.9387924100546952,
                -1.9210908050793516,
                -1.9851501705476604,
                -0.6304561695452049,
                -2.739126843707493
            ]
        },
        {
            "positions": [
                2.6582407874537743,
                -1.9997777939144599,
                -1.855835515715144,
                -2.107725005488313,
                -0.5966209498046369,
                -2.843324293648084
            ]
        },
        {
            "positions": [
                2.6655435726399155,
                -2.0607631777742244,
                -1.7905802263509365,
                -2.2302998404289656,
                -0.5627857300640688,
                -2.947521743588675
            ]
        },
        {
            "positions": [
                2.6629816242808375,
                -2.1235717116650132,
                -1.7209585339499154,
                -2.347118468490822,
                -0.5227568899196754,
                -3.040840661691279
            ]
        },
        {
            "positions": [
                2.6604196759217595,
                -2.1863802455558017,
                -1.6513368415488945,
                -2.463937096552679,
                -0.482728049775282,
                -3.134159579793883
            ]
        }
    ]
}