{
    "goal": {
        "global_pose": {
            "orientation": {
                "w": 0.7031023502349854,
                "x": -0.7110244035720825,
                "y": 0.007748599164187908,
                "z": 0.005598929710686207
            },
            "position": {
                "x": 0.11585023208521307,
                "y": 0.44412534475326537,
                "z": 0.3711530566215515
            }
        },
        "name": "move_to_auspresseinheit_A"
    },
    "id": "PRM_move_to_auspresseinheit_A_19",
    "joint_names": [
        "shoulder_pan_joint",
        "shoulder_lift_joint",
        "elbow_joint",
        "wrist_1_joint",
        "wrist_2_joint",
        "wrist_3_joint"
    ],
    "metrics": {
        "cart_traj_len": 1.6182590260782548,
        "distance_elbow_joint": 0.831604948165483,
        "distance_shoulder_lift_joint": 0.5365743272842141,
        "distance_shoulder_pan_joint": 3.5671039083193676,
        "distance_wrist_1_joint": 3.097259894270036,
        "distance_wrist_2_joint": 0.5367222989271221,
        "distance_wrist_3_joint": 0.7474673598272612,
        "smoothness": 1.1670238769820256,
        "time": 0.353969408,
        "traj_len": 3.052332343764925,
        "weighted_distance": 3.8007433022561736
    },
    "planner": "PRM",
    "start": {
        "state": {
            "elbow_joint": 2.422574709923281,
            "shoulder_lift_joint": -1.3736533754116391,
            "shoulder_pan_joint": -0.33786336945926293,
            "wrist_1_joint": -1.0288603412921917,
            "wrist_2_joint": 1.2330224858903978,
            "wrist_3_joint": -3.094022268022082
        }
    },
    "waypoints": [
        {
            "positions": [
                -0.33786336945926293,
                -1.3736533754116391,
                2.422574709923281,
                -1.0288603412921917,
                1.2330224858903978,
                -3.094022268022082
            ]
        },
        {
            "positions": [
                -0.4642264218523583,
                -1.3822647769467107,
                2.462766432219765,
                -1.155789609550903,
                1.2035484002234358,
                -3.1331091716099584
            ]
        },
        {
            "positions": [
                -0.5905894742454537,
                -1.3908761784817825,
                2.5029581545162496,
                -1.2827188778096146,
                1.1740743145564738,
                -3.1721960751978346
            ]
        },
        {
            "positions": [
                -0.7169525266385491,
                -1.399487580016854,
                2.543149876812734,
                -1.409648146068326,
                1.144600228889512,
                -3.2112829787857105
            ]
        },
        {
            "positions": [
                -0.8433155790316444,
                -1.4080989815519256,
                2.583341599109218,
                -1.5365774143270374,
                1.11512614322255,
                -3.2503698823735867
            ]
        },
        {
            "positions": [
                -0.9696786314247399,
                -1.4167103830869974,
                2.623533321405702,
                -1.6635066825857487,
                1.0856520575555881,
                -3.289456785961463
            ]
        },
        {
            "positions": [
                -1.0960416838178353,
                -1.425321784622069,
                2.6637250437021867,
                -1.79043595084446,
                1.0561779718886262,
                -3.328543689549339
            ]
        },
        {
            "positions": [
                -1.2224047362109307,
                -1.4339331861571405,
                2.703916765998671,
                -1.9173652191031714,
                1.0267038862216644,
                -3.367630593137215
            ]
        },
        {
            "positions": [
                -1.3487677886040261,
                -1.442544587692212,
                2.744108488295155,
                -2.044294487361883,
                0.9972298005547023,
                -3.4067174967250917
            ]
        },
        {
            "positions": [
                -1.4751308409971216,
                -1.4511559892272838,
                2.7843002105916392,
                -2.1712237556205944,
                0.9677557148877405,
                -3.4458044003129675
            ]
        },
        {
            "positions": [
                -1.601493893390217,
                -1.4597673907623554,
                2.8244919328881237,
                -2.2981530238793058,
                0.9382816292207785,
                -3.484891303900844
            ]
        },
        {
            "positions": [
                -1.447929001097656,
                -1.4897980782245885,
                2.7958460845414144,
                -2.176288543100444,
                0.9221495330702784,
                -3.461118082304277
            ]
        },
        {
            "positions": [
                -1.2943641088050952,
                -1.5198287656868217,
                2.767200236194705,
                -2.054424062321583,
                0.9060174369197781,
                -3.4373448607077104
            ]
        },
        {
            "positions": [
                -1.1407992165125345,
                -1.549859453149055,
                2.7385543878479957,
                -1.9325595815427214,
                0.8898853407692779,
                -3.4135716391111437
            ]
        },
        {
            "positions": [
                -0.9872343242199735,
                -1.5798901406112882,
                2.7099085395012863,
                -1.81069510076386,
                0.8737532446187778,
                -3.3897984175145774
            ]
        },
        {
            "positions": [
                -0.8336694319274127,
                -1.6099208280735213,
                2.681262691154577,
                -1.6888306199849987,
                0.8576211484682775,
                -3.3660251959180107
            ]
        },
        {
            "positions": [
                -0.6801045396348517,
                -1.6399515155357545,
                2.6526168428078676,
                -1.5669661392061371,
                0.8414890523177774,
                -3.342251974321444
            ]
        },
        {
            "positions": [
                -0.526539647342291,
                -1.6699822029979876,
                2.6239709944611582,
                -1.445101658427276,
                0.8253569561672772,
                -3.3184787527248774
            ]
        },
        {
            "positions": [
                -0.37297475504973,
                -1.700012890460221,
                2.595325146114449,
                -1.3232371776484144,
                0.809224860016777,
                -3.2947055311283107
            ]
        },
        {
            "positions": [
                -0.21940986275716923,
                -1.7300435779224541,
                2.5666792977677395,
                -1.201372696869553,
                0.7930927638662768,
                -3.270932309531744
            ]
        },
        {
            "positions": [
                -0.06584497046460847,
                -1.7600742653846873,
                2.53803344942103,
                -1.0795082160906917,
                0.7769606677157767,
                -3.2471590879351773
            ]
        },
        {
            "positions": [
                0.08771992182795252,
                -1.7901049528469204,
                2.509387601074321,
                -0.9576437353118303,
                0.7608285715652765,
                -3.223385866338611
            ]
        },
        {
            "positions": [
                0.2412848141205135,
                -1.8201356403091538,
                2.4807417527276114,
                -0.8357792545329688,
                0.7446964754147762,
                -3.1996126447420443
            ]
        },
        {
            "positions": [
                0.39484970641307426,
                -1.850166327771387,
                2.452095904380902,
                -0.7139147737541074,
                0.728564379264276,
                -3.1758394231454776
            ]
        },
        {
            "positions": [
                0.548414598705635,
                -1.88019701523362,
                2.4234500560341927,
                -0.592050292975246,
                0.7124322831137758,
                -3.152066201548911
            ]
        },
        {
            "positions": [
                0.701979490998196,
                -1.9102277026958532,
                2.3948042076874834,
                -0.47018581219638467,
                0.6963001869632757,
                -3.1282929799523442
            ]
        }
    ]
}