{
    "goal": {
        "global_pose": {
            "orientation": {
                "w": 0.7047431468963623,
                "x": -0.7094548344612122,
                "y": 0.0024358443915843964,
                "z": -0.0022348060738295317
            },
            "position": {
                "x": 0.6094750761985779,
                "y": 0.3671506643295288,
                "z": 0.19426114857196808
            }
        },
        "name": "move_to_magneteinheit_A"
    },
    "id": "PRM_move_to_magneteinheit_A_46",
    "joint_names": [
        "shoulder_pan_joint",
        "shoulder_lift_joint",
        "elbow_joint",
        "wrist_1_joint",
        "wrist_2_joint",
        "wrist_3_joint"
    ],
    "metrics": {
        "cart_traj_len": 1.8775159593882103,
        "distance_elbow_joint": 3.9203772933495937,
        "distance_shoulder_lift_joint": 0.702560047760964,
        "distance_shoulder_pan_joint": 1.242114984641193,
        "distance_wrist_1_joint": 1.508556169892192,
        "distance_wrist_2_joint": 1.708225142429158,
        "distance_wrist_3_joint": 1.1382822903388534,
        "smoothness": 3.9474596558118316e-16,
        "time": 0.037650084,
        "traj_len": 3.1968916041073325,
        "weighted_distance": 3.9640209158644724
    },
    "planner": "PRM",
    "start": {
        "state": {
            "elbow_joint": -1.919643507792019,
            "shoulder_lift_joint": -0.07675430207160344,
            "shoulder_pan_joint": -1.1188671864651873,
            "wrist_1_joint": 0.42560062535961957,
            "wrist_2_joint": 1.5706038300724876,
            "wrist_3_joint": 1.1188968870953055
        }
    },
    "waypoints": [
        {
            "positions": [
                -1.1188671864651873,
                -0.07675430207160344,
                -1.919643507792019,
                0.42560062535961957,
                1.5706038300724876,
                1.1188968870953055
            ]
        },
        {
            "positions": [
                -1.0710935332097569,
                -0.10377584237010207,
                -1.7688597657401117,
                0.48362201650931924,
                1.5049028630559815,
                1.0751167990053496
            ]
        },
        {
            "positions": [
                -1.0233198799543264,
                -0.1307973826686007,
                -1.6180760236882041,
                0.541643407659019,
                1.4392018960394755,
                1.0313367109153937
            ]
        },
        {
            "positions": [
                -0.9755462266988959,
                -0.15781892296709932,
                -1.4672922816362968,
                0.5996647988087187,
                1.3735009290229694,
                0.9875566228254379
            ]
        },
        {
            "positions": [
                -0.9277725734434653,
                -0.18484046326559794,
                -1.3165085395843894,
                0.6576861899584183,
                1.3077999620064633,
                0.943776534735482
            ]
        },
        {
            "positions": [
                -0.8799989201880348,
                -0.21186200356409657,
                -1.1657247975324818,
                0.715707581108118,
                1.2420989949899572,
                0.899996446645526
            ]
        },
        {
            "positions": [
                -0.8322252669326043,
                -0.23888354386259517,
                -1.0149410554805742,
                0.7737289722578178,
                1.1763980279734512,
                0.8562163585555702
            ]
        },
        {
            "positions": [
                -0.7844516136771739,
                -0.2659050841610938,
                -0.8641573134286671,
                0.8317503634075174,
                1.110697060956945,
                0.8124362704656143
            ]
        },
        {
            "positions": [
                -0.7366779604217433,
                -0.2929266244595924,
                -0.7133735713767595,
                0.8897717545572172,
                1.044996093940439,
                0.7686561823756584
            ]
        },
        {
            "positions": [
                -0.6889043071663128,
                -0.319948164758091,
                -0.5625898293248521,
                0.9477931457069169,
                0.979295126923933,
                0.7248760942857024
            ]
        },
        {
            "positions": [
                -0.6411306539108823,
                -0.3469697050565897,
                -0.41180608727294454,
                1.0058145368566165,
                0.9135941599074269,
                0.6810960061957465
            ]
        },
        {
            "positions": [
                -0.5933570006554518,
                -0.37399124535508826,
                -0.2610223452210372,
                1.0638359280063163,
                0.8478931928909208,
                0.6373159181057906
            ]
        },
        {
            "positions": [
                -0.5455833474000213,
                -0.4010127856535869,
                -0.11023860316912959,
                1.121857319156016,
                0.7821922258744147,
                0.5935358300158348
            ]
        },
        {
            "positions": [
                -0.49780969414459086,
                -0.4280343259520855,
                0.040545138882777776,
                1.1798787103057156,
                0.7164912588579087,
                0.5497557419258788
            ]
        },
        {
            "positions": [
                -0.4500360408891604,
                -0.45505586625058414,
                0.19132888093468492,
                1.2379001014554152,
                0.6507902918414026,
                0.5059756538359229
            ]
        },
        {
            "positions": [
                -0.4022623876337299,
                -0.4820774065490827,
                0.3421126229865925,
                1.295921492605115,
                0.5850893248248966,
                0.4621955657459671
            ]
        },
        {
            "positions": [
                -0.3544887343782993,
                -0.5090989468475814,
                0.4928963650385001,
                1.3539428837548149,
                0.5193883578083904,
                0.41841547765601106
            ]
        },
        {
            "positions": [
                -0.3067150811228688,
                -0.5361204871460801,
                0.6436801070904077,
                1.4119642749045145,
                0.45368739079188436,
                0.37463538956605524
            ]
        },
        {
            "positions": [
                -0.25894142786743835,
                -0.5631420274445786,
                0.7944638491423148,
                1.469985666054214,
                0.3879864237753783,
                0.3308553014760993
            ]
        },
        {
            "positions": [
                -0.21116777461200797,
                -0.5901635677430772,
                0.9452475911942224,
                1.5280070572039137,
                0.3222854567588722,
                0.2870752133861435
            ]
        },
        {
            "positions": [
                -0.16339412135657727,
                -0.617185108041576,
                1.09603133324613,
                1.5860284483536136,
                0.25658448974236614,
                0.24329512529618746
            ]
        },
        {
            "positions": [
                -0.11562046810114679,
                -0.6442066483400746,
                1.2468150752980376,
                1.6440498395033132,
                0.19088352272586007,
                0.19951503720623165
            ]
        },
        {
            "positions": [
                -0.06784681484571631,
                -0.6712281886385731,
                1.3975988173499447,
                1.702071230653013,
                0.125182555709354,
                0.15573494911627572
            ]
        },
        {
            "positions": [
                -0.020073161590285826,
                -0.6982497289370717,
                1.5483825594018523,
                1.7600926218027126,
                0.05948158869284792,
                0.11195486102631991
            ]
        },
        {
            "positions": [
                0.027700491665144655,
                -0.7252712692355703,
                1.69916630145376,
                1.8181140129524125,
                -0.0062193783236581535,
                0.06817477293636398
            ]
        },
        {
            "positions": [
                0.07547414492057514,
                -0.7522928095340691,
                1.8499500435056675,
                1.876135404102112,
                -0.07192034534016423,
                0.024394684846408055
            ]
        },
        {
            "positions": [
                0.1232477981760057,
                -0.7793143498325675,
                2.0007337855575744,
                1.9341567952518117,
                -0.13762131235667022,
                -0.019385403243547896
            ]
        }
    ]
}