{
    "goal": {
        "global_pose": {
            "orientation": {
                "w": 0.7031023502349854,
                "x": -0.7110244035720825,
                "y": 0.007748599164187908,
                "z": 0.005598929710686207
            },
            "position": {
                "x": 0.11585023208521307,
                "y": 0.44412534475326537,
                "z": 0.3711530566215515
            }
        },
        "name": "move_to_auspresseinheit_A"
    },
    "id": "PRM_move_to_auspresseinheit_A_66",
    "joint_names": [
        "shoulder_pan_joint",
        "shoulder_lift_joint",
        "elbow_joint",
        "wrist_1_joint",
        "wrist_2_joint",
        "wrist_3_joint"
    ],
    "metrics": {
        "cart_traj_len": 1.0205148454221649,
        "distance_elbow_joint": 0.33440487070810354,
        "distance_shoulder_lift_joint": 1.1717008278123255,
        "distance_shoulder_pan_joint": 1.2764368174278782,
        "distance_wrist_1_joint": 0.8957581710933888,
        "distance_wrist_2_joint": 1.0538365021853815,
        "distance_wrist_3_joint": 0.7268047923438572,
        "smoothness": 1.6927776537947952,
        "time": 0.514654095,
        "traj_len": 2.3364378830970307,
        "weighted_distance": 2.9769357130340284
    },
    "planner": "PRM",
    "start": {
        "state": {
            "elbow_joint": 2.422574709923281,
            "shoulder_lift_joint": -1.3736533754116391,
            "shoulder_pan_joint": -0.33786336945926293,
            "wrist_1_joint": -1.0288603412921917,
            "wrist_2_joint": 1.2330224858903978,
            "wrist_3_joint": -3.094022268022082
        }
    },
    "waypoints": [
        {
            "positions": [
                -0.33786336945926293,
                -1.3736533754116391,
                2.422574709923281,
                -1.0288603412921917,
                1.2330224858903978,
                -3.094022268022082
            ]
        },
        {
            "positions": [
                -0.232392209499869,
                -1.451303796610871,
                2.4364751024692555,
                -0.9627347939211929,
                1.161174210017889,
                -3.1283956209288863
            ]
        },
        {
            "positions": [
                -0.12692104954047503,
                -1.528954217810103,
                2.45037549501523,
                -0.8966092465501939,
                1.0893259341453803,
                -3.162768973835691
            ]
        },
        {
            "positions": [
                -0.021449889581081127,
                -1.606604639009335,
                2.464275887561204,
                -0.8304836991791951,
                1.0174776582728715,
                -3.197142326742495
            ]
        },
        {
            "positions": [
                0.08402127037831286,
                -1.6842550602085669,
                2.4781762801071783,
                -0.7643581518081961,
                0.9456293824003627,
                -3.2315156796492994
            ]
        },
        {
            "positions": [
                0.18949243033770674,
                -1.761905481407799,
                2.4920766726531527,
                -0.6982326044371974,
                0.8737811065278538,
                -3.2658890325561036
            ]
        },
        {
            "positions": [
                0.2949635902971007,
                -1.8395559026070307,
                2.505977065199127,
                -0.6321070570661984,
                0.801932830655345,
                -3.3002623854629083
            ]
        },
        {
            "positions": [
                0.4004347502564947,
                -1.9172063238062629,
                2.5198774577451015,
                -0.5659815096951994,
                0.7300845547828363,
                -3.3346357383697125
            ]
        },
        {
            "positions": [
                0.5059059102158887,
                -1.9948567450054948,
                2.533777850291076,
                -0.4998559623242006,
                0.6582362789103275,
                -3.3690090912765167
            ]
        },
        {
            "positions": [
                0.6113770701752825,
                -2.0725071662047267,
                2.54767824283705,
                -0.43373041495320164,
                0.5863880030378187,
                -3.403382444183321
            ]
        },
        {
            "positions": [
                0.7168482301346764,
                -2.1501575874039585,
                2.5615786353830243,
                -0.3676048675822029,
                0.5145397271653099,
                -3.4377557970901256
            ]
        },
        {
            "positions": [
                0.8223193900940705,
                -2.2278080086031906,
                2.5754790279289987,
                -0.30147932021120394,
                0.4426914512928012,
                -3.47212914999693
            ]
        },
        {
            "positions": [
                0.7932558756254343,
                -2.148421459947997,
                2.530103889753402,
                -0.3435736077143042,
                0.5085678181897474,
                -3.3849546724046773
            ]
        },
        {
            "positions": [
                0.7641923611567981,
                -2.0690349112928037,
                2.484728751577806,
                -0.3856678952174044,
                0.5744441850866937,
                -3.2977801948124252
            ]
        },
        {
            "positions": [
                0.7351288466881619,
                -1.98964836263761,
                2.4393536134022096,
                -0.42776218272050465,
                0.6403205519836399,
                -3.2106057172201727
            ]
        },
        {
            "positions": [
                0.7060653322195257,
                -1.9102618139824166,
                2.393978475226613,
                -0.4698564702236049,
                0.7061969188805861,
                -3.1234312396279202
            ]
        }
    ]
}