{
    "goal": {
        "global_pose": {
            "orientation": {
                "w": 0.7047431468963623,
                "x": -0.7094548344612122,
                "y": 0.0024358443915843964,
                "z": -0.0022348060738295317
            },
            "position": {
                "x": 0.6094750761985779,
                "y": 0.3671506643295288,
                "z": 0.19426114857196808
            }
        },
        "name": "move_to_magneteinheit_A"
    },
    "id": "PRM_move_to_magneteinheit_A_98",
    "joint_names": [
        "shoulder_pan_joint",
        "shoulder_lift_joint",
        "elbow_joint",
        "wrist_1_joint",
        "wrist_2_joint",
        "wrist_3_joint"
    ],
    "metrics": {
        "cart_traj_len": 1.8703903003025348,
        "distance_elbow_joint": 3.9347322127058355,
        "distance_shoulder_lift_joint": 0.709261350498146,
        "distance_shoulder_pan_joint": 1.2426322078606673,
        "distance_wrist_1_joint": 1.566563484770215,
        "distance_wrist_2_joint": 1.7086776074889858,
        "distance_wrist_3_joint": 1.197847652937209,
        "smoothness": 6.026925012387961e-16,
        "time": 0.048781936,
        "traj_len": 3.2186510398396813,
        "weighted_distance": 4.003829531135745
    },
    "planner": "PRM",
    "start": {
        "state": {
            "elbow_joint": -1.919643507792019,
            "shoulder_lift_joint": -0.07675430207160344,
            "shoulder_pan_joint": -1.1188671864651873,
            "wrist_1_joint": 0.42560062535961957,
            "wrist_2_joint": 1.5706038300724876,
            "wrist_3_joint": 1.1188968870953055
        }
    },
    "waypoints": [
        {
            "positions": [
                -1.1188671864651873,
                -0.07675430207160344,
                -1.919643507792019,
                0.42560062535961957,
                1.5706038300724876,
                1.1188968870953055
            ]
        },
        {
            "positions": [
                -1.0728437713592367,
                -0.10302324097894218,
                -1.7739126850992104,
                0.48362149516592384,
                1.5073194742395621,
                1.0745321592087422
            ]
        },
        {
            "positions": [
                -1.026820356253286,
                -0.12929217988628092,
                -1.6281818624064017,
                0.5416423649722281,
                1.444035118406637,
                1.030167431322179
            ]
        },
        {
            "positions": [
                -0.9807969411473354,
                -0.15556111879361967,
                -1.482451039713593,
                0.5996632347785323,
                1.3807507625737114,
                0.9858027034356156
            ]
        },
        {
            "positions": [
                -0.9347735260413848,
                -0.1818300577009584,
                -1.3367202170207841,
                0.6576841045848366,
                1.317466406740786,
                0.9414379755490524
            ]
        },
        {
            "positions": [
                -0.8887501109354341,
                -0.20809899660829714,
                -1.1909893943279757,
                0.7157049743911408,
                1.2541820509078607,
                0.8970732476624891
            ]
        },
        {
            "positions": [
                -0.8427266958294835,
                -0.23436793551563587,
                -1.0452585716351668,
                0.7737258441974451,
                1.1908976950749353,
                0.8527085197759258
            ]
        },
        {
            "positions": [
                -0.7967032807235328,
                -0.2606368744229746,
                -0.8995277489423581,
                0.8317467140037493,
                1.1276133392420098,
                0.8083437918893625
            ]
        },
        {
            "positions": [
                -0.7506798656175823,
                -0.28690581333031334,
                -0.7537969262495494,
                0.8897675838100536,
                1.0643289834090846,
                0.7639790640027992
            ]
        },
        {
            "positions": [
                -0.7046564505116316,
                -0.3131747522376521,
                -0.6080661035567407,
                0.9477884536163579,
                1.001044627576159,
                0.7196143361162359
            ]
        },
        {
            "positions": [
                -0.658633035405681,
                -0.33944369114499084,
                -0.46233528086393205,
                1.0058093234226622,
                0.9377602717432336,
                0.6752496082296726
            ]
        },
        {
            "positions": [
                -0.6126096202997303,
                -0.36571263005232957,
                -0.31660445817112315,
                1.0638301932289664,
                0.8744759159103083,
                0.6308848803431093
            ]
        },
        {
            "positions": [
                -0.5665862051937797,
                -0.3919815689596683,
                -0.17087363547831447,
                1.1218510630352707,
                0.8111915600773828,
                0.586520152456546
            ]
        },
        {
            "positions": [
                -0.520562790087829,
                -0.41825050786700707,
                -0.025142812785505786,
                1.179871932841575,
                0.7479072042444574,
                0.5421554245699827
            ]
        },
        {
            "positions": [
                -0.47453937498187837,
                -0.4445194467743458,
                0.1205880099073029,
                1.2378928026478793,
                0.6846228484115321,
                0.49779069668341935
            ]
        },
        {
            "positions": [
                -0.4285159598759277,
                -0.4707883856816846,
                0.2663188326001118,
                1.2959136724541835,
                0.6213384925786066,
                0.45342596879685604
            ]
        },
        {
            "positions": [
                -0.3824925447699772,
                -0.49705732458902324,
                0.41204965529292026,
                1.3539345422604876,
                0.5580541367456813,
                0.40906124091029283
            ]
        },
        {
            "positions": [
                -0.3364691296640264,
                -0.523326263496362,
                0.5577804779857292,
                1.411955412066792,
                0.4947697809127558,
                0.3646965130237294
            ]
        },
        {
            "positions": [
                -0.2904457145580759,
                -0.5495952024037007,
                0.7035113006785376,
                1.4699762818730961,
                0.43148542507983056,
                0.3203317851371662
            ]
        },
        {
            "positions": [
                -0.24442229945212512,
                -0.5758641413110395,
                0.8492421233713465,
                1.5279971516794006,
                0.3682010692469051,
                0.2759670572506029
            ]
        },
        {
            "positions": [
                -0.1983988843461746,
                -0.6021330802183782,
                0.994972946064155,
                1.5860180214857047,
                0.30491671341397963,
                0.23160232936403957
            ]
        },
        {
            "positions": [
                -0.15237546924022383,
                -0.6284020191257169,
                1.1407037687569643,
                1.6440388912920092,
                0.24163235758105417,
                0.18723760147747626
            ]
        },
        {
            "positions": [
                -0.10635205413427329,
                -0.6546709580330556,
                1.2864345914497728,
                1.7020597610983133,
                0.17834800174812893,
                0.14287287359091305
            ]
        },
        {
            "positions": [
                -0.06032863902832264,
                -0.6809398969403944,
                1.4321654141425817,
                1.7600806309046175,
                0.11506364591520346,
                0.09850814570434974
            ]
        },
        {
            "positions": [
                -0.01430522392237199,
                -0.7072088358477331,
                1.5778962368353902,
                1.8181015007109218,
                0.051779290082277996,
                0.05414341781778642
            ]
        },
        {
            "positions": [
                0.03171819118357866,
                -0.733477774755072,
                1.723627059528199,
                1.876122370517226,
                -0.01150506575064747,
                0.009778689931223106
            ]
        },
        {
            "positions": [
                0.07774160628952931,
                -0.7597467136624108,
                1.8693578822210075,
                1.9341432403235304,
                -0.07478942158357271,
                -0.03458603795534021
            ]
        },
        {
            "positions": [
                0.12376502139547997,
                -0.7860156525697495,
                2.0150887049138166,
                1.9921641101298346,
                -0.13807377741649823,
                -0.0789507658419036
            ]
        }
    ]
}