{
    "goal": {
        "global_pose": {
            "orientation": {
                "w": -0.00223480608172531,
                "x": 0.0024358444001904467,
                "y": 0.7094548369677653,
                "z": -0.704743149386269
            },
            "position": {
                "x": 0.6205249238014221,
                "y": -0.6371506643295288,
                "z": 0.19426114857196808
            }
        },
        "name": "move_to_magneteinheit_B"
    },
    "id": "PRM_move_to_magneteinheit_B_72",
    "joint_names": [
        "shoulder_pan_joint",
        "shoulder_lift_joint",
        "elbow_joint",
        "wrist_1_joint",
        "wrist_2_joint",
        "wrist_3_joint"
    ],
    "metrics": {
        "cart_traj_len": 3.7818383523964014,
        "distance_elbow_joint": 4.458751231511205,
        "distance_shoulder_lift_joint": 1.6527322894032488,
        "distance_shoulder_pan_joint": 2.2928392520231786,
        "distance_wrist_1_joint": 2.4146666837859385,
        "distance_wrist_2_joint": 1.6686564531083155,
        "distance_wrist_3_joint": 6.2847008540530105,
        "smoothness": 0.21643068335537483,
        "time": 1.5461913889999999,
        "traj_len": 4.332706632566404,
        "weighted_distance": 5.951896471620217
    },
    "planner": "PRM",
    "start": {
        "state": {
            "elbow_joint": 2.39358713078474,
            "shoulder_lift_joint": -1.908514104345545,
            "shoulder_pan_joint": 0.7066247066606129,
            "wrist_1_joint": -0.4678290933515497,
            "wrist_2_joint": 0.7096259083745334,
            "wrist_3_joint": -3.1358149277392293
        }
    },
    "waypoints": [
        {
            "positions": [
                0.7066247066606129,
                -1.908514104345545,
                2.39358713078474,
                -0.4678290933515497,
                0.7096259083745334,
                -3.1358149277392293
            ]
        },
        {
            "positions": [
                0.5369774343103274,
                -1.9223123492848664,
                2.3679669819526095,
                -0.5036798841762347,
                0.7138618701377764,
                -3.1396905814432285
            ]
        },
        {
            "positions": [
                0.544928921609194,
                -1.8953566337298673,
                2.22670263257659,
                -0.5771920977982505,
                0.6870924066807611,
                -3.035557810868056
            ]
        },
        {
            "positions": [
                0.5528804089080607,
                -1.868400918174868,
                2.0854382832005713,
                -0.6507043114202665,
                0.6603229432237459,
                -2.9314250402928836
            ]
        },
        {
            "positions": [
                0.5608318962069273,
                -1.8414452026198689,
                1.944173933824552,
                -0.7242165250422824,
                0.6335534797667305,
                -2.827292269717711
            ]
        },
        {
            "positions": [
                0.5687833835057939,
                -1.8144894870648696,
                1.8029095844485328,
                -0.7977287386642984,
                0.6067840163097152,
                -2.7231594991425387
            ]
        },
        {
            "positions": [
                0.5767348708046605,
                -1.7875337715098705,
                1.6616452350725135,
                -0.8712409522863143,
                0.5800145528527,
                -2.6190267285673663
            ]
        },
        {
            "positions": [
                0.5846863581035271,
                -1.7605780559548714,
                1.5203808856964944,
                -0.9447531659083301,
                0.5532450893956847,
                -2.514893957992194
            ]
        },
        {
            "positions": [
                0.5926378454023937,
                -1.733622340399872,
                1.3791165363204754,
                -1.018265379530346,
                0.5264756259386695,
                -2.4107611874170214
            ]
        },
        {
            "positions": [
                0.6005893327012604,
                -1.706666624844873,
                1.237852186944456,
                -1.091777593152362,
                0.4997061624816541,
                -2.306628416841849
            ]
        },
        {
            "positions": [
                0.608540820000127,
                -1.6797109092898737,
                1.0965878375684368,
                -1.165289806774378,
                0.47293669902463886,
                -2.2024956462666765
            ]
        },
        {
            "positions": [
                0.6164923072989936,
                -1.6527551937348746,
                0.9553234881924177,
                -1.2388020203963936,
                0.4461672355676236,
                -2.098362875691504
            ]
        },
        {
            "positions": [
                0.6244437945978603,
                -1.6257994781798755,
                0.8140591388163985,
                -1.3123142340184097,
                0.4193977721106083,
                -1.9942301051163316
            ]
        },
        {
            "positions": [
                0.6323952818967269,
                -1.5988437626248762,
                0.6727947894403794,
                -1.3858264476404254,
                0.39262830865359305,
                -1.8900973345411591
            ]
        },
        {
            "positions": [
                0.6403467691955935,
                -1.571888047069877,
                0.5315304400643601,
                -1.4593386612624415,
                0.3658588451965778,
                -1.7859645639659867
            ]
        },
        {
            "positions": [
                0.6482982564944602,
                -1.544932331514878,
                0.3902660906883413,
                -1.5328508748844574,
                0.33908938173956255,
                -1.6818317933908142
            ]
        },
        {
            "positions": [
                0.6562497437933268,
                -1.5179766159598787,
                0.249001741312322,
                -1.6063630885064732,
                0.31231991828254724,
                -1.5776990228156418
            ]
        },
        {
            "positions": [
                0.6642012310921934,
                -1.4910209004048793,
                0.10773739193630272,
                -1.6798753021284893,
                0.28555045482553193,
                -1.4735662522404693
            ]
        },
        {
            "positions": [
                0.6721527183910599,
                -1.4640651848498802,
                -0.033526957439716565,
                -1.753387515750505,
                0.2587809913685167,
                -1.3694334816652969
            ]
        },
        {
            "positions": [
                0.6801042056899266,
                -1.4371094692948811,
                -0.17479130681573585,
                -1.826899729372521,
                0.23201152791150143,
                -1.2653007110901244
            ]
        },
        {
            "positions": [
                0.6880556929887932,
                -1.4101537537398818,
                -0.3160556561917547,
                -1.900411942994537,
                0.20524206445448612,
                -1.161167940514952
            ]
        },
        {
            "positions": [
                0.6960071802876598,
                -1.3831980381848827,
                -0.45732000556777386,
                -1.9739241566165528,
                0.1784726009974709,
                -1.0570351699397795
            ]
        },
        {
            "positions": [
                0.7798133315521375,
                -1.373896801987009,
                -0.5380849222203821,
                -2.0171960597160963,
                0.14548369209226714,
                -0.9151766220975128
            ]
        },
        {
            "positions": [
                0.863619482816615,
                -1.3645955657891353,
                -0.6188498388729902,
                -2.0604679628156397,
                0.11249478318706335,
                -0.7733180742552461
            ]
        },
        {
            "positions": [
                0.9474256340810927,
                -1.3552943295912616,
                -0.6996147555255984,
                -2.1037398659151827,
                0.07950587428185958,
                -0.6314595264129794
            ]
        },
        {
            "positions": [
                1.0312317853455704,
                -1.345993093393388,
                -0.7803796721782066,
                -2.147011769014726,
                0.04651696537665581,
                -0.4896009785707127
            ]
        },
        {
            "positions": [
                1.115037936610048,
                -1.3366918571955142,
                -0.8611445888308148,
                -2.1902836721142696,
                0.013528056471452027,
                -0.347742430728446
            ]
        },
        {
            "positions": [
                1.1988440878745257,
                -1.3273906209976405,
                -0.941909505483423,
                -2.233555575213813,
                -0.01946085243375173,
                -0.20588388288617931
            ]
        },
        {
            "positions": [
                1.2826502391390031,
                -1.3180893847997668,
                -1.022674422136031,
                -2.2768274783133564,
                -0.052449761338955486,
                -0.06402533504391261
            ]
        },
        {
            "positions": [
                1.366456390403481,
                -1.3087881486018933,
                -1.1034393387886392,
                -2.3200993814128994,
                -0.08543867024415927,
                0.07783321279835409
            ]
        },
        {
            "positions": [
                1.4502625416679584,
                -1.2994869124040196,
                -1.1842042554412475,
                -2.363371284512443,
                -0.11842757914936305,
                0.2196917606406208
            ]
        },
        {
            "positions": [
                1.5340686929324363,
                -1.2901856762061459,
                -1.2649691720938558,
                -2.4066431876119863,
                -0.15141648805456684,
                0.3615503084828875
            ]
        },
        {
            "positions": [
                1.6178748441969137,
                -1.2808844400082722,
                -1.3457340887464637,
                -2.4499150907115297,
                -0.18440539695977057,
                0.5034088563251542
            ]
        },
        {
            "positions": [
                1.7016809954613912,
                -1.2715832038103985,
                -1.426499005399072,
                -2.493186993811073,
                -0.21739430586497435,
                0.6452674041674209
            ]
        },
        {
            "positions": [
                1.785487146725869,
                -1.2622819676125248,
                -1.5072639220516804,
                -2.5364588969106165,
                -0.2503832147701781,
                0.7871259520096876
            ]
        },
        {
            "positions": [
                1.8692932979903465,
                -1.252980731414651,
                -1.5880288387042882,
                -2.57973080001016,
                -0.2833721236753819,
                0.9289844998519543
            ]
        },
        {
            "positions": [
                1.9530994492548244,
                -1.2436794952167773,
                -1.6687937553568966,
                -2.623002703109703,
                -0.3163610325805857,
                1.070843047694221
            ]
        },
        {
            "positions": [
                2.036905600519302,
                -1.2343782590189036,
                -1.7495586720095049,
                -2.6662746062092464,
                -0.34934994148578946,
                1.2127015955364875
            ]
        },
        {
            "positions": [
                2.112503640282934,
                -1.3056301910428885,
                -1.763219029550899,
                -2.6488005343370955,
                -0.395226621528988,
                1.3522732648162994
            ]
        },
        {
            "positions": [
                2.1881016800465662,
                -1.3768821230668733,
                -1.776879387092293,
                -2.631326462464945,
                -0.44110330157218663,
                1.4918449340961115
            ]
        },
        {
            "positions": [
                2.263699719810199,
                -1.4481340550908581,
                -1.7905397446336868,
                -2.613852390592794,
                -0.48697998161538525,
                1.6314166033759234
            ]
        },
        {
            "positions": [
                2.339297759573831,
                -1.519385987114843,
                -1.8042001021750809,
                -2.5963783187206433,
                -0.5328566616585838,
                1.7709882726557353
            ]
        },
        {
            "positions": [
                2.4148957993374633,
                -1.5906379191388278,
                -1.817860459716475,
                -2.5789042468484924,
                -0.5787333417017824,
                1.9105599419355475
            ]
        },
        {
            "positions": [
                2.490493839101096,
                -1.6618898511628126,
                -1.8315208172578687,
                -2.5614301749763415,
                -0.624610021744981,
                2.0501316112153596
            ]
        },
        {
            "positions": [
                2.5660918788647282,
                -1.7331417831867975,
                -1.8451811747992628,
                -2.543956103104191,
                -0.6704867017881796,
                2.1897032804951713
            ]
        },
        {
            "positions": [
                2.6416899186283604,
                -1.8043937152107823,
                -1.8588415323406569,
                -2.52648203123204,
                -0.7163633818313782,
                2.3292749497749834
            ]
        },
        {
            "positions": [
                2.6453858176993323,
                -1.8805906148119995,
                -1.8175770186634945,
                -2.5111963120418332,
                -0.6695243339561946,
                2.491646883601143
            ]
        },
        {
            "positions": [
                2.6490817167703042,
                -1.9567875144132167,
                -1.776312504986332,
                -2.495910592851626,
                -0.622685286081011,
                2.6540188174273034
            ]
        },
        {
            "positions": [
                2.6527776158412766,
                -2.0329844140144337,
                -1.7350479913091696,
                -2.480624873661419,
                -0.5758462382058275,
                2.816390751253463
            ]
        },
        {
            "positions": [
                2.6564735149122485,
                -2.109181313615651,
                -1.693783477632007,
                -2.4653391544712115,
                -0.5290071903306439,
                2.9787626850796234
            ]
        },
        {
            "positions": [
                2.6601694139832204,
                -2.185378213216868,
                -1.6525189639548448,
                -2.4500534352810046,
                -0.4821681424554604,
                3.141134618905783
            ]
        }
    ]
}