{
    "goal": {
        "global_pose": {
            "orientation": {
                "w": 0.7047431468963623,
                "x": -0.7094548344612122,
                "y": 0.0024358443915843964,
                "z": -0.0022348060738295317
            },
            "position": {
                "x": 0.6094750761985779,
                "y": 0.3671506643295288,
                "z": 0.19426114857196808
            }
        },
        "name": "move_to_magneteinheit_A"
    },
    "id": "PRM_move_to_magneteinheit_A_67",
    "joint_names": [
        "shoulder_pan_joint",
        "shoulder_lift_joint",
        "elbow_joint",
        "wrist_1_joint",
        "wrist_2_joint",
        "wrist_3_joint"
    ],
    "metrics": {
        "cart_traj_len": 2.0630345580494556,
        "distance_elbow_joint": 3.871743754806136,
        "distance_shoulder_lift_joint": 1.0505763338052694,
        "distance_shoulder_pan_joint": 1.2410692727854507,
        "distance_wrist_1_joint": 1.1215802694089072,
        "distance_wrist_2_joint": 1.4482420223160377,
        "distance_wrist_3_joint": 1.890186231953702,
        "smoothness": 3.1720657918664137e-16,
        "time": 0.038462989999999996,
        "traj_len": 3.2593554401254714,
        "weighted_distance": 4.119902018338282
    },
    "planner": "PRM",
    "start": {
        "state": {
            "elbow_joint": -1.919643507792019,
            "shoulder_lift_joint": -0.07675430207160344,
            "shoulder_pan_joint": -1.1188671864651873,
            "wrist_1_joint": 0.42560062535961957,
            "wrist_2_joint": 1.5706038300724876,
            "wrist_3_joint": 1.1188968870953055
        }
    },
    "waypoints": [
        {
            "positions": [
                -1.1188671864651873,
                -0.07675430207160344,
                -1.919643507792019,
                0.42560062535961957,
                1.5706038300724876,
                1.1188968870953055
            ]
        },
        {
            "positions": [
                -1.072901657843504,
                -0.11566453665698379,
                -1.7762455909473474,
                0.38406061538151187,
                1.516965236653375,
                1.1889037845750723
            ]
        },
        {
            "positions": [
                -1.0269361292218206,
                -0.15457477124236413,
                -1.6328476741026756,
                0.34252060540340423,
                1.4633266432342626,
                1.258910682054839
            ]
        },
        {
            "positions": [
                -0.9809706006001373,
                -0.19348500582774447,
                -1.4894497572580039,
                0.30098059542529654,
                1.40968804981515,
                1.3289175795346058
            ]
        },
        {
            "positions": [
                -0.935005071978454,
                -0.23239524041312482,
                -1.3460518404133324,
                0.25944058544718884,
                1.3560494563960375,
                1.3989244770143725
            ]
        },
        {
            "positions": [
                -0.8890395433567706,
                -0.27130547499850516,
                -1.2026539235686604,
                0.2179005754690812,
                1.302410862976925,
                1.4689313744941392
            ]
        },
        {
            "positions": [
                -0.8430740147350873,
                -0.3102157095838855,
                -1.059256006723989,
                0.17636056549097354,
                1.2487722695578125,
                1.538938271973906
            ]
        },
        {
            "positions": [
                -0.7971084861134039,
                -0.34912594416926584,
                -0.9158580898793172,
                0.13482055551286587,
                1.1951336761387001,
                1.6089451694536727
            ]
        },
        {
            "positions": [
                -0.7511429574917206,
                -0.3880361787546462,
                -0.7724601730346454,
                0.09328054553475817,
                1.1414950827195876,
                1.6789520669334395
            ]
        },
        {
            "positions": [
                -0.7051774288700372,
                -0.42694641334002653,
                -0.6290622561899737,
                0.051740535556650535,
                1.0878564893004752,
                1.7489589644132062
            ]
        },
        {
            "positions": [
                -0.6592119002483539,
                -0.4658566479254069,
                -0.48566433934530195,
                0.01020052557854284,
                1.0342178958813626,
                1.818965861892973
            ]
        },
        {
            "positions": [
                -0.6132463716266704,
                -0.5047668825107872,
                -0.34226642250063044,
                -0.0313394843995648,
                0.98057930246225,
                1.8889727593727397
            ]
        },
        {
            "positions": [
                -0.567280843004987,
                -0.5436771170961676,
                -0.1988685056559587,
                -0.0728794943776725,
                0.9269407090431375,
                1.9589796568525064
            ]
        },
        {
            "positions": [
                -0.5213153143833037,
                -0.5825873516815478,
                -0.05547058881128697,
                -0.11441950435578013,
                0.873302115624025,
                2.028986554332273
            ]
        },
        {
            "positions": [
                -0.47534978576162035,
                -0.6214975862669283,
                0.08792732803338477,
                -0.15595951433388783,
                0.8196635222049126,
                2.09899345181204
            ]
        },
        {
            "positions": [
                -0.429384257139937,
                -0.6604078208523088,
                0.23132524487805672,
                -0.19749952431199552,
                0.7660249287858,
                2.1690003492918066
            ]
        },
        {
            "positions": [
                -0.38341872851825365,
                -0.699318055437689,
                0.37472316172272824,
                -0.23903953429010322,
                0.7123863353666875,
                2.2390072467715734
            ]
        },
        {
            "positions": [
                -0.3374531998965703,
                -0.7382282900230694,
                0.5181210785674002,
                -0.2805795442682109,
                0.6587477419475749,
                2.30901414425134
            ]
        },
        {
            "positions": [
                -0.29148767127488695,
                -0.7771385246084497,
                0.6615189954120717,
                -0.3221195542463185,
                0.6051091485284625,
                2.379021041731107
            ]
        },
        {
            "positions": [
                -0.2455221426532035,
                -0.8160487591938301,
                0.8049169122567437,
                -0.3636595642244263,
                0.55147055510935,
                2.4490279392108736
            ]
        },
        {
            "positions": [
                -0.19955661403152025,
                -0.8549589937792104,
                0.9483148291014152,
                -0.4051995742025339,
                0.4978319616902376,
                2.5190348366906403
            ]
        },
        {
            "positions": [
                -0.1535910854098368,
                -0.8938692283645908,
                1.0917127459460867,
                -0.4467395841806416,
                0.444193368271125,
                2.589041734170407
            ]
        },
        {
            "positions": [
                -0.10762555678815344,
                -0.932779462949971,
                1.2351106627907582,
                -0.48827959415874916,
                0.3905547748520124,
                2.659048631650174
            ]
        },
        {
            "positions": [
                -0.06166002816647009,
                -0.9716896975353515,
                1.3785085796354302,
                -0.529819604136857,
                0.3369161814328998,
                2.7290555291299405
            ]
        },
        {
            "positions": [
                -0.015694499544786744,
                -1.0105999321207317,
                1.5219064964801017,
                -0.5713596141149646,
                0.28327758801378744,
                2.7990624266097073
            ]
        },
        {
            "positions": [
                0.030271029076896605,
                -1.0495101667061122,
                1.6653044133247736,
                -0.6128996240930722,
                0.22963899459467485,
                2.869069324089474
            ]
        },
        {
            "positions": [
                0.07623655769857995,
                -1.0884204012914924,
                1.8087023301694451,
                -0.6544396340711798,
                0.17600040117556248,
                2.9390762215692408
            ]
        },
        {
            "positions": [
                0.12220208632026339,
                -1.1273306358768729,
                1.952100247014117,
                -0.6959796440492876,
                0.12236180775644998,
                3.0090831190490075
            ]
        }
    ]
}