{
    "goal": {
        "global_pose": {
            "orientation": {
                "w": -0.00223480608172531,
                "x": 0.0024358444001904467,
                "y": 0.7094548369677653,
                "z": -0.704743149386269
            },
            "position": {
                "x": 0.6205249238014221,
                "y": -0.6371506643295288,
                "z": 0.19426114857196808
            }
        },
        "name": "move_to_magneteinheit_B"
    },
    "id": "PRM_move_to_magneteinheit_B_38",
    "joint_names": [
        "shoulder_pan_joint",
        "shoulder_lift_joint",
        "elbow_joint",
        "wrist_1_joint",
        "wrist_2_joint",
        "wrist_3_joint"
    ],
    "metrics": {
        "cart_traj_len": 1.4525535681218176,
        "distance_elbow_joint": 0.7238016453517937,
        "distance_shoulder_lift_joint": 1.2433618332311305,
        "distance_shoulder_pan_joint": 1.6213644237253595,
        "distance_wrist_1_joint": 2.6205896017001864,
        "distance_wrist_2_joint": 2.937508829974879,
        "distance_wrist_3_joint": 3.136730494325525,
        "smoothness": 2.960594733002109e-16,
        "time": 0.035657906999999996,
        "traj_len": 3.5047620216369713,
        "weighted_distance": 4.910694069949277
    },
    "planner": "PRM",
    "start": {
        "state": {
            "elbow_joint": 2.39358713078474,
            "shoulder_lift_joint": -1.908514104345545,
            "shoulder_pan_joint": 0.7066247066606129,
            "wrist_1_joint": -0.4678290933515497,
            "wrist_2_joint": 0.7096259083745334,
            "wrist_3_joint": -3.1358149277392293
        }
    },
    "waypoints": [
        {
            "positions": [
                0.7066247066606129,
                -1.908514104345545,
                2.39358713078474,
                -0.4678290933515497,
                0.7096259083745334,
                -3.1358149277392293
            ]
        },
        {
            "positions": [
                0.6559570684191954,
                -1.869659047057072,
                2.3709683293674964,
                -0.38593566829841885,
                0.6178287574378185,
                -3.037792099791557
            ]
        },
        {
            "positions": [
                0.605289430177778,
                -1.8308039897685993,
                2.348349527950253,
                -0.30404224324528806,
                0.5260316065011035,
                -2.939769271843884
            ]
        },
        {
            "positions": [
                0.5546217919363605,
                -1.7919489324801265,
                2.3257307265330094,
                -0.22214881819215723,
                0.43423445556438856,
                -2.8417464438962114
            ]
        },
        {
            "positions": [
                0.503954153694943,
                -1.7530938751916536,
                2.3031119251157657,
                -0.1402553931390264,
                0.3424373046276736,
                -2.7437236159485385
            ]
        },
        {
            "positions": [
                0.4532865154535255,
                -1.7142388179031807,
                2.2804931236985224,
                -0.05836196808589561,
                0.2506401536909586,
                -2.645700788000866
            ]
        },
        {
            "positions": [
                0.40261887721210804,
                -1.675383760614708,
                2.2578743222812787,
                0.023531456967235242,
                0.15884300275424368,
                -2.5476779600531936
            ]
        },
        {
            "positions": [
                0.3519512389706906,
                -1.6365287033262352,
                2.235255520864035,
                0.1054248820203661,
                0.06704585181752865,
                -2.4496551321055207
            ]
        },
        {
            "positions": [
                0.30128360072927307,
                -1.5976736460377623,
                2.2126367194467917,
                0.1873183070734969,
                -0.024751299119186276,
                -2.351632304157848
            ]
        },
        {
            "positions": [
                0.25061596248785556,
                -1.5588185887492894,
                2.190017918029548,
                0.2692117321266277,
                -0.1165484500559012,
                -2.2536094762101753
            ]
        },
        {
            "positions": [
                0.19994832424643805,
                -1.5199635314608166,
                2.1673991166123043,
                0.3511051571797585,
                -0.20834560099261623,
                -2.155586648262503
            ]
        },
        {
            "positions": [
                0.14928068600502065,
                -1.481108474172344,
                2.144780315195061,
                0.4329985822328894,
                -0.30014275192933126,
                -2.0575638203148303
            ]
        },
        {
            "positions": [
                0.09861304776360313,
                -1.442253416883871,
                2.1221615137778174,
                0.5148920072860201,
                -0.3919399028660461,
                -1.9595409923671574
            ]
        },
        {
            "positions": [
                0.04794540952218562,
                -1.403398359595398,
                2.0995427123605737,
                0.596785432339151,
                -0.4837370538027611,
                -1.8615181644194847
            ]
        },
        {
            "positions": [
                -0.0027222287192317784,
                -1.3645433023069253,
                2.0769239109433304,
                0.678678857392282,
                -0.5755342047394761,
                -1.7634953364718122
            ]
        },
        {
            "positions": [
                -0.05338986696064929,
                -1.3256882450184526,
                2.0543051095260867,
                0.7605722824454126,
                -0.667331355676191,
                -1.6654725085241395
            ]
        },
        {
            "positions": [
                -0.1040575052020668,
                -1.2868331877299797,
                2.031686308108843,
                0.8424657074985435,
                -0.759128506612906,
                -1.5674496805764668
            ]
        },
        {
            "positions": [
                -0.15472514344348431,
                -1.2479781304415067,
                2.0090675066915997,
                0.9243591325516745,
                -0.850925657549621,
                -1.4694268526287941
            ]
        },
        {
            "positions": [
                -0.20539278168490183,
                -1.209123073153034,
                1.986448705274356,
                1.0062525576048051,
                -0.9427228084863358,
                -1.3714040246811214
            ]
        },
        {
            "positions": [
                -0.2560604199263192,
                -1.1702680158645613,
                1.9638299038571125,
                1.088145982657936,
                -1.0345199594230508,
                -1.273381196733449
            ]
        },
        {
            "positions": [
                -0.30672805816773685,
                -1.1314129585760884,
                1.941211102439869,
                1.1700394077110667,
                -1.126317110359766,
                -1.1753583687857763
            ]
        },
        {
            "positions": [
                -0.35739569640915414,
                -1.0925579012876154,
                1.9185923010226253,
                1.2519328327641976,
                -1.2181142612964808,
                -1.0773355408381033
            ]
        },
        {
            "positions": [
                -0.40806333465057165,
                -1.0537028439991427,
                1.8959734996053819,
                1.3338262578173286,
                -1.309911412233196,
                -0.9793127128904309
            ]
        },
        {
            "positions": [
                -0.45873097289198916,
                -1.01484778671067,
                1.8733546981881384,
                1.4157196828704592,
                -1.4017085631699109,
                -0.8812898849427584
            ]
        },
        {
            "positions": [
                -0.5093986111334067,
                -0.9759927294221971,
                1.8507358967708947,
                1.4976131079235901,
                -1.4935057141066257,
                -0.7832670569950855
            ]
        },
        {
            "positions": [
                -0.5600662493748242,
                -0.9371376721337242,
                1.8281170953536512,
                1.5795065329767208,
                -1.585302865043341,
                -0.685244229047413
            ]
        },
        {
            "positions": [
                -0.6107338876162417,
                -0.8982826148452514,
                1.8054982939364077,
                1.6613999580298517,
                -1.6771000159800558,
                -0.5872214010997401
            ]
        },
        {
            "positions": [
                -0.6614015258576592,
                -0.8594275575567787,
                1.782879492519164,
                1.7432933830829827,
                -1.7688971669167706,
                -0.4891985731520676
            ]
        },
        {
            "positions": [
                -0.7120691640990765,
                -0.8205725002683057,
                1.7602606911019205,
                1.8251868081361136,
                -1.8606943178534858,
                -0.39117574520439513
            ]
        },
        {
            "positions": [
                -0.762736802340494,
                -0.7817174429798328,
                1.737641889684677,
                1.9070802331892445,
                -1.9524914687902006,
                -0.2931529172567222
            ]
        },
        {
            "positions": [
                -0.8134044405819115,
                -0.7428623856913601,
                1.7150230882674333,
                1.988973658242375,
                -2.0442886197269154,
                -0.19513008930904974
            ]
        },
        {
            "positions": [
                -0.864072078823329,
                -0.7040073284028874,
                1.69240428685019,
                2.070867083295506,
                -2.1360857706636307,
                -0.09710726136137682
            ]
        },
        {
            "positions": [
                -0.9147397170647464,
                -0.6651522711144146,
                1.6697854854329464,
                2.1527605083486367,
                -2.2278829216003455,
                0.000915566586295556
            ]
        }
    ]
}