{
    "goal": {
        "global_pose": {
            "orientation": {
                "w": 0.7047431468963623,
                "x": -0.7094548344612122,
                "y": 0.0024358443915843964,
                "z": -0.0022348060738295317
            },
            "position": {
                "x": 0.6094750761985779,
                "y": 0.3671506643295288,
                "z": 0.19426114857196808
            }
        },
        "name": "move_to_magneteinheit_A"
    },
    "id": "PRM_move_to_magneteinheit_A_1",
    "joint_names": [
        "shoulder_pan_joint",
        "shoulder_lift_joint",
        "elbow_joint",
        "wrist_1_joint",
        "wrist_2_joint",
        "wrist_3_joint"
    ],
    "metrics": {
        "cart_traj_len": 2.066553545377455,
        "distance_elbow_joint": 3.8857017060015955,
        "distance_shoulder_lift_joint": 1.0594819714385204,
        "distance_shoulder_pan_joint": 1.241940753783658,
        "distance_wrist_1_joint": 1.1766432765868957,
        "distance_wrist_2_joint": 1.4392238908560933,
        "distance_wrist_3_joint": 1.9486017122130224,
        "smoothness": 8.881784208180565e-16,
        "time": 0.05032372,
        "traj_len": 3.2789622307797,
        "weighted_distance": 4.15507688289264
    },
    "planner": "PRM",
    "start": {
        "state": {
            "elbow_joint": -1.919643507792019,
            "shoulder_lift_joint": -0.07675430207160344,
            "shoulder_pan_joint": -1.1188671864651873,
            "wrist_1_joint": 0.42560062535961957,
            "wrist_2_joint": 1.5706038300724876,
            "wrist_3_joint": 1.1188968870953055
        }
    },
    "waypoints": [
        {
            "positions": [
                -1.1188671864651873,
                -0.07675430207160344,
                -1.919643507792019,
                0.42560062535961957,
                1.5706038300724876,
                1.1188968870953055
            ]
        },
        {
            "positions": [
                -1.0745121595443423,
                -0.11459294390869346,
                -1.7808684468633906,
                0.3835776511958019,
                1.5192029768276272,
                1.1884898053886277
            ]
        },
        {
            "positions": [
                -1.0301571326234975,
                -0.15243158574578347,
                -1.6420933859347624,
                0.34155467703198417,
                1.4678021235827667,
                1.25808272368195
            ]
        },
        {
            "positions": [
                -0.9858021057026526,
                -0.19027022758287349,
                -1.503318325006134,
                0.29953170286816644,
                1.4164012703379063,
                1.3276756419752722
            ]
        },
        {
            "positions": [
                -0.9414470787818077,
                -0.2281088694199635,
                -1.3645432640775055,
                0.25750872870434877,
                1.3650004170930456,
                1.3972685602685944
            ]
        },
        {
            "positions": [
                -0.8970920518609626,
                -0.2659475112570535,
                -1.225768203148877,
                0.21548575454053104,
                1.3135995638481852,
                1.4668614785619167
            ]
        },
        {
            "positions": [
                -0.8527370249401178,
                -0.30378615309414353,
                -1.0869931422202486,
                0.17346278037671337,
                1.2621987106033248,
                1.5364543968552389
            ]
        },
        {
            "positions": [
                -0.8083819980192728,
                -0.34162479493123354,
                -0.9482180812916202,
                0.13143980621289564,
                1.2107978573584643,
                1.6060473151485612
            ]
        },
        {
            "positions": [
                -0.764026971098428,
                -0.37946343676832356,
                -0.8094430203629919,
                0.08941683204907797,
                1.159397004113604,
                1.6756402334418832
            ]
        },
        {
            "positions": [
                -0.719671944177583,
                -0.4173020786054136,
                -0.6706679594343634,
                0.04739385788526018,
                1.1079961508687433,
                1.7452331517352055
            ]
        },
        {
            "positions": [
                -0.675316917256738,
                -0.4551407204425036,
                -0.531892898505735,
                0.00537088372144251,
                1.0565952976238828,
                1.814826070028528
            ]
        },
        {
            "positions": [
                -0.6309618903358931,
                -0.4929793622795936,
                -0.3931178375771065,
                -0.03665209044237516,
                1.0051944443790224,
                1.88441898832185
            ]
        },
        {
            "positions": [
                -0.5866068634150482,
                -0.5308180041166837,
                -0.25434277664847826,
                -0.07867506460619283,
                0.953793591134162,
                1.9540119066151722
            ]
        },
        {
            "positions": [
                -0.5422518364942033,
                -0.5686566459537736,
                -0.1155677157198498,
                -0.12069803877001056,
                0.9023927378893014,
                2.0236048249084946
            ]
        },
        {
            "positions": [
                -0.49789680957335836,
                -0.6064952877908636,
                0.02320734520877865,
                -0.1627210129338283,
                0.850991884644441,
                2.0931977432018165
            ]
        },
        {
            "positions": [
                -0.45354178265251344,
                -0.6443339296279535,
                0.1619824061374071,
                -0.20474398709764602,
                0.7995910313995805,
                2.162790661495139
            ]
        },
        {
            "positions": [
                -0.4091867557316685,
                -0.6821725714650437,
                0.30075746706603534,
                -0.24676696126146364,
                0.7481901781547201,
                2.2323835797884612
            ]
        },
        {
            "positions": [
                -0.3648317288108236,
                -0.7200112133021337,
                0.4395325279946636,
                -0.28878993542528136,
                0.6967893249098597,
                2.3019764980817836
            ]
        },
        {
            "positions": [
                -0.32047670188997857,
                -0.7578498551392236,
                0.5783075889232923,
                -0.3308129095890992,
                0.645388471664999,
                2.371569416375106
            ]
        },
        {
            "positions": [
                -0.27612167496913365,
                -0.7956884969763138,
                0.7170826498519209,
                -0.3728358837529168,
                0.5939876184201386,
                2.441162334668428
            ]
        },
        {
            "positions": [
                -0.23176664804828873,
                -0.8335271388134038,
                0.8558577107805492,
                -0.41485885791673455,
                0.542586765175278,
                2.51075525296175
            ]
        },
        {
            "positions": [
                -0.18741162112744392,
                -0.8713657806504937,
                0.9946327717091774,
                -0.45688183208055216,
                0.4911859119304176,
                2.580348171255072
            ]
        },
        {
            "positions": [
                -0.143056594206599,
                -0.9092044224875837,
                1.133407832637806,
                -0.4989048062443699,
                0.4397850586855572,
                2.6499410895483946
            ]
        },
        {
            "positions": [
                -0.09870156728575408,
                -0.9470430643246737,
                1.2721828935664343,
                -0.5409277804081876,
                0.38838420544069674,
                2.719534007841717
            ]
        },
        {
            "positions": [
                -0.054346540364909046,
                -0.9848817061617638,
                1.4109579544950626,
                -0.5829507545720052,
                0.3369833521958363,
                2.789126926135039
            ]
        },
        {
            "positions": [
                -0.009991513444064015,
                -1.0227203479988538,
                1.5497330154236912,
                -0.624973728735823,
                0.28558249895097565,
                2.8587198444283612
            ]
        },
        {
            "positions": [
                0.034363513476780794,
                -1.0605589898359438,
                1.6885080763523195,
                -0.6669967028996406,
                0.23418164570611522,
                2.9283127627216836
            ]
        },
        {
            "positions": [
                0.07871854039762582,
                -1.098397631673034,
                1.8272831372809482,
                -0.7090196770634585,
                0.18278079246125478,
                2.9979056810150055
            ]
        },
        {
            "positions": [
                0.12307356731847068,
                -1.136236273510124,
                1.9660581982095764,
                -0.7510426512272761,
                0.13137993921639435,
                3.067498599308328
            ]
        }
    ]
}