{
    "goal": {
        "global_pose": {
            "orientation": {
                "w": -0.00223480608172531,
                "x": 0.0024358444001904467,
                "y": 0.7094548369677653,
                "z": -0.704743149386269
            },
            "position": {
                "x": 0.6205249238014221,
                "y": -0.6371506643295288,
                "z": 0.19426114857196808
            }
        },
        "name": "move_to_magneteinheit_B"
    },
    "id": "PRM_move_to_magneteinheit_B_113",
    "joint_names": [
        "shoulder_pan_joint",
        "shoulder_lift_joint",
        "elbow_joint",
        "wrist_1_joint",
        "wrist_2_joint",
        "wrist_3_joint"
    ],
    "metrics": {
        "cart_traj_len": 1.4536419620467653,
        "distance_elbow_joint": 0.7307510909135577,
        "distance_shoulder_lift_joint": 1.2485824815858568,
        "distance_shoulder_pan_joint": 1.6219487620453374,
        "distance_wrist_1_joint": 2.606391952292678,
        "distance_wrist_2_joint": 2.9351571587476166,
        "distance_wrist_3_joint": 3.1284577910694957,
        "smoothness": 4.996003619058102e-16,
        "time": 0.038107716,
        "traj_len": 3.503039999294119,
        "weighted_distance": 4.906093550864457
    },
    "planner": "PRM",
    "start": {
        "state": {
            "elbow_joint": 2.39358713078474,
            "shoulder_lift_joint": -1.908514104345545,
            "shoulder_pan_joint": 0.7066247066606129,
            "wrist_1_joint": -0.4678290933515497,
            "wrist_2_joint": 0.7096259083745334,
            "wrist_3_joint": -3.1358149277392293
        }
    },
    "waypoints": [
        {
            "positions": [
                0.7066247066606129,
                -1.908514104345545,
                2.39358713078474,
                -0.4678290933515497,
                0.7096259083745334,
                -3.1358149277392293
            ]
        },
        {
            "positions": [
                0.6543037788526989,
                -1.86823725010084,
                2.370014514948819,
                -0.383751933600173,
                0.6149434193826748,
                -3.034896934478923
            ]
        },
        {
            "positions": [
                0.6019828510447848,
                -1.8279603958561348,
                2.3464418991128975,
                -0.29967477384879626,
                0.5202609303908162,
                -2.9339789412186166
            ]
        },
        {
            "positions": [
                0.5496619232368706,
                -1.7876835416114298,
                2.3228692832769764,
                -0.21559761409741957,
                0.4255784413989576,
                -2.83306094795831
            ]
        },
        {
            "positions": [
                0.4973409954289565,
                -1.7474066873667247,
                2.2992966674410553,
                -0.13152045434604287,
                0.330895952407099,
                -2.732142954698004
            ]
        },
        {
            "positions": [
                0.4450200676210424,
                -1.7071298331220197,
                2.275724051605134,
                -0.047443294594666174,
                0.23621346341524047,
                -2.631224961437698
            ]
        },
        {
            "positions": [
                0.39269913981312826,
                -1.6668529788773145,
                2.2521514357692127,
                0.03663386515671058,
                0.1415309744233818,
                -2.5303069681773915
            ]
        },
        {
            "positions": [
                0.3403782120052142,
                -1.6265761246326096,
                2.2285788199332917,
                0.12071102490808722,
                0.0468484854315232,
                -2.429388974917085
            ]
        },
        {
            "positions": [
                0.2880572841973001,
                -1.5862992703879044,
                2.20500620409737,
                0.20478818465946397,
                -0.0478340035603354,
                -2.328470981656779
            ]
        },
        {
            "positions": [
                0.2357363563893859,
                -1.5460224161431992,
                2.181433588261449,
                0.2888653444108407,
                -0.142516492552194,
                -2.2275529883964724
            ]
        },
        {
            "positions": [
                0.18341542858147186,
                -1.5057455618984943,
                2.157860972425528,
                0.37294250416221736,
                -0.2371989815440525,
                -2.1266349951361665
            ]
        },
        {
            "positions": [
                0.13109450077355767,
                -1.4654687076537893,
                2.1342883565896065,
                0.4570196639135941,
                -0.3318814705359113,
                -2.0257170018758597
            ]
        },
        {
            "positions": [
                0.07877357296564358,
                -1.4251918534090842,
                2.1107157407536854,
                0.5410968236649709,
                -0.4265639595277698,
                -1.9247990086155535
            ]
        },
        {
            "positions": [
                0.026452645157729493,
                -1.384914999164379,
                2.0871431249177643,
                0.6251739834163477,
                -0.5212464485196285,
                -1.8238810153552472
            ]
        },
        {
            "positions": [
                -0.025868282650184593,
                -1.3446381449196743,
                2.063570509081843,
                0.7092511431677242,
                -0.615928937511487,
                -1.722963022094941
            ]
        },
        {
            "positions": [
                -0.07818921045809879,
                -1.304361290674969,
                2.0399978932459217,
                0.793328302919101,
                -0.7106114265033455,
                -1.6220450288346346
            ]
        },
        {
            "positions": [
                -0.13051013826601277,
                -1.264084436430264,
                2.0164252774100007,
                0.8774054626704777,
                -0.8052939154952042,
                -1.5211270355743283
            ]
        },
        {
            "positions": [
                -0.18283106607392685,
                -1.223807582185559,
                1.9928526615740794,
                0.9614826224218542,
                -0.8999764044870627,
                -1.4202090423140221
            ]
        },
        {
            "positions": [
                -0.23515199388184116,
                -1.1835307279408538,
                1.969280045738158,
                1.0455597821732312,
                -0.9946588934789214,
                -1.3192910490537155
            ]
        },
        {
            "positions": [
                -0.28747292168975513,
                -1.1432538736961488,
                1.945707429902237,
                1.1296369419246077,
                -1.08934138247078,
                -1.2183730557934094
            ]
        },
        {
            "positions": [
                -0.3397938494976692,
                -1.1029770194514437,
                1.9221348140663157,
                1.2137141016759845,
                -1.1840238714626383,
                -1.1174550625331032
            ]
        },
        {
            "positions": [
                -0.3921147773055834,
                -1.0627001652067387,
                1.8985621982303944,
                1.297791261427361,
                -1.278706360454497,
                -1.0165370692727969
            ]
        },
        {
            "positions": [
                -0.4444357051134976,
                -1.0224233109620335,
                1.8749895823944733,
                1.381868421178738,
                -1.3733888494463562,
                -0.9156190760124905
            ]
        },
        {
            "positions": [
                -0.4967566329214116,
                -0.9821464567173286,
                1.851416966558552,
                1.4659455809301147,
                -1.4680713384382145,
                -0.8147010827521841
            ]
        },
        {
            "positions": [
                -0.5490775607293258,
                -0.9418696024726235,
                1.8278443507226307,
                1.5500227406814915,
                -1.5627538274300732,
                -0.7137830894918777
            ]
        },
        {
            "positions": [
                -0.6013984885372398,
                -0.9015927482279185,
                1.8042717348867097,
                1.6340999004328678,
                -1.6574363164219315,
                -0.6128650962315718
            ]
        },
        {
            "positions": [
                -0.653719416345154,
                -0.8613158939832133,
                1.7806991190507884,
                1.718177060184245,
                -1.7521188054137906,
                -0.511947102971265
            ]
        },
        {
            "positions": [
                -0.7060403441530682,
                -0.8210390397385083,
                1.757126503214867,
                1.8022542199356213,
                -1.8468012944056489,
                -0.41102910971095863
            ]
        },
        {
            "positions": [
                -0.7583612719609821,
                -0.7807621854938034,
                1.733553887378946,
                1.886331379686998,
                -1.9414837833975076,
                -0.3101111164506527
            ]
        },
        {
            "positions": [
                -0.8106821997688961,
                -0.7404853312490982,
                1.709981271543025,
                1.9704085394383748,
                -2.036166272389366,
                -0.20919312319034633
            ]
        },
        {
            "positions": [
                -0.8630031275768105,
                -0.700208477004393,
                1.6864086557071034,
                2.0544856991897515,
                -2.1308487613812246,
                -0.10827512993003996
            ]
        },
        {
            "positions": [
                -0.9153240553847245,
                -0.6599316227596882,
                1.6628360398711823,
                2.1385628589411283,
                -2.2255312503730833,
                -0.007357136669733789
            ]
        }
    ]
}