{
    "goal": {
        "global_pose": {
            "orientation": {
                "w": 0.7031023502349854,
                "x": -0.7110244035720825,
                "y": 0.007748599164187908,
                "z": 0.005598929710686207
            },
            "position": {
                "x": 0.11585023208521307,
                "y": 0.44412534475326537,
                "z": 0.3711530566215515
            }
        },
        "name": "move_to_auspresseinheit_A"
    },
    "id": "PRM_move_to_auspresseinheit_A_138",
    "joint_names": [
        "shoulder_pan_joint",
        "shoulder_lift_joint",
        "elbow_joint",
        "wrist_1_joint",
        "wrist_2_joint",
        "wrist_3_joint"
    ],
    "metrics": {
        "cart_traj_len": 0.6885578785718081,
        "distance_elbow_joint": 0.02522403174963861,
        "distance_shoulder_lift_joint": 0.5383736673231838,
        "distance_shoulder_pan_joint": 1.0449813848706317,
        "distance_wrist_1_joint": 0.5470756266568999,
        "distance_wrist_2_joint": 0.5243057769655459,
        "distance_wrist_3_joint": 0.038931430879678874,
        "smoothness": 9.868649106494575e-16,
        "time": 0.145553451,
        "traj_len": 1.6489062794608973,
        "weighted_distance": 1.9667577847379638
    },
    "planner": "PRM",
    "start": {
        "state": {
            "elbow_joint": 2.422574709923281,
            "shoulder_lift_joint": -1.3736533754116391,
            "shoulder_pan_joint": -0.33786336945926293,
            "wrist_1_joint": -1.0288603412921917,
            "wrist_2_joint": 1.2330224858903978,
            "wrist_3_joint": -3.094022268022082
        }
    },
    "waypoints": [
        {
            "positions": [
                -0.33786336945926293,
                -1.3736533754116391,
                2.422574709923281,
                -1.0288603412921917,
                1.2330224858903978,
                -3.094022268022082
            ]
        },
        {
            "positions": [
                -0.20705858100988536,
                -1.440495256752618,
                2.41846190105427,
                -0.9566366820973604,
                1.1661204305186867,
                -3.1016538993711666
            ]
        },
        {
            "positions": [
                -0.0762537925605078,
                -1.5073371380935967,
                2.414349092185259,
                -0.8844130229025292,
                1.0992183751469757,
                -3.1092855307202507
            ]
        },
        {
            "positions": [
                0.05430817543480493,
                -1.574785455533801,
                2.411516023183323,
                -0.8173083048579897,
                1.0341347641099552,
                -3.113230225417169
            ]
        },
        {
            "positions": [
                0.18487014343011765,
                -1.6422337729740055,
                2.408682954181387,
                -0.7502035868134501,
                0.9690511530729344,
                -3.1171749201140875
            ]
        },
        {
            "positions": [
                0.31543211142543043,
                -1.7096820904142098,
                2.4058498851794505,
                -0.6830988687689106,
                0.9039675420359138,
                -3.121119614811006
            ]
        },
        {
            "positions": [
                0.4459940794207431,
                -1.7771304078544141,
                2.4030168161775145,
                -0.6159941507243709,
                0.8388839309988931,
                -3.1250643095079242
            ]
        },
        {
            "positions": [
                0.5765560474160559,
                -1.8445787252946186,
                2.4001837471755785,
                -0.5488894326798314,
                0.7738003199618725,
                -3.1290090042048426
            ]
        },
        {
            "positions": [
                0.7071180154113687,
                -1.912027042734823,
                2.3973506781736424,
                -0.4817847146352918,
                0.7087167089248518,
                -3.132953698901761
            ]
        }
    ]
}