{
    "goal": {
        "global_pose": {
            "orientation": {
                "w": 0.5084816217422485,
                "x": -0.49083608388900757,
                "y": 0.5182115435600281,
                "z": -0.4816462993621826
            },
            "position": {
                "x": 0.5540239810943604,
                "y": 0.030875300988554955,
                "z": 0.16403168439865112
            }
        },
        "name": "move_to_storage_A"
    },
    "id": "PRM_move_to_storage_A_141",
    "joint_names": [
        "shoulder_pan_joint",
        "shoulder_lift_joint",
        "elbow_joint",
        "wrist_1_joint",
        "wrist_2_joint",
        "wrist_3_joint"
    ],
    "metrics": {
        "cart_traj_len": 0.35301601116004555,
        "distance_elbow_joint": 0.45158985125153484,
        "distance_shoulder_lift_joint": 0.23294043025533262,
        "distance_shoulder_pan_joint": 0.4606567468463582,
        "distance_wrist_1_joint": 0.24978228481155595,
        "distance_wrist_2_joint": 1.1025057646813023,
        "distance_wrist_3_joint": 0.09556934987480092,
        "smoothness": 2.2204460668324854e-16,
        "time": 0.033039826,
        "traj_len": 1.6102932738234004,
        "weighted_distance": 2.0338316491202866
    },
    "planner": "PRM",
    "start": {
        "state": {
            "elbow_joint": 1.9715463870305268,
            "shoulder_lift_joint": -1.1394903361783484,
            "shoulder_pan_joint": 0.12281147578464417,
            "wrist_1_joint": -0.7804599489681411,
            "wrist_2_joint": 0.12958660307563738,
            "wrist_3_joint": -3.1924946282119055
        }
    },
    "waypoints": [
        {
            "positions": [
                0.12281147578464417,
                -1.1394903361783484,
                1.9715463870305268,
                -0.7804599489681411,
                0.12958660307563738,
                -3.1924946282119055
            ]
        },
        {
            "positions": [
                0.057003369092307285,
                -1.1727675405005387,
                2.036059222923603,
                -0.816143132512649,
                0.28708742660153774,
                -3.178841863944077
            ]
        },
        {
            "positions": [
                -0.008804737600029602,
                -1.2060447448227292,
                2.1005720588166796,
                -0.8518263160571571,
                0.4445882501274381,
                -3.165189099676248
            ]
        },
        {
            "positions": [
                -0.07461284429236649,
                -1.2393219491449194,
                2.165084894709756,
                -0.887509499601665,
                0.6020890736533384,
                -3.1515363354084194
            ]
        },
        {
            "positions": [
                -0.14042095098470336,
                -1.27259915346711,
                2.2295977306028325,
                -0.9231926831461731,
                0.7595898971792387,
                -3.137883571140591
            ]
        },
        {
            "positions": [
                -0.20622905767704025,
                -1.3058763577893002,
                2.2941105664959087,
                -0.958875866690681,
                0.9170907207051391,
                -3.1242308068727622
            ]
        },
        {
            "positions": [
                -0.27203716436937714,
                -1.3391535621114907,
                2.358623402388985,
                -0.9945590502351891,
                1.0745915442310394,
                -3.110578042604933
            ]
        },
        {
            "positions": [
                -0.337845271061714,
                -1.372430766433681,
                2.4231362382820616,
                -1.030242233779697,
                1.2320923677569398,
                -3.0969252783371046
            ]
        }
    ]
}