{
    "goal": {
        "global_pose": {
            "orientation": {
                "w": 0.7031023502349854,
                "x": -0.7110244035720825,
                "y": 0.007748599164187908,
                "z": 0.005598929710686207
            },
            "position": {
                "x": 0.11585023208521307,
                "y": 0.44412534475326537,
                "z": 0.3711530566215515
            }
        },
        "name": "move_to_auspresseinheit_A"
    },
    "id": "PRM_move_to_auspresseinheit_A_73",
    "joint_names": [
        "shoulder_pan_joint",
        "shoulder_lift_joint",
        "elbow_joint",
        "wrist_1_joint",
        "wrist_2_joint",
        "wrist_3_joint"
    ],
    "metrics": {
        "cart_traj_len": 2.046988036509613,
        "distance_elbow_joint": 2.561074795522738,
        "distance_shoulder_lift_joint": 0.6492470947119704,
        "distance_shoulder_pan_joint": 1.8147967135589458,
        "distance_wrist_1_joint": 2.903826631462625,
        "distance_wrist_2_joint": 3.891210931587283,
        "distance_wrist_3_joint": 0.7049992137461896,
        "smoothness": 0.5954590370531592,
        "time": 0.157735089,
        "traj_len": 3.539089625961704,
        "weighted_distance": 4.5530419909256326
    },
    "planner": "PRM",
    "start": {
        "state": {
            "elbow_joint": 2.422574709923281,
            "shoulder_lift_joint": -1.3736533754116391,
            "shoulder_pan_joint": -0.33786336945926293,
            "wrist_1_joint": -1.0288603412921917,
            "wrist_2_joint": 1.2330224858903978,
            "wrist_3_joint": -3.094022268022082
        }
    },
    "waypoints": [
        {
            "positions": [
                -0.33786336945926293,
                -1.3736533754116391,
                2.422574709923281,
                -1.0288603412921917,
                1.2330224858903978,
                -3.094022268022082
            ]
        },
        {
            "positions": [
                -0.2986769866489992,
                -1.3788893907835247,
                2.3271962252696627,
                -1.0158793999442042,
                1.0540709468741487,
                -3.0631211849399334
            ]
        },
        {
            "positions": [
                -0.25949060383873546,
                -1.38412540615541,
                2.231817740616045,
                -1.0028984585962166,
                0.8751194078578994,
                -3.0322201018577846
            ]
        },
        {
            "positions": [
                -0.22030422102847175,
                -1.3893614215272956,
                2.1364392559624266,
                -0.9899175172482292,
                0.6961678688416504,
                -3.001319018775636
            ]
        },
        {
            "positions": [
                -0.18111783821820798,
                -1.3945974368991811,
                2.0410607713088083,
                -0.9769365759002416,
                0.5172163298254011,
                -2.970417935693487
            ]
        },
        {
            "positions": [
                -0.14193145540794427,
                -1.3998334522710665,
                1.9456822866551902,
                -0.9639556345522542,
                0.33826479080915206,
                -2.939516852611338
            ]
        },
        {
            "positions": [
                -0.10274507259768054,
                -1.405069467642952,
                1.850303802001572,
                -0.9509746932042666,
                0.159313251792903,
                -2.9086157695291894
            ]
        },
        {
            "positions": [
                -0.0635586897874168,
                -1.4103054830148374,
                1.7549253173479538,
                -0.9379937518562791,
                -0.019638287223346262,
                -2.8777146864470406
            ]
        },
        {
            "positions": [
                -0.024372306977153035,
                -1.415541498386723,
                1.6595468326943354,
                -0.9250128105082916,
                -0.19858982623959553,
                -2.846813603364892
            ]
        },
        {
            "positions": [
                0.014814075833110674,
                -1.4207775137586085,
                1.5641683480407171,
                -0.9120318691603041,
                -0.3775413652558448,
                -2.815912520282743
            ]
        },
        {
            "positions": [
                0.05400045864337438,
                -1.4260135291304938,
                1.4687898633870993,
                -0.8990509278123167,
                -0.5564929042720936,
                -2.7850114372005943
            ]
        },
        {
            "positions": [
                0.09318684145363812,
                -1.4312495445023794,
                1.373411378733481,
                -0.8860699864643291,
                -0.7354444432883429,
                -2.7541103541184455
            ]
        },
        {
            "positions": [
                0.1587915070773569,
                -1.4677734492333585,
                1.3242847378430205,
                -0.7197258794124439,
                -0.7842782213773715,
                -2.7601650780554987
            ]
        },
        {
            "positions": [
                0.2243961727010757,
                -1.5042973539643374,
                1.2751580969525598,
                -0.5533817723605587,
                -0.8331119994664,
                -2.766219801992552
            ]
        },
        {
            "positions": [
                0.29000083832479445,
                -1.5408212586953165,
                1.2260314560620993,
                -0.38703766530867373,
                -0.8819457775554286,
                -2.7722745259296055
            ]
        },
        {
            "positions": [
                0.3556055039485133,
                -1.5773451634262954,
                1.1769048151716386,
                -0.2206935582567885,
                -0.9307795556444571,
                -2.7783292498666587
            ]
        },
        {
            "positions": [
                0.421210169572232,
                -1.6138690681572745,
                1.127778174281178,
                -0.05434945120490342,
                -0.9796133337334857,
                -2.784383973803712
            ]
        },
        {
            "positions": [
                0.495636326453081,
                -1.6528989956460738,
                1.2086440197486858,
                0.029188556065222457,
                -0.8697918808399129,
                -2.786240090808329
            ]
        },
        {
            "positions": [
                0.5700624833339298,
                -1.691928923134873,
                1.2895098652161936,
                0.11272656333534833,
                -0.7599704279463401,
                -2.7880962078129463
            ]
        },
        {
            "positions": [
                0.6444886402147788,
                -1.7309588506236724,
                1.3703757106837011,
                0.1962645706054742,
                -0.6501489750527673,
                -2.789952324817563
            ]
        },
        {
            "positions": [
                0.7189147970956278,
                -1.7699887781124717,
                1.4512415561512089,
                0.2798025778756001,
                -0.5403275221591944,
                -2.7918084418221802
            ]
        },
        {
            "positions": [
                0.7933409539764767,
                -1.8090187056012712,
                1.5321074016187166,
                0.36334058514572604,
                -0.4305060692656216,
                -2.7936645588267974
            ]
        },
        {
            "positions": [
                0.8677671108573257,
                -1.8480486330900705,
                1.6129732470862241,
                0.4468785924158518,
                -0.3206846163720488,
                -2.7955206758314146
            ]
        },
        {
            "positions": [
                0.9421932677381747,
                -1.8870785605788698,
                1.6938390925537319,
                0.5304165996859778,
                -0.210863163478476,
                -2.7973767928360314
            ]
        },
        {
            "positions": [
                1.0166194246190234,
                -1.926108488067669,
                1.7747049380212396,
                0.6139546069561036,
                -0.10104171058490319,
                -2.7992329098406485
            ]
        },
        {
            "positions": [
                1.0910455814998725,
                -1.9651384155564684,
                1.8555707834887474,
                0.6974926142262295,
                0.008779742308669625,
                -2.8010890268452657
            ]
        },
        {
            "positions": [
                1.0483626568642352,
                -1.9597608173759797,
                1.9227981093831668,
                0.5617876146501831,
                0.0957012882116622,
                -2.8392594041360324
            ]
        },
        {
            "positions": [
                1.005679732228598,
                -1.954383219195491,
                1.9900254352775861,
                0.4260826150741367,
                0.18262283411465477,
                -2.8774297814267986
            ]
        },
        {
            "positions": [
                0.9629968075929607,
                -1.9490056210150024,
                2.0572527611720055,
                0.29037761549809027,
                0.26954438001764736,
                -2.9156001587175653
            ]
        },
        {
            "positions": [
                0.9203138829573234,
                -1.9436280228345135,
                2.1244800870664253,
                0.15467261592204384,
                0.3564659259206399,
                -2.953770536008332
            ]
        },
        {
            "positions": [
                0.8776309583216861,
                -1.9382504246540249,
                2.1917074129608447,
                0.018967616345997307,
                0.44338747182363253,
                -2.9919409132990986
            ]
        },
        {
            "positions": [
                0.8349480336860489,
                -1.9328728264735362,
                2.258934738855264,
                -0.11673738323004901,
                0.5303090177266251,
                -3.030111290589865
            ]
        },
        {
            "positions": [
                0.7922651090504116,
                -1.9274952282930475,
                2.3261620647496835,
                -0.25244238280609554,
                0.6172305636296177,
                -3.0682816678806315
            ]
        },
        {
            "positions": [
                0.748711463975237,
                -1.9174357946411873,
                2.360109249455748,
                -0.36621172226203513,
                0.6580961709297677,
                -3.093739660920815
            ]
        },
        {
            "positions": [
                0.7051578189000625,
                -1.9073763609893273,
                2.394056434161813,
                -0.4799810617179747,
                0.6989617782299176,
                -3.1191976539609985
            ]
        }
    ]
}