{
    "goal": {
        "global_pose": {
            "orientation": {
                "w": -0.00223480608172531,
                "x": 0.0024358444001904467,
                "y": 0.7094548369677653,
                "z": -0.704743149386269
            },
            "position": {
                "x": 0.6205249238014221,
                "y": -0.6371506643295288,
                "z": 0.19426114857196808
            }
        },
        "name": "move_to_magneteinheit_B"
    },
    "id": "PRM_move_to_magneteinheit_B_135",
    "joint_names": [
        "shoulder_pan_joint",
        "shoulder_lift_joint",
        "elbow_joint",
        "wrist_1_joint",
        "wrist_2_joint",
        "wrist_3_joint"
    ],
    "metrics": {
        "cart_traj_len": 1.452685293338164,
        "distance_elbow_joint": 0.7243167932264676,
        "distance_shoulder_lift_joint": 1.2445816158043321,
        "distance_shoulder_pan_joint": 1.6202089602101375,
        "distance_wrist_1_joint": 2.621596001293188,
        "distance_wrist_2_joint": 2.9420858970636585,
        "distance_wrist_3_joint": 3.154402337544741,
        "smoothness": 3.229739733574524e-16,
        "time": 0.033964309,
        "traj_len": 3.5081607154095042,
        "weighted_distance": 4.917283617871644
    },
    "planner": "PRM",
    "start": {
        "state": {
            "elbow_joint": 2.39358713078474,
            "shoulder_lift_joint": -1.908514104345545,
            "shoulder_pan_joint": 0.7066247066606129,
            "wrist_1_joint": -0.4678290933515497,
            "wrist_2_joint": 0.7096259083745334,
            "wrist_3_joint": -3.1358149277392293
        }
    },
    "waypoints": [
        {
            "positions": [
                0.7066247066606129,
                -1.908514104345545,
                2.39358713078474,
                -0.4678290933515497,
                0.7096259083745334,
                -3.1358149277392293
            ]
        },
        {
            "positions": [
                0.6559931766540461,
                -1.8696209288516594,
                2.370952230996413,
                -0.3859042183111376,
                0.6176857240912941,
                -3.0372398546909563
            ]
        },
        {
            "positions": [
                0.6053616466474794,
                -1.8307277533577742,
                2.3483173312080856,
                -0.30397934327072546,
                0.5257455398080548,
                -2.938664781642683
            ]
        },
        {
            "positions": [
                0.5547301166409125,
                -1.7918345778638889,
                2.3256824314197586,
                -0.22205446823031333,
                0.4338053555248155,
                -2.8400897085944097
            ]
        },
        {
            "positions": [
                0.5040985866343457,
                -1.7529414023700034,
                2.3030475316314316,
                -0.1401295931899012,
                0.3418651712415761,
                -2.7415146355461366
            ]
        },
        {
            "positions": [
                0.453467056627779,
                -1.714048226876118,
                2.2804126318431046,
                -0.058204718149489076,
                0.24992498695833676,
                -2.6429395624978635
            ]
        },
        {
            "positions": [
                0.40283552662121214,
                -1.6751550513822326,
                2.2577777320547776,
                0.02372015689092305,
                0.1579848026750975,
                -2.5443644894495905
            ]
        },
        {
            "positions": [
                0.35220399661464535,
                -1.6362618758883474,
                2.23514283226645,
                0.10564503193133518,
                0.06604461839185816,
                -2.4457894164013174
            ]
        },
        {
            "positions": [
                0.30157246660807857,
                -1.5973687003944619,
                2.212507932478123,
                0.1875699069717473,
                -0.0258955658913812,
                -2.347214343353044
            ]
        },
        {
            "positions": [
                0.2509409366015118,
                -1.5584755249005764,
                2.189873032689796,
                0.26949478201215943,
                -0.11783575017462056,
                -2.248639270304771
            ]
        },
        {
            "positions": [
                0.200309406594945,
                -1.5195823494066911,
                2.1672381329014687,
                0.35141965705257155,
                -0.20977593445785991,
                -2.1500641972564978
            ]
        },
        {
            "positions": [
                0.14967787658837817,
                -1.4806891739128059,
                2.1446032331131417,
                0.4333445320929837,
                -0.30171611874109916,
                -2.0514891242082243
            ]
        },
        {
            "positions": [
                0.09904634658181133,
                -1.4417959984189204,
                2.1219683333248147,
                0.5152694071333959,
                -0.3936563030243384,
                -1.9529140511599514
            ]
        },
        {
            "positions": [
                0.0484148165752446,
                -1.4029028229250349,
                2.0993334335364877,
                0.5971942821738079,
                -0.4855964873075779,
                -1.8543389781116781
            ]
        },
        {
            "positions": [
                -0.002216713431322237,
                -1.3640096474311496,
                2.0766985337481607,
                0.6791191572142201,
                -0.5775366715908171,
                -1.755763905063405
            ]
        },
        {
            "positions": [
                -0.052848243437888964,
                -1.3251164719372643,
                2.0540636339598333,
                0.7610440322546324,
                -0.6694768558740566,
                -1.6571888320151318
            ]
        },
        {
            "positions": [
                -0.1034797734444558,
                -1.2862232964433788,
                2.0314287341715063,
                0.8429689072950444,
                -0.7614170401572958,
                -1.5586137589668587
            ]
        },
        {
            "positions": [
                -0.15411130345102264,
                -1.2473301209494934,
                2.0087938343831793,
                0.9248937823354564,
                -0.8533572244405351,
                -1.4600386859185857
            ]
        },
        {
            "positions": [
                -0.20474283345758937,
                -1.208436945455608,
                1.986158934594852,
                1.0068186573758686,
                -0.9452974087237745,
                -1.3614636128703124
            ]
        },
        {
            "positions": [
                -0.2553743634641562,
                -1.1695437699617228,
                1.9635240348065248,
                1.0887435324162809,
                -1.037237593007014,
                -1.2628885398220393
            ]
        },
        {
            "positions": [
                -0.30600589347072293,
                -1.1306505944678373,
                1.9408891350181978,
                1.1706684074566929,
                -1.1291777772902534,
                -1.164313466773766
            ]
        },
        {
            "positions": [
                -0.3566374234772899,
                -1.0917574189739518,
                1.9182542352298708,
                1.2525932824971049,
                -1.2211179615734924,
                -1.0657383937254927
            ]
        },
        {
            "positions": [
                -0.4072689534838566,
                -1.0528642434800666,
                1.8956193354415436,
                1.3345181575375171,
                -1.3130581458567319,
                -0.9671633206772197
            ]
        },
        {
            "positions": [
                -0.45790048349042334,
                -1.0139710679861813,
                1.8729844356532164,
                1.4164430325779294,
                -1.4049983301399713,
                -0.8685882476289466
            ]
        },
        {
            "positions": [
                -0.5085320134969903,
                -0.9750778924922958,
                1.8503495358648894,
                1.4983679076183414,
                -1.4969385144232104,
                -0.7700131745806735
            ]
        },
        {
            "positions": [
                -0.559163543503557,
                -0.9361847169984104,
                1.8277146360765624,
                1.5802927826587534,
                -1.5888786987064498,
                -0.6714381015324005
            ]
        },
        {
            "positions": [
                -0.6097950735101237,
                -0.8972915415045251,
                1.8050797362882351,
                1.6622176576991654,
                -1.6808188829896893,
                -0.572863028484127
            ]
        },
        {
            "positions": [
                -0.6604266035166905,
                -0.8583983660106398,
                1.782444836499908,
                1.7441425327395779,
                -1.7727590672729288,
                -0.4742879554358539
            ]
        },
        {
            "positions": [
                -0.7110581335232574,
                -0.8195051905167543,
                1.759809936711581,
                1.8260674077799899,
                -1.8646992515561678,
                -0.3757128823875808
            ]
        },
        {
            "positions": [
                -0.7616896635298241,
                -0.7806120150228688,
                1.737175036923254,
                1.907992282820402,
                -1.9566394358394072,
                -0.27713780933930776
            ]
        },
        {
            "positions": [
                -0.8123211935363909,
                -0.7417188395289835,
                1.7145401371349267,
                1.9899171578608144,
                -2.0485796201226467,
                -0.17856273629103425
            ]
        },
        {
            "positions": [
                -0.8629527235429578,
                -0.7028256640350983,
                1.6919052373465995,
                2.0718420329012264,
                -2.1405198044058857,
                -0.07998766324276119
            ]
        },
        {
            "positions": [
                -0.9135842535495247,
                -0.6639324885412127,
                1.6692703375582725,
                2.1537669079416384,
                -2.232459988689125,
                0.01858740980551169
            ]
        }
    ]
}