{
    "goal": {
        "global_pose": {
            "orientation": {
                "w": 0.5084816217422485,
                "x": -0.49083608388900757,
                "y": 0.5182115435600281,
                "z": -0.4816462993621826
            },
            "position": {
                "x": 0.5540239810943604,
                "y": 0.030875300988554955,
                "z": 0.16403168439865112
            }
        },
        "name": "move_to_storage_A"
    },
    "id": "PRM_move_to_storage_A_3",
    "joint_names": [
        "shoulder_pan_joint",
        "shoulder_lift_joint",
        "elbow_joint",
        "wrist_1_joint",
        "wrist_2_joint",
        "wrist_3_joint"
    ],
    "metrics": {
        "cart_traj_len": 0.3531436374182713,
        "distance_elbow_joint": 0.4524759211144378,
        "distance_shoulder_lift_joint": 0.23457103400634227,
        "distance_shoulder_pan_joint": 0.4585769354315378,
        "distance_wrist_1_joint": 0.25826916505093933,
        "distance_wrist_2_joint": 1.1126146882128078,
        "distance_wrist_3_joint": 0.10687080636885904,
        "smoothness": 2.2204460668324854e-16,
        "time": 0.031644425000000004,
        "traj_len": 1.6196847070294034,
        "weighted_distance": 2.051342003710349
    },
    "planner": "PRM",
    "start": {
        "state": {
            "elbow_joint": 1.9715463870305268,
            "shoulder_lift_joint": -1.1394903361783484,
            "shoulder_pan_joint": 0.12281147578464417,
            "wrist_1_joint": -0.7804599489681411,
            "wrist_2_joint": 0.12958660307563738,
            "wrist_3_joint": -3.1924946282119055
        }
    },
    "waypoints": [
        {
            "positions": [
                0.12281147578464417,
                -1.1394903361783484,
                1.9715463870305268,
                -0.7804599489681411,
                0.12958660307563738,
                -3.1924946282119055
            ]
        },
        {
            "positions": [
                0.0573004850087102,
                -1.1730004838935402,
                2.036185804332589,
                -0.8173555439754181,
                0.28853155853460993,
                -3.1772273701592115
            ]
        },
        {
            "positions": [
                -0.008210505767223777,
                -1.206510631608732,
                2.100825221634652,
                -0.8542511389826952,
                0.44747651399358246,
                -3.161960112106517
            ]
        },
        {
            "positions": [
                -0.07372149654315775,
                -1.2400207793239237,
                2.1654646389367143,
                -0.8911467339899722,
                0.606421469452555,
                -3.146692854053823
            ]
        },
        {
            "positions": [
                -0.1392324873190917,
                -1.2735309270391153,
                2.230104056238777,
                -0.9280423289972493,
                0.7653664249115276,
                -3.131425596001129
            ]
        },
        {
            "positions": [
                -0.2047434780950257,
                -1.307041074754307,
                2.2947434735408394,
                -0.9649379240045264,
                0.9243113803705002,
                -3.116158337948435
            ]
        },
        {
            "positions": [
                -0.27025446887095966,
                -1.3405512224694989,
                2.3593828908429018,
                -1.0018335190118033,
                1.0832563358294727,
                -3.1008910798957405
            ]
        },
        {
            "positions": [
                -0.33576545964689364,
                -1.3740613701846907,
                2.4240223081449646,
                -1.0387291140190804,
                1.2422012912884453,
                -3.0856238218430465
            ]
        }
    ]
}