{
    "goal": {
        "global_pose": {
            "orientation": {
                "w": 0.7031023502349854,
                "x": -0.7110244035720825,
                "y": 0.007748599164187908,
                "z": 0.005598929710686207
            },
            "position": {
                "x": 0.11585023208521307,
                "y": 0.44412534475326537,
                "z": 0.3711530566215515
            }
        },
        "name": "move_to_auspresseinheit_A"
    },
    "id": "PRM_move_to_auspresseinheit_A_136",
    "joint_names": [
        "shoulder_pan_joint",
        "shoulder_lift_joint",
        "elbow_joint",
        "wrist_1_joint",
        "wrist_2_joint",
        "wrist_3_joint"
    ],
    "metrics": {
        "cart_traj_len": 1.0982079560089482,
        "distance_elbow_joint": 0.2719993602593349,
        "distance_shoulder_lift_joint": 0.5365446035532204,
        "distance_shoulder_pan_joint": 2.072345127432827,
        "distance_wrist_1_joint": 0.8151594978252876,
        "distance_wrist_2_joint": 0.5150499796669737,
        "distance_wrist_3_joint": 1.903217328656806,
        "smoothness": 1.1847997827048176,
        "time": 0.126153496,
        "traj_len": 2.472714277346748,
        "weighted_distance": 3.354245076347332
    },
    "planner": "PRM",
    "start": {
        "state": {
            "elbow_joint": 2.422574709923281,
            "shoulder_lift_joint": -1.3736533754116391,
            "shoulder_pan_joint": -0.33786336945926293,
            "wrist_1_joint": -1.0288603412921917,
            "wrist_2_joint": 1.2330224858903978,
            "wrist_3_joint": -3.094022268022082
        }
    },
    "waypoints": [
        {
            "positions": [
                -0.33786336945926293,
                -1.3736533754116391,
                2.422574709923281,
                -1.0288603412921917,
                1.2330224858903978,
                -3.094022268022082
            ]
        },
        {
            "positions": [
                -0.42341117430984854,
                -1.4146399947035069,
                2.443212372919356,
                -1.0514597106892998,
                1.2250641530690742,
                -2.938025996340487
            ]
        },
        {
            "positions": [
                -0.5089589791604342,
                -1.4556266139953744,
                2.46385003591543,
                -1.074059080086408,
                1.2171058202477507,
                -2.782029724658892
            ]
        },
        {
            "positions": [
                -0.5945067840110199,
                -1.4966132332872422,
                2.484487698911505,
                -1.0966584494835163,
                1.2091474874264274,
                -2.626033452977297
            ]
        },
        {
            "positions": [
                -0.6800545888616054,
                -1.53759985257911,
                2.5051253619075795,
                -1.1192578188806244,
                1.201189154605104,
                -2.4700371812957016
            ]
        },
        {
            "positions": [
                -0.7656023937121911,
                -1.5785864718709774,
                2.525763024903654,
                -1.1418571882777324,
                1.1932308217837804,
                -2.3140409096141066
            ]
        },
        {
            "positions": [
                -0.8511501985627767,
                -1.6195730911628452,
                2.5464006878997285,
                -1.1644565576748407,
                1.1852724889624568,
                -2.1580446379325116
            ]
        },
        {
            "positions": [
                -0.7094176259873846,
                -1.645993535508483,
                2.532930380419466,
                -1.1026780775436917,
                1.1427906723498176,
                -2.245975519620442
            ]
        },
        {
            "positions": [
                -0.5676850534119924,
                -1.6724139798541204,
                2.5194600729392036,
                -1.0408995974125428,
                1.100308855737178,
                -2.3339064013083726
            ]
        },
        {
            "positions": [
                -0.42595248083660037,
                -1.6988344241997582,
                2.505989765458941,
                -0.9791211172813938,
                1.0578270391245388,
                -2.421837282996303
            ]
        },
        {
            "positions": [
                -0.28421990826120813,
                -1.725254868545396,
                2.4925194579786787,
                -0.9173426371502448,
                1.0153452225118995,
                -2.5097681646842336
            ]
        },
        {
            "positions": [
                -0.14248733568581606,
                -1.7516753128910336,
                2.4790491504984162,
                -0.8555641570190958,
                0.9728634058992601,
                -2.597699046372164
            ]
        },
        {
            "positions": [
                -0.0007547631104239949,
                -1.7780957572366711,
                2.4655788430181533,
                -0.7937856768879469,
                0.9303815892866207,
                -2.6856299280600946
            ]
        },
        {
            "positions": [
                0.14097780946496818,
                -1.8045162015823089,
                2.452108535537891,
                -0.7320071967567979,
                0.8878997726739815,
                -2.773560809748025
            ]
        },
        {
            "positions": [
                0.2827103820403605,
                -1.8309366459279466,
                2.4386382280576284,
                -0.6702287166256489,
                0.8454179560613421,
                -2.8614916914359556
            ]
        },
        {
            "positions": [
                0.42444295461575265,
                -1.8573570902735843,
                2.425167920577366,
                -0.6084502364944999,
                0.8029361394487027,
                -2.949422573123886
            ]
        },
        {
            "positions": [
                0.5661755271911446,
                -1.8837775346192218,
                2.4116976130971035,
                -0.546671756363351,
                0.7604543228360634,
                -3.037353454811816
            ]
        },
        {
            "positions": [
                0.7079080997665367,
                -1.9101979789648595,
                2.398227305616841,
                -0.484893276232202,
                0.717972506223424,
                -3.125284336499747
            ]
        }
    ]
}