{
    "goal": {
        "global_pose": {
            "orientation": {
                "w": 0.5084816217422485,
                "x": -0.49083608388900757,
                "y": 0.5182115435600281,
                "z": -0.4816462993621826
            },
            "position": {
                "x": 0.5540239810943604,
                "y": 0.030875300988554955,
                "z": 0.16403168439865112
            }
        },
        "name": "move_to_storage_A"
    },
    "id": "PRM_move_to_storage_A_150",
    "joint_names": [
        "shoulder_pan_joint",
        "shoulder_lift_joint",
        "elbow_joint",
        "wrist_1_joint",
        "wrist_2_joint",
        "wrist_3_joint"
    ],
    "metrics": {
        "cart_traj_len": 0.35336837126632775,
        "distance_elbow_joint": 0.450214446916573,
        "distance_shoulder_lift_joint": 0.2337547498380348,
        "distance_shoulder_pan_joint": 0.46393334922966084,
        "distance_wrist_1_joint": 0.2492142223834405,
        "distance_wrist_2_joint": 1.0905923590205349,
        "distance_wrist_3_joint": 0.09101087458279489,
        "smoothness": 4.440892133664971e-16,
        "time": 0.043427349000000004,
        "traj_len": 1.6058393450065418,
        "weighted_distance": 2.024981069674629
    },
    "planner": "PRM",
    "start": {
        "state": {
            "elbow_joint": 1.9715463870305268,
            "shoulder_lift_joint": -1.1394903361783484,
            "shoulder_pan_joint": 0.12281147578464417,
            "wrist_1_joint": -0.7804599489681411,
            "wrist_2_joint": 0.12958660307563738,
            "wrist_3_joint": -3.1924946282119055
        }
    },
    "waypoints": [
        {
            "positions": [
                0.12281147578464417,
                -1.1394903361783484,
                1.9715463870305268,
                -0.7804599489681411,
                0.12958660307563738,
                -3.1924946282119055
            ]
        },
        {
            "positions": [
                0.056535283037549774,
                -1.1728838718694963,
                2.0358627365900372,
                -0.816061980737204,
                0.28538551150714236,
                -3.1794930747000776
            ]
        },
        {
            "positions": [
                -0.009740909709544623,
                -1.206277407560644,
                2.1001790861495477,
                -0.8516640125062669,
                0.4411844199386473,
                -3.16649152118825
            ]
        },
        {
            "positions": [
                -0.07601710245663902,
                -1.2396709432517918,
                2.1644954357090582,
                -0.8872660442753298,
                0.5969833283701523,
                -3.153489967676422
            ]
        },
        {
            "positions": [
                -0.1422932952037334,
                -1.2730644789429397,
                2.2288117852685683,
                -0.9228680760443928,
                0.7527822368016573,
                -3.140488414164594
            ]
        },
        {
            "positions": [
                -0.20856948795082786,
                -1.3064580146340876,
                2.2931281348280788,
                -0.9584701078134557,
                0.9085811452331624,
                -3.127486860652766
            ]
        },
        {
            "positions": [
                -0.2748456806979222,
                -1.3398515503252353,
                2.3574444843875892,
                -0.9940721395825186,
                1.0643800536646673,
                -3.1144853071409386
            ]
        },
        {
            "positions": [
                -0.34112187344501665,
                -1.3732450860163832,
                2.4217608339470997,
                -1.0296741713515816,
                1.2201789620961723,
                -3.1014837536291107
            ]
        }
    ]
}