{
    "goal": {
        "global_pose": {
            "orientation": {
                "w": 0.5084816217422485,
                "x": -0.49083608388900757,
                "y": 0.5182115435600281,
                "z": -0.4816462993621826
            },
            "position": {
                "x": 0.5540239810943604,
                "y": 0.030875300988554955,
                "z": 0.16403168439865112
            }
        },
        "name": "move_to_storage_A"
    },
    "id": "PRM_move_to_storage_A_108",
    "joint_names": [
        "shoulder_pan_joint",
        "shoulder_lift_joint",
        "elbow_joint",
        "wrist_1_joint",
        "wrist_2_joint",
        "wrist_3_joint"
    ],
    "metrics": {
        "cart_traj_len": 0.35345929556861244,
        "distance_elbow_joint": 0.45234705136442344,
        "distance_shoulder_lift_joint": 0.23286420187038592,
        "distance_shoulder_pan_joint": 0.46245630016230815,
        "distance_wrist_1_joint": 0.25123888599102273,
        "distance_wrist_2_joint": 1.0982921675123223,
        "distance_wrist_3_joint": 0.10562074001458122,
        "smoothness": 1.1102230263833737e-15,
        "time": 0.019441221,
        "traj_len": 1.613325555154645,
        "weighted_distance": 2.0404881475881087
    },
    "planner": "PRM",
    "start": {
        "state": {
            "elbow_joint": 1.9715463870305268,
            "shoulder_lift_joint": -1.1394903361783484,
            "shoulder_pan_joint": 0.12281147578464417,
            "wrist_1_joint": -0.7804599489681411,
            "wrist_2_joint": 0.12958660307563738,
            "wrist_3_joint": -3.1924946282119055
        }
    },
    "waypoints": [
        {
            "positions": [
                0.12281147578464417,
                -1.1394903361783484,
                1.9715463870305268,
                -0.7804599489681411,
                0.12958660307563738,
                -3.1924946282119055
            ]
        },
        {
            "positions": [
                0.05674629004717158,
                -1.1727566507312606,
                2.0361673943683014,
                -0.81635121839543,
                0.28648548414882624,
                -3.1774059510669654
            ]
        },
        {
            "positions": [
                -0.009318895690301018,
                -1.206022965284173,
                2.1007884017060765,
                -0.852242487822719,
                0.4433843652220152,
                -3.1623172739220253
            ]
        },
        {
            "positions": [
                -0.0753840814277736,
                -1.2392892798370851,
                2.165409409043851,
                -0.888133757250008,
                0.600283246295204,
                -3.147228596777085
            ]
        },
        {
            "positions": [
                -0.1414492671652462,
                -1.2725555943899975,
                2.230030416381626,
                -0.9240250266772969,
                0.757182127368393,
                -3.1321399196321447
            ]
        },
        {
            "positions": [
                -0.2075144529027188,
                -1.3058219089429097,
                2.294651423719401,
                -0.959916296104586,
                0.9140810084415819,
                -3.1170512424872046
            ]
        },
        {
            "positions": [
                -0.27357963864019136,
                -1.3390882234958221,
                2.3592724310571755,
                -0.9958075655318748,
                1.0709798895147706,
                -3.1019625653422644
            ]
        },
        {
            "positions": [
                -0.33964482437766397,
                -1.3723545380487343,
                2.42389343839495,
                -1.0316988349591638,
                1.2278787705879597,
                -3.0868738881973243
            ]
        }
    ]
}