{
    "goal": {
        "global_pose": {
            "orientation": {
                "w": 0.5084816217422485,
                "x": -0.49083608388900757,
                "y": 0.5182115435600281,
                "z": -0.4816462993621826
            },
            "position": {
                "x": 0.5540239810943604,
                "y": 0.030875300988554955,
                "z": 0.16403168439865112
            }
        },
        "name": "move_to_storage_A"
    },
    "id": "PRM_move_to_storage_A_51",
    "joint_names": [
        "shoulder_pan_joint",
        "shoulder_lift_joint",
        "elbow_joint",
        "wrist_1_joint",
        "wrist_2_joint",
        "wrist_3_joint"
    ],
    "metrics": {
        "cart_traj_len": 0.3527163064089198,
        "distance_elbow_joint": 0.45434824207407853,
        "distance_shoulder_lift_joint": 0.23375688588021548,
        "distance_shoulder_pan_joint": 0.4590122850651817,
        "distance_wrist_1_joint": 0.25956270648156965,
        "distance_wrist_2_joint": 1.1080821038174933,
        "distance_wrist_3_joint": 0.09823047220943293,
        "smoothness": 4.440892133664971e-16,
        "time": 0.033240764,
        "traj_len": 1.6164753928000177,
        "weighted_distance": 2.0437951096540723
    },
    "planner": "PRM",
    "start": {
        "state": {
            "elbow_joint": 1.9715463870305268,
            "shoulder_lift_joint": -1.1394903361783484,
            "shoulder_pan_joint": 0.12281147578464417,
            "wrist_1_joint": -0.7804599489681411,
            "wrist_2_joint": 0.12958660307563738,
            "wrist_3_joint": -3.1924946282119055
        }
    },
    "waypoints": [
        {
            "positions": [
                0.12281147578464417,
                -1.1394903361783484,
                1.9715463870305268,
                -0.7804599489681411,
                0.12958660307563738,
                -3.1924946282119055
            ]
        },
        {
            "positions": [
                0.05723829220390393,
                -1.172884177018379,
                2.036453278755395,
                -0.8175403356083654,
                0.2878840464781364,
                -3.178461703610558
            ]
        },
        {
            "positions": [
                -0.00833489137683631,
                -1.20627801785841,
                2.1013601704802634,
                -0.8546207222485895,
                0.44618148988063544,
                -3.1644287790092105
            ]
        },
        {
            "positions": [
                -0.07390807495757655,
                -1.2396718586984408,
                2.1662670622051317,
                -0.8917011088888138,
                0.6044789332831345,
                -3.1503958544078627
            ]
        },
        {
            "positions": [
                -0.13948125853831678,
                -1.2730656995384715,
                2.23117395393,
                -0.928781495529038,
                0.7627763766856336,
                -3.1363629298065154
            ]
        },
        {
            "positions": [
                -0.20505444211905705,
                -1.3064595403785022,
                2.2960808456548687,
                -0.9658618821692623,
                0.9210738200881327,
                -3.1223300052051677
            ]
        },
        {
            "positions": [
                -0.27062762569979726,
                -1.3398533812185331,
                2.360987737379737,
                -1.0029422688094864,
                1.0793712634906316,
                -3.1082970806038204
            ]
        },
        {
            "positions": [
                -0.3362008092805375,
                -1.3732472220585639,
                2.4258946291046053,
                -1.0400226554497107,
                1.2376687068931307,
                -3.0942641560024726
            ]
        }
    ]
}