{
    "goal": {
        "global_pose": {
            "orientation": {
                "w": 0.7031023502349854,
                "x": -0.7110244035720825,
                "y": 0.007748599164187908,
                "z": 0.005598929710686207
            },
            "position": {
                "x": 0.11585023208521307,
                "y": 0.44412534475326537,
                "z": 0.3711530566215515
            }
        },
        "name": "move_to_auspresseinheit_A"
    },
    "id": "PRM_move_to_auspresseinheit_A_65",
    "joint_names": [
        "shoulder_pan_joint",
        "shoulder_lift_joint",
        "elbow_joint",
        "wrist_1_joint",
        "wrist_2_joint",
        "wrist_3_joint"
    ],
    "metrics": {
        "cart_traj_len": 2.2051608650529477,
        "distance_elbow_joint": 0.1466177513543192,
        "distance_shoulder_lift_joint": 0.5376645375098759,
        "distance_shoulder_pan_joint": 4.045116468544146,
        "distance_wrist_1_joint": 3.404188227858061,
        "distance_wrist_2_joint": 3.3809707773504134,
        "distance_wrist_3_joint": 2.061421866270293,
        "smoothness": 0.8426711650168439,
        "time": 0.30746652500000005,
        "traj_len": 3.6845596248245336,
        "weighted_distance": 4.948129178450798
    },
    "planner": "PRM",
    "start": {
        "state": {
            "elbow_joint": 2.422574709923281,
            "shoulder_lift_joint": -1.3736533754116391,
            "shoulder_pan_joint": -0.33786336945926293,
            "wrist_1_joint": -1.0288603412921917,
            "wrist_2_joint": 1.2330224858903978,
            "wrist_3_joint": -3.094022268022082
        }
    },
    "waypoints": [
        {
            "positions": [
                -0.33786336945926293,
                -1.3736533754116391,
                2.422574709923281,
                -1.0288603412921917,
                1.2330224858903978,
                -3.094022268022082
            ]
        },
        {
            "positions": [
                -0.4261988935454507,
                -1.4030350863880559,
                2.4174660135100163,
                -1.112678120607802,
                1.1180510394475773,
                -3.0342230492023927
            ]
        },
        {
            "positions": [
                -0.5145344176316385,
                -1.4324167973644726,
                2.4123573170967516,
                -1.1964958999234125,
                1.0030795930047571,
                -2.9744238303827033
            ]
        },
        {
            "positions": [
                -0.6028699417178264,
                -1.4617985083408895,
                2.407248620683487,
                -1.2803136792390228,
                0.8881081465619367,
                -2.914624611563014
            ]
        },
        {
            "positions": [
                -0.6912054658040141,
                -1.4911802193173063,
                2.402139924270222,
                -1.3641314585546334,
                0.7731367001191165,
                -2.8548253927433245
            ]
        },
        {
            "positions": [
                -0.7795409898902019,
                -1.520561930293723,
                2.3970312278569574,
                -1.4479492378702437,
                0.6581652536762961,
                -2.795026173923635
            ]
        },
        {
            "positions": [
                -0.8678765139763898,
                -1.54994364127014,
                2.3919225314436927,
                -1.531767017185854,
                0.5431938072334758,
                -2.7352269551039456
            ]
        },
        {
            "positions": [
                -0.9562120380625776,
                -1.5793253522465567,
                2.386813835030428,
                -1.6155847965014645,
                0.42822236079065545,
                -2.6754277362842562
            ]
        },
        {
            "positions": [
                -1.0445475621487654,
                -1.6087070632229734,
                2.3817051386171633,
                -1.699402575817075,
                0.31325091434783514,
                -2.6156285174645664
            ]
        },
        {
            "positions": [
                -1.1328830862349533,
                -1.6380887741993901,
                2.3765964422038985,
                -1.783220355132685,
                0.19827946790501483,
                -2.555829298644877
            ]
        },
        {
            "positions": [
                -1.221218610321141,
                -1.6674704851758069,
                2.371487745790634,
                -1.8670381344482956,
                0.0833080214621944,
                -2.4960300798251875
            ]
        },
        {
            "positions": [
                -1.309554134407329,
                -1.6968521961522238,
                2.366379049377369,
                -1.950855913763906,
                -0.03166342498062602,
                -2.436230861005498
            ]
        },
        {
            "positions": [
                -1.3978896584935168,
                -1.7262339071286406,
                2.3612703529641044,
                -2.034673693079516,
                -0.14663487142344622,
                -2.3764316421858087
            ]
        },
        {
            "positions": [
                -1.4862251825797044,
                -1.7556156181050573,
                2.3561616565508396,
                -2.1184914723951267,
                -0.2616063178662664,
                -2.3166324233661193
            ]
        },
        {
            "positions": [
                -1.5745607066658922,
                -1.784997329081474,
                2.351052960137575,
                -2.202309251710737,
                -0.37657776430908685,
                -2.25683320454643
            ]
        },
        {
            "positions": [
                -1.66289623075208,
                -1.814379040057891,
                2.34594426372431,
                -2.2861270310263473,
                -0.4915492107519073,
                -2.1970339857267405
            ]
        },
        {
            "positions": [
                -1.7512317548382679,
                -1.8437607510343077,
                2.3408355673110455,
                -2.3699448103419583,
                -0.6065206571947275,
                -2.137234766907051
            ]
        },
        {
            "positions": [
                -1.8395672789244557,
                -1.8731424620107244,
                2.3357268708977807,
                -2.4537625896575683,
                -0.7214921036375479,
                -2.0774355480873616
            ]
        },
        {
            "positions": [
                -1.6982665811978472,
                -1.8752633203946572,
                2.3390474215827153,
                -2.34380225746353,
                -0.6422445376474107,
                -2.1354819451060045
            ]
        },
        {
            "positions": [
                -1.5569658834712388,
                -1.87738417877859,
                2.3423679722676494,
                -2.233841925269492,
                -0.5629969716572736,
                -2.1935283421246474
            ]
        },
        {
            "positions": [
                -1.4156651857446303,
                -1.8795050371625228,
                2.345688522952584,
                -2.1238815930754544,
                -0.4837494056671364,
                -2.2515747391432903
            ]
        },
        {
            "positions": [
                -1.2743644880180218,
                -1.8816258955464558,
                2.3490090736375184,
                -2.0139212608814163,
                -0.4045018396769992,
                -2.309621136161933
            ]
        },
        {
            "positions": [
                -1.1330637902914131,
                -1.8837467539303885,
                2.3523296243224525,
                -1.9039609286873782,
                -0.32525427368686205,
                -2.367667533180576
            ]
        },
        {
            "positions": [
                -0.9917630925648048,
                -1.8858676123143212,
                2.355650175007387,
                -1.7940005964933403,
                -0.2460067076967249,
                -2.425713930199219
            ]
        },
        {
            "positions": [
                -0.8504623948381962,
                -1.8879884706982542,
                2.3589707256923216,
                -1.6840402642993022,
                -0.16675914170658768,
                -2.483760327217862
            ]
        },
        {
            "positions": [
                -0.7091616971115877,
                -1.8901093290821869,
                2.3622912763772557,
                -1.5740799321052643,
                -0.08751157571645052,
                -2.5418067242365048
            ]
        },
        {
            "positions": [
                -0.5678609993849792,
                -1.8922301874661196,
                2.36561182706219,
                -1.4641195999112262,
                -0.00826400972631336,
                -2.5998531212551477
            ]
        },
        {
            "positions": [
                -0.4265603016583708,
                -1.8943510458500525,
                2.3689323777471247,
                -1.354159267717188,
                0.0709835562638238,
                -2.6578995182737906
            ]
        },
        {
            "positions": [
                -0.2852596039317621,
                -1.8964719042339853,
                2.372252928432059,
                -1.24419893552315,
                0.15023112225396107,
                -2.715945915292434
            ]
        },
        {
            "positions": [
                -0.14395890620515384,
                -1.8985927626179182,
                2.3755734791169933,
                -1.1342386033291123,
                0.22947868824409812,
                -2.7739923123110763
            ]
        },
        {
            "positions": [
                -0.0026582084785453652,
                -1.900713621001851,
                2.378894029801928,
                -1.0242782711350742,
                0.3087262542342353,
                -2.8320387093297197
            ]
        },
        {
            "positions": [
                0.13864248924806333,
                -1.9028344793857837,
                2.382214580486862,
                -0.9143179389410361,
                0.38797382022437255,
                -2.8900851063483626
            ]
        },
        {
            "positions": [
                0.279943186974672,
                -1.9049553377697166,
                2.3855351311717965,
                -0.804357606746998,
                0.4672213862145098,
                -2.9481315033670055
            ]
        },
        {
            "positions": [
                0.42124388470128027,
                -1.9070761961536493,
                2.388855681856731,
                -0.6943972745529603,
                0.5464689522046469,
                -3.0061779003856484
            ]
        },
        {
            "positions": [
                0.5625445824278885,
                -1.9091970545375823,
                2.392176232541665,
                -0.5844369423589222,
                0.6257165181947839,
                -3.0642242974042913
            ]
        },
        {
            "positions": [
                0.7038452801544974,
                -1.911317912921515,
                2.3954967832265996,
                -0.474476610164884,
                0.7049640841849213,
                -3.122270694422934
            ]
        }
    ]
}