{
    "goal": {
        "global_pose": {
            "orientation": {
                "w": 0.7031023502349854,
                "x": -0.7110244035720825,
                "y": 0.007748599164187908,
                "z": 0.005598929710686207
            },
            "position": {
                "x": 0.11585023208521307,
                "y": 0.44412534475326537,
                "z": 0.3711530566215515
            }
        },
        "name": "move_to_auspresseinheit_A"
    },
    "id": "PRM_move_to_auspresseinheit_A_67",
    "joint_names": [
        "shoulder_pan_joint",
        "shoulder_lift_joint",
        "elbow_joint",
        "wrist_1_joint",
        "wrist_2_joint",
        "wrist_3_joint"
    ],
    "metrics": {
        "cart_traj_len": 0.6885965890561658,
        "distance_elbow_joint": 0.12037692255537191,
        "distance_shoulder_lift_joint": 0.5301017926105567,
        "distance_shoulder_pan_joint": 1.0441104144912545,
        "distance_wrist_1_joint": 0.7570701846688435,
        "distance_wrist_2_joint": 0.7975269199306042,
        "distance_wrist_3_joint": 0.1237834528774644,
        "smoothness": 1.2789326517182675,
        "time": 0.312642439,
        "traj_len": 1.8365646427866607,
        "weighted_distance": 2.2748920188634165
    },
    "planner": "PRM",
    "start": {
        "state": {
            "elbow_joint": 2.422574709923281,
            "shoulder_lift_joint": -1.3736533754116391,
            "shoulder_pan_joint": -0.33786336945926293,
            "wrist_1_joint": -1.0288603412921917,
            "wrist_2_joint": 1.2330224858903978,
            "wrist_3_joint": -3.094022268022082
        }
    },
    "waypoints": [
        {
            "positions": [
                -0.33786336945926293,
                -1.3736533754116391,
                2.422574709923281,
                -1.0288603412921917,
                1.2330224858903978,
                -3.094022268022082
            ]
        },
        {
            "positions": [
                -0.21478647489883135,
                -1.4364638213517922,
                2.41157751749639,
                -0.9338758353101058,
                1.138218715684919,
                -3.0883427428205814
            ]
        },
        {
            "positions": [
                -0.09170958033839974,
                -1.4992742672919452,
                2.4005803250694986,
                -0.8388913293280199,
                1.0434149454794401,
                -3.0826632176190807
            ]
        },
        {
            "positions": [
                0.03136731422203182,
                -1.5620847132320983,
                2.3895831326426076,
                -0.7439068233459339,
                0.9486111752739613,
                -3.07698369241758
            ]
        },
        {
            "positions": [
                0.15444420878246345,
                -1.6248951591722514,
                2.3785859402157166,
                -0.6489223173638481,
                0.8538074050684825,
                -3.071304167216079
            ]
        },
        {
            "positions": [
                0.2775211033428951,
                -1.6877056051124044,
                2.3675887477888256,
                -0.5539378113817621,
                0.7590036348630037,
                -3.065624642014578
            ]
        },
        {
            "positions": [
                0.40059799790332656,
                -1.7505160510525575,
                2.356591555361934,
                -0.45895330539967616,
                0.6641998646575249,
                -3.0599451168130773
            ]
        },
        {
            "positions": [
                0.5236748924637583,
                -1.8133264969927105,
                2.345594362935043,
                -0.36396879941759014,
                0.5693960944520461,
                -3.0542655916115766
            ]
        },
        {
            "positions": [
                0.614960968747875,
                -1.8585408325074533,
                2.36729265071861,
                -0.4100581208147111,
                0.6363463586981724,
                -3.096278979845056
            ]
        },
        {
            "positions": [
                0.7062470450319915,
                -1.9037551680221958,
                2.388990938502177,
                -0.45614744221183207,
                0.7032966229442986,
                -3.1382923680785355
            ]
        }
    ]
}