{
    "goal": {
        "global_pose": {
            "orientation": {
                "w": 0.7031023502349854,
                "x": -0.7110244035720825,
                "y": 0.007748599164187908,
                "z": 0.005598929710686207
            },
            "position": {
                "x": 0.11585023208521307,
                "y": 0.44412534475326537,
                "z": 0.3711530566215515
            }
        },
        "name": "move_to_auspresseinheit_A"
    },
    "id": "PRM_move_to_auspresseinheit_A_99",
    "joint_names": [
        "shoulder_pan_joint",
        "shoulder_lift_joint",
        "elbow_joint",
        "wrist_1_joint",
        "wrist_2_joint",
        "wrist_3_joint"
    ],
    "metrics": {
        "cart_traj_len": 0.7222584323746051,
        "distance_elbow_joint": 0.3760694448817161,
        "distance_shoulder_lift_joint": 0.5353404152692944,
        "distance_shoulder_pan_joint": 1.0457171997683052,
        "distance_wrist_1_joint": 1.4658639768737998,
        "distance_wrist_2_joint": 0.5185715072086905,
        "distance_wrist_3_joint": 2.1617807140625933,
        "smoothness": 1.042161967748247,
        "time": 0.16053266700000002,
        "traj_len": 2.470494537145225,
        "weighted_distance": 3.5229732003340697
    },
    "planner": "PRM",
    "start": {
        "state": {
            "elbow_joint": 2.422574709923281,
            "shoulder_lift_joint": -1.3736533754116391,
            "shoulder_pan_joint": -0.33786336945926293,
            "wrist_1_joint": -1.0288603412921917,
            "wrist_2_joint": 1.2330224858903978,
            "wrist_3_joint": -3.094022268022082
        }
    },
    "waypoints": [
        {
            "positions": [
                -0.33786336945926293,
                -1.3736533754116391,
                2.422574709923281,
                -1.0288603412921917,
                1.2330224858903978,
                -3.094022268022082
            ]
        },
        {
            "positions": [
                -0.27531548048209264,
                -1.4208065539898156,
                2.4022349088380945,
                -0.9273479043167816,
                1.2137636766969535,
                -2.9878484477048595
            ]
        },
        {
            "positions": [
                -0.21276759150492233,
                -1.4679597325679918,
                2.381895107752908,
                -0.8258354673413716,
                1.1945048675035093,
                -2.8816746273876364
            ]
        },
        {
            "positions": [
                -0.15021970252775205,
                -1.5151129111461683,
                2.361555306667721,
                -0.7243230303659616,
                1.1752460583100652,
                -2.7755008070704132
            ]
        },
        {
            "positions": [
                -0.08767181355058173,
                -1.5622660897243446,
                2.3412155055825346,
                -0.6228105933905514,
                1.155987249116621,
                -2.6693269867531906
            ]
        },
        {
            "positions": [
                -0.02512392457341145,
                -1.609419268302521,
                2.320875704497348,
                -0.5212981564151413,
                1.1367284399231767,
                -2.563153166435968
            ]
        },
        {
            "positions": [
                0.037423964403758836,
                -1.6565724468806975,
                2.3005359034121615,
                -0.4197857194397313,
                1.1174696307297325,
                -2.456979346118745
            ]
        },
        {
            "positions": [
                0.09997185338092912,
                -1.7037256254588737,
                2.280196102326975,
                -0.3182732824643212,
                1.0982108215362882,
                -2.3508055258015217
            ]
        },
        {
            "positions": [
                0.16251974235809946,
                -1.7508788040370502,
                2.259856301241788,
                -0.21676084548891106,
                1.0789520123428442,
                -2.244631705484299
            ]
        },
        {
            "positions": [
                0.2250676313352698,
                -1.7980319826152265,
                2.2395165001566015,
                -0.11524840851350093,
                1.0596932031494,
                -2.1384578851670764
            ]
        },
        {
            "positions": [
                0.2876155203124401,
                -1.845185161193403,
                2.219176699071415,
                -0.013735971538090808,
                1.0404343939559557,
                -2.0322840648498532
            ]
        },
        {
            "positions": [
                0.34764956459766894,
                -1.8543006796916215,
                2.243844046789965,
                -0.07812734398376212,
                0.9938653346310631,
                -2.1894329949770484
            ]
        },
        {
            "positions": [
                0.40768360888289784,
                -1.8634161981898403,
                2.268511394508515,
                -0.14251871642943342,
                0.9472962753061704,
                -2.346581925104243
            ]
        },
        {
            "positions": [
                0.46771765316812675,
                -1.8725317166880588,
                2.293178742227065,
                -0.20691008887510473,
                0.9007272159812778,
                -2.503730855231438
            ]
        },
        {
            "positions": [
                0.5277516974533556,
                -1.8816472351862776,
                2.3178460899456153,
                -0.27130146132077604,
                0.8541581566563852,
                -2.660879785358633
            ]
        },
        {
            "positions": [
                0.5877857417385846,
                -1.8907627536844962,
                2.342513437664165,
                -0.3356928337664474,
                0.8075890973314925,
                -2.818028715485828
            ]
        },
        {
            "positions": [
                0.6478197860238133,
                -1.899878272182715,
                2.367180785382715,
                -0.40008420621211865,
                0.7610200380065999,
                -2.9751776456130226
            ]
        },
        {
            "positions": [
                0.7078538303090423,
                -1.9089937906809336,
                2.391848133101265,
                -0.46447557865779,
                0.7144509786817073,
                -3.1323265757402177
            ]
        }
    ]
}