{
    "goal": {
        "global_pose": {
            "orientation": {
                "w": -0.00223480608172531,
                "x": 0.0024358444001904467,
                "y": 0.7094548369677653,
                "z": -0.704743149386269
            },
            "position": {
                "x": 0.6205249238014221,
                "y": -0.6371506643295288,
                "z": 0.19426114857196808
            }
        },
        "name": "move_to_magneteinheit_B"
    },
    "id": "PRM_move_to_magneteinheit_B_108",
    "joint_names": [
        "shoulder_pan_joint",
        "shoulder_lift_joint",
        "elbow_joint",
        "wrist_1_joint",
        "wrist_2_joint",
        "wrist_3_joint"
    ],
    "metrics": {
        "cart_traj_len": 1.4529249300268656,
        "distance_elbow_joint": 0.7307154622903416,
        "distance_shoulder_lift_joint": 1.2485612558165005,
        "distance_shoulder_pan_joint": 1.619407701134165,
        "distance_wrist_1_joint": 2.6094819128105224,
        "distance_wrist_2_joint": 2.945151312608364,
        "distance_wrist_3_joint": 3.1320208457856693,
        "smoothness": 5.652044510980879e-16,
        "time": 0.052222216999999994,
        "traj_len": 3.5050447201776986,
        "weighted_distance": 4.909583832407365
    },
    "planner": "PRM",
    "start": {
        "state": {
            "elbow_joint": 2.39358713078474,
            "shoulder_lift_joint": -1.908514104345545,
            "shoulder_pan_joint": 0.7066247066606129,
            "wrist_1_joint": -0.4678290933515497,
            "wrist_2_joint": 0.7096259083745334,
            "wrist_3_joint": -3.1358149277392293
        }
    },
    "waypoints": [
        {
            "positions": [
                0.7066247066606129,
                -1.908514104345545,
                2.39358713078474,
                -0.4678290933515497,
                0.7096259083745334,
                -3.1358149277392293
            ]
        },
        {
            "positions": [
                0.6560182160001703,
                -1.8694965651012794,
                2.3707522725881667,
                -0.38628278357622087,
                0.6175899298555221,
                -3.037939276308427
            ]
        },
        {
            "positions": [
                0.6054117253397276,
                -1.8304790258570136,
                2.3479174143915937,
                -0.3047364738008921,
                0.5255539513365106,
                -2.940063624877625
            ]
        },
        {
            "positions": [
                0.554805234679285,
                -1.791461486612748,
                2.3250825561950204,
                -0.22319016402556324,
                0.43351797281749926,
                -2.8421879734468227
            ]
        },
        {
            "positions": [
                0.5041987440188423,
                -1.7524439473684823,
                2.3022476979984474,
                -0.1416438542502344,
                0.3414819942984879,
                -2.744312322016021
            ]
        },
        {
            "positions": [
                0.45359225335839964,
                -1.7134264081242168,
                2.279412839801874,
                -0.06009754447490556,
                0.24944601577947656,
                -2.6464366705852185
            ]
        },
        {
            "positions": [
                0.402985762697957,
                -1.674408868879951,
                2.256577981605301,
                0.021448765300423223,
                0.1574100372604651,
                -2.548561019154416
            ]
        },
        {
            "positions": [
                0.35237927203751435,
                -1.6353913296356855,
                2.2337431234087277,
                0.10299507507575206,
                0.06537405874145374,
                -2.4506853677236142
            ]
        },
        {
            "positions": [
                0.3017727813770717,
                -1.5963737903914197,
                2.2109082652121548,
                0.1845413848510809,
                -0.026661919777557608,
                -2.352809716292812
            ]
        },
        {
            "positions": [
                0.25116629071662905,
                -1.5573562511471541,
                2.1880734070155814,
                0.26608769462640974,
                -0.11869789829656896,
                -2.25493406486201
            ]
        },
        {
            "positions": [
                0.20055980005618634,
                -1.5183387119028886,
                2.1652385488190085,
                0.3476340044017386,
                -0.2107338768155803,
                -2.1570584134312076
            ]
        },
        {
            "positions": [
                0.1499533093957437,
                -1.4793211726586228,
                2.142403690622435,
                0.4291803141770674,
                -0.3027698553345918,
                -2.0591827620004057
            ]
        },
        {
            "positions": [
                0.09934681873530105,
                -1.4403036334143573,
                2.119568832425862,
                0.5107266239523962,
                -0.39480583385360324,
                -1.9613071105696034
            ]
        },
        {
            "positions": [
                0.0487403280748584,
                -1.4012860941700915,
                2.0967339742292888,
                0.592272933727725,
                -0.4868418123726145,
                -1.8634314591388013
            ]
        },
        {
            "positions": [
                -0.0018661625855842523,
                -1.362268554925826,
                2.073899116032716,
                0.6738192435030539,
                -0.5788777908916259,
                -1.765555807707999
            ]
        },
        {
            "positions": [
                -0.0524726532460269,
                -1.3232510156815604,
                2.0510642578361424,
                0.7553655532783827,
                -0.6709137694106372,
                -1.6676801562771968
            ]
        },
        {
            "positions": [
                -0.10307914390646955,
                -1.2842334764372947,
                2.028229399639569,
                0.8369118630537116,
                -0.7629497479296486,
                -1.5698045048463947
            ]
        },
        {
            "positions": [
                -0.1536856345669122,
                -1.245215937193029,
                2.005394541442996,
                0.9184581728290404,
                -0.8549857264486601,
                -1.4719288534155925
            ]
        },
        {
            "positions": [
                -0.20429212522735485,
                -1.2061983979487634,
                1.982559683246423,
                1.0000044826043692,
                -0.9470217049676714,
                -1.3740532019847904
            ]
        },
        {
            "positions": [
                -0.2548986158877975,
                -1.1671808587044978,
                1.9597248250498498,
                1.081550792379698,
                -1.039057683486683,
                -1.276177550553988
            ]
        },
        {
            "positions": [
                -0.30550510654824026,
                -1.128163319460232,
                1.9368899668532766,
                1.163097102155027,
                -1.1310936620056942,
                -1.178301899123186
            ]
        },
        {
            "positions": [
                -0.3561115972086829,
                -1.0891457802159665,
                1.9140551086567035,
                1.2446434119303558,
                -1.2231296405247054,
                -1.080426247692384
            ]
        },
        {
            "positions": [
                -0.40671808786912556,
                -1.0501282409717008,
                1.89122025046013,
                1.3261897217056846,
                -1.315165619043717,
                -0.9825505962615817
            ]
        },
        {
            "positions": [
                -0.4573245785295682,
                -1.0111107017274352,
                1.8683853922635572,
                1.4077360314810135,
                -1.4072015975627283,
                -0.8846749448307794
            ]
        },
        {
            "positions": [
                -0.5079310691900109,
                -0.9720931624831696,
                1.8455505340669838,
                1.489282341256342,
                -1.49923757608174,
                -0.7867992933999775
            ]
        },
        {
            "positions": [
                -0.5585375598504535,
                -0.9330756232389039,
                1.8227156758704108,
                1.570828651031671,
                -1.5912735546007513,
                -0.6889236419691751
            ]
        },
        {
            "positions": [
                -0.6091440505108962,
                -0.8940580839946384,
                1.7998808176738375,
                1.6523749608069997,
                -1.6833095331197625,
                -0.5910479905383732
            ]
        },
        {
            "positions": [
                -0.6597505411713388,
                -0.8550405447503726,
                1.7770459594772645,
                1.7339212705823286,
                -1.7753455116387737,
                -0.49317233910757086
            ]
        },
        {
            "positions": [
                -0.7103570318317814,
                -0.8160230055061071,
                1.7542111012806911,
                1.8154675803576574,
                -1.8673814901577854,
                -0.3952966876767685
            ]
        },
        {
            "positions": [
                -0.7609635224922241,
                -0.7770054662618413,
                1.731376243084118,
                1.8970138901329863,
                -1.9594174686767967,
                -0.2974210362459666
            ]
        },
        {
            "positions": [
                -0.8115700131526667,
                -0.7379879270175758,
                1.7085413848875448,
                1.978560199908315,
                -2.051453447195808,
                -0.19954538481516426
            ]
        },
        {
            "positions": [
                -0.8621765038131094,
                -0.69897038777331,
                1.6857065266909717,
                2.060106509683644,
                -2.1434894257148196,
                -0.10166973338436236
            ]
        },
        {
            "positions": [
                -0.912782994473552,
                -0.6599528485290446,
                1.6628716684943985,
                2.141652819458973,
                -2.235525404233831,
                -0.003794081953559839
            ]
        }
    ]
}