{
    "goal": {
        "global_pose": {
            "orientation": {
                "w": 0.5084816217422485,
                "x": -0.49083608388900757,
                "y": 0.5182115435600281,
                "z": -0.4816462993621826
            },
            "position": {
                "x": 0.5540239810943604,
                "y": 0.030875300988554955,
                "z": 0.16403168439865112
            }
        },
        "name": "move_to_storage_A"
    },
    "id": "PRM_move_to_storage_A_146",
    "joint_names": [
        "shoulder_pan_joint",
        "shoulder_lift_joint",
        "elbow_joint",
        "wrist_1_joint",
        "wrist_2_joint",
        "wrist_3_joint"
    ],
    "metrics": {
        "cart_traj_len": 0.3524879384150631,
        "distance_elbow_joint": 0.4486911706748624,
        "distance_shoulder_lift_joint": 0.23661195474464813,
        "distance_shoulder_pan_joint": 0.4603932347511337,
        "distance_wrist_1_joint": 0.23563854797798378,
        "distance_wrist_2_joint": 1.100823710012009,
        "distance_wrist_3_joint": 0.08978194251374516,
        "smoothness": 1.3322676330666221e-15,
        "time": 0.035720104,
        "traj_len": 1.60372708422424,
        "weighted_distance": 2.021872078963421
    },
    "planner": "PRM",
    "start": {
        "state": {
            "elbow_joint": 1.9715463870305268,
            "shoulder_lift_joint": -1.1394903361783484,
            "shoulder_pan_joint": 0.12281147578464417,
            "wrist_1_joint": -0.7804599489681411,
            "wrist_2_joint": 0.12958660307563738,
            "wrist_3_joint": -3.1924946282119055
        }
    },
    "waypoints": [
        {
            "positions": [
                0.12281147578464417,
                -1.1394903361783484,
                1.9715463870305268,
                -0.7804599489681411,
                0.12958660307563738,
                -3.1924946282119055
            ]
        },
        {
            "positions": [
                0.05704101367733937,
                -1.1732920439990124,
                2.0356451256983643,
                -0.8141225986792816,
                0.286847133077353,
                -3.1796686364242275
            ]
        },
        {
            "positions": [
                -0.008729448429965439,
                -1.2070937518196765,
                2.099743864366202,
                -0.8477852483904221,
                0.44410766307906857,
                -3.16684264463655
            ]
        },
        {
            "positions": [
                -0.07449991053727024,
                -1.2408954596403405,
                2.1638426030340394,
                -0.8814478981015627,
                0.6013681930807842,
                -3.154016652848872
            ]
        },
        {
            "positions": [
                -0.14027037264457504,
                -1.2746971674610044,
                2.2279413417018765,
                -0.9151105478127033,
                0.7586287230824997,
                -3.141190661061194
            ]
        },
        {
            "positions": [
                -0.2060408347518799,
                -1.3084988752816684,
                2.292040080369714,
                -0.9487731975238438,
                0.9158892530842153,
                -3.128364669273516
            ]
        },
        {
            "positions": [
                -0.27181129685918465,
                -1.3423005831023325,
                2.3561388190375516,
                -0.9824358472349843,
                1.073149783085931,
                -3.1155386774858385
            ]
        },
        {
            "positions": [
                -0.3375817589664895,
                -1.3761022909229965,
                2.420237557705389,
                -1.0160984969461249,
                1.2304103130876465,
                -3.1027126856981604
            ]
        }
    ]
}