{
    "goal": {
        "global_pose": {
            "orientation": {
                "w": 0.7031023502349854,
                "x": -0.7110244035720825,
                "y": 0.007748599164187908,
                "z": 0.005598929710686207
            },
            "position": {
                "x": 0.11585023208521307,
                "y": 0.44412534475326537,
                "z": 0.3711530566215515
            }
        },
        "name": "move_to_auspresseinheit_A"
    },
    "id": "PRM_move_to_auspresseinheit_A_114",
    "joint_names": [
        "shoulder_pan_joint",
        "shoulder_lift_joint",
        "elbow_joint",
        "wrist_1_joint",
        "wrist_2_joint",
        "wrist_3_joint"
    ],
    "metrics": {
        "cart_traj_len": 0.7133232683679923,
        "distance_elbow_joint": 0.38497399021675616,
        "distance_shoulder_lift_joint": 0.5343573188637165,
        "distance_shoulder_pan_joint": 1.0431097992731222,
        "distance_wrist_1_joint": 1.8195509595154893,
        "distance_wrist_2_joint": 1.4509646097217925,
        "distance_wrist_3_joint": 0.04100286694297006,
        "smoothness": 1.130207043930136,
        "time": 0.069995941,
        "traj_len": 2.296510297066801,
        "weighted_distance": 2.937087136544823
    },
    "planner": "PRM",
    "start": {
        "state": {
            "elbow_joint": 2.422574709923281,
            "shoulder_lift_joint": -1.3736533754116391,
            "shoulder_pan_joint": -0.33786336945926293,
            "wrist_1_joint": -1.0288603412921917,
            "wrist_2_joint": 1.2330224858903978,
            "wrist_3_joint": -3.094022268022082
        }
    },
    "waypoints": [
        {
            "positions": [
                -0.33786336945926293,
                -1.3736533754116391,
                2.422574709923281,
                -1.0288603412921917,
                1.2330224858903978,
                -3.094022268022082
            ]
        },
        {
            "positions": [
                -0.32132510132097364,
                -1.40537723545012,
                2.396654385941757,
                -0.8797502221330629,
                1.1092410389416143,
                -3.097124897115289
            ]
        },
        {
            "positions": [
                -0.3047868331826843,
                -1.4371010954886008,
                2.370734061960233,
                -0.730640102973934,
                0.9854595919928308,
                -3.1002275262084957
            ]
        },
        {
            "positions": [
                -0.288248565044395,
                -1.4688249555270816,
                2.344813737978709,
                -0.581529983814805,
                0.8616781450440474,
                -3.1033301553017028
            ]
        },
        {
            "positions": [
                -0.2717102969061057,
                -1.5005488155655624,
                2.318893413997185,
                -0.43241986465567617,
                0.7378966980952639,
                -3.1064327843949098
            ]
        },
        {
            "positions": [
                -0.2551720287678164,
                -1.5322726756040432,
                2.2929730900156606,
                -0.2833097454965473,
                0.6141152511464805,
                -3.1095354134881164
            ]
        },
        {
            "positions": [
                -0.23863376062952707,
                -1.563996535642524,
                2.2670527660341366,
                -0.13419962633741833,
                0.490333804197697,
                -3.1126380425813234
            ]
        },
        {
            "positions": [
                -0.22209549249123778,
                -1.5957203956810049,
                2.2411324420526126,
                0.01491049282171053,
                0.36655235724891355,
                -3.11574067167453
            ]
        },
        {
            "positions": [
                -0.20555722435294846,
                -1.6274442557194857,
                2.2152121180710886,
                0.1640206119808394,
                0.24277091030013004,
                -3.118843300767737
            ]
        },
        {
            "positions": [
                -0.07544241661483309,
                -1.6675251755131815,
                2.240585174980312,
                0.07449632537477396,
                0.3085870580332051,
                -3.1211549913673533
            ]
        },
        {
            "positions": [
                0.05467239112328229,
                -1.707606095306877,
                2.2659582318895355,
                -0.015027961231291465,
                0.37440320576628006,
                -3.12346668196697
            ]
        },
        {
            "positions": [
                0.1847871988613977,
                -1.7476870151005728,
                2.2913312887987587,
                -0.1045522478373569,
                0.4402193534993551,
                -3.1257783725665864
            ]
        },
        {
            "positions": [
                0.31490200659951306,
                -1.7877679348942686,
                2.3167043457079823,
                -0.19407653444342232,
                0.5060355012324301,
                -3.1280900631662028
            ]
        },
        {
            "positions": [
                0.4450168143376285,
                -1.8278488546879643,
                2.3420774026172055,
                -0.2836008210494878,
                0.5718516489655052,
                -3.130401753765819
            ]
        },
        {
            "positions": [
                0.5751316220757439,
                -1.8679297744816599,
                2.367450459526429,
                -0.3731251076555532,
                0.6376677966985802,
                -3.132713444365436
            ]
        },
        {
            "positions": [
                0.7052464298138593,
                -1.9080106942753556,
                2.3928235164356524,
                -0.46264939426161866,
                0.7034839444316552,
                -3.135025134965052
            ]
        }
    ]
}