{
    "goal": {
        "global_pose": {
            "orientation": {
                "w": 0.5084816217422485,
                "x": -0.49083608388900757,
                "y": 0.5182115435600281,
                "z": -0.4816462993621826
            },
            "position": {
                "x": 0.5540239810943604,
                "y": 0.030875300988554955,
                "z": 0.16403168439865112
            }
        },
        "name": "move_to_storage_A"
    },
    "id": "PRM_move_to_storage_A_29",
    "joint_names": [
        "shoulder_pan_joint",
        "shoulder_lift_joint",
        "elbow_joint",
        "wrist_1_joint",
        "wrist_2_joint",
        "wrist_3_joint"
    ],
    "metrics": {
        "cart_traj_len": 0.3526501245808797,
        "distance_elbow_joint": 0.4480412750435878,
        "distance_shoulder_lift_joint": 0.2335711710519468,
        "distance_shoulder_pan_joint": 0.4615098079448119,
        "distance_wrist_1_joint": 0.23990685108898513,
        "distance_wrist_2_joint": 1.0954099410342584,
        "distance_wrist_3_joint": 0.10127119783427352,
        "smoothness": 8.881784267329941e-16,
        "time": 0.030910568,
        "traj_len": 1.6061476407845774,
        "weighted_distance": 2.029179497183444
    },
    "planner": "PRM",
    "start": {
        "state": {
            "elbow_joint": 1.9715463870305268,
            "shoulder_lift_joint": -1.1394903361783484,
            "shoulder_pan_joint": 0.12281147578464417,
            "wrist_1_joint": -0.7804599489681411,
            "wrist_2_joint": 0.12958660307563738,
            "wrist_3_joint": -3.1924946282119055
        }
    },
    "waypoints": [
        {
            "positions": [
                0.12281147578464417,
                -1.1394903361783484,
                1.9715463870305268,
                -0.7804599489681411,
                0.12958660307563738,
                -3.1924946282119055
            ]
        },
        {
            "positions": [
                0.056881503221099625,
                -1.1728576463286264,
                2.035552283465325,
                -0.8147323562665675,
                0.28607373750910287,
                -3.178027314235581
            ]
        },
        {
            "positions": [
                -0.009048469342444923,
                -1.2062249564789047,
                2.0995581799001233,
                -0.849004763564994,
                0.4425608719425683,
                -3.163560000259256
            ]
        },
        {
            "positions": [
                -0.07497844190598947,
                -1.2395922666291828,
                2.1635640763349215,
                -0.8832771708634204,
                0.5990480063760338,
                -3.1490926862829314
            ]
        },
        {
            "positions": [
                -0.140908414469534,
                -1.2729595767794608,
                2.22756997276972,
                -0.9175495781618469,
                0.7555351408094994,
                -3.134625372306606
            ]
        },
        {
            "positions": [
                -0.2068383870330786,
                -1.3063268869297389,
                2.291575869204518,
                -0.9518219854602733,
                0.9120222752429649,
                -3.1201580583302815
            ]
        },
        {
            "positions": [
                -0.2727683595966231,
                -1.3396941970800171,
                2.3555817656393163,
                -0.9860943927586998,
                1.0685094096764303,
                -3.1056907443539568
            ]
        },
        {
            "positions": [
                -0.3386983321601677,
                -1.3730615072302952,
                2.4195876620741146,
                -1.0203668000571262,
                1.2249965441098958,
                -3.091223430377632
            ]
        }
    ]
}