{
    "goal": {
        "global_pose": {
            "orientation": {
                "w": 0.7031023502349854,
                "x": -0.7110244035720825,
                "y": 0.007748599164187908,
                "z": 0.005598929710686207
            },
            "position": {
                "x": 0.11585023208521307,
                "y": 0.44412534475326537,
                "z": 0.3711530566215515
            }
        },
        "name": "move_to_auspresseinheit_A"
    },
    "id": "PRM_move_to_auspresseinheit_A_85",
    "joint_names": [
        "shoulder_pan_joint",
        "shoulder_lift_joint",
        "elbow_joint",
        "wrist_1_joint",
        "wrist_2_joint",
        "wrist_3_joint"
    ],
    "metrics": {
        "cart_traj_len": 0.9199164283769139,
        "distance_elbow_joint": 0.8526340041646736,
        "distance_shoulder_lift_joint": 0.5327473194621608,
        "distance_shoulder_pan_joint": 1.047906647687662,
        "distance_wrist_1_joint": 2.4449131203038066,
        "distance_wrist_2_joint": 0.5148968296147912,
        "distance_wrist_3_joint": 0.8423702710501342,
        "smoothness": 1.1355306994513805,
        "time": 0.420420301,
        "traj_len": 2.4970919471023145,
        "weighted_distance": 3.2984873327484667
    },
    "planner": "PRM",
    "start": {
        "state": {
            "elbow_joint": 2.422574709923281,
            "shoulder_lift_joint": -1.3736533754116391,
            "shoulder_pan_joint": -0.33786336945926293,
            "wrist_1_joint": -1.0288603412921917,
            "wrist_2_joint": 1.2330224858903978,
            "wrist_3_joint": -3.094022268022082
        }
    },
    "waypoints": [
        {
            "positions": [
                -0.33786336945926293,
                -1.3736533754116391,
                2.422574709923281,
                -1.0288603412921917,
                1.2330224858903978,
                -3.094022268022082
            ]
        },
        {
            "positions": [
                -0.31799673468980194,
                -1.4289594925305047,
                2.373439891785094,
                -0.8614710091275266,
                1.2049314319983626,
                -3.0499969252417376
            ]
        },
        {
            "positions": [
                -0.2981300999203409,
                -1.4842656096493703,
                2.3243050736469066,
                -0.6940816769628616,
                1.1768403781063277,
                -3.005971582461393
            ]
        },
        {
            "positions": [
                -0.2782634651508799,
                -1.5395717267682356,
                2.275170255508719,
                -0.5266923447981966,
                1.1487493242142925,
                -2.9619462396810485
            ]
        },
        {
            "positions": [
                -0.25839683038141886,
                -1.5948778438871012,
                2.2260354373705322,
                -0.3593030126335315,
                1.1206582703222574,
                -2.917920896900704
            ]
        },
        {
            "positions": [
                -0.23853019561195787,
                -1.6501839610059668,
                2.1769006192323452,
                -0.19191368046886637,
                1.0925672164302225,
                -2.8738955541203595
            ]
        },
        {
            "positions": [
                -0.21866356084249686,
                -1.705490078124832,
                2.127765801094158,
                -0.02452434830420147,
                1.0644761625381873,
                -2.829870211340015
            ]
        },
        {
            "positions": [
                -0.19879692607303584,
                -1.7607961952436977,
                2.0786309829559704,
                0.14286498386046387,
                1.0363851086461522,
                -2.7858448685596704
            ]
        },
        {
            "positions": [
                -0.17893029130357482,
                -1.8161023123625633,
                2.0294961648177834,
                0.31025431602512876,
                1.0082940547541173,
                -2.741819525779326
            ]
        },
        {
            "positions": [
                -0.1590636565341138,
                -1.8714084294814288,
                1.9803613466795962,
                0.477643648189794,
                0.9802030008620821,
                -2.6977941829989813
            ]
        },
        {
            "positions": [
                -0.050425289688799696,
                -1.8757824626554753,
                2.0316639267947196,
                0.3603425068370664,
                0.9474433327887727,
                -2.7535619562523603
            ]
        },
        {
            "positions": [
                0.058213077156514415,
                -1.8801564958295216,
                2.0829665069098433,
                0.24304136548433886,
                0.9146836647154633,
                -2.80932972950574
            ]
        },
        {
            "positions": [
                0.1668514440018285,
                -1.8845305290035679,
                2.134269087024967,
                0.1257402241316113,
                0.8819239966421538,
                -2.865097502759119
            ]
        },
        {
            "positions": [
                0.27548981084714264,
                -1.8889045621776144,
                2.1855716671400907,
                0.008439082778883722,
                0.8491643285688444,
                -2.9208652760124982
            ]
        },
        {
            "positions": [
                0.3841281776924568,
                -1.8932785953516609,
                2.236874247255214,
                -0.1088620585738439,
                0.8164046604955348,
                -2.9766330492658772
            ]
        },
        {
            "positions": [
                0.4927665445377708,
                -1.8976526285257072,
                2.2881768273703376,
                -0.2261631999265714,
                0.7836449924222254,
                -3.0324008225192562
            ]
        },
        {
            "positions": [
                0.6014049113830849,
                -1.9020266616997534,
                2.3394794074854612,
                -0.3434643412792989,
                0.750885324348916,
                -3.0881685957726357
            ]
        },
        {
            "positions": [
                0.7100432782283991,
                -1.9064006948738,
                2.390781987600585,
                -0.4607654826320265,
                0.7181256562756065,
                -3.1439363690260147
            ]
        }
    ]
}