{
    "goal": {
        "global_pose": {
            "orientation": {
                "w": 0.7031023502349854,
                "x": -0.7110244035720825,
                "y": 0.007748599164187908,
                "z": 0.005598929710686207
            },
            "position": {
                "x": 0.11585023208521307,
                "y": 0.44412534475326537,
                "z": 0.3711530566215515
            }
        },
        "name": "move_to_auspresseinheit_A"
    },
    "id": "PRM_move_to_auspresseinheit_A_50",
    "joint_names": [
        "shoulder_pan_joint",
        "shoulder_lift_joint",
        "elbow_joint",
        "wrist_1_joint",
        "wrist_2_joint",
        "wrist_3_joint"
    ],
    "metrics": {
        "cart_traj_len": 0.6725490741638249,
        "distance_elbow_joint": 0.03434531512006611,
        "distance_shoulder_lift_joint": 0.5380258370243953,
        "distance_shoulder_pan_joint": 1.0434844893081165,
        "distance_wrist_1_joint": 0.7559354214343963,
        "distance_wrist_2_joint": 0.900523517257353,
        "distance_wrist_3_joint": 1.383669871631139,
        "smoothness": 1.016194426393721,
        "time": 0.178271651,
        "traj_len": 2.157773030644202,
        "weighted_distance": 3.0132678496491967
    },
    "planner": "PRM",
    "start": {
        "state": {
            "elbow_joint": 2.422574709923281,
            "shoulder_lift_joint": -1.3736533754116391,
            "shoulder_pan_joint": -0.33786336945926293,
            "wrist_1_joint": -1.0288603412921917,
            "wrist_2_joint": 1.2330224858903978,
            "wrist_3_joint": -3.094022268022082
        }
    },
    "waypoints": [
        {
            "positions": [
                -0.33786336945926293,
                -1.3736533754116391,
                2.422574709923281,
                -1.0288603412921917,
                1.2330224858903978,
                -3.094022268022082
            ]
        },
        {
            "positions": [
                -0.2615881426210098,
                -1.425705549215406,
                2.41916136155472,
                -0.9560368600125255,
                1.1537062641900389,
                -3.0191184644749085
            ]
        },
        {
            "positions": [
                -0.18531291578275674,
                -1.477757723019173,
                2.4157480131861586,
                -0.8832133787328593,
                1.07439004248968,
                -2.9442146609277353
            ]
        },
        {
            "positions": [
                -0.10903768894450364,
                -1.5298098968229399,
                2.4123346648175974,
                -0.8103898974531931,
                0.9950738207893209,
                -2.8693108573805617
            ]
        },
        {
            "positions": [
                -0.032762462106250556,
                -1.5818620706267068,
                2.408921316449036,
                -0.7375664161735269,
                0.915757599088962,
                -2.794407053833388
            ]
        },
        {
            "positions": [
                0.04351276473200261,
                -1.633914244430474,
                2.4055079680804745,
                -0.6647429348938607,
                0.836441377388603,
                -2.719503250286215
            ]
        },
        {
            "positions": [
                0.11978799157025566,
                -1.6859664182342406,
                2.4020946197119133,
                -0.5919194536141946,
                0.7571251556882441,
                -2.6445994467390412
            ]
        },
        {
            "positions": [
                0.19606321840850877,
                -1.7380185920380078,
                2.398681271343352,
                -0.5190959723345284,
                0.6778089339878852,
                -2.5696956431918676
            ]
        },
        {
            "positions": [
                0.2723384452467618,
                -1.7900707658417747,
                2.395267922974791,
                -0.4462724910548622,
                0.5984927122875263,
                -2.4947918396446944
            ]
        },
        {
            "positions": [
                0.348613672085015,
                -1.8421229396455416,
                2.3918545746062296,
                -0.373449009775196,
                0.5191764905871673,
                -2.419888036097521
            ]
        },
        {
            "positions": [
                0.4378655340259746,
                -1.8595120078431648,
                2.3927608695569833,
                -0.39858003225454613,
                0.565845871075698,
                -2.5972719460241653
            ]
        },
        {
            "positions": [
                0.5271173959669343,
                -1.876901076040788,
                2.393667164507737,
                -0.42371105473389625,
                0.6125152515642286,
                -2.77465585595081
            ]
        },
        {
            "positions": [
                0.6163692579078939,
                -1.8942901442384112,
                2.3945734594584906,
                -0.4488420772132464,
                0.6591846320527592,
                -2.952039765877454
            ]
        },
        {
            "positions": [
                0.7056211198488536,
                -1.9116792124360344,
                2.3954797544092443,
                -0.47397309969259654,
                0.7058540125412899,
                -3.1294236758040985
            ]
        }
    ]
}