{
    "goal": {
        "global_pose": {
            "orientation": {
                "w": -0.00223480608172531,
                "x": 0.0024358444001904467,
                "y": 0.7094548369677653,
                "z": -0.704743149386269
            },
            "position": {
                "x": 0.6205249238014221,
                "y": -0.6371506643295288,
                "z": 0.19426114857196808
            }
        },
        "name": "move_to_magneteinheit_B"
    },
    "id": "PRM_move_to_magneteinheit_B_93",
    "joint_names": [
        "shoulder_pan_joint",
        "shoulder_lift_joint",
        "elbow_joint",
        "wrist_1_joint",
        "wrist_2_joint",
        "wrist_3_joint"
    ],
    "metrics": {
        "cart_traj_len": 4.586111701958718,
        "distance_elbow_joint": 4.651228803820285,
        "distance_shoulder_lift_joint": 1.9581816131016136,
        "distance_shoulder_pan_joint": 2.6903715755527466,
        "distance_wrist_1_joint": 2.3206460351881333,
        "distance_wrist_2_joint": 2.1521153459716,
        "distance_wrist_3_joint": 4.221977758263287,
        "smoothness": 0.6989657373092873,
        "time": 2.4044243620000003,
        "traj_len": 4.241994947179648,
        "weighted_distance": 5.559787588531056
    },
    "planner": "PRM",
    "start": {
        "state": {
            "elbow_joint": 2.39358713078474,
            "shoulder_lift_joint": -1.908514104345545,
            "shoulder_pan_joint": 0.7066247066606129,
            "wrist_1_joint": -0.4678290933515497,
            "wrist_2_joint": 0.7096259083745334,
            "wrist_3_joint": -3.1358149277392293
        }
    },
    "waypoints": [
        {
            "positions": [
                0.7066247066606129,
                -1.908514104345545,
                2.39358713078474,
                -0.4678290933515497,
                0.7096259083745334,
                -3.1358149277392293
            ]
        },
        {
            "positions": [
                0.5983556957871909,
                -1.8152999603587454,
                2.3848845074172855,
                -0.4912972292301816,
                0.7029063337920617,
                -3.0518406339424753
            ]
        },
        {
            "positions": [
                0.49008668491376883,
                -1.7220858163719461,
                2.3761818840498306,
                -0.5147653651088135,
                0.69618675920959,
                -2.9678663401457213
            ]
        },
        {
            "positions": [
                0.49260420245090436,
                -1.7163973294186392,
                2.224946857342499,
                -0.5200093613564244,
                0.531039704109128,
                -2.9827264773182183
            ]
        },
        {
            "positions": [
                0.4951217199880399,
                -1.7107088424653323,
                2.073711830635167,
                -0.5252533576040354,
                0.3658926490086662,
                -2.9975866144907157
            ]
        },
        {
            "positions": [
                0.49763923752517547,
                -1.7050203555120254,
                1.9224768039278353,
                -0.5304973538516462,
                0.2007455939082044,
                -3.0124467516632127
            ]
        },
        {
            "positions": [
                0.5001567550623109,
                -1.6993318685587184,
                1.7712417772205034,
                -0.5357413500992572,
                0.03559853880774244,
                -3.02730688883571
            ]
        },
        {
            "positions": [
                0.5026742725994465,
                -1.6936433816054115,
                1.6200067505131717,
                -0.540985346346868,
                -0.1295485162927194,
                -3.042167026008207
            ]
        },
        {
            "positions": [
                0.6099113370351109,
                -1.7389872764389607,
                1.5189571536761168,
                -0.5500974753946996,
                -0.11182058591961785,
                -2.931295930609588
            ]
        },
        {
            "positions": [
                0.7171484014707754,
                -1.7843311712725096,
                1.417907556839062,
                -0.5592096044425311,
                -0.0940926555465163,
                -2.820424835210969
            ]
        },
        {
            "positions": [
                0.8243854659064398,
                -1.8296750661060588,
                1.316857960002007,
                -0.5683217334903626,
                -0.07636472517341475,
                -2.7095537398123497
            ]
        },
        {
            "positions": [
                0.9316225303421042,
                -1.8750189609396077,
                1.215808363164952,
                -0.5774338625381943,
                -0.05863679480031318,
                -2.5986826444137305
            ]
        },
        {
            "positions": [
                1.0388595947777686,
                -1.920362855773157,
                1.1147587663278973,
                -0.5865459915860258,
                -0.04090886442721163,
                -2.4878115490151114
            ]
        },
        {
            "positions": [
                1.146096659213433,
                -1.965706750606706,
                1.0137091694908424,
                -0.5956581206338574,
                -0.023180934054110078,
                -2.376940453616492
            ]
        },
        {
            "positions": [
                1.2533337236490973,
                -2.011050645440255,
                0.9126595726537876,
                -0.6047702496816889,
                -0.005453003681008525,
                -2.266069358217873
            ]
        },
        {
            "positions": [
                1.360570788084762,
                -2.0563945402738044,
                0.8116099758167326,
                -0.6138823787295205,
                0.012274926692093041,
                -2.155198262819254
            ]
        },
        {
            "positions": [
                1.4678078525204263,
                -2.1017384351073534,
                0.7105603789796777,
                -0.622994507777352,
                0.030002857065194594,
                -2.0443271674206347
            ]
        },
        {
            "positions": [
                1.5750449169560907,
                -2.1470823299409023,
                0.6095107821426229,
                -0.6321066368251835,
                0.047730787438296146,
                -1.9334560720220155
            ]
        },
        {
            "positions": [
                1.682281981391755,
                -2.1924262247744513,
                0.5084611853055678,
                -0.6412187658730152,
                0.06545871781139773,
                -1.8225849766233964
            ]
        },
        {
            "positions": [
                1.7895190458274195,
                -2.237770119608,
                0.4074115884685132,
                -0.6503308949208467,
                0.08318664818449925,
                -1.7117138812247772
            ]
        },
        {
            "positions": [
                1.8967561102630839,
                -2.2831140144415496,
                0.30636199163145816,
                -0.6594430239686783,
                0.10091457855760083,
                -1.600842785826158
            ]
        },
        {
            "positions": [
                2.0039931746987483,
                -2.3284579092750985,
                0.20531239479440355,
                -0.6685551530165098,
                0.11864250893070236,
                -1.4899716904275389
            ]
        },
        {
            "positions": [
                2.1112302391344127,
                -2.3738018041086475,
                0.1042627979573485,
                -0.6776672820643413,
                0.13637043930380394,
                -1.3791005950289197
            ]
        },
        {
            "positions": [
                2.218467303570077,
                -2.419145698942197,
                0.0032132011202934407,
                -0.686779411112173,
                0.1540983696769055,
                -1.2682294996303005
            ]
        },
        {
            "positions": [
                2.3257043680057414,
                -2.464489593775746,
                -0.09783639571676117,
                -0.6958915401600045,
                0.17182630005000704,
                -1.1573584042316813
            ]
        },
        {
            "positions": [
                2.432941432441406,
                -2.509833488609295,
                -0.19888599255381623,
                -0.7050036692078361,
                0.1895542304231086,
                -1.0464873088330622
            ]
        },
        {
            "positions": [
                2.54017849687707,
                -2.555177383442844,
                -0.29993558939087084,
                -0.7141157982556676,
                0.20728216079621015,
                -0.935616213434443
            ]
        },
        {
            "positions": [
                2.6474155613127346,
                -2.600521278276393,
                -0.40098518622792567,
                -0.7232279273034992,
                0.2250100911693117,
                -0.8247451180358238
            ]
        },
        {
            "positions": [
                2.660256479918305,
                -2.57743738889059,
                -0.5166133773780585,
                -0.6466206197471037,
                0.27311706755820053,
                -0.7116543357233625
            ]
        },
        {
            "positions": [
                2.673097398523875,
                -2.554353499504787,
                -0.6322415685281912,
                -0.5700133121907083,
                0.32122404394708937,
                -0.5985635534109011
            ]
        },
        {
            "positions": [
                2.6859383171294455,
                -2.531269610118984,
                -0.7478697596783241,
                -0.49340600463431294,
                0.3693310203359782,
                -0.48547277109843967
            ]
        },
        {
            "positions": [
                2.6987792357350155,
                -2.5081857207331812,
                -0.8634979508284569,
                -0.4167986970779175,
                0.4174379967248671,
                -0.3723819887859783
            ]
        },
        {
            "positions": [
                2.711620154340586,
                -2.485101831347378,
                -0.9791261419785897,
                -0.3401913895215221,
                0.4655449731137559,
                -0.2592912064735169
            ]
        },
        {
            "positions": [
                2.7244610729461565,
                -2.462017941961575,
                -1.0947543331287224,
                -0.2635840819651267,
                0.5136519495026448,
                -0.1462004241610555
            ]
        },
        {
            "positions": [
                2.7373019915517265,
                -2.438934052575772,
                -1.2103825242788553,
                -0.18697677440873128,
                0.5617589258915336,
                -0.03310964184859411
            ]
        },
        {
            "positions": [
                2.750142910157297,
                -2.415850163189969,
                -1.3260107154289882,
                -0.11036946685233584,
                0.6098659022804225,
                0.07998114046386728
            ]
        },
        {
            "positions": [
                2.762983828762867,
                -2.392766273804166,
                -1.441638906579121,
                -0.03376215929594051,
                0.6579728786693113,
                0.19307192277632867
            ]
        },
        {
            "positions": [
                2.7758247473684374,
                -2.369682384418363,
                -1.5572670977292538,
                0.042845148260454935,
                0.7060798550582001,
                0.3061627050887901
            ]
        },
        {
            "positions": [
                2.7297645198005616,
                -2.2863516181727848,
                -1.6505439573646457,
                -0.018605892426160404,
                0.7166653340452538,
                0.363923266177529
            ]
        },
        {
            "positions": [
                2.6837042922326857,
                -2.203020851927206,
                -1.7438208170000378,
                -0.08005693311277574,
                0.7272508130323074,
                0.42168382726626796
            ]
        },
        {
            "positions": [
                2.63764406466481,
                -2.119690085681628,
                -1.8370976766354297,
                -0.1415079737993911,
                0.7378362920193611,
                0.47944438835500686
            ]
        },
        {
            "positions": [
                2.6495631164676183,
                -2.1732153401866108,
                -1.8799534313075608,
                0.08847289177552764,
                0.7698601581782625,
                0.47141788209634194
            ]
        },
        {
            "positions": [
                2.6614821682704273,
                -2.2267405946915937,
                -1.922809185979692,
                0.31845375735044634,
                0.801884024337164,
                0.463391375837677
            ]
        },
        {
            "positions": [
                2.6734012200732358,
                -2.2802658491965766,
                -1.9656649406518232,
                0.5484346229253652,
                0.8339078904960654,
                0.45536486957901207
            ]
        },
        {
            "positions": [
                2.6705696894254,
                -2.3192710567127337,
                -1.9072695941750788,
                0.6334103043028907,
                0.7640109875929527,
                0.36855735924539573
            ]
        },
        {
            "positions": [
                2.6677381587775635,
                -2.3582762642288904,
                -1.8488742476983344,
                0.7183859856804161,
                0.6941140846898401,
                0.28174984891177945
            ]
        },
        {
            "positions": [
                2.6649066281297276,
                -2.3972814717450475,
                -1.7904789012215898,
                0.8033616670579415,
                0.6242171817867275,
                0.19494233857816312
            ]
        },
        {
            "positions": [
                2.662075097481891,
                -2.436286679261204,
                -1.7320835547448454,
                0.8883373484354671,
                0.5543202788836148,
                0.10813482824454679
            ]
        },
        {
            "positions": [
                2.6592435668340553,
                -2.4752918867773612,
                -1.673688208268101,
                0.9733130298129926,
                0.4844233759805022,
                0.021327317910930496
            ]
        }
    ]
}