{
    "goal": {
        "global_pose": {
            "orientation": {
                "w": 0.7031023502349854,
                "x": -0.7110244035720825,
                "y": 0.007748599164187908,
                "z": 0.005598929710686207
            },
            "position": {
                "x": 0.11585023208521307,
                "y": 0.44412534475326537,
                "z": 0.3711530566215515
            }
        },
        "name": "move_to_auspresseinheit_A"
    },
    "id": "PRM_move_to_auspresseinheit_A_130",
    "joint_names": [
        "shoulder_pan_joint",
        "shoulder_lift_joint",
        "elbow_joint",
        "wrist_1_joint",
        "wrist_2_joint",
        "wrist_3_joint"
    ],
    "metrics": {
        "cart_traj_len": 0.9340689880920621,
        "distance_elbow_joint": 0.28585903038153626,
        "distance_shoulder_lift_joint": 0.5331007051846086,
        "distance_shoulder_pan_joint": 1.5200159514106988,
        "distance_wrist_1_joint": 0.7503641740869686,
        "distance_wrist_2_joint": 0.6483227706460487,
        "distance_wrist_3_joint": 0.5089303224292587,
        "smoothness": 1.303229100914306,
        "time": 0.149894351,
        "traj_len": 2.060726317136538,
        "weighted_distance": 2.581305976386886
    },
    "planner": "PRM",
    "start": {
        "state": {
            "elbow_joint": 2.422574709923281,
            "shoulder_lift_joint": -1.3736533754116391,
            "shoulder_pan_joint": -0.33786336945926293,
            "wrist_1_joint": -1.0288603412921917,
            "wrist_2_joint": 1.2330224858903978,
            "wrist_3_joint": -3.094022268022082
        }
    },
    "waypoints": [
        {
            "positions": [
                -0.33786336945926293,
                -1.3736533754116391,
                2.422574709923281,
                -1.0288603412921917,
                1.2330224858903978,
                -3.094022268022082
            ]
        },
        {
            "positions": [
                -0.39756563279277835,
                -1.3839676663784013,
                2.382776276765542,
                -0.9250122404951647,
                1.1581656055116494,
                -3.0363333974771978
            ]
        },
        {
            "positions": [
                -0.4572678961262937,
                -1.3942819573451635,
                2.342977843607802,
                -0.8211641396981377,
                1.083308725132901,
                -2.978644526932314
            ]
        },
        {
            "positions": [
                -0.5169701594598091,
                -1.4045962483119256,
                2.3031794104500625,
                -0.7173160389011107,
                1.0084518447541524,
                -2.9209556563874295
            ]
        },
        {
            "positions": [
                -0.5766724227933245,
                -1.4149105392786878,
                2.2633809772923232,
                -0.6134679381040837,
                0.933594964375404,
                -2.863266785842545
            ]
        },
        {
            "positions": [
                -0.4083651376359221,
                -1.4838094639941712,
                2.2756461593279136,
                -0.5781565995713573,
                0.8921293699447207,
                -2.894093517899466
            ]
        },
        {
            "positions": [
                -0.24005785247851968,
                -1.5527083887096547,
                2.2879113413635035,
                -0.5428452610386311,
                0.8506637755140375,
                -2.924920249956386
            ]
        },
        {
            "positions": [
                -0.07175056732111729,
                -1.621607313425138,
                2.300176523399094,
                -0.5075339225059047,
                0.8091981810833542,
                -2.9557469820133067
            ]
        },
        {
            "positions": [
                0.09655671783628517,
                -1.6905062381406215,
                2.312441705434684,
                -0.4722225839731783,
                0.767732586652671,
                -2.986573714070227
            ]
        },
        {
            "positions": [
                0.2648640029936876,
                -1.7594051628561052,
                2.3247068874702745,
                -0.43691124544045196,
                0.7262669922219877,
                -3.0174004461271475
            ]
        },
        {
            "positions": [
                0.43317128815108996,
                -1.8283040875715886,
                2.3369720695058644,
                -0.4015999069077256,
                0.6848013977913044,
                -3.0482271781840677
            ]
        },
        {
            "positions": [
                0.6014785733084925,
                -1.897203012287072,
                2.349237251541455,
                -0.36628856837499923,
                0.6433358033606211,
                -3.0790539102409884
            ]
        },
        {
            "positions": [
                0.7045344752833126,
                -1.9067540805962477,
                2.3900462750429017,
                -0.45408096954477545,
                0.7019718914768932,
                -3.141441626092267
            ]
        }
    ]
}