{
    "goal": {
        "global_pose": {
            "orientation": {
                "w": 0.7047431468963623,
                "x": -0.7094548344612122,
                "y": 0.0024358443915843964,
                "z": -0.0022348060738295317
            },
            "position": {
                "x": 0.6094750761985779,
                "y": 0.3671506643295288,
                "z": 0.19426114857196808
            }
        },
        "name": "move_to_magneteinheit_A"
    },
    "id": "PRM_move_to_magneteinheit_A_75",
    "joint_names": [
        "shoulder_pan_joint",
        "shoulder_lift_joint",
        "elbow_joint",
        "wrist_1_joint",
        "wrist_2_joint",
        "wrist_3_joint"
    ],
    "metrics": {
        "cart_traj_len": 1.8674132790709124,
        "distance_elbow_joint": 3.9372109760100154,
        "distance_shoulder_lift_joint": 0.711908318887732,
        "distance_shoulder_pan_joint": 1.241128407732278,
        "distance_wrist_1_joint": 1.5799319980085673,
        "distance_wrist_2_joint": 1.7025206863314097,
        "distance_wrist_3_joint": 1.2199873738492406,
        "smoothness": 6.344131583732825e-16,
        "time": 0.035237441,
        "traj_len": 3.223769185413132,
        "weighted_distance": 4.014363609945879
    },
    "planner": "PRM",
    "start": {
        "state": {
            "elbow_joint": -1.919643507792019,
            "shoulder_lift_joint": -0.07675430207160344,
            "shoulder_pan_joint": -1.1188671864651873,
            "wrist_1_joint": 0.42560062535961957,
            "wrist_2_joint": 1.5706038300724876,
            "wrist_3_joint": 1.1188968870953055
        }
    },
    "waypoints": [
        {
            "positions": [
                -1.1188671864651873,
                -0.07675430207160344,
                -1.919643507792019,
                0.42560062535961957,
                1.5706038300724876,
                1.1188968870953055
            ]
        },
        {
            "positions": [
                -1.072899467660288,
                -0.10312127684522314,
                -1.7738208790509074,
                0.4841166252858628,
                1.5075475083565095,
                1.0737121695453338
            ]
        },
        {
            "positions": [
                -1.026931748855389,
                -0.12948825161884284,
                -1.6279982503097958,
                0.5426326252121061,
                1.4444911866405312,
                1.0285274519953618
            ]
        },
        {
            "positions": [
                -0.9809640300504898,
                -0.15585522639246255,
                -1.482175621568684,
                0.6011486251383493,
                1.3814348649245531,
                0.98334273444539
            ]
        },
        {
            "positions": [
                -0.9349963112455906,
                -0.18222220116608223,
                -1.3363529928275724,
                0.6596646250645926,
                1.318378543208575,
                0.938158016895418
            ]
        },
        {
            "positions": [
                -0.8890285924406914,
                -0.20858917593970194,
                -1.1905303640864608,
                0.7181806249908358,
                1.255322221492597,
                0.8929732993454462
            ]
        },
        {
            "positions": [
                -0.8430608736357923,
                -0.23495615071332165,
                -1.044707735345349,
                0.776696624917079,
                1.192265899776619,
                0.8477885817954743
            ]
        },
        {
            "positions": [
                -0.797093154830893,
                -0.26132312548694137,
                -0.8988851066042374,
                0.8352126248433223,
                1.1292095780606406,
                0.8026038642455025
            ]
        },
        {
            "positions": [
                -0.7511254360259939,
                -0.2876901002605611,
                -0.7530624778631256,
                0.8937286247695655,
                1.0661532563446625,
                0.7574191466955306
            ]
        },
        {
            "positions": [
                -0.7051577172210948,
                -0.3140570750341808,
                -0.6072398491220141,
                0.9522446246958087,
                1.0030969346286844,
                0.7122344291455587
            ]
        },
        {
            "positions": [
                -0.6591899984161955,
                -0.34042404980780044,
                -0.4614172203809024,
                1.010760624622052,
                0.9400406129127062,
                0.6670497115955869
            ]
        },
        {
            "positions": [
                -0.6132222796112964,
                -0.36679102458142016,
                -0.31559459163979064,
                1.0692766245482952,
                0.8769842911967282,
                0.6218649940456149
            ]
        },
        {
            "positions": [
                -0.5672545608063971,
                -0.39315799935503987,
                -0.16977196289867913,
                1.1277926244745384,
                0.81392796948075,
                0.5766802764956431
            ]
        },
        {
            "positions": [
                -0.521286842001498,
                -0.4195249741286596,
                -0.023949334157567392,
                1.1863086244007817,
                0.7508716477647719,
                0.5314955589456712
            ]
        },
        {
            "positions": [
                -0.47531912319659886,
                -0.4458919489022793,
                0.12187329458354434,
                1.244824624327025,
                0.6878153260487937,
                0.48631084139569936
            ]
        },
        {
            "positions": [
                -0.4293514043916996,
                -0.472258923675899,
                0.2676959233246563,
                1.3033406242532681,
                0.6247590043328155,
                0.44112612384572736
            ]
        },
        {
            "positions": [
                -0.38338368558680047,
                -0.49862589844951866,
                0.4135185520657678,
                1.3618566241795114,
                0.5617026826168374,
                0.3959414062957556
            ]
        },
        {
            "positions": [
                -0.3374159667819012,
                -0.5249928732231384,
                0.5593411808068793,
                1.4203726241057546,
                0.4986463609008591,
                0.3507566887457837
            ]
        },
        {
            "positions": [
                -0.2914482479770021,
                -0.5513598479967581,
                0.7051638095479908,
                1.4788886240319978,
                0.43559003918488126,
                0.3055719711958118
            ]
        },
        {
            "positions": [
                -0.24548052917210283,
                -0.5777268227703778,
                0.8509864382891028,
                1.537404623958241,
                0.37253371746890296,
                0.2603872536458399
            ]
        },
        {
            "positions": [
                -0.1995128103672037,
                -0.6040937975439975,
                0.9968090670302143,
                1.5959206238844843,
                0.3094773957529249,
                0.21520253609586815
            ]
        },
        {
            "positions": [
                -0.15354509156230445,
                -0.6304607723176172,
                1.1426316957713263,
                1.6544366238107275,
                0.24642107403694657,
                0.17001781854589615
            ]
        },
        {
            "positions": [
                -0.10757737275740542,
                -0.6568277470912369,
                1.2884543245124378,
                1.7129526237369708,
                0.18336475232096872,
                0.12483310099592437
            ]
        },
        {
            "positions": [
                -0.06160965395250617,
                -0.6831947218648566,
                1.4342769532535498,
                1.771468623663214,
                0.12030843060499041,
                0.07964838344595249
            ]
        },
        {
            "positions": [
                -0.015641935147606922,
                -0.7095616966384763,
                1.5800995819946608,
                1.8299846235894572,
                0.05725210888901233,
                0.03446366589598071
            ]
        },
        {
            "positions": [
                0.030325783657292327,
                -0.7359286714120961,
                1.7259222107357728,
                1.8885006235157005,
                -0.005804212826965971,
                -0.010721051653991287
            ]
        },
        {
            "positions": [
                0.07629350246219135,
                -0.7622956461857158,
                1.8717448394768843,
                1.9470166234419437,
                -0.06886053454294383,
                -0.05590576920396306
            ]
        },
        {
            "positions": [
                0.12226122126709066,
                -0.7886626209593355,
                2.0175674682179965,
                2.005532623368187,
                -0.13191685625892213,
                -0.1010904867539351
            ]
        }
    ]
}