{
    "goal": {
        "global_pose": {
            "orientation": {
                "w": 0.7047431468963623,
                "x": -0.7094548344612122,
                "y": 0.0024358443915843964,
                "z": -0.0022348060738295317
            },
            "position": {
                "x": 0.6094750761985779,
                "y": 0.3671506643295288,
                "z": 0.19426114857196808
            }
        },
        "name": "move_to_magneteinheit_A"
    },
    "id": "PRM_move_to_magneteinheit_A_2",
    "joint_names": [
        "shoulder_pan_joint",
        "shoulder_lift_joint",
        "elbow_joint",
        "wrist_1_joint",
        "wrist_2_joint",
        "wrist_3_joint"
    ],
    "metrics": {
        "cart_traj_len": 3.0067084473574903,
        "distance_elbow_joint": 3.890148503309422,
        "distance_shoulder_lift_joint": 1.0628874562330928,
        "distance_shoulder_pan_joint": 2.6261803109228294,
        "distance_wrist_1_joint": 1.1936675090721343,
        "distance_wrist_2_joint": 1.4385902269220876,
        "distance_wrist_3_joint": 4.7370279146254095,
        "smoothness": 0.19232685153851348,
        "time": 0.19275994200000002,
        "traj_len": 3.8663292566832665,
        "weighted_distance": 5.201424370913223
    },
    "planner": "PRM",
    "start": {
        "state": {
            "elbow_joint": -1.919643507792019,
            "shoulder_lift_joint": -0.07675430207160344,
            "shoulder_pan_joint": -1.1188671864651873,
            "wrist_1_joint": 0.42560062535961957,
            "wrist_2_joint": 1.5706038300724876,
            "wrist_3_joint": 1.1188968870953055
        }
    },
    "waypoints": [
        {
            "positions": [
                -1.1188671864651873,
                -0.07675430207160344,
                -1.919643507792019,
                0.42560062535961957,
                1.5706038300724876,
                1.1188968870953055
            ]
        },
        {
            "positions": [
                -1.1957742672884275,
                -0.15206432195715255,
                -1.7801623621024214,
                0.3954439979129412,
                1.5453241186331759,
                1.1418218945450782
            ]
        },
        {
            "positions": [
                -1.2726813481116674,
                -0.22737434184270167,
                -1.6406812164128237,
                0.36528737046626286,
                1.520044407193864,
                1.1647469019948509
            ]
        },
        {
            "positions": [
                -1.3495884289349076,
                -0.3026843617282508,
                -1.501200070723226,
                0.3351307430195845,
                1.4947646957545522,
                1.1876719094446233
            ]
        },
        {
            "positions": [
                -1.4264955097581475,
                -0.3779943816137999,
                -1.3617189250336283,
                0.30497411557290616,
                1.4694849843152404,
                1.210596916894396
            ]
        },
        {
            "positions": [
                -1.5034025905813877,
                -0.4533044014993491,
                -1.2222377793440307,
                0.27481748812622775,
                1.4442052728759285,
                1.2335219243441686
            ]
        },
        {
            "positions": [
                -1.5803096714046276,
                -0.5286144213848982,
                -1.082756633654433,
                0.24466086067954942,
                1.4189255614366167,
                1.2564469317939413
            ]
        },
        {
            "positions": [
                -1.6572167522278678,
                -0.6039244412704472,
                -0.9432754879648353,
                0.21450423323287104,
                1.393645849997305,
                1.2793719392437137
            ]
        },
        {
            "positions": [
                -1.734123833051108,
                -0.6792344611559964,
                -0.8037943422752376,
                0.18434760578619272,
                1.368366138557993,
                1.3022969466934864
            ]
        },
        {
            "positions": [
                -1.811030913874348,
                -0.7545444810415456,
                -0.66431319658564,
                0.15419097833951434,
                1.3430864271186813,
                1.325221954143259
            ]
        },
        {
            "positions": [
                -1.7465636944238923,
                -0.7673810569503173,
                -0.5764859235155386,
                0.1234490496044467,
                1.3027173329864052,
                1.1741985258906773
            ]
        },
        {
            "positions": [
                -1.6820964749734366,
                -0.780217632859089,
                -0.4886586504454372,
                0.09270712086937907,
                1.2623482388541292,
                1.0231750976380953
            ]
        },
        {
            "positions": [
                -1.617629255522981,
                -0.7930542087678607,
                -0.40083137737533575,
                0.06196519213431145,
                1.2219791447218533,
                0.8721516693855136
            ]
        },
        {
            "positions": [
                -1.5531620360725253,
                -0.8058907846766323,
                -0.3130041043052344,
                0.03122326339924382,
                1.1816100505895772,
                0.7211282411329317
            ]
        },
        {
            "positions": [
                -1.4886948166220697,
                -0.8187273605854041,
                -0.225176831235133,
                0.00048133466417621396,
                1.1412409564573012,
                0.5701048128803499
            ]
        },
        {
            "positions": [
                -1.424227597171614,
                -0.8315639364941757,
                -0.13734955816503147,
                -0.030260594070891433,
                1.100871862325025,
                0.419081384627768
            ]
        },
        {
            "positions": [
                -1.3597603777211584,
                -0.8444005124029474,
                -0.04952228509493006,
                -0.06100252280595905,
                1.060502768192749,
                0.26805795637518615
            ]
        },
        {
            "positions": [
                -1.2952931582707028,
                -0.8572370883117191,
                0.038304987975171234,
                -0.0917444515410267,
                1.020133674060473,
                0.1170345281226044
            ]
        },
        {
            "positions": [
                -1.2308259388202472,
                -0.8700736642204908,
                0.12613226104527264,
                -0.12248638027609432,
                0.979764579928197,
                -0.03398890012997735
            ]
        },
        {
            "positions": [
                -1.1663587193697915,
                -0.8829102401292624,
                0.21395953411537405,
                -0.1532283090111619,
                0.939395485795921,
                -0.18501232838255932
            ]
        },
        {
            "positions": [
                -1.1018914999193359,
                -0.8957468160380342,
                0.30178680718547546,
                -0.18397023774622956,
                0.899026391663645,
                -0.33603575663514107
            ]
        },
        {
            "positions": [
                -1.0374242804688802,
                -0.9085833919468058,
                0.3896140802555771,
                -0.2147121664812972,
                0.8586572975313689,
                -0.48705918488772304
            ]
        },
        {
            "positions": [
                -0.9729570610184247,
                -0.9214199678555776,
                0.4774413533256784,
                -0.24545409521636485,
                0.8182882033990928,
                -0.638082613140305
            ]
        },
        {
            "positions": [
                -0.9084898415679691,
                -0.9342565437643493,
                0.5652686263957799,
                -0.27619602395143245,
                0.7779191092668168,
                -0.7891060413928868
            ]
        },
        {
            "positions": [
                -0.8440226221175134,
                -0.9470931196731209,
                0.6530958994658812,
                -0.3069379526865001,
                0.7375500151345408,
                -0.9401294696454685
            ]
        },
        {
            "positions": [
                -0.7795554026670579,
                -0.9599296955818926,
                0.7409231725359825,
                -0.33767988142156774,
                0.6971809210022647,
                -1.0911528978980503
            ]
        },
        {
            "positions": [
                -0.7150881832166023,
                -0.9727662714906643,
                0.828750445606084,
                -0.36842181015663533,
                0.6568118268699887,
                -1.242176326150632
            ]
        },
        {
            "positions": [
                -0.6506209637661466,
                -0.985602847399436,
                0.9165777186761853,
                -0.399163738891703,
                0.6164427327377127,
                -1.3931997544032138
            ]
        },
        {
            "positions": [
                -0.586153744315691,
                -0.9984394233082077,
                1.004404991746287,
                -0.4299056676267706,
                0.5760736386054367,
                -1.5442231826557955
            ]
        },
        {
            "positions": [
                -0.5216865248652354,
                -1.0112759992169793,
                1.092232264816388,
                -0.46064759636183816,
                0.5357045444731606,
                -1.6952466109083777
            ]
        },
        {
            "positions": [
                -0.45721930541477973,
                -1.0241125751257512,
                1.1800595378864895,
                -0.4913895250969058,
                0.49533545034088455,
                -1.8462700391609594
            ]
        },
        {
            "positions": [
                -0.3927520859643241,
                -1.0369491510345228,
                1.267886810956591,
                -0.5221314538319735,
                0.4549663562086086,
                -1.9972934674135412
            ]
        },
        {
            "positions": [
                -0.32828486651386823,
                -1.0497857269432944,
                1.3557140840266926,
                -0.5528733825670412,
                0.4145972620763324,
                -2.1483168956661234
            ]
        },
        {
            "positions": [
                -0.2638176470634126,
                -1.0626223028520663,
                1.443541357096794,
                -0.5836153113021088,
                0.37422816794405644,
                -2.299340323918705
            ]
        },
        {
            "positions": [
                -0.19935042761295718,
                -1.075458878760838,
                1.5313686301668952,
                -0.6143572400371764,
                0.33385907381178037,
                -2.450363752171287
            ]
        },
        {
            "positions": [
                -0.13488320816250154,
                -1.0882954546696095,
                1.6191959032369967,
                -0.645099168772244,
                0.2934899796795043,
                -2.601387180423869
            ]
        },
        {
            "positions": [
                -0.07041598871204591,
                -1.1011320305783812,
                1.7070231763070982,
                -0.6758410975073117,
                0.2531208855472282,
                -2.7524106086764504
            ]
        },
        {
            "positions": [
                -0.00594876926159027,
                -1.1139686064871528,
                1.7948504493771997,
                -0.7065830262423792,
                0.21275179141495237,
                -2.9034340369290326
            ]
        },
        {
            "positions": [
                0.05851845018886537,
                -1.1268051823959246,
                1.8826777224473008,
                -0.7373249549774469,
                0.1723826972826763,
                -3.054457465181614
            ]
        },
        {
            "positions": [
                0.1229856696393211,
                -1.1396417583046963,
                1.9705049955174023,
                -0.7680668837125145,
                0.1320136031504003,
                -3.2054808934341965
            ]
        }
    ]
}