{
    "goal": {
        "global_pose": {
            "orientation": {
                "w": 0.7031023502349854,
                "x": -0.7110244035720825,
                "y": 0.007748599164187908,
                "z": 0.005598929710686207
            },
            "position": {
                "x": 0.11585023208521307,
                "y": 0.44412534475326537,
                "z": 0.3711530566215515
            }
        },
        "name": "move_to_auspresseinheit_A"
    },
    "id": "PRM_move_to_auspresseinheit_A_141",
    "joint_names": [
        "shoulder_pan_joint",
        "shoulder_lift_joint",
        "elbow_joint",
        "wrist_1_joint",
        "wrist_2_joint",
        "wrist_3_joint"
    ],
    "metrics": {
        "cart_traj_len": 0.8569225370505416,
        "distance_elbow_joint": 0.7721478506405837,
        "distance_shoulder_lift_joint": 0.5364448287122727,
        "distance_shoulder_pan_joint": 1.0462557298449626,
        "distance_wrist_1_joint": 2.0717067009868706,
        "distance_wrist_2_joint": 0.5158041898429415,
        "distance_wrist_3_joint": 2.0201121445078316,
        "smoothness": 1.0863728354557258,
        "time": 0.213810414,
        "traj_len": 2.6386495493974684,
        "weighted_distance": 3.686489742882915
    },
    "planner": "PRM",
    "start": {
        "state": {
            "elbow_joint": 2.422574709923281,
            "shoulder_lift_joint": -1.3736533754116391,
            "shoulder_pan_joint": -0.33786336945926293,
            "wrist_1_joint": -1.0288603412921917,
            "wrist_2_joint": 1.2330224858903978,
            "wrist_3_joint": -3.094022268022082
        }
    },
    "waypoints": [
        {
            "positions": [
                -0.33786336945926293,
                -1.3736533754116391,
                2.422574709923281,
                -1.0288603412921917,
                1.2330224858903978,
                -3.094022268022082
            ]
        },
        {
            "positions": [
                -0.3172793345328602,
                -1.4141502019816574,
                2.3824612026211778,
                -0.8968701660931002,
                1.1843263398057728,
                -2.9949538084583365
            ]
        },
        {
            "positions": [
                -0.2966952996064575,
                -1.4546470285516757,
                2.3423476953190745,
                -0.7648799908940087,
                1.135630193721148,
                -2.8958853488945904
            ]
        },
        {
            "positions": [
                -0.2761112646800548,
                -1.4951438551216938,
                2.302234188016971,
                -0.6328898156949172,
                1.086934047636523,
                -2.7968168893308447
            ]
        },
        {
            "positions": [
                -0.2555272297536521,
                -1.535640681691712,
                2.262120680714868,
                -0.5008996404958257,
                1.038237901551898,
                -2.6977484297670986
            ]
        },
        {
            "positions": [
                -0.23494319482724943,
                -1.5761375082617304,
                2.2220071734127647,
                -0.3689094652967342,
                0.9895417554672731,
                -2.598679970203353
            ]
        },
        {
            "positions": [
                -0.21435915990084675,
                -1.6166343348317487,
                2.181893666110661,
                -0.23691929009764268,
                0.9408456093826482,
                -2.4996115106396073
            ]
        },
        {
            "positions": [
                -0.19377512497444405,
                -1.6571311614017668,
                2.1417801588085577,
                -0.10492911489855128,
                0.8921494632980232,
                -2.400543051075861
            ]
        },
        {
            "positions": [
                -0.1731910900480413,
                -1.697627987971785,
                2.1016666515064544,
                0.02706106030054034,
                0.8434533172133982,
                -2.3014745915121155
            ]
        },
        {
            "positions": [
                -0.15260705512163864,
                -1.7381248145418033,
                2.061553144204351,
                0.15905123549963185,
                0.7947571711287733,
                -2.2024061319483694
            ]
        },
        {
            "positions": [
                -0.13202302019523593,
                -1.7786216411118216,
                2.021439636902248,
                0.29104141069872336,
                0.7460610250441484,
                -2.1033376723846238
            ]
        },
        {
            "positions": [
                -0.03700904839921375,
                -1.7949299447257634,
                2.0681561884601907,
                0.20282423189879137,
                0.741499782342794,
                -2.2228945862822407
            ]
        },
        {
            "positions": [
                0.05800492339680843,
                -1.8112382483397051,
                2.1148727400181335,
                0.11460705309885938,
                0.7369385396414396,
                -2.3424515001798576
            ]
        },
        {
            "positions": [
                0.15301889519283063,
                -1.8275465519536471,
                2.1615892915760764,
                0.026389874298927363,
                0.7323772969400852,
                -2.4620084140774745
            ]
        },
        {
            "positions": [
                0.2480328669888528,
                -1.8438548555675889,
                2.2083058431340197,
                -0.0618273045010046,
                0.7278160542387309,
                -2.581565327975091
            ]
        },
        {
            "positions": [
                0.343046838784875,
                -1.8601631591815306,
                2.2550223946919625,
                -0.15004448330093667,
                0.7232548115373765,
                -2.701122241872708
            ]
        },
        {
            "positions": [
                0.43806081058089713,
                -1.8764714627954724,
                2.3017389462499054,
                -0.23826166210086858,
                0.7186935688360221,
                -2.820679155770325
            ]
        },
        {
            "positions": [
                0.528171327182498,
                -1.8876803765716188,
                2.331976769007203,
                -0.3124289541663231,
                0.7182018112398335,
                -2.9247078442652157
            ]
        },
        {
            "positions": [
                0.6182818437840989,
                -1.8988892903477654,
                2.3622145917645008,
                -0.38659624623177763,
                0.7177100536436448,
                -3.028736532760106
            ]
        },
        {
            "positions": [
                0.7083923603856997,
                -1.9100982041239118,
                2.3924524145217982,
                -0.46076353829723216,
                0.7172182960474562,
                -3.132765221254997
            ]
        }
    ]
}