{
    "goal": {
        "global_pose": {
            "orientation": {
                "w": 0.7047431468963623,
                "x": -0.7094548344612122,
                "y": 0.0024358443915843964,
                "z": -0.0022348060738295317
            },
            "position": {
                "x": 0.6094750761985779,
                "y": 0.3671506643295288,
                "z": 0.19426114857196808
            }
        },
        "name": "move_to_magneteinheit_A"
    },
    "id": "PRM_move_to_magneteinheit_A_109",
    "joint_names": [
        "shoulder_pan_joint",
        "shoulder_lift_joint",
        "elbow_joint",
        "wrist_1_joint",
        "wrist_2_joint",
        "wrist_3_joint"
    ],
    "metrics": {
        "cart_traj_len": 2.5838092753156583,
        "distance_elbow_joint": 3.9093648274432975,
        "distance_shoulder_lift_joint": 1.3368479961497288,
        "distance_shoulder_pan_joint": 1.2414817220113146,
        "distance_wrist_1_joint": 2.0975983827424747,
        "distance_wrist_2_joint": 1.4342815038718117,
        "distance_wrist_3_joint": 4.238347196568073,
        "smoothness": 0.10151569013512006,
        "time": 0.149322016,
        "traj_len": 3.7759663172208913,
        "weighted_distance": 5.125084965982235
    },
    "planner": "PRM",
    "start": {
        "state": {
            "elbow_joint": -1.919643507792019,
            "shoulder_lift_joint": -0.07675430207160344,
            "shoulder_pan_joint": -1.1188671864651873,
            "wrist_1_joint": 0.42560062535961957,
            "wrist_2_joint": 1.5706038300724876,
            "wrist_3_joint": 1.1188968870953055
        }
    },
    "waypoints": [
        {
            "positions": [
                -1.1188671864651873,
                -0.07675430207160344,
                -1.919643507792019,
                0.42560062535961957,
                1.5706038300724876,
                1.1188968870953055
            ]
        },
        {
            "positions": [
                -1.0961567678921074,
                -0.12491543836947709,
                -1.8471438793875579,
                0.35791845066949185,
                1.5364784411364247,
                0.969413597197187
            ]
        },
        {
            "positions": [
                -1.0734463493190274,
                -0.17307657466735074,
                -1.7746442509830964,
                0.2902362759793642,
                1.5023530522003619,
                0.8199303072990685
            ]
        },
        {
            "positions": [
                -1.0507359307459472,
                -0.22123771096522438,
                -1.702144622578635,
                0.22255410128923644,
                1.468227663264299,
                0.67044701740095
            ]
        },
        {
            "positions": [
                -1.0280255121728672,
                -0.26939884726309804,
                -1.6296449941741737,
                0.15487192659910876,
                1.4341022743282361,
                0.5209637275028315
            ]
        },
        {
            "positions": [
                -1.0053150935997872,
                -0.3175599835609717,
                -1.5571453657697123,
                0.08718975190898098,
                1.3999768853921732,
                0.37148043760471294
            ]
        },
        {
            "positions": [
                -0.9826046750267071,
                -0.3657211198588453,
                -1.484645737365251,
                0.019507577218853323,
                1.3658514964561104,
                0.2219971477065944
            ]
        },
        {
            "positions": [
                -0.959894256453627,
                -0.41388225615671903,
                -1.4121461089607896,
                -0.04817459747127445,
                1.3317261075200475,
                0.07251385780847586
            ]
        },
        {
            "positions": [
                -0.937183837880547,
                -0.46204339245459264,
                -1.3396464805563284,
                -0.11585677216140206,
                1.2976007185839846,
                -0.07696943208964258
            ]
        },
        {
            "positions": [
                -0.9144734193074671,
                -0.5102045287524664,
                -1.2671468521518672,
                -0.18353894685152977,
                1.2634753296479218,
                -0.226452721987761
            ]
        },
        {
            "positions": [
                -0.891763000734387,
                -0.5583656650503399,
                -1.1946472237474057,
                -0.2512211215416576,
                1.2293499407118589,
                -0.37593601188587966
            ]
        },
        {
            "positions": [
                -0.869052582161307,
                -0.6065268013482137,
                -1.1221475953429443,
                -0.3189032962317852,
                1.195224551775796,
                -0.5254193017839981
            ]
        },
        {
            "positions": [
                -0.8463421635882269,
                -0.6546879376460872,
                -1.049647966938483,
                -0.3865854709219129,
                1.1610991628397331,
                -0.6749025916821167
            ]
        },
        {
            "positions": [
                -0.8236317450151469,
                -0.702849073943961,
                -0.9771483385340216,
                -0.45426764561204064,
                1.1269737739036703,
                -0.8243858815802352
            ]
        },
        {
            "positions": [
                -0.8009213264420668,
                -0.7510102102418346,
                -0.9046487101295602,
                -0.5219498203021684,
                1.0928483849676074,
                -0.9738691714783538
            ]
        },
        {
            "positions": [
                -0.7782109078689868,
                -0.7991713465397081,
                -0.8321490817250989,
                -0.5896319949922959,
                1.0587229960315445,
                -1.1233524613764723
            ]
        },
        {
            "positions": [
                -0.7555004892959067,
                -0.8473324828375819,
                -0.7596494533206377,
                -0.6573141696824236,
                1.0245976070954816,
                -1.2728357512745907
            ]
        },
        {
            "positions": [
                -0.7327900707228268,
                -0.8954936191354554,
                -0.6871498249161763,
                -0.7249963443725516,
                0.9904722181594188,
                -1.4223190411727096
            ]
        },
        {
            "positions": [
                -0.7100796521497468,
                -0.9436547554333292,
                -0.614650196511715,
                -0.792678519062679,
                0.9563468292233559,
                -1.5718023310708276
            ]
        },
        {
            "positions": [
                -0.6873692335766667,
                -0.9918158917312028,
                -0.5421505681072536,
                -0.8603606937528068,
                0.922221440287293,
                -1.7212856209689464
            ]
        },
        {
            "positions": [
                -0.6646588150035866,
                -1.0399770280290765,
                -0.46965093970279215,
                -0.9280428684429347,
                0.8880960513512302,
                -1.8707689108670649
            ]
        },
        {
            "positions": [
                -0.6419483964305066,
                -1.08813816432695,
                -0.3971513112983309,
                -0.9957250431330622,
                0.8539706624151673,
                -2.0202522007651833
            ]
        },
        {
            "positions": [
                -0.6192379778574266,
                -1.1362993006248239,
                -0.3246516828938697,
                -1.06340721782319,
                0.8198452734791044,
                -2.1697354906633017
            ]
        },
        {
            "positions": [
                -0.5965275592843465,
                -1.1844604369226974,
                -0.25215205448940825,
                -1.1310893925133176,
                0.7857198845430415,
                -2.3192187805614206
            ]
        },
        {
            "positions": [
                -0.5738171407112665,
                -1.232621573220571,
                -0.17965242608494703,
                -1.1987715672034454,
                0.7515944956069787,
                -2.468702070459539
            ]
        },
        {
            "positions": [
                -0.5511067221381865,
                -1.2807827095184448,
                -0.10715279768048547,
                -1.266453741893573,
                0.7174691066709158,
                -2.6181853603576575
            ]
        },
        {
            "positions": [
                -0.49496328399782696,
                -1.2697144104598708,
                0.06758671209716152,
                -1.2326584072694662,
                0.6690402082983958,
                -2.6599574394505834
            ]
        },
        {
            "positions": [
                -0.4388198458574675,
                -1.2586461114012968,
                0.2423262218748085,
                -1.1988630726453593,
                0.6206113099258759,
                -2.701729518543509
            ]
        },
        {
            "positions": [
                -0.38267640771710804,
                -1.2475778123427228,
                0.41706573165245553,
                -1.1650677380212526,
                0.5721824115533558,
                -2.7435015976364348
            ]
        },
        {
            "positions": [
                -0.3265329695767486,
                -1.2365095132841488,
                0.5918052414301025,
                -1.1312724033971457,
                0.523753513180836,
                -2.7852736767293607
            ]
        },
        {
            "positions": [
                -0.27038953143638905,
                -1.2254412142255748,
                0.7665447512077496,
                -1.0974770687730389,
                0.4753246148083159,
                -2.8270457558222866
            ]
        },
        {
            "positions": [
                -0.21424609329602962,
                -1.2143729151670009,
                0.9412842609853965,
                -1.063681734148932,
                0.42689571643579594,
                -2.8688178349152125
            ]
        },
        {
            "positions": [
                -0.15810265515567012,
                -1.203304616108427,
                1.1160237707630438,
                -1.029886399524825,
                0.3784668180632759,
                -2.910589914008138
            ]
        },
        {
            "positions": [
                -0.10195921701531069,
                -1.1922363170498531,
                1.2907632805406903,
                -0.9960910649007183,
                0.330037919690756,
                -2.952361993101064
            ]
        },
        {
            "positions": [
                -0.04581577887495114,
                -1.1811680179912791,
                1.4655027903183377,
                -0.9622957302766114,
                0.281609021318236,
                -2.9941340721939897
            ]
        },
        {
            "positions": [
                0.010327659265408351,
                -1.1700997189327051,
                1.6402423000959847,
                -0.9285003956525045,
                0.233180122945716,
                -3.035906151286915
            ]
        },
        {
            "positions": [
                0.06647109740576773,
                -1.1590314198741312,
                1.8149818098736312,
                -0.8947050610283978,
                0.18475122457319604,
                -3.077678230379841
            ]
        },
        {
            "positions": [
                0.12261453554612722,
                -1.1479631208155572,
                1.9897213196512786,
                -0.8609097264042909,
                0.1363223262006761,
                -3.119450309472767
            ]
        }
    ]
}