{
    "goal": {
        "global_pose": {
            "orientation": {
                "w": 0.5084816217422485,
                "x": -0.49083608388900757,
                "y": 0.5182115435600281,
                "z": -0.4816462993621826
            },
            "position": {
                "x": 0.5540239810943604,
                "y": 0.030875300988554955,
                "z": 0.16403168439865112
            }
        },
        "name": "move_to_storage_A"
    },
    "id": "PRM_move_to_storage_A_71",
    "joint_names": [
        "shoulder_pan_joint",
        "shoulder_lift_joint",
        "elbow_joint",
        "wrist_1_joint",
        "wrist_2_joint",
        "wrist_3_joint"
    ],
    "metrics": {
        "cart_traj_len": 0.35305182279588343,
        "distance_elbow_joint": 0.4473382498417795,
        "distance_shoulder_lift_joint": 0.2335037241082787,
        "distance_shoulder_pan_joint": 0.45818244583363427,
        "distance_wrist_1_joint": 0.23612129409579896,
        "distance_wrist_2_joint": 1.1128003826047583,
        "distance_wrist_3_joint": 0.09137251805416202,
        "smoothness": 0.0,
        "time": 0.019489748,
        "traj_len": 1.606025720385079,
        "weighted_distance": 2.0275564917770583
    },
    "planner": "PRM",
    "start": {
        "state": {
            "elbow_joint": 1.9715463870305268,
            "shoulder_lift_joint": -1.1394903361783484,
            "shoulder_pan_joint": 0.12281147578464417,
            "wrist_1_joint": -0.7804599489681411,
            "wrist_2_joint": 0.12958660307563738,
            "wrist_3_joint": -3.1924946282119055
        }
    },
    "waypoints": [
        {
            "positions": [
                0.12281147578464417,
                -1.1394903361783484,
                1.9715463870305268,
                -0.7804599489681411,
                0.12958660307563738,
                -3.1924946282119055
            ]
        },
        {
            "positions": [
                0.05735684066555356,
                -1.1728480110509596,
                2.035451851293638,
                -0.814191562410398,
                0.28855808630488855,
                -3.179441411347025
            ]
        },
        {
            "positions": [
                -0.008097794453537047,
                -1.2062056859235708,
                2.0993573155567495,
                -0.8479231758526551,
                0.4475295695341397,
                -3.166388194482145
            ]
        },
        {
            "positions": [
                -0.07355242957262766,
                -1.239563360796182,
                2.1632627798198607,
                -0.881654789294912,
                0.606501052763391,
                -3.1533349776172646
            ]
        },
        {
            "positions": [
                -0.13900706469171825,
                -1.2729210356687934,
                2.2271682440829723,
                -0.9153864027371691,
                0.7654725359926421,
                -3.1402817607523845
            ]
        },
        {
            "positions": [
                -0.20446169981080886,
                -1.3062787105414047,
                2.2910737083460835,
                -0.949118016179426,
                0.9244440192218933,
                -3.127228543887504
            ]
        },
        {
            "positions": [
                -0.26991633492989947,
                -1.3396363854140159,
                2.3549791726091946,
                -0.9828496296216831,
                1.0834155024511445,
                -3.114175327022624
            ]
        },
        {
            "positions": [
                -0.3353709700489901,
                -1.372994060286627,
                2.4188846368723063,
                -1.01658124306394,
                1.2423869856803957,
                -3.1011221101577435
            ]
        }
    ]
}