{
    "goal": {
        "global_pose": {
            "orientation": {
                "w": 0.7047431468963623,
                "x": -0.7094548344612122,
                "y": 0.0024358443915843964,
                "z": -0.0022348060738295317
            },
            "position": {
                "x": 0.6094750761985779,
                "y": 0.3671506643295288,
                "z": 0.19426114857196808
            }
        },
        "name": "move_to_magneteinheit_A"
    },
    "id": "PRM_move_to_magneteinheit_A_119",
    "joint_names": [
        "shoulder_pan_joint",
        "shoulder_lift_joint",
        "elbow_joint",
        "wrist_1_joint",
        "wrist_2_joint",
        "wrist_3_joint"
    ],
    "metrics": {
        "cart_traj_len": 1.852370618512743,
        "distance_elbow_joint": 3.8787844115386,
        "distance_shoulder_lift_joint": 1.5693395228162468,
        "distance_shoulder_pan_joint": 1.2426045435257511,
        "distance_wrist_1_joint": 1.1545097688253536,
        "distance_wrist_2_joint": 2.1157877501799014,
        "distance_wrist_3_joint": 4.35070513477196,
        "smoothness": 0.1728552278634914,
        "time": 0.235610853,
        "traj_len": 3.7830848697402777,
        "weighted_distance": 5.12673764885692
    },
    "planner": "PRM",
    "start": {
        "state": {
            "elbow_joint": -1.919643507792019,
            "shoulder_lift_joint": -0.07675430207160344,
            "shoulder_pan_joint": -1.1188671864651873,
            "wrist_1_joint": 0.42560062535961957,
            "wrist_2_joint": 1.5706038300724876,
            "wrist_3_joint": 1.1188968870953055
        }
    },
    "waypoints": [
        {
            "positions": [
                -1.1188671864651873,
                -0.07675430207160344,
                -1.919643507792019,
                0.42560062535961957,
                1.5706038300724876,
                1.1188968870953055
            ]
        },
        {
            "positions": [
                -1.0978658761699853,
                -0.1220103671849598,
                -1.7966192037756756,
                0.4132049557821385,
                1.5093276596161125,
                0.9871388933628058
            ]
        },
        {
            "positions": [
                -1.0768645658747833,
                -0.16726643229831617,
                -1.6735948997593322,
                0.4008092862046575,
                1.4480514891597374,
                0.8553808996303061
            ]
        },
        {
            "positions": [
                -1.0558632555795813,
                -0.21252249741167253,
                -1.5505705957429887,
                0.38841361662717644,
                1.3867753187033622,
                0.7236229058978064
            ]
        },
        {
            "positions": [
                -1.0348619452843792,
                -0.2577785625250289,
                -1.4275462917266455,
                0.3760179470496954,
                1.3254991482469871,
                0.5918649121653067
            ]
        },
        {
            "positions": [
                -1.013860634989177,
                -0.3030346276383853,
                -1.3045219877103018,
                0.3636222774722143,
                1.2642229777906118,
                0.46010691843280693
            ]
        },
        {
            "positions": [
                -0.9928593246939751,
                -0.3482906927517416,
                -1.1814976836939586,
                0.3512266078947333,
                1.2029468073342366,
                0.3283489247003073
            ]
        },
        {
            "positions": [
                -0.971858014398773,
                -0.393546757865098,
                -1.058473379677615,
                0.33883093831725225,
                1.1416706368778615,
                0.19659093096780755
            ]
        },
        {
            "positions": [
                -0.9508567041035709,
                -0.43880282297845435,
                -0.9354490756612717,
                0.32643526873977124,
                1.0803944664214864,
                0.06483293723530781
            ]
        },
        {
            "positions": [
                -0.9298553938083689,
                -0.48405888809181075,
                -0.8124247716449282,
                0.3140395991622902,
                1.0191182959651113,
                -0.06692505649719194
            ]
        },
        {
            "positions": [
                -0.9088540835131669,
                -0.5293149532051671,
                -0.6894004676285848,
                0.3016439295848091,
                0.9578421255087362,
                -0.19868305022969168
            ]
        },
        {
            "positions": [
                -0.8878527732179649,
                -0.5745710183185234,
                -0.5663761636122413,
                0.28924826000732806,
                0.8965659550523611,
                -0.3304410439621912
            ]
        },
        {
            "positions": [
                -0.8668514629227628,
                -0.6198270834318798,
                -0.44335185959589785,
                0.27685259042984706,
                0.8352897845959859,
                -0.46219903769469095
            ]
        },
        {
            "positions": [
                -0.8458501526275608,
                -0.6650831485452362,
                -0.3203275555795544,
                0.264456920852366,
                0.7740136141396108,
                -0.5939570314271907
            ]
        },
        {
            "positions": [
                -0.8248488423323587,
                -0.7103392136585926,
                -0.19730325156321094,
                0.25206125127488493,
                0.7127374436832357,
                -0.7257150251596904
            ]
        },
        {
            "positions": [
                -0.8038475320371565,
                -0.7555952787719489,
                -0.07427894754686748,
                0.2396655816974039,
                0.6514612732268604,
                -0.8574730188921904
            ]
        },
        {
            "positions": [
                -0.7828462217419545,
                -0.8008513438853053,
                0.048745356469475754,
                0.22726991211992287,
                0.5901851027704854,
                -0.9892310126246899
            ]
        },
        {
            "positions": [
                -0.7618449114467526,
                -0.8461074089986615,
                0.171769660485819,
                0.21487424254244183,
                0.5289089323141103,
                -1.1209890063571892
            ]
        },
        {
            "positions": [
                -0.7408436011515505,
                -0.891363474112018,
                0.29479396450216266,
                0.20247857296496077,
                0.46763276185773517,
                -1.2527470000896894
            ]
        },
        {
            "positions": [
                -0.7198422908563484,
                -0.9366195392253742,
                0.4178182685185059,
                0.19008290338747974,
                0.40635659140136005,
                -1.3845049938221887
            ]
        },
        {
            "positions": [
                -0.6988409805611464,
                -0.9818756043387307,
                0.5408425725348496,
                0.17768723380999868,
                0.3450804209449847,
                -1.516262987554689
            ]
        },
        {
            "positions": [
                -0.6778396702659444,
                -1.0271316694520871,
                0.6638668765511928,
                0.16529156423251762,
                0.2838042504886098,
                -1.6480209812871887
            ]
        },
        {
            "positions": [
                -0.6568383599707424,
                -1.0723877345654433,
                0.7868911805675365,
                0.1528958946550366,
                0.22252808003223468,
                -1.779778975019688
            ]
        },
        {
            "positions": [
                -0.6358370496755402,
                -1.1176437996787998,
                0.9099154845838802,
                0.14050022507755555,
                0.16125190957585933,
                -1.9115369687521881
            ]
        },
        {
            "positions": [
                -0.6148357393803382,
                -1.1628998647921562,
                1.0329397886002234,
                0.12810455550007455,
                0.09997573911948421,
                -2.0432949624846874
            ]
        },
        {
            "positions": [
                -0.5938344290851362,
                -1.2081559299055125,
                1.1559640926165666,
                0.11570888592259349,
                0.03869956866310931,
                -2.175052956217187
            ]
        },
        {
            "positions": [
                -0.5728331187899341,
                -1.253411995018869,
                1.2789883966329103,
                0.10331321634511242,
                -0.022576601793266038,
                -2.306810949949687
            ]
        },
        {
            "positions": [
                -0.5518318084947321,
                -1.2986680601322254,
                1.4020127006492535,
                0.09091754676763142,
                -0.08385277224964116,
                -2.4385689436821867
            ]
        },
        {
            "positions": [
                -0.53083049819953,
                -1.3439241252455818,
                1.5250370046655972,
                0.0785218771901503,
                -0.14512894270601628,
                -2.5703269374146864
            ]
        },
        {
            "positions": [
                -0.509829187904328,
                -1.389180190358938,
                1.6480613086819402,
                0.0661262076126693,
                -0.2064051131623915,
                -2.702084931147186
            ]
        },
        {
            "positions": [
                -0.43063336978371647,
                -1.357065986042824,
                1.6869462580650203,
                -0.033253211272131114,
                -0.16405776229426366,
                -2.76830034571337
            ]
        },
        {
            "positions": [
                -0.351437551663105,
                -1.32495178172671,
                1.7258312074481004,
                -0.13263263015693152,
                -0.12171041142613587,
                -2.834515760279553
            ]
        },
        {
            "positions": [
                -0.27224173354249354,
                -1.292837577410596,
                1.7647161568311804,
                -0.23201204904173195,
                -0.07936306055800804,
                -2.9007311748457365
            ]
        },
        {
            "positions": [
                -0.19304591542188204,
                -1.260723373094482,
                1.8036011062142605,
                -0.33139146792653235,
                -0.037015709689880244,
                -2.9669465894119202
            ]
        },
        {
            "positions": [
                -0.11385009730127055,
                -1.2286091687783678,
                1.8424860555973404,
                -0.43077088681133274,
                0.005331641178247554,
                -3.033162003978104
            ]
        },
        {
            "positions": [
                -0.03465427918065911,
                -1.1964949644622538,
                1.8813710049804204,
                -0.5301503056961332,
                0.04767899204637541,
                -3.0993774185442873
            ]
        },
        {
            "positions": [
                0.044541538939952385,
                -1.1643807601461398,
                1.9202559543635005,
                -0.6295297245809336,
                0.0900263429145032,
                -3.1655928331104706
            ]
        },
        {
            "positions": [
                0.12373735706056391,
                -1.1322665558300258,
                1.9591409037465806,
                -0.728909143465734,
                0.13237369378263103,
                -3.2318082476766543
            ]
        }
    ]
}