{
    "goal": {
        "global_pose": {
            "orientation": {
                "w": 0.7047431468963623,
                "x": -0.7094548344612122,
                "y": 0.0024358443915843964,
                "z": -0.0022348060738295317
            },
            "position": {
                "x": 0.6094750761985779,
                "y": 0.3671506643295288,
                "z": 0.19426114857196808
            }
        },
        "name": "move_to_magneteinheit_A"
    },
    "id": "PRM_move_to_magneteinheit_A_124",
    "joint_names": [
        "shoulder_pan_joint",
        "shoulder_lift_joint",
        "elbow_joint",
        "wrist_1_joint",
        "wrist_2_joint",
        "wrist_3_joint"
    ],
    "metrics": {
        "cart_traj_len": 2.3342896183605273,
        "distance_elbow_joint": 3.868656395969803,
        "distance_shoulder_lift_joint": 1.0493362004929219,
        "distance_shoulder_pan_joint": 1.2416128394626496,
        "distance_wrist_1_joint": 1.774390283454757,
        "distance_wrist_2_joint": 1.4458833270632248,
        "distance_wrist_3_joint": 4.397632412386017,
        "smoothness": 0.10977071590016867,
        "time": 0.176584406,
        "traj_len": 3.711807034158615,
        "weighted_distance": 5.078685843219621
    },
    "planner": "PRM",
    "start": {
        "state": {
            "elbow_joint": -1.919643507792019,
            "shoulder_lift_joint": -0.07675430207160344,
            "shoulder_pan_joint": -1.1188671864651873,
            "wrist_1_joint": 0.42560062535961957,
            "wrist_2_joint": 1.5706038300724876,
            "wrist_3_joint": 1.1188968870953055
        }
    },
    "waypoints": [
        {
            "positions": [
                -1.1188671864651873,
                -0.07675430207160344,
                -1.919643507792019,
                0.42560062535961957,
                1.5706038300724876,
                1.1188968870953055
            ]
        },
        {
            "positions": [
                -1.0835355629616887,
                -0.0991782942247072,
                -1.8057868664365662,
                0.378981378842755,
                1.5339305216290708,
                0.9883057977974896
            ]
        },
        {
            "positions": [
                -1.04820393945819,
                -0.12160228637781097,
                -1.6919302250811132,
                0.3323621323258904,
                1.497257213185654,
                0.8577147084996737
            ]
        },
        {
            "positions": [
                -1.012872315954691,
                -0.1440262785309147,
                -1.5780735837256603,
                0.28574288580902585,
                1.4605839047422373,
                0.7271236192018578
            ]
        },
        {
            "positions": [
                -0.9775406924511925,
                -0.1664502706840185,
                -1.4642169423702074,
                0.2391236392921613,
                1.4239105962988206,
                0.5965325299040418
            ]
        },
        {
            "positions": [
                -0.9422090689476937,
                -0.18887426283712225,
                -1.3503603010147542,
                0.1925043927752967,
                1.3872372878554038,
                0.4659414406062259
            ]
        },
        {
            "positions": [
                -0.906877445444195,
                -0.211298254990226,
                -1.2365036596593013,
                0.14588514625843213,
                1.3505639794119872,
                0.33535035130841007
            ]
        },
        {
            "positions": [
                -0.8715458219406963,
                -0.2337222471433298,
                -1.1226470183038484,
                0.09926589974156758,
                1.3138906709685705,
                0.20475926201059413
            ]
        },
        {
            "positions": [
                -0.8362141984371976,
                -0.25614623929643354,
                -1.0087903769483955,
                0.05264665322470302,
                1.2772173625251537,
                0.07416817271277809
            ]
        },
        {
            "positions": [
                -0.8008825749336987,
                -0.2785702314495373,
                -0.8949337355929425,
                0.006027406707838412,
                1.240544054081737,
                -0.05642291658503784
            ]
        },
        {
            "positions": [
                -0.7655509514302001,
                -0.30099422360264105,
                -0.7810770942374896,
                -0.04059183980902614,
                1.2038707456383202,
                -0.18701400588285377
            ]
        },
        {
            "positions": [
                -0.7302193279267013,
                -0.3234182157557448,
                -0.6672204528820367,
                -0.08721108632589075,
                1.1671974371949034,
                -0.3176050951806697
            ]
        },
        {
            "positions": [
                -0.6948877044232027,
                -0.34584220790884856,
                -0.5533638115265838,
                -0.1338303328427553,
                1.1305241287514867,
                -0.4481961844784854
            ]
        },
        {
            "positions": [
                -0.6595560809197039,
                -0.3682662000619524,
                -0.43950717017113083,
                -0.18044957935961986,
                1.09385082030807,
                -0.5787872737763016
            ]
        },
        {
            "positions": [
                -0.6242244574162052,
                -0.39069019221505613,
                -0.3256505288156779,
                -0.22706882587648441,
                1.0571775118646531,
                -0.7093783630741173
            ]
        },
        {
            "positions": [
                -0.5888928339127064,
                -0.4131141843681599,
                -0.21179388746022498,
                -0.2736880723933491,
                1.0205042034212366,
                -0.8399694523719334
            ]
        },
        {
            "positions": [
                -0.5535612104092078,
                -0.43553817652126364,
                -0.09793724610477206,
                -0.3203073189102135,
                0.9838308949778197,
                -0.9705605416697494
            ]
        },
        {
            "positions": [
                -0.5182295869057091,
                -0.4579621686743674,
                0.015919395250680646,
                -0.3669265654270781,
                0.9471575865344031,
                -1.101151630967565
            ]
        },
        {
            "positions": [
                -0.48289796340221025,
                -0.4803861608274712,
                0.12977603660613402,
                -0.41354581194394274,
                0.9104842780909862,
                -1.2317427202653812
            ]
        },
        {
            "positions": [
                -0.44756633989871153,
                -0.502810152980575,
                0.24363267796158694,
                -0.4601650584608073,
                0.8738109696475695,
                -1.362333809563197
            ]
        },
        {
            "positions": [
                -0.4122347163952129,
                -0.5252341451336786,
                0.35748931931703987,
                -0.5067843049776719,
                0.8371376612041528,
                -1.492924898861013
            ]
        },
        {
            "positions": [
                -0.3769030928917142,
                -0.5476581372867824,
                0.47134596067249235,
                -0.5534035514945363,
                0.8004643527607361,
                -1.6235159881588288
            ]
        },
        {
            "positions": [
                -0.34157146938821537,
                -0.5700821294398862,
                0.5852026020279457,
                -0.600022798011401,
                0.7637910443173193,
                -1.754107077456645
            ]
        },
        {
            "positions": [
                -0.30623984588471664,
                -0.5925061215929901,
                0.6990592433833986,
                -0.6466420445282655,
                0.7271177358739025,
                -1.8846981667544607
            ]
        },
        {
            "positions": [
                -0.2709082223812179,
                -0.6149301137460936,
                0.8129158847388516,
                -0.6932612910451301,
                0.6904444274304858,
                -2.0152892560522764
            ]
        },
        {
            "positions": [
                -0.2355765988777193,
                -0.6373541058991974,
                0.926772526094304,
                -0.7398805375619946,
                0.6537711189870691,
                -2.1458803453500925
            ]
        },
        {
            "positions": [
                -0.20024497537422048,
                -0.6597780980523014,
                1.0406291674497574,
                -0.7864997840788592,
                0.6170978105436523,
                -2.2764714346479087
            ]
        },
        {
            "positions": [
                -0.16491335187072176,
                -0.6822020902054051,
                1.1544858088052103,
                -0.8331190305957239,
                0.5804245021002356,
                -2.4070625239457244
            ]
        },
        {
            "positions": [
                -0.12958172836722304,
                -0.7046260823585089,
                1.2683424501606633,
                -0.8797382771125883,
                0.5437511936568189,
                -2.53765361324354
            ]
        },
        {
            "positions": [
                -0.09425010486372432,
                -0.7270500745116126,
                1.3821990915161162,
                -0.9263575236294528,
                0.5070778852134021,
                -2.6682447025413563
            ]
        },
        {
            "positions": [
                -0.05891848136022548,
                -0.7494740666647164,
                1.4960557328715691,
                -0.9729767701463177,
                0.47040457676998537,
                -2.7988357918391724
            ]
        },
        {
            "positions": [
                -0.023586857856726873,
                -0.77189805881782,
                1.609912374227022,
                -1.0195960166631821,
                0.4337312683265686,
                -2.9294268811369886
            ]
        },
        {
            "positions": [
                0.0056796443141108564,
                -0.8427365475671611,
                1.6777324770171744,
                -0.9537572883767912,
                0.37192911526310746,
                -2.999288609967733
            ]
        },
        {
            "positions": [
                0.034946146484948586,
                -0.9135750363165022,
                1.7455525798073266,
                -0.8879185600904003,
                0.31012696219964636,
                -3.069150338798478
            ]
        },
        {
            "positions": [
                0.06421264865578631,
                -0.9844135250658432,
                1.813372682597479,
                -0.8220798318040092,
                0.24832480913618524,
                -3.139012067629223
            ]
        },
        {
            "positions": [
                0.09347915082662404,
                -1.0552520138151844,
                1.8811927853876313,
                -0.7562411035176183,
                0.18652265607272409,
                -3.208873796459968
            ]
        },
        {
            "positions": [
                0.12274565299746178,
                -1.1260905025645254,
                1.9490128881777835,
                -0.6904023752312274,
                0.12472050300926293,
                -3.2787355252907124
            ]
        }
    ]
}