{
    "goal": {
        "global_pose": {
            "orientation": {
                "w": 0.7031023502349854,
                "x": -0.7110244035720825,
                "y": 0.007748599164187908,
                "z": 0.005598929710686207
            },
            "position": {
                "x": 0.11585023208521307,
                "y": 0.44412534475326537,
                "z": 0.3711530566215515
            }
        },
        "name": "move_to_auspresseinheit_A"
    },
    "id": "PRM_move_to_auspresseinheit_A_142",
    "joint_names": [
        "shoulder_pan_joint",
        "shoulder_lift_joint",
        "elbow_joint",
        "wrist_1_joint",
        "wrist_2_joint",
        "wrist_3_joint"
    ],
    "metrics": {
        "cart_traj_len": 1.8694912042829424,
        "distance_elbow_joint": 1.746960444944614,
        "distance_shoulder_lift_joint": 1.050209749455051,
        "distance_shoulder_pan_joint": 1.0445270659097585,
        "distance_wrist_1_joint": 1.5839894245790074,
        "distance_wrist_2_joint": 1.3266917192799343,
        "distance_wrist_3_joint": 4.688601902649251,
        "smoothness": 0.4683521901869497,
        "time": 0.248565588,
        "traj_len": 3.3824518188464436,
        "weighted_distance": 4.871228310803658
    },
    "planner": "PRM",
    "start": {
        "state": {
            "elbow_joint": 2.422574709923281,
            "shoulder_lift_joint": -1.3736533754116391,
            "shoulder_pan_joint": -0.33786336945926293,
            "wrist_1_joint": -1.0288603412921917,
            "wrist_2_joint": 1.2330224858903978,
            "wrist_3_joint": -3.094022268022082
        }
    },
    "waypoints": [
        {
            "positions": [
                -0.33786336945926293,
                -1.3736533754116391,
                2.422574709923281,
                -1.0288603412921917,
                1.2330224858903978,
                -3.094022268022082
            ]
        },
        {
            "positions": [
                -0.3379812388205681,
                -1.4088029343118218,
                2.348475640213514,
                -0.9753764783390685,
                1.2053945956817729,
                -2.900814890962593
            ]
        },
        {
            "positions": [
                -0.3380991081818733,
                -1.4439524932120043,
                2.274376570503746,
                -0.9218926153859452,
                1.177766705473148,
                -2.7076075139031044
            ]
        },
        {
            "positions": [
                -0.3382169775431784,
                -1.479102052112187,
                2.200277500793979,
                -0.8684087524328219,
                1.1501388152645229,
                -2.5144001368436153
            ]
        },
        {
            "positions": [
                -0.3383348469044836,
                -1.5142516110123696,
                2.1261784310842113,
                -0.8149248894796987,
                1.122510925055898,
                -2.321192759784126
            ]
        },
        {
            "positions": [
                -0.33845271626578877,
                -1.549401169912552,
                2.052079361374444,
                -0.7614410265265754,
                1.0948830348472731,
                -2.1279853827246376
            ]
        },
        {
            "positions": [
                -0.33857058562709397,
                -1.5845507288127347,
                1.977980291664677,
                -0.7079571635734521,
                1.067255144638648,
                -1.9347780056651485
            ]
        },
        {
            "positions": [
                -0.3386884549883991,
                -1.6197002877129174,
                1.9038812219549093,
                -0.6544733006203288,
                1.0396272544300231,
                -1.7415706286056594
            ]
        },
        {
            "positions": [
                -0.33880632434970426,
                -1.6548498466130999,
                1.829782152245142,
                -0.6009894376672056,
                1.0119993642213982,
                -1.5483632515461707
            ]
        },
        {
            "positions": [
                -0.33892419371100946,
                -1.6899994055132825,
                1.7556830825353746,
                -0.5475055747140823,
                0.9843714740127734,
                -1.3551558744866816
            ]
        },
        {
            "positions": [
                -0.3390420630723146,
                -1.7251489644134652,
                1.6815840128256072,
                -0.494021711760959,
                0.9567435838041484,
                -1.1619484974271925
            ]
        },
        {
            "positions": [
                -0.3391599324336198,
                -1.7602985233136477,
                1.60748494311584,
                -0.44053784880783575,
                0.9291156935955234,
                -0.9687411203677039
            ]
        },
        {
            "positions": [
                -0.33927780179492495,
                -1.7954480822138303,
                1.5333858734060726,
                -0.3870539858547125,
                0.9014878033868985,
                -0.7755337433082149
            ]
        },
        {
            "positions": [
                -0.23822738444539748,
                -1.8364847523152834,
                1.5764205390892032,
                -0.3385727371298346,
                0.8350589023083244,
                -0.8677802449324248
            ]
        },
        {
            "positions": [
                -0.13717696709587002,
                -1.8775214224167365,
                1.6194552047723338,
                -0.2900914884049567,
                0.7686300012297502,
                -0.9600267465566348
            ]
        },
        {
            "positions": [
                -0.03612654974634255,
                -1.9185580925181895,
                1.6624898704554645,
                -0.24161023968007883,
                0.702201100151176,
                -1.0522732481808448
            ]
        },
        {
            "positions": [
                0.06492386760318491,
                -1.9595947626196426,
                1.705524536138595,
                -0.19312899095520092,
                0.6357721990726019,
                -1.1445197498050546
            ]
        },
        {
            "positions": [
                0.1659742849527125,
                -2.0006314327210957,
                1.7485592018217258,
                -0.144647742230323,
                0.5693432979940276,
                -1.2367662514292646
            ]
        },
        {
            "positions": [
                0.26702470230223985,
                -2.0416681028225487,
                1.7915938675048562,
                -0.09616649350544515,
                0.5029143969154535,
                -1.3290127530534743
            ]
        },
        {
            "positions": [
                0.3680751196517674,
                -2.082704772924002,
                1.8346285331879868,
                -0.04768524478056718,
                0.4364854958368793,
                -1.4212592546776843
            ]
        },
        {
            "positions": [
                0.4691255370012948,
                -2.123741443025455,
                1.8776631988711174,
                0.0007960039443106748,
                0.3700565947583052,
                -1.5135057563018943
            ]
        },
        {
            "positions": [
                0.5701759543508224,
                -2.164778113126908,
                1.920697864554248,
                0.04927725266918857,
                0.30362769367973097,
                -1.6057522579261043
            ]
        },
        {
            "positions": [
                0.5967454106215626,
                -2.1590264761729756,
                2.0050031860701623,
                0.03529248126174381,
                0.3147857761062689,
                -1.8340657445514235
            ]
        },
        {
            "positions": [
                0.623314866892303,
                -2.153274839219043,
                2.0893085075860762,
                0.021307709854299046,
                0.3259438585328068,
                -2.0623792311767426
            ]
        },
        {
            "positions": [
                0.6498843231630432,
                -2.14752320226511,
                2.17361382910199,
                0.007322938446854284,
                0.33710194095934465,
                -2.290692717802062
            ]
        },
        {
            "positions": [
                0.6764537794337835,
                -2.1417715653111777,
                2.257919150617904,
                -0.006661832960590482,
                0.3482600233858826,
                -2.5190062044273813
            ]
        },
        {
            "positions": [
                0.6848833707515727,
                -2.103192228904606,
                2.2920696025181995,
                -0.08064706935638521,
                0.4062833751391397,
                -2.6539404688344765
            ]
        },
        {
            "positions": [
                0.6933129620693618,
                -2.064612892498034,
                2.3262200544184948,
                -0.15463230575217995,
                0.4643067268923969,
                -2.788874733241572
            ]
        },
        {
            "positions": [
                0.6968202519726316,
                -2.011639628794398,
                2.3478658635568226,
                -0.25527972981759944,
                0.5431793581779307,
                -2.9077988625755813
            ]
        },
        {
            "positions": [
                0.7003275418759016,
                -1.9586663650907619,
                2.3695116726951504,
                -0.355927153883019,
                0.6220519894634646,
                -3.02672299190959
            ]
        },
        {
            "positions": [
                0.7038348317791715,
                -1.9056931013871257,
                2.391157481833478,
                -0.4565745779484385,
                0.7009246207489985,
                -3.145647121243599
            ]
        }
    ]
}