{
    "goal": {
        "global_pose": {
            "orientation": {
                "w": 0.7031023502349854,
                "x": -0.7110244035720825,
                "y": 0.007748599164187908,
                "z": 0.005598929710686207
            },
            "position": {
                "x": 0.11585023208521307,
                "y": 0.44412534475326537,
                "z": 0.3711530566215515
            }
        },
        "name": "move_to_auspresseinheit_A"
    },
    "id": "PRM_move_to_auspresseinheit_A_59",
    "joint_names": [
        "shoulder_pan_joint",
        "shoulder_lift_joint",
        "elbow_joint",
        "wrist_1_joint",
        "wrist_2_joint",
        "wrist_3_joint"
    ],
    "metrics": {
        "cart_traj_len": 0.7211827242348724,
        "distance_elbow_joint": 0.2166324347458417,
        "distance_shoulder_lift_joint": 0.5344261698613357,
        "distance_shoulder_pan_joint": 1.0434392407790947,
        "distance_wrist_1_joint": 0.7688090060564219,
        "distance_wrist_2_joint": 0.7193645576769526,
        "distance_wrist_3_joint": 1.2679820935219066,
        "smoothness": 0.9276307322673001,
        "time": 0.288631759,
        "traj_len": 2.1332260786521324,
        "weighted_distance": 2.9282744498114828
    },
    "planner": "PRM",
    "start": {
        "state": {
            "elbow_joint": 2.422574709923281,
            "shoulder_lift_joint": -1.3736533754116391,
            "shoulder_pan_joint": -0.33786336945926293,
            "wrist_1_joint": -1.0288603412921917,
            "wrist_2_joint": 1.2330224858903978,
            "wrist_3_joint": -3.094022268022082
        }
    },
    "waypoints": [
        {
            "positions": [
                -0.33786336945926293,
                -1.3736533754116391,
                2.422574709923281,
                -1.0288603412921917,
                1.2330224858903978,
                -3.094022268022082
            ]
        },
        {
            "positions": [
                -0.26830911416031333,
                -1.4327398083702085,
                2.4088731352769486,
                -0.95496111765609,
                1.1634393130328697,
                -3.0253491519093956
            ]
        },
        {
            "positions": [
                -0.19875485886136374,
                -1.4918262413287782,
                2.395171560630616,
                -0.8810618940199882,
                1.093856140175342,
                -2.956676035796709
            ]
        },
        {
            "positions": [
                -0.12920060356241414,
                -1.5509126742873476,
                2.3814699859842836,
                -0.8071626703838866,
                1.024272967317814,
                -2.8880029196840225
            ]
        },
        {
            "positions": [
                -0.059646348263464544,
                -1.609999107245917,
                2.367768411337951,
                -0.7332634467477848,
                0.954689794460286,
                -2.8193298035713363
            ]
        },
        {
            "positions": [
                0.009907907035485108,
                -1.6690855402044866,
                2.354066836691618,
                -0.659364223111683,
                0.885106621602758,
                -2.7506566874586493
            ]
        },
        {
            "positions": [
                0.07946216233443465,
                -1.728171973163056,
                2.3403652620452857,
                -0.5854649994755814,
                0.8155234487452301,
                -2.681983571345963
            ]
        },
        {
            "positions": [
                0.1490164176333843,
                -1.7872584061216255,
                2.3266636873989532,
                -0.5115657758394796,
                0.7459402758877021,
                -2.6133104552332767
            ]
        },
        {
            "positions": [
                0.21857067293233384,
                -1.8463448390801949,
                2.3129621127526208,
                -0.4376665522033779,
                0.6763571030301743,
                -2.54463733912059
            ]
        },
        {
            "positions": [
                0.28812492823128355,
                -1.9054312720387645,
                2.2992605381062883,
                -0.3637673285672761,
                0.6067739301726462,
                -2.4759642230079035
            ]
        },
        {
            "positions": [
                0.3924876640034206,
                -1.906093340347317,
                2.3225901038385004,
                -0.38969632690015266,
                0.6300529306624465,
                -2.6384452351348355
            ]
        },
        {
            "positions": [
                0.4968503997755577,
                -1.9067554086558696,
                2.345919669570713,
                -0.4156253252330292,
                0.6533319311522467,
                -2.8009262472617675
            ]
        },
        {
            "positions": [
                0.6012131355476948,
                -1.9074174769644223,
                2.369249235302925,
                -0.4415543235659058,
                0.6766109316420471,
                -2.9634072593886995
            ]
        },
        {
            "positions": [
                0.7055758713198319,
                -1.9080795452729749,
                2.392578801035137,
                -0.46748332189878233,
                0.6998899321318474,
                -3.1258882715156315
            ]
        }
    ]
}