{
    "goal": {
        "global_pose": {
            "orientation": {
                "w": -0.00223480608172531,
                "x": 0.0024358444001904467,
                "y": 0.7094548369677653,
                "z": -0.704743149386269
            },
            "position": {
                "x": 0.6205249238014221,
                "y": -0.6371506643295288,
                "z": 0.19426114857196808
            }
        },
        "name": "move_to_magneteinheit_B"
    },
    "id": "PRM_move_to_magneteinheit_B_143",
    "joint_names": [
        "shoulder_pan_joint",
        "shoulder_lift_joint",
        "elbow_joint",
        "wrist_1_joint",
        "wrist_2_joint",
        "wrist_3_joint"
    ],
    "metrics": {
        "cart_traj_len": 4.452301145653578,
        "distance_elbow_joint": 4.045160640833777,
        "distance_shoulder_lift_joint": 1.5815422292905668,
        "distance_shoulder_pan_joint": 4.03496001256511,
        "distance_wrist_1_joint": 4.95733150779145,
        "distance_wrist_2_joint": 1.8184583512581156,
        "distance_wrist_3_joint": 6.281162642948809,
        "smoothness": 0.4711553652789441,
        "time": 2.074139458,
        "traj_len": 4.766404869992457,
        "weighted_distance": 6.485116076805025
    },
    "planner": "PRM",
    "start": {
        "state": {
            "elbow_joint": 2.39358713078474,
            "shoulder_lift_joint": -1.908514104345545,
            "shoulder_pan_joint": 0.7066247066606129,
            "wrist_1_joint": -0.4678290933515497,
            "wrist_2_joint": 0.7096259083745334,
            "wrist_3_joint": -3.1358149277392293
        }
    },
    "waypoints": [
        {
            "positions": [
                0.7066247066606129,
                -1.908514104345545,
                2.39358713078474,
                -0.4678290933515497,
                0.7096259083745334,
                -3.1358149277392293
            ]
        },
        {
            "positions": [
                0.6444558461811267,
                -1.9024521124052483,
                2.377004807635912,
                -0.35731229839681145,
                0.6365221131852227,
                -3.0708644281762263
            ]
        },
        {
            "positions": [
                0.5822869857016405,
                -1.8963901204649516,
                2.360422484487084,
                -0.2467955034420732,
                0.563418317995912,
                -3.0059139286132233
            ]
        },
        {
            "positions": [
                0.5201181252221543,
                -1.890328128524655,
                2.343840161338256,
                -0.13627870848733498,
                0.49031452280660126,
                -2.9409634290502207
            ]
        },
        {
            "positions": [
                0.4579492647426681,
                -1.8842661365843583,
                2.3272578381894276,
                -0.025761913532596714,
                0.4172107276172905,
                -2.8760129294872177
            ]
        },
        {
            "positions": [
                0.3589710741432595,
                -1.8203911828974668,
                2.3265614768067167,
                0.0821977099818883,
                0.39284621880118087,
                -2.775733793564526
            ]
        },
        {
            "positions": [
                0.25999288354385086,
                -1.7565162292105754,
                2.3258651154240058,
                0.19015733349637332,
                0.36848170998507124,
                -2.6754546576418337
            ]
        },
        {
            "positions": [
                0.16101469294444226,
                -1.6926412755236842,
                2.3251687540412944,
                0.29811695701085833,
                0.34411720116896155,
                -2.575175521719142
            ]
        },
        {
            "positions": [
                0.06203650234503366,
                -1.6287663218367927,
                2.3244723926585835,
                0.40607658052534334,
                0.3197526923528519,
                -2.47489638579645
            ]
        },
        {
            "positions": [
                -0.03694168825437494,
                -1.5648913681499013,
                2.3237760312758726,
                0.5140362040398284,
                0.2953881835367423,
                -2.374617249873758
            ]
        },
        {
            "positions": [
                -0.1359198788537836,
                -1.50101641446301,
                2.3230796698931613,
                0.6219958275543134,
                0.2710236747206326,
                -2.274338113951066
            ]
        },
        {
            "positions": [
                -0.2348980694531922,
                -1.4371414607761186,
                2.3223833085104504,
                0.7299554510687983,
                0.24665916590452297,
                -2.1740589780283743
            ]
        },
        {
            "positions": [
                -0.3338762600526008,
                -1.3732665070892272,
                2.3216869471277395,
                0.8379150745832834,
                0.22229465708841334,
                -2.073779842105682
            ]
        },
        {
            "positions": [
                -0.21754893654997232,
                -1.4259658038341898,
                2.227684869577615,
                0.8192102962007215,
                0.1506805805432478,
                -2.069707484387313
            ]
        },
        {
            "positions": [
                -0.10122161304734381,
                -1.4786651005791522,
                2.1336827920274906,
                0.8005055178181596,
                0.07906650399808221,
                -2.0656351266689437
            ]
        },
        {
            "positions": [
                0.015105710455284693,
                -1.531364397324115,
                2.039680714477366,
                0.7818007394355977,
                0.007452427452916632,
                -2.0615627689505747
            ]
        },
        {
            "positions": [
                0.13143303395791317,
                -1.5840636940690773,
                1.9456786369272416,
                0.7630959610530357,
                -0.06416164909224892,
                -2.057490411232205
            ]
        },
        {
            "positions": [
                0.24776035746054176,
                -1.63676299081404,
                1.851676559377117,
                0.7443911826704738,
                -0.13577572563741452,
                -2.053418053513836
            ]
        },
        {
            "positions": [
                0.3640876809631702,
                -1.6894622875590024,
                1.7576744818269927,
                0.7256864042879119,
                -0.20738980218258007,
                -2.0493456957954668
            ]
        },
        {
            "positions": [
                0.48041500446579877,
                -1.742161584303965,
                1.663672404276868,
                0.70698162590535,
                -0.27900387872774574,
                -2.0452733380770978
            ]
        },
        {
            "positions": [
                0.533237297398867,
                -1.7452819288913777,
                1.5676143895235002,
                0.6205951813611587,
                -0.2930965482291469,
                -1.9020740677624421
            ]
        },
        {
            "positions": [
                0.5860595903319353,
                -1.7484022734787903,
                1.4715563747701323,
                0.5342087368169673,
                -0.307189217730548,
                -1.7588747974477867
            ]
        },
        {
            "positions": [
                0.6388818832650036,
                -1.7515226180662031,
                1.3754983600167645,
                0.44782229227277603,
                -0.32128188723194917,
                -1.6156755271331311
            ]
        },
        {
            "positions": [
                0.6917041761980718,
                -1.7546429626536157,
                1.2794403452633967,
                0.3614358477285847,
                -0.3353745567333503,
                -1.4724762568184757
            ]
        },
        {
            "positions": [
                0.7445264691311401,
                -1.7577633072410284,
                1.1833823305100288,
                0.2750494031843934,
                -0.34946722623475146,
                -1.32927698650382
            ]
        },
        {
            "positions": [
                0.7973487620642083,
                -1.760883651828441,
                1.087324315756661,
                0.1886629586402021,
                -0.3635598957361526,
                -1.1860777161891645
            ]
        },
        {
            "positions": [
                0.8501710549972765,
                -1.7640039964158536,
                0.9912663010032932,
                0.1022765140960108,
                -0.37765256523755375,
                -1.042878445874509
            ]
        },
        {
            "positions": [
                0.9029933479303449,
                -1.7671243410032662,
                0.8952082862499253,
                0.015890069551819486,
                -0.39174523473895484,
                -0.8996791755598534
            ]
        },
        {
            "positions": [
                0.9558156408634131,
                -1.770244685590679,
                0.7991502714965576,
                -0.07049637499237171,
                -0.40583790424035604,
                -0.756479905245198
            ]
        },
        {
            "positions": [
                1.0086379337964813,
                -1.7733650301780917,
                0.7030922567431896,
                -0.15688281953656313,
                -0.41993057374175713,
                -0.6132806349305424
            ]
        },
        {
            "positions": [
                1.0614602267295496,
                -1.7764853747655043,
                0.607034241989822,
                -0.24326926408075444,
                -0.4340232432431583,
                -0.470081364615887
            ]
        },
        {
            "positions": [
                1.114282519662618,
                -1.779605719352917,
                0.510976227236454,
                -0.32965570862494575,
                -0.4481159127445594,
                -0.3268820943012314
            ]
        },
        {
            "positions": [
                1.167104812595686,
                -1.7827260639403295,
                0.41491821248308636,
                -0.41604215316913706,
                -0.46220858224596056,
                -0.18368282398657598
            ]
        },
        {
            "positions": [
                1.2199271055287544,
                -1.7858464085277423,
                0.3188601977297183,
                -0.5024285977133284,
                -0.4763012517473617,
                -0.04048355367192036
            ]
        },
        {
            "positions": [
                1.2727493984618228,
                -1.788966753115155,
                0.22280218297635068,
                -0.5888150422575197,
                -0.49039392124876285,
                0.10271571664273527
            ]
        },
        {
            "positions": [
                1.325571691394891,
                -1.7920870977025676,
                0.12674416822298262,
                -0.675201486801711,
                -0.504486590750164,
                0.2459149869573909
            ]
        },
        {
            "positions": [
                1.3783939843279591,
                -1.7952074422899802,
                0.030686153469615007,
                -0.7615879313459023,
                -0.5185792602515651,
                0.38911425727204607
            ]
        },
        {
            "positions": [
                1.4312162772610275,
                -1.7983277868773928,
                -0.06537186128375283,
                -0.8479743758900934,
                -0.5326719297529663,
                0.5323135275867017
            ]
        },
        {
            "positions": [
                1.484038570194096,
                -1.8014481314648054,
                -0.1614298760371209,
                -0.9343608204342851,
                -0.5467645992543675,
                0.6755127979013573
            ]
        },
        {
            "positions": [
                1.5368608631271639,
                -1.8045684760522183,
                -0.2574878907904887,
                -1.0207472649784761,
                -0.5608572687557686,
                0.818712068216013
            ]
        },
        {
            "positions": [
                1.5896831560602322,
                -1.8076888206396309,
                -0.35354590554385634,
                -1.1071337095226674,
                -0.5749499382571697,
                0.9619113385306681
            ]
        },
        {
            "positions": [
                1.6425054489933002,
                -1.8108091652270435,
                -0.44960392029722396,
                -1.1935201540668587,
                -0.5890426077585709,
                1.1051106088453237
            ]
        },
        {
            "positions": [
                1.6953277419263686,
                -1.813929509814456,
                -0.545661935050592,
                -1.2799065986110505,
                -0.6031352772599721,
                1.2483098791599798
            ]
        },
        {
            "positions": [
                1.748150034859437,
                -1.8170498544018687,
                -0.6417199498039601,
                -1.3662930431552414,
                -0.6172279467613732,
                1.391509149474635
            ]
        },
        {
            "positions": [
                1.8009723277925054,
                -1.8201701989892816,
                -0.7377779645573277,
                -1.4526794876994327,
                -0.6313206162627742,
                1.5347084197892906
            ]
        },
        {
            "positions": [
                1.8537946207255733,
                -1.8232905435766942,
                -0.8338359793106953,
                -1.539065932243624,
                -0.6454132857641754,
                1.6779076901039458
            ]
        },
        {
            "positions": [
                1.9066169136586417,
                -1.8264108881641068,
                -0.9298939940640634,
                -1.6254523767878153,
                -0.6595059552655766,
                1.8211069604186019
            ]
        },
        {
            "positions": [
                1.9594392065917101,
                -1.8295312327515194,
                -1.0259520088174314,
                -1.7118388213320066,
                -0.6735986247669777,
                1.964306230733257
            ]
        },
        {
            "positions": [
                2.012261499524778,
                -1.832651577338932,
                -1.122010023570799,
                -1.798225265876198,
                -0.6876912942683788,
                2.1075055010479122
            ]
        },
        {
            "positions": [
                2.0650837924578465,
                -1.8357719219263446,
                -1.2180680383241667,
                -1.8846117104203892,
                -0.70178396376978,
                2.2507047713625683
            ]
        },
        {
            "positions": [
                2.117906085390915,
                -1.8388922665137575,
                -1.3141260530775347,
                -1.9709981549645805,
                -0.7158766332711812,
                2.3939040416772235
            ]
        },
        {
            "positions": [
                2.1707283783239832,
                -1.84201261110117,
                -1.4101840678309028,
                -2.057384599508772,
                -0.7299693027725822,
                2.5371033119918796
            ]
        },
        {
            "positions": [
                2.223550671257051,
                -1.8451329556885827,
                -1.5062420825842704,
                -2.143771044052963,
                -0.7440619722739834,
                2.6803025823065347
            ]
        },
        {
            "positions": [
                2.24077782907617,
                -1.9366602412696736,
                -1.524718277560576,
                -2.242293521137117,
                -0.6807957138277749,
                2.723865689743854
            ]
        },
        {
            "positions": [
                2.2580049868952887,
                -2.0281875268507648,
                -1.5431944725368818,
                -2.3408159982212706,
                -0.6175294553815666,
                2.7674287971811733
            ]
        },
        {
            "positions": [
                2.2752321447144075,
                -2.1197148124318557,
                -1.5616706675131877,
                -2.4393384753054246,
                -0.5542631969353581,
                2.810991904618492
            ]
        },
        {
            "positions": [
                2.2924593025335263,
                -2.2112420980129466,
                -1.5801468624894934,
                -2.537860952389578,
                -0.49099693848914966,
                2.8545550120558114
            ]
        },
        {
            "positions": [
                2.309686460352645,
                -2.3027693835940375,
                -1.5986230574657991,
                -2.636383429473732,
                -0.42773068004294124,
                2.8981181194931307
            ]
        },
        {
            "positions": [
                2.426651902168195,
                -2.263838798417558,
                -1.6162732083268778,
                -2.577287150873865,
                -0.44387707283579275,
                2.9805279847319466
            ]
        },
        {
            "positions": [
                2.5436173439837453,
                -2.2249082132410782,
                -1.6339233591879565,
                -2.5181908722739985,
                -0.4600234656286443,
                3.062937849970762
            ]
        },
        {
            "positions": [
                2.660582785799295,
                -2.185977628064599,
                -1.6515735100490352,
                -2.4590945936741315,
                -0.47616985842149584,
                3.145347715209578
            ]
        }
    ]
}