{
    "goal": {
        "global_pose": {
            "orientation": {
                "w": -0.00223480608172531,
                "x": 0.0024358444001904467,
                "y": 0.7094548369677653,
                "z": -0.704743149386269
            },
            "position": {
                "x": 0.6205249238014221,
                "y": -0.6371506643295288,
                "z": 0.19426114857196808
            }
        },
        "name": "move_to_magneteinheit_B"
    },
    "id": "PRM_move_to_magneteinheit_B_43",
    "joint_names": [
        "shoulder_pan_joint",
        "shoulder_lift_joint",
        "elbow_joint",
        "wrist_1_joint",
        "wrist_2_joint",
        "wrist_3_joint"
    ],
    "metrics": {
        "cart_traj_len": 1.4520268314956608,
        "distance_elbow_joint": 0.7292521011456987,
        "distance_shoulder_lift_joint": 1.2478147721761546,
        "distance_shoulder_pan_joint": 1.6211440831411619,
        "distance_wrist_1_joint": 2.6044584669803252,
        "distance_wrist_2_joint": 2.9400908278453133,
        "distance_wrist_3_joint": 3.13901430779324,
        "smoothness": 1.1102230334162427e-16,
        "time": 0.035768844,
        "traj_len": 3.504536283031165,
        "weighted_distance": 4.909618362917225
    },
    "planner": "PRM",
    "start": {
        "state": {
            "elbow_joint": 2.39358713078474,
            "shoulder_lift_joint": -1.908514104345545,
            "shoulder_pan_joint": 0.7066247066606129,
            "wrist_1_joint": -0.4678290933515497,
            "wrist_2_joint": 0.7096259083745334,
            "wrist_3_joint": -3.1358149277392293
        }
    },
    "waypoints": [
        {
            "positions": [
                0.7066247066606129,
                -1.908514104345545,
                2.39358713078474,
                -0.4678290933515497,
                0.7096259083745334,
                -3.1358149277392293
            ]
        },
        {
            "positions": [
                0.6543297362367045,
                -1.8682620149205076,
                2.3700628694574593,
                -0.3838143040941199,
                0.6147842687666201,
                -3.034556401681383
            ]
        },
        {
            "positions": [
                0.602034765812796,
                -1.8280099254954705,
                2.346538608130179,
                -0.29979951483669,
                0.5199426291587068,
                -2.9332978756235364
            ]
        },
        {
            "positions": [
                0.5497397953888876,
                -1.7877578360704331,
                2.323014346802898,
                -0.21578472557926015,
                0.42510098955079345,
                -2.83203934956569
            ]
        },
        {
            "positions": [
                0.49744482496497916,
                -1.747505746645396,
                2.2994900854756177,
                -0.13176993632183032,
                0.33025934994288014,
                -2.7307808235078435
            ]
        },
        {
            "positions": [
                0.4451498545410707,
                -1.7072536572203587,
                2.275965824148337,
                -0.04775514706440048,
                0.23541771033496678,
                -2.6295222974499968
            ]
        },
        {
            "positions": [
                0.3928548841171623,
                -1.6670015677953214,
                2.2524415628210566,
                0.03625964219302941,
                0.14057607072705347,
                -2.5282637713921505
            ]
        },
        {
            "positions": [
                0.34055991369325384,
                -1.6267494783702843,
                2.2289173014937758,
                0.12027443145045918,
                0.045734431119140107,
                -2.4270052453343043
            ]
        },
        {
            "positions": [
                0.2882649432693454,
                -1.586497388945247,
                2.2053930401664954,
                0.20428922070788907,
                -0.049107208488773146,
                -2.3257467192764576
            ]
        },
        {
            "positions": [
                0.23596997284543686,
                -1.5462452995202096,
                2.1818687788392146,
                0.28830400996531896,
                -0.14394884809668662,
                -2.224488193218611
            ]
        },
        {
            "positions": [
                0.18367500242152845,
                -1.5059932100951725,
                2.1583445175119342,
                0.37231879922274874,
                -0.23879048770459987,
                -2.1232296671607647
            ]
        },
        {
            "positions": [
                0.13138003199761994,
                -1.4657411206701352,
                2.1348202561846534,
                0.45633358848017863,
                -0.33363212731251324,
                -2.0219711411029184
            ]
        },
        {
            "positions": [
                0.07908506157371165,
                -1.425489031245098,
                2.1112959948573726,
                0.5403483777376086,
                -0.4284737669204265,
                -1.920712615045072
            ]
        },
        {
            "positions": [
                0.02679009114980313,
                -1.3852369418200607,
                2.0877717335300923,
                0.6243631669950385,
                -0.52331540652834,
                -1.8194540889872253
            ]
        },
        {
            "positions": [
                -0.025504879274105274,
                -1.3449848523950236,
                2.0642474722028115,
                0.7083779562524681,
                -0.6181570461362532,
                -1.718195562929379
            ]
        },
        {
            "positions": [
                -0.07779984969801379,
                -1.3047327629699863,
                2.040723210875531,
                0.792392745509898,
                -0.7129986857441667,
                -1.6169370368715323
            ]
        },
        {
            "positions": [
                -0.1300948201219222,
                -1.264480673544949,
                2.0171989495482503,
                0.8764075347673279,
                -0.8078403253520797,
                -1.515678510813686
            ]
        },
        {
            "positions": [
                -0.1823897905458306,
                -1.2242285841199119,
                1.99367468822097,
                0.9604223240247576,
                -0.902681964959993,
                -1.4144199847558396
            ]
        },
        {
            "positions": [
                -0.23468476096973923,
                -1.1839764946948743,
                1.9701504268936891,
                1.0444371132821877,
                -0.9975236045679067,
                -1.313161458697993
            ]
        },
        {
            "positions": [
                -0.28697973139364763,
                -1.1437244052698374,
                1.9466261655664086,
                1.1284519025396174,
                -1.09236524417582,
                -1.2119029326401465
            ]
        },
        {
            "positions": [
                -0.33927470181755603,
                -1.1034723158448,
                1.923101904239128,
                1.2124666917970472,
                -1.187206883783733,
                -1.1106444065823
            ]
        },
        {
            "positions": [
                -0.39156967224146444,
                -1.0632202264197628,
                1.8995776429118474,
                1.296481481054477,
                -1.2820485233916465,
                -1.0093858805244538
            ]
        },
        {
            "positions": [
                -0.44386464266537307,
                -1.0229681369947254,
                1.8760533815845668,
                1.380496270311907,
                -1.37689016299956,
                -0.9081273544666071
            ]
        },
        {
            "positions": [
                -0.49615961308928147,
                -0.9827160475696883,
                1.8525291202572862,
                1.464511059569337,
                -1.4717318026074735,
                -0.8068688284087608
            ]
        },
        {
            "positions": [
                -0.5484545835131897,
                -0.9424639581446511,
                1.8290048589300056,
                1.5485258488267668,
                -1.5665734422153865,
                -0.7056103023509146
            ]
        },
        {
            "positions": [
                -0.6007495539370981,
                -0.9022118687196139,
                1.8054805976027248,
                1.6325406380841962,
                -1.6614150818233,
                -0.6043517762930679
            ]
        },
        {
            "positions": [
                -0.6530445243610067,
                -0.8619597792945766,
                1.7819563362754445,
                1.7165554273416266,
                -1.7562567214312135,
                -0.5030932502352212
            ]
        },
        {
            "positions": [
                -0.7053394947849151,
                -0.8217076898695392,
                1.7584320749481637,
                1.800570216599056,
                -1.8510983610391265,
                -0.401834724177375
            ]
        },
        {
            "positions": [
                -0.7576344652088235,
                -0.7814556004445021,
                1.7349078136208833,
                1.884585005856486,
                -1.94594000064704,
                -0.30057619811952874
            ]
        },
        {
            "positions": [
                -0.8099294356327319,
                -0.741203511019465,
                1.7113835522936025,
                1.9685997951139158,
                -2.040781640254953,
                -0.19931767206168205
            ]
        },
        {
            "positions": [
                -0.8622244060566405,
                -0.7009514215944275,
                1.687859290966322,
                2.0526145843713457,
                -2.135623279862867,
                -0.09805914600383536
            ]
        },
        {
            "positions": [
                -0.9145193764805489,
                -0.6606993321693904,
                1.6643350296390413,
                2.1366293736287756,
                -2.23046491947078,
                0.003199380054010964
            ]
        }
    ]
}