{
    "goal": {
        "global_pose": {
            "orientation": {
                "w": -0.00223480608172531,
                "x": 0.0024358444001904467,
                "y": 0.7094548369677653,
                "z": -0.704743149386269
            },
            "position": {
                "x": 0.6205249238014221,
                "y": -0.6371506643295288,
                "z": 0.19426114857196808
            }
        },
        "name": "move_to_magneteinheit_B"
    },
    "id": "PRM_move_to_magneteinheit_B_32",
    "joint_names": [
        "shoulder_pan_joint",
        "shoulder_lift_joint",
        "elbow_joint",
        "wrist_1_joint",
        "wrist_2_joint",
        "wrist_3_joint"
    ],
    "metrics": {
        "cart_traj_len": 1.4525750880109518,
        "distance_elbow_joint": 0.7293705596513977,
        "distance_shoulder_lift_joint": 1.2483930963821068,
        "distance_shoulder_pan_joint": 1.6215087764092158,
        "distance_wrist_1_joint": 2.604986115950503,
        "distance_wrist_2_joint": 2.9354795738672106,
        "distance_wrist_3_joint": 3.1338214076173636,
        "smoothness": 1.9428903006496772e-16,
        "time": 0.037835054,
        "traj_len": 3.5033640304538434,
        "weighted_distance": 4.907307615681967
    },
    "planner": "PRM",
    "start": {
        "state": {
            "elbow_joint": 2.39358713078474,
            "shoulder_lift_joint": -1.908514104345545,
            "shoulder_pan_joint": 0.7066247066606129,
            "wrist_1_joint": -0.4678290933515497,
            "wrist_2_joint": 0.7096259083745334,
            "wrist_3_joint": -3.1358149277392293
        }
    },
    "waypoints": [
        {
            "positions": [
                0.7066247066606129,
                -1.908514104345545,
                2.39358713078474,
                -0.4678290933515497,
                0.7096259083745334,
                -3.1358149277392293
            ]
        },
        {
            "positions": [
                0.654317971937735,
                -1.8682433593009609,
                2.37005904821534,
                -0.383797283159598,
                0.614933018894946,
                -3.0347239145902822
            ]
        },
        {
            "positions": [
                0.602011237214857,
                -1.8279726142563768,
                2.34653096564594,
                -0.29976547296764633,
                0.5202401294153586,
                -2.9336329014413347
            ]
        },
        {
            "positions": [
                0.5497045024919791,
                -1.7877018692117925,
                2.32300288307654,
                -0.2157336627756946,
                0.42554723993577115,
                -2.8325418882923876
            ]
        },
        {
            "positions": [
                0.4973977677691013,
                -1.7474311241672085,
                2.29947480050714,
                -0.1317018525837429,
                0.33085435045618367,
                -2.7314508751434405
            ]
        },
        {
            "positions": [
                0.44509103304622333,
                -1.7071603791226244,
                2.2759467179377406,
                -0.047670042391791234,
                0.23616146097659624,
                -2.630359861994493
            ]
        },
        {
            "positions": [
                0.3927842983233454,
                -1.6668896340780404,
                2.2524186353683406,
                0.03636176780016048,
                0.14146857149700887,
                -2.529268848845546
            ]
        },
        {
            "positions": [
                0.34047756360046744,
                -1.6266188890334563,
                2.2288905527989407,
                0.1203935779921122,
                0.04677568201742133,
                -2.428177835696599
            ]
        },
        {
            "positions": [
                0.28817082887758955,
                -1.5863481439888723,
                2.2053624702295407,
                0.20442538818406392,
                -0.0479172074621661,
                -2.3270868225476518
            ]
        },
        {
            "positions": [
                0.23586409415471155,
                -1.5460773989442882,
                2.1818343876601407,
                0.28845719837601563,
                -0.14261009694175353,
                -2.2259958093987042
            ]
        },
        {
            "positions": [
                0.1835573594318337,
                -1.505806653899704,
                2.1583063050907407,
                0.37248900856796724,
                -0.23730298642134096,
                -2.124904796249757
            ]
        },
        {
            "positions": [
                0.13125062470895577,
                -1.4655359088551199,
                2.1347782225213408,
                0.45652081875991907,
                -0.3319958759009284,
                -2.0238137831008096
            ]
        },
        {
            "positions": [
                0.07894388998607782,
                -1.4252651638105358,
                2.1112501399519408,
                0.5405526289518707,
                -0.4266887653805157,
                -1.9227227699518628
            ]
        },
        {
            "positions": [
                0.026637155263199874,
                -1.3849944187659518,
                2.087722057382541,
                0.6245844391438224,
                -0.5213816548601032,
                -1.8216317568029154
            ]
        },
        {
            "positions": [
                -0.02566957945967807,
                -1.3447236737213677,
                2.0641939748131413,
                0.7086162493357742,
                -0.6160745443396908,
                -1.7205407436539684
            ]
        },
        {
            "positions": [
                -0.07797631418255602,
                -1.3044529286767834,
                2.0406658922437413,
                0.7926480595277259,
                -0.7107674338192781,
                -1.619449730505021
            ]
        },
        {
            "positions": [
                -0.13028304890543385,
                -1.2641821836321996,
                2.0171378096743413,
                0.8766798697196776,
                -0.8054603232988656,
                -1.518358717356074
            ]
        },
        {
            "positions": [
                -0.1825897836283118,
                -1.2239114385876153,
                1.9936097271049413,
                0.9607116799116291,
                -0.900153212778453,
                -1.4172677042071269
            ]
        },
        {
            "positions": [
                -0.23489651835118985,
                -1.1836406935430313,
                1.9700816445355414,
                1.044743490103581,
                -0.9948461022580405,
                -1.3161766910581794
            ]
        },
        {
            "positions": [
                -0.2872032530740677,
                -1.1433699484984472,
                1.9465535619661414,
                1.1287753002955327,
                -1.0895389917376281,
                -1.2150856779092323
            ]
        },
        {
            "positions": [
                -0.3395099877969455,
                -1.1030992034538631,
                1.9230254793967414,
                1.2128071104874842,
                -1.1842318812172152,
                -1.113994664760285
            ]
        },
        {
            "positions": [
                -0.39181672251982336,
                -1.062828458409279,
                1.8994973968273416,
                1.296838920679436,
                -1.2789247706968028,
                -1.0129036516113379
            ]
        },
        {
            "positions": [
                -0.4441234572427014,
                -1.0225577133646948,
                1.8759693142579417,
                1.380870730871388,
                -1.3736176601763903,
                -0.9118126384623904
            ]
        },
        {
            "positions": [
                -0.49643019196557947,
                -0.9822869683201109,
                1.8524412316885417,
                1.4649025410633396,
                -1.4683105496559778,
                -0.8107216253134433
            ]
        },
        {
            "positions": [
                -0.5487369266884573,
                -0.9420162232755267,
                1.828913149119142,
                1.548934351255291,
                -1.563003439135565,
                -0.7096306121644962
            ]
        },
        {
            "positions": [
                -0.6010436614113351,
                -0.9017454782309426,
                1.805385066549742,
                1.6329661614472428,
                -1.6576963286151525,
                -0.6085395990155491
            ]
        },
        {
            "positions": [
                -0.6533503961342132,
                -0.8614747331863586,
                1.781856983980342,
                1.7169979716391945,
                -1.75238921809474,
                -0.5074485858666016
            ]
        },
        {
            "positions": [
                -0.705657130857091,
                -0.8212039881417745,
                1.758328901410942,
                1.8010297818311463,
                -1.8470821075743276,
                -0.4063575727176545
            ]
        },
        {
            "positions": [
                -0.7579638655799691,
                -0.7809332430971905,
                1.734800818841542,
                1.885061592023098,
                -1.941774997053915,
                -0.3052665595687074
            ]
        },
        {
            "positions": [
                -0.8102706003028469,
                -0.7406624980526064,
                1.711272736272142,
                1.9690934022150497,
                -2.036467886533502,
                -0.20417554641976032
            ]
        },
        {
            "positions": [
                -0.862577335025725,
                -0.7003917530080221,
                1.687744653702742,
                2.0531252124070014,
                -2.1311607760130897,
                -0.1030845332708128
            ]
        },
        {
            "positions": [
                -0.9148840697486028,
                -0.6601210079634382,
                1.6642165711333423,
                2.137157022598953,
                -2.2258536654926773,
                -0.0019935201218658715
            ]
        }
    ]
}