{
    "goal": {
        "global_pose": {
            "orientation": {
                "w": 0.5084816217422485,
                "x": -0.49083608388900757,
                "y": 0.5182115435600281,
                "z": -0.4816462993621826
            },
            "position": {
                "x": 0.5540239810943604,
                "y": 0.030875300988554955,
                "z": 0.16403168439865112
            }
        },
        "name": "move_to_storage_A"
    },
    "id": "PRM_move_to_storage_A_149",
    "joint_names": [
        "shoulder_pan_joint",
        "shoulder_lift_joint",
        "elbow_joint",
        "wrist_1_joint",
        "wrist_2_joint",
        "wrist_3_joint"
    ],
    "metrics": {
        "cart_traj_len": 0.3526449656538033,
        "distance_elbow_joint": 0.4528018843938999,
        "distance_shoulder_lift_joint": 0.23537405737518613,
        "distance_shoulder_pan_joint": 0.4592737771397943,
        "distance_wrist_1_joint": 0.2513058284653934,
        "distance_wrist_2_joint": 1.1069889540145872,
        "distance_wrist_3_joint": 0.10485194100893835,
        "smoothness": 2.2204460668324854e-16,
        "time": 0.034101234,
        "traj_len": 1.61573402588353,
        "weighted_distance": 2.044161223312794
    },
    "planner": "PRM",
    "start": {
        "state": {
            "elbow_joint": 1.9715463870305268,
            "shoulder_lift_joint": -1.1394903361783484,
            "shoulder_pan_joint": 0.12281147578464417,
            "wrist_1_joint": -0.7804599489681411,
            "wrist_2_joint": 0.12958660307563738,
            "wrist_3_joint": -3.1924946282119055
        }
    },
    "waypoints": [
        {
            "positions": [
                0.12281147578464417,
                -1.1394903361783484,
                1.9715463870305268,
                -0.7804599489681411,
                0.12958660307563738,
                -3.1924946282119055
            ]
        },
        {
            "positions": [
                0.057200936193245,
                -1.1731152015176607,
                2.0362323705153695,
                -0.8163607816060544,
                0.28772788222057843,
                -3.177515779496343
            ]
        },
        {
            "positions": [
                -0.008409603398154178,
                -1.206740066856973,
                2.1009183540002123,
                -0.8522616142439677,
                0.44586916136551946,
                -3.1625369307807802
            ]
        },
        {
            "positions": [
                -0.07402014298955335,
                -1.2403649321962853,
                2.165604337485055,
                -0.8881624468818811,
                0.6040104405104605,
                -3.147558082065218
            ]
        },
        {
            "positions": [
                -0.13963068258095251,
                -1.2739897975355976,
                2.230290320969898,
                -0.9240632795197945,
                0.7621517196554015,
                -3.132579233349655
            ]
        },
        {
            "positions": [
                -0.20524122217235174,
                -1.30761466287491,
                2.294976304454741,
                -0.9599641121577078,
                0.9202929988003425,
                -3.1176003846340925
            ]
        },
        {
            "positions": [
                -0.27085176176375086,
                -1.3412395282142222,
                2.359662287939584,
                -0.9958649447956212,
                1.0784342779452836,
                -3.1026215359185296
            ]
        },
        {
            "positions": [
                -0.3364623013551501,
                -1.3748643935535345,
                2.4243482714244267,
                -1.0317657774335345,
                1.2365755570902246,
                -3.087642687202967
            ]
        }
    ]
}