{
    "goal": {
        "global_pose": {
            "orientation": {
                "w": 0.7031023502349854,
                "x": -0.7110244035720825,
                "y": 0.007748599164187908,
                "z": 0.005598929710686207
            },
            "position": {
                "x": 0.11585023208521307,
                "y": 0.44412534475326537,
                "z": 0.3711530566215515
            }
        },
        "name": "move_to_auspresseinheit_A"
    },
    "id": "PRM_move_to_auspresseinheit_A_56",
    "joint_names": [
        "shoulder_pan_joint",
        "shoulder_lift_joint",
        "elbow_joint",
        "wrist_1_joint",
        "wrist_2_joint",
        "wrist_3_joint"
    ],
    "metrics": {
        "cart_traj_len": 1.1278381516237395,
        "distance_elbow_joint": 0.20439231698909222,
        "distance_shoulder_lift_joint": 0.6892278329476873,
        "distance_shoulder_pan_joint": 1.6159332047361987,
        "distance_wrist_1_joint": 2.012362595660829,
        "distance_wrist_2_joint": 0.7865614531771512,
        "distance_wrist_3_joint": 1.7244880793492179,
        "smoothness": 1.2849141729529838,
        "time": 0.44156021,
        "traj_len": 2.6519738842718974,
        "weighted_distance": 3.644292207054285
    },
    "planner": "PRM",
    "start": {
        "state": {
            "elbow_joint": 2.422574709923281,
            "shoulder_lift_joint": -1.3736533754116391,
            "shoulder_pan_joint": -0.33786336945926293,
            "wrist_1_joint": -1.0288603412921917,
            "wrist_2_joint": 1.2330224858903978,
            "wrist_3_joint": -3.094022268022082
        }
    },
    "waypoints": [
        {
            "positions": [
                -0.33786336945926293,
                -1.3736533754116391,
                2.422574709923281,
                -1.0288603412921917,
                1.2330224858903978,
                -3.094022268022082
            ]
        },
        {
            "positions": [
                -0.3785664087986594,
                -1.4611758934085903,
                2.4352508081038513,
                -1.1332705724186503,
                1.2521735086664623,
                -2.9728230401285733
            ]
        },
        {
            "positions": [
                -0.41926944813805583,
                -1.5486984114055418,
                2.447926906284422,
                -1.237680803545109,
                1.2713245314425268,
                -2.851623812235064
            ]
        },
        {
            "positions": [
                -0.45997248747745223,
                -1.636220929402493,
                2.4606030044649922,
                -1.3420910346715675,
                1.2904755542185913,
                -2.7304245843415553
            ]
        },
        {
            "positions": [
                -0.5006755268168487,
                -1.7237434473994444,
                2.4732791026455625,
                -1.4465012657980263,
                1.3096265769946556,
                -2.6092253564480465
            ]
        },
        {
            "positions": [
                -0.5413785661562451,
                -1.8112659653963956,
                2.4859552008261327,
                -1.5509114969244848,
                1.32877759977072,
                -2.4880261285545373
            ]
        },
        {
            "positions": [
                -0.5820816054956416,
                -1.8987884833933468,
                2.4986312990067034,
                -1.6553217280509434,
                1.3479286225467846,
                -2.366826900661029
            ]
        },
        {
            "positions": [
                -0.622784644835038,
                -1.9863110013902983,
                2.5113073971872737,
                -1.759731959177402,
                1.367079645322849,
                -2.2456276727675197
            ]
        },
        {
            "positions": [
                -0.5017835603477268,
                -1.979350073484023,
                2.5007928853940826,
                -1.6432327793796186,
                1.30776107316424,
                -2.325272534957943
            ]
        },
        {
            "positions": [
                -0.3807824758604156,
                -1.9723891455777476,
                2.490278373600892,
                -1.526733599581835,
                1.248442501005631,
                -2.4049173971483664
            ]
        },
        {
            "positions": [
                -0.2597813913731044,
                -1.9654282176714724,
                2.479763861807701,
                -1.4102344197840515,
                1.189123928847022,
                -2.4845622593387895
            ]
        },
        {
            "positions": [
                -0.13878030688579313,
                -1.9584672897651971,
                2.4692493500145103,
                -1.293735239986268,
                1.1298053566884128,
                -2.5642071215292126
            ]
        },
        {
            "positions": [
                -0.017779222398481953,
                -1.951506361858922,
                2.458734838221319,
                -1.1772360601884846,
                1.0704867845298036,
                -2.6438519837196357
            ]
        },
        {
            "positions": [
                0.10322186208882922,
                -1.9445454339526465,
                2.4482203264281286,
                -1.060736880390701,
                1.0111682123711947,
                -2.7234968459100592
            ]
        },
        {
            "positions": [
                0.2242229465761405,
                -1.9375845060463712,
                2.4377058146349375,
                -0.9442377005929173,
                0.9518496402125856,
                -2.8031417081004824
            ]
        },
        {
            "positions": [
                0.3452240310634518,
                -1.930623578140096,
                2.427191302841747,
                -0.8277385207951338,
                0.8925310680539764,
                -2.8827865702909055
            ]
        },
        {
            "positions": [
                0.46622511555076307,
                -1.9236626502338208,
                2.416676791048556,
                -0.7112393409973501,
                0.8332124958953674,
                -2.9624314324813286
            ]
        },
        {
            "positions": [
                0.5872262000380741,
                -1.9167017223275453,
                2.406162279255365,
                -0.5947401611995669,
                0.7738939237367584,
                -3.042076294671752
            ]
        },
        {
            "positions": [
                0.7082272845253853,
                -1.90974079442127,
                2.395647767462174,
                -0.4782409814017832,
                0.7145753515781492,
                -3.121721156862175
            ]
        }
    ]
}