{
    "goal": {
        "global_pose": {
            "orientation": {
                "w": -0.00223480608172531,
                "x": 0.0024358444001904467,
                "y": 0.7094548369677653,
                "z": -0.704743149386269
            },
            "position": {
                "x": 0.6205249238014221,
                "y": -0.6371506643295288,
                "z": 0.19426114857196808
            }
        },
        "name": "move_to_magneteinheit_B"
    },
    "id": "PRM_move_to_magneteinheit_B_150",
    "joint_names": [
        "shoulder_pan_joint",
        "shoulder_lift_joint",
        "elbow_joint",
        "wrist_1_joint",
        "wrist_2_joint",
        "wrist_3_joint"
    ],
    "metrics": {
        "cart_traj_len": 1.4542708718243105,
        "distance_elbow_joint": 0.7323751483055274,
        "distance_shoulder_lift_joint": 1.2480319393266437,
        "distance_shoulder_pan_joint": 1.619045601106449,
        "distance_wrist_1_joint": 2.614890601849665,
        "distance_wrist_2_joint": 2.952665426760281,
        "distance_wrist_3_joint": 3.140827409752653,
        "smoothness": 1.076579911191508e-16,
        "time": 0.058966912,
        "traj_len": 3.508252574587699,
        "weighted_distance": 4.914981889612257
    },
    "planner": "PRM",
    "start": {
        "state": {
            "elbow_joint": 2.39358713078474,
            "shoulder_lift_joint": -1.908514104345545,
            "shoulder_pan_joint": 0.7066247066606129,
            "wrist_1_joint": -0.4678290933515497,
            "wrist_2_joint": 0.7096259083745334,
            "wrist_3_joint": -3.1358149277392293
        }
    },
    "waypoints": [
        {
            "positions": [
                0.7066247066606129,
                -1.908514104345545,
                2.39358713078474,
                -0.4678290933515497,
                0.7096259083745334,
                -3.1358149277392293
            ]
        },
        {
            "positions": [
                0.6560295316260364,
                -1.8695131062415873,
                2.3707004074001925,
                -0.3861137620437477,
                0.6173551137882747,
                -3.0376640711844587
            ]
        },
        {
            "positions": [
                0.6054343565914599,
                -1.8305121081376297,
                2.3478136840156445,
                -0.30439843073594564,
                0.5250843192020158,
                -2.9395132146296885
            ]
        },
        {
            "positions": [
                0.5548391815568834,
                -1.791511110033672,
                2.324926960631097,
                -0.2226830994281436,
                0.43281352461575706,
                -2.8413623580749183
            ]
        },
        {
            "positions": [
                0.5042440065223068,
                -1.7525101119297144,
                2.302040237246549,
                -0.14096776812034156,
                0.3405427300294983,
                -2.7432115015201477
            ]
        },
        {
            "positions": [
                0.4536488314877303,
                -1.7135091138257568,
                2.2791535138620014,
                -0.0592524368125395,
                0.24827193544323956,
                -2.645060644965377
            ]
        },
        {
            "positions": [
                0.4030536564531538,
                -1.6745081157217991,
                2.256266790477454,
                0.02246289449526251,
                0.1560011408569807,
                -2.546909788410607
            ]
        },
        {
            "positions": [
                0.3524584814185773,
                -1.6355071176178417,
                2.233380067092906,
                0.10417822580306452,
                0.06373034627072194,
                -2.4487589318558367
            ]
        },
        {
            "positions": [
                0.3018633063840007,
                -1.5965061195138839,
                2.2104933437083583,
                0.18589355711086658,
                -0.028540448315536815,
                -2.350608075301066
            ]
        },
        {
            "positions": [
                0.25126813134942416,
                -1.5575051214099265,
                2.1876066203238107,
                0.26760888841866864,
                -0.12081124290179557,
                -2.2524572187462955
            ]
        },
        {
            "positions": [
                0.2006729563148476,
                -1.5185041233059686,
                2.1647198969392627,
                0.3493242197264707,
                -0.21308203748805432,
                -2.1543063621915253
            ]
        },
        {
            "positions": [
                0.15007778128027116,
                -1.4795031252020112,
                2.141833173554715,
                0.43103955103427266,
                -0.3053528320743132,
                -2.056155505636755
            ]
        },
        {
            "positions": [
                0.0994826062456946,
                -1.4405021270980536,
                2.118946450170167,
                0.5127548823420747,
                -0.39762362666057205,
                -1.9580046490819845
            ]
        },
        {
            "positions": [
                0.04888743121111805,
                -1.401501128994096,
                2.0960597267856196,
                0.5944702136498767,
                -0.4898944212468307,
                -1.859853792527214
            ]
        },
        {
            "positions": [
                -0.0017077438234583964,
                -1.3625001308901383,
                2.073173003401072,
                0.6761855449576788,
                -0.5821652158330896,
                -1.7617029359724437
            ]
        },
        {
            "positions": [
                -0.05230291885803495,
                -1.3234991327861807,
                2.050286280016524,
                0.7579008762654809,
                -0.6744360104193482,
                -1.6635520794176732
            ]
        },
        {
            "positions": [
                -0.10289809389261151,
                -1.284498134682223,
                2.0273995566319765,
                0.8396162075732829,
                -0.7667068050056071,
                -1.5654012228629028
            ]
        },
        {
            "positions": [
                -0.15349326892718806,
                -1.2454971365782654,
                2.0045128332474285,
                0.921331538881085,
                -0.8589775995918659,
                -1.4672503663081324
            ]
        },
        {
            "positions": [
                -0.20408844396176462,
                -1.2064961384743078,
                1.981626109862881,
                1.003046870188887,
                -0.9512483941781246,
                -1.369099509753362
            ]
        },
        {
            "positions": [
                -0.25468361899634107,
                -1.1674951403703502,
                1.9587393864783331,
                1.0847622014966891,
                -1.0435191887643835,
                -1.2709486531985916
            ]
        },
        {
            "positions": [
                -0.30527879403091773,
                -1.1284941422663926,
                1.9358526630937853,
                1.1664775328044912,
                -1.1357899833506422,
                -1.1727977966438212
            ]
        },
        {
            "positions": [
                -0.35587396906549407,
                -1.089493144162435,
                1.9129659397092378,
                1.248192864112293,
                -1.2280607779369008,
                -1.0746469400890506
            ]
        },
        {
            "positions": [
                -0.4064691441000706,
                -1.0504921460584775,
                1.89007921632469,
                1.329908195420095,
                -1.32033157252316,
                -0.9764960835342804
            ]
        },
        {
            "positions": [
                -0.4570643191346472,
                -1.0114911479545197,
                1.8671924929401422,
                1.4116235267278971,
                -1.4126023671094186,
                -0.8783452269795102
            ]
        },
        {
            "positions": [
                -0.5076594941692237,
                -0.9724901498505621,
                1.8443057695555944,
                1.4933388580356992,
                -1.5048731616956776,
                -0.7801943704247396
            ]
        },
        {
            "positions": [
                -0.5582546692038003,
                -0.9334891517466045,
                1.8214190461710467,
                1.575054189343501,
                -1.5971439562819363,
                -0.682043513869969
            ]
        },
        {
            "positions": [
                -0.6088498442383768,
                -0.894488153642647,
                1.798532322786499,
                1.6567695206513031,
                -1.689414750868195,
                -0.5838926573151988
            ]
        },
        {
            "positions": [
                -0.6594450192729534,
                -0.8554871555386894,
                1.7756455994019513,
                1.7384848519591052,
                -1.7816855454544536,
                -0.4857418007604286
            ]
        },
        {
            "positions": [
                -0.7100401943075297,
                -0.8164861574347317,
                1.7527588760174035,
                1.8202001832669072,
                -1.8739563400407127,
                -0.387590944205658
            ]
        },
        {
            "positions": [
                -0.7606353693421063,
                -0.7774851593307741,
                1.729872152632856,
                1.9019155145747093,
                -1.9662271346269713,
                -0.28944008765088736
            ]
        },
        {
            "positions": [
                -0.8112305443766828,
                -0.7384841612268165,
                1.706985429248308,
                1.9836308458825114,
                -2.05849792921323,
                -0.19128923109611717
            ]
        },
        {
            "positions": [
                -0.8618257194112594,
                -0.6994831631228589,
                1.6840987058637604,
                2.0653461771903134,
                -2.150768723799489,
                -0.09313837454134699
            ]
        },
        {
            "positions": [
                -0.9124208944458361,
                -0.6604821650189013,
                1.6612119824792126,
                2.1470615084981155,
                -2.2430395183857477,
                0.0050124820134234355
            ]
        }
    ]
}