{
    "goal": {
        "global_pose": {
            "orientation": {
                "w": 0.5084816217422485,
                "x": -0.49083608388900757,
                "y": 0.5182115435600281,
                "z": -0.4816462993621826
            },
            "position": {
                "x": 0.5540239810943604,
                "y": 0.030875300988554955,
                "z": 0.16403168439865112
            }
        },
        "name": "move_to_storage_A"
    },
    "id": "PRM_move_to_storage_A_130",
    "joint_names": [
        "shoulder_pan_joint",
        "shoulder_lift_joint",
        "elbow_joint",
        "wrist_1_joint",
        "wrist_2_joint",
        "wrist_3_joint"
    ],
    "metrics": {
        "cart_traj_len": 0.3523221480257982,
        "distance_elbow_joint": 0.4510951846723783,
        "distance_shoulder_lift_joint": 0.23565390537278574,
        "distance_shoulder_pan_joint": 0.46202663671487876,
        "distance_wrist_1_joint": 0.24614995531216433,
        "distance_wrist_2_joint": 1.0923906049624525,
        "distance_wrist_3_joint": 0.0926891962558245,
        "smoothness": 1.1102230298998083e-15,
        "time": 0.019422856,
        "traj_len": 1.6062395472937667,
        "weighted_distance": 2.025814511764774
    },
    "planner": "PRM",
    "start": {
        "state": {
            "elbow_joint": 1.9715463870305268,
            "shoulder_lift_joint": -1.1394903361783484,
            "shoulder_pan_joint": 0.12281147578464417,
            "wrist_1_joint": -0.7804599489681411,
            "wrist_2_joint": 0.12958660307563738,
            "wrist_3_joint": -3.1924946282119055
        }
    },
    "waypoints": [
        {
            "positions": [
                0.12281147578464417,
                -1.1394903361783484,
                1.9715463870305268,
                -0.7804599489681411,
                0.12958660307563738,
                -3.1924946282119055
            ]
        },
        {
            "positions": [
                0.0568076705396615,
                -1.173155179803032,
                2.0359885562694378,
                -0.8156242282984503,
                0.2856424037845592,
                -3.1792533144610733
            ]
        },
        {
            "positions": [
                -0.009196134705321171,
                -1.2068200234277158,
                2.100430725508349,
                -0.8507885076287595,
                0.44169820449348096,
                -3.1660120007102415
            ]
        },
        {
            "positions": [
                -0.07519993995030384,
                -1.2404848670523994,
                2.16487289474726,
                -0.8859527869590686,
                0.5977540052024027,
                -3.152770686959409
            ]
        },
        {
            "positions": [
                -0.1412037451952865,
                -1.2741497106770832,
                2.2293150639861716,
                -0.9211170662893778,
                0.7538098059113245,
                -3.1395293732085774
            ]
        },
        {
            "positions": [
                -0.20720755044026923,
                -1.3078145543017667,
                2.2937572332250826,
                -0.956281345619687,
                0.9098656066202464,
                -3.126288059457745
            ]
        },
        {
            "positions": [
                -0.27321135568525184,
                -1.3414793979264505,
                2.3581994024639936,
                -0.9914456249499962,
                1.065921407329168,
                -3.1130467457069133
            ]
        },
        {
            "positions": [
                -0.33921516093023457,
                -1.3751442415511341,
                2.422641571702905,
                -1.0266099042803054,
                1.22197720803809,
                -3.099805431956081
            ]
        }
    ]
}