{
    "goal": {
        "global_pose": {
            "orientation": {
                "w": -0.00223480608172531,
                "x": 0.0024358444001904467,
                "y": 0.7094548369677653,
                "z": -0.704743149386269
            },
            "position": {
                "x": 0.6205249238014221,
                "y": -0.6371506643295288,
                "z": 0.19426114857196808
            }
        },
        "name": "move_to_magneteinheit_B"
    },
    "id": "PRM_move_to_magneteinheit_B_58",
    "joint_names": [
        "shoulder_pan_joint",
        "shoulder_lift_joint",
        "elbow_joint",
        "wrist_1_joint",
        "wrist_2_joint",
        "wrist_3_joint"
    ],
    "metrics": {
        "cart_traj_len": 3.858237380175545,
        "distance_elbow_joint": 4.58131128225299,
        "distance_shoulder_lift_joint": 0.6945000785159499,
        "distance_shoulder_pan_joint": 2.208098447636181,
        "distance_wrist_1_joint": 2.759332552487335,
        "distance_wrist_2_joint": 1.6460617394425863,
        "distance_wrist_3_joint": 6.277802647944325,
        "smoothness": 0.46148534961745674,
        "time": 0.631268265,
        "traj_len": 4.262288909527294,
        "weighted_distance": 5.9268968555305515
    },
    "planner": "PRM",
    "start": {
        "state": {
            "elbow_joint": 2.39358713078474,
            "shoulder_lift_joint": -1.908514104345545,
            "shoulder_pan_joint": 0.7066247066606129,
            "wrist_1_joint": -0.4678290933515497,
            "wrist_2_joint": 0.7096259083745334,
            "wrist_3_joint": -3.1358149277392293
        }
    },
    "waypoints": [
        {
            "positions": [
                0.7066247066606129,
                -1.908514104345545,
                2.39358713078474,
                -0.4678290933515497,
                0.7096259083745334,
                -3.1358149277392293
            ]
        },
        {
            "positions": [
                0.6749730491094552,
                -1.9718978609419155,
                2.4428211623371894,
                -0.3692119091504671,
                0.754096035154148,
                -3.0655420710369246
            ]
        },
        {
            "positions": [
                0.6433213915582976,
                -2.035281617538286,
                2.4920551938896383,
                -0.2705947249493844,
                0.7985661619337625,
                -2.9952692143346202
            ]
        },
        {
            "positions": [
                0.6116697340071399,
                -2.098665374134657,
                2.5412892254420876,
                -0.1719775407483018,
                0.8430362887133771,
                -2.924996357632316
            ]
        },
        {
            "positions": [
                0.5800180764559821,
                -2.1620491307310274,
                2.590523256994537,
                -0.07336035654721917,
                0.8875064154929917,
                -2.854723500930011
            ]
        },
        {
            "positions": [
                0.6601007318573333,
                -2.1135922870946597,
                2.5082643149025783,
                -0.09799058118741454,
                0.7781223546104177,
                -2.8153874562524654
            ]
        },
        {
            "positions": [
                0.7401833872586845,
                -2.065135443458292,
                2.4260053728106192,
                -0.1226208058276099,
                0.6687382937278437,
                -2.7760514115749197
            ]
        },
        {
            "positions": [
                0.8202660426600357,
                -2.0166785998219243,
                2.34374643071866,
                -0.14725103046780524,
                0.5593542328452697,
                -2.736715366897374
            ]
        },
        {
            "positions": [
                0.9003486980613868,
                -1.9682217561855566,
                2.2614874886267016,
                -0.17188125510800062,
                0.44997017196269573,
                -2.6973793222198283
            ]
        },
        {
            "positions": [
                0.9439884866566004,
                -1.9677903972816615,
                2.144290452888339,
                -0.2234041306744613,
                0.4244672503615064,
                -2.5495098492920336
            ]
        },
        {
            "positions": [
                0.9876282752518141,
                -1.9673590383777664,
                2.027093417149977,
                -0.2749270062409219,
                0.39896432876031707,
                -2.401640376364239
            ]
        },
        {
            "positions": [
                1.0312680638470275,
                -1.9669276794738713,
                1.9098963814116146,
                -0.32644988180738266,
                0.3734614071591278,
                -2.253770903436444
            ]
        },
        {
            "positions": [
                1.0749078524422413,
                -1.9664963205699761,
                1.7926993456732523,
                -0.3779727573738433,
                0.34795848555793846,
                -2.1059014305086494
            ]
        },
        {
            "positions": [
                1.1185476410374549,
                -1.966064961666081,
                1.67550230993489,
                -0.42949563294030396,
                0.3224555639567491,
                -1.958031957580855
            ]
        },
        {
            "positions": [
                1.1621874296326684,
                -1.965633602762186,
                1.5583052741965275,
                -0.48101850850676464,
                0.2969526423555598,
                -1.8101624846530602
            ]
        },
        {
            "positions": [
                1.205827218227882,
                -1.9652022438582908,
                1.4411082384581655,
                -0.5325413840732253,
                0.27144972075437046,
                -1.6622930117252657
            ]
        },
        {
            "positions": [
                1.2494670068230955,
                -1.9647708849543957,
                1.323911202719803,
                -0.5840642596396859,
                0.24594679915318116,
                -1.514423538797471
            ]
        },
        {
            "positions": [
                1.293106795418309,
                -1.9643395260505008,
                1.2067141669814407,
                -0.6355871352061466,
                0.22044387755199182,
                -1.3665540658696762
            ]
        },
        {
            "positions": [
                1.3367465840135226,
                -1.9639081671466057,
                1.0895171312430785,
                -0.6871100107726074,
                0.19494095595080252,
                -1.2186845929418815
            ]
        },
        {
            "positions": [
                1.3803863726087364,
                -1.9634768082427105,
                0.9723200955047162,
                -0.7386328863390681,
                0.1694380343496132,
                -1.0708151200140867
            ]
        },
        {
            "positions": [
                1.42402616120395,
                -1.9630454493388154,
                0.8551230597663537,
                -0.7901557619055286,
                0.14393511274842385,
                -0.922945647086292
            ]
        },
        {
            "positions": [
                1.4676659497991635,
                -1.9626140904349203,
                0.7379260240279917,
                -0.8416786374719893,
                0.11843219114723458,
                -0.7750761741584977
            ]
        },
        {
            "positions": [
                1.511305738394377,
                -1.9621827315310252,
                0.6207289882896294,
                -0.8932015130384499,
                0.09292926954604525,
                -0.627206701230703
            ]
        },
        {
            "positions": [
                1.5549455269895907,
                -1.96175137262713,
                0.5035319525512671,
                -0.9447243886049106,
                0.06742634794485591,
                -0.47933722830290826
            ]
        },
        {
            "positions": [
                1.5985853155848044,
                -1.961320013723235,
                0.38633491681290466,
                -0.9962472641713713,
                0.04192342634366658,
                -0.3314677553751135
            ]
        },
        {
            "positions": [
                1.6422251041800178,
                -1.9608886548193398,
                0.2691378810745424,
                -1.047770139737832,
                0.01642050474247725,
                -0.1835982824473188
            ]
        },
        {
            "positions": [
                1.6858648927752315,
                -1.9604572959154447,
                0.1519408453361799,
                -1.0992930153042928,
                -0.009082416858712083,
                -0.03572880951952406
            ]
        },
        {
            "positions": [
                1.729504681370445,
                -1.9600259370115496,
                0.034743809597817865,
                -1.1508158908707533,
                -0.034585338459901416,
                0.11214066340827067
            ]
        },
        {
            "positions": [
                1.7731444699656587,
                -1.9595945781076545,
                -0.08245322614054462,
                -1.202338766437214,
                -0.06008826006109069,
                0.2600101363360654
            ]
        },
        {
            "positions": [
                1.8167842585608724,
                -1.9591632192037594,
                -0.1996502618789071,
                -1.2538616420036748,
                -0.08559118166228008,
                0.40787960926386013
            ]
        },
        {
            "positions": [
                1.8604240471560858,
                -1.9587318602998642,
                -0.31684729761726915,
                -1.3053845175701355,
                -0.11109410326346936,
                0.5557490821916549
            ]
        },
        {
            "positions": [
                1.9040638357512996,
                -1.9583005013959691,
                -0.43404433335563164,
                -1.3569073931365963,
                -0.13659702486465874,
                0.7036185551194496
            ]
        },
        {
            "positions": [
                1.9477036243465131,
                -1.957869142492074,
                -0.5512413690939941,
                -1.4084302687030568,
                -0.16209994646584802,
                0.8514880280472443
            ]
        },
        {
            "positions": [
                1.9913434129417267,
                -1.9574377835881789,
                -0.6684384048323562,
                -1.4599531442695175,
                -0.1876028680670374,
                0.9993575009750391
            ]
        },
        {
            "positions": [
                2.03498320153694,
                -1.957006424684284,
                -0.7856354405707182,
                -1.511476019835978,
                -0.21310578966822658,
                1.147226973902833
            ]
        },
        {
            "positions": [
                2.078622990132154,
                -1.9565750657803889,
                -0.9028324763090803,
                -1.5629988954024387,
                -0.23860871126941596,
                1.2950964468306276
            ]
        },
        {
            "positions": [
                2.122262778727367,
                -1.9561437068764937,
                -1.0200295120474427,
                -1.6145217709688993,
                -0.26411163287060524,
                1.4429659197584224
            ]
        },
        {
            "positions": [
                2.165902567322581,
                -1.9557123479725986,
                -1.1372265477858052,
                -1.66604464653536,
                -0.2896145544717946,
                1.590835392686217
            ]
        },
        {
            "positions": [
                2.2095423559177947,
                -1.9552809890687035,
                -1.2544235835241673,
                -1.7175675221018207,
                -0.3151174760729839,
                1.7387048656140118
            ]
        },
        {
            "positions": [
                2.253182144513008,
                -1.9548496301648084,
                -1.3716206192625298,
                -1.7690903976682815,
                -0.3406203976741733,
                1.8865743385418066
            ]
        },
        {
            "positions": [
                2.296821933108222,
                -1.9544182712609133,
                -1.4888176550008922,
                -1.820613273234742,
                -0.36612331927536257,
                2.0344438114696013
            ]
        },
        {
            "positions": [
                2.340461721703435,
                -1.9539869123570182,
                -1.6060146907392543,
                -1.8721361488012027,
                -0.39162624087655196,
                2.182313284397396
            ]
        },
        {
            "positions": [
                2.384101510298649,
                -1.953555553453123,
                -1.7232117264776168,
                -1.9236590243676635,
                -0.4171291624777413,
                2.330182757325191
            ]
        },
        {
            "positions": [
                2.4052861430353887,
                -2.0079567697255483,
                -1.7124079144012154,
                -2.021710393838785,
                -0.40281081065232605,
                2.4554298401602392
            ]
        },
        {
            "positions": [
                2.4264707757721284,
                -2.0623579859979735,
                -1.701604102324814,
                -2.119761763309906,
                -0.3884924588269108,
                2.580676922995287
            ]
        },
        {
            "positions": [
                2.447655408508868,
                -2.1167592022703983,
                -1.6908002902484125,
                -2.2178131327810275,
                -0.37417410700149556,
                2.705924005830335
            ]
        },
        {
            "positions": [
                2.468840041245608,
                -2.1711604185428235,
                -1.6799964781720111,
                -2.3158645022521487,
                -0.3598557551760803,
                2.831171088665383
            ]
        },
        {
            "positions": [
                2.5651749675665703,
                -2.178593723424255,
                -1.6662840160392955,
                -2.3770443372411867,
                -0.41299187870194803,
                2.986579404435239
            ]
        },
        {
            "positions": [
                2.6615098938875326,
                -2.186027028305686,
                -1.65257155390658,
                -2.4382241722302247,
                -0.46612800222781575,
                3.1419877202050954
            ]
        }
    ]
}