{
    "goal": {
        "global_pose": {
            "orientation": {
                "w": 0.5084816217422485,
                "x": -0.49083608388900757,
                "y": 0.5182115435600281,
                "z": -0.4816462993621826
            },
            "position": {
                "x": 0.5540239810943604,
                "y": 0.030875300988554955,
                "z": 0.16403168439865112
            }
        },
        "name": "move_to_storage_A"
    },
    "id": "PRM_move_to_storage_A_127",
    "joint_names": [
        "shoulder_pan_joint",
        "shoulder_lift_joint",
        "elbow_joint",
        "wrist_1_joint",
        "wrist_2_joint",
        "wrist_3_joint"
    ],
    "metrics": {
        "cart_traj_len": 0.3524626180819735,
        "distance_elbow_joint": 0.4527659499893404,
        "distance_shoulder_lift_joint": 0.23390712169606753,
        "distance_shoulder_pan_joint": 0.45938548820571784,
        "distance_wrist_1_joint": 0.2549810344569704,
        "distance_wrist_2_joint": 1.104259704726403,
        "distance_wrist_3_joint": 0.09540809856201982,
        "smoothness": 4.440892098500626e-16,
        "time": 0.03394938,
        "traj_len": 1.6126708894366881,
        "weighted_distance": 2.0373424684976094
    },
    "planner": "PRM",
    "start": {
        "state": {
            "elbow_joint": 1.9715463870305268,
            "shoulder_lift_joint": -1.1394903361783484,
            "shoulder_pan_joint": 0.12281147578464417,
            "wrist_1_joint": -0.7804599489681411,
            "wrist_2_joint": 0.12958660307563738,
            "wrist_3_joint": -3.1924946282119055
        }
    },
    "waypoints": [
        {
            "positions": [
                0.12281147578464417,
                -1.1394903361783484,
                1.9715463870305268,
                -0.7804599489681411,
                0.12958660307563738,
                -3.1924946282119055
            ]
        },
        {
            "positions": [
                0.057184977469541626,
                -1.1729056392777866,
                2.0362272370290038,
                -0.8168858110334226,
                0.2873379894651235,
                -3.1788648998459026
            ]
        },
        {
            "positions": [
                -0.00844152084556092,
                -1.2063209423772248,
                2.100908087027481,
                -0.853311673098704,
                0.4450893758546096,
                -3.1652351714799
            ]
        },
        {
            "positions": [
                -0.07406801916066345,
                -1.239736245476663,
                2.1655889370259582,
                -0.8897375351639856,
                0.6028407622440958,
                -3.151605443113897
            ]
        },
        {
            "positions": [
                -0.139694517475766,
                -1.2731515485761014,
                2.2302697870244357,
                -0.926163397229267,
                0.7605921486335819,
                -3.137975714747894
            ]
        },
        {
            "positions": [
                -0.2053210157908686,
                -1.3065668516755395,
                2.2949506370229127,
                -0.9625892592945485,
                0.9183435350230681,
                -3.124345986381891
            ]
        },
        {
            "positions": [
                -0.27094751410597107,
                -1.3399821547749777,
                2.3596314870213897,
                -0.99901512135983,
                1.0760949214125541,
                -3.1107162580158887
            ]
        },
        {
            "positions": [
                -0.33657401242107365,
                -1.373397457874416,
                2.424312337019867,
                -1.0354409834251115,
                1.2338463078020403,
                -3.0970865296498857
            ]
        }
    ]
}