{
    "goal": {
        "global_pose": {
            "orientation": {
                "w": -0.00223480608172531,
                "x": 0.0024358444001904467,
                "y": 0.7094548369677653,
                "z": -0.704743149386269
            },
            "position": {
                "x": 0.6205249238014221,
                "y": -0.6371506643295288,
                "z": 0.19426114857196808
            }
        },
        "name": "move_to_magneteinheit_B"
    },
    "id": "PRM_move_to_magneteinheit_B_74",
    "joint_names": [
        "shoulder_pan_joint",
        "shoulder_lift_joint",
        "elbow_joint",
        "wrist_1_joint",
        "wrist_2_joint",
        "wrist_3_joint"
    ],
    "metrics": {
        "cart_traj_len": 3.4929921564628033,
        "distance_elbow_joint": 5.025707330640543,
        "distance_shoulder_lift_joint": 1.3329646661051822,
        "distance_shoulder_pan_joint": 2.160889119206013,
        "distance_wrist_1_joint": 3.5546768154381816,
        "distance_wrist_2_joint": 1.1917231800648902,
        "distance_wrist_3_joint": 6.278516898237861,
        "smoothness": 0.23412553426573537,
        "time": 0.354685044,
        "traj_len": 4.4209137075600875,
        "weighted_distance": 6.070248084030132
    },
    "planner": "PRM",
    "start": {
        "state": {
            "elbow_joint": 2.39358713078474,
            "shoulder_lift_joint": -1.908514104345545,
            "shoulder_pan_joint": 0.7066247066606129,
            "wrist_1_joint": -0.4678290933515497,
            "wrist_2_joint": 0.7096259083745334,
            "wrist_3_joint": -3.1358149277392293
        }
    },
    "waypoints": [
        {
            "positions": [
                0.7066247066606129,
                -1.908514104345545,
                2.39358713078474,
                -0.4678290933515497,
                0.7096259083745334,
                -3.1358149277392293
            ]
        },
        {
            "positions": [
                0.7598290731663022,
                -1.9778953700827293,
                2.437415692582668,
                -0.4872167491441153,
                0.6454332560431989,
                -3.0067563295834345
            ]
        },
        {
            "positions": [
                0.8130334396719914,
                -2.0472766358199137,
                2.481244254380596,
                -0.5066044049366809,
                0.5812406037118643,
                -2.87769773142764
            ]
        },
        {
            "positions": [
                0.8662378061776805,
                -2.116657901557098,
                2.525072816178524,
                -0.5259920607292465,
                0.5170479513805297,
                -2.7486391332718454
            ]
        },
        {
            "positions": [
                0.9194421726833698,
                -2.186039167294282,
                2.568901377976452,
                -0.545379716521812,
                0.45285529904919514,
                -2.619580535116051
            ]
        },
        {
            "positions": [
                0.9726465391890591,
                -2.2554204330314667,
                2.61272993977438,
                -0.5647673723143777,
                0.3886626467178605,
                -2.4905219369602563
            ]
        },
        {
            "positions": [
                1.0258509056947482,
                -2.324801698768651,
                2.6565585015723077,
                -0.5841550281069433,
                0.32446999438652596,
                -2.361463338804462
            ]
        },
        {
            "positions": [
                1.0790552722004376,
                -2.394182964505835,
                2.700387063370236,
                -0.6035426838995088,
                0.2602773420551914,
                -2.232404740648667
            ]
        },
        {
            "positions": [
                1.1322596387061266,
                -2.463564230243019,
                2.7442156251681635,
                -0.6229303396920745,
                0.19608468972385684,
                -2.1033461424928728
            ]
        },
        {
            "positions": [
                1.185464005211816,
                -2.532945495980204,
                2.7880441869660917,
                -0.6423179954846401,
                0.1318920373925222,
                -1.974287544337078
            ]
        },
        {
            "positions": [
                1.2369337236577653,
                -2.5153300130565803,
                2.6466323142953603,
                -0.6159070036495828,
                0.12151236450948288,
                -1.8322925485445847
            ]
        },
        {
            "positions": [
                1.2884034421037147,
                -2.4977145301329564,
                2.5052204416246284,
                -0.5894960118145257,
                0.11113269162644358,
                -1.6902975527520914
            ]
        },
        {
            "positions": [
                1.3398731605496643,
                -2.480099047209333,
                2.363808568953897,
                -0.5630850199794685,
                0.10075301874340427,
                -1.548302556959598
            ]
        },
        {
            "positions": [
                1.3913428789956137,
                -2.4624835642857095,
                2.222396696283165,
                -0.5366740281444112,
                0.09037334586036497,
                -1.4063075611671048
            ]
        },
        {
            "positions": [
                1.442812597441563,
                -2.4448680813620856,
                2.0809848236124338,
                -0.5102630363093541,
                0.07999367297732565,
                -1.2643125653746115
            ]
        },
        {
            "positions": [
                1.4942823158875127,
                -2.427252598438462,
                1.9395729509417021,
                -0.48385204447429686,
                0.06961400009428634,
                -1.122317569582118
            ]
        },
        {
            "positions": [
                1.545752034333462,
                -2.4096371155148386,
                1.7981610782709705,
                -0.4574410526392396,
                0.05923432721124704,
                -0.9803225737896246
            ]
        },
        {
            "positions": [
                1.5972217527794115,
                -2.392021632591215,
                1.656749205600239,
                -0.4310300608041825,
                0.04885465432820772,
                -0.8383275779971313
            ]
        },
        {
            "positions": [
                1.6486914712253609,
                -2.3744061496675912,
                1.5153373329295075,
                -0.40461906896912525,
                0.03847498144516842,
                -0.696332582204638
            ]
        },
        {
            "positions": [
                1.7001611896713102,
                -2.3567906667439678,
                1.3739254602587758,
                -0.37820807713406807,
                0.028095308562129107,
                -0.5543375864121447
            ]
        },
        {
            "positions": [
                1.7516309081172599,
                -2.3391751838203443,
                1.2325135875880444,
                -0.3517970852990109,
                0.017715635679089806,
                -0.4123425906196514
            ]
        },
        {
            "positions": [
                1.8031006265632095,
                -2.3215597008967204,
                1.0911017149173126,
                -0.32538609346395364,
                0.007335962796050477,
                -0.27034759482715787
            ]
        },
        {
            "positions": [
                1.8545703450091588,
                -2.303944217973097,
                0.9496898422465809,
                -0.2989751016288964,
                -0.003043710086988838,
                -0.12835259903466456
            ]
        },
        {
            "positions": [
                1.9060400634551082,
                -2.2863287350494734,
                0.8082779695758495,
                -0.2725641097938392,
                -0.013423382970028125,
                0.013642396757828745
            ]
        },
        {
            "positions": [
                1.9575097819010576,
                -2.26871325212585,
                0.6668660969051179,
                -0.24615311795878203,
                -0.02380305585306744,
                0.15563739255032205
            ]
        },
        {
            "positions": [
                2.008979500347007,
                -2.251097769202226,
                0.5254542242343865,
                -0.21974212612372485,
                -0.034182728736106754,
                0.29763238834281536
            ]
        },
        {
            "positions": [
                2.0604492187929564,
                -2.2334822862786026,
                0.3840423515636546,
                -0.19333113428866766,
                -0.04456240161914604,
                0.43962738413530866
            ]
        },
        {
            "positions": [
                2.111918937238906,
                -2.215866803354979,
                0.24263047889292322,
                -0.16692014245361042,
                -0.054942074502185356,
                0.581622379927802
            ]
        },
        {
            "positions": [
                2.163388655684855,
                -2.198251320431355,
                0.10121860622219181,
                -0.1405091506185533,
                -0.06532174738522467,
                0.7236173757202953
            ]
        },
        {
            "positions": [
                2.214858374130805,
                -2.1806358375077317,
                -0.040193266448540044,
                -0.11409815878349605,
                -0.07570142026826399,
                0.8656123715127886
            ]
        },
        {
            "positions": [
                2.266328092576754,
                -2.1630203545841082,
                -0.18160513911927145,
                -0.08768716694843881,
                -0.08608109315130327,
                1.0076073673052819
            ]
        },
        {
            "positions": [
                2.3177978110227038,
                -2.1454048716604843,
                -0.32301701179000286,
                -0.06127617511338168,
                -0.09646076603434259,
                1.1496023630977752
            ]
        },
        {
            "positions": [
                2.369267529468653,
                -2.127789388736861,
                -0.46442888446073516,
                -0.03486518327832433,
                -0.10684043891738193,
                1.291597358890269
            ]
        },
        {
            "positions": [
                2.4207372479146025,
                -2.1101739058132374,
                -0.6058407571314666,
                -0.0084541914432672,
                -0.11722011180042125,
                1.4335923546827622
            ]
        },
        {
            "positions": [
                2.4722069663605524,
                -2.0925584228896135,
                -0.747252629802198,
                0.01795680039179004,
                -0.12759978468346056,
                1.5755873504752556
            ]
        },
        {
            "positions": [
                2.5236766848065013,
                -2.07494293996599,
                -0.8886645024729298,
                0.04436779222684728,
                -0.13797945756649987,
                1.7175823462677489
            ]
        },
        {
            "positions": [
                2.575146403252451,
                -2.0573274570423665,
                -1.0300763751436612,
                0.07077878406190441,
                -0.14835913044953913,
                1.8595773420602422
            ]
        },
        {
            "positions": [
                2.6266161216984005,
                -2.039711974118743,
                -1.1714882478143926,
                0.09718977589696165,
                -0.15873880333257845,
                2.0015723378527355
            ]
        },
        {
            "positions": [
                2.67808584014435,
                -2.022096491195119,
                -1.312900120485124,
                0.12360076773201878,
                -0.16911847621561776,
                2.143567333645229
            ]
        },
        {
            "positions": [
                2.7295555585902993,
                -2.0044810082714957,
                -1.454311993155856,
                0.150011759567076,
                -0.17949814909865708,
                2.285562329437722
            ]
        },
        {
            "positions": [
                2.7353122024100456,
                -2.0254079595562793,
                -1.4985011656518337,
                -0.02820330449090855,
                -0.19051661785473142,
                2.363460023562606
            ]
        },
        {
            "positions": [
                2.7410688462297923,
                -2.0463349108410633,
                -1.5426903381478114,
                -0.2064183685488931,
                -0.2015350866108058,
                2.44135771768749
            ]
        },
        {
            "positions": [
                2.746825490049539,
                -2.067261862125847,
                -1.5868795106437892,
                -0.38463343260687766,
                -0.21255355536688014,
                2.519255411812374
            ]
        },
        {
            "positions": [
                2.7525821338692853,
                -2.0881888134106306,
                -1.631068683139767,
                -0.5628484966648621,
                -0.2235720241229545,
                2.5971531059372572
            ]
        },
        {
            "positions": [
                2.7583387776890316,
                -2.1091157646954146,
                -1.6752578556357447,
                -0.7410635607228468,
                -0.23459049287902886,
                2.675050800062141
            ]
        },
        {
            "positions": [
                2.7640954215087783,
                -2.1300427159801982,
                -1.7194470281317225,
                -0.9192786247808313,
                -0.2456089616351032,
                2.752948494187025
            ]
        },
        {
            "positions": [
                2.754381755154163,
                -2.146068824443371,
                -1.7295164183822036,
                -1.1591459234703279,
                -0.27288666037702053,
                2.827618248046866
            ]
        },
        {
            "positions": [
                2.7446680887995485,
                -2.1620949329065438,
                -1.7395858086326845,
                -1.3990132221598244,
                -0.3001643591189378,
                2.9022880019067068
            ]
        },
        {
            "positions": [
                2.7349544224449334,
                -2.1781210413697165,
                -1.7496551988831657,
                -1.6388805208493211,
                -0.3274420578608551,
                2.9769577557665476
            ]
        },
        {
            "positions": [
                2.7163850711214326,
                -2.1797282297856153,
                -1.726267476730683,
                -1.8386219903085657,
                -0.36610586131823064,
                3.0183938094495693
            ]
        },
        {
            "positions": [
                2.6978157197979318,
                -2.1813354182015137,
                -1.7028797545782,
                -2.0383634597678104,
                -0.4047696647756061,
                3.059829863132591
            ]
        },
        {
            "positions": [
                2.6792463684744314,
                -2.182942606617412,
                -1.679492032425717,
                -2.238104929227055,
                -0.4434334682329816,
                3.101265916815612
            ]
        },
        {
            "positions": [
                2.6606770171509306,
                -2.184549795033311,
                -1.6561043102732342,
                -2.4378463986862995,
                -0.4820972716903571,
                3.1427019704986336
            ]
        }
    ]
}