{
    "goal": {
        "global_pose": {
            "orientation": {
                "w": 0.7031023502349854,
                "x": -0.7110244035720825,
                "y": 0.007748599164187908,
                "z": 0.005598929710686207
            },
            "position": {
                "x": 0.11585023208521307,
                "y": 0.44412534475326537,
                "z": 0.3711530566215515
            }
        },
        "name": "move_to_auspresseinheit_A"
    },
    "id": "PRM_move_to_auspresseinheit_A_92",
    "joint_names": [
        "shoulder_pan_joint",
        "shoulder_lift_joint",
        "elbow_joint",
        "wrist_1_joint",
        "wrist_2_joint",
        "wrist_3_joint"
    ],
    "metrics": {
        "cart_traj_len": 1.5523081334000612,
        "distance_elbow_joint": 0.3378806830151575,
        "distance_shoulder_lift_joint": 0.5353939778827002,
        "distance_shoulder_pan_joint": 2.0540815921873636,
        "distance_wrist_1_joint": 2.5020433340895325,
        "distance_wrist_2_joint": 0.5344395915791476,
        "distance_wrist_3_joint": 0.9985215499986229,
        "smoothness": 1.2790736763741501,
        "time": 0.298259167,
        "traj_len": 2.6386285696839797,
        "weighted_distance": 3.4635078683927447
    },
    "planner": "PRM",
    "start": {
        "state": {
            "elbow_joint": 2.422574709923281,
            "shoulder_lift_joint": -1.3736533754116391,
            "shoulder_pan_joint": -0.33786336945926293,
            "wrist_1_joint": -1.0288603412921917,
            "wrist_2_joint": 1.2330224858903978,
            "wrist_3_joint": -3.094022268022082
        }
    },
    "waypoints": [
        {
            "positions": [
                -0.33786336945926293,
                -1.3736533754116391,
                2.422574709923281,
                -1.0288603412921917,
                1.2330224858903978,
                -3.094022268022082
            ]
        },
        {
            "positions": [
                -0.41021628625687045,
                -1.424477511197692,
                2.3965131917291966,
                -1.1685714426246683,
                1.2299224471924606,
                -3.024756611772469
            ]
        },
        {
            "positions": [
                -0.4825692030544779,
                -1.4753016469837448,
                2.3704516735351118,
                -1.308282543957145,
                1.2268224084945234,
                -2.9554909555228557
            ]
        },
        {
            "positions": [
                -0.5549221198520855,
                -1.5261257827697976,
                2.3443901553410273,
                -1.4479936452896216,
                1.2237223697965862,
                -2.8862252992732427
            ]
        },
        {
            "positions": [
                -0.627275036649693,
                -1.5769499185558504,
                2.3183286371469425,
                -1.5877047466220984,
                1.220622331098649,
                -2.8169596430236297
            ]
        },
        {
            "positions": [
                -0.6996279534473004,
                -1.6277740543419035,
                2.292267118952858,
                -1.727415847954575,
                1.2175222924007119,
                -2.747693986774016
            ]
        },
        {
            "positions": [
                -0.771980870244908,
                -1.6785981901279563,
                2.266205600758773,
                -1.8671269492870515,
                1.2144222537027747,
                -2.678428330524403
            ]
        },
        {
            "positions": [
                -0.8443337870425156,
                -1.7294223259140091,
                2.2401440825646888,
                -2.0068380506195282,
                1.2113222150048375,
                -2.60916267427479
            ]
        },
        {
            "positions": [
                -0.7153661891588396,
                -1.7443910781957033,
                2.2530982538694024,
                -1.8798325818893453,
                1.1685939382803718,
                -2.6519678372957345
            ]
        },
        {
            "positions": [
                -0.5863985912751638,
                -1.7593598304773974,
                2.2660524251741165,
                -1.7528271131591624,
                1.1258656615559062,
                -2.6947730003166788
            ]
        },
        {
            "positions": [
                -0.45743099339148785,
                -1.7743285827590918,
                2.27900659647883,
                -1.6258216444289793,
                1.0831373848314407,
                -2.737578163337623
            ]
        },
        {
            "positions": [
                -0.328463395507812,
                -1.789297335040786,
                2.291960767783544,
                -1.4988161756987963,
                1.040409108106975,
                -2.7803833263585673
            ]
        },
        {
            "positions": [
                -0.19949579762413594,
                -1.80426608732248,
                2.3049149390882575,
                -1.3718107069686132,
                0.9976808313825094,
                -2.8231884893795116
            ]
        },
        {
            "positions": [
                -0.0705281997404601,
                -1.8192348396041742,
                2.317869110392971,
                -1.2448052382384303,
                0.9549525546580439,
                -2.865993652400456
            ]
        },
        {
            "positions": [
                0.05843939814321586,
                -1.8342035918858683,
                2.3308232816976853,
                -1.117799769508247,
                0.9122242779335783,
                -2.9087988154213997
            ]
        },
        {
            "positions": [
                0.1874069960268916,
                -1.8491723441675625,
                2.343777453002399,
                -0.9907943007780644,
                0.8694960012091126,
                -2.951603978442344
            ]
        },
        {
            "positions": [
                0.31637459391056777,
                -1.8641410964492566,
                2.3567316243071126,
                -0.8637888320478813,
                0.826767724484647,
                -2.9944091414632883
            ]
        },
        {
            "positions": [
                0.4453421917942437,
                -1.879109848730951,
                2.3696857956118267,
                -0.7367833633176981,
                0.7840394477601814,
                -3.0372143044842326
            ]
        },
        {
            "positions": [
                0.5743097896779195,
                -1.8940786010126451,
                2.3826399669165403,
                -0.6097778945875154,
                0.7413111710357159,
                -3.080019467505177
            ]
        },
        {
            "positions": [
                0.7032773875615955,
                -1.9090473532943393,
                2.395594138221254,
                -0.48277242585733215,
                0.6985828943112502,
                -3.122824630526121
            ]
        }
    ]
}