{
    "goal": {
        "global_pose": {
            "orientation": {
                "w": -0.00223480608172531,
                "x": 0.0024358444001904467,
                "y": 0.7094548369677653,
                "z": -0.704743149386269
            },
            "position": {
                "x": 0.6205249238014221,
                "y": -0.6371506643295288,
                "z": 0.19426114857196808
            }
        },
        "name": "move_to_magneteinheit_B"
    },
    "id": "PRM_move_to_magneteinheit_B_49",
    "joint_names": [
        "shoulder_pan_joint",
        "shoulder_lift_joint",
        "elbow_joint",
        "wrist_1_joint",
        "wrist_2_joint",
        "wrist_3_joint"
    ],
    "metrics": {
        "cart_traj_len": 4.049211427480237,
        "distance_elbow_joint": 4.301322878315979,
        "distance_shoulder_lift_joint": 1.1265586421016747,
        "distance_shoulder_pan_joint": 2.506384821810443,
        "distance_wrist_1_joint": 2.6517635702669233,
        "distance_wrist_2_joint": 1.2120838052607572,
        "distance_wrist_3_joint": 2.172765464745474,
        "smoothness": 0.47172097985180894,
        "time": 0.385589815,
        "traj_len": 3.7377639281395574,
        "weighted_distance": 4.709592072305188
    },
    "planner": "PRM",
    "start": {
        "state": {
            "elbow_joint": 2.39358713078474,
            "shoulder_lift_joint": -1.908514104345545,
            "shoulder_pan_joint": 0.7066247066606129,
            "wrist_1_joint": -0.4678290933515497,
            "wrist_2_joint": 0.7096259083745334,
            "wrist_3_joint": -3.1358149277392293
        }
    },
    "waypoints": [
        {
            "positions": [
                0.7066247066606129,
                -1.908514104345545,
                2.39358713078474,
                -0.4678290933515497,
                0.7096259083745334,
                -3.1358149277392293
            ]
        },
        {
            "positions": [
                0.6014584023780053,
                -1.904124820263958,
                2.3726144617766076,
                -0.42651935517745687,
                0.7022562117608245,
                -3.0887144124695225
            ]
        },
        {
            "positions": [
                0.49629209809539765,
                -1.8997355361823713,
                2.351641792768475,
                -0.3852096170033641,
                0.6948865151471156,
                -3.0416138971998157
            ]
        },
        {
            "positions": [
                0.5413206391351854,
                -1.8535131085110088,
                2.197527116583449,
                -0.3717263605151734,
                0.696707323986388,
                -2.931725300872443
            ]
        },
        {
            "positions": [
                0.586349180174973,
                -1.807290680839646,
                2.043412440398423,
                -0.3582431040269826,
                0.6985281328256603,
                -2.82183670454507
            ]
        },
        {
            "positions": [
                0.6313777212147607,
                -1.7610682531682835,
                1.8892977642133972,
                -0.3447598475387919,
                0.7003489416649327,
                -2.7119481082176975
            ]
        },
        {
            "positions": [
                0.6764062622545484,
                -1.714845825496921,
                1.7351830880283712,
                -0.33127659105060114,
                0.7021697505042049,
                -2.602059511890325
            ]
        },
        {
            "positions": [
                0.7214348032943361,
                -1.6686233978255582,
                1.5810684118433451,
                -0.31779333456241043,
                0.7039905593434773,
                -2.492170915562952
            ]
        },
        {
            "positions": [
                0.7664633443341237,
                -1.6224009701541957,
                1.4269537356583193,
                -0.3043100780742197,
                0.7058113681827496,
                -2.3822823192355793
            ]
        },
        {
            "positions": [
                0.8114918853739113,
                -1.5761785424828332,
                1.272839059473293,
                -0.29082682158602896,
                0.707632177022022,
                -2.2723937229082067
            ]
        },
        {
            "positions": [
                0.856520426413699,
                -1.5299561148114704,
                1.1187243832882672,
                -0.2773435650978382,
                0.7094529858612942,
                -2.162505126580834
            ]
        },
        {
            "positions": [
                0.9015489674534867,
                -1.483733687140108,
                0.9646097071032411,
                -0.2638603086096475,
                0.7112737947005666,
                -2.052616530253461
            ]
        },
        {
            "positions": [
                0.9845632939265856,
                -1.5012988913729426,
                0.827354237934633,
                -0.3595649885996999,
                0.6746284312628826,
                -2.0664218971443606
            ]
        },
        {
            "positions": [
                1.0675776203996845,
                -1.5188640956057773,
                0.6900987687660249,
                -0.45526966858975226,
                0.6379830678251986,
                -2.0802272640352597
            ]
        },
        {
            "positions": [
                1.1505919468727834,
                -1.536429299838612,
                0.5528432995974171,
                -0.5509743485798047,
                0.6013377043875145,
                -2.0940326309261588
            ]
        },
        {
            "positions": [
                1.2336062733458824,
                -1.5539945040714467,
                0.41558783042880887,
                -0.6466790285698569,
                0.5646923409498306,
                -2.1078379978170583
            ]
        },
        {
            "positions": [
                1.3166205998189815,
                -1.5715597083042812,
                0.2783323612602009,
                -0.7423837085599093,
                0.5280469775121466,
                -2.121643364707958
            ]
        },
        {
            "positions": [
                1.3996349262920802,
                -1.5891249125371159,
                0.1410768920915929,
                -0.8380883885499617,
                0.4914016140744626,
                -2.135448731598857
            ]
        },
        {
            "positions": [
                1.4826492527651793,
                -1.6066901167699505,
                0.0038214229229848184,
                -0.933793068540014,
                0.45475625063677855,
                -2.149254098489756
            ]
        },
        {
            "positions": [
                1.5656635792382783,
                -1.6242553210027852,
                -0.13343404624562338,
                -1.0294977485300665,
                0.41811088719909456,
                -2.1630594653806554
            ]
        },
        {
            "positions": [
                1.6486779057113772,
                -1.64182052523562,
                -0.27068951541423125,
                -1.1252024285201188,
                0.3814655237614105,
                -2.176864832271555
            ]
        },
        {
            "positions": [
                1.731692232184476,
                -1.6593857294684546,
                -0.40794498458283934,
                -1.220907108510171,
                0.34482016032372653,
                -2.190670199162454
            ]
        },
        {
            "positions": [
                1.814706558657575,
                -1.6769509337012893,
                -0.5452004537514474,
                -1.3166117885002238,
                0.3081747968860425,
                -2.204475566053353
            ]
        },
        {
            "positions": [
                1.897720885130674,
                -1.694516137934124,
                -0.6824559229200553,
                -1.412316468490276,
                0.2715294334483585,
                -2.2182809329442525
            ]
        },
        {
            "positions": [
                1.9807352116037729,
                -1.7120813421669587,
                -0.8197113920886636,
                -1.5080211484803283,
                0.23488407001067452,
                -2.232086299835152
            ]
        },
        {
            "positions": [
                2.0637495380768716,
                -1.7296465463997932,
                -0.9569668612572715,
                -1.6037258284703806,
                0.19823870657299048,
                -2.245891666726051
            ]
        },
        {
            "positions": [
                2.1467638645499707,
                -1.7472117506326281,
                -1.0942223304258798,
                -1.6994305084604329,
                0.1615933431353065,
                -2.25969703361695
            ]
        },
        {
            "positions": [
                2.22977819102307,
                -1.7647769548654626,
                -1.2314777995944879,
                -1.7951351884504856,
                0.1249479796976225,
                -2.2735024005078497
            ]
        },
        {
            "positions": [
                2.3127925174961685,
                -1.7823421590982973,
                -1.3687332687630955,
                -1.8908398684405379,
                0.08830261625993852,
                -2.287307767398749
            ]
        },
        {
            "positions": [
                2.3958068439692677,
                -1.799907363331132,
                -1.5059887379317036,
                -1.9865445484305901,
                0.05165725282225442,
                -2.3011131342896483
            ]
        },
        {
            "positions": [
                2.478821170442367,
                -1.8174725675639667,
                -1.6432442071003117,
                -2.0822492284206424,
                0.015011889384570432,
                -2.3149185011805473
            ]
        },
        {
            "positions": [
                2.5618354969154655,
                -1.8350377717968014,
                -1.7804996762689198,
                -2.1779539084106947,
                -0.021633474053113555,
                -2.328723868071447
            ]
        },
        {
            "positions": [
                2.594801083689892,
                -1.875372177359731,
                -1.759334259374198,
                -2.257723527672511,
                -0.03992282752676145,
                -2.47391263425214
            ]
        },
        {
            "positions": [
                2.6277666704643186,
                -1.9157065829226603,
                -1.7381688424794763,
                -2.3374931469343276,
                -0.05821218100040935,
                -2.6191014004328337
            ]
        },
        {
            "positions": [
                2.660732257238745,
                -1.9560409884855898,
                -1.7170034255847548,
                -2.417262766196144,
                -0.07650153447405725,
                -2.764290166613527
            ]
        },
        {
            "positions": [
                2.6936978440131716,
                -1.9963753940485192,
                -1.695838008690033,
                -2.4970323854579606,
                -0.09479088794770514,
                -2.9094789327942205
            ]
        },
        {
            "positions": [
                2.726663430787598,
                -2.0367097996114487,
                -1.6746725917953114,
                -2.576802004719777,
                -0.11308024142135303,
                -3.0546676989749137
            ]
        },
        {
            "positions": [
                2.7047698039365886,
                -2.086310503753081,
                -1.6675362628657404,
                -2.531850974914813,
                -0.23194794020734266,
                -3.0838396651543314
            ]
        },
        {
            "positions": [
                2.68287617708558,
                -2.135911207894713,
                -1.6603999339361692,
                -2.4868999451098492,
                -0.3508156389933323,
                -3.1130116313337495
            ]
        },
        {
            "positions": [
                2.6609825502345705,
                -2.1855119120363455,
                -1.6532636050065983,
                -2.4419489153048852,
                -0.4696833377793219,
                -3.142183597513167
            ]
        }
    ]
}