{
    "goal": {
        "global_pose": {
            "orientation": {
                "w": 0.7047431468963623,
                "x": -0.7094548344612122,
                "y": 0.0024358443915843964,
                "z": -0.0022348060738295317
            },
            "position": {
                "x": 0.6094750761985779,
                "y": 0.3671506643295288,
                "z": 0.19426114857196808
            }
        },
        "name": "move_to_magneteinheit_A"
    },
    "id": "PRM_move_to_magneteinheit_A_56",
    "joint_names": [
        "shoulder_pan_joint",
        "shoulder_lift_joint",
        "elbow_joint",
        "wrist_1_joint",
        "wrist_2_joint",
        "wrist_3_joint"
    ],
    "metrics": {
        "cart_traj_len": 2.071095569080799,
        "distance_elbow_joint": 3.90332222884717,
        "distance_shoulder_lift_joint": 1.068981143173238,
        "distance_shoulder_pan_joint": 1.2423600406087532,
        "distance_wrist_1_joint": 1.26071444499451,
        "distance_wrist_2_joint": 1.4350638386690033,
        "distance_wrist_3_joint": 2.0255599421905974,
        "smoothness": 4.900294733627565e-16,
        "time": 0.052472076,
        "traj_len": 3.3069626001034953,
        "weighted_distance": 4.205104018514641
    },
    "planner": "PRM",
    "start": {
        "state": {
            "elbow_joint": -1.919643507792019,
            "shoulder_lift_joint": -0.07675430207160344,
            "shoulder_pan_joint": -1.1188671864651873,
            "wrist_1_joint": 0.42560062535961957,
            "wrist_2_joint": 1.5706038300724876,
            "wrist_3_joint": 1.1188968870953055
        }
    },
    "waypoints": [
        {
            "positions": [
                -1.1188671864651873,
                -0.07675430207160344,
                -1.919643507792019,
                0.42560062535961957,
                1.5706038300724876,
                1.1188968870953055
            ]
        },
        {
            "positions": [
                -1.0744971850148748,
                -0.11493220004207622,
                -1.7802391424760486,
                0.3805751094669585,
                1.5193515501200232,
                1.1912383136021125
            ]
        },
        {
            "positions": [
                -1.030127183564562,
                -0.153110098012549,
                -1.6408347771600784,
                0.3355495935742974,
                1.4680992701675588,
                1.2635797401089197
            ]
        },
        {
            "positions": [
                -0.9857571821142495,
                -0.19128799598302176,
                -1.5014304118441082,
                0.29052407768163635,
                1.4168469902150944,
                1.3359211666157267
            ]
        },
        {
            "positions": [
                -0.9413871806639369,
                -0.22946589395349457,
                -1.3620260465281377,
                0.24549856178897528,
                1.36559471026263,
                1.4082625931225337
            ]
        },
        {
            "positions": [
                -0.8970171792136243,
                -0.26764379192396737,
                -1.2226216812121673,
                0.2004730458963142,
                1.3143424303101656,
                1.4806040196293409
            ]
        },
        {
            "positions": [
                -0.8526471777633117,
                -0.30582168989444014,
                -1.083217315896197,
                0.15544753000365313,
                1.2630901503577012,
                1.5529454461361478
            ]
        },
        {
            "positions": [
                -0.808277176312999,
                -0.3439995878649129,
                -0.9438129505802266,
                0.11042201411099206,
                1.2118378704052368,
                1.6252868726429548
            ]
        },
        {
            "positions": [
                -0.7639071748626864,
                -0.3821774858353857,
                -0.8044085852642564,
                0.06539649821833099,
                1.1605855904527724,
                1.6976282991497618
            ]
        },
        {
            "positions": [
                -0.7195371734123738,
                -0.4203553838058585,
                -0.6650042199482857,
                0.020370982325669862,
                1.109333310500308,
                1.7699697256565692
            ]
        },
        {
            "positions": [
                -0.6751671719620612,
                -0.4585332817763313,
                -0.5255998546323155,
                -0.024654533566991155,
                1.0580810305478434,
                1.8423111521633762
            ]
        },
        {
            "positions": [
                -0.6307971705117486,
                -0.496711179746804,
                -0.3861954893163453,
                -0.06968004945965223,
                1.0068287505953792,
                1.9146525786701831
            ]
        },
        {
            "positions": [
                -0.586427169061436,
                -0.5348890777172768,
                -0.24679112400037506,
                -0.1147055653523133,
                0.9555764706429147,
                1.98699400517699
            ]
        },
        {
            "positions": [
                -0.5420571676111233,
                -0.5730669756877496,
                -0.1073867586844044,
                -0.15973108124497443,
                0.9043241906904503,
                2.059335431683797
            ]
        },
        {
            "positions": [
                -0.49768716616081077,
                -0.6112448736582223,
                0.03201760663156583,
                -0.20475659713763544,
                0.8530719107379859,
                2.1316768581906045
            ]
        },
        {
            "positions": [
                -0.4533171647104982,
                -0.6494227716286951,
                0.17142197194753606,
                -0.24978211303029646,
                0.8018196307855215,
                2.204018284697411
            ]
        },
        {
            "positions": [
                -0.40894716326018554,
                -0.6876006695991679,
                0.3108263372635063,
                -0.2948076289229576,
                0.7505673508330571,
                2.2763597112042184
            ]
        },
        {
            "positions": [
                -0.364577161809873,
                -0.7257785675696407,
                0.4502307025794765,
                -0.3398331448156186,
                0.6993150708805927,
                2.3487011377110254
            ]
        },
        {
            "positions": [
                -0.3202071603595602,
                -0.7639564655401136,
                0.5896350678954476,
                -0.38485866070827984,
                0.6480627909281282,
                2.4210425642178324
            ]
        },
        {
            "positions": [
                -0.27583715890924765,
                -0.8021343635105864,
                0.7290394332114178,
                -0.42988417660094086,
                0.5968105109756638,
                2.49338399072464
            ]
        },
        {
            "positions": [
                -0.2314671574589351,
                -0.8403122614810592,
                0.8684437985273881,
                -0.4749096924936019,
                0.5455582310231994,
                2.5657254172314463
            ]
        },
        {
            "positions": [
                -0.18709715600862253,
                -0.878490159451532,
                1.0078481638433583,
                -0.519935208386263,
                0.49430595107073505,
                2.6380668437382537
            ]
        },
        {
            "positions": [
                -0.14272715455830987,
                -0.9166680574220045,
                1.1472525291593285,
                -0.5649607242789241,
                0.44305367111827065,
                2.7104082702450607
            ]
        },
        {
            "positions": [
                -0.0983571531079972,
                -0.9548459553924773,
                1.2866568944752987,
                -0.609986240171585,
                0.39180139116580626,
                2.7827496967518677
            ]
        },
        {
            "positions": [
                -0.05398715165768464,
                -0.9930238533629501,
                1.426061259791269,
                -0.6550117560642461,
                0.34054911121334186,
                2.8550911232586746
            ]
        },
        {
            "positions": [
                -0.00961715020737186,
                -1.031201751333423,
                1.56546562510724,
                -0.7000372719569072,
                0.28929683126087746,
                2.9274325497654816
            ]
        },
        {
            "positions": [
                0.0347528512429407,
                -1.0693796493038958,
                1.7048699904232103,
                -0.7450627878495684,
                0.23804455130841307,
                2.999773976272289
            ]
        },
        {
            "positions": [
                0.07912285269325325,
                -1.1075575472743686,
                1.8442743557391805,
                -0.7900883037422293,
                0.18679227135594867,
                3.072115402779096
            ]
        },
        {
            "positions": [
                0.1234928541435658,
                -1.1457354452448414,
                1.9836787210551508,
                -0.8351138196348904,
                0.13553999140348427,
                3.144456829285903
            ]
        }
    ]
}