{
    "goal": {
        "global_pose": {
            "orientation": {
                "w": 0.7047431468963623,
                "x": -0.7094548344612122,
                "y": 0.0024358443915843964,
                "z": -0.0022348060738295317
            },
            "position": {
                "x": 0.6094750761985779,
                "y": 0.3671506643295288,
                "z": 0.19426114857196808
            }
        },
        "name": "move_to_magneteinheit_A"
    },
    "id": "PRM_move_to_magneteinheit_A_26",
    "joint_names": [
        "shoulder_pan_joint",
        "shoulder_lift_joint",
        "elbow_joint",
        "wrist_1_joint",
        "wrist_2_joint",
        "wrist_3_joint"
    ],
    "metrics": {
        "cart_traj_len": 2.0711472888853226,
        "distance_elbow_joint": 3.901365355431697,
        "distance_shoulder_lift_joint": 1.066660298921277,
        "distance_shoulder_pan_joint": 1.2414970626181414,
        "distance_wrist_1_joint": 1.2526464906422077,
        "distance_wrist_2_joint": 1.440216894152293,
        "distance_wrist_3_joint": 2.021748658170296,
        "smoothness": 3.062684213497013e-16,
        "time": 0.039563587000000004,
        "traj_len": 3.3051678868002927,
        "weighted_distance": 4.202439227528579
    },
    "planner": "PRM",
    "start": {
        "state": {
            "elbow_joint": -1.919643507792019,
            "shoulder_lift_joint": -0.07675430207160344,
            "shoulder_pan_joint": -1.1188671864651873,
            "wrist_1_joint": 0.42560062535961957,
            "wrist_2_joint": 1.5706038300724876,
            "wrist_3_joint": 1.1188968870953055
        }
    },
    "waypoints": [
        {
            "positions": [
                -1.1188671864651873,
                -0.07675430207160344,
                -1.919643507792019,
                0.42560062535961957,
                1.5706038300724876,
                1.1188968870953055
            ]
        },
        {
            "positions": [
                -1.0745280056573965,
                -0.11484931274736333,
                -1.7803090308123157,
                0.3808632506938264,
                1.5191675124241915,
                1.1911021963156734
            ]
        },
        {
            "positions": [
                -1.0301888248496058,
                -0.15294432342312322,
                -1.6409745538326121,
                0.33612587602803334,
                1.4677311947758953,
                1.263307505536041
            ]
        },
        {
            "positions": [
                -0.9858496440418151,
                -0.19103933409888313,
                -1.5016400768529086,
                0.2913885013622402,
                1.4162948771275992,
                1.3355128147564086
            ]
        },
        {
            "positions": [
                -0.9415104632340243,
                -0.229134344774643,
                -1.3623055998732052,
                0.2466511266964471,
                1.3648585594793028,
                1.4077181239767764
            ]
        },
        {
            "positions": [
                -0.8971712824262335,
                -0.26722935545040294,
                -1.2229711228935018,
                0.20191375203065395,
                1.3134222418310066,
                1.4799234331971443
            ]
        },
        {
            "positions": [
                -0.8528321016184428,
                -0.30532436612616276,
                -1.0836366459137983,
                0.15717637736486084,
                1.2619859241827105,
                1.5521287424175119
            ]
        },
        {
            "positions": [
                -0.8084929208106519,
                -0.3434193768019227,
                -0.9443021689340948,
                0.1124390026990677,
                1.2105496065344143,
                1.6243340516378795
            ]
        },
        {
            "positions": [
                -0.7641537400028613,
                -0.38151438747768257,
                -0.8049676919543913,
                0.06770162803327462,
                1.1591132888861182,
                1.6965393608582473
            ]
        },
        {
            "positions": [
                -0.7198145591950704,
                -0.4196093981534425,
                -0.6656332149746877,
                0.022964253367481424,
                1.1076769712378218,
                1.7687446700786151
            ]
        },
        {
            "positions": [
                -0.6754753783872797,
                -0.4577044088292024,
                -0.5262987379949844,
                -0.02177312129831166,
                1.056240653589526,
                1.8409499792989827
            ]
        },
        {
            "positions": [
                -0.6311361975794889,
                -0.49579941950496226,
                -0.38696426101528103,
                -0.0665104959641048,
                1.0048043359412295,
                1.9131552885193503
            ]
        },
        {
            "positions": [
                -0.5867970167716982,
                -0.5338944301807221,
                -0.24762978403557745,
                -0.11124787062989788,
                0.9533680182929335,
                1.9853605977397182
            ]
        },
        {
            "positions": [
                -0.5424578359639074,
                -0.5719894408564821,
                -0.10829530705587387,
                -0.15598524529569108,
                0.9019317006446372,
                2.057565906960086
            ]
        },
        {
            "positions": [
                -0.49811865515611664,
                -0.6100844515322419,
                0.03103916992382949,
                -0.20072261996148416,
                0.8504953829963411,
                2.129771216180454
            ]
        },
        {
            "positions": [
                -0.4537794743483259,
                -0.6481794622080017,
                0.17037364690353285,
                -0.24545999462727724,
                0.7990590653480449,
                2.2019765254008212
            ]
        },
        {
            "positions": [
                -0.4094402935405351,
                -0.6862744728837618,
                0.30970812388323643,
                -0.29019736929307033,
                0.7476227476997488,
                2.274181834621189
            ]
        },
        {
            "positions": [
                -0.36510111273274437,
                -0.7243694835595216,
                0.44904260086293957,
                -0.3349347439588635,
                0.6961864300514526,
                2.3463871438415564
            ]
        },
        {
            "positions": [
                -0.3207619319249535,
                -0.7624644942352816,
                0.5883770778426436,
                -0.3796721186246567,
                0.6447501124031563,
                2.4185924530619243
            ]
        },
        {
            "positions": [
                -0.27642275111716275,
                -0.8005595049110414,
                0.7277115548223472,
                -0.4244094932904498,
                0.5933137947548601,
                2.490797762282292
            ]
        },
        {
            "positions": [
                -0.232083570309372,
                -0.8386545155868013,
                0.8670460318020503,
                -0.4691468679562429,
                0.541877477106564,
                2.56300307150266
            ]
        },
        {
            "positions": [
                -0.18774438950158134,
                -0.8767495262625613,
                1.006380508781754,
                -0.513884242622036,
                0.49044115945826783,
                2.6352083807230278
            ]
        },
        {
            "positions": [
                -0.1434052086937906,
                -0.9148445369383211,
                1.145714985761457,
                -0.5586216172878291,
                0.4390048418099717,
                2.7074136899433956
            ]
        },
        {
            "positions": [
                -0.09906602788599983,
                -0.952939547614081,
                1.2850494627411606,
                -0.6033589919536222,
                0.38756852416167553,
                2.779618999163763
            ]
        },
        {
            "positions": [
                -0.05472684707820896,
                -0.9910345582898408,
                1.4243839397208642,
                -0.6480963666194153,
                0.3361322065133794,
                2.851824308384131
            ]
        },
        {
            "positions": [
                -0.010387666270418094,
                -1.0291295689656008,
                1.5637184167005678,
                -0.6928337412852086,
                0.284695888865083,
                2.9240296176044986
            ]
        },
        {
            "positions": [
                0.03395151453737255,
                -1.0672245796413606,
                1.7030528936802714,
                -0.7375711159510017,
                0.23325957121678687,
                2.996234926824866
            ]
        },
        {
            "positions": [
                0.07829069534516342,
                -1.1053195903171207,
                1.8423873706599745,
                -0.7823084906167947,
                0.18182325356849072,
                3.068440236045234
            ]
        },
        {
            "positions": [
                0.122629876152954,
                -1.1434146009928805,
                1.981721847639678,
                -0.8270458652825879,
                0.13038693592019446,
                3.1406455452656017
            ]
        }
    ]
}