{
    "goal": {
        "global_pose": {
            "orientation": {
                "w": 0.7031023502349854,
                "x": -0.7110244035720825,
                "y": 0.007748599164187908,
                "z": 0.005598929710686207
            },
            "position": {
                "x": 0.11585023208521307,
                "y": 0.44412534475326537,
                "z": 0.3711530566215515
            }
        },
        "name": "move_to_auspresseinheit_A"
    },
    "id": "PRM_move_to_auspresseinheit_A_140",
    "joint_names": [
        "shoulder_pan_joint",
        "shoulder_lift_joint",
        "elbow_joint",
        "wrist_1_joint",
        "wrist_2_joint",
        "wrist_3_joint"
    ],
    "metrics": {
        "cart_traj_len": 1.4686086423313174,
        "distance_elbow_joint": 0.2797248607111382,
        "distance_shoulder_lift_joint": 0.5363503423224307,
        "distance_shoulder_pan_joint": 2.4139301977584084,
        "distance_wrist_1_joint": 0.5450719175744694,
        "distance_wrist_2_joint": 0.532665951813927,
        "distance_wrist_3_joint": 1.1012608518050433,
        "smoothness": 1.19052532831269,
        "time": 0.41350603399999997,
        "traj_len": 2.325726579369427,
        "weighted_distance": 2.947755704766577
    },
    "planner": "PRM",
    "start": {
        "state": {
            "elbow_joint": 2.422574709923281,
            "shoulder_lift_joint": -1.3736533754116391,
            "shoulder_pan_joint": -0.33786336945926293,
            "wrist_1_joint": -1.0288603412921917,
            "wrist_2_joint": 1.2330224858903978,
            "wrist_3_joint": -3.094022268022082
        }
    },
    "waypoints": [
        {
            "positions": [
                -0.33786336945926293,
                -1.3736533754116391,
                2.422574709923281,
                -1.0288603412921917,
                1.2330224858903978,
                -3.094022268022082
            ]
        },
        {
            "positions": [
                -0.45205539862962496,
                -1.4284570746141627,
                2.3972004961320206,
                -1.0133230174753642,
                1.1965122632313014,
                -3.0044116841189723
            ]
        },
        {
            "positions": [
                -0.5662474277999869,
                -1.483260773816686,
                2.3718262823407605,
                -0.9977856936585368,
                1.1600020405722051,
                -2.914801100215862
            ]
        },
        {
            "positions": [
                -0.6804394569703489,
                -1.5380644730192095,
                2.3464520685495005,
                -0.9822483698417093,
                1.1234918179131088,
                -2.8251905163127518
            ]
        },
        {
            "positions": [
                -0.7946314861407109,
                -1.592868172221733,
                2.32107785475824,
                -0.9667110460248818,
                1.0869815952540125,
                -2.735579932409642
            ]
        },
        {
            "positions": [
                -0.9088235153110731,
                -1.6476718714242566,
                2.2957036409669795,
                -0.9511737222080543,
                1.0504713725949162,
                -2.645969348506532
            ]
        },
        {
            "positions": [
                -1.023015544481435,
                -1.70247557062678,
                2.2703294271757195,
                -0.9356363983912268,
                1.0139611499358199,
                -2.556358764603422
            ]
        },
        {
            "positions": [
                -0.8309290975107422,
                -1.725534253638701,
                2.284493824727228,
                -0.8854310678719486,
                0.9791161926181144,
                -2.6189806922019088
            ]
        },
        {
            "positions": [
                -0.6388426505400493,
                -1.748592936650622,
                2.2986582222787364,
                -0.8352257373526702,
                0.944271235300409,
                -2.6816026198003957
            ]
        },
        {
            "positions": [
                -0.4467562035693564,
                -1.7716516196625434,
                2.312822619830245,
                -0.785020406833392,
                0.9094262779827035,
                -2.7442245473988827
            ]
        },
        {
            "positions": [
                -0.25466975659866353,
                -1.7947103026744644,
                2.3269870173817537,
                -0.7348150763141137,
                0.874581320664998,
                -2.8068464749973696
            ]
        },
        {
            "positions": [
                -0.06258330962797065,
                -1.8177689856863855,
                2.341151414933262,
                -0.6846097457948355,
                0.8397363633472926,
                -2.869468402595857
            ]
        },
        {
            "positions": [
                0.12950313734272223,
                -1.8408276686983065,
                2.3553158124847706,
                -0.6344044152755572,
                0.8048914060295872,
                -2.932090330194344
            ]
        },
        {
            "positions": [
                0.3215895843134151,
                -1.8638863517102278,
                2.3694802100362793,
                -0.5841990847562789,
                0.7700464487118817,
                -2.994712257792831
            ]
        },
        {
            "positions": [
                0.513676031284108,
                -1.8869450347221488,
                2.3836446075877875,
                -0.5339937542370007,
                0.7352014913941762,
                -3.057334185391318
            ]
        },
        {
            "positions": [
                0.7057624782548009,
                -1.9100037177340699,
                2.397809005139296,
                -0.4837884237177224,
                0.7003565340764708,
                -3.119956112989805
            ]
        }
    ]
}