{
    "goal": {
        "global_pose": {
            "orientation": {
                "w": -0.00223480608172531,
                "x": 0.0024358444001904467,
                "y": 0.7094548369677653,
                "z": -0.704743149386269
            },
            "position": {
                "x": 0.6205249238014221,
                "y": -0.6371506643295288,
                "z": 0.19426114857196808
            }
        },
        "name": "move_to_magneteinheit_B"
    },
    "id": "PRM_move_to_magneteinheit_B_124",
    "joint_names": [
        "shoulder_pan_joint",
        "shoulder_lift_joint",
        "elbow_joint",
        "wrist_1_joint",
        "wrist_2_joint",
        "wrist_3_joint"
    ],
    "metrics": {
        "cart_traj_len": 3.128758649455775,
        "distance_elbow_joint": 4.1028538965461605,
        "distance_shoulder_lift_joint": 0.6739380534964967,
        "distance_shoulder_pan_joint": 2.2015389409575175,
        "distance_wrist_1_joint": 2.151507800320603,
        "distance_wrist_2_joint": 2.356715804942884,
        "distance_wrist_3_joint": 3.1602205315174245,
        "smoothness": 0.3558661041629291,
        "time": 3.56985895,
        "traj_len": 3.8271105324750003,
        "weighted_distance": 5.047320050886354
    },
    "planner": "PRM",
    "start": {
        "state": {
            "elbow_joint": 2.39358713078474,
            "shoulder_lift_joint": -1.908514104345545,
            "shoulder_pan_joint": 0.7066247066606129,
            "wrist_1_joint": -0.4678290933515497,
            "wrist_2_joint": 0.7096259083745334,
            "wrist_3_joint": -3.1358149277392293
        }
    },
    "waypoints": [
        {
            "positions": [
                0.7066247066606129,
                -1.908514104345545,
                2.39358713078474,
                -0.4678290933515497,
                0.7096259083745334,
                -3.1358149277392293
            ]
        },
        {
            "positions": [
                0.7217999041867826,
                -1.9479602957445865,
                2.4026535371315973,
                -0.389838676169989,
                0.6048922686301794,
                -3.091203706301928
            ]
        },
        {
            "positions": [
                0.7369751017129522,
                -1.987406487143628,
                2.4117199434784546,
                -0.3118482589884284,
                0.5001586288858255,
                -3.046592484864627
            ]
        },
        {
            "positions": [
                0.8221108922850333,
                -2.004263918841251,
                2.2936119554491197,
                -0.2514379121722045,
                0.45473114264765746,
                -2.9767793107624523
            ]
        },
        {
            "positions": [
                0.9072466828571143,
                -2.0211213505388734,
                2.1755039674197847,
                -0.19102756535598067,
                0.4093036564094894,
                -2.9069661366602775
            ]
        },
        {
            "positions": [
                0.9923824734291954,
                -2.0379787822364963,
                2.0573959793904497,
                -0.1306172185397568,
                0.36387617017132134,
                -2.8371529625581027
            ]
        },
        {
            "positions": [
                1.0775182640012764,
                -2.054836213934119,
                1.9392879913611147,
                -0.07020687172353296,
                0.3184486839331533,
                -2.767339788455928
            ]
        },
        {
            "positions": [
                1.1626540545733575,
                -2.0716936456317416,
                1.8211800033317795,
                -0.00979652490730909,
                0.27302119769498523,
                -2.697526614353753
            ]
        },
        {
            "positions": [
                1.2477898451454386,
                -2.0885510773293645,
                1.7030720153024446,
                0.05061382190891478,
                0.22759371145681717,
                -2.6277134402515783
            ]
        },
        {
            "positions": [
                1.3329256357175197,
                -2.1054085090269874,
                1.5849640272731094,
                0.11102416872513865,
                0.1821662252186491,
                -2.5579002661494035
            ]
        },
        {
            "positions": [
                1.4180614262896007,
                -2.12226594072461,
                1.4668560392437746,
                0.17143451554136246,
                0.13673873898048106,
                -2.4880870920472287
            ]
        },
        {
            "positions": [
                1.5031972168616816,
                -2.1391233724222327,
                1.3487480512144394,
                0.2318448623575864,
                0.091311252742313,
                -2.418273917945054
            ]
        },
        {
            "positions": [
                1.588333007433763,
                -2.1559808041198556,
                1.2306400631851044,
                0.2922552091738102,
                0.04588376650414494,
                -2.348460743842879
            ]
        },
        {
            "positions": [
                1.6734687980058438,
                -2.172838235817478,
                1.1125320751557695,
                0.352665555990034,
                0.00045628026597688276,
                -2.2786475697407043
            ]
        },
        {
            "positions": [
                1.758604588577925,
                -2.189695667515101,
                0.9944240871264345,
                0.41307590280625794,
                -0.044971205972191175,
                -2.2088343956385295
            ]
        },
        {
            "positions": [
                1.8437403791500058,
                -2.206553099212724,
                0.8763160990970995,
                0.47348624962248176,
                -0.09039869221035923,
                -2.1390212215363547
            ]
        },
        {
            "positions": [
                1.928876169722087,
                -2.2234105309103462,
                0.7582081110677643,
                0.5338965964387057,
                -0.1358261784485273,
                -2.06920804743418
            ]
        },
        {
            "positions": [
                2.0140119602941677,
                -2.240267962607969,
                0.6401001230384296,
                0.5943069432549295,
                -0.18125366468669535,
                -1.9993948733320048
            ]
        },
        {
            "positions": [
                2.099147750866249,
                -2.257125394305592,
                0.5219921350090946,
                0.6547172900711533,
                -0.2266811509248634,
                -1.9295816992298302
            ]
        },
        {
            "positions": [
                2.1842835414383304,
                -2.2739828260032144,
                0.40388414697975916,
                0.7151276368873773,
                -0.27210863716303146,
                -1.8597685251276552
            ]
        },
        {
            "positions": [
                2.2694193320104112,
                -2.2908402577008373,
                0.2857761589504242,
                0.7755379837036012,
                -0.3175361234011995,
                -1.7899553510254804
            ]
        },
        {
            "positions": [
                2.354555122582492,
                -2.30769768939846,
                0.16766817092108965,
                0.835948330519825,
                -0.3629636096393676,
                -1.7201421769233056
            ]
        },
        {
            "positions": [
                2.4396909131545734,
                -2.3245551210960826,
                0.049560182891754234,
                0.8963586773360488,
                -0.40839109587753564,
                -1.6503290028211308
            ]
        },
        {
            "positions": [
                2.5248267037266547,
                -2.3414125527937055,
                -0.06854780513758074,
                0.9567690241522726,
                -0.4538185821157037,
                -1.580515828718956
            ]
        },
        {
            "positions": [
                2.6099624942987356,
                -2.3582699844913284,
                -0.18665579316691572,
                1.0171793709684964,
                -0.49924606835387175,
                -1.5107026546167812
            ]
        },
        {
            "positions": [
                2.6950982848708165,
                -2.375127416188951,
                -0.3047637811962507,
                1.0775897177847205,
                -0.5446735545920398,
                -1.4408894805146064
            ]
        },
        {
            "positions": [
                2.780234075442898,
                -2.3919848478865737,
                -0.42287176922558567,
                1.1380000646009443,
                -0.5901010408302079,
                -1.3710763064124316
            ]
        },
        {
            "positions": [
                2.7720853844663016,
                -2.3812715541373883,
                -0.5904617021310058,
                1.09219549512058,
                -0.5372416809616224,
                -1.2837748369576667
            ]
        },
        {
            "positions": [
                2.7639366934897054,
                -2.370558260388203,
                -0.7580516350364259,
                1.0463909256402155,
                -0.48438232109303697,
                -1.1964733675029018
            ]
        },
        {
            "positions": [
                2.7557880025131087,
                -2.3598449666390175,
                -0.925641567941846,
                1.0005863561598511,
                -0.43152296122445155,
                -1.1091718980481369
            ]
        },
        {
            "positions": [
                2.7476393115365125,
                -2.349131672889832,
                -1.0932315008472662,
                0.9547817866794869,
                -0.3786636013558661,
                -1.021870428593372
            ]
        },
        {
            "positions": [
                2.7394906205599163,
                -2.3384183791406468,
                -1.2608214337526864,
                0.9089772171991225,
                -0.3258042414872806,
                -0.934568959138607
            ]
        },
        {
            "positions": [
                2.720111478048669,
                -2.3618198677789652,
                -1.3623319409324062,
                0.8715347816899939,
                -0.27493063718773714,
                -0.8099218332987109
            ]
        },
        {
            "positions": [
                2.7007323355374213,
                -2.3852213564172837,
                -1.463842448112126,
                0.8340923461808654,
                -0.2240570328881937,
                -0.6852747074588148
            ]
        },
        {
            "positions": [
                2.678723034371996,
                -2.424284206167815,
                -1.5116857486435644,
                0.8077251757492857,
                -0.18255511120830625,
                -0.5594063214960678
            ]
        },
        {
            "positions": [
                2.656713733206571,
                -2.463347055918346,
                -1.5595290491750031,
                0.781358005317706,
                -0.14105318952841878,
                -0.433537935533321
            ]
        },
        {
            "positions": [
                2.6578160406912974,
                -2.4663400970263067,
                -1.5878970719747505,
                0.8286171510889236,
                0.010932061580669783,
                -0.31905205070544196
            ]
        },
        {
            "positions": [
                2.658918348176024,
                -2.469333138134267,
                -1.6162650947744979,
                0.8758762968601412,
                0.16291731268975834,
                -0.204566165877563
            ]
        },
        {
            "positions": [
                2.66002065566075,
                -2.472326179242227,
                -1.6446331175742452,
                0.9231354426313589,
                0.3149025637988469,
                -0.09008028104968402
            ]
        },
        {
            "positions": [
                2.6611229631454765,
                -2.4753192203501877,
                -1.6730011403739926,
                0.9703945884025765,
                0.4668878149079355,
                0.024405603778195
            ]
        }
    ]
}