{
    "goal": {
        "global_pose": {
            "orientation": {
                "w": 0.7047431468963623,
                "x": -0.7094548344612122,
                "y": 0.0024358443915843964,
                "z": -0.0022348060738295317
            },
            "position": {
                "x": 0.6094750761985779,
                "y": 0.3671506643295288,
                "z": 0.19426114857196808
            }
        },
        "name": "move_to_magneteinheit_A"
    },
    "id": "PRM_move_to_magneteinheit_A_52",
    "joint_names": [
        "shoulder_pan_joint",
        "shoulder_lift_joint",
        "elbow_joint",
        "wrist_1_joint",
        "wrist_2_joint",
        "wrist_3_joint"
    ],
    "metrics": {
        "cart_traj_len": 2.0705059415723084,
        "distance_elbow_joint": 3.9039756926959504,
        "distance_shoulder_lift_joint": 1.0694013394529145,
        "distance_shoulder_pan_joint": 1.2409688480190149,
        "distance_wrist_1_joint": 1.2691905142244502,
        "distance_wrist_2_joint": 1.447294958440161,
        "distance_wrist_3_joint": 2.019701418239749,
        "smoothness": 5.512831596927554e-16,
        "time": 0.031845431,
        "traj_len": 3.3091589220030277,
        "weighted_distance": 4.207899841989629
    },
    "planner": "PRM",
    "start": {
        "state": {
            "elbow_joint": -1.919643507792019,
            "shoulder_lift_joint": -0.07675430207160344,
            "shoulder_pan_joint": -1.1188671864651873,
            "wrist_1_joint": 0.42560062535961957,
            "wrist_2_joint": 1.5706038300724876,
            "wrist_3_joint": 1.1188968870953055
        }
    },
    "waypoints": [
        {
            "positions": [
                -1.1188671864651873,
                -0.07675430207160344,
                -1.919643507792019,
                0.42560062535961957,
                1.5706038300724876,
                1.1188968870953055
            ]
        },
        {
            "positions": [
                -1.0745468704645083,
                -0.11494720705206468,
                -1.7802158044814496,
                0.38027239270874635,
                1.5189147244139105,
                1.191029080603868
            ]
        },
        {
            "positions": [
                -1.0302265544638292,
                -0.15314011203252592,
                -1.6407881011708798,
                0.33494416005787314,
                1.4672256187553332,
                1.2631612741124305
            ]
        },
        {
            "positions": [
                -0.9859062384631501,
                -0.19133301701298713,
                -1.50136039786031,
                0.28961592740699993,
                1.415536513096756,
                1.3352934676209929
            ]
        },
        {
            "positions": [
                -0.941585922462471,
                -0.22952592199344837,
                -1.3619326945497405,
                0.2442876947561267,
                1.363847407438179,
                1.4074256611295555
            ]
        },
        {
            "positions": [
                -0.8972656064617919,
                -0.2677188269739096,
                -1.2225049912391708,
                0.19895946210525345,
                1.3121583017796017,
                1.4795578546381178
            ]
        },
        {
            "positions": [
                -0.8529452904611128,
                -0.3059117319543708,
                -1.0830772879286013,
                0.15363122945438024,
                1.2604691961210246,
                1.5516900481466802
            ]
        },
        {
            "positions": [
                -0.8086249744604337,
                -0.34410463693483206,
                -0.9436495846180315,
                0.10830299680350702,
                1.2087800904624473,
                1.6238222416552428
            ]
        },
        {
            "positions": [
                -0.7643046584597546,
                -0.3822975419152933,
                -0.804221881307462,
                0.06297476415263381,
                1.1570909848038702,
                1.6959544351638054
            ]
        },
        {
            "positions": [
                -0.7199843424590754,
                -0.42049044689575454,
                -0.664794177996892,
                0.017646531501760543,
                1.1054018791452929,
                1.7680866286723678
            ]
        },
        {
            "positions": [
                -0.6756640264583963,
                -0.4586833518762158,
                -0.5253664746863225,
                -0.02768170114911267,
                1.0537127734867158,
                1.8402188221809301
            ]
        },
        {
            "positions": [
                -0.6313437104577173,
                -0.49687625685667697,
                -0.38593877137575294,
                -0.07300993379998583,
                1.0020236678281385,
                1.9123510156894925
            ]
        },
        {
            "positions": [
                -0.5870233944570381,
                -0.5350691618371382,
                -0.24651106806518341,
                -0.1183381664508591,
                0.9503345621695615,
                1.984483209198055
            ]
        },
        {
            "positions": [
                -0.542703078456359,
                -0.5732620668175994,
                -0.10708336475461344,
                -0.16366639910173236,
                0.8986454565109843,
                2.0566154027066177
            ]
        },
        {
            "positions": [
                -0.4983827624556799,
                -0.6114549717980606,
                0.03234433855595609,
                -0.20899463175260552,
                0.8469563508524071,
                2.12874759621518
            ]
        },
        {
            "positions": [
                -0.4540624464550008,
                -0.6496478767785219,
                0.17177204186652584,
                -0.2543228644034787,
                0.7952672451938299,
                2.2008797897237424
            ]
        },
        {
            "positions": [
                -0.40974213045432173,
                -0.6878407817589831,
                0.31119974517709514,
                -0.29965109705435194,
                0.7435781395352528,
                2.273011983232305
            ]
        },
        {
            "positions": [
                -0.36542181445364263,
                -0.7260336867394444,
                0.4506274484876649,
                -0.3449793297052251,
                0.6918890338766756,
                2.3451441767408676
            ]
        },
        {
            "positions": [
                -0.32110149845296343,
                -0.7642265917199056,
                0.5900551517982351,
                -0.3903075623560985,
                0.6401999282180982,
                2.41727637024943
            ]
        },
        {
            "positions": [
                -0.27678118245228434,
                -0.8024194967003668,
                0.7294828551088044,
                -0.43563579500697164,
                0.5885108225595211,
                2.4894085637579924
            ]
        },
        {
            "positions": [
                -0.23246086645160524,
                -0.8406124016808281,
                0.8689105584193741,
                -0.4809640276578449,
                0.5368217169009439,
                2.561540757266555
            ]
        },
        {
            "positions": [
                -0.18814055045092615,
                -0.8788053066612893,
                1.0083382617299435,
                -0.5262922603087181,
                0.48513261124236684,
                2.633672950775117
            ]
        },
        {
            "positions": [
                -0.14382023445024716,
                -0.9169982116417505,
                1.1477659650405132,
                -0.5716204929595912,
                0.4334435055837895,
                2.70580514428368
            ]
        },
        {
            "positions": [
                -0.09949991844956796,
                -0.9551911166222118,
                1.287193668351083,
                -0.6169487256104644,
                0.38175439992521243,
                2.7779373377922423
            ]
        },
        {
            "positions": [
                -0.055179602448888865,
                -0.993384021602673,
                1.4266213716616523,
                -0.6622769582613377,
                0.33006529426663533,
                2.8500695313008046
            ]
        },
        {
            "positions": [
                -0.01085928644820977,
                -1.0315769265831343,
                1.5660490749722225,
                -0.707605190912211,
                0.278376188608058,
                2.9222017248093675
            ]
        },
        {
            "positions": [
                0.033461029552469324,
                -1.0697698315635955,
                1.7054767782827922,
                -0.7529334235630842,
                0.22668708294948092,
                2.9943339183179294
            ]
        },
        {
            "positions": [
                0.07778134555314842,
                -1.1079627365440567,
                1.8449044815933615,
                -0.7982616562139573,
                0.1749979772909036,
                3.066466111826492
            ]
        },
        {
            "positions": [
                0.12210166155382754,
                -1.146155641524518,
                1.9843321849039315,
                -0.8435898888648306,
                0.12330887163232648,
                3.1385983053350546
            ]
        }
    ]
}