{
    "goal": {
        "global_pose": {
            "orientation": {
                "w": 0.7031023502349854,
                "x": -0.7110244035720825,
                "y": 0.007748599164187908,
                "z": 0.005598929710686207
            },
            "position": {
                "x": 0.11585023208521307,
                "y": 0.44412534475326537,
                "z": 0.3711530566215515
            }
        },
        "name": "move_to_auspresseinheit_A"
    },
    "id": "PRM_move_to_auspresseinheit_A_1",
    "joint_names": [
        "shoulder_pan_joint",
        "shoulder_lift_joint",
        "elbow_joint",
        "wrist_1_joint",
        "wrist_2_joint",
        "wrist_3_joint"
    ],
    "metrics": {
        "cart_traj_len": 0.818128591028989,
        "distance_elbow_joint": 0.35877660527428556,
        "distance_shoulder_lift_joint": 0.5330377088827596,
        "distance_shoulder_pan_joint": 1.1853648328959288,
        "distance_wrist_1_joint": 0.5564233157106484,
        "distance_wrist_2_joint": 2.5301086471968826,
        "distance_wrist_3_joint": 0.1853238950095486,
        "smoothness": 1.141986525881143,
        "time": 0.120334572,
        "traj_len": 2.312798089970254,
        "weighted_distance": 2.9675267071918126
    },
    "planner": "PRM",
    "start": {
        "state": {
            "elbow_joint": 2.422574709923281,
            "shoulder_lift_joint": -1.3736533754116391,
            "shoulder_pan_joint": -0.33786336945926293,
            "wrist_1_joint": -1.0288603412921917,
            "wrist_2_joint": 1.2330224858903978,
            "wrist_3_joint": -3.094022268022082
        }
    },
    "waypoints": [
        {
            "positions": [
                -0.33786336945926293,
                -1.3736533754116391,
                2.422574709923281,
                -1.0288603412921917,
                1.2330224858903978,
                -3.094022268022082
            ]
        },
        {
            "positions": [
                -0.3480175407709293,
                -1.4348093847901258,
                2.3949366669450414,
                -0.994126661053108,
                1.014228091037094,
                -3.1103327247464514
            ]
        },
        {
            "positions": [
                -0.3581717120825956,
                -1.4959653941686124,
                2.3672986239668017,
                -0.9593929808140242,
                0.7954336961837902,
                -3.126643181470821
            ]
        },
        {
            "positions": [
                -0.3683258833942619,
                -1.557121403547099,
                2.339660580988562,
                -0.9246593005749406,
                0.5766393013304865,
                -3.1429536381951904
            ]
        },
        {
            "positions": [
                -0.3784800547059282,
                -1.6182774129255857,
                2.3120225380103223,
                -0.8899256203358569,
                0.3578449064771827,
                -3.15926409491956
            ]
        },
        {
            "positions": [
                -0.38863422601759456,
                -1.6794334223040726,
                2.2843844950320826,
                -0.8551919400967731,
                0.13905051162387894,
                -3.1755745516439293
            ]
        },
        {
            "positions": [
                -0.39878839732926086,
                -1.7405894316825592,
                2.256746452053843,
                -0.8204582598576894,
                -0.07974388322942483,
                -3.191885008368299
            ]
        },
        {
            "positions": [
                -0.4089425686409272,
                -1.8017454410610458,
                2.2291084090756033,
                -0.7857245796186056,
                -0.2985382780827287,
                -3.2081954650926683
            ]
        },
        {
            "positions": [
                -0.24975890668174658,
                -1.8167376758086677,
                2.252724166850833,
                -0.7409692147561682,
                -0.155888580479335,
                -3.1980310796728166
            ]
        },
        {
            "positions": [
                -0.09057524472256595,
                -1.8317299105562894,
                2.2763399246260625,
                -0.6962138498937307,
                -0.013238882875941271,
                -3.1878666942529645
            ]
        },
        {
            "positions": [
                0.06860841723661465,
                -1.8467221453039113,
                2.299955682401292,
                -0.6514584850312932,
                0.12941081472745247,
                -3.177702308833113
            ]
        },
        {
            "positions": [
                0.2277920791957953,
                -1.8617143800515332,
                2.323571440176522,
                -0.6067031201688557,
                0.27206051233084616,
                -3.1675379234132612
            ]
        },
        {
            "positions": [
                0.38697574115497596,
                -1.8767066147991551,
                2.347187197951752,
                -0.5619477553064183,
                0.4147102099342399,
                -3.1573735379934096
            ]
        },
        {
            "positions": [
                0.5461594031141566,
                -1.8916988495467768,
                2.3708029557269814,
                -0.5171923904439808,
                0.5573599075376336,
                -3.1472091525735575
            ]
        },
        {
            "positions": [
                0.7053430650733372,
                -1.9066910842943987,
                2.394418713502211,
                -0.47243702558154327,
                0.7000096051410274,
                -3.137044767153706
            ]
        }
    ]
}