{
    "goal": {
        "global_pose": {
            "orientation": {
                "w": 0.5084816217422485,
                "x": -0.49083608388900757,
                "y": 0.5182115435600281,
                "z": -0.4816462993621826
            },
            "position": {
                "x": 0.5540239810943604,
                "y": 0.030875300988554955,
                "z": 0.16403168439865112
            }
        },
        "name": "move_to_storage_A"
    },
    "id": "PRM_move_to_storage_A_59",
    "joint_names": [
        "shoulder_pan_joint",
        "shoulder_lift_joint",
        "elbow_joint",
        "wrist_1_joint",
        "wrist_2_joint",
        "wrist_3_joint"
    ],
    "metrics": {
        "cart_traj_len": 0.35321285246593015,
        "distance_elbow_joint": 0.45085293185868336,
        "distance_shoulder_lift_joint": 0.23261299759940823,
        "distance_shoulder_pan_joint": 0.4588140464420836,
        "distance_wrist_1_joint": 0.2465374905014085,
        "distance_wrist_2_joint": 1.111754067314762,
        "distance_wrist_3_joint": 0.09457218750934437,
        "smoothness": 4.440892133664971e-16,
        "time": 0.032723508,
        "traj_len": 1.6109449777151577,
        "weighted_distance": 2.0353328116208784
    },
    "planner": "PRM",
    "start": {
        "state": {
            "elbow_joint": 1.9715463870305268,
            "shoulder_lift_joint": -1.1394903361783484,
            "shoulder_pan_joint": 0.12281147578464417,
            "wrist_1_joint": -0.7804599489681411,
            "wrist_2_joint": 0.12958660307563738,
            "wrist_3_joint": -3.1924946282119055
        }
    },
    "waypoints": [
        {
            "positions": [
                0.12281147578464417,
                -1.1394903361783484,
                1.9715463870305268,
                -0.7804599489681411,
                0.12958660307563738,
                -3.1924946282119055
            ]
        },
        {
            "positions": [
                0.05726661200720366,
                -1.1727207644068354,
                2.0359539487246243,
                -0.8156795904683423,
                0.28840861269203194,
                -3.178984315710571
            ]
        },
        {
            "positions": [
                -0.008278251770236847,
                -1.2059511926353221,
                2.100361510418722,
                -0.8508992319685436,
                0.4472306223084265,
                -3.1654740032092357
            ]
        },
        {
            "positions": [
                -0.07382311554767736,
                -1.2391816208638091,
                2.1647690721128194,
                -0.8861188734687447,
                0.6060526319248211,
                -3.151963690707901
            ]
        },
        {
            "positions": [
                -0.13936797932511785,
                -1.2724120490922959,
                2.229176633806917,
                -0.9213385149689459,
                0.7648746415412156,
                -3.138453378206566
            ]
        },
        {
            "positions": [
                -0.20491284310255842,
                -1.3056424773207829,
                2.293584195501015,
                -0.9565581564691472,
                0.9236966511576102,
                -3.124943065705231
            ]
        },
        {
            "positions": [
                -0.27045770687999887,
                -1.3388729055492696,
                2.3579917571951126,
                -0.9917777979693483,
                1.0825186607740047,
                -3.111432753203896
            ]
        },
        {
            "positions": [
                -0.33600257065743944,
                -1.3721033337777566,
                2.42239931888921,
                -1.0269974394695496,
                1.2413406703903993,
                -3.097922440702561
            ]
        }
    ]
}