{
    "goal": {
        "global_pose": {
            "orientation": {
                "w": -0.00223480608172531,
                "x": 0.0024358444001904467,
                "y": 0.7094548369677653,
                "z": -0.704743149386269
            },
            "position": {
                "x": 0.6205249238014221,
                "y": -0.6371506643295288,
                "z": 0.19426114857196808
            }
        },
        "name": "move_to_magneteinheit_B"
    },
    "id": "PRM_move_to_magneteinheit_B_23",
    "joint_names": [
        "shoulder_pan_joint",
        "shoulder_lift_joint",
        "elbow_joint",
        "wrist_1_joint",
        "wrist_2_joint",
        "wrist_3_joint"
    ],
    "metrics": {
        "cart_traj_len": 3.850067039230668,
        "distance_elbow_joint": 4.042487151423195,
        "distance_shoulder_lift_joint": 0.5657942970655006,
        "distance_shoulder_pan_joint": 3.4065921799590355,
        "distance_wrist_1_joint": 3.6544168578358063,
        "distance_wrist_2_joint": 1.2489376951203677,
        "distance_wrist_3_joint": 6.3916023039667476,
        "smoothness": 0.2542643583845252,
        "time": 0.48047755999999997,
        "traj_len": 4.394295220552512,
        "weighted_distance": 6.0824657538090845
    },
    "planner": "PRM",
    "start": {
        "state": {
            "elbow_joint": 2.39358713078474,
            "shoulder_lift_joint": -1.908514104345545,
            "shoulder_pan_joint": 0.7066247066606129,
            "wrist_1_joint": -0.4678290933515497,
            "wrist_2_joint": 0.7096259083745334,
            "wrist_3_joint": -3.1358149277392293
        }
    },
    "waypoints": [
        {
            "positions": [
                0.7066247066606129,
                -1.908514104345545,
                2.39358713078474,
                -0.4678290933515497,
                0.7096259083745334,
                -3.1358149277392293
            ]
        },
        {
            "positions": [
                0.6461207056999125,
                -1.9330912546545909,
                2.386191405252601,
                -0.36369835740031764,
                0.6560035716853442,
                -2.9936236229396043
            ]
        },
        {
            "positions": [
                0.5856167047392121,
                -1.9576684049636366,
                2.3787956797204615,
                -0.2595676214490856,
                0.6023812349961548,
                -2.8514323181399797
            ]
        },
        {
            "positions": [
                0.5251127037785117,
                -1.9822455552726823,
                2.3713999541883224,
                -0.1554368854978535,
                0.5487588983069656,
                -2.7092410133403546
            ]
        },
        {
            "positions": [
                0.4646087028178114,
                -2.0068227055817283,
                2.3640042286561833,
                -0.05130614954662144,
                0.49513656161777625,
                -2.56704970854073
            ]
        },
        {
            "positions": [
                0.404104701857111,
                -2.031399855890774,
                2.3566085031240442,
                0.052824586404610574,
                0.44151422492858694,
                -2.424858403741105
            ]
        },
        {
            "positions": [
                0.3436007008964106,
                -2.0559770061998197,
                2.349212777591905,
                0.1569553223558427,
                0.3878918882393977,
                -2.28266709894148
            ]
        },
        {
            "positions": [
                0.28309669993571024,
                -2.0805541565088657,
                2.3418170520597656,
                0.2610860583070748,
                0.3342695515502084,
                -2.1404757941418553
            ]
        },
        {
            "positions": [
                0.22259269897500983,
                -2.1051313068179116,
                2.3344213265276266,
                0.3652167942583069,
                0.28064721486101907,
                -1.9982844893422305
            ]
        },
        {
            "positions": [
                0.30143656007046005,
                -2.1009245960027108,
                2.2287678091539345,
                0.3172131481673063,
                0.2817394049808611,
                -1.8476116134190799
            ]
        },
        {
            "positions": [
                0.38028042116591027,
                -2.0967178851875095,
                2.1231142917802424,
                0.2692095020763057,
                0.28283159510070305,
                -1.6969387374959295
            ]
        },
        {
            "positions": [
                0.4591242822613605,
                -2.0925111743723086,
                2.0174607744065503,
                0.22120585598530504,
                0.28392378522054507,
                -1.546265861572779
            ]
        },
        {
            "positions": [
                0.5379681433568106,
                -2.0883044635571077,
                1.9118072570328584,
                0.17320220989430443,
                0.2850159753403871,
                -1.3955929856496283
            ]
        },
        {
            "positions": [
                0.6168120044522609,
                -2.0840977527419065,
                1.8061537396591663,
                0.12519856380330383,
                0.2861081654602291,
                -1.2449201097264777
            ]
        },
        {
            "positions": [
                0.6956558655477112,
                -2.0798910419267056,
                1.7005002222854742,
                0.07719491771230319,
                0.28720035558007107,
                -1.0942472338033273
            ]
        },
        {
            "positions": [
                0.7744997266431612,
                -2.0756843311115047,
                1.5948467049117823,
                0.029191271621302584,
                0.2882925456999131,
                -0.943574357880177
            ]
        },
        {
            "positions": [
                0.8533435877386115,
                -2.071477620296304,
                1.4891931875380902,
                -0.018812374469698023,
                0.2893847358197551,
                -0.7929014819570264
            ]
        },
        {
            "positions": [
                0.9321874488340618,
                -2.0672709094811026,
                1.383539670164398,
                -0.06681602056069863,
                0.2904769259395971,
                -0.6422286060338758
            ]
        },
        {
            "positions": [
                1.011031309929512,
                -2.0630641986659017,
                1.277886152790706,
                -0.11481966665169924,
                0.2915691160594391,
                -0.4915557301107252
            ]
        },
        {
            "positions": [
                1.0898751710249623,
                -2.058857487850701,
                1.1722326354170138,
                -0.1628233127426999,
                0.2926613061792811,
                -0.3408828541875748
            ]
        },
        {
            "positions": [
                1.1687190321204126,
                -2.0546507770354996,
                1.0665791180433217,
                -0.2108269588337005,
                0.2937534962991231,
                -0.1902099782644242
            ]
        },
        {
            "positions": [
                1.2475628932158627,
                -2.0504440662202987,
                0.9609256006696298,
                -0.258830604924701,
                0.29484568641896514,
                -0.03953710234127383
            ]
        },
        {
            "positions": [
                1.3264067543113127,
                -2.046237355405098,
                0.855272083295938,
                -0.3068342510157017,
                0.2959378765388071,
                0.11113577358187654
            ]
        },
        {
            "positions": [
                1.405250615406763,
                -2.0420306445898966,
                0.7496185659222458,
                -0.3548378971067023,
                0.2970300666586491,
                0.26180864950502714
            ]
        },
        {
            "positions": [
                1.4840944765022133,
                -2.0378239337746957,
                0.6439650485485537,
                -0.40284154319770293,
                0.29812225677849113,
                0.41248152542817773
            ]
        },
        {
            "positions": [
                1.5629383375976635,
                -2.033617222959495,
                0.5383115311748616,
                -0.45084518928870354,
                0.2992144468983331,
                0.5631544013513283
            ]
        },
        {
            "positions": [
                1.6417821986931138,
                -2.0294105121442936,
                0.4326580138011695,
                -0.49884883537970415,
                0.3003066370181751,
                0.7138272772744789
            ]
        },
        {
            "positions": [
                1.720626059788564,
                -2.0252038013290927,
                0.3270044964274774,
                -0.5468524814707048,
                0.30139882713801713,
                0.8645001531976295
            ]
        },
        {
            "positions": [
                1.7994699208840144,
                -2.020997090513892,
                0.2213509790537853,
                -0.5948561275617054,
                0.30249101725785915,
                1.0151730291207801
            ]
        },
        {
            "positions": [
                1.8783137819794644,
                -2.0167903796986906,
                0.1156974616800932,
                -0.642859773652706,
                0.3035832073777011,
                1.1658459050439307
            ]
        },
        {
            "positions": [
                1.9571576430749147,
                -2.0125836688834897,
                0.010043944306401098,
                -0.6908634197437067,
                0.30467539749754313,
                1.3165187809670809
            ]
        },
        {
            "positions": [
                2.036001504170365,
                -2.008376958068289,
                -0.09560957306729101,
                -0.7388670658347072,
                0.30576758761738515,
                1.4671916568902315
            ]
        },
        {
            "positions": [
                2.1148453652658152,
                -2.004170247253088,
                -0.20126309044098312,
                -0.7868707119257079,
                0.30685977773722717,
                1.617864532813382
            ]
        },
        {
            "positions": [
                2.1936892263612657,
                -1.9999635364378867,
                -0.3069166078146748,
                -0.8348743580167086,
                0.30795196785706913,
                1.7685374087365326
            ]
        },
        {
            "positions": [
                2.272533087456716,
                -1.9957568256226859,
                -0.4125701251883669,
                -0.8828780041077089,
                0.30904415797691115,
                1.9192102846596828
            ]
        },
        {
            "positions": [
                2.351376948552166,
                -1.9915501148074848,
                -0.5182236425620586,
                -0.9308816501987096,
                0.31013634809675317,
                2.069883160582833
            ]
        },
        {
            "positions": [
                2.430220809647616,
                -1.987343403992284,
                -0.6238771599357507,
                -0.9788852962897103,
                0.3112285382165952,
                2.2205560365059833
            ]
        },
        {
            "positions": [
                2.5090646707430664,
                -1.9831366931770829,
                -0.7295306773094428,
                -1.0268889423807108,
                0.31232072833643715,
                2.3712289124291344
            ]
        },
        {
            "positions": [
                2.5879085318385164,
                -1.978929982361882,
                -0.8351841946831349,
                -1.0748925884717115,
                0.31341291845627917,
                2.5219017883522845
            ]
        },
        {
            "positions": [
                2.666752392933967,
                -1.974723271546681,
                -0.940837712056827,
                -1.122896234562712,
                0.3145051085761212,
                2.6725746642754356
            ]
        },
        {
            "positions": [
                2.745596254029417,
                -1.9705165607314798,
                -1.046491229430519,
                -1.1708998806537128,
                0.3155972986959632,
                2.8232475401985857
            ]
        },
        {
            "positions": [
                2.8244401151248675,
                -1.966309849916279,
                -1.1521447468042112,
                -1.2189035267447133,
                0.31668948881580516,
                2.9739204161217367
            ]
        },
        {
            "positions": [
                2.9032839762203175,
                -1.962103139101078,
                -1.2577982641779033,
                -1.266907172835714,
                0.3177816789356472,
                3.124593292044887
            ]
        },
        {
            "positions": [
                2.887791314426294,
                -1.9968316503787933,
                -1.3277834358591418,
                -1.41216670422392,
                0.2384223154359244,
                3.1402446241102373
            ]
        },
        {
            "positions": [
                2.87229865263227,
                -2.0315601616565084,
                -1.3977686075403803,
                -1.557426235612126,
                0.15906295193620162,
                3.1558959561755873
            ]
        },
        {
            "positions": [
                2.856805990838246,
                -2.0662886729342236,
                -1.467753779221619,
                -1.7026857670003321,
                0.07970358843647884,
                3.1715472882409377
            ]
        },
        {
            "positions": [
                2.841313329044222,
                -2.101017184211939,
                -1.5377389509028576,
                -1.847945298388538,
                0.0003442249367560657,
                3.1871986203062876
            ]
        },
        {
            "positions": [
                2.8258206672501984,
                -2.1357456954896543,
                -1.6077241225840961,
                -1.9932048297767442,
                -0.07901513856296671,
                3.202849952371638
            ]
        },
        {
            "positions": [
                2.771018805230863,
                -2.1532478189855624,
                -1.621449421935549,
                -2.147521278507043,
                -0.20769104524083723,
                3.185204144419679
            ]
        },
        {
            "positions": [
                2.716216943211528,
                -2.17074994248147,
                -1.6351747212870023,
                -2.3018377272373423,
                -0.33636695191870775,
                3.1675583364677196
            ]
        },
        {
            "positions": [
                2.661415081192193,
                -2.188252065977378,
                -1.6489000206384552,
                -2.456154175967641,
                -0.4650428585965783,
                3.1499125285157605
            ]
        }
    ]
}