{
    "goal": {
        "global_pose": {
            "orientation": {
                "w": 0.5084816217422485,
                "x": -0.49083608388900757,
                "y": 0.5182115435600281,
                "z": -0.4816462993621826
            },
            "position": {
                "x": 0.5540239810943604,
                "y": 0.030875300988554955,
                "z": 0.16403168439865112
            }
        },
        "name": "move_to_storage_A"
    },
    "id": "PRM_move_to_storage_A_116",
    "joint_names": [
        "shoulder_pan_joint",
        "shoulder_lift_joint",
        "elbow_joint",
        "wrist_1_joint",
        "wrist_2_joint",
        "wrist_3_joint"
    ],
    "metrics": {
        "cart_traj_len": 0.3535994969788751,
        "distance_elbow_joint": 0.44945102965823924,
        "distance_shoulder_lift_joint": 0.23592640804838028,
        "distance_shoulder_pan_joint": 0.461242512853682,
        "distance_wrist_1_joint": 0.23842922317884951,
        "distance_wrist_2_joint": 1.1054049822807865,
        "distance_wrist_3_joint": 0.0930155123747678,
        "smoothness": 6.661338165333112e-16,
        "time": 0.026232522,
        "traj_len": 1.6073175381344862,
        "weighted_distance": 2.028135818579189
    },
    "planner": "PRM",
    "start": {
        "state": {
            "elbow_joint": 1.9715463870305268,
            "shoulder_lift_joint": -1.1394903361783484,
            "shoulder_pan_joint": 0.12281147578464417,
            "wrist_1_joint": -0.7804599489681411,
            "wrist_2_joint": 0.12958660307563738,
            "wrist_3_joint": -3.1924946282119055
        }
    },
    "waypoints": [
        {
            "positions": [
                0.12281147578464417,
                -1.1394903361783484,
                1.9715463870305268,
                -0.7804599489681411,
                0.12958660307563738,
                -3.1924946282119055
            ]
        },
        {
            "positions": [
                0.05691968823411818,
                -1.1731941087566884,
                2.0357536769817037,
                -0.8145212665651196,
                0.28750160054432117,
                -3.179206697872653
            ]
        },
        {
            "positions": [
                -0.008972099316407814,
                -1.2068978813350284,
                2.0999609669328807,
                -0.8485825841620981,
                0.4454165980130049,
                -3.1659187675334004
            ]
        },
        {
            "positions": [
                -0.07486388686693381,
                -1.2406016539133684,
                2.1641682568840577,
                -0.8826439017590766,
                0.6033315954816887,
                -3.152630837194148
            ]
        },
        {
            "positions": [
                -0.1407556744174598,
                -1.2743054264917086,
                2.2283755468352346,
                -0.9167052193560551,
                0.7612465929503726,
                -3.1393429068548953
            ]
        },
        {
            "positions": [
                -0.20664746196798583,
                -1.3080091990700486,
                2.292582836786412,
                -0.9507665369530336,
                0.9191615904190564,
                -3.126054976515643
            ]
        },
        {
            "positions": [
                -0.2725392495185118,
                -1.3417129716483887,
                2.356790126737589,
                -0.9848278545500121,
                1.07707658788774,
                -3.11276704617639
            ]
        },
        {
            "positions": [
                -0.3384310370690378,
                -1.3754167442267287,
                2.420997416688766,
                -1.0188891721469906,
                1.234991585356424,
                -3.0994791158371378
            ]
        }
    ]
}