{
    "goal": {
        "global_pose": {
            "orientation": {
                "w": 0.7047431468963623,
                "x": -0.7094548344612122,
                "y": 0.0024358443915843964,
                "z": -0.0022348060738295317
            },
            "position": {
                "x": 0.6094750761985779,
                "y": 0.3671506643295288,
                "z": 0.19426114857196808
            }
        },
        "name": "move_to_magneteinheit_A"
    },
    "id": "PRM_move_to_magneteinheit_A_82",
    "joint_names": [
        "shoulder_pan_joint",
        "shoulder_lift_joint",
        "elbow_joint",
        "wrist_1_joint",
        "wrist_2_joint",
        "wrist_3_joint"
    ],
    "metrics": {
        "cart_traj_len": 2.048189132915217,
        "distance_elbow_joint": 3.8909929104876353,
        "distance_shoulder_lift_joint": 1.1696754705587504,
        "distance_shoulder_pan_joint": 1.2414948635646375,
        "distance_wrist_1_joint": 1.2093378232638132,
        "distance_wrist_2_joint": 1.4398611015045528,
        "distance_wrist_3_joint": 4.3546003637831365,
        "smoothness": 0.11740225426778271,
        "time": 0.23160160000000002,
        "traj_len": 3.64773389012446,
        "weighted_distance": 4.966322803191227
    },
    "planner": "PRM",
    "start": {
        "state": {
            "elbow_joint": -1.919643507792019,
            "shoulder_lift_joint": -0.07675430207160344,
            "shoulder_pan_joint": -1.1188671864651873,
            "wrist_1_joint": 0.42560062535961957,
            "wrist_2_joint": 1.5706038300724876,
            "wrist_3_joint": 1.1188968870953055
        }
    },
    "waypoints": [
        {
            "positions": [
                -1.1188671864651873,
                -0.07675430207160344,
                -1.919643507792019,
                0.42560062535961957,
                1.5706038300724876,
                1.1188968870953055
            ]
        },
        {
            "positions": [
                -1.0841185025949354,
                -0.11053641342807202,
                -1.801840351304033,
                0.38959265870585175,
                1.5298361247350418,
                0.9943086278413585
            ]
        },
        {
            "positions": [
                -1.0493698187246834,
                -0.1443185247845406,
                -1.6840371948160469,
                0.35358469205208387,
                1.4890684193975958,
                0.8697203685874116
            ]
        },
        {
            "positions": [
                -1.0146211348544314,
                -0.17810063614100918,
                -1.5662340383280609,
                0.31757672539831605,
                1.44830071406015,
                0.7451321093334646
            ]
        },
        {
            "positions": [
                -0.9798724509841795,
                -0.2118827474974778,
                -1.4484308818400746,
                0.28156875874454823,
                1.407533008722704,
                0.6205438500795177
            ]
        },
        {
            "positions": [
                -0.9451237671139276,
                -0.24566485885394637,
                -1.3306277253520886,
                0.24556079209078038,
                1.3667653033852583,
                0.4959555908255707
            ]
        },
        {
            "positions": [
                -0.9103750832436757,
                -0.279446970210415,
                -1.2128245688641024,
                0.20955282543701256,
                1.3259975980478123,
                0.3713673315716237
            ]
        },
        {
            "positions": [
                -0.8756263993734237,
                -0.31322908156688356,
                -1.0950214123761164,
                0.17354485878324472,
                1.2852298927103665,
                0.24677907231767682
            ]
        },
        {
            "positions": [
                -0.8408777155031717,
                -0.34701119292335214,
                -0.9772182558881303,
                0.1375368921294769,
                1.2444621873729207,
                0.12219081306372981
            ]
        },
        {
            "positions": [
                -0.8061290316329198,
                -0.38079330427982067,
                -0.8594150994001444,
                0.10152892547570908,
                1.2036944820354747,
                -0.0023974461902169786
            ]
        },
        {
            "positions": [
                -0.7713803477626678,
                -0.4145754156362893,
                -0.7416119429121582,
                0.0655209588219412,
                1.162926776698029,
                -0.1269857054441641
            ]
        },
        {
            "positions": [
                -0.736631663892416,
                -0.4483575269927578,
                -0.6238087864241721,
                0.029512992168173435,
                1.1221590713605831,
                -0.251573964698111
            ]
        },
        {
            "positions": [
                -0.701882980022164,
                -0.48213963834922646,
                -0.5060056299361859,
                -0.00649497448559444,
                1.0813913660231371,
                -0.3761622239520581
            ]
        },
        {
            "positions": [
                -0.667134296151912,
                -0.5159217497056949,
                -0.3882024734481999,
                -0.04250294113936226,
                1.0406236606856911,
                -0.500750483206005
            ]
        },
        {
            "positions": [
                -0.63238561228166,
                -0.5497038610621636,
                -0.2703993169602137,
                -0.07851090779313014,
                0.9998559553482453,
                -0.6253387424599519
            ]
        },
        {
            "positions": [
                -0.5976369284114081,
                -0.5834859724186321,
                -0.15259616047222768,
                -0.11451887444689796,
                0.9590882500107994,
                -0.7499270017138988
            ]
        },
        {
            "positions": [
                -0.5628882445411562,
                -0.6172680837751008,
                -0.034793003984241455,
                -0.15052684110066578,
                0.9183205446733536,
                -0.8745152609678459
            ]
        },
        {
            "positions": [
                -0.5281395606709042,
                -0.6510501951315693,
                0.08301015250374433,
                -0.1865348077544336,
                0.8775528393359078,
                -0.9991035202217926
            ]
        },
        {
            "positions": [
                -0.4933908768006523,
                -0.684832306488038,
                0.20081330899173033,
                -0.22254277440820142,
                0.8367851339984619,
                -1.1236917794757395
            ]
        },
        {
            "positions": [
                -0.4586421929304002,
                -0.7186144178445066,
                0.3186164654797168,
                -0.25855074106196935,
                0.7960174286610159,
                -1.2482800387296868
            ]
        },
        {
            "positions": [
                -0.42389350906014833,
                -0.7523965292009751,
                0.4364196219677028,
                -0.29455870771573717,
                0.7552497233235701,
                -1.3728682979836337
            ]
        },
        {
            "positions": [
                -0.38914482518989635,
                -0.7861786405574438,
                0.5542227784556888,
                -0.3305666743695049,
                0.7144820179861242,
                -1.4974565572375806
            ]
        },
        {
            "positions": [
                -0.3543961413196445,
                -0.8199607519139123,
                0.6720259349436748,
                -0.3665746410232727,
                0.6737143126486784,
                -1.6220448164915275
            ]
        },
        {
            "positions": [
                -0.3196474574493924,
                -0.853742863270381,
                0.7898290914316612,
                -0.4025826076770406,
                0.6329466073112324,
                -1.7466330757454749
            ]
        },
        {
            "positions": [
                -0.2848987735791405,
                -0.8875249746268494,
                0.9076322479196473,
                -0.43859057433080845,
                0.5921789019737865,
                -1.8712213349994218
            ]
        },
        {
            "positions": [
                -0.25015008970888863,
                -0.9213070859833181,
                1.0254354044076333,
                -0.47459854098457627,
                0.5514111966363406,
                -1.9958095942533687
            ]
        },
        {
            "positions": [
                -0.21540140583863665,
                -0.9550891973397866,
                1.1432385608956193,
                -0.5106065076383441,
                0.5106434912988949,
                -2.1203978535073156
            ]
        },
        {
            "positions": [
                -0.18065272196838467,
                -0.9888713086962553,
                1.2610417173836057,
                -0.546614474292112,
                0.46987578596144886,
                -2.244986112761263
            ]
        },
        {
            "positions": [
                -0.14590403809813268,
                -1.0226534200527237,
                1.3788448738715917,
                -0.5826224409458798,
                0.4291080806240031,
                -2.3695743720152094
            ]
        },
        {
            "positions": [
                -0.1111553542278807,
                -1.0564355314091924,
                1.4966480303595777,
                -0.6186304075996476,
                0.3883403752865573,
                -2.4941626312691563
            ]
        },
        {
            "positions": [
                -0.07640667035762894,
                -1.090217642765661,
                1.6144511868475637,
                -0.6546383742534154,
                0.3475726699491113,
                -2.618750890523103
            ]
        },
        {
            "positions": [
                -0.04165798648737673,
                -1.1239997541221296,
                1.7322543433355502,
                -0.6906463409071832,
                0.3068049646116655,
                -2.7433391497770505
            ]
        },
        {
            "positions": [
                -0.006909302617124968,
                -1.1577818654785983,
                1.8500574998235362,
                -0.7266543075609511,
                0.2660372592742195,
                -2.8679274090309974
            ]
        },
        {
            "positions": [
                0.027839381253126974,
                -1.1915639768350668,
                1.9678606563115224,
                -0.7626622742147189,
                0.22526955393677373,
                -2.9925156682849448
            ]
        },
        {
            "positions": [
                0.07523352917628853,
                -1.164131078937423,
                1.9661162831194754,
                -0.7521248123699816,
                0.17800614125235426,
                -3.1141095724863876
            ]
        },
        {
            "positions": [
                0.12262767709945008,
                -1.1366981810397796,
                1.9643719099274286,
                -0.7415873505252444,
                0.13074272856793476,
                -3.2357034766878305
            ]
        }
    ]
}