{
    "goal": {
        "global_pose": {
            "orientation": {
                "w": 0.7047431468963623,
                "x": -0.7094548344612122,
                "y": 0.0024358443915843964,
                "z": -0.0022348060738295317
            },
            "position": {
                "x": 0.6094750761985779,
                "y": 0.3671506643295288,
                "z": 0.19426114857196808
            }
        },
        "name": "move_to_magneteinheit_A"
    },
    "id": "PRM_move_to_magneteinheit_A_5",
    "joint_names": [
        "shoulder_pan_joint",
        "shoulder_lift_joint",
        "elbow_joint",
        "wrist_1_joint",
        "wrist_2_joint",
        "wrist_3_joint"
    ],
    "metrics": {
        "cart_traj_len": 1.8730519288980843,
        "distance_elbow_joint": 3.929306099236335,
        "distance_shoulder_lift_joint": 0.7068564200819744,
        "distance_shoulder_pan_joint": 1.2416840006765466,
        "distance_wrist_1_joint": 1.5457387212272584,
        "distance_wrist_2_joint": 1.7016263918300747,
        "distance_wrist_3_joint": 1.1667865365298542,
        "smoothness": 2.631639764355545e-16,
        "time": 0.045573453,
        "traj_len": 3.208114425886652,
        "weighted_distance": 3.984085385091425
    },
    "planner": "PRM",
    "start": {
        "state": {
            "elbow_joint": -1.919643507792019,
            "shoulder_lift_joint": -0.07675430207160344,
            "shoulder_pan_joint": -1.1188671864651873,
            "wrist_1_joint": 0.42560062535961957,
            "wrist_2_joint": 1.5706038300724876,
            "wrist_3_joint": 1.1188968870953055
        }
    },
    "waypoints": [
        {
            "positions": [
                -1.1188671864651873,
                -0.07675430207160344,
                -1.919643507792019,
                0.42560062535961957,
                1.5706038300724876,
                1.1188968870953055
            ]
        },
        {
            "positions": [
                -1.0711101095160893,
                -0.1039410874593717,
                -1.768516350129083,
                0.48505211463759107,
                1.5051566611559464,
                1.0740204818441572
            ]
        },
        {
            "positions": [
                -1.0233530325669915,
                -0.13112787284713995,
                -1.6173891924661472,
                0.5445036039155625,
                1.439709492239405,
                1.029144076593009
            ]
        },
        {
            "positions": [
                -0.9755959556178935,
                -0.1583146582349082,
                -1.4662620348032112,
                0.603955093193534,
                1.3742623233228637,
                0.9842676713418608
            ]
        },
        {
            "positions": [
                -0.9278388786687956,
                -0.18550144362267645,
                -1.315134877140275,
                0.6634065824715055,
                1.3088151544063222,
                0.9393912660907126
            ]
        },
        {
            "positions": [
                -0.8800818017196976,
                -0.2126882290104447,
                -1.1640077194773393,
                0.722858071749477,
                1.243367985489781,
                0.8945148608395643
            ]
        },
        {
            "positions": [
                -0.8323247247705996,
                -0.23987501439821293,
                -1.0128805618144032,
                0.7823095610274484,
                1.1779208165732395,
                0.8496384555884161
            ]
        },
        {
            "positions": [
                -0.7845676478215018,
                -0.2670617997859812,
                -0.8617534041514674,
                0.8417610503054198,
                1.1124736476566983,
                0.8047620503372679
            ]
        },
        {
            "positions": [
                -0.7368105708724038,
                -0.2942485851737494,
                -0.7106262464885313,
                0.9012125395833914,
                1.0470264787401569,
                0.7598856450861196
            ]
        },
        {
            "positions": [
                -0.6890534939233058,
                -0.32143537056151766,
                -0.5594990888255955,
                0.9606640288613628,
                0.9815793098236156,
                0.7150092398349714
            ]
        },
        {
            "positions": [
                -0.6412964169742079,
                -0.34862215594928597,
                -0.40837193116265924,
                1.0201155181393344,
                0.9161321409070742,
                0.6701328345838231
            ]
        },
        {
            "positions": [
                -0.59353934002511,
                -0.37580894133705417,
                -0.2572447734997234,
                1.0795670074173058,
                0.850684971990533,
                0.625256429332675
            ]
        },
        {
            "positions": [
                -0.545782263076012,
                -0.4029957267248224,
                -0.10611761583678736,
                1.1390184966952774,
                0.7852378030739916,
                0.5803800240815267
            ]
        },
        {
            "positions": [
                -0.49802518612691404,
                -0.4301825121125907,
                0.04500954182614847,
                1.1984699859732488,
                0.7197906341574503,
                0.5355036188303784
            ]
        },
        {
            "positions": [
                -0.4502681091778161,
                -0.45736929750035893,
                0.1961366994890843,
                1.2579214752512202,
                0.6543434652409089,
                0.4906272135792302
            ]
        },
        {
            "positions": [
                -0.4025110322287182,
                -0.4845560828881271,
                0.34726385715202013,
                1.3173729645291916,
                0.5888962963243677,
                0.445750808328082
            ]
        },
        {
            "positions": [
                -0.35475395527962017,
                -0.5117428682758954,
                0.4983910148149564,
                1.3768244538071632,
                0.5234491274078261,
                0.40087440307693367
            ]
        },
        {
            "positions": [
                -0.30699687833052225,
                -0.5389296536636636,
                0.6495181724778922,
                1.4362759430851348,
                0.4580019584912849,
                0.35599799782578545
            ]
        },
        {
            "positions": [
                -0.25923980138142433,
                -0.5661164390514319,
                0.8006453301408281,
                1.4957274323631062,
                0.39255478957474366,
                0.31112159257463723
            ]
        },
        {
            "positions": [
                -0.2114827244323264,
                -0.5933032244392,
                0.9517724878037639,
                1.5551789216410776,
                0.3271076206582024,
                0.2662451873234891
            ]
        },
        {
            "positions": [
                -0.16372564748322838,
                -0.6204900098269686,
                1.1028996454667006,
                1.6146304109190492,
                0.26166045174166075,
                0.22136878207234068
            ]
        },
        {
            "positions": [
                -0.11596857053413046,
                -0.6476767952147366,
                1.2540268031296364,
                1.6740819001970206,
                0.19621328282511952,
                0.17649237682119256
            ]
        },
        {
            "positions": [
                -0.06821149358503265,
                -0.674863580602505,
                1.4051539607925723,
                1.733533389474992,
                0.13076611390857829,
                0.13161597157004434
            ]
        },
        {
            "positions": [
                -0.020454416635934614,
                -0.702050365990273,
                1.556281118455508,
                1.7929848787529636,
                0.06531894499203705,
                0.08673956631889612
            ]
        },
        {
            "positions": [
                0.027302660313163418,
                -0.7292371513780413,
                1.7074082761184444,
                1.8524363680309353,
                -0.00012822392450440034,
                0.04186316106774779
            ]
        },
        {
            "positions": [
                0.07505973726226145,
                -0.7564239367658097,
                1.8585354337813802,
                1.9118878573089066,
                -0.06557539284104585,
                -0.003013244183400543
            ]
        },
        {
            "positions": [
                0.12281681421135929,
                -0.7836107221535779,
                2.0096625914443162,
                1.971339346586878,
                -0.13102256175758697,
                -0.047889649434548744
            ]
        }
    ]
}