{
    "goal": {
        "global_pose": {
            "orientation": {
                "w": -0.00223480608172531,
                "x": 0.0024358444001904467,
                "y": 0.7094548369677653,
                "z": -0.704743149386269
            },
            "position": {
                "x": 0.6205249238014221,
                "y": -0.6371506643295288,
                "z": 0.19426114857196808
            }
        },
        "name": "move_to_magneteinheit_B"
    },
    "id": "PRM_move_to_magneteinheit_B_147",
    "joint_names": [
        "shoulder_pan_joint",
        "shoulder_lift_joint",
        "elbow_joint",
        "wrist_1_joint",
        "wrist_2_joint",
        "wrist_3_joint"
    ],
    "metrics": {
        "cart_traj_len": 4.002386666296485,
        "distance_elbow_joint": 4.057122490450477,
        "distance_shoulder_lift_joint": 1.1553211618648405,
        "distance_shoulder_pan_joint": 3.451731072979381,
        "distance_wrist_1_joint": 1.6276645432839545,
        "distance_wrist_2_joint": 0.8986672041034082,
        "distance_wrist_3_joint": 3.1407084660362714,
        "smoothness": 0.1287549933552179,
        "time": 1.360338607,
        "traj_len": 3.785659115493408,
        "weighted_distance": 4.810297664196908
    },
    "planner": "PRM",
    "start": {
        "state": {
            "elbow_joint": 2.39358713078474,
            "shoulder_lift_joint": -1.908514104345545,
            "shoulder_pan_joint": 0.7066247066606129,
            "wrist_1_joint": -0.4678290933515497,
            "wrist_2_joint": 0.7096259083745334,
            "wrist_3_joint": -3.1358149277392293
        }
    },
    "waypoints": [
        {
            "positions": [
                0.7066247066606129,
                -1.908514104345545,
                2.39358713078474,
                -0.4678290933515497,
                0.7096259083745334,
                -3.1358149277392293
            ]
        },
        {
            "positions": [
                0.5478248475725579,
                -1.8713612887338926,
                2.359533710517905,
                -0.42687931333018514,
                0.5928926844693992,
                -3.1326446188378005
            ]
        },
        {
            "positions": [
                0.3890249884845029,
                -1.8342084731222401,
                2.325480290251069,
                -0.3859295333088206,
                0.476159460564265,
                -3.1294743099363713
            ]
        },
        {
            "positions": [
                0.2302251293964479,
                -1.7970556575105876,
                2.2914268699842335,
                -0.3449797532874561,
                0.35942623665913076,
                -3.126304001034942
            ]
        },
        {
            "positions": [
                0.07142527030839288,
                -1.7599028418989353,
                2.2573734497173983,
                -0.30402997326609155,
                0.24269301275399655,
                -3.1231336921335133
            ]
        },
        {
            "positions": [
                0.06744652954702872,
                -1.7240683941209543,
                2.1074568641930993,
                -0.21247982759041742,
                0.21702846708327742,
                -3.088191062046081
            ]
        },
        {
            "positions": [
                0.06346778878566456,
                -1.6882339463429732,
                1.9575402786688003,
                -0.12092968191474329,
                0.19136392141255829,
                -3.0532484319586484
            ]
        },
        {
            "positions": [
                0.0594890480243004,
                -1.6523994985649924,
                1.807623693144501,
                -0.029379536239069137,
                0.16569937574183916,
                -3.0183058018712154
            ]
        },
        {
            "positions": [
                0.05551030726293624,
                -1.6165650507870113,
                1.6577071076202021,
                0.062170609436604976,
                0.14003483007112003,
                -2.983363171783783
            ]
        },
        {
            "positions": [
                0.1606642371485213,
                -1.633807507428428,
                1.5264912502293542,
                0.10443113901226307,
                0.14212809789946443,
                -2.893726139765128
            ]
        },
        {
            "positions": [
                0.2658181670341063,
                -1.6510499640698448,
                1.3952753928385064,
                0.14669166858792115,
                0.14422136572780883,
                -2.804089107746473
            ]
        },
        {
            "positions": [
                0.37097209691969135,
                -1.6682924207112615,
                1.2640595354476585,
                0.18895219816357928,
                0.1463146335561532,
                -2.714452075727818
            ]
        },
        {
            "positions": [
                0.4761260268052764,
                -1.6855348773526782,
                1.1328436780568105,
                0.23121272773923734,
                0.1484079013844976,
                -2.624815043709163
            ]
        },
        {
            "positions": [
                0.5812799566908615,
                -1.702777333994095,
                1.0016278206659628,
                0.27347325731489547,
                0.150501169212842,
                -2.535178011690508
            ]
        },
        {
            "positions": [
                0.6864338865764466,
                -1.7200197906355117,
                0.8704119632751148,
                0.31573378689055354,
                0.15259443704118641,
                -2.445540979671853
            ]
        },
        {
            "positions": [
                0.7915878164620317,
                -1.7372622472769286,
                0.7391961058842669,
                0.35799431646621166,
                0.15468770486953082,
                -2.3559039476531973
            ]
        },
        {
            "positions": [
                0.8967417463476166,
                -1.7545047039183452,
                0.6079802484934191,
                0.4002548460418697,
                0.15678097269787522,
                -2.2662669156345427
            ]
        },
        {
            "positions": [
                1.0018956762332016,
                -1.771747160559762,
                0.4767643911025712,
                0.4425153756175278,
                0.15887424052621962,
                -2.1766298836158873
            ]
        },
        {
            "positions": [
                1.1070496061187867,
                -1.7889896172011788,
                0.3455485337117232,
                0.4847759051931859,
                0.160967508354564,
                -2.0869928515972322
            ]
        },
        {
            "positions": [
                1.2122035360043717,
                -1.8062320738425954,
                0.2143326763208755,
                0.527036434768844,
                0.1630607761829084,
                -1.9973558195785777
            ]
        },
        {
            "positions": [
                1.3173574658899567,
                -1.8234745304840123,
                0.08311681893002754,
                0.5692969643445022,
                0.1651540440112528,
                -1.9077187875599224
            ]
        },
        {
            "positions": [
                1.4225113957755418,
                -1.840716987125429,
                -0.0480990384608202,
                0.6115574939201602,
                0.1672473118395972,
                -1.8180817555412674
            ]
        },
        {
            "positions": [
                1.527665325661127,
                -1.8579594437668456,
                -0.17931489585166838,
                0.6538180234958184,
                0.1693405796679416,
                -1.7284447235226121
            ]
        },
        {
            "positions": [
                1.6328192555467118,
                -1.8752019004082623,
                -0.3105307532425161,
                0.6960785530714765,
                0.17143384749628598,
                -1.6388076915039573
            ]
        },
        {
            "positions": [
                1.7379731854322968,
                -1.8924443570496792,
                -0.44174661063336385,
                0.7383390826471345,
                0.1735271153246304,
                -1.5491706594853023
            ]
        },
        {
            "positions": [
                1.843127115317882,
                -1.909686813691096,
                -0.572962468024212,
                0.7805996122227927,
                0.1756203831529748,
                -1.459533627466647
            ]
        },
        {
            "positions": [
                1.9482810452034671,
                -1.9269292703325127,
                -0.7041783254150598,
                0.8228601417984507,
                0.1777136509813192,
                -1.369896595447992
            ]
        },
        {
            "positions": [
                2.053434975089052,
                -1.9441717269739294,
                -0.8353941828059075,
                0.8651206713741088,
                0.1798069188096636,
                -1.2802595634293372
            ]
        },
        {
            "positions": [
                2.1585889049746374,
                -1.961414183615346,
                -0.9666100401967557,
                0.9073812009497669,
                0.181900186638008,
                -1.190622531410682
            ]
        },
        {
            "positions": [
                2.2637428348602224,
                -1.978656640256763,
                -1.0978258975876034,
                0.949641730525425,
                0.1839934544663524,
                -1.100985499392027
            ]
        },
        {
            "positions": [
                2.3688967647458075,
                -1.9958990968981796,
                -1.2290417549784511,
                0.9919022601010831,
                0.18608672229469678,
                -1.0113484673733721
            ]
        },
        {
            "positions": [
                2.4740506946313925,
                -2.0131415535395965,
                -1.3602576123692993,
                1.0341627896767411,
                0.18817999012304118,
                -0.9217114353547169
            ]
        },
        {
            "positions": [
                2.5792046245169775,
                -2.030384010181013,
                -1.4914734697601473,
                1.0764233192523993,
                0.19027325795138558,
                -0.8320744033360619
            ]
        },
        {
            "positions": [
                2.6688744097734745,
                -2.0707512666290593,
                -1.5404856621272707,
                1.0717512836526604,
                0.19964628368565956,
                -0.7534760971250294
            ]
        },
        {
            "positions": [
                2.758544195029972,
                -2.1111185230771055,
                -1.5894978544943938,
                1.0670792480529214,
                0.20901930941993352,
                -0.6748777909139969
            ]
        },
        {
            "positions": [
                2.734148498576305,
                -2.2033231820811587,
                -1.6080072307872297,
                1.0485622331827895,
                0.2740422210327288,
                -0.5049349586112373
            ]
        },
        {
            "positions": [
                2.7097528021226376,
                -2.295527841085212,
                -1.6265166070800658,
                1.0300452183126578,
                0.33906513264552407,
                -0.33499212630847763
            ]
        },
        {
            "positions": [
                2.6853571056689707,
                -2.387732500089265,
                -1.6450259833729017,
                1.011528203442526,
                0.4040880442583193,
                -0.165049294005718
            ]
        },
        {
            "positions": [
                2.6609614092153038,
                -2.479937159093318,
                -1.6635353596657376,
                0.9930111885723941,
                0.46911095587111457,
                0.004893538297041614
            ]
        }
    ]
}