{
    "goal": {
        "global_pose": {
            "orientation": {
                "w": 0.7031023502349854,
                "x": -0.7110244035720825,
                "y": 0.007748599164187908,
                "z": 0.005598929710686207
            },
            "position": {
                "x": 0.11585023208521307,
                "y": 0.44412534475326537,
                "z": 0.3711530566215515
            }
        },
        "name": "move_to_auspresseinheit_A"
    },
    "id": "PRM_move_to_auspresseinheit_A_48",
    "joint_names": [
        "shoulder_pan_joint",
        "shoulder_lift_joint",
        "elbow_joint",
        "wrist_1_joint",
        "wrist_2_joint",
        "wrist_3_joint"
    ],
    "metrics": {
        "cart_traj_len": 0.7040414823369483,
        "distance_elbow_joint": 0.025972349963780506,
        "distance_shoulder_lift_joint": 0.7207466205035256,
        "distance_shoulder_pan_joint": 1.043435886020088,
        "distance_wrist_1_joint": 0.5463419816107382,
        "distance_wrist_2_joint": 0.523748517220258,
        "distance_wrist_3_joint": 0.5799686008556382,
        "smoothness": 0.6626935212713839,
        "time": 0.102733003,
        "traj_len": 1.8547813769212877,
        "weighted_distance": 2.381226922558264
    },
    "planner": "PRM",
    "start": {
        "state": {
            "elbow_joint": 2.422574709923281,
            "shoulder_lift_joint": -1.3736533754116391,
            "shoulder_pan_joint": -0.33786336945926293,
            "wrist_1_joint": -1.0288603412921917,
            "wrist_2_joint": 1.2330224858903978,
            "wrist_3_joint": -3.094022268022082
        }
    },
    "waypoints": [
        {
            "positions": [
                -0.33786336945926293,
                -1.3736533754116391,
                2.422574709923281,
                -1.0288603412921917,
                1.2330224858903978,
                -3.094022268022082
            ]
        },
        {
            "positions": [
                -0.23190683974326842,
                -1.4783988594578683,
                2.4191008114217527,
                -0.9483560709187429,
                1.1962763709479596,
                -3.047876268368919
            ]
        },
        {
            "positions": [
                -0.1259503100272739,
                -1.5831443435040973,
                2.4156269129202244,
                -0.867851800545294,
                1.1595302560055212,
                -3.0017302687157557
            ]
        },
        {
            "positions": [
                -0.019993780311279352,
                -1.6878898275503265,
                2.4121530144186965,
                -0.7873475301718451,
                1.1227841410630828,
                -2.9555842690625926
            ]
        },
        {
            "positions": [
                0.08596274940471516,
                -1.7926353115965554,
                2.408679115917168,
                -0.7068432597983964,
                1.0860380261206446,
                -2.9094382694094296
            ]
        },
        {
            "positions": [
                0.19191927912070977,
                -1.8973807956427846,
                2.4052052174156398,
                -0.6263389894249474,
                1.0492919111782064,
                -2.863292269756266
            ]
        },
        {
            "positions": [
                0.2978758088367043,
                -2.002126279689014,
                2.4017313189141114,
                -0.5458347190514986,
                1.012545796235768,
                -2.817146270103103
            ]
        },
        {
            "positions": [
                0.4337747114114112,
                -1.9713683742802968,
                2.4000216659292413,
                -0.5247292659281503,
                0.9114551870472253,
                -2.918177137748656
            ]
        },
        {
            "positions": [
                0.5696736139861182,
                -1.94061046887158,
                2.3983120129443707,
                -0.503623812804802,
                0.8103645778586825,
                -3.0192080053942094
            ]
        },
        {
            "positions": [
                0.7055725165608251,
                -1.909852563462863,
                2.3966023599595005,
                -0.48251835968145357,
                0.7092739686701398,
                -3.1202388730397623
            ]
        }
    ]
}