{
    "goal": {
        "global_pose": {
            "orientation": {
                "w": 0.5084816217422485,
                "x": -0.49083608388900757,
                "y": 0.5182115435600281,
                "z": -0.4816462993621826
            },
            "position": {
                "x": 0.5540239810943604,
                "y": 0.030875300988554955,
                "z": 0.16403168439865112
            }
        },
        "name": "move_to_storage_A"
    },
    "id": "PRM_move_to_storage_A_42",
    "joint_names": [
        "shoulder_pan_joint",
        "shoulder_lift_joint",
        "elbow_joint",
        "wrist_1_joint",
        "wrist_2_joint",
        "wrist_3_joint"
    ],
    "metrics": {
        "cart_traj_len": 0.35381712816312244,
        "distance_elbow_joint": 0.45238692311682804,
        "distance_shoulder_lift_joint": 0.2347565866837822,
        "distance_shoulder_pan_joint": 0.460899115100175,
        "distance_wrist_1_joint": 0.25489952513310377,
        "distance_wrist_2_joint": 1.1080104244626434,
        "distance_wrist_3_joint": 0.09816681735571375,
        "smoothness": 4.440892133664971e-16,
        "time": 0.027263888,
        "traj_len": 1.6152768777680953,
        "weighted_distance": 2.041656919308291
    },
    "planner": "PRM",
    "start": {
        "state": {
            "elbow_joint": 1.9715463870305268,
            "shoulder_lift_joint": -1.1394903361783484,
            "shoulder_pan_joint": 0.12281147578464417,
            "wrist_1_joint": -0.7804599489681411,
            "wrist_2_joint": 0.12958660307563738,
            "wrist_3_joint": -3.1924946282119055
        }
    },
    "waypoints": [
        {
            "positions": [
                0.12281147578464417,
                -1.1394903361783484,
                1.9715463870305268,
                -0.7804599489681411,
                0.12958660307563738,
                -3.1924946282119055
            ]
        },
        {
            "positions": [
                0.05696874505604775,
                -1.1730269914188887,
                2.0361730903329307,
                -0.8168741668442988,
                0.2878738065703007,
                -3.1784707971610895
            ]
        },
        {
            "positions": [
                -0.00887398567254867,
                -1.206563646659429,
                2.1007997936353346,
                -0.8532883847204564,
                0.446161010064964,
                -3.164446966110273
            ]
        },
        {
            "positions": [
                -0.07471671640114509,
                -1.2401003018999692,
                2.1654264969377386,
                -0.8897026025966142,
                0.6044482135596274,
                -3.150423135059457
            ]
        },
        {
            "positions": [
                -0.1405594471297415,
                -1.2736369571405097,
                2.2300532002401425,
                -0.9261168204727718,
                0.7627354170542907,
                -3.1363993040086404
            ]
        },
        {
            "positions": [
                -0.20640217785833798,
                -1.30717361238105,
                2.294679903542547,
                -0.9625310383489295,
                0.9210226205489541,
                -3.1223754729578244
            ]
        },
        {
            "positions": [
                -0.27224490858693434,
                -1.3407102676215903,
                2.359306606844951,
                -0.9989452562250871,
                1.0793098240436174,
                -3.108351641907008
            ]
        },
        {
            "positions": [
                -0.3380876393155308,
                -1.3742469228621306,
                2.423933310147355,
                -1.0353594741012448,
                1.2375970275382808,
                -3.094327810856192
            ]
        }
    ]
}