{
    "goal": {
        "global_pose": {
            "orientation": {
                "w": 0.5084816217422485,
                "x": -0.49083608388900757,
                "y": 0.5182115435600281,
                "z": -0.4816462993621826
            },
            "position": {
                "x": 0.5540239810943604,
                "y": 0.030875300988554955,
                "z": 0.16403168439865112
            }
        },
        "name": "move_to_storage_A"
    },
    "id": "PRM_move_to_storage_A_24",
    "joint_names": [
        "shoulder_pan_joint",
        "shoulder_lift_joint",
        "elbow_joint",
        "wrist_1_joint",
        "wrist_2_joint",
        "wrist_3_joint"
    ],
    "metrics": {
        "cart_traj_len": 0.3525999647656213,
        "distance_elbow_joint": 0.4489182270875949,
        "distance_shoulder_lift_joint": 0.23346401511283976,
        "distance_shoulder_pan_joint": 0.4566985517996397,
        "distance_wrist_1_joint": 0.24348637392536776,
        "distance_wrist_2_joint": 1.1158831585725542,
        "distance_wrist_3_joint": 0.10121667798530387,
        "smoothness": 1.1102230263833737e-15,
        "time": 0.042190288,
        "traj_len": 1.612348288826983,
        "weighted_distance": 2.0399681107683594
    },
    "planner": "PRM",
    "start": {
        "state": {
            "elbow_joint": 1.9715463870305268,
            "shoulder_lift_joint": -1.1394903361783484,
            "shoulder_pan_joint": 0.12281147578464417,
            "wrist_1_joint": -0.7804599489681411,
            "wrist_2_joint": 0.12958660307563738,
            "wrist_3_joint": -3.1924946282119055
        }
    },
    "waypoints": [
        {
            "positions": [
                0.12281147578464417,
                -1.1394903361783484,
                1.9715463870305268,
                -0.7804599489681411,
                0.12958660307563738,
                -3.1924946282119055
            ]
        },
        {
            "positions": [
                0.0575688255275528,
                -1.1728423383373254,
                2.0356775623287544,
                -0.8152437166717651,
                0.28899848287171653,
                -3.1780351027854334
            ]
        },
        {
            "positions": [
                -0.007673824729538578,
                -1.2061943404963027,
                2.0998087376269825,
                -0.850027484375389,
                0.44841036266779566,
                -3.1635755773589618
            ]
        },
        {
            "positions": [
                -0.07291647498662997,
                -1.2395463426552797,
                2.16393991292521,
                -0.884811252079013,
                0.6078222424638748,
                -3.1491160519324897
            ]
        },
        {
            "positions": [
                -0.13815912524372131,
                -1.2728983448142568,
                2.2280710882234382,
                -0.9195950197826369,
                0.767234122259954,
                -3.1346565265060176
            ]
        },
        {
            "positions": [
                -0.20340177550081273,
                -1.306250346973234,
                2.292202263521666,
                -0.9543787874862609,
                0.9266460020560332,
                -3.1201970010795455
            ]
        },
        {
            "positions": [
                -0.2686444257579041,
                -1.339602349132211,
                2.3563334388198935,
                -0.9891625551898848,
                1.0860578818521123,
                -3.105737475653074
            ]
        },
        {
            "positions": [
                -0.3338870760149955,
                -1.3729543512911881,
                2.4204646141181216,
                -1.0239463228935088,
                1.2454697616481916,
                -3.0912779502266017
            ]
        }
    ]
}