{
    "goal": {
        "global_pose": {
            "orientation": {
                "w": -0.00223480608172531,
                "x": 0.0024358444001904467,
                "y": 0.7094548369677653,
                "z": -0.704743149386269
            },
            "position": {
                "x": 0.6205249238014221,
                "y": -0.6371506643295288,
                "z": 0.19426114857196808
            }
        },
        "name": "move_to_magneteinheit_B"
    },
    "id": "PRM_move_to_magneteinheit_B_8",
    "joint_names": [
        "shoulder_pan_joint",
        "shoulder_lift_joint",
        "elbow_joint",
        "wrist_1_joint",
        "wrist_2_joint",
        "wrist_3_joint"
    ],
    "metrics": {
        "cart_traj_len": 1.4529398102084132,
        "distance_elbow_joint": 0.731269569987343,
        "distance_shoulder_lift_joint": 1.2489129772141583,
        "distance_shoulder_pan_joint": 1.6192976576681577,
        "distance_wrist_1_joint": 2.6085754270870196,
        "distance_wrist_2_joint": 2.9492345256072667,
        "distance_wrist_3_joint": 3.131150460712345,
        "smoothness": 5.113754555385124e-16,
        "time": 0.041562823,
        "traj_len": 3.505487215534567,
        "weighted_distance": 4.910045976607068
    },
    "planner": "PRM",
    "start": {
        "state": {
            "elbow_joint": 2.39358713078474,
            "shoulder_lift_joint": -1.908514104345545,
            "shoulder_pan_joint": 0.7066247066606129,
            "wrist_1_joint": -0.4678290933515497,
            "wrist_2_joint": 0.7096259083745334,
            "wrist_3_joint": -3.1358149277392293
        }
    },
    "waypoints": [
        {
            "positions": [
                0.7066247066606129,
                -1.908514104345545,
                2.39358713078474,
                -0.4678290933515497,
                0.7096259083745334,
                -3.1358149277392293
            ]
        },
        {
            "positions": [
                0.656021654858483,
                -1.8694855738076024,
                2.3707349567226355,
                -0.38631111125508033,
                0.6174623294493063,
                -3.0379664758419684
            ]
        },
        {
            "positions": [
                0.6054186030563531,
                -1.83045704326966,
                2.3478827826605313,
                -0.304793129158611,
                0.5252987505240793,
                -2.9401180239447076
            ]
        },
        {
            "positions": [
                0.5548155512542232,
                -1.7914285127317175,
                2.3250306085984267,
                -0.22327514706214163,
                0.4331351715988522,
                -2.842269572047447
            ]
        },
        {
            "positions": [
                0.5042124994520932,
                -1.7523999821937752,
                2.302178434536322,
                -0.14175716496567226,
                0.3409715926736251,
                -2.7444211201501862
            ]
        },
        {
            "positions": [
                0.4536094476499633,
                -1.7133714516558327,
                2.2793262604742175,
                -0.06023918286920288,
                0.248808013748398,
                -2.6465726682529254
            ]
        },
        {
            "positions": [
                0.4030063958478334,
                -1.6743429211178902,
                2.2564740864121133,
                0.021278799227266443,
                0.15664443482317092,
                -2.5487242163556645
            ]
        },
        {
            "positions": [
                0.35240334404570345,
                -1.6353143905799477,
                2.2336219123500087,
                0.10279678132373588,
                0.06448085589794383,
                -2.450875764458404
            ]
        },
        {
            "positions": [
                0.3018002922435735,
                -1.5962858600420053,
                2.210769738287904,
                0.1843147634202052,
                -0.02768272302728325,
                -2.353027312561143
            ]
        },
        {
            "positions": [
                0.2511972404414436,
                -1.557257329504063,
                2.1879175642258,
                0.2658327455166745,
                -0.11984630195251034,
                -2.2551788606638823
            ]
        },
        {
            "positions": [
                0.20059418863931366,
                -1.5182287989661205,
                2.1650653901636954,
                0.34735072761314395,
                -0.21200988087773742,
                -2.1573304087666214
            ]
        },
        {
            "positions": [
                0.14999113683718368,
                -1.479200268428178,
                2.1422132161015908,
                0.42886870970961327,
                -0.3041734598029645,
                -2.0594819568693605
            ]
        },
        {
            "positions": [
                0.09938808503505381,
                -1.4401717378902354,
                2.119361042039486,
                0.5103866918060826,
                -0.3963370387281916,
                -1.9616335049720999
            ]
        },
        {
            "positions": [
                0.048785033232923936,
                -1.4011432073522931,
                2.096508867977382,
                0.591904673902552,
                -0.4885006176534187,
                -1.8637850530748392
            ]
        },
        {
            "positions": [
                -0.001818018569206048,
                -1.3621146768143506,
                2.0736566939152774,
                0.6734226559990215,
                -0.5806641965786458,
                -1.7659366011775783
            ]
        },
        {
            "positions": [
                -0.05242107037133603,
                -1.3230861462764083,
                2.0508045198531732,
                0.7549406380954908,
                -0.6728277755038728,
                -1.6680881492803177
            ]
        },
        {
            "positions": [
                -0.1030241221734659,
                -1.2840576157384658,
                2.0279523457910686,
                0.8364586201919602,
                -0.7649913544290999,
                -1.5702396973830568
            ]
        },
        {
            "positions": [
                -0.15362717397559578,
                -1.2450290852005232,
                2.005100171728964,
                0.9179766022884295,
                -0.857154933354327,
                -1.472391245485796
            ]
        },
        {
            "positions": [
                -0.20423022577772576,
                -1.206000554662581,
                1.9822479976668597,
                0.9994945843848988,
                -0.9493185122795541,
                -1.3745427935885353
            ]
        },
        {
            "positions": [
                -0.25483327757985574,
                -1.1669720241246384,
                1.959395823604755,
                1.0810125664813683,
                -1.0414820912047813,
                -1.2766943416912744
            ]
        },
        {
            "positions": [
                -0.3054363293819856,
                -1.127943493586696,
                1.9365436495426507,
                1.1625305485778377,
                -1.1336456701300084,
                -1.1788458897940137
            ]
        },
        {
            "positions": [
                -0.3560393811841155,
                -1.0889149630487536,
                1.913691475480546,
                1.244048530674307,
                -1.2258092490552355,
                -1.080997437896753
            ]
        },
        {
            "positions": [
                -0.4066424329862456,
                -1.049886432510811,
                1.8908393014184417,
                1.3255665127707763,
                -1.3179728279804626,
                -0.9831489859994922
            ]
        },
        {
            "positions": [
                -0.45724548478837546,
                -1.0108579019728685,
                1.8679871273563373,
                1.4070844948672456,
                -1.4101364069056896,
                -0.8853005341022313
            ]
        },
        {
            "positions": [
                -0.5078485365905053,
                -0.9718293714349262,
                1.8451349532942327,
                1.488602476963715,
                -1.5022999858309167,
                -0.7874520822049704
            ]
        },
        {
            "positions": [
                -0.5584515883926352,
                -0.9328008408969838,
                1.8222827792321283,
                1.5701204590601843,
                -1.5944635647561438,
                -0.6896036303077095
            ]
        },
        {
            "positions": [
                -0.6090546401947651,
                -0.8937723103590414,
                1.799430605170024,
                1.6516384411566536,
                -1.686627143681371,
                -0.5917551784104491
            ]
        },
        {
            "positions": [
                -0.6596576919968952,
                -0.8547437798210988,
                1.7765784311079194,
                1.7331564232531234,
                -1.778790722606598,
                -0.49390672651318823
            ]
        },
        {
            "positions": [
                -0.710260743799025,
                -0.8157152492831563,
                1.7537262570458148,
                1.8146744053495927,
                -1.870954301531825,
                -0.39605827461592735
            ]
        },
        {
            "positions": [
                -0.7608637956011549,
                -0.776686718745214,
                1.7308740829837104,
                1.896192387446062,
                -1.9631178804570522,
                -0.2982098227186665
            ]
        },
        {
            "positions": [
                -0.811466847403285,
                -0.7376581882072715,
                1.708021908921606,
                1.9777103695425313,
                -2.0552814593822792,
                -0.20036137082140604
            ]
        },
        {
            "positions": [
                -0.8620698992054149,
                -0.6986296576693292,
                1.6851697348595014,
                2.0592283516390006,
                -2.1474450383075063,
                -0.10251291892414516
            ]
        },
        {
            "positions": [
                -0.9126729510075449,
                -0.6596011271313867,
                1.662317560797397,
                2.14074633373547,
                -2.2396086172327334,
                -0.00466446702688432
            ]
        }
    ]
}