{
    "goal": {
        "global_pose": {
            "orientation": {
                "w": 0.5084816217422485,
                "x": -0.49083608388900757,
                "y": 0.5182115435600281,
                "z": -0.4816462993621826
            },
            "position": {
                "x": 0.5540239810943604,
                "y": 0.030875300988554955,
                "z": 0.16403168439865112
            }
        },
        "name": "move_to_storage_A"
    },
    "id": "PRM_move_to_storage_A_99",
    "joint_names": [
        "shoulder_pan_joint",
        "shoulder_lift_joint",
        "elbow_joint",
        "wrist_1_joint",
        "wrist_2_joint",
        "wrist_3_joint"
    ],
    "metrics": {
        "cart_traj_len": 0.3526180834276661,
        "distance_elbow_joint": 0.4486234036785559,
        "distance_shoulder_lift_joint": 0.23371053077146464,
        "distance_shoulder_pan_joint": 0.4564214432568168,
        "distance_wrist_1_joint": 0.24208140350068874,
        "distance_wrist_2_joint": 1.1172837121758064,
        "distance_wrist_3_joint": 0.09364472420070946,
        "smoothness": 4.440892098500626e-16,
        "time": 0.015539941,
        "traj_len": 1.6098960269483373,
        "weighted_distance": 2.0343106404042515
    },
    "planner": "PRM",
    "start": {
        "state": {
            "elbow_joint": 1.9715463870305268,
            "shoulder_lift_joint": -1.1394903361783484,
            "shoulder_pan_joint": 0.12281147578464417,
            "wrist_1_joint": -0.7804599489681411,
            "wrist_2_joint": 0.12958660307563738,
            "wrist_3_joint": -3.1924946282119055
        }
    },
    "waypoints": [
        {
            "positions": [
                0.12281147578464417,
                -1.1394903361783484,
                1.9715463870305268,
                -0.7804599489681411,
                0.12958660307563738,
                -3.1924946282119055
            ]
        },
        {
            "positions": [
                0.057608412462241784,
                -1.1728775548599861,
                2.035635444698892,
                -0.8150430066110966,
                0.2891985619578954,
                -3.179116810468947
            ]
        },
        {
            "positions": [
                -0.007594650860160604,
                -1.206264773541624,
                2.099724502367257,
                -0.8496260642540522,
                0.4488105208401535,
                -3.1657389927259887
            ]
        },
        {
            "positions": [
                -0.07279771418256299,
                -1.2396519922232618,
                2.163813560035622,
                -0.8842091218970076,
                0.6084224797224115,
                -3.1523611749830303
            ]
        },
        {
            "positions": [
                -0.13800077750496537,
                -1.2730392109048996,
                2.2279026177039873,
                -0.9187921795399632,
                0.7680344386046696,
                -3.1389833572400714
            ]
        },
        {
            "positions": [
                -0.2032038408273678,
                -1.3064264295865375,
                2.2919916753723526,
                -0.9533752371829187,
                0.9276463974869277,
                -3.125605539497113
            ]
        },
        {
            "positions": [
                -0.26840690414977014,
                -1.3398136482681753,
                2.3560807330407174,
                -0.9879582948258743,
                1.0872583563691856,
                -3.1122277217541545
            ]
        },
        {
            "positions": [
                -0.3336099674721726,
                -1.373200866949813,
                2.4201697907090827,
                -1.0225413524688298,
                1.2468703152514438,
                -3.098849904011196
            ]
        }
    ]
}