{
    "goal": {
        "global_pose": {
            "orientation": {
                "w": 0.7047431468963623,
                "x": -0.7094548344612122,
                "y": 0.0024358443915843964,
                "z": -0.0022348060738295317
            },
            "position": {
                "x": 0.6094750761985779,
                "y": 0.3671506643295288,
                "z": 0.19426114857196808
            }
        },
        "name": "move_to_magneteinheit_A"
    },
    "id": "PRM_move_to_magneteinheit_A_90",
    "joint_names": [
        "shoulder_pan_joint",
        "shoulder_lift_joint",
        "elbow_joint",
        "wrist_1_joint",
        "wrist_2_joint",
        "wrist_3_joint"
    ],
    "metrics": {
        "cart_traj_len": 1.8704036853030281,
        "distance_elbow_joint": 3.9300743811270946,
        "distance_shoulder_lift_joint": 0.7082591560169267,
        "distance_shoulder_pan_joint": 1.242423720171003,
        "distance_wrist_1_joint": 1.5651626648171242,
        "distance_wrist_2_joint": 1.69544065035517,
        "distance_wrist_3_joint": 1.1953980698156368,
        "smoothness": 5.075305259828549e-16,
        "time": 0.055543878,
        "traj_len": 3.2150829915109433,
        "weighted_distance": 3.9985194881488977
    },
    "planner": "PRM",
    "start": {
        "state": {
            "elbow_joint": -1.919643507792019,
            "shoulder_lift_joint": -0.07675430207160344,
            "shoulder_pan_joint": -1.1188671864651873,
            "wrist_1_joint": 0.42560062535961957,
            "wrist_2_joint": 1.5706038300724876,
            "wrist_3_joint": 1.1188968870953055
        }
    },
    "waypoints": [
        {
            "positions": [
                -1.1188671864651873,
                -0.07675430207160344,
                -1.919643507792019,
                0.42560062535961957,
                1.5706038300724876,
                1.1188968870953055
            ]
        },
        {
            "positions": [
                -1.0728514931255206,
                -0.10298612266482295,
                -1.7740851973799046,
                0.483569612945439,
                1.507809731911185,
                1.0746228845095411
            ]
        },
        {
            "positions": [
                -1.0268357997858537,
                -0.12921794325804245,
                -1.6285268869677898,
                0.5415386005312584,
                1.4450156337498825,
                1.030348881923777
            ]
        },
        {
            "positions": [
                -0.980820106446187,
                -0.15544976385126197,
                -1.4829685765556753,
                0.5995075881170778,
                1.3822215355885799,
                0.9860748793380125
            ]
        },
        {
            "positions": [
                -0.9348044131065203,
                -0.18168158444448146,
                -1.3374102661435607,
                0.6574765757028972,
                1.3194274374272772,
                0.9418008767522482
            ]
        },
        {
            "positions": [
                -0.8887887197668535,
                -0.20791340503770098,
                -1.1918519557314462,
                0.7154455632887167,
                1.2566333392659748,
                0.8975268741664839
            ]
        },
        {
            "positions": [
                -0.8427730264271867,
                -0.23414522563092047,
                -1.0462936453193314,
                0.773414550874536,
                1.193839241104672,
                0.8532528715807196
            ]
        },
        {
            "positions": [
                -0.79675733308752,
                -0.26037704622414,
                -0.9007353349072169,
                0.8313835384603554,
                1.1310451429433694,
                0.8089788689949553
            ]
        },
        {
            "positions": [
                -0.7507416397478531,
                -0.2866088668173595,
                -0.7551770244951022,
                0.8893525260461749,
                1.068251044782067,
                0.7647048664091909
            ]
        },
        {
            "positions": [
                -0.7047259464081863,
                -0.312840687410579,
                -0.6096187140829876,
                0.9473215136319943,
                1.0054569466207643,
                0.7204308638234267
            ]
        },
        {
            "positions": [
                -0.6587102530685196,
                -0.3390725080037985,
                -0.4640604036708731,
                1.0052905012178137,
                0.9426628484594617,
                0.6761568612376623
            ]
        },
        {
            "positions": [
                -0.6126945597288528,
                -0.365304328597018,
                -0.31850209325875833,
                1.063259488803633,
                0.8798687502981591,
                0.631882858651898
            ]
        },
        {
            "positions": [
                -0.566678866389186,
                -0.3915361491902375,
                -0.1729437828466438,
                1.1212284763894524,
                0.8170746521368565,
                0.5876088560661337
            ]
        },
        {
            "positions": [
                -0.5206631730495193,
                -0.41776796978345704,
                -0.027385472434529268,
                1.1791974639752718,
                0.7542805539755539,
                0.5433348534803694
            ]
        },
        {
            "positions": [
                -0.47464747970985244,
                -0.44399979037667653,
                0.11817283797758527,
                1.2371664515610914,
                0.6914864558142514,
                0.49906085089460506
            ]
        },
        {
            "positions": [
                -0.4286317863701856,
                -0.4702316109698961,
                0.26373114838970024,
                1.2951354391469108,
                0.6286923576529487,
                0.45478684830884064
            ]
        },
        {
            "positions": [
                -0.3826160930305189,
                -0.4964634315631155,
                0.4092894588018148,
                1.3531044267327301,
                0.5658982594916462,
                0.41051284572307634
            ]
        },
        {
            "positions": [
                -0.336600399690852,
                -0.522695252156335,
                0.5548477692139293,
                1.4110734143185497,
                0.5031041613303435,
                0.36623884313731203
            ]
        },
        {
            "positions": [
                -0.2905847063511853,
                -0.5489270727495545,
                0.7004060796260438,
                1.469042401904369,
                0.4403100631690411,
                0.3219648405515477
            ]
        },
        {
            "positions": [
                -0.24456901301151845,
                -0.575158893342774,
                0.8459643900381588,
                1.5270113894901884,
                0.37751596500773843,
                0.2776908379657833
            ]
        },
        {
            "positions": [
                -0.19855331967185175,
                -0.6013907139359935,
                0.9915227004502729,
                1.5849803770760078,
                0.31472186684643577,
                0.23341683538001912
            ]
        },
        {
            "positions": [
                -0.15253762633218493,
                -0.627622534529213,
                1.1370810108623879,
                1.6429493646618274,
                0.2519277686851331,
                0.1891428327942547
            ]
        },
        {
            "positions": [
                -0.10652193299251822,
                -0.6538543551224325,
                1.2826393212745024,
                1.7009183522476468,
                0.18913367052383068,
                0.1448688302084904
            ]
        },
        {
            "positions": [
                -0.06050623965285129,
                -0.680086175715652,
                1.428197631686617,
                1.7588873398334661,
                0.12633957236252802,
                0.10059482762272598
            ]
        },
        {
            "positions": [
                -0.014490546313184582,
                -0.7063179963088715,
                1.5737559420987315,
                1.8168563274192855,
                0.06354547420122536,
                0.056320825036961786
            ]
        },
        {
            "positions": [
                0.031525147026482125,
                -0.7325498169020912,
                1.7193142525108465,
                1.874825315005105,
                0.0007513760399227021,
                0.01204682245119737
            ]
        },
        {
            "positions": [
                0.07754084036614883,
                -0.7587816374953107,
                1.8648725629229606,
                1.9327943025909242,
                -0.062042722121379734,
                -0.032227180134566824
            ]
        },
        {
            "positions": [
                0.12355653370581578,
                -0.7850134580885302,
                2.0104308733350753,
                1.9907632901767438,
                -0.12483682028268248,
                -0.07650118272033121
            ]
        }
    ]
}