{
    "goal": {
        "global_pose": {
            "orientation": {
                "w": -0.00223480608172531,
                "x": 0.0024358444001904467,
                "y": 0.7094548369677653,
                "z": -0.704743149386269
            },
            "position": {
                "x": 0.6205249238014221,
                "y": -0.6371506643295288,
                "z": 0.19426114857196808
            }
        },
        "name": "move_to_magneteinheit_B"
    },
    "id": "PRM_move_to_magneteinheit_B_61",
    "joint_names": [
        "shoulder_pan_joint",
        "shoulder_lift_joint",
        "elbow_joint",
        "wrist_1_joint",
        "wrist_2_joint",
        "wrist_3_joint"
    ],
    "metrics": {
        "cart_traj_len": 3.9844885608621152,
        "distance_elbow_joint": 5.362157081443716,
        "distance_shoulder_lift_joint": 1.0937813307374,
        "distance_shoulder_pan_joint": 2.4234943826210342,
        "distance_wrist_1_joint": 2.5511007882757784,
        "distance_wrist_2_joint": 1.1898996969102815,
        "distance_wrist_3_joint": 6.686743308537808,
        "smoothness": 0.46829173777241667,
        "time": 0.582331265,
        "traj_len": 4.393993239472044,
        "weighted_distance": 6.0350363454404885
    },
    "planner": "PRM",
    "start": {
        "state": {
            "elbow_joint": 2.39358713078474,
            "shoulder_lift_joint": -1.908514104345545,
            "shoulder_pan_joint": 0.7066247066606129,
            "wrist_1_joint": -0.4678290933515497,
            "wrist_2_joint": 0.7096259083745334,
            "wrist_3_joint": -3.1358149277392293
        }
    },
    "waypoints": [
        {
            "positions": [
                0.7066247066606129,
                -1.908514104345545,
                2.39358713078474,
                -0.4678290933515497,
                0.7096259083745334,
                -3.1358149277392293
            ]
        },
        {
            "positions": [
                0.7585754810871632,
                -1.9418139060621402,
                2.405850515682004,
                -0.3951558533068877,
                0.6314647703342701,
                -3.0485970710384396
            ]
        },
        {
            "positions": [
                0.8105262555137134,
                -1.9751137077787353,
                2.418113900579268,
                -0.3224826132622256,
                0.5533036322940066,
                -2.96137921433765
            ]
        },
        {
            "positions": [
                0.8624770299402637,
                -2.0084135094953304,
                2.4303772854765318,
                -0.24980937321756358,
                0.4751424942537432,
                -2.8741613576368605
            ]
        },
        {
            "positions": [
                0.9144278043668139,
                -2.0417133112119257,
                2.4426406703737955,
                -0.17713613317290156,
                0.39698135621347985,
                -2.786943500936071
            ]
        },
        {
            "positions": [
                0.9639536256954031,
                -2.0314953148289856,
                2.32499999144237,
                -0.23256607377698033,
                0.39158864565438356,
                -2.6337597902235608
            ]
        },
        {
            "positions": [
                1.0134794470239923,
                -2.0212773184460455,
                2.2073593125109445,
                -0.2879960143810591,
                0.3861959350952873,
                -2.4805760795110503
            ]
        },
        {
            "positions": [
                1.0630052683525815,
                -2.0110593220631054,
                2.089718633579519,
                -0.34342595498513784,
                0.3808032245361911,
                -2.32739236879854
            ]
        },
        {
            "positions": [
                1.1125310896811706,
                -2.000841325680166,
                1.9720779546480938,
                -0.39885589558921664,
                0.3754105139770948,
                -2.17420865808603
            ]
        },
        {
            "positions": [
                1.1620569110097598,
                -1.9906233292972255,
                1.8544372757166683,
                -0.4542858361932954,
                0.3700178034179985,
                -2.02102494737352
            ]
        },
        {
            "positions": [
                1.211582732338349,
                -1.9804053329142857,
                1.736796596785243,
                -0.5097157767973741,
                0.36462509285890227,
                -1.8678412366610093
            ]
        },
        {
            "positions": [
                1.2611085536669382,
                -1.9701873365313456,
                1.6191559178538175,
                -0.5651457174014529,
                0.35923238229980603,
                -1.714657525948499
            ]
        },
        {
            "positions": [
                1.3106343749955276,
                -1.9599693401484055,
                1.501515238922392,
                -0.6205756580055317,
                0.35383967174070974,
                -1.5614738152359888
            ]
        },
        {
            "positions": [
                1.3601601963241168,
                -1.9497513437654654,
                1.3838745599909665,
                -0.6760055986096105,
                0.34844696118161345,
                -1.4082901045234786
            ]
        },
        {
            "positions": [
                1.409686017652706,
                -1.9395333473825254,
                1.266233881059541,
                -0.7314355392136892,
                0.3430542506225172,
                -1.2551063938109683
            ]
        },
        {
            "positions": [
                1.4592118389812954,
                -1.9293153509995855,
                1.1485932021281156,
                -0.786865479817768,
                0.3376615400634209,
                -1.1019226830984579
            ]
        },
        {
            "positions": [
                1.5087376603098843,
                -1.9190973546166454,
                1.0309525231966903,
                -0.8422954204218467,
                0.3322688295043247,
                -0.9487389723859478
            ]
        },
        {
            "positions": [
                1.5582634816384737,
                -1.9088793582337054,
                0.9133118442652646,
                -0.8977253610259255,
                0.3268761189452284,
                -0.7955552616734376
            ]
        },
        {
            "positions": [
                1.6077893029670627,
                -1.8986613618507655,
                0.7956711653338393,
                -0.9531553016300042,
                0.32148340838613215,
                -0.6423715509609274
            ]
        },
        {
            "positions": [
                1.657315124295652,
                -1.8884433654678254,
                0.6780304864024138,
                -1.008585242234083,
                0.3160906978270359,
                -0.4891878402484173
            ]
        },
        {
            "positions": [
                1.7068409456242413,
                -1.8782253690848854,
                0.5603898074709883,
                -1.0640151828381619,
                0.3106979872679396,
                -0.33600412953590686
            ]
        },
        {
            "positions": [
                1.7563667669528304,
                -1.8680073727019453,
                0.44274912853956305,
                -1.1194451234422407,
                0.30530527670884333,
                -0.18282041882339684
            ]
        },
        {
            "positions": [
                1.8058925882814196,
                -1.8577893763190052,
                0.32510844960813756,
                -1.1748750640463195,
                0.2999125661497471,
                -0.029636708110886367
            ]
        },
        {
            "positions": [
                1.8554184096100088,
                -1.8475713799360653,
                0.20746777067671207,
                -1.230305004650398,
                0.29451985559065086,
                0.12354700260162366
            ]
        },
        {
            "positions": [
                1.904944230938598,
                -1.8373533835531253,
                0.08982709174528658,
                -1.2857349452544768,
                0.28912714503155457,
                0.2767307133141341
            ]
        },
        {
            "positions": [
                1.9544700522671872,
                -1.8271353871701852,
                -0.02781358718613891,
                -1.3411648858585556,
                0.2837344344724583,
                0.4299144240266446
            ]
        },
        {
            "positions": [
                2.003995873595777,
                -1.8169173907872451,
                -0.1454542661175644,
                -1.3965948264626344,
                0.27834172391336204,
                0.5830981347391551
            ]
        },
        {
            "positions": [
                2.0535216949243655,
                -1.8066993944043053,
                -0.26309494504898945,
                -1.452024767066713,
                0.2729490133542658,
                0.7362818454516646
            ]
        },
        {
            "positions": [
                2.1030475162529547,
                -1.7964813980213652,
                -0.38073562398041494,
                -1.5074547076707918,
                0.2675563027951695,
                0.8894655561641751
            ]
        },
        {
            "positions": [
                2.152573337581544,
                -1.7862634016384251,
                -0.4983763029118409,
                -1.5628846482748706,
                0.2621635922360732,
                1.0426492668766856
            ]
        },
        {
            "positions": [
                2.2020991589101335,
                -1.776045405255485,
                -0.6160169818432664,
                -1.6183145888789494,
                0.256770881676977,
                1.1958329775891956
            ]
        },
        {
            "positions": [
                2.2516249802387227,
                -1.7658274088725452,
                -0.7336576607746919,
                -1.6737445294830282,
                0.25137817111788074,
                1.3490166883017065
            ]
        },
        {
            "positions": [
                2.3011508015673114,
                -1.7556094124896051,
                -0.8512983397061169,
                -1.7291744700871068,
                0.24598546055878445,
                1.502200399014216
            ]
        },
        {
            "positions": [
                2.350676622895901,
                -1.745391416106665,
                -0.9689390186375424,
                -1.7846044106911856,
                0.2405927499996882,
                1.6553841097267266
            ]
        },
        {
            "positions": [
                2.4002024442244903,
                -1.7351734197237252,
                -1.0865796975689679,
                -1.8400343512952646,
                0.23520003944059192,
                1.8085678204392361
            ]
        },
        {
            "positions": [
                2.4497282655530794,
                -1.724955423340785,
                -1.2042203765003934,
                -1.8954642918993434,
                0.22980732888149566,
                1.9617515311517466
            ]
        },
        {
            "positions": [
                2.4992540868816686,
                -1.714737426957845,
                -1.3218610554318189,
                -1.9508942325034222,
                0.2244146183223994,
                2.114935241864257
            ]
        },
        {
            "positions": [
                2.548779908210258,
                -1.704519430574905,
                -1.439501734363244,
                -2.006324173107501,
                0.21902190776330313,
                2.2681189525767667
            ]
        },
        {
            "positions": [
                2.598305729538847,
                -1.6943014341919649,
                -1.5571424132946694,
                -2.0617541137115794,
                0.21362919720420687,
                2.421302663289277
            ]
        },
        {
            "positions": [
                2.647831550867436,
                -1.684083437809025,
                -1.674783092226095,
                -2.1171840543156586,
                0.2082364866451106,
                2.5744863740017876
            ]
        },
        {
            "positions": [
                2.6973573721960253,
                -1.673865441426085,
                -1.7924237711575204,
                -2.172613994919737,
                0.20284377608601434,
                2.727670084714298
            ]
        },
        {
            "positions": [
                2.7468831935246145,
                -1.6636474450431449,
                -1.9100644500889459,
                -2.2280439355238157,
                0.19745106552691807,
                2.8808537954268085
            ]
        },
        {
            "positions": [
                2.7964090148532037,
                -1.653429448660205,
                -2.0277051290203714,
                -2.2834738761278945,
                0.1920583549678218,
                3.034037506139318
            ]
        },
        {
            "positions": [
                2.845934836181793,
                -1.643211452277265,
                -2.145345807951797,
                -2.3389038167319733,
                0.18666564440872555,
                3.1872212168518286
            ]
        },
        {
            "positions": [
                2.895460657510382,
                -1.6329934558943249,
                -2.262986486883223,
                -2.394333757336052,
                0.18127293384962928,
                3.340404927564339
            ]
        },
        {
            "positions": [
                2.856350918881838,
                -1.7249705006532279,
                -2.1617404227836152,
                -2.4015354579917156,
                0.0710151467853998,
                3.3053176853586326
            ]
        },
        {
            "positions": [
                2.8172411802532937,
                -1.816947545412131,
                -2.060494358684008,
                -2.4087371586473787,
                -0.03924264027882968,
                3.2702304431529265
            ]
        },
        {
            "positions": [
                2.7781314416247493,
                -1.908924590171034,
                -1.9592482945844005,
                -2.4159388593030418,
                -0.14950042734305918,
                3.2351432009472205
            ]
        },
        {
            "positions": [
                2.7390217029962054,
                -2.0009016349299373,
                -1.8580022304847934,
                -2.4231405599587053,
                -0.25975821440728863,
                3.200055958741514
            ]
        },
        {
            "positions": [
                2.6999119643676615,
                -2.09287867968884,
                -1.7567561663851858,
                -2.4303422606143688,
                -0.37001600147151814,
                3.1649687165358076
            ]
        },
        {
            "positions": [
                2.660802225739117,
                -2.1848557244477433,
                -1.6555101022855785,
                -2.437543961270032,
                -0.48027378853574765,
                3.1298814743301016
            ]
        }
    ]
}