{
    "goal": {
        "global_pose": {
            "orientation": {
                "w": -0.00223480608172531,
                "x": 0.0024358444001904467,
                "y": 0.7094548369677653,
                "z": -0.704743149386269
            },
            "position": {
                "x": 0.6205249238014221,
                "y": -0.6371506643295288,
                "z": 0.19426114857196808
            }
        },
        "name": "move_to_magneteinheit_B"
    },
    "id": "PRM_move_to_magneteinheit_B_45",
    "joint_names": [
        "shoulder_pan_joint",
        "shoulder_lift_joint",
        "elbow_joint",
        "wrist_1_joint",
        "wrist_2_joint",
        "wrist_3_joint"
    ],
    "metrics": {
        "cart_traj_len": 4.240903464794208,
        "distance_elbow_joint": 7.791398618847468,
        "distance_shoulder_lift_joint": 4.293206001602607,
        "distance_shoulder_pan_joint": 2.969808875776077,
        "distance_wrist_1_joint": 2.6815807887378127,
        "distance_wrist_2_joint": 7.911702431110697,
        "distance_wrist_3_joint": 14.97703350830829,
        "smoothness": 0.8648944003905213,
        "time": 2.505324597,
        "traj_len": 6.373753229015298,
        "weighted_distance": 9.009554953539489
    },
    "planner": "PRM",
    "start": {
        "state": {
            "elbow_joint": 2.39358713078474,
            "shoulder_lift_joint": -1.908514104345545,
            "shoulder_pan_joint": 0.7066247066606129,
            "wrist_1_joint": -0.4678290933515497,
            "wrist_2_joint": 0.7096259083745334,
            "wrist_3_joint": -3.1358149277392293
        }
    },
    "waypoints": [
        {
            "positions": [
                0.7066247066606129,
                -1.908514104345545,
                2.39358713078474,
                -0.4678290933515497,
                0.7096259083745334,
                -3.1358149277392293
            ]
        },
        {
            "positions": [
                0.7311504953383465,
                -1.957098929754205,
                2.3697332450236814,
                -0.42107530240745084,
                0.7666822264842719,
                -3.0601622630465206
            ]
        },
        {
            "positions": [
                0.7556762840160801,
                -2.005683755162865,
                2.3458793592626224,
                -0.3743215114633519,
                0.8237385445940102,
                -2.984509598353812
            ]
        },
        {
            "positions": [
                0.7060240166272901,
                -2.0956125365439093,
                2.3200600214127247,
                -0.4487792742563508,
                0.7603514936218078,
                -3.0413283504427664
            ]
        },
        {
            "positions": [
                0.6563717492385,
                -2.1855413179249537,
                2.294240683562827,
                -0.5232370370493498,
                0.6969644426496053,
                -3.098147102531721
            ]
        },
        {
            "positions": [
                0.6067194818497099,
                -2.2754700993059984,
                2.2684213457129294,
                -0.5976947998423485,
                0.6335773916774028,
                -3.154965854620676
            ]
        },
        {
            "positions": [
                0.5570672144609198,
                -2.3653988806870427,
                2.2426020078630318,
                -0.6721525626353475,
                0.5701903407052004,
                -3.2117846067096303
            ]
        },
        {
            "positions": [
                0.5074149470721298,
                -2.455327662068087,
                2.216782670013134,
                -0.7466103254283464,
                0.5068032897329979,
                -3.2686033587985848
            ]
        },
        {
            "positions": [
                0.5648700442097858,
                -2.4286292530877516,
                2.1241935263848237,
                -0.7782058598783732,
                0.47633927633174894,
                -3.1194915606743674
            ]
        },
        {
            "positions": [
                0.6223251413474418,
                -2.401930844107416,
                2.0316043827565133,
                -0.8098013943283999,
                0.4458752629304999,
                -2.9703797625501505
            ]
        },
        {
            "positions": [
                0.6797802384850978,
                -2.3752324351270806,
                1.9390152391282032,
                -0.8413969287784268,
                0.4154112495292509,
                -2.821267964425933
            ]
        },
        {
            "positions": [
                0.7372353356227539,
                -2.3485340261467456,
                1.8464260954998928,
                -0.8729924632284536,
                0.3849472361280019,
                -2.6721561663017157
            ]
        },
        {
            "positions": [
                0.7946904327604098,
                -2.32183561716641,
                1.7538369518715826,
                -0.9045879976784803,
                0.3544832227267529,
                -2.5230443681774983
            ]
        },
        {
            "positions": [
                0.8521455298980659,
                -2.2951372081860746,
                1.6612478082432722,
                -0.9361835321285071,
                0.3240192093255039,
                -2.373932570053281
            ]
        },
        {
            "positions": [
                0.909600627035722,
                -2.268438799205739,
                1.5686586646149618,
                -0.967779066578534,
                0.2935551959242549,
                -2.224820771929064
            ]
        },
        {
            "positions": [
                0.9670557241733779,
                -2.2417403902254036,
                1.4760695209866515,
                -0.9993746010285607,
                0.2630911825230059,
                -2.0757089738048466
            ]
        },
        {
            "positions": [
                1.024510821311034,
                -2.2150419812450686,
                1.3834803773583413,
                -1.0309701354785874,
                0.23262716912175685,
                -1.9265971756806295
            ]
        },
        {
            "positions": [
                1.0819659184486898,
                -2.188343572264733,
                1.290891233730031,
                -1.0625656699286143,
                0.20216315572050786,
                -1.7774853775564121
            ]
        },
        {
            "positions": [
                1.139421015586346,
                -2.1616451632843976,
                1.1983020901017205,
                -1.094161204378641,
                0.1716991423192588,
                -1.6283735794321947
            ]
        },
        {
            "positions": [
                1.1968761127240022,
                -2.134946754304062,
                1.1057129464734103,
                -1.125756738828668,
                0.14123512891800982,
                -1.4792617813079776
            ]
        },
        {
            "positions": [
                1.2543312098616581,
                -2.1082483453237266,
                1.0131238028451,
                -1.1573522732786947,
                0.11077111551676078,
                -1.3301499831837602
            ]
        },
        {
            "positions": [
                1.311786306999314,
                -2.081549936343391,
                0.9205346592167896,
                -1.1889478077287214,
                0.08030710211551184,
                -1.1810381850595433
            ]
        },
        {
            "positions": [
                1.3692414041369703,
                -2.0548515273630557,
                0.8279455155884792,
                -1.2205433421787482,
                0.049843088714262795,
                -1.0319263869353255
            ]
        },
        {
            "positions": [
                1.426696501274626,
                -2.0281531183827206,
                0.735356371960169,
                -1.2521388766287749,
                0.019379075313013805,
                -0.8828145888111085
            ]
        },
        {
            "positions": [
                1.4841515984122822,
                -2.001454709402385,
                0.6427672283318586,
                -1.2837344110788018,
                -0.011084938088235186,
                -0.7337027906868911
            ]
        },
        {
            "positions": [
                1.5416066955499383,
                -1.9747563004220496,
                0.5501780847035485,
                -1.3153299455288288,
                -0.04154895148948423,
                -0.5845909925626742
            ]
        },
        {
            "positions": [
                1.599061792687594,
                -1.9480578914417142,
                0.45758894107523784,
                -1.3469254799788555,
                -0.07201296489073328,
                -0.4354791944384564
            ]
        },
        {
            "positions": [
                1.6565168898252502,
                -1.9213594824613789,
                0.3649997974469277,
                -1.3785210144288822,
                -0.10247697829198221,
                -0.28636739631423946
            ]
        },
        {
            "positions": [
                1.7139719869629064,
                -1.8946610734810434,
                0.2724106538186173,
                -1.410116548878909,
                -0.13294099169323126,
                -0.1372555981900221
            ]
        },
        {
            "positions": [
                1.7714270841005626,
                -1.867962664500708,
                0.1798215101903069,
                -1.4417120833289359,
                -0.1634050050944803,
                0.011856199934195288
            ]
        },
        {
            "positions": [
                1.8288821812382183,
                -1.8412642555203727,
                0.08723236656199651,
                -1.4733076177789628,
                -0.19386901849572935,
                0.16096799805841266
            ]
        },
        {
            "positions": [
                1.8863372783758745,
                -1.8145658465400372,
                -0.005356777066313434,
                -1.5049031522289895,
                -0.22433303189697829,
                0.3100797961826296
            ]
        },
        {
            "positions": [
                1.9437923755135302,
                -1.7878674375597017,
                -0.09794592069462382,
                -1.5364986866790162,
                -0.25479704529822733,
                0.459191594306847
            ]
        },
        {
            "positions": [
                2.0012474726511864,
                -1.7611690285793662,
                -0.1905350643229342,
                -1.568094221129043,
                -0.2852610586994764,
                0.6083033924310643
            ]
        },
        {
            "positions": [
                2.0587025697888426,
                -1.734470619599031,
                -0.28312420795124504,
                -1.59968975557907,
                -0.3157250721007254,
                0.7574151905552822
            ]
        },
        {
            "positions": [
                2.1161576669264983,
                -1.7077722106186957,
                -0.375713351579555,
                -1.6312852900290964,
                -0.34618908550197425,
                0.9065269886794982
            ]
        },
        {
            "positions": [
                2.1736127640641545,
                -1.6810738016383602,
                -0.4683024952078654,
                -1.6628808244791233,
                -0.3766530989032233,
                1.055638786803716
            ]
        },
        {
            "positions": [
                2.2310678612018107,
                -1.6543753926580247,
                -0.5608916388361758,
                -1.6944763589291503,
                -0.40711711230447234,
                1.2047505849279339
            ]
        },
        {
            "positions": [
                2.288522958339467,
                -1.6276769836776892,
                -0.6534807824644862,
                -1.726071893379177,
                -0.4375811257057214,
                1.3538623830521508
            ]
        },
        {
            "positions": [
                2.3459780554771226,
                -1.600978574697354,
                -0.7460699260927961,
                -1.7576674278292037,
                -0.4680451391069703,
                1.5029741811763677
            ]
        },
        {
            "positions": [
                2.4034331526147787,
                -1.5742801657170185,
                -0.8386590697211065,
                -1.7892629622792304,
                -0.49850915250821926,
                1.6520859793005847
            ]
        },
        {
            "positions": [
                2.4608882497524345,
                -1.5475817567366832,
                -0.9312482133494169,
                -1.8208584967292571,
                -0.5289731659094683,
                1.8011977774248025
            ]
        },
        {
            "positions": [
                2.518343346890091,
                -1.5208833477563477,
                -1.0238373569777273,
                -1.8524540311792843,
                -0.5594371793107173,
                1.9503095755490203
            ]
        },
        {
            "positions": [
                2.575798444027747,
                -1.4941849387760122,
                -1.1164265006060372,
                -1.884049565629311,
                -0.5899011927119664,
                2.0994213736732363
            ]
        },
        {
            "positions": [
                2.633253541165403,
                -1.4674865297956767,
                -1.209015644234348,
                -1.9156451000793377,
                -0.6203652061132154,
                2.248533171797454
            ]
        },
        {
            "positions": [
                2.6907086383030587,
                -1.4407881208153415,
                -1.3016047878626584,
                -1.9472406345293645,
                -0.6508292195144645,
                2.397644969921672
            ]
        },
        {
            "positions": [
                2.748163735440715,
                -1.414089711835006,
                -1.3941939314909688,
                -1.9788361689793912,
                -0.6812932329157135,
                2.546756768045889
            ]
        },
        {
            "positions": [
                2.8056188325783706,
                -1.3873913028546707,
                -1.4867830751192788,
                -2.010431703429418,
                -0.7117572463169624,
                2.695868566170106
            ]
        },
        {
            "positions": [
                2.863073929716027,
                -1.3606928938743352,
                -1.5793722187475892,
                -2.042027237879445,
                -0.7422212597182114,
                2.8449803642943228
            ]
        },
        {
            "positions": [
                2.920529026853683,
                -1.3339944848939997,
                -1.6719613623758993,
                -2.073622772329472,
                -0.7726852731194604,
                2.99409216241854
            ]
        },
        {
            "positions": [
                2.919151994670649,
                -1.3919417843299118,
                -1.6095435457202671,
                -2.094523129934056,
                -0.664297829991096,
                2.858592068022067
            ]
        },
        {
            "positions": [
                2.917774962487615,
                -1.449889083765824,
                -1.547125729064635,
                -2.1154234875386404,
                -0.5559103868627315,
                2.723091973625593
            ]
        },
        {
            "positions": [
                2.916397930304581,
                -1.507836383201736,
                -1.4847079124090026,
                -2.1363238451432247,
                -0.44752294373436696,
                2.58759187922912
            ]
        },
        {
            "positions": [
                2.915020898121547,
                -1.5657836826376481,
                -1.4222900957533704,
                -2.157224202747809,
                -0.3391355006060025,
                2.4520917848326467
            ]
        },
        {
            "positions": [
                2.913643865938513,
                -1.6237309820735604,
                -1.3598722790977382,
                -2.1781245603523933,
                -0.23074805747763805,
                2.316591690436173
            ]
        },
        {
            "positions": [
                2.9122668337554787,
                -1.6816782815094724,
                -1.297454462442106,
                -2.199024917956978,
                -0.12236061434927348,
                2.1810915960396997
            ]
        },
        {
            "positions": [
                2.910889801572445,
                -1.7396255809453844,
                -1.2350366457864737,
                -2.2199252755615624,
                -0.01397317122090902,
                2.0455915016432265
            ]
        },
        {
            "positions": [
                2.9095127693894107,
                -1.7975728803812967,
                -1.1726188291308415,
                -2.2408256331661467,
                0.09441427190745544,
                1.910091407246753
            ]
        },
        {
            "positions": [
                2.908135737206377,
                -1.8555201798172087,
                -1.1102010124752093,
                -2.261725990770731,
                0.2028017150358199,
                1.7745913128502795
            ]
        },
        {
            "positions": [
                2.9067587050233428,
                -1.9134674792531208,
                -1.0477831958195771,
                -2.2826263483753153,
                0.31118915816418435,
                1.6390912184538062
            ]
        },
        {
            "positions": [
                2.9053816728403086,
                -1.971414778689033,
                -0.9853653791639448,
                -2.3035267059798996,
                0.4195766012925488,
                1.5035911240573328
            ]
        },
        {
            "positions": [
                2.904004640657275,
                -2.029362078124945,
                -0.9229475625083126,
                -2.324427063584484,
                0.5279640444209135,
                1.3680910296608593
            ]
        },
        {
            "positions": [
                2.9026276084742406,
                -2.087309377560857,
                -0.8605297458526804,
                -2.3453274211890682,
                0.636351487549278,
                1.2325909352643858
            ]
        },
        {
            "positions": [
                2.901250576291207,
                -2.145256676996769,
                -0.7981119291970481,
                -2.3662277787936525,
                0.7447389306776424,
                1.0970908408679125
            ]
        },
        {
            "positions": [
                2.8998735441081727,
                -2.2032039764326816,
                -0.7356941125414159,
                -2.3871281363982373,
                0.8531263738060069,
                0.961590746471439
            ]
        },
        {
            "positions": [
                2.8984965119251385,
                -2.2611512758685937,
                -0.6732762958857837,
                -2.4080284940028216,
                0.9615138169343713,
                0.8260906520749658
            ]
        },
        {
            "positions": [
                2.8971194797421047,
                -2.3190985753045057,
                -0.6108584792301515,
                -2.428928851607406,
                1.0699012600627358,
                0.6905905576784921
            ]
        },
        {
            "positions": [
                2.8957424475590705,
                -2.3770458747404177,
                -0.5484406625745193,
                -2.44982920921199,
                1.1782887031911002,
                0.5550904632820188
            ]
        },
        {
            "positions": [
                2.8943654153760368,
                -2.4349931741763298,
                -0.4860228459188871,
                -2.4707295668165745,
                1.286676146319465,
                0.4195903688855456
            ]
        },
        {
            "positions": [
                2.8929883831930026,
                -2.492940473612242,
                -0.42360502926325494,
                -2.491629924421159,
                1.3950635894478292,
                0.2840902744890723
            ]
        },
        {
            "positions": [
                2.8916113510099684,
                -2.550887773048154,
                -0.36118721260762254,
                -2.512530282025743,
                1.5034510325761938,
                0.1485901800925986
            ]
        },
        {
            "positions": [
                2.8902343188269346,
                -2.608835072484066,
                -0.29876939595199037,
                -2.5334306396303274,
                1.611838475704558,
                0.013090085696125353
            ]
        },
        {
            "positions": [
                2.8888572866439004,
                -2.6667823719199784,
                -0.23635157929635797,
                -2.5543309972349117,
                1.7202259188329228,
                -0.12241000870034835
            ]
        },
        {
            "positions": [
                2.8874802544608666,
                -2.7247296713558904,
                -0.1739337626407258,
                -2.575231354839496,
                1.8286133619612874,
                -0.2579101030968216
            ]
        },
        {
            "positions": [
                2.8861032222778324,
                -2.782676970791803,
                -0.11151594598509362,
                -2.5961317124440804,
                1.9370008050896517,
                -0.3934101974932953
            ]
        },
        {
            "positions": [
                2.8847261900947982,
                -2.840624270227715,
                -0.04909812932946145,
                -2.617032070048665,
                2.0453882482180163,
                -0.5289102918897686
            ]
        },
        {
            "positions": [
                2.8833491579117645,
                -2.898571569663627,
                0.013319687326170726,
                -2.6379324276532494,
                2.1537756913463806,
                -0.6644103862862418
            ]
        },
        {
            "positions": [
                2.8819721257287303,
                -2.956518869099539,
                0.07573750398180312,
                -2.6588327852578337,
                2.2621631344747453,
                -0.7999104806827151
            ]
        },
        {
            "positions": [
                2.8805950935456965,
                -3.014466168535451,
                0.1381553206374353,
                -2.679733142862418,
                2.3705505776031095,
                -0.9354105750791888
            ]
        },
        {
            "positions": [
                2.8792180613626623,
                -3.072413467971363,
                0.20057313729306747,
                -2.7006335004670023,
                2.478938020731474,
                -1.070910669475662
            ]
        },
        {
            "positions": [
                2.871141360762511,
                -3.039574938948081,
                0.13193181781092422,
                -2.6909386405467814,
                2.369695699126777,
                -0.9148389633509666
            ]
        },
        {
            "positions": [
                2.8630646601623595,
                -3.006736409924799,
                0.06329049832878098,
                -2.6812437806265605,
                2.26045337752208,
                -0.758767257226271
            ]
        },
        {
            "positions": [
                2.8549879595622083,
                -2.973897880901517,
                -0.005350821153362273,
                -2.6715489207063396,
                2.1512110559173827,
                -0.6026955511015755
            ]
        },
        {
            "positions": [
                2.846911258962057,
                -2.941059351878235,
                -0.07399214063550552,
                -2.6618540607861187,
                2.0419687343126856,
                -0.44662384497688
            ]
        },
        {
            "positions": [
                2.838834558361906,
                -2.908220822854953,
                -0.14263346011764877,
                -2.652159200865898,
                1.9327264127079884,
                -0.29055213885218445
            ]
        },
        {
            "positions": [
                2.8307578577617543,
                -2.875382293831671,
                -0.21127477959979202,
                -2.642464340945677,
                1.8234840911032912,
                -0.134480432727489
            ]
        },
        {
            "positions": [
                2.822681157161603,
                -2.842543764808389,
                -0.27991609908193527,
                -2.632769481025456,
                1.714241769498594,
                0.021591273397206567
            ]
        },
        {
            "positions": [
                2.814604456561452,
                -2.809705235785107,
                -0.3485574185640785,
                -2.623074621105235,
                1.604999447893897,
                0.17766297952190202
            ]
        },
        {
            "positions": [
                2.8065277559613,
                -2.776866706761825,
                -0.41719873804622176,
                -2.6133797611850142,
                1.4957571262891998,
                0.3337346856465975
            ]
        },
        {
            "positions": [
                2.798451055361149,
                -2.744028177738543,
                -0.485840057528365,
                -2.6036849012647933,
                1.3865148046845026,
                0.48980639177129315
            ]
        },
        {
            "positions": [
                2.790374354760998,
                -2.711189648715261,
                -0.5544813770105083,
                -2.5939900413445725,
                1.2772724830798055,
                0.6458780978959886
            ]
        },
        {
            "positions": [
                2.782297654160846,
                -2.678351119691979,
                -0.6231226964926515,
                -2.5842951814243516,
                1.1680301614751083,
                0.801949804020684
            ]
        },
        {
            "positions": [
                2.774220953560695,
                -2.645512590668697,
                -0.6917640159747948,
                -2.5746003215041307,
                1.0587878398704111,
                0.9580215101453797
            ]
        },
        {
            "positions": [
                2.766144252960544,
                -2.612674061645415,
                -0.760405335456938,
                -2.5649054615839093,
                0.949545518265714,
                1.1140932162700752
            ]
        },
        {
            "positions": [
                2.7580675523603926,
                -2.5798355326221327,
                -0.8290466549390814,
                -2.5552106016636884,
                0.8403031966610168,
                1.2701649223947706
            ]
        },
        {
            "positions": [
                2.749990851760241,
                -2.546997003598851,
                -0.8976879744212245,
                -2.5455157417434675,
                0.7310608750563197,
                1.426236628519466
            ]
        },
        {
            "positions": [
                2.7419141511600897,
                -2.5141584745755687,
                -0.9663292939033679,
                -2.5358208818232466,
                0.6218185534516225,
                1.582308334644162
            ]
        },
        {
            "positions": [
                2.7338374505599385,
                -2.481319945552287,
                -1.034970613385511,
                -2.5261260219030257,
                0.5125762318469254,
                1.738380040768857
            ]
        },
        {
            "positions": [
                2.725760749959787,
                -2.4484814165290048,
                -1.1036119328676544,
                -2.516431161982805,
                0.4033339102422282,
                1.894451746893553
            ]
        },
        {
            "positions": [
                2.7176840493596357,
                -2.4156428875057228,
                -1.1722532523497975,
                -2.506736302062584,
                0.29409158863753104,
                2.0505234530182483
            ]
        },
        {
            "positions": [
                2.7096073487594845,
                -2.3828043584824408,
                -1.2408945718319409,
                -2.497041442142363,
                0.18484926703283389,
                2.206595159142944
            ]
        },
        {
            "positions": [
                2.7015306481593333,
                -2.3499658294591588,
                -1.309535891314084,
                -2.487346582222142,
                0.07560694542813673,
                2.3626668652676392
            ]
        },
        {
            "positions": [
                2.6934539475591817,
                -2.317127300435877,
                -1.3781772107962273,
                -2.477651722301921,
                -0.03363537617656043,
                2.5187385713923347
            ]
        },
        {
            "positions": [
                2.6853772469590305,
                -2.284288771412595,
                -1.4468185302783705,
                -2.4679568623817003,
                -0.14287769778125758,
                2.67481027751703
            ]
        },
        {
            "positions": [
                2.6773005463588793,
                -2.251450242389313,
                -1.5154598497605138,
                -2.4582620024614794,
                -0.25212001938595474,
                2.830881983641726
            ]
        },
        {
            "positions": [
                2.6692238457587276,
                -2.218611713366031,
                -1.584101169242657,
                -2.4485671425412585,
                -0.3613623409906519,
                2.9869536897664215
            ]
        },
        {
            "positions": [
                2.6611471451585764,
                -2.185773184342749,
                -1.6527424887248003,
                -2.4388722826210376,
                -0.470604662595349,
                3.1430253958911174
            ]
        }
    ]
}