{
    "goal": {
        "global_pose": {
            "orientation": {
                "w": -0.00223480608172531,
                "x": 0.0024358444001904467,
                "y": 0.7094548369677653,
                "z": -0.704743149386269
            },
            "position": {
                "x": 0.6205249238014221,
                "y": -0.6371506643295288,
                "z": 0.19426114857196808
            }
        },
        "name": "move_to_magneteinheit_B"
    },
    "id": "PRM_move_to_magneteinheit_B_14",
    "joint_names": [
        "shoulder_pan_joint",
        "shoulder_lift_joint",
        "elbow_joint",
        "wrist_1_joint",
        "wrist_2_joint",
        "wrist_3_joint"
    ],
    "metrics": {
        "cart_traj_len": 4.299245675758571,
        "distance_elbow_joint": 4.880891915485277,
        "distance_shoulder_lift_joint": 1.1833373977590735,
        "distance_shoulder_pan_joint": 3.3295739211179987,
        "distance_wrist_1_joint": 2.470484982214072,
        "distance_wrist_2_joint": 3.171510733958041,
        "distance_wrist_3_joint": 6.268284074245745,
        "smoothness": 0.33165012884663203,
        "time": 0.7920766109999999,
        "traj_len": 4.615634628605282,
        "weighted_distance": 6.283521853979965
    },
    "planner": "PRM",
    "start": {
        "state": {
            "elbow_joint": 2.39358713078474,
            "shoulder_lift_joint": -1.908514104345545,
            "shoulder_pan_joint": 0.7066247066606129,
            "wrist_1_joint": -0.4678290933515497,
            "wrist_2_joint": 0.7096259083745334,
            "wrist_3_joint": -3.1358149277392293
        }
    },
    "waypoints": [
        {
            "positions": [
                0.7066247066606129,
                -1.908514104345545,
                2.39358713078474,
                -0.4678290933515497,
                0.7096259083745334,
                -3.1358149277392293
            ]
        },
        {
            "positions": [
                0.6002437155366337,
                -1.9345500859177016,
                2.4350043515381627,
                -0.5103487695160526,
                0.6954151128914491,
                -3.0371698999817887
            ]
        },
        {
            "positions": [
                0.4938627244126544,
                -1.960586067489858,
                2.476421572291586,
                -0.5528684456805554,
                0.6812043174083648,
                -2.9385248722243476
            ]
        },
        {
            "positions": [
                0.3874817332886751,
                -1.9866220490620148,
                2.5178387930450086,
                -0.5953881218450582,
                0.6669935219252805,
                -2.839879844466907
            ]
        },
        {
            "positions": [
                0.3762617614995233,
                -1.9595841847095736,
                2.398339920124969,
                -0.6687397052271213,
                0.6555251853130207,
                -2.733271207694128
            ]
        },
        {
            "positions": [
                0.3650417897103715,
                -1.9325463203571325,
                2.27884104720493,
                -0.7420912886091845,
                0.644056848700761,
                -2.626662570921349
            ]
        },
        {
            "positions": [
                0.3538218179212197,
                -1.9055084560046915,
                2.159342174284891,
                -0.8154428719912477,
                0.6325885120885011,
                -2.52005393414857
            ]
        },
        {
            "positions": [
                0.3426018461320679,
                -1.8784705916522504,
                2.0398433013648516,
                -0.8887944553733109,
                0.6211201754762413,
                -2.4134452973757914
            ]
        },
        {
            "positions": [
                0.3313818743429161,
                -1.8514327272998092,
                1.9203444284448123,
                -0.9621460387553741,
                0.6096518388639816,
                -2.3068366606030124
            ]
        },
        {
            "positions": [
                0.3201619025537643,
                -1.824394862947368,
                1.800845555524773,
                -1.0354976221374372,
                0.5981835022517218,
                -2.2002280238302334
            ]
        },
        {
            "positions": [
                0.4027064730503805,
                -1.8152817256354472,
                1.6837241165447259,
                -1.0872042179025607,
                0.5335437715197174,
                -2.1407748789721004
            ]
        },
        {
            "positions": [
                0.48525104354699666,
                -1.8061685883235263,
                1.5666026775646786,
                -1.1389108136676842,
                0.4689040407877131,
                -2.0813217341139674
            ]
        },
        {
            "positions": [
                0.5677956140436129,
                -1.7970554510116052,
                1.4494812385846312,
                -1.1906174094328077,
                0.40426431005570873,
                -2.021868589255834
            ]
        },
        {
            "positions": [
                0.650340184540229,
                -1.7879423136996844,
                1.3323597996045842,
                -1.2423240051979312,
                0.3396245793237044,
                -1.9624154443977009
            ]
        },
        {
            "positions": [
                0.7328847550368452,
                -1.7788291763877635,
                1.2152383606245367,
                -1.2940306009630547,
                0.2749848485917,
                -1.9029622995395679
            ]
        },
        {
            "positions": [
                0.8154293255334615,
                -1.7697160390758424,
                1.0981169216444895,
                -1.3457371967281784,
                0.21034511785969567,
                -1.8435091546814348
            ]
        },
        {
            "positions": [
                0.8979738960300776,
                -1.7606029017639215,
                0.9809954826644423,
                -1.3974437924933019,
                0.14570538712769132,
                -1.7840560098233018
            ]
        },
        {
            "positions": [
                0.9805184665266938,
                -1.7514897644520007,
                0.863874043684395,
                -1.4491503882584253,
                0.08106565639568697,
                -1.7246028649651686
            ]
        },
        {
            "positions": [
                1.06306303702331,
                -1.7423766271400798,
                0.7467526047043478,
                -1.5008569840235488,
                0.016425925663682617,
                -1.6651497201070353
            ]
        },
        {
            "positions": [
                1.1456076075199262,
                -1.733263489828159,
                0.6296311657243006,
                -1.5525635797886723,
                -0.048213805068321736,
                -1.6056965752489023
            ]
        },
        {
            "positions": [
                1.2281521780165425,
                -1.7241503525162378,
                0.5125097267442533,
                -1.6042701755537958,
                -0.11285353580032609,
                -1.5462434303907693
            ]
        },
        {
            "positions": [
                1.3106967485131586,
                -1.715037215204317,
                0.39538828776420587,
                -1.6559767713189193,
                -0.17749326653233044,
                -1.4867902855326363
            ]
        },
        {
            "positions": [
                1.3932413190097748,
                -1.705924077892396,
                0.27826684878415864,
                -1.7076833670840428,
                -0.2421329972643348,
                -1.427337140674503
            ]
        },
        {
            "positions": [
                1.475785889506391,
                -1.696810940580475,
                0.1611454098041114,
                -1.7593899628491663,
                -0.30677272799633915,
                -1.36788399581637
            ]
        },
        {
            "positions": [
                1.5583304600030072,
                -1.6876978032685541,
                0.044023970824064174,
                -1.81109655861429,
                -0.3714124587283435,
                -1.3084308509582367
            ]
        },
        {
            "positions": [
                1.6408750304996234,
                -1.6785846659566332,
                -0.07309746815598306,
                -1.8628031543794132,
                -0.43605218946034785,
                -1.2489777061001037
            ]
        },
        {
            "positions": [
                1.7234196009962395,
                -1.6694715286447124,
                -0.1902189071360303,
                -1.914509750144537,
                -0.5006919201923522,
                -1.1895245612419707
            ]
        },
        {
            "positions": [
                1.8059641714928558,
                -1.6603583913327915,
                -0.3073403461160775,
                -1.9662163459096602,
                -0.5653316509243566,
                -1.1300714163838375
            ]
        },
        {
            "positions": [
                1.888508741989472,
                -1.6512452540208704,
                -0.424461785096125,
                -2.017922941674784,
                -0.6299713816563609,
                -1.0706182715257044
            ]
        },
        {
            "positions": [
                1.971053312486088,
                -1.6421321167089495,
                -0.541583224076172,
                -2.0696295374399076,
                -0.6946111123883653,
                -1.0111651266675712
            ]
        },
        {
            "positions": [
                2.0535978829827046,
                -1.6330189793970287,
                -0.6587046630562194,
                -2.121336133205031,
                -0.7592508431203696,
                -0.9517119818094382
            ]
        },
        {
            "positions": [
                2.1361424534793203,
                -1.6239058420851076,
                -0.7758261020362665,
                -2.173042728970154,
                -0.823890573852374,
                -0.8922588369513051
            ]
        },
        {
            "positions": [
                2.218687023975937,
                -1.6147927047731867,
                -0.8929475410163139,
                -2.224749324735278,
                -0.8885303045843783,
                -0.8328056920931719
            ]
        },
        {
            "positions": [
                2.301231594472553,
                -1.6056795674612658,
                -1.0100689799963614,
                -2.2764559205004016,
                -0.9531700353163827,
                -0.7733525472350389
            ]
        },
        {
            "positions": [
                2.383776164969169,
                -1.596566430149345,
                -1.1271904189764084,
                -2.328162516265525,
                -1.0178097660483871,
                -0.7138994023769059
            ]
        },
        {
            "positions": [
                2.4663207354657852,
                -1.587453292837424,
                -1.2443118579564558,
                -2.379869112030648,
                -1.0824494967803915,
                -0.6544462575187726
            ]
        },
        {
            "positions": [
                2.5488653059624014,
                -1.578340155525503,
                -1.3614332969365028,
                -2.431575707795772,
                -1.1470892275123958,
                -0.5949931126606396
            ]
        },
        {
            "positions": [
                2.6314098764590175,
                -1.5692270182135821,
                -1.4785547359165503,
                -2.4832823035608955,
                -1.2117289582444002,
                -0.5355399678025066
            ]
        },
        {
            "positions": [
                2.713954446955634,
                -1.5601138809016613,
                -1.5956761748965973,
                -2.5349888993260192,
                -1.2763686889764045,
                -0.4760868229443733
            ]
        },
        {
            "positions": [
                2.79649901745225,
                -1.5510007435897402,
                -1.7127976138766448,
                -2.5866954950911425,
                -1.341008419708409,
                -0.4166336780862403
            ]
        },
        {
            "positions": [
                2.8790435879488663,
                -1.5418876062778193,
                -1.8299190528566918,
                -2.6384020908562658,
                -1.4056481504404132,
                -0.35718053322810706
            ]
        },
        {
            "positions": [
                2.9615881584454824,
                -1.5327744689658984,
                -1.9470404918367394,
                -2.6901086866213895,
                -1.4702878811724174,
                -0.29772738836997403
            ]
        },
        {
            "positions": [
                2.941475834370854,
                -1.5761999271623308,
                -1.927589760613855,
                -2.673561660691774,
                -1.404181418211678,
                -0.0690476193782078
            ]
        },
        {
            "positions": [
                2.9213635102962248,
                -1.6196253853587634,
                -1.9081390293909708,
                -2.6570146347621586,
                -1.3380749552509388,
                0.15963214961355843
            ]
        },
        {
            "positions": [
                2.901251186221596,
                -1.6630508435551958,
                -1.8886882981680864,
                -2.640467608832543,
                -1.2719684922901995,
                0.38831191860532466
            ]
        },
        {
            "positions": [
                2.881138862146967,
                -1.7064763017516285,
                -1.869237566945202,
                -2.6239205829029273,
                -1.2058620293294604,
                0.6169916875970909
            ]
        },
        {
            "positions": [
                2.8610265380723385,
                -1.7499017599480609,
                -1.8497868357223177,
                -2.607373556973312,
                -1.139755566368721,
                0.845671456588857
            ]
        },
        {
            "positions": [
                2.84091421399771,
                -1.7933272181444933,
                -1.8303361044994333,
                -2.5908265310436964,
                -1.0736491034079818,
                1.0743512255806233
            ]
        },
        {
            "positions": [
                2.820801889923081,
                -1.8367526763409259,
                -1.8108853732765489,
                -2.574279505114081,
                -1.0075426404472425,
                1.3030309945723895
            ]
        },
        {
            "positions": [
                2.8006895658484523,
                -1.8801781345373583,
                -1.7914346420536646,
                -2.5577324791844656,
                -0.9414361774865032,
                1.5317107635641558
            ]
        },
        {
            "positions": [
                2.7805772417738233,
                -1.923603592733791,
                -1.7719839108307802,
                -2.54118545325485,
                -0.875329714525764,
                1.7603905325559217
            ]
        },
        {
            "positions": [
                2.7604649176991947,
                -1.9670290509302233,
                -1.7525331796078958,
                -2.5246384273252347,
                -0.8092232515650247,
                1.989070301547688
            ]
        },
        {
            "positions": [
                2.740352593624566,
                -2.0104545091266557,
                -1.7330824483850116,
                -2.5080914013956193,
                -0.7431167886042854,
                2.2177500705394544
            ]
        },
        {
            "positions": [
                2.720240269549937,
                -2.0538799673230885,
                -1.7136317171621271,
                -2.4915443754660034,
                -0.6770103256435461,
                2.4464298395312207
            ]
        },
        {
            "positions": [
                2.7001279454753084,
                -2.097305425519521,
                -1.6941809859392427,
                -2.474997349536388,
                -0.6109038626828068,
                2.675109608522987
            ]
        },
        {
            "positions": [
                2.6800156214006794,
                -2.1407308837159533,
                -1.6747302547163585,
                -2.4584503236067725,
                -0.5447973997220676,
                2.903789377514753
            ]
        },
        {
            "positions": [
                2.659903297326051,
                -2.1841563419123857,
                -1.655279523493474,
                -2.441903297677157,
                -0.4786909367613283,
                3.1324691465065193
            ]
        }
    ]
}