{
    "goal": {
        "global_pose": {
            "orientation": {
                "w": -0.00223480608172531,
                "x": 0.0024358444001904467,
                "y": 0.7094548369677653,
                "z": -0.704743149386269
            },
            "position": {
                "x": 0.6205249238014221,
                "y": -0.6371506643295288,
                "z": 0.19426114857196808
            }
        },
        "name": "move_to_magneteinheit_B"
    },
    "id": "PRM_move_to_magneteinheit_B_36",
    "joint_names": [
        "shoulder_pan_joint",
        "shoulder_lift_joint",
        "elbow_joint",
        "wrist_1_joint",
        "wrist_2_joint",
        "wrist_3_joint"
    ],
    "metrics": {
        "cart_traj_len": 1.4534915973883624,
        "distance_elbow_joint": 0.7261822852781448,
        "distance_shoulder_lift_joint": 1.246044529420818,
        "distance_shoulder_pan_joint": 1.6205052809501335,
        "distance_wrist_1_joint": 2.61968252398296,
        "distance_wrist_2_joint": 2.943588485399064,
        "distance_wrist_3_joint": 3.1426754862800292,
        "smoothness": 3.2297397183914985e-16,
        "time": 0.05127877,
        "traj_len": 3.506947189695213,
        "weighted_distance": 4.913990290309215
    },
    "planner": "PRM",
    "start": {
        "state": {
            "elbow_joint": 2.39358713078474,
            "shoulder_lift_joint": -1.908514104345545,
            "shoulder_pan_joint": 0.7066247066606129,
            "wrist_1_joint": -0.4678290933515497,
            "wrist_2_joint": 0.7096259083745334,
            "wrist_3_joint": -3.1358149277392293
        }
    },
    "waypoints": [
        {
            "positions": [
                0.7066247066606129,
                -1.908514104345545,
                2.39358713078474,
                -0.4678290933515497,
                0.7096259083745334,
                -3.1358149277392293
            ]
        },
        {
            "positions": [
                0.6559839166309213,
                -1.8695752128011442,
                2.370893934369798,
                -0.3859640144770822,
                0.6176387682058126,
                -3.0376063187929785
            ]
        },
        {
            "positions": [
                0.6053431266012296,
                -1.8306363212567438,
                2.348200737954856,
                -0.3040989356026147,
                0.525651628037092,
                -2.9393977098467277
            ]
        },
        {
            "positions": [
                0.554702336571538,
                -1.7916974297123431,
                2.325507541539914,
                -0.2222338567281472,
                0.4336644878683712,
                -2.8411891009004764
            ]
        },
        {
            "positions": [
                0.5040615465418463,
                -1.7527585381679427,
                2.302814345124972,
                -0.14036877785367968,
                0.3416773476996504,
                -2.7429804919542256
            ]
        },
        {
            "positions": [
                0.4534207565121546,
                -1.713819646623542,
                2.28012114871003,
                -0.058503698979212204,
                0.24969020753092963,
                -2.6447718830079747
            ]
        },
        {
            "positions": [
                0.40277996648246295,
                -1.6748807550791416,
                2.257427952295088,
                0.02336137989525533,
                0.15770306736220896,
                -2.546563274061724
            ]
        },
        {
            "positions": [
                0.35213917645277126,
                -1.635941863534741,
                2.234734755880146,
                0.10522645876972286,
                0.06571592719348818,
                -2.448354665115473
            ]
        },
        {
            "positions": [
                0.3014983864230796,
                -1.5970029719903405,
                2.212041559465204,
                0.18709153764419034,
                -0.026271212975232605,
                -2.350146056169222
            ]
        },
        {
            "positions": [
                0.2508575963933879,
                -1.5580640804459398,
                2.1893483630502617,
                0.2689566165186578,
                -0.11825835314395339,
                -2.251937447222971
            ]
        },
        {
            "positions": [
                0.2002168063636962,
                -1.5191251889015394,
                2.1666551666353198,
                0.3508216953931253,
                -0.21024549331267417,
                -2.15372883827672
            ]
        },
        {
            "positions": [
                0.14957601633400452,
                -1.4801862973571387,
                2.143961970220378,
                0.4326867742675929,
                -0.30223263348139484,
                -2.0555202293304693
            ]
        },
        {
            "positions": [
                0.09893522630431295,
                -1.4412474058127382,
                2.121268773805436,
                0.5145518531420603,
                -0.3942197736501155,
                -1.9573116203842185
            ]
        },
        {
            "positions": [
                0.048294436274621266,
                -1.4023085142683376,
                2.098575577390494,
                0.596416932016528,
                -0.4862069138188364,
                -1.8591030114379674
            ]
        },
        {
            "positions": [
                -0.0023463537550704183,
                -1.363369622723937,
                2.0758823809755516,
                0.6782820108909955,
                -0.5781940539875571,
                -1.7608944024917166
            ]
        },
        {
            "positions": [
                -0.0529871437847621,
                -1.3244307311795365,
                2.0531891845606096,
                0.760147089765463,
                -0.670181194156278,
                -1.6626857935454655
            ]
        },
        {
            "positions": [
                -0.10362793381445379,
                -1.285491839635136,
                2.0304959881456677,
                0.8420121686399304,
                -0.7621683343249986,
                -1.5644771845992147
            ]
        },
        {
            "positions": [
                -0.15426872384414547,
                -1.2465529480907354,
                2.0078027917307257,
                0.9238772475143979,
                -0.8541554744937193,
                -1.4662685756529639
            ]
        },
        {
            "positions": [
                -0.20490951387383716,
                -1.2076140565463347,
                1.9851095953157836,
                1.0057423263888654,
                -0.9461426146624402,
                -1.3680599667067128
            ]
        },
        {
            "positions": [
                -0.25555030390352884,
                -1.1686751650019342,
                1.9624163989008416,
                1.0876074052633329,
                -1.0381297548311608,
                -1.269851357760462
            ]
        },
        {
            "positions": [
                -0.3061910939332205,
                -1.1297362734575338,
                1.9397232024858995,
                1.1694724841378004,
                -1.1301168949998819,
                -1.171642748814211
            ]
        },
        {
            "positions": [
                -0.3568318839629122,
                -1.0907973819131331,
                1.9170300060709575,
                1.251337563012268,
                -1.2221040351686026,
                -1.07343413986796
            ]
        },
        {
            "positions": [
                -0.4074726739926039,
                -1.0518584903687325,
                1.8943368096560156,
                1.3332026418867355,
                -1.3140911753373232,
                -0.9752255309217093
            ]
        },
        {
            "positions": [
                -0.4581134640222956,
                -1.012919598824332,
                1.8716436132410736,
                1.415067720761203,
                -1.406078315506044,
                -0.8770169219754584
            ]
        },
        {
            "positions": [
                -0.508754254051987,
                -0.9739807072799314,
                1.8489504168261315,
                1.4969327996356705,
                -1.4980654556747646,
                -0.7788083130292076
            ]
        },
        {
            "positions": [
                -0.5593950440816787,
                -0.9350418157355308,
                1.8262572204111893,
                1.5787978785101382,
                -1.5900525958434857,
                -0.6805997040829563
            ]
        },
        {
            "positions": [
                -0.6100358341113704,
                -0.8961029241911302,
                1.8035640239962474,
                1.6606629573846057,
                -1.6820397360122064,
                -0.5823910951367055
            ]
        },
        {
            "positions": [
                -0.6606766241410621,
                -0.8571640326467298,
                1.7808708275813054,
                1.7425280362590732,
                -1.774026876180927,
                -0.4841824861904547
            ]
        },
        {
            "positions": [
                -0.7113174141707538,
                -0.8182251411023291,
                1.7581776311663635,
                1.8243931151335406,
                -1.8660140163496477,
                -0.38597387724420384
            ]
        },
        {
            "positions": [
                -0.7619582042004455,
                -0.7792862495579287,
                1.7354844347514213,
                1.9062581940080081,
                -1.9580011565183684,
                -0.287765268297953
            ]
        },
        {
            "positions": [
                -0.8125989942301372,
                -0.740347358013528,
                1.7127912383364794,
                1.9881232728824756,
                -2.0499882966870895,
                -0.18955665935170174
            ]
        },
        {
            "positions": [
                -0.8632397842598288,
                -0.7014084664691276,
                1.6900980419215372,
                2.069988351756943,
                -2.14197543685581,
                -0.09134805040545091
            ]
        },
        {
            "positions": [
                -0.9138805742895204,
                -0.6624695749247269,
                1.6674048455065953,
                2.1518534306314105,
                -2.233962577024531,
                0.00686055854080005
            ]
        }
    ]
}