{
    "goal": {
        "global_pose": {
            "orientation": {
                "w": 0.5084816217422485,
                "x": -0.49083608388900757,
                "y": 0.5182115435600281,
                "z": -0.4816462993621826
            },
            "position": {
                "x": 0.5540239810943604,
                "y": 0.030875300988554955,
                "z": 0.16403168439865112
            }
        },
        "name": "move_to_storage_A"
    },
    "id": "PRM_move_to_storage_A_89",
    "joint_names": [
        "shoulder_pan_joint",
        "shoulder_lift_joint",
        "elbow_joint",
        "wrist_1_joint",
        "wrist_2_joint",
        "wrist_3_joint"
    ],
    "metrics": {
        "cart_traj_len": 0.35388298773841004,
        "distance_elbow_joint": 0.4494983958468808,
        "distance_shoulder_lift_joint": 0.23474136162831427,
        "distance_shoulder_pan_joint": 0.4620562041796116,
        "distance_wrist_1_joint": 0.24221907926435426,
        "distance_wrist_2_joint": 1.103264081150984,
        "distance_wrist_3_joint": 0.09756034641346956,
        "smoothness": 4.440892098500626e-16,
        "time": 0.031437992,
        "traj_len": 1.6091424637003444,
        "weighted_distance": 2.0322261984646026
    },
    "planner": "PRM",
    "start": {
        "state": {
            "elbow_joint": 1.9715463870305268,
            "shoulder_lift_joint": -1.1394903361783484,
            "shoulder_pan_joint": 0.12281147578464417,
            "wrist_1_joint": -0.7804599489681411,
            "wrist_2_joint": 0.12958660307563738,
            "wrist_3_joint": -3.1924946282119055
        }
    },
    "waypoints": [
        {
            "positions": [
                0.12281147578464417,
                -1.1394903361783484,
                1.9715463870305268,
                -0.7804599489681411,
                0.12958660307563738,
                -3.1924946282119055
            ]
        },
        {
            "positions": [
                0.05680344661612824,
                -1.1730248164109647,
                2.0357604435800813,
                -0.8150626745773345,
                0.287195757525778,
                -3.1785574358671242
            ]
        },
        {
            "positions": [
                -0.009204582552387694,
                -1.206559296643581,
                2.0999745001296355,
                -0.849665400186528,
                0.44480491197591854,
                -3.164620243522343
            ]
        },
        {
            "positions": [
                -0.07521261172090364,
                -1.2400937768761973,
                2.16418855667919,
                -0.8842681257957214,
                0.6024140664260591,
                -3.1506830511775616
            ]
        },
        {
            "positions": [
                -0.14122064088941955,
                -1.2736282571088138,
                2.2284026132287442,
                -0.918870851404915,
                0.7600232208761997,
                -3.13674585883278
            ]
        },
        {
            "positions": [
                -0.2072286700579355,
                -1.30716273734143,
                2.292616669778299,
                -0.9534735770141084,
                0.9176323753263402,
                -3.1228086664879986
            ]
        },
        {
            "positions": [
                -0.27323669922645144,
                -1.3406972175740464,
                2.356830726327853,
                -0.9880763026233019,
                1.0752415297764808,
                -3.1088714741432173
            ]
        },
        {
            "positions": [
                -0.3392447283949674,
                -1.3742316978066627,
                2.4210447828774075,
                -1.0226790282324953,
                1.2328506842266214,
                -3.094934281798436
            ]
        }
    ]
}