{
    "goal": {
        "global_pose": {
            "orientation": {
                "w": 0.7047431468963623,
                "x": -0.7094548344612122,
                "y": 0.0024358443915843964,
                "z": -0.0022348060738295317
            },
            "position": {
                "x": 0.6094750761985779,
                "y": 0.3671506643295288,
                "z": 0.19426114857196808
            }
        },
        "name": "move_to_magneteinheit_A"
    },
    "id": "PRM_move_to_magneteinheit_A_47",
    "joint_names": [
        "shoulder_pan_joint",
        "shoulder_lift_joint",
        "elbow_joint",
        "wrist_1_joint",
        "wrist_2_joint",
        "wrist_3_joint"
    ],
    "metrics": {
        "cart_traj_len": 2.1588492415811436,
        "distance_elbow_joint": 3.898889679485462,
        "distance_shoulder_lift_joint": 2.5147454977443706,
        "distance_shoulder_pan_joint": 1.4507674105950585,
        "distance_wrist_1_joint": 2.431930489713154,
        "distance_wrist_2_joint": 4.547097353047461,
        "distance_wrist_3_joint": 4.275738608164756,
        "smoothness": 0.2578922466501828,
        "time": 0.20421529700000002,
        "traj_len": 4.372547202575435,
        "weighted_distance": 5.886397378519428
    },
    "planner": "PRM",
    "start": {
        "state": {
            "elbow_joint": -1.919643507792019,
            "shoulder_lift_joint": -0.07675430207160344,
            "shoulder_pan_joint": -1.1188671864651873,
            "wrist_1_joint": 0.42560062535961957,
            "wrist_2_joint": 1.5706038300724876,
            "wrist_3_joint": 1.1188968870953055
        }
    },
    "waypoints": [
        {
            "positions": [
                -1.1188671864651873,
                -0.07675430207160344,
                -1.919643507792019,
                0.42560062535961957,
                1.5706038300724876,
                1.1188968870953055
            ]
        },
        {
            "positions": [
                -1.122475759546569,
                -0.13851299755163066,
                -1.8180343579559468,
                0.36221329315807527,
                1.4672161047160137,
                1.0621630720104742
            ]
        },
        {
            "positions": [
                -1.126084332627951,
                -0.20027169303165787,
                -1.7164252081198743,
                0.298825960956531,
                1.3638283793595396,
                1.0054292569256431
            ]
        },
        {
            "positions": [
                -1.1296929057093328,
                -0.26203038851168503,
                -1.614816058283802,
                0.23543862875498672,
                1.2604406540030657,
                0.9486954418408118
            ]
        },
        {
            "positions": [
                -1.1333014787907147,
                -0.32378908399171225,
                -1.5132069084477298,
                0.17205129655344242,
                1.1570529286465918,
                0.8919616267559806
            ]
        },
        {
            "positions": [
                -1.1369100518720965,
                -0.3855477794717395,
                -1.4115977586116575,
                0.10866396435189812,
                1.0536652032901177,
                0.8352278116711493
            ]
        },
        {
            "positions": [
                -1.1405186249534784,
                -0.4473064749517667,
                -1.3099886087755852,
                0.04527663215035388,
                0.9502774779336438,
                0.778493996586318
            ]
        },
        {
            "positions": [
                -1.1441271980348602,
                -0.5090651704317939,
                -1.2083794589395127,
                -0.018110700051190476,
                0.8468897525771698,
                0.7217601815014868
            ]
        },
        {
            "positions": [
                -1.1477357711162421,
                -0.5708238659118211,
                -1.1067703091034404,
                -0.08149803225273472,
                0.7435020272206959,
                0.6650263664166556
            ]
        },
        {
            "positions": [
                -1.1513443441976239,
                -0.6325825613918483,
                -1.005161159267368,
                -0.14488536445427908,
                0.6401143018642219,
                0.6082925513318244
            ]
        },
        {
            "positions": [
                -1.1549529172790058,
                -0.6943412568718756,
                -0.9035520094312957,
                -0.20827269665582332,
                0.536726576507748,
                0.551558736246993
            ]
        },
        {
            "positions": [
                -1.1585614903603876,
                -0.7560999523519027,
                -0.8019428595952234,
                -0.27166002885736756,
                0.43333885115127413,
                0.4948249211621619
            ]
        },
        {
            "positions": [
                -1.1621700634417693,
                -0.8178586478319299,
                -0.7003337097591511,
                -0.3350473610589118,
                0.3299511257948,
                0.4380911060773306
            ]
        },
        {
            "positions": [
                -1.1657786365231513,
                -0.8796173433119572,
                -0.5987245599230786,
                -0.39843469326045616,
                0.22656340043832612,
                0.3813572909924994
            ]
        },
        {
            "positions": [
                -1.169387209604533,
                -0.9413760387919845,
                -0.4971154100870063,
                -0.4618220254620005,
                0.12317567508185201,
                0.32462347590766805
            ]
        },
        {
            "positions": [
                -1.172995782685915,
                -1.0031347342720116,
                -0.3955062602509338,
                -0.5252093576635448,
                0.019787949725378118,
                0.26788966082283683
            ]
        },
        {
            "positions": [
                -1.1766043557672967,
                -1.0648934297520387,
                -0.2938971104148618,
                -0.588596689865089,
                -0.08359977563109577,
                0.2111558457380056
            ]
        },
        {
            "positions": [
                -1.1802129288486787,
                -1.126652125232066,
                -0.1922879605787895,
                -0.6519840220666331,
                -0.18698750098756967,
                0.1544220306531745
            ]
        },
        {
            "positions": [
                -1.1838215019300604,
                -1.1884108207120934,
                -0.090678810742717,
                -0.7153713542681777,
                -0.2903752263440438,
                0.09768821556834317
            ]
        },
        {
            "positions": [
                -1.1874300750114424,
                -1.2501695161921205,
                0.010930339093355279,
                -0.7787586864697218,
                -0.39376295170051767,
                0.040954400483511844
            ]
        },
        {
            "positions": [
                -1.1910386480928241,
                -1.3119282116721478,
                0.11253948892942778,
                -0.8421460186712661,
                -0.49715067705699156,
                -0.015779414601319486
            ]
        },
        {
            "positions": [
                -1.1946472211742059,
                -1.373686907152175,
                0.21414863876550005,
                -0.9055333508728105,
                -0.6005384024134657,
                -0.0725132296861506
            ]
        },
        {
            "positions": [
                -1.1982557942555878,
                -1.435445602632202,
                0.31575778860157233,
                -0.9689206830743546,
                -0.7039261277699393,
                -0.1292470447709817
            ]
        },
        {
            "positions": [
                -1.2018643673369696,
                -1.4972042981122293,
                0.4173669384376446,
                -1.032308015275899,
                -0.8073138531264135,
                -0.18598085985581325
            ]
        },
        {
            "positions": [
                -1.2054729404183515,
                -1.5589629935922564,
                0.5189760882737169,
                -1.0956953474774431,
                -0.9107015784828876,
                -0.24271467494064436
            ]
        },
        {
            "positions": [
                -1.2090815134997333,
                -1.6207216890722838,
                0.6205852381097892,
                -1.1590826796789875,
                -1.0140893038393612,
                -0.29944849002547547
            ]
        },
        {
            "positions": [
                -1.2126900865811152,
                -1.682480384552311,
                0.7221943879458619,
                -1.2224700118805318,
                -1.1174770291958354,
                -0.3561823051103068
            ]
        },
        {
            "positions": [
                -1.216298659662497,
                -1.7442390800323382,
                0.8238035377819342,
                -1.285857344082076,
                -1.2208647545523095,
                -0.4129161201951381
            ]
        },
        {
            "positions": [
                -1.219907232743879,
                -1.8059977755123655,
                0.9254126876180064,
                -1.3492446762836205,
                -1.3242524799087836,
                -0.46964993527996945
            ]
        },
        {
            "positions": [
                -1.2235158058252606,
                -1.8677564709923926,
                1.027021837454079,
                -1.4126320084851647,
                -1.4276402052652575,
                -0.5263837503648005
            ]
        },
        {
            "positions": [
                -1.1562098662635114,
                -1.8315693045512134,
                1.0746330541660472,
                -1.382947115691746,
                -1.3501975393797718,
                -0.657906648900033
            ]
        },
        {
            "positions": [
                -1.0889039267017622,
                -1.795382138110034,
                1.1222442708780154,
                -1.3532622228983275,
                -1.272754873494286,
                -0.7894295474352655
            ]
        },
        {
            "positions": [
                -1.021597987140013,
                -1.759194971668855,
                1.1698554875899836,
                -1.323577330104909,
                -1.1953122076088003,
                -0.9209524459704981
            ]
        },
        {
            "positions": [
                -0.9542920475782637,
                -1.7230078052276758,
                1.2174667043019518,
                -1.2938924373114904,
                -1.1178695417233147,
                -1.0524753445057307
            ]
        },
        {
            "positions": [
                -0.8869861080165145,
                -1.6868206387864966,
                1.2650779210139198,
                -1.2642075445180718,
                -1.040426875837829,
                -1.1839982430409632
            ]
        },
        {
            "positions": [
                -0.8196801684547652,
                -1.6506334723453173,
                1.312689137725888,
                -1.2345226517246533,
                -0.9629842099523431,
                -1.3155211415761958
            ]
        },
        {
            "positions": [
                -0.752374228893016,
                -1.614446305904138,
                1.3603003544378562,
                -1.2048377589312347,
                -0.8855415440668575,
                -1.4470440401114284
            ]
        },
        {
            "positions": [
                -0.6850682893312666,
                -1.578259139462959,
                1.4079115711498245,
                -1.175152866137816,
                -0.8080988781813717,
                -1.5785669386466608
            ]
        },
        {
            "positions": [
                -0.6177623497695174,
                -1.5420719730217798,
                1.4555227878617927,
                -1.1454679733443975,
                -0.730656212295886,
                -1.7100898371818936
            ]
        },
        {
            "positions": [
                -0.5504564102077681,
                -1.5058848065806005,
                1.5031340045737607,
                -1.1157830805509792,
                -0.6532135464104003,
                -1.841612735717126
            ]
        },
        {
            "positions": [
                -0.4831504706460188,
                -1.4696976401394213,
                1.550745221285729,
                -1.0860981877575604,
                -0.5757708805249145,
                -1.9731356342523587
            ]
        },
        {
            "positions": [
                -0.41584453108426966,
                -1.433510473698242,
                1.598356437997697,
                -1.056413294964142,
                -0.4983282146394289,
                -2.104658532787591
            ]
        },
        {
            "positions": [
                -0.3485385915225203,
                -1.397323307257063,
                1.6459676547096653,
                -1.0267284021707233,
                -0.42088554875394313,
                -2.236181431322824
            ]
        },
        {
            "positions": [
                -0.2812326519607712,
                -1.3611361408158837,
                1.6935788714216335,
                -0.9970435093773049,
                -0.3434428828684575,
                -2.3677043298580562
            ]
        },
        {
            "positions": [
                -0.21392671239902183,
                -1.3249489743747045,
                1.7411900881336018,
                -0.9673586165838863,
                -0.2660002169829716,
                -2.499227228393289
            ]
        },
        {
            "positions": [
                -0.1466207728372726,
                -1.2887618079335252,
                1.78880130484557,
                -0.9376737237904678,
                -0.18855755109748595,
                -2.6307501269285214
            ]
        },
        {
            "positions": [
                -0.07931483327552336,
                -1.252574641492346,
                1.8364125215575382,
                -0.9079888309970492,
                -0.1111148852120003,
                -2.762273025463754
            ]
        },
        {
            "positions": [
                -0.012008893713774116,
                -1.216387475051167,
                1.8840237382695064,
                -0.8783039382036306,
                -0.03367221932651443,
                -2.8937959239989866
            ]
        },
        {
            "positions": [
                0.055297045847975124,
                -1.1802003086099877,
                1.9316349549814744,
                -0.848619045410212,
                0.043770446558971,
                -3.025318822534219
            ]
        },
        {
            "positions": [
                0.12260298540972435,
                -1.1440131421688085,
                1.9792461716934426,
                -0.8189341526167935,
                0.12121311244445693,
                -3.1568417210694517
            ]
        }
    ]
}