{
    "goal": {
        "global_pose": {
            "orientation": {
                "w": 0.7047431468963623,
                "x": -0.7094548344612122,
                "y": 0.0024358443915843964,
                "z": -0.0022348060738295317
            },
            "position": {
                "x": 0.6094750761985779,
                "y": 0.3671506643295288,
                "z": 0.19426114857196808
            }
        },
        "name": "move_to_magneteinheit_A"
    },
    "id": "PRM_move_to_magneteinheit_A_21",
    "joint_names": [
        "shoulder_pan_joint",
        "shoulder_lift_joint",
        "elbow_joint",
        "wrist_1_joint",
        "wrist_2_joint",
        "wrist_3_joint"
    ],
    "metrics": {
        "cart_traj_len": 1.8664383717822066,
        "distance_elbow_joint": 3.940881535535227,
        "distance_shoulder_lift_joint": 0.7131032089635357,
        "distance_shoulder_pan_joint": 1.2414364540103533,
        "distance_wrist_1_joint": 1.597907184915749,
        "distance_wrist_2_joint": 1.695177905913976,
        "distance_wrist_3_joint": 1.237911850851465,
        "smoothness": 1.2688263239042774e-16,
        "time": 0.033652378,
        "traj_len": 3.2289964602319263,
        "weighted_distance": 4.024341801179785
    },
    "planner": "PRM",
    "start": {
        "state": {
            "elbow_joint": -1.919643507792019,
            "shoulder_lift_joint": -0.07675430207160344,
            "shoulder_pan_joint": -1.1188671864651873,
            "wrist_1_joint": 0.42560062535961957,
            "wrist_2_joint": 1.5706038300724876,
            "wrist_3_joint": 1.1188968870953055
        }
    },
    "waypoints": [
        {
            "positions": [
                -1.1188671864651873,
                -0.07675430207160344,
                -1.919643507792019,
                0.42560062535961957,
                1.5706038300724876,
                1.1188968870953055
            ]
        },
        {
            "positions": [
                -1.072888058538878,
                -0.10316553203321588,
                -1.7736849324018256,
                0.48478237294909177,
                1.5078194631867847,
                1.0730483000267328
            ]
        },
        {
            "positions": [
                -1.0269089306125685,
                -0.12957676199482832,
                -1.6277263570116318,
                0.5439641205385639,
                1.445035096301082,
                1.02719971295816
            ]
        },
        {
            "positions": [
                -0.9809298026862592,
                -0.15598799195644075,
                -1.4817677816214383,
                0.6031458681280362,
                1.3822507294153792,
                0.9813511258895873
            ]
        },
        {
            "positions": [
                -0.9349506747599499,
                -0.1823992219180532,
                -1.3358092062312448,
                0.6623276157175083,
                1.3194663625296763,
                0.9355025388210144
            ]
        },
        {
            "positions": [
                -0.8889715468336404,
                -0.20881045187966563,
                -1.1898506308410512,
                0.7215093633069805,
                1.2566819956439734,
                0.8896539517524417
            ]
        },
        {
            "positions": [
                -0.842992418907331,
                -0.23522168184127806,
                -1.0438920554508577,
                0.7806911108964527,
                1.1938976287582708,
                0.8438053646838689
            ]
        },
        {
            "positions": [
                -0.7970132909810217,
                -0.2616329118028905,
                -0.897933480060664,
                0.8398728584859247,
                1.1311132618725679,
                0.797956777615296
            ]
        },
        {
            "positions": [
                -0.7510341630547124,
                -0.28804414176450294,
                -0.7519749046704705,
                0.899054606075397,
                1.0683288949868652,
                0.7521081905467233
            ]
        },
        {
            "positions": [
                -0.705055035128403,
                -0.3144553717261154,
                -0.6060163292802769,
                0.9582363536648693,
                1.0055445281011623,
                0.7062596034781505
            ]
        },
        {
            "positions": [
                -0.6590759072020935,
                -0.3408666016877278,
                -0.4600577538900832,
                1.0174181012543413,
                0.9427601612154595,
                0.6604110164095778
            ]
        },
        {
            "positions": [
                -0.6130967792757842,
                -0.36727783164934025,
                -0.31409917849988966,
                1.0765998488438135,
                0.8799757943297567,
                0.614562429341005
            ]
        },
        {
            "positions": [
                -0.5671176513494748,
                -0.3936890616109527,
                -0.16814060310969614,
                1.1357815964332858,
                0.8171914274440538,
                0.5687138422724323
            ]
        },
        {
            "positions": [
                -0.5211385234231655,
                -0.4201002915725651,
                -0.022182027719502617,
                1.1949633440227578,
                0.754407060558351,
                0.5228652552038594
            ]
        },
        {
            "positions": [
                -0.47515939549685604,
                -0.44651152153417756,
                0.12377654767069113,
                1.25414509161223,
                0.6916226936726483,
                0.47701666813528665
            ]
        },
        {
            "positions": [
                -0.4291802675705466,
                -0.47292275149579005,
                0.26973512306088465,
                1.3133268392017023,
                0.6288383267869454,
                0.4311680810667138
            ]
        },
        {
            "positions": [
                -0.3832011396442373,
                -0.49933398145740243,
                0.4156936984510782,
                1.3725085867911744,
                0.5660539599012426,
                0.38531949399814114
            ]
        },
        {
            "positions": [
                -0.33722201171792787,
                -0.5257452114190149,
                0.5616522738412721,
                1.4316903343806466,
                0.5032695930155398,
                0.3394709069295683
            ]
        },
        {
            "positions": [
                -0.29124288379161856,
                -0.5521564413806272,
                0.7076108492314652,
                1.490872081970119,
                0.4404852261298371,
                0.2936223198609955
            ]
        },
        {
            "positions": [
                -0.24526375586530913,
                -0.5785676713422399,
                0.8535694246216592,
                1.5500538295595911,
                0.3777008592441342,
                0.24777373279242276
            ]
        },
        {
            "positions": [
                -0.19928462793899981,
                -0.6049789013038522,
                0.9995280000118527,
                1.6092355771490632,
                0.31491649235843133,
                0.20192514572385
            ]
        },
        {
            "positions": [
                -0.15330550001269028,
                -0.6313901312654646,
                1.1454865754020462,
                1.6684173247385354,
                0.25213212547272845,
                0.15607655865527714
            ]
        },
        {
            "positions": [
                -0.10732637208638107,
                -0.657801361227077,
                1.2914451507922398,
                1.7275990723280075,
                0.1893477585870258,
                0.1102279715867045
            ]
        },
        {
            "positions": [
                -0.061347244160071535,
                -0.6842125911886896,
                1.4374037261824333,
                1.7867808199174797,
                0.1265633917013229,
                0.06437938451813152
            ]
        },
        {
            "positions": [
                -0.015368116233762219,
                -0.710623821150302,
                1.5833623015726268,
                1.845962567506952,
                0.06377902481562003,
                0.01853079744955899
            ]
        },
        {
            "positions": [
                0.030611011692547097,
                -0.7370350511119144,
                1.7293208769628208,
                1.9051443150964242,
                0.0009946579299171532,
                -0.027317789619013988
            ]
        },
        {
            "positions": [
                0.07659013961885641,
                -0.7634462810735267,
                1.8752794523530139,
                1.9643260626858963,
                -0.061789708955785505,
                -0.07316637668758674
            ]
        },
        {
            "positions": [
                0.12256926754516587,
                -0.7898575110351392,
                2.0212380277432076,
                2.0235078102753685,
                -0.12457407584148839,
                -0.11901496375615944
            ]
        }
    ]
}