{
    "goal": {
        "global_pose": {
            "orientation": {
                "w": 0.7047431468963623,
                "x": -0.7094548344612122,
                "y": 0.0024358443915843964,
                "z": -0.0022348060738295317
            },
            "position": {
                "x": 0.6094750761985779,
                "y": 0.3671506643295288,
                "z": 0.19426114857196808
            }
        },
        "name": "move_to_magneteinheit_A"
    },
    "id": "PRM_move_to_magneteinheit_A_7",
    "joint_names": [
        "shoulder_pan_joint",
        "shoulder_lift_joint",
        "elbow_joint",
        "wrist_1_joint",
        "wrist_2_joint",
        "wrist_3_joint"
    ],
    "metrics": {
        "cart_traj_len": 2.3449243795817805,
        "distance_elbow_joint": 3.8855552960442514,
        "distance_shoulder_lift_joint": 1.1869689945737008,
        "distance_shoulder_pan_joint": 1.775767077566143,
        "distance_wrist_1_joint": 1.1885597396570549,
        "distance_wrist_2_joint": 1.4454733733752234,
        "distance_wrist_3_joint": 4.323835556714809,
        "smoothness": 0.04349310689377211,
        "time": 0.18490290399999998,
        "traj_len": 3.715664144931722,
        "weighted_distance": 5.0087787198470926
    },
    "planner": "PRM",
    "start": {
        "state": {
            "elbow_joint": -1.919643507792019,
            "shoulder_lift_joint": -0.07675430207160344,
            "shoulder_pan_joint": -1.1188671864651873,
            "wrist_1_joint": 0.42560062535961957,
            "wrist_2_joint": 1.5706038300724876,
            "wrist_3_joint": 1.1188968870953055
        }
    },
    "waypoints": [
        {
            "positions": [
                -1.1188671864651873,
                -0.07675430207160344,
                -1.919643507792019,
                0.42560062535961957,
                1.5706038300724876,
                1.1188968870953055
            ]
        },
        {
            "positions": [
                -1.134571450631766,
                -0.1427946593347719,
                -1.8306200275034674,
                0.40731645520273574,
                1.4862916671958806,
                1.0185766519874764
            ]
        },
        {
            "positions": [
                -1.1502757147983447,
                -0.20883501659794035,
                -1.741596547214916,
                0.38903228504585197,
                1.4019795043192735,
                0.9182564168796474
            ]
        },
        {
            "positions": [
                -1.1659799789649232,
                -0.27487537386110883,
                -1.6525730669263643,
                0.37074811488896814,
                1.3176673414426663,
                0.8179361817718183
            ]
        },
        {
            "positions": [
                -1.1816842431315018,
                -0.34091573112427725,
                -1.5635495866378126,
                0.3524639447320843,
                1.2333551785660593,
                0.7176159466639893
            ]
        },
        {
            "positions": [
                -1.1973885072980806,
                -0.40695608838744574,
                -1.4745261063492612,
                0.33417977457520054,
                1.1490430156894522,
                0.6172957115561603
            ]
        },
        {
            "positions": [
                -1.213092771464659,
                -0.4729964456506142,
                -1.3855026260607095,
                0.3158956044183167,
                1.0647308528128452,
                0.5169754764483311
            ]
        },
        {
            "positions": [
                -1.2287970356312377,
                -0.5390368029137826,
                -1.296479145772158,
                0.2976114342614329,
                0.9804186899362383,
                0.41665524134050214
            ]
        },
        {
            "positions": [
                -1.2445012997978162,
                -0.6050771601769511,
                -1.2074556654836064,
                0.2793272641045491,
                0.8961065270596311,
                0.3163350062326731
            ]
        },
        {
            "positions": [
                -1.260205563964395,
                -0.6711175174401196,
                -1.1184321851950547,
                0.2610430939476653,
                0.8117943641830241,
                0.2160147711248439
            ]
        },
        {
            "positions": [
                -1.2759098281309735,
                -0.7371578747032881,
                -1.029408704906503,
                0.24275892379078148,
                0.7274822013064169,
                0.11569453601701496
            ]
        },
        {
            "positions": [
                -1.291614092297552,
                -0.8031982319664566,
                -0.9403852246179515,
                0.22447475363389766,
                0.6431700384298099,
                0.01537430090918579
            ]
        },
        {
            "positions": [
                -1.3073183564641309,
                -0.869238589229625,
                -0.8513617443293999,
                0.20619058347701386,
                0.5588578755532028,
                -0.08494593419864338
            ]
        },
        {
            "positions": [
                -1.3230226206307094,
                -0.9352789464927933,
                -0.7623382640408485,
                0.18790641332013008,
                0.47454571267659595,
                -0.1852661693064721
            ]
        },
        {
            "positions": [
                -1.338726884797288,
                -1.0013193037559618,
                -0.6733147837522968,
                0.16962224316324626,
                0.3902335497999889,
                -0.2855864044143013
            ]
        },
        {
            "positions": [
                -1.3544311489638665,
                -1.0673596610191303,
                -0.5842913034637451,
                0.15133807300636243,
                0.30592138692338167,
                -0.38590663952213045
            ]
        },
        {
            "positions": [
                -1.3701354131304453,
                -1.1334000182822987,
                -0.4952678231751937,
                0.13305390284947866,
                0.22160922404677463,
                -0.4862268746299594
            ]
        },
        {
            "positions": [
                -1.3858396772970238,
                -1.1994403755454672,
                -0.40624434288664213,
                0.11476973269259481,
                0.13729706117016766,
                -0.5865471097377885
            ]
        },
        {
            "positions": [
                -1.306429435889955,
                -1.1960570639086336,
                -0.2813940201951224,
                0.06857347758785637,
                0.13665671356633055,
                -0.724357191836826
            ]
        },
        {
            "positions": [
                -1.2270191944828863,
                -1.1926737522718003,
                -0.15654369750360264,
                0.02237722248311791,
                0.13601636596249342,
                -0.8621672739358637
            ]
        },
        {
            "positions": [
                -1.1476089530758176,
                -1.1892904406349667,
                -0.0316933748120829,
                -0.023819032621620537,
                0.1353760183586563,
                -0.9999773560349012
            ]
        },
        {
            "positions": [
                -1.0681987116687488,
                -1.185907128998133,
                0.09315694787943685,
                -0.070015287726359,
                0.1347356707548192,
                -1.1377874381339388
            ]
        },
        {
            "positions": [
                -0.98878847026168,
                -1.1825238173612995,
                0.2180072705709566,
                -0.11621154283109743,
                0.1340953231509821,
                -1.2755975202329763
            ]
        },
        {
            "positions": [
                -0.9093782288546113,
                -1.1791405057244662,
                0.34285759326247633,
                -0.16240779793583587,
                0.13345497554714497,
                -1.413407602332014
            ]
        },
        {
            "positions": [
                -0.8299679874475425,
                -1.1757571940876326,
                0.4677079159539961,
                -0.20860405304057433,
                0.13281462794330787,
                -1.5512176844310517
            ]
        },
        {
            "positions": [
                -0.7505577460404737,
                -1.172373882450799,
                0.5925582386455158,
                -0.2548003081453128,
                0.13217428033947076,
                -1.689027766530089
            ]
        },
        {
            "positions": [
                -0.6711475046334049,
                -1.1689905708139654,
                0.7174085613370355,
                -0.30099656325005125,
                0.13153393273563366,
                -1.8268378486291268
            ]
        },
        {
            "positions": [
                -0.5917372632263361,
                -1.165607259177132,
                0.8422588840285553,
                -0.34719281835478966,
                0.13089358513179652,
                -1.9646479307281641
            ]
        },
        {
            "positions": [
                -0.5123270218192674,
                -1.1622239475402985,
                0.9671092067200752,
                -0.3933890734595282,
                0.13025323752795942,
                -2.102458012827202
            ]
        },
        {
            "positions": [
                -0.4329167804121986,
                -1.1588406359034649,
                1.0919595294115947,
                -0.4395853285642666,
                0.12961288992412232,
                -2.2402680949262392
            ]
        },
        {
            "positions": [
                -0.35350653900512974,
                -1.1554573242666313,
                1.2168098521031148,
                -0.48578158366900503,
                0.1289725423202852,
                -2.378078177025277
            ]
        },
        {
            "positions": [
                -0.2740962975980612,
                -1.152074012629798,
                1.3416601747946344,
                -0.5319778387737435,
                0.12833219471644808,
                -2.515888259124315
            ]
        },
        {
            "positions": [
                -0.19468605619099222,
                -1.1486907009929643,
                1.466510497486154,
                -0.578174093878482,
                0.12769184711261097,
                -2.6536983412233526
            ]
        },
        {
            "positions": [
                -0.11527581478392346,
                -1.1453073893561307,
                1.5913608201776737,
                -0.6243703489832204,
                0.12705149950877387,
                -2.79150842332239
            ]
        },
        {
            "positions": [
                -0.0358655733768547,
                -1.1419240777192972,
                1.7162111428691937,
                -0.6705666040879589,
                0.12641115190493674,
                -2.9293185054214277
            ]
        },
        {
            "positions": [
                0.04354466803021406,
                -1.1385407660824638,
                1.841061465560713,
                -0.7167628591926973,
                0.12577080430109963,
                -3.067128587520465
            ]
        },
        {
            "positions": [
                0.1229549094372829,
                -1.1351574544456302,
                1.9659117882522332,
                -0.7629591142974358,
                0.12513045669726253,
                -3.204938669619503
            ]
        }
    ]
}