{
    "goal": {
        "global_pose": {
            "orientation": {
                "w": 0.7047431468963623,
                "x": -0.7094548344612122,
                "y": 0.0024358443915843964,
                "z": -0.0022348060738295317
            },
            "position": {
                "x": 0.6094750761985779,
                "y": 0.3671506643295288,
                "z": 0.19426114857196808
            }
        },
        "name": "move_to_magneteinheit_A"
    },
    "id": "PRM_move_to_magneteinheit_A_130",
    "joint_names": [
        "shoulder_pan_joint",
        "shoulder_lift_joint",
        "elbow_joint",
        "wrist_1_joint",
        "wrist_2_joint",
        "wrist_3_joint"
    ],
    "metrics": {
        "cart_traj_len": 2.062901615904053,
        "distance_elbow_joint": 3.875205415238802,
        "distance_shoulder_lift_joint": 1.0532424323776144,
        "distance_shoulder_pan_joint": 1.2403018257866725,
        "distance_wrist_1_joint": 1.1301521844414903,
        "distance_wrist_2_joint": 1.439534864487623,
        "distance_wrist_3_joint": 1.9002365644780483,
        "smoothness": 7.295751299819614e-16,
        "time": 0.041812756,
        "traj_len": 3.2616979147079594,
        "weighted_distance": 4.124176701439387
    },
    "planner": "PRM",
    "start": {
        "state": {
            "elbow_joint": -1.919643507792019,
            "shoulder_lift_joint": -0.07675430207160344,
            "shoulder_pan_joint": -1.1188671864651873,
            "wrist_1_joint": 0.42560062535961957,
            "wrist_2_joint": 1.5706038300724876,
            "wrist_3_joint": 1.1188968870953055
        }
    },
    "waypoints": [
        {
            "positions": [
                -1.1188671864651873,
                -0.07675430207160344,
                -1.919643507792019,
                0.42560062535961957,
                1.5706038300724876,
                1.1188968870953055
            ]
        },
        {
            "positions": [
                -1.0729300818064218,
                -0.11576328104855213,
                -1.776117381301693,
                0.38374313704697177,
                1.5172877239803535,
                1.189276019113011
            ]
        },
        {
            "positions": [
                -1.026992977147656,
                -0.15477226002550082,
                -1.6325912548113672,
                0.34188564873432403,
                1.4639716178882192,
                1.2596551511307166
            ]
        },
        {
            "positions": [
                -0.9810558724888905,
                -0.19378123900244948,
                -1.4890651283210412,
                0.30002816042167624,
                1.410655511796085,
                1.330034283148422
            ]
        },
        {
            "positions": [
                -0.9351187678301247,
                -0.23279021797939817,
                -1.3455390018307152,
                0.25817067210902844,
                1.357339405703951,
                1.4004134151661276
            ]
        },
        {
            "positions": [
                -0.8891816631713592,
                -0.2717991969563468,
                -1.2020128753403891,
                0.21631318379638068,
                1.3040232996118166,
                1.470792547183833
            ]
        },
        {
            "positions": [
                -0.8432445585125935,
                -0.3108081759332955,
                -1.058486748850063,
                0.1744556954837329,
                1.2507071935196825,
                1.5411716792015384
            ]
        },
        {
            "positions": [
                -0.7973074538538278,
                -0.3498171549102442,
                -0.9149606223597373,
                0.13259820717108511,
                1.1973910874275484,
                1.611550811219244
            ]
        },
        {
            "positions": [
                -0.7513703491950622,
                -0.3888261338871929,
                -0.7714344958694113,
                0.09074071885843732,
                1.144074981335414,
                1.6819299432369494
            ]
        },
        {
            "positions": [
                -0.7054332445362965,
                -0.42783511286414155,
                -0.6279083693790852,
                0.048883230545789524,
                1.09075887524328,
                1.7523090752546548
            ]
        },
        {
            "positions": [
                -0.659496139877531,
                -0.4668440918410902,
                -0.4843822428887592,
                0.007025742233141785,
                1.0374427691511459,
                1.8226882072723605
            ]
        },
        {
            "positions": [
                -0.6135590352187652,
                -0.5058530708180389,
                -0.34085611639843316,
                -0.03483174607950601,
                0.9841266630590116,
                1.893067339290066
            ]
        },
        {
            "positions": [
                -0.5676219305599997,
                -0.5448620497949876,
                -0.19732998990810735,
                -0.07668923439215375,
                0.9308105569668774,
                1.9634464713077713
            ]
        },
        {
            "positions": [
                -0.521684825901234,
                -0.5838710287719362,
                -0.05380386341778132,
                -0.11854672270480154,
                0.8774944508747433,
                2.033825603325477
            ]
        },
        {
            "positions": [
                -0.47574772124246834,
                -0.622880007748885,
                0.0897222630725445,
                -0.16040421101744934,
                0.8241783447826091,
                2.1042047353431825
            ]
        },
        {
            "positions": [
                -0.42981061658370256,
                -0.6618889867258337,
                0.23324838956287075,
                -0.20226169933009724,
                0.7708622386904749,
                2.174583867360888
            ]
        },
        {
            "positions": [
                -0.383873511924937,
                -0.7008979657027823,
                0.37677451605319656,
                -0.24411918764274493,
                0.7175461325983408,
                2.2449629993785933
            ]
        },
        {
            "positions": [
                -0.33793640726617136,
                -0.7399069446797311,
                0.5203006425435228,
                -0.2859766759553927,
                0.6642300265062064,
                2.315342131396299
            ]
        },
        {
            "positions": [
                -0.2919993026074057,
                -0.7789159236566796,
                0.6638267690338486,
                -0.3278341642680405,
                0.6109139204140723,
                2.3857212634140046
            ]
        },
        {
            "positions": [
                -0.24606219794864004,
                -0.8179249026336284,
                0.8073528955241749,
                -0.3696916525806883,
                0.5575978143219382,
                2.4561003954317098
            ]
        },
        {
            "positions": [
                -0.2001250932898745,
                -0.8569338816105769,
                0.9508790220145007,
                -0.411549140893336,
                0.5042817082298041,
                2.5264795274494154
            ]
        },
        {
            "positions": [
                -0.15418798863110872,
                -0.8959428605875257,
                1.094405148504827,
                -0.4534066292059839,
                0.4509656021376698,
                2.596858659467121
            ]
        },
        {
            "positions": [
                -0.10825088397234306,
                -0.9349518395644745,
                1.2379312749951528,
                -0.4952641175186316,
                0.3976494960455357,
                2.667237791484826
            ]
        },
        {
            "positions": [
                -0.06231377931357751,
                -0.973960818541423,
                1.3814574014854786,
                -0.5371216058312795,
                0.34433338995340135,
                2.737616923502532
            ]
        },
        {
            "positions": [
                -0.016376674654811962,
                -1.0129697975183718,
                1.5249835279758044,
                -0.578979094143927,
                0.29101728386126724,
                2.8079960555202375
            ]
        },
        {
            "positions": [
                0.029560430003953808,
                -1.0519787764953206,
                1.6685096544661306,
                -0.6208365824565749,
                0.23770117776913313,
                2.8783751875379426
            ]
        },
        {
            "positions": [
                0.07549753466271936,
                -1.0909877554722691,
                1.8120357809564565,
                -0.6626940707692226,
                0.18438507167699902,
                2.9487543195556483
            ]
        },
        {
            "positions": [
                0.12143463932148521,
                -1.1299967344492179,
                1.9555619074467825,
                -0.7045515590818706,
                0.13106896558486467,
                3.019133451573354
            ]
        }
    ]
}