{
    "goal": {
        "global_pose": {
            "orientation": {
                "w": -0.00223480608172531,
                "x": 0.0024358444001904467,
                "y": 0.7094548369677653,
                "z": -0.704743149386269
            },
            "position": {
                "x": 0.6205249238014221,
                "y": -0.6371506643295288,
                "z": 0.19426114857196808
            }
        },
        "name": "move_to_magneteinheit_B"
    },
    "id": "PRM_move_to_magneteinheit_B_112",
    "joint_names": [
        "shoulder_pan_joint",
        "shoulder_lift_joint",
        "elbow_joint",
        "wrist_1_joint",
        "wrist_2_joint",
        "wrist_3_joint"
    ],
    "metrics": {
        "cart_traj_len": 1.4518443282193694,
        "distance_elbow_joint": 0.7291946706183097,
        "distance_shoulder_lift_joint": 1.247917793662325,
        "distance_shoulder_pan_joint": 1.6217770742507887,
        "distance_wrist_1_joint": 2.601950573925827,
        "distance_wrist_2_joint": 2.93514328428037,
        "distance_wrist_3_joint": 3.1259368644556087,
        "smoothness": 2.4980018173577986e-16,
        "time": 0.034087545000000004,
        "traj_len": 3.501702480393391,
        "weighted_distance": 4.9041704546549605
    },
    "planner": "PRM",
    "start": {
        "state": {
            "elbow_joint": 2.39358713078474,
            "shoulder_lift_joint": -1.908514104345545,
            "shoulder_pan_joint": 0.7066247066606129,
            "wrist_1_joint": -0.4678290933515497,
            "wrist_2_joint": 0.7096259083745334,
            "wrist_3_joint": -3.1358149277392293
        }
    },
    "waypoints": [
        {
            "positions": [
                0.7066247066606129,
                -1.908514104345545,
                2.39358713078474,
                -0.4678290933515497,
                0.7096259083745334,
                -3.1358149277392293
            ]
        },
        {
            "positions": [
                0.654309317168652,
                -1.8682586916467603,
                2.370064722055117,
                -0.3838952038700714,
                0.6149438669461345,
                -3.034978254692274
            ]
        },
        {
            "positions": [
                0.6019939276766911,
                -1.8280032789479757,
                2.3465423133254943,
                -0.29996131438859314,
                0.5202618255177354,
                -2.934141581645319
            ]
        },
        {
            "positions": [
                0.5496785381847302,
                -1.7877478662491908,
                2.3230199045958715,
                -0.21602742490711485,
                0.42557978408933633,
                -2.833304908598364
            ]
        },
        {
            "positions": [
                0.49736314869276926,
                -1.7474924535504062,
                2.2994974958662486,
                -0.13209353542563657,
                0.3308977426609373,
                -2.732468235551409
            ]
        },
        {
            "positions": [
                0.44504775920080836,
                -1.7072370408516215,
                2.2759750871366258,
                -0.04815964594415828,
                0.23621570123253827,
                -2.6316315625044537
            ]
        },
        {
            "positions": [
                0.3927323697088474,
                -1.666981628152837,
                2.2524526784070025,
                0.035774243537320005,
                0.14153365980413923,
                -2.5307948894574985
            ]
        },
        {
            "positions": [
                0.3404169802168865,
                -1.6267262154540523,
                2.2289302696773796,
                0.11970813301879829,
                0.046851618375740256,
                -2.4299582164105438
            ]
        },
        {
            "positions": [
                0.2881015907249256,
                -1.5864708027552674,
                2.2054078609477568,
                0.20364202250027658,
                -0.04783042305265883,
                -2.3291215433635886
            ]
        },
        {
            "positions": [
                0.23578620123296462,
                -1.5462153900564828,
                2.181885452218134,
                0.28757591198175486,
                -0.14251246448105792,
                -2.2282848703166334
            ]
        },
        {
            "positions": [
                0.18347081174100377,
                -1.5059599773576982,
                2.158363043488511,
                0.37150980146323315,
                -0.2371945059094569,
                -2.127448197269678
            ]
        },
        {
            "positions": [
                0.13115542224904275,
                -1.4657045646589135,
                2.134840634758888,
                0.45544369094471143,
                -0.3318765473378559,
                -2.026611524222723
            ]
        },
        {
            "positions": [
                0.07884003275708185,
                -1.425449151960129,
                2.1113182260292653,
                0.5393775804261898,
                -0.42655858876625496,
                -1.925774851175768
            ]
        },
        {
            "positions": [
                0.02652464326512094,
                -1.3851937392613443,
                2.0877958172996425,
                0.6233114699076681,
                -0.521240630194654,
                -1.8249381781288128
            ]
        },
        {
            "positions": [
                -0.025790746226839967,
                -1.3449383265625596,
                2.0642734085700196,
                0.7072453593891463,
                -0.6159226716230529,
                -1.7241015050818578
            ]
        },
        {
            "positions": [
                -0.07810613571880098,
                -1.3046829138637748,
                2.0407509998403968,
                0.7911792488706246,
                -0.710604713051452,
                -1.6232648320349026
            ]
        },
        {
            "positions": [
                -0.13042152521076178,
                -1.2644275011649901,
                2.017228591110774,
                0.8751131383521029,
                -0.8052867544798511,
                -1.5224281589879474
            ]
        },
        {
            "positions": [
                -0.18273691470272269,
                -1.2241720884662055,
                1.993706182381151,
                0.959047027833581,
                -0.89996879590825,
                -1.4215914859409924
            ]
        },
        {
            "positions": [
                -0.2350523041946837,
                -1.1839166757674207,
                1.970183773651528,
                1.0429809173150595,
                -0.9946508373366493,
                -1.320754812894037
            ]
        },
        {
            "positions": [
                -0.2873676936866446,
                -1.143661263068636,
                1.9466613649219051,
                1.1269148067965378,
                -1.089332878765048,
                -1.219918139847082
            ]
        },
        {
            "positions": [
                -0.3396830831786054,
                -1.1034058503698514,
                1.9231389561922823,
                1.210848696278016,
                -1.1840149201934471,
                -1.119081466800127
            ]
        },
        {
            "positions": [
                -0.3919984726705664,
                -1.0631504376710668,
                1.8996165474626594,
                1.2947825857594941,
                -1.2786969616218462,
                -1.0182447937531718
            ]
        },
        {
            "positions": [
                -0.44431386216252744,
                -1.0228950249722821,
                1.8760941387330363,
                1.3787164752409726,
                -1.3733790030502453,
                -0.9174081207062166
            ]
        },
        {
            "positions": [
                -0.49662925165448824,
                -0.9826396122734974,
                1.8525717300034135,
                1.462650364722451,
                -1.4680610444786444,
                -0.8165714476592614
            ]
        },
        {
            "positions": [
                -0.5489446411464493,
                -0.9423841995747128,
                1.8290493212737906,
                1.5465842542039292,
                -1.5627430859070435,
                -0.7157347746123066
            ]
        },
        {
            "positions": [
                -0.60126003063841,
                -0.902128786875928,
                1.8055269125441678,
                1.6305181436854075,
                -1.6574251273354421,
                -0.6148981015653514
            ]
        },
        {
            "positions": [
                -0.6535754201303711,
                -0.8618733741771434,
                1.782004503814545,
                1.7144520331668858,
                -1.7521071687638416,
                -0.5140614285183962
            ]
        },
        {
            "positions": [
                -0.7058908096223321,
                -0.8216179614783587,
                1.758482095084922,
                1.798385922648364,
                -1.8467892101922407,
                -0.413224755471441
            ]
        },
        {
            "positions": [
                -0.7582061991142929,
                -0.7813625487795741,
                1.7349596863552992,
                1.8823198121298423,
                -1.9414712516206394,
                -0.31238808242448624
            ]
        },
        {
            "positions": [
                -0.8105215886062537,
                -0.7411071360807895,
                1.7114372776256763,
                1.9662537016113206,
                -2.0361532930490385,
                -0.21155140937753103
            ]
        },
        {
            "positions": [
                -0.8628369780982149,
                -0.7008517233820046,
                1.6879148688960532,
                2.050187591092799,
                -2.1308353344774376,
                -0.11071473633057582
            ]
        },
        {
            "positions": [
                -0.9151523675901757,
                -0.66059631068322,
                1.6643924601664304,
                2.134121480574277,
                -2.2255173759058366,
                -0.009878063283620798
            ]
        }
    ]
}