{
    "goal": {
        "global_pose": {
            "orientation": {
                "w": 0.5084816217422485,
                "x": -0.49083608388900757,
                "y": 0.5182115435600281,
                "z": -0.4816462993621826
            },
            "position": {
                "x": 0.5540239810943604,
                "y": 0.030875300988554955,
                "z": 0.16403168439865112
            }
        },
        "name": "move_to_storage_A"
    },
    "id": "PRM_move_to_storage_A_126",
    "joint_names": [
        "shoulder_pan_joint",
        "shoulder_lift_joint",
        "elbow_joint",
        "wrist_1_joint",
        "wrist_2_joint",
        "wrist_3_joint"
    ],
    "metrics": {
        "cart_traj_len": 0.35353134647685874,
        "distance_elbow_joint": 0.4548961950537631,
        "distance_shoulder_lift_joint": 0.2348866752748926,
        "distance_shoulder_pan_joint": 0.46316164205555693,
        "distance_wrist_1_joint": 0.2620209749242034,
        "distance_wrist_2_joint": 1.0967436790021998,
        "distance_wrist_3_joint": 0.09712051769393115,
        "smoothness": 4.440892098500626e-16,
        "time": 0.024524812,
        "traj_len": 1.615187197820905,
        "weighted_distance": 2.040057688723241
    },
    "planner": "PRM",
    "start": {
        "state": {
            "elbow_joint": 1.9715463870305268,
            "shoulder_lift_joint": -1.1394903361783484,
            "shoulder_pan_joint": 0.12281147578464417,
            "wrist_1_joint": -0.7804599489681411,
            "wrist_2_joint": 0.12958660307563738,
            "wrist_3_joint": -3.1924946282119055
        }
    },
    "waypoints": [
        {
            "positions": [
                0.12281147578464417,
                -1.1394903361783484,
                1.9715463870305268,
                -0.7804599489681411,
                0.12958660307563738,
                -3.1924946282119055
            ]
        },
        {
            "positions": [
                0.05664552691956462,
                -1.173045575503333,
                2.0365315577524927,
                -0.8178915168144558,
                0.28626427150452305,
                -3.178620268541344
            ]
        },
        {
            "positions": [
                -0.009520421945514931,
                -1.2066008148283176,
                2.101516728474459,
                -0.8553230846607707,
                0.4429419399334087,
                -3.1647459088707826
            ]
        },
        {
            "positions": [
                -0.0756863708105945,
                -1.2401560541533023,
                2.166501899196425,
                -0.8927546525070854,
                0.5996196083622944,
                -3.150871549200221
            ]
        },
        {
            "positions": [
                -0.14185231967567402,
                -1.273711293478287,
                2.2314870699183915,
                -0.9301862203534002,
                0.7562972767911801,
                -3.136997189529659
            ]
        },
        {
            "positions": [
                -0.20801826854075361,
                -1.3072665328032718,
                2.2964722406403575,
                -0.967617788199715,
                0.9129749452200658,
                -3.1231228298590974
            ]
        },
        {
            "positions": [
                -0.27418421740583315,
                -1.3408217721282563,
                2.3614574113623235,
                -1.0050493560460296,
                1.0696526136489515,
                -3.109248470188536
            ]
        },
        {
            "positions": [
                -0.34035016627091275,
                -1.374377011453241,
                2.42644258208429,
                -1.0424809238923445,
                1.2263302820778372,
                -3.0953741105179744
            ]
        }
    ]
}