{
    "goal": {
        "global_pose": {
            "orientation": {
                "w": 0.5084816217422485,
                "x": -0.49083608388900757,
                "y": 0.5182115435600281,
                "z": -0.4816462993621826
            },
            "position": {
                "x": 0.5540239810943604,
                "y": 0.030875300988554955,
                "z": 0.16403168439865112
            }
        },
        "name": "move_to_storage_A"
    },
    "id": "PRM_move_to_storage_A_52",
    "joint_names": [
        "shoulder_pan_joint",
        "shoulder_lift_joint",
        "elbow_joint",
        "wrist_1_joint",
        "wrist_2_joint",
        "wrist_3_joint"
    ],
    "metrics": {
        "cart_traj_len": 0.3528220665609453,
        "distance_elbow_joint": 0.4492319595841656,
        "distance_shoulder_lift_joint": 0.23650148441889463,
        "distance_shoulder_pan_joint": 0.46038322179211527,
        "distance_wrist_1_joint": 0.2349504259341072,
        "distance_wrist_2_joint": 1.1036937664569084,
        "distance_wrist_3_joint": 0.08828460884042144,
        "smoothness": 2.2204460668324854e-16,
        "time": 0.024147226,
        "traj_len": 1.6040715280269182,
        "weighted_distance": 2.02194433086039
    },
    "planner": "PRM",
    "start": {
        "state": {
            "elbow_joint": 1.9715463870305268,
            "shoulder_lift_joint": -1.1394903361783484,
            "shoulder_pan_joint": 0.12281147578464417,
            "wrist_1_joint": -0.7804599489681411,
            "wrist_2_joint": 0.12958660307563738,
            "wrist_3_joint": -3.1924946282119055
        }
    },
    "waypoints": [
        {
            "positions": [
                0.12281147578464417,
                -1.1394903361783484,
                1.9715463870305268,
                -0.7804599489681411,
                0.12958660307563738,
                -3.1924946282119055
            ]
        },
        {
            "positions": [
                0.05704244410005628,
                -1.1732762625239048,
                2.035722381256836,
                -0.8140242955301564,
                0.28725714114091,
                -3.1798825412347025
            ]
        },
        {
            "positions": [
                -0.008726587584531612,
                -1.207062188869461,
                2.0998983754831455,
                -0.8475886420921717,
                0.4449276792061826,
                -3.1672704542574994
            ]
        },
        {
            "positions": [
                -0.0744956192691195,
                -1.2408481152150175,
                2.164074369709455,
                -0.881152988654187,
                0.6025982172714552,
                -3.1546583672802964
            ]
        },
        {
            "positions": [
                -0.14026465095370738,
                -1.274634041560574,
                2.2282503639357643,
                -0.9147173352162024,
                0.7602687553367279,
                -3.1420462803030933
            ]
        },
        {
            "positions": [
                -0.2060336826382953,
                -1.3084199679061304,
                2.2924263581620736,
                -0.9482816817782176,
                0.9179392934020005,
                -3.1294341933258902
            ]
        },
        {
            "positions": [
                -0.27180271432288317,
                -1.3422058942516866,
                2.356602352388383,
                -0.9818460283402329,
                1.075609831467273,
                -3.116822106348687
            ]
        },
        {
            "positions": [
                -0.3375717460074711,
                -1.375991820597243,
                2.4207783466146924,
                -1.0154103749022483,
                1.2332803695325458,
                -3.104210019371484
            ]
        }
    ]
}