{
    "goal": {
        "global_pose": {
            "orientation": {
                "w": -0.00223480608172531,
                "x": 0.0024358444001904467,
                "y": 0.7094548369677653,
                "z": -0.704743149386269
            },
            "position": {
                "x": 0.6205249238014221,
                "y": -0.6371506643295288,
                "z": 0.19426114857196808
            }
        },
        "name": "move_to_magneteinheit_B"
    },
    "id": "PRM_move_to_magneteinheit_B_137",
    "joint_names": [
        "shoulder_pan_joint",
        "shoulder_lift_joint",
        "elbow_joint",
        "wrist_1_joint",
        "wrist_2_joint",
        "wrist_3_joint"
    ],
    "metrics": {
        "cart_traj_len": 1.4539938070187952,
        "distance_elbow_joint": 0.7308395815714834,
        "distance_shoulder_lift_joint": 1.2479966979362191,
        "distance_shoulder_pan_joint": 1.6188848579994837,
        "distance_wrist_1_joint": 2.616410082992289,
        "distance_wrist_2_joint": 2.9538896131087737,
        "distance_wrist_3_joint": 3.135563339253638,
        "smoothness": 7.536059347974504e-16,
        "time": 0.036205493000000005,
        "traj_len": 3.5076465290650205,
        "weighted_distance": 4.913757273967674
    },
    "planner": "PRM",
    "start": {
        "state": {
            "elbow_joint": 2.39358713078474,
            "shoulder_lift_joint": -1.908514104345545,
            "shoulder_pan_joint": 0.7066247066606129,
            "wrist_1_joint": -0.4678290933515497,
            "wrist_2_joint": 0.7096259083745334,
            "wrist_3_joint": -3.1358149277392293
        }
    },
    "waypoints": [
        {
            "positions": [
                0.7066247066606129,
                -1.908514104345545,
                2.39358713078474,
                -0.4678290933515497,
                0.7096259083745334,
                -3.1358149277392293
            ]
        },
        {
            "positions": [
                0.6560345548481291,
                -1.8695142075350382,
                2.370748393860631,
                -0.3860662782580407,
                0.6173168579648842,
                -3.037828573387553
            ]
        },
        {
            "positions": [
                0.6054444030356452,
                -1.8305143107245312,
                2.3479096569365225,
                -0.3043034631645316,
                0.5250078075552351,
                -2.939842219035877
            ]
        },
        {
            "positions": [
                0.5548542512231613,
                -1.7915144139140244,
                2.3250709200124136,
                -0.22254064807102258,
                0.4326987571455859,
                -2.841855864684201
            ]
        },
        {
            "positions": [
                0.5042640994106775,
                -1.7525145171035175,
                2.3022321830883046,
                -0.14077783297751356,
                0.3403897067359367,
                -2.743869510332525
            ]
        },
        {
            "positions": [
                0.4536739475981936,
                -1.7135146202930107,
                2.2793934461641956,
                -0.05901501788400454,
                0.2480806563262875,
                -2.6458831559808482
            ]
        },
        {
            "positions": [
                0.40308379578570974,
                -1.6745147234825037,
                2.256554709240087,
                0.02274779720950454,
                0.1557716059166384,
                -2.547896801629172
            ]
        },
        {
            "positions": [
                0.3524936439732259,
                -1.635514826671997,
                2.233715972315978,
                0.10451061230301356,
                0.0634625555069892,
                -2.449910447277496
            ]
        },
        {
            "positions": [
                0.301903492160742,
                -1.59651492986149,
                2.210877235391869,
                0.18627342739652258,
                -0.028846494902660003,
                -2.35192409292582
            ]
        },
        {
            "positions": [
                0.25131334034825814,
                -1.5575150330509833,
                2.18803849846776,
                0.2680362424900316,
                -0.12115554531230921,
                -2.2539377385741437
            ]
        },
        {
            "positions": [
                0.2007231885357743,
                -1.5185151362404765,
                2.1651997615436516,
                0.34979905758354063,
                -0.21346459572195842,
                -2.1559513842224676
            ]
        },
        {
            "positions": [
                0.15013303672329048,
                -1.4795152394299695,
                2.1423610246195426,
                0.43156187267704965,
                -0.3057736461316075,
                -2.0579650298707914
            ]
        },
        {
            "positions": [
                0.09954288491080654,
                -1.4405153426194628,
                2.1195222876954336,
                0.5133246877705588,
                -0.3980826965412566,
                -1.959978675519115
            ]
        },
        {
            "positions": [
                0.04895273309832271,
                -1.4015154458089558,
                2.096683550771325,
                0.5950875028640679,
                -0.4903917469509059,
                -1.861992321167439
            ]
        },
        {
            "positions": [
                -0.0016374187141611207,
                -1.362515548998449,
                2.073844813847216,
                0.6768503179575769,
                -0.582700797360555,
                -1.7640059668157626
            ]
        },
        {
            "positions": [
                -0.05222757052664506,
                -1.3235156521879423,
                2.051006076923107,
                0.7586131330510859,
                -0.6750098477702043,
                -1.6660196124640865
            ]
        },
        {
            "positions": [
                -0.10281772233912889,
                -1.2845157553774353,
                2.0281673399989986,
                0.8403759481445949,
                -0.7673188981798534,
                -1.5680332581124103
            ]
        },
        {
            "positions": [
                -0.15340787415161272,
                -1.2455158585669284,
                2.0053286030748896,
                0.922138763238104,
                -0.8596279485895025,
                -1.4700469037607342
            ]
        },
        {
            "positions": [
                -0.20399802596409666,
                -1.2065159617564216,
                1.9824898661507806,
                1.003901578331613,
                -0.9519369989991519,
                -1.372060549409058
            ]
        },
        {
            "positions": [
                -0.2545881777765805,
                -1.1675160649459149,
                1.9596511292266718,
                1.085664393425122,
                -1.0442460494088008,
                -1.2740741950573817
            ]
        },
        {
            "positions": [
                -0.3051783295890643,
                -1.128516168135408,
                1.9368123923025629,
                1.167427208518631,
                -1.1365550998184504,
                -1.1760878407057056
            ]
        },
        {
            "positions": [
                -0.35576848140154815,
                -1.0895162713249011,
                1.913973655378454,
                1.24919002361214,
                -1.2288641502280995,
                -1.0781014863540292
            ]
        },
        {
            "positions": [
                -0.406358633214032,
                -1.0505163745143942,
                1.8911349184543451,
                1.330952838705649,
                -1.3211732006377486,
                -0.9801151320023531
            ]
        },
        {
            "positions": [
                -0.45694878502651604,
                -1.0115164777038874,
                1.8682961815302364,
                1.412715653799158,
                -1.4134822510473977,
                -0.882128777650677
            ]
        },
        {
            "positions": [
                -0.5075389368389999,
                -0.9725165808933806,
                1.8454574446061276,
                1.4944784688926673,
                -1.5057913014570468,
                -0.7841424232990009
            ]
        },
        {
            "positions": [
                -0.5581290886514837,
                -0.9335166840828737,
                1.8226187076820186,
                1.5762412839861764,
                -1.5981003518666963,
                -0.6861560689473247
            ]
        },
        {
            "positions": [
                -0.6087192404639675,
                -0.8945167872723669,
                1.7997799707579096,
                1.6580040990796854,
                -1.6904094022763454,
                -0.5881697145956486
            ]
        },
        {
            "positions": [
                -0.6593093922764514,
                -0.85551689046186,
                1.7769412338338009,
                1.7397669141731944,
                -1.7827184526859945,
                -0.49018336024397247
            ]
        },
        {
            "positions": [
                -0.7098995440889352,
                -0.8165169936513532,
                1.754102496909692,
                1.8215297292667034,
                -1.8750275030956436,
                -0.3921970058922959
            ]
        },
        {
            "positions": [
                -0.7604896959014192,
                -0.7775170968408462,
                1.7312637599855831,
                1.9032925443602124,
                -1.9673365535052927,
                -0.29421065154061976
            ]
        },
        {
            "positions": [
                -0.8110798477139031,
                -0.7385172000303395,
                1.7084250230614744,
                1.9850553594537215,
                -2.0596456039149422,
                -0.19622429718894363
            ]
        },
        {
            "positions": [
                -0.8616699995263869,
                -0.6995173032198325,
                1.6855862861373656,
                2.0668181745472305,
                -2.1519546543245913,
                -0.0982379428372675
            ]
        },
        {
            "positions": [
                -0.9122601513388707,
                -0.6605174064093259,
                1.6627475492132566,
                2.1485809896407395,
                -2.2442637047342404,
                -0.00025158848559141286
            ]
        }
    ]
}