{
    "goal": {
        "global_pose": {
            "orientation": {
                "w": -0.00223480608172531,
                "x": 0.0024358444001904467,
                "y": 0.7094548369677653,
                "z": -0.704743149386269
            },
            "position": {
                "x": 0.6205249238014221,
                "y": -0.6371506643295288,
                "z": 0.19426114857196808
            }
        },
        "name": "move_to_magneteinheit_B"
    },
    "id": "PRM_move_to_magneteinheit_B_57",
    "joint_names": [
        "shoulder_pan_joint",
        "shoulder_lift_joint",
        "elbow_joint",
        "wrist_1_joint",
        "wrist_2_joint",
        "wrist_3_joint"
    ],
    "metrics": {
        "cart_traj_len": 1.4529205323019112,
        "distance_elbow_joint": 0.7239179513691536,
        "distance_shoulder_lift_joint": 1.2444863263605446,
        "distance_shoulder_pan_joint": 1.620644346681229,
        "distance_wrist_1_joint": 2.622305326534928,
        "distance_wrist_2_joint": 2.940765603475424,
        "distance_wrist_3_joint": 3.1486303141036176,
        "smoothness": 2.69144977797877e-16,
        "time": 0.041573474,
        "traj_len": 3.507242487842108,
        "weighted_distance": 4.915392296322083
    },
    "planner": "PRM",
    "start": {
        "state": {
            "elbow_joint": 2.39358713078474,
            "shoulder_lift_joint": -1.908514104345545,
            "shoulder_pan_joint": 0.7066247066606129,
            "wrist_1_joint": -0.4678290933515497,
            "wrist_2_joint": 0.7096259083745334,
            "wrist_3_joint": -3.1358149277392293
        }
    },
    "waypoints": [
        {
            "positions": [
                0.7066247066606129,
                -1.908514104345545,
                2.39358713078474,
                -0.4678290933515497,
                0.7096259083745334,
                -3.1358149277392293
            ]
        },
        {
            "positions": [
                0.6559795708268246,
                -1.869623906646778,
                2.370964694804454,
                -0.3858820518973332,
                0.6177269832659265,
                -3.0374202304234914
            ]
        },
        {
            "positions": [
                0.6053344349930361,
                -1.830733708948011,
                2.348342258824168,
                -0.3039350104431167,
                0.5258280581573194,
                -2.939025533107753
            ]
        },
        {
            "positions": [
                0.5546892991592477,
                -1.791843511249244,
                2.325719822843882,
                -0.22198796898890022,
                0.4339291330487124,
                -2.840630835792015
            ]
        },
        {
            "positions": [
                0.5040441633254593,
                -1.752953313550477,
                2.303097386863596,
                -0.14004092753468372,
                0.3420302079401054,
                -2.7422361384762772
            ]
        },
        {
            "positions": [
                0.45339902749167094,
                -1.71406311585171,
                2.2804749508833098,
                -0.05809388608046723,
                0.25013128283149844,
                -2.6438414411605393
            ]
        },
        {
            "positions": [
                0.4027538916578825,
                -1.675172918152943,
                2.257852514903024,
                0.02385315537374927,
                0.15823235772289135,
                -2.545446743844801
            ]
        },
        {
            "positions": [
                0.35210875582409407,
                -1.6362827204541759,
                2.2352300789227377,
                0.10580019682796576,
                0.06633343261428437,
                -2.447052046529063
            ]
        },
        {
            "positions": [
                0.3014636199903057,
                -1.5973925227554089,
                2.2126076429424515,
                0.18774723828218226,
                -0.025565492494322606,
                -2.348657349213325
            ]
        },
        {
            "positions": [
                0.2508184841565173,
                -1.5585023250566419,
                2.1899852069621657,
                0.26969427973639876,
                -0.11746441760292958,
                -2.250262651897587
            ]
        },
        {
            "positions": [
                0.20017334832272893,
                -1.5196121273578749,
                2.1673627709818795,
                0.35164132119061525,
                -0.20936334271153656,
                -2.151867954581849
            ]
        },
        {
            "positions": [
                0.14952821248894044,
                -1.4807219296591076,
                2.1447403350015937,
                0.43358836264483175,
                -0.30126226782014365,
                -2.053473257266111
            ]
        },
        {
            "positions": [
                0.09888307665515206,
                -1.4418317319603406,
                2.1221178990213074,
                0.5155354040990483,
                -0.39316119292875074,
                -1.9550785599503726
            ]
        },
        {
            "positions": [
                0.04823794082136368,
                -1.4029415342615736,
                2.0994954630410216,
                0.5974824455532648,
                -0.4850601180373576,
                -1.8566838626346347
            ]
        },
        {
            "positions": [
                -0.002407195012424812,
                -1.3640513365628066,
                2.0768730270607354,
                0.6794294870074813,
                -0.5769590431459647,
                -1.7582891653188966
            ]
        },
        {
            "positions": [
                -0.05305233084621319,
                -1.3251611388640396,
                2.054250591080449,
                0.7613765284616978,
                -0.6688579682545716,
                -1.6598944680031587
            ]
        },
        {
            "positions": [
                -0.10369746668000157,
                -1.2862709411652726,
                2.0316281551001634,
                0.8433235699159143,
                -0.7607568933631786,
                -1.5614997706874205
            ]
        },
        {
            "positions": [
                -0.15434260251378995,
                -1.2473807434665056,
                2.009005719119877,
                0.9252706113701308,
                -0.8526558184717857,
                -1.4631050733716824
            ]
        },
        {
            "positions": [
                -0.20498773834757833,
                -1.2084905457677386,
                1.9863832831395911,
                1.0072176528243473,
                -0.9445547435803926,
                -1.3647103760559445
            ]
        },
        {
            "positions": [
                -0.2556328741813668,
                -1.1696003480689716,
                1.963760847159305,
                1.0891646942785638,
                -1.0364536686889996,
                -1.2663156787402063
            ]
        },
        {
            "positions": [
                -0.3062780100151551,
                -1.1307101503702046,
                1.941138411179019,
                1.1711117357327803,
                -1.1283525937976067,
                -1.1679209814244684
            ]
        },
        {
            "positions": [
                -0.3569231458489436,
                -1.0918199526714374,
                1.918515975198733,
                1.2530587771869968,
                -1.2202515189062138,
                -1.06952628410873
            ]
        },
        {
            "positions": [
                -0.40756828168273207,
                -1.0529297549726704,
                1.8958935392184468,
                1.3350058186412133,
                -1.3121504440148208,
                -0.9711315867929922
            ]
        },
        {
            "positions": [
                -0.45821341751652034,
                -1.0140395572739034,
                1.873271103238161,
                1.4169528600954298,
                -1.404049369123428,
                -0.8727368894772543
            ]
        },
        {
            "positions": [
                -0.5088585533503088,
                -0.9751493595751365,
                1.8506486672578748,
                1.4988999015496463,
                -1.495948294232035,
                -0.7743421921615159
            ]
        },
        {
            "positions": [
                -0.5595036891840973,
                -0.9362591618763695,
                1.8280262312775888,
                1.5808469430038627,
                -1.5878472193406417,
                -0.675947494845778
            ]
        },
        {
            "positions": [
                -0.6101488250178856,
                -0.8973689641776024,
                1.8054037952973028,
                1.6627939844580792,
                -1.6797461444492487,
                -0.5775527975300401
            ]
        },
        {
            "positions": [
                -0.6607939608516741,
                -0.8584787664788354,
                1.7827813593170168,
                1.7447410259122957,
                -1.7716450695578558,
                -0.47915810021430216
            ]
        },
        {
            "positions": [
                -0.7114390966854626,
                -0.8195885687800684,
                1.7601589233367307,
                1.8266880673665122,
                -1.863543994666463,
                -0.3807634028985638
            ]
        },
        {
            "positions": [
                -0.7620842325192508,
                -0.7806983710813014,
                1.7375364873564445,
                1.9086351088207287,
                -1.95544291977507,
                -0.2823687055828259
            ]
        },
        {
            "positions": [
                -0.8127293683530393,
                -0.7418081733825344,
                1.7149140513761587,
                1.9905821502749452,
                -2.0473418448836767,
                -0.18397400826708799
            ]
        },
        {
            "positions": [
                -0.8633745041868276,
                -0.7029179756837673,
                1.6922916153958725,
                2.0725291917291617,
                -2.1392407699922837,
                -0.08557931095134963
            ]
        },
        {
            "positions": [
                -0.9140196400206162,
                -0.6640277779850005,
                1.6696691794155865,
                2.154476233183378,
                -2.231139695100891,
                0.012815386364388271
            ]
        }
    ]
}