{
    "goal": {
        "global_pose": {
            "orientation": {
                "w": 0.7047431468963623,
                "x": -0.7094548344612122,
                "y": 0.0024358443915843964,
                "z": -0.0022348060738295317
            },
            "position": {
                "x": 0.6094750761985779,
                "y": 0.3671506643295288,
                "z": 0.19426114857196808
            }
        },
        "name": "move_to_magneteinheit_A"
    },
    "id": "PRM_move_to_magneteinheit_A_58",
    "joint_names": [
        "shoulder_pan_joint",
        "shoulder_lift_joint",
        "elbow_joint",
        "wrist_1_joint",
        "wrist_2_joint",
        "wrist_3_joint"
    ],
    "metrics": {
        "cart_traj_len": 1.8782391919549477,
        "distance_elbow_joint": 3.9131581745416,
        "distance_shoulder_lift_joint": 0.6995953602712413,
        "distance_shoulder_pan_joint": 1.2410209107551904,
        "distance_wrist_1_joint": 1.5026061733233105,
        "distance_wrist_2_joint": 1.6920406283229965,
        "distance_wrist_3_joint": 1.1125736356392166,
        "smoothness": 9.868649093137002e-17,
        "time": 0.044463656,
        "traj_len": 3.1876315475370665,
        "weighted_distance": 3.9472508098394634
    },
    "planner": "PRM",
    "start": {
        "state": {
            "elbow_joint": -1.919643507792019,
            "shoulder_lift_joint": -0.07675430207160344,
            "shoulder_pan_joint": -1.1188671864651873,
            "wrist_1_joint": 0.42560062535961957,
            "wrist_2_joint": 1.5706038300724876,
            "wrist_3_joint": 1.1188968870953055
        }
    },
    "waypoints": [
        {
            "positions": [
                -1.1188671864651873,
                -0.07675430207160344,
                -1.919643507792019,
                0.42560062535961957,
                1.5706038300724876,
                1.1188968870953055
            ]
        },
        {
            "positions": [
                -1.071135612974603,
                -0.10366181592818964,
                -1.7691374241558038,
                0.4833931704874392,
                1.505525344367757,
                1.0761055934168742
            ]
        },
        {
            "positions": [
                -1.023404039484019,
                -0.13056932978477584,
                -1.6186313405195882,
                0.5411857156152589,
                1.4404468586630264,
                1.0333142997384428
            ]
        },
        {
            "positions": [
                -0.9756724659934346,
                -0.15747684364136205,
                -1.468125256883373,
                0.5989782607430785,
                1.3753683729582957,
                0.9905230060600113
            ]
        },
        {
            "positions": [
                -0.9279408925028504,
                -0.18438435749794824,
                -1.3176191732471576,
                0.6567708058708981,
                1.310289887253565,
                0.9477317123815799
            ]
        },
        {
            "positions": [
                -0.8802093190122661,
                -0.21129187135453445,
                -1.1671130896109423,
                0.7145633509987177,
                1.2452114015488345,
                0.9049404187031485
            ]
        },
        {
            "positions": [
                -0.8324777455216819,
                -0.23819938521112066,
                -1.0166070059747268,
                0.7723558961265373,
                1.1801329158441038,
                0.8621491250247171
            ]
        },
        {
            "positions": [
                -0.7847461720310976,
                -0.26510689906770685,
                -0.8661009223385114,
                0.8301484412543569,
                1.1150544301393732,
                0.8193578313462857
            ]
        },
        {
            "positions": [
                -0.7370145985405134,
                -0.2920144129242931,
                -0.7155948387022959,
                0.8879409863821767,
                1.0499759444346424,
                0.7765665376678543
            ]
        },
        {
            "positions": [
                -0.6892830250499291,
                -0.3189219267808793,
                -0.5650887550660806,
                0.9457335315099962,
                0.9848974587299119,
                0.733775243989423
            ]
        },
        {
            "positions": [
                -0.6415514515593448,
                -0.34582944063746546,
                -0.41458267142986527,
                1.003526076637816,
                0.9198189730251812,
                0.6909839503109914
            ]
        },
        {
            "positions": [
                -0.5938198780687607,
                -0.37273695449405164,
                -0.26407658779364995,
                1.0613186217656356,
                0.8547404873204506,
                0.64819265663256
            ]
        },
        {
            "positions": [
                -0.5460883045781764,
                -0.3996444683506379,
                -0.11357050415743442,
                1.1191111668934552,
                0.78966200161572,
                0.6054013629541286
            ]
        },
        {
            "positions": [
                -0.49835673108759215,
                -0.42655198220722407,
                0.0369355794787809,
                1.1769037120212749,
                0.7245835159109894,
                0.5626100692756972
            ]
        },
        {
            "positions": [
                -0.45062515759700794,
                -0.45345949606381025,
                0.18744166311499622,
                1.2346962571490945,
                0.6595050302062587,
                0.5198187755972659
            ]
        },
        {
            "positions": [
                -0.40289358410642373,
                -0.48036700992039644,
                0.33794774675121153,
                1.292488802276914,
                0.5944265445015282,
                0.4770274819188345
            ]
        },
        {
            "positions": [
                -0.3551620106158394,
                -0.5072745237769827,
                0.4884538303874273,
                1.3502813474047337,
                0.5293480587967974,
                0.434236188240403
            ]
        },
        {
            "positions": [
                -0.3074304371252552,
                -0.5341820376335689,
                0.6389599140236426,
                1.4080738925325533,
                0.46426957309206673,
                0.3914448945619716
            ]
        },
        {
            "positions": [
                -0.259698863634671,
                -0.561089551490155,
                0.7894659976598579,
                1.465866437660373,
                0.3991910873873361,
                0.34865360088354025
            ]
        },
        {
            "positions": [
                -0.21196729014408677,
                -0.5879970653467412,
                0.9399720812960732,
                1.5236589827881926,
                0.3341126016826057,
                0.3058623072051089
            ]
        },
        {
            "positions": [
                -0.16423571665350234,
                -0.6149045792033274,
                1.0904781649322886,
                1.5814515279160124,
                0.26903411597787485,
                0.2630710135266773
            ]
        },
        {
            "positions": [
                -0.11650414316291813,
                -0.6418120930599136,
                1.2409842485685039,
                1.639244073043832,
                0.20395563027314423,
                0.2202797198482459
            ]
        },
        {
            "positions": [
                -0.06877256967233403,
                -0.6687196069164998,
                1.3914903322047192,
                1.6970366181716516,
                0.1388771445684136,
                0.17748842616981453
            ]
        },
        {
            "positions": [
                -0.021040996181749705,
                -0.695627120773086,
                1.5419964158409345,
                1.7548291632994713,
                0.07379865886368298,
                0.13469713249138315
            ]
        },
        {
            "positions": [
                0.026690577308834618,
                -0.7225346346296724,
                1.6925024994771503,
                1.8126217084272909,
                0.008720173158952349,
                0.09190583881295167
            ]
        },
        {
            "positions": [
                0.07442215079941872,
                -0.7494421484862586,
                1.8430085831133656,
                1.8704142535551105,
                -0.05635831254577828,
                0.04911454513452029
            ]
        },
        {
            "positions": [
                0.1221537242900031,
                -0.7763496623428447,
                1.9935146667495807,
                1.92820679868293,
                -0.12143679825050896,
                0.006323251456088969
            ]
        }
    ]
}