{
    "goal": {
        "global_pose": {
            "orientation": {
                "w": 0.5084816217422485,
                "x": -0.49083608388900757,
                "y": 0.5182115435600281,
                "z": -0.4816462993621826
            },
            "position": {
                "x": 0.5540239810943604,
                "y": 0.030875300988554955,
                "z": 0.16403168439865112
            }
        },
        "name": "move_to_storage_A"
    },
    "id": "PRM_move_to_storage_A_36",
    "joint_names": [
        "shoulder_pan_joint",
        "shoulder_lift_joint",
        "elbow_joint",
        "wrist_1_joint",
        "wrist_2_joint",
        "wrist_3_joint"
    ],
    "metrics": {
        "cart_traj_len": 0.3532343874197641,
        "distance_elbow_joint": 0.4497858821743934,
        "distance_shoulder_lift_joint": 0.2327935742168803,
        "distance_shoulder_pan_joint": 0.46228300337181877,
        "distance_wrist_1_joint": 0.24961418816939174,
        "distance_wrist_2_joint": 1.0961333988577369,
        "distance_wrist_3_joint": 0.10692491914950075,
        "smoothness": 4.440892098500626e-16,
        "time": 0.040603547000000004,
        "traj_len": 1.6116869937862384,
        "weighted_distance": 2.038904703821601
    },
    "planner": "PRM",
    "start": {
        "state": {
            "elbow_joint": 1.9715463870305268,
            "shoulder_lift_joint": -1.1394903361783484,
            "shoulder_pan_joint": 0.12281147578464417,
            "wrist_1_joint": -0.7804599489681411,
            "wrist_2_joint": 0.12958660307563738,
            "wrist_3_joint": -3.1924946282119055
        }
    },
    "waypoints": [
        {
            "positions": [
                0.12281147578464417,
                -1.1394903361783484,
                1.9715463870305268,
                -0.7804599489681411,
                0.12958660307563738,
                -3.1924946282119055
            ]
        },
        {
            "positions": [
                0.056771046731527205,
                -1.1727465610664742,
                2.03580151305544,
                -0.8161191187066256,
                0.2861770886267426,
                -3.1772196397619767
            ]
        },
        {
            "positions": [
                -0.009269382321589761,
                -1.2060027859545999,
                2.1000566390803534,
                -0.8517782884451102,
                0.44276757417784784,
                -3.1619446513120484
            ]
        },
        {
            "positions": [
                -0.07530981137470673,
                -1.2392590108427257,
                2.164311765105267,
                -0.8874374581835947,
                0.5993580597289532,
                -3.1466696628621196
            ]
        },
        {
            "positions": [
                -0.14135024042782368,
                -1.2725152357308513,
                2.22856689113018,
                -0.9230966279220792,
                0.7559485452800584,
                -3.1313946744121908
            ]
        },
        {
            "positions": [
                -0.20739066948094065,
                -1.3057714606189772,
                2.2928220171550935,
                -0.9587557976605637,
                0.9125390308311637,
                -3.116119685962262
            ]
        },
        {
            "positions": [
                -0.2734310985340576,
                -1.3390276855071028,
                2.357077143180007,
                -0.9944149673990483,
                1.069129516382269,
                -3.1008446975123336
            ]
        },
        {
            "positions": [
                -0.3394715275871746,
                -1.3722839103952287,
                2.42133226920492,
                -1.0300741371375328,
                1.2257200019333743,
                -3.085569709062405
            ]
        }
    ]
}