{
    "goal": {
        "global_pose": {
            "orientation": {
                "w": -0.00223480608172531,
                "x": 0.0024358444001904467,
                "y": 0.7094548369677653,
                "z": -0.704743149386269
            },
            "position": {
                "x": 0.6205249238014221,
                "y": -0.6371506643295288,
                "z": 0.19426114857196808
            }
        },
        "name": "move_to_magneteinheit_B"
    },
    "id": "PRM_move_to_magneteinheit_B_90",
    "joint_names": [
        "shoulder_pan_joint",
        "shoulder_lift_joint",
        "elbow_joint",
        "wrist_1_joint",
        "wrist_2_joint",
        "wrist_3_joint"
    ],
    "metrics": {
        "cart_traj_len": 1.45328690118359,
        "distance_elbow_joint": 0.7280717648458679,
        "distance_shoulder_lift_joint": 1.2476629921554663,
        "distance_shoulder_pan_joint": 1.6219481595792116,
        "distance_wrist_1_joint": 2.6099702807930116,
        "distance_wrist_2_joint": 2.9354397271709383,
        "distance_wrist_3_joint": 3.144082699585695,
        "smoothness": 5.921189481187243e-16,
        "time": 0.039526972,
        "traj_len": 3.505306780316124,
        "weighted_distance": 4.9112881234219525
    },
    "planner": "PRM",
    "start": {
        "state": {
            "elbow_joint": 2.39358713078474,
            "shoulder_lift_joint": -1.908514104345545,
            "shoulder_pan_joint": 0.7066247066606129,
            "wrist_1_joint": -0.4678290933515497,
            "wrist_2_joint": 0.7096259083745334,
            "wrist_3_joint": -3.1358149277392293
        }
    },
    "waypoints": [
        {
            "positions": [
                0.7066247066606129,
                -1.908514104345545,
                2.39358713078474,
                -0.4678290933515497,
                0.7096259083745334,
                -3.1358149277392293
            ]
        },
        {
            "positions": [
                0.6559388266737626,
                -1.8695246358406865,
                2.370834888133307,
                -0.38626752207676807,
                0.6178934169004416,
                -3.0375623433771763
            ]
        },
        {
            "positions": [
                0.6052529466869122,
                -1.8305351673358283,
                2.3480826454818735,
                -0.3047059508019865,
                0.5261609254263497,
                -2.9393097590151234
            ]
        },
        {
            "positions": [
                0.5545670667000618,
                -1.79154569883097,
                2.32533040283044,
                -0.22314437952720487,
                0.43442843395225794,
                -2.8410571746530704
            ]
        },
        {
            "positions": [
                0.5038811867132115,
                -1.7525562303261117,
                2.3025781601790065,
                -0.14158280825242325,
                0.34269594247816615,
                -2.7428045902910174
            ]
        },
        {
            "positions": [
                0.45319530672636116,
                -1.7135667618212533,
                2.2798259175275732,
                -0.06002123697764167,
                0.25096345100407436,
                -2.6445520059289644
            ]
        },
        {
            "positions": [
                0.4025094267395108,
                -1.674577293316395,
                2.25707367487614,
                0.021540334297139974,
                0.15923095952998245,
                -2.5462994215669115
            ]
        },
        {
            "positions": [
                0.3518235467526604,
                -1.6355878248115365,
                2.2343214322247062,
                0.10310190557192161,
                0.06749846805589066,
                -2.4480468372048585
            ]
        },
        {
            "positions": [
                0.30113766676581005,
                -1.5965983563066783,
                2.211569189573273,
                0.1846634768467032,
                -0.024234023418201134,
                -2.3497942528428055
            ]
        },
        {
            "positions": [
                0.2504517867789597,
                -1.5576088878018202,
                2.1888169469218397,
                0.2662250481214848,
                -0.11596651489229293,
                -2.2515416684807525
            ]
        },
        {
            "positions": [
                0.19976590679210937,
                -1.5186194192969618,
                2.1660647042704064,
                0.34778661939626637,
                -0.20769900636638472,
                -2.1532890841186996
            ]
        },
        {
            "positions": [
                0.149080026805259,
                -1.4796299507921034,
                2.143312461618973,
                0.42934819067104807,
                -0.2994314978404765,
                -2.0550364997566466
            ]
        },
        {
            "positions": [
                0.09839414681840863,
                -1.440640482287245,
                2.1205602189675394,
                0.5109097619458296,
                -0.3911639893145685,
                -1.9567839153945936
            ]
        },
        {
            "positions": [
                0.047708266831558266,
                -1.4016510137823868,
                2.097807976316106,
                0.5924713332206113,
                -0.4828964807886603,
                -1.8585313310325406
            ]
        },
        {
            "positions": [
                -0.0029776131552921026,
                -1.3626615452775284,
                2.075055733664673,
                0.674032904495393,
                -0.5746289722627521,
                -1.7602787466704877
            ]
        },
        {
            "positions": [
                -0.05366349314214247,
                -1.3236720767726702,
                2.0523034910132396,
                0.7555944757701745,
                -0.6663614637368439,
                -1.6620261623084347
            ]
        },
        {
            "positions": [
                -0.10434937312899284,
                -1.2846826082678118,
                2.0295512483618063,
                0.8371560470449562,
                -0.7580939552109357,
                -1.5637735779463817
            ]
        },
        {
            "positions": [
                -0.1550352531158432,
                -1.2456931397629534,
                2.0067990057103726,
                0.9187176183197379,
                -0.8498264466850275,
                -1.4655209935843287
            ]
        },
        {
            "positions": [
                -0.20572113310269358,
                -1.2067036712580952,
                1.9840467630589393,
                1.0002791895945193,
                -0.9415589381591193,
                -1.3672684092222758
            ]
        },
        {
            "positions": [
                -0.25640701308954394,
                -1.1677142027532368,
                1.961294520407506,
                1.081840760869301,
                -1.033291429633211,
                -1.2690158248602228
            ]
        },
        {
            "positions": [
                -0.3070928930763942,
                -1.1287247342483786,
                1.9385422777560726,
                1.1634023321440825,
                -1.125023921107303,
                -1.1707632404981698
            ]
        },
        {
            "positions": [
                -0.35777877306324457,
                -1.0897352657435202,
                1.9157900351046393,
                1.2449639034188642,
                -1.216756412581395,
                -1.0725106561361168
            ]
        },
        {
            "positions": [
                -0.40846465305009494,
                -1.0507457972386618,
                1.8930377924532058,
                1.326525474693646,
                -1.3084889040554866,
                -0.9742580717740639
            ]
        },
        {
            "positions": [
                -0.4591505330369453,
                -1.0117563287338034,
                1.8702855498017725,
                1.4080870459684274,
                -1.4002213955295786,
                -0.8760054874120109
            ]
        },
        {
            "positions": [
                -0.5098364130237957,
                -0.9727668602289452,
                1.8475333071503393,
                1.489648617243209,
                -1.4919538870036706,
                -0.7777529030499579
            ]
        },
        {
            "positions": [
                -0.560522293010646,
                -0.9337773917240869,
                1.8247810644989058,
                1.5712101885179908,
                -1.5836863784777622,
                -0.679500318687905
            ]
        },
        {
            "positions": [
                -0.6112081729974964,
                -0.8947879232192286,
                1.8020288218474723,
                1.6527717597927722,
                -1.6754188699518542,
                -0.581247734325852
            ]
        },
        {
            "positions": [
                -0.6618940529843468,
                -0.8557984547143702,
                1.779276579196039,
                1.7343333310675537,
                -1.7671513614259458,
                -0.482995149963799
            ]
        },
        {
            "positions": [
                -0.7125799329711971,
                -0.8168089862095118,
                1.7565243365446057,
                1.8158949023423356,
                -1.8588838529000378,
                -0.384742565601746
            ]
        },
        {
            "positions": [
                -0.7632658129580475,
                -0.7778195177046536,
                1.7337720938931724,
                1.8974564736171171,
                -1.9506163443741293,
                -0.28648998123969305
            ]
        },
        {
            "positions": [
                -0.8139516929448979,
                -0.7388300491997952,
                1.711019851241739,
                1.9790180448918986,
                -2.0423488358482214,
                -0.18823739687764007
            ]
        },
        {
            "positions": [
                -0.8646375729317483,
                -0.699840580694937,
                1.6882676085903054,
                2.0605796161666805,
                -2.134081327322313,
                -0.0899848125155871
            ]
        },
        {
            "positions": [
                -0.9153234529185986,
                -0.6608511121900787,
                1.6655153659388722,
                2.142141187441462,
                -2.225813818796405,
                0.00826777184646571
            ]
        }
    ]
}