{
    "goal": {
        "global_pose": {
            "orientation": {
                "w": 0.5084816217422485,
                "x": -0.49083608388900757,
                "y": 0.5182115435600281,
                "z": -0.4816462993621826
            },
            "position": {
                "x": 0.5540239810943604,
                "y": 0.030875300988554955,
                "z": 0.16403168439865112
            }
        },
        "name": "move_to_storage_A"
    },
    "id": "PRM_move_to_storage_A_121",
    "joint_names": [
        "shoulder_pan_joint",
        "shoulder_lift_joint",
        "elbow_joint",
        "wrist_1_joint",
        "wrist_2_joint",
        "wrist_3_joint"
    ],
    "metrics": {
        "cart_traj_len": 0.3530900874708744,
        "distance_elbow_joint": 0.451960394166965,
        "distance_shoulder_lift_joint": 0.2345568108415541,
        "distance_shoulder_pan_joint": 0.45888046017954953,
        "distance_wrist_1_joint": 0.24754877512374895,
        "distance_wrist_2_joint": 1.1116831131764398,
        "distance_wrist_3_joint": 0.10743991196910274,
        "smoothness": 8.881784232165597e-16,
        "time": 0.025974269,
        "traj_len": 1.6161897987109557,
        "weighted_distance": 2.046015928016142
    },
    "planner": "PRM",
    "start": {
        "state": {
            "elbow_joint": 1.9715463870305268,
            "shoulder_lift_joint": -1.1394903361783484,
            "shoulder_pan_joint": 0.12281147578464417,
            "wrist_1_joint": -0.7804599489681411,
            "wrist_2_joint": 0.12958660307563738,
            "wrist_3_joint": -3.1924946282119055
        }
    },
    "waypoints": [
        {
            "positions": [
                0.12281147578464417,
                -1.1394903361783484,
                1.9715463870305268,
                -0.7804599489681411,
                0.12958660307563738,
                -3.1924946282119055
            ]
        },
        {
            "positions": [
                0.05725712433042282,
                -1.172998452012856,
                2.0361121576258077,
                -0.8158240597001052,
                0.28839847638655736,
                -3.1771460693591766
            ]
        },
        {
            "positions": [
                -0.008297227123798531,
                -1.2065065678473639,
                2.100677928221088,
                -0.8511881704320694,
                0.4472103496974773,
                -3.1617975105064478
            ]
        },
        {
            "positions": [
                -0.0738515785780199,
                -1.2400146836818715,
                2.165243698816369,
                -0.8865522811640335,
                0.6060222230083973,
                -3.146448951653719
            ]
        },
        {
            "positions": [
                -0.13940593003224122,
                -1.2735227995163794,
                2.2298094694116495,
                -0.9219163918959976,
                0.7648340963193172,
                -3.1311003928009895
            ]
        },
        {
            "positions": [
                -0.20496028148646261,
                -1.307030915350887,
                2.2943752400069304,
                -0.9572805026279618,
                0.9236459696302373,
                -3.1157518339482606
            ]
        },
        {
            "positions": [
                -0.27051463294068395,
                -1.3405390311853949,
                2.358941010602211,
                -0.9926446133599258,
                1.082457842941157,
                -3.1004032750955317
            ]
        },
        {
            "positions": [
                -0.33606898439490535,
                -1.3740471470199025,
                2.4235067811974917,
                -1.02800872409189,
                1.2412697162520772,
                -3.085054716242803
            ]
        }
    ]
}