{
    "goal": {
        "global_pose": {
            "orientation": {
                "w": -0.00223480608172531,
                "x": 0.0024358444001904467,
                "y": 0.7094548369677653,
                "z": -0.704743149386269
            },
            "position": {
                "x": 0.6205249238014221,
                "y": -0.6371506643295288,
                "z": 0.19426114857196808
            }
        },
        "name": "move_to_magneteinheit_B"
    },
    "id": "PRM_move_to_magneteinheit_B_106",
    "joint_names": [
        "shoulder_pan_joint",
        "shoulder_lift_joint",
        "elbow_joint",
        "wrist_1_joint",
        "wrist_2_joint",
        "wrist_3_joint"
    ],
    "metrics": {
        "cart_traj_len": 1.454206626848506,
        "distance_elbow_joint": 0.7267944459905731,
        "distance_shoulder_lift_joint": 1.2440527498945686,
        "distance_shoulder_pan_joint": 1.620160792116937,
        "distance_wrist_1_joint": 2.6258977524221137,
        "distance_wrist_2_joint": 2.95399002352242,
        "distance_wrist_3_joint": 3.156249759571764,
        "smoothness": 5.382899540774514e-16,
        "time": 0.039012309999999994,
        "traj_len": 3.5110034923819673,
        "weighted_distance": 4.921334455064646
    },
    "planner": "PRM",
    "start": {
        "state": {
            "elbow_joint": 2.39358713078474,
            "shoulder_lift_joint": -1.908514104345545,
            "shoulder_pan_joint": 0.7066247066606129,
            "wrist_1_joint": -0.4678290933515497,
            "wrist_2_joint": 0.7096259083745334,
            "wrist_3_joint": -3.1358149277392293
        }
    },
    "waypoints": [
        {
            "positions": [
                0.7066247066606129,
                -1.908514104345545,
                2.39358713078474,
                -0.4678290933515497,
                0.7096259083745334,
                -3.1358149277392293
            ]
        },
        {
            "positions": [
                0.6559946819069586,
                -1.8696374559113396,
                2.3708748043475345,
                -0.38576978858835864,
                0.6173137201394578,
                -3.0371821227526117
            ]
        },
        {
            "positions": [
                0.6053646571533043,
                -1.8307608074771344,
                2.3481624779103294,
                -0.30371048382516763,
                0.5250015319043821,
                -2.938549317765994
            ]
        },
        {
            "positions": [
                0.55473463239965,
                -1.791884159042929,
                2.325450151473124,
                -0.22165117906197657,
                0.43268934366930656,
                -2.8399165127793764
            ]
        },
        {
            "positions": [
                0.5041046076459959,
                -1.753007510608724,
                2.3027378250359183,
                -0.1395918742987855,
                0.3403771554342309,
                -2.7412837077927588
            ]
        },
        {
            "positions": [
                0.45347458289234155,
                -1.7141308621745186,
                2.280025498598713,
                -0.057532569535594436,
                0.24806496719915527,
                -2.642650902806141
            ]
        },
        {
            "positions": [
                0.40284455813868725,
                -1.6752542137403132,
                2.2573131721615076,
                0.024526735227596574,
                0.15575277896407969,
                -2.5440180978195235
            ]
        },
        {
            "positions": [
                0.352214533385033,
                -1.6363775653061081,
                2.234600845724302,
                0.1065860399907877,
                0.06344059072900399,
                -2.445385292832906
            ]
        },
        {
            "positions": [
                0.3015845086313787,
                -1.5975009168719028,
                2.211888519287097,
                0.1886453447539787,
                -0.0288715975060716,
                -2.346752487846288
            ]
        },
        {
            "positions": [
                0.2509544838777244,
                -1.5586242684376974,
                2.1891761928498914,
                0.2707046495171697,
                -0.12118378574114719,
                -2.2481196828596706
            ]
        },
        {
            "positions": [
                0.20032445912407015,
                -1.5197476200034923,
                2.166463866412686,
                0.35276395428036084,
                -0.21349597397622289,
                -2.149486877873053
            ]
        },
        {
            "positions": [
                0.14969443437041585,
                -1.480870971569287,
                2.1437515399754807,
                0.43482325904355185,
                -0.3058081622112986,
                -2.0508540728864357
            ]
        },
        {
            "positions": [
                0.09906440961676155,
                -1.4419943231350816,
                2.121039213538275,
                0.5168825638067429,
                -0.39812035044637406,
                -1.9522212678998179
            ]
        },
        {
            "positions": [
                0.04843438486310725,
                -1.4031176747008764,
                2.0983268871010696,
                0.5989418685699339,
                -0.49043253868144976,
                -1.8535884629132002
            ]
        },
        {
            "positions": [
                -0.002195639890546941,
                -1.364241026266671,
                2.0756145606638645,
                0.6810011733331252,
                -0.5827447269165255,
                -1.7549556579265826
            ]
        },
        {
            "positions": [
                -0.05282566464420124,
                -1.3253643778324657,
                2.052902234226659,
                0.7630604780963162,
                -0.6750569151516009,
                -1.656322852939965
            ]
        },
        {
            "positions": [
                -0.10345568939785554,
                -1.2864877293982606,
                2.0301899077894534,
                0.8451197828595072,
                -0.7673691033866766,
                -1.5576900479533473
            ]
        },
        {
            "positions": [
                -0.15408571415150984,
                -1.2476110809640555,
                2.0074775813522483,
                0.9271790876226982,
                -0.8596812916217523,
                -1.4590572429667297
            ]
        },
        {
            "positions": [
                -0.20471573890516415,
                -1.2087344325298501,
                1.9847652549150427,
                1.0092383923858892,
                -0.9519934798568278,
                -1.360424437980112
            ]
        },
        {
            "positions": [
                -0.25534576365881834,
                -1.1698577840956448,
                1.9620529284778372,
                1.0912976971490804,
                -1.0443056680919036,
                -1.2617916329934944
            ]
        },
        {
            "positions": [
                -0.30597578841247264,
                -1.1309811356614397,
                1.9393406020406319,
                1.1733570019122714,
                -1.1366178563269793,
                -1.1631588280068768
            ]
        },
        {
            "positions": [
                -0.35660581316612705,
                -1.0921044872272343,
                1.9166282756034265,
                1.2554163066754624,
                -1.2289300445620546,
                -1.0645260230202593
            ]
        },
        {
            "positions": [
                -0.40723583791978124,
                -1.053227838793029,
                1.893915949166221,
                1.3374756114386535,
                -1.3212422327971307,
                -0.9658932180336417
            ]
        },
        {
            "positions": [
                -0.45786586267343543,
                -1.0143511903588238,
                1.8712036227290156,
                1.4195349162018445,
                -1.413554421032206,
                -0.8672604130470241
            ]
        },
        {
            "positions": [
                -0.5084958874270898,
                -0.9754745419246185,
                1.8484912962918103,
                1.5015942209650355,
                -1.5058666092672817,
                -0.7686276080604064
            ]
        },
        {
            "positions": [
                -0.559125912180744,
                -0.9365978934904132,
                1.8257789698546047,
                1.5836535257282267,
                -1.5981787975023574,
                -0.6699948030737888
            ]
        },
        {
            "positions": [
                -0.6097559369343984,
                -0.897721245056208,
                1.8030666434173994,
                1.6657128304914175,
                -1.690490985737433,
                -0.5713619980871711
            ]
        },
        {
            "positions": [
                -0.6603859616880526,
                -0.8588445966220026,
                1.780354316980194,
                1.7477721352546087,
                -1.7828031739725088,
                -0.4727291931005535
            ]
        },
        {
            "positions": [
                -0.7110159864417068,
                -0.8199679481877973,
                1.7576419905429885,
                1.8298314400178,
                -1.8751153622075845,
                -0.37409638811393586
            ]
        },
        {
            "positions": [
                -0.7616460111953612,
                -0.7810912997535921,
                1.7349296641057832,
                1.9118907447809907,
                -1.9674275504426597,
                -0.2754635831273182
            ]
        },
        {
            "positions": [
                -0.8122760359490154,
                -0.7422146513193868,
                1.7122173376685779,
                1.993950049544182,
                -2.0597397386777354,
                -0.17683077814070058
            ]
        },
        {
            "positions": [
                -0.8629060607026698,
                -0.7033380028851817,
                1.6895050112313723,
                2.0760093543073728,
                -2.152051926912811,
                -0.07819797315408294
            ]
        },
        {
            "positions": [
                -0.913536085456324,
                -0.6644613544509763,
                1.666792684794167,
                2.158068659070564,
                -2.244364115147887,
                0.020434831832534518
            ]
        }
    ]
}