{
    "goal": {
        "global_pose": {
            "orientation": {
                "w": 0.7047431468963623,
                "x": -0.7094548344612122,
                "y": 0.0024358443915843964,
                "z": -0.0022348060738295317
            },
            "position": {
                "x": 0.6094750761985779,
                "y": 0.3671506643295288,
                "z": 0.19426114857196808
            }
        },
        "name": "move_to_magneteinheit_A"
    },
    "id": "PRM_move_to_magneteinheit_A_127",
    "joint_names": [
        "shoulder_pan_joint",
        "shoulder_lift_joint",
        "elbow_joint",
        "wrist_1_joint",
        "wrist_2_joint",
        "wrist_3_joint"
    ],
    "metrics": {
        "cart_traj_len": 2.0700485653911636,
        "distance_elbow_joint": 3.901327179054044,
        "distance_shoulder_lift_joint": 1.0682917054070533,
        "distance_shoulder_pan_joint": 1.2416402212098259,
        "distance_wrist_1_joint": 1.2511923602662125,
        "distance_wrist_2_joint": 1.441782819211641,
        "distance_wrist_3_joint": 2.0213105133259583,
        "smoothness": 2.143878952441023e-16,
        "time": 0.031324314,
        "traj_len": 3.305381188074189,
        "weighted_distance": 4.202516032640983
    },
    "planner": "PRM",
    "start": {
        "state": {
            "elbow_joint": -1.919643507792019,
            "shoulder_lift_joint": -0.07675430207160344,
            "shoulder_pan_joint": -1.1188671864651873,
            "wrist_1_joint": 0.42560062535961957,
            "wrist_2_joint": 1.5706038300724876,
            "wrist_3_joint": 1.1188968870953055
        }
    },
    "waypoints": [
        {
            "positions": [
                -1.1188671864651873,
                -0.07675430207160344,
                -1.919643507792019,
                0.42560062535961957,
                1.5706038300724876,
                1.1188968870953055
            ]
        },
        {
            "positions": [
                -1.0745228928505508,
                -0.11490757726471248,
                -1.7803103942543748,
                0.38091518392154056,
                1.5191115865292146,
                1.1910865482855184
            ]
        },
        {
            "positions": [
                -1.030178599235914,
                -0.15306085245782153,
                -1.6409772807167302,
                0.33622974248346155,
                1.4676193429859419,
                1.263276209475731
            ]
        },
        {
            "positions": [
                -0.9858343056212775,
                -0.19121412765093057,
                -1.5016441671790859,
                0.29154430104538254,
                1.416127099442669,
                1.335465870665944
            ]
        },
        {
            "positions": [
                -0.9414900120066408,
                -0.22936740284403961,
                -1.3623110536414416,
                0.2468588596073035,
                1.364634855899396,
                1.4076555318561568
            ]
        },
        {
            "positions": [
                -0.8971457183920042,
                -0.2675206780371487,
                -1.222977940103797,
                0.20217341816922446,
                1.3131426123561232,
                1.4798451930463696
            ]
        },
        {
            "positions": [
                -0.8528014247773675,
                -0.3056739532302577,
                -1.0836448265661525,
                0.15748797673114545,
                1.2616503688128502,
                1.5520348542365823
            ]
        },
        {
            "positions": [
                -0.8084571311627309,
                -0.34382722842336677,
                -0.9443117130285081,
                0.11280253529306644,
                1.2101581252695772,
                1.6242245154267951
            ]
        },
        {
            "positions": [
                -0.7641128375480943,
                -0.3819805036164758,
                -0.8049785994908638,
                0.06811709385498743,
                1.1586658817263045,
                1.696414176617008
            ]
        },
        {
            "positions": [
                -0.7197685439334576,
                -0.4201337788095849,
                -0.6656454859532193,
                0.023431652416908366,
                1.1071736381830315,
                1.7686038378072206
            ]
        },
        {
            "positions": [
                -0.675424250318821,
                -0.4582870540026939,
                -0.5263123724155749,
                -0.021253789021170644,
                1.0556813946397585,
                1.8407934989974335
            ]
        },
        {
            "positions": [
                -0.6310799567041843,
                -0.49644032919580294,
                -0.3869792588779304,
                -0.0659392304592496,
                1.0041891510964858,
                1.9129831601876464
            ]
        },
        {
            "positions": [
                -0.5867356630895477,
                -0.5345936043889119,
                -0.24764614534028606,
                -0.11062467189732866,
                0.9526969075532129,
                1.985172821377859
            ]
        },
        {
            "positions": [
                -0.5423913694749111,
                -0.5727468795820211,
                -0.10831303180264151,
                -0.15531011333540773,
                0.9012046640099399,
                2.057362482568072
            ]
        },
        {
            "positions": [
                -0.4980470758602744,
                -0.61090015477513,
                0.031020081735002814,
                -0.19999555477348668,
                0.8497124204666671,
                2.1295521437582847
            ]
        },
        {
            "positions": [
                -0.45370278224563776,
                -0.6490534299682391,
                0.17035319527264714,
                -0.24468099621156564,
                0.7982201769233942,
                2.2017418049484974
            ]
        },
        {
            "positions": [
                -0.4093584886310012,
                -0.6872067051613482,
                0.30968630881029147,
                -0.2893664376496447,
                0.7467279333801213,
                2.27393146613871
            ]
        },
        {
            "positions": [
                -0.36501419501636456,
                -0.7253599803544573,
                0.4490194223479358,
                -0.33405187908772366,
                0.6952356898368485,
                2.346121127328923
            ]
        },
        {
            "positions": [
                -0.3206699014017278,
                -0.7635132555475663,
                0.5883525358855806,
                -0.37873732052580283,
                0.6437434462935754,
                2.418310788519136
            ]
        },
        {
            "positions": [
                -0.27632560778709114,
                -0.8016665307406754,
                0.7276856494232249,
                -0.4234227619638818,
                0.5922512027503025,
                2.490500449709349
            ]
        },
        {
            "positions": [
                -0.2319813141724546,
                -0.8398198059337845,
                0.8670187629608692,
                -0.46810820340196085,
                0.5407589592070297,
                2.5626901108995614
            ]
        },
        {
            "positions": [
                -0.18763702055781795,
                -0.8779730811268935,
                1.006351876498514,
                -0.5127936448400399,
                0.4892667156637567,
                2.634879772089774
            ]
        },
        {
            "positions": [
                -0.1432927269431813,
                -0.9161263563200024,
                1.1456849900361583,
                -0.5574790862781187,
                0.4377744721204839,
                2.707069433279987
            ]
        },
        {
            "positions": [
                -0.09894843332854464,
                -0.9542796315131115,
                1.2850181035738026,
                -0.6021645277161978,
                0.38628222857721095,
                2.7792590944702
            ]
        },
        {
            "positions": [
                -0.054604139713908095,
                -0.9924329067062205,
                1.424351217111447,
                -0.6468499691542768,
                0.3347899850339382,
                2.851448755660413
            ]
        },
        {
            "positions": [
                -0.01025984609927133,
                -1.0305861818993296,
                1.5636843306490917,
                -0.6915354105923559,
                0.2832977414906652,
                2.9236384168506255
            ]
        },
        {
            "positions": [
                0.03408444751536521,
                -1.0687394570924387,
                1.703017444186736,
                -0.736220852030435,
                0.23180549794739225,
                2.995828078040838
            ]
        },
        {
            "positions": [
                0.07842874113000198,
                -1.1068927322855477,
                1.8423505577243804,
                -0.7809062934685138,
                0.1803132544041195,
                3.068017739231051
            ]
        },
        {
            "positions": [
                0.12277303474463849,
                -1.1450460074786568,
                1.9816836712620247,
                -0.825591734906593,
                0.12882101086084644,
                3.140207400421264
            ]
        }
    ]
}