{
    "goal": {
        "global_pose": {
            "orientation": {
                "w": -0.00223480608172531,
                "x": 0.0024358444001904467,
                "y": 0.7094548369677653,
                "z": -0.704743149386269
            },
            "position": {
                "x": 0.6205249238014221,
                "y": -0.6371506643295288,
                "z": 0.19426114857196808
            }
        },
        "name": "move_to_magneteinheit_B"
    },
    "id": "PRM_move_to_magneteinheit_B_47",
    "joint_names": [
        "shoulder_pan_joint",
        "shoulder_lift_joint",
        "elbow_joint",
        "wrist_1_joint",
        "wrist_2_joint",
        "wrist_3_joint"
    ],
    "metrics": {
        "cart_traj_len": 4.605394139144002,
        "distance_elbow_joint": 5.004088545923114,
        "distance_shoulder_lift_joint": 0.9919527389056153,
        "distance_shoulder_pan_joint": 3.6665721200761556,
        "distance_wrist_1_joint": 1.9702295320670018,
        "distance_wrist_2_joint": 2.3808346390510726,
        "distance_wrist_3_joint": 6.294880294323978,
        "smoothness": 0.1917676441687845,
        "time": 1.4133076709999999,
        "traj_len": 4.506501733090418,
        "weighted_distance": 6.103227230745467
    },
    "planner": "PRM",
    "start": {
        "state": {
            "elbow_joint": 2.39358713078474,
            "shoulder_lift_joint": -1.908514104345545,
            "shoulder_pan_joint": 0.7066247066606129,
            "wrist_1_joint": -0.4678290933515497,
            "wrist_2_joint": 0.7096259083745334,
            "wrist_3_joint": -3.1358149277392293
        }
    },
    "waypoints": [
        {
            "positions": [
                0.7066247066606129,
                -1.908514104345545,
                2.39358713078474,
                -0.4678290933515497,
                0.7096259083745334,
                -3.1358149277392293
            ]
        },
        {
            "positions": [
                0.5813764786032957,
                -1.8942017879584607,
                2.439009738379671,
                -0.5207716288239599,
                0.5782006172981266,
                -3.138385983775083
            ]
        },
        {
            "positions": [
                0.4561282505459784,
                -1.8798894715713763,
                2.4844323459746027,
                -0.5737141642963701,
                0.4467753262217196,
                -3.140957039810937
            ]
        },
        {
            "positions": [
                0.3308800224886611,
                -1.8655771551842921,
                2.529854953569534,
                -0.6266566997687804,
                0.3153500351453127,
                -3.143528095846791
            ]
        },
        {
            "positions": [
                0.20563179443134383,
                -1.851264838797208,
                2.575277561164465,
                -0.6795992352411906,
                0.1839247440689058,
                -3.146099151882645
            ]
        },
        {
            "positions": [
                0.08038356637402655,
                -1.8369525224101235,
                2.6207001687593965,
                -0.7325417707136008,
                0.05249945299249881,
                -3.148670207918499
            ]
        },
        {
            "positions": [
                -0.044864661683290674,
                -1.8226402060230393,
                2.6661227763543276,
                -0.785484306186011,
                -0.07892583808390813,
                -3.1512412639543528
            ]
        },
        {
            "positions": [
                -0.0598079420333302,
                -1.783715021641511,
                2.49704129739663,
                -0.7856647419360185,
                -0.12872445983331693,
                -3.072298736036387
            ]
        },
        {
            "positions": [
                -0.07475122238336973,
                -1.7447898372599824,
                2.327959818438932,
                -0.7858451776860262,
                -0.17852308158272573,
                -2.993356208118421
            ]
        },
        {
            "positions": [
                -0.08969450273340926,
                -1.705864652878454,
                2.1588783394812343,
                -0.7860256134360338,
                -0.22832170333213453,
                -2.914413680200455
            ]
        },
        {
            "positions": [
                -0.1046377830834488,
                -1.6669394684969256,
                1.9897968605235365,
                -0.7862060491860415,
                -0.27812032508154333,
                -2.835471152282489
            ]
        },
        {
            "positions": [
                -0.11958106343348834,
                -1.6280142841153973,
                1.8207153815658388,
                -0.7863864849360491,
                -0.32791894683095213,
                -2.756528624364523
            ]
        },
        {
            "positions": [
                -0.13452434378352784,
                -1.5890890997338687,
                1.6516339026081412,
                -0.7865669206860568,
                -0.37771756858036093,
                -2.677586096446557
            ]
        },
        {
            "positions": [
                -0.1494676241335674,
                -1.5501639153523403,
                1.4825524236504435,
                -0.7867473564360644,
                -0.42751619032976973,
                -2.5986435685285914
            ]
        },
        {
            "positions": [
                -0.06970391035440295,
                -1.552233378064142,
                1.3842049967380192,
                -0.8287251223276473,
                -0.44661018052612256,
                -2.4469127922848464
            ]
        },
        {
            "positions": [
                0.01005980342476151,
                -1.5543028407759436,
                1.285857569825595,
                -0.8707028882192303,
                -0.4657041707224754,
                -2.2951820160411014
            ]
        },
        {
            "positions": [
                0.08982351720392598,
                -1.556372303487745,
                1.1875101429131707,
                -0.9126806541108132,
                -0.48479816091882827,
                -2.143451239797357
            ]
        },
        {
            "positions": [
                0.16958723098309042,
                -1.5584417661995467,
                1.0891627160007464,
                -0.9546584200023961,
                -0.503892151115181,
                -1.9917204635536119
            ]
        },
        {
            "positions": [
                0.2493509447622549,
                -1.5605112289113483,
                0.9908152890883222,
                -0.9966361858939791,
                -0.522986141311534,
                -1.839989687309867
            ]
        },
        {
            "positions": [
                0.32911465854141936,
                -1.56258069162315,
                0.8924678621758978,
                -1.038613951785562,
                -0.5420801315078868,
                -1.688258911066122
            ]
        },
        {
            "positions": [
                0.40887837232058377,
                -1.5646501543349514,
                0.7941204352634735,
                -1.080591717677145,
                -0.5611741217042396,
                -1.5365281348223772
            ]
        },
        {
            "positions": [
                0.48864208609974824,
                -1.566719617046753,
                0.6957730083510493,
                -1.1225694835687277,
                -0.5802681119005925,
                -1.3847973585786322
            ]
        },
        {
            "positions": [
                0.5684057998789127,
                -1.5687890797585546,
                0.597425581438625,
                -1.1645472494603109,
                -0.5993621020969453,
                -1.2330665823348872
            ]
        },
        {
            "positions": [
                0.6481695136580772,
                -1.5708585424703563,
                0.49907815452620075,
                -1.2065250153518936,
                -0.6184560922932981,
                -1.0813358060911422
            ]
        },
        {
            "positions": [
                0.7279332274372416,
                -1.5729280051821577,
                0.40073072761377637,
                -1.2485027812434766,
                -0.637550082489651,
                -0.9296050298473975
            ]
        },
        {
            "positions": [
                0.8076969412164061,
                -1.5749974678939593,
                0.3023833007013521,
                -1.2904805471350596,
                -0.6566440726860039,
                -0.7778742536036525
            ]
        },
        {
            "positions": [
                0.8874606549955705,
                -1.577066930605761,
                0.20403587378892807,
                -1.3324583130266423,
                -0.6757380628823566,
                -0.6261434773599077
            ]
        },
        {
            "positions": [
                0.9672243687747349,
                -1.5791363933175626,
                0.10568844687650358,
                -1.3744360789182253,
                -0.6948320530787095,
                -0.47441270111616296
            ]
        },
        {
            "positions": [
                1.0469880825538995,
                -1.581205856029364,
                0.0073410199640793206,
                -1.4164138448098083,
                -0.7139260432750623,
                -0.322681924872418
            ]
        },
        {
            "positions": [
                1.126751796333064,
                -1.5832753187411657,
                -0.09100640694834494,
                -1.458391610701391,
                -0.7330200334714152,
                -0.170951148628673
            ]
        },
        {
            "positions": [
                1.2065155101122285,
                -1.5853447814529673,
                -0.1893538338607692,
                -1.5003693765929742,
                -0.752114023667768,
                -0.01922037238492802
            ]
        },
        {
            "positions": [
                1.286279223891393,
                -1.587414244164769,
                -0.28770126077319347,
                -1.542347142484557,
                -0.7712080138641209,
                0.13251040385881696
            ]
        },
        {
            "positions": [
                1.3660429376705574,
                -1.5894837068765706,
                -0.38604868768561773,
                -1.58432490837614,
                -0.7903020040604738,
                0.28424118010256194
            ]
        },
        {
            "positions": [
                1.4458066514497219,
                -1.591553169588372,
                -0.484396114598042,
                -1.626302674267723,
                -0.8093959942568265,
                0.4359719563463069
            ]
        },
        {
            "positions": [
                1.5255703652288863,
                -1.5936226323001736,
                -0.5827435415104663,
                -1.6682804401593057,
                -0.8284899844531795,
                0.5877027325900519
            ]
        },
        {
            "positions": [
                1.6053340790080508,
                -1.5956920950119753,
                -0.6810909684228907,
                -1.7102582060508889,
                -0.8475839746495323,
                0.7394335088337964
            ]
        },
        {
            "positions": [
                1.6850977927872153,
                -1.597761557723777,
                -0.7794383953353148,
                -1.7522359719424716,
                -0.8666779648458851,
                0.8911642850775414
            ]
        },
        {
            "positions": [
                1.7648615065663797,
                -1.5998310204355783,
                -0.8777858222477393,
                -1.7942137378340548,
                -0.8857719550422379,
                1.0428950613212864
            ]
        },
        {
            "positions": [
                1.8446252203455442,
                -1.60190048314738,
                -0.9761332491601638,
                -1.8361915037256376,
                -0.9048659452385908,
                1.1946258375650314
            ]
        },
        {
            "positions": [
                1.9243889341247082,
                -1.6039699458591816,
                -1.0744806760725873,
                -1.8781692696172203,
                -0.9239599354349436,
                1.346356613808776
            ]
        },
        {
            "positions": [
                2.0041526479038727,
                -1.6060394085709833,
                -1.1728281029850118,
                -1.920147035508803,
                -0.9430539256312964,
                1.498087390052521
            ]
        },
        {
            "positions": [
                2.083916361683037,
                -1.6081088712827847,
                -1.2711755298974363,
                -1.9621248014003863,
                -0.9621479158276492,
                1.6498181662962654
            ]
        },
        {
            "positions": [
                2.1636800754622016,
                -1.6101783339945863,
                -1.3695229568098604,
                -2.004102567291969,
                -0.9812419060240021,
                1.8015489425400109
            ]
        },
        {
            "positions": [
                2.243443789241366,
                -1.612247796706388,
                -1.4678703837222848,
                -2.046080333183552,
                -1.000335896220355,
                1.9532797187837554
            ]
        },
        {
            "positions": [
                2.3232075030205306,
                -1.6143172594181896,
                -1.5662178106347089,
                -2.088058099075135,
                -1.0194298864167077,
                2.105010495027501
            ]
        },
        {
            "positions": [
                2.402971216799695,
                -1.616386722129991,
                -1.6645652375471334,
                -2.1300358649667177,
                -1.0385238766130607,
                2.2567412712712454
            ]
        },
        {
            "positions": [
                2.4827349305788595,
                -1.6184561848417927,
                -1.7629126644595574,
                -2.172013630858301,
                -1.0576178668094136,
                2.4084720475149908
            ]
        },
        {
            "positions": [
                2.562498644358024,
                -1.6205256475535943,
                -1.8612600913719817,
                -2.2139913967498837,
                -1.0767118570057663,
                2.560202823758735
            ]
        },
        {
            "positions": [
                2.5789175644897546,
                -1.7143991171721205,
                -1.8272317526007782,
                -2.2513359348613284,
                -0.9776290447273042,
                2.6548711354913626
            ]
        },
        {
            "positions": [
                2.5953364846214853,
                -1.8082725867906466,
                -1.793203413829575,
                -2.2886804729727728,
                -0.8785462324488419,
                2.7495394472239902
            ]
        },
        {
            "positions": [
                2.611755404753216,
                -1.9021460564091726,
                -1.7591750750583715,
                -2.3260250110842176,
                -0.7794634201703796,
                2.8442077589566175
            ]
        },
        {
            "positions": [
                2.6281743248849465,
                -1.9960195260276987,
                -1.725146736287168,
                -2.3633695491956623,
                -0.6803806078919175,
                2.938876070689245
            ]
        },
        {
            "positions": [
                2.644593245016677,
                -2.089892995646225,
                -1.6911183975159647,
                -2.4007140873071067,
                -0.5812977956134553,
                3.033544382421873
            ]
        },
        {
            "positions": [
                2.6610121651484078,
                -2.183766465264751,
                -1.6570900587447612,
                -2.4380586254185515,
                -0.482214983334993,
                3.1282126941545005
            ]
        }
    ]
}