{
    "goal": {
        "global_pose": {
            "orientation": {
                "w": 0.7031023502349854,
                "x": -0.7110244035720825,
                "y": 0.007748599164187908,
                "z": 0.005598929710686207
            },
            "position": {
                "x": 0.11585023208521307,
                "y": 0.44412534475326537,
                "z": 0.3711530566215515
            }
        },
        "name": "move_to_auspresseinheit_A"
    },
    "id": "PRM_move_to_auspresseinheit_A_139",
    "joint_names": [
        "shoulder_pan_joint",
        "shoulder_lift_joint",
        "elbow_joint",
        "wrist_1_joint",
        "wrist_2_joint",
        "wrist_3_joint"
    ],
    "metrics": {
        "cart_traj_len": 0.8168697595905331,
        "distance_elbow_joint": 0.11829803936248373,
        "distance_shoulder_lift_joint": 0.5341750480346821,
        "distance_shoulder_pan_joint": 1.3322192302680533,
        "distance_wrist_1_joint": 0.5628631638461398,
        "distance_wrist_2_joint": 0.5155678916863009,
        "distance_wrist_3_joint": 1.7902655006932031,
        "smoothness": 0.9188197616419115,
        "time": 0.236482225,
        "traj_len": 2.203040824381351,
        "weighted_distance": 3.0842099362413236
    },
    "planner": "PRM",
    "start": {
        "state": {
            "elbow_joint": 2.422574709923281,
            "shoulder_lift_joint": -1.3736533754116391,
            "shoulder_pan_joint": -0.33786336945926293,
            "wrist_1_joint": -1.0288603412921917,
            "wrist_2_joint": 1.2330224858903978,
            "wrist_3_joint": -3.094022268022082
        }
    },
    "waypoints": [
        {
            "positions": [
                -0.33786336945926293,
                -1.3736533754116391,
                2.422574709923281,
                -1.0288603412921917,
                1.2330224858903978,
                -3.094022268022082
            ]
        },
        {
            "positions": [
                -0.373401100421362,
                -1.387214565714761,
                2.404028357700207,
                -0.9426112182436803,
                1.217616876435612,
                -2.874403266476291
            ]
        },
        {
            "positions": [
                -0.4089388313834611,
                -1.4007757560178828,
                2.385482005477133,
                -0.8563620951951689,
                1.202211266980826,
                -2.6547842649305
            ]
        },
        {
            "positions": [
                -0.4444765623455602,
                -1.414336946321005,
                2.3669356532540586,
                -0.7701129721466576,
                1.1868056575260402,
                -2.4351652633847087
            ]
        },
        {
            "positions": [
                -0.48001429330765927,
                -1.4278981366241268,
                2.3483893010309846,
                -0.6838638490981462,
                1.1714000480712543,
                -2.2155462618389175
            ]
        },
        {
            "positions": [
                -0.3477844814832529,
                -1.481223724048815,
                2.353290704416561,
                -0.6596564411368024,
                1.1209616643082367,
                -2.3168562056733664
            ]
        },
        {
            "positions": [
                -0.21555466965884662,
                -1.5345493114735034,
                2.3581921078021373,
                -0.6354490331754586,
                1.0705232805452194,
                -2.418166149507815
            ]
        },
        {
            "positions": [
                -0.08332485783444032,
                -1.5878748988981917,
                2.3630935111877136,
                -0.6112416252141148,
                1.0200848967822018,
                -2.5194760933422637
            ]
        },
        {
            "positions": [
                0.04890495398996603,
                -1.6412004863228797,
                2.36799491457329,
                -0.587034217252771,
                0.9696465130191844,
                -2.620786037176712
            ]
        },
        {
            "positions": [
                0.18113476581437232,
                -1.6945260737475683,
                2.3728963179588667,
                -0.5628268092914271,
                0.9192081292561668,
                -2.722095981011161
            ]
        },
        {
            "positions": [
                0.3133645776387786,
                -1.7478516611722563,
                2.377797721344443,
                -0.5386194013300833,
                0.8687697454931493,
                -2.8234059248456096
            ]
        },
        {
            "positions": [
                0.445594389463185,
                -1.8011772485969446,
                2.3826991247300193,
                -0.5144119933687396,
                0.8183313617301318,
                -2.9247158686800585
            ]
        },
        {
            "positions": [
                0.5778242012875914,
                -1.854502836021633,
                2.3876005281155956,
                -0.49020458540739575,
                0.7678929779671144,
                -3.026025812514507
            ]
        },
        {
            "positions": [
                0.7100540131119977,
                -1.9078284234463212,
                2.392501931501172,
                -0.46599717744605196,
                0.7174545942040969,
                -3.127335756348956
            ]
        }
    ]
}