{
    "goal": {
        "global_pose": {
            "orientation": {
                "w": 0.7047431468963623,
                "x": -0.7094548344612122,
                "y": 0.0024358443915843964,
                "z": -0.0022348060738295317
            },
            "position": {
                "x": 0.6094750761985779,
                "y": 0.3671506643295288,
                "z": 0.19426114857196808
            }
        },
        "name": "move_to_magneteinheit_A"
    },
    "id": "PRM_move_to_magneteinheit_A_74",
    "joint_names": [
        "shoulder_pan_joint",
        "shoulder_lift_joint",
        "elbow_joint",
        "wrist_1_joint",
        "wrist_2_joint",
        "wrist_3_joint"
    ],
    "metrics": {
        "cart_traj_len": 1.9511776894310757,
        "distance_elbow_joint": 3.8924522015366314,
        "distance_shoulder_lift_joint": 1.659358610963878,
        "distance_shoulder_pan_joint": 1.2422363604922275,
        "distance_wrist_1_joint": 1.2139361734895964,
        "distance_wrist_2_joint": 1.4447141491352524,
        "distance_wrist_3_joint": 4.300448804160796,
        "smoothness": 0.1090028911478472,
        "time": 0.19121955200000001,
        "traj_len": 3.7085234662569393,
        "weighted_distance": 5.001269261969887
    },
    "planner": "PRM",
    "start": {
        "state": {
            "elbow_joint": -1.919643507792019,
            "shoulder_lift_joint": -0.07675430207160344,
            "shoulder_pan_joint": -1.1188671864651873,
            "wrist_1_joint": 0.42560062535961957,
            "wrist_2_joint": 1.5706038300724876,
            "wrist_3_joint": 1.1188968870953055
        }
    },
    "waypoints": [
        {
            "positions": [
                -1.1188671864651873,
                -0.07675430207160344,
                -1.919643507792019,
                0.42560062535961957,
                1.5706038300724876,
                1.1188968870953055
            ]
        },
        {
            "positions": [
                -1.0816850182074924,
                -0.12370163933806866,
                -1.7875503590986466,
                0.40561938275791465,
                1.5281442753471994,
                1.0034897450410436
            ]
        },
        {
            "positions": [
                -1.0445028499497973,
                -0.17064897660453388,
                -1.655457210405274,
                0.38563814015620973,
                1.4856847206219113,
                0.8880826029867815
            ]
        },
        {
            "positions": [
                -1.0073206816921023,
                -0.21759631387099912,
                -1.5233640617119013,
                0.3656568975545048,
                1.443225165896623,
                0.7726754609325196
            ]
        },
        {
            "positions": [
                -0.9701385134344073,
                -0.26454365113746436,
                -1.3912709130185288,
                0.34567565495279984,
                1.4007656111713347,
                0.6572683188782575
            ]
        },
        {
            "positions": [
                -0.9329563451767122,
                -0.3114909884039296,
                -1.2591777643251563,
                0.3256944123510949,
                1.3583060564460465,
                0.5418611768239956
            ]
        },
        {
            "positions": [
                -0.8957741769190173,
                -0.3584383256703948,
                -1.1270846156317837,
                0.30571316974939,
                1.3158465017207583,
                0.42645403476973365
            ]
        },
        {
            "positions": [
                -0.8585920086613221,
                -0.40538566293686,
                -0.9949914669384112,
                0.285731927147685,
                1.2733869469954702,
                0.3110468927154716
            ]
        },
        {
            "positions": [
                -0.8214098404036272,
                -0.45233300020332523,
                -0.8628983182450387,
                0.26575068454598016,
                1.230927392270182,
                0.19563975066120964
            ]
        },
        {
            "positions": [
                -0.7842276721459321,
                -0.4992803374697905,
                -0.7308051695516662,
                0.24576944194427522,
                1.1884678375448936,
                0.08023260860694759
            ]
        },
        {
            "positions": [
                -0.7470455038882371,
                -0.5462276747362558,
                -0.5987120208582934,
                0.22578819934257027,
                1.1460082828196054,
                -0.03517453344731436
            ]
        },
        {
            "positions": [
                -0.7098633356305422,
                -0.5931750120027208,
                -0.46661887216492115,
                0.20580695674086538,
                1.1035487280943173,
                -0.1505816755015763
            ]
        },
        {
            "positions": [
                -0.6726811673728471,
                -0.6401223492691861,
                -0.3345257234715484,
                0.18582571413916044,
                1.061089173369029,
                -0.26598881755583825
            ]
        },
        {
            "positions": [
                -0.6354989991151521,
                -0.6870696865356514,
                -0.2024325747781759,
                0.16584447153745552,
                1.018629618643741,
                -0.3813959596101004
            ]
        },
        {
            "positions": [
                -0.598316830857457,
                -0.7340170238021166,
                -0.07033942608480337,
                0.14586322893575054,
                0.9761700639184526,
                -0.49680310166436237
            ]
        },
        {
            "positions": [
                -0.561134662599762,
                -0.7809643610685819,
                0.06175372260856937,
                0.12588198633404563,
                0.9337105091931643,
                -0.6122102437186245
            ]
        },
        {
            "positions": [
                -0.523952494342067,
                -0.827911698335047,
                0.19384687130194167,
                0.10590074373234071,
                0.8912509544678763,
                -0.7276173857728863
            ]
        },
        {
            "positions": [
                -0.4867703260843721,
                -0.8748590356015122,
                0.3259400199953142,
                0.08591950113063584,
                0.8487913997425881,
                -0.8430245278271482
            ]
        },
        {
            "positions": [
                -0.44958815782667694,
                -0.9218063728679775,
                0.4580331686886867,
                0.06593825852893087,
                0.8063318450172998,
                -0.9584316698814104
            ]
        },
        {
            "positions": [
                -0.412405989568982,
                -0.9687537101344428,
                0.5901263173820592,
                0.04595701592722595,
                0.7638722902920116,
                -1.0738388119356723
            ]
        },
        {
            "positions": [
                -0.37522382131128684,
                -1.015701047400908,
                0.7222194660754322,
                0.02597577332552098,
                0.7214127355667234,
                -1.1892459539899343
            ]
        },
        {
            "positions": [
                -0.3380416530535919,
                -1.062648384667373,
                0.8543126147688043,
                0.0059945307238160606,
                0.6789531808414352,
                -1.3046530960441962
            ]
        },
        {
            "positions": [
                -0.30085948479589697,
                -1.1095957219338384,
                0.9864057634621768,
                -0.013986711877888802,
                0.636493626116147,
                -1.4200602380984582
            ]
        },
        {
            "positions": [
                -0.2636773165382018,
                -1.1565430592003036,
                1.1184989121555498,
                -0.033967954479593776,
                0.5940340713908587,
                -1.5354673801527206
            ]
        },
        {
            "positions": [
                -0.22649514828050687,
                -1.203490396466769,
                1.2505920608489223,
                -0.053949197081298694,
                0.5515745166655706,
                -1.650874522206982
            ]
        },
        {
            "positions": [
                -0.18931298002281194,
                -1.250437733733234,
                1.3826852095422943,
                -0.07393043968300361,
                0.5091149619402824,
                -1.766281664261244
            ]
        },
        {
            "positions": [
                -0.15213081176511678,
                -1.2973850709996995,
                1.5147783582356673,
                -0.09391168228470853,
                0.466655407214994,
                -1.8816888063155064
            ]
        },
        {
            "positions": [
                -0.11494864350742184,
                -1.3443324082661645,
                1.6468715069290398,
                -0.1138929248864135,
                0.4241958524897058,
                -1.9970959483697683
            ]
        },
        {
            "positions": [
                -0.07776647524972669,
                -1.3912797455326298,
                1.7789646556224123,
                -0.13387416748811848,
                0.38173629776441764,
                -2.1125030904240303
            ]
        },
        {
            "positions": [
                -0.04058430699203183,
                -1.438227082799095,
                1.9110578043157849,
                -0.1538554100898234,
                0.3392767430391294,
                -2.2279102324782922
            ]
        },
        {
            "positions": [
                -0.013258726822186456,
                -1.388579444426364,
                1.9213496192205894,
                -0.25960209976318227,
                0.3037122326888138,
                -2.386850513242825
            ]
        },
        {
            "positions": [
                0.01406685334765892,
                -1.3389318060536328,
                1.931641434125394,
                -0.36534878943654114,
                0.2681477223384982,
                -2.5457907940073583
            ]
        },
        {
            "positions": [
                0.041392433517504296,
                -1.289284167680902,
                1.9419332490301988,
                -0.4710954791099001,
                0.23258321198818258,
                -2.7047310747718916
            ]
        },
        {
            "positions": [
                0.06871801368734967,
                -1.2396365293081708,
                1.9522250639350034,
                -0.576842168783259,
                0.19701870163786697,
                -2.8636713555364244
            ]
        },
        {
            "positions": [
                0.09604359385719505,
                -1.1899888909354397,
                1.962516878839808,
                -0.6825888584566179,
                0.16145419128755134,
                -3.022611636300957
            ]
        },
        {
            "positions": [
                0.12336917402704044,
                -1.1403412525627086,
                1.9728086937446125,
                -0.7883355481299767,
                0.12588968093723574,
                -3.1815519170654905
            ]
        }
    ]
}