{
    "goal": {
        "global_pose": {
            "orientation": {
                "w": 0.7031023502349854,
                "x": -0.7110244035720825,
                "y": 0.007748599164187908,
                "z": 0.005598929710686207
            },
            "position": {
                "x": 0.11585023208521307,
                "y": 0.44412534475326537,
                "z": 0.3711530566215515
            }
        },
        "name": "move_to_auspresseinheit_A"
    },
    "id": "PRM_move_to_auspresseinheit_A_82",
    "joint_names": [
        "shoulder_pan_joint",
        "shoulder_lift_joint",
        "elbow_joint",
        "wrist_1_joint",
        "wrist_2_joint",
        "wrist_3_joint"
    ],
    "metrics": {
        "cart_traj_len": 0.7345255918389214,
        "distance_elbow_joint": 0.3880891150013608,
        "distance_shoulder_lift_joint": 0.5312934283157378,
        "distance_shoulder_pan_joint": 1.11223289827873,
        "distance_wrist_1_joint": 1.7549061207214225,
        "distance_wrist_2_joint": 2.8282592193530527,
        "distance_wrist_3_joint": 1.6885951741440275,
        "smoothness": 0.9895216310491154,
        "time": 0.32070270399999995,
        "traj_len": 2.8815579042966206,
        "weighted_distance": 4.032831715330664
    },
    "planner": "PRM",
    "start": {
        "state": {
            "elbow_joint": 2.422574709923281,
            "shoulder_lift_joint": -1.3736533754116391,
            "shoulder_pan_joint": -0.33786336945926293,
            "wrist_1_joint": -1.0288603412921917,
            "wrist_2_joint": 1.2330224858903978,
            "wrist_3_joint": -3.094022268022082
        }
    },
    "waypoints": [
        {
            "positions": [
                -0.33786336945926293,
                -1.3736533754116391,
                2.422574709923281,
                -1.0288603412921917,
                1.2330224858903978,
                -3.094022268022082
            ]
        },
        {
            "positions": [
                -0.341298805238991,
                -1.3778922560890474,
                2.440407931562463,
                -0.9124510357178585,
                1.0649805602170312,
                -3.012164503547014
            ]
        },
        {
            "positions": [
                -0.344734241018719,
                -1.382131136766456,
                2.4582411532016453,
                -0.7960417301435253,
                0.8969386345436646,
                -2.9303067390719466
            ]
        },
        {
            "positions": [
                -0.34816967679844707,
                -1.3863700174438642,
                2.476074374840828,
                -0.679632424569192,
                0.7288967088702981,
                -2.848448974596879
            ]
        },
        {
            "positions": [
                -0.3516051125781751,
                -1.3906088981212725,
                2.49390759648001,
                -0.5632231189948589,
                0.5608547831969315,
                -2.766591210121811
            ]
        },
        {
            "positions": [
                -0.3550405483579031,
                -1.394847778798681,
                2.511740818119192,
                -0.4468138134205256,
                0.392812857523565,
                -2.684733445646743
            ]
        },
        {
            "positions": [
                -0.35847598413763115,
                -1.3990866594760893,
                2.529574039758374,
                -0.33040450784619246,
                0.22477093185019847,
                -2.6028756811716756
            ]
        },
        {
            "positions": [
                -0.3619114199173592,
                -1.4033255401534976,
                2.5474072613975562,
                -0.2139952022718592,
                0.056729006176831964,
                -2.521017916696608
            ]
        },
        {
            "positions": [
                -0.36534685569708725,
                -1.407564420830906,
                2.565240483036739,
                -0.09758589669752593,
                -0.11131291949653477,
                -2.43916015222154
            ]
        },
        {
            "positions": [
                -0.3687822914768153,
                -1.4118033015083145,
                2.583073704675921,
                0.018823408876807335,
                -0.2793548451699013,
                -2.357302387746472
            ]
        },
        {
            "positions": [
                -0.37221772725654334,
                -1.4160421821857228,
                2.600906926315103,
                0.1352327144511405,
                -0.4473967708432678,
                -2.2754446232714045
            ]
        },
        {
            "positions": [
                -0.2823945155497559,
                -1.4567842339808605,
                2.583427184764308,
                0.08599829236963295,
                -0.3517434406249855,
                -2.3479460840541835
            ]
        },
        {
            "positions": [
                -0.19257130384296844,
                -1.4975262857759986,
                2.5659474432135134,
                0.036763870288125416,
                -0.2560901104067032,
                -2.420447544836963
            ]
        },
        {
            "positions": [
                -0.10274809213618097,
                -1.5382683375711363,
                2.548467701662718,
                -0.012470551793382134,
                -0.1604367801884209,
                -2.492949005619742
            ]
        },
        {
            "positions": [
                -0.012924880429393548,
                -1.5790103893662741,
                2.5309879601119234,
                -0.06170497387488966,
                -0.06478344997013863,
                -2.5654504664025213
            ]
        },
        {
            "positions": [
                0.07689833127739398,
                -1.619752441161412,
                2.5135082185611286,
                -0.11093939595639724,
                0.030869880248143744,
                -2.6379519271853002
            ]
        },
        {
            "positions": [
                0.1667215429841814,
                -1.6604944929565497,
                2.4960284770103334,
                -0.16017381803790476,
                0.126523210466426,
                -2.710453387968079
            ]
        },
        {
            "positions": [
                0.25654475469096893,
                -1.7012365447516877,
                2.4785487354595386,
                -0.20940824011941234,
                0.22217654068470838,
                -2.7829548487508586
            ]
        },
        {
            "positions": [
                0.34636796639775624,
                -1.7419785965468255,
                2.461068993908744,
                -0.2586426622009198,
                0.31782987090299053,
                -2.8554563095336376
            ]
        },
        {
            "positions": [
                0.4361911781045438,
                -1.7827206483419633,
                2.443589252357949,
                -0.3078770842824274,
                0.4134832011212729,
                -2.927957770316417
            ]
        },
        {
            "positions": [
                0.5260143898113313,
                -1.8234627001371013,
                2.426109510807154,
                -0.35711150636393496,
                0.5091365313395553,
                -3.000459231099196
            ]
        },
        {
            "positions": [
                0.6158376015181186,
                -1.8642047519322391,
                2.408629769256359,
                -0.4063459284454425,
                0.6047898615578375,
                -3.072960691881975
            ]
        },
        {
            "positions": [
                0.705660813224906,
                -1.904946803727377,
                2.391150027705564,
                -0.45558035052695,
                0.7004431917761197,
                -3.1454621526647544
            ]
        }
    ]
}