{
    "goal": {
        "global_pose": {
            "orientation": {
                "w": 0.7047431468963623,
                "x": -0.7094548344612122,
                "y": 0.0024358443915843964,
                "z": -0.0022348060738295317
            },
            "position": {
                "x": 0.6094750761985779,
                "y": 0.3671506643295288,
                "z": 0.19426114857196808
            }
        },
        "name": "move_to_magneteinheit_A"
    },
    "id": "PRM_move_to_magneteinheit_A_141",
    "joint_names": [
        "shoulder_pan_joint",
        "shoulder_lift_joint",
        "elbow_joint",
        "wrist_1_joint",
        "wrist_2_joint",
        "wrist_3_joint"
    ],
    "metrics": {
        "cart_traj_len": 2.066008441962776,
        "distance_elbow_joint": 3.880978064351063,
        "distance_shoulder_lift_joint": 1.0557280319509699,
        "distance_shoulder_pan_joint": 1.2416117985191475,
        "distance_wrist_1_joint": 1.1651784133701768,
        "distance_wrist_2_joint": 1.4479264307113677,
        "distance_wrist_3_joint": 1.9374410497674264,
        "smoothness": 1.8376105380682637e-16,
        "time": 0.043056993,
        "traj_len": 3.275494434229762,
        "weighted_distance": 4.149319309511688
    },
    "planner": "PRM",
    "start": {
        "state": {
            "elbow_joint": -1.919643507792019,
            "shoulder_lift_joint": -0.07675430207160344,
            "shoulder_pan_joint": -1.1188671864651873,
            "wrist_1_joint": 0.42560062535961957,
            "wrist_2_joint": 1.5706038300724876,
            "wrist_3_joint": 1.1188968870953055
        }
    },
    "waypoints": [
        {
            "positions": [
                -1.1188671864651873,
                -0.07675430207160344,
                -1.919643507792019,
                0.42560062535961957,
                1.5706038300724876,
                1.1188968870953055
            ]
        },
        {
            "positions": [
                -1.0745239079466464,
                -0.11445887464128093,
                -1.7810371483509098,
                0.38398711059639895,
                1.518892171832796,
                1.188091210301285
            ]
        },
        {
            "positions": [
                -1.0301806294281053,
                -0.15216344721095842,
                -1.6424307889098002,
                0.3423735958331784,
                1.4671805135931042,
                1.2572855335072646
            ]
        },
        {
            "positions": [
                -0.9858373509095644,
                -0.18986801978063592,
                -1.5038244294686909,
                0.3007600810699578,
                1.4154688553534125,
                1.326479856713244
            ]
        },
        {
            "positions": [
                -0.9414940723910235,
                -0.2275725923503134,
                -1.3652180700275816,
                0.25914656630673716,
                1.3637571971137208,
                1.3956741799192236
            ]
        },
        {
            "positions": [
                -0.8971507938724824,
                -0.2652771649199909,
                -1.226611710586472,
                0.21753305154351657,
                1.312045538874029,
                1.4648685031252031
            ]
        },
        {
            "positions": [
                -0.8528075153539414,
                -0.3029817374896684,
                -1.088005351145363,
                0.17591953678029598,
                1.2603338806343374,
                1.5340628263311826
            ]
        },
        {
            "positions": [
                -0.8084642368354005,
                -0.3406863100593459,
                -0.9493989917042533,
                0.13430602201707537,
                1.2086222223946457,
                1.6032571495371621
            ]
        },
        {
            "positions": [
                -0.7641209583168596,
                -0.3783908826290234,
                -0.810792632263144,
                0.0926925072538548,
                1.156910564154954,
                1.6724514727431417
            ]
        },
        {
            "positions": [
                -0.7197776797983184,
                -0.41609545519870095,
                -0.6721862728220345,
                0.051078992490634134,
                1.1051989059152623,
                1.7416457959491212
            ]
        },
        {
            "positions": [
                -0.6754344012797775,
                -0.4538000277683784,
                -0.5335799133809251,
                0.009465477727413574,
                1.0534872476755706,
                1.8108401191551007
            ]
        },
        {
            "positions": [
                -0.6310911227612366,
                -0.4915046003380559,
                -0.3949735539398158,
                -0.03214803703580704,
                1.0017755894358789,
                1.8800344423610802
            ]
        },
        {
            "positions": [
                -0.5867478442426955,
                -0.5292091729077333,
                -0.2563671944987065,
                -0.0737615517990276,
                0.9500639311961872,
                1.9492287655670597
            ]
        },
        {
            "positions": [
                -0.5424045657241545,
                -0.5669137454774109,
                -0.11776083505759694,
                -0.11537506656224822,
                0.8983522729564954,
                2.018423088773039
            ]
        },
        {
            "positions": [
                -0.4980612872056136,
                -0.6046183180470883,
                0.020845524383512393,
                -0.15698858132546883,
                0.8466406147168037,
                2.0876174119790187
            ]
        },
        {
            "positions": [
                -0.4537180086870727,
                -0.642322890616766,
                0.15945188382462194,
                -0.19860209608868945,
                0.794928956477112,
                2.1568117351849985
            ]
        },
        {
            "positions": [
                -0.40937473016853165,
                -0.6800274631864434,
                0.29805824326573105,
                -0.24021561085190996,
                0.7432172982374203,
                2.2260060583909778
            ]
        },
        {
            "positions": [
                -0.36503145164999073,
                -0.7177320357561208,
                0.4366646027068406,
                -0.28182912561513057,
                0.6915056399977287,
                2.295200381596957
            ]
        },
        {
            "positions": [
                -0.3206881731314496,
                -0.7554366083257984,
                0.5752709621479501,
                -0.3234426403783513,
                0.6397939817580368,
                2.364394704802937
            ]
        },
        {
            "positions": [
                -0.2763448946129087,
                -0.7931411808954758,
                0.7138773215890593,
                -0.3650561551415719,
                0.5880823235183452,
                2.4335890280089165
            ]
        },
        {
            "positions": [
                -0.23200161609436765,
                -0.8308457534651534,
                0.8524836810301688,
                -0.4066696699047924,
                0.5363706652786535,
                2.502783351214896
            ]
        },
        {
            "positions": [
                -0.18765833757582673,
                -0.8685503260348308,
                0.9910900404712784,
                -0.44828318466801303,
                0.4846590070389618,
                2.571977674420875
            ]
        },
        {
            "positions": [
                -0.1433150590572858,
                -0.9062548986045083,
                1.1296963999123875,
                -0.48989669943123365,
                0.4329473487992701,
                2.641171997626855
            ]
        },
        {
            "positions": [
                -0.09897178053874489,
                -0.9439594711741859,
                1.268302759353497,
                -0.5315102141944541,
                0.3812356905595784,
                2.7103663208328346
            ]
        },
        {
            "positions": [
                -0.05462850202020375,
                -0.9816640437438633,
                1.4069091187946061,
                -0.5731237289576747,
                0.3295240323198867,
                2.779560644038814
            ]
        },
        {
            "positions": [
                -0.010285223501662832,
                -1.019368616313541,
                1.5455154782357157,
                -0.6147372437208953,
                0.277812374080195,
                2.848754967244793
            ]
        },
        {
            "positions": [
                0.03405805501687831,
                -1.0570731888832183,
                1.6841218376768252,
                -0.656350758484116,
                0.22610071584050329,
                2.917949290450773
            ]
        },
        {
            "positions": [
                0.07840133353541923,
                -1.094777761452896,
                1.8227281971179343,
                -0.6979642732473366,
                0.17438905760081158,
                2.9871436136567526
            ]
        },
        {
            "positions": [
                0.12274461205396006,
                -1.1324823340225734,
                1.961334556559044,
                -0.7395777880105573,
                0.1226773993611199,
                3.056337936862732
            ]
        }
    ]
}