{
    "goal": {
        "global_pose": {
            "orientation": {
                "w": 0.5084816217422485,
                "x": -0.49083608388900757,
                "y": 0.5182115435600281,
                "z": -0.4816462993621826
            },
            "position": {
                "x": 0.5540239810943604,
                "y": 0.030875300988554955,
                "z": 0.16403168439865112
            }
        },
        "name": "move_to_storage_A"
    },
    "id": "PRM_move_to_storage_A_56",
    "joint_names": [
        "shoulder_pan_joint",
        "shoulder_lift_joint",
        "elbow_joint",
        "wrist_1_joint",
        "wrist_2_joint",
        "wrist_3_joint"
    ],
    "metrics": {
        "cart_traj_len": 0.35301172592689556,
        "distance_elbow_joint": 0.4523874717594141,
        "distance_shoulder_lift_joint": 0.23400782573361445,
        "distance_shoulder_pan_joint": 0.45851436065096585,
        "distance_wrist_1_joint": 0.254766447037159,
        "distance_wrist_2_joint": 1.1120033198652055,
        "distance_wrist_3_joint": 0.09861794791385314,
        "smoothness": 1.2212453303493557e-15,
        "time": 0.026037774,
        "traj_len": 1.6156414741396719,
        "weighted_distance": 2.043111116824115
    },
    "planner": "PRM",
    "start": {
        "state": {
            "elbow_joint": 1.9715463870305268,
            "shoulder_lift_joint": -1.1394903361783484,
            "shoulder_pan_joint": 0.12281147578464417,
            "wrist_1_joint": -0.7804599489681411,
            "wrist_2_joint": 0.12958660307563738,
            "wrist_3_joint": -3.1924946282119055
        }
    },
    "waypoints": [
        {
            "positions": [
                0.12281147578464417,
                -1.1394903361783484,
                1.9715463870305268,
                -0.7804599489681411,
                0.12958660307563738,
                -3.1924946282119055
            ]
        },
        {
            "positions": [
                0.05730942426307763,
                -1.1729200255688648,
                2.036173168710443,
                -0.8168551556877353,
                0.28844422019923815,
                -3.178406349938498
            ]
        },
        {
            "positions": [
                -0.008192627258488919,
                -1.2063497149593811,
                2.100799950390359,
                -0.8532503624073293,
                0.4473018373228389,
                -3.1643180716650905
            ]
        },
        {
            "positions": [
                -0.07369467878005546,
                -1.2397794043498975,
                2.1654267320702756,
                -0.8896455691269235,
                0.6061594544464397,
                -3.150229793391683
            ]
        },
        {
            "positions": [
                -0.139196730301622,
                -1.2732090937404137,
                2.230053513750192,
                -0.9260407758465177,
                0.7650170715700405,
                -3.136141515118275
            ]
        },
        {
            "positions": [
                -0.20469878182318857,
                -1.30663878313093,
                2.2946802954301084,
                -0.9624359825661117,
                0.9238746886936413,
                -3.1220532368448675
            ]
        },
        {
            "positions": [
                -0.2702008333447551,
                -1.3400684725214465,
                2.3593070771100244,
                -0.9988311892857059,
                1.082732305817242,
                -3.10796495857146
            ]
        },
        {
            "positions": [
                -0.33570288486632166,
                -1.3734981619119628,
                2.423933858789941,
                -1.0352263960053,
                1.241589922940843,
                -3.0938766802980524
            ]
        }
    ]
}