{
    "goal": {
        "global_pose": {
            "orientation": {
                "w": -0.00223480608172531,
                "x": 0.0024358444001904467,
                "y": 0.7094548369677653,
                "z": -0.704743149386269
            },
            "position": {
                "x": 0.6205249238014221,
                "y": -0.6371506643295288,
                "z": 0.19426114857196808
            }
        },
        "name": "move_to_magneteinheit_B"
    },
    "id": "PRM_move_to_magneteinheit_B_41",
    "joint_names": [
        "shoulder_pan_joint",
        "shoulder_lift_joint",
        "elbow_joint",
        "wrist_1_joint",
        "wrist_2_joint",
        "wrist_3_joint"
    ],
    "metrics": {
        "cart_traj_len": 5.898216124436748,
        "distance_elbow_joint": 4.418047247779886,
        "distance_shoulder_lift_joint": 2.0121336517643647,
        "distance_shoulder_pan_joint": 7.370098801353393,
        "distance_wrist_1_joint": 2.470258950877801,
        "distance_wrist_2_joint": 3.2936163899040443,
        "distance_wrist_3_joint": 3.1721802763065856,
        "smoothness": 0.8532231250099589,
        "time": 0.7591850410000001,
        "traj_len": 4.768263344026427,
        "weighted_distance": 5.90292903662081
    },
    "planner": "PRM",
    "start": {
        "state": {
            "elbow_joint": 2.39358713078474,
            "shoulder_lift_joint": -1.908514104345545,
            "shoulder_pan_joint": 0.7066247066606129,
            "wrist_1_joint": -0.4678290933515497,
            "wrist_2_joint": 0.7096259083745334,
            "wrist_3_joint": -3.1358149277392293
        }
    },
    "waypoints": [
        {
            "positions": [
                0.7066247066606129,
                -1.908514104345545,
                2.39358713078474,
                -0.4678290933515497,
                0.7096259083745334,
                -3.1358149277392293
            ]
        },
        {
            "positions": [
                0.6158197230352489,
                -1.86877500807124,
                2.3140454517573046,
                -0.384514230372836,
                0.7228813619535464,
                -3.1137686070196304
            ]
        },
        {
            "positions": [
                0.525014739409885,
                -1.8290359117969353,
                2.234503772729869,
                -0.3011993673941223,
                0.7361368155325594,
                -3.091722286300031
            ]
        },
        {
            "positions": [
                0.5033684532264515,
                -1.973668836540627,
                2.2427511004284395,
                -0.32978814950686286,
                0.6367658948405727,
                -3.0481875735277093
            ]
        },
        {
            "positions": [
                0.48172216704301807,
                -2.1183017612843185,
                2.25099842812701,
                -0.35837693161960343,
                0.537394974148586,
                -3.004652860755387
            ]
        },
        {
            "positions": [
                0.37458408933483456,
                -2.0861462676442843,
                2.170621504601633,
                -0.35642903303241147,
                0.6078387585614918,
                -2.9133188964406775
            ]
        },
        {
            "positions": [
                0.267446011626651,
                -2.0539907740042502,
                2.0902445810762567,
                -0.3544811344452195,
                0.6782825429743977,
                -2.8219849321259685
            ]
        },
        {
            "positions": [
                0.16030793391846748,
                -2.021835280364216,
                2.0098676575508803,
                -0.35253323585802754,
                0.7487263273873036,
                -2.730650967811259
            ]
        },
        {
            "positions": [
                0.05316985621028392,
                -1.989679786724182,
                1.9294907340255034,
                -0.3505853372708355,
                0.8191701118002095,
                -2.63931700349655
            ]
        },
        {
            "positions": [
                -0.05396822149789959,
                -1.9575242930841479,
                1.8491138105001268,
                -0.34863743868364355,
                0.8896138962131153,
                -2.5479830391818403
            ]
        },
        {
            "positions": [
                -0.1611062992060831,
                -1.9253687994441138,
                1.7687368869747502,
                -0.3466895400964516,
                0.9600576806260213,
                -2.4566490748671312
            ]
        },
        {
            "positions": [
                -0.2682443769142666,
                -1.8932133058040796,
                1.6883599634493738,
                -0.3447416415092596,
                1.030501465038927,
                -2.3653151105524217
            ]
        },
        {
            "positions": [
                -0.37538245462245023,
                -1.8610578121640455,
                1.607983039923997,
                -0.34279374292206766,
                1.1009452494518328,
                -2.2739811462377126
            ]
        },
        {
            "positions": [
                -0.48252053233063374,
                -1.8289023185240114,
                1.5276061163986205,
                -0.3408458443348757,
                1.1713890338647388,
                -2.182647181923003
            ]
        },
        {
            "positions": [
                -0.5896586100388173,
                -1.7967468248839773,
                1.4472291928732437,
                -0.3388979457476837,
                1.2418328182776448,
                -2.0913132176082936
            ]
        },
        {
            "positions": [
                -0.6967966877470009,
                -1.7645913312439432,
                1.366852269347867,
                -0.3369500471604917,
                1.3122766026905506,
                -1.9999792532935845
            ]
        },
        {
            "positions": [
                -0.8039347654551843,
                -1.7324358376039093,
                1.2864753458224907,
                -0.33500214857329974,
                1.3827203871034563,
                -1.9086452889788752
            ]
        },
        {
            "positions": [
                -0.9110728431633679,
                -1.700280343963875,
                1.2060984222971138,
                -0.3330542499861078,
                1.4531641715163623,
                -1.817311324664166
            ]
        },
        {
            "positions": [
                -1.0182109208715513,
                -1.668124850323841,
                1.1257214987717374,
                -0.3311063513989158,
                1.5236079559292681,
                -1.7259773603494566
            ]
        },
        {
            "positions": [
                -1.125348998579735,
                -1.635969356683807,
                1.0453445752463608,
                -0.32915845281172385,
                1.5940517403421741,
                -1.6346433960347473
            ]
        },
        {
            "positions": [
                -1.2324870762879185,
                -1.6038138630437726,
                0.964967651720984,
                -0.3272105542245319,
                1.66449552475508,
                -1.5433094317200378
            ]
        },
        {
            "positions": [
                -1.339625153996102,
                -1.5716583694037387,
                0.8845907281956076,
                -0.3252626556373399,
                1.7349393091679859,
                -1.4519754674053285
            ]
        },
        {
            "positions": [
                -1.4467632317042856,
                -1.5395028757637046,
                0.804213804670231,
                -0.3233147570501479,
                1.8053830935808917,
                -1.3606415030906192
            ]
        },
        {
            "positions": [
                -1.5539013094124687,
                -1.5073473821236705,
                0.7238368811448543,
                -0.32136685846295593,
                1.8758268779937974,
                -1.2693075387759098
            ]
        },
        {
            "positions": [
                -1.6610393871206528,
                -1.4751918884836364,
                0.6434599576194777,
                -0.31941895987576396,
                1.9462706624067034,
                -1.1779735744612005
            ]
        },
        {
            "positions": [
                -1.5106227431534907,
                -1.492346348060137,
                0.5636213335067386,
                -0.2630125254920124,
                1.89558184609614,
                -1.1445770947044045
            ]
        },
        {
            "positions": [
                -1.3602060991863287,
                -1.5095008076366379,
                0.4837827093939995,
                -0.20660609110826075,
                1.8448930297855766,
                -1.1111806149476084
            ]
        },
        {
            "positions": [
                -1.2097894552191666,
                -1.5266552672131386,
                0.40394408528126036,
                -0.15019965672450916,
                1.7942042134750131,
                -1.0777841351908124
            ]
        },
        {
            "positions": [
                -1.0593728112520044,
                -1.5438097267896396,
                0.3241054611685213,
                -0.09379322234075754,
                1.7435153971644497,
                -1.0443876554340163
            ]
        },
        {
            "positions": [
                -0.9089561672848425,
                -1.5609641863661403,
                0.24426683705578217,
                -0.03738678795700595,
                1.6928265808538863,
                -1.0109911756772203
            ]
        },
        {
            "positions": [
                -0.7585395233176805,
                -1.578118645942641,
                0.16442821294304305,
                0.01901964642674564,
                1.6421377645433228,
                -0.9775946959204243
            ]
        },
        {
            "positions": [
                -0.6081228793505185,
                -1.5952731055191418,
                0.08458958883030399,
                0.07542608081049729,
                1.5914489482327594,
                -0.9441982161636282
            ]
        },
        {
            "positions": [
                -0.4577062353833563,
                -1.6124275650956426,
                0.004750964717564865,
                0.13183251519424888,
                1.540760131922196,
                -0.9108017364068322
            ]
        },
        {
            "positions": [
                -0.30728959141619416,
                -1.6295820246721433,
                -0.07508765939517437,
                0.18823894957800047,
                1.4900713156116323,
                -0.877405256650036
            ]
        },
        {
            "positions": [
                -0.15687294744903224,
                -1.646736484248644,
                -0.15492628350791338,
                0.24464538396175206,
                1.439382499301069,
                -0.84400877689324
            ]
        },
        {
            "positions": [
                -0.006456303481870096,
                -1.663890943825145,
                -0.2347649076206526,
                0.30105181834550376,
                1.3886936829905054,
                -0.8106122971364439
            ]
        },
        {
            "positions": [
                0.14396034048529183,
                -1.6810454034016455,
                -0.3146035317333916,
                0.35745825272925524,
                1.3380048666799422,
                -0.777215817379648
            ]
        },
        {
            "positions": [
                0.29437698445245397,
                -1.6981998629781465,
                -0.39444215584613085,
                0.41386468711300695,
                1.2873160503693786,
                -0.7438193376228518
            ]
        },
        {
            "positions": [
                0.4447936284196159,
                -1.7153543225546473,
                -0.47428077995886975,
                0.47027112149675854,
                1.2366272340588154,
                -0.7104228578660557
            ]
        },
        {
            "positions": [
                0.595210272386778,
                -1.732508782131148,
                -0.5541194040716091,
                0.5266775558805101,
                1.1859384177482517,
                -0.6770263781092597
            ]
        },
        {
            "positions": [
                0.7456269163539402,
                -1.7496632417076488,
                -0.633958028184348,
                0.5830839902642617,
                1.1352496014376885,
                -0.6436298983524636
            ]
        },
        {
            "positions": [
                0.8960435603211019,
                -1.7668177012841495,
                -0.7137966522970871,
                0.6394904246480133,
                1.084560785127125,
                -0.6102334185956676
            ]
        },
        {
            "positions": [
                1.0464602042882645,
                -1.7839721608606505,
                -0.7936352764098265,
                0.6958968590317649,
                1.0338719688165614,
                -0.5768369388388714
            ]
        },
        {
            "positions": [
                1.1968768482554262,
                -1.801126620437151,
                -0.8734739005225656,
                0.7523032934155165,
                0.9831831525059981,
                -0.5434404590820755
            ]
        },
        {
            "positions": [
                1.3472934922225883,
                -1.818281080013652,
                -0.9533125246353045,
                0.8087097277992681,
                0.9324943361954345,
                -0.5100439793252795
            ]
        },
        {
            "positions": [
                1.49771013618975,
                -1.8354355395901525,
                -1.0331511487480436,
                0.8651161621830197,
                0.8818055198848713,
                -0.4766474995684834
            ]
        },
        {
            "positions": [
                1.6481267801569126,
                -1.8525899991666535,
                -1.112989772860783,
                0.9215225965667715,
                0.8311167035743077,
                -0.44325101981168724
            ]
        },
        {
            "positions": [
                1.7985434241240748,
                -1.8697444587431542,
                -1.1928283969735218,
                0.9779290309505231,
                0.7804278872637442,
                -0.4098545400548912
            ]
        },
        {
            "positions": [
                1.9489600680912365,
                -1.886898918319655,
                -1.272667021086261,
                1.0343354653342745,
                0.7297390709531808,
                -0.37645806029809525
            ]
        },
        {
            "positions": [
                2.0993767120583984,
                -1.9040533778961557,
                -1.352505645199,
                1.090741899718026,
                0.6790502546426176,
                -0.3430615805412992
            ]
        },
        {
            "positions": [
                2.2497933560255605,
                -1.9212078374726564,
                -1.4323442693117394,
                1.1471483341017779,
                0.6283614383320539,
                -0.30966510078450304
            ]
        },
        {
            "positions": [
                2.4002099999927227,
                -1.9383622970491574,
                -1.5121828934244783,
                1.2035547684855294,
                0.5776726220214905,
                -0.276268621027707
            ]
        },
        {
            "positions": [
                2.550626643959885,
                -1.955516756625658,
                -1.5920215175372172,
                1.259961202869281,
                0.5269838057109271,
                -0.24287214127091095
            ]
        },
        {
            "positions": [
                2.701043287927047,
                -1.972671216202159,
                -1.6718601416499566,
                1.3163676372530324,
                0.47629498940036363,
                -0.209475661514115
            ]
        },
        {
            "positions": [
                2.851459931894209,
                -1.9898256757786597,
                -1.751698765762696,
                1.3727740716367842,
                0.4256061730898002,
                -0.17607918175731885
            ]
        },
        {
            "positions": [
                3.0018765758613712,
                -2.0069801353551604,
                -1.8315373898754348,
                1.4291805060205358,
                0.3749173567792368,
                -0.14268270200052274
            ]
        },
        {
            "positions": [
                2.9339728269433505,
                -2.1006784333663937,
                -1.7995507066103487,
                1.3374016614095852,
                0.39254428627452903,
                -0.10687309188694685
            ]
        },
        {
            "positions": [
                2.8660690780253297,
                -2.1943767313776266,
                -1.7675640233452625,
                1.2456228167986345,
                0.41017121576982124,
                -0.07106348177337095
            ]
        },
        {
            "positions": [
                2.798165329107309,
                -2.28807502938886,
                -1.7355773400801764,
                1.1538439721876839,
                0.4277981452651135,
                -0.03525387165979506
            ]
        },
        {
            "positions": [
                2.730261580189288,
                -2.3817733274000927,
                -1.7035906568150903,
                1.0620651275767332,
                0.4454250747604057,
                0.0005557384537808463
            ]
        },
        {
            "positions": [
                2.6623578312712675,
                -2.475471625411326,
                -1.6716039735500041,
                0.9702862829657826,
                0.4630520042556979,
                0.03636534856735674
            ]
        }
    ]
}