{
    "goal": {
        "global_pose": {
            "orientation": {
                "w": 0.5084816217422485,
                "x": -0.49083608388900757,
                "y": 0.5182115435600281,
                "z": -0.4816462993621826
            },
            "position": {
                "x": 0.5540239810943604,
                "y": 0.030875300988554955,
                "z": 0.16403168439865112
            }
        },
        "name": "move_to_storage_A"
    },
    "id": "PRM_move_to_storage_A_41",
    "joint_names": [
        "shoulder_pan_joint",
        "shoulder_lift_joint",
        "elbow_joint",
        "wrist_1_joint",
        "wrist_2_joint",
        "wrist_3_joint"
    ],
    "metrics": {
        "cart_traj_len": 0.3535637465138127,
        "distance_elbow_joint": 0.4513991569259779,
        "distance_shoulder_lift_joint": 0.23336057865453252,
        "distance_shoulder_pan_joint": 0.46070262672315115,
        "distance_wrist_1_joint": 0.24823816188944903,
        "distance_wrist_2_joint": 1.1066255209403115,
        "distance_wrist_3_joint": 0.09065832262330709,
        "smoothness": 1.4432899335161698e-15,
        "time": 0.031952068,
        "traj_len": 1.6096534930713284,
        "weighted_distance": 2.031542442537961
    },
    "planner": "PRM",
    "start": {
        "state": {
            "elbow_joint": 1.9715463870305268,
            "shoulder_lift_joint": -1.1394903361783484,
            "shoulder_pan_joint": 0.12281147578464417,
            "wrist_1_joint": -0.7804599489681411,
            "wrist_2_joint": 0.12958660307563738,
            "wrist_3_joint": -3.1924946282119055
        }
    },
    "waypoints": [
        {
            "positions": [
                0.12281147578464417,
                -1.1394903361783484,
                1.9715463870305268,
                -0.7804599489681411,
                0.12958660307563738,
                -3.1924946282119055
            ]
        },
        {
            "positions": [
                0.05699681482419401,
                -1.1728275617004245,
                2.036031980877095,
                -0.8159225435237767,
                0.2876759632099676,
                -3.1795434392657187
            ]
        },
        {
            "positions": [
                -0.00881784613625615,
                -1.2061647872225005,
                2.1005175747236633,
                -0.8513851380794122,
                0.44576532334429775,
                -3.1665922503195323
            ]
        },
        {
            "positions": [
                -0.07463250709670631,
                -1.2395020127445766,
                2.1650031685702316,
                -0.8868477326350478,
                0.603854683478628,
                -3.1536410613733454
            ]
        },
        {
            "positions": [
                -0.14044716805715646,
                -1.2728392382666527,
                2.2294887624168,
                -0.9223103271906834,
                0.7619440436129582,
                -3.1406898724271586
            ]
        },
        {
            "positions": [
                -0.20626182901760665,
                -1.3061764637887288,
                2.293974356263368,
                -0.9577729217463189,
                0.9200334037472885,
                -3.1277386834809717
            ]
        },
        {
            "positions": [
                -0.2720764899780568,
                -1.3395136893108048,
                2.3584599501099364,
                -0.9932355163019545,
                1.0781227638816187,
                -3.1147874945347853
            ]
        },
        {
            "positions": [
                -0.33789115093850697,
                -1.372850914832881,
                2.4229455439565046,
                -1.02869811085759,
                1.236212124015949,
                -3.1018363055885985
            ]
        }
    ]
}