{
    "goal": {
        "global_pose": {
            "orientation": {
                "w": 0.7031023502349854,
                "x": -0.7110244035720825,
                "y": 0.007748599164187908,
                "z": 0.005598929710686207
            },
            "position": {
                "x": 0.11585023208521307,
                "y": 0.44412534475326537,
                "z": 0.3711530566215515
            }
        },
        "name": "move_to_auspresseinheit_A"
    },
    "id": "PRM_move_to_auspresseinheit_A_30",
    "joint_names": [
        "shoulder_pan_joint",
        "shoulder_lift_joint",
        "elbow_joint",
        "wrist_1_joint",
        "wrist_2_joint",
        "wrist_3_joint"
    ],
    "metrics": {
        "cart_traj_len": 3.1796837779406744,
        "distance_elbow_joint": 3.66717395074286,
        "distance_shoulder_lift_joint": 1.0097634152064132,
        "distance_shoulder_pan_joint": 1.0412078973039485,
        "distance_wrist_1_joint": 2.404720654579095,
        "distance_wrist_2_joint": 3.3180750312557414,
        "distance_wrist_3_joint": 7.417883288893536,
        "smoothness": 0.38770518792386116,
        "time": 0.25311015,
        "traj_len": 4.342674779209423,
        "weighted_distance": 6.27832672784744
    },
    "planner": "PRM",
    "start": {
        "state": {
            "elbow_joint": 2.422574709923281,
            "shoulder_lift_joint": -1.3736533754116391,
            "shoulder_pan_joint": -0.33786336945926293,
            "wrist_1_joint": -1.0288603412921917,
            "wrist_2_joint": 1.2330224858903978,
            "wrist_3_joint": -3.094022268022082
        }
    },
    "waypoints": [
        {
            "positions": [
                -0.33786336945926293,
                -1.3736533754116391,
                2.422574709923281,
                -1.0288603412921917,
                1.2330224858903978,
                -3.094022268022082
            ]
        },
        {
            "positions": [
                -0.30473927625965597,
                -1.3992964180996053,
                2.3433753437430593,
                -1.0691811514978686,
                1.1622519808760192,
                -2.9556604122297685
            ]
        },
        {
            "positions": [
                -0.271615183060049,
                -1.4249394607875714,
                2.264175977562838,
                -1.1095019617035458,
                1.0914814758616407,
                -2.8172985564374553
            ]
        },
        {
            "positions": [
                -0.23849108986044204,
                -1.4505825034755375,
                2.1849766113826163,
                -1.1498227719092227,
                1.020710970847262,
                -2.678936700645142
            ]
        },
        {
            "positions": [
                -0.20536699666083505,
                -1.4762255461635037,
                2.1057772452023946,
                -1.1901435821148998,
                0.9499404658328834,
                -2.5405748448528285
            ]
        },
        {
            "positions": [
                -0.1722429034612281,
                -1.5018685888514698,
                2.026577879022173,
                -1.2304643923205767,
                0.8791699608185048,
                -2.402212989060515
            ]
        },
        {
            "positions": [
                -0.13911881026162112,
                -1.527511631539436,
                1.9473785128419516,
                -1.2707852025262538,
                0.8083994558041263,
                -2.2638511332682016
            ]
        },
        {
            "positions": [
                -0.10599471706201413,
                -1.553154674227402,
                1.86817914666173,
                -1.3111060127319307,
                0.7376289507897476,
                -2.125489277475888
            ]
        },
        {
            "positions": [
                -0.07287062386240717,
                -1.5787977169153682,
                1.7889797804815084,
                -1.3514268229376079,
                0.6668584457753691,
                -1.9871274216835748
            ]
        },
        {
            "positions": [
                -0.039746530662800206,
                -1.6044407596033343,
                1.709780414301287,
                -1.3917476331432848,
                0.5960879407609905,
                -1.8487655658912612
            ]
        },
        {
            "positions": [
                -0.0066224374631932426,
                -1.6300838022913005,
                1.6305810481210652,
                -1.4320684433489619,
                0.5253174357466119,
                -1.710403710098948
            ]
        },
        {
            "positions": [
                0.02650165573641372,
                -1.6557268449792666,
                1.5513816819408435,
                -1.4723892535546388,
                0.4545469307322333,
                -1.5720418543066343
            ]
        },
        {
            "positions": [
                0.059625748936020684,
                -1.6813698876672327,
                1.4721823157606222,
                -1.512710063760316,
                0.38377642571785475,
                -1.4336799985143212
            ]
        },
        {
            "positions": [
                0.09274984213562765,
                -1.7070129303551989,
                1.3929829495804005,
                -1.5530308739659928,
                0.3130059207034762,
                -1.2953181427220077
            ]
        },
        {
            "positions": [
                0.12587393533523467,
                -1.7326559730431652,
                1.3137835834001788,
                -1.59335168417167,
                0.24223541568909746,
                -1.156956286929694
            ]
        },
        {
            "positions": [
                0.15899802853484157,
                -1.7582990157311313,
                1.2345842172199573,
                -1.6336724943773469,
                0.17146491067471903,
                -1.0185944311373807
            ]
        },
        {
            "positions": [
                0.1921221217344486,
                -1.7839420584190975,
                1.1553848510397358,
                -1.673993304583024,
                0.10069440566034049,
                -0.8802325753450675
            ]
        },
        {
            "positions": [
                0.22524621493405544,
                -1.8095851011070634,
                1.0761854848595143,
                -1.7143141147887009,
                0.029923900645961954,
                -0.7418707195527539
            ]
        },
        {
            "positions": [
                0.2583703081336625,
                -1.8352281437950297,
                0.9969861186792925,
                -1.7546349249943778,
                -0.040846604368416806,
                -0.6035088637604402
            ]
        },
        {
            "positions": [
                0.2914944013332695,
                -1.8608711864829959,
                0.917786752499071,
                -1.794955735200055,
                -0.11161710938279534,
                -0.465147007968127
            ]
        },
        {
            "positions": [
                0.32461849453287644,
                -1.886514229170962,
                0.8385873863188493,
                -1.835276545405732,
                -0.18238761439717388,
                -0.32678515217581383
            ]
        },
        {
            "positions": [
                0.3577425877324834,
                -1.9121572718589281,
                0.7593880201386278,
                -1.875597355611409,
                -0.2531581194115524,
                -0.1884232963835002
            ]
        },
        {
            "positions": [
                0.39086668093209037,
                -1.9378003145468943,
                0.6801886539584061,
                -1.9159181658170858,
                -0.3239286244259312,
                -0.05006144059118656
            ]
        },
        {
            "positions": [
                0.4239907741316974,
                -1.9634433572348604,
                0.6009892877781846,
                -1.956238976022763,
                -0.3946991294403096,
                0.08830041520112641
            ]
        },
        {
            "positions": [
                0.43631524771362673,
                -1.986325423772235,
                0.8060240729125537,
                -1.9361427896604582,
                -0.4320677290507796,
                0.15261383576236953
            ]
        },
        {
            "positions": [
                0.448639721295556,
                -2.0092074903096098,
                1.0110588580469229,
                -1.9160466032981534,
                -0.4694363286612496,
                0.21692725632361265
            ]
        },
        {
            "positions": [
                0.4609641948774853,
                -2.0320895568469846,
                1.216093643181292,
                -1.8959504169358485,
                -0.5068049282717196,
                0.28124067688485577
            ]
        },
        {
            "positions": [
                0.47328866845941464,
                -2.054971623384359,
                1.421128428315661,
                -1.8758542305735437,
                -0.5441735278821898,
                0.3455540974460989
            ]
        },
        {
            "positions": [
                0.485613142041344,
                -2.0778536899217337,
                1.6261632134500301,
                -1.855758044211239,
                -0.5815421274926598,
                0.409867518007342
            ]
        },
        {
            "positions": [
                0.49793761562327327,
                -2.1007357564591085,
                1.8311979985843994,
                -1.835661857848934,
                -0.6189107271031298,
                0.4741809385685851
            ]
        },
        {
            "positions": [
                0.5102620892052026,
                -2.123617822996483,
                2.0362327837187686,
                -1.8155656714866293,
                -0.6562793267135998,
                0.5384943591298282
            ]
        },
        {
            "positions": [
                0.5225865627871319,
                -2.1464998895338576,
                2.2412675688531376,
                -1.7954694851243245,
                -0.6936479263240698,
                0.6028077796910714
            ]
        },
        {
            "positions": [
                0.5321577327280942,
                -2.1344752193627756,
                2.254082928731074,
                -1.7250497493996448,
                -0.6199253925903555,
                0.40583345029408313
            ]
        },
        {
            "positions": [
                0.5417289026690565,
                -2.1224505491916936,
                2.266898288609011,
                -1.6546300136749652,
                -0.5462028588566412,
                0.20885912089709496
            ]
        },
        {
            "positions": [
                0.5513000726100187,
                -2.1104258790206116,
                2.279713648486948,
                -1.5842102779502856,
                -0.4724803251229269,
                0.011884791500106795
            ]
        },
        {
            "positions": [
                0.560871242550981,
                -2.0984012088495296,
                2.292529008364885,
                -1.513790542225606,
                -0.39875779138921263,
                -0.18508953789688143
            ]
        },
        {
            "positions": [
                0.5704424124919433,
                -2.0863765386784476,
                2.3053443682428214,
                -1.4433708065009263,
                -0.32503525765549834,
                -0.38206386729386965
            ]
        },
        {
            "positions": [
                0.5800135824329056,
                -2.0743518685073656,
                2.3181597281207584,
                -1.3729510707762467,
                -0.25131272392178405,
                -0.5790381966908578
            ]
        },
        {
            "positions": [
                0.5895847523738678,
                -2.062327198336284,
                2.330975087998695,
                -1.3025313350515668,
                -0.17759019018806976,
                -0.7760125260878461
            ]
        },
        {
            "positions": [
                0.5991559223148301,
                -2.050302528165202,
                2.3437904478766316,
                -1.2321115993268874,
                -0.10386765645435547,
                -0.9729868554848342
            ]
        },
        {
            "positions": [
                0.6087270922557924,
                -2.03827785799412,
                2.3566058077545686,
                -1.1616918636022076,
                -0.030145122720641182,
                -1.1699611848818225
            ]
        },
        {
            "positions": [
                0.6182982621967547,
                -2.026253187823038,
                2.369421167632505,
                -1.091272127877528,
                0.04357741101307311,
                -1.3669355142788107
            ]
        },
        {
            "positions": [
                0.627869432137717,
                -2.014228517651956,
                2.3822365275104422,
                -1.0208523921528483,
                0.1172999447467874,
                -1.563909843675799
            ]
        },
        {
            "positions": [
                0.6374406020786791,
                -2.002203847480874,
                2.395051887388379,
                -0.9504326564281687,
                0.1910224784805017,
                -1.7608841730727869
            ]
        },
        {
            "positions": [
                0.6470117720196414,
                -1.990179177309792,
                2.407867247266316,
                -0.8800129207034889,
                0.264745012214216,
                -1.9578585024697752
            ]
        },
        {
            "positions": [
                0.6565829419606037,
                -1.97815450713871,
                2.4206826071442524,
                -0.8095931849788093,
                0.3384675459479303,
                -2.1548328318667638
            ]
        },
        {
            "positions": [
                0.66593525913742,
                -1.9644402034009008,
                2.4155035652979135,
                -0.7434539392178952,
                0.4103253753017855,
                -2.347515357791274
            ]
        },
        {
            "positions": [
                0.6752875763142364,
                -1.9507258996630912,
                2.410324523451574,
                -0.6773146934569811,
                0.48218320465564063,
                -2.540197883715784
            ]
        },
        {
            "positions": [
                0.6846398934910527,
                -1.9370115959252818,
                2.4051454816052353,
                -0.6111754476960671,
                0.5540410340094958,
                -2.732880409640294
            ]
        },
        {
            "positions": [
                0.6939922106678691,
                -1.9232972921874723,
                2.399966439758896,
                -0.545036201935153,
                0.6258988633633509,
                -2.925562935564804
            ]
        },
        {
            "positions": [
                0.7033445278446854,
                -1.909582988449663,
                2.394787397912557,
                -0.47889695617423894,
                0.6977566927172061,
                -3.1182454614893143
            ]
        }
    ]
}