{
    "goal": {
        "global_pose": {
            "orientation": {
                "w": 0.7031023502349854,
                "x": -0.7110244035720825,
                "y": 0.007748599164187908,
                "z": 0.005598929710686207
            },
            "position": {
                "x": 0.11585023208521307,
                "y": 0.44412534475326537,
                "z": 0.3711530566215515
            }
        },
        "name": "move_to_auspresseinheit_A"
    },
    "id": "PRM_move_to_auspresseinheit_A_90",
    "joint_names": [
        "shoulder_pan_joint",
        "shoulder_lift_joint",
        "elbow_joint",
        "wrist_1_joint",
        "wrist_2_joint",
        "wrist_3_joint"
    ],
    "metrics": {
        "cart_traj_len": 0.7166085928574019,
        "distance_elbow_joint": 0.3392913551935317,
        "distance_shoulder_lift_joint": 0.5352026965942578,
        "distance_shoulder_pan_joint": 1.0414064285304105,
        "distance_wrist_1_joint": 2.2179803132425415,
        "distance_wrist_2_joint": 1.365406991034618,
        "distance_wrist_3_joint": 1.3183452723509643,
        "smoothness": 1.2874859149107298,
        "time": 0.07582201699999999,
        "traj_len": 2.611059757444537,
        "weighted_distance": 3.6107770501549132
    },
    "planner": "PRM",
    "start": {
        "state": {
            "elbow_joint": 2.422574709923281,
            "shoulder_lift_joint": -1.3736533754116391,
            "shoulder_pan_joint": -0.33786336945926293,
            "wrist_1_joint": -1.0288603412921917,
            "wrist_2_joint": 1.2330224858903978,
            "wrist_3_joint": -3.094022268022082
        }
    },
    "waypoints": [
        {
            "positions": [
                -0.33786336945926293,
                -1.3736533754116391,
                2.422574709923281,
                -1.0288603412921917,
                1.2330224858903978,
                -3.094022268022082
            ]
        },
        {
            "positions": [
                -0.2734090747804365,
                -1.4101823500921629,
                2.405762478233973,
                -0.9023568701413172,
                1.1467444299882918,
                -3.036278240521359
            ]
        },
        {
            "positions": [
                -0.2089547801016101,
                -1.4467113247726868,
                2.3889502465446655,
                -0.7758533989904426,
                1.0604663740861862,
                -2.9785342130206365
            ]
        },
        {
            "positions": [
                -0.14450048542278368,
                -1.4832402994532106,
                2.3721380148553575,
                -0.6493499278395682,
                0.9741883181840802,
                -2.9207901855199134
            ]
        },
        {
            "positions": [
                -0.08004619074395725,
                -1.5197692741337345,
                2.35532578316605,
                -0.5228464566886936,
                0.8879102622819744,
                -2.8630461580191904
            ]
        },
        {
            "positions": [
                -0.01559189606513084,
                -1.5562982488142583,
                2.338513551476742,
                -0.3963429855378191,
                0.8016322063798687,
                -2.8053021305184673
            ]
        },
        {
            "positions": [
                0.04886239861369557,
                -1.5928272234947822,
                2.3217013197874343,
                -0.26983951438694465,
                0.7153541504777629,
                -2.7475581030177447
            ]
        },
        {
            "positions": [
                0.11331669329252203,
                -1.629356198175306,
                2.3048890880981263,
                -0.14333604323607008,
                0.629076094575657,
                -2.6898140755170217
            ]
        },
        {
            "positions": [
                0.17777098797134844,
                -1.66588517285583,
                2.2880768564088187,
                -0.016832572085195396,
                0.5427980386735511,
                -2.6320700480162986
            ]
        },
        {
            "positions": [
                0.2422252826501749,
                -1.7024141475363537,
                2.2712646247195107,
                0.10967089906567917,
                0.45651998277144534,
                -2.574326020515576
            ]
        },
        {
            "positions": [
                0.30667957732900125,
                -1.7389431222168774,
                2.254452393030203,
                0.23617437021655352,
                0.37024192686933954,
                -2.516581993014853
            ]
        },
        {
            "positions": [
                0.37113387200782766,
                -1.7754720968974014,
                2.237640161340895,
                0.36267784136742814,
                0.28396387096723374,
                -2.45883796551413
            ]
        },
        {
            "positions": [
                0.4186208987311591,
                -1.7945269504843293,
                2.259691133713916,
                0.24461467985558216,
                0.3434422104117272,
                -2.5564323897774175
            ]
        },
        {
            "positions": [
                0.46610792545449053,
                -1.8135818040712572,
                2.281742106086937,
                0.12655151834373618,
                0.4029205498562206,
                -2.6540268140407046
            ]
        },
        {
            "positions": [
                0.513594952177822,
                -1.8326366576581852,
                2.303793078459958,
                0.008488356831890198,
                0.46239888930071404,
                -2.751621238303992
            ]
        },
        {
            "positions": [
                0.5610819789011534,
                -1.851691511245113,
                2.3258440508329783,
                -0.10957480467995578,
                0.5218772287452076,
                -2.8492156625672798
            ]
        },
        {
            "positions": [
                0.6085690056244849,
                -1.870746364832041,
                2.347895023205999,
                -0.22763796619180182,
                0.581355568189701,
                -2.9468100868305673
            ]
        },
        {
            "positions": [
                0.6560560323478164,
                -1.889801218418969,
                2.36994599557902,
                -0.34570112770364775,
                0.6408339076341945,
                -3.0444045110938545
            ]
        },
        {
            "positions": [
                0.7035430590711478,
                -1.908856072005897,
                2.391996967952041,
                -0.4637642892154938,
                0.7003122470786879,
                -3.141998935357142
            ]
        }
    ]
}