{
    "goal": {
        "global_pose": {
            "orientation": {
                "w": 0.7047431468963623,
                "x": -0.7094548344612122,
                "y": 0.0024358443915843964,
                "z": -0.0022348060738295317
            },
            "position": {
                "x": 0.6094750761985779,
                "y": 0.3671506643295288,
                "z": 0.19426114857196808
            }
        },
        "name": "move_to_magneteinheit_A"
    },
    "id": "PRM_move_to_magneteinheit_A_8",
    "joint_names": [
        "shoulder_pan_joint",
        "shoulder_lift_joint",
        "elbow_joint",
        "wrist_1_joint",
        "wrist_2_joint",
        "wrist_3_joint"
    ],
    "metrics": {
        "cart_traj_len": 2.069778537779755,
        "distance_elbow_joint": 3.898738618704151,
        "distance_shoulder_lift_joint": 1.0668445096289583,
        "distance_shoulder_pan_joint": 1.2421942196966813,
        "distance_wrist_1_joint": 1.2409803789043758,
        "distance_wrist_2_joint": 1.4413615095106653,
        "distance_wrist_3_joint": 2.002377891778149,
        "smoothness": 5.512831580310795e-16,
        "time": 0.035184949,
        "traj_len": 3.3003783310740267,
        "weighted_distance": 4.192802738049372
    },
    "planner": "PRM",
    "start": {
        "state": {
            "elbow_joint": -1.919643507792019,
            "shoulder_lift_joint": -0.07675430207160344,
            "shoulder_pan_joint": -1.1188671864651873,
            "wrist_1_joint": 0.42560062535961957,
            "wrist_2_joint": 1.5706038300724876,
            "wrist_3_joint": 1.1188968870953055
        }
    },
    "waypoints": [
        {
            "positions": [
                -1.1188671864651873,
                -0.07675430207160344,
                -1.919643507792019,
                0.42560062535961957,
                1.5706038300724876,
                1.1188968870953055
            ]
        },
        {
            "positions": [
                -1.074503107190306,
                -0.11485589170120909,
                -1.7804028428382994,
                0.3812798975416061,
                1.5191266333042495,
                1.1904103832302395
            ]
        },
        {
            "positions": [
                -1.0301390279154243,
                -0.15295748133081474,
                -1.6411621778845797,
                0.33695916972359274,
                1.4676494365360115,
                1.2619238793651733
            ]
        },
        {
            "positions": [
                -0.9857749486405429,
                -0.1910590709604204,
                -1.50192151293086,
                0.2926384419055793,
                1.4161722397677734,
                1.3334373755001072
            ]
        },
        {
            "positions": [
                -0.9414108693656614,
                -0.22916066059002604,
                -1.3626808479771404,
                0.2483177140875659,
                1.3646950429995355,
                1.4049508716350412
            ]
        },
        {
            "positions": [
                -0.8970467900907799,
                -0.2672622502196317,
                -1.2234401830234207,
                0.20399698626955245,
                1.3132178462312973,
                1.476464367769975
            ]
        },
        {
            "positions": [
                -0.8526827108158985,
                -0.3053638398492373,
                -1.084199518069701,
                0.15967625845153904,
                1.2617406494630594,
                1.5479778639049089
            ]
        },
        {
            "positions": [
                -0.808318631541017,
                -0.343465429478843,
                -0.9449588531159814,
                0.1153555306335256,
                1.2102634526948213,
                1.6194913600398428
            ]
        },
        {
            "positions": [
                -0.7639545522661355,
                -0.38156701910844865,
                -0.8057181881622617,
                0.07103480281551222,
                1.1587862559265831,
                1.6910048561747768
            ]
        },
        {
            "positions": [
                -0.7195904729912541,
                -0.41966860873805434,
                -0.666477523208542,
                0.026714074997498727,
                1.1073090591583452,
                1.7625183523097108
            ]
        },
        {
            "positions": [
                -0.6752263937163726,
                -0.45777019836766,
                -0.5272368582548224,
                -0.017606652820514657,
                1.055831862390107,
                1.8340318484446445
            ]
        },
        {
            "positions": [
                -0.6308623144414911,
                -0.4958717879972656,
                -0.3879961933011027,
                -0.061927380638528096,
                1.0043546656218691,
                1.9055453445795785
            ]
        },
        {
            "positions": [
                -0.5864982351666097,
                -0.5339733776268712,
                -0.24875552834738301,
                -0.10624810845654148,
                0.9528774688536311,
                1.9770588407145122
            ]
        },
        {
            "positions": [
                -0.5421341558917282,
                -0.5720749672564769,
                -0.10951486339366334,
                -0.15056883627455492,
                0.901400272085393,
                2.048572336849446
            ]
        },
        {
            "positions": [
                -0.4977700766168467,
                -0.6101765568860826,
                0.02972580156005633,
                -0.19488956409256836,
                0.8499230753171549,
                2.12008583298438
            ]
        },
        {
            "positions": [
                -0.4534059973419652,
                -0.6482781465156882,
                0.168966466513776,
                -0.2392102919105818,
                0.7984458785489169,
                2.191599329119314
            ]
        },
        {
            "positions": [
                -0.4090419180670838,
                -0.6863797361452939,
                0.3082071314674957,
                -0.2835310197285951,
                0.7469686817806789,
                2.2631128252542476
            ]
        },
        {
            "positions": [
                -0.3646778387922023,
                -0.7244813257748994,
                0.44744779642121535,
                -0.32785174754660856,
                0.6954914850124408,
                2.334626321389182
            ]
        },
        {
            "positions": [
                -0.3203137595173208,
                -0.7625829154045052,
                0.586688461374935,
                -0.3721724753646221,
                0.6440142882442027,
                2.4061398175241155
            ]
        },
        {
            "positions": [
                -0.27594968024243927,
                -0.8006845050341109,
                0.7259291263286547,
                -0.41649320318263555,
                0.5925370914759647,
                2.47765331365905
            ]
        },
        {
            "positions": [
                -0.23158560096755787,
                -0.8387860946637165,
                0.8651697912823744,
                -0.4608139310006489,
                0.5410598947077265,
                2.5491668097939835
            ]
        },
        {
            "positions": [
                -0.18722152169267636,
                -0.8768876842933222,
                1.004410456236094,
                -0.5051346588186623,
                0.4895826979394886,
                2.6206803059289174
            ]
        },
        {
            "positions": [
                -0.14285744241779486,
                -0.9149892739229277,
                1.1436511211898137,
                -0.5494553866366758,
                0.4381055011712507,
                2.6921938020638514
            ]
        },
        {
            "positions": [
                -0.09849336314291346,
                -0.9530908635525335,
                1.2828917861435334,
                -0.5937761144546891,
                0.38662830440301255,
                2.763707298198785
            ]
        },
        {
            "positions": [
                -0.05412928386803206,
                -0.991192453182139,
                1.422132451097253,
                -0.6380968422727025,
                0.3351511076347746,
                2.8352207943337193
            ]
        },
        {
            "positions": [
                -0.009765204593150445,
                -1.0292940428117447,
                1.5613731160509727,
                -0.682417570090716,
                0.28367391086653626,
                2.906734290468653
            ]
        },
        {
            "positions": [
                0.03459887468173095,
                -1.0673956324413505,
                1.7006137810046924,
                -0.7267382979087293,
                0.23219671409829834,
                2.9782477866035872
            ]
        },
        {
            "positions": [
                0.07896295395661257,
                -1.1054972220709562,
                1.839854445958412,
                -0.7710590257267429,
                0.1807195173300602,
                3.0497612827385208
            ]
        },
        {
            "positions": [
                0.12332703323149394,
                -1.1435988117005618,
                1.9790951109121315,
                -0.8153797535447563,
                0.1292423205618224,
                3.1212747788734547
            ]
        }
    ]
}