{
    "goal": {
        "global_pose": {
            "orientation": {
                "w": -0.00223480608172531,
                "x": 0.0024358444001904467,
                "y": 0.7094548369677653,
                "z": -0.704743149386269
            },
            "position": {
                "x": 0.6205249238014221,
                "y": -0.6371506643295288,
                "z": 0.19426114857196808
            }
        },
        "name": "move_to_magneteinheit_B"
    },
    "id": "PRM_move_to_magneteinheit_B_70",
    "joint_names": [
        "shoulder_pan_joint",
        "shoulder_lift_joint",
        "elbow_joint",
        "wrist_1_joint",
        "wrist_2_joint",
        "wrist_3_joint"
    ],
    "metrics": {
        "cart_traj_len": 3.992367855039033,
        "distance_elbow_joint": 4.047435101928594,
        "distance_shoulder_lift_joint": 0.6090464738697206,
        "distance_shoulder_pan_joint": 2.887557743927538,
        "distance_wrist_1_joint": 3.409272869829469,
        "distance_wrist_2_joint": 1.215737658846774,
        "distance_wrist_3_joint": 6.546504828596198,
        "smoothness": 0.6251696312909506,
        "time": 0.737131004,
        "traj_len": 4.326147787235001,
        "weighted_distance": 6.036023099928208
    },
    "planner": "PRM",
    "start": {
        "state": {
            "elbow_joint": 2.39358713078474,
            "shoulder_lift_joint": -1.908514104345545,
            "shoulder_pan_joint": 0.7066247066606129,
            "wrist_1_joint": -0.4678290933515497,
            "wrist_2_joint": 0.7096259083745334,
            "wrist_3_joint": -3.1358149277392293
        }
    },
    "waypoints": [
        {
            "positions": [
                0.7066247066606129,
                -1.908514104345545,
                2.39358713078474,
                -0.4678290933515497,
                0.7096259083745334,
                -3.1358149277392293
            ]
        },
        {
            "positions": [
                0.6375067262343498,
                -1.899182922339799,
                2.372411260283868,
                -0.3819689698884808,
                0.6511738109956225,
                -3.0054278010227677
            ]
        },
        {
            "positions": [
                0.5683887458080866,
                -1.8898517403340527,
                2.351235389782995,
                -0.2961088464254119,
                0.5927217136167117,
                -2.875040674306306
            ]
        },
        {
            "positions": [
                0.49927076538182347,
                -1.8805205583283067,
                2.330059519282123,
                -0.21024872296234298,
                0.5342696162378009,
                -2.744653547589844
            ]
        },
        {
            "positions": [
                0.43015278495556025,
                -1.8711893763225604,
                2.3088836487812503,
                -0.12438859949927406,
                0.47581751885889,
                -2.6142664208733826
            ]
        },
        {
            "positions": [
                0.3610348045292971,
                -1.8618581943168144,
                2.287707778280378,
                -0.038528476036205156,
                0.4173654214799791,
                -2.483879294156921
            ]
        },
        {
            "positions": [
                0.3007219158572588,
                -1.854234078853569,
                2.257886942925869,
                0.04499193892918009,
                0.3571214672996026,
                -2.3409357136561377
            ]
        },
        {
            "positions": [
                0.2404090271852206,
                -1.8466099633903235,
                2.2280661075713604,
                0.12851235389456533,
                0.29687751311922606,
                -2.1979921331553545
            ]
        },
        {
            "positions": [
                0.2819362290445442,
                -1.8524628493303483,
                2.141909521323854,
                0.09200808862661303,
                0.26681825821842753,
                -2.003298919273717
            ]
        },
        {
            "positions": [
                0.32346343090386775,
                -1.8583157352703734,
                2.0557529350763475,
                0.055503823358660706,
                0.23675900331762903,
                -1.8086057053920797
            ]
        },
        {
            "positions": [
                0.3649906327631913,
                -1.8641686212103983,
                1.9695963488288408,
                0.0189995580907084,
                0.20669974841683053,
                -1.6139124915104421
            ]
        },
        {
            "positions": [
                0.4065178346225149,
                -1.8700215071504231,
                1.8834397625813344,
                -0.017504707177243922,
                0.176640493516032,
                -1.4192192776288048
            ]
        },
        {
            "positions": [
                0.44804503648183847,
                -1.8758743930904482,
                1.7972831763338277,
                -0.05400897244519623,
                0.1465812386152335,
                -1.224526063747167
            ]
        },
        {
            "positions": [
                0.48957223834116204,
                -1.881727279030473,
                1.7111265900863213,
                -0.09051323771314854,
                0.11652198371443498,
                -1.0298328498655298
            ]
        },
        {
            "positions": [
                0.5310994402004856,
                -1.887580164970498,
                1.6249700038388148,
                -0.12701750298110082,
                0.08646272881363651,
                -0.8351396359838925
            ]
        },
        {
            "positions": [
                0.5726266420598093,
                -1.8934330509105228,
                1.5388134175913084,
                -0.16352176824905318,
                0.056403473912837954,
                -0.640446422102255
            ]
        },
        {
            "positions": [
                0.6141538439191327,
                -1.899285936850548,
                1.452656831343802,
                -0.20002603351700549,
                0.026344219012039483,
                -0.4457532082206177
            ]
        },
        {
            "positions": [
                0.6556810457784564,
                -1.9051388227905728,
                1.366500245096295,
                -0.2365302987849578,
                -0.003715035888759044,
                -0.25105999433897996
            ]
        },
        {
            "positions": [
                0.69720824763778,
                -1.9109917087305976,
                1.2803436588487886,
                -0.2730345640529101,
                -0.03377429078955757,
                -0.05636678045734289
            ]
        },
        {
            "positions": [
                0.7387354494971036,
                -1.9168445946706227,
                1.1941870726012822,
                -0.3095388293208624,
                -0.0638335456903561,
                0.13832643342429485
            ]
        },
        {
            "positions": [
                0.7802626513564271,
                -1.9226974806106476,
                1.1080304863537758,
                -0.3460430945888147,
                -0.09389280059115457,
                0.333019647305932
            ]
        },
        {
            "positions": [
                0.8501865566317296,
                -1.9306753889489476,
                1.0164399339382106,
                -0.4347287487850415,
                -0.09589191525396965,
                0.45120015732433627
            ]
        },
        {
            "positions": [
                0.9201104619070319,
                -1.9386532972872477,
                0.9248493815226456,
                -0.5234144029812682,
                -0.09789102991678471,
                0.5693806673427405
            ]
        },
        {
            "positions": [
                0.9900343671823344,
                -1.9466312056255475,
                0.8332588291070805,
                -0.6121000571774949,
                -0.09989014457959978,
                0.6875611773611447
            ]
        },
        {
            "positions": [
                1.0599582724576369,
                -1.9546091139638475,
                0.7416682766915155,
                -0.7007857113737217,
                -0.10188925924241486,
                0.8057416873795491
            ]
        },
        {
            "positions": [
                1.1298821777329393,
                -1.9625870223021475,
                0.6500777242759503,
                -0.7894713655699485,
                -0.10388837390522992,
                0.9239221973979532
            ]
        },
        {
            "positions": [
                1.1998060830082418,
                -1.9705649306404476,
                0.5584871718603852,
                -0.8781570197661752,
                -0.105887488568045,
                1.0421027074163576
            ]
        },
        {
            "positions": [
                1.2697299882835442,
                -1.9785428389787476,
                0.4668966194448201,
                -0.9668426739624019,
                -0.10788660323086008,
                1.160283217434762
            ]
        },
        {
            "positions": [
                1.3396538935588467,
                -1.9865207473170474,
                0.37530606702925506,
                -1.0555283281586287,
                -0.10988571789367516,
                1.278463727453166
            ]
        },
        {
            "positions": [
                1.4095777988341491,
                -1.9944986556553475,
                0.28371551461368993,
                -1.1442139823548554,
                -0.11188483255649022,
                1.3966442374715704
            ]
        },
        {
            "positions": [
                1.4795017041094516,
                -2.0024765639936475,
                0.1921249621981248,
                -1.2328996365510823,
                -0.1138839472193053,
                1.5148247474899745
            ]
        },
        {
            "positions": [
                1.549425609384754,
                -2.0104544723319475,
                0.10053440978255956,
                -1.3215852907473091,
                -0.11588306188212037,
                1.633005257508379
            ]
        },
        {
            "positions": [
                1.6193495146600563,
                -2.0184323806702476,
                0.008943857366994656,
                -1.4102709449435356,
                -0.11788217654493544,
                1.7511857675267832
            ]
        },
        {
            "positions": [
                1.689273419935359,
                -2.0264102890085476,
                -0.08264669504857047,
                -1.4989565991397624,
                -0.11988129120775051,
                1.8693662775451876
            ]
        },
        {
            "positions": [
                1.7591973252106612,
                -2.0343881973468476,
                -0.1742372474641356,
                -1.587642253335989,
                -0.12188040587056559,
                1.9875467875635917
            ]
        },
        {
            "positions": [
                1.8291212304859639,
                -2.0423661056851476,
                -0.26582779987970073,
                -1.676327907532216,
                -0.12387952053338067,
                2.1057272975819963
            ]
        },
        {
            "positions": [
                1.8990451357612659,
                -2.0503440140234472,
                -0.35741835229526564,
                -1.7650135617284426,
                -0.12587863519619574,
                2.2239078076004004
            ]
        },
        {
            "positions": [
                1.9689690410365683,
                -2.0583219223617473,
                -0.449008904710831,
                -1.8536992159246695,
                -0.1278777498590108,
                2.342088317618805
            ]
        },
        {
            "positions": [
                2.038892946311871,
                -2.0662998307000473,
                -0.5405994571263959,
                -1.9423848701208961,
                -0.12987686452182587,
                2.460268827637209
            ]
        },
        {
            "positions": [
                2.1088168515871732,
                -2.0742777390383473,
                -0.632190009541961,
                -2.031070524317123,
                -0.13187597918464095,
                2.5784493376556132
            ]
        },
        {
            "positions": [
                2.1787407568624757,
                -2.0822556473766474,
                -0.7237805619575262,
                -2.1197561785133496,
                -0.13387509384745602,
                2.6966298476740174
            ]
        },
        {
            "positions": [
                2.248664662137778,
                -2.0902335557149474,
                -0.8153711143730912,
                -2.2084418327095765,
                -0.1358742085102711,
                2.814810357692422
            ]
        },
        {
            "positions": [
                2.2573413346773004,
                -2.0620636736151514,
                -0.9797881972382013,
                -2.270224778759151,
                -0.13531165305321793,
                2.769122827010891
            ]
        },
        {
            "positions": [
                2.266018007216823,
                -2.0338937915153554,
                -1.1442052801033116,
                -2.3320077248087263,
                -0.13474909759616474,
                2.723435296329361
            ]
        },
        {
            "positions": [
                2.274694679756345,
                -2.0057239094155594,
                -1.3086223629684217,
                -2.393790670858301,
                -0.13418654213911158,
                2.67774776564783
            ]
        },
        {
            "positions": [
                2.294974618415272,
                -2.034410692498469,
                -1.376897067334252,
                -2.3528647118065766,
                -0.19634795832309274,
                2.752959687849498
            ]
        },
        {
            "positions": [
                2.3152545570741987,
                -2.063097475581379,
                -1.445171771700082,
                -2.3119387527548527,
                -0.2585093745070739,
                2.828171610051166
            ]
        },
        {
            "positions": [
                2.3355344957331257,
                -2.0917842586642887,
                -1.5134464760659123,
                -2.2710127937031284,
                -0.3206707906910551,
                2.9033835322528336
            ]
        },
        {
            "positions": [
                2.400835293773822,
                -2.148608775445951,
                -1.5745622698673487,
                -2.3056332935778547,
                -0.3114888971101256,
                2.960353876270066
            ]
        },
        {
            "positions": [
                2.4661360918145183,
                -2.205433292227613,
                -1.6356780636687853,
                -2.3402537934525816,
                -0.3023070035291962,
                3.017324220287298
            ]
        },
        {
            "positions": [
                2.563943591725942,
                -2.195783436488396,
                -1.6447630174063201,
                -2.389558553915512,
                -0.3841579234676995,
                3.076944468527543
            ]
        },
        {
            "positions": [
                2.6617510916373663,
                -2.1861335807491793,
                -1.6538479711438552,
                -2.438863314378443,
                -0.46600884340620286,
                3.1365647167677877
            ]
        }
    ]
}