{
    "goal": {
        "global_pose": {
            "orientation": {
                "w": 0.7031023502349854,
                "x": -0.7110244035720825,
                "y": 0.007748599164187908,
                "z": 0.005598929710686207
            },
            "position": {
                "x": 0.11585023208521307,
                "y": 0.44412534475326537,
                "z": 0.3711530566215515
            }
        },
        "name": "move_to_auspresseinheit_A"
    },
    "id": "PRM_move_to_auspresseinheit_A_72",
    "joint_names": [
        "shoulder_pan_joint",
        "shoulder_lift_joint",
        "elbow_joint",
        "wrist_1_joint",
        "wrist_2_joint",
        "wrist_3_joint"
    ],
    "metrics": {
        "cart_traj_len": 1.0135710307210317,
        "distance_elbow_joint": 0.03284020734841464,
        "distance_shoulder_lift_joint": 0.5299678423935619,
        "distance_shoulder_pan_joint": 2.7145155099387317,
        "distance_wrist_1_joint": 2.669301569555221,
        "distance_wrist_2_joint": 1.318532534464777,
        "distance_wrist_3_joint": 4.15468368687214,
        "smoothness": 0.9109072272023013,
        "time": 0.08068636700000001,
        "traj_len": 3.3793255762907557,
        "weighted_distance": 4.870014664078243
    },
    "planner": "PRM",
    "start": {
        "state": {
            "elbow_joint": 2.422574709923281,
            "shoulder_lift_joint": -1.3736533754116391,
            "shoulder_pan_joint": -0.33786336945926293,
            "wrist_1_joint": -1.0288603412921917,
            "wrist_2_joint": 1.2330224858903978,
            "wrist_3_joint": -3.094022268022082
        }
    },
    "waypoints": [
        {
            "positions": [
                -0.33786336945926293,
                -1.3736533754116391,
                2.422574709923281,
                -1.0288603412921917,
                1.2330224858903978,
                -3.094022268022082
            ]
        },
        {
            "positions": [
                -0.3935762683403568,
                -1.3978326876843414,
                2.4216382868591033,
                -0.9209131885176607,
                1.1712893909733888,
                -2.9568408235767416
            ]
        },
        {
            "positions": [
                -0.4492891672214507,
                -1.422011999957044,
                2.420701863794925,
                -0.8129660357431296,
                1.1095562960563798,
                -2.8196593791314006
            ]
        },
        {
            "positions": [
                -0.5050020661025445,
                -1.4461913122297463,
                2.4197654407307474,
                -0.7050188829685985,
                1.0478232011393709,
                -2.68247793468606
            ]
        },
        {
            "positions": [
                -0.5607149649836384,
                -1.4703706245024486,
                2.4188290176665697,
                -0.5970717301940675,
                0.9860901062223619,
                -2.5452964902407196
            ]
        },
        {
            "positions": [
                -0.6164278638647323,
                -1.4945499367751511,
                2.4178925946023915,
                -0.4891245774195364,
                0.924357011305353,
                -2.4081150457953786
            ]
        },
        {
            "positions": [
                -0.6721407627458262,
                -1.5187292490478534,
                2.4169561715382137,
                -0.38117742464500526,
                0.862623916388344,
                -2.2709336013500376
            ]
        },
        {
            "positions": [
                -0.72785366162692,
                -1.5429085613205558,
                2.416019748474036,
                -0.2732302718704742,
                0.8008908214713351,
                -2.133752156904697
            ]
        },
        {
            "positions": [
                -0.7835665605080139,
                -1.5670878735932583,
                2.415083325409858,
                -0.16528311909594318,
                0.7391577265543261,
                -1.9965707124593566
            ]
        },
        {
            "positions": [
                -0.8392794593891078,
                -1.5912671858659606,
                2.41414690234568,
                -0.057335966321412135,
                0.6774246316373171,
                -1.8593892680140158
            ]
        },
        {
            "positions": [
                -0.8949923582702015,
                -1.615446498138663,
                2.4132104792815023,
                0.050611186453118906,
                0.6156915367203082,
                -1.722207823568675
            ]
        },
        {
            "positions": [
                -0.9507052571512955,
                -1.6396258104113652,
                2.412274056217324,
                0.15855833922764995,
                0.5539584418032992,
                -1.5850263791233346
            ]
        },
        {
            "positions": [
                -1.0064181560323895,
                -1.6638051226840678,
                2.4113376331531464,
                0.2665054920021812,
                0.49222534688629027,
                -1.4478449346779936
            ]
        },
        {
            "positions": [
                -1.0621310549134833,
                -1.6879844349567703,
                2.4104012100889687,
                0.37445264477671225,
                0.4304922519692813,
                -1.3106634902326528
            ]
        },
        {
            "positions": [
                -1.117843953794577,
                -1.7121637472294726,
                2.4094647870247905,
                0.4823997975512433,
                0.36875915705227236,
                -1.1734820457873123
            ]
        },
        {
            "positions": [
                -1.173556852675671,
                -1.736343059502175,
                2.4085283639606128,
                0.5903469503257742,
                0.30702606213526346,
                -1.0363006013419716
            ]
        },
        {
            "positions": [
                -1.0483020508941827,
                -1.7474949367223767,
                2.4072754398682297,
                0.5203406651299572,
                0.33319513618257296,
                -1.1760980693547736
            ]
        },
        {
            "positions": [
                -0.9230472491126945,
                -1.7586468139425784,
                2.4060225157758466,
                0.4503343799341402,
                0.35936421022988246,
                -1.3158955373675756
            ]
        },
        {
            "positions": [
                -0.7977924473312064,
                -1.76979869116278,
                2.4047695916834635,
                0.3803280947383232,
                0.38553328427719197,
                -1.4556930053803776
            ]
        },
        {
            "positions": [
                -0.6725376455497181,
                -1.7809505683829818,
                2.4035166675910804,
                0.3103218095425062,
                0.41170235832450147,
                -1.5954904733931796
            ]
        },
        {
            "positions": [
                -0.5472828437682299,
                -1.7921024456031835,
                2.4022637434986973,
                0.24031552434668924,
                0.4378714323718109,
                -1.7352879414059814
            ]
        },
        {
            "positions": [
                -0.4220280419867416,
                -1.8032543228233853,
                2.4010108194063142,
                0.17030923915087215,
                0.4640405064191205,
                -1.8750854094187837
            ]
        },
        {
            "positions": [
                -0.2967732402052534,
                -1.814406200043587,
                2.399757895313931,
                0.10030295395505517,
                0.49020958046642993,
                -2.0148828774315852
            ]
        },
        {
            "positions": [
                -0.17151843842376513,
                -1.8255580772637887,
                2.398504971221548,
                0.0302966687592382,
                0.5163786545137394,
                -2.1546803454443877
            ]
        },
        {
            "positions": [
                -0.04626363664227706,
                -1.8367099544839907,
                2.397252047129165,
                -0.039709616436578776,
                0.5425477285610489,
                -2.2944778134571893
            ]
        },
        {
            "positions": [
                0.07899116513921123,
                -1.8478618317041924,
                2.395999123036782,
                -0.10971590163239575,
                0.5687168026083584,
                -2.4342752814699913
            ]
        },
        {
            "positions": [
                0.20424596692069952,
                -1.859013708924394,
                2.3947461989443988,
                -0.17972218682821273,
                0.5948858766556679,
                -2.5740727494827933
            ]
        },
        {
            "positions": [
                0.3295007687021878,
                -1.8701655861445958,
                2.3934932748520157,
                -0.24972847202402992,
                0.6210549507029774,
                -2.7138702174955958
            ]
        },
        {
            "positions": [
                0.4547555704836761,
                -1.8813174633647975,
                2.3922403507596326,
                -0.3197347572198469,
                0.647224024750287,
                -2.8536676855083973
            ]
        },
        {
            "positions": [
                0.5800103722651642,
                -1.8924693405849993,
                2.3909874266672495,
                -0.3897410424156639,
                0.6733930987975965,
                -2.9934651535211994
            ]
        },
        {
            "positions": [
                0.7052651740466525,
                -1.903621217805201,
                2.3897345025748664,
                -0.45974732761148085,
                0.699562172844906,
                -3.1332626215340014
            ]
        }
    ]
}