{
    "goal": {
        "global_pose": {
            "orientation": {
                "w": 0.7031023502349854,
                "x": -0.7110244035720825,
                "y": 0.007748599164187908,
                "z": 0.005598929710686207
            },
            "position": {
                "x": 0.11585023208521307,
                "y": 0.44412534475326537,
                "z": 0.3711530566215515
            }
        },
        "name": "move_to_auspresseinheit_A"
    },
    "id": "PRM_move_to_auspresseinheit_A_106",
    "joint_names": [
        "shoulder_pan_joint",
        "shoulder_lift_joint",
        "elbow_joint",
        "wrist_1_joint",
        "wrist_2_joint",
        "wrist_3_joint"
    ],
    "metrics": {
        "cart_traj_len": 1.5143588329606807,
        "distance_elbow_joint": 0.4808359292297819,
        "distance_shoulder_lift_joint": 0.8759069070763912,
        "distance_shoulder_pan_joint": 2.788415112903757,
        "distance_wrist_1_joint": 0.5446452669553118,
        "distance_wrist_2_joint": 0.8087860147609774,
        "distance_wrist_3_joint": 0.8908421113048304,
        "smoothness": 1.1123146731510734,
        "time": 0.313986246,
        "traj_len": 2.5277324506820436,
        "weighted_distance": 3.0861864568682496
    },
    "planner": "PRM",
    "start": {
        "state": {
            "elbow_joint": 2.422574709923281,
            "shoulder_lift_joint": -1.3736533754116391,
            "shoulder_pan_joint": -0.33786336945926293,
            "wrist_1_joint": -1.0288603412921917,
            "wrist_2_joint": 1.2330224858903978,
            "wrist_3_joint": -3.094022268022082
        }
    },
    "waypoints": [
        {
            "positions": [
                -0.33786336945926293,
                -1.3736533754116391,
                2.422574709923281,
                -1.0288603412921917,
                1.2330224858903978,
                -3.094022268022082
            ]
        },
        {
            "positions": [
                -0.4349632383356298,
                -1.4520900392177736,
                2.3944412536986963,
                -0.9868315434983495,
                1.1582635659802742,
                -3.0457493815387657
            ]
        },
        {
            "positions": [
                -0.5320631072119966,
                -1.530526703023908,
                2.366307797474111,
                -0.9448027457045072,
                1.0835046460701507,
                -2.9974764950554498
            ]
        },
        {
            "positions": [
                -0.6291629760883635,
                -1.6089633668300425,
                2.3381743412495264,
                -0.902773947910665,
                1.0087457261600272,
                -2.9492036085721334
            ]
        },
        {
            "positions": [
                -0.7262628449647301,
                -1.687400030636177,
                2.3100408850249416,
                -0.8607451501168227,
                0.9339868062499037,
                -2.9009307220888174
            ]
        },
        {
            "positions": [
                -0.823362713841097,
                -1.7658366944423114,
                2.2819074288003565,
                -0.8187163523229805,
                0.8592278863397802,
                -2.852657835605501
            ]
        },
        {
            "positions": [
                -0.920462582717464,
                -1.8442733582484458,
                2.2537739725757717,
                -0.7766875545291383,
                0.7844689664296567,
                -2.804384949122185
            ]
        },
        {
            "positions": [
                -1.0175624515938306,
                -1.9227100220545803,
                2.225640516351187,
                -0.734658756735296,
                0.7097100465195332,
                -2.7561120626388687
            ]
        },
        {
            "positions": [
                -1.1146623204701975,
                -2.0011466858607148,
                2.197507060126602,
                -0.6926299589414537,
                0.6349511266094097,
                -2.7078391761555527
            ]
        },
        {
            "positions": [
                -1.2117621893465644,
                -2.079583349666849,
                2.169373603902017,
                -0.6506011611476115,
                0.5601922066992862,
                -2.6595662896722363
            ]
        },
        {
            "positions": [
                -0.9724476527195074,
                -2.0583362330642014,
                2.197827956803082,
                -0.6298029002962701,
                0.5771866736455193,
                -2.7166145562916095
            ]
        },
        {
            "positions": [
                -0.7331331160924504,
                -2.037089116461554,
                2.2262823097041466,
                -0.6090046394449286,
                0.5941811405917526,
                -2.7736628229109823
            ]
        },
        {
            "positions": [
                -0.4938185794653934,
                -2.0158419998589063,
                2.2547366626052114,
                -0.5882063785935872,
                0.6111756075379858,
                -2.8307110895303556
            ]
        },
        {
            "positions": [
                -0.2545040428383364,
                -1.9945948832562586,
                2.283191015506276,
                -0.5674081177422456,
                0.6281700744842191,
                -2.8877593561497283
            ]
        },
        {
            "positions": [
                -0.015189506211279458,
                -1.973347766653611,
                2.3116453684073406,
                -0.5466098568909042,
                0.6451645414304523,
                -2.9448076227691016
            ]
        },
        {
            "positions": [
                0.22412503041577758,
                -1.9521006500509634,
                2.3400997213084054,
                -0.5258115960395628,
                0.6621590083766855,
                -3.001855889388475
            ]
        },
        {
            "positions": [
                0.4634395670428346,
                -1.9308535334483157,
                2.36855407420947,
                -0.5050133351882213,
                0.6791534753229188,
                -3.0589041560078476
            ]
        },
        {
            "positions": [
                0.7027541036698917,
                -1.9096064168456681,
                2.397008427110535,
                -0.48421507433687994,
                0.696147942269152,
                -3.115952422627221
            ]
        }
    ]
}