{
    "goal": {
        "global_pose": {
            "orientation": {
                "w": 0.7047431468963623,
                "x": -0.7094548344612122,
                "y": 0.0024358443915843964,
                "z": -0.0022348060738295317
            },
            "position": {
                "x": 0.6094750761985779,
                "y": 0.3671506643295288,
                "z": 0.19426114857196808
            }
        },
        "name": "move_to_magneteinheit_A"
    },
    "id": "PRM_move_to_magneteinheit_A_17",
    "joint_names": [
        "shoulder_pan_joint",
        "shoulder_lift_joint",
        "elbow_joint",
        "wrist_1_joint",
        "wrist_2_joint",
        "wrist_3_joint"
    ],
    "metrics": {
        "cart_traj_len": 2.02337648182949,
        "distance_elbow_joint": 3.87840550907352,
        "distance_shoulder_lift_joint": 1.930354715286246,
        "distance_shoulder_pan_joint": 1.2430734671249892,
        "distance_wrist_1_joint": 1.1509032793073344,
        "distance_wrist_2_joint": 1.4377692089210072,
        "distance_wrist_3_joint": 4.351588060846028,
        "smoothness": 0.057977508290862456,
        "time": 0.148483492,
        "traj_len": 3.7406007860448196,
        "weighted_distance": 5.028314116130726
    },
    "planner": "PRM",
    "start": {
        "state": {
            "elbow_joint": -1.919643507792019,
            "shoulder_lift_joint": -0.07675430207160344,
            "shoulder_pan_joint": -1.1188671864651873,
            "wrist_1_joint": 0.42560062535961957,
            "wrist_2_joint": 1.5706038300724876,
            "wrist_3_joint": 1.1188968870953055
        }
    },
    "waypoints": [
        {
            "positions": [
                -1.1188671864651873,
                -0.07675430207160344,
                -1.919643507792019,
                0.42560062535961957,
                1.5706038300724876,
                1.1188968870953055
            ]
        },
        {
            "positions": [
                -1.1176627819944895,
                -0.15532229880219858,
                -1.7822491318000706,
                0.40954635993534344,
                1.5012004372184762,
                1.0275524734766668
            ]
        },
        {
            "positions": [
                -1.116458377523792,
                -0.23389029553279372,
                -1.6448547558081223,
                0.3934920945110673,
                1.4317970443644648,
                0.936208059858028
            ]
        },
        {
            "positions": [
                -1.1152539730530941,
                -0.31245829226338884,
                -1.5074603798161739,
                0.3774378290867912,
                1.3623936515104533,
                0.8448636462393893
            ]
        },
        {
            "positions": [
                -1.1140495685823963,
                -0.391026288993984,
                -1.3700660038242254,
                0.36138356366251506,
                1.2929902586564417,
                0.7535192326207505
            ]
        },
        {
            "positions": [
                -1.1128451641116988,
                -0.4695942857245791,
                -1.2326716278322771,
                0.34532929823823894,
                1.2235868658024303,
                0.6621748190021118
            ]
        },
        {
            "positions": [
                -1.111640759641001,
                -0.5481622824551743,
                -1.0952772518403289,
                0.3292750328139628,
                1.1541834729484188,
                0.5708304053834731
            ]
        },
        {
            "positions": [
                -1.1104363551703034,
                -0.6267302791857694,
                -0.9578828758483804,
                0.3132207673896867,
                1.0847800800944074,
                0.4794859917648343
            ]
        },
        {
            "positions": [
                -1.1092319506996056,
                -0.7052982759163646,
                -0.8204884998564319,
                0.29716650196541056,
                1.015376687240396,
                0.38814157814619554
            ]
        },
        {
            "positions": [
                -1.1080275462289078,
                -0.7838662726469596,
                -0.6830941238644836,
                0.28111223654113443,
                0.9459732943863844,
                0.2967971645275568
            ]
        },
        {
            "positions": [
                -1.1068231417582102,
                -0.8624342693775549,
                -0.5456997478725352,
                0.2650579711168583,
                0.876569901532373,
                0.20545275090891812
            ]
        },
        {
            "positions": [
                -1.1056187372875124,
                -0.9410022661081501,
                -0.4083053718805867,
                0.24900370569258218,
                0.8071665086783615,
                0.11410833729027914
            ]
        },
        {
            "positions": [
                -1.1044143328168146,
                -1.019570262838745,
                -0.27091099588863843,
                0.23294944026830605,
                0.7377631158243502,
                0.022763923671640596
            ]
        },
        {
            "positions": [
                -1.103209928346117,
                -1.0981382595693403,
                -0.13351661989668995,
                0.21689517484402993,
                0.6683597229703386,
                -0.06858048994699817
            ]
        },
        {
            "positions": [
                -1.1020055238754192,
                -1.1767062562999355,
                0.0038777560952583112,
                0.2008409094197538,
                0.5989563301163272,
                -0.15992490356563693
            ]
        },
        {
            "positions": [
                -1.1008011194047216,
                -1.2552742530305308,
                0.14127213208720701,
                0.18478664399547767,
                0.5295529372623158,
                -0.2512693171842757
            ]
        },
        {
            "positions": [
                -1.0995967149340238,
                -1.3338422497611258,
                0.2786665080791553,
                0.16873237857120155,
                0.46014954440830436,
                -0.34261373080291446
            ]
        },
        {
            "positions": [
                -1.098392310463326,
                -1.412410246491721,
                0.41606088407110353,
                0.15267811314692542,
                0.3907461515542927,
                -0.4339581444215532
            ]
        },
        {
            "positions": [
                -1.0971879059926284,
                -1.490978243222316,
                0.5534552600630518,
                0.1366238477226493,
                0.3213427587002813,
                -0.525302558040192
            ]
        },
        {
            "positions": [
                -1.0959835015219306,
                -1.5695462399529112,
                0.6908496360550007,
                0.12056958229837317,
                0.2519393658462698,
                -0.6166469716588308
            ]
        },
        {
            "positions": [
                -1.0242076319818287,
                -1.5438072530467384,
                0.7654327163624419,
                0.07081239193095624,
                0.24493320439363506,
                -0.7705319247230596
            ]
        },
        {
            "positions": [
                -0.9524317624417268,
                -1.5180682661405656,
                0.8400157966698831,
                0.021055201563539322,
                0.2379270429410003,
                -0.9244168777872885
            ]
        },
        {
            "positions": [
                -0.8806558929016248,
                -1.4923292792343927,
                0.9145988769773243,
                -0.028701988803877615,
                0.23092088148836556,
                -1.0783018308515175
            ]
        },
        {
            "positions": [
                -0.808880023361523,
                -1.46659029232822,
                0.9891819572847655,
                -0.07845917917129452,
                0.22391472003573082,
                -1.2321867839157463
            ]
        },
        {
            "positions": [
                -0.737104153821421,
                -1.440851305422047,
                1.0637650375922068,
                -0.1282163695387115,
                0.21690855858309604,
                -1.3860717369799753
            ]
        },
        {
            "positions": [
                -0.6653282842813191,
                -1.4151123185158743,
                1.138348117899648,
                -0.1779735599061284,
                0.2099023971304613,
                -1.539956690044204
            ]
        },
        {
            "positions": [
                -0.5935524147412172,
                -1.3893733316097014,
                1.2129311982070892,
                -0.22773075027354528,
                0.20289623567782655,
                -1.6938416431084329
            ]
        },
        {
            "positions": [
                -0.5217765452011153,
                -1.3636343447035286,
                1.2875142785145304,
                -0.2774879406409622,
                0.1958900742251918,
                -1.8477265961726619
            ]
        },
        {
            "positions": [
                -0.4500006756610134,
                -1.3378953577973558,
                1.3620973588219716,
                -0.3272451310083792,
                0.18888391277255706,
                -2.001611549236891
            ]
        },
        {
            "positions": [
                -0.37822480612091147,
                -1.3121563708911828,
                1.4366804391294128,
                -0.37700232137579615,
                0.1818777513199223,
                -2.15549650230112
            ]
        },
        {
            "positions": [
                -0.3064489365808095,
                -1.28641738398501,
                1.511263519436854,
                -0.4267595117432131,
                0.17487158986728757,
                -2.3093814553653487
            ]
        },
        {
            "positions": [
                -0.23467306704070756,
                -1.260678397078837,
                1.5858465997442952,
                -0.47651670211062996,
                0.1678654284146528,
                -2.4632664084295777
            ]
        },
        {
            "positions": [
                -0.16289719750060583,
                -1.2349394101726643,
                1.6604296800517362,
                -0.5262738924780468,
                0.16085926696201808,
                -2.6171513614938062
            ]
        },
        {
            "positions": [
                -0.09112132796050387,
                -1.2092004232664915,
                1.7350127603591774,
                -0.5760310828454638,
                0.1538531055093833,
                -2.7710363145580352
            ]
        },
        {
            "positions": [
                -0.01934545842040203,
                -1.1834614363603186,
                1.8095958406666186,
                -0.6257882732128808,
                0.14684694405674859,
                -2.9249212676222642
            ]
        },
        {
            "positions": [
                0.05243041111970004,
                -1.1577224494541458,
                1.8841789209740598,
                -0.6755454635802975,
                0.1398407826041138,
                -3.0788062206864932
            ]
        },
        {
            "positions": [
                0.12420628065980181,
                -1.131983462547973,
                1.958762001281501,
                -0.7253026539477145,
                0.13283462115147907,
                -3.2326911737507222
            ]
        }
    ]
}