{
    "goal": {
        "global_pose": {
            "orientation": {
                "w": -0.00223480608172531,
                "x": 0.0024358444001904467,
                "y": 0.7094548369677653,
                "z": -0.704743149386269
            },
            "position": {
                "x": 0.6205249238014221,
                "y": -0.6371506643295288,
                "z": 0.19426114857196808
            }
        },
        "name": "move_to_magneteinheit_B"
    },
    "id": "PRM_move_to_magneteinheit_B_76",
    "joint_names": [
        "shoulder_pan_joint",
        "shoulder_lift_joint",
        "elbow_joint",
        "wrist_1_joint",
        "wrist_2_joint",
        "wrist_3_joint"
    ],
    "metrics": {
        "cart_traj_len": 1.4529398903077235,
        "distance_elbow_joint": 0.7246970613436361,
        "distance_shoulder_lift_joint": 1.2446371741708622,
        "distance_shoulder_pan_joint": 1.620385301408732,
        "distance_wrist_1_joint": 2.621691933642857,
        "distance_wrist_2_joint": 2.9433873865438502,
        "distance_wrist_3_joint": 3.1453167305383136,
        "smoothness": 2.6914497627957446e-16,
        "time": 0.040132026,
        "traj_len": 3.5071520622362877,
        "weighted_distance": 4.91485791950404
    },
    "planner": "PRM",
    "start": {
        "state": {
            "elbow_joint": 2.39358713078474,
            "shoulder_lift_joint": -1.908514104345545,
            "shoulder_pan_joint": 0.7066247066606129,
            "wrist_1_joint": -0.4678290933515497,
            "wrist_2_joint": 0.7096259083745334,
            "wrist_3_joint": -3.1358149277392293
        }
    },
    "waypoints": [
        {
            "positions": [
                0.7066247066606129,
                -1.908514104345545,
                2.39358713078474,
                -0.4678290933515497,
                0.7096259083745334,
                -3.1358149277392293
            ]
        },
        {
            "positions": [
                0.6559876659915901,
                -1.8696191926527055,
                2.3709403476177515,
                -0.3859012204252104,
                0.6176450525450381,
                -3.037523779909907
            ]
        },
        {
            "positions": [
                0.6053506253225672,
                -1.830724280959866,
                2.348293564450763,
                -0.30397334749887117,
                0.5256641967155428,
                -2.939232632080585
            ]
        },
        {
            "positions": [
                0.5547135846535443,
                -1.7918293692670266,
                2.325646781283774,
                -0.22204547457253188,
                0.4336833408860475,
                -2.8409414842512626
            ]
        },
        {
            "positions": [
                0.5040765439845214,
                -1.7529344575741872,
                2.3029999981167855,
                -0.14011760164619258,
                0.34170248505655215,
                -2.7426503364219403
            ]
        },
        {
            "positions": [
                0.4534395033154986,
                -1.7140395458813478,
                2.280353214949797,
                -0.058189728719853284,
                0.24972162922705682,
                -2.6443591885926176
            ]
        },
        {
            "positions": [
                0.4028024626464757,
                -1.6751446341885083,
                2.2577064317828084,
                0.023738144206485956,
                0.15774077339756154,
                -2.5460680407632954
            ]
        },
        {
            "positions": [
                0.3521654219774528,
                -1.636249722495669,
                2.23505964861582,
                0.10566601713282525,
                0.0657599175680662,
                -2.447776892933973
            ]
        },
        {
            "positions": [
                0.30152838130842996,
                -1.5973548108028295,
                2.212412865448831,
                0.18759389005916455,
                -0.026220938261429128,
                -2.349485745104651
            ]
        },
        {
            "positions": [
                0.2508913406394071,
                -1.55845989910999,
                2.1897660822818423,
                0.26952176298550384,
                -0.11820179409092446,
                -2.2511945972753287
            ]
        },
        {
            "positions": [
                0.20025429997038424,
                -1.5195649874171506,
                2.167119299114854,
                0.35144963591184314,
                -0.2101826499204198,
                -2.1529034494460064
            ]
        },
        {
            "positions": [
                0.14961725930136138,
                -1.480670075724311,
                2.1444725159478653,
                0.43337750883818243,
                -0.30216350574991513,
                -2.054612301616684
            ]
        },
        {
            "positions": [
                0.09898021863233841,
                -1.4417751640314715,
                2.1218257327808763,
                0.5153053817645217,
                -0.39414436157941035,
                -1.9563211537873617
            ]
        },
        {
            "positions": [
                0.04834317796331555,
                -1.4028802523386321,
                2.0991789496138877,
                0.597233254690861,
                -0.4861252174089058,
                -1.8580300059580395
            ]
        },
        {
            "positions": [
                -0.0022938627057073058,
                -1.3639853406457927,
                2.076532166446899,
                0.6791611276172003,
                -0.578106073238401,
                -1.759738858128717
            ]
        },
        {
            "positions": [
                -0.052930903374730165,
                -1.3250904289529533,
                2.0538853832799107,
                0.7610890005435396,
                -0.6700869290678965,
                -1.6614477102993948
            ]
        },
        {
            "positions": [
                -0.10356794404375302,
                -1.2861955172601138,
                2.031238600112922,
                0.8430168734698789,
                -0.7620677848973917,
                -1.5631565624700725
            ]
        },
        {
            "positions": [
                -0.15420498471277588,
                -1.2473006055672744,
                2.008591816945933,
                0.9249447463962182,
                -0.8540486407268869,
                -1.4648654146407503
            ]
        },
        {
            "positions": [
                -0.20484202538179874,
                -1.208405693874435,
                1.9859450337789448,
                1.0068726193225574,
                -0.9460294965563824,
                -1.366574266811428
            ]
        },
        {
            "positions": [
                -0.2554790660508216,
                -1.1695107821815955,
                1.963298250611956,
                1.0888004922488967,
                -1.0380103523858777,
                -1.2682831189821056
            ]
        },
        {
            "positions": [
                -0.30611610671984446,
                -1.1306158704887561,
                1.9406514674449675,
                1.170728365175236,
                -1.129991208215373,
                -1.1699919711527833
            ]
        },
        {
            "positions": [
                -0.3567531473888673,
                -1.0917209587959165,
                1.918004684277979,
                1.2526562381015753,
                -1.2219720640448681,
                -1.0717008233234608
            ]
        },
        {
            "positions": [
                -0.4073901880578902,
                -1.052826047103077,
                1.8953579011109902,
                1.3345841110279146,
                -1.3139529198743638,
                -0.9734096754941386
            ]
        },
        {
            "positions": [
                -0.45802722872691304,
                -1.0139311354102376,
                1.8727111179440015,
                1.416511983954254,
                -1.405933775703859,
                -0.8751185276648163
            ]
        },
        {
            "positions": [
                -0.5086642693959361,
                -0.9750362237173983,
                1.850064334777013,
                1.498439856880593,
                -1.4979146315333542,
                -0.7768273798354941
            ]
        },
        {
            "positions": [
                -0.559301310064959,
                -0.9361413120245589,
                1.8274175516100244,
                1.5803677298069325,
                -1.5898954873628495,
                -0.6785362320061719
            ]
        },
        {
            "positions": [
                -0.6099383507339818,
                -0.8972464003317193,
                1.8047707684430359,
                1.6622956027332716,
                -1.6818763431923451,
                -0.5802450841768496
            ]
        },
        {
            "positions": [
                -0.6605753914030047,
                -0.8583514886388799,
                1.782123985276047,
                1.7442234756596111,
                -1.7738571990218404,
                -0.48195393634752737
            ]
        },
        {
            "positions": [
                -0.7112124320720276,
                -0.8194565769460405,
                1.7594772021090583,
                1.8261513485859502,
                -1.8658380548513356,
                -0.3836627885182047
            ]
        },
        {
            "positions": [
                -0.7618494727410504,
                -0.780561665253201,
                1.7368304189420698,
                1.9080792215122897,
                -1.9578189106808308,
                -0.28537164068888243
            ]
        },
        {
            "positions": [
                -0.8124865134100733,
                -0.7416667535603616,
                1.7141836357750813,
                1.9900070944386288,
                -2.0497997665103265,
                -0.1870804928595602
            ]
        },
        {
            "positions": [
                -0.8631235540790961,
                -0.7027718418675222,
                1.6915368526080927,
                2.0719349673649683,
                -2.1417806223398217,
                -0.08878934503023794
            ]
        },
        {
            "positions": [
                -0.9137605947481191,
                -0.6638769301746826,
                1.668890069441104,
                2.1538628402913074,
                -2.233761478169317,
                0.009501802799084212
            ]
        }
    ]
}