{
    "goal": {
        "global_pose": {
            "orientation": {
                "w": 0.7031023502349854,
                "x": -0.7110244035720825,
                "y": 0.007748599164187908,
                "z": 0.005598929710686207
            },
            "position": {
                "x": 0.11585023208521307,
                "y": 0.44412534475326537,
                "z": 0.3711530566215515
            }
        },
        "name": "move_to_auspresseinheit_A"
    },
    "id": "PRM_move_to_auspresseinheit_A_7",
    "joint_names": [
        "shoulder_pan_joint",
        "shoulder_lift_joint",
        "elbow_joint",
        "wrist_1_joint",
        "wrist_2_joint",
        "wrist_3_joint"
    ],
    "metrics": {
        "cart_traj_len": 0.6948745199150766,
        "distance_elbow_joint": 0.43519894333402176,
        "distance_shoulder_lift_joint": 0.5323260103813732,
        "distance_shoulder_pan_joint": 1.0436880091339726,
        "distance_wrist_1_joint": 2.0617822204633702,
        "distance_wrist_2_joint": 0.521201230782064,
        "distance_wrist_3_joint": 0.2539593384667329,
        "smoothness": 0.893451896444816,
        "time": 0.160069074,
        "traj_len": 2.201852799930444,
        "weighted_distance": 2.8176333829546447
    },
    "planner": "PRM",
    "start": {
        "state": {
            "elbow_joint": 2.422574709923281,
            "shoulder_lift_joint": -1.3736533754116391,
            "shoulder_pan_joint": -0.33786336945926293,
            "wrist_1_joint": -1.0288603412921917,
            "wrist_2_joint": 1.2330224858903978,
            "wrist_3_joint": -3.094022268022082
        }
    },
    "waypoints": [
        {
            "positions": [
                -0.33786336945926293,
                -1.3736533754116391,
                2.422574709923281,
                -1.0288603412921917,
                1.2330224858903978,
                -3.094022268022082
            ]
        },
        {
            "positions": [
                -0.311099365601896,
                -1.4056927221538673,
                2.383568381636567,
                -0.8090288812813852,
                1.225963936130849,
                -3.077082384288851
            ]
        },
        {
            "positions": [
                -0.284335361744529,
                -1.4377320688960957,
                2.3445620533498532,
                -0.5891974212705786,
                1.2189053863713004,
                -3.0601425005556195
            ]
        },
        {
            "positions": [
                -0.25757135788716207,
                -1.469771415638324,
                2.3055557250631393,
                -0.36936596125977195,
                1.2118468366117516,
                -3.043202616822388
            ]
        },
        {
            "positions": [
                -0.23080735402979513,
                -1.5018107623805521,
                2.2665493967764254,
                -0.1495345012489654,
                1.2047882868522028,
                -3.0262627330891565
            ]
        },
        {
            "positions": [
                -0.20404335017242814,
                -1.5338501091227805,
                2.2275430684897115,
                0.07029695876184139,
                1.1977297370926543,
                -3.009322849355925
            ]
        },
        {
            "positions": [
                -0.1772793463150612,
                -1.5658894558650087,
                2.1885367402029976,
                0.2901284187726477,
                1.1906711873331055,
                -2.992382965622694
            ]
        },
        {
            "positions": [
                -0.06689134806633984,
                -1.6084006971060092,
                2.213681861904715,
                0.19727923622283136,
                1.130814945805009,
                -3.011422970131112
            ]
        },
        {
            "positions": [
                0.043496650182381524,
                -1.6509119383470097,
                2.2388269836064323,
                0.104430053673015,
                1.0709587042769126,
                -3.03046297463953
            ]
        },
        {
            "positions": [
                0.1538846484311029,
                -1.6934231795880101,
                2.2639721053081496,
                0.01158087112319861,
                1.011102462748816,
                -3.049502979147948
            ]
        },
        {
            "positions": [
                0.26427264667982425,
                -1.7359344208290106,
                2.289117227009867,
                -0.08126831142661772,
                0.9512462212207196,
                -3.068542983656366
            ]
        },
        {
            "positions": [
                0.3746606449285456,
                -1.7784456620700109,
                2.314262348711584,
                -0.17411749397643406,
                0.8913899796926231,
                -3.0875829881647845
            ]
        },
        {
            "positions": [
                0.485048643177267,
                -1.8209569033110113,
                2.339407470413301,
                -0.2669666765262505,
                0.8315337381645267,
                -3.1066229926732025
            ]
        },
        {
            "positions": [
                0.5954366414259884,
                -1.8634681445520118,
                2.3645525921150186,
                -0.35981585907606684,
                0.7716774966364301,
                -3.1256629971816206
            ]
        },
        {
            "positions": [
                0.7058246396747097,
                -1.9059793857930123,
                2.389697713816736,
                -0.4526650416258832,
                0.7118212551083337,
                -3.1447030016900386
            ]
        }
    ]
}