{
    "goal": {
        "global_pose": {
            "orientation": {
                "w": 0.7047431468963623,
                "x": -0.7094548344612122,
                "y": 0.0024358443915843964,
                "z": -0.0022348060738295317
            },
            "position": {
                "x": 0.6094750761985779,
                "y": 0.3671506643295288,
                "z": 0.19426114857196808
            }
        },
        "name": "move_to_magneteinheit_A"
    },
    "id": "PRM_move_to_magneteinheit_A_39",
    "joint_names": [
        "shoulder_pan_joint",
        "shoulder_lift_joint",
        "elbow_joint",
        "wrist_1_joint",
        "wrist_2_joint",
        "wrist_3_joint"
    ],
    "metrics": {
        "cart_traj_len": 2.0715669557224636,
        "distance_elbow_joint": 3.908865629920392,
        "distance_shoulder_lift_joint": 1.0725710396746866,
        "distance_shoulder_pan_joint": 1.241469136655557,
        "distance_wrist_1_joint": 1.270833903915237,
        "distance_wrist_2_joint": 1.432064308701957,
        "distance_wrist_3_joint": 2.018885592171976,
        "smoothness": 4.2877579048820457e-16,
        "time": 0.034725298999999994,
        "traj_len": 3.308275927282941,
        "weighted_distance": 4.205396415083952
    },
    "planner": "PRM",
    "start": {
        "state": {
            "elbow_joint": -1.919643507792019,
            "shoulder_lift_joint": -0.07675430207160344,
            "shoulder_pan_joint": -1.1188671864651873,
            "wrist_1_joint": 0.42560062535961957,
            "wrist_2_joint": 1.5706038300724876,
            "wrist_3_joint": 1.1188968870953055
        }
    },
    "waypoints": [
        {
            "positions": [
                -1.1188671864651873,
                -0.07675430207160344,
                -1.919643507792019,
                0.42560062535961957,
                1.5706038300724876,
                1.1188968870953055
            ]
        },
        {
            "positions": [
                -1.074529003013203,
                -0.11506041063141367,
                -1.7800411638662907,
                0.3802137002197897,
                1.5194586761902749,
                1.1909999439585903
            ]
        },
        {
            "positions": [
                -1.030190819561219,
                -0.1533665191912239,
                -1.6404388199405626,
                0.3348267750799598,
                1.4683135223080621,
                1.2631030008218753
            ]
        },
        {
            "positions": [
                -0.9858526361092348,
                -0.19167262775103414,
                -1.5008364760148343,
                0.2894398499401299,
                1.4171683684258494,
                1.33520605768516
            ]
        },
        {
            "positions": [
                -0.9415144526572506,
                -0.22997873631084437,
                -1.361234132089106,
                0.2440529248003,
                1.3660232145436366,
                1.4073091145484449
            ]
        },
        {
            "positions": [
                -0.8971762692052665,
                -0.2682848448706546,
                -1.2216317881633776,
                0.1986659996604701,
                1.3148780606614239,
                1.4794121714117299
            ]
        },
        {
            "positions": [
                -0.8528380857532822,
                -0.30659095343046483,
                -1.0820294442376495,
                0.1532790745206402,
                1.2637329067792111,
                1.5515152282750146
            ]
        },
        {
            "positions": [
                -0.8084999023012981,
                -0.3448970619902751,
                -0.9424271003119211,
                0.10789214938081032,
                1.2125877528969984,
                1.6236182851382996
            ]
        },
        {
            "positions": [
                -0.7641617188493139,
                -0.3832031705500853,
                -0.802824756386193,
                0.06250522424098043,
                1.1614425990147856,
                1.6957213420015842
            ]
        },
        {
            "positions": [
                -0.7198235353973297,
                -0.4215092791098956,
                -0.6632224124604644,
                0.01711829910115048,
                1.110297445132573,
                1.7678243988648692
            ]
        },
        {
            "positions": [
                -0.6754853519453455,
                -0.4598153876697058,
                -0.5236200685347363,
                -0.028268626038679356,
                1.0591522912503601,
                1.8399274557281542
            ]
        },
        {
            "positions": [
                -0.6311471684933614,
                -0.498121496229516,
                -0.38401772460900796,
                -0.07365555117850925,
                1.0080071373681474,
                1.912030512591439
            ]
        },
        {
            "positions": [
                -0.5868089850413772,
                -0.5364276047893262,
                -0.24441538068327984,
                -0.11904247631833914,
                0.9568619834859347,
                1.9841335694547237
            ]
        },
        {
            "positions": [
                -0.542470801589393,
                -0.5747337133491366,
                -0.10481303675755127,
                -0.16442940145816903,
                0.9057168296037219,
                2.0562366263180087
            ]
        },
        {
            "positions": [
                -0.49813261813740883,
                -0.6130398219089468,
                0.03478930716817685,
                -0.20981632659799893,
                0.8545716757215092,
                2.1283396831812933
            ]
        },
        {
            "positions": [
                -0.4537944346854247,
                -0.651345930468757,
                0.1743916510939052,
                -0.2552032517378288,
                0.8034265218392964,
                2.2004427400445783
            ]
        },
        {
            "positions": [
                -0.40945625123344054,
                -0.6896520390285672,
                0.3139939950196331,
                -0.3005901768776587,
                0.7522813679570837,
                2.2725457969078633
            ]
        },
        {
            "positions": [
                -0.3651180677814564,
                -0.7279581475883774,
                0.45359633894536144,
                -0.3459771020174885,
                0.701136214074871,
                2.3446488537711483
            ]
        },
        {
            "positions": [
                -0.320779884329472,
                -0.7662642561481878,
                0.5931986828710902,
                -0.3913640271573186,
                0.6499910601926581,
                2.4167519106344333
            ]
        },
        {
            "positions": [
                -0.2764417008774879,
                -0.804570364707998,
                0.7328010267968186,
                -0.4367509522971484,
                0.5988459063104454,
                2.488854967497718
            ]
        },
        {
            "positions": [
                -0.23210351742550372,
                -0.8428764732678082,
                0.8724033707225465,
                -0.4821378774369783,
                0.5477007524282327,
                2.5609580243610024
            ]
        },
        {
            "positions": [
                -0.18776533397351958,
                -0.8811825818276184,
                1.0120057146482748,
                -0.5275248025768082,
                0.49655559854601994,
                2.6330610812242874
            ]
        },
        {
            "positions": [
                -0.14342715052153543,
                -0.9194886903874286,
                1.1516080585740032,
                -0.572911727716638,
                0.4454104446638072,
                2.7051641380875724
            ]
        },
        {
            "positions": [
                -0.09908896706955117,
                -0.9577947989472388,
                1.291210402499731,
                -0.6182986528564678,
                0.39426529078159445,
                2.7772671949508574
            ]
        },
        {
            "positions": [
                -0.054750783617567134,
                -0.996100907507049,
                1.4308127464254594,
                -0.6636855779962978,
                0.3431201368993817,
                2.849370251814142
            ]
        },
        {
            "positions": [
                -0.010412600165582875,
                -1.0344070160668595,
                1.5704150903511882,
                -0.7090725031361278,
                0.29197498301716895,
                2.921473308677427
            ]
        },
        {
            "positions": [
                0.033925583286401384,
                -1.0727131246266697,
                1.7100174342769165,
                -0.7544594282759576,
                0.2408298291349562,
                2.993576365540712
            ]
        },
        {
            "positions": [
                0.07826376673838542,
                -1.1110192331864799,
                1.8496197782026444,
                -0.7998463534157876,
                0.18968467525274346,
                3.0656794224039965
            ]
        },
        {
            "positions": [
                0.12260195019036979,
                -1.14932534174629,
                1.9892221221283728,
                -0.8452332785556175,
                0.13853952137053083,
                3.1377824792672815
            ]
        }
    ]
}