{
    "goal": {
        "global_pose": {
            "orientation": {
                "w": -0.00223480608172531,
                "x": 0.0024358444001904467,
                "y": 0.7094548369677653,
                "z": -0.704743149386269
            },
            "position": {
                "x": 0.6205249238014221,
                "y": -0.6371506643295288,
                "z": 0.19426114857196808
            }
        },
        "name": "move_to_magneteinheit_B"
    },
    "id": "PRM_move_to_magneteinheit_B_84",
    "joint_names": [
        "shoulder_pan_joint",
        "shoulder_lift_joint",
        "elbow_joint",
        "wrist_1_joint",
        "wrist_2_joint",
        "wrist_3_joint"
    ],
    "metrics": {
        "cart_traj_len": 3.5380977694334295,
        "distance_elbow_joint": 4.07032410341834,
        "distance_shoulder_lift_joint": 2.4428990074896704,
        "distance_shoulder_pan_joint": 2.8613799906277944,
        "distance_wrist_1_joint": 7.530647784956311,
        "distance_wrist_2_joint": 3.420422849961131,
        "distance_wrist_3_joint": 6.272096178391706,
        "smoothness": 0.35832369325042257,
        "time": 0.984312595,
        "traj_len": 5.157302581276857,
        "weighted_distance": 7.0776431745706
    },
    "planner": "PRM",
    "start": {
        "state": {
            "elbow_joint": 2.39358713078474,
            "shoulder_lift_joint": -1.908514104345545,
            "shoulder_pan_joint": 0.7066247066606129,
            "wrist_1_joint": -0.4678290933515497,
            "wrist_2_joint": 0.7096259083745334,
            "wrist_3_joint": -3.1358149277392293
        }
    },
    "waypoints": [
        {
            "positions": [
                0.7066247066606129,
                -1.908514104345545,
                2.39358713078474,
                -0.4678290933515497,
                0.7096259083745334,
                -3.1358149277392293
            ]
        },
        {
            "positions": [
                0.7192292820949133,
                -1.924175966976688,
                2.35914494568147,
                -0.39946849982968746,
                0.6613939635363186,
                -2.9427540667932925
            ]
        },
        {
            "positions": [
                0.7318338575292137,
                -1.939837829607831,
                2.3247027605782002,
                -0.3311079063078252,
                0.6131620186981038,
                -2.7496932058473553
            ]
        },
        {
            "positions": [
                0.7444384329635141,
                -1.955499692238974,
                2.2902605754749303,
                -0.26274731278596297,
                0.564930073859889,
                -2.5566323449014186
            ]
        },
        {
            "positions": [
                0.7570430083978145,
                -1.971161554870117,
                2.2558183903716604,
                -0.19438671926410073,
                0.5166981290216742,
                -2.3635714839554813
            ]
        },
        {
            "positions": [
                0.769647583832115,
                -1.98682341750126,
                2.221376205268391,
                -0.12602612574223843,
                0.4684661841834594,
                -2.1705106230095446
            ]
        },
        {
            "positions": [
                0.7822521592664153,
                -2.002485280132403,
                2.186934020165121,
                -0.05766553222037624,
                0.4202342393452446,
                -1.9774497620636076
            ]
        },
        {
            "positions": [
                0.7948567347007157,
                -2.018147142763546,
                2.152491835061851,
                0.010695061301486064,
                0.3720022945070298,
                -1.7843889011176706
            ]
        },
        {
            "positions": [
                0.8074613101350161,
                -2.033809005394689,
                2.1180496499585812,
                0.07905565482334825,
                0.323770349668815,
                -1.5913280401717336
            ]
        },
        {
            "positions": [
                0.8200658855693165,
                -2.049470868025832,
                2.0836074648553113,
                0.14741624834521055,
                0.2755384048306002,
                -1.3982671792257966
            ]
        },
        {
            "positions": [
                0.8866140723395388,
                -2.010929272175659,
                1.9758591995034787,
                0.22470823266491824,
                0.309083008860278,
                -1.3282562142234986
            ]
        },
        {
            "positions": [
                0.9531622591097613,
                -1.9723876763254857,
                1.868110934151646,
                0.30200021698462587,
                0.3426276128899558,
                -1.2582452492212008
            ]
        },
        {
            "positions": [
                1.0197104458799837,
                -1.9338460804753126,
                1.7603626687998133,
                0.3792922013043336,
                0.3761722169196336,
                -1.188234284218903
            ]
        },
        {
            "positions": [
                1.086258632650206,
                -1.8953044846251395,
                1.6526144034479806,
                0.45658418562404124,
                0.4097168209493114,
                -1.1182233192166051
            ]
        },
        {
            "positions": [
                1.1528068194204284,
                -1.8567628887749663,
                1.5448661380961477,
                0.5338761699437489,
                0.44326142497898924,
                -1.0482123542143071
            ]
        },
        {
            "positions": [
                1.2193550061906508,
                -1.8182212929247932,
                1.4371178727443152,
                0.6111681542634566,
                0.476806029008667,
                -0.9782013892120094
            ]
        },
        {
            "positions": [
                1.2859031929608733,
                -1.77967969707462,
                1.3293696073924823,
                0.6884601385831643,
                0.5103506330383448,
                -0.9081904242097115
            ]
        },
        {
            "positions": [
                1.3524513797310957,
                -1.741138101224447,
                1.2216213420406496,
                0.7657521229028719,
                0.5438952370680226,
                -0.8381794592074137
            ]
        },
        {
            "positions": [
                1.4189995665013182,
                -1.7025965053742738,
                1.113873076688817,
                0.8430441072225796,
                0.5774398410977004,
                -0.7681684942051158
            ]
        },
        {
            "positions": [
                1.4855477532715406,
                -1.6640549095241006,
                1.006124811336984,
                0.9203360915422873,
                0.6109844451273783,
                -0.6981575292028179
            ]
        },
        {
            "positions": [
                1.5520959400417629,
                -1.6255133136739275,
                0.8983765459851516,
                0.9976280758619951,
                0.644529049157056,
                -0.6281465642005201
            ]
        },
        {
            "positions": [
                1.618644126811985,
                -1.5869717178237543,
                0.7906282806333189,
                1.0749200601817026,
                0.6780736531867337,
                -0.5581355991982222
            ]
        },
        {
            "positions": [
                1.6851923135822078,
                -1.5484301219735812,
                0.682880015281486,
                1.1522120445014103,
                0.7116182572164116,
                -0.48812463419592433
            ]
        },
        {
            "positions": [
                1.75174050035243,
                -1.509888526123408,
                0.5751317499296533,
                1.229504028821118,
                0.7451628612460894,
                -0.41811366919362647
            ]
        },
        {
            "positions": [
                1.8182886871226525,
                -1.471346930273235,
                0.46738348457782064,
                1.3067960131408258,
                0.7787074652757672,
                -0.3481027041913287
            ]
        },
        {
            "positions": [
                1.884836873892875,
                -1.4328053344230618,
                0.35963521922598796,
                1.3840879974605333,
                0.812252069305445,
                -0.27809173918903074
            ]
        },
        {
            "positions": [
                1.9513850606630974,
                -1.3942637385728887,
                0.2518869538741553,
                1.461379981780241,
                0.8457966733351228,
                -0.208080774186733
            ]
        },
        {
            "positions": [
                2.01793324743332,
                -1.3557221427227155,
                0.14413868852232237,
                1.5386719660999488,
                0.8793412773648007,
                -0.138069809184435
            ]
        },
        {
            "positions": [
                2.0844814342035423,
                -1.3171805468725424,
                0.03639042317048968,
                1.6159639504196566,
                0.9128858813944785,
                -0.06805884418213703
            ]
        },
        {
            "positions": [
                2.1510296209737647,
                -1.2786389510223692,
                -0.07135784218134322,
                1.693255934739364,
                0.9464304854241563,
                0.0019521208201607188
            ]
        },
        {
            "positions": [
                2.217577807743987,
                -1.240097355172196,
                -0.17910610753317568,
                1.7705479190590718,
                0.979975089453834,
                0.0719630858224587
            ]
        },
        {
            "positions": [
                2.284125994514209,
                -1.201555759322023,
                -0.28685437288500815,
                1.8478399033787796,
                1.0135196934835118,
                0.14197405082475645
            ]
        },
        {
            "positions": [
                2.3506741812844316,
                -1.1630141634718498,
                -0.39460263823684105,
                1.925131887698487,
                1.0470642975131896,
                0.2119850158270542
            ]
        },
        {
            "positions": [
                2.417222368054654,
                -1.1244725676216767,
                -0.5023509035886735,
                2.002423872018195,
                1.0806089015428673,
                0.2819959808293522
            ]
        },
        {
            "positions": [
                2.4837705548248765,
                -1.0859309717715036,
                -0.6100991689405069,
                2.0797158563379026,
                1.1141535055725453,
                0.35200694583165015
            ]
        },
        {
            "positions": [
                2.550318741595099,
                -1.0473893759213304,
                -0.7178474342923393,
                2.15700784065761,
                1.147698109602223,
                0.4220179108339479
            ]
        },
        {
            "positions": [
                2.6168669283653214,
                -1.0088477800711573,
                -0.8255956996441722,
                2.2342998249773176,
                1.1812427136319008,
                0.4920288758362459
            ]
        },
        {
            "positions": [
                2.683415115135544,
                -0.9703061842209841,
                -0.9333439649960047,
                2.3115918092970253,
                1.2147873176615787,
                0.5620398408385436
            ]
        },
        {
            "positions": [
                2.6672257811542948,
                -1.0125734476440087,
                -0.9594782563328841,
                2.1508839745868675,
                1.1480515046731834,
                0.6405689403551579
            ]
        },
        {
            "positions": [
                2.651036447173046,
                -1.054840711067033,
                -0.9856125476697634,
                1.99017613987671,
                1.0813156916847884,
                0.719098039871772
            ]
        },
        {
            "positions": [
                2.634847113191797,
                -1.0971079744900576,
                -1.0117468390066429,
                1.8294683051665521,
                1.014579878696393,
                0.7976271393883863
            ]
        },
        {
            "positions": [
                2.6186577792105483,
                -1.139375237913082,
                -1.037881130343522,
                1.6687604704563945,
                0.947844065707998,
                0.8761562389050004
            ]
        },
        {
            "positions": [
                2.602468445229299,
                -1.1816425013361065,
                -1.0640154216804014,
                1.5080526357462367,
                0.8811082527196028,
                0.9546853384216147
            ]
        },
        {
            "positions": [
                2.5862791112480505,
                -1.2239097647591308,
                -1.0901497130172808,
                1.347344801036079,
                0.8143724397312075,
                1.0332144379382289
            ]
        },
        {
            "positions": [
                2.5700897772668014,
                -1.2661770281821554,
                -1.1162840043541602,
                1.186636966325921,
                0.7476366267428124,
                1.111743537454843
            ]
        },
        {
            "positions": [
                2.5539004432855523,
                -1.3084442916051797,
                -1.1424182956910396,
                1.0259291316157635,
                0.6809008137544172,
                1.1902726369714571
            ]
        },
        {
            "positions": [
                2.5377111093043037,
                -1.3507115550282043,
                -1.168552587027919,
                0.8652212969056055,
                0.614165000766022,
                1.2688017364880717
            ]
        },
        {
            "positions": [
                2.5215217753230545,
                -1.3929788184512288,
                -1.1946868783647981,
                0.7045134621954479,
                0.5474291877776268,
                1.3473308360046858
            ]
        },
        {
            "positions": [
                2.505332441341806,
                -1.4352460818742532,
                -1.2208211697016775,
                0.54380562748529,
                0.4806933747892317,
                1.4258599355213
            ]
        },
        {
            "positions": [
                2.4891431073605568,
                -1.4775133452972775,
                -1.246955461038557,
                0.38309779277513245,
                0.41395756180083654,
                1.504389035037914
            ]
        },
        {
            "positions": [
                2.472953773379308,
                -1.519780608720302,
                -1.2730897523754363,
                0.22238995806497464,
                0.3472217488124413,
                1.5829181345545285
            ]
        },
        {
            "positions": [
                2.456764439398059,
                -1.5620478721433266,
                -1.2992240437123157,
                0.06168212335481682,
                0.28048593582404613,
                1.6614472340711426
            ]
        },
        {
            "positions": [
                2.44057510541681,
                -1.6043151355663512,
                -1.325358335049195,
                -0.099025711355341,
                0.21375012283565087,
                1.7399763335877567
            ]
        },
        {
            "positions": [
                2.424385771435561,
                -1.6465823989893755,
                -1.3514926263860745,
                -0.25973354606549837,
                0.14701430984725583,
                1.8185054331043708
            ]
        },
        {
            "positions": [
                2.408196437454312,
                -1.6888496624123999,
                -1.3776269177229539,
                -0.4204413807756562,
                0.08027849685886057,
                1.8970345326209852
            ]
        },
        {
            "positions": [
                2.3920071034730634,
                -1.7311169258354244,
                -1.4037612090598333,
                -0.5811492154858144,
                0.01354268387046531,
                1.9755636321375996
            ]
        },
        {
            "positions": [
                2.3758177694918143,
                -1.773384189258449,
                -1.4298955003967126,
                -0.7418570501959723,
                -0.05319312911792973,
                2.0540927316542135
            ]
        },
        {
            "positions": [
                2.3596284355105652,
                -1.8156514526814735,
                -1.4560297917335918,
                -0.9025648849061296,
                -0.11992894210632499,
                2.1326218311708276
            ]
        },
        {
            "positions": [
                2.3434391015293166,
                -1.8579187161044979,
                -1.4821640830704712,
                -1.0632727196162874,
                -0.18666475509472003,
                2.211150930687442
            ]
        },
        {
            "positions": [
                2.327249767548068,
                -1.9001859795275222,
                -1.5082983744073506,
                -1.2239805543264453,
                -0.2534005680831153,
                2.2896800302040563
            ]
        },
        {
            "positions": [
                2.311060433566819,
                -1.9424532429505468,
                -1.5344326657442298,
                -1.3846883890366026,
                -0.32013638107151055,
                2.3682091297206704
            ]
        },
        {
            "positions": [
                2.2948710995855697,
                -1.9847205063735711,
                -1.5605669570811092,
                -1.5453962237467604,
                -0.3868721940599056,
                2.4467382292372846
            ]
        },
        {
            "positions": [
                2.278681765604321,
                -2.026987769796596,
                -1.5867012484179885,
                -1.7061040584569187,
                -0.45360800704830084,
                2.525267328753899
            ]
        },
        {
            "positions": [
                2.262492431623072,
                -2.06925503321962,
                -1.612835539754868,
                -1.866811893167076,
                -0.5203438200366961,
                2.6037964282705133
            ]
        },
        {
            "positions": [
                2.246303097641823,
                -2.1115222966426446,
                -1.6389698310917473,
                -2.0275197278772343,
                -0.5870796330250911,
                2.6823255277871274
            ]
        },
        {
            "positions": [
                2.230113763660574,
                -2.153789560065669,
                -1.6651041224286267,
                -2.188227562587392,
                -0.6538154460134865,
                2.7608546273037415
            ]
        },
        {
            "positions": [
                2.340393655337087,
                -2.165629102481844,
                -1.6653741277932435,
                -2.2539235193642813,
                -0.6063607050078025,
                2.8552480932162854
            ]
        },
        {
            "positions": [
                2.4506735470136003,
                -2.1774686448980183,
                -1.66564413315786,
                -2.319619476141171,
                -0.5589059640021183,
                2.9496415591288287
            ]
        },
        {
            "positions": [
                2.560953438690113,
                -2.189308187314193,
                -1.6659141385224767,
                -2.38531543291806,
                -0.5114512229964343,
                3.0440350250413726
            ]
        },
        {
            "positions": [
                2.6614019943384677,
                -2.185532630402867,
                -1.6550913044113535,
                -2.439635073010713,
                -0.4753317761023342,
                3.136281250652479
            ]
        }
    ]
}