{
    "goal": {
        "global_pose": {
            "orientation": {
                "w": -0.00223480608172531,
                "x": 0.0024358444001904467,
                "y": 0.7094548369677653,
                "z": -0.704743149386269
            },
            "position": {
                "x": 0.6205249238014221,
                "y": -0.6371506643295288,
                "z": 0.19426114857196808
            }
        },
        "name": "move_to_magneteinheit_B"
    },
    "id": "PRM_move_to_magneteinheit_B_115",
    "joint_names": [
        "shoulder_pan_joint",
        "shoulder_lift_joint",
        "elbow_joint",
        "wrist_1_joint",
        "wrist_2_joint",
        "wrist_3_joint"
    ],
    "metrics": {
        "cart_traj_len": 1.4521639576563783,
        "distance_elbow_joint": 0.7292779530023548,
        "distance_shoulder_lift_joint": 1.2475521382282149,
        "distance_shoulder_pan_joint": 1.62057771027462,
        "distance_wrist_1_joint": 2.6066580226857545,
        "distance_wrist_2_joint": 2.9400072078925694,
        "distance_wrist_3_joint": 3.138329395101872,
        "smoothness": 3.2297397183914985e-16,
        "time": 0.044065126,
        "traj_len": 3.5046258612276127,
        "weighted_distance": 4.909758288140817
    },
    "planner": "PRM",
    "start": {
        "state": {
            "elbow_joint": 2.39358713078474,
            "shoulder_lift_joint": -1.908514104345545,
            "shoulder_pan_joint": 0.7066247066606129,
            "wrist_1_joint": -0.4678290933515497,
            "wrist_2_joint": 0.7096259083745334,
            "wrist_3_joint": -3.1358149277392293
        }
    },
    "waypoints": [
        {
            "positions": [
                0.7066247066606129,
                -1.908514104345545,
                2.39358713078474,
                -0.4678290933515497,
                0.7096259083745334,
                -3.1358149277392293
            ]
        },
        {
            "positions": [
                0.6559816532145311,
                -1.8695281000259132,
                2.3707971947534165,
                -0.38637103014261986,
                0.6177506831278906,
                -3.0377421341422957
            ]
        },
        {
            "positions": [
                0.6053385997684492,
                -1.8305420957062815,
                2.348007258722093,
                -0.3049129669336901,
                0.5258754578812479,
                -2.9396693405453624
            ]
        },
        {
            "positions": [
                0.5546955463223673,
                -1.7915560913866497,
                2.3252173226907695,
                -0.22345490372476023,
                0.4340002326346051,
                -2.841596546948429
            ]
        },
        {
            "positions": [
                0.5040524928762855,
                -1.752570087067018,
                2.3024273866594456,
                -0.1419968405158304,
                0.34212500738796225,
                -2.7435237533514956
            ]
        },
        {
            "positions": [
                0.45340943943020356,
                -1.7135840827473863,
                2.279637450628122,
                -0.06053877730690055,
                0.25024978214131943,
                -2.645450959754562
            ]
        },
        {
            "positions": [
                0.40276638598412173,
                -1.6745980784277545,
                2.2568475145967986,
                0.02091928590202924,
                0.15837455689467672,
                -2.5473781661576282
            ]
        },
        {
            "positions": [
                0.35212333253803985,
                -1.6356120741081228,
                2.234057578565475,
                0.10237734911095914,
                0.0664993316480339,
                -2.449305372560695
            ]
        },
        {
            "positions": [
                0.30148027909195796,
                -1.596626069788491,
                2.2112676425341515,
                0.18383541231988892,
                -0.025375893598608923,
                -2.3512325789637614
            ]
        },
        {
            "positions": [
                0.25083722564587607,
                -1.5576400654688594,
                2.1884777065028276,
                0.2652934755288187,
                -0.11725111884525174,
                -2.2531597853668277
            ]
        },
        {
            "positions": [
                0.20019417219979418,
                -1.5186540611492276,
                2.165687770471504,
                0.3467515387377486,
                -0.20912634409189457,
                -2.1550869917698945
            ]
        },
        {
            "positions": [
                0.1495511187537123,
                -1.4796680568295961,
                2.1428978344401806,
                0.4282096019466784,
                -0.3010015693385374,
                -2.057014198172961
            ]
        },
        {
            "positions": [
                0.09890806530763052,
                -1.4406820525099644,
                2.120107898408857,
                0.5096676651556082,
                -0.39287679458518,
                -1.9589414045760274
            ]
        },
        {
            "positions": [
                0.048265011861548635,
                -1.4016960481903327,
                2.0973179623775335,
                0.5911257283645381,
                -0.4847520198318228,
                -1.860868610979094
            ]
        },
        {
            "positions": [
                -0.0023780415845332525,
                -1.362710043870701,
                2.07452802634621,
                0.672583791573468,
                -0.5766272450784656,
                -1.7627958173821603
            ]
        },
        {
            "positions": [
                -0.05302109503061514,
                -1.3237240395510692,
                2.051738090314886,
                0.7540418547823977,
                -0.6685024703251085,
                -1.6647230237852269
            ]
        },
        {
            "positions": [
                -0.10366414847669703,
                -1.2847380352314375,
                2.0289481542835626,
                0.8354999179913276,
                -0.7603776955717513,
                -1.5666502301882934
            ]
        },
        {
            "positions": [
                -0.1543072019227789,
                -1.2457520309118058,
                2.006158218252239,
                0.9169579812002575,
                -0.8522529208183941,
                -1.46857743659136
            ]
        },
        {
            "positions": [
                -0.2049502553688608,
                -1.206766026592174,
                1.9833682822209155,
                0.9984160444091872,
                -0.9441281460650369,
                -1.3705046429944265
            ]
        },
        {
            "positions": [
                -0.2555933088149427,
                -1.1677800222725423,
                1.960578346189592,
                1.079874107618117,
                -1.0360033713116796,
                -1.2724318493974929
            ]
        },
        {
            "positions": [
                -0.3062363622610246,
                -1.1287940179529106,
                1.9377884101582683,
                1.161332170827047,
                -1.1278785965583227,
                -1.1743590558005594
            ]
        },
        {
            "positions": [
                -0.35687941570710635,
                -1.089808013633279,
                1.9149984741269448,
                1.2427902340359767,
                -1.2197538218049653,
                -1.076286262203626
            ]
        },
        {
            "positions": [
                -0.40752246915318835,
                -1.0508220093136473,
                1.892208538095621,
                1.3242482972449066,
                -1.3116290470516083,
                -0.9782134686066923
            ]
        },
        {
            "positions": [
                -0.4581655225992701,
                -1.0118360049940156,
                1.8694186020642976,
                1.4057063604538365,
                -1.403504272298251,
                -0.8801406750097591
            ]
        },
        {
            "positions": [
                -0.5088085760453519,
                -0.9728500006743838,
                1.846628666032974,
                1.4871644236627661,
                -1.4953794975448935,
                -0.7820678814128255
            ]
        },
        {
            "positions": [
                -0.5594516294914339,
                -0.933863996354752,
                1.8238387300016505,
                1.5686224868716963,
                -1.5872547227915366,
                -0.6839950878158918
            ]
        },
        {
            "positions": [
                -0.6100946829375157,
                -0.8948779920351204,
                1.8010487939703268,
                1.650080550080626,
                -1.6791299480381792,
                -0.5859222942189586
            ]
        },
        {
            "positions": [
                -0.6607377363835977,
                -0.8558919877154887,
                1.778258857939003,
                1.7315386132895556,
                -1.7710051732848222,
                -0.4878495006220249
            ]
        },
        {
            "positions": [
                -0.7113807898296794,
                -0.816905983395857,
                1.7554689219076796,
                1.8129966764984857,
                -1.8628803985314648,
                -0.38977670702509126
            ]
        },
        {
            "positions": [
                -0.7620238432757614,
                -0.7779199790762252,
                1.732678985876356,
                1.8944547397074154,
                -1.9547556237781079,
                -0.29170391342815805
            ]
        },
        {
            "positions": [
                -0.8126668967218432,
                -0.7389339747565935,
                1.7098890498450325,
                1.975912802916345,
                -2.0466308490247505,
                -0.19363111983122439
            ]
        },
        {
            "positions": [
                -0.8633099501679252,
                -0.6999479704369618,
                1.687099113813709,
                2.057370866125275,
                -2.1385060742713935,
                -0.09555832623429117
            ]
        },
        {
            "positions": [
                -0.913953003614007,
                -0.66096196611733,
                1.6643091777823853,
                2.138828929334205,
                -2.230381299518036,
                0.0025144673626426232
            ]
        }
    ]
}