{
    "goal": {
        "global_pose": {
            "orientation": {
                "w": 0.7031023502349854,
                "x": -0.7110244035720825,
                "y": 0.007748599164187908,
                "z": 0.005598929710686207
            },
            "position": {
                "x": 0.11585023208521307,
                "y": 0.44412534475326537,
                "z": 0.3711530566215515
            }
        },
        "name": "move_to_auspresseinheit_A"
    },
    "id": "PRM_move_to_auspresseinheit_A_118",
    "joint_names": [
        "shoulder_pan_joint",
        "shoulder_lift_joint",
        "elbow_joint",
        "wrist_1_joint",
        "wrist_2_joint",
        "wrist_3_joint"
    ],
    "metrics": {
        "cart_traj_len": 0.701991784072516,
        "distance_elbow_joint": 0.37084644158316804,
        "distance_shoulder_lift_joint": 0.5323150834480539,
        "distance_shoulder_pan_joint": 1.0441635148822468,
        "distance_wrist_1_joint": 2.9147483231837192,
        "distance_wrist_2_joint": 0.8162657582956708,
        "distance_wrist_3_joint": 5.7692662674826805,
        "smoothness": 0.8907829588714107,
        "time": 0.708271563,
        "traj_len": 3.3834310084403287,
        "weighted_distance": 5.168863705430846
    },
    "planner": "PRM",
    "start": {
        "state": {
            "elbow_joint": 2.422574709923281,
            "shoulder_lift_joint": -1.3736533754116391,
            "shoulder_pan_joint": -0.33786336945926293,
            "wrist_1_joint": -1.0288603412921917,
            "wrist_2_joint": 1.2330224858903978,
            "wrist_3_joint": -3.094022268022082
        }
    },
    "waypoints": [
        {
            "positions": [
                -0.33786336945926293,
                -1.3736533754116391,
                2.422574709923281,
                -1.0288603412921917,
                1.2330224858903978,
                -3.094022268022082
            ]
        },
        {
            "positions": [
                -0.31433247606544107,
                -1.3920079246282562,
                2.4099110178273606,
                -0.9196767887885671,
                1.1909345250893975,
                -2.9152929263474823
            ]
        },
        {
            "positions": [
                -0.2908015826716192,
                -1.4103624738448732,
                2.3972473257314406,
                -0.8104932362849424,
                1.1488465642883972,
                -2.7365635846728824
            ]
        },
        {
            "positions": [
                -0.26727068927779735,
                -1.4287170230614903,
                2.38458363363552,
                -0.7013096837813179,
                1.106758603487397,
                -2.5578342429982825
            ]
        },
        {
            "positions": [
                -0.24373979588397549,
                -1.4470715722781073,
                2.3719199415395997,
                -0.5921261312776932,
                1.0646706426863968,
                -2.3791049013236827
            ]
        },
        {
            "positions": [
                -0.22020890249015362,
                -1.4654261214947244,
                2.3592562494436797,
                -0.48294257877406854,
                1.0225826818853965,
                -2.200375559649083
            ]
        },
        {
            "positions": [
                -0.1966780090963318,
                -1.4837806707113415,
                2.3465925573477593,
                -0.373759026270444,
                0.9804947210843962,
                -2.0216462179744834
            ]
        },
        {
            "positions": [
                -0.17314711570250993,
                -1.5021352199279585,
                2.333928865251839,
                -0.26457547376681934,
                0.9384067602833959,
                -1.8429168762998833
            ]
        },
        {
            "positions": [
                -0.14961622230868807,
                -1.5204897691445756,
                2.3212651731559184,
                -0.15539192126319468,
                0.8963187994823957,
                -1.6641875346252835
            ]
        },
        {
            "positions": [
                -0.1260853289148662,
                -1.5388443183611926,
                2.3086014810599984,
                -0.04620836875957002,
                0.8542308386813955,
                -1.4854581929506836
            ]
        },
        {
            "positions": [
                -0.10255443552104435,
                -1.55719886757781,
                2.295937788964078,
                0.06297518374405464,
                0.8121428778803952,
                -1.3067288512760837
            ]
        },
        {
            "positions": [
                -0.07902354212722251,
                -1.575553416794427,
                2.2832740968681575,
                0.1721587362476793,
                0.7700549170793949,
                -1.1279995096014839
            ]
        },
        {
            "positions": [
                -0.05549264873340065,
                -1.593907966011044,
                2.2706104047722375,
                0.28134228875130374,
                0.7279669562783946,
                -0.9492701679268842
            ]
        },
        {
            "positions": [
                -0.03196175533957879,
                -1.612262515227661,
                2.257946712676317,
                0.3905258412549284,
                0.6858789954773944,
                -0.7705408262522844
            ]
        },
        {
            "positions": [
                -0.008430861945756929,
                -1.6306170644442781,
                2.2452830205803966,
                0.49970939375855306,
                0.6437910346763941,
                -0.5918114845776845
            ]
        },
        {
            "positions": [
                0.015100031448064932,
                -1.6489716136608952,
                2.2326193284844766,
                0.6088929462621777,
                0.6017030738753939,
                -0.41308214290308465
            ]
        },
        {
            "positions": [
                0.03863092484188678,
                -1.6673261628775122,
                2.219955636388556,
                0.7180764987658024,
                0.5596151130743936,
                -0.2343528012284849
            ]
        },
        {
            "positions": [
                0.08632158345482228,
                -1.6843720411619536,
                2.231971876963445,
                0.6346613928282505,
                0.5698192834657984,
                -0.44218114413484794
            ]
        },
        {
            "positions": [
                0.1340122420677578,
                -1.7014179194463952,
                2.2439881175383336,
                0.5512462868906988,
                0.5800234538572031,
                -0.650009487041211
            ]
        },
        {
            "positions": [
                0.18170290068069328,
                -1.7184637977308368,
                2.2560043581132225,
                0.4678311809531469,
                0.5902276242486079,
                -0.857837829947574
            ]
        },
        {
            "positions": [
                0.2293935592936288,
                -1.7355096760152782,
                2.2680205986881115,
                0.3844160750155951,
                0.6004317946400126,
                -1.0656661728539372
            ]
        },
        {
            "positions": [
                0.27708421790656435,
                -1.7525555542997195,
                2.2800368392630004,
                0.30100096907804325,
                0.6106359650314174,
                -1.2734945157603001
            ]
        },
        {
            "positions": [
                0.3247748765194998,
                -1.7696014325841611,
                2.292053079837889,
                0.21758586314049144,
                0.6208401354228221,
                -1.4813228586666631
            ]
        },
        {
            "positions": [
                0.37246553513243535,
                -1.7866473108686027,
                2.304069320412778,
                0.13417075720293958,
                0.631044305814227,
                -1.6891512015730261
            ]
        },
        {
            "positions": [
                0.42015619374537083,
                -1.803693189153044,
                2.3160855609876667,
                0.050755651265387836,
                0.6412484762056316,
                -1.896979544479389
            ]
        },
        {
            "positions": [
                0.4678468523583064,
                -1.8207390674374855,
                2.328101801562555,
                -0.032659454672164134,
                0.6514526465970365,
                -2.1048078873857525
            ]
        },
        {
            "positions": [
                0.5155375109712419,
                -1.837784945721927,
                2.340118042137444,
                -0.11607456060971588,
                0.6616568169884413,
                -2.3126362302921155
            ]
        },
        {
            "positions": [
                0.5632281695841774,
                -1.8548308240063687,
                2.352134282712333,
                -0.19948966654726774,
                0.671860987379846,
                -2.520464573198478
            ]
        },
        {
            "positions": [
                0.6109188281971129,
                -1.87187670229081,
                2.364150523287222,
                -0.2829047724848195,
                0.6820651577712508,
                -2.728292916104841
            ]
        },
        {
            "positions": [
                0.6586094868100484,
                -1.8889225805752514,
                2.3761667638621105,
                -0.36631987842237135,
                0.6922693281626555,
                -2.9361212590112045
            ]
        },
        {
            "positions": [
                0.7063001454229839,
                -1.905968458859693,
                2.3881830044369994,
                -0.44973498435992315,
                0.7024734985540603,
                -3.1439496019175674
            ]
        }
    ]
}