{
    "goal": {
        "global_pose": {
            "orientation": {
                "w": 0.7047431468963623,
                "x": -0.7094548344612122,
                "y": 0.0024358443915843964,
                "z": -0.0022348060738295317
            },
            "position": {
                "x": 0.6094750761985779,
                "y": 0.3671506643295288,
                "z": 0.19426114857196808
            }
        },
        "name": "move_to_magneteinheit_A"
    },
    "id": "PRM_move_to_magneteinheit_A_24",
    "joint_names": [
        "shoulder_pan_joint",
        "shoulder_lift_joint",
        "elbow_joint",
        "wrist_1_joint",
        "wrist_2_joint",
        "wrist_3_joint"
    ],
    "metrics": {
        "cart_traj_len": 2.1442046035013336,
        "distance_elbow_joint": 3.9093645164794424,
        "distance_shoulder_lift_joint": 1.0718955036068132,
        "distance_shoulder_pan_joint": 1.241316478457354,
        "distance_wrist_1_joint": 4.125844796378707,
        "distance_wrist_2_joint": 1.432860545189803,
        "distance_wrist_3_joint": 4.251535477635146,
        "smoothness": 0.10886787659264596,
        "time": 0.219624543,
        "traj_len": 4.004100063403418,
        "weighted_distance": 5.485853954908575
    },
    "planner": "PRM",
    "start": {
        "state": {
            "elbow_joint": -1.919643507792019,
            "shoulder_lift_joint": -0.07675430207160344,
            "shoulder_pan_joint": -1.1188671864651873,
            "wrist_1_joint": 0.42560062535961957,
            "wrist_2_joint": 1.5706038300724876,
            "wrist_3_joint": 1.1188968870953055
        }
    },
    "waypoints": [
        {
            "positions": [
                -1.1188671864651873,
                -0.07675430207160344,
                -1.919643507792019,
                0.42560062535961957,
                1.5706038300724876,
                1.1188968870953055
            ]
        },
        {
            "positions": [
                -1.0913460419004484,
                -0.10327825288786928,
                -1.8498773307504572,
                0.24528248812241912,
                1.5598201872445967,
                1.0393238665901694
            ]
        },
        {
            "positions": [
                -1.0638248973357096,
                -0.12980220370413512,
                -1.7801111537088954,
                0.06496435088521868,
                1.549036544416706,
                0.9597508460850331
            ]
        },
        {
            "positions": [
                -1.0363037527709706,
                -0.15632615452040097,
                -1.7103449766673338,
                -0.11535378635198174,
                1.5382529015888151,
                0.8801778255798969
            ]
        },
        {
            "positions": [
                -1.0087826082062317,
                -0.1828501053366668,
                -1.640578799625772,
                -0.2956719235891822,
                1.5274692587609242,
                0.8006048050747607
            ]
        },
        {
            "positions": [
                -0.9812614636414929,
                -0.20937405615293264,
                -1.57081262258421,
                -0.47599006082638257,
                1.5166856159330333,
                0.7210317845696246
            ]
        },
        {
            "positions": [
                -0.9537403190767539,
                -0.2358980069691985,
                -1.5010464455426482,
                -0.656308198063583,
                1.5059019731051426,
                0.6414587640644882
            ]
        },
        {
            "positions": [
                -0.9262191745120151,
                -0.2624219577854643,
                -1.4312802685010864,
                -0.8366263353007835,
                1.4951183302772517,
                0.5618857435593521
            ]
        },
        {
            "positions": [
                -0.8986980299472761,
                -0.2889459086017302,
                -1.3615140914595245,
                -1.016944472537984,
                1.4843346874493608,
                0.4823127230542159
            ]
        },
        {
            "positions": [
                -0.8711768853825372,
                -0.315469859417996,
                -1.2917479144179629,
                -1.1972626097751844,
                1.47355104462147,
                0.40273970254907965
            ]
        },
        {
            "positions": [
                -0.8436557408177984,
                -0.34199381023426184,
                -1.221981737376401,
                -1.3775807470123846,
                1.4627674017935792,
                0.3231666820439435
            ]
        },
        {
            "positions": [
                -0.8161345962530595,
                -0.36851776105052764,
                -1.1522155603348394,
                -1.5578988842495851,
                1.4519837589656883,
                0.24359366153880735
            ]
        },
        {
            "positions": [
                -0.7886134516883205,
                -0.39504171186679354,
                -1.0824493832932773,
                -1.7382170214867856,
                1.4412001161377974,
                0.16402064103367098
            ]
        },
        {
            "positions": [
                -0.7610923071235816,
                -0.4215656626830594,
                -1.0126832062517157,
                -1.918535158723986,
                1.4304164733099065,
                0.08444762052853472
            ]
        },
        {
            "positions": [
                -0.7335711625588428,
                -0.4480896134993252,
                -0.9429170292101537,
                -2.0988532959611867,
                1.4196328304820158,
                0.004874600023398568
            ]
        },
        {
            "positions": [
                -0.7060500179941038,
                -0.47461356431559104,
                -0.873150852168592,
                -2.279171433198387,
                1.408849187654125,
                -0.0746984204817375
            ]
        },
        {
            "positions": [
                -0.6741846599177088,
                -0.5005380351372382,
                -0.7630403959818222,
                -2.2245147894360526,
                1.3599604990859926,
                -0.19231150394551064
            ]
        },
        {
            "positions": [
                -0.6423193018413138,
                -0.5264625059588853,
                -0.6529299397950523,
                -2.169858145673718,
                1.3110718105178603,
                -0.30992458740928375
            ]
        },
        {
            "positions": [
                -0.6104539437649188,
                -0.5523869767805325,
                -0.5428194836082826,
                -2.1152015019113835,
                1.262183121949728,
                -0.42753767087305694
            ]
        },
        {
            "positions": [
                -0.5785885856885238,
                -0.5783114476021796,
                -0.43270902742151274,
                -2.060544858149049,
                1.2132944333815956,
                -0.54515075433683
            ]
        },
        {
            "positions": [
                -0.5467232276121287,
                -0.6042359184238267,
                -0.3225985712347429,
                -2.0058882143867143,
                1.1644057448134633,
                -0.6627638378006031
            ]
        },
        {
            "positions": [
                -0.5148578695357336,
                -0.6301603892454739,
                -0.21248811504797316,
                -1.9512315706243795,
                1.115517056245331,
                -0.7803769212643763
            ]
        },
        {
            "positions": [
                -0.48299251145933864,
                -0.656084860067121,
                -0.10237765886120331,
                -1.8965749268620449,
                1.0666283676771986,
                -0.8979900047281493
            ]
        },
        {
            "positions": [
                -0.4511271533829436,
                -0.6820093308887681,
                0.007732797325566532,
                -1.8419182830997103,
                1.0177396791090663,
                -1.0156030881919227
            ]
        },
        {
            "positions": [
                -0.4192617953065486,
                -0.7079338017104153,
                0.11784325351233627,
                -1.7872616393373757,
                0.968850990540934,
                -1.1332161716556957
            ]
        },
        {
            "positions": [
                -0.38739643723015355,
                -0.7338582725320624,
                0.22795370969910622,
                -1.7326049955750409,
                0.9199623019728016,
                -1.2508292551194689
            ]
        },
        {
            "positions": [
                -0.3555310791537586,
                -0.7597827433537095,
                0.33806416588587584,
                -1.6779483518127065,
                0.8710736134046694,
                -1.368442338583242
            ]
        },
        {
            "positions": [
                -0.3236657210773635,
                -0.7857072141753567,
                0.4481746220726457,
                -1.6232917080503717,
                0.822184924836537,
                -1.4860554220470152
            ]
        },
        {
            "positions": [
                -0.2918003630009685,
                -0.8116316849970038,
                0.5582850782594155,
                -1.5686350642880371,
                0.7732962362684047,
                -1.6036685055107882
            ]
        },
        {
            "positions": [
                -0.2599350049245735,
                -0.837556155818651,
                0.6683955344461854,
                -1.5139784205257025,
                0.7244075477002724,
                -1.7212815889745612
            ]
        },
        {
            "positions": [
                -0.2280696468481785,
                -0.8634806266402981,
                0.778505990632955,
                -1.459321776763368,
                0.6755188591321402,
                -1.8388946724383344
            ]
        },
        {
            "positions": [
                -0.19620428877178342,
                -0.8894050974619453,
                0.8886164468197251,
                -1.4046651330010334,
                0.6266301705640077,
                -1.9565077559021078
            ]
        },
        {
            "positions": [
                -0.1643389306953884,
                -0.9153295682835925,
                0.9987269030064947,
                -1.3500084892386988,
                0.5777414819958754,
                -2.0741208393658805
            ]
        },
        {
            "positions": [
                -0.1324735726189934,
                -0.9412540391052395,
                1.1088373591932645,
                -1.2953518454763642,
                0.5288527934277432,
                -2.1917339228296537
            ]
        },
        {
            "positions": [
                -0.10060821454259838,
                -0.9671785099268866,
                1.2189478153800342,
                -1.2406952017140296,
                0.47996410485961083,
                -2.309347006293427
            ]
        },
        {
            "positions": [
                -0.06874285646620326,
                -0.9931029807485339,
                1.3290582715668045,
                -1.1860385579516948,
                0.4310754162914784,
                -2.4269600897572
            ]
        },
        {
            "positions": [
                -0.03687749838980825,
                -1.019027451570181,
                1.4391687277535739,
                -1.1313819141893602,
                0.38218672772334616,
                -2.5445731732209733
            ]
        },
        {
            "positions": [
                -0.005012140313413349,
                -1.044951922391828,
                1.5492791839403437,
                -1.0767252704270258,
                0.33329803915521383,
                -2.6621862566847465
            ]
        },
        {
            "positions": [
                0.026853217762981663,
                -1.0708763932134753,
                1.6593896401271135,
                -1.0220686266646912,
                0.2844093505870815,
                -2.7797993401485193
            ]
        },
        {
            "positions": [
                0.058718575839376785,
                -1.0968008640351223,
                1.7695000963138834,
                -0.9674119829023564,
                0.23552066201894917,
                -2.897412423612293
            ]
        },
        {
            "positions": [
                0.0905839339157718,
                -1.1227253348567694,
                1.8796105525006532,
                -0.9127553391400218,
                0.18663197345081683,
                -3.0150255070760656
            ]
        },
        {
            "positions": [
                0.12244929199216682,
                -1.1486498056784167,
                1.989721008687423,
                -0.8580986953776872,
                0.13774328488268456,
                -3.132638590539839
            ]
        }
    ]
}