{
    "goal": {
        "global_pose": {
            "orientation": {
                "w": -0.00223480608172531,
                "x": 0.0024358444001904467,
                "y": 0.7094548369677653,
                "z": -0.704743149386269
            },
            "position": {
                "x": 0.6205249238014221,
                "y": -0.6371506643295288,
                "z": 0.19426114857196808
            }
        },
        "name": "move_to_magneteinheit_B"
    },
    "id": "PRM_move_to_magneteinheit_B_92",
    "joint_names": [
        "shoulder_pan_joint",
        "shoulder_lift_joint",
        "elbow_joint",
        "wrist_1_joint",
        "wrist_2_joint",
        "wrist_3_joint"
    ],
    "metrics": {
        "cart_traj_len": 1.4524524914885484,
        "distance_elbow_joint": 0.7308896356607271,
        "distance_shoulder_lift_joint": 1.249321562482145,
        "distance_shoulder_pan_joint": 1.6196434910207058,
        "distance_wrist_1_joint": 2.6055535199272866,
        "distance_wrist_2_joint": 2.9510366840990145,
        "distance_wrist_3_joint": 3.1286288406191463,
        "smoothness": 2.960594748765552e-16,
        "time": 0.043948003,
        "traj_len": 3.505006952034336,
        "weighted_distance": 4.9090652490136675
    },
    "planner": "PRM",
    "start": {
        "state": {
            "elbow_joint": 2.39358713078474,
            "shoulder_lift_joint": -1.908514104345545,
            "shoulder_pan_joint": 0.7066247066606129,
            "wrist_1_joint": -0.4678290933515497,
            "wrist_2_joint": 0.7096259083745334,
            "wrist_3_joint": -3.1358149277392293
        }
    },
    "waypoints": [
        {
            "positions": [
                0.7066247066606129,
                -1.908514104345545,
                2.39358713078474,
                -0.4678290933515497,
                0.7096259083745334,
                -3.1358149277392293
            ]
        },
        {
            "positions": [
                0.6560108475662159,
                -1.869472805517978,
                2.3707468296703422,
                -0.38640554585382203,
                0.6174060119964392,
                -3.038045276469881
            ]
        },
        {
            "positions": [
                0.6053969884718189,
                -1.8304315066904109,
                2.347906528555945,
                -0.3049819983560943,
                0.525186115618345,
                -2.940275625200533
            ]
        },
        {
            "positions": [
                0.5547831293774218,
                -1.7913902078628439,
                2.325066227441547,
                -0.2235584508583666,
                0.4329662192402508,
                -2.842505973931184
            ]
        },
        {
            "positions": [
                0.5041692702830247,
                -1.7523489090352768,
                2.302225926327149,
                -0.1421349033606389,
                0.3407463228621566,
                -2.744736322661836
            ]
        },
        {
            "positions": [
                0.45355541118862763,
                -1.7133076102077098,
                2.2793856252127513,
                -0.060711355862911154,
                0.24852642648406242,
                -2.6469666713924878
            ]
        },
        {
            "positions": [
                0.4029415520942306,
                -1.6742663113801428,
                2.2565453240983535,
                0.020712191634816524,
                0.15630653010596818,
                -2.5491970201231395
            ]
        },
        {
            "positions": [
                0.3523276929998336,
                -1.6352250125525756,
                2.233705022983956,
                0.1021357391325442,
                0.06408663372787404,
                -2.451427368853791
            ]
        },
        {
            "positions": [
                0.3017138339054365,
                -1.5961837137250088,
                2.2108647218695583,
                0.18355928663027193,
                -0.028133262650220203,
                -2.3536577175844426
            ]
        },
        {
            "positions": [
                0.2510999748110394,
                -1.5571424148974415,
                2.1880244207551605,
                0.26498283412799967,
                -0.12035315902831445,
                -2.2558880663150944
            ]
        },
        {
            "positions": [
                0.20048611571664232,
                -1.5181011160698747,
                2.165184119640763,
                0.3464063816257274,
                -0.21257305540640858,
                -2.158118415045746
            ]
        },
        {
            "positions": [
                0.14987225662224535,
                -1.4790598172423075,
                2.1423438185263652,
                0.427829929123455,
                -0.30479295178450283,
                -2.060348763776398
            ]
        },
        {
            "positions": [
                0.09925839752784826,
                -1.4400185184147405,
                2.1195035174119674,
                0.5092534766211827,
                -0.3970128481625971,
                -1.9625791125070495
            ]
        },
        {
            "positions": [
                0.04864453843345118,
                -1.4009772195871735,
                2.0966632162975696,
                0.5906770241189105,
                -0.4892327445406913,
                -1.864809461237701
            ]
        },
        {
            "positions": [
                -0.0019693206609457947,
                -1.3619359207596065,
                2.0738229151831717,
                0.6721005716166382,
                -0.5814526409187853,
                -1.7670398099683529
            ]
        },
        {
            "positions": [
                -0.05258317975534288,
                -1.3228946219320394,
                2.0509826140687744,
                0.753524119114366,
                -0.6736725372968796,
                -1.6692701586990044
            ]
        },
        {
            "positions": [
                -0.10319703884973996,
                -1.2838533231044724,
                2.0281423129543765,
                0.8349476666120936,
                -0.7658924336749738,
                -1.5715005074296562
            ]
        },
        {
            "positions": [
                -0.15381089794413705,
                -1.2448120242769054,
                2.0053020118399787,
                0.9163712141098213,
                -0.8581123300530681,
                -1.473730856160308
            ]
        },
        {
            "positions": [
                -0.20442475703853413,
                -1.2057707254493384,
                1.982461710725581,
                0.9977947616075491,
                -0.9503322264311623,
                -1.3759612048909595
            ]
        },
        {
            "positions": [
                -0.2550386161329311,
                -1.1667294266217714,
                1.9596214096111835,
                1.0792183091052767,
                -1.0425521228092562,
                -1.2781915536216113
            ]
        },
        {
            "positions": [
                -0.3056524752273283,
                -1.1276881277942044,
                1.9367811084967856,
                1.1606418566030046,
                -1.1347720191873507,
                -1.1804219023522629
            ]
        },
        {
            "positions": [
                -0.3562663343217253,
                -1.0886468289666373,
                1.9139408073823878,
                1.2420654041007322,
                -1.2269919155654447,
                -1.0826522510829144
            ]
        },
        {
            "positions": [
                -0.40688019341612225,
                -1.04960553013907,
                1.8911005062679902,
                1.3234889515984598,
                -1.3192118119435392,
                -0.9848825998135662
            ]
        },
        {
            "positions": [
                -0.45749405251051944,
                -1.0105642313115033,
                1.8682602051535926,
                1.4049124990961877,
                -1.4114317083216332,
                -0.887112948544218
            ]
        },
        {
            "positions": [
                -0.5081079116049164,
                -0.9715229324839362,
                1.8454199040391948,
                1.4863360465939153,
                -1.5036516046997277,
                -0.7893432972748697
            ]
        },
        {
            "positions": [
                -0.5587217706993134,
                -0.9324816336563692,
                1.822579602924797,
                1.5677595940916431,
                -1.5958715010778217,
                -0.6915736460055215
            ]
        },
        {
            "positions": [
                -0.6093356297937106,
                -0.893440334828802,
                1.7997393018103993,
                1.6491831415893707,
                -1.6880913974559162,
                -0.5938039947361728
            ]
        },
        {
            "positions": [
                -0.6599494888881076,
                -0.854399036001235,
                1.7768990006960017,
                1.7306066890870984,
                -1.7803112938340102,
                -0.4960343434668246
            ]
        },
        {
            "positions": [
                -0.7105633479825045,
                -0.815357737173668,
                1.7540586995816039,
                1.812030236584826,
                -1.8725311902121042,
                -0.3982646921974764
            ]
        },
        {
            "positions": [
                -0.7611772070769017,
                -0.776316438346101,
                1.731218398467206,
                1.8934537840825536,
                -1.9647510865901987,
                -0.3004950409281282
            ]
        },
        {
            "positions": [
                -0.8117910661712987,
                -0.737275139518534,
                1.7083780973528084,
                1.9748773315802817,
                -2.0569709829682927,
                -0.2027253896587795
            ]
        },
        {
            "positions": [
                -0.8624049252656959,
                -0.698233840690967,
                1.6855377962384108,
                2.0563008790780093,
                -2.149190879346387,
                -0.10495573838943129
            ]
        },
        {
            "positions": [
                -0.9130187843600928,
                -0.6591925418633998,
                1.662697495124013,
                2.137724426575737,
                -2.241410775724481,
                -0.0071860871200832305
            ]
        }
    ]
}