{
    "goal": {
        "global_pose": {
            "orientation": {
                "w": 0.5084816217422485,
                "x": -0.49083608388900757,
                "y": 0.5182115435600281,
                "z": -0.4816462993621826
            },
            "position": {
                "x": 0.5540239810943604,
                "y": 0.030875300988554955,
                "z": 0.16403168439865112
            }
        },
        "name": "move_to_storage_A"
    },
    "id": "PRM_move_to_storage_A_106",
    "joint_names": [
        "shoulder_pan_joint",
        "shoulder_lift_joint",
        "elbow_joint",
        "wrist_1_joint",
        "wrist_2_joint",
        "wrist_3_joint"
    ],
    "metrics": {
        "cart_traj_len": 0.35380248133877085,
        "distance_elbow_joint": 0.45165249060887014,
        "distance_shoulder_lift_joint": 0.23501871976422528,
        "distance_shoulder_pan_joint": 0.46367644186677065,
        "distance_wrist_1_joint": 0.244029219487237,
        "distance_wrist_2_joint": 1.096710034074269,
        "distance_wrist_3_joint": 0.09425571630182228,
        "smoothness": 4.440892098500626e-16,
        "time": 0.039780078999999996,
        "traj_len": 1.607900065956586,
        "weighted_distance": 2.028446032870568
    },
    "planner": "PRM",
    "start": {
        "state": {
            "elbow_joint": 1.9715463870305268,
            "shoulder_lift_joint": -1.1394903361783484,
            "shoulder_pan_joint": 0.12281147578464417,
            "wrist_1_joint": -0.7804599489681411,
            "wrist_2_joint": 0.12958660307563738,
            "wrist_3_joint": -3.1924946282119055
        }
    },
    "waypoints": [
        {
            "positions": [
                0.12281147578464417,
                -1.1394903361783484,
                1.9715463870305268,
                -0.7804599489681411,
                0.12958660307563738,
                -3.1924946282119055
            ]
        },
        {
            "positions": [
                0.05657198408939122,
                -1.1730644390018092,
                2.0360681714032225,
                -0.8153212660377464,
                0.2862594650862472,
                -3.179029525883074
            ]
        },
        {
            "positions": [
                -0.009667507605861728,
                -1.2066385418252699,
                2.1005899557759182,
                -0.8501825831073516,
                0.44293232709685704,
                -3.165564423554242
            ]
        },
        {
            "positions": [
                -0.07590699930111468,
                -1.2402126446487307,
                2.165111740148614,
                -0.8850439001769569,
                0.599605189107467,
                -3.1520993212254105
            ]
        },
        {
            "positions": [
                -0.1421464909963676,
                -1.2737867474721913,
                2.2296335245213097,
                -0.9199052172465623,
                0.7562780511180768,
                -3.1386342188965783
            ]
        },
        {
            "positions": [
                -0.20838598269162056,
                -1.3073608502956522,
                2.2941553088940054,
                -0.9547665343161675,
                0.9129509131286867,
                -3.1251691165677467
            ]
        },
        {
            "positions": [
                -0.2746254743868735,
                -1.3409349531191128,
                2.358677093266701,
                -0.9896278513857728,
                1.0696237751392965,
                -3.111704014238915
            ]
        },
        {
            "positions": [
                -0.34086496608212646,
                -1.3745090559425737,
                2.423198877639397,
                -1.024489168455378,
                1.2262966371499064,
                -3.0982389119100833
            ]
        }
    ]
}