{
    "goal": {
        "global_pose": {
            "orientation": {
                "w": 0.5084816217422485,
                "x": -0.49083608388900757,
                "y": 0.5182115435600281,
                "z": -0.4816462993621826
            },
            "position": {
                "x": 0.5540239810943604,
                "y": 0.030875300988554955,
                "z": 0.16403168439865112
            }
        },
        "name": "move_to_storage_A"
    },
    "id": "PRM_move_to_storage_A_8",
    "joint_names": [
        "shoulder_pan_joint",
        "shoulder_lift_joint",
        "elbow_joint",
        "wrist_1_joint",
        "wrist_2_joint",
        "wrist_3_joint"
    ],
    "metrics": {
        "cart_traj_len": 0.3525174171370968,
        "distance_elbow_joint": 0.4501791158370527,
        "distance_shoulder_lift_joint": 0.2329896814403083,
        "distance_shoulder_pan_joint": 0.4583302003197355,
        "distance_wrist_1_joint": 0.24888076158004202,
        "distance_wrist_2_joint": 1.1081821780185401,
        "distance_wrist_3_joint": 0.097251907592669,
        "smoothness": 4.440892098500626e-16,
        "time": 0.033444186,
        "traj_len": 1.6111529551188948,
        "weighted_distance": 2.0365118707172485
    },
    "planner": "PRM",
    "start": {
        "state": {
            "elbow_joint": 1.9715463870305268,
            "shoulder_lift_joint": -1.1394903361783484,
            "shoulder_pan_joint": 0.12281147578464417,
            "wrist_1_joint": -0.7804599489681411,
            "wrist_2_joint": 0.12958660307563738,
            "wrist_3_joint": -3.1924946282119055
        }
    },
    "waypoints": [
        {
            "positions": [
                0.12281147578464417,
                -1.1394903361783484,
                1.9715463870305268,
                -0.7804599489681411,
                0.12958660307563738,
                -3.1924946282119055
            ]
        },
        {
            "positions": [
                0.05733573288182482,
                -1.1727745763841066,
                2.0358576892929627,
                -0.8160143434795757,
                0.28789834279257165,
                -3.17860149855581
            ]
        },
        {
            "positions": [
                -0.008140010020994529,
                -1.2060588165898651,
                2.100168991555399,
                -0.8515687379910102,
                0.446210082509506,
                -3.1647083688997144
            ]
        },
        {
            "positions": [
                -0.07361575292381388,
                -1.2393430567956234,
                2.164480293817835,
                -0.8871231325024448,
                0.6045218222264402,
                -3.150815239243619
            ]
        },
        {
            "positions": [
                -0.13909149582663322,
                -1.2726272970013817,
                2.228791596080271,
                -0.9226775270138794,
                0.7628335619433746,
                -3.1369221095875233
            ]
        },
        {
            "positions": [
                -0.2045672387294526,
                -1.3059115372071401,
                2.293102898342707,
                -0.9582319215253139,
                0.921145301660309,
                -3.1230289799314277
            ]
        },
        {
            "positions": [
                -0.2700429816322719,
                -1.3391957774128984,
                2.3574142006051435,
                -0.9937863160367485,
                1.079457041377243,
                -3.109135850275332
            ]
        },
        {
            "positions": [
                -0.3355187245350913,
                -1.3724800176186567,
                2.4217255028675795,
                -1.029340710548183,
                1.2377687810941775,
                -3.0952427206192366
            ]
        }
    ]
}