{
    "goal": {
        "global_pose": {
            "orientation": {
                "w": 0.5084816217422485,
                "x": -0.49083608388900757,
                "y": 0.5182115435600281,
                "z": -0.4816462993621826
            },
            "position": {
                "x": 0.5540239810943604,
                "y": 0.030875300988554955,
                "z": 0.16403168439865112
            }
        },
        "name": "move_to_storage_A"
    },
    "id": "PRM_move_to_storage_A_124",
    "joint_names": [
        "shoulder_pan_joint",
        "shoulder_lift_joint",
        "elbow_joint",
        "wrist_1_joint",
        "wrist_2_joint",
        "wrist_3_joint"
    ],
    "metrics": {
        "cart_traj_len": 0.353032051575373,
        "distance_elbow_joint": 0.4536210200296593,
        "distance_shoulder_lift_joint": 0.2350035817914491,
        "distance_shoulder_pan_joint": 0.4600979189526135,
        "distance_wrist_1_joint": 0.2576623842059401,
        "distance_wrist_2_joint": 1.1060189466621502,
        "distance_wrist_3_joint": 0.10741002517707443,
        "smoothness": 8.881784197001252e-16,
        "time": 0.024263348,
        "traj_len": 1.6185839109600981,
        "weighted_distance": 2.0489790770139957
    },
    "planner": "PRM",
    "start": {
        "state": {
            "elbow_joint": 1.9715463870305268,
            "shoulder_lift_joint": -1.1394903361783484,
            "shoulder_pan_joint": 0.12281147578464417,
            "wrist_1_joint": -0.7804599489681411,
            "wrist_2_joint": 0.12958660307563738,
            "wrist_3_joint": -3.1924946282119055
        }
    },
    "waypoints": [
        {
            "positions": [
                0.12281147578464417,
                -1.1394903361783484,
                1.9715463870305268,
                -0.7804599489681411,
                0.12958660307563738,
                -3.1924946282119055
            ]
        },
        {
            "positions": [
                0.05708320164855654,
                -1.1730622764342697,
                2.0363493898919067,
                -0.8172688609975611,
                0.28758930974165886,
                -3.177150338900895
            ]
        },
        {
            "positions": [
                -0.008645072487531089,
                -1.2066342166901909,
                2.1011523927532867,
                -0.8540777730269811,
                0.4455920164076803,
                -3.161806049589884
            ]
        },
        {
            "positions": [
                -0.07437334662361873,
                -1.2402061569461122,
                2.1659553956146667,
                -0.8908866850564011,
                0.6035947230737018,
                -3.1464617602788736
            ]
        },
        {
            "positions": [
                -0.14010162075970634,
                -1.2737780972020336,
                2.230758398476046,
                -0.9276955970858212,
                0.7615974297397232,
                -3.131117470967863
            ]
        },
        {
            "positions": [
                -0.205829894895794,
                -1.307350037457955,
                2.295561401337426,
                -0.9645045091152411,
                0.9196001364057447,
                -3.1157731816568526
            ]
        },
        {
            "positions": [
                -0.2715581690318816,
                -1.3409219777138761,
                2.360364404198806,
                -1.0013134211446613,
                1.0776028430717661,
                -3.1004288923458416
            ]
        },
        {
            "positions": [
                -0.3372864431679693,
                -1.3744939179697975,
                2.425167407060186,
                -1.0381223331740812,
                1.2356055497377876,
                -3.085084603034831
            ]
        }
    ]
}