{
    "goal": {
        "global_pose": {
            "orientation": {
                "w": 0.5084816217422485,
                "x": -0.49083608388900757,
                "y": 0.5182115435600281,
                "z": -0.4816462993621826
            },
            "position": {
                "x": 0.5540239810943604,
                "y": 0.030875300988554955,
                "z": 0.16403168439865112
            }
        },
        "name": "move_to_storage_A"
    },
    "id": "PRMstar_move_to_storage_A_66",
    "joint_names": [
        "shoulder_pan_joint",
        "shoulder_lift_joint",
        "elbow_joint",
        "wrist_1_joint",
        "wrist_2_joint",
        "wrist_3_joint"
    ],
    "metrics": {
        "cart_traj_len": 0.353099500834354,
        "distance_elbow_joint": 0.4473509393596924,
        "distance_shoulder_lift_joint": 0.2338572453125476,
        "distance_shoulder_pan_joint": 0.45816327104521154,
        "distance_wrist_1_joint": 0.23413488071028976,
        "distance_wrist_2_joint": 1.1135637600015713,
        "distance_wrist_3_joint": 0.09037161887404777,
        "smoothness": 1.665334528953551e-15,
        "time": 5.0016191569999995,
        "traj_len": 1.6054412836673164,
        "weighted_distance": 2.02629800221076
    },
    "planner": "PRMstar",
    "start": {
        "state": {
            "elbow_joint": 1.9715463870305268,
            "shoulder_lift_joint": -1.1394903361783484,
            "shoulder_pan_joint": 0.12281147578464417,
            "wrist_1_joint": -0.7804599489681411,
            "wrist_2_joint": 0.12958660307563738,
            "wrist_3_joint": -3.1924946282119055
        }
    },
    "waypoints": [
        {
            "positions": [
                0.12281147578464417,
                -1.1394903361783484,
                1.9715463870305268,
                -0.7804599489681411,
                0.12958660307563738,
                -3.1924946282119055
            ]
        },
        {
            "positions": [
                0.05735957992104253,
                -1.172898514080141,
                2.035453664081911,
                -0.813907789069611,
                0.288667140218719,
                -3.1795843969441844
            ]
        },
        {
            "positions": [
                -0.008092315942559117,
                -1.2063066919819334,
                2.099360941133296,
                -0.847355629171081,
                0.44774767736180054,
                -3.166674165676463
            ]
        },
        {
            "positions": [
                -0.07354421180616076,
                -1.239714869883726,
                2.1632682181846805,
                -0.8808034692725509,
                0.6068282145048822,
                -3.153763934408742
            ]
        },
        {
            "positions": [
                -0.1389961076697624,
                -1.2731230477855184,
                2.2271754952360654,
                -0.914251309374021,
                0.7659087516479638,
                -3.1408537031410213
            ]
        },
        {
            "positions": [
                -0.20444800353336406,
                -1.306531225687311,
                2.29108277228745,
                -0.9476991494754909,
                0.9249892887910455,
                -3.1279434718733
            ]
        },
        {
            "positions": [
                -0.2698998993969657,
                -1.3399394035891035,
                2.3549900493388343,
                -0.9811469895769609,
                1.084069825934127,
                -3.115033240605579
            ]
        },
        {
            "positions": [
                -0.33535179526056735,
                -1.373347581490896,
                2.418897326390219,
                -1.0145948296784308,
                1.2431503630772087,
                -3.102123009337858
            ]
        }
    ]
}