{
    "goal": {
        "global_pose": {
            "orientation": {
                "w": 0.7047431468963623,
                "x": -0.7094548344612122,
                "y": 0.0024358443915843964,
                "z": -0.0022348060738295317
            },
            "position": {
                "x": 0.6094750761985779,
                "y": 0.3671506643295288,
                "z": 0.19426114857196808
            }
        },
        "name": "move_to_magneteinheit_A"
    },
    "id": "PRMstar_move_to_magneteinheit_A_19",
    "joint_names": [
        "shoulder_pan_joint",
        "shoulder_lift_joint",
        "elbow_joint",
        "wrist_1_joint",
        "wrist_2_joint",
        "wrist_3_joint"
    ],
    "metrics": {
        "cart_traj_len": 2.0646404191356007,
        "distance_elbow_joint": 3.8788057061988512,
        "distance_shoulder_lift_joint": 1.0563276094688603,
        "distance_shoulder_pan_joint": 1.242883182859951,
        "distance_wrist_1_joint": 1.1469600210169575,
        "distance_wrist_2_joint": 1.4357105118927007,
        "distance_wrist_3_joint": 1.9127799734493345,
        "smoothness": 8.564577642302234e-16,
        "time": 5.0128522250000005,
        "traj_len": 3.2670272427524467,
        "weighted_distance": 4.133001026457045
    },
    "planner": "PRMstar",
    "start": {
        "state": {
            "elbow_joint": -1.919643507792019,
            "shoulder_lift_joint": -0.07675430207160344,
            "shoulder_pan_joint": -1.1188671864651873,
            "wrist_1_joint": 0.42560062535961957,
            "wrist_2_joint": 1.5706038300724876,
            "wrist_3_joint": 1.1188968870953055
        }
    },
    "waypoints": [
        {
            "positions": [
                -1.1188671864651873,
                -0.07675430207160344,
                -1.919643507792019,
                0.42560062535961957,
                1.5706038300724876,
                1.1188968870953055
            ]
        },
        {
            "positions": [
                -1.0728344759888928,
                -0.11587754686674642,
                -1.7759840371920617,
                0.38312062458121376,
                1.5174293666690541,
                1.1897405898156512
            ]
        },
        {
            "positions": [
                -1.0268017655125985,
                -0.1550007916618894,
                -1.6323245665921042,
                0.3406406238028079,
                1.464254903265621,
                1.260584292535997
            ]
        },
        {
            "positions": [
                -0.980769055036304,
                -0.19412403645703236,
                -1.4886650959921468,
                0.2981606230244021,
                1.4110804398621875,
                1.3314279952563428
            ]
        },
        {
            "positions": [
                -0.9347363445600094,
                -0.23324728125217534,
                -1.3450056253921892,
                0.2556806222459963,
                1.3579059764587542,
                1.4022716979766885
            ]
        },
        {
            "positions": [
                -0.888703634083715,
                -0.27237052604731826,
                -1.201346154792232,
                0.21320062146759045,
                1.3047315130553208,
                1.4731154006970342
            ]
        },
        {
            "positions": [
                -0.8426709236074205,
                -0.31149377084246127,
                -1.0576866841922743,
                0.17072062068918464,
                1.2515570496518875,
                1.5439591034173799
            ]
        },
        {
            "positions": [
                -0.796638213131126,
                -0.3506170156376042,
                -0.9140272135923169,
                0.12824061991077879,
                1.198382586248454,
                1.6148028061377255
            ]
        },
        {
            "positions": [
                -0.7506055026548315,
                -0.38974026043274723,
                -0.7703677429923594,
                0.08576061913237298,
                1.1452081228450208,
                1.6856465088580714
            ]
        },
        {
            "positions": [
                -0.7045727921785371,
                -0.4288635052278902,
                -0.626708272392402,
                0.04328061835396718,
                1.0920336594415874,
                1.756490211578417
            ]
        },
        {
            "positions": [
                -0.6585400817022427,
                -0.46798675002303314,
                -0.4830488017924446,
                0.0008006175755613243,
                1.0388591960381541,
                1.8273339142987628
            ]
        },
        {
            "positions": [
                -0.6125073712259481,
                -0.5071099948181761,
                -0.33938933119248715,
                -0.04167938320284448,
                0.9856847326347207,
                1.8981776170191085
            ]
        },
        {
            "positions": [
                -0.5664746607496536,
                -0.5462332396133192,
                -0.19572986059252973,
                -0.08415938398125028,
                0.9325102692312873,
                1.9690213197394542
            ]
        },
        {
            "positions": [
                -0.5204419502733592,
                -0.585356484408462,
                -0.0520703899925723,
                -0.12663938475965614,
                0.879335805827854,
                2.0398650224598
            ]
        },
        {
            "positions": [
                -0.47440923979706473,
                -0.6244797292036051,
                0.09158908060738535,
                -0.169119385538062,
                0.8261613424244206,
                2.1107087251801455
            ]
        },
        {
            "positions": [
                -0.4283765293207702,
                -0.6636029739987481,
                0.235248551207343,
                -0.21159938631646785,
                0.7729868790209872,
                2.1815524279004914
            ]
        },
        {
            "positions": [
                -0.38234381884447577,
                -0.702726218793891,
                0.3789080218073002,
                -0.2540793870948736,
                0.7198124156175539,
                2.252396130620837
            ]
        },
        {
            "positions": [
                -0.33631110836818123,
                -0.741849463589034,
                0.5225674924072579,
                -0.29655938787327946,
                0.6666379522141205,
                2.323239833341183
            ]
        },
        {
            "positions": [
                -0.2902783978918868,
                -0.7809727083841769,
                0.6662269630072151,
                -0.3390393886516852,
                0.6134634888106871,
                2.3940835360615287
            ]
        },
        {
            "positions": [
                -0.24424568741559227,
                -0.8200959531793199,
                0.8098864336071727,
                -0.38151938943009117,
                0.5602890254072537,
                2.4649272387818746
            ]
        },
        {
            "positions": [
                -0.19821297693929785,
                -0.8592191979744628,
                0.9535459042071299,
                -0.4239993902084969,
                0.5071145620038204,
                2.5357709415022196
            ]
        },
        {
            "positions": [
                -0.1521802664630033,
                -0.8983424427696058,
                1.0972053748070876,
                -0.4664793909869028,
                0.453940098600387,
                2.6066146442225655
            ]
        },
        {
            "positions": [
                -0.10614755598670889,
                -0.9374656875647489,
                1.2408648454070448,
                -0.5089593917653086,
                0.40076563519695374,
                2.6774583469429114
            ]
        },
        {
            "positions": [
                -0.06011484551041435,
                -0.9765889323598917,
                1.3845243160070024,
                -0.5514393925437144,
                0.3475911717935203,
                2.7483020496632573
            ]
        },
        {
            "positions": [
                -0.014082135034119814,
                -1.0157121771550348,
                1.5281837866069596,
                -0.5939193933221201,
                0.29441670839008705,
                2.8191457523836028
            ]
        },
        {
            "positions": [
                0.03195057544217472,
                -1.0548354219501779,
                1.6718432572069173,
                -0.6363993941005259,
                0.2412422449866536,
                2.8899894551039487
            ]
        },
        {
            "positions": [
                0.07798328591846904,
                -1.0939586667453207,
                1.8155027278068745,
                -0.6788793948789318,
                0.18806778158322035,
                2.960833157824294
            ]
        },
        {
            "positions": [
                0.12401599639476353,
                -1.1330819115404638,
                1.9591621984068324,
                -0.7213593956573378,
                0.13489331817978698,
                3.03167686054464
            ]
        }
    ]
}