{
    "goal": {
        "global_pose": {
            "orientation": {
                "w": 0.7047431468963623,
                "x": -0.7094548344612122,
                "y": 0.0024358443915843964,
                "z": -0.0022348060738295317
            },
            "position": {
                "x": 0.6094750761985779,
                "y": 0.3671506643295288,
                "z": 0.19426114857196808
            }
        },
        "name": "move_to_magneteinheit_A"
    },
    "id": "PRMstar_move_to_magneteinheit_A_3",
    "joint_names": [
        "shoulder_pan_joint",
        "shoulder_lift_joint",
        "elbow_joint",
        "wrist_1_joint",
        "wrist_2_joint",
        "wrist_3_joint"
    ],
    "metrics": {
        "cart_traj_len": 2.108470788042763,
        "distance_elbow_joint": 3.8759177927013613,
        "distance_shoulder_lift_joint": 1.054695581428646,
        "distance_shoulder_pan_joint": 1.2420295101328236,
        "distance_wrist_1_joint": 1.1305504268803612,
        "distance_wrist_2_joint": 1.4380410879244028,
        "distance_wrist_3_joint": 4.371356036453971,
        "smoothness": 6.597896842450472e-16,
        "time": 5.044218064,
        "traj_len": 3.6211310989139243,
        "weighted_distance": 4.942053624075145
    },
    "planner": "PRMstar",
    "start": {
        "state": {
            "elbow_joint": -1.919643507792019,
            "shoulder_lift_joint": -0.07675430207160344,
            "shoulder_pan_joint": -1.1188671864651873,
            "wrist_1_joint": 0.42560062535961957,
            "wrist_2_joint": 1.5706038300724876,
            "wrist_3_joint": 1.1188968870953055
        }
    },
    "waypoints": [
        {
            "positions": [
                -1.1188671864651873,
                -0.07675430207160344,
                -1.919643507792019,
                0.42560062535961957,
                1.5706038300724876,
                1.1188968870953055
            ]
        },
        {
            "positions": [
                -1.1132698895113555,
                -0.11328680697921754,
                -1.8225171824229758,
                0.39139126003320096,
                1.5249244597210327,
                0.9536905897824812
            ]
        },
        {
            "positions": [
                -1.1076725925575237,
                -0.14981931188683165,
                -1.7253908570539322,
                0.35718189470678235,
                1.4792450893695777,
                0.7884842924696569
            ]
        },
        {
            "positions": [
                -1.1020752956036919,
                -0.18635181679444576,
                -1.628264531684889,
                0.32297252938036375,
                1.4335657190181228,
                0.6232779951568326
            ]
        },
        {
            "positions": [
                -1.09647799864986,
                -0.22288432170205985,
                -1.5311382063158456,
                0.2887631640539452,
                1.387886348666668,
                0.45807169784400814
            ]
        },
        {
            "positions": [
                -1.090880701696028,
                -0.25941682660967397,
                -1.434011880946802,
                0.2545537987275266,
                1.342206978315213,
                0.2928654005311838
            ]
        },
        {
            "positions": [
                -1.0852834047421962,
                -0.2959493315172881,
                -1.3368855555777588,
                0.22034443340110796,
                1.2965276079637582,
                0.1276591032183595
            ]
        },
        {
            "positions": [
                -1.0796861077883644,
                -0.33248183642490214,
                -1.2397592302087155,
                0.1861350680746894,
                1.2508482376123031,
                -0.03754719409446472
            ]
        },
        {
            "positions": [
                -1.0740888108345326,
                -0.36901434133251626,
                -1.142632904839672,
                0.15192570274827077,
                1.2051688672608483,
                -0.20275349140728927
            ]
        },
        {
            "positions": [
                -1.0684915138807007,
                -0.4055468462401304,
                -1.0455065794706289,
                0.11771633742185222,
                1.1594894969093934,
                -0.3679597887201136
            ]
        },
        {
            "positions": [
                -1.062894216926869,
                -0.4420793511477445,
                -0.9483802541015852,
                0.08350697209543356,
                1.1138101265579383,
                -0.5331660860329379
            ]
        },
        {
            "positions": [
                -1.057296919973037,
                -0.47861185605535855,
                -0.851253928732542,
                0.04929760676901501,
                1.0681307562064837,
                -0.6983723833457622
            ]
        },
        {
            "positions": [
                -1.0516996230192053,
                -0.5151443609629727,
                -0.7541276033634985,
                0.01508824144259635,
                1.0224513858550286,
                -0.8635786806585866
            ]
        },
        {
            "positions": [
                -1.0461023260653732,
                -0.5516768658705868,
                -0.6570012779944552,
                -0.0191211238838222,
                0.9767720155035737,
                -1.0287849779714109
            ]
        },
        {
            "positions": [
                -1.0405050291115414,
                -0.5882093707782008,
                -0.5598749526254119,
                -0.05333048921024075,
                0.9310926451521189,
                -1.193991275284235
            ]
        },
        {
            "positions": [
                -1.0349077321577096,
                -0.624741875685815,
                -0.46274862725636856,
                -0.0875398545366593,
                0.885413274800664,
                -1.3591975725970595
            ]
        },
        {
            "positions": [
                -1.0293104352038778,
                -0.6612743805934291,
                -0.36562230188732503,
                -0.12174921986307802,
                0.8397339044492089,
                -1.524403869909884
            ]
        },
        {
            "positions": [
                -1.023713138250046,
                -0.6978068855010433,
                -0.2684959765182817,
                -0.15595858518949662,
                0.7940545340977541,
                -1.6896101672227082
            ]
        },
        {
            "positions": [
                -1.0181158412962141,
                -0.7343393904086573,
                -0.1713696511492384,
                -0.19016795051591512,
                0.7483751637462992,
                -1.8548164645355327
            ]
        },
        {
            "positions": [
                -1.0125185443423823,
                -0.7708718953162714,
                -0.0742433257801951,
                -0.22437731584233372,
                0.7026957933948443,
                -2.020022761848357
            ]
        },
        {
            "positions": [
                -1.0069212473885505,
                -0.8074044002238856,
                0.02288299958884865,
                -0.25858668116875244,
                0.6570164230433893,
                -2.1852290591611814
            ]
        },
        {
            "positions": [
                -1.0013239504347187,
                -0.8439369051314995,
                0.12000932495789196,
                -0.29279604649517105,
                0.6113370526919344,
                -2.3504353564740055
            ]
        },
        {
            "positions": [
                -0.9957266534808867,
                -0.8804694100391137,
                0.21713565032693505,
                -0.32700541182158954,
                0.5656576823404795,
                -2.51564165378683
            ]
        },
        {
            "positions": [
                -0.9901293565270549,
                -0.9170019149467279,
                0.3142619756959786,
                -0.36121477714800815,
                0.5199783119890247,
                -2.680847951099654
            ]
        },
        {
            "positions": [
                -0.984532059573223,
                -0.9535344198543421,
                0.4113883010650221,
                -0.39542414247442687,
                0.4742989416375696,
                -2.8460542484124787
            ]
        },
        {
            "positions": [
                -0.9789347626193912,
                -0.990066924761956,
                0.5085146264340652,
                -0.42963350780084536,
                0.4286195712861147,
                -3.0112605457253028
            ]
        },
        {
            "positions": [
                -0.9733374656655593,
                -1.0265994296695702,
                0.6056409518031087,
                -0.463842873127264,
                0.38294020093465975,
                -3.176466843038127
            ]
        },
        {
            "positions": [
                -0.8362749919989099,
                -1.039705736398405,
                0.7744701184413879,
                -0.49398123917644865,
                0.3516430185863379,
                -3.1859658813281944
            ]
        },
        {
            "positions": [
                -0.6992125183322604,
                -1.05281204312724,
                0.9432992850796671,
                -0.5241196052256334,
                0.32034583623801605,
                -3.1954649196182614
            ]
        },
        {
            "positions": [
                -0.562150044665611,
                -1.065918349856075,
                1.1121284517179464,
                -0.554257971274818,
                0.28904865388969425,
                -3.204963957908329
            ]
        },
        {
            "positions": [
                -0.42508757099896155,
                -1.07902465658491,
                1.2809576183562255,
                -0.5843963373240026,
                0.2577514715413724,
                -3.214462996198396
            ]
        },
        {
            "positions": [
                -0.2880250973323121,
                -1.0921309633137448,
                1.4497867849945045,
                -0.6145347033731873,
                0.22645428919305055,
                -3.2239620344884634
            ]
        },
        {
            "positions": [
                -0.1509626236656627,
                -1.1052372700425797,
                1.6186159516327838,
                -0.6446730694223719,
                0.19515710684472873,
                -3.233461072778531
            ]
        },
        {
            "positions": [
                -0.013900149999013234,
                -1.1183435767714147,
                1.787445118271063,
                -0.6748114354715566,
                0.1638599244964069,
                -3.242960111068598
            ]
        },
        {
            "positions": [
                0.12316232366763634,
                -1.1314498835002496,
                1.9562742849093422,
                -0.7049498015207413,
                0.13256274214808506,
                -3.2524591493586654
            ]
        }
    ]
}