{
    "goal": {
        "global_pose": {
            "orientation": {
                "w": 0.7031023502349854,
                "x": -0.7110244035720825,
                "y": 0.007748599164187908,
                "z": 0.005598929710686207
            },
            "position": {
                "x": 0.11585023208521307,
                "y": 0.44412534475326537,
                "z": 0.3711530566215515
            }
        },
        "name": "move_to_auspresseinheit_A"
    },
    "id": "PRMstar_move_to_auspresseinheit_A_2",
    "joint_names": [
        "shoulder_pan_joint",
        "shoulder_lift_joint",
        "elbow_joint",
        "wrist_1_joint",
        "wrist_2_joint",
        "wrist_3_joint"
    ],
    "metrics": {
        "cart_traj_len": 2.6548464622118133,
        "distance_elbow_joint": 1.144869588831392,
        "distance_shoulder_lift_joint": 1.2382754808004954,
        "distance_shoulder_pan_joint": 6.662291694235873,
        "distance_wrist_1_joint": 6.993558277627915,
        "distance_wrist_2_joint": 4.817319817268874,
        "distance_wrist_3_joint": 1.7242409281040598,
        "smoothness": 0.5763592455476961,
        "time": 5.0304932749999995,
        "traj_len": 4.7519002290524375,
        "weighted_distance": 6.151415750701096
    },
    "planner": "PRMstar",
    "start": {
        "state": {
            "elbow_joint": 2.422574709923281,
            "shoulder_lift_joint": -1.3736533754116391,
            "shoulder_pan_joint": -0.33786336945926293,
            "wrist_1_joint": -1.0288603412921917,
            "wrist_2_joint": 1.2330224858903978,
            "wrist_3_joint": -3.094022268022082
        }
    },
    "waypoints": [
        {
            "positions": [
                -0.33786336945926293,
                -1.3736533754116391,
                2.422574709923281,
                -1.0288603412921917,
                1.2330224858903978,
                -3.094022268022082
            ]
        },
        {
            "positions": [
                -0.4314425609192776,
                -1.403157277631875,
                2.4029712062187003,
                -0.9027902572297973,
                1.1441687184071416,
                -3.0659632226364777
            ]
        },
        {
            "positions": [
                -0.5250217523792922,
                -1.432661179852111,
                2.3833677025141196,
                -0.7767201731674029,
                1.0553149509238853,
                -3.0379041772508732
            ]
        },
        {
            "positions": [
                -0.6186009438393069,
                -1.4621650820723466,
                2.363764198809539,
                -0.6506500891050084,
                0.9664611834406291,
                -3.0098451318652693
            ]
        },
        {
            "positions": [
                -0.7121801352993216,
                -1.4916689842925825,
                2.344160695104958,
                -0.524580005042614,
                0.877607415957373,
                -2.981786086479665
            ]
        },
        {
            "positions": [
                -0.8057593267593361,
                -1.5211728865128185,
                2.3245571914003773,
                -0.39850992098021965,
                0.7887536484741168,
                -2.9537270410940604
            ]
        },
        {
            "positions": [
                -0.8993385182193507,
                -1.5506767887330544,
                2.3049536876957966,
                -0.27243983691782514,
                0.6998998809908605,
                -2.925667995708456
            ]
        },
        {
            "positions": [
                -0.9929177096793655,
                -1.5801806909532903,
                2.285350183991216,
                -0.14636975285543075,
                0.6110461135076043,
                -2.8976089503228515
            ]
        },
        {
            "positions": [
                -1.0864969011393801,
                -1.609684593173526,
                2.265746680286635,
                -0.020299668793036352,
                0.5221923460243482,
                -2.8695499049372475
            ]
        },
        {
            "positions": [
                -1.1800760925993947,
                -1.6391884953937619,
                2.2461431765820543,
                0.10577041526935793,
                0.4333385785410919,
                -2.841490859551643
            ]
        },
        {
            "positions": [
                -1.2736552840594093,
                -1.6686923976139978,
                2.2265396728774736,
                0.23184049933175244,
                0.3444848110578358,
                -2.8134318141660386
            ]
        },
        {
            "positions": [
                -1.3672344755194241,
                -1.6981962998342337,
                2.206936169172893,
                0.3579105833941467,
                0.25563104357457955,
                -2.785372768780434
            ]
        },
        {
            "positions": [
                -1.4608136669794387,
                -1.7277002020544696,
                2.187332665468312,
                0.48398066745654145,
                0.1667772760913233,
                -2.7573137233948297
            ]
        },
        {
            "positions": [
                -1.5543928584394535,
                -1.7572041042747055,
                2.1677291617637313,
                0.6100507515189357,
                0.07792350860806696,
                -2.7292546780092257
            ]
        },
        {
            "positions": [
                -1.647972049899468,
                -1.7867080064949412,
                2.1481256580591506,
                0.7361208355813302,
                -0.01093025887518917,
                -2.7011956326236213
            ]
        },
        {
            "positions": [
                -1.7415512413594827,
                -1.8162119087151771,
                2.12852215435457,
                0.8621909196437245,
                -0.0997840263584453,
                -2.673136587238017
            ]
        },
        {
            "positions": [
                -1.8351304328194973,
                -1.845715810935413,
                2.108918650649989,
                0.988261003706119,
                -0.18863779384170143,
                -2.6450775418524124
            ]
        },
        {
            "positions": [
                -1.9287096242795119,
                -1.8752197131556487,
                2.0893151469454083,
                1.1143310877685133,
                -0.27749156132495756,
                -2.617018496466808
            ]
        },
        {
            "positions": [
                -2.0222888157395267,
                -1.9047236153758846,
                2.0697116432408276,
                1.2404011718309076,
                -0.3663453288082139,
                -2.588959451081204
            ]
        },
        {
            "positions": [
                -2.1158680071995413,
                -1.9342275175961205,
                2.050108139536247,
                1.3664712558933019,
                -0.45519909629147004,
                -2.5609004056955995
            ]
        },
        {
            "positions": [
                -2.209447198659556,
                -1.9637314198163565,
                2.030504635831666,
                1.4925413399556966,
                -0.5440528637747262,
                -2.532841360309995
            ]
        },
        {
            "positions": [
                -2.3030263901195704,
                -1.9932353220365924,
                2.0109011321270853,
                1.6186114240180909,
                -0.6329066312579823,
                -2.5047823149243906
            ]
        },
        {
            "positions": [
                -2.396605581579585,
                -2.0227392242568283,
                1.9912976284225046,
                1.7446815080804852,
                -0.7217603987412387,
                -2.4767232695387866
            ]
        },
        {
            "positions": [
                -2.4901847730395996,
                -2.052243126477064,
                1.9716941247179238,
                1.87075159214288,
                -0.8106141662244952,
                -2.448664224153182
            ]
        },
        {
            "positions": [
                -2.583763964499614,
                -2.0817470286973,
                1.952090621013343,
                1.9968216762052746,
                -0.8994679337077511,
                -2.4206051787675777
            ]
        },
        {
            "positions": [
                -2.6773431559596292,
                -2.111250930917536,
                1.9324871173087623,
                2.122891760267669,
                -0.9883217011910075,
                -2.3925461333819733
            ]
        },
        {
            "positions": [
                -2.770922347419644,
                -2.1407548331377715,
                1.9128836136041816,
                2.248961844330063,
                -1.0771754686742638,
                -2.364487087996369
            ]
        },
        {
            "positions": [
                -2.8645015388796584,
                -2.1702587353580074,
                1.8932801098996008,
                2.3750319283924575,
                -1.1660292361575197,
                -2.3364280426107644
            ]
        },
        {
            "positions": [
                -2.958080730339673,
                -2.1997626375782433,
                1.87367660619502,
                2.501102012454852,
                -1.254883003640776,
                -2.30836899722516
            ]
        },
        {
            "positions": [
                -3.0516599217996876,
                -2.229266539798479,
                1.8540731024904393,
                2.6271720965172465,
                -1.343736771124032,
                -2.280309951839556
            ]
        },
        {
            "positions": [
                -3.145239113259702,
                -2.258770442018715,
                1.8344695987858586,
                2.7532421805796408,
                -1.4325905386072884,
                -2.2522509064539515
            ]
        },
        {
            "positions": [
                -3.007563543601294,
                -2.2461576415118074,
                1.8543540444177862,
                2.6385473321597805,
                -1.355743867436889,
                -2.283767676687378
            ]
        },
        {
            "positions": [
                -2.8698879739428853,
                -2.2335448410048993,
                1.8742384900497135,
                2.5238524837399208,
                -1.2788971962664892,
                -2.3152844469208036
            ]
        },
        {
            "positions": [
                -2.732212404284477,
                -2.2209320404979915,
                1.894122935681641,
                2.4091576353200606,
                -1.2020505250960896,
                -2.34680121715423
            ]
        },
        {
            "positions": [
                -2.5945368346260684,
                -2.208319239991084,
                1.9140073813135685,
                2.2944627869002003,
                -1.1252038539256901,
                -2.3783179873876557
            ]
        },
        {
            "positions": [
                -2.45686126496766,
                -2.195706439484176,
                1.933891826945496,
                2.1797679384803406,
                -1.0483571827552907,
                -2.409834757621082
            ]
        },
        {
            "positions": [
                -2.319185695309252,
                -2.183093638977268,
                1.9537762725774235,
                2.0650730900604803,
                -0.971510511584891,
                -2.4413515278545077
            ]
        },
        {
            "positions": [
                -2.1815101256508433,
                -2.17048083847036,
                1.9736607182093509,
                1.9503782416406201,
                -0.8946638404144914,
                -2.472868298087934
            ]
        },
        {
            "positions": [
                -2.0438345559924347,
                -2.1578680379634525,
                1.9935451638412784,
                1.8356833932207604,
                -0.8178171692440919,
                -2.5043850683213598
            ]
        },
        {
            "positions": [
                -1.9061589863340265,
                -2.145255237456545,
                2.013429609473206,
                1.7209885448009,
                -0.7409704980736923,
                -2.535901838554786
            ]
        },
        {
            "positions": [
                -1.768483416675618,
                -2.1326424369496366,
                2.0333140551051336,
                1.60629369638104,
                -0.6641238269032927,
                -2.567418608788212
            ]
        },
        {
            "positions": [
                -1.6308078470172098,
                -2.120029636442729,
                2.053198500737061,
                1.49159884796118,
                -0.5872771557328932,
                -2.598935379021638
            ]
        },
        {
            "positions": [
                -1.4931322773588014,
                -2.107416835935821,
                2.0730829463689884,
                1.37690399954132,
                -0.5104304845624936,
                -2.630452149255064
            ]
        },
        {
            "positions": [
                -1.355456707700393,
                -2.094804035428913,
                2.092967392000916,
                1.2622091511214597,
                -0.43358381339209406,
                -2.66196891948849
            ]
        },
        {
            "positions": [
                -1.2177811380419845,
                -2.0821912349220053,
                2.112851837632843,
                1.1475143027015997,
                -0.3567371422216945,
                -2.693485689721916
            ]
        },
        {
            "positions": [
                -1.0801055683835763,
                -2.0695784344150976,
                2.1327362832647707,
                1.0328194542817397,
                -0.27989047105129505,
                -2.725002459955342
            ]
        },
        {
            "positions": [
                -0.9424299987251676,
                -2.05696563390819,
                2.1526207288966983,
                0.9181246058618797,
                -0.20304379988089538,
                -2.7565192301887684
            ]
        },
        {
            "positions": [
                -0.8047544290667594,
                -2.044352833401282,
                2.172505174528626,
                0.8034297574420197,
                -0.12619712871049593,
                -2.7880360004221942
            ]
        },
        {
            "positions": [
                -0.6670788594083508,
                -2.031740032894374,
                2.1923896201605535,
                0.6887349090221591,
                -0.04935045754009626,
                -2.8195527706556205
            ]
        },
        {
            "positions": [
                -0.5294032897499426,
                -2.0191272323874663,
                2.2122740657924806,
                0.5740400606022993,
                0.027496213630303412,
                -2.8510695408890463
            ]
        },
        {
            "positions": [
                -0.3917277200915339,
                -2.0065144318805586,
                2.2321585114244082,
                0.45934521218243907,
                0.10434288480070286,
                -2.8825863111224725
            ]
        },
        {
            "positions": [
                -0.2540521504331257,
                -1.9939016313736506,
                2.252042957056336,
                0.3446503637625793,
                0.1811895559711023,
                -2.9141030813558984
            ]
        },
        {
            "positions": [
                -0.11637658077471746,
                -1.9812888308667427,
                2.271927402688263,
                0.22995551534271907,
                0.258036227141502,
                -2.9456198515893246
            ]
        },
        {
            "positions": [
                0.021298988883691194,
                -1.968676030359835,
                2.2918118483201906,
                0.1152606669228593,
                0.33488289831190143,
                -2.9771366218227504
            ]
        },
        {
            "positions": [
                0.1589745585420994,
                -1.956063229852927,
                2.311696293952118,
                0.0005658185029990825,
                0.4117295694823011,
                -3.0086533920561767
            ]
        },
        {
            "positions": [
                0.29665012820050807,
                -1.943450429346019,
                2.3315807395840458,
                -0.11412902991686114,
                0.4885762406527008,
                -3.040170162289603
            ]
        },
        {
            "positions": [
                0.4343256978589163,
                -1.9308376288391114,
                2.3514651852159734,
                -0.22882387833672135,
                0.5654229118231002,
                -3.0716869325230287
            ]
        },
        {
            "positions": [
                0.5720012675173249,
                -1.9182248283322036,
                2.3713496308479005,
                -0.3435187267565811,
                0.6422695829934999,
                -3.1032037027564545
            ]
        },
        {
            "positions": [
                0.7096768371757332,
                -1.9056120278252957,
                2.391234076479828,
                -0.4582135751764415,
                0.7191162541638995,
                -3.1347204729898808
            ]
        }
    ]
}