{
    "goal": {
        "global_pose": {
            "orientation": {
                "w": 0.7047431468963623,
                "x": -0.7094548344612122,
                "y": 0.0024358443915843964,
                "z": -0.0022348060738295317
            },
            "position": {
                "x": 0.6094750761985779,
                "y": 0.3671506643295288,
                "z": 0.19426114857196808
            }
        },
        "name": "move_to_magneteinheit_A"
    },
    "id": "PRMstar_move_to_magneteinheit_A_91",
    "joint_names": [
        "shoulder_pan_joint",
        "shoulder_lift_joint",
        "elbow_joint",
        "wrist_1_joint",
        "wrist_2_joint",
        "wrist_3_joint"
    ],
    "metrics": {
        "cart_traj_len": 1.997427310003941,
        "distance_elbow_joint": 3.883430720017367,
        "distance_shoulder_lift_joint": 1.0576553882436452,
        "distance_shoulder_pan_joint": 1.2403448751553834,
        "distance_wrist_1_joint": 1.17737892082829,
        "distance_wrist_2_joint": 1.6763002204493234,
        "distance_wrist_3_joint": 4.333379540157146,
        "smoothness": 0.01873305529794097,
        "time": 5.093960871999999,
        "traj_len": 3.656294526546125,
        "weighted_distance": 4.988880424147592
    },
    "planner": "PRMstar",
    "start": {
        "state": {
            "elbow_joint": -1.919643507792019,
            "shoulder_lift_joint": -0.07675430207160344,
            "shoulder_pan_joint": -1.1188671864651873,
            "wrist_1_joint": 0.42560062535961957,
            "wrist_2_joint": 1.5706038300724876,
            "wrist_3_joint": 1.1188968870953055
        }
    },
    "waypoints": [
        {
            "positions": [
                -1.1188671864651873,
                -0.07675430207160344,
                -1.919643507792019,
                0.42560062535961957,
                1.5706038300724876,
                1.1188968870953055
            ]
        },
        {
            "positions": [
                -1.1109816760838014,
                -0.12041952876757067,
                -1.8257153028572823,
                0.3830873724345992,
                1.4961193524381386,
                0.9971454194054038
            ]
        },
        {
            "positions": [
                -1.1030961657024152,
                -0.1640847554635379,
                -1.7317870979225456,
                0.34057411950957894,
                1.4216348748037897,
                0.875393951715502
            ]
        },
        {
            "positions": [
                -1.0952106553210292,
                -0.2077499821595051,
                -1.637858892987809,
                0.2980608665845586,
                1.3471503971694407,
                0.7536424840256003
            ]
        },
        {
            "positions": [
                -1.087325144939643,
                -0.2514152088554723,
                -1.5439306880530723,
                0.25554761365953826,
                1.272665919535092,
                0.6318910163356986
            ]
        },
        {
            "positions": [
                -1.079439634558257,
                -0.2950804355514396,
                -1.4500024831183356,
                0.21303436073451795,
                1.198181441900743,
                0.5101395486457968
            ]
        },
        {
            "positions": [
                -1.0715541241768711,
                -0.33874566224740676,
                -1.3560742781835988,
                0.17052110780949764,
                1.123696964266394,
                0.38838808095589505
            ]
        },
        {
            "positions": [
                -1.063668613795485,
                -0.382410888943374,
                -1.262146073248862,
                0.1280078548844773,
                1.0492124866320451,
                0.2666366132659932
            ]
        },
        {
            "positions": [
                -1.055783103414099,
                -0.4260761156393412,
                -1.1682178683141253,
                0.08549460195945696,
                0.9747280089976962,
                0.14488514557609145
            ]
        },
        {
            "positions": [
                -1.047897593032713,
                -0.46974134233530845,
                -1.0742896633793888,
                0.04298134903443668,
                0.9002435313633472,
                0.023133677886189696
            ]
        },
        {
            "positions": [
                -1.0400120826513268,
                -0.5134065690312757,
                -0.9803614584446521,
                0.0004680961094163383,
                0.8257590537289983,
                -0.09861778980371194
            ]
        },
        {
            "positions": [
                -1.0321265722699409,
                -0.557071795727243,
                -0.8864332535099153,
                -0.04204515681560406,
                0.7512745760946493,
                -0.22036925749361402
            ]
        },
        {
            "positions": [
                -1.0242410618885547,
                -0.60073702242321,
                -0.7925050485751788,
                -0.08455840974062429,
                0.6767900984603005,
                -0.34212072518351544
            ]
        },
        {
            "positions": [
                -1.0163555515071687,
                -0.6444022491191774,
                -0.6985768436404418,
                -0.12707166266564468,
                0.6023056208259514,
                -0.4638721928734175
            ]
        },
        {
            "positions": [
                -1.0084700411257828,
                -0.6880674758151446,
                -0.6046486387057053,
                -0.16958491559066496,
                0.5278211431916027,
                -0.5856236605633192
            ]
        },
        {
            "positions": [
                -1.0005845307443966,
                -0.7317327025111118,
                -0.5107204337709685,
                -0.21209816851568536,
                0.4533366655572535,
                -0.707375128253221
            ]
        },
        {
            "positions": [
                -0.9926990203630106,
                -0.775397929207079,
                -0.4167922288362318,
                -0.25461142144070564,
                0.37885218792290476,
                -0.8291265959431227
            ]
        },
        {
            "positions": [
                -0.9848135099816245,
                -0.8190631559030463,
                -0.32286402390149505,
                -0.29712467436572604,
                0.3043677102885558,
                -0.9508780636330245
            ]
        },
        {
            "positions": [
                -0.9769279996002385,
                -0.8627283825990135,
                -0.22893581896675852,
                -0.3396379272907462,
                0.22988323265420685,
                -1.0726295313229262
            ]
        },
        {
            "positions": [
                -0.9690424892188525,
                -0.9063936092949807,
                -0.13500761403202177,
                -0.3821511802157666,
                0.1553987550198579,
                -1.1943809990128278
            ]
        },
        {
            "positions": [
                -0.9611569788374664,
                -0.9500588359909479,
                -0.041079409097285025,
                -0.4246644331407869,
                0.08091427738550894,
                -1.3161324667027294
            ]
        },
        {
            "positions": [
                -0.9532714684560804,
                -0.9937240626869153,
                0.05284879583745182,
                -0.46717768606580723,
                0.006429799751159891,
                -1.4378839343926315
            ]
        },
        {
            "positions": [
                -0.8765036715170607,
                -1.0037730360889392,
                0.18934439700801586,
                -0.48750630102315456,
                0.014438813331731042,
                -1.5647838428690035
            ]
        },
        {
            "positions": [
                -0.7997358745780409,
                -1.013822009490963,
                0.32583999817857995,
                -0.5078349159805019,
                0.022447826912302193,
                -1.6916837513453755
            ]
        },
        {
            "positions": [
                -0.7229680776390212,
                -1.0238709828929866,
                0.462335599349144,
                -0.5281635309378492,
                0.030456840492873345,
                -1.8185836598217477
            ]
        },
        {
            "positions": [
                -0.6462002807000014,
                -1.0339199562950105,
                0.5988312005197081,
                -0.5484921458951966,
                0.038465854073444494,
                -1.9454835682981197
            ]
        },
        {
            "positions": [
                -0.5694324837609817,
                -1.0439689296970345,
                0.7353268016902722,
                -0.5688207608525438,
                0.04647486765401565,
                -2.0723834767744918
            ]
        },
        {
            "positions": [
                -0.4926646868219619,
                -1.0540179030990582,
                0.8718224028608361,
                -0.5891493758098911,
                0.0544838812345868,
                -2.199283385250864
            ]
        },
        {
            "positions": [
                -0.41589688988294216,
                -1.064066876501082,
                1.0083180040314002,
                -0.6094779907672385,
                0.062492894815157955,
                -2.3261832937272358
            ]
        },
        {
            "positions": [
                -0.33912909294392246,
                -1.0741158499031058,
                1.1448136052019642,
                -0.6298066057245858,
                0.07050190839572909,
                -2.453083202203608
            ]
        },
        {
            "positions": [
                -0.26236129600490266,
                -1.0841648233051298,
                1.2813092063725284,
                -0.6501352206819332,
                0.07851092197630027,
                -2.57998311067998
            ]
        },
        {
            "positions": [
                -0.18559349906588296,
                -1.0942137967071535,
                1.4178048075430925,
                -0.6704638356392805,
                0.0865199355568714,
                -2.7068830191563524
            ]
        },
        {
            "positions": [
                -0.10882570212686316,
                -1.1042627701091772,
                1.5543004087136563,
                -0.6907924505966279,
                0.09452894913744256,
                -2.833782927632724
            ]
        },
        {
            "positions": [
                -0.03205790518784346,
                -1.114311743511201,
                1.6907960098842203,
                -0.7111210655539751,
                0.10253796271801371,
                -2.960682836109096
            ]
        },
        {
            "positions": [
                0.044709891751176345,
                -1.124360716913225,
                1.8272916110547845,
                -0.7314496805113224,
                0.11054697629858487,
                -3.087582744585468
            ]
        },
        {
            "positions": [
                0.12147768869019612,
                -1.1344096903152487,
                1.9637872122253486,
                -0.7517782954686698,
                0.11855598987915601,
                -3.2144826530618404
            ]
        }
    ]
}