{
    "goal": {
        "global_pose": {
            "orientation": {
                "w": -0.00223480608172531,
                "x": 0.0024358444001904467,
                "y": 0.7094548369677653,
                "z": -0.704743149386269
            },
            "position": {
                "x": 0.6205249238014221,
                "y": -0.6371506643295288,
                "z": 0.19426114857196808
            }
        },
        "name": "move_to_magneteinheit_B"
    },
    "id": "PRMstar_move_to_magneteinheit_B_102",
    "joint_names": [
        "shoulder_pan_joint",
        "shoulder_lift_joint",
        "elbow_joint",
        "wrist_1_joint",
        "wrist_2_joint",
        "wrist_3_joint"
    ],
    "metrics": {
        "cart_traj_len": 2.997678137328955,
        "distance_elbow_joint": 4.052546263426716,
        "distance_shoulder_lift_joint": 0.5760935258412361,
        "distance_shoulder_pan_joint": 2.1153768197401344,
        "distance_wrist_1_joint": 1.5005437487391275,
        "distance_wrist_2_joint": 1.183802030998649,
        "distance_wrist_3_joint": 3.133600409949193,
        "smoothness": 0.05742132803802909,
        "time": 5.045158365000001,
        "traj_len": 3.5442859363622254,
        "weighted_distance": 4.6382657748700895
    },
    "planner": "PRMstar",
    "start": {
        "state": {
            "elbow_joint": 2.39358713078474,
            "shoulder_lift_joint": -1.908514104345545,
            "shoulder_pan_joint": 0.7066247066606129,
            "wrist_1_joint": -0.4678290933515497,
            "wrist_2_joint": 0.7096259083745334,
            "wrist_3_joint": -3.1358149277392293
        }
    },
    "waypoints": [
        {
            "positions": [
                0.7066247066606129,
                -1.908514104345545,
                2.39358713078474,
                -0.4678290933515497,
                0.7096259083745334,
                -3.1358149277392293
            ]
        },
        {
            "positions": [
                0.844107813047512,
                -1.9464110515360904,
                2.357132715241126,
                -0.37955998522261036,
                0.6540145701756198,
                -3.096711932913758
            ]
        },
        {
            "positions": [
                0.981590919434411,
                -1.9843079987266359,
                2.320678299697512,
                -0.2912908770936711,
                0.5984032319767062,
                -3.0576089380882863
            ]
        },
        {
            "positions": [
                1.11907402582131,
                -2.0222049459171814,
                2.284223884153898,
                -0.20302176896473173,
                0.5427918937777926,
                -3.0185059432628147
            ]
        },
        {
            "positions": [
                1.2565571322082092,
                -2.060101893107727,
                2.247769468610284,
                -0.11475266083579241,
                0.48718055557887896,
                -2.979402948437343
            ]
        },
        {
            "positions": [
                1.3402198959421512,
                -2.0757458348213187,
                2.1764086780038623,
                -0.059271215571741157,
                0.4481035394995991,
                -2.932867260972293
            ]
        },
        {
            "positions": [
                1.4380985853425006,
                -2.0919818691976726,
                2.0785074158398755,
                0.006211034109792721,
                0.40276320061482407,
                -2.8709218296631125
            ]
        },
        {
            "positions": [
                1.5359772747428497,
                -2.108217903574027,
                1.9806061536758892,
                0.0716932837913266,
                0.357422861730049,
                -2.8089763983539315
            ]
        },
        {
            "positions": [
                1.6338559641431991,
                -2.1244539379503813,
                1.8827048915119027,
                0.1371755334728605,
                0.31208252284527394,
                -2.7470309670447506
            ]
        },
        {
            "positions": [
                1.7317346535435485,
                -2.140689972326735,
                1.7848036293479161,
                0.20265778315439437,
                0.2667421839604989,
                -2.68508553573557
            ]
        },
        {
            "positions": [
                1.8296133429438979,
                -2.156926006703089,
                1.6869023671839296,
                0.26814003283592824,
                0.22140184507572389,
                -2.6231401044263896
            ]
        },
        {
            "positions": [
                1.927492032344247,
                -2.1731620410794434,
                1.589001105019943,
                0.3336222825174621,
                0.17606150619094885,
                -2.5611946731172086
            ]
        },
        {
            "positions": [
                2.025370721744596,
                -2.1893980754557973,
                1.4910998428559565,
                0.39910453219899594,
                0.13072116730617384,
                -2.4992492418080277
            ]
        },
        {
            "positions": [
                2.123249411144946,
                -2.2056341098321517,
                1.39319858069197,
                0.4645867818805299,
                0.08538082842139877,
                -2.437303810498847
            ]
        },
        {
            "positions": [
                2.221128100545295,
                -2.2218701442085056,
                1.2952973185279835,
                0.5300690315620638,
                0.0400404895366237,
                -2.3753583791896666
            ]
        },
        {
            "positions": [
                2.3190067899456444,
                -2.23810617858486,
                1.197396056363997,
                0.5955512812435976,
                -0.005299849348151323,
                -2.3134129478804857
            ]
        },
        {
            "positions": [
                2.349212028017669,
                -2.238390457140522,
                1.0224888613362624,
                0.6241224384464741,
                0.011531836338002692,
                -2.1920525846765835
            ]
        },
        {
            "positions": [
                2.3794172660896935,
                -2.2386747356961845,
                0.8475816663085277,
                0.6526935956493506,
                0.028363522024156707,
                -2.0706922214726813
            ]
        },
        {
            "positions": [
                2.4096225041617183,
                -2.2389590142518467,
                0.6726744712807932,
                0.6812647528522271,
                0.04519520771031072,
                -1.949331858268779
            ]
        },
        {
            "positions": [
                2.4398277422337427,
                -2.2392432928075086,
                0.4977672762530585,
                0.7098359100551035,
                0.062026893396464736,
                -1.8279714950648767
            ]
        },
        {
            "positions": [
                2.4700329803057675,
                -2.239527571363171,
                0.32286008122532384,
                0.73840706725798,
                0.07885857908261876,
                -1.7066111318609745
            ]
        },
        {
            "positions": [
                2.500238218377792,
                -2.239811849918833,
                0.1479528861975894,
                0.7669782244608565,
                0.09569026476877276,
                -1.5852507686570723
            ]
        },
        {
            "positions": [
                2.5304434564498166,
                -2.2400961284744954,
                -0.02695430883014538,
                0.795549381663733,
                0.11252195045492679,
                -1.4638904054531698
            ]
        },
        {
            "positions": [
                2.5606486945218414,
                -2.2403804070301576,
                -0.20186150385787993,
                0.8241205388666095,
                0.1293536361410808,
                -1.3425300422492676
            ]
        },
        {
            "positions": [
                2.5908539325938658,
                -2.24066468558582,
                -0.3767686988856147,
                0.852691696069486,
                0.14618532182723482,
                -1.2211696790453654
            ]
        },
        {
            "positions": [
                2.6210591706658906,
                -2.240948964141482,
                -0.5516758939133493,
                0.8812628532723625,
                0.16301700751338882,
                -1.0998093158414632
            ]
        },
        {
            "positions": [
                2.651264408737915,
                -2.241233242697144,
                -0.7265830889410838,
                0.9098340104752389,
                0.17984869319954283,
                -0.978448952637561
            ]
        },
        {
            "positions": [
                2.6814696468099397,
                -2.2415175212528062,
                -0.9014902839688181,
                0.9384051676781154,
                0.19668037888569684,
                -0.8570885894336588
            ]
        },
        {
            "positions": [
                2.7116748848819645,
                -2.2418017998084685,
                -1.0763974789965531,
                0.9669763248809919,
                0.2135120645718509,
                -0.7357282262297564
            ]
        },
        {
            "positions": [
                2.741880122953989,
                -2.2420860783641308,
                -1.2513046740242875,
                0.9955474820838685,
                0.2303437502580049,
                -0.6143678630258542
            ]
        },
        {
            "positions": [
                2.7402035402250142,
                -2.2662206008467796,
                -1.4038353712039475,
                1.0075393148862373,
                0.28656759317796376,
                -0.4672068026781536
            ]
        },
        {
            "positions": [
                2.7385269574960396,
                -2.2903551233294284,
                -1.5563660683836078,
                1.019531147688606,
                0.34279143609792256,
                -0.320045742330453
            ]
        },
        {
            "positions": [
                2.7129375448331032,
                -2.355105958948546,
                -1.590563756469731,
                1.0151366451222816,
                0.38305309870788595,
                -0.2141020008169806
            ]
        },
        {
            "positions": [
                2.687348132170167,
                -2.4198567945676634,
                -1.6247614445558543,
                1.0107421425559573,
                0.42331476131784934,
                -0.1081582593035082
            ]
        },
        {
            "positions": [
                2.6617587195072305,
                -2.484607630186781,
                -1.6589591326419775,
                1.006347639989633,
                0.46357642392781273,
                -0.0022145177900357747
            ]
        }
    ]
}