{
    "goal": {
        "global_pose": {
            "orientation": {
                "w": 0.7031023502349854,
                "x": -0.7110244035720825,
                "y": 0.007748599164187908,
                "z": 0.005598929710686207
            },
            "position": {
                "x": 0.11585023208521307,
                "y": 0.44412534475326537,
                "z": 0.3711530566215515
            }
        },
        "name": "move_to_auspresseinheit_A"
    },
    "id": "PRMstar_move_to_auspresseinheit_A_43",
    "joint_names": [
        "shoulder_pan_joint",
        "shoulder_lift_joint",
        "elbow_joint",
        "wrist_1_joint",
        "wrist_2_joint",
        "wrist_3_joint"
    ],
    "metrics": {
        "cart_traj_len": 0.693972421573884,
        "distance_elbow_joint": 0.03220143128886699,
        "distance_shoulder_lift_joint": 0.5335272821512327,
        "distance_shoulder_pan_joint": 1.0402737032559604,
        "distance_wrist_1_joint": 0.5730878150317336,
        "distance_wrist_2_joint": 0.536850992627385,
        "distance_wrist_3_joint": 0.08810639593400849,
        "smoothness": 0.10251466366588308,
        "time": 5.079174821,
        "traj_len": 1.6745290741844965,
        "weighted_distance": 2.0224240949455488
    },
    "planner": "PRMstar",
    "start": {
        "state": {
            "elbow_joint": 2.422574709923281,
            "shoulder_lift_joint": -1.3736533754116391,
            "shoulder_pan_joint": -0.33786336945926293,
            "wrist_1_joint": -1.0288603412921917,
            "wrist_2_joint": 1.2330224858903978,
            "wrist_3_joint": -3.094022268022082
        }
    },
    "waypoints": [
        {
            "positions": [
                -0.33786336945926293,
                -1.3736533754116391,
                2.422574709923281,
                -1.0288603412921917,
                1.2330224858903978,
                -3.094022268022082
            ]
        },
        {
            "positions": [
                -0.20316166531095503,
                -1.4197622301937827,
                2.4100516318073586,
                -0.9453111073373901,
                1.1609619870195593,
                -3.0838855460106993
            ]
        },
        {
            "positions": [
                -0.06845996116264713,
                -1.4658710849759262,
                2.3975285536914366,
                -0.8617618733825886,
                1.088901488148721,
                -3.073748823999316
            ]
        },
        {
            "positions": [
                0.06001842133057694,
                -1.5394226804070839,
                2.3963360078485993,
                -0.7940969821955668,
                1.0234464890011028,
                -3.085054315984523
            ]
        },
        {
            "positions": [
                0.18849680382380102,
                -1.6129742758382415,
                2.3951434620057626,
                -0.7264320910085451,
                0.9579914898534849,
                -3.0963598079697303
            ]
        },
        {
            "positions": [
                0.3169751863170251,
                -1.686525871269399,
                2.3939509161629253,
                -0.6587671998215234,
                0.8925364907058668,
                -3.1076652999549372
            ]
        },
        {
            "positions": [
                0.44545356881024917,
                -1.7600774667005565,
                2.392758370320088,
                -0.5911023086345016,
                0.8270814915582488,
                -3.118970791940144
            ]
        },
        {
            "positions": [
                0.5739319513034733,
                -1.8336290621317142,
                2.3915658244772513,
                -0.5234374174474798,
                0.7616264924106307,
                -3.1302762839253515
            ]
        },
        {
            "positions": [
                0.7024103337966974,
                -1.9071806575628718,
                2.390373278634414,
                -0.45577252626045817,
                0.6961714932630128,
                -3.1415817759105584
            ]
        }
    ]
}