{
    "goal": {
        "global_pose": {
            "orientation": {
                "w": 0.7031023502349854,
                "x": -0.7110244035720825,
                "y": 0.007748599164187908,
                "z": 0.005598929710686207
            },
            "position": {
                "x": 0.11585023208521307,
                "y": 0.44412534475326537,
                "z": 0.3711530566215515
            }
        },
        "name": "move_to_auspresseinheit_A"
    },
    "id": "PRMstar_move_to_auspresseinheit_A_84",
    "joint_names": [
        "shoulder_pan_joint",
        "shoulder_lift_joint",
        "elbow_joint",
        "wrist_1_joint",
        "wrist_2_joint",
        "wrist_3_joint"
    ],
    "metrics": {
        "cart_traj_len": 0.7830725527974294,
        "distance_elbow_joint": 0.483382973456004,
        "distance_shoulder_lift_joint": 0.5360322101975219,
        "distance_shoulder_pan_joint": 1.0452744692969218,
        "distance_wrist_1_joint": 0.560478745856979,
        "distance_wrist_2_joint": 2.4856862272922746,
        "distance_wrist_3_joint": 1.1843272302176273,
        "smoothness": 1.0793382414654138,
        "time": 5.057182392,
        "traj_len": 2.509020098826896,
        "weighted_distance": 3.4219879149263277
    },
    "planner": "PRMstar",
    "start": {
        "state": {
            "elbow_joint": 2.422574709923281,
            "shoulder_lift_joint": -1.3736533754116391,
            "shoulder_pan_joint": -0.33786336945926293,
            "wrist_1_joint": -1.0288603412921917,
            "wrist_2_joint": 1.2330224858903978,
            "wrist_3_joint": -3.094022268022082
        }
    },
    "waypoints": [
        {
            "positions": [
                -0.33786336945926293,
                -1.3736533754116391,
                2.422574709923281,
                -1.0288603412921917,
                1.2330224858903978,
                -3.094022268022082
            ]
        },
        {
            "positions": [
                -0.3296579545407054,
                -1.408631621826334,
                2.3905918671024193,
                -0.9794494781325741,
                1.0454641760220147,
                -3.022775894472478
            ]
        },
        {
            "positions": [
                -0.3214525396221478,
                -1.4436098682410288,
                2.3586090242815576,
                -0.9300386149729565,
                0.8579058661536318,
                -2.951529520922874
            ]
        },
        {
            "positions": [
                -0.3132471247035903,
                -1.4785881146557234,
                2.3266261814606963,
                -0.8806277518133389,
                0.6703475562852488,
                -2.88028314737327
            ]
        },
        {
            "positions": [
                -0.30504170978503276,
                -1.5135663610704182,
                2.2946433386398346,
                -0.8312168886537212,
                0.4827892464168658,
                -2.8090367738236655
            ]
        },
        {
            "positions": [
                -0.29683629486647517,
                -1.548544607485113,
                2.262660495818973,
                -0.7818060254941036,
                0.29523093654848287,
                -2.7377904002740614
            ]
        },
        {
            "positions": [
                -0.28863087994791764,
                -1.5835228538998076,
                2.2306776529981116,
                -0.732395162334486,
                0.1076726266800998,
                -2.6665440267244573
            ]
        },
        {
            "positions": [
                -0.28042546502936005,
                -1.6185011003145024,
                2.19869481017725,
                -0.6829842991748684,
                -0.07988568318828304,
                -2.5952976531748533
            ]
        },
        {
            "positions": [
                -0.2722200501108025,
                -1.6534793467291973,
                2.166711967356388,
                -0.6335734360152507,
                -0.2674439930566661,
                -2.5240512796252492
            ]
        },
        {
            "positions": [
                -0.1633721445609735,
                -1.6819467066047489,
                2.191991993010734,
                -0.6152187870619131,
                -0.1579751321294205,
                -2.5923130842720044
            ]
        },
        {
            "positions": [
                -0.05452423901114445,
                -1.7104140664803003,
                2.2172720186650796,
                -0.5968641381085756,
                -0.04850627120217485,
                -2.660574888918759
            ]
        },
        {
            "positions": [
                0.05432366653868459,
                -1.7388814263558519,
                2.2425520443194253,
                -0.578509489155238,
                0.06096258972507079,
                -2.728836693565514
            ]
        },
        {
            "positions": [
                0.16317157208851363,
                -1.7673487862314035,
                2.267832069973771,
                -0.5601548402019005,
                0.1704314506523164,
                -2.797098498212269
            ]
        },
        {
            "positions": [
                0.27201947763834267,
                -1.7958161461069548,
                2.2931120956281164,
                -0.5418001912485629,
                0.2799003115795621,
                -2.865360302859024
            ]
        },
        {
            "positions": [
                0.3808673831881717,
                -1.8242835059825064,
                2.318392121282462,
                -0.5234455422952254,
                0.3893691725068077,
                -2.9336221075057787
            ]
        },
        {
            "positions": [
                0.48971528873800074,
                -1.852750865858058,
                2.343672146936808,
                -0.5050908933418878,
                0.4988380334340534,
                -3.001883912152534
            ]
        },
        {
            "positions": [
                0.5985631942878298,
                -1.8812182257336094,
                2.3689521725911535,
                -0.48673624438855034,
                0.6083068943612989,
                -3.0701457167992885
            ]
        },
        {
            "positions": [
                0.7074110998376588,
                -1.909685585609161,
                2.3942321982454993,
                -0.46838159543521274,
                0.7177757552885446,
                -3.1384075214460436
            ]
        }
    ]
}