{
    "goal": {
        "global_pose": {
            "orientation": {
                "w": -0.00223480608172531,
                "x": 0.0024358444001904467,
                "y": 0.7094548369677653,
                "z": -0.704743149386269
            },
            "position": {
                "x": 0.6205249238014221,
                "y": -0.6371506643295288,
                "z": 0.19426114857196808
            }
        },
        "name": "move_to_magneteinheit_B"
    },
    "id": "PRMstar_move_to_magneteinheit_B_95",
    "joint_names": [
        "shoulder_pan_joint",
        "shoulder_lift_joint",
        "elbow_joint",
        "wrist_1_joint",
        "wrist_2_joint",
        "wrist_3_joint"
    ],
    "metrics": {
        "cart_traj_len": 1.451564189636261,
        "distance_elbow_joint": 0.7282919830021888,
        "distance_shoulder_lift_joint": 1.2474317926077418,
        "distance_shoulder_pan_joint": 1.6205244766010667,
        "distance_wrist_1_joint": 2.6058246614889615,
        "distance_wrist_2_joint": 2.9375614107366523,
        "distance_wrist_3_joint": 3.139374356243343,
        "smoothness": 7.216449701548081e-16,
        "time": 5.005246914,
        "traj_len": 3.504141646777418,
        "weighted_distance": 4.909291544142826
    },
    "planner": "PRMstar",
    "start": {
        "state": {
            "elbow_joint": 2.39358713078474,
            "shoulder_lift_joint": -1.908514104345545,
            "shoulder_pan_joint": 0.7066247066606129,
            "wrist_1_joint": -0.4678290933515497,
            "wrist_2_joint": 0.7096259083745334,
            "wrist_3_joint": -3.1358149277392293
        }
    },
    "waypoints": [
        {
            "positions": [
                0.7066247066606129,
                -1.908514104345545,
                2.39358713078474,
                -0.4678290933515497,
                0.7096259083745334,
                -3.1358149277392293
            ]
        },
        {
            "positions": [
                0.6543497235444495,
                -1.868274369100134,
                2.3700938410104757,
                -0.38377023330351867,
                0.6148658628668995,
                -3.0345447872152507
            ]
        },
        {
            "positions": [
                0.602074740428286,
                -1.8280346338547229,
                2.346600551236212,
                -0.2997113732554877,
                0.5201058173592655,
                -2.9332746466912716
            ]
        },
        {
            "positions": [
                0.5497997573121226,
                -1.7877948986093117,
                2.3231072614619475,
                -0.21565251320745665,
                0.4253457718516316,
                -2.832004506167293
            ]
        },
        {
            "positions": [
                0.4975247741959592,
                -1.7475551633639008,
                2.2996139716876836,
                -0.13159365315942567,
                0.33058572634399763,
                -2.7307343656433143
            ]
        },
        {
            "positions": [
                0.44524979107979573,
                -1.70731542811849,
                2.276120681913419,
                -0.047534793111394635,
                0.23582568083636374,
                -2.629464225119335
            ]
        },
        {
            "positions": [
                0.3929748079636323,
                -1.6670756928730788,
                2.2526273921391553,
                0.0365240669366364,
                0.14106563532872973,
                -2.5281940845953565
            ]
        },
        {
            "positions": [
                0.34069982484746886,
                -1.6268359576276676,
                2.229134102364891,
                0.12058292698466738,
                0.04630558982109578,
                -2.426923944071378
            ]
        },
        {
            "positions": [
                0.28842484173130545,
                -1.5865962223822567,
                2.2056408125906266,
                0.20464178703269836,
                -0.04845445568653817,
                -2.325653803547399
            ]
        },
        {
            "positions": [
                0.23614985861514193,
                -1.5463564871368456,
                2.1821475228163627,
                0.28870064708072946,
                -0.14321450119417212,
                -2.22438366302342
            ]
        },
        {
            "positions": [
                0.18387487549897852,
                -1.5061167518914347,
                2.1586542330420984,
                0.37275950712876044,
                -0.23797454670180596,
                -2.123113522499441
            ]
        },
        {
            "positions": [
                0.1315998923828151,
                -1.4658770166460235,
                2.1351609432678345,
                0.45681836717679153,
                -0.3327345922094401,
                -2.0218433819754624
            ]
        },
        {
            "positions": [
                0.0793249092666517,
                -1.4256372814006126,
                2.11166765349357,
                0.5408772272248226,
                -0.42749463771707397,
                -1.9205732414514838
            ]
        },
        {
            "positions": [
                0.02704992615048818,
                -1.3853975461552015,
                2.088174363719306,
                0.6249360872728535,
                -0.522254683224708,
                -1.819303100927505
            ]
        },
        {
            "positions": [
                -0.02522505696567523,
                -1.3451578109097906,
                2.064681073945042,
                0.7089949473208845,
                -0.6170147287323419,
                -1.718032960403526
            ]
        },
        {
            "positions": [
                -0.07750004008183875,
                -1.3049180756643795,
                2.041187784170778,
                0.7930538073689157,
                -0.7117747742399757,
                -1.6167628198795472
            ]
        },
        {
            "positions": [
                -0.12977502319800205,
                -1.2646783404189685,
                2.0176944943965136,
                0.8771126674169465,
                -0.8065348197476098,
                -1.5154926793555685
            ]
        },
        {
            "positions": [
                -0.18205000631416546,
                -1.2244386051735576,
                1.9942012046222495,
                0.9611715274649775,
                -0.9012948652552436,
                -1.4142225388315899
            ]
        },
        {
            "positions": [
                -0.2343249894303291,
                -1.1841988699281463,
                1.9707079148479854,
                1.0452303875130087,
                -0.9960549107628777,
                -1.3129523983076108
            ]
        },
        {
            "positions": [
                -0.2865999725464925,
                -1.1439591346827354,
                1.947214625073721,
                1.1292892475610397,
                -1.0908149562705116,
                -1.211682257783632
            ]
        },
        {
            "positions": [
                -0.3388749556626559,
                -1.1037193994373244,
                1.923721335299457,
                1.2133481076090706,
                -1.1855750017781452,
                -1.1104121172596533
            ]
        },
        {
            "positions": [
                -0.3911499387788192,
                -1.0634796641919135,
                1.9002280455251928,
                1.2974069676571016,
                -1.2803350472857793,
                -1.0091419767356746
            ]
        },
        {
            "positions": [
                -0.4434249218949827,
                -1.0232399289465022,
                1.8767347557509286,
                1.3814658277051328,
                -1.3750950927934138,
                -0.9078718362116955
            ]
        },
        {
            "positions": [
                -0.49569990501114625,
                -0.9830001937010913,
                1.8532414659766645,
                1.4655246877531638,
                -1.4698551383010474,
                -0.8066016956877169
            ]
        },
        {
            "positions": [
                -0.5479748881273095,
                -0.9427604584556802,
                1.8297481762024004,
                1.5495835478011948,
                -1.5646151838086815,
                -0.7053315551637382
            ]
        },
        {
            "positions": [
                -0.6002498712434731,
                -0.9025207232102692,
                1.8062548864281363,
                1.6336424078492255,
                -1.659375229316315,
                -0.6040614146397592
            ]
        },
        {
            "positions": [
                -0.6525248543596366,
                -0.8622809879648581,
                1.782761596653872,
                1.7177012678972567,
                -1.7541352748239496,
                -0.5027912741157805
            ]
        },
        {
            "positions": [
                -0.7047998374757999,
                -0.8220412527194472,
                1.759268306879608,
                1.801760127945288,
                -1.8488953203315832,
                -0.4015211335918014
            ]
        },
        {
            "positions": [
                -0.7570748205919634,
                -0.7818015174740363,
                1.7357750171053437,
                1.8858189879933187,
                -1.9436553658392173,
                -0.30025099306782277
            ]
        },
        {
            "positions": [
                -0.8093498037081267,
                -0.7415617822286251,
                1.7122817273310798,
                1.96987784804135,
                -2.038415411346851,
                -0.19898085254384412
            ]
        },
        {
            "positions": [
                -0.8616247868242904,
                -0.701322046983214,
                1.6887884375568154,
                2.053936708089381,
                -2.133175456854485,
                -0.09771071201986503
            ]
        },
        {
            "positions": [
                -0.9138997699404537,
                -0.661082311737803,
                1.6652951477825513,
                2.137995568137412,
                -2.227935502362119,
                0.0035594285041135156
            ]
        }
    ]
}