{
    "goal": {
        "global_pose": {
            "orientation": {
                "w": -0.00223480608172531,
                "x": 0.0024358444001904467,
                "y": 0.7094548369677653,
                "z": -0.704743149386269
            },
            "position": {
                "x": 0.6205249238014221,
                "y": -0.6371506643295288,
                "z": 0.19426114857196808
            }
        },
        "name": "move_to_magneteinheit_B"
    },
    "id": "PRMstar_move_to_magneteinheit_B_128",
    "joint_names": [
        "shoulder_pan_joint",
        "shoulder_lift_joint",
        "elbow_joint",
        "wrist_1_joint",
        "wrist_2_joint",
        "wrist_3_joint"
    ],
    "metrics": {
        "cart_traj_len": 3.132194099244263,
        "distance_elbow_joint": 4.066461893753447,
        "distance_shoulder_lift_joint": 0.5981270092819511,
        "distance_shoulder_pan_joint": 1.9548535506836568,
        "distance_wrist_1_joint": 2.1508791399772136,
        "distance_wrist_2_joint": 0.4631628538111628,
        "distance_wrist_3_joint": 3.2445518921319594,
        "smoothness": 0.2689978446589962,
        "time": 5.098135382000001,
        "traj_len": 3.532426409656596,
        "weighted_distance": 4.645555092525724
    },
    "planner": "PRMstar",
    "start": {
        "state": {
            "elbow_joint": 2.39358713078474,
            "shoulder_lift_joint": -1.908514104345545,
            "shoulder_pan_joint": 0.7066247066606129,
            "wrist_1_joint": -0.4678290933515497,
            "wrist_2_joint": 0.7096259083745334,
            "wrist_3_joint": -3.1358149277392293
        }
    },
    "waypoints": [
        {
            "positions": [
                0.7066247066606129,
                -1.908514104345545,
                2.39358713078474,
                -0.4678290933515497,
                0.7096259083745334,
                -3.1358149277392293
            ]
        },
        {
            "positions": [
                0.7447624389460807,
                -1.9372507640840635,
                2.3517458512274416,
                -0.349259943357076,
                0.7256982898111718,
                -2.9901954601378926
            ]
        },
        {
            "positions": [
                0.7829001712315484,
                -1.965987423822582,
                2.3099045716701436,
                -0.2306907933626023,
                0.7417706712478102,
                -2.8445759925365564
            ]
        },
        {
            "positions": [
                0.8210379035170162,
                -1.9947240835611006,
                2.268063292112845,
                -0.11212164336812858,
                0.7578430526844485,
                -2.6989565249352196
            ]
        },
        {
            "positions": [
                0.8591756358024839,
                -2.0234607432996192,
                2.2262220125555467,
                0.006447506626345134,
                0.773915434121087,
                -2.553337057333883
            ]
        },
        {
            "positions": [
                0.8973133680879517,
                -2.0521974030381376,
                2.1843807329982483,
                0.1250166566208189,
                0.7899878155577253,
                -2.4077175897325462
            ]
        },
        {
            "positions": [
                0.9354511003734194,
                -2.0809340627766564,
                2.1425394534409503,
                0.24358580661529255,
                0.8060601969943637,
                -2.26209812213121
            ]
        },
        {
            "positions": [
                0.9735888326588872,
                -2.1096707225151747,
                2.100698173883652,
                0.3621549566097664,
                0.8221325784310021,
                -2.1164786545298733
            ]
        },
        {
            "positions": [
                1.0406857557810556,
                -2.1090612122615937,
                1.9380313482085,
                0.41384841227735475,
                0.8156615009575904,
                -2.0150059816760866
            ]
        },
        {
            "positions": [
                1.107782678903224,
                -2.1084517020080122,
                1.775364522533348,
                0.4655418679449431,
                0.8091904234841787,
                -1.9135333088223
            ]
        },
        {
            "positions": [
                1.1748796020253924,
                -2.107842191754431,
                1.6126976968581963,
                0.5172353236125314,
                0.802719346010767,
                -1.8120606359685134
            ]
        },
        {
            "positions": [
                1.2419765251475607,
                -2.10723268150085,
                1.4500308711830443,
                0.5689287792801199,
                0.7962482685373553,
                -1.7105879631147267
            ]
        },
        {
            "positions": [
                1.309073448269729,
                -2.1066231712472687,
                1.2873640455078925,
                0.6206222349477082,
                0.7897771910639436,
                -1.6091152902609402
            ]
        },
        {
            "positions": [
                1.3761703713918976,
                -2.1060136609936877,
                1.1246972198327407,
                0.6723156906152965,
                0.7833061135905319,
                -1.5076426174071536
            ]
        },
        {
            "positions": [
                1.4432672945140659,
                -2.1054041507401067,
                0.9620303941575887,
                0.7240091462828849,
                0.7768350361171202,
                -1.4061699445533669
            ]
        },
        {
            "positions": [
                1.5103642176362344,
                -2.104794640486525,
                0.799363568482437,
                0.7757026019504732,
                0.7703639586437085,
                -1.3046972716995802
            ]
        },
        {
            "positions": [
                1.5774611407584027,
                -2.104185130232944,
                0.6366967428072849,
                0.8273960576180617,
                0.7638928811702969,
                -1.2032245988457937
            ]
        },
        {
            "positions": [
                1.644558063880571,
                -2.103575619979363,
                0.47402991713213316,
                0.87908951328565,
                0.7574218036968852,
                -1.101751925992007
            ]
        },
        {
            "positions": [
                1.7116549870027398,
                -2.102966109725782,
                0.31136309145698093,
                0.9307829689532384,
                0.7509507262234734,
                -1.0002792531382203
            ]
        },
        {
            "positions": [
                1.778751910124908,
                -2.1023565994722007,
                0.14869626578182937,
                0.9824764246208267,
                0.7444796487500617,
                -0.8988065802844338
            ]
        },
        {
            "positions": [
                1.8458488332470764,
                -2.1017470892186196,
                -0.013970559893322854,
                1.0341698802884152,
                0.73800857127665,
                -0.7973339074306471
            ]
        },
        {
            "positions": [
                1.9129457563692447,
                -2.1011375789650386,
                -0.17663738556847441,
                1.0858633359560035,
                0.7315374938032383,
                -0.6958612345768607
            ]
        },
        {
            "positions": [
                1.980042679491413,
                -2.100528068711457,
                -0.3393042112436264,
                1.1375567916235918,
                0.7250664163298266,
                -0.594388561723074
            ]
        },
        {
            "positions": [
                2.0471396026135813,
                -2.099918558457876,
                -0.501971036918778,
                1.1892502472911801,
                0.7185953388564149,
                -0.4929158888692873
            ]
        },
        {
            "positions": [
                2.11423652573575,
                -2.099309048204295,
                -0.6646378625939304,
                1.2409437029587687,
                0.7121242613830032,
                -0.3914432160155006
            ]
        },
        {
            "positions": [
                2.1813334488579184,
                -2.0986995379507136,
                -0.827304688269082,
                1.292637158626357,
                0.7056531839095915,
                -0.2899705431617141
            ]
        },
        {
            "positions": [
                2.2484303719800867,
                -2.0980900276971326,
                -0.989971513944234,
                1.3443306142939453,
                0.6991821064361798,
                -0.18849787030792742
            ]
        },
        {
            "positions": [
                2.25623635850696,
                -2.169767006247683,
                -1.1700962421828556,
                1.2994290699237638,
                0.697077318732204,
                -0.13945994792161323
            ]
        },
        {
            "positions": [
                2.2640423450338334,
                -2.241443984798234,
                -1.350220970421477,
                1.2545275255535822,
                0.6949725310282281,
                -0.09042202553529903
            ]
        },
        {
            "positions": [
                2.2718483315607068,
                -2.3131209633487844,
                -1.5303456986600985,
                1.2096259811834007,
                0.6928677433242523,
                -0.04138410314898483
            ]
        },
        {
            "positions": [
                2.3587335466278794,
                -2.368279016679942,
                -1.575726057235515,
                1.1545873284115822,
                0.6245228426830617,
                -0.060833597431040935
            ]
        },
        {
            "positions": [
                2.4456187616950524,
                -2.4234370700111,
                -1.6211064158109314,
                1.0995486756397637,
                0.5561779420418711,
                -0.08028309171309704
            ]
        },
        {
            "positions": [
                2.532503976762225,
                -2.4785951233422576,
                -1.6664867743863478,
                1.0445100228679451,
                0.4878330414006804,
                -0.09973258599515315
            ]
        },
        {
            "positions": [
                2.6614782573442697,
                -2.4834797239914117,
                -1.6600987858039882,
                1.0056111819622262,
                0.4714763946763079,
                -0.007960001299607417
            ]
        }
    ]
}