{
    "goal": {
        "global_pose": {
            "orientation": {
                "w": 0.7031023502349854,
                "x": -0.7110244035720825,
                "y": 0.007748599164187908,
                "z": 0.005598929710686207
            },
            "position": {
                "x": 0.11585023208521307,
                "y": 0.44412534475326537,
                "z": 0.3711530566215515
            }
        },
        "name": "move_to_auspresseinheit_A"
    },
    "id": "PRMstar_move_to_auspresseinheit_A_91",
    "joint_names": [
        "shoulder_pan_joint",
        "shoulder_lift_joint",
        "elbow_joint",
        "wrist_1_joint",
        "wrist_2_joint",
        "wrist_3_joint"
    ],
    "metrics": {
        "cart_traj_len": 0.6983733494187299,
        "distance_elbow_joint": 0.16371016378102343,
        "distance_shoulder_lift_joint": 0.5337039796919039,
        "distance_shoulder_pan_joint": 1.0431511128876592,
        "distance_wrist_1_joint": 0.564409918394108,
        "distance_wrist_2_joint": 1.060688431067569,
        "distance_wrist_3_joint": 0.5400057785911225,
        "smoothness": 0.818587643890937,
        "time": 5.017798833,
        "traj_len": 1.9762766467307622,
        "weighted_distance": 2.571143576515576
    },
    "planner": "PRMstar",
    "start": {
        "state": {
            "elbow_joint": 2.422574709923281,
            "shoulder_lift_joint": -1.3736533754116391,
            "shoulder_pan_joint": -0.33786336945926293,
            "wrist_1_joint": -1.0288603412921917,
            "wrist_2_joint": 1.2330224858903978,
            "wrist_3_joint": -3.094022268022082
        }
    },
    "waypoints": [
        {
            "positions": [
                -0.33786336945926293,
                -1.3736533754116391,
                2.422574709923281,
                -1.0288603412921917,
                1.2330224858903978,
                -3.094022268022082
            ]
        },
        {
            "positions": [
                -0.2641366021066827,
                -1.3860099844939076,
                2.4360331705153135,
                -0.9695964599311925,
                1.0735953528292765,
                -3.045032298202757
            ]
        },
        {
            "positions": [
                -0.19040983475410253,
                -1.398366593576176,
                2.449491631107346,
                -0.9103325785701931,
                0.9141682197681552,
                -2.996042328383432
            ]
        },
        {
            "positions": [
                -0.11668306740152237,
                -1.4107232026584442,
                2.462950091699378,
                -0.8510686972091939,
                0.754741086707034,
                -2.9470523585641075
            ]
        },
        {
            "positions": [
                -0.04295630004894213,
                -1.4230798117407126,
                2.4764085522914105,
                -0.7918048158481945,
                0.5953139536459127,
                -2.8980623887447825
            ]
        },
        {
            "positions": [
                0.030770467303638055,
                -1.435436420822981,
                2.489867012883443,
                -0.7325409344871953,
                0.43588682058479145,
                -2.8490724189254575
            ]
        },
        {
            "positions": [
                0.1480768073497201,
                -1.5168806397158596,
                2.4734831972822344,
                -0.6854370184512091,
                0.47870674237340727,
                -2.8990848228687143
            ]
        },
        {
            "positions": [
                0.26538314739580215,
                -1.5983248586087382,
                2.457099381681026,
                -0.6383331024152229,
                0.5215266641620231,
                -2.949097226811971
            ]
        },
        {
            "positions": [
                0.38268948744188414,
                -1.6797690775016167,
                2.4407155660798177,
                -0.5912291863792367,
                0.5643465859506389,
                -2.999109630755228
            ]
        },
        {
            "positions": [
                0.4999958274879662,
                -1.7612132963944953,
                2.424331750478609,
                -0.5441252703432504,
                0.6071665077392548,
                -3.0491220346984846
            ]
        },
        {
            "positions": [
                0.6173021675340482,
                -1.8426575152873739,
                2.4079479348774004,
                -0.4970213543072643,
                0.6499864295278707,
                -3.0991344386417414
            ]
        },
        {
            "positions": [
                0.7052877434283962,
                -1.907357355103543,
                2.3934491520625816,
                -0.4644504228980837,
                0.6994395863467542,
                -3.1441283484199554
            ]
        }
    ]
}