{
    "goal": {
        "global_pose": {
            "orientation": {
                "w": 0.7047431468963623,
                "x": -0.7094548344612122,
                "y": 0.0024358443915843964,
                "z": -0.0022348060738295317
            },
            "position": {
                "x": 0.6094750761985779,
                "y": 0.3671506643295288,
                "z": 0.19426114857196808
            }
        },
        "name": "move_to_magneteinheit_A"
    },
    "id": "PRMstar_move_to_magneteinheit_A_70",
    "joint_names": [
        "shoulder_pan_joint",
        "shoulder_lift_joint",
        "elbow_joint",
        "wrist_1_joint",
        "wrist_2_joint",
        "wrist_3_joint"
    ],
    "metrics": {
        "cart_traj_len": 2.3816304453260377,
        "distance_elbow_joint": 3.8842269201432025,
        "distance_shoulder_lift_joint": 1.0591628368102626,
        "distance_shoulder_pan_joint": 1.5178351684655726,
        "distance_wrist_1_joint": 1.1796967910767444,
        "distance_wrist_2_joint": 1.44208963100361,
        "distance_wrist_3_joint": 4.333972013636583,
        "smoothness": 0.0416275444827381,
        "time": 5.039216486,
        "traj_len": 3.662920059342816,
        "weighted_distance": 4.9705848559791725
    },
    "planner": "PRMstar",
    "start": {
        "state": {
            "elbow_joint": -1.919643507792019,
            "shoulder_lift_joint": -0.07675430207160344,
            "shoulder_pan_joint": -1.1188671864651873,
            "wrist_1_joint": 0.42560062535961957,
            "wrist_2_joint": 1.5706038300724876,
            "wrist_3_joint": 1.1188968870953055
        }
    },
    "waypoints": [
        {
            "positions": [
                -1.1188671864651873,
                -0.07675430207160344,
                -1.919643507792019,
                0.42560062535961957,
                1.5706038300724876,
                1.1188968870953055
            ]
        },
        {
            "positions": [
                -1.0677535817476447,
                -0.09848438780032849,
                -1.8045850170128475,
                0.39361013036911074,
                1.5312646245378319,
                0.9851046948705158
            ]
        },
        {
            "positions": [
                -1.0166399770301018,
                -0.12021447352905354,
                -1.6895265262336758,
                0.36161963537860187,
                1.4919254190031759,
                0.851312502645726
            ]
        },
        {
            "positions": [
                -0.9655263723125591,
                -0.1419445592577786,
                -1.5744680354545042,
                0.32962914038809304,
                1.4525862134685201,
                0.7175203104209362
            ]
        },
        {
            "positions": [
                -0.9144127675950163,
                -0.16367464498650364,
                -1.4594095446753328,
                0.2976386453975842,
                1.4132470079338644,
                0.5837281181961465
            ]
        },
        {
            "positions": [
                -0.8632991628774735,
                -0.18540473071522867,
                -1.344351053896161,
                0.26564815040707535,
                1.3739078023992084,
                0.4499359259713567
            ]
        },
        {
            "positions": [
                -0.8121855581599309,
                -0.20713481644395373,
                -1.2292925631169895,
                0.23365765541656652,
                1.3345685968645526,
                0.3161437337465669
            ]
        },
        {
            "positions": [
                -0.761071953442388,
                -0.2288649021726788,
                -1.114234072337818,
                0.2016671604260577,
                1.295229391329897,
                0.18235154152177713
            ]
        },
        {
            "positions": [
                -0.7099583487248453,
                -0.25059498790140383,
                -0.9991755815586463,
                0.16967666543554888,
                1.255890185795241,
                0.04855934929698735
            ]
        },
        {
            "positions": [
                -0.6588447440073025,
                -0.2723250736301289,
                -0.8841170907794746,
                0.13768617044504,
                1.2165509802605852,
                -0.08523284292780242
            ]
        },
        {
            "positions": [
                -0.6077311392897597,
                -0.29405515935885396,
                -0.769058600000303,
                0.10569567545453118,
                1.1772117747259294,
                -0.2190250351525922
            ]
        },
        {
            "positions": [
                -0.556617534572217,
                -0.315785245087579,
                -0.6540001092211316,
                0.07370518046402236,
                1.1378725691912734,
                -0.35281722737738197
            ]
        },
        {
            "positions": [
                -0.5055039298546743,
                -0.337515330816304,
                -0.53894161844196,
                0.04171468547351348,
                1.0985333636566177,
                -0.48660941960217174
            ]
        },
        {
            "positions": [
                -0.4543903251371315,
                -0.3592454165450291,
                -0.42388312766278835,
                0.009724190483004658,
                1.059194158121962,
                -0.6204016118269615
            ]
        },
        {
            "positions": [
                -0.40327672041958873,
                -0.38097550227375415,
                -0.3088246368836167,
                -0.022266304507504164,
                1.019854952587306,
                -0.7541938040517513
            ]
        },
        {
            "positions": [
                -0.35216311570204584,
                -0.40270558800247924,
                -0.19376614610444487,
                -0.05425679949801304,
                0.9805157470526502,
                -0.8879859962765413
            ]
        },
        {
            "positions": [
                -0.30104951098450317,
                -0.4244356737312042,
                -0.07870765532527346,
                -0.08624729448852181,
                0.9411765415179945,
                -1.0217781885013308
            ]
        },
        {
            "positions": [
                -0.24993590626696038,
                -0.4461657594599293,
                0.03635083545389817,
                -0.11823778947903069,
                0.9018373359833385,
                -1.1555703807261208
            ]
        },
        {
            "positions": [
                -0.1988223015494177,
                -0.46789584518865435,
                0.1514093262330698,
                -0.15022828446953956,
                0.8624981304486827,
                -1.2893625729509104
            ]
        },
        {
            "positions": [
                -0.14770869683187482,
                -0.48962593091737944,
                0.26646781701224165,
                -0.18221877946004844,
                0.8231589249140269,
                -1.4231547651757004
            ]
        },
        {
            "positions": [
                -0.09659509211433215,
                -0.5113560166461044,
                0.38152630779141306,
                -0.2142092744505572,
                0.7838197193793711,
                -1.55694695740049
            ]
        },
        {
            "positions": [
                -0.045481487396789255,
                -0.5330861023748295,
                0.49658479857058446,
                -0.24619976944106609,
                0.7444805138447153,
                -1.69073914962528
            ]
        },
        {
            "positions": [
                0.005632117320753416,
                -0.5548161881035545,
                0.6116432893497559,
                -0.27819026443157485,
                0.7051413083100595,
                -1.8245313418500695
            ]
        },
        {
            "positions": [
                0.05674572203829609,
                -0.5765462738322796,
                0.7267017801289277,
                -0.31018075942208373,
                0.6658021027754036,
                -1.9583235340748595
            ]
        },
        {
            "positions": [
                0.10785932675583876,
                -0.5982763595610046,
                0.8417602709080991,
                -0.3421712544125926,
                0.6264628972407478,
                -2.092115726299649
            ]
        },
        {
            "positions": [
                0.15897293147338165,
                -0.6200064452897298,
                0.956818761687271,
                -0.3741617494031015,
                0.5871236917060919,
                -2.225907918524439
            ]
        },
        {
            "positions": [
                0.21008653619092432,
                -0.6417365310184548,
                1.0718772524664424,
                -0.40615224439361025,
                0.5477844861714363,
                -2.3597001107492286
            ]
        },
        {
            "positions": [
                0.2612001409084672,
                -0.6634666167471799,
                1.186935743245614,
                -0.4381427393841192,
                0.5084452806367803,
                -2.4934923029740186
            ]
        },
        {
            "positions": [
                0.24397916077197748,
                -0.7225229320140156,
                1.2841417018838104,
                -0.4776369176757449,
                0.46095389544079246,
                -2.5836901559199257
            ]
        },
        {
            "positions": [
                0.22675818063548775,
                -0.7815792472808514,
                1.3813476605220065,
                -0.5171310959673705,
                0.4134625102448046,
                -2.673888008865833
            ]
        },
        {
            "positions": [
                0.20953720049899802,
                -0.8406355625476872,
                1.478553619160203,
                -0.5566252742589962,
                0.36597112504881685,
                -2.7640858618117403
            ]
        },
        {
            "positions": [
                0.19231622036250828,
                -0.899691877814523,
                1.575759577798399,
                -0.5961194525506219,
                0.318479739852829,
                -2.8542837147576474
            ]
        },
        {
            "positions": [
                0.17509524022601855,
                -0.9587481930813587,
                1.6729655364365954,
                -0.6356136308422476,
                0.2709883546568412,
                -2.944481567703555
            ]
        },
        {
            "positions": [
                0.15787426008952882,
                -1.0178045083481946,
                1.7701714950747918,
                -0.6751078091338734,
                0.2234969694608534,
                -3.034679420649462
            ]
        },
        {
            "positions": [
                0.14065327995303908,
                -1.0768608236150303,
                1.867377453712988,
                -0.714601987425499,
                0.17600558426486557,
                -3.124877273595369
            ]
        },
        {
            "positions": [
                0.12343229981654934,
                -1.135917138881866,
                1.9645834123511843,
                -0.7540961657171247,
                0.12851419906887773,
                -3.2150751265412767
            ]
        }
    ]
}