{
    "goal": {
        "global_pose": {
            "orientation": {
                "w": 0.7047431468963623,
                "x": -0.7094548344612122,
                "y": 0.0024358443915843964,
                "z": -0.0022348060738295317
            },
            "position": {
                "x": 0.6094750761985779,
                "y": 0.3671506643295288,
                "z": 0.19426114857196808
            }
        },
        "name": "move_to_magneteinheit_A"
    },
    "id": "PRMstar_move_to_magneteinheit_A_118",
    "joint_names": [
        "shoulder_pan_joint",
        "shoulder_lift_joint",
        "elbow_joint",
        "wrist_1_joint",
        "wrist_2_joint",
        "wrist_3_joint"
    ],
    "metrics": {
        "cart_traj_len": 1.8796595116987989,
        "distance_elbow_joint": 3.906998838701135,
        "distance_shoulder_lift_joint": 0.6977258530893176,
        "distance_shoulder_pan_joint": 1.2410463464080057,
        "distance_wrist_1_joint": 1.4797840678855543,
        "distance_wrist_2_joint": 1.6997058978435968,
        "distance_wrist_3_joint": 1.0892622600232669,
        "smoothness": 8.223874219751559e-16,
        "time": 5.01183216,
        "traj_len": 3.18033382901086,
        "weighted_distance": 3.933514681519132
    },
    "planner": "PRMstar",
    "start": {
        "state": {
            "elbow_joint": -1.919643507792019,
            "shoulder_lift_joint": -0.07675430207160344,
            "shoulder_pan_joint": -1.1188671864651873,
            "wrist_1_joint": 0.42560062535961957,
            "wrist_2_joint": 1.5706038300724876,
            "wrist_3_joint": 1.1188968870953055
        }
    },
    "waypoints": [
        {
            "positions": [
                -1.1188671864651873,
                -0.07675430207160344,
                -1.919643507792019,
                0.42560062535961957,
                1.5706038300724876,
                1.1188968870953055
            ]
        },
        {
            "positions": [
                -1.0711346346802642,
                -0.10358991180580797,
                -1.7693743216881292,
                0.48251539720137165,
                1.5052305263092722,
                1.0770021847867184
            ]
        },
        {
            "positions": [
                -1.0234020828953407,
                -0.1304255215400125,
                -1.6191051355842394,
                0.5394301690431238,
                1.439857222546057,
                1.0351074824781312
            ]
        },
        {
            "positions": [
                -0.9756695311104174,
                -0.157261131274217,
                -1.4688359494803496,
                0.5963449408848758,
                1.374483918782842,
                0.993212780169544
            ]
        },
        {
            "positions": [
                -0.9279369793254941,
                -0.18409674100842155,
                -1.31856676337646,
                0.653259712726628,
                1.3091106150196266,
                0.9513180778609568
            ]
        },
        {
            "positions": [
                -0.8802044275405708,
                -0.21093235074262606,
                -1.16829757727257,
                0.71017448456838,
                1.2437373112564112,
                0.9094233755523696
            ]
        },
        {
            "positions": [
                -0.8324718757556475,
                -0.23776796047683058,
                -1.0180283911686803,
                0.7670892564101321,
                1.178364007493196,
                0.8675286732437824
            ]
        },
        {
            "positions": [
                -0.7847393239707243,
                -0.2646035702110351,
                -0.8677592050647904,
                0.8240040282518841,
                1.1129907037299809,
                0.8256339709351952
            ]
        },
        {
            "positions": [
                -0.7370067721858009,
                -0.2914391799452396,
                -0.7174900189609006,
                0.8809188000936363,
                1.0476173999667655,
                0.783739268626608
            ]
        },
        {
            "positions": [
                -0.6892742204008777,
                -0.3182747896794441,
                -0.567220832857011,
                0.9378335719353883,
                0.9822440962035502,
                0.7418445663180209
            ]
        },
        {
            "positions": [
                -0.6415416686159543,
                -0.3451103994136487,
                -0.4169516467531209,
                0.9947483437771405,
                0.916870792440335,
                0.6999498640094337
            ]
        },
        {
            "positions": [
                -0.5938091168310311,
                -0.3719460091478532,
                -0.2666824606492313,
                1.0516631156188925,
                0.8514974886771197,
                0.6580551617008465
            ]
        },
        {
            "positions": [
                -0.5460765650461078,
                -0.3987816188820577,
                -0.11641327454534123,
                1.1085778874606447,
                0.7861241849139045,
                0.6161604593922593
            ]
        },
        {
            "positions": [
                -0.4983440132611845,
                -0.4256172286162622,
                0.03385591155854839,
                1.1654926593023966,
                0.7207508811506892,
                0.5742657570836721
            ]
        },
        {
            "positions": [
                -0.4506114614762612,
                -0.45245283835046674,
                0.18412509766243823,
                1.2224074311441488,
                0.6553775773874739,
                0.532371054775085
            ]
        },
        {
            "positions": [
                -0.402878909691338,
                -0.47928844808467125,
                0.3343942837663276,
                1.2793222029859008,
                0.5900042736242588,
                0.4904763524664978
            ]
        },
        {
            "positions": [
                -0.3551463579064146,
                -0.5061240578188758,
                0.4846634698702179,
                1.336236974827653,
                0.5246309698610434,
                0.4485816501579105
            ]
        },
        {
            "positions": [
                -0.3074138061214913,
                -0.5329596675530803,
                0.6349326559741078,
                1.393151746669405,
                0.45925766609782803,
                0.40668694784932335
            ]
        },
        {
            "positions": [
                -0.2596812543365681,
                -0.5597952772872848,
                0.7852018420779971,
                1.4500665185111572,
                0.3938843623346129,
                0.3647922455407362
            ]
        },
        {
            "positions": [
                -0.21194870255164477,
                -0.5866308870214894,
                0.935471028181887,
                1.5069812903529092,
                0.32851105857139773,
                0.32289754323214903
            ]
        },
        {
            "positions": [
                -0.16421615076672136,
                -0.613466496755694,
                1.0857402142857773,
                1.5638960621946614,
                0.26313775480818236,
                0.28100284092356176
            ]
        },
        {
            "positions": [
                -0.11648359898179805,
                -0.6403021064898984,
                1.2360094003896671,
                1.6208108340364136,
                0.19776445104496698,
                0.2391081386149746
            ]
        },
        {
            "positions": [
                -0.06875104719687486,
                -0.667137716224103,
                1.3862785864935565,
                1.6777256058781655,
                0.13239114728175183,
                0.19721343630638744
            ]
        },
        {
            "positions": [
                -0.021018495411951665,
                -0.6939733259583074,
                1.5365477725974463,
                1.7346403777199175,
                0.06701784351853668,
                0.15531873399780027
            ]
        },
        {
            "positions": [
                0.02671405637297175,
                -0.720808935692512,
                1.6868169587013366,
                1.7915551495616697,
                0.001644539755321306,
                0.113424031689213
            ]
        },
        {
            "positions": [
                0.07444660815789517,
                -0.7476445454267164,
                1.837086144805226,
                1.848469921403422,
                -0.06372876400789407,
                0.07152932938062584
            ]
        },
        {
            "positions": [
                0.12217915994281842,
                -0.7744801551609211,
                1.9873553309091156,
                1.905384693245174,
                -0.12910206777110925,
                0.02963462707203864
            ]
        }
    ]
}