{
    "goal": {
        "global_pose": {
            "orientation": {
                "w": 0.7047431468963623,
                "x": -0.7094548344612122,
                "y": 0.0024358443915843964,
                "z": -0.0022348060738295317
            },
            "position": {
                "x": 0.6094750761985779,
                "y": 0.3671506643295288,
                "z": 0.19426114857196808
            }
        },
        "name": "move_to_magneteinheit_A"
    },
    "id": "PRMstar_move_to_magneteinheit_A_12",
    "joint_names": [
        "shoulder_pan_joint",
        "shoulder_lift_joint",
        "elbow_joint",
        "wrist_1_joint",
        "wrist_2_joint",
        "wrist_3_joint"
    ],
    "metrics": {
        "cart_traj_len": 1.9919707095465518,
        "distance_elbow_joint": 3.907811884736253,
        "distance_shoulder_lift_joint": 1.0718116388872323,
        "distance_shoulder_pan_joint": 1.241210761062277,
        "distance_wrist_1_joint": 1.289179537999622,
        "distance_wrist_2_joint": 1.4511532232845459,
        "distance_wrist_3_joint": 4.242727465115164,
        "smoothness": 2.03012210393142e-16,
        "time": 5.064794048,
        "traj_len": 3.6337163498387013,
        "weighted_distance": 4.942639194054083
    },
    "planner": "PRMstar",
    "start": {
        "state": {
            "elbow_joint": -1.919643507792019,
            "shoulder_lift_joint": -0.07675430207160344,
            "shoulder_pan_joint": -1.1188671864651873,
            "wrist_1_joint": 0.42560062535961957,
            "wrist_2_joint": 1.5706038300724876,
            "wrist_3_joint": 1.1188968870953055
        }
    },
    "waypoints": [
        {
            "positions": [
                -1.1188671864651873,
                -0.07675430207160344,
                -1.919643507792019,
                0.42560062535961957,
                1.5706038300724876,
                1.1188968870953055
            ]
        },
        {
            "positions": [
                -1.0768170896173823,
                -0.09499276192963654,
                -1.8459126656292233,
                0.3817793537859082,
                1.5072764065581372,
                0.9706192135463086
            ]
        },
        {
            "positions": [
                -1.0347669927695775,
                -0.11323122178766966,
                -1.7721818234664275,
                0.3379580822121968,
                1.4439489830437866,
                0.8223415399973117
            ]
        },
        {
            "positions": [
                -0.9927168959217725,
                -0.13146968164570277,
                -1.698450981303632,
                0.2941368106384855,
                1.3806215595294362,
                0.6740638664483147
            ]
        },
        {
            "positions": [
                -0.9506667990739676,
                -0.14970814150373588,
                -1.6247201391408361,
                0.2503155390647741,
                1.3172941360150858,
                0.5257861928993178
            ]
        },
        {
            "positions": [
                -0.9086167022261626,
                -0.16794660136176898,
                -1.5509892969780403,
                0.20649426749106276,
                1.2539667125007352,
                0.3775085193503209
            ]
        },
        {
            "positions": [
                -0.8665666053783577,
                -0.18618506121980208,
                -1.4772584548152445,
                0.1626729959173514,
                1.1906392889863848,
                0.22923084580132402
            ]
        },
        {
            "positions": [
                -0.8245165085305528,
                -0.20442352107783518,
                -1.4035276126524487,
                0.11885172434364,
                1.1273118654720342,
                0.08095317225232712
            ]
        },
        {
            "positions": [
                -0.7824664116827478,
                -0.2226619809358683,
                -1.329796770489653,
                0.07503045276992865,
                1.0639844419576838,
                -0.06732450129666989
            ]
        },
        {
            "positions": [
                -0.7404163148349427,
                -0.2409004407939014,
                -1.2560659283268574,
                0.03120918119621724,
                1.0006570184433334,
                -0.2156021748456669
            ]
        },
        {
            "positions": [
                -0.6983662179871379,
                -0.2591389006519345,
                -1.1823350861640618,
                -0.012612090377494056,
                0.9373295949289829,
                -0.3638798483946637
            ]
        },
        {
            "positions": [
                -0.6563161211393329,
                -0.27737736050996764,
                -1.108604244001266,
                -0.05643336195120546,
                0.8740021714146324,
                -0.5121575219436607
            ]
        },
        {
            "positions": [
                -0.6142660242915281,
                -0.2956158203680007,
                -1.0348734018384702,
                -0.10025463352491676,
                0.810674747900282,
                -0.6604351954926575
            ]
        },
        {
            "positions": [
                -0.5722159274437231,
                -0.31385428022603384,
                -0.9611425596756743,
                -0.14407590509862828,
                0.7473473243859314,
                -0.8087128690416547
            ]
        },
        {
            "positions": [
                -0.5301658305959182,
                -0.3320927400840669,
                -0.8874117175128786,
                -0.18789717667233957,
                0.684019900871581,
                -0.9569905425906513
            ]
        },
        {
            "positions": [
                -0.48811573374811323,
                -0.3503311999421,
                -0.813680875350083,
                -0.23171844824605087,
                0.6206924773572307,
                -1.105268216139648
            ]
        },
        {
            "positions": [
                -0.4460656369003082,
                -0.3685696598001332,
                -0.739950033187287,
                -0.2755397198197623,
                0.55736505384288,
                -1.2535458896886453
            ]
        },
        {
            "positions": [
                -0.4040155400525033,
                -0.38680811965816625,
                -0.6662191910244915,
                -0.3193609913934737,
                0.49403763032852965,
                -1.4018235632376421
            ]
        },
        {
            "positions": [
                -0.36196544320469826,
                -0.4050465795161994,
                -0.5924883488616957,
                -0.3631822629671851,
                0.43071020681417904,
                -1.5501012367866394
            ]
        },
        {
            "positions": [
                -0.31991534635689345,
                -0.42328503937423245,
                -0.5187575066988999,
                -0.4070035345408964,
                0.36738278329982865,
                -1.6983789103356361
            ]
        },
        {
            "positions": [
                -0.27786524950908853,
                -0.4415234992322656,
                -0.4450266645361043,
                -0.4508248061146077,
                0.30405535978547826,
                -1.846656583884633
            ]
        },
        {
            "positions": [
                -0.2358151526612835,
                -0.4597619590902987,
                -0.37129582237330827,
                -0.4946460776883192,
                0.24072793627112765,
                -1.9949342574336302
            ]
        },
        {
            "positions": [
                -0.1937650558134786,
                -0.4780004189483318,
                -0.29756498021051264,
                -0.5384673492620305,
                0.17740051275677737,
                -2.143211930982627
            ]
        },
        {
            "positions": [
                -0.16742266994593125,
                -0.5338808791158738,
                -0.10708720044761716,
                -0.5655599795435282,
                0.17257135392604114,
                -2.2249301515690627
            ]
        },
        {
            "positions": [
                -0.1410802840783839,
                -0.5897613392834158,
                0.08339057931527832,
                -0.5926526098250258,
                0.1677421950953049,
                -2.306648372155499
            ]
        },
        {
            "positions": [
                -0.11473789821083655,
                -0.6456417994509578,
                0.2738683590781738,
                -0.6197452401065234,
                0.16291303626456868,
                -2.388366592741935
            ]
        },
        {
            "positions": [
                -0.0883955123432892,
                -0.7015222596184998,
                0.4643461388410693,
                -0.6468378703880211,
                0.15808387743383245,
                -2.470084813328371
            ]
        },
        {
            "positions": [
                -0.06205312647574182,
                -0.7574027197860418,
                0.6548239186039648,
                -0.6739305006695188,
                0.15325471860309625,
                -2.5518030339148066
            ]
        },
        {
            "positions": [
                -0.035710740608194486,
                -0.8132831799535838,
                0.8453016983668602,
                -0.7010231309510164,
                0.14842555977236002,
                -2.6335212545012427
            ]
        },
        {
            "positions": [
                -0.009368354740647122,
                -0.8691636401211258,
                1.0357794781297558,
                -0.728115761232514,
                0.1435964009416238,
                -2.715239475087679
            ]
        },
        {
            "positions": [
                0.016974031126900213,
                -0.9250441002886678,
                1.2262572578926512,
                -0.7552083915140116,
                0.13876724211088756,
                -2.7969576956741147
            ]
        },
        {
            "positions": [
                0.043316416994447576,
                -0.9809245604562098,
                1.4167350376555468,
                -0.7823010217955093,
                0.13393808328015133,
                -2.8786759162605504
            ]
        },
        {
            "positions": [
                0.06965880286199497,
                -1.0368050206237518,
                1.6072128174184421,
                -0.8093936520770069,
                0.1291089244494151,
                -2.9603941368469866
            ]
        },
        {
            "positions": [
                0.09600118872954225,
                -1.0926854807912938,
                1.7976905971813375,
                -0.8364862823585045,
                0.12427976561867889,
                -3.042112357433423
            ]
        },
        {
            "positions": [
                0.12234357459708961,
                -1.1485659409588358,
                1.988168376944233,
                -0.8635789126400022,
                0.11945060678794266,
                -3.1238305780198585
            ]
        }
    ]
}