{
    "goal": {
        "global_pose": {
            "orientation": {
                "w": 0.5084816217422485,
                "x": -0.49083608388900757,
                "y": 0.5182115435600281,
                "z": -0.4816462993621826
            },
            "position": {
                "x": 0.5540239810943604,
                "y": 0.030875300988554955,
                "z": 0.16403168439865112
            }
        },
        "name": "move_to_storage_A"
    },
    "id": "PRMstar_move_to_storage_A_145",
    "joint_names": [
        "shoulder_pan_joint",
        "shoulder_lift_joint",
        "elbow_joint",
        "wrist_1_joint",
        "wrist_2_joint",
        "wrist_3_joint"
    ],
    "metrics": {
        "cart_traj_len": 0.352958091588771,
        "distance_elbow_joint": 0.4495495690751037,
        "distance_shoulder_lift_joint": 0.235462401606932,
        "distance_shoulder_pan_joint": 0.4621298359369724,
        "distance_wrist_1_joint": 0.2379866695623546,
        "distance_wrist_2_joint": 1.096685852028789,
        "distance_wrist_3_joint": 0.09288224317740079,
        "smoothness": 0.0,
        "time": 5.007863719,
        "traj_len": 1.6045861059436957,
        "weighted_distance": 2.0236436394122106
    },
    "planner": "PRMstar",
    "start": {
        "state": {
            "elbow_joint": 1.9715463870305268,
            "shoulder_lift_joint": -1.1394903361783484,
            "shoulder_pan_joint": 0.12281147578464417,
            "wrist_1_joint": -0.7804599489681411,
            "wrist_2_joint": 0.12958660307563738,
            "wrist_3_joint": -3.1924946282119055
        }
    },
    "waypoints": [
        {
            "positions": [
                0.12281147578464417,
                -1.1394903361783484,
                1.9715463870305268,
                -0.7804599489681411,
                0.12958660307563738,
                -3.1924946282119055
            ]
        },
        {
            "positions": [
                0.056792927793648126,
                -1.173127822122196,
                2.035767754041256,
                -0.814458044619906,
                0.2862560105083215,
                -3.17922573632942
            ]
        },
        {
            "positions": [
                -0.00922562019734792,
                -1.2067653080660432,
                2.0999891210519848,
                -0.8484561402716709,
                0.4429254179410056,
                -3.1659568444469337
            ]
        },
        {
            "positions": [
                -0.07524416818834397,
                -1.2404027940098907,
                2.164210488062714,
                -0.8824542359234359,
                0.5995948253736898,
                -3.152687952564448
            ]
        },
        {
            "positions": [
                -0.14126271617934,
                -1.274040279953738,
                2.228431855073443,
                -0.9164523315752009,
                0.7562642328063739,
                -3.1394190606819623
            ]
        },
        {
            "positions": [
                -0.2072812641703361,
                -1.3076777658975856,
                2.2926532220841724,
                -0.9504504272269658,
                0.9129336402390581,
                -3.1261501687994766
            ]
        },
        {
            "positions": [
                -0.2732998121613321,
                -1.3413152518414329,
                2.356874589094901,
                -0.9844485228787307,
                1.0696030476717422,
                -3.1128812769169905
            ]
        },
        {
            "positions": [
                -0.3393183601523282,
                -1.3749527377852804,
                2.4210959561056304,
                -1.0184466185304957,
                1.2262724551044264,
                -3.0996123850345048
            ]
        }
    ]
}