{
    "goal": {
        "global_pose": {
            "orientation": {
                "w": -0.00223480608172531,
                "x": 0.0024358444001904467,
                "y": 0.7094548369677653,
                "z": -0.704743149386269
            },
            "position": {
                "x": 0.6205249238014221,
                "y": -0.6371506643295288,
                "z": 0.19426114857196808
            }
        },
        "name": "move_to_magneteinheit_B"
    },
    "id": "PRMstar_move_to_magneteinheit_B_6",
    "joint_names": [
        "shoulder_pan_joint",
        "shoulder_lift_joint",
        "elbow_joint",
        "wrist_1_joint",
        "wrist_2_joint",
        "wrist_3_joint"
    ],
    "metrics": {
        "cart_traj_len": 1.4545558675375192,
        "distance_elbow_joint": 0.7327119129569986,
        "distance_shoulder_lift_joint": 1.2488453842296947,
        "distance_shoulder_pan_joint": 1.6209049294072582,
        "distance_wrist_1_joint": 2.609825222480776,
        "distance_wrist_2_joint": 2.9463511834032845,
        "distance_wrist_3_joint": 3.127550204879339,
        "smoothness": 2.4223047925893806e-16,
        "time": 5.018020642,
        "traj_len": 3.505166021368653,
        "weighted_distance": 4.908916953157803
    },
    "planner": "PRMstar",
    "start": {
        "state": {
            "elbow_joint": 2.39358713078474,
            "shoulder_lift_joint": -1.908514104345545,
            "shoulder_pan_joint": 0.7066247066606129,
            "wrist_1_joint": -0.4678290933515497,
            "wrist_2_joint": 0.7096259083745334,
            "wrist_3_joint": -3.1358149277392293
        }
    },
    "waypoints": [
        {
            "positions": [
                0.7066247066606129,
                -1.908514104345545,
                2.39358713078474,
                -0.4678290933515497,
                0.7096259083745334,
                -3.1358149277392293
            ]
        },
        {
            "positions": [
                0.6559714276166362,
                -1.869487686088367,
                2.370689883504834,
                -0.38627205514902546,
                0.6175524338931808,
                -3.03807898383675
            ]
        },
        {
            "positions": [
                0.6053181485726593,
                -1.830461267831189,
                2.3477926362249275,
                -0.3047150169465012,
                0.5254789594118281,
                -2.9403430399342705
            ]
        },
        {
            "positions": [
                0.5546648695286824,
                -1.7914348495740111,
                2.3248953889450212,
                -0.22315797874397697,
                0.4334054849304755,
                -2.8426070960317915
            ]
        },
        {
            "positions": [
                0.5040115904847057,
                -1.752408431316833,
                2.3019981416651154,
                -0.14160094054145272,
                0.34133201044912287,
                -2.744871152129312
            ]
        },
        {
            "positions": [
                0.45335831144072886,
                -1.713382013059655,
                2.279100894385209,
                -0.06004390233892848,
                0.24925853596777026,
                -2.6471352082268327
            ]
        },
        {
            "positions": [
                0.40270503239675204,
                -1.674355594802477,
                2.256203647105303,
                0.021513135863595767,
                0.15718506148641753,
                -2.5493992643243533
            ]
        },
        {
            "positions": [
                0.3520517533527752,
                -1.6353291765452993,
                2.2333063998253966,
                0.10307017406612001,
                0.06511158700506492,
                -2.451663320421874
            ]
        },
        {
            "positions": [
                0.3013984743087984,
                -1.5963027582881213,
                2.2104091525454903,
                0.18462721226864426,
                -0.026961887476287694,
                -2.3539273765193944
            ]
        },
        {
            "positions": [
                0.2507451952648216,
                -1.5572763400309433,
                2.187511905265584,
                0.2661842504711685,
                -0.1190353619576403,
                -2.256191432616915
            ]
        },
        {
            "positions": [
                0.20009191622084477,
                -1.5182499217737653,
                2.164614657985678,
                0.34774128867369275,
                -0.21110883643899292,
                -2.158455488714436
            ]
        },
        {
            "positions": [
                0.149438637176868,
                -1.4792235035165873,
                2.141717410705772,
                0.429298326876217,
                -0.30318231092034564,
                -2.060719544811956
            ]
        },
        {
            "positions": [
                0.09878535813289113,
                -1.4401970852594093,
                2.1188201634258657,
                0.5108553650787413,
                -0.39525578540169837,
                -1.9629836009094772
            ]
        },
        {
            "positions": [
                0.04813207908891426,
                -1.4011706670022315,
                2.0959229161459594,
                0.5924124032812657,
                -0.48732925988305087,
                -1.8652476570069978
            ]
        },
        {
            "positions": [
                -0.002521199955062503,
                -1.3621442487450535,
                2.073025668866053,
                0.6739694414837898,
                -0.5794027343644036,
                -1.7675117131045184
            ]
        },
        {
            "positions": [
                -0.053174478999039265,
                -1.3231178304878757,
                2.050128421586147,
                0.7555264796863139,
                -0.6714762088457561,
                -1.6697757692020392
            ]
        },
        {
            "positions": [
                -0.10382775804301614,
                -1.2840914122306977,
                2.027231174306241,
                0.8370835178888383,
                -0.7635496833271088,
                -1.5720398252995598
            ]
        },
        {
            "positions": [
                -0.154481037086993,
                -1.2450649939735197,
                2.0043339270263347,
                0.9186405560913626,
                -0.8556231578084615,
                -1.4743038813970804
            ]
        },
        {
            "positions": [
                -0.20513431613096977,
                -1.2060385757163417,
                1.9814366797464285,
                1.0001975942938868,
                -0.947696632289814,
                -1.3765679374946012
            ]
        },
        {
            "positions": [
                -0.25578759517494654,
                -1.1670121574591636,
                1.9585394324665222,
                1.081754632496411,
                -1.0397701067711669,
                -1.2788319935921217
            ]
        },
        {
            "positions": [
                -0.3064408742189234,
                -1.1279857392019856,
                1.935642185186616,
                1.1633116706989353,
                -1.1318435812525194,
                -1.1810960496896423
            ]
        },
        {
            "positions": [
                -0.3570941532629003,
                -1.0889593209448076,
                1.9127449379067096,
                1.2448687089014596,
                -1.2239170557338719,
                -1.083360105787163
            ]
        },
        {
            "positions": [
                -0.40774743230687693,
                -1.0499329026876298,
                1.8898476906268036,
                1.3264257471039838,
                -1.3159905302152248,
                -0.9856241618846835
            ]
        },
        {
            "positions": [
                -0.4584007113508538,
                -1.0109064844304518,
                1.8669504433468973,
                1.4079827853065079,
                -1.4080640046965773,
                -0.8878882179822045
            ]
        },
        {
            "positions": [
                -0.5090539903948307,
                -0.9718800661732738,
                1.8440531960669913,
                1.4895398235090322,
                -1.5001374791779303,
                -0.7901522740797251
            ]
        },
        {
            "positions": [
                -0.5597072694388076,
                -0.9328536479160959,
                1.821155948787085,
                1.5710968617115566,
                -1.5922109536592828,
                -0.6924163301772457
            ]
        },
        {
            "positions": [
                -0.6103605484827844,
                -0.893827229658918,
                1.7982587015071787,
                1.652653899914081,
                -1.6842844281406353,
                -0.5946803862747663
            ]
        },
        {
            "positions": [
                -0.6610138275267611,
                -0.85480081140174,
                1.7753614542272724,
                1.7342109381166049,
                -1.7763579026219878,
                -0.49694444237228685
            ]
        },
        {
            "positions": [
                -0.711667106570738,
                -0.815774393144562,
                1.7524642069473664,
                1.8157679763191292,
                -1.8684313771033407,
                -0.39920849846980744
            ]
        },
        {
            "positions": [
                -0.7623203856147148,
                -0.776747974887384,
                1.72956695966746,
                1.8973250145216536,
                -1.9605048515846932,
                -0.30147255456732847
            ]
        },
        {
            "positions": [
                -0.8129736646586915,
                -0.7377215566302062,
                1.706669712387554,
                1.9788820527241775,
                -2.0525783260660457,
                -0.20373661066484905
            ]
        },
        {
            "positions": [
                -0.8636269437026683,
                -0.6986951383730282,
                1.6837724651076478,
                2.060439090926702,
                -2.1446518005473987,
                -0.10600066676236963
            ]
        },
        {
            "positions": [
                -0.9142802227466451,
                -0.6596687201158502,
                1.6608752178277415,
                2.141996129129226,
                -2.236725275028751,
                -0.008264722859890333
            ]
        }
    ]
}