{
    "goal": {
        "global_pose": {
            "orientation": {
                "w": 0.7031023502349854,
                "x": -0.7110244035720825,
                "y": 0.007748599164187908,
                "z": 0.005598929710686207
            },
            "position": {
                "x": 0.11585023208521307,
                "y": 0.44412534475326537,
                "z": 0.3711530566215515
            }
        },
        "name": "move_to_auspresseinheit_A"
    },
    "id": "PRMstar_move_to_auspresseinheit_A_56",
    "joint_names": [
        "shoulder_pan_joint",
        "shoulder_lift_joint",
        "elbow_joint",
        "wrist_1_joint",
        "wrist_2_joint",
        "wrist_3_joint"
    ],
    "metrics": {
        "cart_traj_len": 0.695382071570976,
        "distance_elbow_joint": 0.03195742010457314,
        "distance_shoulder_lift_joint": 0.5308235351700641,
        "distance_shoulder_pan_joint": 1.0424619040640757,
        "distance_wrist_1_joint": 0.5722420311838192,
        "distance_wrist_2_joint": 0.5347190321737287,
        "distance_wrist_3_joint": 0.22549848710464282,
        "smoothness": 0.23341549970238265,
        "time": 5.206219646,
        "traj_len": 1.713972698090872,
        "weighted_distance": 2.120297254482903
    },
    "planner": "PRMstar",
    "start": {
        "state": {
            "elbow_joint": 2.422574709923281,
            "shoulder_lift_joint": -1.3736533754116391,
            "shoulder_pan_joint": -0.33786336945926293,
            "wrist_1_joint": -1.0288603412921917,
            "wrist_2_joint": 1.2330224858903978,
            "wrist_3_joint": -3.094022268022082
        }
    },
    "waypoints": [
        {
            "positions": [
                -0.33786336945926293,
                -1.3736533754116391,
                2.422574709923281,
                -1.0288603412921917,
                1.2330224858903978,
                -3.094022268022082
            ]
        },
        {
            "positions": [
                -0.25929106799174045,
                -1.3831979555236742,
                2.414953007852265,
                -0.9369888919418911,
                1.1699949614097067,
                -3.063708354812645
            ]
        },
        {
            "positions": [
                -0.18071876652421795,
                -1.3927425356357095,
                2.4073313057812493,
                -0.8451174425915905,
                1.106967436929016,
                -3.033394441603208
            ]
        },
        {
            "positions": [
                -0.10214646505669545,
                -1.4022871157477446,
                2.3997096037102335,
                -0.7532459932412898,
                1.0439399124483248,
                -3.003080528393771
            ]
        },
        {
            "positions": [
                0.032311034886889245,
                -1.4859854148867377,
                2.398194218061646,
                -0.7038080460524703,
                0.9863338359930489,
                -3.02550665297316
            ]
        },
        {
            "positions": [
                0.16676853483047394,
                -1.5696837140257307,
                2.396678832413058,
                -0.6543700988636507,
                0.9287277595377729,
                -3.0479327775525484
            ]
        },
        {
            "positions": [
                0.3012260347740586,
                -1.6533820131647239,
                2.395163446764471,
                -0.6049321516748312,
                0.8711216830824969,
                -3.070358902131937
            ]
        },
        {
            "positions": [
                0.4356835347176433,
                -1.7370803123037168,
                2.3936480611158832,
                -0.5554942044860116,
                0.813515606627221,
                -3.0927850267113257
            ]
        },
        {
            "positions": [
                0.570141034661228,
                -1.82077861144271,
                2.3921326754672956,
                -0.5060562572971921,
                0.755909530171945,
                -3.1152111512907146
            ]
        },
        {
            "positions": [
                0.7045985346048127,
                -1.9044769105817032,
                2.390617289818708,
                -0.45661831010837245,
                0.698303453716669,
                -3.137637275870103
            ]
        }
    ]
}