{
    "goal": {
        "global_pose": {
            "orientation": {
                "w": 0.7047431468963623,
                "x": -0.7094548344612122,
                "y": 0.0024358443915843964,
                "z": -0.0022348060738295317
            },
            "position": {
                "x": 0.6094750761985779,
                "y": 0.3671506643295288,
                "z": 0.19426114857196808
            }
        },
        "name": "move_to_magneteinheit_A"
    },
    "id": "PRMstar_move_to_magneteinheit_A_42",
    "joint_names": [
        "shoulder_pan_joint",
        "shoulder_lift_joint",
        "elbow_joint",
        "wrist_1_joint",
        "wrist_2_joint",
        "wrist_3_joint"
    ],
    "metrics": {
        "cart_traj_len": 2.063442771956068,
        "distance_elbow_joint": 3.877354787857901,
        "distance_shoulder_lift_joint": 1.0549084345684079,
        "distance_shoulder_pan_joint": 1.2408497100538898,
        "distance_wrist_1_joint": 1.1325678545147153,
        "distance_wrist_2_joint": 1.4337847385283666,
        "distance_wrist_3_joint": 1.903223129068985,
        "smoothness": 3.489272363895343e-16,
        "time": 5.004789005,
        "traj_len": 3.262313390002908,
        "weighted_distance": 4.124983333999462
    },
    "planner": "PRMstar",
    "start": {
        "state": {
            "elbow_joint": -1.919643507792019,
            "shoulder_lift_joint": -0.07675430207160344,
            "shoulder_pan_joint": -1.1188671864651873,
            "wrist_1_joint": 0.42560062535961957,
            "wrist_2_joint": 1.5706038300724876,
            "wrist_3_joint": 1.1188968870953055
        }
    },
    "waypoints": [
        {
            "positions": [
                -1.1188671864651873,
                -0.07675430207160344,
                -1.919643507792019,
                0.42560062535961957,
                1.5706038300724876,
                1.1188968870953055
            ]
        },
        {
            "positions": [
                -1.0729097897965247,
                -0.11582498483339632,
                -1.776037774908393,
                0.3836536677850005,
                1.5175006916084741,
                1.1893866326163791
            ]
        },
        {
            "positions": [
                -1.0269523931278621,
                -0.1548956675951892,
                -1.632432042024767,
                0.3417067102103814,
                1.4643975531444604,
                1.2598763781374527
            ]
        },
        {
            "positions": [
                -0.9809949964591996,
                -0.1939663503569821,
                -1.4888263091411411,
                0.2997597526357623,
                1.411294414680447,
                1.330366123658526
            ]
        },
        {
            "positions": [
                -0.935037599790537,
                -0.23303703311877497,
                -1.3452205762575153,
                0.25781279506114324,
                1.3581912762164332,
                1.4008558691795996
            ]
        },
        {
            "positions": [
                -0.8890802031218744,
                -0.2721077158805678,
                -1.2016148433738891,
                0.21586583748652416,
                1.3050881377524197,
                1.4713456147006732
            ]
        },
        {
            "positions": [
                -0.8431228064532119,
                -0.31117839864236074,
                -1.0580091104902634,
                0.17391887991190508,
                1.2519849992884062,
                1.5418353602217465
            ]
        },
        {
            "positions": [
                -0.7971654097845493,
                -0.3502490814041536,
                -0.9144033776066374,
                0.131971922337286,
                1.1988818608243925,
                1.61232510574282
            ]
        },
        {
            "positions": [
                -0.7512080131158867,
                -0.3893197641659465,
                -0.7707976447230114,
                0.09002496476266691,
                1.145778722360379,
                1.6828148512638936
            ]
        },
        {
            "positions": [
                -0.7052506164472241,
                -0.42839044692773937,
                -0.6271919118393854,
                0.04807800718804783,
                1.0926755838963653,
                1.7533045967849672
            ]
        },
        {
            "positions": [
                -0.6592932197785615,
                -0.46746112968953224,
                -0.4835861789557594,
                0.006131049613428752,
                1.0395724454323518,
                1.8237943423060408
            ]
        },
        {
            "positions": [
                -0.613335823109899,
                -0.5065318124513252,
                -0.3399804460721336,
                -0.03581590796119033,
                0.9864693069683382,
                1.8942840878271143
            ]
        },
        {
            "positions": [
                -0.5673784264412364,
                -0.545602495213118,
                -0.19637471318850763,
                -0.07776286553580941,
                0.9333661685043247,
                1.9647738333481877
            ]
        },
        {
            "positions": [
                -0.5214210297725738,
                -0.5846731779749108,
                -0.05276898030488164,
                -0.11970982311042849,
                0.8802630300403111,
                2.0352635788692615
            ]
        },
        {
            "positions": [
                -0.47546363310391115,
                -0.6237438607367038,
                0.09083675257874435,
                -0.16165678068504757,
                0.8271598915762975,
                2.1057533243903346
            ]
        },
        {
            "positions": [
                -0.42950623643524855,
                -0.6628145434984967,
                0.23444248546237056,
                -0.20360373825966677,
                0.7740567531122838,
                2.1762430699114086
            ]
        },
        {
            "positions": [
                -0.38354883976658605,
                -0.7018852262602895,
                0.37804821834599633,
                -0.24555069583428574,
                0.7209536146482703,
                2.2467328154324817
            ]
        },
        {
            "positions": [
                -0.33759144309792344,
                -0.7409559090220825,
                0.5216539512296225,
                -0.28749765340890493,
                0.6678504761842567,
                2.3172225609535553
            ]
        },
        {
            "positions": [
                -0.29163404642926083,
                -0.7800265917838753,
                0.6652596841132483,
                -0.3294446109835239,
                0.6147473377202433,
                2.387712306474629
            ]
        },
        {
            "positions": [
                -0.24567664976059822,
                -0.8190972745456682,
                0.8088654169968745,
                -0.3713915685581431,
                0.5616441992562295,
                2.4582020519957024
            ]
        },
        {
            "positions": [
                -0.19971925309193572,
                -0.858167957307461,
                0.9524711498805003,
                -0.41333852613276206,
                0.5085410607922161,
                2.5286917975167755
            ]
        },
        {
            "positions": [
                -0.1537618564232731,
                -0.897238640069254,
                1.096076882764126,
                -0.45528548370738126,
                0.45543792232820235,
                2.599181543037849
            ]
        },
        {
            "positions": [
                -0.10780445975461062,
                -0.9363093228310468,
                1.2396826156477518,
                -0.4972324412820002,
                0.40233478386418886,
                2.6696712885589227
            ]
        },
        {
            "positions": [
                -0.061847063085948006,
                -0.9753800055928399,
                1.383288348531378,
                -0.5391793988566194,
                0.34923164540017537,
                2.7401610340799962
            ]
        },
        {
            "positions": [
                -0.015889666417285397,
                -1.0144506883546327,
                1.5268940814150038,
                -0.5811263564312383,
                0.2961285069361619,
                2.81065077960107
            ]
        },
        {
            "positions": [
                0.03006773025137721,
                -1.0535213711164255,
                1.67049981429863,
                -0.6230733140058575,
                0.24302536847214817,
                2.8811405251221434
            ]
        },
        {
            "positions": [
                0.07602512692003982,
                -1.0925920538782183,
                1.8141055471822558,
                -0.6650202715804765,
                0.18992223000813468,
                2.951630270643217
            ]
        },
        {
            "positions": [
                0.12198252358870247,
                -1.1316627366400114,
                1.9577112800658822,
                -0.7069672291550957,
                0.13681909154412097,
                3.0221200161642905
            ]
        }
    ]
}