{
    "goal": {
        "global_pose": {
            "orientation": {
                "w": 0.5084816217422485,
                "x": -0.49083608388900757,
                "y": 0.5182115435600281,
                "z": -0.4816462993621826
            },
            "position": {
                "x": 0.5540239810943604,
                "y": 0.030875300988554955,
                "z": 0.16403168439865112
            }
        },
        "name": "move_to_storage_A"
    },
    "id": "PRMstar_move_to_storage_A_126",
    "joint_names": [
        "shoulder_pan_joint",
        "shoulder_lift_joint",
        "elbow_joint",
        "wrist_1_joint",
        "wrist_2_joint",
        "wrist_3_joint"
    ],
    "metrics": {
        "cart_traj_len": 0.3529011064746703,
        "distance_elbow_joint": 0.448615959227999,
        "distance_shoulder_lift_joint": 0.2351164881235348,
        "distance_shoulder_pan_joint": 0.4599082502655298,
        "distance_wrist_1_joint": 0.23797813542753443,
        "distance_wrist_2_joint": 1.1052506866319083,
        "distance_wrist_3_joint": 0.08884849099341396,
        "smoothness": 4.440892098500626e-16,
        "time": 5.011924745,
        "traj_len": 1.6049043618452534,
        "weighted_distance": 2.02401675257795
    },
    "planner": "PRMstar",
    "start": {
        "state": {
            "elbow_joint": 1.9715463870305268,
            "shoulder_lift_joint": -1.1394903361783484,
            "shoulder_pan_joint": 0.12281147578464417,
            "wrist_1_joint": -0.7804599489681411,
            "wrist_2_joint": 0.12958660307563738,
            "wrist_3_joint": -3.1924946282119055
        }
    },
    "waypoints": [
        {
            "positions": [
                0.12281147578464417,
                -1.1394903361783484,
                1.9715463870305268,
                -0.7804599489681411,
                0.12958660307563738,
                -3.1924946282119055
            ]
        },
        {
            "positions": [
                0.05711029717528278,
                -1.173078405910282,
                2.035634381205955,
                -0.8144568254577889,
                0.28747955830876715,
                -3.1798019866414178
            ]
        },
        {
            "positions": [
                -0.008590881434078615,
                -1.2066664756422154,
                2.0997223753813836,
                -0.8484537019474366,
                0.4453725135418969,
                -3.16710934507093
            ]
        },
        {
            "positions": [
                -0.07429206004344001,
                -1.240254545374149,
                2.163810369556812,
                -0.8824505784370844,
                0.6032654687750266,
                -3.1544167035004422
            ]
        },
        {
            "positions": [
                -0.1399932386528014,
                -1.2738426151060827,
                2.2278983637322405,
                -0.9164474549267322,
                0.7611584240081564,
                -3.141724061929955
            ]
        },
        {
            "positions": [
                -0.2056944172621628,
                -1.3074306848380162,
                2.291986357907669,
                -0.95044433141638,
                0.9190513792412862,
                -3.129031420359467
            ]
        },
        {
            "positions": [
                -0.2713955958715242,
                -1.3410187545699497,
                2.3560743520830973,
                -0.9844412079060277,
                1.0769443344744158,
                -3.1163387787889794
            ]
        },
        {
            "positions": [
                -0.3370967744808856,
                -1.3746068243018832,
                2.4201623462585258,
                -1.0184380843956755,
                1.2348372897075457,
                -3.1036461372184916
            ]
        }
    ]
}