{
    "goal": {
        "global_pose": {
            "orientation": {
                "w": 0.5084816217422485,
                "x": -0.49083608388900757,
                "y": 0.5182115435600281,
                "z": -0.4816462993621826
            },
            "position": {
                "x": 0.5540239810943604,
                "y": 0.030875300988554955,
                "z": 0.16403168439865112
            }
        },
        "name": "move_to_storage_A"
    },
    "id": "PRMstar_move_to_storage_A_88",
    "joint_names": [
        "shoulder_pan_joint",
        "shoulder_lift_joint",
        "elbow_joint",
        "wrist_1_joint",
        "wrist_2_joint",
        "wrist_3_joint"
    ],
    "metrics": {
        "cart_traj_len": 0.35385237792825436,
        "distance_elbow_joint": 0.44914401016137573,
        "distance_shoulder_lift_joint": 0.2368264667720259,
        "distance_shoulder_pan_joint": 0.46072197644158674,
        "distance_wrist_1_joint": 0.23429102673145918,
        "distance_wrist_2_joint": 1.110102448605382,
        "distance_wrist_3_joint": 0.09275000731893979,
        "smoothness": 4.440892098500626e-16,
        "time": 5.00786953,
        "traj_len": 1.607431471643743,
        "weighted_distance": 2.028233079802588
    },
    "planner": "PRMstar",
    "start": {
        "state": {
            "elbow_joint": 1.9715463870305268,
            "shoulder_lift_joint": -1.1394903361783484,
            "shoulder_pan_joint": 0.12281147578464417,
            "wrist_1_joint": -0.7804599489681411,
            "wrist_2_joint": 0.12958660307563738,
            "wrist_3_joint": -3.1924946282119055
        }
    },
    "waypoints": [
        {
            "positions": [
                0.12281147578464417,
                -1.1394903361783484,
                1.9715463870305268,
                -0.7804599489681411,
                0.12958660307563738,
                -3.1924946282119055
            ]
        },
        {
            "positions": [
                0.056994050578703215,
                -1.1733226885743522,
                2.0357098170535806,
                -0.8139300956440638,
                0.28817266716212053,
                -3.1792446271663426
            ]
        },
        {
            "positions": [
                -0.008823374627237743,
                -1.2071550409703558,
                2.099873247076634,
                -0.8474002423199866,
                0.44675873124860366,
                -3.16599462612078
            ]
        },
        {
            "positions": [
                -0.07464079983317871,
                -1.2409873933663595,
                2.1640366770996877,
                -0.8808703889959093,
                0.6053447953350868,
                -3.152744625075217
            ]
        },
        {
            "positions": [
                -0.14045822503911964,
                -1.2748197457623631,
                2.2282001071227415,
                -0.914340535671832,
                0.76393085942157,
                -3.139494624029654
            ]
        },
        {
            "positions": [
                -0.20627565024506062,
                -1.308652098158367,
                2.2923635371457953,
                -0.9478106823477548,
                0.9225169235080533,
                -3.1262446229840912
            ]
        },
        {
            "positions": [
                -0.2720930754510016,
                -1.3424844505543705,
                2.3565269671688487,
                -0.9812808290236775,
                1.0811029875945362,
                -3.1129946219385287
            ]
        },
        {
            "positions": [
                -0.33791050065694256,
                -1.3763168029503743,
                2.4206903971919025,
                -1.0147509756996003,
                1.2396890516810195,
                -3.0997446208929658
            ]
        }
    ]
}