{
    "goal": {
        "global_pose": {
            "orientation": {
                "w": 0.5084816217422485,
                "x": -0.49083608388900757,
                "y": 0.5182115435600281,
                "z": -0.4816462993621826
            },
            "position": {
                "x": 0.5540239810943604,
                "y": 0.030875300988554955,
                "z": 0.16403168439865112
            }
        },
        "name": "move_to_storage_A"
    },
    "id": "PRMstar_move_to_storage_A_69",
    "joint_names": [
        "shoulder_pan_joint",
        "shoulder_lift_joint",
        "elbow_joint",
        "wrist_1_joint",
        "wrist_2_joint",
        "wrist_3_joint"
    ],
    "metrics": {
        "cart_traj_len": 0.3524441148804688,
        "distance_elbow_joint": 0.44810075517309134,
        "distance_shoulder_lift_joint": 0.2351305655367164,
        "distance_shoulder_pan_joint": 0.4620518986496183,
        "distance_wrist_1_joint": 0.2373222836729404,
        "distance_wrist_2_joint": 1.0923344004253481,
        "distance_wrist_3_joint": 0.09151191726953689,
        "smoothness": 1.554312239749871e-15,
        "time": 5.004349144,
        "traj_len": 1.6020149252510887,
        "weighted_distance": 2.019686198240859
    },
    "planner": "PRMstar",
    "start": {
        "state": {
            "elbow_joint": 1.9715463870305268,
            "shoulder_lift_joint": -1.1394903361783484,
            "shoulder_pan_joint": 0.12281147578464417,
            "wrist_1_joint": -0.7804599489681411,
            "wrist_2_joint": 0.12958660307563738,
            "wrist_3_joint": -3.1924946282119055
        }
    },
    "waypoints": [
        {
            "positions": [
                0.12281147578464417,
                -1.1394903361783484,
                1.9715463870305268,
                -0.7804599489681411,
                0.12958660307563738,
                -3.1924946282119055
            ]
        },
        {
            "positions": [
                0.05680406169184156,
                -1.1730804169693079,
                2.0355607806266827,
                -0.8143631323499897,
                0.2856343745649728,
                -3.1794214971734003
            ]
        },
        {
            "positions": [
                -0.009203352400961054,
                -1.2066704977602674,
                2.0995751742228386,
                -0.8482663157318383,
                0.4416821460543082,
                -3.166348366134895
            ]
        },
        {
            "positions": [
                -0.07521076649376367,
                -1.2402605785512268,
                2.1635895678189945,
                -0.8821694991136869,
                0.5977299175436437,
                -3.1532752350963897
            ]
        },
        {
            "positions": [
                -0.14121818058656627,
                -1.2738506593421863,
                2.2276039614151504,
                -0.9160726824955356,
                0.7537776890329791,
                -3.1402021040578845
            ]
        },
        {
            "positions": [
                -0.2072255946793689,
                -1.3074407401331458,
                2.2916183550113063,
                -0.9499758658773843,
                0.9098254605223146,
                -3.127128973019379
            ]
        },
        {
            "positions": [
                -0.2732330087721715,
                -1.3410308209241053,
                2.355632748607462,
                -0.9838790492592329,
                1.06587323201165,
                -3.114055841980874
            ]
        },
        {
            "positions": [
                -0.33924042286497413,
                -1.3746209017150648,
                2.419647142203618,
                -1.0177822326410815,
                1.2219210035009855,
                -3.1009827109423687
            ]
        }
    ]
}