{
    "goal": {
        "global_pose": {
            "orientation": {
                "w": 0.5084816217422485,
                "x": -0.49083608388900757,
                "y": 0.5182115435600281,
                "z": -0.4816462993621826
            },
            "position": {
                "x": 0.5540239810943604,
                "y": 0.030875300988554955,
                "z": 0.16403168439865112
            }
        },
        "name": "move_to_storage_A"
    },
    "id": "PRMstar_move_to_storage_A_13",
    "joint_names": [
        "shoulder_pan_joint",
        "shoulder_lift_joint",
        "elbow_joint",
        "wrist_1_joint",
        "wrist_2_joint",
        "wrist_3_joint"
    ],
    "metrics": {
        "cart_traj_len": 0.35322712574659637,
        "distance_elbow_joint": 0.4509804003218587,
        "distance_shoulder_lift_joint": 0.23210062605749915,
        "distance_shoulder_pan_joint": 0.4632385273449543,
        "distance_wrist_1_joint": 0.25241450194907833,
        "distance_wrist_2_joint": 1.0920523438633363,
        "distance_wrist_3_joint": 0.08942804733681742,
        "smoothness": 0.0,
        "time": 5.008125686,
        "traj_len": 1.6063045934297593,
        "weighted_distance": 2.025718980352308
    },
    "planner": "PRMstar",
    "start": {
        "state": {
            "elbow_joint": 1.9715463870305268,
            "shoulder_lift_joint": -1.1394903361783484,
            "shoulder_pan_joint": 0.12281147578464417,
            "wrist_1_joint": -0.7804599489681411,
            "wrist_2_joint": 0.12958660307563738,
            "wrist_3_joint": -3.1924946282119055
        }
    },
    "waypoints": [
        {
            "positions": [
                0.12281147578464417,
                -1.1394903361783484,
                1.9715463870305268,
                -0.7804599489681411,
                0.12958660307563738,
                -3.1924946282119055
            ]
        },
        {
            "positions": [
                0.05663454330679356,
                -1.1726475684722768,
                2.035972158505078,
                -0.8165191635322951,
                0.2855940807703997,
                -3.1797191928780744
            ]
        },
        {
            "positions": [
                -0.009542389171057056,
                -1.2058048007662052,
                2.1003979299796294,
                -0.8525783780964492,
                0.441601558465162,
                -3.1669437575442436
            ]
        },
        {
            "positions": [
                -0.07571932164890767,
                -1.2389620330601336,
                2.1648237014541807,
                -0.8886375926606032,
                0.5976090361599243,
                -3.1541683222104124
            ]
        },
        {
            "positions": [
                -0.14189625412675827,
                -1.2721192653540623,
                2.2292494729287315,
                -0.9246968072247572,
                0.7536165138546866,
                -3.1413928868765812
            ]
        },
        {
            "positions": [
                -0.20807318660460888,
                -1.3052764976479907,
                2.293675244403283,
                -0.9607560217889113,
                0.9096239915494491,
                -3.12861745154275
            ]
        },
        {
            "positions": [
                -0.2742501190824595,
                -1.3384337299419191,
                2.358101015877834,
                -0.9968152363530653,
                1.0656314692442113,
                -3.1158420162089193
            ]
        },
        {
            "positions": [
                -0.3404270515603101,
                -1.3715909622358475,
                2.4225267873523855,
                -1.0328744509172194,
                1.2216389469389737,
                -3.103066580875088
            ]
        }
    ]
}