{
    "goal": {
        "global_pose": {
            "orientation": {
                "w": -0.00223480608172531,
                "x": 0.0024358444001904467,
                "y": 0.7094548369677653,
                "z": -0.704743149386269
            },
            "position": {
                "x": 0.6205249238014221,
                "y": -0.6371506643295288,
                "z": 0.19426114857196808
            }
        },
        "name": "move_to_magneteinheit_B"
    },
    "id": "PRMstar_move_to_magneteinheit_B_99",
    "joint_names": [
        "shoulder_pan_joint",
        "shoulder_lift_joint",
        "elbow_joint",
        "wrist_1_joint",
        "wrist_2_joint",
        "wrist_3_joint"
    ],
    "metrics": {
        "cart_traj_len": 3.6396834539388947,
        "distance_elbow_joint": 4.122834712946596,
        "distance_shoulder_lift_joint": 0.5263055577021345,
        "distance_shoulder_pan_joint": 1.953433391231996,
        "distance_wrist_1_joint": 2.7515385383893314,
        "distance_wrist_2_joint": 1.6535478965968513,
        "distance_wrist_3_joint": 6.2767564291905495,
        "smoothness": 0.3474486257321327,
        "time": 5.054882094,
        "traj_len": 4.157453129748723,
        "weighted_distance": 5.851753226121618
    },
    "planner": "PRMstar",
    "start": {
        "state": {
            "elbow_joint": 2.39358713078474,
            "shoulder_lift_joint": -1.908514104345545,
            "shoulder_pan_joint": 0.7066247066606129,
            "wrist_1_joint": -0.4678290933515497,
            "wrist_2_joint": 0.7096259083745334,
            "wrist_3_joint": -3.1358149277392293
        }
    },
    "waypoints": [
        {
            "positions": [
                0.7066247066606129,
                -1.908514104345545,
                2.39358713078474,
                -0.4678290933515497,
                0.7096259083745334,
                -3.1358149277392293
            ]
        },
        {
            "positions": [
                0.7457999282670448,
                -1.9399292699636275,
                2.3644583033605735,
                -0.3881723431653137,
                0.7121569599125204,
                -2.922991888968271
            ]
        },
        {
            "positions": [
                0.7849751498734767,
                -1.9713444355817098,
                2.335329475936407,
                -0.3085155929790776,
                0.7146880114505074,
                -2.7101688501973125
            ]
        },
        {
            "positions": [
                0.8241503714799086,
                -2.0027596011997923,
                2.3062006485122404,
                -0.22885884279284152,
                0.7172190629884944,
                -2.4973458114263543
            ]
        },
        {
            "positions": [
                0.8759503269159011,
                -2.018152112200696,
                2.237119701354617,
                -0.243210404777312,
                0.7035251306057348,
                -2.2841153524333637
            ]
        },
        {
            "positions": [
                0.9277502823518937,
                -2.0335446232015997,
                2.168038754196993,
                -0.2575619667617825,
                0.6898311982229753,
                -2.070884893440373
            ]
        },
        {
            "positions": [
                0.9795502377878863,
                -2.0489371342025033,
                2.0989578070393695,
                -0.27191352874625296,
                0.6761372658402159,
                -1.8576544344473824
            ]
        },
        {
            "positions": [
                1.0313501932238789,
                -2.064329645203407,
                2.029876859881746,
                -0.2862650907307234,
                0.6624433334574564,
                -1.6444239754543917
            ]
        },
        {
            "positions": [
                1.0831501486598716,
                -2.0797221562043107,
                1.9607959127241221,
                -0.3006166527151939,
                0.6487494010746969,
                -1.4311935164614011
            ]
        },
        {
            "positions": [
                1.134950104095864,
                -2.0951146672052143,
                1.8917149655664987,
                -0.3149682146996644,
                0.6350554686919374,
                -1.2179630574684106
            ]
        },
        {
            "positions": [
                1.1867500595318567,
                -2.110507178206118,
                1.822634018408875,
                -0.32931977668413487,
                0.6213615363091779,
                -1.00473259847542
            ]
        },
        {
            "positions": [
                1.2385500149678492,
                -2.1258996892070217,
                1.7535530712512513,
                -0.34367133866860533,
                0.6076676039264184,
                -0.7915021394824293
            ]
        },
        {
            "positions": [
                1.290349970403842,
                -2.1412922002079253,
                1.6844721240936278,
                -0.35802290065307585,
                0.593973671543659,
                -0.5782716804894386
            ]
        },
        {
            "positions": [
                1.3421499258398346,
                -2.156684711208829,
                1.615391176936004,
                -0.37237446263754626,
                0.5802797391608995,
                -0.365041221496448
            ]
        },
        {
            "positions": [
                1.393949881275827,
                -2.1720772222097326,
                1.5463102297783804,
                -0.3867260246220168,
                0.56658580677814,
                -0.15181076250345726
            ]
        },
        {
            "positions": [
                1.428443656454825,
                -2.1668509070422393,
                1.4345045529490998,
                -0.46257292502624886,
                0.5289001761710288,
                -0.0317943071041937
            ]
        },
        {
            "positions": [
                1.4629374316338228,
                -2.161624591874746,
                1.3226988761198193,
                -0.538419825430481,
                0.4912145455639176,
                0.08822214829506986
            ]
        },
        {
            "positions": [
                1.4974312068128208,
                -2.156398276707253,
                1.2108931992905387,
                -0.6142667258347131,
                0.45352891495680636,
                0.20823860369433345
            ]
        },
        {
            "positions": [
                1.5319249819918186,
                -2.1511719615397595,
                1.0990875224612582,
                -0.6901136262389451,
                0.4158432843496952,
                0.328255059093597
            ]
        },
        {
            "positions": [
                1.5664187571708166,
                -2.145945646372266,
                0.9872818456319776,
                -0.7659605266431773,
                0.378157653742584,
                0.4482715144928606
            ]
        },
        {
            "positions": [
                1.6009125323498146,
                -2.1407193312047728,
                0.8754761688026971,
                -0.8418074270474094,
                0.34047202313547276,
                0.5682879698921242
            ]
        },
        {
            "positions": [
                1.6354063075288123,
                -2.1354930160372794,
                0.7636704919734165,
                -0.9176543274516415,
                0.3027863925283616,
                0.6883044252913878
            ]
        },
        {
            "positions": [
                1.66990008270781,
                -2.1302667008697864,
                0.651864815144136,
                -0.9935012278558736,
                0.2651007619212504,
                0.8083208806906512
            ]
        },
        {
            "positions": [
                1.704393857886808,
                -2.125040385702293,
                0.5400591383148554,
                -1.0693481282601058,
                0.2274151313141392,
                0.9283373360899148
            ]
        },
        {
            "positions": [
                1.738887633065806,
                -2.1198140705347996,
                0.42825346148557486,
                -1.1451950286643378,
                0.189729500707028,
                1.0483537914891785
            ]
        },
        {
            "positions": [
                1.7733814082448038,
                -2.1145877553673063,
                0.3164477846562943,
                -1.22104192906857,
                0.15204387009991682,
                1.168370246888442
            ]
        },
        {
            "positions": [
                1.8078751834238018,
                -2.1093614401998133,
                0.20464210782701375,
                -1.296888829472802,
                0.1143582394928056,
                1.2883867022877056
            ]
        },
        {
            "positions": [
                1.8423689586027998,
                -2.10413512503232,
                0.0928364309977332,
                -1.372735729877034,
                0.07667260888569444,
                1.408403157686969
            ]
        },
        {
            "positions": [
                1.8768627337817976,
                -2.0989088098648265,
                -0.018969245831547354,
                -1.4485826302812663,
                0.03898697827858322,
                1.5284196130862329
            ]
        },
        {
            "positions": [
                1.9113565089607956,
                -2.093682494697333,
                -0.1307749226608279,
                -1.5244295306854982,
                0.0013013476714720529,
                1.6484360684854964
            ]
        },
        {
            "positions": [
                1.9458502841397933,
                -2.0884561795298398,
                -0.24258059949010846,
                -1.6002764310897304,
                -0.03638428293563911,
                1.7684525238847597
            ]
        },
        {
            "positions": [
                1.9803440593187913,
                -2.083229864362347,
                -0.354386276319389,
                -1.6761233314939625,
                -0.07406991354275039,
                1.8884689792840235
            ]
        },
        {
            "positions": [
                2.014837834497789,
                -2.0780035491948534,
                -0.46619195314866957,
                -1.7519702318981947,
                -0.11175554414986155,
                2.008485434683287
            ]
        },
        {
            "positions": [
                2.049331609676787,
                -2.07277723402736,
                -0.5779976299779501,
                -1.8278171323024268,
                -0.14944117475697272,
                2.1285018900825508
            ]
        },
        {
            "positions": [
                2.083825384855785,
                -2.0675509188598666,
                -0.6898033068072307,
                -1.903664032706659,
                -0.187126805364084,
                2.2485183454818145
            ]
        },
        {
            "positions": [
                2.118319160034783,
                -2.0623246036923732,
                -0.8016089836365112,
                -1.979510933110891,
                -0.22481243597119516,
                2.3685348008810774
            ]
        },
        {
            "positions": [
                2.1528129352137806,
                -2.0570982885248803,
                -0.9134146604657918,
                -2.055357833515123,
                -0.2624980665783063,
                2.488551256280341
            ]
        },
        {
            "positions": [
                2.187306710392779,
                -2.051871973357387,
                -1.0252203372950723,
                -2.131204733919355,
                -0.3001836971854176,
                2.608567711679605
            ]
        },
        {
            "positions": [
                2.2218004855717766,
                -2.0466456581898935,
                -1.137026014124353,
                -2.2070516343235873,
                -0.33786932779252876,
                2.728584167078868
            ]
        },
        {
            "positions": [
                2.2383492369082174,
                -2.064867789994107,
                -1.2481028463301338,
                -2.2843700714286523,
                -0.41134729500158634,
                2.7850810188689437
            ]
        },
        {
            "positions": [
                2.254897988244658,
                -2.08308992179832,
                -1.3591796785359147,
                -2.361688508533718,
                -0.4848252622106439,
                2.841577870659019
            ]
        },
        {
            "positions": [
                2.2714467395810987,
                -2.1013120536025336,
                -1.4702565107416956,
                -2.439006945638783,
                -0.5583032294197016,
                2.898074722449095
            ]
        },
        {
            "positions": [
                2.287995490917539,
                -2.1195341854067467,
                -1.5813333429474765,
                -2.5163253827438483,
                -0.6317811966287592,
                2.9545715742391705
            ]
        },
        {
            "positions": [
                2.30454424225398,
                -2.13775631721096,
                -1.6924101751532574,
                -2.5936438198489133,
                -0.7052591638378167,
                3.011068426029246
            ]
        },
        {
            "positions": [
                2.4230488608001894,
                -2.1531563894766403,
                -1.6801310394837243,
                -2.544382716257396,
                -0.6307669921189569,
                3.0543594511699363
            ]
        },
        {
            "positions": [
                2.5415534793463994,
                -2.168556461742321,
                -1.6678519038141915,
                -2.495121612665879,
                -0.5562748204000971,
                3.0976504763106267
            ]
        },
        {
            "positions": [
                2.660058097892609,
                -2.183956534008001,
                -1.6555727681446584,
                -2.445860509074362,
                -0.4817826486812373,
                3.140941501451317
            ]
        }
    ]
}