{
    "goal": {
        "global_pose": {
            "orientation": {
                "w": 0.7031023502349854,
                "x": -0.7110244035720825,
                "y": 0.007748599164187908,
                "z": 0.005598929710686207
            },
            "position": {
                "x": 0.11585023208521307,
                "y": 0.44412534475326537,
                "z": 0.3711530566215515
            }
        },
        "name": "move_to_auspresseinheit_A"
    },
    "id": "PRMstar_move_to_auspresseinheit_A_74",
    "joint_names": [
        "shoulder_pan_joint",
        "shoulder_lift_joint",
        "elbow_joint",
        "wrist_1_joint",
        "wrist_2_joint",
        "wrist_3_joint"
    ],
    "metrics": {
        "cart_traj_len": 0.702793447002545,
        "distance_elbow_joint": 0.08734805536660062,
        "distance_shoulder_lift_joint": 0.5331313566496496,
        "distance_shoulder_pan_joint": 1.0400548166301091,
        "distance_wrist_1_joint": 0.6948647153523877,
        "distance_wrist_2_joint": 0.8046693598336706,
        "distance_wrist_3_joint": 0.24035715221940634,
        "smoothness": 1.1865405663753439,
        "time": 5.006505108,
        "traj_len": 1.8440242558198152,
        "weighted_distance": 2.3196279519950385
    },
    "planner": "PRMstar",
    "start": {
        "state": {
            "elbow_joint": 2.422574709923281,
            "shoulder_lift_joint": -1.3736533754116391,
            "shoulder_pan_joint": -0.33786336945926293,
            "wrist_1_joint": -1.0288603412921917,
            "wrist_2_joint": 1.2330224858903978,
            "wrist_3_joint": -3.094022268022082
        }
    },
    "waypoints": [
        {
            "positions": [
                -0.33786336945926293,
                -1.3736533754116391,
                2.422574709923281,
                -1.0288603412921917,
                1.2330224858903978,
                -3.094022268022082
            ]
        },
        {
            "positions": [
                -0.21457802581207522,
                -1.4249484541463986,
                2.415057736485649,
                -0.9493302103925858,
                1.1493238395471452,
                -3.0818471994190086
            ]
        },
        {
            "positions": [
                -0.0912926821648875,
                -1.4762435328811583,
                2.407540763048017,
                -0.8698000794929799,
                1.0656251932038927,
                -3.0696721308159347
            ]
        },
        {
            "positions": [
                0.03199266148230023,
                -1.5275386116159178,
                2.4000237896103847,
                -0.790269948593374,
                0.9819265468606402,
                -3.057497062212861
            ]
        },
        {
            "positions": [
                0.15527800512948792,
                -1.5788336903506774,
                2.3925068161727525,
                -0.710739817693768,
                0.8982279005173877,
                -3.0453219936097877
            ]
        },
        {
            "positions": [
                0.2785633487766756,
                -1.630128769085437,
                2.38498984273512,
                -0.6312096867941621,
                0.8145292541741351,
                -3.033146925006714
            ]
        },
        {
            "positions": [
                0.4018486924238634,
                -1.6814238478201964,
                2.377472869297488,
                -0.5516795558945563,
                0.7308306078308825,
                -3.0209718564036403
            ]
        },
        {
            "positions": [
                0.525134036071051,
                -1.732718926554956,
                2.3699558958598557,
                -0.4721494249949504,
                0.64713196148763,
                -3.0087967878005664
            ]
        },
        {
            "positions": [
                0.6484193797182387,
                -1.7840140052897155,
                2.3624389224222235,
                -0.39261929409534446,
                0.5634333151443774,
                -2.996621719197493
            ]
        },
        {
            "positions": [
                0.6753054134445424,
                -1.8453993686755021,
                2.376045056354995,
                -0.4219311281731147,
                0.6309734096882026,
                -3.068100020894901
            ]
        },
        {
            "positions": [
                0.7021914471708461,
                -1.9067847320612887,
                2.3896511902877666,
                -0.4512429622508849,
                0.6985135042320277,
                -3.13957832259231
            ]
        }
    ]
}