{
    "goal": {
        "global_pose": {
            "orientation": {
                "w": -0.00223480608172531,
                "x": 0.0024358444001904467,
                "y": 0.7094548369677653,
                "z": -0.704743149386269
            },
            "position": {
                "x": 0.6205249238014221,
                "y": -0.6371506643295288,
                "z": 0.19426114857196808
            }
        },
        "name": "move_to_magneteinheit_B"
    },
    "id": "PRMstar_move_to_magneteinheit_B_139",
    "joint_names": [
        "shoulder_pan_joint",
        "shoulder_lift_joint",
        "elbow_joint",
        "wrist_1_joint",
        "wrist_2_joint",
        "wrist_3_joint"
    ],
    "metrics": {
        "cart_traj_len": 1.4520237697225693,
        "distance_elbow_joint": 0.7285548868498779,
        "distance_shoulder_lift_joint": 1.248459753971627,
        "distance_shoulder_pan_joint": 1.6221706962971074,
        "distance_wrist_1_joint": 2.601990916122041,
        "distance_wrist_2_joint": 2.934620196508695,
        "distance_wrist_3_joint": 3.128537082356346,
        "smoothness": 2.4980018173577986e-16,
        "time": 5.005114121,
        "traj_len": 3.5020470488138353,
        "weighted_distance": 4.90489743108346
    },
    "planner": "PRMstar",
    "start": {
        "state": {
            "elbow_joint": 2.39358713078474,
            "shoulder_lift_joint": -1.908514104345545,
            "shoulder_pan_joint": 0.7066247066606129,
            "wrist_1_joint": -0.4678290933515497,
            "wrist_2_joint": 0.7096259083745334,
            "wrist_3_joint": -3.1358149277392293
        }
    },
    "waypoints": [
        {
            "positions": [
                0.7066247066606129,
                -1.908514104345545,
                2.39358713078474,
                -0.4678290933515497,
                0.7096259083745334,
                -3.1358149277392293
            ]
        },
        {
            "positions": [
                0.6542966196832869,
                -1.8682412090561376,
                2.3700853602411955,
                -0.3838939025089032,
                0.6149607407452207,
                -3.034894376695476
            ]
        },
        {
            "positions": [
                0.6019685327059608,
                -1.8279683137667302,
                2.346583589697651,
                -0.29995871166625676,
                0.520295573115908,
                -2.933973825651723
            ]
        },
        {
            "positions": [
                0.5496404457286348,
                -1.787695418477323,
                2.3230818191541065,
                -0.21602352082361026,
                0.4256304054865952,
                -2.83305327460797
            ]
        },
        {
            "positions": [
                0.49731235875130875,
                -1.7474225231879157,
                2.2995800486105624,
                -0.13208832998096376,
                0.3309652378572825,
                -2.732132723564217
            ]
        },
        {
            "positions": [
                0.4449842717739827,
                -1.7071496278985083,
                2.276078278067018,
                -0.04815313913831726,
                0.23630007022796973,
                -2.631212172520464
            ]
        },
        {
            "positions": [
                0.3926561847966567,
                -1.666876732609101,
                2.2525765075234734,
                0.03578205170432919,
                0.14163490259865696,
                -2.530291621476711
            ]
        },
        {
            "positions": [
                0.34032809781933065,
                -1.6266038373196938,
                2.229074736979929,
                0.11971724254697574,
                0.04696973496934431,
                -2.429371070432958
            ]
        },
        {
            "positions": [
                0.2880000108420046,
                -1.5863309420302865,
                2.2055729664363843,
                0.2036524333896222,
                -0.04769543265996845,
                -2.3284505193892047
            ]
        },
        {
            "positions": [
                0.2356719238646785,
                -1.546058046740879,
                2.18207119589284,
                0.28758762423226875,
                -0.14236060028928121,
                -2.2275299683454515
            ]
        },
        {
            "positions": [
                0.18334383688735245,
                -1.5057851514514717,
                2.1585694253492957,
                0.3715228150749152,
                -0.23702576791859398,
                -2.1266094173016983
            ]
        },
        {
            "positions": [
                0.1310157499100264,
                -1.4655122561620644,
                2.1350676548057512,
                0.45545800591756175,
                -0.33169093554790663,
                -2.025688866257945
            ]
        },
        {
            "positions": [
                0.07868766293270046,
                -1.425239360872657,
                2.1115658842622067,
                0.5393931967602081,
                -0.4263561031772195,
                -1.9247683152141923
            ]
        },
        {
            "positions": [
                0.026359575955374304,
                -1.3849664655832497,
                2.088064113718662,
                0.6233283876028548,
                -0.5210212708065322,
                -1.8238477641704391
            ]
        },
        {
            "positions": [
                -0.025968511021951635,
                -1.3446935702938425,
                2.0645623431751177,
                0.7072635784455013,
                -0.6156864384358448,
                -1.722927213126686
            ]
        },
        {
            "positions": [
                -0.0782965979992778,
                -1.3044206750044351,
                2.041060572631573,
                0.7911987692881477,
                -0.7103516060651577,
                -1.622006662082933
            ]
        },
        {
            "positions": [
                -0.13062468497660373,
                -1.2641477797150278,
                2.017558802088029,
                0.8751339601307941,
                -0.8050167736944703,
                -1.5210861110391798
            ]
        },
        {
            "positions": [
                -0.18295277195392978,
                -1.2238748844256206,
                1.9940570315444845,
                0.9590691509734406,
                -0.899681941323783,
                -1.4201655599954268
            ]
        },
        {
            "positions": [
                -0.23528085893125594,
                -1.1836019891362133,
                1.97055526100094,
                1.0430043418160873,
                -0.9943471089530959,
                -1.3192450089516736
            ]
        },
        {
            "positions": [
                -0.287608945908582,
                -1.143329093846806,
                1.9470534904573955,
                1.1269395326587337,
                -1.0890122765824084,
                -1.2183244579079204
            ]
        },
        {
            "positions": [
                -0.33993703288590804,
                -1.1030561985573986,
                1.923551719913851,
                1.2108747235013801,
                -1.1836774442117215,
                -1.1174039068641677
            ]
        },
        {
            "positions": [
                -0.392265119863234,
                -1.0627833032679912,
                1.9000499493703067,
                1.2948099143440266,
                -1.2783426118410341,
                -1.0164833558204145
            ]
        },
        {
            "positions": [
                -0.44459320684056014,
                -1.0225104079785838,
                1.8765481788267622,
                1.3787451051866733,
                -1.3730077794703468,
                -0.9155628047766613
            ]
        },
        {
            "positions": [
                -0.4969212938178861,
                -0.9822375126891766,
                1.8530464082832179,
                1.4626802960293197,
                -1.4676729470996595,
                -0.8146422537329081
            ]
        },
        {
            "positions": [
                -0.549249380795212,
                -0.9419646173997693,
                1.8295446377396734,
                1.546615486871966,
                -1.5623381147289725,
                -0.7137217026891554
            ]
        },
        {
            "positions": [
                -0.6015774677725382,
                -0.901691722110362,
                1.8060428671961288,
                1.6305506777146124,
                -1.6570032823582852,
                -0.6128011516454022
            ]
        },
        {
            "positions": [
                -0.6539055547498643,
                -0.8614188268209546,
                1.7825410966525843,
                1.7144858685572593,
                -1.7516684499875979,
                -0.511880600601649
            ]
        },
        {
            "positions": [
                -0.7062336417271903,
                -0.8211459315315472,
                1.7590393261090398,
                1.7984210593999057,
                -1.8463336176169105,
                -0.4109600495578958
            ]
        },
        {
            "positions": [
                -0.7585617287045162,
                -0.7808730362421401,
                1.7355375555654955,
                1.8823562502425522,
                -1.9409987852462232,
                -0.3100394985141426
            ]
        },
        {
            "positions": [
                -0.8108898156818424,
                -0.7406001409527327,
                1.7120357850219512,
                1.9662914410851982,
                -2.035663952875536,
                -0.20911894747038984
            ]
        },
        {
            "positions": [
                -0.8632179026591685,
                -0.7003272456633254,
                1.6885340144784067,
                2.050226631927845,
                -2.130329120504849,
                -0.10819839642663664
            ]
        },
        {
            "positions": [
                -0.9155459896364945,
                -0.660054350373918,
                1.6650322439348622,
                2.1341618227704915,
                -2.2249942881341616,
                -0.0072778453828834895
            ]
        }
    ]
}