{
    "goal": {
        "global_pose": {
            "orientation": {
                "w": 0.7047431468963623,
                "x": -0.7094548344612122,
                "y": 0.0024358443915843964,
                "z": -0.0022348060738295317
            },
            "position": {
                "x": 0.6094750761985779,
                "y": 0.3671506643295288,
                "z": 0.19426114857196808
            }
        },
        "name": "move_to_magneteinheit_A"
    },
    "id": "PRMstar_move_to_magneteinheit_A_141",
    "joint_names": [
        "shoulder_pan_joint",
        "shoulder_lift_joint",
        "elbow_joint",
        "wrist_1_joint",
        "wrist_2_joint",
        "wrist_3_joint"
    ],
    "metrics": {
        "cart_traj_len": 2.1139934813555725,
        "distance_elbow_joint": 3.878713592199402,
        "distance_shoulder_lift_joint": 1.0556919091142059,
        "distance_shoulder_pan_joint": 1.2413579808955406,
        "distance_wrist_1_joint": 1.1348411400259089,
        "distance_wrist_2_joint": 1.4311973685623973,
        "distance_wrist_3_joint": 4.38493360782843,
        "smoothness": 8.881784218320459e-16,
        "time": 5.032058535999999,
        "traj_len": 3.6230837139963916,
        "weighted_distance": 4.945972232319046
    },
    "planner": "PRMstar",
    "start": {
        "state": {
            "elbow_joint": -1.919643507792019,
            "shoulder_lift_joint": -0.07675430207160344,
            "shoulder_pan_joint": -1.1188671864651873,
            "wrist_1_joint": 0.42560062535961957,
            "wrist_2_joint": 1.5706038300724876,
            "wrist_3_joint": 1.1188968870953055
        }
    },
    "waypoints": [
        {
            "positions": [
                -1.1188671864651873,
                -0.07675430207160344,
                -1.919643507792019,
                0.42560062535961957,
                1.5706038300724876,
                1.1188968870953055
            ]
        },
        {
            "positions": [
                -1.0940225623838424,
                -0.0988008781138488,
                -1.834074594445675,
                0.3863955762718426,
                1.5379460865886092,
                0.9367748689151384
            ]
        },
        {
            "positions": [
                -1.0691779383024977,
                -0.12084745415609416,
                -1.7485056810993314,
                0.3471905271840657,
                1.5052883431047308,
                0.7546528507349712
            ]
        },
        {
            "positions": [
                -1.0443333142211528,
                -0.14289403019833952,
                -1.6629367677529874,
                0.30798547809628873,
                1.4726305996208522,
                0.572530832554804
            ]
        },
        {
            "positions": [
                -1.0194886901398081,
                -0.16494060624058487,
                -1.5773678544066434,
                0.26878042900851185,
                1.4399728561369738,
                0.3904088143746368
            ]
        },
        {
            "positions": [
                -0.9946440660584633,
                -0.18698718228283023,
                -1.4917989410602996,
                0.2295753799207349,
                1.4073151126530954,
                0.20828679619446955
            ]
        },
        {
            "positions": [
                -0.9697994419771185,
                -0.20903375832507562,
                -1.4062300277139554,
                0.19037033083295796,
                1.374657369169217,
                0.026164778014302392
            ]
        },
        {
            "positions": [
                -0.9449548178957737,
                -0.23108033436732098,
                -1.3206611143676117,
                0.151165281745181,
                1.3419996256853386,
                -0.15595724016586465
            ]
        },
        {
            "positions": [
                -0.9201101938144289,
                -0.25312691040956636,
                -1.235092201021268,
                0.11196023265740407,
                1.3093418822014602,
                -0.3380792583460319
            ]
        },
        {
            "positions": [
                -0.895265569733084,
                -0.2751734864518117,
                -1.1495232876749237,
                0.07275518356962718,
                1.2766841387175818,
                -0.5202012765261992
            ]
        },
        {
            "positions": [
                -0.8704209456517392,
                -0.2972200624940571,
                -1.06395437432858,
                0.033550134481850236,
                1.2440263952337032,
                -0.7023232947063665
            ]
        },
        {
            "positions": [
                -0.8455763215703944,
                -0.31926663853630244,
                -0.978385460982236,
                -0.005654914605926709,
                1.2113686517498248,
                -0.8844453128865335
            ]
        },
        {
            "positions": [
                -0.8207316974890496,
                -0.3413132145785478,
                -0.892816547635892,
                -0.04485996369370365,
                1.1787109082659464,
                -1.0665673310667008
            ]
        },
        {
            "positions": [
                -0.7958870734077048,
                -0.3633597906207931,
                -0.8072476342895483,
                -0.08406501278148054,
                1.146053164782068,
                -1.2486893492468676
            ]
        },
        {
            "positions": [
                -0.7710424493263601,
                -0.3854063666630385,
                -0.7216787209432043,
                -0.12327006186925754,
                1.1133954212981896,
                -1.4308113674270349
            ]
        },
        {
            "positions": [
                -0.7461978252450152,
                -0.40745294270528387,
                -0.6361098075968605,
                -0.16247511095703443,
                1.080737677814311,
                -1.6129333856072021
            ]
        },
        {
            "positions": [
                -0.7213532011636704,
                -0.42949951874752923,
                -0.5505408942505166,
                -0.20168016004481143,
                1.0480799343304326,
                -1.7950554037873694
            ]
        },
        {
            "positions": [
                -0.6965085770823256,
                -0.4515460947897746,
                -0.4649719809041726,
                -0.2408852091325883,
                1.0154221908465542,
                -1.9771774219675367
            ]
        },
        {
            "positions": [
                -0.6483321434639328,
                -0.49159904281307076,
                -0.3223812711799634,
                -0.268435521222806,
                0.9638918538267622,
                -2.0529926748361005
            ]
        },
        {
            "positions": [
                -0.6001557098455399,
                -0.5316519908363669,
                -0.17979056145575428,
                -0.29598583331302375,
                0.9123615168069702,
                -2.1288079277046648
            ]
        },
        {
            "positions": [
                -0.5519792762271469,
                -0.5717049388596631,
                -0.037199851731545164,
                -0.32353614540324144,
                0.8608311797871782,
                -2.2046231805732286
            ]
        },
        {
            "positions": [
                -0.5038028426087542,
                -0.6117578868829592,
                0.10539085799266401,
                -0.3510864574934591,
                0.8093008427673862,
                -2.2804384334417924
            ]
        },
        {
            "positions": [
                -0.4556264089903612,
                -0.6518108349062555,
                0.24798156771687307,
                -0.37863676958367687,
                0.7577705057475943,
                -2.3562536863103567
            ]
        },
        {
            "positions": [
                -0.40744997537196836,
                -0.6918637829295515,
                0.39057227744108225,
                -0.4061870816738946,
                0.7062401687278023,
                -2.4320689391789205
            ]
        },
        {
            "positions": [
                -0.35927354175357556,
                -0.7319167309528477,
                0.5331629871652913,
                -0.4337373937641123,
                0.6547098317080103,
                -2.5078841920474844
            ]
        },
        {
            "positions": [
                -0.31109710813518265,
                -0.7719696789761439,
                0.6757536968895006,
                -0.46128770585433,
                0.6031794946882183,
                -2.583699444916048
            ]
        },
        {
            "positions": [
                -0.2629206745167898,
                -0.8120226269994401,
                0.8183444066137096,
                -0.48883801794454773,
                0.5516491576684264,
                -2.6595146977846125
            ]
        },
        {
            "positions": [
                -0.2147442408983969,
                -0.8520755750227362,
                0.9609351163379187,
                -0.5163883300347655,
                0.5001188206486343,
                -2.7353299506531763
            ]
        },
        {
            "positions": [
                -0.16656780728000398,
                -0.8921285230460324,
                1.103525826062128,
                -0.5439386421249832,
                0.4485884836288424,
                -2.81114520352174
            ]
        },
        {
            "positions": [
                -0.11839137366161112,
                -0.9321814710693286,
                1.246116535786337,
                -0.571488954215201,
                0.39705814660905037,
                -2.8869604563903044
            ]
        },
        {
            "positions": [
                -0.07021494004321838,
                -0.9722344190926246,
                1.388707245510546,
                -0.5990392663054186,
                0.34552780958925844,
                -2.9627757092588682
            ]
        },
        {
            "positions": [
                -0.02203850642482552,
                -1.012287367115921,
                1.5312979552347552,
                -0.6265895783956363,
                0.2939974725694665,
                -3.038590962127432
            ]
        },
        {
            "positions": [
                0.026137927193567445,
                -1.052340315139217,
                1.6738886649589644,
                -0.6541398904858541,
                0.24246713554967447,
                -3.114406214995996
            ]
        },
        {
            "positions": [
                0.0743143608119603,
                -1.092393263162513,
                1.8164793746831738,
                -0.6816902025760717,
                0.19093679852988255,
                -3.1902214678645597
            ]
        },
        {
            "positions": [
                0.1224907944303532,
                -1.1324462111858093,
                1.9590700844073825,
                -0.7092405146662895,
                0.13940646151009048,
                -3.266036720733124
            ]
        }
    ]
}