{
    "goal": {
        "global_pose": {
            "orientation": {
                "w": 0.7031023502349854,
                "x": -0.7110244035720825,
                "y": 0.007748599164187908,
                "z": 0.005598929710686207
            },
            "position": {
                "x": 0.11585023208521307,
                "y": 0.44412534475326537,
                "z": 0.3711530566215515
            }
        },
        "name": "move_to_auspresseinheit_A"
    },
    "id": "PRMstar_move_to_auspresseinheit_A_42",
    "joint_names": [
        "shoulder_pan_joint",
        "shoulder_lift_joint",
        "elbow_joint",
        "wrist_1_joint",
        "wrist_2_joint",
        "wrist_3_joint"
    ],
    "metrics": {
        "cart_traj_len": 2.6548271739559324,
        "distance_elbow_joint": 2.0016888104087327,
        "distance_shoulder_lift_joint": 2.1846588303668213,
        "distance_shoulder_pan_joint": 6.710399364048862,
        "distance_wrist_1_joint": 7.793894838730544,
        "distance_wrist_2_joint": 3.5175202576579734,
        "distance_wrist_3_joint": 1.853285153532322,
        "smoothness": 0.5441750439825662,
        "time": 5.050085791000001,
        "traj_len": 4.905246910680975,
        "weighted_distance": 6.251354465889643
    },
    "planner": "PRMstar",
    "start": {
        "state": {
            "elbow_joint": 2.422574709923281,
            "shoulder_lift_joint": -1.3736533754116391,
            "shoulder_pan_joint": -0.33786336945926293,
            "wrist_1_joint": -1.0288603412921917,
            "wrist_2_joint": 1.2330224858903978,
            "wrist_3_joint": -3.094022268022082
        }
    },
    "waypoints": [
        {
            "positions": [
                -0.33786336945926293,
                -1.3736533754116391,
                2.422574709923281,
                -1.0288603412921917,
                1.2330224858903978,
                -3.094022268022082
            ]
        },
        {
            "positions": [
                -0.4263995393179486,
                -1.416148175781706,
                2.39084295897629,
                -0.89837024422432,
                1.1697722693703865,
                -3.065566208082718
            ]
        },
        {
            "positions": [
                -0.5149357091766342,
                -1.458642976151773,
                2.359111208029299,
                -0.7678801471564484,
                1.1065220528503754,
                -3.037110148143354
            ]
        },
        {
            "positions": [
                -0.60347187903532,
                -1.5011377765218397,
                2.327379457082308,
                -0.6373900500885767,
                1.0432718363303641,
                -3.00865408820399
            ]
        },
        {
            "positions": [
                -0.6920080488940057,
                -1.5436325768919066,
                2.295647706135317,
                -0.506899953020705,
                0.980021619810353,
                -2.9801980282646254
            ]
        },
        {
            "positions": [
                -0.7805442187526913,
                -1.5861273772619735,
                2.2639159551883257,
                -0.37640985595283327,
                0.9167714032903418,
                -2.9517419683252615
            ]
        },
        {
            "positions": [
                -0.8690803886113769,
                -1.6286221776320402,
                2.2321842042413347,
                -0.24591975888496165,
                0.8535211867703305,
                -2.923285908385897
            ]
        },
        {
            "positions": [
                -0.9576165584700627,
                -1.6711169780021071,
                2.2004524532943437,
                -0.11542966181709002,
                0.7902709702503193,
                -2.894829848446533
            ]
        },
        {
            "positions": [
                -1.0461527283287484,
                -1.713611778372174,
                2.1687207023473527,
                0.015060435250781712,
                0.7270207537303082,
                -2.8663737885071687
            ]
        },
        {
            "positions": [
                -1.1346888981874341,
                -1.756106578742241,
                2.1369889514003617,
                0.14555053231865345,
                0.663770537210297,
                -2.8379177285678048
            ]
        },
        {
            "positions": [
                -1.2232250680461196,
                -1.7986013791123079,
                2.1052572004533707,
                0.2760406293865252,
                0.6005203206902858,
                -2.8094616686284404
            ]
        },
        {
            "positions": [
                -1.3117612379048054,
                -1.8410961794823746,
                2.0735254495063797,
                0.4065307264543967,
                0.5372701041702745,
                -2.7810056086890764
            ]
        },
        {
            "positions": [
                -1.400297407763491,
                -1.8835909798524415,
                2.0417936985593883,
                0.5370208235222684,
                0.47401988765026337,
                -2.752549548749712
            ]
        },
        {
            "positions": [
                -1.4888335776221768,
                -1.9260857802225084,
                2.0100619476123973,
                0.6675109205901402,
                0.4107696711302522,
                -2.724093488810348
            ]
        },
        {
            "positions": [
                -1.5773697474808623,
                -1.9685805805925751,
                1.9783301966654063,
                0.7980010176580117,
                0.3475194546102409,
                -2.6956374288709837
            ]
        },
        {
            "positions": [
                -1.665905917339548,
                -2.011075380962642,
                1.9465984457184153,
                0.9284911147258834,
                0.28426923809022975,
                -2.6671813689316197
            ]
        },
        {
            "positions": [
                -1.7544420871982338,
                -2.053570181332709,
                1.9148666947714243,
                1.0589812117937552,
                0.22101902157021858,
                -2.6387253089922558
            ]
        },
        {
            "positions": [
                -1.8429782570569195,
                -2.096064981702776,
                1.8831349438244334,
                1.1894713088616267,
                0.1577688050502073,
                -2.6102692490528914
            ]
        },
        {
            "positions": [
                -1.9315144269156053,
                -2.138559782072843,
                1.8514031928774424,
                1.3199614059294986,
                0.09451858853019623,
                -2.581813189113527
            ]
        },
        {
            "positions": [
                -2.0200505967742908,
                -2.1810545824429095,
                1.8196714419304512,
                1.4504515029973701,
                0.03126837201018495,
                -2.553357129174163
            ]
        },
        {
            "positions": [
                -2.1085867666329765,
                -2.223549382812976,
                1.7879396909834602,
                1.580941600065242,
                -0.03198184450982611,
                -2.524901069234799
            ]
        },
        {
            "positions": [
                -2.1971229364916622,
                -2.2660441831830433,
                1.7562079400364692,
                1.7114316971331136,
                -0.09523206102983739,
                -2.4964450092954347
            ]
        },
        {
            "positions": [
                -2.2856591063503475,
                -2.30853898355311,
                1.724476189089478,
                1.8419217942009851,
                -0.15848227754984867,
                -2.4679889493560707
            ]
        },
        {
            "positions": [
                -2.3741952762090333,
                -2.351033783923177,
                1.692744438142487,
                1.972411891268857,
                -0.22173249406985973,
                -2.4395328894167063
            ]
        },
        {
            "positions": [
                -2.462731446067719,
                -2.393528584293244,
                1.661012687195496,
                2.1029019883367286,
                -0.284982710589871,
                -2.4110768294773424
            ]
        },
        {
            "positions": [
                -2.5512676159264047,
                -2.4360233846633106,
                1.629280936248505,
                2.2333920854046,
                -0.3482329271098823,
                -2.382620769537978
            ]
        },
        {
            "positions": [
                -2.6398037857850905,
                -2.4785181850333777,
                1.597549185301514,
                2.363882182472472,
                -0.41148314362989336,
                -2.354164709598614
            ]
        },
        {
            "positions": [
                -2.728339955643776,
                -2.5210129854034444,
                1.5658174343545228,
                2.4943722795403436,
                -0.47473336014990464,
                -2.3257086496592496
            ]
        },
        {
            "positions": [
                -2.8168761255024615,
                -2.5635077857735116,
                1.5340856834075318,
                2.624862376608215,
                -0.5379835766699159,
                -2.2972525897198857
            ]
        },
        {
            "positions": [
                -2.905412295361147,
                -2.6060025861435783,
                1.5023539324605408,
                2.755352473676087,
                -0.601233793189927,
                -2.2687965297805217
            ]
        },
        {
            "positions": [
                -2.993948465219833,
                -2.648497386513645,
                1.4706221815135496,
                2.8858425707439586,
                -0.6644840097099383,
                -2.2403404698411573
            ]
        },
        {
            "positions": [
                -3.0824846350785187,
                -2.6909921868837117,
                1.4388904305665586,
                3.01633266781183,
                -0.7277342262299493,
                -2.211884409901793
            ]
        },
        {
            "positions": [
                -3.1710208049372044,
                -2.733486987253779,
                1.4071586796195676,
                3.1468227648797016,
                -0.7909844427499606,
                -2.183428349962429
            ]
        },
        {
            "positions": [
                -3.041779407318174,
                -2.7059928133029563,
                1.4400344389564017,
                3.0262157071277467,
                -0.7412006651160401,
                -2.214851391144851
            ]
        },
        {
            "positions": [
                -2.912538009699143,
                -2.6784986393521333,
                1.4729101982932356,
                2.9056086493757918,
                -0.6914168874821196,
                -2.2462744323272736
            ]
        },
        {
            "positions": [
                -2.7832966120801124,
                -2.6510044654013107,
                1.5057859576300696,
                2.7850015916238364,
                -0.6416331098481992,
                -2.2776974735096958
            ]
        },
        {
            "positions": [
                -2.6540552144610814,
                -2.6235102914504878,
                1.5386617169669035,
                2.6643945338718815,
                -0.5918493322142787,
                -2.3091205146921183
            ]
        },
        {
            "positions": [
                -2.524813816842051,
                -2.596016117499665,
                1.5715374763037375,
                2.5437874761199266,
                -0.5420655545803583,
                -2.3405435558745404
            ]
        },
        {
            "positions": [
                -2.3955724192230203,
                -2.5685219435488422,
                1.6044132356405716,
                2.4231804183679717,
                -0.49228177694643777,
                -2.3719665970569626
            ]
        },
        {
            "positions": [
                -2.26633102160399,
                -2.5410277695980197,
                1.6372889949774054,
                2.302573360616017,
                -0.4424979993125173,
                -2.403389638239385
            ]
        },
        {
            "positions": [
                -2.137089623984959,
                -2.513533595647197,
                1.6701647543142395,
                2.181966302864062,
                -0.3927142216785968,
                -2.4348126794218072
            ]
        },
        {
            "positions": [
                -2.0078482263659283,
                -2.486039421696374,
                1.7030405136510733,
                2.061359245112107,
                -0.3429304440446764,
                -2.46623572060423
            ]
        },
        {
            "positions": [
                -1.8786068287468976,
                -2.4585452477455516,
                1.7359162729879074,
                1.9407521873601516,
                -0.29314666641075593,
                -2.497658761786652
            ]
        },
        {
            "positions": [
                -1.7493654311278668,
                -2.4310510737947286,
                1.7687920323247415,
                1.8201451296081967,
                -0.24336288877683543,
                -2.529081802969074
            ]
        },
        {
            "positions": [
                -1.620124033508836,
                -2.403556899843906,
                1.8016677916615753,
                1.6995380718562416,
                -0.19357911114291493,
                -2.5605048441514966
            ]
        },
        {
            "positions": [
                -1.4908826358898053,
                -2.3760627258930835,
                1.8345435509984094,
                1.5789310141042867,
                -0.14379533350899443,
                -2.5919278853339187
            ]
        },
        {
            "positions": [
                -1.3616412382707748,
                -2.3485685519422606,
                1.8674193103352432,
                1.4583239563523316,
                -0.09401155587507404,
                -2.6233509265163413
            ]
        },
        {
            "positions": [
                -1.232399840651744,
                -2.321074377991438,
                1.9002950696720773,
                1.3377168986003767,
                -0.04422777824115354,
                -2.6547739676987634
            ]
        },
        {
            "positions": [
                -1.1031584430327133,
                -2.293580204040615,
                1.9331708290089114,
                1.2171098408484218,
                0.005555999392766964,
                -2.6861970088811855
            ]
        },
        {
            "positions": [
                -0.9739170454136827,
                -2.2660860300897925,
                1.9660465883457452,
                1.0965027830964669,
                0.05533977702668735,
                -2.717620050063608
            ]
        },
        {
            "positions": [
                -0.8446756477946522,
                -2.23859185613897,
                1.998922347682579,
                0.975895725344512,
                0.10512355466060785,
                -2.74904309124603
            ]
        },
        {
            "positions": [
                -0.7154342501756212,
                -2.211097682188147,
                2.031798107019413,
                0.8552886675925566,
                0.15490733229452835,
                -2.7804661324284528
            ]
        },
        {
            "positions": [
                -0.5861928525565907,
                -2.1836035082373244,
                2.064673866356247,
                0.7346816098406017,
                0.20469110992844874,
                -2.811889173610875
            ]
        },
        {
            "positions": [
                -0.4569514549375602,
                -2.1561093342865014,
                2.0975496256930812,
                0.6140745520886468,
                0.25447488756236925,
                -2.843312214793297
            ]
        },
        {
            "positions": [
                -0.3277100573185292,
                -2.128615160335679,
                2.1304253850299153,
                0.4934674943366919,
                0.30425866519628975,
                -2.8747352559757196
            ]
        },
        {
            "positions": [
                -0.19846865969949823,
                -2.101120986384856,
                2.1633011443667494,
                0.37286043658473655,
                0.35404244283021025,
                -2.9061582971581417
            ]
        },
        {
            "positions": [
                -0.0692272620804677,
                -2.0736268124340334,
                2.196176903703583,
                0.25225337883278165,
                0.40382622046413075,
                -2.9375813383405642
            ]
        },
        {
            "positions": [
                0.06001413553856283,
                -2.0461326384832104,
                2.229052663040417,
                0.13164632108082674,
                0.45360999809805125,
                -2.9690043795229863
            ]
        },
        {
            "positions": [
                0.1892555331575938,
                -2.018638464532388,
                2.261928422377251,
                0.01103926332887184,
                0.5033937757319717,
                -3.0004274207054085
            ]
        },
        {
            "positions": [
                0.31849693077662433,
                -1.9911442905815653,
                2.294804181714085,
                -0.10956779442308351,
                0.5531775533658922,
                -3.031850461887831
            ]
        },
        {
            "positions": [
                0.44773832839565486,
                -1.9636501166307423,
                2.327679941050919,
                -0.2301748521750384,
                0.6029613309998125,
                -3.063273503070253
            ]
        },
        {
            "positions": [
                0.5769797260146858,
                -1.9361559426799198,
                2.360555700387753,
                -0.3507819099269933,
                0.652745108633733,
                -3.0946965442526757
            ]
        },
        {
            "positions": [
                0.7062211236337163,
                -1.908661768729097,
                2.393431459724587,
                -0.47138896767894817,
                0.7025288862676536,
                -3.126119585435098
            ]
        }
    ]
}