{
    "goal": {
        "global_pose": {
            "orientation": {
                "w": 0.7047431468963623,
                "x": -0.7094548344612122,
                "y": 0.0024358443915843964,
                "z": -0.0022348060738295317
            },
            "position": {
                "x": 0.6094750761985779,
                "y": 0.3671506643295288,
                "z": 0.19426114857196808
            }
        },
        "name": "move_to_magneteinheit_A"
    },
    "id": "PRMstar_move_to_magneteinheit_A_105",
    "joint_names": [
        "shoulder_pan_joint",
        "shoulder_lift_joint",
        "elbow_joint",
        "wrist_1_joint",
        "wrist_2_joint",
        "wrist_3_joint"
    ],
    "metrics": {
        "cart_traj_len": 1.8778369491969478,
        "distance_elbow_joint": 3.9110558034759526,
        "distance_shoulder_lift_joint": 0.7007089820788914,
        "distance_shoulder_pan_joint": 1.2417644495189577,
        "distance_wrist_1_joint": 1.4909827803064883,
        "distance_wrist_2_joint": 1.70227029264297,
        "distance_wrist_3_joint": 1.1166290905418597,
        "smoothness": 2.3026848007699876e-16,
        "time": 5.012920835,
        "traj_len": 3.1880105706482715,
        "weighted_distance": 3.948407609733106
    },
    "planner": "PRMstar",
    "start": {
        "state": {
            "elbow_joint": -1.919643507792019,
            "shoulder_lift_joint": -0.07675430207160344,
            "shoulder_pan_joint": -1.1188671864651873,
            "wrist_1_joint": 0.42560062535961957,
            "wrist_2_joint": 1.5706038300724876,
            "wrist_3_joint": 1.1188968870953055
        }
    },
    "waypoints": [
        {
            "positions": [
                -1.1188671864651873,
                -0.07675430207160344,
                -1.919643507792019,
                0.42560062535961957,
                1.5706038300724876,
                1.1188968870953055
            ]
        },
        {
            "positions": [
                -1.0711070153298428,
                -0.1037046475361762,
                -1.7692182845814055,
                0.4829461169098691,
                1.5051318957400657,
                1.0759496143821572
            ]
        },
        {
            "positions": [
                -1.0233468441944984,
                -0.13065499300074895,
                -1.618793061370792,
                0.5402916084601187,
                1.4396599614076437,
                1.0330023416690086
            ]
        },
        {
            "positions": [
                -0.9755866730591538,
                -0.15760533846532168,
                -1.4683678381601784,
                0.5976371000103682,
                1.3741880270752218,
                0.9900550689558603
            ]
        },
        {
            "positions": [
                -0.9278265019238092,
                -0.18455568392989444,
                -1.3179426149495648,
                0.6549825915606178,
                1.3087160927427999,
                0.9471077962427117
            ]
        },
        {
            "positions": [
                -0.8800663307884646,
                -0.2115060293944672,
                -1.1675173917389512,
                0.7123280831108674,
                1.243244158410378,
                0.9041605235295633
            ]
        },
        {
            "positions": [
                -0.8323061596531202,
                -0.23845637485903992,
                -1.0170921685283376,
                0.769673574661117,
                1.177772224077956,
                0.8612132508164149
            ]
        },
        {
            "positions": [
                -0.7845459885177757,
                -0.2654067203236127,
                -0.8666669453177243,
                0.8270190662113663,
                1.112300289745534,
                0.8182659781032664
            ]
        },
        {
            "positions": [
                -0.7367858173824311,
                -0.29235706578818543,
                -0.7162417221071105,
                0.8843645577616159,
                1.0468283554131121,
                0.7753187053901179
            ]
        },
        {
            "positions": [
                -0.6890256462470866,
                -0.3193074112527582,
                -0.5658164988964971,
                0.9417100493118655,
                0.9813564210806903,
                0.7323714326769695
            ]
        },
        {
            "positions": [
                -0.641265475111742,
                -0.34625775671733094,
                -0.4153912756858833,
                0.9990555408621151,
                0.9158844867482683,
                0.6894241599638211
            ]
        },
        {
            "positions": [
                -0.5935053039763976,
                -0.37320810218190364,
                -0.26496605247526994,
                1.0564010324123647,
                0.8504125524158465,
                0.6464768872506725
            ]
        },
        {
            "positions": [
                -0.545745132841053,
                -0.4001584476464764,
                -0.11454082926465614,
                1.1137465239626143,
                0.7849406180834245,
                0.6035296145375242
            ]
        },
        {
            "positions": [
                -0.4979849617057085,
                -0.42710879311104916,
                0.035884393945957216,
                1.1710920155128637,
                0.7194686837510026,
                0.5605823418243757
            ]
        },
        {
            "positions": [
                -0.450224790570364,
                -0.4540591385756219,
                0.18630961715657057,
                1.2284375070631133,
                0.6539967494185807,
                0.5176350691112273
            ]
        },
        {
            "positions": [
                -0.40246461943501954,
                -0.4810094840401946,
                0.33673484036718393,
                1.2857829986133629,
                0.5885248150861588,
                0.4746877963980789
            ]
        },
        {
            "positions": [
                -0.35470444829967485,
                -0.5079598295047674,
                0.4871600635777982,
                1.3431284901636125,
                0.5230528807537367,
                0.4317405236849303
            ]
        },
        {
            "positions": [
                -0.30694427716433037,
                -0.5349101749693401,
                0.6375852867884115,
                1.400473981713862,
                0.45758094642131497,
                0.38879325097178197
            ]
        },
        {
            "positions": [
                -0.2591841060289859,
                -0.5618605204339129,
                0.7880105099990249,
                1.4578194732641114,
                0.39210901208889304,
                0.3458459782586335
            ]
        },
        {
            "positions": [
                -0.21142393489364142,
                -0.5888108658984856,
                0.9384357332096382,
                1.515164964814361,
                0.3266370777564711,
                0.30289870554548504
            ]
        },
        {
            "positions": [
                -0.16366376375829672,
                -0.6157612113630584,
                1.0888609564202525,
                1.5725104563646106,
                0.26116514342404895,
                0.25995143283233657
            ]
        },
        {
            "positions": [
                -0.11590359262295236,
                -0.6427115568276311,
                1.2392861796308658,
                1.6298559479148602,
                0.19569320909162724,
                0.2170041601191881
            ]
        },
        {
            "positions": [
                -0.06814342148760777,
                -0.6696619022922039,
                1.3897114028414792,
                1.6872014394651098,
                0.1302212747592053,
                0.17405688740603964
            ]
        },
        {
            "positions": [
                -0.020383250352263182,
                -0.6966122477567767,
                1.5401366260520926,
                1.7445469310153592,
                0.06474934042678337,
                0.13110961469289129
            ]
        },
        {
            "positions": [
                0.027376920783081404,
                -0.7235625932213494,
                1.6905618492627068,
                1.801892422565609,
                -0.0007225939056385577,
                0.08816234197974282
            ]
        },
        {
            "positions": [
                0.07513709191842577,
                -0.7505129386859222,
                1.8409870724733202,
                1.8592379141158584,
                -0.06619452823806049,
                0.04521506926659424
            ]
        },
        {
            "positions": [
                0.12289726305377026,
                -0.7774632841504949,
                1.9914122956839333,
                1.916583405666108,
                -0.13166646257048234,
                0.002267796553445993
            ]
        }
    ]
}