{
    "goal": {
        "global_pose": {
            "orientation": {
                "w": 0.5084816217422485,
                "x": -0.49083608388900757,
                "y": 0.5182115435600281,
                "z": -0.4816462993621826
            },
            "position": {
                "x": 0.5540239810943604,
                "y": 0.030875300988554955,
                "z": 0.16403168439865112
            }
        },
        "name": "move_to_storage_A"
    },
    "id": "PRMstar_move_to_storage_A_91",
    "joint_names": [
        "shoulder_pan_joint",
        "shoulder_lift_joint",
        "elbow_joint",
        "wrist_1_joint",
        "wrist_2_joint",
        "wrist_3_joint"
    ],
    "metrics": {
        "cart_traj_len": 0.3531351594804127,
        "distance_elbow_joint": 0.44802536000309834,
        "distance_shoulder_lift_joint": 0.23536277079492107,
        "distance_shoulder_pan_joint": 0.4638342771798064,
        "distance_wrist_1_joint": 0.2342574295613956,
        "distance_wrist_2_joint": 1.0901782770174582,
        "distance_wrist_3_joint": 0.10389258069839524,
        "smoothness": 2.2204460668324854e-16,
        "time": 5.010634261,
        "traj_len": 1.6048522347104344,
        "weighted_distance": 2.0267638153545957
    },
    "planner": "PRMstar",
    "start": {
        "state": {
            "elbow_joint": 1.9715463870305268,
            "shoulder_lift_joint": -1.1394903361783484,
            "shoulder_pan_joint": 0.12281147578464417,
            "wrist_1_joint": -0.7804599489681411,
            "wrist_2_joint": 0.12958660307563738,
            "wrist_3_joint": -3.1924946282119055
        }
    },
    "waypoints": [
        {
            "positions": [
                0.12281147578464417,
                -1.1394903361783484,
                1.9715463870305268,
                -0.7804599489681411,
                0.12958660307563738,
                -3.1924946282119055
            ]
        },
        {
            "positions": [
                0.05654943618752897,
                -1.1731135891490514,
                2.0355500098881123,
                -0.8139252960483404,
                0.28532635693527425,
                -3.1776528309692775
            ]
        },
        {
            "positions": [
                -0.009712603409586226,
                -1.2067368421197544,
                2.099553632745698,
                -0.8473906431285398,
                0.4410661107949111,
                -3.16281103372665
            ]
        },
        {
            "positions": [
                -0.07597464300670141,
                -1.2403600950904574,
                2.1635572556032834,
                -0.8808559902087392,
                0.596805864654548,
                -3.147969236484022
            ]
        },
        {
            "positions": [
                -0.1422366826038166,
                -1.2739833480611604,
                2.2275608784608685,
                -0.9143213372889386,
                0.7525456185141849,
                -3.133127439241394
            ]
        },
        {
            "positions": [
                -0.20849872220093185,
                -1.3076066010318634,
                2.291564501318454,
                -0.9477866843691379,
                0.9082853723738218,
                -3.118285641998766
            ]
        },
        {
            "positions": [
                -0.274760761798047,
                -1.3412298540025664,
                2.3555681241760396,
                -0.9812520314493374,
                1.0640251262334586,
                -3.1034438447561383
            ]
        },
        {
            "positions": [
                -0.3410228013951622,
                -1.3748531069732695,
                2.419571747033625,
                -1.0147173785295367,
                1.2197648800930956,
                -3.0886020475135103
            ]
        }
    ]
}