{
    "goal": {
        "global_pose": {
            "orientation": {
                "w": 0.5084816217422485,
                "x": -0.49083608388900757,
                "y": 0.5182115435600281,
                "z": -0.4816462993621826
            },
            "position": {
                "x": 0.5540239810943604,
                "y": 0.030875300988554955,
                "z": 0.16403168439865112
            }
        },
        "name": "move_to_storage_A"
    },
    "id": "PRMstar_move_to_storage_A_37",
    "joint_names": [
        "shoulder_pan_joint",
        "shoulder_lift_joint",
        "elbow_joint",
        "wrist_1_joint",
        "wrist_2_joint",
        "wrist_3_joint"
    ],
    "metrics": {
        "cart_traj_len": 0.35311498101419136,
        "distance_elbow_joint": 0.4482307518980133,
        "distance_shoulder_lift_joint": 0.23664082602350955,
        "distance_shoulder_pan_joint": 0.4619770510212889,
        "distance_wrist_1_joint": 0.23269355067676967,
        "distance_wrist_2_joint": 1.0987652211482097,
        "distance_wrist_3_joint": 0.08619864903459273,
        "smoothness": 1.1102230298998083e-15,
        "time": 5.007556678,
        "traj_len": 1.6014075214642849,
        "weighted_distance": 2.0170181257729314
    },
    "planner": "PRMstar",
    "start": {
        "state": {
            "elbow_joint": 1.9715463870305268,
            "shoulder_lift_joint": -1.1394903361783484,
            "shoulder_pan_joint": 0.12281147578464417,
            "wrist_1_joint": -0.7804599489681411,
            "wrist_2_joint": 0.12958660307563738,
            "wrist_3_joint": -3.1924946282119055
        }
    },
    "waypoints": [
        {
            "positions": [
                0.12281147578464417,
                -1.1394903361783484,
                1.9715463870305268,
                -0.7804599489681411,
                0.12958660307563738,
                -3.1924946282119055
            ]
        },
        {
            "positions": [
                0.05681475421017433,
                -1.1732961684674212,
                2.0355793515873857,
                -0.8137018847791082,
                0.28655306323966734,
                -3.180180535492678
            ]
        },
        {
            "positions": [
                -0.00918196736429551,
                -1.2071020007564939,
                2.099612316144245,
                -0.8469438205900752,
                0.44351952340369727,
                -3.1678664427734504
            ]
        },
        {
            "positions": [
                -0.07517868893876535,
                -1.2409078330455667,
                2.163645280701104,
                -0.8801857564010424,
                0.6004859835677272,
                -3.155552350054223
            ]
        },
        {
            "positions": [
                -0.14117541051323518,
                -1.2747136653346396,
                2.227678245257963,
                -0.9134276922120095,
                0.7574524437317572,
                -3.1432382573349953
            ]
        },
        {
            "positions": [
                -0.20717213208770502,
                -1.3085194976237124,
                2.291711209814822,
                -0.9466696280229765,
                0.9144189038957873,
                -3.130924164615768
            ]
        },
        {
            "positions": [
                -0.27316885366217486,
                -1.342325329912785,
                2.355744174371681,
                -0.9799115638339436,
                1.071385364059817,
                -3.11861007189654
            ]
        },
        {
            "positions": [
                -0.3391655752366447,
                -1.376131162201858,
                2.41977713892854,
                -1.0131534996449107,
                1.2283518242238471,
                -3.106295979177313
            ]
        }
    ]
}