{
    "goal": {
        "global_pose": {
            "orientation": {
                "w": -0.00223480608172531,
                "x": 0.0024358444001904467,
                "y": 0.7094548369677653,
                "z": -0.704743149386269
            },
            "position": {
                "x": 0.6205249238014221,
                "y": -0.6371506643295288,
                "z": 0.19426114857196808
            }
        },
        "name": "move_to_magneteinheit_B"
    },
    "id": "PRMstar_move_to_magneteinheit_B_46",
    "joint_names": [
        "shoulder_pan_joint",
        "shoulder_lift_joint",
        "elbow_joint",
        "wrist_1_joint",
        "wrist_2_joint",
        "wrist_3_joint"
    ],
    "metrics": {
        "cart_traj_len": 3.796176398450818,
        "distance_elbow_joint": 4.357814330635325,
        "distance_shoulder_lift_joint": 0.2790473891461662,
        "distance_shoulder_pan_joint": 2.144114386862522,
        "distance_wrist_1_joint": 2.2759559891312175,
        "distance_wrist_2_joint": 1.3053844284874923,
        "distance_wrist_3_joint": 1.0719985665364509,
        "smoothness": 0.6044532460542752,
        "time": 5.068936527,
        "traj_len": 3.381466411307257,
        "weighted_distance": 4.142421108662274
    },
    "planner": "PRMstar",
    "start": {
        "state": {
            "elbow_joint": 2.39358713078474,
            "shoulder_lift_joint": -1.908514104345545,
            "shoulder_pan_joint": 0.7066247066606129,
            "wrist_1_joint": -0.4678290933515497,
            "wrist_2_joint": 0.7096259083745334,
            "wrist_3_joint": -3.1358149277392293
        }
    },
    "waypoints": [
        {
            "positions": [
                0.7066247066606129,
                -1.908514104345545,
                2.39358713078474,
                -0.4678290933515497,
                0.7096259083745334,
                -3.1358149277392293
            ]
        },
        {
            "positions": [
                0.6829697428701411,
                -1.9113809007494664,
                2.369754004531844,
                -0.46131894012652663,
                0.5360366233714424,
                -3.0248953812186947
            ]
        },
        {
            "positions": [
                0.6593147790796693,
                -1.9142476971533877,
                2.3459208782789487,
                -0.4548087869015036,
                0.3624473383683514,
                -2.9139758346981606
            ]
        },
        {
            "positions": [
                0.6356598152891975,
                -1.917114493557309,
                2.3220877520260528,
                -0.44829863367648054,
                0.1888580533652604,
                -2.8030562881776264
            ]
        },
        {
            "positions": [
                0.6120048514987256,
                -1.9199812899612305,
                2.298254625773157,
                -0.44178848045145747,
                0.015268768362169421,
                -2.692136741657092
            ]
        },
        {
            "positions": [
                0.6164610388679101,
                -1.9230490098170465,
                2.2642897048478554,
                -0.4708028656595299,
                -0.14322859775590346,
                -2.601279488112645
            ]
        },
        {
            "positions": [
                0.6977347368172945,
                -1.928387958750795,
                2.0814431521525223,
                -0.557889351428954,
                -0.16166262545761723,
                -2.615006001751595
            ]
        },
        {
            "positions": [
                0.7790084347666788,
                -1.9337269076845438,
                1.8985965994571887,
                -0.6449758371983781,
                -0.180096653159331,
                -2.628732515390545
            ]
        },
        {
            "positions": [
                0.860282132716063,
                -1.9390658566182926,
                1.7157500467618556,
                -0.7320623229678023,
                -0.19853068086104472,
                -2.642459029029495
            ]
        },
        {
            "positions": [
                0.9415558306654473,
                -1.944404805552041,
                1.532903494066522,
                -0.8191488087372263,
                -0.2169647085627585,
                -2.656185542668445
            ]
        },
        {
            "positions": [
                1.0228295286148317,
                -1.9497437544857896,
                1.350056941371189,
                -0.9062352945066504,
                -0.23539873626447225,
                -2.6699120563073953
            ]
        },
        {
            "positions": [
                1.104103226564216,
                -1.9550827034195384,
                1.1672103886758556,
                -0.9933217802760745,
                -0.253832763966186,
                -2.6836385699463454
            ]
        },
        {
            "positions": [
                1.1853769245136,
                -1.9604216523532871,
                0.9843638359805225,
                -1.0804082660454986,
                -0.27226679166789974,
                -2.6973650835852956
            ]
        },
        {
            "positions": [
                1.2666506224629845,
                -1.9657606012870357,
                0.8015172832851889,
                -1.1674947518149228,
                -0.29070081936961356,
                -2.7110915972242453
            ]
        },
        {
            "positions": [
                1.3479243204123688,
                -1.9710995502207842,
                0.6186707305898558,
                -1.2545812375843468,
                -0.30913484707132727,
                -2.7248181108631955
            ]
        },
        {
            "positions": [
                1.429198018361753,
                -1.976438499154533,
                0.43582417789452244,
                -1.3416677233537708,
                -0.32756887477304103,
                -2.7385446245021456
            ]
        },
        {
            "positions": [
                1.5104717163111374,
                -1.9817774480882817,
                0.25297762519918887,
                -1.428754209123195,
                -0.3460029024747548,
                -2.752271138141096
            ]
        },
        {
            "positions": [
                1.5917454142605216,
                -1.9871163970220302,
                0.07013107250385575,
                -1.5158406948926193,
                -0.3644369301764685,
                -2.765997651780046
            ]
        },
        {
            "positions": [
                1.673019112209906,
                -1.9924553459557788,
                -0.11271548019147737,
                -1.6029271806620433,
                -0.3828709578781823,
                -2.7797241654189957
            ]
        },
        {
            "positions": [
                1.7542928101592903,
                -1.9977942948895275,
                -0.2955620328868105,
                -1.6900136664314673,
                -0.401304985579896,
                -2.793450679057946
            ]
        },
        {
            "positions": [
                1.8355665081086745,
                -2.0031332438232763,
                -0.47840858558214405,
                -1.7771001522008913,
                -0.4197390132816098,
                -2.807177192696896
            ]
        },
        {
            "positions": [
                1.916840206058059,
                -2.008472192757025,
                -0.6612551382774776,
                -1.8641866379703158,
                -0.4381730409833236,
                -2.820903706335846
            ]
        },
        {
            "positions": [
                1.9981139040074432,
                -2.0138111416907734,
                -0.8441016909728107,
                -1.9512731237397398,
                -0.4566070686850373,
                -2.8346302199747964
            ]
        },
        {
            "positions": [
                2.079387601956827,
                -2.019150090624522,
                -1.0269482436681439,
                -2.038359609509164,
                -0.47504109638675107,
                -2.848356733613746
            ]
        },
        {
            "positions": [
                2.1606612999062116,
                -2.024489039558271,
                -1.209794796363477,
                -2.125446095278588,
                -0.49347512408846483,
                -2.8620832472526962
            ]
        },
        {
            "positions": [
                2.241934997855596,
                -2.0298279884920194,
                -1.3926413490588103,
                -2.212532581048012,
                -0.5119091517901786,
                -2.8758097608916464
            ]
        },
        {
            "positions": [
                2.2901597298199867,
                -2.0439341901704977,
                -1.4963884958925184,
                -2.3015934150346786,
                -0.4955141022488691,
                -2.9227282207971217
            ]
        },
        {
            "positions": [
                2.3383844617843774,
                -2.0580403918489756,
                -1.6001356427262265,
                -2.3906542490213454,
                -0.4791190527075596,
                -2.9696466807025965
            ]
        },
        {
            "positions": [
                2.3866091937487686,
                -2.072146593527454,
                -1.7038827895599347,
                -2.4797150830080126,
                -0.46272400316625006,
                -3.016565140608072
            ]
        },
        {
            "positions": [
                2.4348339257131593,
                -2.086252795205932,
                -1.8076299363936428,
                -2.5687759169946793,
                -0.44632895362494057,
                -3.063483600513547
            ]
        },
        {
            "positions": [
                2.54816665445626,
                -2.1369071443488217,
                -1.729331304665172,
                -2.5073119471507272,
                -0.45546353870371176,
                -3.101113107768029
            ]
        },
        {
            "positions": [
                2.6614993831993607,
                -2.187561493491711,
                -1.6510326729367009,
                -2.4458479773067756,
                -0.46459812378248294,
                -3.1387426150225113
            ]
        }
    ]
}