{
    "goal": {
        "global_pose": {
            "orientation": {
                "w": -0.00223480608172531,
                "x": 0.0024358444001904467,
                "y": 0.7094548369677653,
                "z": -0.704743149386269
            },
            "position": {
                "x": 0.6205249238014221,
                "y": -0.6371506643295288,
                "z": 0.19426114857196808
            }
        },
        "name": "move_to_magneteinheit_B"
    },
    "id": "PRMstar_move_to_magneteinheit_B_74",
    "joint_names": [
        "shoulder_pan_joint",
        "shoulder_lift_joint",
        "elbow_joint",
        "wrist_1_joint",
        "wrist_2_joint",
        "wrist_3_joint"
    ],
    "metrics": {
        "cart_traj_len": 1.4529158755605391,
        "distance_elbow_joint": 0.7255770446675638,
        "distance_shoulder_lift_joint": 1.2454118758689692,
        "distance_shoulder_pan_joint": 1.6225951644911425,
        "distance_wrist_1_joint": 2.6137447925769988,
        "distance_wrist_2_joint": 2.9338235480103076,
        "distance_wrist_3_joint": 3.1340127969338005,
        "smoothness": 1.387778783941556e-16,
        "time": 5.006477104,
        "traj_len": 3.5035931873647637,
        "weighted_distance": 4.908233812381362
    },
    "planner": "PRMstar",
    "start": {
        "state": {
            "elbow_joint": 2.39358713078474,
            "shoulder_lift_joint": -1.908514104345545,
            "shoulder_pan_joint": 0.7066247066606129,
            "wrist_1_joint": -0.4678290933515497,
            "wrist_2_joint": 0.7096259083745334,
            "wrist_3_joint": -3.1358149277392293
        }
    },
    "waypoints": [
        {
            "positions": [
                0.7066247066606129,
                -1.908514104345545,
                2.39358713078474,
                -0.4678290933515497,
                0.7096259083745334,
                -3.1358149277392293
            ]
        },
        {
            "positions": [
                0.6542829271608986,
                -1.8683395277046104,
                2.3701814196664315,
                -0.3835147452039046,
                0.6149864390838784,
                -3.034717740741365
            ]
        },
        {
            "positions": [
                0.6019411476611845,
                -1.828164951063676,
                2.346775708548123,
                -0.29920039705625945,
                0.5203469697932233,
                -2.9336205537435003
            ]
        },
        {
            "positions": [
                0.5495993681614701,
                -1.7879903744227414,
                2.3233699974298148,
                -0.21488604890861435,
                0.42570750050256817,
                -2.8325233667456358
            ]
        },
        {
            "positions": [
                0.49725758866175584,
                -1.747815797781807,
                2.299964286311506,
                -0.13057170076096924,
                0.3310680312119131,
                -2.7314261797477712
            ]
        },
        {
            "positions": [
                0.4449158091620416,
                -1.7076412211408725,
                2.2765585751931976,
                -0.04625735261332409,
                0.236428561921258,
                -2.6303289927499067
            ]
        },
        {
            "positions": [
                0.3925740296623273,
                -1.667466644499938,
                2.253152864074889,
                0.038056995534321014,
                0.1417890926306029,
                -2.529231805752042
            ]
        },
        {
            "positions": [
                0.34023225016261305,
                -1.6272920678590035,
                2.2297471529565804,
                0.12237134368196617,
                0.04714962333994788,
                -2.4281346187541777
            ]
        },
        {
            "positions": [
                0.28789047066289875,
                -1.587117491218069,
                2.206341441838272,
                0.20668569182961122,
                -0.047489845950707266,
                -2.327037431756313
            ]
        },
        {
            "positions": [
                0.23554869116318444,
                -1.5469429145771345,
                2.1829357307199633,
                0.2910000399772565,
                -0.1421293152413624,
                -2.2259402447584486
            ]
        },
        {
            "positions": [
                0.18320691166347025,
                -1.5067683379362,
                2.159530019601655,
                0.37531438812490153,
                -0.23676878453201744,
                -2.124843057760584
            ]
        },
        {
            "positions": [
                0.13086513216375595,
                -1.4665937612952655,
                2.1361243084833466,
                0.4596287362725467,
                -0.33140825382267247,
                -2.0237458707627196
            ]
        },
        {
            "positions": [
                0.07852335266404165,
                -1.426419184654331,
                2.112718597365038,
                0.5439430844201918,
                -0.4260477231133276,
                -1.9226486837648549
            ]
        },
        {
            "positions": [
                0.026181573164327343,
                -1.3862446080133966,
                2.0893128862467294,
                0.628257432567837,
                -0.5206871924039828,
                -1.8215514967669904
            ]
        },
        {
            "positions": [
                -0.02616020633538685,
                -1.346070031372462,
                2.065907175128421,
                0.7125717807154821,
                -0.6153266616946377,
                -1.7204543097691258
            ]
        },
        {
            "positions": [
                -0.07850198583510115,
                -1.3058954547315276,
                2.0425014640101122,
                0.7968861288631273,
                -0.7099661309852928,
                -1.6193571227712613
            ]
        },
        {
            "positions": [
                -0.13084376533481545,
                -1.265720878090593,
                2.019095752891804,
                0.8812004770107722,
                -0.804605600275948,
                -1.5182599357733968
            ]
        },
        {
            "positions": [
                -0.18318554483452965,
                -1.2255463014496586,
                1.9956900417734955,
                0.9655148251584174,
                -0.8992450695666029,
                -1.4171627487755325
            ]
        },
        {
            "positions": [
                -0.23552732433424406,
                -1.185371724808724,
                1.972284330655187,
                1.0498291733060627,
                -0.9938845388572582,
                -1.3160655617776675
            ]
        },
        {
            "positions": [
                -0.28786910383395825,
                -1.1451971481677896,
                1.9488786195368784,
                1.1341435214537077,
                -1.088524008147913,
                -1.2149683747798032
            ]
        },
        {
            "positions": [
                -0.34021088333367244,
                -1.1050225715268551,
                1.9254729084185698,
                1.2184578696013528,
                -1.1831634774385682,
                -1.1138711877819385
            ]
        },
        {
            "positions": [
                -0.39255266283338675,
                -1.0648479948859206,
                1.9020671973002614,
                1.3027722177489978,
                -1.2778029467292233,
                -1.0127740007840744
            ]
        },
        {
            "positions": [
                -0.44489444233310105,
                -1.0246734182449861,
                1.8786614861819528,
                1.3870865658966431,
                -1.3724424160198785,
                -0.9116768137862095
            ]
        },
        {
            "positions": [
                -0.49723622183281535,
                -0.9844988416040517,
                1.8552557750636445,
                1.471400914044288,
                -1.4670818853105336,
                -0.8105796267883449
            ]
        },
        {
            "positions": [
                -0.5495780013325297,
                -0.9443242649631172,
                1.831850063945336,
                1.5557152621919332,
                -1.5617213546011888,
                -0.7094824397904804
            ]
        },
        {
            "positions": [
                -0.6019197808322437,
                -0.9041496883221827,
                1.8084443528270273,
                1.6400296103395782,
                -1.6563608238918435,
                -0.6083852527926163
            ]
        },
        {
            "positions": [
                -0.6542615603319583,
                -0.8639751116812482,
                1.7850386417087187,
                1.7243439584872235,
                -1.751000293182499,
                -0.5072880657947514
            ]
        },
        {
            "positions": [
                -0.7066033398316726,
                -0.8238005350403137,
                1.7616329305904102,
                1.8086583066348685,
                -1.8456397624731542,
                -0.40619087879688687
            ]
        },
        {
            "positions": [
                -0.7589451193313866,
                -0.7836259583993792,
                1.7382272194721018,
                1.8929726547825139,
                -1.940279231763809,
                -0.30509369179902235
            ]
        },
        {
            "positions": [
                -0.8112868988311009,
                -0.7434513817584447,
                1.7148215083537934,
                1.9772870029301588,
                -2.034918701054464,
                -0.20399650480115783
            ]
        },
        {
            "positions": [
                -0.8636286783308152,
                -0.7032768051175102,
                1.6914157972354849,
                2.061601351077804,
                -2.129558170345119,
                -0.10289931780329331
            ]
        },
        {
            "positions": [
                -0.9159704578305295,
                -0.6631022284765756,
                1.6680100861171763,
                2.145915699225449,
                -2.2241976396357743,
                -0.001802130805428982
            ]
        }
    ]
}