{
    "goal": {
        "global_pose": {
            "orientation": {
                "w": 0.5084816217422485,
                "x": -0.49083608388900757,
                "y": 0.5182115435600281,
                "z": -0.4816462993621826
            },
            "position": {
                "x": 0.5540239810943604,
                "y": 0.030875300988554955,
                "z": 0.16403168439865112
            }
        },
        "name": "move_to_storage_A"
    },
    "id": "PRMstar_move_to_storage_A_8",
    "joint_names": [
        "shoulder_pan_joint",
        "shoulder_lift_joint",
        "elbow_joint",
        "wrist_1_joint",
        "wrist_2_joint",
        "wrist_3_joint"
    ],
    "metrics": {
        "cart_traj_len": 0.35237162008546635,
        "distance_elbow_joint": 0.45122056421355605,
        "distance_shoulder_lift_joint": 0.2341337162104109,
        "distance_shoulder_pan_joint": 0.4620573424834084,
        "distance_wrist_1_joint": 0.2463621489439275,
        "distance_wrist_2_joint": 1.0921553408535665,
        "distance_wrist_3_joint": 0.08946250525184762,
        "smoothness": 4.440892098500626e-16,
        "time": 5.004564144000001,
        "traj_len": 1.6048026725914677,
        "weighted_distance": 2.023075410917227
    },
    "planner": "PRMstar",
    "start": {
        "state": {
            "elbow_joint": 1.9715463870305268,
            "shoulder_lift_joint": -1.1394903361783484,
            "shoulder_pan_joint": 0.12281147578464417,
            "wrist_1_joint": -0.7804599489681411,
            "wrist_2_joint": 0.12958660307563738,
            "wrist_3_joint": -3.1924946282119055
        }
    },
    "waypoints": [
        {
            "positions": [
                0.12281147578464417,
                -1.1394903361783484,
                1.9715463870305268,
                -0.7804599489681411,
                0.12958660307563738,
                -3.1924946282119055
            ]
        },
        {
            "positions": [
                0.05680328400130012,
                -1.1729380099226927,
                2.0360064676324634,
                -0.8156545416744164,
                0.28560879462614686,
                -3.1797142703187844
            ]
        },
        {
            "positions": [
                -0.009204907782043928,
                -1.2063856836670372,
                2.1004665482344,
                -0.8508491343806918,
                0.4416309861766563,
                -3.1669339124256632
            ]
        },
        {
            "positions": [
                -0.07521309956538798,
                -1.2398333574113816,
                2.1649266288363367,
                -0.8860437270869671,
                0.5976531777271659,
                -3.154153554532542
            ]
        },
        {
            "positions": [
                -0.14122129134873201,
                -1.273281031155726,
                2.229386709438273,
                -0.9212383197932426,
                0.7536753692776753,
                -3.1413731966394214
            ]
        },
        {
            "positions": [
                -0.20722948313207612,
                -1.3067287049000704,
                2.2938467900402095,
                -0.9564329124995179,
                0.9096975608281849,
                -3.1285928387463002
            ]
        },
        {
            "positions": [
                -0.2732376749154201,
                -1.340176378644415,
                2.358306870642146,
                -0.9916275052057932,
                1.0657197523786943,
                -3.115812480853179
            ]
        },
        {
            "positions": [
                -0.3392458666987642,
                -1.3736240523887593,
                2.422766951244083,
                -1.0268220979120686,
                1.2217419439292039,
                -3.103032122960058
            ]
        }
    ]
}