{
    "goal": {
        "global_pose": {
            "orientation": {
                "w": -0.00223480608172531,
                "x": 0.0024358444001904467,
                "y": 0.7094548369677653,
                "z": -0.704743149386269
            },
            "position": {
                "x": 0.6205249238014221,
                "y": -0.6371506643295288,
                "z": 0.19426114857196808
            }
        },
        "name": "move_to_magneteinheit_B"
    },
    "id": "PRMstar_move_to_magneteinheit_B_97",
    "joint_names": [
        "shoulder_pan_joint",
        "shoulder_lift_joint",
        "elbow_joint",
        "wrist_1_joint",
        "wrist_2_joint",
        "wrist_3_joint"
    ],
    "metrics": {
        "cart_traj_len": 3.976312504780021,
        "distance_elbow_joint": 4.071106467417675,
        "distance_shoulder_lift_joint": 0.4786771350569272,
        "distance_shoulder_pan_joint": 2.6358399973624103,
        "distance_wrist_1_joint": 2.025499444953995,
        "distance_wrist_2_joint": 1.871374645660393,
        "distance_wrist_3_joint": 6.307788215527561,
        "smoothness": 0.24518461333458455,
        "time": 5.084413042,
        "traj_len": 4.170166172465908,
        "weighted_distance": 5.822605639028669
    },
    "planner": "PRMstar",
    "start": {
        "state": {
            "elbow_joint": 2.39358713078474,
            "shoulder_lift_joint": -1.908514104345545,
            "shoulder_pan_joint": 0.7066247066606129,
            "wrist_1_joint": -0.4678290933515497,
            "wrist_2_joint": 0.7096259083745334,
            "wrist_3_joint": -3.1358149277392293
        }
    },
    "waypoints": [
        {
            "positions": [
                0.7066247066606129,
                -1.908514104345545,
                2.39358713078474,
                -0.4678290933515497,
                0.7096259083745334,
                -3.1358149277392293
            ]
        },
        {
            "positions": [
                0.5678106829048484,
                -1.9148480768373388,
                2.411700662556325,
                -0.4619224369347847,
                0.7644133279065133,
                -3.1376757114004548
            ]
        },
        {
            "positions": [
                0.5173156835720543,
                -1.9542023018632997,
                2.337844282227289,
                -0.48208159161760034,
                0.8376732240673952,
                -3.015391988167158
            ]
        },
        {
            "positions": [
                0.4668206842392601,
                -1.9935565268892608,
                2.2639879018982536,
                -0.5022407463004159,
                0.9109331202282771,
                -2.8931082649338613
            ]
        },
        {
            "positions": [
                0.41632568490646593,
                -2.032910751915222,
                2.190131521569218,
                -0.5223999009832316,
                0.984193016389159,
                -2.7708245417005646
            ]
        },
        {
            "positions": [
                0.3658306855736718,
                -2.0722649769411827,
                2.116275141240182,
                -0.5425590556660472,
                1.057452912550041,
                -2.648540818467268
            ]
        },
        {
            "positions": [
                0.42243425960327324,
                -2.069288882447021,
                2.0145569773411838,
                -0.5820188143291389,
                1.0130272413316357,
                -2.5038090654478324
            ]
        },
        {
            "positions": [
                0.4790378336328747,
                -2.0663127879528593,
                1.9128388134421852,
                -0.6214785729922307,
                0.9686015701132303,
                -2.359077312428397
            ]
        },
        {
            "positions": [
                0.5356414076624761,
                -2.063336693458698,
                1.8111206495431866,
                -0.6609383316553225,
                0.924175898894825,
                -2.2143455594089616
            ]
        },
        {
            "positions": [
                0.5922449816920776,
                -2.0603605989645364,
                1.7094024856441883,
                -0.7003980903184142,
                0.8797502276764197,
                -2.069613806389526
            ]
        },
        {
            "positions": [
                0.648848555721679,
                -2.0573845044703747,
                1.6076843217451897,
                -0.739857848981506,
                0.8353245564580145,
                -1.9248820533700908
            ]
        },
        {
            "positions": [
                0.7054521297512805,
                -2.054408409976213,
                1.5059661578461911,
                -0.7793176076445977,
                0.7908988852396092,
                -1.7801503003506554
            ]
        },
        {
            "positions": [
                0.7620557037808819,
                -2.0514323154820513,
                1.4042479939471928,
                -0.8187773663076894,
                0.7464732140212038,
                -1.63541854733122
            ]
        },
        {
            "positions": [
                0.8186592778104833,
                -2.04845622098789,
                1.3025298300481942,
                -0.8582371249707812,
                0.7020475428027986,
                -1.4906867943117845
            ]
        },
        {
            "positions": [
                0.8752628518400848,
                -2.0454801264937283,
                1.2008116661491959,
                -0.8976968836338728,
                0.6576218715843933,
                -1.345955041292349
            ]
        },
        {
            "positions": [
                0.9318664258696863,
                -2.0425040319995666,
                1.0990935022501973,
                -0.9371566422969646,
                0.613196200365988,
                -1.2012232882729137
            ]
        },
        {
            "positions": [
                0.9884699998992876,
                -2.039527937505405,
                0.997375338351199,
                -0.9766164009600563,
                0.5687705291475827,
                -1.0564915352534783
            ]
        },
        {
            "positions": [
                1.0450735739288892,
                -2.0365518430112433,
                0.8956571744522004,
                -1.016076159623148,
                0.5243448579291774,
                -0.9117597822340429
            ]
        },
        {
            "positions": [
                1.1016771479584904,
                -2.033575748517082,
                0.7939390105532018,
                -1.0555359182862398,
                0.47991918671077216,
                -0.7670280292146074
            ]
        },
        {
            "positions": [
                1.158280721988092,
                -2.0305996540229203,
                0.6922208466542032,
                -1.0949956769493316,
                0.4354935154923668,
                -0.622296276195172
            ]
        },
        {
            "positions": [
                1.2148842960176935,
                -2.0276235595287586,
                0.5905026827552049,
                -1.1344554356124232,
                0.3910678442739616,
                -0.4775645231757366
            ]
        },
        {
            "positions": [
                1.271487870047295,
                -2.024647465034597,
                0.48878451885620633,
                -1.173915194275515,
                0.3466421730555562,
                -0.3328327701563012
            ]
        },
        {
            "positions": [
                1.3280914440768963,
                -2.021671370540435,
                0.387066354957208,
                -1.2133749529386066,
                0.302216501837151,
                -0.18810101713686578
            ]
        },
        {
            "positions": [
                1.3846950181064979,
                -2.018695276046274,
                0.28534819105820963,
                -1.2528347116016985,
                0.25779083061874575,
                -0.04336926411743036
            ]
        },
        {
            "positions": [
                1.4412985921360995,
                -2.0157191815521123,
                0.18363002715921084,
                -1.2922944702647903,
                0.2133651594003403,
                0.10136248890200505
            ]
        },
        {
            "positions": [
                1.4979021661657006,
                -2.0127430870579506,
                0.08191186326021249,
                -1.331754228927882,
                0.16893948818193505,
                0.24609424192144047
            ]
        },
        {
            "positions": [
                1.5545057401953022,
                -2.009766992563789,
                -0.019806300638785856,
                -1.3712139875909737,
                0.12451381696352981,
                0.3908259949408759
            ]
        },
        {
            "positions": [
                1.6111093142249033,
                -2.006790898069627,
                -0.1215244645377842,
                -1.4106737462540653,
                0.08008814574512457,
                0.5355577479603113
            ]
        },
        {
            "positions": [
                1.667712888254505,
                -2.003814803575466,
                -0.223242628436783,
                -1.450133504917157,
                0.03566247452671911,
                0.6802895009797472
            ]
        },
        {
            "positions": [
                1.7243164622841065,
                -2.0008387090813042,
                -0.32496079233578135,
                -1.489593263580249,
                -0.008763196691686126,
                0.8250212539991821
            ]
        },
        {
            "positions": [
                1.7809200363137077,
                -1.9978626145871425,
                -0.42667895623478014,
                -1.5290530222433407,
                -0.053188867910091364,
                0.9697530070186176
            ]
        },
        {
            "positions": [
                1.8375236103433092,
                -1.9948865200929808,
                -0.5283971201337785,
                -1.568512780906432,
                -0.0976145391284966,
                1.114484760038053
            ]
        },
        {
            "positions": [
                1.8941271843729108,
                -1.9919104255988194,
                -0.6301152840327773,
                -1.607972539569524,
                -0.14204021034690206,
                1.2592165130574888
            ]
        },
        {
            "positions": [
                1.9507307584025124,
                -1.9889343311046577,
                -0.7318334479317756,
                -1.6474322982326157,
                -0.1864658815653073,
                1.4039482660769238
            ]
        },
        {
            "positions": [
                2.0073343324321136,
                -1.985958236610496,
                -0.833551611830774,
                -1.6868920568957075,
                -0.23089155278371254,
                1.5486800190963592
            ]
        },
        {
            "positions": [
                2.063937906461715,
                -1.9829821421163345,
                -0.9352697757297723,
                -1.7263518155587994,
                -0.2753172240021178,
                1.6934117721157946
            ]
        },
        {
            "positions": [
                2.1205414804913167,
                -1.9800060476221728,
                -1.0369879396287711,
                -1.7658115742218912,
                -0.31974289522052324,
                1.83814352513523
            ]
        },
        {
            "positions": [
                2.177145054520918,
                -1.9770299531280113,
                -1.1387061035277695,
                -1.805271332884983,
                -0.3641685664389285,
                1.9828752781546655
            ]
        },
        {
            "positions": [
                2.2337486285505195,
                -1.9740538586338496,
                -1.2404242674267676,
                -1.8447310915480746,
                -0.4085942376573337,
                2.1276070311741004
            ]
        },
        {
            "positions": [
                2.2487636041049144,
                -1.9850386022632742,
                -1.316964917600534,
                -1.90464856410976,
                -0.4158579151010536,
                2.278090557672099
            ]
        },
        {
            "positions": [
                2.2637785796593093,
                -1.996023345892699,
                -1.3935055677743005,
                -1.9645660366714452,
                -0.4231215925447735,
                2.4285740841700973
            ]
        },
        {
            "positions": [
                2.278793555213704,
                -2.007008089522124,
                -1.470046217948067,
                -2.0244835092331304,
                -0.43038526998849336,
                2.5790576106680954
            ]
        },
        {
            "positions": [
                2.293808530768099,
                -2.017992833151548,
                -1.5465868681218333,
                -2.0844009817948157,
                -0.4376489474322133,
                2.729541137166094
            ]
        },
        {
            "positions": [
                2.308823506322494,
                -2.028977576780973,
                -1.6231275182955998,
                -2.144318454356501,
                -0.44491262487593314,
                2.8800246636640923
            ]
        },
        {
            "positions": [
                2.3662267684026217,
                -2.1086483232695965,
                -1.627247137711488,
                -2.2221474774601737,
                -0.44906938355419446,
                2.9509826589720127
            ]
        },
        {
            "positions": [
                2.423630030482749,
                -2.1883190697582204,
                -1.6313667571273764,
                -2.2999765005638464,
                -0.45322614223245583,
                3.021940654279933
            ]
        },
        {
            "positions": [
                2.542253346165945,
                -2.189544036273013,
                -1.6363295151085704,
                -2.390745863017931,
                -0.4596604355836504,
                3.0950961873729064
            ]
        },
        {
            "positions": [
                2.660876661849141,
                -2.190769002787806,
                -1.6412922730897643,
                -2.4815152254720148,
                -0.46609472893484494,
                3.16825172046588
            ]
        }
    ]
}