{
    "goal": {
        "global_pose": {
            "orientation": {
                "w": 0.5084816217422485,
                "x": -0.49083608388900757,
                "y": 0.5182115435600281,
                "z": -0.4816462993621826
            },
            "position": {
                "x": 0.5540239810943604,
                "y": 0.030875300988554955,
                "z": 0.16403168439865112
            }
        },
        "name": "move_to_storage_A"
    },
    "id": "PRMstar_move_to_storage_A_64",
    "joint_names": [
        "shoulder_pan_joint",
        "shoulder_lift_joint",
        "elbow_joint",
        "wrist_1_joint",
        "wrist_2_joint",
        "wrist_3_joint"
    ],
    "metrics": {
        "cart_traj_len": 0.35370243868210194,
        "distance_elbow_joint": 0.4476935221169782,
        "distance_shoulder_lift_joint": 0.23315387025223755,
        "distance_shoulder_pan_joint": 0.46018546536796545,
        "distance_wrist_1_joint": 0.23746034268189342,
        "distance_wrist_2_joint": 1.108970461008149,
        "distance_wrist_3_joint": 0.09642061252406497,
        "smoothness": 0.0,
        "time": 5.003318223,
        "traj_len": 1.6074465073374256,
        "weighted_distance": 2.0305556635289417
    },
    "planner": "PRMstar",
    "start": {
        "state": {
            "elbow_joint": 1.9715463870305268,
            "shoulder_lift_joint": -1.1394903361783484,
            "shoulder_pan_joint": 0.12281147578464417,
            "wrist_1_joint": -0.7804599489681411,
            "wrist_2_joint": 0.12958660307563738,
            "wrist_3_joint": -3.1924946282119055
        }
    },
    "waypoints": [
        {
            "positions": [
                0.12281147578464417,
                -1.1394903361783484,
                1.9715463870305268,
                -0.7804599489681411,
                0.12958660307563738,
                -3.1924946282119055
            ]
        },
        {
            "positions": [
                0.05707069501779197,
                -1.172798031928668,
                2.0355026044758096,
                -0.8143828550655544,
                0.2880109546482301,
                -3.178720254994182
            ]
        },
        {
            "positions": [
                -0.008670085749060238,
                -1.2061057276789877,
                2.099458821921092,
                -0.8483057611629677,
                0.44643530622082284,
                -3.1649458817764584
            ]
        },
        {
            "positions": [
                -0.07441086651591243,
                -1.2394134234293073,
                2.1634150393663747,
                -0.8822286672603811,
                0.6048596577934156,
                -3.151171508558735
            ]
        },
        {
            "positions": [
                -0.14015164728276464,
                -1.272721119179627,
                2.227371256811657,
                -0.9161515733577945,
                0.7632840093660083,
                -3.1373971353410113
            ]
        },
        {
            "positions": [
                -0.20589242804961688,
                -1.3060288149299466,
                2.29132747425694,
                -0.9500744794552078,
                0.921708360938601,
                -3.1236227621232877
            ]
        },
        {
            "positions": [
                -0.271633208816469,
                -1.3393365106802664,
                2.355283691702222,
                -0.9839973855526212,
                1.0801327125111937,
                -3.109848388905564
            ]
        },
        {
            "positions": [
                -0.33737398958332127,
                -1.372644206430586,
                2.419239909147505,
                -1.0179202916500345,
                1.2385570640837864,
                -3.0960740156878406
            ]
        }
    ]
}