{
    "goal": {
        "global_pose": {
            "orientation": {
                "w": 0.7031023502349854,
                "x": -0.7110244035720825,
                "y": 0.007748599164187908,
                "z": 0.005598929710686207
            },
            "position": {
                "x": 0.11585023208521307,
                "y": 0.44412534475326537,
                "z": 0.3711530566215515
            }
        },
        "name": "move_to_auspresseinheit_A"
    },
    "id": "PRMstar_move_to_auspresseinheit_A_143",
    "joint_names": [
        "shoulder_pan_joint",
        "shoulder_lift_joint",
        "elbow_joint",
        "wrist_1_joint",
        "wrist_2_joint",
        "wrist_3_joint"
    ],
    "metrics": {
        "cart_traj_len": 3.505594354756285,
        "distance_elbow_joint": 1.840687702114376,
        "distance_shoulder_lift_joint": 0.5324151141331772,
        "distance_shoulder_pan_joint": 6.605373078020839,
        "distance_wrist_1_joint": 6.342248049343394,
        "distance_wrist_2_joint": 1.2103995560565672,
        "distance_wrist_3_joint": 1.4605990284923145,
        "smoothness": 0.68427643255836,
        "time": 5.045997078,
        "traj_len": 4.241665065532716,
        "weighted_distance": 5.33531331699885
    },
    "planner": "PRMstar",
    "start": {
        "state": {
            "elbow_joint": 2.422574709923281,
            "shoulder_lift_joint": -1.3736533754116391,
            "shoulder_pan_joint": -0.33786336945926293,
            "wrist_1_joint": -1.0288603412921917,
            "wrist_2_joint": 1.2330224858903978,
            "wrist_3_joint": -3.094022268022082
        }
    },
    "waypoints": [
        {
            "positions": [
                -0.33786336945926293,
                -1.3736533754116391,
                2.422574709923281,
                -1.0288603412921917,
                1.2330224858903978,
                -3.094022268022082
            ]
        },
        {
            "positions": [
                -0.4586892390215875,
                -1.3836418879592807,
                2.381884873319843,
                -0.8784994688899967,
                1.1955379202230851,
                -3.063222468035122
            ]
        },
        {
            "positions": [
                -0.5795151085839121,
                -1.393630400506922,
                2.3411950367164045,
                -0.7281385964878018,
                1.1580533545557725,
                -3.0324226680481616
            ]
        },
        {
            "positions": [
                -0.7003409781462366,
                -1.4036189130545635,
                2.3005052001129664,
                -0.5777777240856068,
                1.1205687888884601,
                -3.0016228680612014
            ]
        },
        {
            "positions": [
                -0.8211668477085612,
                -1.4136074256022049,
                2.259815363509528,
                -0.4274168516834117,
                1.0830842232211475,
                -2.9708230680742416
            ]
        },
        {
            "positions": [
                -0.9419927172708857,
                -1.4235959381498464,
                2.21912552690609,
                -0.2770559792812167,
                1.0455996575538349,
                -2.9400232680872813
            ]
        },
        {
            "positions": [
                -1.0628185868332103,
                -1.4335844506974877,
                2.1784356903026514,
                -0.12669510687902175,
                1.0081150918865223,
                -2.909223468100321
            ]
        },
        {
            "positions": [
                -1.1836444563955348,
                -1.4435729632451293,
                2.1377458536992133,
                0.023665765523173343,
                0.9706305262192096,
                -2.878423668113361
            ]
        },
        {
            "positions": [
                -1.3044703259578594,
                -1.4535614757927706,
                2.097056017095775,
                0.17402663792536832,
                0.9331459605518971,
                -2.8476238681264006
            ]
        },
        {
            "positions": [
                -1.4252961955201842,
                -1.4635499883404122,
                2.0563661804923368,
                0.3243875103275633,
                0.8956613948845845,
                -2.8168240681394403
            ]
        },
        {
            "positions": [
                -1.5461220650825085,
                -1.4735385008880535,
                2.0156763438888983,
                0.4747483827297583,
                0.858176829217272,
                -2.78602426815248
            ]
        },
        {
            "positions": [
                -1.6669479346448333,
                -1.483527013435695,
                1.9749865072854602,
                0.6251092551319533,
                0.8206922635499594,
                -2.75522446816552
            ]
        },
        {
            "positions": [
                -1.7877738042071576,
                -1.4935155259833364,
                1.9342966706820217,
                0.7754701275341482,
                0.7832076978826468,
                -2.72442466817856
            ]
        },
        {
            "positions": [
                -1.9085996737694821,
                -1.503504038530978,
                1.8936068340785837,
                0.925830999936343,
                0.7457231322153343,
                -2.6936248681915997
            ]
        },
        {
            "positions": [
                -2.029425543331807,
                -1.5134925510786192,
                1.8529169974751452,
                1.0761918723385384,
                0.7082385665480216,
                -2.6628250682046395
            ]
        },
        {
            "positions": [
                -2.1502514128941312,
                -1.5234810636262608,
                1.812227160871707,
                1.2265527447407334,
                0.670754000880709,
                -2.6320252682176792
            ]
        },
        {
            "positions": [
                -2.2710772824564556,
                -1.5334695761739021,
                1.7715373242682688,
                1.3769136171429284,
                0.6332694352133965,
                -2.601225468230719
            ]
        },
        {
            "positions": [
                -2.3919031520187803,
                -1.5434580887215437,
                1.7308474876648305,
                1.527274489545123,
                0.5957848695460839,
                -2.5704256682437587
            ]
        },
        {
            "positions": [
                -2.512729021581105,
                -1.553446601269185,
                1.690157651061392,
                1.6776353619473183,
                0.5583003038787713,
                -2.5396258682567985
            ]
        },
        {
            "positions": [
                -2.6335548911434294,
                -1.5634351138168265,
                1.649467814457954,
                1.8279962343495133,
                0.5208157382114588,
                -2.5088260682698387
            ]
        },
        {
            "positions": [
                -2.7543807607057538,
                -1.5734236263644679,
                1.6087779778545157,
                1.9783571067517083,
                0.48333117254414615,
                -2.4780262682828784
            ]
        },
        {
            "positions": [
                -2.8752066302680785,
                -1.5834121389121094,
                1.5680881412510774,
                2.128717979153903,
                0.44584660687683364,
                -2.447226468295918
            ]
        },
        {
            "positions": [
                -2.9960324998304033,
                -1.593400651459751,
                1.5273983046476391,
                2.2790788515560982,
                0.4083620412095209,
                -2.416426668308958
            ]
        },
        {
            "positions": [
                -3.1168583693927276,
                -1.6033891640073923,
                1.4867084680442009,
                2.429439723958293,
                0.3708774755422084,
                -2.3856268683219977
            ]
        },
        {
            "positions": [
                -2.950494105128059,
                -1.6165491346829324,
                1.526048531532692,
                2.304050681171645,
                0.3860189775295292,
                -2.4183313739216596
            ]
        },
        {
            "positions": [
                -2.784129840863391,
                -1.6297091053584727,
                1.565388595021183,
                2.178661638384997,
                0.4011604795168499,
                -2.451035879521322
            ]
        },
        {
            "positions": [
                -2.6177655765987224,
                -1.6428690760340128,
                1.6047286585096743,
                2.0532725955983486,
                0.4163019815041707,
                -2.483740385120984
            ]
        },
        {
            "positions": [
                -2.4514013123340543,
                -1.656029046709553,
                1.6440687219981653,
                1.9278835528117004,
                0.4314434834914914,
                -2.5164448907206465
            ]
        },
        {
            "positions": [
                -2.285037048069386,
                -1.6691890173850932,
                1.6834087854866564,
                1.802494510025052,
                0.4465849854788122,
                -2.5491493963203085
            ]
        },
        {
            "positions": [
                -2.1186727838047172,
                -1.6823489880606333,
                1.7227488489751477,
                1.6771054672384038,
                0.46172648746613293,
                -2.581853901919971
            ]
        },
        {
            "positions": [
                -1.952308519540049,
                -1.6955089587361736,
                1.7620889124636387,
                1.5517164244517554,
                0.4768679894534537,
                -2.614558407519633
            ]
        },
        {
            "positions": [
                -1.7859442552753806,
                -1.7086689294117137,
                1.8014289759521298,
                1.4263273816651074,
                0.49200949144077444,
                -2.6472629131192953
            ]
        },
        {
            "positions": [
                -1.6195799910107123,
                -1.721828900087254,
                1.8407690394406209,
                1.300938338878459,
                0.5071509934280952,
                -2.6799674187189573
            ]
        },
        {
            "positions": [
                -1.453215726746044,
                -1.734988870762794,
                1.880109102929112,
                1.1755492960918108,
                0.522292495415416,
                -2.7126719243186193
            ]
        },
        {
            "positions": [
                -1.2868514624813754,
                -1.7481488414383342,
                1.9194491664176032,
                1.0501602533051626,
                0.5374339974027368,
                -2.7453764299182817
            ]
        },
        {
            "positions": [
                -1.1204871982167073,
                -1.7613088121138745,
                1.9587892299060943,
                0.9247712105185144,
                0.5525754993900575,
                -2.7780809355179437
            ]
        },
        {
            "positions": [
                -0.9541229339520387,
                -1.7744687827894146,
                1.9981292933945853,
                0.7993821677318662,
                0.5677170013773782,
                -2.810785441117606
            ]
        },
        {
            "positions": [
                -0.7877586696873702,
                -1.7876287534649546,
                2.0374693568830766,
                0.6739931249452178,
                0.582858503364699,
                -2.843489946717268
            ]
        },
        {
            "positions": [
                -0.6213944054227021,
                -1.800788724140495,
                2.0768094203715677,
                0.5486040821585696,
                0.5980000053520198,
                -2.8761944523169305
            ]
        },
        {
            "positions": [
                -0.45503014115803353,
                -1.813948694816035,
                2.1161494838600587,
                0.4232150393719216,
                0.6131415073393405,
                -2.9088989579165925
            ]
        },
        {
            "positions": [
                -0.2886658768933654,
                -1.8271086654915754,
                2.15548954734855,
                0.2978259965852734,
                0.6282830093266613,
                -2.9416034635162545
            ]
        },
        {
            "positions": [
                -0.12230161262869688,
                -1.8402686361671154,
                2.194829610837041,
                0.17243695379862478,
                0.643424511313982,
                -2.974307969115917
            ]
        },
        {
            "positions": [
                0.04406265163597167,
                -1.8534286068426558,
                2.234169674325532,
                0.047047911011976584,
                0.6585660133013028,
                -3.007012474715579
            ]
        },
        {
            "positions": [
                0.21042691590063978,
                -1.8665885775181958,
                2.273509737814023,
                -0.07834113177467161,
                0.6737075152886236,
                -3.0397169803152413
            ]
        },
        {
            "positions": [
                0.3767911801653079,
                -1.879748548193736,
                2.3128498013025145,
                -0.20373017456131937,
                0.6888490172759443,
                -3.0724214859149033
            ]
        },
        {
            "positions": [
                0.5431554444299769,
                -1.8929085188692762,
                2.3521898647910056,
                -0.329119217347968,
                0.7039905192632652,
                -3.1051259915145657
            ]
        },
        {
            "positions": [
                0.7095197086946449,
                -1.9060684895448163,
                2.3915299282794966,
                -0.4545082601346161,
                0.7191320212505858,
                -3.1378304971142277
            ]
        }
    ]
}