{
    "goal": {
        "global_pose": {
            "orientation": {
                "w": 0.7047431468963623,
                "x": -0.7094548344612122,
                "y": 0.0024358443915843964,
                "z": -0.0022348060738295317
            },
            "position": {
                "x": 0.6094750761985779,
                "y": 0.3671506643295288,
                "z": 0.19426114857196808
            }
        },
        "name": "move_to_magneteinheit_A"
    },
    "id": "PRMstar_move_to_magneteinheit_A_60",
    "joint_names": [
        "shoulder_pan_joint",
        "shoulder_lift_joint",
        "elbow_joint",
        "wrist_1_joint",
        "wrist_2_joint",
        "wrist_3_joint"
    ],
    "metrics": {
        "cart_traj_len": 2.2035989105530276,
        "distance_elbow_joint": 3.9067858423419164,
        "distance_shoulder_lift_joint": 1.0709490797321832,
        "distance_shoulder_pan_joint": 1.4125642384018084,
        "distance_wrist_1_joint": 1.3035197469125355,
        "distance_wrist_2_joint": 1.4347544962337409,
        "distance_wrist_3_joint": 4.263642129910791,
        "smoothness": 0.09702789568579734,
        "time": 5.124214132,
        "traj_len": 3.659537611985014,
        "weighted_distance": 4.965659476494621
    },
    "planner": "PRMstar",
    "start": {
        "state": {
            "elbow_joint": -1.919643507792019,
            "shoulder_lift_joint": -0.07675430207160344,
            "shoulder_pan_joint": -1.1188671864651873,
            "wrist_1_joint": 0.42560062535961957,
            "wrist_2_joint": 1.5706038300724876,
            "wrist_3_joint": 1.1188968870953055
        }
    },
    "waypoints": [
        {
            "positions": [
                -1.1188671864651873,
                -0.07675430207160344,
                -1.919643507792019,
                0.42560062535961957,
                1.5706038300724876,
                1.1188968870953055
            ]
        },
        {
            "positions": [
                -1.0773859601993738,
                -0.10614143483213853,
                -1.8032960782854923,
                0.38539418319510244,
                1.5296039759819562,
                0.9938464742012212
            ]
        },
        {
            "positions": [
                -1.0359047339335603,
                -0.13552856759267362,
                -1.6869486487789658,
                0.34518774103058536,
                1.4886041218914245,
                0.8687960613071369
            ]
        },
        {
            "positions": [
                -0.9944235076677467,
                -0.1649157003532087,
                -1.570601219272439,
                0.30498129886606823,
                1.4476042678008931,
                0.7437456484130527
            ]
        },
        {
            "positions": [
                -0.9529422814019332,
                -0.1943028331137438,
                -1.4542537897659122,
                0.2647748567015511,
                1.4066044137103615,
                0.6186952355189683
            ]
        },
        {
            "positions": [
                -0.9114610551361196,
                -0.2236899658742789,
                -1.3379063602593855,
                0.22456841453703402,
                1.36560455961983,
                0.49364482262488396
            ]
        },
        {
            "positions": [
                -0.869979828870306,
                -0.253077098634814,
                -1.2215589307528587,
                0.1843619723725169,
                1.3246047055292984,
                0.3685944097307997
            ]
        },
        {
            "positions": [
                -0.8284986026044925,
                -0.28246423139534904,
                -1.1052115012463322,
                0.14415553020799982,
                1.283604851438767,
                0.24354399683671546
            ]
        },
        {
            "positions": [
                -0.787017376338679,
                -0.31185136415588416,
                -0.9888640717398054,
                0.10394908804348268,
                1.2426049973482356,
                0.1184935839426311
            ]
        },
        {
            "positions": [
                -0.7455361500728654,
                -0.3412384969164192,
                -0.8725166422332786,
                0.06374264587896555,
                1.201605143257704,
                -0.006556828951453264
            ]
        },
        {
            "positions": [
                -0.7040549238070519,
                -0.37062562967695434,
                -0.7561692127267519,
                0.023536203714448478,
                1.1606052891671723,
                -0.13160724184553763
            ]
        },
        {
            "positions": [
                -0.6625736975412383,
                -0.40001276243748946,
                -0.6398217832202253,
                -0.016670238450068653,
                1.119605435076641,
                -0.25665765473962177
            ]
        },
        {
            "positions": [
                -0.6210924712754248,
                -0.4293998951980245,
                -0.5234743537136985,
                -0.056876680614585784,
                1.0786055809861095,
                -0.3817080676337061
            ]
        },
        {
            "positions": [
                -0.5796112450096113,
                -0.4587870279585596,
                -0.4071269242071718,
                -0.09708312277910286,
                1.037605726895578,
                -0.5067584805277905
            ]
        },
        {
            "positions": [
                -0.5381300187437976,
                -0.4881741607190947,
                -0.29077949470064524,
                -0.13728956494361994,
                0.9966058728050464,
                -0.6318088934218746
            ]
        },
        {
            "positions": [
                -0.4966487924779841,
                -0.5175612934796299,
                -0.17443206519411847,
                -0.17749600710813712,
                0.9556060187145149,
                -0.756859306315959
            ]
        },
        {
            "positions": [
                -0.4551675662121706,
                -0.5469484262401649,
                -0.0580846356875917,
                -0.2177024492726542,
                0.9146061646239834,
                -0.8819097192100434
            ]
        },
        {
            "positions": [
                -0.41368633994635706,
                -0.5763355590007,
                0.058262793818935066,
                -0.2579088914371713,
                0.8736063105334518,
                -1.0069601321041275
            ]
        },
        {
            "positions": [
                -0.37220511368054354,
                -0.605722691761235,
                0.17461022332546183,
                -0.29811533360168846,
                0.8326064564429203,
                -1.132010544998212
            ]
        },
        {
            "positions": [
                -0.3307238874147299,
                -0.6351098245217701,
                0.2909576528319884,
                -0.33832177576620553,
                0.7916066023523888,
                -1.2570609578922962
            ]
        },
        {
            "positions": [
                -0.2892426611489164,
                -0.6644969572823052,
                0.40730508233851537,
                -0.3785282179307226,
                0.7506067482618572,
                -1.3821113707863808
            ]
        },
        {
            "positions": [
                -0.24776143488310287,
                -0.6938840900428402,
                0.5236525118450419,
                -0.4187346600952398,
                0.7096068941713258,
                -1.507161783680465
            ]
        },
        {
            "positions": [
                -0.20628020861728924,
                -0.7232712228033755,
                0.6399999413515685,
                -0.4589411022597569,
                0.6686070400807943,
                -1.632212196574549
            ]
        },
        {
            "positions": [
                -0.16479898235147572,
                -0.7526583555639106,
                0.7563473708580954,
                -0.49914754442427395,
                0.6276071859902628,
                -1.7572626094686337
            ]
        },
        {
            "positions": [
                -0.1233177560856622,
                -0.7820454883244456,
                0.872694800364622,
                -0.5393539865887911,
                0.5866073318997312,
                -1.8823130223627178
            ]
        },
        {
            "positions": [
                -0.08183652981984868,
                -0.8114326210849807,
                0.9890422298711485,
                -0.579560428753308,
                0.5456074778091997,
                -2.007363435256802
            ]
        },
        {
            "positions": [
                -0.04035530355403516,
                -0.8408197538455158,
                1.1053896593776755,
                -0.6197668709178252,
                0.5046076237186683,
                -2.1324138481508865
            ]
        },
        {
            "positions": [
                0.00112592271177836,
                -0.8702068866060508,
                1.221737088884202,
                -0.6599733130823424,
                0.46360776962813666,
                -2.2574642610449707
            ]
        },
        {
            "positions": [
                0.0426071489775921,
                -0.8995940193665859,
                1.3380845183907286,
                -0.7001797552468594,
                0.42260791553760524,
                -2.382514673939055
            ]
        },
        {
            "positions": [
                0.08408837524340562,
                -0.928981152127121,
                1.4544319478972556,
                -0.7403861974113766,
                0.3816080614470736,
                -2.5075650868331394
            ]
        },
        {
            "positions": [
                0.12556960150921914,
                -0.9583682848876562,
                1.5707793774037822,
                -0.7805926395758938,
                0.3406082073565422,
                -2.6326154997272235
            ]
        },
        {
            "positions": [
                0.16705082777503266,
                -0.9877554176481913,
                1.6871268069103091,
                -0.8207990817404107,
                0.29960835326601054,
                -2.757665912621308
            ]
        },
        {
            "positions": [
                0.20853205404084618,
                -1.0171425504087264,
                1.8034742364168355,
                -0.8610055239049279,
                0.258608499175479,
                -2.882716325515392
            ]
        },
        {
            "positions": [
                0.1801437214089213,
                -1.060662827540413,
                1.864696935794523,
                -0.8553676580222653,
                0.21768877739656817,
                -2.9700592979487563
            ]
        },
        {
            "positions": [
                0.1517553887769964,
                -1.1041831046721,
                1.92591963517221,
                -0.8497297921396026,
                0.1767690556176573,
                -3.057402270382121
            ]
        },
        {
            "positions": [
                0.1233670561450715,
                -1.1477033818037867,
                1.9871423345498975,
                -0.8440919262569401,
                0.13584933383874642,
                -3.1447452428154854
            ]
        }
    ]
}