{
    "goal": {
        "global_pose": {
            "orientation": {
                "w": 0.7031023502349854,
                "x": -0.7110244035720825,
                "y": 0.007748599164187908,
                "z": 0.005598929710686207
            },
            "position": {
                "x": 0.11585023208521307,
                "y": 0.44412534475326537,
                "z": 0.3711530566215515
            }
        },
        "name": "move_to_auspresseinheit_A"
    },
    "id": "PRMstar_move_to_auspresseinheit_A_135",
    "joint_names": [
        "shoulder_pan_joint",
        "shoulder_lift_joint",
        "elbow_joint",
        "wrist_1_joint",
        "wrist_2_joint",
        "wrist_3_joint"
    ],
    "metrics": {
        "cart_traj_len": 0.6894272278244606,
        "distance_elbow_joint": 0.028455701935499622,
        "distance_shoulder_lift_joint": 0.5362695728758391,
        "distance_shoulder_pan_joint": 1.044720651072998,
        "distance_wrist_1_joint": 0.5561288311111651,
        "distance_wrist_2_joint": 0.519413956528134,
        "distance_wrist_3_joint": 0.13558587424085822,
        "smoothness": 0.16774171014265676,
        "time": 5.011450281,
        "traj_len": 1.679456634678161,
        "weighted_distance": 2.0413939168826554
    },
    "planner": "PRMstar",
    "start": {
        "state": {
            "elbow_joint": 2.422574709923281,
            "shoulder_lift_joint": -1.3736533754116391,
            "shoulder_pan_joint": -0.33786336945926293,
            "wrist_1_joint": -1.0288603412921917,
            "wrist_2_joint": 1.2330224858903978,
            "wrist_3_joint": -3.094022268022082
        }
    },
    "waypoints": [
        {
            "positions": [
                -0.33786336945926293,
                -1.3736533754116391,
                2.422574709923281,
                -1.0288603412921917,
                1.2330224858903978,
                -3.094022268022082
            ]
        },
        {
            "positions": [
                -0.2020367082333377,
                -1.4295066609427345,
                2.419139699890636,
                -0.953782004682587,
                1.16727439180268,
                -3.076348153328372
            ]
        },
        {
            "positions": [
                -0.06621004700741245,
                -1.48535994647383,
                2.4157046898579915,
                -0.8787036680729823,
                1.1015262977149622,
                -3.0586740386346625
            ]
        },
        {
            "positions": [
                0.06961661421851278,
                -1.5412132320049254,
                2.4122696798253465,
                -0.8036253314633774,
                1.0357782036272445,
                -3.0409999239409524
            ]
        },
        {
            "positions": [
                0.19706474769755727,
                -1.614955175261436,
                2.4086395454578335,
                -0.7374465672069073,
                0.9713442687742483,
                -3.0575126299728983
            ]
        },
        {
            "positions": [
                0.32451288117660176,
                -1.6886971185179465,
                2.4050094110903206,
                -0.6712678029504371,
                0.9069103339212522,
                -3.0740253360048437
            ]
        },
        {
            "positions": [
                0.45196101465564625,
                -1.7624390617744572,
                2.4013792767228073,
                -0.605089038693967,
                0.842476399068256,
                -3.0905380420367896
            ]
        },
        {
            "positions": [
                0.5794091481346908,
                -1.8361810050309677,
                2.3977491423552943,
                -0.5389102744374967,
                0.7780424642152599,
                -3.107050748068735
            ]
        },
        {
            "positions": [
                0.7068572816137352,
                -1.9099229482874782,
                2.3941190079877814,
                -0.47273151018102666,
                0.7136085293622637,
                -3.123563454100681
            ]
        }
    ]
}