{
    "goal": {
        "global_pose": {
            "orientation": {
                "w": 0.7031023502349854,
                "x": -0.7110244035720825,
                "y": 0.007748599164187908,
                "z": 0.005598929710686207
            },
            "position": {
                "x": 0.11585023208521307,
                "y": 0.44412534475326537,
                "z": 0.3711530566215515
            }
        },
        "name": "move_to_auspresseinheit_A"
    },
    "id": "PRMstar_move_to_auspresseinheit_A_77",
    "joint_names": [
        "shoulder_pan_joint",
        "shoulder_lift_joint",
        "elbow_joint",
        "wrist_1_joint",
        "wrist_2_joint",
        "wrist_3_joint"
    ],
    "metrics": {
        "cart_traj_len": 0.673712681733596,
        "distance_elbow_joint": 0.4930369458845716,
        "distance_shoulder_lift_joint": 0.6497936076387187,
        "distance_shoulder_pan_joint": 1.0461772040342285,
        "distance_wrist_1_joint": 0.5674447632584645,
        "distance_wrist_2_joint": 0.8678764331472945,
        "distance_wrist_3_joint": 0.523945641495251,
        "smoothness": 0.9723331055517789,
        "time": 5.0330525129999995,
        "traj_len": 2.036731350831162,
        "weighted_distance": 2.5751673877351724
    },
    "planner": "PRMstar",
    "start": {
        "state": {
            "elbow_joint": 2.422574709923281,
            "shoulder_lift_joint": -1.3736533754116391,
            "shoulder_pan_joint": -0.33786336945926293,
            "wrist_1_joint": -1.0288603412921917,
            "wrist_2_joint": 1.2330224858903978,
            "wrist_3_joint": -3.094022268022082
        }
    },
    "waypoints": [
        {
            "positions": [
                -0.33786336945926293,
                -1.3736533754116391,
                2.422574709923281,
                -1.0288603412921917,
                1.2330224858903978,
                -3.094022268022082
            ]
        },
        {
            "positions": [
                -0.24885480193485893,
                -1.4723906858077933,
                2.461472272410891,
                -0.9359579027341807,
                1.2620447827712151,
                -3.140877519643765
            ]
        },
        {
            "positions": [
                -0.15984623441045492,
                -1.5711279962039473,
                2.500369834898501,
                -0.8430554641761695,
                1.2910670796520325,
                -3.187732771265448
            ]
        },
        {
            "positions": [
                -0.07083766688605092,
                -1.6698653066001015,
                2.539267397386111,
                -0.7501530256181583,
                1.3200893765328499,
                -3.234588022887131
            ]
        },
        {
            "positions": [
                0.018170900638353082,
                -1.7686026169962554,
                2.5781649598737206,
                -0.6572505870601473,
                1.3491116734136672,
                -3.2814432745088133
            ]
        },
        {
            "positions": [
                0.10717946816275709,
                -1.8673399273924098,
                2.617062522361331,
                -0.5643481485021362,
                1.3781339702944846,
                -3.3282985261304963
            ]
        },
        {
            "positions": [
                0.19618803568716114,
                -1.9660772377885638,
                2.6559600848489406,
                -0.47144570994412505,
                1.407156267175302,
                -3.375153777752179
            ]
        },
        {
            "positions": [
                0.29861319546472204,
                -1.954603288736205,
                2.6040297706571582,
                -0.4734517363262046,
                1.268407736802824,
                -3.3265909513991483
            ]
        },
        {
            "positions": [
                0.40103835524228293,
                -1.9431293396838463,
                2.552099456465376,
                -0.47545776270828416,
                1.129659206430346,
                -3.2780281250461174
            ]
        },
        {
            "positions": [
                0.5034635150198438,
                -1.9316553906314873,
                2.5001691422735934,
                -0.4774637890903637,
                0.9909106760578679,
                -3.229465298693087
            ]
        },
        {
            "positions": [
                0.6058886747974047,
                -1.9201814415791285,
                2.448238828081811,
                -0.4794698154724433,
                0.8521621456853897,
                -3.180902472340056
            ]
        },
        {
            "positions": [
                0.7083138345749656,
                -1.9087074925267697,
                2.3963085138900286,
                -0.4814758418545228,
                0.7134136153129117,
                -3.132339645987025
            ]
        }
    ]
}