{
    "goal": {
        "global_pose": {
            "orientation": {
                "w": -0.00223480608172531,
                "x": 0.0024358444001904467,
                "y": 0.7094548369677653,
                "z": -0.704743149386269
            },
            "position": {
                "x": 0.6205249238014221,
                "y": -0.6371506643295288,
                "z": 0.19426114857196808
            }
        },
        "name": "move_to_magneteinheit_B"
    },
    "id": "PRMstar_move_to_magneteinheit_B_98",
    "joint_names": [
        "shoulder_pan_joint",
        "shoulder_lift_joint",
        "elbow_joint",
        "wrist_1_joint",
        "wrist_2_joint",
        "wrist_3_joint"
    ],
    "metrics": {
        "cart_traj_len": 1.451581070865202,
        "distance_elbow_joint": 0.7281974753801301,
        "distance_shoulder_lift_joint": 1.24770534831863,
        "distance_shoulder_pan_joint": 1.620911722522289,
        "distance_wrist_1_joint": 2.6046929378457304,
        "distance_wrist_2_joint": 2.9363954016966884,
        "distance_wrist_3_joint": 3.138566344166096,
        "smoothness": 1.387778783941556e-16,
        "time": 5.0092900479999996,
        "traj_len": 3.5037792781409,
        "weighted_distance": 4.908634255860195
    },
    "planner": "PRMstar",
    "start": {
        "state": {
            "elbow_joint": 2.39358713078474,
            "shoulder_lift_joint": -1.908514104345545,
            "shoulder_pan_joint": 0.7066247066606129,
            "wrist_1_joint": -0.4678290933515497,
            "wrist_2_joint": 0.7096259083745334,
            "wrist_3_joint": -3.1358149277392293
        }
    },
    "waypoints": [
        {
            "positions": [
                0.7066247066606129,
                -1.908514104345545,
                2.39358713078474,
                -0.4678290933515497,
                0.7096259083745334,
                -3.1358149277392293
            ]
        },
        {
            "positions": [
                0.6543372317405391,
                -1.8682655447223633,
                2.3700968896434453,
                -0.3838067405178165,
                0.614903476061737,
                -3.034570852120968
            ]
        },
        {
            "positions": [
                0.6020497568204652,
                -1.8280169850991816,
                2.346606648502151,
                -0.2997843876840832,
                0.5201810437489407,
                -2.933326776502707
            ]
        },
        {
            "positions": [
                0.5497622819003914,
                -1.787768425476,
                2.3231164073608563,
                -0.21576203485035,
                0.4254586114361442,
                -2.832082700884446
            ]
        },
        {
            "positions": [
                0.49747480698031754,
                -1.7475198658528184,
                2.299626166219562,
                -0.13173968201661673,
                0.33073617912334785,
                -2.730838625266185
            ]
        },
        {
            "positions": [
                0.44518733206024375,
                -1.7072713062296367,
                2.2761359250782673,
                -0.04771732918288352,
                0.23601374681055143,
                -2.6295945496479236
            ]
        },
        {
            "positions": [
                0.3928998571401699,
                -1.6670227466064553,
                2.252645683936973,
                0.0363050236508497,
                0.141291314497755,
                -2.5283504740296623
            ]
        },
        {
            "positions": [
                0.34061238222009604,
                -1.6267741869832737,
                2.2291554427956783,
                0.12032737648458297,
                0.04656888218495869,
                -2.427106398411401
            ]
        },
        {
            "positions": [
                0.2883249073000222,
                -1.586525627360092,
                2.205665201654384,
                0.20434972931831624,
                -0.04815355012783773,
                -2.32586232279314
            ]
        },
        {
            "positions": [
                0.23603743237994834,
                -1.5462770677369104,
                2.1821749605130893,
                0.2883720821520495,
                -0.14287598244063426,
                -2.2246182471748788
            ]
        },
        {
            "positions": [
                0.18374995745987455,
                -1.5060285081137288,
                2.158684719371795,
                0.3723944349857827,
                -0.23759841475343058,
                -2.123374171556618
            ]
        },
        {
            "positions": [
                0.13146248253980064,
                -1.4657799484905472,
                2.1351944782305003,
                0.45641678781951595,
                -0.332320847066227,
                -2.0221300959383566
            ]
        },
        {
            "positions": [
                0.07917500761972684,
                -1.4255313888673655,
                2.1117042370892056,
                0.5404391406532492,
                -0.4270432793790234,
                -1.9208860203200955
            ]
        },
        {
            "positions": [
                0.02688753269965294,
                -1.3852828292441839,
                2.0882139959479114,
                0.6244614934869825,
                -0.5217657116918198,
                -1.8196419447018342
            ]
        },
        {
            "positions": [
                -0.025399942220420857,
                -1.3450342696210025,
                2.0647237548066166,
                0.7084838463207157,
                -0.616488144004616,
                -1.718397869083573
            ]
        },
        {
            "positions": [
                -0.07768741714049465,
                -1.3047857099978208,
                2.0412335136653224,
                0.7925061991544489,
                -0.7112105763174127,
                -1.6171537934653117
            ]
        },
        {
            "positions": [
                -0.12997489206056856,
                -1.2645371503746392,
                2.0177432725240276,
                0.8765285519881822,
                -0.8059330086302089,
                -1.5159097178470509
            ]
        },
        {
            "positions": [
                -0.18226236698064235,
                -1.2242885907514576,
                1.9942530313827334,
                0.9605509048219154,
                -0.9006554409430053,
                -1.4146656422287898
            ]
        },
        {
            "positions": [
                -0.23454984190071626,
                -1.184040031128276,
                1.9707627902414386,
                1.0445732576556488,
                -0.995377873255802,
                -1.3134215666105282
            ]
        },
        {
            "positions": [
                -0.28683731682079006,
                -1.1437914715050943,
                1.9472725491001441,
                1.128595610489382,
                -1.090100305568598,
                -1.2121774909922671
            ]
        },
        {
            "positions": [
                -0.33912479174086385,
                -1.1035429118819127,
                1.9237823079588496,
                1.2126179633231151,
                -1.1848227378813947,
                -1.110933415374006
            ]
        },
        {
            "positions": [
                -0.39141226666093776,
                -1.063294352258731,
                1.9002920668175551,
                1.2966403161568483,
                -1.279545170194191,
                -1.0096893397557452
            ]
        },
        {
            "positions": [
                -0.44369974158101166,
                -1.0230457926355494,
                1.8768018256762606,
                1.3806626689905817,
                -1.3742676025069875,
                -0.9084452641374838
            ]
        },
        {
            "positions": [
                -0.49598721650108535,
                -0.9827972330123678,
                1.8533115845349661,
                1.4646850218243148,
                -1.4689900348197837,
                -0.8072011885192225
            ]
        },
        {
            "positions": [
                -0.5482746914211593,
                -0.9425486733891862,
                1.8298213433936716,
                1.548707374658048,
                -1.5637124671325804,
                -0.7059571129009616
            ]
        },
        {
            "positions": [
                -0.6005621663412329,
                -0.9023001137660047,
                1.806331102252377,
                1.6327297274917814,
                -1.6584348994453766,
                -0.6047130372827003
            ]
        },
        {
            "positions": [
                -0.6528496412613071,
                -0.8620515541428229,
                1.7828408611110826,
                1.7167520803255147,
                -1.7531573317581732,
                -0.503468961664439
            ]
        },
        {
            "positions": [
                -0.7051371161813808,
                -0.8218029945196414,
                1.759350619969788,
                1.8007744331592477,
                -1.8478797640709694,
                -0.4022248860461781
            ]
        },
        {
            "positions": [
                -0.7574245911014547,
                -0.7815544348964598,
                1.7358603788284936,
                1.884796785992981,
                -1.9426021963837656,
                -0.3009808104279168
            ]
        },
        {
            "positions": [
                -0.8097120660215283,
                -0.7413058752732782,
                1.712370137687199,
                1.968819138826714,
                -2.0373246286965623,
                -0.19973673480965592
            ]
        },
        {
            "positions": [
                -0.8619995409416022,
                -0.7010573156500965,
                1.6888798965459044,
                2.0528414916604474,
                -2.132047061009359,
                -0.09849265919139416
            ]
        },
        {
            "positions": [
                -0.9142870158616762,
                -0.6608087560269149,
                1.66538965540461,
                2.1368638444941808,
                -2.226769493322155,
                0.0027514164268667945
            ]
        }
    ]
}