{
    "goal": {
        "global_pose": {
            "orientation": {
                "w": -0.00223480608172531,
                "x": 0.0024358444001904467,
                "y": 0.7094548369677653,
                "z": -0.704743149386269
            },
            "position": {
                "x": 0.6205249238014221,
                "y": -0.6371506643295288,
                "z": 0.19426114857196808
            }
        },
        "name": "move_to_magneteinheit_B"
    },
    "id": "PRMstar_move_to_magneteinheit_B_100",
    "joint_names": [
        "shoulder_pan_joint",
        "shoulder_lift_joint",
        "elbow_joint",
        "wrist_1_joint",
        "wrist_2_joint",
        "wrist_3_joint"
    ],
    "metrics": {
        "cart_traj_len": 1.453259149927368,
        "distance_elbow_joint": 0.7310489675950429,
        "distance_shoulder_lift_joint": 1.2496357958961934,
        "distance_shoulder_pan_joint": 1.6217628132713147,
        "distance_wrist_1_joint": 2.6032671305160746,
        "distance_wrist_2_joint": 2.9407426069646485,
        "distance_wrist_3_joint": 3.1287996593204035,
        "smoothness": 3.053113318408425e-16,
        "time": 5.010369875,
        "traj_len": 3.5036062811856694,
        "weighted_distance": 4.90681832042773
    },
    "planner": "PRMstar",
    "start": {
        "state": {
            "elbow_joint": 2.39358713078474,
            "shoulder_lift_joint": -1.908514104345545,
            "shoulder_pan_joint": 0.7066247066606129,
            "wrist_1_joint": -0.4678290933515497,
            "wrist_2_joint": 0.7096259083745334,
            "wrist_3_joint": -3.1358149277392293
        }
    },
    "waypoints": [
        {
            "positions": [
                0.7066247066606129,
                -1.908514104345545,
                2.39358713078474,
                -0.4678290933515497,
                0.7096259083745334,
                -3.1358149277392293
            ]
        },
        {
            "positions": [
                0.654309777200248,
                -1.8682032722198612,
                2.3700049060236097,
                -0.3838527343026441,
                0.6147632436337384,
                -3.034885906470829
            ]
        },
        {
            "positions": [
                0.601994847739883,
                -1.8278924400941776,
                2.3464226812624793,
                -0.29987637525373845,
                0.5199005788929432,
                -2.933956885202429
            ]
        },
        {
            "positions": [
                0.549679918279518,
                -1.7875816079684939,
                2.322840456501349,
                -0.2159000162048328,
                0.4250379141521481,
                -2.833027863934029
            ]
        },
        {
            "positions": [
                0.49736498881915303,
                -1.7472707758428103,
                2.2992582317402186,
                -0.1319236571559272,
                0.330175249411353,
                -2.732098842665629
            ]
        },
        {
            "positions": [
                0.445050059358788,
                -1.7069599437171266,
                2.275676006979088,
                -0.04794729810702153,
                0.23531258467055788,
                -2.6311698213972288
            ]
        },
        {
            "positions": [
                0.392735129898423,
                -1.666649111591443,
                2.2520937822179574,
                0.03602906094188413,
                0.14044991992976275,
                -2.5302408001288286
            ]
        },
        {
            "positions": [
                0.34042020043805804,
                -1.6263382794657593,
                2.228511557456827,
                0.12000541999078967,
                0.04558725518896767,
                -2.429311778860429
            ]
        },
        {
            "positions": [
                0.28810527097769306,
                -1.5860274473400757,
                2.2049293326956967,
                0.20398177903969533,
                -0.04927540955182741,
                -2.3283827575920286
            ]
        },
        {
            "positions": [
                0.23579034151732803,
                -1.545716615214392,
                2.1813471079345663,
                0.287958138088601,
                -0.1441380742926226,
                -2.2274537363236284
            ]
        },
        {
            "positions": [
                0.18347541205696305,
                -1.5054057830887082,
                2.157764883173436,
                0.37193449713750665,
                -0.23900073903341768,
                -2.126524715055228
            ]
        },
        {
            "positions": [
                0.13116048259659807,
                -1.4650949509630247,
                2.1341826584123056,
                0.4559108561864123,
                -0.33386340377421286,
                -2.025595693786828
            ]
        },
        {
            "positions": [
                0.07884555313623309,
                -1.4247841188373411,
                2.1106004336511752,
                0.539887215235318,
                -0.42872606851500794,
                -1.924666672518428
            ]
        },
        {
            "positions": [
                0.026530623675868115,
                -1.3844732867116574,
                2.0870182088900444,
                0.6238635742842236,
                -0.523588733255803,
                -1.8237376512500278
            ]
        },
        {
            "positions": [
                -0.025784305784496864,
                -1.3441624545859736,
                2.0634359841289145,
                0.7078399333331291,
                -0.6184513979965981,
                -1.7228086299816279
            ]
        },
        {
            "positions": [
                -0.07809923524486195,
                -1.3038516224602898,
                2.0398537593677837,
                0.7918162923820349,
                -0.7133140627373934,
                -1.6218796087132277
            ]
        },
        {
            "positions": [
                -0.13041416470522682,
                -1.2635407903346065,
                2.0162715346066533,
                0.8757926514309404,
                -0.8081767274781883,
                -1.5209505874448275
            ]
        },
        {
            "positions": [
                -0.1827290941655918,
                -1.2232299582089228,
                1.992689309845523,
                0.959769010479846,
                -0.9030393922189833,
                -1.4200215661764275
            ]
        },
        {
            "positions": [
                -0.2350440236259569,
                -1.182919126083239,
                1.9691070850843926,
                1.0437453695287517,
                -0.9979020569597786,
                -1.319092544908027
            ]
        },
        {
            "positions": [
                -0.28735895308632187,
                -1.1426082939575553,
                1.9455248603232622,
                1.1277217285776573,
                -1.0927647217005738,
                -1.218163523639627
            ]
        },
        {
            "positions": [
                -0.33967388254668684,
                -1.1022974618318717,
                1.9219426355621319,
                1.211698087626563,
                -1.1876273864413687,
                -1.1172345023712271
            ]
        },
        {
            "positions": [
                -0.3919888120070517,
                -1.0619866297061882,
                1.8983604108010015,
                1.2956744466754686,
                -1.282490051182164,
                -1.016305481102827
            ]
        },
        {
            "positions": [
                -0.4443037414674168,
                -1.0216757975805044,
                1.874778186039871,
                1.3796508057243744,
                -1.3773527159229593,
                -0.9153764598344267
            ]
        },
        {
            "positions": [
                -0.4966186709277819,
                -0.9813649654548208,
                1.8511959612787405,
                1.46362716477328,
                -1.4722153806637541,
                -0.8144474385660265
            ]
        },
        {
            "positions": [
                -0.5489336003881468,
                -0.9410541333291371,
                1.82761373651761,
                1.5476035238221857,
                -1.5670780454045494,
                -0.7135184172976268
            ]
        },
        {
            "positions": [
                -0.6012485298485116,
                -0.9007433012034536,
                1.8040315117564796,
                1.6315798828710912,
                -1.6619407101453443,
                -0.6125893960292266
            ]
        },
        {
            "positions": [
                -0.6535634593088767,
                -0.8604324690777698,
                1.7804492869953492,
                1.7155562419199968,
                -1.7568033748861396,
                -0.5116603747608264
            ]
        },
        {
            "positions": [
                -0.7058783887692418,
                -0.8201216369520861,
                1.7568670622342188,
                1.7995326009689023,
                -1.8516660396269349,
                -0.4107313534924262
            ]
        },
        {
            "positions": [
                -0.7581933182296067,
                -0.7798108048264025,
                1.7332848374730885,
                1.8835089600178079,
                -1.9465287043677297,
                -0.3098023322240264
            ]
        },
        {
            "positions": [
                -0.8105082476899718,
                -0.7394999727007188,
                1.7097026127119581,
                1.9674853190667134,
                -2.0413913691085246,
                -0.20887331095562622
            ]
        },
        {
            "positions": [
                -0.8628231771503369,
                -0.699189140575035,
                1.6861203879508275,
                2.0514616781156194,
                -2.1362540338493203,
                -0.10794428968722602
            ]
        },
        {
            "positions": [
                -0.9151381066107016,
                -0.6588783084493516,
                1.6625381631896972,
                2.135438037164525,
                -2.231116698590115,
                -0.0070152684188260015
            ]
        }
    ]
}