{
    "goal": {
        "global_pose": {
            "orientation": {
                "w": 0.7031023502349854,
                "x": -0.7110244035720825,
                "y": 0.007748599164187908,
                "z": 0.005598929710686207
            },
            "position": {
                "x": 0.11585023208521307,
                "y": 0.44412534475326537,
                "z": 0.3711530566215515
            }
        },
        "name": "move_to_auspresseinheit_A"
    },
    "id": "PRMstar_move_to_auspresseinheit_A_79",
    "joint_names": [
        "shoulder_pan_joint",
        "shoulder_lift_joint",
        "elbow_joint",
        "wrist_1_joint",
        "wrist_2_joint",
        "wrist_3_joint"
    ],
    "metrics": {
        "cart_traj_len": 1.2447900552270321,
        "distance_elbow_joint": 0.08495381230386956,
        "distance_shoulder_lift_joint": 1.6130600061137672,
        "distance_shoulder_pan_joint": 1.2075101346548376,
        "distance_wrist_1_joint": 0.8379818061418969,
        "distance_wrist_2_joint": 0.5103110260289675,
        "distance_wrist_3_joint": 0.16482765958751644,
        "smoothness": 0.8755496807262182,
        "time": 5.011167399,
        "traj_len": 2.102057193520399,
        "weighted_distance": 2.4691279019477204
    },
    "planner": "PRMstar",
    "start": {
        "state": {
            "elbow_joint": 2.422574709923281,
            "shoulder_lift_joint": -1.3736533754116391,
            "shoulder_pan_joint": -0.33786336945926293,
            "wrist_1_joint": -1.0288603412921917,
            "wrist_2_joint": 1.2330224858903978,
            "wrist_3_joint": -3.094022268022082
        }
    },
    "waypoints": [
        {
            "positions": [
                -0.33786336945926293,
                -1.3736533754116391,
                2.422574709923281,
                -1.0288603412921917,
                1.2330224858903978,
                -3.094022268022082
            ]
        },
        {
            "positions": [
                -0.18158272240336892,
                -1.5273112902432322,
                2.4146772472520093,
                -1.049343487113137,
                1.2322600577918534,
                -3.1083072247501824
            ]
        },
        {
            "positions": [
                -0.025302075347474917,
                -1.680969205074825,
                2.406779784580738,
                -1.0698266329340824,
                1.2314976296933091,
                -3.1225921814782827
            ]
        },
        {
            "positions": [
                0.1309785717084191,
                -1.8346271199064181,
                2.398882321909466,
                -1.0903097787550278,
                1.2307352015947648,
                -3.136877138206383
            ]
        },
        {
            "positions": [
                0.2872592187643131,
                -1.988285034738011,
                2.390984859238195,
                -1.1107929245759733,
                1.2299727734962205,
                -3.1511620949344836
            ]
        },
        {
            "positions": [
                0.44353986582020716,
                -2.141942949569604,
                2.383087396566923,
                -1.1312760703969187,
                1.2292103453976762,
                -3.165447051662584
            ]
        },
        {
            "positions": [
                0.5998205128761012,
                -2.295600864401197,
                2.3751899338956517,
                -1.151759216217864,
                1.2284479172991318,
                -3.179732008390684
            ]
        },
        {
            "positions": [
                0.7561011599319951,
                -2.4492587792327902,
                2.36729247122438,
                -1.1722423620388094,
                1.2276854892005875,
                -3.1940169651187844
            ]
        },
        {
            "positions": [
                0.7673901408019658,
                -2.3775569334771074,
                2.3713221265307403,
                -1.057931371700085,
                1.142679045336442,
                -3.184851012794379
            ]
        },
        {
            "positions": [
                0.7786791216719365,
                -2.3058550877214246,
                2.375351781837101,
                -0.9436203813613608,
                1.0576726014722961,
                -3.1756850604699736
            ]
        },
        {
            "positions": [
                0.7899681025419072,
                -2.2341532419657417,
                2.3793814371434614,
                -0.8293093910226366,
                0.9726661576081505,
                -3.166519108145568
            ]
        },
        {
            "positions": [
                0.7634085483240179,
                -2.126703553623886,
                2.3852423063720902,
                -0.7120871195629344,
                0.8893479250259104,
                -3.1540740729730357
            ]
        },
        {
            "positions": [
                0.7368489941061288,
                -2.01925386528203,
                2.3911031756007195,
                -0.5948648481032323,
                0.8060296924436703,
                -3.1416290378005027
            ]
        },
        {
            "positions": [
                0.7102894398882396,
                -1.9118041769401741,
                2.3969640448293483,
                -0.4776425766435301,
                0.7227114598614303,
                -3.1291840026279703
            ]
        }
    ]
}