{
    "goal": {
        "global_pose": {
            "orientation": {
                "w": 0.7047431468963623,
                "x": -0.7094548344612122,
                "y": 0.0024358443915843964,
                "z": -0.0022348060738295317
            },
            "position": {
                "x": 0.6094750761985779,
                "y": 0.3671506643295288,
                "z": 0.19426114857196808
            }
        },
        "name": "move_to_magneteinheit_A"
    },
    "id": "PRMstar_move_to_magneteinheit_A_20",
    "joint_names": [
        "shoulder_pan_joint",
        "shoulder_lift_joint",
        "elbow_joint",
        "wrist_1_joint",
        "wrist_2_joint",
        "wrist_3_joint"
    ],
    "metrics": {
        "cart_traj_len": 2.0619098179240027,
        "distance_elbow_joint": 3.871167609128406,
        "distance_shoulder_lift_joint": 1.0517121779294432,
        "distance_shoulder_pan_joint": 1.2412483379097345,
        "distance_wrist_1_joint": 1.1201029250273615,
        "distance_wrist_2_joint": 1.4495520199906788,
        "distance_wrist_3_joint": 1.901920404531693,
        "smoothness": 2.2204460585694095e-16,
        "time": 5.013664381,
        "traj_len": 3.2612426273611286,
        "weighted_distance": 4.124221045070056
    },
    "planner": "PRMstar",
    "start": {
        "state": {
            "elbow_joint": -1.919643507792019,
            "shoulder_lift_joint": -0.07675430207160344,
            "shoulder_pan_joint": -1.1188671864651873,
            "wrist_1_joint": 0.42560062535961957,
            "wrist_2_joint": 1.5706038300724876,
            "wrist_3_joint": 1.1188968870953055
        }
    },
    "waypoints": [
        {
            "positions": [
                -1.1188671864651873,
                -0.07675430207160344,
                -1.919643507792019,
                0.42560062535961957,
                1.5706038300724876,
                1.1188968870953055
            ]
        },
        {
            "positions": [
                -1.072895025801864,
                -0.11570660495787911,
                -1.7762669296761522,
                0.38411533184008767,
                1.516916718220981,
                1.1893383835594422
            ]
        },
        {
            "positions": [
                -1.0269228651385403,
                -0.15465890784415479,
                -1.6328903515602853,
                0.3426300383205558,
                1.4632296063694743,
                1.259779880023579
            ]
        },
        {
            "positions": [
                -0.9809507044752168,
                -0.19361121073043047,
                -1.4895137734444184,
                0.3011447448010238,
                1.4095424945179678,
                1.330221376487716
            ]
        },
        {
            "positions": [
                -0.9349785438118934,
                -0.23256351361670613,
                -1.3461371953285517,
                0.2596594512814919,
                1.3558553826664612,
                1.4006628729518527
            ]
        },
        {
            "positions": [
                -0.8890063831485698,
                -0.2715158165029818,
                -1.2027606172126846,
                0.21817415776196003,
                1.3021682708149545,
                1.4711043694159893
            ]
        },
        {
            "positions": [
                -0.8430342224852463,
                -0.31046811938925745,
                -1.0593840390968179,
                0.17668886424242813,
                1.248481158963448,
                1.5415458658801262
            ]
        },
        {
            "positions": [
                -0.7970620618219229,
                -0.34942042227553316,
                -0.916007460980951,
                0.13520357072289624,
                1.1947940471119414,
                1.611987362344263
            ]
        },
        {
            "positions": [
                -0.7510899011585994,
                -0.3883727251618088,
                -0.7726308828650841,
                0.09371827720336434,
                1.1411069352604346,
                1.6824288588083998
            ]
        },
        {
            "positions": [
                -0.7051177404952759,
                -0.4273250280480845,
                -0.6292543047492172,
                0.05223298368383239,
                1.087419823408928,
                1.7528703552725364
            ]
        },
        {
            "positions": [
                -0.6591455798319523,
                -0.46627733093436013,
                -0.48587772663335027,
                0.010747690164300494,
                1.0337327115574215,
                1.8233118517366733
            ]
        },
        {
            "positions": [
                -0.6131734191686289,
                -0.5052296338206358,
                -0.34250114851748337,
                -0.030737603355231402,
                0.9800455997059148,
                1.8937533482008102
            ]
        },
        {
            "positions": [
                -0.5672012585053053,
                -0.5441819367069115,
                -0.19912457040161646,
                -0.0722228968747633,
                0.9263584878544081,
                1.9641948446649469
            ]
        },
        {
            "positions": [
                -0.5212290978419819,
                -0.5831342395931871,
                -0.05574799228574956,
                -0.1137081903942952,
                0.8726713760029016,
                2.0346363411290835
            ]
        },
        {
            "positions": [
                -0.47525693717865836,
                -0.6220865424794628,
                0.08762858583011712,
                -0.1551934839138271,
                0.8189842641513949,
                2.10507783759322
            ]
        },
        {
            "positions": [
                -0.4292847765153348,
                -0.6610388453657385,
                0.23100516394598425,
                -0.1966787774333591,
                0.7652971522998883,
                2.1755193340573573
            ]
        },
        {
            "positions": [
                -0.3833126158520114,
                -0.6999911482520143,
                0.37438174206185093,
                -0.23816407095289088,
                0.7116100404483817,
                2.245960830521494
            ]
        },
        {
            "positions": [
                -0.3373404551886878,
                -0.73894345113829,
                0.5177583201777181,
                -0.2796493644724229,
                0.657922928596875,
                2.3164023269856306
            ]
        },
        {
            "positions": [
                -0.2913682945253644,
                -0.7778957540245655,
                0.6611348982935847,
                -0.3211346579919548,
                0.6042358167453684,
                2.3868438234497678
            ]
        },
        {
            "positions": [
                -0.24539613386204084,
                -0.8168480569108412,
                0.8045114764094519,
                -0.3626199515114867,
                0.5505487048938618,
                2.4572853199139044
            ]
        },
        {
            "positions": [
                -0.1994239731987174,
                -0.8558003597971169,
                0.9478880545253185,
                -0.4041052450310186,
                0.4968615930423552,
                2.527726816378041
            ]
        },
        {
            "positions": [
                -0.15345181253539375,
                -0.8947526626833926,
                1.0912646326411857,
                -0.4455905385505505,
                0.44317448119084846,
                2.598168312842178
            ]
        },
        {
            "positions": [
                -0.10747965187207043,
                -0.9337049655696681,
                1.2346412107570524,
                -0.48707583207008237,
                0.3894873693393419,
                2.6686098093063144
            ]
        },
        {
            "positions": [
                -0.06150749120874677,
                -0.972657268455944,
                1.3780177888729195,
                -0.5285611255896143,
                0.33580025748783515,
                2.7390513057704515
            ]
        },
        {
            "positions": [
                -0.015535330545423331,
                -1.0116095713422195,
                1.5213943669887862,
                -0.5700464191091461,
                0.2821131456363286,
                2.809492802234588
            ]
        },
        {
            "positions": [
                0.030436830117900104,
                -1.0505618742284952,
                1.6647709451046533,
                -0.6115317126286781,
                0.22842603378482207,
                2.879934298698725
            ]
        },
        {
            "positions": [
                0.07640899078122354,
                -1.089514177114771,
                1.80814752322052,
                -0.6530170061482099,
                0.17473892193331553,
                2.950375795162862
            ]
        },
        {
            "positions": [
                0.12238115144454728,
                -1.1284664800010467,
                1.9515241013363869,
                -0.694502299667742,
                0.1210518100818087,
                3.0208172916269986
            ]
        }
    ]
}