{
    "goal": {
        "global_pose": {
            "orientation": {
                "w": 0.5084816217422485,
                "x": -0.49083608388900757,
                "y": 0.5182115435600281,
                "z": -0.4816462993621826
            },
            "position": {
                "x": 0.5540239810943604,
                "y": 0.030875300988554955,
                "z": 0.16403168439865112
            }
        },
        "name": "move_to_storage_A"
    },
    "id": "PRMstar_move_to_storage_A_116",
    "joint_names": [
        "shoulder_pan_joint",
        "shoulder_lift_joint",
        "elbow_joint",
        "wrist_1_joint",
        "wrist_2_joint",
        "wrist_3_joint"
    ],
    "metrics": {
        "cart_traj_len": 0.3523568837412189,
        "distance_elbow_joint": 0.44740036228362445,
        "distance_shoulder_lift_joint": 0.23436659912430646,
        "distance_shoulder_pan_joint": 0.4579497798786523,
        "distance_wrist_1_joint": 0.2339804139354701,
        "distance_wrist_2_joint": 1.1091272183729026,
        "distance_wrist_3_joint": 0.09555179118098556,
        "smoothness": 4.440892133664971e-16,
        "time": 5.006729312,
        "traj_len": 1.6057322830334892,
        "weighted_distance": 2.027951522952727
    },
    "planner": "PRMstar",
    "start": {
        "state": {
            "elbow_joint": 1.9715463870305268,
            "shoulder_lift_joint": -1.1394903361783484,
            "shoulder_pan_joint": 0.12281147578464417,
            "wrist_1_joint": -0.7804599489681411,
            "wrist_2_joint": 0.12958660307563738,
            "wrist_3_joint": -3.1924946282119055
        }
    },
    "waypoints": [
        {
            "positions": [
                0.12281147578464417,
                -1.1394903361783484,
                1.9715463870305268,
                -0.7804599489681411,
                0.12958660307563738,
                -3.1924946282119055
            ]
        },
        {
            "positions": [
                0.05739007865912242,
                -1.172971278910392,
                2.035460724499616,
                -0.8138857223874939,
                0.28803334855748064,
                -3.1788443723289075
            ]
        },
        {
            "positions": [
                -0.008031318466399331,
                -1.206452221642436,
                2.099375061968705,
                -0.8473114958068468,
                0.44648009403932387,
                -3.16519411644591
            ]
        },
        {
            "positions": [
                -0.07345271559192108,
                -1.2399331643744798,
                2.163289399437794,
                -0.8807372692261997,
                0.6049268395211671,
                -3.151543860562912
            ]
        },
        {
            "positions": [
                -0.13887411271744282,
                -1.2734141071065235,
                2.2272037369068833,
                -0.9141630426455526,
                0.7633735850030103,
                -3.1378936046799137
            ]
        },
        {
            "positions": [
                -0.20429550984296463,
                -1.3068950498385674,
                2.291118074375973,
                -0.9475888160649054,
                0.9218203304848536,
                -3.1242433487969157
            ]
        },
        {
            "positions": [
                -0.2697169069684863,
                -1.3403759925706111,
                2.355032411845062,
                -0.9810145894842583,
                1.0802670759666968,
                -3.110593092913918
            ]
        },
        {
            "positions": [
                -0.33513830409400813,
                -1.3738569353026548,
                2.418946749314151,
                -1.0144403629036112,
                1.23871382144854,
                -3.09694283703092
            ]
        }
    ]
}