{
    "goal": {
        "global_pose": {
            "orientation": {
                "w": 0.7031023502349854,
                "x": -0.7110244035720825,
                "y": 0.007748599164187908,
                "z": 0.005598929710686207
            },
            "position": {
                "x": 0.11585023208521307,
                "y": 0.44412534475326537,
                "z": 0.3711530566215515
            }
        },
        "name": "move_to_auspresseinheit_A"
    },
    "id": "PRMstar_move_to_auspresseinheit_A_48",
    "joint_names": [
        "shoulder_pan_joint",
        "shoulder_lift_joint",
        "elbow_joint",
        "wrist_1_joint",
        "wrist_2_joint",
        "wrist_3_joint"
    ],
    "metrics": {
        "cart_traj_len": 1.785807511797287,
        "distance_elbow_joint": 1.3203446264250398,
        "distance_shoulder_lift_joint": 1.8653453511908227,
        "distance_shoulder_pan_joint": 4.519113591107882,
        "distance_wrist_1_joint": 5.539015238533485,
        "distance_wrist_2_joint": 0.5209498564227589,
        "distance_wrist_3_joint": 9.835417070780663,
        "smoothness": 0.5437267082152331,
        "time": 5.053927916999999,
        "traj_len": 4.858002236975674,
        "weighted_distance": 7.023601994061039
    },
    "planner": "PRMstar",
    "start": {
        "state": {
            "elbow_joint": 2.422574709923281,
            "shoulder_lift_joint": -1.3736533754116391,
            "shoulder_pan_joint": -0.33786336945926293,
            "wrist_1_joint": -1.0288603412921917,
            "wrist_2_joint": 1.2330224858903978,
            "wrist_3_joint": -3.094022268022082
        }
    },
    "waypoints": [
        {
            "positions": [
                -0.33786336945926293,
                -1.3736533754116391,
                2.422574709923281,
                -1.0288603412921917,
                1.2330224858903978,
                -3.094022268022082
            ]
        },
        {
            "positions": [
                -0.3938869995199552,
                -1.4123557133364946,
                2.4008263481116274,
                -0.9305105187411702,
                1.2195245553257286,
                -2.9359160407317355
            ]
        },
        {
            "positions": [
                -0.4499106295806475,
                -1.45105805126135,
                2.379077986299974,
                -0.8321606961901487,
                1.2060266247610594,
                -2.7778098134413884
            ]
        },
        {
            "positions": [
                -0.5059342596413398,
                -1.4897603891862052,
                2.3573296244883206,
                -0.733810873639127,
                1.1925286941963902,
                -2.619703586151042
            ]
        },
        {
            "positions": [
                -0.561957889702032,
                -1.5284627271110607,
                2.335581262676667,
                -0.6354610510881055,
                1.179030763631721,
                -2.4615973588606948
            ]
        },
        {
            "positions": [
                -0.6179815197627243,
                -1.5671650650359161,
                2.3138329008650134,
                -0.5371112285370838,
                1.165532833067052,
                -2.303491131570348
            ]
        },
        {
            "positions": [
                -0.6740051498234165,
                -1.6058674029607716,
                2.2920845390533597,
                -0.4387614059860623,
                1.1520349025023828,
                -2.145384904280001
            ]
        },
        {
            "positions": [
                -0.7300287798841087,
                -1.6445697408856268,
                2.270336177241706,
                -0.34041158343504074,
                1.1385369719377136,
                -1.9872786769896544
            ]
        },
        {
            "positions": [
                -0.7860524099448011,
                -1.6832720788104822,
                2.2485878154300525,
                -0.2420617608840192,
                1.1250390413730444,
                -1.8291724496993076
            ]
        },
        {
            "positions": [
                -0.8420760400054934,
                -1.7219744167353377,
                2.226839453618399,
                -0.14371193833299756,
                1.1115411108083753,
                -1.6710662224089605
            ]
        },
        {
            "positions": [
                -0.8980996700661856,
                -1.7606767546601931,
                2.2050910918067457,
                -0.04536211578197602,
                1.098043180243706,
                -1.512959995118614
            ]
        },
        {
            "positions": [
                -0.9541233001268778,
                -1.7993790925850486,
                2.183342729995092,
                0.05298770676904563,
                1.0845452496790369,
                -1.354853767828267
            ]
        },
        {
            "positions": [
                -1.01014693018757,
                -1.838081430509904,
                2.1615943681834384,
                0.15133752932006717,
                1.0710473191143677,
                -1.1967475405379202
            ]
        },
        {
            "positions": [
                -1.0661705602482625,
                -1.8767837684347595,
                2.139846006371785,
                0.2496873518710887,
                1.0575493885496985,
                -1.0386413132475734
            ]
        },
        {
            "positions": [
                -1.1221941903089547,
                -1.9154861063596147,
                2.118097644560131,
                0.34803717442211024,
                1.0440514579850293,
                -0.8805350859572267
            ]
        },
        {
            "positions": [
                -1.178217820369647,
                -1.9541884442844701,
                2.0963492827484775,
                0.446386996973132,
                1.03055352742036,
                -0.7224288586668797
            ]
        },
        {
            "positions": [
                -1.2342414504303392,
                -1.9928907822093256,
                2.0746009209368244,
                0.5447368195241533,
                1.0170555968556911,
                -0.564322631376533
            ]
        },
        {
            "positions": [
                -1.2902650804910314,
                -2.031593120134181,
                2.0528525591251707,
                0.6430866420751749,
                1.003557666291022,
                -0.4062164040861864
            ]
        },
        {
            "positions": [
                -1.3462887105517238,
                -2.0702954580590363,
                2.031104197313517,
                0.7414364646261966,
                0.9900597357263526,
                -0.2481101767958389
            ]
        },
        {
            "positions": [
                -1.402312340612416,
                -2.1089977959838917,
                2.0093558355018635,
                0.8397862871772181,
                0.9765618051616836,
                -0.09000394950549229
            ]
        },
        {
            "positions": [
                -1.4583359706731083,
                -2.147700133908747,
                1.9876074736902098,
                0.9381361097282397,
                0.9630638745970144,
                0.06810227778485434
            ]
        },
        {
            "positions": [
                -1.5143596007338005,
                -2.1864024718336026,
                1.9658591118785564,
                1.0364859322792612,
                0.9495659440323452,
                0.22620850507520096
            ]
        },
        {
            "positions": [
                -1.570383230794493,
                -2.225104809758458,
                1.9441107500669028,
                1.134835754830283,
                0.936068013467676,
                0.38431473236554803
            ]
        },
        {
            "positions": [
                -1.6264068608551852,
                -2.2638071476833135,
                1.9223623882552494,
                1.2331855773813043,
                0.9225700829030068,
                0.5424209596558947
            ]
        },
        {
            "positions": [
                -1.6824304909158774,
                -2.3025094856081685,
                1.9006140264435958,
                1.331535399932326,
                0.9090721523383376,
                0.7005271869462417
            ]
        },
        {
            "positions": [
                -1.7384541209765696,
                -2.3412118235330244,
                1.8788656646319422,
                1.4298852224833474,
                0.8955742217736685,
                0.8586334142365883
            ]
        },
        {
            "positions": [
                -1.794477751037262,
                -2.3799141614578794,
                1.8571173028202885,
                1.5282350450343691,
                0.8820762912089993,
                1.0167396415269354
            ]
        },
        {
            "positions": [
                -1.8505013810979543,
                -2.4186164993827353,
                1.835368941008635,
                1.626584867585391,
                0.8685783606443301,
                1.174845868817282
            ]
        },
        {
            "positions": [
                -1.9065250111586465,
                -2.4573188373075903,
                1.8136205791969815,
                1.7249346901364122,
                0.8550804300796611,
                1.3329520961076287
            ]
        },
        {
            "positions": [
                -1.9625486412193387,
                -2.4960211752324457,
                1.791872217385328,
                1.8232845126874335,
                0.8415824995149919,
                1.4910583233979753
            ]
        },
        {
            "positions": [
                -2.018572271280031,
                -2.534723513157301,
                1.7701238555736745,
                1.9216343352384557,
                0.8280845689503227,
                1.6491645506883228
            ]
        },
        {
            "positions": [
                -2.0745959013407234,
                -2.5734258510821566,
                1.7483754937620208,
                2.019984157789477,
                0.8145866383856535,
                1.8072707779786694
            ]
        },
        {
            "positions": [
                -1.9818498660331758,
                -2.551240088564813,
                1.7699136741041468,
                1.9369784664744163,
                0.811169504755053,
                1.6427999771526725
            ]
        },
        {
            "positions": [
                -1.8891038307256285,
                -2.5290543260474694,
                1.7914518544462728,
                1.8539727751593555,
                0.8077523711244525,
                1.4783291763266755
            ]
        },
        {
            "positions": [
                -1.796357795418081,
                -2.506868563530126,
                1.8129900347883987,
                1.7709670838442948,
                0.804335237493852,
                1.3138583755006785
            ]
        },
        {
            "positions": [
                -1.7036117601105336,
                -2.4846828010127826,
                1.8345282151305247,
                1.687961392529234,
                0.8009181038632516,
                1.1493875746746816
            ]
        },
        {
            "positions": [
                -1.610865724802986,
                -2.462497038495439,
                1.8560663954726508,
                1.6049557012141733,
                0.797500970232651,
                0.9849167738486847
            ]
        },
        {
            "positions": [
                -1.5181196894954385,
                -2.4403112759780954,
                1.8776045758147768,
                1.5219500098991126,
                0.7940838366020505,
                0.8204459730226876
            ]
        },
        {
            "positions": [
                -1.4253736541878912,
                -2.418125513460752,
                1.8991427561569028,
                1.4389443185840518,
                0.79066670297145,
                0.6559751721966907
            ]
        },
        {
            "positions": [
                -1.3326276188803439,
                -2.3959397509434086,
                1.9206809364990287,
                1.355938627268991,
                0.7872495693408496,
                0.4915043713706939
            ]
        },
        {
            "positions": [
                -1.2398815835727963,
                -2.373753988426065,
                1.9422191168411547,
                1.2729329359539303,
                0.7838324357102491,
                0.32703357054469695
            ]
        },
        {
            "positions": [
                -1.147135548265249,
                -2.3515682259087214,
                1.9637572971832806,
                1.1899272446388696,
                0.7804153020796486,
                0.16256276971869998
            ]
        },
        {
            "positions": [
                -1.0543895129577014,
                -2.329382463391378,
                1.9852954775254066,
                1.1069215533238088,
                0.7769981684490481,
                -0.0019080311072969813
            ]
        },
        {
            "positions": [
                -0.9616434776501539,
                -2.3071967008740346,
                2.0068336578675328,
                1.023915862008748,
                0.7735810348184476,
                -0.16637883193329417
            ]
        },
        {
            "positions": [
                -0.8688974423426066,
                -2.285010938356691,
                2.0283718382096585,
                0.9409101706936873,
                0.7701639011878472,
                -0.3308496327592909
            ]
        },
        {
            "positions": [
                -0.776151407035059,
                -2.2628251758393474,
                2.0499100185517847,
                0.8579044793786266,
                0.7667467675572467,
                -0.4953204335852881
            ]
        },
        {
            "positions": [
                -0.6834053717275117,
                -2.240639413322004,
                2.0714481988939104,
                0.7748987880635658,
                0.7633296339266462,
                -0.6597912344112848
            ]
        },
        {
            "positions": [
                -0.5906593364199644,
                -2.2184536508046606,
                2.0929863792360366,
                0.6918930967485051,
                0.7599125002960456,
                -0.8242620352372816
            ]
        },
        {
            "positions": [
                -0.49791330111241683,
                -2.1962678882873172,
                2.1145245595781628,
                0.6088874054334443,
                0.7564953666654451,
                -0.9887328360632788
            ]
        },
        {
            "positions": [
                -0.4051672658048695,
                -2.1740821257699734,
                2.1360627399202885,
                0.5258817141183836,
                0.7530782330348447,
                -1.1532036368892755
            ]
        },
        {
            "positions": [
                -0.31242123049732196,
                -2.15189636325263,
                2.1576009202624147,
                0.44287602280332283,
                0.7496610994042442,
                -1.3176744377152727
            ]
        },
        {
            "positions": [
                -0.21967519518977463,
                -2.1297106007352866,
                2.1791391006045404,
                0.3598703314882621,
                0.7462439657736437,
                -1.4821452385412694
            ]
        },
        {
            "positions": [
                -0.12692915988222708,
                -2.107524838217943,
                2.2006772809466666,
                0.27686464017320134,
                0.7428268321430432,
                -1.6466160393672662
            ]
        },
        {
            "positions": [
                -0.034183124574679535,
                -2.0853390757005994,
                2.2222154612887923,
                0.1938589488581408,
                0.7394096985124428,
                -1.8110868401932634
            ]
        },
        {
            "positions": [
                0.05856291073286801,
                -2.063153313183256,
                2.2437536416309185,
                0.11085325754307962,
                0.7359925648818423,
                -1.9755576410192606
            ]
        },
        {
            "positions": [
                0.15130894604041556,
                -2.040967550665912,
                2.2652918219730447,
                0.027847566228019094,
                0.7325754312512418,
                -2.1400284418452578
            ]
        },
        {
            "positions": [
                0.24405498134796266,
                -2.018781788148569,
                2.2868300023151704,
                -0.055158125087041654,
                0.7291582976206412,
                -2.304499242671255
            ]
        },
        {
            "positions": [
                0.3368010166555102,
                -1.9965960256312254,
                2.3083681826572966,
                -0.1381638164021024,
                0.7257411639900407,
                -2.4689700434972512
            ]
        },
        {
            "positions": [
                0.42954705196305776,
                -1.974410263113882,
                2.3299063629994223,
                -0.22116950771716315,
                0.7223240303594403,
                -2.6334408443232484
            ]
        },
        {
            "positions": [
                0.5222930872706053,
                -1.9522245005965384,
                2.3514445433415485,
                -0.3041751990322239,
                0.7189068967288398,
                -2.7979116451492456
            ]
        },
        {
            "positions": [
                0.6150391225781524,
                -1.9300387380791948,
                2.3729827236836742,
                -0.38718089034728465,
                0.7154897630982393,
                -2.962382445975242
            ]
        },
        {
            "positions": [
                0.7077851578856998,
                -1.9078529755618514,
                2.3945209040258004,
                -0.47018658166234534,
                0.7120726294676388,
                -3.126853246801239
            ]
        }
    ]
}