{
    "goal": {
        "global_pose": {
            "orientation": {
                "w": -0.00223480608172531,
                "x": 0.0024358444001904467,
                "y": 0.7094548369677653,
                "z": -0.704743149386269
            },
            "position": {
                "x": 0.6205249238014221,
                "y": -0.6371506643295288,
                "z": 0.19426114857196808
            }
        },
        "name": "move_to_magneteinheit_B"
    },
    "id": "PRMstar_move_to_magneteinheit_B_142",
    "joint_names": [
        "shoulder_pan_joint",
        "shoulder_lift_joint",
        "elbow_joint",
        "wrist_1_joint",
        "wrist_2_joint",
        "wrist_3_joint"
    ],
    "metrics": {
        "cart_traj_len": 9.174547860603356,
        "distance_elbow_joint": 12.18162291406282,
        "distance_shoulder_lift_joint": 2.7846048415636897,
        "distance_shoulder_pan_joint": 4.915094812289567,
        "distance_wrist_1_joint": 3.9324047588079845,
        "distance_wrist_2_joint": 8.493418204584795,
        "distance_wrist_3_joint": 7.941548009902151,
        "smoothness": 0.6107077069956642,
        "time": 5.240531657,
        "traj_len": 6.344185806012545,
        "weighted_distance": 8.279952446989544
    },
    "planner": "PRMstar",
    "start": {
        "state": {
            "elbow_joint": 2.39358713078474,
            "shoulder_lift_joint": -1.908514104345545,
            "shoulder_pan_joint": 0.7066247066606129,
            "wrist_1_joint": -0.4678290933515497,
            "wrist_2_joint": 0.7096259083745334,
            "wrist_3_joint": -3.1358149277392293
        }
    },
    "waypoints": [
        {
            "positions": [
                0.7066247066606129,
                -1.908514104345545,
                2.39358713078474,
                -0.4678290933515497,
                0.7096259083745334,
                -3.1358149277392293
            ]
        },
        {
            "positions": [
                0.8042192356541162,
                -1.9084058107598816,
                2.4265584852400623,
                -0.5506698206899346,
                0.8247871212324173,
                -3.083199626337077
            ]
        },
        {
            "positions": [
                0.9018137646476196,
                -1.908297517174218,
                2.459529839695384,
                -0.6335105480283195,
                0.9399483340903012,
                -3.0305843249349245
            ]
        },
        {
            "positions": [
                0.9994082936411229,
                -1.9081892235885545,
                2.4925011941507065,
                -0.7163512753667045,
                1.055109546948185,
                -2.977969023532772
            ]
        },
        {
            "positions": [
                1.0970028226346262,
                -1.9080809300028911,
                2.5254725486060288,
                -0.7991920027050894,
                1.1702707598060689,
                -2.9253537221306196
            ]
        },
        {
            "positions": [
                1.1807230246060245,
                -1.9044130823355576,
                2.510072043473239,
                -0.8615159405966553,
                1.2688612827675803,
                -2.870784045327939
            ]
        },
        {
            "positions": [
                1.2644432265774228,
                -1.900745234668224,
                2.494671538340449,
                -0.9238398784882212,
                1.3674518057290914,
                -2.816214368525259
            ]
        },
        {
            "positions": [
                1.348163428548821,
                -1.8970773870008908,
                2.4792710332076595,
                -0.9861638163797871,
                1.4660423286906028,
                -2.7616446917225788
            ]
        },
        {
            "positions": [
                1.4318836305202194,
                -1.8934095393335573,
                2.4638705280748696,
                -1.048487754271353,
                1.5646328516521142,
                -2.7070750149198988
            ]
        },
        {
            "positions": [
                1.5156038324916177,
                -1.8897416916662237,
                2.4484700229420797,
                -1.110811692162919,
                1.6632233746136253,
                -2.6525053381172183
            ]
        },
        {
            "positions": [
                1.5632804671790979,
                -1.917064549377511,
                2.319538093351898,
                -1.0829823588880223,
                1.7142191193112541,
                -2.5419550170235428
            ]
        },
        {
            "positions": [
                1.610957101866578,
                -1.9443874070887983,
                2.1906061637617165,
                -1.0551530256131256,
                1.765214864008883,
                -2.431404695929867
            ]
        },
        {
            "positions": [
                1.6586337365540584,
                -1.9717102648000855,
                2.0616742341715346,
                -1.027323692338229,
                1.8162106087065117,
                -2.3208543748361916
            ]
        },
        {
            "positions": [
                1.7063103712415386,
                -1.9990331225113729,
                1.932742304581353,
                -0.9994943590633324,
                1.8672063534041405,
                -2.210304053742516
            ]
        },
        {
            "positions": [
                1.7539870059290188,
                -2.02635598022266,
                1.8038103749911711,
                -0.9716650257884358,
                1.9182020981017693,
                -2.09975373264884
            ]
        },
        {
            "positions": [
                1.801663640616499,
                -2.0536788379339472,
                1.6748784454009895,
                -0.9438356925135392,
                1.9691978427993981,
                -1.9892034115551644
            ]
        },
        {
            "positions": [
                1.8493402753039794,
                -2.0810016956452344,
                1.5459465158108077,
                -0.9160063592386425,
                2.020193587497027,
                -1.8786530904614889
            ]
        },
        {
            "positions": [
                1.8970169099914593,
                -2.108324553356522,
                1.4170145862206263,
                -0.8881770259637459,
                2.0711893321946557,
                -1.7681027693678133
            ]
        },
        {
            "positions": [
                1.9446935446789397,
                -2.135647411067809,
                1.2880826566304444,
                -0.8603476926888493,
                2.1221850768922845,
                -1.6575524482741377
            ]
        },
        {
            "positions": [
                1.99237017936642,
                -2.1629702687790964,
                1.1591507270402626,
                -0.8325183594139526,
                2.1731808215899133,
                -1.547002127180462
            ]
        },
        {
            "positions": [
                2.0400468140539,
                -2.1902931264903835,
                1.0302187974500812,
                -0.804689026139056,
                2.224176566287542,
                -1.4364518060867864
            ]
        },
        {
            "positions": [
                2.0877234487413805,
                -2.2176159842016707,
                0.9012868678598993,
                -0.7768596928641593,
                2.275172310985171,
                -1.3259014849931108
            ]
        },
        {
            "positions": [
                2.1354000834288605,
                -2.2449388419129583,
                0.7723549382697177,
                -0.7490303595892627,
                2.3261680556827997,
                -1.2153511638994352
            ]
        },
        {
            "positions": [
                2.183076718116341,
                -2.2722616996242455,
                0.6434230086795358,
                -0.721201026314366,
                2.3771638003804285,
                -1.1048008428057594
            ]
        },
        {
            "positions": [
                2.230753352803821,
                -2.2995845573355327,
                0.5144910790893542,
                -0.6933716930394694,
                2.4281595450780573,
                -0.9942505217120838
            ]
        },
        {
            "positions": [
                2.278429987491301,
                -2.32690741504682,
                0.3855591494991728,
                -0.6655423597645729,
                2.479155289775686,
                -0.8837002006184083
            ]
        },
        {
            "positions": [
                2.3261066221787816,
                -2.3542302727581075,
                0.2566272199089905,
                -0.6377130264896762,
                2.530151034473315,
                -0.7731498795247325
            ]
        },
        {
            "positions": [
                2.373783256866262,
                -2.3815531304693947,
                0.1276952903188091,
                -0.6098836932147795,
                2.5811467791709437,
                -0.6625995584310571
            ]
        },
        {
            "positions": [
                2.421459891553742,
                -2.408875988180682,
                -0.0012366392713722973,
                -0.582054359939883,
                2.6321425238685725,
                -0.5520492373373815
            ]
        },
        {
            "positions": [
                2.4691365262412224,
                -2.436198845891969,
                -0.1301685688615546,
                -0.5542250266649862,
                2.6831382685662013,
                -0.4414989162437055
            ]
        },
        {
            "positions": [
                2.5168131609287023,
                -2.4635217036032566,
                -0.259100498451736,
                -0.5263956933900896,
                2.73413401326383,
                -0.33094859515002994
            ]
        },
        {
            "positions": [
                2.5644897956161827,
                -2.4908445613145433,
                -0.3880324280419174,
                -0.49856636011519306,
                2.785129757961459,
                -0.22039827405635437
            ]
        },
        {
            "positions": [
                2.612166430303663,
                -2.518167419025831,
                -0.5169643576320997,
                -0.4707370268402963,
                2.8361255026590877,
                -0.1098479529626788
            ]
        },
        {
            "positions": [
                2.659843064991143,
                -2.545490276737118,
                -0.6458962872222811,
                -0.4429076935653997,
                2.8871212473567165,
                0.0007023681309967778
            ]
        },
        {
            "positions": [
                2.6150235935540826,
                -2.513031295277866,
                -0.5236649284574707,
                -0.4406907886500796,
                2.70519114934511,
                0.011665200019256841
            ]
        },
        {
            "positions": [
                2.5702041221170218,
                -2.4805723138186133,
                -0.40143356969266025,
                -0.43847388373475943,
                2.523261051333504,
                0.022628031907516905
            ]
        },
        {
            "positions": [
                2.5253846506799613,
                -2.448113332359361,
                -0.2792022109278498,
                -0.4362569788194393,
                2.341330953321898,
                0.03359086379577697
            ]
        },
        {
            "positions": [
                2.4805651792429004,
                -2.4156543509001085,
                -0.1569708521630394,
                -0.4340400739041192,
                2.1594008553102917,
                0.04455369568403703
            ]
        },
        {
            "positions": [
                2.43574570780584,
                -2.3831953694408563,
                -0.034739493398228904,
                -0.431823168988799,
                1.9774707572986854,
                0.0555165275722971
            ]
        },
        {
            "positions": [
                2.390926236368779,
                -2.3507363879816037,
                0.08749186536658149,
                -0.4296062640734789,
                1.795540659287079,
                0.06647935946055716
            ]
        },
        {
            "positions": [
                2.3461067649317187,
                -2.3182774065223515,
                0.209723224131392,
                -0.4273893591581588,
                1.6136105612754728,
                0.07744219134881723
            ]
        },
        {
            "positions": [
                2.3012872934946578,
                -2.2858184250630993,
                0.3319545828962023,
                -0.4251724542428386,
                1.4316804632638667,
                0.08840502323707729
            ]
        },
        {
            "positions": [
                2.2564678220575973,
                -2.2533594436038467,
                0.4541859416610128,
                -0.4229555493275185,
                1.2497503652522604,
                0.09936785512533736
            ]
        },
        {
            "positions": [
                2.2116483506205364,
                -2.2209004621445945,
                0.5764173004258233,
                -0.4207386444121984,
                1.067820267240654,
                0.11033068701359743
            ]
        },
        {
            "positions": [
                2.166828879183476,
                -2.188441480685342,
                0.6986486591906336,
                -0.4185217394968782,
                0.885890169229048,
                0.12129351890185748
            ]
        },
        {
            "positions": [
                2.1220094077464156,
                -2.1559824992260896,
                0.8208800179554441,
                -0.4163048345815581,
                0.7039600712174416,
                0.13225635079011755
            ]
        },
        {
            "positions": [
                2.0771899363093547,
                -2.123523517766837,
                0.9431113767202544,
                -0.414087929666238,
                0.5220299732058358,
                0.1432191826783776
            ]
        },
        {
            "positions": [
                2.032370464872294,
                -2.091064536307585,
                1.065342735485065,
                -0.4118710247509178,
                0.340099875194229,
                0.1541820145666377
            ]
        },
        {
            "positions": [
                1.9875509934352333,
                -2.0586055548483326,
                1.1875740942498754,
                -0.4096541198355977,
                0.1581697771826227,
                0.16514484645489774
            ]
        },
        {
            "positions": [
                1.942731521998173,
                -2.02614657338908,
                1.3098054530146857,
                -0.40743721492027757,
                -0.02376032082898316,
                0.1761076783431578
            ]
        },
        {
            "positions": [
                1.897912050561112,
                -1.9936875919298276,
                1.4320368117794962,
                -0.4052203100049574,
                -0.20569041884058992,
                0.18707051023141788
            ]
        },
        {
            "positions": [
                1.8530925791240516,
                -1.9612286104705752,
                1.5542681705443067,
                -0.4030034050896373,
                -0.3876205168521958,
                0.19803334211967794
            ]
        },
        {
            "positions": [
                1.808273107686991,
                -1.928769629011323,
                1.6764995293091172,
                -0.40078650017431716,
                -0.5695506148638017,
                0.208996174007938
            ]
        },
        {
            "positions": [
                1.7634536362499302,
                -1.8963106475520703,
                1.7987308880739277,
                -0.398569595258997,
                -0.7514807128754084,
                0.21995900589619807
            ]
        },
        {
            "positions": [
                1.7186341648128696,
                -1.8638516660928182,
                1.9209622468387382,
                -0.39635269034367687,
                -0.9334108108870143,
                0.23092183778445813
            ]
        },
        {
            "positions": [
                1.673814693375809,
                -1.8313926846335657,
                2.0431936056035482,
                -0.39413578542835676,
                -1.1153409088986206,
                0.24188466967271818
            ]
        },
        {
            "positions": [
                1.6289952219387482,
                -1.7989337031743133,
                2.1654249643683587,
                -0.3919188805130366,
                -1.297271006910227,
                0.2528475015609783
            ]
        },
        {
            "positions": [
                1.5841757505016876,
                -1.766474721715061,
                2.2876563231331692,
                -0.38970197559771647,
                -1.4792011049218332,
                0.2638103334492383
            ]
        },
        {
            "positions": [
                1.6319667108883293,
                -1.7564969716276313,
                2.1280038505611305,
                -0.3260471704634183,
                -1.4382160001151683,
                0.3331093984019919
            ]
        },
        {
            "positions": [
                1.679757671274971,
                -1.7465192215402017,
                1.9683513779890918,
                -0.26239236532912014,
                -1.3972308953085033,
                0.40240846335474545
            ]
        },
        {
            "positions": [
                1.727548631661613,
                -1.736541471452772,
                1.808698905417053,
                -0.19873756019482192,
                -1.3562457905018386,
                0.47170752830749907
            ]
        },
        {
            "positions": [
                1.7753395920482549,
                -1.7265637213653424,
                1.6490464328450143,
                -0.13508275506052375,
                -1.3152606856951736,
                0.5410065932602526
            ]
        },
        {
            "positions": [
                1.8231305524348966,
                -1.716585971277913,
                1.4893939602729755,
                -0.07142794992622553,
                -1.2742755808885087,
                0.6103056582130062
            ]
        },
        {
            "positions": [
                1.8709215128215384,
                -1.7066082211904834,
                1.3297414877009368,
                -0.007773144791927367,
                -1.2332904760818437,
                0.6796047231657598
            ]
        },
        {
            "positions": [
                1.9187124732081802,
                -1.6966304711030538,
                1.170089015128898,
                0.0558816603423708,
                -1.1923053712751788,
                0.7489037881185134
            ]
        },
        {
            "positions": [
                1.9665034335948222,
                -1.6866527210156241,
                1.0104365425568593,
                0.11953646547666896,
                -1.1513202664685138,
                0.8182028530712669
            ]
        },
        {
            "positions": [
                2.014294393981464,
                -1.6766749709281945,
                0.8507840699848206,
                0.18319127061096718,
                -1.1103351616618489,
                0.8875019180240206
            ]
        },
        {
            "positions": [
                2.0620853543681057,
                -1.6666972208407649,
                0.6911315974127819,
                0.2468460757452654,
                -1.0693500568551841,
                0.9568009829767742
            ]
        },
        {
            "positions": [
                2.1098763147547475,
                -1.6567194707533353,
                0.5314791248407431,
                0.3105008808795636,
                -1.0283649520485192,
                1.026100047929528
            ]
        },
        {
            "positions": [
                2.1576672751413892,
                -1.6467417206659056,
                0.37182665226870437,
                0.37415568601386173,
                -0.9873798472418542,
                1.0953991128822813
            ]
        },
        {
            "positions": [
                2.205458235528031,
                -1.636763970578476,
                0.21217417969666563,
                0.43781049114815995,
                -0.9463947424351893,
                1.164698177835035
            ]
        },
        {
            "positions": [
                2.2532491959146728,
                -1.6267862204910464,
                0.05252170712462689,
                0.5014652962824581,
                -0.9054096376285244,
                1.2339972427877886
            ]
        },
        {
            "positions": [
                2.3010401563013145,
                -1.6168084704036167,
                -0.10713076544741185,
                0.5651201014167563,
                -0.8644245328218595,
                1.3032963077405422
            ]
        },
        {
            "positions": [
                2.3488311166879567,
                -1.6068307203161873,
                -0.2667832380194506,
                0.6287749065510544,
                -0.8234394280151945,
                1.3725953726932956
            ]
        },
        {
            "positions": [
                2.396622077074598,
                -1.5968529702287577,
                -0.4264357105914893,
                0.6924297116853526,
                -0.7824543232085297,
                1.4418944376460492
            ]
        },
        {
            "positions": [
                2.4444130374612403,
                -1.586875220141328,
                -0.5860881831635281,
                0.7560845168196508,
                -0.7414692184018646,
                1.5111935025988028
            ]
        },
        {
            "positions": [
                2.492203997847882,
                -1.5768974700538985,
                -0.7457406557355668,
                0.819739321953949,
                -0.7004841135951998,
                1.5804925675515564
            ]
        },
        {
            "positions": [
                2.539994958234524,
                -1.5669197199664688,
                -0.9053931283076055,
                0.8833941270882473,
                -0.659499008788535,
                1.64979163250431
            ]
        },
        {
            "positions": [
                2.5877859186211656,
                -1.5569419698790392,
                -1.0650456008796438,
                0.9470489322225453,
                -0.61851390398187,
                1.7190906974570634
            ]
        },
        {
            "positions": [
                2.6355768790078073,
                -1.5469642197916096,
                -1.224698073451683,
                1.0107037373568437,
                -0.577528799175205,
                1.7883897624098173
            ]
        },
        {
            "positions": [
                2.683367839394449,
                -1.53698646970418,
                -1.3843505460237218,
                1.0743585424911417,
                -0.5365436943685401,
                1.8576888273625707
            ]
        },
        {
            "positions": [
                2.731158799781091,
                -1.5270087196167503,
                -1.5440030185957605,
                1.13801334762544,
                -0.49555858956187526,
                1.9269878923153243
            ]
        },
        {
            "positions": [
                2.778949760167733,
                -1.517030969529321,
                -1.7036554911677988,
                1.2016681527597382,
                -0.4545734847552103,
                1.9962869572680777
            ]
        },
        {
            "positions": [
                2.8267407205543744,
                -1.5070532194418913,
                -1.863307963739838,
                1.2653229578940364,
                -0.41358837994854536,
                2.0655860222208315
            ]
        },
        {
            "positions": [
                2.8745316809410166,
                -1.4970754693544617,
                -2.0229604363118767,
                1.3289777630283346,
                -0.3726032751418804,
                2.1348850871735854
            ]
        },
        {
            "positions": [
                2.922322641327658,
                -1.487097719267032,
                -2.1826129088839155,
                1.3926325681626326,
                -0.3316181703352157,
                2.204184152126339
            ]
        },
        {
            "positions": [
                2.9701136017143,
                -1.4771199691796024,
                -2.342265381455954,
                1.4562873732969308,
                -0.2906330655285507,
                2.273483217079092
            ]
        },
        {
            "positions": [
                3.017904562100942,
                -1.4671422190921728,
                -2.501917854027993,
                1.519942178431229,
                -0.24964796072188578,
                2.342782282031846
            ]
        },
        {
            "positions": [
                3.0656955224875837,
                -1.4571644690047432,
                -2.6615703266000317,
                1.5835969835655272,
                -0.20866285591522082,
                2.4120813469845994
            ]
        },
        {
            "positions": [
                3.040402437019853,
                -1.5210243462598119,
                -2.5993459890797452,
                1.546408640798767,
                -0.16622146439537938,
                2.262478113535954
            ]
        },
        {
            "positions": [
                3.015109351552123,
                -1.5848842235148806,
                -2.5371216515594583,
                1.5092202980320066,
                -0.12378007287553795,
                2.1128748800873085
            ]
        },
        {
            "positions": [
                2.989816266084392,
                -1.6487441007699493,
                -2.474897314039172,
                1.4720319552652463,
                -0.08133868135569652,
                1.9632716466386633
            ]
        },
        {
            "positions": [
                2.964523180616662,
                -1.712603978025018,
                -2.4126729765188855,
                1.434843612498486,
                -0.03889728983585508,
                1.813668413190018
            ]
        },
        {
            "positions": [
                2.939230095148931,
                -1.7764638552800869,
                -2.350448638998599,
                1.3976552697317257,
                0.0035441016839863615,
                1.6640651797413728
            ]
        },
        {
            "positions": [
                2.913937009681201,
                -1.8403237325351556,
                -2.288224301478312,
                1.3604669269649654,
                0.045985493203827776,
                1.5144619462927273
            ]
        },
        {
            "positions": [
                2.8886439242134703,
                -1.9041836097902243,
                -2.2259999639580257,
                1.323278584198205,
                0.08842688472366922,
                1.364858712844082
            ]
        },
        {
            "positions": [
                2.86335083874574,
                -1.968043487045293,
                -2.1637756264377392,
                1.2860902414314448,
                0.13086827624351066,
                1.2152554793954367
            ]
        },
        {
            "positions": [
                2.8380577532780094,
                -2.0319033643003617,
                -2.1015512889174524,
                1.2489018986646845,
                0.1733096677633521,
                1.0656522459467914
            ]
        },
        {
            "positions": [
                2.8127646678102787,
                -2.0957632415554306,
                -2.039326951397166,
                1.2117135558979242,
                0.21575105928319355,
                0.916049012498146
            ]
        },
        {
            "positions": [
                2.7874715823425484,
                -2.159623118810499,
                -1.9771026138768795,
                1.1745252131311639,
                0.258192450803035,
                0.7664457790495005
            ]
        },
        {
            "positions": [
                2.7621784968748178,
                -2.223482996065568,
                -1.9148782763565928,
                1.1373368703644036,
                0.3006338423228764,
                0.6168425456008553
            ]
        },
        {
            "positions": [
                2.7368854114070875,
                -2.2873428733206365,
                -1.8526539388363061,
                1.1001485275976433,
                0.3430752338427179,
                0.46723931215221004
            ]
        },
        {
            "positions": [
                2.711592325939357,
                -2.3512027505757054,
                -1.7904296013160197,
                1.062960184830883,
                0.38551662536255926,
                0.31763607870356436
            ]
        },
        {
            "positions": [
                2.6862992404716266,
                -2.415062627830774,
                -1.7282052637957332,
                1.0257718420641226,
                0.42795801688240076,
                0.16803284525491913
            ]
        },
        {
            "positions": [
                2.661006155003896,
                -2.4789225050858428,
                -1.6659809262754466,
                0.9885834992973622,
                0.47039940840224215,
                0.01842961180627408
            ]
        }
    ]
}