{
    "goal": {
        "global_pose": {
            "orientation": {
                "w": -0.00223480608172531,
                "x": 0.0024358444001904467,
                "y": 0.7094548369677653,
                "z": -0.704743149386269
            },
            "position": {
                "x": 0.6205249238014221,
                "y": -0.6371506643295288,
                "z": 0.19426114857196808
            }
        },
        "name": "move_to_magneteinheit_B"
    },
    "id": "PRMstar_move_to_magneteinheit_B_35",
    "joint_names": [
        "shoulder_pan_joint",
        "shoulder_lift_joint",
        "elbow_joint",
        "wrist_1_joint",
        "wrist_2_joint",
        "wrist_3_joint"
    ],
    "metrics": {
        "cart_traj_len": 3.9056019040045693,
        "distance_elbow_joint": 5.833189394028202,
        "distance_shoulder_lift_joint": 1.6821836200940825,
        "distance_shoulder_pan_joint": 1.9529248392251088,
        "distance_wrist_1_joint": 3.453636152711344,
        "distance_wrist_2_joint": 7.109908715449697,
        "distance_wrist_3_joint": 4.043552132637202,
        "smoothness": 0.3240430530348443,
        "time": 5.2329716390000005,
        "traj_len": 4.906668406785365,
        "weighted_distance": 6.536516196536276
    },
    "planner": "PRMstar",
    "start": {
        "state": {
            "elbow_joint": 2.39358713078474,
            "shoulder_lift_joint": -1.908514104345545,
            "shoulder_pan_joint": 0.7066247066606129,
            "wrist_1_joint": -0.4678290933515497,
            "wrist_2_joint": 0.7096259083745334,
            "wrist_3_joint": -3.1358149277392293
        }
    },
    "waypoints": [
        {
            "positions": [
                0.7066247066606129,
                -1.908514104345545,
                2.39358713078474,
                -0.4678290933515497,
                0.7096259083745334,
                -3.1358149277392293
            ]
        },
        {
            "positions": [
                0.7534186171424558,
                -1.9527937642152073,
                2.3997900383133075,
                -0.5000324590854759,
                0.6970581685993121,
                -2.943644473539112
            ]
        },
        {
            "positions": [
                0.8002125276242986,
                -1.9970734240848698,
                2.405992945841875,
                -0.532235824819402,
                0.6844904288240908,
                -2.751474019338995
            ]
        },
        {
            "positions": [
                0.8470064381061415,
                -2.041353083954532,
                2.4121958533704424,
                -0.5644391905533281,
                0.6719226890488695,
                -2.5593035651388774
            ]
        },
        {
            "positions": [
                0.8874710813229874,
                -2.060109938663813,
                2.373383255814434,
                -0.5696445077512926,
                0.6664701935152995,
                -2.4350282250092974
            ]
        },
        {
            "positions": [
                0.9279357245398331,
                -2.0788667933730944,
                2.3345706582584262,
                -0.5748498249492571,
                0.6610176979817295,
                -2.310752884879717
            ]
        },
        {
            "positions": [
                0.9545728370573185,
                -2.06292700736013,
                2.1953741077351,
                -0.6005851635201317,
                0.5575295631582413,
                -2.231305960508298
            ]
        },
        {
            "positions": [
                0.9812099495748039,
                -2.046987221347166,
                2.0561775572117744,
                -0.6263205020910063,
                0.45404142833475325,
                -2.1518590361368792
            ]
        },
        {
            "positions": [
                1.0078470620922892,
                -2.0310474353342016,
                1.9169810066884483,
                -0.6520558406618809,
                0.3505532935112651,
                -2.07241211176546
            ]
        },
        {
            "positions": [
                1.0344841746097748,
                -2.015107649321237,
                1.7777844561651222,
                -0.6777911792327556,
                0.24706515868777695,
                -1.992965187394041
            ]
        },
        {
            "positions": [
                1.0611212871272602,
                -1.999167863308273,
                1.6385879056417965,
                -0.7035265178036302,
                0.14357702386428883,
                -1.9135182630226222
            ]
        },
        {
            "positions": [
                1.0877583996447455,
                -1.9832280772953088,
                1.4993913551184703,
                -0.7292618563745048,
                0.04008888904080066,
                -1.834071338651203
            ]
        },
        {
            "positions": [
                1.1143955121622309,
                -1.9672882912823444,
                1.3601948045951442,
                -0.7549971949453795,
                -0.06339924578268752,
                -1.754624414279784
            ]
        },
        {
            "positions": [
                1.1410326246797164,
                -1.9513485052693802,
                1.2209982540718183,
                -0.7807325335162542,
                -0.16688738060617558,
                -1.6751774899083651
            ]
        },
        {
            "positions": [
                1.1676697371972018,
                -1.935408719256416,
                1.0818017035484924,
                -0.8064678720871288,
                -0.27037551542966365,
                -1.5957305655369463
            ]
        },
        {
            "positions": [
                1.1943068497146871,
                -1.9194689332434516,
                0.9426051530251665,
                -0.8322032106580033,
                -0.3738636502531518,
                -1.5162836411655274
            ]
        },
        {
            "positions": [
                1.2209439622321727,
                -1.9035291472304874,
                0.8034086025018403,
                -0.857938549228878,
                -0.47735178507664,
                -1.4368367167941083
            ]
        },
        {
            "positions": [
                1.247581074749658,
                -1.8875893612175232,
                0.6642120519785142,
                -0.8836738877997526,
                -0.5808399199001282,
                -1.3573897924226892
            ]
        },
        {
            "positions": [
                1.2742181872671434,
                -1.8716495752045588,
                0.5250155014551883,
                -0.9094092263706273,
                -0.6843280547236164,
                -1.2779428680512703
            ]
        },
        {
            "positions": [
                1.300855299784629,
                -1.8557097891915946,
                0.38581895093186214,
                -0.935144564941502,
                -0.7878161895471045,
                -1.1984959436798512
            ]
        },
        {
            "positions": [
                1.3274924123021141,
                -1.8397700031786304,
                0.24662240040853645,
                -0.9608799035123765,
                -0.8913043243705925,
                -1.1190490193084324
            ]
        },
        {
            "positions": [
                1.3541295248195997,
                -1.823830217165666,
                0.10742584988521031,
                -0.9866152420832512,
                -0.9947924591940807,
                -1.0396020949370135
            ]
        },
        {
            "positions": [
                1.380766637337085,
                -1.8078904311527018,
                -0.03177070063811582,
                -1.0123505806541258,
                -1.0982805940175688,
                -0.9601551705655944
            ]
        },
        {
            "positions": [
                1.4074037498545704,
                -1.7919506451397376,
                -0.1709672511614415,
                -1.0380859192250003,
                -1.2017687288410568,
                -0.8807082461941755
            ]
        },
        {
            "positions": [
                1.434040862372056,
                -1.7760108591267731,
                -0.31016380168476765,
                -1.063821257795875,
                -1.305256863664545,
                -0.8012613218227567
            ]
        },
        {
            "positions": [
                1.4606779748895413,
                -1.760071073113809,
                -0.44936035220809334,
                -1.0895565963667497,
                -1.4087449984880331,
                -0.7218143974513376
            ]
        },
        {
            "positions": [
                1.4873150874070267,
                -1.7441312871008445,
                -0.5885569027314195,
                -1.1152919349376242,
                -1.512233133311521,
                -0.6423674730799187
            ]
        },
        {
            "positions": [
                1.5139521999245122,
                -1.7281915010878803,
                -0.7277534532547456,
                -1.141027273508499,
                -1.6157212681350095,
                -0.5629205487084996
            ]
        },
        {
            "positions": [
                1.5405893124419974,
                -1.712251715074916,
                -0.8669500037780717,
                -1.1667626120793737,
                -1.7192094029584974,
                -0.48347362433708074
            ]
        },
        {
            "positions": [
                1.567226424959483,
                -1.6963119290619517,
                -1.0061465543013979,
                -1.1924979506502482,
                -1.8226975377819858,
                -0.40402669996566165
            ]
        },
        {
            "positions": [
                1.5938635374769685,
                -1.6803721430489875,
                -1.1453431048247236,
                -1.2182332892211227,
                -1.9261856726054738,
                -0.32457977559424256
            ]
        },
        {
            "positions": [
                1.6205006499944536,
                -1.664432357036023,
                -1.2845396553480497,
                -1.2439686277919975,
                -2.029673807428962,
                -0.2451328512228237
            ]
        },
        {
            "positions": [
                1.6471377625119392,
                -1.648492571023059,
                -1.4237362058713758,
                -1.2697039663628722,
                -2.13316194225245,
                -0.16568592685140482
            ]
        },
        {
            "positions": [
                1.6737748750294248,
                -1.6325527850100947,
                -1.562932756394702,
                -1.2954393049337467,
                -2.2366500770759385,
                -0.0862390024799855
            ]
        },
        {
            "positions": [
                1.70041198754691,
                -1.6166129989971303,
                -1.7021293069180277,
                -1.3211746435046214,
                -2.3401382118994265,
                -0.006792078108566635
            ]
        },
        {
            "positions": [
                1.7270491000643955,
                -1.600673212984166,
                -1.8413258574413534,
                -1.346909982075496,
                -2.4436263467229145,
                0.07265484626285224
            ]
        },
        {
            "positions": [
                1.7536862125818808,
                -1.584733426971202,
                -1.980522407964679,
                -1.3726453206463707,
                -2.5471144815464024,
                0.1521017706342711
            ]
        },
        {
            "positions": [
                1.7803233250993662,
                -1.5687936409582375,
                -2.1197189584880056,
                -1.3983806592172452,
                -2.650602616369891,
                0.23154869500568998
            ]
        },
        {
            "positions": [
                1.8069604376168518,
                -1.5528538549452733,
                -2.2589155090113313,
                -1.42411599778812,
                -2.7540907511933788,
                0.31099561937710885
            ]
        },
        {
            "positions": [
                1.833597550134337,
                -1.536914068932309,
                -2.398112059534658,
                -1.4498513363589947,
                -2.857578886016867,
                0.39044254374852816
            ]
        },
        {
            "positions": [
                1.8602346626518225,
                -1.5209742829193447,
                -2.5373086100579836,
                -1.4755866749298692,
                -2.961067020840355,
                0.46988946811994703
            ]
        },
        {
            "positions": [
                1.894987483661992,
                -1.5624498664242483,
                -2.4996966010138935,
                -1.369244128358868,
                -2.8115358996997113,
                0.45085260999916327
            ]
        },
        {
            "positions": [
                1.9297403046721615,
                -1.603925449929152,
                -2.4620845919698033,
                -1.262901581787867,
                -2.6620047785590675,
                0.43181575187837945
            ]
        },
        {
            "positions": [
                1.964493125682331,
                -1.6454010334340554,
                -2.4244725829257128,
                -1.156559035216866,
                -2.5124736574184237,
                0.4127788937575957
            ]
        },
        {
            "positions": [
                1.9992459466925006,
                -1.686876616938959,
                -2.3868605738816226,
                -1.050216488645865,
                -2.36294253627778,
                0.39374203563681187
            ]
        },
        {
            "positions": [
                2.0339987677026703,
                -1.7283522004438627,
                -2.3492485648375325,
                -0.9438739420748639,
                -2.213411415137136,
                0.3747051775160281
            ]
        },
        {
            "positions": [
                2.0687515887128396,
                -1.7698277839487664,
                -2.3116365557934424,
                -0.8375313955038628,
                -2.063880293996492,
                0.35566831939524435
            ]
        },
        {
            "positions": [
                2.1035044097230093,
                -1.81130336745367,
                -2.2740245467493523,
                -0.7311888489328617,
                -1.914349172855848,
                0.33663146127446053
            ]
        },
        {
            "positions": [
                2.1382572307331786,
                -1.8527789509585735,
                -2.2364125377052617,
                -0.6248463023618607,
                -1.7648180517152043,
                0.3175946031536767
            ]
        },
        {
            "positions": [
                2.1730100517433484,
                -1.8942545344634771,
                -2.1988005286611716,
                -0.5185037557908596,
                -1.6152869305745603,
                0.29855774503289295
            ]
        },
        {
            "positions": [
                2.2077628727535177,
                -1.9357301179683808,
                -2.1611885196170815,
                -0.41216120921985855,
                -1.4657558094339165,
                0.2795208869121092
            ]
        },
        {
            "positions": [
                2.2425156937636874,
                -1.9772057014732844,
                -2.1235765105729913,
                -0.3058186626488575,
                -1.3162246882932727,
                0.2604840287913254
            ]
        },
        {
            "positions": [
                2.2772685147738567,
                -2.018681284978188,
                -2.085964501528901,
                -0.19947611607785642,
                -1.1666935671526288,
                0.2414471706705416
            ]
        },
        {
            "positions": [
                2.3120213357840265,
                -2.0601568684830918,
                -2.0483524924848107,
                -0.09313356950685536,
                -1.017162446011985,
                0.22241031254975782
            ]
        },
        {
            "positions": [
                2.3467741567941958,
                -2.1016324519879954,
                -2.0107404834407205,
                0.0132089770641457,
                -0.8676313248713408,
                0.20337345442897403
            ]
        },
        {
            "positions": [
                2.3815269778043655,
                -2.143108035492899,
                -1.9731284743966304,
                0.11955152363514676,
                -0.7181002037306974,
                0.18433659630819021
            ]
        },
        {
            "positions": [
                2.416279798814535,
                -2.1845836189978023,
                -1.93551646535254,
                0.22589407020614782,
                -0.5685690825900536,
                0.16529973818740645
            ]
        },
        {
            "positions": [
                2.4510326198247046,
                -2.2260592025027064,
                -1.89790445630845,
                0.33223661677714866,
                -0.41903796144940975,
                0.1462628800666227
            ]
        },
        {
            "positions": [
                2.4857854408348743,
                -2.2675347860076096,
                -1.8602924472643596,
                0.43857916334814995,
                -0.2695068403087655,
                0.12722602194583887
            ]
        },
        {
            "positions": [
                2.5205382618450436,
                -2.3090103695125133,
                -1.8226804382202695,
                0.544921709919151,
                -0.11997571916812166,
                0.10818916382505511
            ]
        },
        {
            "positions": [
                2.555291082855213,
                -2.350485953017417,
                -1.7850684291761794,
                0.6512642564901521,
                0.029555401972522155,
                0.0891523057042713
            ]
        },
        {
            "positions": [
                2.5900439038653826,
                -2.3919615365223206,
                -1.747456420132089,
                0.7576068030611531,
                0.17908652311316553,
                0.07011544758348753
            ]
        },
        {
            "positions": [
                2.6247967248755524,
                -2.4334371200272242,
                -1.7098444110879987,
                0.8639493496321542,
                0.3286176442538098,
                0.051078589462703716
            ]
        },
        {
            "positions": [
                2.6595495458857217,
                -2.474912703532128,
                -1.6722324020439086,
                0.9702918962031554,
                0.4781487653944535,
                0.03204173134191997
            ]
        }
    ]
}