{
    "goal": {
        "global_pose": {
            "orientation": {
                "w": -0.00223480608172531,
                "x": 0.0024358444001904467,
                "y": 0.7094548369677653,
                "z": -0.704743149386269
            },
            "position": {
                "x": 0.6205249238014221,
                "y": -0.6371506643295288,
                "z": 0.19426114857196808
            }
        },
        "name": "move_to_magneteinheit_B"
    },
    "id": "PRMstar_move_to_magneteinheit_B_58",
    "joint_names": [
        "shoulder_pan_joint",
        "shoulder_lift_joint",
        "elbow_joint",
        "wrist_1_joint",
        "wrist_2_joint",
        "wrist_3_joint"
    ],
    "metrics": {
        "cart_traj_len": 1.4534334590484337,
        "distance_elbow_joint": 0.7309853201086101,
        "distance_shoulder_lift_joint": 1.2483279812143828,
        "distance_shoulder_pan_joint": 1.6217497491204513,
        "distance_wrist_1_joint": 2.605831349912005,
        "distance_wrist_2_joint": 2.9370925029311383,
        "distance_wrist_3_joint": 3.140515002057299,
        "smoothness": 2.153159822383016e-16,
        "time": 5.0054472809999995,
        "traj_len": 3.50492537799935,
        "weighted_distance": 4.910036228206634
    },
    "planner": "PRMstar",
    "start": {
        "state": {
            "elbow_joint": 2.39358713078474,
            "shoulder_lift_joint": -1.908514104345545,
            "shoulder_pan_joint": 0.7066247066606129,
            "wrist_1_joint": -0.4678290933515497,
            "wrist_2_joint": 0.7096259083745334,
            "wrist_3_joint": -3.1358149277392293
        }
    },
    "waypoints": [
        {
            "positions": [
                0.7066247066606129,
                -1.908514104345545,
                2.39358713078474,
                -0.4678290933515497,
                0.7096259083745334,
                -3.1358149277392293
            ]
        },
        {
            "positions": [
                0.6559450270005989,
                -1.8695038549325955,
                2.370743839531346,
                -0.38639686366679954,
                0.6178417676579353,
                -3.0376738339249387
            ]
        },
        {
            "positions": [
                0.6052653473405847,
                -1.830493605519646,
                2.347900548277952,
                -0.3049646339820494,
                0.5260576269413373,
                -2.939532740110648
            ]
        },
        {
            "positions": [
                0.5545856676805706,
                -1.7914833561066965,
                2.325057257024558,
                -0.22353240429729926,
                0.4342734862247392,
                -2.8413916462963575
            ]
        },
        {
            "positions": [
                0.5039059880205565,
                -1.7524731066937471,
                2.302213965771164,
                -0.1421001746125491,
                0.34248934550814114,
                -2.743250552482067
            ]
        },
        {
            "positions": [
                0.45322630836054245,
                -1.7134628572807977,
                2.2793706745177698,
                -0.06066794492779892,
                0.25070520479154307,
                -2.6451094586677764
            ]
        },
        {
            "positions": [
                0.4025466287005283,
                -1.674452607867848,
                2.2565273832643755,
                0.02076428475695119,
                0.158921064074945,
                -2.5469683648534858
            ]
        },
        {
            "positions": [
                0.3518669490405142,
                -1.6354423584548987,
                2.2336840920109817,
                0.10219651444170136,
                0.06713692335834687,
                -2.448827271039195
            ]
        },
        {
            "positions": [
                0.3011872693805001,
                -1.5964321090419493,
                2.2108408007575875,
                0.18362874412645153,
                -0.02464721735825115,
                -2.3506861772249046
            ]
        },
        {
            "positions": [
                0.25050758972048603,
                -1.5574218596289997,
                2.1879975095041937,
                0.2650609738112017,
                -0.11643135807484917,
                -2.252545083410614
            ]
        },
        {
            "positions": [
                0.19982791006047196,
                -1.5184116102160503,
                2.1651542182507995,
                0.34649320349595186,
                -0.2082154987914473,
                -2.1544039895963234
            ]
        },
        {
            "positions": [
                0.14914823040045777,
                -1.479401360803101,
                2.142310926997405,
                0.42792543318070203,
                -0.2999996395080454,
                -2.056262895782033
            ]
        },
        {
            "positions": [
                0.0984685507404437,
                -1.4403911113901513,
                2.1194676357440114,
                0.5093576628654521,
                -0.39178378022464344,
                -1.9581218019677422
            ]
        },
        {
            "positions": [
                0.04778887108042962,
                -1.401380861977202,
                2.096624344490617,
                0.5907898925502024,
                -0.48356792094124146,
                -1.8599807081534516
            ]
        },
        {
            "positions": [
                -0.0028908085795845695,
                -1.3623706125642525,
                2.073781053237223,
                0.6722221222349525,
                -0.5753520616578397,
                -1.761839614339161
            ]
        },
        {
            "positions": [
                -0.053570488239598646,
                -1.323360363151303,
                2.050937761983829,
                0.7536543519197028,
                -0.6671362023744377,
                -1.6636985205248704
            ]
        },
        {
            "positions": [
                -0.10425016789961272,
                -1.2843501137383535,
                2.028094470730435,
                0.8350865816044528,
                -0.7589203430910357,
                -1.5655574267105798
            ]
        },
        {
            "positions": [
                -0.1549298475596268,
                -1.2453398643254041,
                2.005251179477041,
                0.9165188112892029,
                -0.8507044838076337,
                -1.4674163328962893
            ]
        },
        {
            "positions": [
                -0.20560952721964088,
                -1.2063296149124545,
                1.9824078882236469,
                0.9979510409739532,
                -0.9424886245242318,
                -1.3692752390819987
            ]
        },
        {
            "positions": [
                -0.25628920687965506,
                -1.167319365499505,
                1.9595645969702529,
                1.0793832706587032,
                -1.03427276524083,
                -1.271134145267708
            ]
        },
        {
            "positions": [
                -0.30696888653966903,
                -1.1283091160865557,
                1.9367213057168589,
                1.1608155003434535,
                -1.126056905957428,
                -1.1729930514534175
            ]
        },
        {
            "positions": [
                -0.3576485661996832,
                -1.089298866673606,
                1.9138780144634646,
                1.2422477300282035,
                -1.217841046674026,
                -1.0748519576391269
            ]
        },
        {
            "positions": [
                -0.4083282458596974,
                -1.0502886172606567,
                1.8910347232100706,
                1.3236799597129538,
                -1.3096251873906244,
                -0.9767108638248363
            ]
        },
        {
            "positions": [
                -0.45900792551971137,
                -1.0112783678477073,
                1.8681914319566766,
                1.4051121893977039,
                -1.4014093281072224,
                -0.8785697700105457
            ]
        },
        {
            "positions": [
                -0.5096876051797256,
                -0.9722681184347578,
                1.8453481407032826,
                1.486544419082454,
                -1.4931934688238204,
                -0.7804286761962551
            ]
        },
        {
            "positions": [
                -0.5603672848397397,
                -0.9332578690218083,
                1.8225048494498886,
                1.5679766487672042,
                -1.5849776095404184,
                -0.6822875823819645
            ]
        },
        {
            "positions": [
                -0.6110469644997537,
                -0.8942476196088589,
                1.7996615581964943,
                1.6494088784519545,
                -1.6767617502570165,
                -0.5841464885676739
            ]
        },
        {
            "positions": [
                -0.6617266441597679,
                -0.8552373701959095,
                1.7768182669431003,
                1.7308411081367043,
                -1.7685458909736145,
                -0.48600539475338334
            ]
        },
        {
            "positions": [
                -0.7124063238197821,
                -0.8162271207829599,
                1.7539749756897063,
                1.8122733378214546,
                -1.860330031690213,
                -0.38786430093909274
            ]
        },
        {
            "positions": [
                -0.763086003479796,
                -0.7772168713700105,
                1.731131684436312,
                1.893705567506205,
                -1.952114172406811,
                -0.28972320712480215
            ]
        },
        {
            "positions": [
                -0.8137656831398102,
                -0.7382066219570611,
                1.7082883931829183,
                1.9751377971909552,
                -2.043898313123409,
                -0.19158211331051156
            ]
        },
        {
            "positions": [
                -0.8644453627998242,
                -0.6991963725441115,
                1.685445101929524,
                2.056570026875705,
                -2.135682453840007,
                -0.09344101949622097
            ]
        },
        {
            "positions": [
                -0.9151250424598383,
                -0.660186123131162,
                1.66260181067613,
                2.1380022565604553,
                -2.227466594556605,
                0.004700074318069845
            ]
        }
    ]
}