{
    "goal": {
        "global_pose": {
            "orientation": {
                "w": 0.5084816217422485,
                "x": -0.49083608388900757,
                "y": 0.5182115435600281,
                "z": -0.4816462993621826
            },
            "position": {
                "x": 0.5540239810943604,
                "y": 0.030875300988554955,
                "z": 0.16403168439865112
            }
        },
        "name": "move_to_storage_A"
    },
    "id": "PRMstar_move_to_storage_A_61",
    "joint_names": [
        "shoulder_pan_joint",
        "shoulder_lift_joint",
        "elbow_joint",
        "wrist_1_joint",
        "wrist_2_joint",
        "wrist_3_joint"
    ],
    "metrics": {
        "cart_traj_len": 0.3533932869106172,
        "distance_elbow_joint": 0.447888235707095,
        "distance_shoulder_lift_joint": 0.23494071383855264,
        "distance_shoulder_pan_joint": 0.4589889630913743,
        "distance_wrist_1_joint": 0.2362913020017977,
        "distance_wrist_2_joint": 1.1126407755964085,
        "distance_wrist_3_joint": 0.09327741537745071,
        "smoothness": 1.3322676330666221e-15,
        "time": 5.0046529,
        "traj_len": 1.607491028159311,
        "weighted_distance": 2.0296586693249155
    },
    "planner": "PRMstar",
    "start": {
        "state": {
            "elbow_joint": 1.9715463870305268,
            "shoulder_lift_joint": -1.1394903361783484,
            "shoulder_pan_joint": 0.12281147578464417,
            "wrist_1_joint": -0.7804599489681411,
            "wrist_2_joint": 0.12958660307563738,
            "wrist_3_joint": -3.1924946282119055
        }
    },
    "waypoints": [
        {
            "positions": [
                0.12281147578464417,
                -1.1394903361783484,
                1.9715463870305268,
                -0.7804599489681411,
                0.12958660307563738,
                -3.1924946282119055
            ]
        },
        {
            "positions": [
                0.05724162391444784,
                -1.1730532952981416,
                2.035530420702969,
                -0.8142158492541122,
                0.28853528530369577,
                -3.179169283157984
            ]
        },
        {
            "positions": [
                -0.008328227955748488,
                -1.2066162544179349,
                2.099514454375411,
                -0.8479717495400833,
                0.4474839675317541,
                -3.1658439381040626
            ]
        },
        {
            "positions": [
                -0.0738980798259448,
                -1.240179213537728,
                2.1634984880478534,
                -0.8817276498260543,
                0.6064326497598125,
                -3.152518593050141
            ]
        },
        {
            "positions": [
                -0.13946793169614113,
                -1.2737421726575213,
                2.227482521720295,
                -0.9154835501120255,
                0.7653813319878708,
                -3.1391932479962192
            ]
        },
        {
            "positions": [
                -0.2050377835663375,
                -1.3073051317773146,
                2.2914665553927374,
                -0.9492394503979966,
                0.9243300142159292,
                -3.1258679029422978
            ]
        },
        {
            "positions": [
                -0.27060763543653377,
                -1.3408680908971078,
                2.3554505890651796,
                -0.9829953506839677,
                1.0832786964439876,
                -3.1125425578883763
            ]
        },
        {
            "positions": [
                -0.33617748730673014,
                -1.374431050016901,
                2.4194346227376218,
                -1.0167512509699388,
                1.242227378672046,
                -3.099217212834455
            ]
        }
    ]
}