{
    "goal": {
        "global_pose": {
            "orientation": {
                "w": 0.7031023502349854,
                "x": -0.7110244035720825,
                "y": 0.007748599164187908,
                "z": 0.005598929710686207
            },
            "position": {
                "x": 0.11585023208521307,
                "y": 0.44412534475326537,
                "z": 0.3711530566215515
            }
        },
        "name": "move_to_auspresseinheit_A"
    },
    "id": "PRMstar_move_to_auspresseinheit_A_69",
    "joint_names": [
        "shoulder_pan_joint",
        "shoulder_lift_joint",
        "elbow_joint",
        "wrist_1_joint",
        "wrist_2_joint",
        "wrist_3_joint"
    ],
    "metrics": {
        "cart_traj_len": 0.690694831308278,
        "distance_elbow_joint": 0.04374768457690115,
        "distance_shoulder_lift_joint": 0.532929492391278,
        "distance_shoulder_pan_joint": 1.042003558406455,
        "distance_wrist_1_joint": 0.5666681876127744,
        "distance_wrist_2_joint": 0.5304237164600178,
        "distance_wrist_3_joint": 0.182253625608074,
        "smoothness": 0.2317471301030244,
        "time": 5.008985298000001,
        "traj_len": 1.7023590294222604,
        "weighted_distance": 2.087971604295528
    },
    "planner": "PRMstar",
    "start": {
        "state": {
            "elbow_joint": 2.422574709923281,
            "shoulder_lift_joint": -1.3736533754116391,
            "shoulder_pan_joint": -0.33786336945926293,
            "wrist_1_joint": -1.0288603412921917,
            "wrist_2_joint": 1.2330224858903978,
            "wrist_3_joint": -3.094022268022082
        }
    },
    "waypoints": [
        {
            "positions": [
                -0.33786336945926293,
                -1.3736533754116391,
                2.422574709923281,
                -1.0288603412921917,
                1.2330224858903978,
                -3.094022268022082
            ]
        },
        {
            "positions": [
                -0.21515933467642073,
                -1.4255770550399203,
                2.4103874944468613,
                -0.9330067485355651,
                1.1437661343409746,
                -3.0718101523337253
            ]
        },
        {
            "positions": [
                -0.09245529989357854,
                -1.4775007346682016,
                2.3982002789704415,
                -0.8371531557789386,
                1.0545097827915515,
                -3.0495980366453685
            ]
        },
        {
            "positions": [
                0.030248734889263662,
                -1.5294244142964828,
                2.3860130634940218,
                -0.7412995630223119,
                0.9652534312421284,
                -3.0273859209570118
            ]
        },
        {
            "positions": [
                0.16502702570084934,
                -1.6048561049977697,
                2.38745027112355,
                -0.685478081153733,
                0.9127224988797786,
                -3.0505093766656124
            ]
        },
        {
            "positions": [
                0.299805316512435,
                -1.6802877956990565,
                2.3888874787530785,
                -0.629656599285154,
                0.860191566517429,
                -3.073632832374213
            ]
        },
        {
            "positions": [
                0.4345836073240207,
                -1.7557194864003434,
                2.390324686382607,
                -0.5738351174165751,
                0.8076606341550793,
                -3.096756288082814
            ]
        },
        {
            "positions": [
                0.5693618981356063,
                -1.8311511771016302,
                2.3917618940121352,
                -0.5180136355479962,
                0.7551297017927296,
                -3.1198797437914148
            ]
        },
        {
            "positions": [
                0.7041401889471921,
                -1.906582867802917,
                2.3931991016416636,
                -0.4621921536794173,
                0.7025987694303799,
                -3.1430031995000154
            ]
        }
    ]
}