{
    "goal": {
        "global_pose": {
            "orientation": {
                "w": 0.7031023502349854,
                "x": -0.7110244035720825,
                "y": 0.007748599164187908,
                "z": 0.005598929710686207
            },
            "position": {
                "x": 0.11585023208521307,
                "y": 0.44412534475326537,
                "z": 0.3711530566215515
            }
        },
        "name": "move_to_auspresseinheit_A"
    },
    "id": "PRMstar_move_to_auspresseinheit_A_110",
    "joint_names": [
        "shoulder_pan_joint",
        "shoulder_lift_joint",
        "elbow_joint",
        "wrist_1_joint",
        "wrist_2_joint",
        "wrist_3_joint"
    ],
    "metrics": {
        "cart_traj_len": 0.7179454464158512,
        "distance_elbow_joint": 0.24917766802678276,
        "distance_shoulder_lift_joint": 0.5920249959833708,
        "distance_shoulder_pan_joint": 1.0468225219434424,
        "distance_wrist_1_joint": 1.2222568745312246,
        "distance_wrist_2_joint": 0.5156392327883071,
        "distance_wrist_3_joint": 0.8238509384271313,
        "smoothness": 1.08848558039946,
        "time": 5.019956453,
        "traj_len": 2.109448324017505,
        "weighted_distance": 2.7991731307430863
    },
    "planner": "PRMstar",
    "start": {
        "state": {
            "elbow_joint": 2.422574709923281,
            "shoulder_lift_joint": -1.3736533754116391,
            "shoulder_pan_joint": -0.33786336945926293,
            "wrist_1_joint": -1.0288603412921917,
            "wrist_2_joint": 1.2330224858903978,
            "wrist_3_joint": -3.094022268022082
        }
    },
    "waypoints": [
        {
            "positions": [
                -0.33786336945926293,
                -1.3736533754116391,
                2.422574709923281,
                -1.0288603412921917,
                1.2330224858903978,
                -3.094022268022082
            ]
        },
        {
            "positions": [
                -0.26586384589087,
                -1.4439987756772383,
                2.404958813255054,
                -0.9164491598984726,
                1.1925699773987557,
                -3.045771451785032
            ]
        },
        {
            "positions": [
                -0.19386432232247702,
                -1.5143441759428375,
                2.387342916586827,
                -0.8040379785047537,
                1.1521174689071139,
                -2.997520635547981
            ]
        },
        {
            "positions": [
                -0.12186479875408407,
                -1.5846895762084368,
                2.3697270199186002,
                -0.6916267971110346,
                1.1116649604154718,
                -2.9492698193109304
            ]
        },
        {
            "positions": [
                -0.049865275185691116,
                -1.655034976474036,
                2.3521111232503733,
                -0.5792156157173156,
                1.07121245192383,
                -2.90101900307388
            ]
        },
        {
            "positions": [
                0.022134248382701838,
                -1.7253803767396352,
                2.3344952265821464,
                -0.46680443432359653,
                1.030759943432188,
                -2.8527681868368298
            ]
        },
        {
            "positions": [
                0.09413377195109479,
                -1.7957257770052344,
                2.3168793299139194,
                -0.35439325292987744,
                0.9903074349405458,
                -2.804517370599779
            ]
        },
        {
            "positions": [
                0.1661332955194877,
                -1.8660711772708336,
                2.2992634332456925,
                -0.24198207153615847,
                0.9498549264489039,
                -2.7562665543627283
            ]
        },
        {
            "positions": [
                0.23813281908788064,
                -1.9364165775364328,
                2.2816475365774656,
                -0.1295708901424394,
                0.909402417957262,
                -2.708015738125678
            ]
        },
        {
            "positions": [
                0.35583940243695533,
                -1.9291011290717885,
                2.308710160247707,
                -0.21031274598780744,
                0.8613976267434691,
                -2.81747684025836
            ]
        },
        {
            "positions": [
                0.47354598578603,
                -1.9217856806071443,
                2.335772783917949,
                -0.2910546018331755,
                0.8133928355296762,
                -2.9269379423910413
            ]
        },
        {
            "positions": [
                0.5912525691351047,
                -1.9144702321425,
                2.362835407588191,
                -0.3717964576785435,
                0.7653880443158835,
                -3.0363990445237232
            ]
        },
        {
            "positions": [
                0.7089591524841794,
                -1.9071547836778557,
                2.389898031258433,
                -0.4525383135239116,
                0.7173832531020906,
                -3.145860146656405
            ]
        }
    ]
}