{
    "goal": {
        "global_pose": {
            "orientation": {
                "w": -0.00223480608172531,
                "x": 0.0024358444001904467,
                "y": 0.7094548369677653,
                "z": -0.704743149386269
            },
            "position": {
                "x": 0.6205249238014221,
                "y": -0.6371506643295288,
                "z": 0.19426114857196808
            }
        },
        "name": "move_to_magneteinheit_B"
    },
    "id": "PRMstar_move_to_magneteinheit_B_127",
    "joint_names": [
        "shoulder_pan_joint",
        "shoulder_lift_joint",
        "elbow_joint",
        "wrist_1_joint",
        "wrist_2_joint",
        "wrist_3_joint"
    ],
    "metrics": {
        "cart_traj_len": 1.4525936493422433,
        "distance_elbow_joint": 0.7265444215272081,
        "distance_shoulder_lift_joint": 1.245941414653407,
        "distance_shoulder_pan_joint": 1.6211923449925094,
        "distance_wrist_1_joint": 2.6134096301537406,
        "distance_wrist_2_joint": 2.935897390542235,
        "distance_wrist_3_joint": 3.140420615389585,
        "smoothness": 5.382899510408464e-16,
        "time": 5.00404581,
        "traj_len": 3.504769010542447,
        "weighted_distance": 4.910555372738793
    },
    "planner": "PRMstar",
    "start": {
        "state": {
            "elbow_joint": 2.39358713078474,
            "shoulder_lift_joint": -1.908514104345545,
            "shoulder_pan_joint": 0.7066247066606129,
            "wrist_1_joint": -0.4678290933515497,
            "wrist_2_joint": 0.7096259083745334,
            "wrist_3_joint": -3.1358149277392293
        }
    },
    "waypoints": [
        {
            "positions": [
                0.7066247066606129,
                -1.908514104345545,
                2.39358713078474,
                -0.4678290933515497,
                0.7096259083745334,
                -3.1358149277392293
            ]
        },
        {
            "positions": [
                0.6559624458795971,
                -1.869578435137626,
                2.370882617612015,
                -0.3861600424092453,
                0.6178791149200886,
                -3.0376767835083047
            ]
        },
        {
            "positions": [
                0.6053001850985811,
                -1.8306427659297069,
                2.3481781044392895,
                -0.3044909914669409,
                0.5261323214656437,
                -2.93953863927738
            ]
        },
        {
            "positions": [
                0.5546379243175652,
                -1.791707096721788,
                2.3254735912665643,
                -0.22282194052463652,
                0.4343855280111989,
                -2.8414004950464555
            ]
        },
        {
            "positions": [
                0.5039756635365493,
                -1.752771427513869,
                2.302769078093839,
                -0.14115288958233213,
                0.34263873455675403,
                -2.7432623508155314
            ]
        },
        {
            "positions": [
                0.45331340275553333,
                -1.71383575830595,
                2.2800645649211138,
                -0.059483838640027764,
                0.25089194110230917,
                -2.645124206584607
            ]
        },
        {
            "positions": [
                0.40265114197451746,
                -1.6749000890980312,
                2.2573600517483885,
                0.022185212302276658,
                0.15914514764786436,
                -2.546986062353682
            ]
        },
        {
            "positions": [
                0.3519888811935015,
                -1.6359644198901122,
                2.2346555385756632,
                0.10385426324458108,
                0.06739835419341944,
                -2.4488479181227576
            ]
        },
        {
            "positions": [
                0.3013266204124856,
                -1.5970287506821932,
                2.211951025402938,
                0.18552331418688545,
                -0.024348439261025367,
                -2.350709773891833
            ]
        },
        {
            "positions": [
                0.25066435963146966,
                -1.5580930814742742,
                2.1892465122302127,
                0.2671923651291898,
                -0.11609523271547018,
                -2.252571629660909
            ]
        },
        {
            "positions": [
                0.20000209885045372,
                -1.5191574122663551,
                2.1665419990574875,
                0.3488614160714942,
                -0.2078420261699151,
                -2.1544334854299843
            ]
        },
        {
            "positions": [
                0.14933983806943785,
                -1.4802217430584363,
                2.143837485884762,
                0.43053046701379866,
                -0.29958881962436,
                -2.0562953411990597
            ]
        },
        {
            "positions": [
                0.09867757728842197,
                -1.4412860738505173,
                2.121132972712037,
                0.512199517956103,
                -0.3913356130788047,
                -1.958157196968135
            ]
        },
        {
            "positions": [
                0.04801531650740598,
                -1.4023504046425983,
                2.0984284595393117,
                0.5938685688984076,
                -0.48308240653324963,
                -1.8600190527372105
            ]
        },
        {
            "positions": [
                -0.002646944273609897,
                -1.3634147354346795,
                2.0757239463665864,
                0.6755376198407119,
                -0.5748291999876946,
                -1.7618809085062859
            ]
        },
        {
            "positions": [
                -0.053309205054625886,
                -1.3244790662267605,
                2.053019433193861,
                0.7572066707830163,
                -0.6665759934421392,
                -1.6637427642753615
            ]
        },
        {
            "positions": [
                -0.10397146583564176,
                -1.2855433970188415,
                2.030314920021136,
                0.8388757217253207,
                -0.7583227868965842,
                -1.565604620044437
            ]
        },
        {
            "positions": [
                -0.15463372661665764,
                -1.2466077278109224,
                2.0076104068484106,
                0.920544772667625,
                -0.8500695803510291,
                -1.4674664758135123
            ]
        },
        {
            "positions": [
                -0.20529598739767363,
                -1.2076720586030034,
                1.9849058936756854,
                1.0022138236099294,
                -0.9418163738054738,
                -1.369328331582588
            ]
        },
        {
            "positions": [
                -0.2559582481786895,
                -1.1687363893950846,
                1.9622013805029601,
                1.0838828745522338,
                -1.0335631672599188,
                -1.2711901873516633
            ]
        },
        {
            "positions": [
                -0.3066205089597055,
                -1.1298007201871656,
                1.9394968673302349,
                1.1655519254945381,
                -1.1253099607143637,
                -1.1730520431207387
            ]
        },
        {
            "positions": [
                -0.3572827697407214,
                -1.0908650509792466,
                1.9167923541575098,
                1.2472209764368427,
                -1.2170567541688082,
                -1.0749138988898141
            ]
        },
        {
            "positions": [
                -0.40794503052173725,
                -1.0519293817713278,
                1.8940878409847846,
                1.328890027379147,
                -1.3088035476232536,
                -0.9767757546588896
            ]
        },
        {
            "positions": [
                -0.45860729130275313,
                -1.0129937125634088,
                1.871383327812059,
                1.4105590783214514,
                -1.400550341077698,
                -0.8786376104279654
            ]
        },
        {
            "positions": [
                -0.509269552083769,
                -0.9740580433554897,
                1.848678814639334,
                1.4922281292637558,
                -1.492297134532143,
                -0.7804994661970408
            ]
        },
        {
            "positions": [
                -0.5599318128647851,
                -0.9351223741475707,
                1.8259743014666088,
                1.5738971802060604,
                -1.5840439279865879,
                -0.6823613219661162
            ]
        },
        {
            "positions": [
                -0.610594073645801,
                -0.8961867049396517,
                1.8032697882938835,
                1.6555662311483648,
                -1.6757907214410328,
                -0.5842231777351916
            ]
        },
        {
            "positions": [
                -0.6612563344268169,
                -0.8572510357317329,
                1.7805652751211583,
                1.7372352820906691,
                -1.7675375148954777,
                -0.486085033504267
            ]
        },
        {
            "positions": [
                -0.7119185952078327,
                -0.8183153665238139,
                1.757860761948433,
                1.8189043330329735,
                -1.8592843083499226,
                -0.3879468892733424
            ]
        },
        {
            "positions": [
                -0.7625808559888486,
                -0.7793796973158948,
                1.7351562487757077,
                1.9005733839752779,
                -1.9510311018043671,
                -0.28980874504241827
            ]
        },
        {
            "positions": [
                -0.8132431167698647,
                -0.740444028107976,
                1.7124517356029825,
                1.9822424349175822,
                -2.042777895258812,
                -0.19167060081149367
            ]
        },
        {
            "positions": [
                -0.8639053775508806,
                -0.701508358900057,
                1.6897472224302572,
                2.0639114858598866,
                -2.134524688713257,
                -0.09353245658056908
            ]
        },
        {
            "positions": [
                -0.9145676383318964,
                -0.6625726896921381,
                1.667042709257532,
                2.145580536802191,
                -2.226271482167702,
                0.004605687650355446
            ]
        }
    ]
}