{
    "goal": {
        "global_pose": {
            "orientation": {
                "w": 0.7031023502349854,
                "x": -0.7110244035720825,
                "y": 0.007748599164187908,
                "z": 0.005598929710686207
            },
            "position": {
                "x": 0.11585023208521307,
                "y": 0.44412534475326537,
                "z": 0.3711530566215515
            }
        },
        "name": "move_to_auspresseinheit_A"
    },
    "id": "PRMstar_move_to_auspresseinheit_A_61",
    "joint_names": [
        "shoulder_pan_joint",
        "shoulder_lift_joint",
        "elbow_joint",
        "wrist_1_joint",
        "wrist_2_joint",
        "wrist_3_joint"
    ],
    "metrics": {
        "cart_traj_len": 0.7085067871441314,
        "distance_elbow_joint": 0.17923197792857293,
        "distance_shoulder_lift_joint": 0.5372781657428107,
        "distance_shoulder_pan_joint": 1.0885225373421337,
        "distance_wrist_1_joint": 0.5534321222408394,
        "distance_wrist_2_joint": 0.5280196016654174,
        "distance_wrist_3_joint": 0.24242289900929404,
        "smoothness": 0.42030542485249345,
        "time": 5.017767371,
        "traj_len": 1.7688717601706088,
        "weighted_distance": 2.1668421321946627
    },
    "planner": "PRMstar",
    "start": {
        "state": {
            "elbow_joint": 2.422574709923281,
            "shoulder_lift_joint": -1.3736533754116391,
            "shoulder_pan_joint": -0.33786336945926293,
            "wrist_1_joint": -1.0288603412921917,
            "wrist_2_joint": 1.2330224858903978,
            "wrist_3_joint": -3.094022268022082
        }
    },
    "waypoints": [
        {
            "positions": [
                -0.33786336945926293,
                -1.3736533754116391,
                2.422574709923281,
                -1.0288603412921917,
                1.2330224858903978,
                -3.094022268022082
            ]
        },
        {
            "positions": [
                -0.3490619870823688,
                -1.5159992211278428,
                2.4604584068086317,
                -1.0282197792662418,
                1.117853971803938,
                -3.0402760321991718
            ]
        },
        {
            "positions": [
                -0.3602606047054747,
                -1.6583450668440465,
                2.4983421036939824,
                -1.027579217240292,
                1.0026854577174784,
                -2.986529796376261
            ]
        },
        {
            "positions": [
                -0.20795699012034308,
                -1.6944288488883898,
                2.4835614488142865,
                -0.9487005032133007,
                0.9601593757899787,
                -3.0058055717139
            ]
        },
        {
            "positions": [
                -0.055653375535211436,
                -1.7305126309327332,
                2.4687807939345903,
                -0.8698217891863093,
                0.9176332938624789,
                -3.0250813470515387
            ]
        },
        {
            "positions": [
                0.0966502390499202,
                -1.7665964129770766,
                2.4540001390548944,
                -0.7909430751593178,
                0.8751072119349792,
                -3.0443571223891777
            ]
        },
        {
            "positions": [
                0.24895385363505185,
                -1.8026801950214197,
                2.4392194841751986,
                -0.7120643611323265,
                0.8325811300074796,
                -3.063632897726817
            ]
        },
        {
            "positions": [
                0.4012574682201836,
                -1.8387639770657631,
                2.424438829295503,
                -0.6331856471053351,
                0.7900550480799798,
                -3.082908673064456
            ]
        },
        {
            "positions": [
                0.5535610828053151,
                -1.8748477591101065,
                2.4096581744158065,
                -0.5543069330783438,
                0.7475289661524801,
                -3.102184448402095
            ]
        },
        {
            "positions": [
                0.705864697390447,
                -1.9109315411544499,
                2.3948775195361107,
                -0.4754282190513523,
                0.7050028842249804,
                -3.1214602237397338
            ]
        }
    ]
}