{
    "goal": {
        "global_pose": {
            "orientation": {
                "w": 0.7047431468963623,
                "x": -0.7094548344612122,
                "y": 0.0024358443915843964,
                "z": -0.0022348060738295317
            },
            "position": {
                "x": 0.6094750761985779,
                "y": 0.3671506643295288,
                "z": 0.19426114857196808
            }
        },
        "name": "move_to_magneteinheit_A"
    },
    "id": "PRMstar_move_to_magneteinheit_A_115",
    "joint_names": [
        "shoulder_pan_joint",
        "shoulder_lift_joint",
        "elbow_joint",
        "wrist_1_joint",
        "wrist_2_joint",
        "wrist_3_joint"
    ],
    "metrics": {
        "cart_traj_len": 1.8722418145951052,
        "distance_elbow_joint": 3.9258963744661584,
        "distance_shoulder_lift_joint": 0.7072082564317133,
        "distance_shoulder_pan_joint": 1.2421077239774252,
        "distance_wrist_1_joint": 1.534869524947961,
        "distance_wrist_2_joint": 1.7105431044142128,
        "distance_wrist_3_joint": 1.1642072898490616,
        "smoothness": 2.631639764355545e-16,
        "time": 5.004399488,
        "traj_len": 3.206997392279347,
        "weighted_distance": 3.982293244243426
    },
    "planner": "PRMstar",
    "start": {
        "state": {
            "elbow_joint": -1.919643507792019,
            "shoulder_lift_joint": -0.07675430207160344,
            "shoulder_pan_joint": -1.1188671864651873,
            "wrist_1_joint": 0.42560062535961957,
            "wrist_2_joint": 1.5706038300724876,
            "wrist_3_joint": 1.1188968870953055
        }
    },
    "waypoints": [
        {
            "positions": [
                -1.1188671864651873,
                -0.07675430207160344,
                -1.919643507792019,
                0.42560062535961957,
                1.5706038300724876,
                1.1188968870953055
            ]
        },
        {
            "positions": [
                -1.0710938124660556,
                -0.10395461962666934,
                -1.7686474933894745,
                0.4846340686268488,
                1.504813710671941,
                1.0741196836395723
            ]
        },
        {
            "positions": [
                -1.0233204384669239,
                -0.13115493718173524,
                -1.61765147898693,
                0.5436675118940781,
                1.4390235912713942,
                1.0293424801838393
            ]
        },
        {
            "positions": [
                -0.9755470644677922,
                -0.15835525473680112,
                -1.4666554645843854,
                0.6027009551613074,
                1.3732334718708477,
                0.9845652767281061
            ]
        },
        {
            "positions": [
                -0.9277736904686604,
                -0.18555557229186703,
                -1.3156594501818408,
                0.6617343984285367,
                1.307443352470301,
                0.939788073272373
            ]
        },
        {
            "positions": [
                -0.8800003164695287,
                -0.21275588984693292,
                -1.1646634357792962,
                0.7207678416957659,
                1.2416532330697545,
                0.8950108698166398
            ]
        },
        {
            "positions": [
                -0.832226942470397,
                -0.23995620740199883,
                -1.0136674213767516,
                0.7798012849629952,
                1.1758631136692077,
                0.8502336663609067
            ]
        },
        {
            "positions": [
                -0.7844535684712652,
                -0.26715652495706466,
                -0.8626714069742072,
                0.8388347282302244,
                1.1100729942686611,
                0.8054564629051736
            ]
        },
        {
            "positions": [
                -0.7366801944721334,
                -0.2943568425121306,
                -0.7116753925716626,
                0.8978681714974537,
                1.0442828748681143,
                0.7606792594494405
            ]
        },
        {
            "positions": [
                -0.6889068204730018,
                -0.3215571600671965,
                -0.5606793781691182,
                0.9569016147646829,
                0.9784927554675679,
                0.7159020559937073
            ]
        },
        {
            "positions": [
                -0.6411334464738699,
                -0.3487574776222624,
                -0.40968336376657355,
                1.0159350580319122,
                0.9127026360670212,
                0.671124852537974
            ]
        },
        {
            "positions": [
                -0.5933600724747382,
                -0.3759577951773283,
                -0.25868734936402893,
                1.0749685012991415,
                0.8469125166664745,
                0.626347649082241
            ]
        },
        {
            "positions": [
                -0.5455866984756065,
                -0.4031581127323942,
                -0.10769133496148431,
                1.1340019445663707,
                0.7811223972659278,
                0.5815704456265078
            ]
        },
        {
            "positions": [
                -0.49781332447647475,
                -0.43035843028746007,
                0.04330467944106009,
                1.1930353878336,
                0.7153322778653812,
                0.5367932421707747
            ]
        },
        {
            "positions": [
                -0.450039950477343,
                -0.4575587478425259,
                0.1943006938436047,
                1.2520688311008292,
                0.6495421584648347,
                0.4920160387150416
            ]
        },
        {
            "positions": [
                -0.4022665764782113,
                -0.48475906539759184,
                0.3452967082461489,
                1.3111022743680585,
                0.5837520390642881,
                0.4472388352593085
            ]
        },
        {
            "positions": [
                -0.35449320247907945,
                -0.5119593829526579,
                0.49629272264869395,
                1.370135717635288,
                0.5179619196637413,
                0.4024616318035753
            ]
        },
        {
            "positions": [
                -0.30671982847994783,
                -0.5391597005077237,
                0.6472887370512381,
                1.4291691609025172,
                0.4521718002631947,
                0.3576844283478422
            ]
        },
        {
            "positions": [
                -0.2589464544808161,
                -0.5663600180627895,
                0.7982847514537827,
                1.4882026041697465,
                0.3863816808626481,
                0.3129072248921091
            ]
        },
        {
            "positions": [
                -0.21117308048168437,
                -0.5935603356178554,
                0.9492807658563274,
                1.5472360474369755,
                0.3205915614621013,
                0.268130021436376
            ]
        },
        {
            "positions": [
                -0.16339970648255253,
                -0.6207606531729213,
                1.100276780258872,
                1.606269490704205,
                0.25480144206155475,
                0.22335281798064266
            ]
        },
        {
            "positions": [
                -0.1156263324834208,
                -0.6479609707279872,
                1.2512727946614166,
                1.6653029339714343,
                0.18901132266100795,
                0.17857561452490955
            ]
        },
        {
            "positions": [
                -0.06785295848428907,
                -0.6751612882830531,
                1.4022688090639612,
                1.7243363772386635,
                0.12322120326046138,
                0.13379841106917645
            ]
        },
        {
            "positions": [
                -0.020079584485157342,
                -0.702361605838119,
                1.5532648234665054,
                1.7833698205058928,
                0.0574310838599148,
                0.08902120761344334
            ]
        },
        {
            "positions": [
                0.027693789513974387,
                -0.7295619233931849,
                1.7042608378690505,
                1.842403263773122,
                -0.008359035540631998,
                0.044244004157710126
            ]
        },
        {
            "positions": [
                0.07546716351310612,
                -0.7567622409482508,
                1.8552568522715946,
                1.9014367070403513,
                -0.07414915494117857,
                -0.0005331992980228684
            ]
        },
        {
            "positions": [
                0.12324053751223775,
                -0.7839625585033168,
                2.0062528666741395,
                1.9604701503075805,
                -0.13993927434172523,
                -0.04531040275375609
            ]
        }
    ]
}