{
    "goal": {
        "global_pose": {
            "orientation": {
                "w": -0.00223480608172531,
                "x": 0.0024358444001904467,
                "y": 0.7094548369677653,
                "z": -0.704743149386269
            },
            "position": {
                "x": 0.6205249238014221,
                "y": -0.6371506643295288,
                "z": 0.19426114857196808
            }
        },
        "name": "move_to_magneteinheit_B"
    },
    "id": "PRMstar_move_to_magneteinheit_B_132",
    "joint_names": [
        "shoulder_pan_joint",
        "shoulder_lift_joint",
        "elbow_joint",
        "wrist_1_joint",
        "wrist_2_joint",
        "wrist_3_joint"
    ],
    "metrics": {
        "cart_traj_len": 1.4537765157802935,
        "distance_elbow_joint": 0.7307878266935566,
        "distance_shoulder_lift_joint": 1.2484897433721953,
        "distance_shoulder_pan_joint": 1.6223049967154393,
        "distance_wrist_1_joint": 2.6062106992398117,
        "distance_wrist_2_joint": 2.9357131203251785,
        "distance_wrist_3_joint": 3.1269784307817505,
        "smoothness": 1.9428903006496772e-16,
        "time": 5.005682707,
        "traj_len": 3.502925180064217,
        "weighted_distance": 4.905748209830629
    },
    "planner": "PRMstar",
    "start": {
        "state": {
            "elbow_joint": 2.39358713078474,
            "shoulder_lift_joint": -1.908514104345545,
            "shoulder_pan_joint": 0.7066247066606129,
            "wrist_1_joint": -0.4678290933515497,
            "wrist_2_joint": 0.7096259083745334,
            "wrist_3_joint": -3.1358149277392293
        }
    },
    "waypoints": [
        {
            "positions": [
                0.7066247066606129,
                -1.908514104345545,
                2.39358713078474,
                -0.4678290933515497,
                0.7096259083745334,
                -3.1358149277392293
            ]
        },
        {
            "positions": [
                0.6542922874117278,
                -1.8682402416561192,
                2.3700133299236574,
                -0.3837577804728461,
                0.6149254851382373,
                -3.034944655778528
            ]
        },
        {
            "positions": [
                0.6019598681628426,
                -1.8279663789666936,
                2.3464395290625752,
                -0.2996864675941425,
                0.5202250619019413,
                -2.9340743838178263
            ]
        },
        {
            "positions": [
                0.5496274489139575,
                -1.7876925162772679,
                2.3228657282014926,
                -0.2156151547154389,
                0.4255246386656452,
                -2.8332041118571243
            ]
        },
        {
            "positions": [
                0.49729502966507244,
                -1.7474186535878422,
                2.29929192734041,
                -0.1315438418367353,
                0.33082421542934914,
                -2.7323338398964228
            ]
        },
        {
            "positions": [
                0.4449626104161873,
                -1.7071447908984165,
                2.275718126479328,
                -0.04747252895803172,
                0.23612379219305302,
                -2.6314635679357212
            ]
        },
        {
            "positions": [
                0.39263019116730213,
                -1.666870928208991,
                2.252144325618245,
                0.036598783920671896,
                0.141423368956757,
                -2.5305932959750197
            ]
        },
        {
            "positions": [
                0.340297771918417,
                -1.6265970655195654,
                2.2285705247571626,
                0.12067009679937551,
                0.04672294572046087,
                -2.4297230240143177
            ]
        },
        {
            "positions": [
                0.2879653526695319,
                -1.5863232028301397,
                2.2049967238960804,
                0.20474140967807913,
                -0.04797747751583514,
                -2.328852752053616
            ]
        },
        {
            "positions": [
                0.23563293342064667,
                -1.546049340140714,
                2.1814229230349977,
                0.28881272255678275,
                -0.14267790075213138,
                -2.2279824800929147
            ]
        },
        {
            "positions": [
                0.18330051417176163,
                -1.5057754774512884,
                2.1578491221739156,
                0.37288403543548626,
                -0.2373783239884274,
                -2.127112208132213
            ]
        },
        {
            "positions": [
                0.13096809492287642,
                -1.4655016147618627,
                2.134275321312833,
                0.45695534831419,
                -0.3320787472247234,
                -2.0262419361715116
            ]
        },
        {
            "positions": [
                0.07863567567399132,
                -1.425227752072437,
                2.1107015204517503,
                0.5410266611928936,
                -0.42677917046101943,
                -1.9253716642108099
            ]
        },
        {
            "positions": [
                0.026303256425106114,
                -1.3849538893830113,
                2.087127719590668,
                0.6250979740715972,
                -0.5214795936973157,
                -1.824501392250108
            ]
        },
        {
            "positions": [
                -0.026029162823778984,
                -1.3446800266935859,
                2.0635539187295855,
                0.7091692869503008,
                -0.6161800169336117,
                -1.7236311202894066
            ]
        },
        {
            "positions": [
                -0.0783615820726642,
                -1.3044061640041602,
                2.039980117868503,
                0.7932405998290044,
                -0.7108804401699079,
                -1.6227608483287048
            ]
        },
        {
            "positions": [
                -0.13069400132154918,
                -1.2641323013147345,
                2.0164063170074207,
                0.877311912707708,
                -0.8055808634062037,
                -1.5218905763680033
            ]
        },
        {
            "positions": [
                -0.18302642057043428,
                -1.2238584386253089,
                1.992832516146338,
                0.9613832255864114,
                -0.9002812866424997,
                -1.4210203044073018
            ]
        },
        {
            "positions": [
                -0.2353588398193196,
                -1.1835845759358832,
                1.9692587152852556,
                1.0454545384651153,
                -0.9949817098787962,
                -1.3201500324465998
            ]
        },
        {
            "positions": [
                -0.2876912590682047,
                -1.1433107132464575,
                1.9456849144241732,
                1.1295258513438189,
                -1.089682133115092,
                -1.2192797604858983
            ]
        },
        {
            "positions": [
                -0.3400236783170897,
                -1.1030368505570318,
                1.9221111135630906,
                1.2135971642225223,
                -1.1843825563513883,
                -1.118409488525197
            ]
        },
        {
            "positions": [
                -0.3923560975659749,
                -1.0627629878676061,
                1.8985373127020082,
                1.297668477101226,
                -1.2790829795876841,
                -1.0175392165644954
            ]
        },
        {
            "positions": [
                -0.4446885168148601,
                -1.0224891251781805,
                1.8749635118409258,
                1.3817397899799297,
                -1.3737834028239804,
                -0.9166689446037934
            ]
        },
        {
            "positions": [
                -0.4970209360637453,
                -0.9822152624887548,
                1.8513897109798432,
                1.4658111028586334,
                -1.4684838260602766,
                -0.8157986726430919
            ]
        },
        {
            "positions": [
                -0.5493533553126303,
                -0.9419413997993292,
                1.8278159101187608,
                1.5498824157373368,
                -1.5631842492965724,
                -0.7149284006823904
            ]
        },
        {
            "positions": [
                -0.6016857745615155,
                -0.9016675371099037,
                1.8042421092576784,
                1.6339537286160404,
                -1.6578846725328686,
                -0.6140581287216889
            ]
        },
        {
            "positions": [
                -0.6540181938104007,
                -0.8613936744204778,
                1.7806683083965957,
                1.718025041494744,
                -1.7525850957691649,
                -0.5131878567609869
            ]
        },
        {
            "positions": [
                -0.7063506130592857,
                -0.8211198117310523,
                1.7570945075355133,
                1.8020963543734476,
                -1.8472855190054607,
                -0.41231758480028535
            ]
        },
        {
            "positions": [
                -0.7586830323081709,
                -0.7808459490416266,
                1.733520706674431,
                1.8861676672521512,
                -1.941985942241757,
                -0.3114473128395838
            ]
        },
        {
            "positions": [
                -0.8110154515570559,
                -0.740572086352201,
                1.7099469058133485,
                1.9702389801308549,
                -2.0366863654780527,
                -0.2105770408788823
            ]
        },
        {
            "positions": [
                -0.8633478708059413,
                -0.7002982236627753,
                1.6863731049522659,
                2.0543102930095585,
                -2.1313867887143494,
                -0.10970676891818032
            ]
        },
        {
            "positions": [
                -0.9156802900548262,
                -0.6600243609733496,
                1.6627993040911835,
                2.138381605888262,
                -2.226087211950645,
                -0.008836496957478937
            ]
        }
    ]
}