{
    "goal": {
        "global_pose": {
            "orientation": {
                "w": -0.00223480608172531,
                "x": 0.0024358444001904467,
                "y": 0.7094548369677653,
                "z": -0.704743149386269
            },
            "position": {
                "x": 0.6205249238014221,
                "y": -0.6371506643295288,
                "z": 0.19426114857196808
            }
        },
        "name": "move_to_magneteinheit_B"
    },
    "id": "PRMstar_move_to_magneteinheit_B_84",
    "joint_names": [
        "shoulder_pan_joint",
        "shoulder_lift_joint",
        "elbow_joint",
        "wrist_1_joint",
        "wrist_2_joint",
        "wrist_3_joint"
    ],
    "metrics": {
        "cart_traj_len": 3.0202768801658064,
        "distance_elbow_joint": 4.067082816684162,
        "distance_shoulder_lift_joint": 0.5669139974427813,
        "distance_shoulder_pan_joint": 2.2202525645735465,
        "distance_wrist_1_joint": 1.4409149142263091,
        "distance_wrist_2_joint": 3.2564636183448377,
        "distance_wrist_3_joint": 3.1891267237125853,
        "smoothness": 0.3079704413425926,
        "time": 5.059190279,
        "traj_len": 3.839369041259803,
        "weighted_distance": 5.080982839469203
    },
    "planner": "PRMstar",
    "start": {
        "state": {
            "elbow_joint": 2.39358713078474,
            "shoulder_lift_joint": -1.908514104345545,
            "shoulder_pan_joint": 0.7066247066606129,
            "wrist_1_joint": -0.4678290933515497,
            "wrist_2_joint": 0.7096259083745334,
            "wrist_3_joint": -3.1358149277392293
        }
    },
    "waypoints": [
        {
            "positions": [
                0.7066247066606129,
                -1.908514104345545,
                2.39358713078474,
                -0.4678290933515497,
                0.7096259083745334,
                -3.1358149277392293
            ]
        },
        {
            "positions": [
                0.7215821657297713,
                -1.9738763363657825,
                2.3823576317804167,
                -0.37890602768892606,
                0.7602912632198834,
                -2.9986723509341706
            ]
        },
        {
            "positions": [
                0.7365396247989298,
                -2.03923856838602,
                2.3711281327760934,
                -0.2899829620263024,
                0.8109566180652333,
                -2.861529774129112
            ]
        },
        {
            "positions": [
                0.7514970838680881,
                -2.1046008004062577,
                2.35989863377177,
                -0.20105989636367877,
                0.8616219729105833,
                -2.724387197324053
            ]
        },
        {
            "positions": [
                0.7664545429372465,
                -2.1699630324264954,
                2.3486691347674467,
                -0.11213683070105512,
                0.9122873277559332,
                -2.5872446205189945
            ]
        },
        {
            "positions": [
                0.8436271593165804,
                -2.1774809693735473,
                2.2518473999478563,
                -0.0697597011595454,
                0.8423623794578858,
                -2.488726903266197
            ]
        },
        {
            "positions": [
                0.9207997756959142,
                -2.1849989063205992,
                2.1550256651282664,
                -0.027382571618035673,
                0.7724374311598383,
                -2.3902091860133994
            ]
        },
        {
            "positions": [
                0.9979723920752481,
                -2.1925168432676516,
                2.058203930308676,
                0.014994557923474039,
                0.7025124828617909,
                -2.291691468760602
            ]
        },
        {
            "positions": [
                1.075145008454582,
                -2.2000347802147036,
                1.9613821954890858,
                0.05737168746498378,
                0.6325875345637435,
                -2.1931737515078047
            ]
        },
        {
            "positions": [
                1.1523176248339158,
                -2.2075527171617555,
                1.8645604606694957,
                0.09974881700649352,
                0.562662586265696,
                -2.0946560342550073
            ]
        },
        {
            "positions": [
                1.2294902412132496,
                -2.2150706541088074,
                1.7677387258499055,
                0.1421259465480032,
                0.4927376379676486,
                -1.9961383170022096
            ]
        },
        {
            "positions": [
                1.3066628575925836,
                -2.2225885910558594,
                1.6709169910303152,
                0.184503076089513,
                0.42281268966960106,
                -1.8976205997494122
            ]
        },
        {
            "positions": [
                1.3838354739719176,
                -2.2301065280029118,
                1.574095256210725,
                0.22688020563102268,
                0.35288774137155365,
                -1.7991028824966149
            ]
        },
        {
            "positions": [
                1.4610080903512515,
                -2.2376244649499637,
                1.477273521391135,
                0.2692573351725324,
                0.28296279307350625,
                -1.7005851652438173
            ]
        },
        {
            "positions": [
                1.5381807067305853,
                -2.2451424018970156,
                1.3804517865715447,
                0.31163446471404216,
                0.21303784477545873,
                -1.6020674479910197
            ]
        },
        {
            "positions": [
                1.615353323109919,
                -2.2526603388440676,
                1.2836300517519545,
                0.35401159425555184,
                0.14311289647741132,
                -1.5035497307382224
            ]
        },
        {
            "positions": [
                1.692525939489253,
                -2.2601782757911195,
                1.1868083169323644,
                0.3963887237970615,
                0.07318794817936392,
                -1.4050320134854248
            ]
        },
        {
            "positions": [
                1.769698555868587,
                -2.267696212738172,
                1.089986582112774,
                0.4387658533385714,
                0.0032629998813163974,
                -1.3065142962326275
            ]
        },
        {
            "positions": [
                1.8468711722479207,
                -2.275214149685224,
                0.9931648472931838,
                0.4811429828800811,
                -0.06666194841673112,
                -1.20799657897983
            ]
        },
        {
            "positions": [
                1.9240437886272546,
                -2.282732086632276,
                0.8963431124735939,
                0.5235201124215907,
                -0.13658689671477842,
                -1.1094788617270326
            ]
        },
        {
            "positions": [
                2.0012164050065886,
                -2.2902500235793277,
                0.7995213776540036,
                0.5658972419631005,
                -0.20651184501282593,
                -1.010961144474235
            ]
        },
        {
            "positions": [
                2.0783890213859224,
                -2.2977679605263797,
                0.7026996428344132,
                0.6082743715046102,
                -0.27643679331087345,
                -0.9124434272214375
            ]
        },
        {
            "positions": [
                2.1555616377652562,
                -2.305285897473432,
                0.6058779080148233,
                0.65065150104612,
                -0.34636174160892075,
                -0.8139257099686401
            ]
        },
        {
            "positions": [
                2.23273425414459,
                -2.312803834420484,
                0.509056173195233,
                0.6930286305876296,
                -0.41628668990696827,
                -0.7154079927158425
            ]
        },
        {
            "positions": [
                2.309906870523924,
                -2.320321771367536,
                0.41223443837564266,
                0.7354057601291395,
                -0.4862116382050158,
                -0.616890275463045
            ]
        },
        {
            "positions": [
                2.387079486903258,
                -2.327839708314588,
                0.3154127035560528,
                0.7777828896706491,
                -0.5561365865030631,
                -0.5183725582102476
            ]
        },
        {
            "positions": [
                2.4642521032825915,
                -2.33535764526164,
                0.21859096873646244,
                0.8201600192121588,
                -0.6260615348011106,
                -0.4198548409574503
            ]
        },
        {
            "positions": [
                2.5414247196619257,
                -2.342875582208692,
                0.12176923391687211,
                0.8625371487536686,
                -0.6959864830991581,
                -0.3213371237046525
            ]
        },
        {
            "positions": [
                2.618597336041259,
                -2.350393519155744,
                0.024947499097282222,
                0.9049142782951782,
                -0.7659114313972054,
                -0.22281940645185516
            ]
        },
        {
            "positions": [
                2.6957699524205934,
                -2.357911456102796,
                -0.07187423572230804,
                0.947291407836688,
                -0.8358363796952528,
                -0.12430168919905774
            ]
        },
        {
            "positions": [
                2.7154040408968823,
                -2.37339714256273,
                -0.2694877917524369,
                0.9490717379957889,
                -0.7319271325685481,
                -0.09115090427917544
            ]
        },
        {
            "positions": [
                2.735038129373171,
                -2.3888828290226636,
                -0.4671013477825658,
                0.9508520681548899,
                -0.6280178854418434,
                -0.058000119359293126
            ]
        },
        {
            "positions": [
                2.7546722178494605,
                -2.4043685154825973,
                -0.6647149038126945,
                0.9526323983139908,
                -0.5241086383151388,
                -0.024849334439410828
            ]
        },
        {
            "positions": [
                2.7743063063257494,
                -2.419854201942531,
                -0.8623284598428235,
                0.9544127284730918,
                -0.42019939118843413,
                0.008301450480471484
            ]
        },
        {
            "positions": [
                2.7939403948020383,
                -2.435339888402465,
                -1.0599420158729522,
                0.9561930586321927,
                -0.3162901440617295,
                0.04145223540035377
            ]
        },
        {
            "positions": [
                2.7681534288239753,
                -2.4461756547177034,
                -1.2014797410647085,
                0.9591227485494309,
                -0.14725920514889587,
                0.04292975490357549
            ]
        },
        {
            "positions": [
                2.742366462845913,
                -2.4570114210329415,
                -1.3430174662564647,
                0.962052438466669,
                0.02177173376393776,
                0.04440727440679721
            ]
        },
        {
            "positions": [
                2.7152454813539144,
                -2.4631503146180695,
                -1.4531768728041172,
                0.9657302326026991,
                0.17112852644829174,
                0.04143910055127787
            ]
        },
        {
            "positions": [
                2.6881244998619156,
                -2.469289208203198,
                -1.5633362793517696,
                0.9694080267387291,
                0.3204853191326457,
                0.03847092669575852
            ]
        },
        {
            "positions": [
                2.661003518369917,
                -2.475428101788326,
                -1.673495685899422,
                0.9730858208747591,
                0.4698421118169997,
                0.03550275284023918
            ]
        }
    ]
}