{
    "goal": {
        "global_pose": {
            "orientation": {
                "w": 0.7047431468963623,
                "x": -0.7094548344612122,
                "y": 0.0024358443915843964,
                "z": -0.0022348060738295317
            },
            "position": {
                "x": 0.6094750761985779,
                "y": 0.3671506643295288,
                "z": 0.19426114857196808
            }
        },
        "name": "move_to_magneteinheit_A"
    },
    "id": "PRMstar_move_to_magneteinheit_A_2",
    "joint_names": [
        "shoulder_pan_joint",
        "shoulder_lift_joint",
        "elbow_joint",
        "wrist_1_joint",
        "wrist_2_joint",
        "wrist_3_joint"
    ],
    "metrics": {
        "cart_traj_len": 1.875939219610182,
        "distance_elbow_joint": 3.9204842943673377,
        "distance_shoulder_lift_joint": 0.7028444075946478,
        "distance_shoulder_pan_joint": 1.2419919721862152,
        "distance_wrist_1_joint": 1.514465941446698,
        "distance_wrist_2_joint": 1.7102514759427256,
        "distance_wrist_3_joint": 1.1423475835722758,
        "smoothness": 0.0,
        "time": 5.005922217,
        "traj_len": 3.198810040485353,
        "weighted_distance": 3.9675935098802495
    },
    "planner": "PRMstar",
    "start": {
        "state": {
            "elbow_joint": -1.919643507792019,
            "shoulder_lift_joint": -0.07675430207160344,
            "shoulder_pan_joint": -1.1188671864651873,
            "wrist_1_joint": 0.42560062535961957,
            "wrist_2_joint": 1.5706038300724876,
            "wrist_3_joint": 1.1188968870953055
        }
    },
    "waypoints": [
        {
            "positions": [
                -1.1188671864651873,
                -0.07675430207160344,
                -1.919643507792019,
                0.42560062535961957,
                1.5706038300724876,
                1.1188968870953055
            ]
        },
        {
            "positions": [
                -1.0710982644580251,
                -0.1037867792867822,
                -1.7688556503163522,
                0.4838493154152618,
                1.5048249271516134,
                1.074960441573295
            ]
        },
        {
            "positions": [
                -1.0233293424508632,
                -0.13081925650196097,
                -1.6180677928406855,
                0.542098005470904,
                1.4390460242307395,
                1.0310239960512844
            ]
        },
        {
            "positions": [
                -0.975560420443701,
                -0.15785173371713973,
                -1.4672799353650186,
                0.6003466955265463,
                1.3732671213098655,
                0.9870875505292738
            ]
        },
        {
            "positions": [
                -0.9277914984365389,
                -0.1848842109323185,
                -1.3164920778893516,
                0.6585953855821886,
                1.3074882183889913,
                0.9431511050072631
            ]
        },
        {
            "positions": [
                -0.8800225764293768,
                -0.21191668814749726,
                -1.165704220413685,
                0.7168440756378307,
                1.2417093154681171,
                0.8992146594852525
            ]
        },
        {
            "positions": [
                -0.8322536544222146,
                -0.23894916536267602,
                -1.014916362938018,
                0.775092765693473,
                1.1759304125472432,
                0.8552782139632419
            ]
        },
        {
            "positions": [
                -0.7844847324150526,
                -0.2659816425778548,
                -0.8641285054623513,
                0.8333414557491152,
                1.1101515096263692,
                0.8113417684412313
            ]
        },
        {
            "positions": [
                -0.7367158104078904,
                -0.29301411979303355,
                -0.7133406479866844,
                0.8915901458047575,
                1.044372606705495,
                0.7674053229192206
            ]
        },
        {
            "positions": [
                -0.6889468884007283,
                -0.3200465970082123,
                -0.5625527905110177,
                0.9498388358603997,
                0.9785937037846211,
                0.72346887739721
            ]
        },
        {
            "positions": [
                -0.6411779663935662,
                -0.34707907422339107,
                -0.41176493303535056,
                1.008087525916042,
                0.9128148008637469,
                0.6795324318751994
            ]
        },
        {
            "positions": [
                -0.5934090443864041,
                -0.37411155143856983,
                -0.26097707555968386,
                1.066336215971684,
                0.8470358979428729,
                0.6355959863531888
            ]
        },
        {
            "positions": [
                -0.5456401223792419,
                -0.4011440286537486,
                -0.11018921808401694,
                1.1245849060273265,
                0.7812569950219989,
                0.5916595408311782
            ]
        },
        {
            "positions": [
                -0.49787120037207977,
                -0.42817650586892736,
                0.04059863939164976,
                1.1828335960829686,
                0.7154780921011248,
                0.5477230953091676
            ]
        },
        {
            "positions": [
                -0.4501022783649177,
                -0.4552089830841061,
                0.19138649686731646,
                1.2410822861386108,
                0.6496991891802507,
                0.503786649787157
            ]
        },
        {
            "positions": [
                -0.4023333563577556,
                -0.48224146029928483,
                0.34217435434298316,
                1.299330976194253,
                0.5839202862593768,
                0.45985020426514644
            ]
        },
        {
            "positions": [
                -0.35456443435059337,
                -0.5092739375144637,
                0.4929622118186503,
                1.3575796662498953,
                0.5181413833385025,
                0.41591375874313574
            ]
        },
        {
            "positions": [
                -0.3067955123434313,
                -0.5363064147296424,
                0.643750069294317,
                1.4158283563055376,
                0.4523624804176285,
                0.37197731322112515
            ]
        },
        {
            "positions": [
                -0.2590265903362692,
                -0.5633388919448212,
                0.7945379267699837,
                1.4740770463611799,
                0.38658357749675454,
                0.32804086769911456
            ]
        },
        {
            "positions": [
                -0.21125766832910708,
                -0.5903713691599999,
                0.9453257842456504,
                1.5323257364168221,
                0.3208046745758806,
                0.2841044221771041
            ]
        },
        {
            "positions": [
                -0.16348874632194488,
                -0.6174038463751788,
                1.096113641721318,
                1.5905744264724644,
                0.2550257716550062,
                0.24016797665509326
            ]
        },
        {
            "positions": [
                -0.11571982431478278,
                -0.6444363235903574,
                1.2469014991969847,
                1.6488231165281066,
                0.1892468687341322,
                0.19623153113308278
            ]
        },
        {
            "positions": [
                -0.0679509023076208,
                -0.6714688008055363,
                1.3976893566726514,
                1.7070718065837487,
                0.12346796581325825,
                0.1522950856110722
            ]
        },
        {
            "positions": [
                -0.02018198030045859,
                -0.6985012780207149,
                1.548477214148318,
                1.765320496639391,
                0.05768906289238429,
                0.10835864008906149
            ]
        },
        {
            "positions": [
                0.027586941706703616,
                -0.7255337552358938,
                1.6992650716239852,
                1.8235691866950334,
                -0.008089840028489892,
                0.0644221945670509
            ]
        },
        {
            "positions": [
                0.07535586371386582,
                -0.7525662324510725,
                1.850052929099652,
                1.8818178767506755,
                -0.07386874294936407,
                0.020485749045040302
            ]
        },
        {
            "positions": [
                0.12312478572102771,
                -0.7795987096662513,
                2.000840786575319,
                1.9400665668063177,
                -0.13964764587023804,
                -0.02345069647697039
            ]
        }
    ]
}