{
    "goal": {
        "global_pose": {
            "orientation": {
                "w": 0.7031023502349854,
                "x": -0.7110244035720825,
                "y": 0.007748599164187908,
                "z": 0.005598929710686207
            },
            "position": {
                "x": 0.11585023208521307,
                "y": 0.44412534475326537,
                "z": 0.3711530566215515
            }
        },
        "name": "move_to_auspresseinheit_A"
    },
    "id": "PRMstar_move_to_auspresseinheit_A_116",
    "joint_names": [
        "shoulder_pan_joint",
        "shoulder_lift_joint",
        "elbow_joint",
        "wrist_1_joint",
        "wrist_2_joint",
        "wrist_3_joint"
    ],
    "metrics": {
        "cart_traj_len": 0.6920479145303077,
        "distance_elbow_joint": 0.03899888321068268,
        "distance_shoulder_lift_joint": 0.5333534666786841,
        "distance_shoulder_pan_joint": 1.0438686711473426,
        "distance_wrist_1_joint": 0.5751108136616919,
        "distance_wrist_2_joint": 1.3031784636008,
        "distance_wrist_3_joint": 0.052006885518171675,
        "smoothness": 0.837792884506742,
        "time": 5.0265773110000005,
        "traj_len": 1.88321989789227,
        "weighted_distance": 2.351344345712939
    },
    "planner": "PRMstar",
    "start": {
        "state": {
            "elbow_joint": 2.422574709923281,
            "shoulder_lift_joint": -1.3736533754116391,
            "shoulder_pan_joint": -0.33786336945926293,
            "wrist_1_joint": -1.0288603412921917,
            "wrist_2_joint": 1.2330224858903978,
            "wrist_3_joint": -3.094022268022082
        }
    },
    "waypoints": [
        {
            "positions": [
                -0.33786336945926293,
                -1.3736533754116391,
                2.422574709923281,
                -1.0288603412921917,
                1.2330224858903978,
                -3.094022268022082
            ]
        },
        {
            "positions": [
                -0.31285359685995684,
                -1.4521730474165122,
                2.416661537368686,
                -0.9452977823350783,
                1.0804073281018853,
                -3.095756696635459
            ]
        },
        {
            "positions": [
                -0.28784382426065075,
                -1.5306927194213853,
                2.4107483648140904,
                -0.8617352233779649,
                0.9277921703133729,
                -3.097491125248836
            ]
        },
        {
            "positions": [
                -0.26283405166134466,
                -1.6092123914262584,
                2.404835192259495,
                -0.7781726644208515,
                0.7751770125248605,
                -3.0992255538622127
            ]
        },
        {
            "positions": [
                -0.23782427906203862,
                -1.6877320634311315,
                2.3989220197048997,
                -0.6946101054637381,
                0.6225618547363482,
                -3.1009599824755893
            ]
        },
        {
            "positions": [
                -0.2128145064627325,
                -1.7662517354360048,
                2.3930088471503046,
                -0.6110475465066246,
                0.46994669694783575,
                -3.1026944110889665
            ]
        },
        {
            "positions": [
                -0.18780473386342644,
                -1.8447714074408779,
                2.387095674595709,
                -0.5274849875495112,
                0.31733153915932333,
                -3.104428839702343
            ]
        },
        {
            "positions": [
                0.035647775024450074,
                -1.8603302661032393,
                2.3879756365664866,
                -0.5090511225697584,
                0.4142034183767547,
                -3.114828918161821
            ]
        },
        {
            "positions": [
                0.2591002839123266,
                -1.8758891247656004,
                2.3888555985372646,
                -0.4906172575900055,
                0.5110752975941861,
                -3.1252289966212983
            ]
        },
        {
            "positions": [
                0.48255279280020313,
                -1.8914479834279618,
                2.389735560508042,
                -0.47218339261025266,
                0.6079471768116175,
                -3.135629075080776
            ]
        },
        {
            "positions": [
                0.7060053016880796,
                -1.9070068420903232,
                2.3906155224788197,
                -0.4537495276304998,
                0.7048190560290488,
                -3.146029153540254
            ]
        }
    ]
}