{
    "goal": {
        "global_pose": {
            "orientation": {
                "w": 0.7047431468963623,
                "x": -0.7094548344612122,
                "y": 0.0024358443915843964,
                "z": -0.0022348060738295317
            },
            "position": {
                "x": 0.6094750761985779,
                "y": 0.3671506643295288,
                "z": 0.19426114857196808
            }
        },
        "name": "move_to_magneteinheit_A"
    },
    "id": "PRMstar_move_to_magneteinheit_A_83",
    "joint_names": [
        "shoulder_pan_joint",
        "shoulder_lift_joint",
        "elbow_joint",
        "wrist_1_joint",
        "wrist_2_joint",
        "wrist_3_joint"
    ],
    "metrics": {
        "cart_traj_len": 2.730440852680159,
        "distance_elbow_joint": 4.503236540359837,
        "distance_shoulder_lift_joint": 1.0481429699039,
        "distance_shoulder_pan_joint": 1.241407764352129,
        "distance_wrist_1_joint": 1.1105849140587427,
        "distance_wrist_2_joint": 1.4499279502173745,
        "distance_wrist_3_joint": 4.397392190839565,
        "smoothness": 0.06624388950642814,
        "time": 5.0454560509999995,
        "traj_len": 3.708192596094699,
        "weighted_distance": 5.010587747528906
    },
    "planner": "PRMstar",
    "start": {
        "state": {
            "elbow_joint": -1.919643507792019,
            "shoulder_lift_joint": -0.07675430207160344,
            "shoulder_pan_joint": -1.1188671864651873,
            "wrist_1_joint": 0.42560062535961957,
            "wrist_2_joint": 1.5706038300724876,
            "wrist_3_joint": 1.1188968870953055
        }
    },
    "waypoints": [
        {
            "positions": [
                -1.1188671864651873,
                -0.07675430207160344,
                -1.919643507792019,
                0.42560062535961957,
                1.5706038300724876,
                1.1188968870953055
            ]
        },
        {
            "positions": [
                -1.0964095566186796,
                -0.11007353791317666,
                -1.9485662712520258,
                0.406300651029904,
                1.517040244765284,
                0.892684037505922
            ]
        },
        {
            "positions": [
                -1.0739519267721718,
                -0.14339277375474987,
                -1.9774890347120324,
                0.38700067670018834,
                1.4634766594580804,
                0.6664711879165384
            ]
        },
        {
            "positions": [
                -1.051494296925664,
                -0.1767120095963231,
                -2.006411798172039,
                0.36770070237047275,
                1.4099130741508767,
                0.4402583383271548
            ]
        },
        {
            "positions": [
                -1.0290366670791562,
                -0.2100312454378963,
                -2.035334561632046,
                0.34840072804075717,
                1.3563494888436731,
                0.21404548873777118
            ]
        },
        {
            "positions": [
                -1.0065790372326484,
                -0.24335048127946954,
                -2.0642573250920524,
                0.3291007537110415,
                1.3027859035364695,
                -0.012167360851612408
            ]
        },
        {
            "positions": [
                -0.9841214073861407,
                -0.2766697171210427,
                -2.0931800885520593,
                0.30980077938132594,
                1.2492223182292659,
                -0.238380210440996
            ]
        },
        {
            "positions": [
                -0.961663777539633,
                -0.30998895296261597,
                -2.122102852012066,
                0.29050080505161036,
                1.1956587329220623,
                -0.4645930600303796
            ]
        },
        {
            "positions": [
                -0.9392061476931253,
                -0.3433081888041892,
                -2.1510256154720726,
                0.2712008307218947,
                1.1420951476148586,
                -0.6908059096197632
            ]
        },
        {
            "positions": [
                -0.9167485178466175,
                -0.37662742464576243,
                -2.1799483789320795,
                0.2519008563921791,
                1.088531562307655,
                -0.9170187592091468
            ]
        },
        {
            "positions": [
                -0.8942908880001097,
                -0.40994666048733563,
                -2.208871142392086,
                0.23260088206246352,
                1.0349679770004514,
                -1.1432316087985304
            ]
        },
        {
            "positions": [
                -0.8718332581536019,
                -0.44326589632890884,
                -2.237793905852093,
                0.2133009077327479,
                0.9814043916932478,
                -1.369444458387914
            ]
        },
        {
            "positions": [
                -0.8320583047119802,
                -0.47053115135477264,
                -2.070390460160102,
                0.17736949987547307,
                0.9469752512197224,
                -1.4458064922021676
            ]
        },
        {
            "positions": [
                -0.7922833512703584,
                -0.4977964063806364,
                -1.9029870144681118,
                0.14143809201819824,
                0.9125461107461971,
                -1.5221685260164215
            ]
        },
        {
            "positions": [
                -0.7525083978287367,
                -0.5250616614065002,
                -1.7355835687761214,
                0.10550668416092339,
                0.8781169702726717,
                -1.5985305598306752
            ]
        },
        {
            "positions": [
                -0.712733444387115,
                -0.552326916432364,
                -1.5681801230841308,
                0.06957527630364854,
                0.8436878297991464,
                -1.6748925936449288
            ]
        },
        {
            "positions": [
                -0.6729584909454931,
                -0.5795921714582277,
                -1.4007766773921402,
                0.03364386844637368,
                0.809258689325621,
                -1.7512546274591827
            ]
        },
        {
            "positions": [
                -0.6331835375038715,
                -0.6068574264840916,
                -1.23337323170015,
                -0.0022875394109011238,
                0.7748295488520955,
                -1.8276166612734364
            ]
        },
        {
            "positions": [
                -0.5934085840622496,
                -0.6341226815099553,
                -1.0659697860081592,
                -0.038218947268175985,
                0.7404004083785701,
                -1.90397869508769
            ]
        },
        {
            "positions": [
                -0.553633630620628,
                -0.6613879365358191,
                -0.8985663403161688,
                -0.07415035512545082,
                0.7059712679050448,
                -1.9803407289019437
            ]
        },
        {
            "positions": [
                -0.5138586771790061,
                -0.6886531915616829,
                -0.7311628946241784,
                -0.11008176298272565,
                0.6715421274315194,
                -2.0567027627161973
            ]
        },
        {
            "positions": [
                -0.4740837237373844,
                -0.7159184465875467,
                -0.5637594489321878,
                -0.14601317084000054,
                0.6371129869579941,
                -2.1330647965304514
            ]
        },
        {
            "positions": [
                -0.43430877029576265,
                -0.7431837016134104,
                -0.3963560032401974,
                -0.18194457869727532,
                0.6026838464844687,
                -2.209426830344705
            ]
        },
        {
            "positions": [
                -0.3945338168541409,
                -0.7704489566392743,
                -0.2289525575482072,
                -0.21787598655455015,
                0.5682547060109433,
                -2.2857888641589588
            ]
        },
        {
            "positions": [
                -0.35475886341251917,
                -0.7977142116651381,
                -0.06154911185621614,
                -0.25380739441182504,
                0.533825565537418,
                -2.3621508979732124
            ]
        },
        {
            "positions": [
                -0.3149839099708973,
                -0.8249794666910019,
                0.10585433383577447,
                -0.28973880226909987,
                0.49939642506389254,
                -2.438512931787466
            ]
        },
        {
            "positions": [
                -0.2752089565292757,
                -0.8522447217168656,
                0.27325777952776464,
                -0.32567021012637465,
                0.4649672845903673,
                -2.51487496560172
            ]
        },
        {
            "positions": [
                -0.23543400308765394,
                -0.8795099767427295,
                0.44066122521975526,
                -0.36160161798364954,
                0.4305381441168419,
                -2.5912369994159734
            ]
        },
        {
            "positions": [
                -0.1956590496460321,
                -0.9067752317685932,
                0.6080646709117459,
                -0.3975330258409244,
                0.39610900364331647,
                -2.6675990332302275
            ]
        },
        {
            "positions": [
                -0.15588409620441046,
                -0.934040486794457,
                0.775468116603736,
                -0.4334644336981992,
                0.36167986316979117,
                -2.743961067044481
            ]
        },
        {
            "positions": [
                -0.11610914276278861,
                -0.9613057418203208,
                0.9428715622957267,
                -0.4693958415554741,
                0.32725072269626576,
                -2.820323100858735
            ]
        },
        {
            "positions": [
                -0.07633418932116687,
                -0.9885709968461844,
                1.1102750079877173,
                -0.505327249412749,
                0.29282158222274035,
                -2.896685134672989
            ]
        },
        {
            "positions": [
                -0.03655923587954524,
                -1.0158362518720483,
                1.2776784536797074,
                -0.5412586572700238,
                0.25839244174921505,
                -2.973047168487242
            ]
        },
        {
            "positions": [
                0.0032157175620766143,
                -1.0431015068979121,
                1.445081899371698,
                -0.5771900651272985,
                0.22396330127568964,
                -3.0494092023014963
            ]
        },
        {
            "positions": [
                0.042990671003698355,
                -1.070366761923776,
                1.6124853450636887,
                -0.6131214729845734,
                0.18953416080216423,
                -3.12577123611575
            ]
        },
        {
            "positions": [
                0.0827656244453201,
                -1.0976320169496396,
                1.7798887907556784,
                -0.6490528808418482,
                0.15510502032863893,
                -3.2021332699300036
            ]
        },
        {
            "positions": [
                0.12254057788694188,
                -1.1248972719755035,
                1.9472922364476695,
                -0.6849842886991231,
                0.1206758798551135,
                -3.2784953037442572
            ]
        }
    ]
}