{
    "goal": {
        "global_pose": {
            "orientation": {
                "w": 0.7047431468963623,
                "x": -0.7094548344612122,
                "y": 0.0024358443915843964,
                "z": -0.0022348060738295317
            },
            "position": {
                "x": 0.6094750761985779,
                "y": 0.3671506643295288,
                "z": 0.19426114857196808
            }
        },
        "name": "move_to_magneteinheit_A"
    },
    "id": "PRMstar_move_to_magneteinheit_A_17",
    "joint_names": [
        "shoulder_pan_joint",
        "shoulder_lift_joint",
        "elbow_joint",
        "wrist_1_joint",
        "wrist_2_joint",
        "wrist_3_joint"
    ],
    "metrics": {
        "cart_traj_len": 2.062913844616672,
        "distance_elbow_joint": 3.8740245409786054,
        "distance_shoulder_lift_joint": 1.0523835726234008,
        "distance_shoulder_pan_joint": 1.240540155530559,
        "distance_wrist_1_joint": 1.1238917784590443,
        "distance_wrist_2_joint": 1.4432175972747086,
        "distance_wrist_3_joint": 1.9039921465350664,
        "smoothness": 2.537652629914275e-16,
        "time": 5.002902869,
        "traj_len": 3.261602334957679,
        "weighted_distance": 4.124699196329991
    },
    "planner": "PRMstar",
    "start": {
        "state": {
            "elbow_joint": -1.919643507792019,
            "shoulder_lift_joint": -0.07675430207160344,
            "shoulder_pan_joint": -1.1188671864651873,
            "wrist_1_joint": 0.42560062535961957,
            "wrist_2_joint": 1.5706038300724876,
            "wrist_3_joint": 1.1188968870953055
        }
    },
    "waypoints": [
        {
            "positions": [
                -1.1188671864651873,
                -0.07675430207160344,
                -1.919643507792019,
                0.42560062535961957,
                1.5706038300724876,
                1.1188968870953055
            ]
        },
        {
            "positions": [
                -1.0729212547788705,
                -0.1157314714280257,
                -1.7761611173854042,
                0.3839750039352105,
                1.5171513264697207,
                1.1894151147447525
            ]
        },
        {
            "positions": [
                -1.0269753230925533,
                -0.15470864078444796,
                -1.632678726978789,
                0.3423493825108015,
                1.4636988228669536,
                1.2599333423941994
            ]
        },
        {
            "positions": [
                -0.9810293914062364,
                -0.1936858101408702,
                -1.489196336572174,
                0.3007237610863924,
                1.4102463192641868,
                1.3304515700436463
            ]
        },
        {
            "positions": [
                -0.9350834597199194,
                -0.23266297949729245,
                -1.3457139461655592,
                0.25909813966198336,
                1.3567938156614197,
                1.4009697976930933
            ]
        },
        {
            "positions": [
                -0.8891375280336024,
                -0.2716401488537147,
                -1.202231555758944,
                0.21747251823757432,
                1.3033413120586528,
                1.47148802534254
            ]
        },
        {
            "positions": [
                -0.8431915963472854,
                -0.31061731821013694,
                -1.058749165352329,
                0.1758468968131653,
                1.2498888084558857,
                1.542006252991987
            ]
        },
        {
            "positions": [
                -0.7972456646609684,
                -0.3495944875665592,
                -0.915266774945714,
                0.13422127538875622,
                1.1964363048531188,
                1.6125244806414338
            ]
        },
        {
            "positions": [
                -0.7512997329746514,
                -0.38857165692298146,
                -0.771784384539099,
                0.09259565396434721,
                1.1429838012503517,
                1.6830427082908808
            ]
        },
        {
            "positions": [
                -0.7053538012883344,
                -0.42754882627940366,
                -0.6283019941324841,
                0.05097003253993815,
                1.0895312976475848,
                1.7535609359403277
            ]
        },
        {
            "positions": [
                -0.6594078696020174,
                -0.4665259956358259,
                -0.48481960372586896,
                0.009344411115529083,
                1.0360787940448177,
                1.8240791635897744
            ]
        },
        {
            "positions": [
                -0.6134619379157004,
                -0.5055031649922481,
                -0.34133721331925404,
                -0.032281210308879926,
                0.9826262904420509,
                1.8945973912392216
            ]
        },
        {
            "positions": [
                -0.5675160062293834,
                -0.5444803343486704,
                -0.19785482291263912,
                -0.07390683173328899,
                0.9291737868392839,
                1.9651156188886683
            ]
        },
        {
            "positions": [
                -0.5215700745430664,
                -0.5834575037050926,
                -0.05437243250602397,
                -0.11553245315769806,
                0.8757212832365169,
                2.0356338465381154
            ]
        },
        {
            "positions": [
                -0.47562414285674937,
                -0.6224346730615149,
                0.08910995790059117,
                -0.15715807458210712,
                0.8222687796337499,
                2.106152074187562
            ]
        },
        {
            "positions": [
                -0.42967821117043226,
                -0.6614118424179372,
                0.23259234830720632,
                -0.1987836960065162,
                0.7688162760309828,
                2.1766703018370093
            ]
        },
        {
            "positions": [
                -0.38373227948411537,
                -0.7003890117743594,
                0.376074738713821,
                -0.24040931743092514,
                0.7153637724282159,
                2.247188529486456
            ]
        },
        {
            "positions": [
                -0.33778634779779826,
                -0.7393661811307817,
                0.5195571291204362,
                -0.2820349388553343,
                0.6619112688254488,
                2.3177067571359027
            ]
        },
        {
            "positions": [
                -0.29184041611148137,
                -0.7783433504872039,
                0.6630395195270509,
                -0.32366056027974327,
                0.6084587652226819,
                2.38822498478535
            ]
        },
        {
            "positions": [
                -0.24589448442516426,
                -0.8173205198436262,
                0.8065219099336665,
                -0.36528618170415234,
                0.555006261619915,
                2.458743212434797
            ]
        },
        {
            "positions": [
                -0.19994855273884737,
                -0.8562976892000485,
                0.9500043003402812,
                -0.4069118031285614,
                0.5015537580171481,
                2.5292614400842437
            ]
        },
        {
            "positions": [
                -0.15400262105253026,
                -0.8952748585564707,
                1.0934866907468963,
                -0.44853742455297047,
                0.448101254414381,
                2.5997796677336904
            ]
        },
        {
            "positions": [
                -0.10805668936621338,
                -0.934252027912893,
                1.236969081153511,
                -0.4901630459773794,
                0.3946487508116141,
                2.670297895383137
            ]
        },
        {
            "positions": [
                -0.06211075767989627,
                -0.9732291972693152,
                1.3804514715601262,
                -0.5317886674017887,
                0.341196247208847,
                2.7408161230325847
            ]
        },
        {
            "positions": [
                -0.01616482599357938,
                -1.0122063666257375,
                1.5239338619667409,
                -0.5734142888261975,
                0.2877437436060801,
                2.8113343506820314
            ]
        },
        {
            "positions": [
                0.02978110569273773,
                -1.0511835359821597,
                1.6674162523733564,
                -0.6150399102506066,
                0.23429124000331303,
                2.881852578331478
            ]
        },
        {
            "positions": [
                0.07572703737905462,
                -1.090160705338582,
                1.8108986427799711,
                -0.6566655316750156,
                0.18083873640054615,
                2.952370805980925
            ]
        },
        {
            "positions": [
                0.12167296906537164,
                -1.1291378746950043,
                1.9543810331865863,
                -0.6982911530994247,
                0.12738623279777914,
                3.022889033630372
            ]
        }
    ]
}