{
    "goal": {
        "global_pose": {
            "orientation": {
                "w": -0.00223480608172531,
                "x": 0.0024358444001904467,
                "y": 0.7094548369677653,
                "z": -0.704743149386269
            },
            "position": {
                "x": 0.6205249238014221,
                "y": -0.6371506643295288,
                "z": 0.19426114857196808
            }
        },
        "name": "move_to_magneteinheit_B"
    },
    "id": "PRMstar_move_to_magneteinheit_B_9",
    "joint_names": [
        "shoulder_pan_joint",
        "shoulder_lift_joint",
        "elbow_joint",
        "wrist_1_joint",
        "wrist_2_joint",
        "wrist_3_joint"
    ],
    "metrics": {
        "cart_traj_len": 1.453658930969809,
        "distance_elbow_joint": 0.7256270090711583,
        "distance_shoulder_lift_joint": 1.2451094919435728,
        "distance_shoulder_pan_joint": 1.6209106703495504,
        "distance_wrist_1_joint": 2.6216684782380884,
        "distance_wrist_2_joint": 2.9468640838776983,
        "distance_wrist_3_joint": 3.1400535327459713,
        "smoothness": 4.575464599789371e-16,
        "time": 5.002751985,
        "traj_len": 3.5071688391387768,
        "weighted_distance": 4.914150271800178
    },
    "planner": "PRMstar",
    "start": {
        "state": {
            "elbow_joint": 2.39358713078474,
            "shoulder_lift_joint": -1.908514104345545,
            "shoulder_pan_joint": 0.7066247066606129,
            "wrist_1_joint": -0.4678290933515497,
            "wrist_2_joint": 0.7096259083745334,
            "wrist_3_joint": -3.1358149277392293
        }
    },
    "waypoints": [
        {
            "positions": [
                0.7066247066606129,
                -1.908514104345545,
                2.39358713078474,
                -0.4678290933515497,
                0.7096259083745334,
                -3.1358149277392293
            ]
        },
        {
            "positions": [
                0.6559712482121896,
                -1.8696044327223083,
                2.3709112867512663,
                -0.38590195340660943,
                0.6175364057533553,
                -3.037688254840918
            ]
        },
        {
            "positions": [
                0.605317789763766,
                -1.8306947610990716,
                2.3482354427177925,
                -0.3039748134616692,
                0.5254469031321773,
                -2.939561581942606
            ]
        },
        {
            "positions": [
                0.5546643313153425,
                -1.791785089475835,
                2.325559598684319,
                -0.22204767351672894,
                0.43335740051099925,
                -2.8414349090442945
            ]
        },
        {
            "positions": [
                0.5040108728669191,
                -1.7528754178525983,
                2.3028837546508454,
                -0.14012053357178866,
                0.34126789788982115,
                -2.743308236145983
            ]
        },
        {
            "positions": [
                0.4533574144184957,
                -1.7139657462293616,
                2.2802079106173716,
                -0.05819339362684839,
                0.24917839526864305,
                -2.645181563247671
            ]
        },
        {
            "positions": [
                0.40270395597007225,
                -1.675056074606125,
                2.257532066583898,
                0.02373374631809183,
                0.15708889264746506,
                -2.5470548903493597
            ]
        },
        {
            "positions": [
                0.3520504975216488,
                -1.6361464029828885,
                2.234856222550424,
                0.1056608862630321,
                0.06499939002628696,
                -2.448928217451048
            ]
        },
        {
            "positions": [
                0.30139703907322535,
                -1.5972367313596516,
                2.2121803785169503,
                0.18758802620797238,
                -0.027090112594891136,
                -2.3508015445527364
            ]
        },
        {
            "positions": [
                0.2507435806248019,
                -1.5583270597364152,
                2.189504534483477,
                0.26951516615291266,
                -0.11917961521606923,
                -2.252674871654425
            ]
        },
        {
            "positions": [
                0.20009012217637845,
                -1.5194173881131783,
                2.166828690450003,
                0.35144230609785293,
                -0.21126911783724733,
                -2.154548198756113
            ]
        },
        {
            "positions": [
                0.14943666372795505,
                -1.4805077164899418,
                2.1441528464165294,
                0.4333694460427932,
                -0.30335862045842543,
                -2.0564215258578016
            ]
        },
        {
            "positions": [
                0.09878320527953155,
                -1.4415980448667052,
                2.1214770023830556,
                0.5152965859877334,
                -0.3954481230796033,
                -1.9582948529594901
            ]
        },
        {
            "positions": [
                0.048129746831108045,
                -1.4026883732434685,
                2.0988011583495823,
                0.5972237259326738,
                -0.4875376257007814,
                -1.8601681800611785
            ]
        },
        {
            "positions": [
                -0.0025237116173153495,
                -1.3637787016202318,
                2.0761253143161085,
                0.679150865877614,
                -0.5796271283219595,
                -1.7620415071628668
            ]
        },
        {
            "positions": [
                -0.053177170065738744,
                -1.3248690299969952,
                2.0534494702826347,
                0.7610780058225544,
                -0.6717166309431376,
                -1.6639148342645553
            ]
        },
        {
            "positions": [
                -0.10383062851416225,
                -1.2859593583737585,
                2.030773626249161,
                0.8430051457674945,
                -0.7638061335643157,
                -1.5657881613662437
            ]
        },
        {
            "positions": [
                -0.15448408696258575,
                -1.2470496867505219,
                2.008097782215687,
                0.9249322857124347,
                -0.8558956361854938,
                -1.467661488467932
            ]
        },
        {
            "positions": [
                -0.20513754541100915,
                -1.2081400151272852,
                1.9854219381822136,
                1.006859425657375,
                -0.9479851388066719,
                -1.3695348155696205
            ]
        },
        {
            "positions": [
                -0.25579100385943254,
                -1.1692303435040485,
                1.9627460941487398,
                1.0887865656023152,
                -1.04007464142785,
                -1.2714081426713089
            ]
        },
        {
            "positions": [
                -0.30644446230785605,
                -1.1303206718808119,
                1.9400702501152662,
                1.1707137055472556,
                -1.1321641440490282,
                -1.1732814697729972
            ]
        },
        {
            "positions": [
                -0.35709792075627955,
                -1.0914110002575752,
                1.9173944060817925,
                1.2526408454921958,
                -1.2242536466702059,
                -1.0751547968746857
            ]
        },
        {
            "positions": [
                -0.40775137920470284,
                -1.0525013286343388,
                1.8947185620483187,
                1.3345679854371362,
                -1.3163431492913844,
                -0.9770281239763738
            ]
        },
        {
            "positions": [
                -0.45840483765312634,
                -1.0135916570111019,
                1.872042718014845,
                1.4164951253820763,
                -1.4084326519125625,
                -0.8789014510780624
            ]
        },
        {
            "positions": [
                -0.5090582961015498,
                -0.9746819853878653,
                1.8493668739813713,
                1.4984222653270165,
                -1.5005221545337402,
                -0.7807747781797509
            ]
        },
        {
            "positions": [
                -0.5597117545499734,
                -0.9357723137646287,
                1.8266910299478978,
                1.5803494052719569,
                -1.5926116571549183,
                -0.682648105281439
            ]
        },
        {
            "positions": [
                -0.6103652129983969,
                -0.8968626421413921,
                1.804015185914424,
                1.6622765452168973,
                -1.6847011597760964,
                -0.5845214323831276
            ]
        },
        {
            "positions": [
                -0.6610186714468201,
                -0.8579529705181554,
                1.7813393418809502,
                1.7442036851618372,
                -1.7767906623972745,
                -0.48639475948481614
            ]
        },
        {
            "positions": [
                -0.7116721298952436,
                -0.8190432988949188,
                1.7586634978474764,
                1.8261308251067776,
                -1.8688801650184526,
                -0.38826808658650425
            ]
        },
        {
            "positions": [
                -0.7623255883436671,
                -0.7801336272716821,
                1.7359876538140029,
                1.908057965051718,
                -1.9609696676396307,
                -0.2901414136881928
            ]
        },
        {
            "positions": [
                -0.8129790467920904,
                -0.7412239556484455,
                1.713311809780529,
                1.9899851049966584,
                -2.0530591702608088,
                -0.19201474078988134
            ]
        },
        {
            "positions": [
                -0.8636325052405139,
                -0.7023142840252088,
                1.6906359657470555,
                2.0719122449415983,
                -2.145148672881987,
                -0.09388806789156945
            ]
        },
        {
            "positions": [
                -0.9142859636889373,
                -0.6634046124019721,
                1.6679601217135818,
                2.1538393848865387,
                -2.237238175503165,
                0.0042386050067421185
            ]
        }
    ]
}