{
    "goal": {
        "global_pose": {
            "orientation": {
                "w": 0.7047431468963623,
                "x": -0.7094548344612122,
                "y": 0.0024358443915843964,
                "z": -0.0022348060738295317
            },
            "position": {
                "x": 0.6094750761985779,
                "y": 0.3671506643295288,
                "z": 0.19426114857196808
            }
        },
        "name": "move_to_magneteinheit_A"
    },
    "id": "PRMstar_move_to_magneteinheit_A_73",
    "joint_names": [
        "shoulder_pan_joint",
        "shoulder_lift_joint",
        "elbow_joint",
        "wrist_1_joint",
        "wrist_2_joint",
        "wrist_3_joint"
    ],
    "metrics": {
        "cart_traj_len": 1.8800682379512494,
        "distance_elbow_joint": 3.909281174376614,
        "distance_shoulder_lift_joint": 0.6986800226965565,
        "distance_shoulder_pan_joint": 1.2416805131462096,
        "distance_wrist_1_joint": 1.4838429067567696,
        "distance_wrist_2_joint": 1.698091108699353,
        "distance_wrist_3_joint": 1.0914464405186488,
        "smoothness": 3.289549710083688e-16,
        "time": 5.009234615,
        "traj_len": 3.1816697135614422,
        "weighted_distance": 3.9354604638704695
    },
    "planner": "PRMstar",
    "start": {
        "state": {
            "elbow_joint": -1.919643507792019,
            "shoulder_lift_joint": -0.07675430207160344,
            "shoulder_pan_joint": -1.1188671864651873,
            "wrist_1_joint": 0.42560062535961957,
            "wrist_2_joint": 1.5706038300724876,
            "wrist_3_joint": 1.1188968870953055
        }
    },
    "waypoints": [
        {
            "positions": [
                -1.1188671864651873,
                -0.07675430207160344,
                -1.919643507792019,
                0.42560062535961957,
                1.5706038300724876,
                1.1188968870953055
            ]
        },
        {
            "positions": [
                -1.0711102436518716,
                -0.10362661063685562,
                -1.7692865395467647,
                0.4826715063887261,
                1.5052926335840509,
                1.0769181778445882
            ]
        },
        {
            "positions": [
                -1.0233533008385558,
                -0.1304989192021078,
                -1.6189295713015102,
                0.5397423874178326,
                1.4399814370956143,
                1.034939468593871
            ]
        },
        {
            "positions": [
                -0.97559635802524,
                -0.15737122776735998,
                -1.468572603056256,
                0.5968132684469392,
                1.3746702406071776,
                0.9929607593431538
            ]
        },
        {
            "positions": [
                -0.9278394152119243,
                -0.18424353633261215,
                -1.3182156348110015,
                0.6538841494760457,
                1.309359044118741,
                0.9509820500924365
            ]
        },
        {
            "positions": [
                -0.8800824723986086,
                -0.21111584489786434,
                -1.167858666565747,
                0.7109550305051522,
                1.2440478476303043,
                0.9090033408417192
            ]
        },
        {
            "positions": [
                -0.8323255295852928,
                -0.23798815346311653,
                -1.0175016983204928,
                0.7680259115342587,
                1.1787366511418678,
                0.867024631591002
            ]
        },
        {
            "positions": [
                -0.784568586771977,
                -0.26486046202836866,
                -0.8671447300752384,
                0.8250967925633652,
                1.113425454653431,
                0.8250459223402847
            ]
        },
        {
            "positions": [
                -0.7368116439586613,
                -0.2917327705936209,
                -0.7167877618299838,
                0.8821676735924717,
                1.0481142581649943,
                0.7830672130895675
            ]
        },
        {
            "positions": [
                -0.6890547011453456,
                -0.31860507915887304,
                -0.5664307935847297,
                0.9392385546215782,
                0.9828030616765577,
                0.7410885038388502
            ]
        },
        {
            "positions": [
                -0.6412977583320298,
                -0.34547738772412523,
                -0.4160738253394751,
                0.9963094356506847,
                0.917491865188121,
                0.6991097945881328
            ]
        },
        {
            "positions": [
                -0.5935408155187141,
                -0.37234969628937736,
                -0.26571685709422077,
                1.0533803166797913,
                0.8521806686996843,
                0.6571310853374157
            ]
        },
        {
            "positions": [
                -0.5457838727053983,
                -0.3992220048546296,
                -0.11535988884896642,
                1.1104511977088978,
                0.7868694722112477,
                0.6151523760866984
            ]
        },
        {
            "positions": [
                -0.4980269298920825,
                -0.42609431341988174,
                0.03499707939628793,
                1.1675220787380043,
                0.7215582757228111,
                0.5731736668359811
            ]
        },
        {
            "positions": [
                -0.45026998707876675,
                -0.4529666219851339,
                0.18535404764154229,
                1.2245929597671108,
                0.6562470792343744,
                0.5311949575852639
            ]
        },
        {
            "positions": [
                -0.4025130442654511,
                -0.47983893055038607,
                0.3357110158867964,
                1.2816638407962173,
                0.5909358827459378,
                0.4892162483345467
            ]
        },
        {
            "positions": [
                -0.3547561014521352,
                -0.5067112391156383,
                0.48606798413205143,
                1.338734721825324,
                0.5256246862575011,
                0.44723753908382935
            ]
        },
        {
            "positions": [
                -0.30699915863881955,
                -0.5335835476808904,
                0.6364249523773056,
                1.3958056028544303,
                0.4603134897690644,
                0.4052588298331121
            ]
        },
        {
            "positions": [
                -0.2592422158255038,
                -0.5604558562461426,
                0.7867819206225597,
                1.452876483883537,
                0.39500229328062786,
                0.3632801205823949
            ]
        },
        {
            "positions": [
                -0.211485273012188,
                -0.5873281648113948,
                0.9371388888678143,
                1.5099473649126434,
                0.3296910967921911,
                0.32130141133167767
            ]
        },
        {
            "positions": [
                -0.16372833019887223,
                -0.6142004733766471,
                1.0874958571130688,
                1.56701824594175,
                0.26437990030375436,
                0.2793227020809602
            ]
        },
        {
            "positions": [
                -0.11597138738555657,
                -0.6410727819418991,
                1.237852825358323,
                1.6240891269708566,
                0.19906870381531783,
                0.237343992830243
            ]
        },
        {
            "positions": [
                -0.0682144445722408,
                -0.6679450905071513,
                1.3882097936035775,
                1.6811600079999631,
                0.13375750732688108,
                0.19536528357952576
            ]
        },
        {
            "positions": [
                -0.020457501758925023,
                -0.6948173990724036,
                1.5385667618488317,
                1.7382308890290696,
                0.06844631083844455,
                0.15338657432880853
            ]
        },
        {
            "positions": [
                0.02729944105439075,
                -0.7216897076376558,
                1.6889237300940863,
                1.7953017700581761,
                0.003135114350007795,
                0.1114078650780912
            ]
        },
        {
            "positions": [
                0.07505638386770652,
                -0.7485620162029079,
                1.8392806983393408,
                1.8523726510872827,
                -0.062176082138428956,
                0.06942915582737408
            ]
        },
        {
            "positions": [
                0.12281332668102218,
                -0.77543432476816,
                1.989637666584595,
                1.9094435321163892,
                -0.12748727862686549,
                0.02745044657665668
            ]
        }
    ]
}