{
    "goal": {
        "global_pose": {
            "orientation": {
                "w": 0.7047431468963623,
                "x": -0.7094548344612122,
                "y": 0.0024358443915843964,
                "z": -0.0022348060738295317
            },
            "position": {
                "x": 0.6094750761985779,
                "y": 0.3671506643295288,
                "z": 0.19426114857196808
            }
        },
        "name": "move_to_magneteinheit_A"
    },
    "id": "PRMstar_move_to_magneteinheit_A_48",
    "joint_names": [
        "shoulder_pan_joint",
        "shoulder_lift_joint",
        "elbow_joint",
        "wrist_1_joint",
        "wrist_2_joint",
        "wrist_3_joint"
    ],
    "metrics": {
        "cart_traj_len": 2.0714418945370623,
        "distance_elbow_joint": 3.8771286655713944,
        "distance_shoulder_lift_joint": 1.0542528846374724,
        "distance_shoulder_pan_joint": 1.2422441979575183,
        "distance_wrist_1_joint": 1.1421818998150024,
        "distance_wrist_2_joint": 1.4332656708783524,
        "distance_wrist_3_joint": 4.36650851154443,
        "smoothness": 7.105427386874857e-16,
        "time": 5.1020687,
        "traj_len": 3.621544122388152,
        "weighted_distance": 4.942069042838878
    },
    "planner": "PRMstar",
    "start": {
        "state": {
            "elbow_joint": -1.919643507792019,
            "shoulder_lift_joint": -0.07675430207160344,
            "shoulder_pan_joint": -1.1188671864651873,
            "wrist_1_joint": 0.42560062535961957,
            "wrist_2_joint": 1.5706038300724876,
            "wrist_3_joint": 1.1188968870953055
        }
    },
    "waypoints": [
        {
            "positions": [
                -1.1188671864651873,
                -0.07675430207160344,
                -1.919643507792019,
                0.42560062535961957,
                1.5706038300724876,
                1.1188968870953055
            ]
        },
        {
            "positions": [
                -1.0829215424687864,
                -0.10858481865454987,
                -1.8027046327507346,
                0.391827511516296,
                1.5304600539249045,
                0.9902191556809771
            ]
        },
        {
            "positions": [
                -1.0469758984723856,
                -0.1404153352374963,
                -1.6857657577094498,
                0.3580543976729724,
                1.4903162777773211,
                0.8615414242666486
            ]
        },
        {
            "positions": [
                -1.0110302544759846,
                -0.17224585182044272,
                -1.5688268826681653,
                0.3242812838296488,
                1.450172501629738,
                0.73286369285232
            ]
        },
        {
            "positions": [
                -0.9750846104795837,
                -0.20407636840338916,
                -1.4518880076268807,
                0.2905081699863253,
                1.4100287254821549,
                0.6041859614379916
            ]
        },
        {
            "positions": [
                -0.9391389664831828,
                -0.2359068849863356,
                -1.3349491325855962,
                0.25673505614300174,
                1.3698849493345717,
                0.47550823002366305
            ]
        },
        {
            "positions": [
                -0.903193322486782,
                -0.26773740156928205,
                -1.2180102575443115,
                0.22296194229967814,
                1.3297411731869884,
                0.34683049860933457
            ]
        },
        {
            "positions": [
                -0.8672476784903811,
                -0.2995679181522285,
                -1.101071382503027,
                0.18918882845635457,
                1.2895973970394052,
                0.2181527671950061
            ]
        },
        {
            "positions": [
                -0.8313020344939801,
                -0.3313984347351749,
                -0.9841325074617423,
                0.155415714613031,
                1.2494536208918219,
                0.08947503578067773
            ]
        },
        {
            "positions": [
                -0.7953563904975793,
                -0.3632289513181213,
                -0.8671936324204579,
                0.12164260076970745,
                1.2093098447442387,
                -0.039202695633650864
            ]
        },
        {
            "positions": [
                -0.7594107465011783,
                -0.3950594679010678,
                -0.7502547573791731,
                0.08786948692638386,
                1.1691660685966556,
                -0.16788042704797945
            ]
        },
        {
            "positions": [
                -0.7234651025047776,
                -0.42688998448401416,
                -0.6333158823378886,
                0.05409637308306031,
                1.1290222924490725,
                -0.2965581584623078
            ]
        },
        {
            "positions": [
                -0.6875194585083766,
                -0.4587205010669606,
                -0.5163770072966039,
                0.020323259239736713,
                1.0888785163014891,
                -0.4252358898766364
            ]
        },
        {
            "positions": [
                -0.6515738145119757,
                -0.49055101764990705,
                -0.3994381322553193,
                -0.01344985460358683,
                1.048734740153906,
                -0.5539136212909648
            ]
        },
        {
            "positions": [
                -0.6156281705155748,
                -0.5223815342328535,
                -0.2824992572140348,
                -0.04722296844691043,
                1.0085909640063226,
                -0.6825913527052934
            ]
        },
        {
            "positions": [
                -0.579682526519174,
                -0.5542120508157999,
                -0.16556038217275026,
                -0.08099608229023397,
                0.9684471878587396,
                -0.8112690841196217
            ]
        },
        {
            "positions": [
                -0.543736882522773,
                -0.5860425673987464,
                -0.04862150713146551,
                -0.11476919613355757,
                0.9283034117111564,
                -0.9399468155339501
            ]
        },
        {
            "positions": [
                -0.5077912385263722,
                -0.6178730839816928,
                0.06831736790981902,
                -0.14854230997688106,
                0.8881596355635732,
                -1.068624546948279
            ]
        },
        {
            "positions": [
                -0.4718455945299713,
                -0.649703600564639,
                0.18525624295110332,
                -0.18231542382020466,
                0.8480158594159901,
                -1.1973022783626073
            ]
        },
        {
            "positions": [
                -0.43589995053357034,
                -0.6815341171475857,
                0.3021951179923883,
                -0.21608853766352826,
                0.8078720832684068,
                -1.325980009776936
            ]
        },
        {
            "positions": [
                -0.39995430653716946,
                -0.7133646337305322,
                0.4191339930336728,
                -0.24986165150685186,
                0.7677283071208236,
                -1.4546577411912645
            ]
        },
        {
            "positions": [
                -0.3640086625407686,
                -0.7451951503134784,
                0.5360728680749574,
                -0.28363476535017534,
                0.7275845309732404,
                -1.5833354726055928
            ]
        },
        {
            "positions": [
                -0.3280630185443677,
                -0.7770256668964248,
                0.6530117431162419,
                -0.31740787919349894,
                0.6874407548256573,
                -1.7120132040199212
            ]
        },
        {
            "positions": [
                -0.2921173745479667,
                -0.8088561834793715,
                0.7699506181575269,
                -0.35118099303682254,
                0.6472969786780739,
                -1.84069093543425
            ]
        },
        {
            "positions": [
                -0.25617173055156583,
                -0.8406867000623177,
                0.8868894931988114,
                -0.38495410688014614,
                0.6071532025304908,
                -1.9693686668485784
            ]
        },
        {
            "positions": [
                -0.22022608655516496,
                -0.8725172166452642,
                1.003828368240096,
                -0.41872722072346963,
                0.5670094263829075,
                -2.0980463982629067
            ]
        },
        {
            "positions": [
                -0.18428044255876408,
                -0.9043477332282106,
                1.1207672432813804,
                -0.4525003345667932,
                0.5268656502353244,
                -2.226724129677235
            ]
        },
        {
            "positions": [
                -0.1483347985623631,
                -0.936178249811157,
                1.2377061183226654,
                -0.4862734484101168,
                0.48672187408774126,
                -2.355401861091564
            ]
        },
        {
            "positions": [
                -0.11238915456596232,
                -0.9680087663941035,
                1.3546449933639495,
                -0.5200465622534405,
                0.4465780979401579,
                -2.4840795925058923
            ]
        },
        {
            "positions": [
                -0.07644351056956133,
                -0.9998392829770499,
                1.471583868405234,
                -0.553819676096764,
                0.40643432179257477,
                -2.6127573239202206
            ]
        },
        {
            "positions": [
                -0.04049786657316057,
                -1.0316697995599964,
                1.5885227434465186,
                -0.5875927899400875,
                0.36629054564499164,
                -2.741435055334549
            ]
        },
        {
            "positions": [
                -0.004552222576759579,
                -1.0635003161429428,
                1.7054616184878035,
                -0.6213659037834112,
                0.3261467694974083,
                -2.870112786748878
            ]
        },
        {
            "positions": [
                0.03139342141964141,
                -1.0953308327258893,
                1.822400493529088,
                -0.6551390176267347,
                0.28600299334982515,
                -2.9987905181632057
            ]
        },
        {
            "positions": [
                0.06733906541604215,
                -1.1271613493088357,
                1.9393393685703726,
                -0.6889121314700583,
                0.24585921720224196,
                -3.1274682495775346
            ]
        },
        {
            "positions": [
                0.12337701149233102,
                -1.1310071867090759,
                1.957485157779375,
                -0.7165812744553827,
                0.13733815919413522,
                -3.247611624449125
            ]
        }
    ]
}