{
    "goal": {
        "global_pose": {
            "orientation": {
                "w": 0.7031023502349854,
                "x": -0.7110244035720825,
                "y": 0.007748599164187908,
                "z": 0.005598929710686207
            },
            "position": {
                "x": 0.11585023208521307,
                "y": 0.44412534475326537,
                "z": 0.3711530566215515
            }
        },
        "name": "move_to_auspresseinheit_A"
    },
    "id": "PRMstar_move_to_auspresseinheit_A_71",
    "joint_names": [
        "shoulder_pan_joint",
        "shoulder_lift_joint",
        "elbow_joint",
        "wrist_1_joint",
        "wrist_2_joint",
        "wrist_3_joint"
    ],
    "metrics": {
        "cart_traj_len": 1.5977696267894594,
        "distance_elbow_joint": 0.26481914059421596,
        "distance_shoulder_lift_joint": 1.8959590916518794,
        "distance_shoulder_pan_joint": 4.781990502697702,
        "distance_wrist_1_joint": 6.6065558480963995,
        "distance_wrist_2_joint": 3.4494419629026343,
        "distance_wrist_3_joint": 9.033245072146158,
        "smoothness": 0.5048629779872851,
        "time": 5.11971824,
        "traj_len": 5.102157545400672,
        "weighted_distance": 7.3589740842987315
    },
    "planner": "PRMstar",
    "start": {
        "state": {
            "elbow_joint": 2.422574709923281,
            "shoulder_lift_joint": -1.3736533754116391,
            "shoulder_pan_joint": -0.33786336945926293,
            "wrist_1_joint": -1.0288603412921917,
            "wrist_2_joint": 1.2330224858903978,
            "wrist_3_joint": -3.094022268022082
        }
    },
    "waypoints": [
        {
            "positions": [
                -0.33786336945926293,
                -1.3736533754116391,
                2.422574709923281,
                -1.0288603412921917,
                1.2330224858903978,
                -3.094022268022082
            ]
        },
        {
            "positions": [
                -0.39285007697007884,
                -1.409387585013617,
                2.418280011595023,
                -0.9235902514226644,
                1.1744725513365264,
                -2.9618615476997308
            ]
        },
        {
            "positions": [
                -0.4478367844808947,
                -1.4451217946155952,
                2.413985313266765,
                -0.8183201615531371,
                1.1159226167826548,
                -2.8297008273773794
            ]
        },
        {
            "positions": [
                -0.5028234919917106,
                -1.4808560042175731,
                2.4096906149385062,
                -0.7130500716836098,
                1.0573726822287834,
                -2.697540107055028
            ]
        },
        {
            "positions": [
                -0.5578101995025265,
                -1.516590213819551,
                2.405395916610248,
                -0.6077799818140825,
                0.998822747674912,
                -2.5653793867326766
            ]
        },
        {
            "positions": [
                -0.6127969070133423,
                -1.5523244234215292,
                2.40110121828199,
                -0.5025098919445552,
                0.9402728131210405,
                -2.4332186664103252
            ]
        },
        {
            "positions": [
                -0.6677836145241582,
                -1.5880586330235071,
                2.396806519953732,
                -0.39723980207502785,
                0.881722878567169,
                -2.301057946087974
            ]
        },
        {
            "positions": [
                -0.7227703220349742,
                -1.6237928426254853,
                2.3925118216254733,
                -0.2919697122055006,
                0.8231729440132975,
                -2.1688972257656225
            ]
        },
        {
            "positions": [
                -0.7777570295457901,
                -1.6595270522274632,
                2.388217123297215,
                -0.18669962233597326,
                0.7646230094594262,
                -2.036736505443271
            ]
        },
        {
            "positions": [
                -0.832743737056606,
                -1.6952612618294411,
                2.383922424968957,
                -0.08142953246644591,
                0.7060730749055547,
                -1.9045757851209197
            ]
        },
        {
            "positions": [
                -0.8877304445674219,
                -1.7309954714314193,
                2.379627726640699,
                0.02384055740308133,
                0.6475231403516832,
                -1.7724150647985684
            ]
        },
        {
            "positions": [
                -0.9427171520782378,
                -1.7667296810333972,
                2.3753330283124403,
                0.12911064727260868,
                0.5889732057978118,
                -1.640254344476217
            ]
        },
        {
            "positions": [
                -0.9977038595890537,
                -1.8024638906353752,
                2.371038329984182,
                0.23438073714213603,
                0.5304232712439403,
                -1.5080936241538656
            ]
        },
        {
            "positions": [
                -1.0526905670998694,
                -1.8381981002373533,
                2.366743631655924,
                0.33965082701166316,
                0.4718733366900689,
                -1.3759329038315145
            ]
        },
        {
            "positions": [
                -1.1076772746106853,
                -1.8739323098393312,
                2.362448933327666,
                0.4449209168811905,
                0.41332340213619745,
                -1.2437721835091629
            ]
        },
        {
            "positions": [
                -1.1626639821215012,
                -1.9096665194413092,
                2.3581542349994074,
                0.5501910067507179,
                0.354773467582326,
                -1.1116114631868115
            ]
        },
        {
            "positions": [
                -1.2176506896323172,
                -1.9454007290432873,
                2.3538595366711492,
                0.6554610966202452,
                0.2962235330284545,
                -0.9794507428644601
            ]
        },
        {
            "positions": [
                -1.272637397143133,
                -1.9811349386452652,
                2.349564838342891,
                0.7607311864897726,
                0.23767359847458303,
                -0.8472900225421087
            ]
        },
        {
            "positions": [
                -1.327624104653949,
                -2.016869148247243,
                2.345270140014633,
                0.8660012763592999,
                0.17912366392071166,
                -0.7151293022197573
            ]
        },
        {
            "positions": [
                -1.382610812164765,
                -2.0526033578492213,
                2.340975441686375,
                0.971271366228827,
                0.12057372936684008,
                -0.582968581897406
            ]
        },
        {
            "positions": [
                -1.4375975196755808,
                -2.088337567451199,
                2.3366807433581163,
                1.0765414560983544,
                0.06202379481296871,
                -0.4508078615750546
            ]
        },
        {
            "positions": [
                -1.4925842271863967,
                -2.124071777053177,
                2.332386045029858,
                1.1818115459678817,
                0.003473860259097128,
                -0.3186471412527032
            ]
        },
        {
            "positions": [
                -1.5475709346972126,
                -2.1598059866551553,
                2.3280913467016,
                1.287081635837409,
                -0.055076074294774235,
                -0.18648642093035184
            ]
        },
        {
            "positions": [
                -1.6025576422080285,
                -2.1955401962571335,
                2.323796648373342,
                1.3923517257069364,
                -0.11362600884864582,
                -0.05432570060800046
            ]
        },
        {
            "positions": [
                -1.6575443497188445,
                -2.231274405859111,
                2.3195019500450833,
                1.4976218155764638,
                -0.17217594340251718,
                0.07783501971435092
            ]
        },
        {
            "positions": [
                -1.7125310572296604,
                -2.2670086154610893,
                2.315207251716825,
                1.6028919054459911,
                -0.23072587795638877,
                0.20999574003670274
            ]
        },
        {
            "positions": [
                -1.767517764740476,
                -2.302742825063067,
                2.310912553388567,
                1.708161995315518,
                -0.2892758125102599,
                0.3421564603590532
            ]
        },
        {
            "positions": [
                -1.822504472251292,
                -2.338477034665045,
                2.306617855060309,
                1.8134320851850454,
                -0.3478257470641315,
                0.47431718068140505
            ]
        },
        {
            "positions": [
                -1.8774911797621079,
                -2.3742112442670233,
                2.3023231567320503,
                1.9187021750545727,
                -0.40637568161800286,
                0.6064779010037564
            ]
        },
        {
            "positions": [
                -1.9324778872729238,
                -2.4099454538690015,
                2.298028458403792,
                2.0239722649241,
                -0.46492561617187445,
                0.7386386213261078
            ]
        },
        {
            "positions": [
                -1.9874645947837397,
                -2.445679663470979,
                2.293733760075534,
                2.1292423547936274,
                -0.5234755507257458,
                0.8707993416484592
            ]
        },
        {
            "positions": [
                -2.0424513022945554,
                -2.4814138730729574,
                2.289439061747276,
                2.234512444663155,
                -0.5820254852796174,
                1.0029600619708101
            ]
        },
        {
            "positions": [
                -2.0974380098053715,
                -2.517148082674935,
                2.2851443634190174,
                2.339782534532682,
                -0.6405754198334888,
                1.135120782293162
            ]
        },
        {
            "positions": [
                -2.1524247173161872,
                -2.552882292276913,
                2.2808496650907593,
                2.4450526244022095,
                -0.6991253543873603,
                1.2672815026155129
            ]
        },
        {
            "positions": [
                -2.2074114248270034,
                -2.5886165018788914,
                2.276554966762501,
                2.550322714271737,
                -0.7576752889412317,
                1.3994422229378647
            ]
        },
        {
            "positions": [
                -2.1191555930897317,
                -2.5679802605096604,
                2.2801549485029082,
                2.4585841448010557,
                -0.7134709196057467,
                1.2618731144170703
            ]
        },
        {
            "positions": [
                -2.03089976135246,
                -2.547344019140429,
                2.2837549302433153,
                2.366845575330375,
                -0.6692665502702616,
                1.1243040058962759
            ]
        },
        {
            "positions": [
                -1.9426439296151885,
                -2.526707777771198,
                2.2873549119837224,
                2.275107005859694,
                -0.6250621809347766,
                0.9867348973754815
            ]
        },
        {
            "positions": [
                -1.8543880978779168,
                -2.506071536401967,
                2.2909548937241295,
                2.183368436389013,
                -0.5808578115992916,
                0.849165788854687
            ]
        },
        {
            "positions": [
                -1.7661322661406451,
                -2.485435295032736,
                2.294554875464537,
                2.091629866918332,
                -0.5366534422638065,
                0.7115966803338926
            ]
        },
        {
            "positions": [
                -1.6778764344033736,
                -2.4647990536635045,
                2.298154857204944,
                1.9998912974476513,
                -0.4924490729283215,
                0.5740275718130982
            ]
        },
        {
            "positions": [
                -1.589620602666102,
                -2.4441628122942736,
                2.3017548389453513,
                1.90815272797697,
                -0.4482447035928365,
                0.43645846329230364
            ]
        },
        {
            "positions": [
                -1.5013647709288303,
                -2.423526570925042,
                2.3053548206857584,
                1.8164141585062894,
                -0.4040403342573515,
                0.29888935477150924
            ]
        },
        {
            "positions": [
                -1.4131089391915586,
                -2.4028903295558113,
                2.3089548024261655,
                1.7246755890356085,
                -0.3598359649218665,
                0.16132024625071506
            ]
        },
        {
            "positions": [
                -1.3248531074542869,
                -2.38225408818658,
                2.3125547841665726,
                1.6329370195649275,
                -0.31563159558638143,
                0.023751137729920435
            ]
        },
        {
            "positions": [
                -1.2365972757170154,
                -2.361617846817349,
                2.3161547659069797,
                1.5411984500942466,
                -0.27142722625089644,
                -0.11381797079087397
            ]
        },
        {
            "positions": [
                -1.1483414439797437,
                -2.3409816054481176,
                2.3197547476473868,
                1.4494598806235655,
                -0.22722285691541133,
                -0.25138707931166837
            ]
        },
        {
            "positions": [
                -1.060085612242472,
                -2.3203453640788867,
                2.3233547293877943,
                1.3577213111528847,
                -0.18301848757992634,
                -0.3889561878324628
            ]
        },
        {
            "positions": [
                -0.9718297805052003,
                -2.2997091227096558,
                2.3269547111282014,
                1.2659827416822036,
                -0.13881411824444134,
                -0.5265252963532574
            ]
        },
        {
            "positions": [
                -0.8835739487679288,
                -2.2790728813404244,
                2.3305546928686085,
                1.1742441722115229,
                -0.09460974890895635,
                -0.6640944048740516
            ]
        },
        {
            "positions": [
                -0.7953181170306571,
                -2.2584366399711935,
                2.3341546746090156,
                1.0825056027408417,
                -0.05040537957347124,
                -0.8016635133948462
            ]
        },
        {
            "positions": [
                -0.7070622852933854,
                -2.237800398601962,
                2.3377546563494227,
                0.990767033270161,
                -0.006201010237986249,
                -0.9392326219156404
            ]
        },
        {
            "positions": [
                -0.618806453556114,
                -2.217164157232731,
                2.34135463808983,
                0.8990284637994801,
                0.038003359097498746,
                -1.0768017304364346
            ]
        },
        {
            "positions": [
                -0.530550621818842,
                -2.1965279158635,
                2.344954619830237,
                0.8072898943287989,
                0.08220772843298385,
                -1.2143708389572296
            ]
        },
        {
            "positions": [
                -0.4422947900815706,
                -2.175891674494269,
                2.348554601570644,
                0.715551324858118,
                0.12641209776846885,
                -1.3519399474780238
            ]
        },
        {
            "positions": [
                -0.3540389583442989,
                -2.1552554331250375,
                2.3521545833110515,
                0.6238127553874373,
                0.17061646710395384,
                -1.489509055998818
            ]
        },
        {
            "positions": [
                -0.2657831266070274,
                -2.1346191917558066,
                2.3557545650514586,
                0.5320741859167564,
                0.21482083643943883,
                -1.6270781645196126
            ]
        },
        {
            "positions": [
                -0.17752729486975527,
                -2.1139829503865757,
                2.3593545467918657,
                0.4403356164460752,
                0.25902520577492405,
                -1.7646472730404072
            ]
        },
        {
            "positions": [
                -0.08927146313248402,
                -2.0933467090173443,
                2.362954528532273,
                0.34859704697539406,
                0.30322957511040904,
                -1.9022163815612014
            ]
        },
        {
            "positions": [
                -0.0010156313952123242,
                -2.0727104676481134,
                2.36655451027268,
                0.25685847750471336,
                0.34743394444589404,
                -2.039785490081996
            ]
        },
        {
            "positions": [
                0.08724020034205937,
                -2.052074226278882,
                2.370154492013087,
                0.16511990803403265,
                0.39163831378137903,
                -2.1773545986027902
            ]
        },
        {
            "positions": [
                0.17549603207933107,
                -2.031437984909651,
                2.373754473753494,
                0.0733813385633515,
                0.435842683116864,
                -2.314923707123585
            ]
        },
        {
            "positions": [
                0.26375186381660276,
                -2.0108017435404197,
                2.3773544554939012,
                -0.018357230907329658,
                0.480047052452349,
                -2.4524928156443795
            ]
        },
        {
            "positions": [
                0.352007695553874,
                -1.9901655021711888,
                2.3809544372343083,
                -0.11009580037801037,
                0.524251421787834,
                -2.5900619241651737
            ]
        },
        {
            "positions": [
                0.4402635272911457,
                -1.9695292608019577,
                2.384554418974716,
                -0.20183436984869108,
                0.568455791123319,
                -2.727631032685968
            ]
        },
        {
            "positions": [
                0.5285193590284178,
                -1.9488930194327265,
                2.388154400715123,
                -0.29357293931937223,
                0.6126601604588042,
                -2.865200141206763
            ]
        },
        {
            "positions": [
                0.6167751907656891,
                -1.9282567780634954,
                2.39175438245553,
                -0.3853115087900534,
                0.6568645297942892,
                -3.002769249727557
            ]
        },
        {
            "positions": [
                0.7050310225029607,
                -1.9076205366942642,
                2.395354364195937,
                -0.4770500782607341,
                0.7010688991297742,
                -3.1403383582483513
            ]
        }
    ]
}