{
    "goal": {
        "global_pose": {
            "orientation": {
                "w": 0.7047431468963623,
                "x": -0.7094548344612122,
                "y": 0.0024358443915843964,
                "z": -0.0022348060738295317
            },
            "position": {
                "x": 0.6094750761985779,
                "y": 0.3671506643295288,
                "z": 0.19426114857196808
            }
        },
        "name": "move_to_magneteinheit_A"
    },
    "id": "PRMstar_move_to_magneteinheit_A_117",
    "joint_names": [
        "shoulder_pan_joint",
        "shoulder_lift_joint",
        "elbow_joint",
        "wrist_1_joint",
        "wrist_2_joint",
        "wrist_3_joint"
    ],
    "metrics": {
        "cart_traj_len": 2.0658365802108514,
        "distance_elbow_joint": 3.884677431629361,
        "distance_shoulder_lift_joint": 1.058733961629875,
        "distance_shoulder_pan_joint": 1.2411461117450344,
        "distance_wrist_1_joint": 1.1746948555957872,
        "distance_wrist_2_joint": 1.4349644617666133,
        "distance_wrist_3_joint": 1.9396863812897136,
        "smoothness": 3.6752210588592913e-16,
        "time": 5.002189469,
        "traj_len": 3.2762636041161866,
        "weighted_distance": 4.1500524434756505
    },
    "planner": "PRMstar",
    "start": {
        "state": {
            "elbow_joint": -1.919643507792019,
            "shoulder_lift_joint": -0.07675430207160344,
            "shoulder_pan_joint": -1.1188671864651873,
            "wrist_1_joint": 0.42560062535961957,
            "wrist_2_joint": 1.5706038300724876,
            "wrist_3_joint": 1.1188968870953055
        }
    },
    "waypoints": [
        {
            "positions": [
                -1.1188671864651873,
                -0.07675430207160344,
                -1.919643507792019,
                0.42560062535961957,
                1.5706038300724876,
                1.1188968870953055
            ]
        },
        {
            "positions": [
                -1.0745405396171503,
                -0.1145662292726704,
                -1.7809050280909704,
                0.38364723765977005,
                1.5193550992951086,
                1.1881714007127953
            ]
        },
        {
            "positions": [
                -1.0302138927691136,
                -0.15237815647373737,
                -1.642166548389922,
                0.34169384995992047,
                1.4681063685177296,
                1.257445914330285
            ]
        },
        {
            "positions": [
                -0.9858872459210766,
                -0.19019008367480433,
                -1.5034280686888732,
                0.299740462260071,
                1.4168576377403506,
                1.326720427947775
            ]
        },
        {
            "positions": [
                -0.9415605990730396,
                -0.2280020108758713,
                -1.3646895889878246,
                0.25778707456022143,
                1.3656089069629713,
                1.3959949415652646
            ]
        },
        {
            "positions": [
                -0.8972339522250026,
                -0.26581393807693826,
                -1.2259511092867759,
                0.21583368686037188,
                1.3143601761855923,
                1.4652694551827543
            ]
        },
        {
            "positions": [
                -0.8529073053769657,
                -0.3036258652780052,
                -1.0872126295857276,
                0.1738802991605224,
                1.2631114454082133,
                1.5345439688002442
            ]
        },
        {
            "positions": [
                -0.8085806585289288,
                -0.3414377924790722,
                -0.9484741498846788,
                0.1319269114606728,
                1.2118627146308343,
                1.603818482417734
            ]
        },
        {
            "positions": [
                -0.7642540116808918,
                -0.37924971968013915,
                -0.8097356701836302,
                0.08997352376082329,
                1.1606139838534553,
                1.6730929960352237
            ]
        },
        {
            "positions": [
                -0.7199273648328548,
                -0.4170616468812061,
                -0.6709971904825816,
                0.04802013606097372,
                1.109365253076076,
                1.7423675096527136
            ]
        },
        {
            "positions": [
                -0.6756007179848179,
                -0.4548735740822731,
                -0.5322587107815329,
                0.006066748361124197,
                1.0581165222986972,
                1.8116420232702033
            ]
        },
        {
            "positions": [
                -0.631274071136781,
                -0.49268550128334004,
                -0.3935202310804844,
                -0.035886639338725324,
                1.006867791521318,
                1.880916536887693
            ]
        },
        {
            "positions": [
                -0.586947424288744,
                -0.5304974284844071,
                -0.25478175137943593,
                -0.07784002703857479,
                0.9556190607439391,
                1.9501910505051827
            ]
        },
        {
            "positions": [
                -0.542620777440707,
                -0.5683093556854739,
                -0.11604327167838702,
                -0.11979341473842448,
                0.90437032996656,
                2.0194655641226724
            ]
        },
        {
            "positions": [
                -0.49829413059267014,
                -0.606121282886541,
                0.02269520802266145,
                -0.16174680243827394,
                0.853121599189181,
                2.0887400777401623
            ]
        },
        {
            "positions": [
                -0.45396748374463325,
                -0.6439332100876078,
                0.16143368772370992,
                -0.2037001901381234,
                0.8018728684118019,
                2.1580145913576523
            ]
        },
        {
            "positions": [
                -0.40964083689659625,
                -0.6817451372886749,
                0.3001721674247586,
                -0.24565357783797298,
                0.7506241376344229,
                2.2272891049751418
            ]
        },
        {
            "positions": [
                -0.36531419004855936,
                -0.7195570644897418,
                0.4389106471258073,
                -0.28760696553782245,
                0.6993754068570439,
                2.2965636185926313
            ]
        },
        {
            "positions": [
                -0.32098754320052225,
                -0.7573689916908088,
                0.577649126826856,
                -0.32956035323767213,
                0.6481266760796647,
                2.3658381322101216
            ]
        },
        {
            "positions": [
                -0.27666089635248536,
                -0.7951809188918757,
                0.7163876065279047,
                -0.3715137409375217,
                0.5968779453022857,
                2.435112645827611
            ]
        },
        {
            "positions": [
                -0.23233424950444848,
                -0.8329928460929428,
                0.8551260862289534,
                -0.4134671286373712,
                0.5456292145249066,
                2.504387159445101
            ]
        },
        {
            "positions": [
                -0.18800760265641148,
                -0.8708047732940096,
                0.9938645659300016,
                -0.45542051633722075,
                0.49438048374752763,
                2.573661673062591
            ]
        },
        {
            "positions": [
                -0.1436809558083746,
                -0.9086167004950767,
                1.1326030456310503,
                -0.4973739040370702,
                0.4431317529701486,
                2.6429361866800805
            ]
        },
        {
            "positions": [
                -0.0993543089603377,
                -0.9464286276961436,
                1.271341525332099,
                -0.5393272917369196,
                0.3918830221927696,
                2.71221070029757
            ]
        },
        {
            "positions": [
                -0.0550276621123007,
                -0.9842405548972106,
                1.4100800050331472,
                -0.5812806794367691,
                0.3406342914153906,
                2.78148521391506
            ]
        },
        {
            "positions": [
                -0.010701015264263702,
                -1.0220524820982775,
                1.5488184847341964,
                -0.6232340671366188,
                0.28938556063801135,
                2.85075972753255
            ]
        },
        {
            "positions": [
                0.0336256315837733,
                -1.0598644092993446,
                1.687556964435245,
                -0.6651874548364685,
                0.23813682986063234,
                2.9200342411500397
            ]
        },
        {
            "positions": [
                0.07795227843181007,
                -1.0976763365004116,
                1.8262954441362933,
                -0.7071408425363179,
                0.18688809908325332,
                2.9893087547675297
            ]
        },
        {
            "positions": [
                0.12227892527984716,
                -1.1354882637014785,
                1.965033923837342,
                -0.7490942302361675,
                0.13563936830587436,
                3.058583268385019
            ]
        }
    ]
}