{
    "goal": {
        "global_pose": {
            "orientation": {
                "w": 0.5084816217422485,
                "x": -0.49083608388900757,
                "y": 0.5182115435600281,
                "z": -0.4816462993621826
            },
            "position": {
                "x": 0.5540239810943604,
                "y": 0.030875300988554955,
                "z": 0.16403168439865112
            }
        },
        "name": "move_to_storage_A"
    },
    "id": "PRMstar_move_to_storage_A_138",
    "joint_names": [
        "shoulder_pan_joint",
        "shoulder_lift_joint",
        "elbow_joint",
        "wrist_1_joint",
        "wrist_2_joint",
        "wrist_3_joint"
    ],
    "metrics": {
        "cart_traj_len": 0.35332182729395,
        "distance_elbow_joint": 0.44854734402071816,
        "distance_shoulder_lift_joint": 0.23310939903299555,
        "distance_shoulder_pan_joint": 0.46403183039664514,
        "distance_wrist_1_joint": 0.2388254945794902,
        "distance_wrist_2_joint": 1.0897672607304134,
        "distance_wrist_3_joint": 0.09136623472118854,
        "smoothness": 0.0,
        "time": 5.014855339,
        "traj_len": 1.6017638913027885,
        "weighted_distance": 2.0191515020507333
    },
    "planner": "PRMstar",
    "start": {
        "state": {
            "elbow_joint": 1.9715463870305268,
            "shoulder_lift_joint": -1.1394903361783484,
            "shoulder_pan_joint": 0.12281147578464417,
            "wrist_1_joint": -0.7804599489681411,
            "wrist_2_joint": 0.12958660307563738,
            "wrist_3_joint": -3.1924946282119055
        }
    },
    "waypoints": [
        {
            "positions": [
                0.12281147578464417,
                -1.1394903361783484,
                1.9715463870305268,
                -0.7804599489681411,
                0.12958660307563738,
                -3.1924946282119055
            ]
        },
        {
            "positions": [
                0.05652121429940915,
                -1.1727916788973478,
                2.0356245790334864,
                -0.8145778767652111,
                0.2852676403228393,
                -3.1794423089660215
            ]
        },
        {
            "positions": [
                -0.009769047185825872,
                -1.206093021616347,
                2.0997027710364464,
                -0.8486958045622811,
                0.4409486775700412,
                -3.1663899897201375
            ]
        },
        {
            "positions": [
                -0.07605930867106088,
                -1.2393943643353464,
                2.163780963039406,
                -0.8828137323593511,
                0.5966297148172431,
                -3.1533376704742535
            ]
        },
        {
            "positions": [
                -0.1423495701562959,
                -1.2726957070543459,
                2.2278591550423656,
                -0.9169316601564212,
                0.7523107520644451,
                -3.140285351228369
            ]
        },
        {
            "positions": [
                -0.20863983164153094,
                -1.3059970497733453,
                2.2919373470453257,
                -0.9510495879534913,
                0.907991789311647,
                -3.127233031982485
            ]
        },
        {
            "positions": [
                -0.2749300931267659,
                -1.3392983924923445,
                2.3560155390482853,
                -0.9851675157505613,
                1.0636728265588489,
                -3.114180712736601
            ]
        },
        {
            "positions": [
                -0.34122035461200095,
                -1.372599735211344,
                2.420093731051245,
                -1.0192854435476313,
                1.2193538638060508,
                -3.101128393490717
            ]
        }
    ]
}