{
    "goal": {
        "global_pose": {
            "orientation": {
                "w": 0.7047431468963623,
                "x": -0.7094548344612122,
                "y": 0.0024358443915843964,
                "z": -0.0022348060738295317
            },
            "position": {
                "x": 0.6094750761985779,
                "y": 0.3671506643295288,
                "z": 0.19426114857196808
            }
        },
        "name": "move_to_magneteinheit_A"
    },
    "id": "PRMstar_move_to_magneteinheit_A_67",
    "joint_names": [
        "shoulder_pan_joint",
        "shoulder_lift_joint",
        "elbow_joint",
        "wrist_1_joint",
        "wrist_2_joint",
        "wrist_3_joint"
    ],
    "metrics": {
        "cart_traj_len": 2.0646584061856235,
        "distance_elbow_joint": 3.8773766297969283,
        "distance_shoulder_lift_joint": 1.054202771486475,
        "distance_shoulder_pan_joint": 1.2417800354421318,
        "distance_wrist_1_joint": 1.145708522838936,
        "distance_wrist_2_joint": 1.4453108102815553,
        "distance_wrist_3_joint": 1.908678865762063,
        "smoothness": 3.489272363895343e-16,
        "time": 5.0061835750000006,
        "traj_len": 3.2669645905041715,
        "weighted_distance": 4.132969235338282
    },
    "planner": "PRMstar",
    "start": {
        "state": {
            "elbow_joint": -1.919643507792019,
            "shoulder_lift_joint": -0.07675430207160344,
            "shoulder_pan_joint": -1.1188671864651873,
            "wrist_1_joint": 0.42560062535961957,
            "wrist_2_joint": 1.5706038300724876,
            "wrist_3_joint": 1.1188968870953055
        }
    },
    "waypoints": [
        {
            "positions": [
                -1.1188671864651873,
                -0.07675430207160344,
                -1.919643507792019,
                0.42560062535961957,
                1.5706038300724876,
                1.1188968870953055
            ]
        },
        {
            "positions": [
                -1.072875333300664,
                -0.11579884916369511,
                -1.7760369659476885,
                0.3831669763655849,
                1.5170738000620596,
                1.189588696938345
            ]
        },
        {
            "positions": [
                -1.0268834801361406,
                -0.15484339625578677,
                -1.6324304241033578,
                0.34073332737155027,
                1.4635437700516316,
                1.2602805067813843
            ]
        },
        {
            "positions": [
                -0.9808916269716171,
                -0.19388794334787846,
                -1.4888238822590272,
                0.2982996783775156,
                1.4100137400412036,
                1.3309723166244236
            ]
        },
        {
            "positions": [
                -0.9348997738070938,
                -0.2329324904399701,
                -1.3452173404146963,
                0.2558660293834809,
                1.3564837100307758,
                1.401664126467463
            ]
        },
        {
            "positions": [
                -0.8889079206425704,
                -0.27197703753206176,
                -1.201610798570366,
                0.21343238038944626,
                1.3029536800203476,
                1.4723559363105023
            ]
        },
        {
            "positions": [
                -0.8429160674780469,
                -0.3110215846241534,
                -1.058004256726035,
                0.1709987313954116,
                1.2494236500099198,
                1.5430477461535417
            ]
        },
        {
            "positions": [
                -0.7969242143135236,
                -0.3500661317162451,
                -0.9143977148817044,
                0.12856508240137693,
                1.1958936199994918,
                1.613739555996581
            ]
        },
        {
            "positions": [
                -0.7509323611490002,
                -0.3891106788083368,
                -0.7707911730373738,
                0.0861314334073423,
                1.1423635899890638,
                1.6844313658396204
            ]
        },
        {
            "positions": [
                -0.7049405079844768,
                -0.4281552259004284,
                -0.6271846311930431,
                0.04369778441330763,
                1.0888335599786358,
                1.7551231756826597
            ]
        },
        {
            "positions": [
                -0.6589486548199535,
                -0.4671997729925201,
                -0.4835780893487125,
                0.0012641354192729493,
                1.0353035299682078,
                1.825814985525699
            ]
        },
        {
            "positions": [
                -0.61295680165543,
                -0.5062443200846117,
                -0.33997154750438163,
                -0.041169513574761674,
                0.98177349995778,
                1.8965067953687385
            ]
        },
        {
            "positions": [
                -0.5669649484909066,
                -0.5452888671767034,
                -0.196365005660051,
                -0.08360316256879635,
                0.928243469947352,
                1.9671986052117778
            ]
        },
        {
            "positions": [
                -0.5209730953263831,
                -0.584333414268795,
                -0.05275846381572036,
                -0.12603681156283103,
                0.874713439936924,
                2.037890415054817
            ]
        },
        {
            "positions": [
                -0.4749812421618598,
                -0.6233779613608867,
                0.09084807802861028,
                -0.1684704605568657,
                0.821183409926496,
                2.108582224897857
            ]
        },
        {
            "positions": [
                -0.4289893889973363,
                -0.6624225084529785,
                0.23445461987294114,
                -0.2109041095509004,
                0.767653379916068,
                2.179274034740896
            ]
        },
        {
            "positions": [
                -0.38299753583281304,
                -0.7014670555450702,
                0.37806116171727155,
                -0.25333775854493495,
                0.7141233499056401,
                2.2499658445839357
            ]
        },
        {
            "positions": [
                -0.33700568266828956,
                -0.7405116026371619,
                0.5216677035616024,
                -0.29577140753896974,
                0.6605933198952121,
                2.3206576544269746
            ]
        },
        {
            "positions": [
                -0.2910138295037662,
                -0.7795561497292534,
                0.6652742454059328,
                -0.3382050565330043,
                0.6070632898847841,
                2.3913494642700144
            ]
        },
        {
            "positions": [
                -0.24502197633924272,
                -0.8186006968213451,
                0.8088807872502637,
                -0.380638705527039,
                0.5535332598743561,
                2.4620412741130537
            ]
        },
        {
            "positions": [
                -0.19903012317471946,
                -0.8576452439134368,
                0.9524873290945941,
                -0.42307235452107367,
                0.5000032298639281,
                2.532733083956093
            ]
        },
        {
            "positions": [
                -0.153038270010196,
                -0.8966897910055285,
                1.0960938709389254,
                -0.46550600351510835,
                0.4464731998535001,
                2.6034248937991324
            ]
        },
        {
            "positions": [
                -0.10704641684567262,
                -0.93573433809762,
                1.2397004127832558,
                -0.5079396525091429,
                0.3929431698430723,
                2.674116703642172
            ]
        },
        {
            "positions": [
                -0.061054563681149254,
                -0.9747788851897119,
                1.3833069546275867,
                -0.5503733015031778,
                0.3394131398326443,
                2.744808513485211
            ]
        },
        {
            "positions": [
                -0.015062710516625888,
                -1.0138234322818034,
                1.526913496471917,
                -0.5928069504972122,
                0.2858831098222163,
                2.8155003233282505
            ]
        },
        {
            "positions": [
                0.0309291426478977,
                -1.052867979373895,
                1.670520038316248,
                -0.6352405994912469,
                0.23235307981178832,
                2.88619213317129
            ]
        },
        {
            "positions": [
                0.07692099581242107,
                -1.0919125264659868,
                1.8141265801605784,
                -0.6776742484852816,
                0.17882304980136032,
                2.956883943014329
            ]
        },
        {
            "positions": [
                0.12291284897694434,
                -1.1309570735580785,
                1.957733122004909,
                -0.7201078974793164,
                0.12529301979093221,
                3.0275757528573686
            ]
        }
    ]
}