{
    "goal": {
        "global_pose": {
            "orientation": {
                "w": 0.7031023502349854,
                "x": -0.7110244035720825,
                "y": 0.007748599164187908,
                "z": 0.005598929710686207
            },
            "position": {
                "x": 0.11585023208521307,
                "y": 0.44412534475326537,
                "z": 0.3711530566215515
            }
        },
        "name": "move_to_auspresseinheit_A"
    },
    "id": "PRMstar_move_to_auspresseinheit_A_33",
    "joint_names": [
        "shoulder_pan_joint",
        "shoulder_lift_joint",
        "elbow_joint",
        "wrist_1_joint",
        "wrist_2_joint",
        "wrist_3_joint"
    ],
    "metrics": {
        "cart_traj_len": 0.6827497644324283,
        "distance_elbow_joint": 0.14684833755638715,
        "distance_shoulder_lift_joint": 0.5613507032227321,
        "distance_shoulder_pan_joint": 1.0484560557004674,
        "distance_wrist_1_joint": 0.5529130669799489,
        "distance_wrist_2_joint": 0.5113315379201789,
        "distance_wrist_3_joint": 0.08322541260059291,
        "smoothness": 0.19306007135426256,
        "time": 5.018190611,
        "traj_len": 1.7041493813572526,
        "weighted_distance": 2.0334258147475213
    },
    "planner": "PRMstar",
    "start": {
        "state": {
            "elbow_joint": 2.422574709923281,
            "shoulder_lift_joint": -1.3736533754116391,
            "shoulder_pan_joint": -0.33786336945926293,
            "wrist_1_joint": -1.0288603412921917,
            "wrist_2_joint": 1.2330224858903978,
            "wrist_3_joint": -3.094022268022082
        }
    },
    "waypoints": [
        {
            "positions": [
                -0.33786336945926293,
                -1.3736533754116391,
                2.422574709923281,
                -1.0288603412921917,
                1.2330224858903978,
                -3.094022268022082
            ]
        },
        {
            "positions": [
                -0.19627500363522105,
                -1.452165544645341,
                2.4311741218080267,
                -0.9745618421691843,
                1.1785018632910798,
                -3.090906838385016
            ]
        },
        {
            "positions": [
                -0.05468663781117916,
                -1.5306777138790426,
                2.439773533692773,
                -0.9202633430461769,
                1.1239812406917615,
                -3.0877914087479503
            ]
        },
        {
            "positions": [
                0.08690172801286272,
                -1.6091898831127445,
                2.4483729455775185,
                -0.8659648439231694,
                1.0694606180924433,
                -3.084675979110884
            ]
        },
        {
            "positions": [
                0.2284900938369046,
                -1.6877020523464463,
                2.4569723574622646,
                -0.811666344800162,
                1.0149399954931253,
                -3.0815605494738185
            ]
        },
        {
            "positions": [
                0.3700784596609466,
                -1.7662142215801482,
                2.4655717693470103,
                -0.7573678456771544,
                0.9604193728938072,
                -3.0784451198367524
            ]
        },
        {
            "positions": [
                0.5116668254849883,
                -1.8447263908138498,
                2.4741711812317564,
                -0.7030693465541471,
                0.9058987502944891,
                -3.0753296901996867
            ]
        },
        {
            "positions": [
                0.6532551913090304,
                -1.9232385600475517,
                2.482770593116502,
                -0.6487708474311396,
                0.851378127695171,
                -3.0722142605626206
            ]
        },
        {
            "positions": [
                0.6819239387751175,
                -1.9173558007541418,
                2.4394443659349188,
                -0.5623590608716912,
                0.7865345378326949,
                -3.102922963133186
            ]
        },
        {
            "positions": [
                0.7105926862412044,
                -1.9114730414607322,
                2.396118138753336,
                -0.4759472743122429,
                0.7216909479702188,
                -3.133631665703752
            ]
        }
    ]
}