{
    "goal": {
        "global_pose": {
            "orientation": {
                "w": 0.7031023502349854,
                "x": -0.7110244035720825,
                "y": 0.007748599164187908,
                "z": 0.005598929710686207
            },
            "position": {
                "x": 0.11585023208521307,
                "y": 0.44412534475326537,
                "z": 0.3711530566215515
            }
        },
        "name": "move_to_auspresseinheit_A"
    },
    "id": "PRMstar_move_to_auspresseinheit_A_136",
    "joint_names": [
        "shoulder_pan_joint",
        "shoulder_lift_joint",
        "elbow_joint",
        "wrist_1_joint",
        "wrist_2_joint",
        "wrist_3_joint"
    ],
    "metrics": {
        "cart_traj_len": 1.8252837858156228,
        "distance_elbow_joint": 1.117924054039099,
        "distance_shoulder_lift_joint": 1.0676678604447265,
        "distance_shoulder_pan_joint": 2.5982344499447656,
        "distance_wrist_1_joint": 0.563655791136708,
        "distance_wrist_2_joint": 0.5223817843918682,
        "distance_wrist_3_joint": 0.47701016500999804,
        "smoothness": 1.0992885621712736,
        "time": 5.0190606010000005,
        "traj_len": 2.519300320519006,
        "weighted_distance": 2.896020029370608
    },
    "planner": "PRMstar",
    "start": {
        "state": {
            "elbow_joint": 2.422574709923281,
            "shoulder_lift_joint": -1.3736533754116391,
            "shoulder_pan_joint": -0.33786336945926293,
            "wrist_1_joint": -1.0288603412921917,
            "wrist_2_joint": 1.2330224858903978,
            "wrist_3_joint": -3.094022268022082
        }
    },
    "waypoints": [
        {
            "positions": [
                -0.33786336945926293,
                -1.3736533754116391,
                2.422574709923281,
                -1.0288603412921917,
                1.2330224858903978,
                -3.094022268022082
            ]
        },
        {
            "positions": [
                -0.4242256874009603,
                -1.4627211901495911,
                2.3588577648036204,
                -0.9741137410807723,
                1.195652102703139,
                -3.069567303516306
            ]
        },
        {
            "positions": [
                -0.5105880053426577,
                -1.5517890048875431,
                2.2951408196839598,
                -0.9193671408693528,
                1.15828171951588,
                -3.0451123390105304
            ]
        },
        {
            "positions": [
                -0.5969503232843549,
                -1.640856819625495,
                2.2314238745642987,
                -0.8646205406579333,
                1.1209113363286214,
                -3.0206573745047542
            ]
        },
        {
            "positions": [
                -0.6833126412260524,
                -1.7299246343634471,
                2.167706929444638,
                -0.8098739404465138,
                1.0835409531413627,
                -2.9962024099989786
            ]
        },
        {
            "positions": [
                -0.7696749591677498,
                -1.818992449101399,
                2.1039899843249774,
                -0.7551273402350943,
                1.0461705699541037,
                -2.9717474454932025
            ]
        },
        {
            "positions": [
                -0.8560372771094471,
                -1.908060263839351,
                2.0402730392053168,
                -0.7003807400236749,
                1.008800186766845,
                -2.947292480987427
            ]
        },
        {
            "positions": [
                -0.9423995950511446,
                -1.997128078577303,
                1.976556094085656,
                -0.6456341398122554,
                0.9714298035795863,
                -2.9228375164816507
            ]
        },
        {
            "positions": [
                -1.0287619129928418,
                -2.0861958933152547,
                1.912839148965995,
                -0.590887539600836,
                0.9340594203923275,
                -2.898382551975875
            ]
        },
        {
            "positions": [
                -1.1151242309345393,
                -2.175263708053207,
                1.8491222038463344,
                -0.5361409393894164,
                0.8966890372050687,
                -2.873927587470099
            ]
        },
        {
            "positions": [
                -0.8875025323758531,
                -2.142006517077812,
                1.9171811473416034,
                -0.5272738907351748,
                0.8734329952417512,
                -2.906042023027351
            ]
        },
        {
            "positions": [
                -0.6598808338171669,
                -2.108749326102417,
                1.9852400908368724,
                -0.5184068420809332,
                0.8501769532784339,
                -2.9381564585846025
            ]
        },
        {
            "positions": [
                -0.4322591352584806,
                -2.0754921351270226,
                2.0532990343321416,
                -0.5095397934266916,
                0.8269209113151165,
                -2.9702708941418545
            ]
        },
        {
            "positions": [
                -0.2046374366997944,
                -2.0422349441516277,
                2.1213579778274108,
                -0.50067274477245,
                0.8036648693517991,
                -3.0023853296991065
            ]
        },
        {
            "positions": [
                0.022984261858891797,
                -2.0089777531762327,
                2.1894169213226795,
                -0.4918056961182084,
                0.7804088273884817,
                -3.034499765256358
            ]
        },
        {
            "positions": [
                0.2506059604175781,
                -1.9757205622008378,
                2.2574758648179487,
                -0.4829386474639668,
                0.7571527854251643,
                -3.06661420081361
            ]
        },
        {
            "positions": [
                0.4782276589762642,
                -1.942463371225443,
                2.3255348083132175,
                -0.4740715988097252,
                0.7338967434618469,
                -3.0987286363708617
            ]
        },
        {
            "positions": [
                0.7058493575349505,
                -1.9092061802500482,
                2.3935937518084867,
                -0.4652045501554836,
                0.7106407014985295,
                -3.1308430719281137
            ]
        }
    ]
}