{
    "goal": {
        "global_pose": {
            "orientation": {
                "w": 0.7047431468963623,
                "x": -0.7094548344612122,
                "y": 0.0024358443915843964,
                "z": -0.0022348060738295317
            },
            "position": {
                "x": 0.6094750761985779,
                "y": 0.3671506643295288,
                "z": 0.19426114857196808
            }
        },
        "name": "move_to_magneteinheit_A"
    },
    "id": "PRMstar_move_to_magneteinheit_A_136",
    "joint_names": [
        "shoulder_pan_joint",
        "shoulder_lift_joint",
        "elbow_joint",
        "wrist_1_joint",
        "wrist_2_joint",
        "wrist_3_joint"
    ],
    "metrics": {
        "cart_traj_len": 1.8814030666717927,
        "distance_elbow_joint": 3.9076122818812244,
        "distance_shoulder_lift_joint": 0.6979717397692542,
        "distance_shoulder_pan_joint": 1.2414448521214678,
        "distance_wrist_1_joint": 1.4790508594934004,
        "distance_wrist_2_joint": 1.6908909883532783,
        "distance_wrist_3_joint": 1.088832137877049,
        "smoothness": 6.250144457291218e-16,
        "time": 5.003895545,
        "traj_len": 3.1789625445254424,
        "weighted_distance": 3.9310824187615867
    },
    "planner": "PRMstar",
    "start": {
        "state": {
            "elbow_joint": -1.919643507792019,
            "shoulder_lift_joint": -0.07675430207160344,
            "shoulder_pan_joint": -1.1188671864651873,
            "wrist_1_joint": 0.42560062535961957,
            "wrist_2_joint": 1.5706038300724876,
            "wrist_3_joint": 1.1188968870953055
        }
    },
    "waypoints": [
        {
            "positions": [
                -1.1188671864651873,
                -0.07675430207160344,
                -1.919643507792019,
                0.42560062535961957,
                1.5706038300724876,
                1.1188968870953055
            ]
        },
        {
            "positions": [
                -1.0711193075374386,
                -0.10359936898580553,
                -1.7693507277196643,
                0.48248719687859654,
                1.5055695612896691,
                1.0770187279461882
            ]
        },
        {
            "positions": [
                -1.0233714286096898,
                -0.13044443590000762,
                -1.6190579476473095,
                0.5393737683975734,
                1.4405352925068509,
                1.035140568797071
            ]
        },
        {
            "positions": [
                -0.975623549681941,
                -0.1572895028142097,
                -1.4687651675749547,
                0.5962603399165504,
                1.3755010237240324,
                0.9932624096479538
            ]
        },
        {
            "positions": [
                -0.9278756707541923,
                -0.1841345697284118,
                -1.3184723875025999,
                0.6531469114355273,
                1.310466754941214,
                0.9513842504988365
            ]
        },
        {
            "positions": [
                -0.8801277918264435,
                -0.21097963664261388,
                -1.168179607430245,
                0.7100334829545043,
                1.2454324861583956,
                0.9095060913497193
            ]
        },
        {
            "positions": [
                -0.8323799128986947,
                -0.23782470355681595,
                -1.0178868273578903,
                0.7669200544734812,
                1.1803982173755772,
                0.867627932200602
            ]
        },
        {
            "positions": [
                -0.784632033970946,
                -0.26466977047101803,
                -0.8675940472855357,
                0.8238066259924581,
                1.115363948592759,
                0.8257497730514847
            ]
        },
        {
            "positions": [
                -0.7368841550431973,
                -0.2915148373852201,
                -0.7173012672131807,
                0.8806931975114352,
                1.0503296798099404,
                0.7838716139023674
            ]
        },
        {
            "positions": [
                -0.6891362761154485,
                -0.3183599042994222,
                -0.5670084871408261,
                0.937579769030412,
                0.985295411027122,
                0.7419934547532502
            ]
        },
        {
            "positions": [
                -0.6413883971876997,
                -0.3452049712136243,
                -0.41671570706847105,
                0.994466340549389,
                0.9202611422443036,
                0.7001152956041329
            ]
        },
        {
            "positions": [
                -0.593640518259951,
                -0.3720500381278264,
                -0.26642292699611647,
                1.0513529120683658,
                0.8552268734614853,
                0.6582371364550157
            ]
        },
        {
            "positions": [
                -0.5458926393322021,
                -0.39889510504202846,
                -0.11613014692376145,
                1.1082394835873428,
                0.7901926046786668,
                0.6163589773058983
            ]
        },
        {
            "positions": [
                -0.49814476040445343,
                -0.42574017195623054,
                0.034162633148593136,
                1.1651260551063198,
                0.7251583358958484,
                0.5744808181567811
            ]
        },
        {
            "positions": [
                -0.45039688147670476,
                -0.4525852388704326,
                0.18445541322094772,
                1.2220126266252966,
                0.6601240671130301,
                0.5326026590076639
            ]
        },
        {
            "positions": [
                -0.40264900254895597,
                -0.4794303057846347,
                0.3347481932933023,
                1.2788991981442737,
                0.5950897983302117,
                0.4907244998585466
            ]
        },
        {
            "positions": [
                -0.35490112362120707,
                -0.5062753726988368,
                0.48504097336565777,
                1.3357857696632507,
                0.5300555295473932,
                0.4488463407094293
            ]
        },
        {
            "positions": [
                -0.3071532446934584,
                -0.5331204396130389,
                0.6353337534380123,
                1.3926723411822275,
                0.46502126076457473,
                0.406968181560312
            ]
        },
        {
            "positions": [
                -0.2594053657657096,
                -0.559965506527241,
                0.7856265335103669,
                1.4495589127012045,
                0.39998699198175647,
                0.3650900224111948
            ]
        },
        {
            "positions": [
                -0.21165748683796093,
                -0.586810573441443,
                0.9359193135827215,
                1.5064454842201813,
                0.3349527231989382,
                0.3232118632620775
            ]
        },
        {
            "positions": [
                -0.16390960791021203,
                -0.6136556403556452,
                1.086212093655077,
                1.5633320557391586,
                0.2699184544161195,
                0.2813337041129602
            ]
        },
        {
            "positions": [
                -0.11616172898246324,
                -0.6405007072698472,
                1.2365048737274316,
                1.6202186272581354,
                0.20488418563330124,
                0.23945554496384291
            ]
        },
        {
            "positions": [
                -0.06841385005471468,
                -0.6673457741840494,
                1.3867976537997861,
                1.6771051987771122,
                0.13984991685048298,
                0.19757738581472573
            ]
        },
        {
            "positions": [
                -0.020665971126965887,
                -0.6941908410982514,
                1.5370904338721407,
                1.7339917702960892,
                0.0748156480676645,
                0.15569922666560843
            ]
        },
        {
            "positions": [
                0.027081907800783123,
                -0.7210359080124535,
                1.6873832139444962,
                1.7908783418150662,
                0.009781379284846015,
                0.11382106751649101
            ]
        },
        {
            "positions": [
                0.07482978672853169,
                -0.7478809749266555,
                1.8376759940168508,
                1.8477649133340432,
                -0.05525288949797247,
                0.07194290836737394
            ]
        },
        {
            "positions": [
                0.1225776656562805,
                -0.7747260418408577,
                1.9879687740892051,
                1.90465148485302,
                -0.12028715828079067,
                0.030064749218256703
            ]
        }
    ]
}