{
    "goal": {
        "global_pose": {
            "orientation": {
                "w": 0.7031023502349854,
                "x": -0.7110244035720825,
                "y": 0.007748599164187908,
                "z": 0.005598929710686207
            },
            "position": {
                "x": 0.11585023208521307,
                "y": 0.44412534475326537,
                "z": 0.3711530566215515
            }
        },
        "name": "move_to_auspresseinheit_A"
    },
    "id": "PRMstar_move_to_auspresseinheit_A_55",
    "joint_names": [
        "shoulder_pan_joint",
        "shoulder_lift_joint",
        "elbow_joint",
        "wrist_1_joint",
        "wrist_2_joint",
        "wrist_3_joint"
    ],
    "metrics": {
        "cart_traj_len": 0.7062225825522379,
        "distance_elbow_joint": 0.0504411369741824,
        "distance_shoulder_lift_joint": 0.5312147545073318,
        "distance_shoulder_pan_joint": 1.0464356876095824,
        "distance_wrist_1_joint": 0.6453959222160872,
        "distance_wrist_2_joint": 0.759889586912375,
        "distance_wrist_3_joint": 0.345637935027836,
        "smoothness": 1.0106804201587014,
        "time": 5.015796852,
        "traj_len": 1.838209733204401,
        "weighted_distance": 2.339994957779082
    },
    "planner": "PRMstar",
    "start": {
        "state": {
            "elbow_joint": 2.422574709923281,
            "shoulder_lift_joint": -1.3736533754116391,
            "shoulder_pan_joint": -0.33786336945926293,
            "wrist_1_joint": -1.0288603412921917,
            "wrist_2_joint": 1.2330224858903978,
            "wrist_3_joint": -3.094022268022082
        }
    },
    "waypoints": [
        {
            "positions": [
                -0.33786336945926293,
                -1.3736533754116391,
                2.422574709923281,
                -1.0288603412921917,
                1.2330224858903978,
                -3.094022268022082
            ]
        },
        {
            "positions": [
                -0.21415743502582982,
                -1.4244411337669955,
                2.417395515217033,
                -0.9527802195406997,
                1.1526775930599127,
                -3.075331228762487
            ]
        },
        {
            "positions": [
                -0.0904515005923967,
                -1.4752288921223518,
                2.412216320510785,
                -0.8767000977892077,
                1.0723327002294276,
                -3.056640189502892
            ]
        },
        {
            "positions": [
                0.03325443384103638,
                -1.526016650477708,
                2.407037125804537,
                -0.8006199760377155,
                0.9919878073989427,
                -3.0379491502432967
            ]
        },
        {
            "positions": [
                0.15696036827446952,
                -1.5768044088330644,
                2.401857931098289,
                -0.7245398542862235,
                0.9116429145684577,
                -3.019258110983701
            ]
        },
        {
            "positions": [
                0.28066630270790266,
                -1.6275921671884208,
                2.3966787363920408,
                -0.6484597325347314,
                0.8312980217379726,
                -3.000567071724106
            ]
        },
        {
            "positions": [
                0.4043722371413357,
                -1.678379925543777,
                2.3914995416857927,
                -0.5723796107832393,
                0.7509531289074876,
                -2.981876032464511
            ]
        },
        {
            "positions": [
                0.5280781715747689,
                -1.7291676838991332,
                2.3863203469795446,
                -0.49629948903174725,
                0.6706082360770026,
                -2.9631849932049157
            ]
        },
        {
            "positions": [
                0.6517841060082019,
                -1.7799554422544897,
                2.3811411522732966,
                -0.4202193672802552,
                0.5902633432465175,
                -2.9444939539453205
            ]
        },
        {
            "positions": [
                0.6801782120792608,
                -1.8424117860867302,
                2.3856449419353956,
                -0.43859684138233057,
                0.6488285653807648,
                -3.0425487644208578
            ]
        },
        {
            "positions": [
                0.7085723181503195,
                -1.904868129918971,
                2.3901487315974945,
                -0.4569743154844059,
                0.7073937875150123,
                -3.140603574896395
            ]
        }
    ]
}