{
    "goal": {
        "global_pose": {
            "orientation": {
                "w": 0.7031023502349854,
                "x": -0.7110244035720825,
                "y": 0.007748599164187908,
                "z": 0.005598929710686207
            },
            "position": {
                "x": 0.11585023208521307,
                "y": 0.44412534475326537,
                "z": 0.3711530566215515
            }
        },
        "name": "move_to_auspresseinheit_A"
    },
    "id": "PRMstar_move_to_auspresseinheit_A_22",
    "joint_names": [
        "shoulder_pan_joint",
        "shoulder_lift_joint",
        "elbow_joint",
        "wrist_1_joint",
        "wrist_2_joint",
        "wrist_3_joint"
    ],
    "metrics": {
        "cart_traj_len": 2.3807059600345393,
        "distance_elbow_joint": 0.2420738229875785,
        "distance_shoulder_lift_joint": 1.8284459354387277,
        "distance_shoulder_pan_joint": 5.439268475757578,
        "distance_wrist_1_joint": 1.3450099503106472,
        "distance_wrist_2_joint": 4.447215416039008,
        "distance_wrist_3_joint": 10.08502240092307,
        "smoothness": 0.554104126004285,
        "time": 5.057018797,
        "traj_len": 4.8360144749014795,
        "weighted_distance": 7.024906132444221
    },
    "planner": "PRMstar",
    "start": {
        "state": {
            "elbow_joint": 2.422574709923281,
            "shoulder_lift_joint": -1.3736533754116391,
            "shoulder_pan_joint": -0.33786336945926293,
            "wrist_1_joint": -1.0288603412921917,
            "wrist_2_joint": 1.2330224858903978,
            "wrist_3_joint": -3.094022268022082
        }
    },
    "waypoints": [
        {
            "positions": [
                -0.33786336945926293,
                -1.3736533754116391,
                2.422574709923281,
                -1.0288603412921917,
                1.2330224858903978,
                -3.094022268022082
            ]
        },
        {
            "positions": [
                -0.4136089097604609,
                -1.414396743693671,
                2.417929768534256,
                -0.9960768779806831,
                1.3008088819944605,
                -2.920998258469335
            ]
        },
        {
            "positions": [
                -0.4893544500616589,
                -1.455140111975703,
                2.41328482714523,
                -0.9632934146691745,
                1.368595278098523,
                -2.747974248916587
            ]
        },
        {
            "positions": [
                -0.5650999903628569,
                -1.495883480257735,
                2.408639885756205,
                -0.9305099513576658,
                1.436381674202586,
                -2.5749502393638397
            ]
        },
        {
            "positions": [
                -0.6408455306640548,
                -1.536626848539767,
                2.4039949443671795,
                -0.8977264880461572,
                1.5041680703066485,
                -2.4019262298110924
            ]
        },
        {
            "positions": [
                -0.7165910709652528,
                -1.577370216821799,
                2.399350002978154,
                -0.8649430247346486,
                1.5719544664107112,
                -2.228902220258345
            ]
        },
        {
            "positions": [
                -0.7923366112664507,
                -1.6181135851038309,
                2.3947050615891285,
                -0.8321595614231398,
                1.639740862514774,
                -2.0558782107055977
            ]
        },
        {
            "positions": [
                -0.8680821515676487,
                -1.6588569533858628,
                2.3900601202001033,
                -0.7993760981116312,
                1.7075272586188368,
                -1.88285420115285
            ]
        },
        {
            "positions": [
                -0.9438276918688466,
                -1.6996003216678948,
                2.3854151788110776,
                -0.7665926348001226,
                1.7753136547228994,
                -1.7098301916001026
            ]
        },
        {
            "positions": [
                -1.0195732321700446,
                -1.7403436899499267,
                2.3807702374220523,
                -0.7338091714886139,
                1.8431000508269622,
                -1.536806182047355
            ]
        },
        {
            "positions": [
                -1.0953187724712428,
                -1.7810870582319587,
                2.376125296033027,
                -0.7010257081771054,
                1.910886446931025,
                -1.3637821724946078
            ]
        },
        {
            "positions": [
                -1.1710643127724405,
                -1.8218304265139904,
                2.3714803546440013,
                -0.6682422448655967,
                1.9786728430350875,
                -1.1907581629418604
            ]
        },
        {
            "positions": [
                -1.2468098530736387,
                -1.8625737947960224,
                2.366835413254976,
                -0.6354587815540881,
                2.0464592391391503,
                -1.0177341533891129
            ]
        },
        {
            "positions": [
                -1.3225553933748366,
                -1.9033171630780543,
                2.3621904718659508,
                -0.6026753182425795,
                2.114245635243213,
                -0.8447101438363656
            ]
        },
        {
            "positions": [
                -1.3983009336760346,
                -1.9440605313600863,
                2.357545530476925,
                -0.5698918549310708,
                2.182032031347276,
                -0.6716861342836178
            ]
        },
        {
            "positions": [
                -1.4740464739772325,
                -1.9848038996421182,
                2.3529005890879,
                -0.5371083916195621,
                2.2498184274513386,
                -0.49866212473087046
            ]
        },
        {
            "positions": [
                -1.5497920142784305,
                -2.02554726792415,
                2.348255647698874,
                -0.5043249283080535,
                2.317604823555401,
                -0.32563811517812313
            ]
        },
        {
            "positions": [
                -1.6255375545796285,
                -2.066290636206182,
                2.343610706309849,
                -0.4715414649965449,
                2.3853912196594638,
                -0.1526141056253758
            ]
        },
        {
            "positions": [
                -1.7012830948808264,
                -2.107034004488214,
                2.3389657649208235,
                -0.4387580016850362,
                2.4531776157635266,
                0.020409903927371964
            ]
        },
        {
            "positions": [
                -1.7770286351820244,
                -2.147777372770246,
                2.334320823531798,
                -0.4059745383735277,
                2.520964011867589,
                0.19343391348011885
            ]
        },
        {
            "positions": [
                -1.8527741754832225,
                -2.188520741052278,
                2.3296758821427725,
                -0.373191075062019,
                2.588750407971652,
                0.3664579230328666
            ]
        },
        {
            "positions": [
                -1.9285197157844203,
                -2.2292641093343097,
                2.3250309407537473,
                -0.3404076117505104,
                2.6565368040757145,
                0.5394819325856139
            ]
        },
        {
            "positions": [
                -2.0042652560856182,
                -2.2700074776163417,
                2.3203859993647216,
                -0.30762414843900177,
                2.7243232001797772,
                0.7125059421383613
            ]
        },
        {
            "positions": [
                -2.080010796386816,
                -2.3107508458983737,
                2.3157410579756963,
                -0.27484068512749305,
                2.79210959628384,
                0.885529951691109
            ]
        },
        {
            "positions": [
                -2.155756336688014,
                -2.3514942141804056,
                2.311096116586671,
                -0.24205722181598444,
                2.859895992387903,
                1.0585539612438564
            ]
        },
        {
            "positions": [
                -2.231501876989212,
                -2.3922375824624376,
                2.3064511751976453,
                -0.20927375850447583,
                2.9276823884919656,
                1.2315779707966032
            ]
        },
        {
            "positions": [
                -2.30724741729041,
                -2.4329809507444695,
                2.30180623380862,
                -0.17649029519296722,
                2.995468784596028,
                1.404601980349351
            ]
        },
        {
            "positions": [
                -2.382992957591608,
                -2.4737243190265015,
                2.2971612924195948,
                -0.1437068318814586,
                3.0632551807000907,
                1.5776259899020988
            ]
        },
        {
            "positions": [
                -2.458738497892806,
                -2.5144676873085334,
                2.292516351030569,
                -0.11092336856994989,
                3.1310415768041535,
                1.7506499994548466
            ]
        },
        {
            "positions": [
                -2.534484038194004,
                -2.5552110555905654,
                2.287871409641544,
                -0.07813990525844128,
                3.1988279729082163,
                1.9236740090075934
            ]
        },
        {
            "positions": [
                -2.429882496031977,
                -2.5343436925176688,
                2.2913349748901193,
                -0.09085892184801857,
                3.1187824913268876,
                1.7602118759787742
            ]
        },
        {
            "positions": [
                -2.32528095386995,
                -2.5134763294447717,
                2.2947985401386948,
                -0.10357793843759587,
                3.038737009745559,
                1.5967497429499549
            ]
        },
        {
            "positions": [
                -2.220679411707923,
                -2.492608966371875,
                2.2982621053872703,
                -0.11629695502717316,
                2.95869152816423,
                1.4332876099211354
            ]
        },
        {
            "positions": [
                -2.116077869545896,
                -2.471741603298978,
                2.3017256706358458,
                -0.12901597161675046,
                2.8786460465829014,
                1.269825476892316
            ]
        },
        {
            "positions": [
                -2.011476327383869,
                -2.4508742402260815,
                2.3051892358844213,
                -0.14173498820632774,
                2.798600565001573,
                1.1063633438634968
            ]
        },
        {
            "positions": [
                -1.906874785221842,
                -2.4300068771531844,
                2.3086528011329968,
                -0.15445400479590504,
                2.7185550834202443,
                0.9429012108346774
            ]
        },
        {
            "positions": [
                -1.8022732430598147,
                -2.409139514080288,
                2.3121163663815723,
                -0.16717302138548235,
                2.6385096018389156,
                0.779439077805858
            ]
        },
        {
            "positions": [
                -1.6976717008977877,
                -2.3882721510073908,
                2.315579931630148,
                -0.17989203797505965,
                2.558464120257587,
                0.6159769447770387
            ]
        },
        {
            "positions": [
                -1.5930701587357605,
                -2.367404787934494,
                2.3190434968787237,
                -0.19261105456463695,
                2.478418638676258,
                0.45251481174821917
            ]
        },
        {
            "positions": [
                -1.4884686165737337,
                -2.346537424861597,
                2.322507062127299,
                -0.20533007115421423,
                2.3983731570949294,
                0.2890526787193999
            ]
        },
        {
            "positions": [
                -1.3838670744117065,
                -2.3256700617887005,
                2.3259706273758747,
                -0.21804908774379153,
                2.3183276755136006,
                0.12559054569058037
            ]
        },
        {
            "positions": [
                -1.2792655322496798,
                -2.3048026987158035,
                2.32943419262445,
                -0.2307681043333688,
                2.238282193932272,
                -0.0378715873382387
            ]
        },
        {
            "positions": [
                -1.1746639900876525,
                -2.283935335642907,
                2.3328977578730257,
                -0.2434871209229461,
                2.158236712350943,
                -0.20133372036705843
            ]
        },
        {
            "positions": [
                -1.0700624479256255,
                -2.26306797257001,
                2.336361323121601,
                -0.2562061375125234,
                2.0781912307696144,
                -0.3647958533958775
            ]
        },
        {
            "positions": [
                -0.9654609057635986,
                -2.242200609497113,
                2.3398248883701767,
                -0.2689251541021007,
                1.998145749188286,
                -0.528257986424697
            ]
        },
        {
            "positions": [
                -0.8608593636015716,
                -2.221333246424216,
                2.343288453618752,
                -0.281644170691678,
                1.9181002676069572,
                -0.6917201194535161
            ]
        },
        {
            "positions": [
                -0.7562578214395446,
                -2.2004658833513195,
                2.3467520188673276,
                -0.29436318728125527,
                1.8380547860256287,
                -0.8551822524823351
            ]
        },
        {
            "positions": [
                -0.6516562792775173,
                -2.1795985202784225,
                2.350215584115903,
                -0.3070822038708326,
                1.7580093044442997,
                -1.018644385511155
            ]
        },
        {
            "positions": [
                -0.5470547371154904,
                -2.158731157205526,
                2.3536791493644786,
                -0.3198012204604099,
                1.6779638228629712,
                -1.1821065185399742
            ]
        },
        {
            "positions": [
                -0.4424531949534636,
                -2.137863794132629,
                2.357142714613054,
                -0.3325202370499872,
                1.5979183412816425,
                -1.3455686515687937
            ]
        },
        {
            "positions": [
                -0.3378516527914366,
                -2.1169964310597322,
                2.3606062798616296,
                -0.3452392536395644,
                1.517872859700314,
                -1.5090307845976128
            ]
        },
        {
            "positions": [
                -0.23325011062940915,
                -2.096129067986835,
                2.364069845110205,
                -0.3579582702291418,
                1.437827378118985,
                -1.6724929176264327
            ]
        },
        {
            "positions": [
                -0.12864856846738215,
                -2.0752617049139386,
                2.3675334103587806,
                -0.37067728681871903,
                1.3577818965376562,
                -1.8359550506552518
            ]
        },
        {
            "positions": [
                -0.0240470263053556,
                -2.054394341841042,
                2.3709969756073566,
                -0.38339630340829634,
                1.2777364149563277,
                -1.9994171836840708
            ]
        },
        {
            "positions": [
                0.0805545158566714,
                -2.033526978768145,
                2.374460540855932,
                -0.39611531999787364,
                1.1976909333749992,
                -2.1628793167128904
            ]
        },
        {
            "positions": [
                0.18515605801869883,
                -2.012659615695248,
                2.3779241061045076,
                -0.40883433658745094,
                1.11764545179367,
                -2.3263414497417103
            ]
        },
        {
            "positions": [
                0.2897576001807258,
                -1.9917922526223513,
                2.381387671353083,
                -0.42155335317702824,
                1.0375999702123417,
                -2.4898035827705294
            ]
        },
        {
            "positions": [
                0.3943591423427528,
                -1.9709248895494544,
                2.3848512366016585,
                -0.4342723697666055,
                0.957554488631013,
                -2.6532657157993484
            ]
        },
        {
            "positions": [
                0.4989606845047794,
                -1.9500575264765576,
                2.388314801850234,
                -0.4469913863561828,
                0.8775090070496843,
                -2.8167278488281675
            ]
        },
        {
            "positions": [
                0.6035622266668068,
                -1.9291901634036608,
                2.3917783670988095,
                -0.4597104029457601,
                0.7974635254683555,
                -2.9801899818569875
            ]
        },
        {
            "positions": [
                0.708163768828834,
                -1.908322800330764,
                2.395241932347385,
                -0.4724294195353374,
                0.7174180438870267,
                -3.143652114885807
            ]
        }
    ]
}