{
    "goal": {
        "global_pose": {
            "orientation": {
                "w": 0.7047431468963623,
                "x": -0.7094548344612122,
                "y": 0.0024358443915843964,
                "z": -0.0022348060738295317
            },
            "position": {
                "x": 0.6094750761985779,
                "y": 0.3671506643295288,
                "z": 0.19426114857196808
            }
        },
        "name": "move_to_magneteinheit_A"
    },
    "id": "PRMstar_move_to_magneteinheit_A_106",
    "joint_names": [
        "shoulder_pan_joint",
        "shoulder_lift_joint",
        "elbow_joint",
        "wrist_1_joint",
        "wrist_2_joint",
        "wrist_3_joint"
    ],
    "metrics": {
        "cart_traj_len": 1.880545240748457,
        "distance_elbow_joint": 3.9082728042153736,
        "distance_shoulder_lift_joint": 0.6985460546531191,
        "distance_shoulder_pan_joint": 1.2424415914178566,
        "distance_wrist_1_joint": 1.4826163315885832,
        "distance_wrist_2_joint": 1.6967703384282975,
        "distance_wrist_3_joint": 1.1060954625487673,
        "smoothness": 6.250144438734187e-16,
        "time": 5.002125831,
        "traj_len": 3.1835110464473027,
        "weighted_distance": 3.940345185128635
    },
    "planner": "PRMstar",
    "start": {
        "state": {
            "elbow_joint": -1.919643507792019,
            "shoulder_lift_joint": -0.07675430207160344,
            "shoulder_pan_joint": -1.1188671864651873,
            "wrist_1_joint": 0.42560062535961957,
            "wrist_2_joint": 1.5706038300724876,
            "wrist_3_joint": 1.1188968870953055
        }
    },
    "waypoints": [
        {
            "positions": [
                -1.1188671864651873,
                -0.07675430207160344,
                -1.919643507792019,
                0.42560062535961957,
                1.5706038300724876,
                1.1188968870953055
            ]
        },
        {
            "positions": [
                -1.0710809714106544,
                -0.10362145801980034,
                -1.7693253230145047,
                0.48262433042071895,
                1.50534343244063,
                1.076354753920353
            ]
        },
        {
            "positions": [
                -1.0232947563561214,
                -0.13048861396799724,
                -1.6190071382369904,
                0.5396480354818183,
                1.4400830348087723,
                1.0338126207454004
            ]
        },
        {
            "positions": [
                -0.9755085413015885,
                -0.15735576991619413,
                -1.468688953459476,
                0.5966717405429176,
                1.3748226371769148,
                0.9912704875704478
            ]
        },
        {
            "positions": [
                -0.9277223262470555,
                -0.18422292586439104,
                -1.3183707686819615,
                0.6536954456040169,
                1.3095622395450572,
                0.9487283543954952
            ]
        },
        {
            "positions": [
                -0.8799361111925226,
                -0.21109008181258793,
                -1.1680525839044473,
                0.7107191506651164,
                1.2443018419131997,
                0.9061862212205426
            ]
        },
        {
            "positions": [
                -0.8321498961379896,
                -0.2379572377607848,
                -1.0177343991269328,
                0.7677428557262157,
                1.179041444281342,
                0.86364408804559
            ]
        },
        {
            "positions": [
                -0.7843636810834567,
                -0.2648243937089817,
                -0.8674162143494186,
                0.824766560787315,
                1.1137810466494844,
                0.8211019548706374
            ]
        },
        {
            "positions": [
                -0.7365774660289237,
                -0.2916915496571786,
                -0.717098029571904,
                0.8817902658484145,
                1.0485206490176266,
                0.7785598216956848
            ]
        },
        {
            "positions": [
                -0.6887912509743909,
                -0.31855870560537547,
                -0.5667798447943897,
                0.9388139709095138,
                0.9832602513857692,
                0.7360176885207322
            ]
        },
        {
            "positions": [
                -0.6410050359198578,
                -0.3454258615535724,
                -0.41646166001687535,
                0.9958376759706131,
                0.9179998537539116,
                0.6934755553457796
            ]
        },
        {
            "positions": [
                -0.593218820865325,
                -0.3722930175017693,
                -0.266143475239361,
                1.0528613810317125,
                0.852739456122054,
                0.6509334221708271
            ]
        },
        {
            "positions": [
                -0.545432605810792,
                -0.3991601734499662,
                -0.11582529046184664,
                1.1098850860928118,
                0.7874790584901964,
                0.6083912889958745
            ]
        },
        {
            "positions": [
                -0.49764639075625905,
                -0.42602732939816307,
                0.03449289431566771,
                1.166908791153911,
                0.7222186608583389,
                0.5658491558209219
            ]
        },
        {
            "positions": [
                -0.4498601757017261,
                -0.45289448534635995,
                0.18481107909318184,
                1.2239324962150104,
                0.6569582632264813,
                0.5233070226459693
            ]
        },
        {
            "positions": [
                -0.40207396064719325,
                -0.47976164129455684,
                0.3351292638706964,
                1.2809562012761098,
                0.5916978655946238,
                0.4807648894710168
            ]
        },
        {
            "positions": [
                -0.3542877455926602,
                -0.5066287972427538,
                0.485447448648211,
                1.3379799063372093,
                0.5264374679627659,
                0.4382227562960641
            ]
        },
        {
            "positions": [
                -0.30650153053812723,
                -0.5334959531909507,
                0.6357656334257251,
                1.3950036113983086,
                0.4611770703309084,
                0.3956806231211115
            ]
        },
        {
            "positions": [
                -0.2587153154835944,
                -0.5603631091391476,
                0.7860838182032397,
                1.452027316459408,
                0.39591667269905084,
                0.35313848994615893
            ]
        },
        {
            "positions": [
                -0.21092910042906143,
                -0.5872302650873444,
                0.9364020029807538,
                1.5090510215205073,
                0.3306562750671933,
                0.31059635677120634
            ]
        },
        {
            "positions": [
                -0.16314288537452837,
                -0.6140974210355414,
                1.0867201877582684,
                1.5660747265816068,
                0.26539587743533555,
                0.26805422359625375
            ]
        },
        {
            "positions": [
                -0.11535667031999552,
                -0.6409645769837382,
                1.2370383725357825,
                1.6230984316427062,
                0.200135479803478,
                0.22551209042130116
            ]
        },
        {
            "positions": [
                -0.06757045526546257,
                -0.6678317329319352,
                1.387356557313297,
                1.6801221367038053,
                0.13487508217162048,
                0.18296995724634857
            ]
        },
        {
            "positions": [
                -0.019784240210929616,
                -0.694698888880132,
                1.5376747420908112,
                1.7371458417649046,
                0.06961468453976294,
                0.14042782407139598
            ]
        },
        {
            "positions": [
                0.02800197484360334,
                -0.721566044828329,
                1.6879929268683258,
                1.7941695468260042,
                0.0043542869079051805,
                0.09788569089644339
            ]
        },
        {
            "positions": [
                0.0757881898981363,
                -0.7484332007765258,
                1.8383111116458404,
                1.8511932518871035,
                -0.060906110723952356,
                0.05534355772149069
            ]
        },
        {
            "positions": [
                0.12357440495266919,
                -0.7753003567247226,
                1.9886292964233543,
                1.9082169569482028,
                -0.12616650835580984,
                0.012801424546538166
            ]
        }
    ]
}