{
    "goal": {
        "global_pose": {
            "orientation": {
                "w": 0.7031023502349854,
                "x": -0.7110244035720825,
                "y": 0.007748599164187908,
                "z": 0.005598929710686207
            },
            "position": {
                "x": 0.11585023208521307,
                "y": 0.44412534475326537,
                "z": 0.3711530566215515
            }
        },
        "name": "move_to_auspresseinheit_A"
    },
    "id": "PRMstar_move_to_auspresseinheit_A_118",
    "joint_names": [
        "shoulder_pan_joint",
        "shoulder_lift_joint",
        "elbow_joint",
        "wrist_1_joint",
        "wrist_2_joint",
        "wrist_3_joint"
    ],
    "metrics": {
        "cart_traj_len": 0.6905924986301418,
        "distance_elbow_joint": 0.03393043949421681,
        "distance_shoulder_lift_joint": 0.530065741601335,
        "distance_shoulder_pan_joint": 1.0447678241953935,
        "distance_wrist_1_joint": 0.5754984328758748,
        "distance_wrist_2_joint": 0.532989667411489,
        "distance_wrist_3_joint": 0.08152261723434862,
        "smoothness": 0.074534833755881,
        "time": 5.016841313,
        "traj_len": 1.6729538914186064,
        "weighted_distance": 2.0175004479723713
    },
    "planner": "PRMstar",
    "start": {
        "state": {
            "elbow_joint": 2.422574709923281,
            "shoulder_lift_joint": -1.3736533754116391,
            "shoulder_pan_joint": -0.33786336945926293,
            "wrist_1_joint": -1.0288603412921917,
            "wrist_2_joint": 1.2330224858903978,
            "wrist_3_joint": -3.094022268022082
        }
    },
    "waypoints": [
        {
            "positions": [
                -0.33786336945926293,
                -1.3736533754116391,
                2.422574709923281,
                -1.0288603412921917,
                1.2330224858903978,
                -3.094022268022082
            ]
        },
        {
            "positions": [
                -0.20928702127684956,
                -1.4276478626226579,
                2.415198250329256,
                -0.9471278818757384,
                1.1587530158343,
                -3.0866904452520663
            ]
        },
        {
            "positions": [
                -0.08071067309443619,
                -1.4816423498336766,
                2.4078217907352313,
                -0.865395422459285,
                1.0844835457782023,
                -3.07935862248205
            ]
        },
        {
            "positions": [
                0.05055851487732496,
                -1.5519884776968929,
                2.4046255373508703,
                -0.7967231701187903,
                1.0204084245616534,
                -3.090501784431103
            ]
        },
        {
            "positions": [
                0.18182770284908611,
                -1.6223346055601091,
                2.401429283966509,
                -0.7280509177782957,
                0.9563333033451045,
                -3.1016449463801554
            ]
        },
        {
            "positions": [
                0.3130968908208473,
                -1.6926807334233254,
                2.3982330305821478,
                -0.659378665437801,
                0.8922581821285556,
                -3.112788108329208
            ]
        },
        {
            "positions": [
                0.4443660787926084,
                -1.7630268612865416,
                2.3950367771977867,
                -0.5907064130973063,
                0.8281830609120067,
                -3.123931270278261
            ]
        },
        {
            "positions": [
                0.5756352667643696,
                -1.8333729891497579,
                2.3918405238134253,
                -0.5220341607568115,
                0.7641079396954576,
                -3.135074432227314
            ]
        },
        {
            "positions": [
                0.7069044547361307,
                -1.9037191170129741,
                2.3886442704290642,
                -0.4533619084163169,
                0.7000328184789087,
                -3.1462175941763664
            ]
        }
    ]
}