{
    "goal": {
        "global_pose": {
            "orientation": {
                "w": 0.7047431468963623,
                "x": -0.7094548344612122,
                "y": 0.0024358443915843964,
                "z": -0.0022348060738295317
            },
            "position": {
                "x": 0.6094750761985779,
                "y": 0.3671506643295288,
                "z": 0.19426114857196808
            }
        },
        "name": "move_to_magneteinheit_A"
    },
    "id": "PRMstar_move_to_magneteinheit_A_139",
    "joint_names": [
        "shoulder_pan_joint",
        "shoulder_lift_joint",
        "elbow_joint",
        "wrist_1_joint",
        "wrist_2_joint",
        "wrist_3_joint"
    ],
    "metrics": {
        "cart_traj_len": 1.8776034336698275,
        "distance_elbow_joint": 3.9119880267218923,
        "distance_shoulder_lift_joint": 0.7012982844347109,
        "distance_shoulder_pan_joint": 1.2408889857184602,
        "distance_wrist_1_joint": 1.4925647952874366,
        "distance_wrist_2_joint": 1.6983294977246879,
        "distance_wrist_3_joint": 1.1181332559411674,
        "smoothness": 5.263279529420487e-16,
        "time": 5.003911871000001,
        "traj_len": 3.187977861564969,
        "weighted_distance": 3.948463454398788
    },
    "planner": "PRMstar",
    "start": {
        "state": {
            "elbow_joint": -1.919643507792019,
            "shoulder_lift_joint": -0.07675430207160344,
            "shoulder_pan_joint": -1.1188671864651873,
            "wrist_1_joint": 0.42560062535961957,
            "wrist_2_joint": 1.5706038300724876,
            "wrist_3_joint": 1.1188968870953055
        }
    },
    "waypoints": [
        {
            "positions": [
                -1.1188671864651873,
                -0.07675430207160344,
                -1.919643507792019,
                0.42560062535961957,
                1.5706038300724876,
                1.1188968870953055
            ]
        },
        {
            "positions": [
                -1.0711406870144773,
                -0.10372731301140001,
                -1.7691824298411771,
                0.4830069636399056,
                1.5052834647753843,
                1.0758917618667991
            ]
        },
        {
            "positions": [
                -1.0234141875637672,
                -0.13070032395119657,
                -1.618721351890335,
                0.5404133019201917,
                1.4399630994782808,
                1.0328866366382927
            ]
        },
        {
            "positions": [
                -0.9756876881130573,
                -0.15767333489099317,
                -1.468260273939493,
                0.5978196402004776,
                1.3746427341811776,
                0.9898815114097862
            ]
        },
        {
            "positions": [
                -0.9279611886623473,
                -0.18464634583078973,
                -1.317799195988651,
                0.6552259784807637,
                1.309322368884074,
                0.9468763861812798
            ]
        },
        {
            "positions": [
                -0.8802346892116373,
                -0.2116193567705863,
                -1.1673381180378088,
                0.7126323167610498,
                1.2440020035869708,
                0.9038712609527734
            ]
        },
        {
            "positions": [
                -0.8325081897609272,
                -0.2385923677103829,
                -1.016877040086967,
                0.7700386550413357,
                1.1786816382898673,
                0.8608661357242668
            ]
        },
        {
            "positions": [
                -0.7847816903102174,
                -0.26556537865017943,
                -0.8664159621361252,
                0.8274449933216217,
                1.113361272992764,
                0.8178610104957604
            ]
        },
        {
            "positions": [
                -0.7370551908595073,
                -0.292538389589976,
                -0.715954884185283,
                0.8848513316019078,
                1.0480409076956605,
                0.774855885267254
            ]
        },
        {
            "positions": [
                -0.6893286914087973,
                -0.31951140052977256,
                -0.565493806234441,
                0.9422576698821938,
                0.9827205423985572,
                0.7318507600387476
            ]
        },
        {
            "positions": [
                -0.6416021919580872,
                -0.34648441146956915,
                -0.41503272828359883,
                0.9996640081624799,
                0.9174001771014537,
                0.6888456348102412
            ]
        },
        {
            "positions": [
                -0.5938756925073773,
                -0.37345742240936575,
                -0.2645716503327571,
                1.0570703464427658,
                0.8520798118043504,
                0.6458405095817348
            ]
        },
        {
            "positions": [
                -0.5461491930566672,
                -0.40043043334916234,
                -0.11411057238191491,
                1.1144766847230518,
                0.786759446507247,
                0.6028353843532283
            ]
        },
        {
            "positions": [
                -0.49842269360595726,
                -0.4274034442889589,
                0.03635050556892705,
                1.171883023003338,
                0.7214390812101437,
                0.5598302591247218
            ]
        },
        {
            "positions": [
                -0.4506961941552473,
                -0.4543764552287554,
                0.1868115835197688,
                1.2292893612836238,
                0.6561187159130403,
                0.5168251338962154
            ]
        },
        {
            "positions": [
                -0.40296969470453725,
                -0.481349466168552,
                0.33727266147061097,
                1.2866956995639098,
                0.590798350615937,
                0.473820008667709
            ]
        },
        {
            "positions": [
                -0.3552431952538272,
                -0.5083224771083485,
                0.48773373942145315,
                1.344102037844196,
                0.5254779853188334,
                0.4308148834392025
            ]
        },
        {
            "positions": [
                -0.30751669580311725,
                -0.5352954880481452,
                0.6381948173722953,
                1.401508376124482,
                0.4601576200217301,
                0.3878097582106961
            ]
        },
        {
            "positions": [
                -0.2597901963524072,
                -0.5622684989879417,
                0.7886558953231371,
                1.458914714404768,
                0.39483725472462683,
                0.34480463298218966
            ]
        },
        {
            "positions": [
                -0.21206369690169724,
                -0.5892415099277384,
                0.9391169732739788,
                1.516321052685054,
                0.32951688942752355,
                0.30179950775368325
            ]
        },
        {
            "positions": [
                -0.16433719745098718,
                -0.6162145208675349,
                1.0895780512248214,
                1.5737273909653402,
                0.26419652413041983,
                0.2587943825251767
            ]
        },
        {
            "positions": [
                -0.11661069800027724,
                -0.6431875318073315,
                1.2400391291756632,
                1.631133729245626,
                0.19887615883331655,
                0.2157892572966703
            ]
        },
        {
            "positions": [
                -0.06888419854956718,
                -0.670160542747128,
                1.390500207126505,
                1.6885400675259121,
                0.13355579353621327,
                0.1727841320681639
            ]
        },
        {
            "positions": [
                -0.02115769909885712,
                -0.6971335536869245,
                1.540961285077347,
                1.745946405806198,
                0.06823542823911,
                0.12977900683965748
            ]
        },
        {
            "positions": [
                0.02656880035185294,
                -0.7241065646267213,
                1.6914223630281893,
                1.8033527440864843,
                0.0029150629420064966,
                0.08677388161115096
            ]
        },
        {
            "positions": [
                0.07429529980256278,
                -0.7510795755665178,
                1.8418834409790314,
                1.8607590823667701,
                -0.062405302355097,
                0.04376875638264455
            ]
        },
        {
            "positions": [
                0.12202179925327285,
                -0.7780525865063144,
                1.992344518929873,
                1.9181654206470562,
                -0.12772566765220036,
                0.0007636311541381258
            ]
        }
    ]
}