{
    "goal": {
        "global_pose": {
            "orientation": {
                "w": 0.7031023502349854,
                "x": -0.7110244035720825,
                "y": 0.007748599164187908,
                "z": 0.005598929710686207
            },
            "position": {
                "x": 0.11585023208521307,
                "y": 0.44412534475326537,
                "z": 0.3711530566215515
            }
        },
        "name": "move_to_auspresseinheit_A"
    },
    "id": "PRMstar_move_to_auspresseinheit_A_7",
    "joint_names": [
        "shoulder_pan_joint",
        "shoulder_lift_joint",
        "elbow_joint",
        "wrist_1_joint",
        "wrist_2_joint",
        "wrist_3_joint"
    ],
    "metrics": {
        "cart_traj_len": 3.2083323057780335,
        "distance_elbow_joint": 1.8608301650415053,
        "distance_shoulder_lift_joint": 2.422039263442545,
        "distance_shoulder_pan_joint": 4.453396464088519,
        "distance_wrist_1_joint": 2.144634322327197,
        "distance_wrist_2_joint": 1.7055374736523996,
        "distance_wrist_3_joint": 12.87850633641419,
        "smoothness": 0.5613019551136146,
        "time": 5.122354768,
        "traj_len": 5.046280216651306,
        "weighted_distance": 7.421059795863008
    },
    "planner": "PRMstar",
    "start": {
        "state": {
            "elbow_joint": 2.422574709923281,
            "shoulder_lift_joint": -1.3736533754116391,
            "shoulder_pan_joint": -0.33786336945926293,
            "wrist_1_joint": -1.0288603412921917,
            "wrist_2_joint": 1.2330224858903978,
            "wrist_3_joint": -3.094022268022082
        }
    },
    "waypoints": [
        {
            "positions": [
                -0.33786336945926293,
                -1.3736533754116391,
                2.422574709923281,
                -1.0288603412921917,
                1.2330224858903978,
                -3.094022268022082
            ]
        },
        {
            "positions": [
                -0.2848017896242454,
                -1.4909910515008695,
                2.3323817997251526,
                -1.0925847435388225,
                1.1957866758812348,
                -3.0829827852319123
            ]
        },
        {
            "positions": [
                -0.23174020978922785,
                -1.6083287275901,
                2.242188889527024,
                -1.1563091457854533,
                1.1585508658720716,
                -3.071943302441743
            ]
        },
        {
            "positions": [
                -0.1786786299542103,
                -1.7256664036793306,
                2.1519959793288956,
                -1.2200335480320843,
                1.1213150558629086,
                -3.060903819651573
            ]
        },
        {
            "positions": [
                -0.12561705011919277,
                -1.843004079768561,
                2.061803069130767,
                -1.283757950278715,
                1.0840792458537456,
                -3.049864336861403
            ]
        },
        {
            "positions": [
                -0.07255547028417525,
                -1.9603417558577914,
                1.9716101589326385,
                -1.3474823525253459,
                1.0468434358445826,
                -3.0388248540712337
            ]
        },
        {
            "positions": [
                -0.01949389044915767,
                -2.077679431947022,
                1.8814172487345098,
                -1.4112067547719769,
                1.0096076258354194,
                -3.027785371281064
            ]
        },
        {
            "positions": [
                0.033567689385859856,
                -2.1950171080362524,
                1.7912243385363813,
                -1.4749311570186077,
                0.9723718158262564,
                -3.0167458884908944
            ]
        },
        {
            "positions": [
                0.08662926922087738,
                -2.312354784125483,
                1.7010314283382528,
                -1.5386555592652384,
                0.9351360058170933,
                -3.0057064057007246
            ]
        },
        {
            "positions": [
                0.15925570126396094,
                -2.329229395310749,
                1.7296456046933937,
                -1.4963190047507136,
                0.9095483505408397,
                -2.8077833608270257
            ]
        },
        {
            "positions": [
                0.23188213330704446,
                -2.3461040064960152,
                1.7582597810485343,
                -1.4539824502361887,
                0.8839606952645861,
                -2.609860315953327
            ]
        },
        {
            "positions": [
                0.304508565350128,
                -2.3629786176812813,
                1.7868739574036752,
                -1.411645895721664,
                0.8583730399883324,
                -2.411937271079628
            ]
        },
        {
            "positions": [
                0.37713499739321155,
                -2.3798532288665473,
                1.815488133758816,
                -1.369309341207139,
                0.8327853847120787,
                -2.2140142262059292
            ]
        },
        {
            "positions": [
                0.4497614294362951,
                -2.3967278400518137,
                1.8441023101139566,
                -1.3269727866926142,
                0.8071977294358251,
                -2.0160911813322304
            ]
        },
        {
            "positions": [
                0.5223878614793787,
                -2.4136024512370797,
                1.8727164864690975,
                -1.2846362321780893,
                0.7816100741595715,
                -1.8181681364585311
            ]
        },
        {
            "positions": [
                0.5950142935224623,
                -2.4304770624223457,
                1.9013306628242383,
                -1.2422996776635644,
                0.7560224188833178,
                -1.6202450915848323
            ]
        },
        {
            "positions": [
                0.6676407255655457,
                -2.4473516736076117,
                1.9299448391793792,
                -1.1999631231490397,
                0.7304347636070642,
                -1.4223220467111335
            ]
        },
        {
            "positions": [
                0.7402671576086293,
                -2.464226284792878,
                1.9585590155345198,
                -1.1576265686345149,
                0.7048471083308105,
                -1.2243990018374347
            ]
        },
        {
            "positions": [
                0.8128935896517129,
                -2.481100895978144,
                1.9871731918896607,
                -1.11529001411999,
                0.6792594530545569,
                -1.0264759569637358
            ]
        },
        {
            "positions": [
                0.8855200216947963,
                -2.49797550716341,
                2.0157873682448013,
                -1.072953459605465,
                0.6536717977783033,
                -0.828552912090037
            ]
        },
        {
            "positions": [
                0.9581464537378799,
                -2.5148501183486767,
                2.044401544599942,
                -1.0306169050909402,
                0.6280841425020496,
                -0.6306298672163377
            ]
        },
        {
            "positions": [
                1.0307728857809635,
                -2.5317247295339427,
                2.073015720955083,
                -0.9882803505764154,
                0.602496487225796,
                -0.4327068223426389
            ]
        },
        {
            "positions": [
                1.103399317824047,
                -2.5485993407192087,
                2.101629897310224,
                -0.9459437960618905,
                0.5769088319495423,
                -0.23478377746894008
            ]
        },
        {
            "positions": [
                1.1760257498671305,
                -2.565473951904475,
                2.1302440736653647,
                -0.9036072415473657,
                0.5513211766732886,
                -0.03686073259524125
            ]
        },
        {
            "positions": [
                1.248652181910214,
                -2.582348563089741,
                2.158858250020505,
                -0.8612706870328408,
                0.5257335213970351,
                0.16106231227845758
            ]
        },
        {
            "positions": [
                1.3212786139532977,
                -2.599223174275007,
                2.187472426375646,
                -0.8189341325183159,
                0.5001458661207814,
                0.3589853571521564
            ]
        },
        {
            "positions": [
                1.393905045996381,
                -2.6160977854602736,
                2.216086602730787,
                -0.7765975780037911,
                0.47455821084452776,
                0.5569084020258552
            ]
        },
        {
            "positions": [
                1.4665314780394647,
                -2.6329723966455396,
                2.2447007790859277,
                -0.7342610234892663,
                0.44897055556827414,
                0.7548314468995541
            ]
        },
        {
            "positions": [
                1.5391579100825483,
                -2.6498470078308056,
                2.2733149554410685,
                -0.6919244689747415,
                0.4233829002920205,
                0.9527544917732529
            ]
        },
        {
            "positions": [
                1.6117843421256317,
                -2.666721619016072,
                2.3019291317962094,
                -0.6495879144602166,
                0.3977952450157668,
                1.1506775366469517
            ]
        },
        {
            "positions": [
                1.6844107741687153,
                -2.683596230201338,
                2.3305433081513502,
                -0.6072513599456917,
                0.3722075897395132,
                1.3486005815206505
            ]
        },
        {
            "positions": [
                1.757037206211799,
                -2.700470841386604,
                2.3591574845064907,
                -0.5649148054311669,
                0.34661993446325956,
                1.5465236263943494
            ]
        },
        {
            "positions": [
                1.8296636382548823,
                -2.7173454525718705,
                2.3877716608616315,
                -0.5225782509166419,
                0.32103227918700594,
                1.744446671268049
            ]
        },
        {
            "positions": [
                1.902290070297966,
                -2.7342200637571366,
                2.4163858372167724,
                -0.4802416964021172,
                0.2954446239107523,
                1.942369716141748
            ]
        },
        {
            "positions": [
                1.9749165023410495,
                -2.7510946749424026,
                2.445000013571913,
                -0.43790514188759233,
                0.2698569686344986,
                2.1402927610154467
            ]
        },
        {
            "positions": [
                2.047542934384133,
                -2.767969286127669,
                2.473614189927054,
                -0.39556858737306744,
                0.24426931335824498,
                2.3382158058891456
            ]
        },
        {
            "positions": [
                2.1201693664272168,
                -2.784843897312935,
                2.5022283662821945,
                -0.35323203285854254,
                0.21868165808199136,
                2.5361388507628444
            ]
        },
        {
            "positions": [
                2.1927957984703,
                -2.801718508498201,
                2.5308425426373358,
                -0.31089547834401765,
                0.19309400280573774,
                2.7340618956365432
            ]
        },
        {
            "positions": [
                2.2654222305133835,
                -2.8185931196834675,
                2.559456718992476,
                -0.268558923829493,
                0.167506347529484,
                2.931984940510242
            ]
        },
        {
            "positions": [
                2.338048662556467,
                -2.8354677308687335,
                2.588070895347617,
                -0.22622236931496809,
                0.1419186922532304,
                3.129907985383941
            ]
        },
        {
            "positions": [
                2.4106750945995508,
                -2.8523423420539995,
                2.616685071702758,
                -0.1838858148004432,
                0.11633103697697678,
                3.32783103025764
            ]
        },
        {
            "positions": [
                2.3451036330599466,
                -2.8160596383309153,
                2.608083793237682,
                -0.1946577132577261,
                0.13897896100539897,
                3.079498221098622
            ]
        },
        {
            "positions": [
                2.279532171520343,
                -2.7797769346078316,
                2.5994825147726064,
                -0.20542961171500898,
                0.16162688503382117,
                2.831165411939604
            ]
        },
        {
            "positions": [
                2.213960709980739,
                -2.7434942308847474,
                2.5908812363075304,
                -0.2162015101722919,
                0.18427480906224336,
                2.582832602780586
            ]
        },
        {
            "positions": [
                2.148389248441135,
                -2.7072115271616632,
                2.5822799578424545,
                -0.22697340862957477,
                0.20692273309066558,
                2.3344997936215686
            ]
        },
        {
            "positions": [
                2.082817786901531,
                -2.6709288234385795,
                2.5736786793773785,
                -0.23774530708685768,
                0.22957065711908778,
                2.0861669844625506
            ]
        },
        {
            "positions": [
                2.017246325361927,
                -2.6346461197154953,
                2.565077400912303,
                -0.24851720554414058,
                0.25221858114750995,
                1.8378341753035325
            ]
        },
        {
            "positions": [
                1.9516748638223231,
                -2.5983634159924116,
                2.556476122447227,
                -0.25928910400142346,
                0.27486650517593214,
                1.589501366144515
            ]
        },
        {
            "positions": [
                1.886103402282719,
                -2.5620807122693274,
                2.547874843982151,
                -0.27006100245870635,
                0.2975144292043544,
                1.3411685569854968
            ]
        },
        {
            "positions": [
                1.8205319407431153,
                -2.5257980085462433,
                2.539273565517075,
                -0.2808329009159893,
                0.32016235323277653,
                1.092835747826479
            ]
        },
        {
            "positions": [
                1.7549604792035112,
                -2.4895153048231595,
                2.5306722870519995,
                -0.29160479937327216,
                0.3428102772611988,
                0.844502938667461
            ]
        },
        {
            "positions": [
                1.6893890176639075,
                -2.4532326011000753,
                2.5220710085869236,
                -0.30237669783055504,
                0.365458201289621,
                0.5961701295084434
            ]
        },
        {
            "positions": [
                1.6238175561243033,
                -2.416949897376991,
                2.5134697301218476,
                -0.313148596287838,
                0.38810612531804317,
                0.34783732034942494
            ]
        },
        {
            "positions": [
                1.5582460945846994,
                -2.3806671936539074,
                2.5048684516567716,
                -0.32392049474512086,
                0.41075404934646537,
                0.09950451119040737
            ]
        },
        {
            "positions": [
                1.4926746330450955,
                -2.3443844899308233,
                2.496267173191696,
                -0.33469239320240374,
                0.43340197337488756,
                -0.1488282979686102
            ]
        },
        {
            "positions": [
                1.4271031715054916,
                -2.3081017862077395,
                2.48766589472662,
                -0.3454642916596866,
                0.45604989740330976,
                -0.3971611071276282
            ]
        },
        {
            "positions": [
                1.3615317099658875,
                -2.2718190824846554,
                2.479064616261544,
                -0.35623619011696955,
                0.478697821431732,
                -0.6454939162866467
            ]
        },
        {
            "positions": [
                1.2959602484262835,
                -2.235536378761571,
                2.4704633377964687,
                -0.3670080885742525,
                0.5013457454601542,
                -0.8938267254456647
            ]
        },
        {
            "positions": [
                1.2303887868866796,
                -2.199253675038487,
                2.4618620593313927,
                -0.37777998703153537,
                0.5239936694885763,
                -1.1421595346046822
            ]
        },
        {
            "positions": [
                1.1648173253470757,
                -2.1629709713154033,
                2.4532607808663167,
                -0.38855188548881825,
                0.5466415935169986,
                -1.3904923437636998
            ]
        },
        {
            "positions": [
                1.0992458638074718,
                -2.126688267592319,
                2.4446595024012407,
                -0.39932378394610113,
                0.5692895175454208,
                -1.6388251529227182
            ]
        },
        {
            "positions": [
                1.0336744022678679,
                -2.0904055638692354,
                2.4360582239361652,
                -0.410095682403384,
                0.591937441573843,
                -1.8871579620817358
            ]
        },
        {
            "positions": [
                0.968102940728264,
                -2.054122860146151,
                2.4274569454710893,
                -0.4208675808606669,
                0.6145853656022652,
                -2.1354907712407534
            ]
        },
        {
            "positions": [
                0.9025314791886601,
                -2.017840156423067,
                2.4188556670060133,
                -0.4316394793179498,
                0.6372332896306874,
                -2.383823580399772
            ]
        },
        {
            "positions": [
                0.8369600176490559,
                -1.9815574526999833,
                2.4102543885409373,
                -0.44241137777523276,
                0.6598812136591096,
                -2.6321563895587903
            ]
        },
        {
            "positions": [
                0.771388556109452,
                -1.9452747489768991,
                2.401653110075862,
                -0.45318327623251564,
                0.6825291376875318,
                -2.880489198717808
            ]
        },
        {
            "positions": [
                0.7058170945698482,
                -1.9089920452538152,
                2.393051831610786,
                -0.4639551746897985,
                0.705177061715954,
                -3.128822007876825
            ]
        }
    ]
}