{
    "goal": {
        "global_pose": {
            "orientation": {
                "w": 0.7031023502349854,
                "x": -0.7110244035720825,
                "y": 0.007748599164187908,
                "z": 0.005598929710686207
            },
            "position": {
                "x": 0.11585023208521307,
                "y": 0.44412534475326537,
                "z": 0.3711530566215515
            }
        },
        "name": "move_to_auspresseinheit_A"
    },
    "id": "PRMstar_move_to_auspresseinheit_A_95",
    "joint_names": [
        "shoulder_pan_joint",
        "shoulder_lift_joint",
        "elbow_joint",
        "wrist_1_joint",
        "wrist_2_joint",
        "wrist_3_joint"
    ],
    "metrics": {
        "cart_traj_len": 3.9231574952700567,
        "distance_elbow_joint": 1.5688318490108277,
        "distance_shoulder_lift_joint": 2.408112504983359,
        "distance_shoulder_pan_joint": 5.509826782188842,
        "distance_wrist_1_joint": 4.852952122022991,
        "distance_wrist_2_joint": 2.446434500878805,
        "distance_wrist_3_joint": 12.649163105666968,
        "smoothness": 0.4945241110282138,
        "time": 5.051242523,
        "traj_len": 5.425432781331992,
        "weighted_distance": 7.8761052366628235
    },
    "planner": "PRMstar",
    "start": {
        "state": {
            "elbow_joint": 2.422574709923281,
            "shoulder_lift_joint": -1.3736533754116391,
            "shoulder_pan_joint": -0.33786336945926293,
            "wrist_1_joint": -1.0288603412921917,
            "wrist_2_joint": 1.2330224858903978,
            "wrist_3_joint": -3.094022268022082
        }
    },
    "waypoints": [
        {
            "positions": [
                -0.33786336945926293,
                -1.3736533754116391,
                2.422574709923281,
                -1.0288603412921917,
                1.2330224858903978,
                -3.094022268022082
            ]
        },
        {
            "positions": [
                -0.24760793615177584,
                -1.4479461323679785,
                2.3225204749890054,
                -0.9901268645538982,
                1.1581043321549138,
                -3.0980008038684006
            ]
        },
        {
            "positions": [
                -0.15735250284428876,
                -1.522238889324318,
                2.22246624005473,
                -0.9513933878156048,
                1.0831861784194299,
                -3.1019793397147186
            ]
        },
        {
            "positions": [
                -0.06709706953680167,
                -1.5965316462806576,
                2.1224120051204545,
                -0.9126599110773113,
                1.0082680246839462,
                -3.105957875561037
            ]
        },
        {
            "positions": [
                0.02315836377068542,
                -1.670824403236997,
                2.0223577701861792,
                -0.8739264343390178,
                0.9333498709484622,
                -3.1099364114073555
            ]
        },
        {
            "positions": [
                0.1134137970781725,
                -1.7451171601933364,
                1.9223035352519036,
                -0.8351929576007243,
                0.8584317172129783,
                -3.1139149472536736
            ]
        },
        {
            "positions": [
                0.2036692303856596,
                -1.819409917149676,
                1.8222493003176279,
                -0.7964594808624308,
                0.7835135634774943,
                -3.117893483099992
            ]
        },
        {
            "positions": [
                0.2939246636931467,
                -1.8937026741060154,
                1.7221950653833524,
                -0.7577260041241374,
                0.7085954097420105,
                -3.12187201894631
            ]
        },
        {
            "positions": [
                0.3841800970006337,
                -1.9679954310623549,
                1.622140830449077,
                -0.7189925273858438,
                0.6336772560065266,
                -3.1258505547926285
            ]
        },
        {
            "positions": [
                0.457220133847829,
                -1.9930249255214916,
                1.6393991492438855,
                -0.6504067950378188,
                0.6084091406764753,
                -2.9458836299098157
            ]
        },
        {
            "positions": [
                0.5302601706950243,
                -2.0180544199806283,
                1.6566574680386943,
                -0.5818210626897938,
                0.5831410253464242,
                -2.7659167050270024
            ]
        },
        {
            "positions": [
                0.6033002075422196,
                -2.0430839144397646,
                1.6739157868335028,
                -0.5132353303417688,
                0.557872910016373,
                -2.5859497801441895
            ]
        },
        {
            "positions": [
                0.6763402443894149,
                -2.0681134088989013,
                1.6911741056283114,
                -0.4446495979937439,
                0.5326047946863217,
                -2.4059828552613762
            ]
        },
        {
            "positions": [
                0.7493802812366102,
                -2.093142903358038,
                1.7084324244231202,
                -0.37606386564571886,
                0.5073366793562706,
                -2.2260159303785634
            ]
        },
        {
            "positions": [
                0.8224203180838054,
                -2.1181723978171747,
                1.7256907432179287,
                -0.30747813329769386,
                0.48206856402621934,
                -2.0460490054957505
            ]
        },
        {
            "positions": [
                0.8954603549310007,
                -2.143201892276311,
                1.7429490620127372,
                -0.23889240094966885,
                0.4568004486961681,
                -1.8660820806129372
            ]
        },
        {
            "positions": [
                0.968500391778196,
                -2.1682313867354477,
                1.7602073808075458,
                -0.1703066686016439,
                0.43153233336611685,
                -1.6861151557301244
            ]
        },
        {
            "positions": [
                1.041540428625391,
                -2.1932608811945844,
                1.7774656996023546,
                -0.101720936253619,
                0.4062642180360657,
                -1.5061482308473115
            ]
        },
        {
            "positions": [
                1.1145804654725866,
                -2.218290375653721,
                1.7947240183971631,
                -0.03313520390559388,
                0.38099610270601447,
                -1.3261813059644985
            ]
        },
        {
            "positions": [
                1.187620502319782,
                -2.243319870112858,
                1.8119823371919717,
                0.03545052844243113,
                0.35572798737596323,
                -1.1462143810816854
            ]
        },
        {
            "positions": [
                1.2606605391669772,
                -2.268349364571994,
                1.8292406559867804,
                0.10403626079045614,
                0.33045987204591204,
                -0.9662474561988721
            ]
        },
        {
            "positions": [
                1.3337005760141725,
                -2.293378859031131,
                1.846498974781589,
                0.17262199313848114,
                0.3051917567158608,
                -0.7862805313160592
            ]
        },
        {
            "positions": [
                1.4067406128613678,
                -2.3184083534902675,
                1.8637572935763975,
                0.24120772548650615,
                0.2799236413858096,
                -0.6063136064332459
            ]
        },
        {
            "positions": [
                1.479780649708563,
                -2.343437847949404,
                1.8810156123712063,
                0.30979345783453105,
                0.2546555260557584,
                -0.42634668155043354
            ]
        },
        {
            "positions": [
                1.5528206865557583,
                -2.3684673424085405,
                1.8982739311660148,
                0.37837919018255606,
                0.22938741072570717,
                -0.24637975666762024
            ]
        },
        {
            "positions": [
                1.6258607234029536,
                -2.3934968368676772,
                1.9155322499608234,
                0.44696492253058107,
                0.204119295395656,
                -0.06641283178480739
            ]
        },
        {
            "positions": [
                1.6989007602501487,
                -2.418526331326814,
                1.9327905687556322,
                0.5155506548786059,
                0.1788511800656048,
                0.11355409309800546
            ]
        },
        {
            "positions": [
                1.7719407970973442,
                -2.4435558257859507,
                1.9500488875504407,
                0.5841363872266309,
                0.1535830647355536,
                0.2935210179808183
            ]
        },
        {
            "positions": [
                1.8449808339445395,
                -2.468585320245087,
                1.9673072063452492,
                0.6527221195746561,
                0.12831494940550237,
                0.4734879428636316
            ]
        },
        {
            "positions": [
                1.9180208707917348,
                -2.4936148147042236,
                1.984565525140058,
                0.7213078519226811,
                0.10304683407545112,
                0.6534548677464445
            ]
        },
        {
            "positions": [
                1.99106090763893,
                -2.5186443091633604,
                2.001823843934867,
                0.7898935842707061,
                0.07777871874539988,
                0.8334217926292578
            ]
        },
        {
            "positions": [
                2.0641009444861256,
                -2.543673803622497,
                2.019082162729675,
                0.8584793166187311,
                0.052510603415348744,
                1.013388717512071
            ]
        },
        {
            "positions": [
                2.137140981333321,
                -2.5687032980816333,
                2.036340481524484,
                0.9270650489667561,
                0.0272424880852975,
                1.1933556423948843
            ]
        },
        {
            "positions": [
                2.210181018180516,
                -2.59373279254077,
                2.0535988003192926,
                0.9956507813147811,
                0.0019743727552462564,
                1.3733225672776967
            ]
        },
        {
            "positions": [
                2.2832210550277114,
                -2.6187622869999068,
                2.070857119114101,
                1.0642365136628062,
                -0.023293742574804988,
                1.55328949216051
            ]
        },
        {
            "positions": [
                2.3562610918749067,
                -2.6437917814590435,
                2.0881154379089097,
                1.1328222460108313,
                -0.04856185790485623,
                1.7332564170433233
            ]
        },
        {
            "positions": [
                2.429301128722102,
                -2.66882127591818,
                2.1053737567037185,
                1.2014079783588563,
                -0.07382997323490736,
                1.9132233419261366
            ]
        },
        {
            "positions": [
                2.5023411655692973,
                -2.693850770377317,
                2.122632075498527,
                1.2699937107068813,
                -0.09909808856495861,
                2.093190266808949
            ]
        },
        {
            "positions": [
                2.5753812024164926,
                -2.718880264836453,
                2.1398903942933356,
                1.3385794430549058,
                -0.12436620389500974,
                2.2731571916917614
            ]
        },
        {
            "positions": [
                2.648421239263688,
                -2.74390975929559,
                2.157148713088144,
                1.4071651754029308,
                -0.14963431922506099,
                2.4531241165745747
            ]
        },
        {
            "positions": [
                2.721461276110883,
                -2.7689392537547266,
                2.1744070318829527,
                1.4757509077509559,
                -0.17490243455511223,
                2.633091041457388
            ]
        },
        {
            "positions": [
                2.7945013129580785,
                -2.793968748213863,
                2.1916653506777615,
                1.5443366400989809,
                -0.20017054988516336,
                2.8130579663402004
            ]
        },
        {
            "positions": [
                2.8675413498052738,
                -2.8189982426729996,
                2.20892366947257,
                1.6129223724470059,
                -0.2254386652152146,
                2.9930248912230137
            ]
        },
        {
            "positions": [
                2.940581386652469,
                -2.8440277371321363,
                2.2261819882673786,
                1.6815081047950309,
                -0.25070678054526585,
                3.1729918161058266
            ]
        },
        {
            "positions": [
                2.872963749498617,
                -2.8156114297605344,
                2.231162497713388,
                1.6165813267363713,
                -0.2215338946530495,
                2.9815223479846757
            ]
        },
        {
            "positions": [
                2.805346112344765,
                -2.7871951223889324,
                2.236143007159398,
                1.5516545486777116,
                -0.19236100876083317,
                2.790052879863525
            ]
        },
        {
            "positions": [
                2.737728475190913,
                -2.7587788150173305,
                2.2411235166054078,
                1.486727770619052,
                -0.16318812286861684,
                2.598583411742374
            ]
        },
        {
            "positions": [
                2.6701108380370613,
                -2.730362507645729,
                2.246104026051418,
                1.4218009925603925,
                -0.1340152369764005,
                2.4071139436212237
            ]
        },
        {
            "positions": [
                2.602493200883209,
                -2.701946200274127,
                2.2510845354974274,
                1.3568742145017327,
                -0.10484235108418413,
                2.215644475500073
            ]
        },
        {
            "positions": [
                2.5348755637293574,
                -2.673529892902525,
                2.256065044943437,
                1.2919474364430732,
                -0.0756694651919678,
                2.024175007378922
            ]
        },
        {
            "positions": [
                2.4672579265755052,
                -2.645113585530923,
                2.261045554389447,
                1.2270206583844137,
                -0.046496579299751456,
                1.8327055392577711
            ]
        },
        {
            "positions": [
                2.3996402894216535,
                -2.616697278159321,
                2.2660260638354566,
                1.1620938803257541,
                -0.017323693407535118,
                1.6412360711366203
            ]
        },
        {
            "positions": [
                2.332022652267802,
                -2.5882809707877192,
                2.2710065732814666,
                1.0971671022670946,
                0.011849192484681192,
                1.4497666030154697
            ]
        },
        {
            "positions": [
                2.2644050151139496,
                -2.5598646634161177,
                2.275987082727476,
                1.0322403242084348,
                0.041022078376897586,
                1.2582971348943188
            ]
        },
        {
            "positions": [
                2.1967873779600975,
                -2.531448356044516,
                2.2809675921734858,
                0.9673135461497753,
                0.07019496426911387,
                1.0668276667731682
            ]
        },
        {
            "positions": [
                2.1291697408062458,
                -2.503032048672914,
                2.285948101619496,
                0.9023867680911156,
                0.09936785016133026,
                0.8753581986520174
            ]
        },
        {
            "positions": [
                2.061552103652394,
                -2.474615741301312,
                2.2909286110655054,
                0.837459990032456,
                0.12854073605354654,
                0.6838887305308665
            ]
        },
        {
            "positions": [
                1.993934466498542,
                -2.44619943392971,
                2.2959091205115154,
                0.7725332119737963,
                0.15771362194576294,
                0.4924192624097157
            ]
        },
        {
            "positions": [
                1.92631682934469,
                -2.417783126558108,
                2.300889629957525,
                0.7076064339151368,
                0.18688650783797928,
                0.30094979428856483
            ]
        },
        {
            "positions": [
                1.8586991921908378,
                -2.389366819186506,
                2.3058701394035346,
                0.6426796558564771,
                0.21605939373019561,
                0.10948032616741399
            ]
        },
        {
            "positions": [
                1.791081555036986,
                -2.3609505118149046,
                2.3108506488495446,
                0.5777528777978176,
                0.24523227962241195,
                -0.08198914195373641
            ]
        },
        {
            "positions": [
                1.7234639178831341,
                -2.3325342044433026,
                2.315831158295554,
                0.512826099739158,
                0.27440516551462824,
                -0.27345861007488725
            ]
        },
        {
            "positions": [
                1.655846280729282,
                -2.3041178970717007,
                2.320811667741564,
                0.4478993216804983,
                0.3035780514068447,
                -0.46492807819603854
            ]
        },
        {
            "positions": [
                1.58822864357543,
                -2.2757015897000987,
                2.325792177187574,
                0.38297254362183875,
                0.332750937299061,
                -0.6563975463171889
            ]
        },
        {
            "positions": [
                1.520611006421578,
                -2.247285282328497,
                2.3307726866335834,
                0.3180457655631792,
                0.36192382319127736,
                -0.8478670144383398
            ]
        },
        {
            "positions": [
                1.4529933692677264,
                -2.2188689749568953,
                2.3357531960795934,
                0.25311898750451967,
                0.3910967090834936,
                -1.0393364825594902
            ]
        },
        {
            "positions": [
                1.3853757321138742,
                -2.1904526675852933,
                2.340733705525603,
                0.1881922094458599,
                0.42026959497571004,
                -1.2308059506806415
            ]
        },
        {
            "positions": [
                1.3177580949600223,
                -2.1620363602136914,
                2.3457142149716126,
                0.12326543138720036,
                0.4494424808679264,
                -1.4222754188017919
            ]
        },
        {
            "positions": [
                1.2501404578061703,
                -2.1336200528420894,
                2.3506947244176226,
                0.0583386533285406,
                0.4786153667601427,
                -1.6137448869229432
            ]
        },
        {
            "positions": [
                1.1825228206523186,
                -2.1052037454704875,
                2.355675233863632,
                -0.006588124730118938,
                0.5077882526523589,
                -1.8052143550440936
            ]
        },
        {
            "positions": [
                1.1149051834984665,
                -2.0767874380988856,
                2.3606557433096422,
                -0.0715149027887787,
                0.5369611385445754,
                -1.9966838231652448
            ]
        },
        {
            "positions": [
                1.0472875463446145,
                -2.0483711307272836,
                2.365636252755652,
                -0.13644168084743824,
                0.5661340244367917,
                -2.1881532912863952
            ]
        },
        {
            "positions": [
                0.9796699091907626,
                -2.0199548233556817,
                2.3706167622016614,
                -0.20136845890609778,
                0.5953069103290081,
                -2.3796227594075456
            ]
        },
        {
            "positions": [
                0.9120522720369109,
                -1.99153851598408,
                2.3755972716476714,
                -0.2662952369647573,
                0.6244797962212244,
                -2.571092227528697
            ]
        },
        {
            "positions": [
                0.8444346348830587,
                -1.963122208612478,
                2.380577781093681,
                -0.3312220150234171,
                0.6536526821134407,
                -2.762561695649848
            ]
        },
        {
            "positions": [
                0.7768169977292065,
                -1.9347059012408763,
                2.385558290539691,
                -0.3961487930820766,
                0.6828255680056571,
                -2.9540311637709986
            ]
        },
        {
            "positions": [
                0.7091993605753547,
                -1.9062895938692743,
                2.3905387999857006,
                -0.46107557114073605,
                0.7119984538978734,
                -3.1455006318921495
            ]
        }
    ]
}