{
    "goal": {
        "global_pose": {
            "orientation": {
                "w": 0.7047431468963623,
                "x": -0.7094548344612122,
                "y": 0.0024358443915843964,
                "z": -0.0022348060738295317
            },
            "position": {
                "x": 0.6094750761985779,
                "y": 0.3671506643295288,
                "z": 0.19426114857196808
            }
        },
        "name": "move_to_magneteinheit_A"
    },
    "id": "PRMstar_move_to_magneteinheit_A_102",
    "joint_names": [
        "shoulder_pan_joint",
        "shoulder_lift_joint",
        "elbow_joint",
        "wrist_1_joint",
        "wrist_2_joint",
        "wrist_3_joint"
    ],
    "metrics": {
        "cart_traj_len": 2.0647283887407766,
        "distance_elbow_joint": 3.881615018698828,
        "distance_shoulder_lift_joint": 1.0582784508314105,
        "distance_shoulder_pan_joint": 1.2421515915807044,
        "distance_wrist_1_joint": 1.163519479908182,
        "distance_wrist_2_joint": 1.4357616557162185,
        "distance_wrist_3_joint": 1.9291970011781348,
        "smoothness": 3.981489473232051e-16,
        "time": 5.002361273,
        "traj_len": 3.272693569204651,
        "weighted_distance": 4.143452465745703
    },
    "planner": "PRMstar",
    "start": {
        "state": {
            "elbow_joint": -1.919643507792019,
            "shoulder_lift_joint": -0.07675430207160344,
            "shoulder_pan_joint": -1.1188671864651873,
            "wrist_1_joint": 0.42560062535961957,
            "wrist_2_joint": 1.5706038300724876,
            "wrist_3_joint": 1.1188968870953055
        }
    },
    "waypoints": [
        {
            "positions": [
                -1.1188671864651873,
                -0.07675430207160344,
                -1.919643507792019,
                0.42560062535961957,
                1.5706038300724876,
                1.1188968870953055
            ]
        },
        {
            "positions": [
                -1.0745046296230194,
                -0.1145499610298681,
                -1.7810143999813466,
                0.38404635822004163,
                1.5193266280826228,
                1.1877967799945246
            ]
        },
        {
            "positions": [
                -1.0301420727808512,
                -0.15234561998813276,
                -1.6423852921706743,
                0.34249209108046375,
                1.4680494260927577,
                1.2566966728937436
            ]
        },
        {
            "positions": [
                -0.9857795159386833,
                -0.19014127894639743,
                -1.5037561843600018,
                0.3009378239408858,
                1.4167722241028928,
                1.325596565792963
            ]
        },
        {
            "positions": [
                -0.9414169590965153,
                -0.22793693790466207,
                -1.3651270765493293,
                0.25938355680130787,
                1.3654950221130278,
                1.394496458692182
            ]
        },
        {
            "positions": [
                -0.8970544022543473,
                -0.2657325968629267,
                -1.226497968738657,
                0.21782928966172996,
                1.314217820123163,
                1.463396351591401
            ]
        },
        {
            "positions": [
                -0.8526918454121792,
                -0.30352825582119136,
                -1.0878688609279847,
                0.17627502252215205,
                1.2629406181332978,
                1.53229624449062
            ]
        },
        {
            "positions": [
                -0.8083292885700113,
                -0.34132391477945606,
                -0.9492397531173121,
                0.1347207553825741,
                1.211663416143433,
                1.6011961373898393
            ]
        },
        {
            "positions": [
                -0.7639667317278432,
                -0.3791195737377207,
                -0.8106106453066397,
                0.09316648824299623,
                1.1603862141535681,
                1.6700960302890584
            ]
        },
        {
            "positions": [
                -0.7196041748856752,
                -0.4169152326959854,
                -0.6719815374959672,
                0.05161222110341823,
                1.109109012163703,
                1.7389959231882774
            ]
        },
        {
            "positions": [
                -0.6752416180435072,
                -0.45471089165425005,
                -0.5333524296852947,
                0.01005795396384035,
                1.057831810173838,
                1.8078958160874965
            ]
        },
        {
            "positions": [
                -0.6308790612013392,
                -0.4925065506125147,
                -0.39472332187462245,
                -0.03149631317573759,
                1.0065546081839734,
                1.8767957089867155
            ]
        },
        {
            "positions": [
                -0.5865165043591712,
                -0.5303022095707793,
                -0.25609421406395017,
                -0.07305058031531547,
                0.9552774061941083,
                1.9456956018859346
            ]
        },
        {
            "positions": [
                -0.5421539475170031,
                -0.5680978685290441,
                -0.11746510625327744,
                -0.11460484745489347,
                0.9040002042042433,
                2.014595494785154
            ]
        },
        {
            "positions": [
                -0.49779139067483513,
                -0.6058935274873087,
                0.02116400155739484,
                -0.15615911459447135,
                0.8527230022143784,
                2.0834953876843727
            ]
        },
        {
            "positions": [
                -0.4534288338326672,
                -0.6436891864455734,
                0.15979310936806734,
                -0.19771338173404923,
                0.8014458002245134,
                2.152395280583592
            ]
        },
        {
            "positions": [
                -0.40906627699049913,
                -0.681484845403838,
                0.2984222171787396,
                -0.23926764887362711,
                0.7501685982346485,
                2.221295173482811
            ]
        },
        {
            "positions": [
                -0.3647037201483312,
                -0.7192805043621027,
                0.4370513249894119,
                -0.2808219160132051,
                0.6988913962447836,
                2.2901950663820303
            ]
        },
        {
            "positions": [
                -0.320341163306163,
                -0.7570761633203673,
                0.5756804328000846,
                -0.3223761831527831,
                0.6476141942549185,
                2.3590949592812493
            ]
        },
        {
            "positions": [
                -0.27597860646399497,
                -0.794871822278632,
                0.7143095406107569,
                -0.363930450292361,
                0.5963369922650535,
                2.4279948521804684
            ]
        },
        {
            "positions": [
                -0.23161604962182702,
                -0.8326674812368966,
                0.8529386484214296,
                -0.40548471743193887,
                0.5450597902751886,
                2.4968947450796874
            ]
        },
        {
            "positions": [
                -0.18725349277965897,
                -0.8704631401951612,
                0.9915677562321019,
                -0.44703898457151686,
                0.49378258828532373,
                2.5657946379789065
            ]
        },
        {
            "positions": [
                -0.14289093593749103,
                -0.9082587991534259,
                1.1301968640427742,
                -0.48859325171109474,
                0.4425053862954589,
                2.634694530878126
            ]
        },
        {
            "positions": [
                -0.09852837909532308,
                -0.9460544581116905,
                1.2688259718534465,
                -0.5301475188506726,
                0.3912281843055938,
                2.7035944237773446
            ]
        },
        {
            "positions": [
                -0.05416582225315514,
                -0.9838501170699552,
                1.4074550796641188,
                -0.5717017859902505,
                0.33995098231572896,
                2.772494316676564
            ]
        },
        {
            "positions": [
                -0.009803265410986972,
                -1.02164577602822,
                1.5460841874747915,
                -0.6132560531298286,
                0.2886737803258639,
                2.841394209575783
            ]
        },
        {
            "positions": [
                0.034559291431181194,
                -1.0594414349864847,
                1.6847132952854642,
                -0.6548103202694064,
                0.23739657833599903,
                2.910294102475002
            ]
        },
        {
            "positions": [
                0.07892184827334914,
                -1.0972370939447493,
                1.8233424030961365,
                -0.6963645874089843,
                0.18611937634613396,
                2.9791939953742212
            ]
        },
        {
            "positions": [
                0.12328440511551707,
                -1.135032752903014,
                1.9619715109068088,
                -0.7379188545485623,
                0.13484217435626902,
                3.0480938882734403
            ]
        }
    ]
}