{
    "goal": {
        "global_pose": {
            "orientation": {
                "w": 0.7031023502349854,
                "x": -0.7110244035720825,
                "y": 0.007748599164187908,
                "z": 0.005598929710686207
            },
            "position": {
                "x": 0.11585023208521307,
                "y": 0.44412534475326537,
                "z": 0.3711530566215515
            }
        },
        "name": "move_to_auspresseinheit_A"
    },
    "id": "PRMstar_move_to_auspresseinheit_A_125",
    "joint_names": [
        "shoulder_pan_joint",
        "shoulder_lift_joint",
        "elbow_joint",
        "wrist_1_joint",
        "wrist_2_joint",
        "wrist_3_joint"
    ],
    "metrics": {
        "cart_traj_len": 0.7386766573637914,
        "distance_elbow_joint": 0.28854205177150805,
        "distance_shoulder_lift_joint": 0.5335284219668677,
        "distance_shoulder_pan_joint": 1.0446730458345757,
        "distance_wrist_1_joint": 0.5675272470859645,
        "distance_wrist_2_joint": 0.6420362021257692,
        "distance_wrist_3_joint": 0.38451667930088274,
        "smoothness": 0.6494448730891833,
        "time": 5.01905547,
        "traj_len": 1.8603289085765367,
        "weighted_distance": 2.332256515887364
    },
    "planner": "PRMstar",
    "start": {
        "state": {
            "elbow_joint": 2.422574709923281,
            "shoulder_lift_joint": -1.3736533754116391,
            "shoulder_pan_joint": -0.33786336945926293,
            "wrist_1_joint": -1.0288603412921917,
            "wrist_2_joint": 1.2330224858903978,
            "wrist_3_joint": -3.094022268022082
        }
    },
    "waypoints": [
        {
            "positions": [
                -0.33786336945926293,
                -1.3736533754116391,
                2.422574709923281,
                -1.0288603412921917,
                1.2330224858903978,
                -3.094022268022082
            ]
        },
        {
            "positions": [
                -0.2462449931773229,
                -1.4400409332308874,
                2.396042197333165,
                -0.9451115979278643,
                1.1354485579547984,
                -3.0651207806898433
            ]
        },
        {
            "positions": [
                -0.15462661689538285,
                -1.5064284910501355,
                2.3695096847430483,
                -0.8613628545635368,
                1.0378746300191992,
                -3.0362192933576044
            ]
        },
        {
            "positions": [
                -0.06300824061344279,
                -1.5728160488693836,
                2.342977172152932,
                -0.7776141111992093,
                0.9403007020835998,
                -3.007317806025365
            ]
        },
        {
            "positions": [
                0.02861013566849724,
                -1.639203606688632,
                2.316444659562816,
                -0.6938653678348818,
                0.8427267741480006,
                -2.9784163186931263
            ]
        },
        {
            "positions": [
                0.12022851195043732,
                -1.7055911645078803,
                2.2899121469726995,
                -0.6101166244705544,
                0.7451528462124012,
                -2.9495148313608874
            ]
        },
        {
            "positions": [
                0.21184688823237735,
                -1.7719787223271284,
                2.2633796343825834,
                -0.5263678811062269,
                0.6475789182768019,
                -2.9206133440286486
            ]
        },
        {
            "positions": [
                0.37683448428002253,
                -1.8170464140109213,
                2.306495293126187,
                -0.504689618806227,
                0.6664431297808597,
                -2.9909825957977985
            ]
        },
        {
            "positions": [
                0.5418220803276677,
                -1.862114105694714,
                2.3496109518697903,
                -0.4830113565062271,
                0.6853073412849174,
                -3.061351847566948
            ]
        },
        {
            "positions": [
                0.7068096763753129,
                -1.9071817973785068,
                2.3927266106133938,
                -0.46133309420622726,
                0.7041715527889753,
                -3.1317210993360978
            ]
        }
    ]
}