{
    "goal": {
        "global_pose": {
            "orientation": {
                "w": 0.7031023502349854,
                "x": -0.7110244035720825,
                "y": 0.007748599164187908,
                "z": 0.005598929710686207
            },
            "position": {
                "x": 0.11585023208521307,
                "y": 0.44412534475326537,
                "z": 0.3711530566215515
            }
        },
        "name": "move_to_auspresseinheit_A"
    },
    "id": "PRMstar_move_to_auspresseinheit_A_93",
    "joint_names": [
        "shoulder_pan_joint",
        "shoulder_lift_joint",
        "elbow_joint",
        "wrist_1_joint",
        "wrist_2_joint",
        "wrist_3_joint"
    ],
    "metrics": {
        "cart_traj_len": 0.6888481884706034,
        "distance_elbow_joint": 0.0313452965709744,
        "distance_shoulder_lift_joint": 0.5313866516726964,
        "distance_shoulder_pan_joint": 1.0436133461222732,
        "distance_wrist_1_joint": 0.5730905934078814,
        "distance_wrist_2_joint": 0.5323253620693855,
        "distance_wrist_3_joint": 0.1788442133058865,
        "smoothness": 0.1657164283655507,
        "time": 5.036995089,
        "traj_len": 1.700178068070841,
        "weighted_distance": 2.0865545392436156
    },
    "planner": "PRMstar",
    "start": {
        "state": {
            "elbow_joint": 2.422574709923281,
            "shoulder_lift_joint": -1.3736533754116391,
            "shoulder_pan_joint": -0.33786336945926293,
            "wrist_1_joint": -1.0288603412921917,
            "wrist_2_joint": 1.2330224858903978,
            "wrist_3_joint": -3.094022268022082
        }
    },
    "waypoints": [
        {
            "positions": [
                -0.33786336945926293,
                -1.3736533754116391,
                2.422574709923281,
                -1.0288603412921917,
                1.2330224858903978,
                -3.094022268022082
            ]
        },
        {
            "positions": [
                -0.21396330961642004,
                -1.4250207950006302,
                2.4193305443263418,
                -0.9519748341461649,
                1.1453938466521345,
                -3.0773124350849126
            ]
        },
        {
            "positions": [
                -0.09006324977357716,
                -1.4763882145896214,
                2.4160863787294025,
                -0.8750893270001382,
                1.0577652074138713,
                -3.0606026021477435
            ]
        },
        {
            "positions": [
                0.0338368100692657,
                -1.5277556341786127,
                2.412842213132463,
                -0.7982038198541115,
                0.9701365681756082,
                -3.043892769210574
            ]
        },
        {
            "positions": [
                0.1577368699121086,
                -1.5791230537676038,
                2.409598047535524,
                -0.7213183127080847,
                0.882507928937345,
                -3.0271829362734044
            ]
        },
        {
            "positions": [
                0.294740146599834,
                -1.6606022970967866,
                2.4050058889897197,
                -0.6549311715021411,
                0.8370552276582618,
                -3.0551841566627065
            ]
        },
        {
            "positions": [
                0.4317434232875594,
                -1.7420815404259695,
                2.4004137304439155,
                -0.5885440302961975,
                0.7916025263791786,
                -3.0831853770520086
            ]
        },
        {
            "positions": [
                0.5687466999752848,
                -1.8235607837551526,
                2.395821571898111,
                -0.5221568890902539,
                0.7461498251000954,
                -3.111186597441311
            ]
        },
        {
            "positions": [
                0.7057499766630102,
                -1.9050400270843355,
                2.3912294133523067,
                -0.45576974788431035,
                0.7006971238210122,
                -3.139187817830613
            ]
        }
    ]
}