{
    "goal": {
        "global_pose": {
            "orientation": {
                "w": 0.7031023502349854,
                "x": -0.7110244035720825,
                "y": 0.007748599164187908,
                "z": 0.005598929710686207
            },
            "position": {
                "x": 0.11585023208521307,
                "y": 0.44412534475326537,
                "z": 0.3711530566215515
            }
        },
        "name": "move_to_auspresseinheit_A"
    },
    "id": "PRMstar_move_to_auspresseinheit_A_149",
    "joint_names": [
        "shoulder_pan_joint",
        "shoulder_lift_joint",
        "elbow_joint",
        "wrist_1_joint",
        "wrist_2_joint",
        "wrist_3_joint"
    ],
    "metrics": {
        "cart_traj_len": 0.7065660162510399,
        "distance_elbow_joint": 0.12944332824666693,
        "distance_shoulder_lift_joint": 0.5323472689768736,
        "distance_shoulder_pan_joint": 1.2604764420318122,
        "distance_wrist_1_joint": 0.5692200049265272,
        "distance_wrist_2_joint": 0.5315043366825132,
        "distance_wrist_3_joint": 0.8914370165940748,
        "smoothness": 0.8353894473541318,
        "time": 5.017789013,
        "traj_len": 1.9784914448787663,
        "weighted_distance": 2.6073025854809524
    },
    "planner": "PRMstar",
    "start": {
        "state": {
            "elbow_joint": 2.422574709923281,
            "shoulder_lift_joint": -1.3736533754116391,
            "shoulder_pan_joint": -0.33786336945926293,
            "wrist_1_joint": -1.0288603412921917,
            "wrist_2_joint": 1.2330224858903978,
            "wrist_3_joint": -3.094022268022082
        }
    },
    "waypoints": [
        {
            "positions": [
                -0.33786336945926293,
                -1.3736533754116391,
                2.422574709923281,
                -1.0288603412921917,
                1.2330224858903978,
                -3.094022268022082
            ]
        },
        {
            "positions": [
                -0.3648155886307166,
                -1.4360249314018825,
                2.434872578172747,
                -0.9924140745197381,
                1.117386252029673,
                -2.989324211710547
            ]
        },
        {
            "positions": [
                -0.39176780780217035,
                -1.4983964873921256,
                2.447170446422213,
                -0.9559678077472844,
                1.001750018168948,
                -2.8846261553990122
            ]
        },
        {
            "positions": [
                -0.41872002697362404,
                -1.5607680433823687,
                2.4594683146716783,
                -0.9195215409748307,
                0.8861137843082234,
                -2.7799280990874773
            ]
        },
        {
            "positions": [
                -0.4456722461450777,
                -1.623139599372612,
                2.471766182921144,
                -0.8830752742023771,
                0.7704775504474985,
                -2.6752300427759423
            ]
        },
        {
            "positions": [
                -0.28100545109564945,
                -1.6635483200891694,
                2.460301632171315,
                -0.8225845687971324,
                0.760626207413268,
                -2.7427507272542186
            ]
        },
        {
            "positions": [
                -0.11633865604622123,
                -1.7039570408057265,
                2.4488370814214857,
                -0.7620938633918878,
                0.7507748643790374,
                -2.8102714117324954
            ]
        },
        {
            "positions": [
                0.04832813900320698,
                -1.7443657615222838,
                2.4373725306716567,
                -0.7016031579866431,
                0.7409235213448069,
                -2.8777920962107717
            ]
        },
        {
            "positions": [
                0.21299493405263525,
                -1.784774482238841,
                2.4259079799218277,
                -0.6411124525813985,
                0.7310721783105762,
                -2.945312780689048
            ]
        },
        {
            "positions": [
                0.3776617291020635,
                -1.8251832029553983,
                2.4144434291719987,
                -0.5806217471761538,
                0.7212208352763457,
                -3.0128334651673248
            ]
        },
        {
            "positions": [
                0.5423285241514917,
                -1.8655919236719554,
                2.4029788784221693,
                -0.5201310417709092,
                0.7113694922421151,
                -3.080354149645601
            ]
        },
        {
            "positions": [
                0.7069953192009198,
                -1.9060006443885127,
                2.3915143276723403,
                -0.4596403363656645,
                0.7015181492078846,
                -3.1478748341238774
            ]
        }
    ]
}