{
    "goal": {
        "global_pose": {
            "orientation": {
                "w": -0.00223480608172531,
                "x": 0.0024358444001904467,
                "y": 0.7094548369677653,
                "z": -0.704743149386269
            },
            "position": {
                "x": 0.6205249238014221,
                "y": -0.6371506643295288,
                "z": 0.19426114857196808
            }
        },
        "name": "move_to_magneteinheit_B"
    },
    "id": "PRMstar_move_to_magneteinheit_B_41",
    "joint_names": [
        "shoulder_pan_joint",
        "shoulder_lift_joint",
        "elbow_joint",
        "wrist_1_joint",
        "wrist_2_joint",
        "wrist_3_joint"
    ],
    "metrics": {
        "cart_traj_len": 4.069577984151186,
        "distance_elbow_joint": 4.8051323204004355,
        "distance_shoulder_lift_joint": 0.6974598550459201,
        "distance_shoulder_pan_joint": 2.1986843680300447,
        "distance_wrist_1_joint": 3.4768541491406864,
        "distance_wrist_2_joint": 1.2724988122002467,
        "distance_wrist_3_joint": 6.275205152870186,
        "smoothness": 0.44004004589902235,
        "time": 5.0444885390000005,
        "traj_len": 4.3273357458934845,
        "weighted_distance": 6.002132781334383
    },
    "planner": "PRMstar",
    "start": {
        "state": {
            "elbow_joint": 2.39358713078474,
            "shoulder_lift_joint": -1.908514104345545,
            "shoulder_pan_joint": 0.7066247066606129,
            "wrist_1_joint": -0.4678290933515497,
            "wrist_2_joint": 0.7096259083745334,
            "wrist_3_joint": -3.1358149277392293
        }
    },
    "waypoints": [
        {
            "positions": [
                0.7066247066606129,
                -1.908514104345545,
                2.39358713078474,
                -0.4678290933515497,
                0.7096259083745334,
                -3.1358149277392293
            ]
        },
        {
            "positions": [
                0.8703099385256703,
                -1.9307336084569287,
                2.4376799925932056,
                -0.4066705079218351,
                0.6726369910902101,
                -3.0796121816221578
            ]
        },
        {
            "positions": [
                1.0339951703907277,
                -1.9529531125683122,
                2.4817728544016706,
                -0.3455119224921206,
                0.6356480738058867,
                -3.023409435505086
            ]
        },
        {
            "positions": [
                1.1976804022557852,
                -1.975172616679696,
                2.525865716210136,
                -0.284353337062406,
                0.5986591565215634,
                -2.9672066893880142
            ]
        },
        {
            "positions": [
                1.3613656341208424,
                -1.9973921207910794,
                2.569958578018601,
                -0.22319475163269145,
                0.5616702392372401,
                -2.9110039432709423
            ]
        },
        {
            "positions": [
                1.5250508659859,
                -2.019611624902463,
                2.6140514398270667,
                -0.16203616620297684,
                0.5246813219529167,
                -2.8548011971538707
            ]
        },
        {
            "positions": [
                1.6887360978509571,
                -2.041831129013847,
                2.6581443016355317,
                -0.10087758077326231,
                0.4876924046685935,
                -2.798598451036799
            ]
        },
        {
            "positions": [
                1.8524213297160146,
                -2.0640506331252304,
                2.7022371634439972,
                -0.039718995343547725,
                0.45070348738427013,
                -2.742395704919727
            ]
        },
        {
            "positions": [
                1.8769084848903375,
                -2.0585155066449063,
                2.585772703437243,
                -0.11157121453368377,
                0.42518569526363337,
                -2.6001560154270305
            ]
        },
        {
            "positions": [
                1.9013956400646603,
                -2.0529803801645827,
                2.4693082434304885,
                -0.1834234337238198,
                0.39966790314299666,
                -2.4579163259343337
            ]
        },
        {
            "positions": [
                1.925882795238983,
                -2.0474452536842587,
                2.3528437834237343,
                -0.2552756529139558,
                0.37415011102235995,
                -2.3156766364416375
            ]
        },
        {
            "positions": [
                1.9503699504133059,
                -2.0419101272039346,
                2.2363793234169798,
                -0.3271278721040919,
                0.3486323189017232,
                -2.1734369469489407
            ]
        },
        {
            "positions": [
                1.9748571055876287,
                -2.036375000723611,
                2.1199148634102256,
                -0.39898009129422796,
                0.32311452678108643,
                -2.0311972574562445
            ]
        },
        {
            "positions": [
                1.9993442607619516,
                -2.030839874243287,
                2.0034504034034715,
                -0.47083231048436397,
                0.2975967346604497,
                -1.8889575679635477
            ]
        },
        {
            "positions": [
                2.0238314159362742,
                -2.025304747762963,
                1.8869859433967169,
                -0.5426845296745,
                0.272078942539813,
                -1.746717878470851
            ]
        },
        {
            "positions": [
                2.048318571110597,
                -2.0197696212826393,
                1.7705214833899627,
                -0.614536748864636,
                0.24656115041917626,
                -1.6044781889781543
            ]
        },
        {
            "positions": [
                2.07280572628492,
                -2.014234494802315,
                1.6540570233832084,
                -0.6863889680547721,
                0.22104335829853952,
                -1.4622384994854578
            ]
        },
        {
            "positions": [
                2.097292881459243,
                -2.008699368321991,
                1.537592563376454,
                -0.7582411872449082,
                0.1955255661779028,
                -1.3199988099927613
            ]
        },
        {
            "positions": [
                2.1217800366335657,
                -2.0031642418416675,
                1.4211281033696996,
                -0.8300934064350443,
                0.17000777405726603,
                -1.1777591205000646
            ]
        },
        {
            "positions": [
                2.1462671918078886,
                -1.9976291153613435,
                1.3046636433629453,
                -0.9019456256251802,
                0.14448998193662932,
                -1.035519431007368
            ]
        },
        {
            "positions": [
                2.1707543469822115,
                -1.9920939888810196,
                1.188199183356191,
                -0.9737978448153163,
                0.11897218981599256,
                -0.8932797415146714
            ]
        },
        {
            "positions": [
                2.1952415021565344,
                -1.9865588624006956,
                1.0717347233494368,
                -1.0456500640054522,
                0.09345439769535585,
                -0.7510400520219749
            ]
        },
        {
            "positions": [
                2.219728657330857,
                -1.9810237359203717,
                0.9552702633426822,
                -1.1175022831955883,
                0.06793660557471909,
                -0.6088003625292782
            ]
        },
        {
            "positions": [
                2.2442158125051797,
                -1.975488609440048,
                0.838805803335928,
                -1.1893545023857244,
                0.04241881345408238,
                -0.46656067303658144
            ]
        },
        {
            "positions": [
                2.2687029676795025,
                -1.9699534829597238,
                0.7223413433291737,
                -1.2612067215758604,
                0.01690102133344562,
                -0.3243209835438847
            ]
        },
        {
            "positions": [
                2.2931901228538254,
                -1.9644183564794,
                0.6058768833224195,
                -1.3330589407659965,
                -0.008616770787191086,
                -0.18208129405118845
            ]
        },
        {
            "positions": [
                2.3176772780281483,
                -1.958883229999076,
                0.4894124233156649,
                -1.4049111599561326,
                -0.03413456290782785,
                -0.03984160455849173
            ]
        },
        {
            "positions": [
                2.342164433202471,
                -1.953348103518752,
                0.3729479633089108,
                -1.4767633791462687,
                -0.059652355028464554,
                0.10239808493420455
            ]
        },
        {
            "positions": [
                2.366651588376794,
                -1.9478129770384283,
                0.2564835033021562,
                -1.5486155983364047,
                -0.08517014714910132,
                0.2446377744269017
            ]
        },
        {
            "positions": [
                2.391138743551117,
                -1.9422778505581042,
                0.14001904329540205,
                -1.6204678175265408,
                -0.11068793926973808,
                0.386877463919598
            ]
        },
        {
            "positions": [
                2.4156258987254393,
                -1.9367427240777804,
                0.023554583288647457,
                -1.6923200367166769,
                -0.13620573139037484,
                0.5291171534122947
            ]
        },
        {
            "positions": [
                2.440113053899762,
                -1.9312075975974565,
                -0.09290987671810669,
                -1.7641722559068127,
                -0.1617235235110115,
                0.671356842904991
            ]
        },
        {
            "positions": [
                2.464600209074085,
                -1.9256724711171325,
                -0.20937433672486128,
                -1.836024475096949,
                -0.18724131563164825,
                0.8135965323976881
            ]
        },
        {
            "positions": [
                2.489087364248408,
                -1.9201373446368086,
                -0.3258387967316154,
                -1.9078766942870848,
                -0.21275910775228501,
                0.9558362218903844
            ]
        },
        {
            "positions": [
                2.513574519422731,
                -1.9146022181564848,
                -0.44230325673836957,
                -1.979728913477221,
                -0.23827689987292178,
                1.0980759113830811
            ]
        },
        {
            "positions": [
                2.5380616745970537,
                -1.9090670916761607,
                -0.5587677167451237,
                -2.0515811326673568,
                -0.26379469199355843,
                1.2403156008757774
            ]
        },
        {
            "positions": [
                2.5625488297713765,
                -1.903531965195837,
                -0.6752321767518787,
                -2.1234333518574933,
                -0.2893124841141952,
                1.3825552903684741
            ]
        },
        {
            "positions": [
                2.5870359849456994,
                -1.897996838715513,
                -0.7916966367586329,
                -2.195285571047629,
                -0.31483027623483195,
                1.5247949798611709
            ]
        },
        {
            "positions": [
                2.6115231401200223,
                -1.892461712235189,
                -0.908161096765387,
                -2.267137790237765,
                -0.3403480683554687,
                1.6670346693538676
            ]
        },
        {
            "positions": [
                2.636010295294345,
                -1.8869265857548652,
                -1.0246255567721412,
                -2.338990009427901,
                -0.36586586047610536,
                1.8092743588465643
            ]
        },
        {
            "positions": [
                2.660497450468668,
                -1.8813914592745413,
                -1.1410900167788958,
                -2.410842228618037,
                -0.3913836525967421,
                1.951514048339261
            ]
        },
        {
            "positions": [
                2.684984605642991,
                -1.8758563327942173,
                -1.25755447678565,
                -2.482694447808173,
                -0.4169014447173789,
                2.0937537378319577
            ]
        },
        {
            "positions": [
                2.7094717608173133,
                -1.8703212063138934,
                -1.374018936792404,
                -2.5545466669983092,
                -0.44241923683801565,
                2.2359934273246536
            ]
        },
        {
            "positions": [
                2.733958915991636,
                -1.8647860798335696,
                -1.4904833967991582,
                -2.6263988861884453,
                -0.4679370289586523,
                2.3782331168173503
            ]
        },
        {
            "positions": [
                2.758446071165959,
                -1.8592509533532455,
                -1.6069478568059132,
                -2.6982511053785814,
                -0.49345482107928906,
                2.520472806310047
            ]
        },
        {
            "positions": [
                2.782933226340282,
                -1.8537158268729217,
                -1.723412316812667,
                -2.7701033245687174,
                -0.5189726131999258,
                2.6627124958027437
            ]
        },
        {
            "positions": [
                2.7523392642526883,
                -1.9366129568764032,
                -1.7057041149415386,
                -2.690513394091839,
                -0.5079975405434789,
                2.781881928134797
            ]
        },
        {
            "positions": [
                2.721745302165094,
                -2.0195100868798845,
                -1.6879959130704103,
                -2.6109234636149603,
                -0.4970224678870321,
                2.90105136046685
            ]
        },
        {
            "positions": [
                2.6911513400775,
                -2.1024072168833663,
                -1.6702877111992822,
                -2.531333533138082,
                -0.48604739523058516,
                3.0202207927989035
            ]
        },
        {
            "positions": [
                2.6605573779899063,
                -2.1853043468868476,
                -1.652579509328154,
                -2.4517436026612036,
                -0.4750723225741383,
                3.1393902251309567
            ]
        }
    ]
}