{
    "goal": {
        "global_pose": {
            "orientation": {
                "w": 0.7031023502349854,
                "x": -0.7110244035720825,
                "y": 0.007748599164187908,
                "z": 0.005598929710686207
            },
            "position": {
                "x": 0.11585023208521307,
                "y": 0.44412534475326537,
                "z": 0.3711530566215515
            }
        },
        "name": "move_to_auspresseinheit_A"
    },
    "id": "PRMstar_move_to_auspresseinheit_A_18",
    "joint_names": [
        "shoulder_pan_joint",
        "shoulder_lift_joint",
        "elbow_joint",
        "wrist_1_joint",
        "wrist_2_joint",
        "wrist_3_joint"
    ],
    "metrics": {
        "cart_traj_len": 1.006500304009017,
        "distance_elbow_joint": 0.19707785049151427,
        "distance_shoulder_lift_joint": 0.5303215829752475,
        "distance_shoulder_pan_joint": 2.1356940727095677,
        "distance_wrist_1_joint": 0.5778770585749804,
        "distance_wrist_2_joint": 0.5345852924711241,
        "distance_wrist_3_joint": 0.25060270513208005,
        "smoothness": 1.0465223053719244,
        "time": 5.01797197,
        "traj_len": 2.0557622825498365,
        "weighted_distance": 2.416573260562315
    },
    "planner": "PRMstar",
    "start": {
        "state": {
            "elbow_joint": 2.422574709923281,
            "shoulder_lift_joint": -1.3736533754116391,
            "shoulder_pan_joint": -0.33786336945926293,
            "wrist_1_joint": -1.0288603412921917,
            "wrist_2_joint": 1.2330224858903978,
            "wrist_3_joint": -3.094022268022082
        }
    },
    "waypoints": [
        {
            "positions": [
                -0.33786336945926293,
                -1.3736533754116391,
                2.422574709923281,
                -1.0288603412921917,
                1.2330224858903978,
                -3.094022268022082
            ]
        },
        {
            "positions": [
                -0.44719400804044296,
                -1.457106153360939,
                2.4387720918395193,
                -0.9707362728108409,
                1.1617026417908214,
                -3.1238219481269267
            ]
        },
        {
            "positions": [
                -0.556524646621623,
                -1.540558931310239,
                2.454969473755758,
                -0.9126122043294901,
                1.0903827976912452,
                -3.1536216282317713
            ]
        },
        {
            "positions": [
                -0.665855285202803,
                -1.624011709259539,
                2.471166855671996,
                -0.8544881358481392,
                1.0190629535916689,
                -3.1834213083366154
            ]
        },
        {
            "positions": [
                -0.7751859237839831,
                -1.707464487208839,
                2.4873642375882348,
                -0.7963640673667884,
                0.9477431094920926,
                -3.21322098844146
            ]
        },
        {
            "positions": [
                -0.8845165623651632,
                -1.7909172651581389,
                2.503561619504473,
                -0.7382399988854376,
                0.8764232653925164,
                -3.2430206685463046
            ]
        },
        {
            "positions": [
                -0.6575107223932107,
                -1.8070683641908172,
                2.4869771993744267,
                -0.6972033251471196,
                0.8509966836820532,
                -3.228505767888039
            ]
        },
        {
            "positions": [
                -0.43050488242125834,
                -1.8232194632234953,
                2.470392779244381,
                -0.6561666514088015,
                0.8255701019715899,
                -3.2139908672297737
            ]
        },
        {
            "positions": [
                -0.20349904244930594,
                -1.8393705622561736,
                2.4538083591143347,
                -0.6151299776704835,
                0.8001435202611267,
                -3.1994759665715082
            ]
        },
        {
            "positions": [
                0.023506797522646505,
                -1.8555216612888519,
                2.437223938984289,
                -0.5740933039321654,
                0.7747169385506634,
                -3.1849610659132432
            ]
        },
        {
            "positions": [
                0.25051263749459896,
                -1.8716727603215302,
                2.4206395188542427,
                -0.5330566301938474,
                0.7492903568402002,
                -3.170446165254978
            ]
        },
        {
            "positions": [
                0.4775184774665513,
                -1.8878238593542083,
                2.404055098724197,
                -0.4920199564555294,
                0.723863775129737,
                -3.1559312645967124
            ]
        },
        {
            "positions": [
                0.704524317438504,
                -1.9039749583868866,
                2.3874706785941506,
                -0.45098328271721133,
                0.6984371934192737,
                -3.141416363938447
            ]
        }
    ]
}