{
    "goal": {
        "global_pose": {
            "orientation": {
                "w": 0.7031023502349854,
                "x": -0.7110244035720825,
                "y": 0.007748599164187908,
                "z": 0.005598929710686207
            },
            "position": {
                "x": 0.11585023208521307,
                "y": 0.44412534475326537,
                "z": 0.3711530566215515
            }
        },
        "name": "move_to_auspresseinheit_A"
    },
    "id": "PRMstar_move_to_auspresseinheit_A_1",
    "joint_names": [
        "shoulder_pan_joint",
        "shoulder_lift_joint",
        "elbow_joint",
        "wrist_1_joint",
        "wrist_2_joint",
        "wrist_3_joint"
    ],
    "metrics": {
        "cart_traj_len": 0.7152921194482117,
        "distance_elbow_joint": 0.09334349417559107,
        "distance_shoulder_lift_joint": 0.6240769820600587,
        "distance_shoulder_pan_joint": 1.0495624111769284,
        "distance_wrist_1_joint": 0.5460544712036948,
        "distance_wrist_2_joint": 0.5104538292729023,
        "distance_wrist_3_joint": 0.39507652767415724,
        "smoothness": 0.541790704108436,
        "time": 5.00713986,
        "traj_len": 1.7940367096476404,
        "weighted_distance": 2.2506063785984978
    },
    "planner": "PRMstar",
    "start": {
        "state": {
            "elbow_joint": 2.422574709923281,
            "shoulder_lift_joint": -1.3736533754116391,
            "shoulder_pan_joint": -0.33786336945926293,
            "wrist_1_joint": -1.0288603412921917,
            "wrist_2_joint": 1.2330224858903978,
            "wrist_3_joint": -3.094022268022082
        }
    },
    "waypoints": [
        {
            "positions": [
                -0.33786336945926293,
                -1.3736533754116391,
                2.422574709923281,
                -1.0288603412921917,
                1.2330224858903978,
                -3.094022268022082
            ]
        },
        {
            "positions": [
                -0.2844027015278461,
                -1.351754688231668,
                2.3926518609137903,
                -0.9504101352022412,
                1.1688431744451582,
                -3.0046125174732166
            ]
        },
        {
            "positions": [
                -0.23094203359642917,
                -1.3298560010516969,
                2.3627290119042996,
                -0.8719599291122906,
                1.1046638629999186,
                -2.915202766924351
            ]
        },
        {
            "positions": [
                -0.09627902283727283,
                -1.4127530878659993,
                2.367514411355244,
                -0.8163664921088915,
                1.0500788335167153,
                -2.9460966278638403
            ]
        },
        {
            "positions": [
                0.03838398792188352,
                -1.4956501746803015,
                2.372299810806188,
                -0.7607730551054924,
                0.995493804033512,
                -2.97699048880333
            ]
        },
        {
            "positions": [
                0.1730469986810399,
                -1.578547261494604,
                2.3770852102571323,
                -0.7051796181020933,
                0.9409087745503086,
                -3.0078843497428194
            ]
        },
        {
            "positions": [
                0.3077100094401962,
                -1.6614443483089063,
                2.3818706097080766,
                -0.6495861810986943,
                0.8863237450671054,
                -3.0387782106823087
            ]
        },
        {
            "positions": [
                0.44237302019935265,
                -1.7443414351232085,
                2.386656009159021,
                -0.593992744095295,
                0.831738715583902,
                -3.069672071621798
            ]
        },
        {
            "positions": [
                0.577036030958509,
                -1.827238521937511,
                2.391441408609965,
                -0.538399307091896,
                0.7771536861006988,
                -3.1005659325612878
            ]
        },
        {
            "positions": [
                0.7116990417176654,
                -1.9101356087518133,
                2.3962268080609093,
                -0.4828058700884969,
                0.7225686566174955,
                -3.131459793500777
            ]
        }
    ]
}