{
    "goal": {
        "global_pose": {
            "orientation": {
                "w": 0.7047431468963623,
                "x": -0.7094548344612122,
                "y": 0.0024358443915843964,
                "z": -0.0022348060738295317
            },
            "position": {
                "x": 0.6094750761985779,
                "y": 0.3671506643295288,
                "z": 0.19426114857196808
            }
        },
        "name": "move_to_magneteinheit_A"
    },
    "id": "PRMstar_move_to_magneteinheit_A_41",
    "joint_names": [
        "shoulder_pan_joint",
        "shoulder_lift_joint",
        "elbow_joint",
        "wrist_1_joint",
        "wrist_2_joint",
        "wrist_3_joint"
    ],
    "metrics": {
        "cart_traj_len": 1.8814734607300154,
        "distance_elbow_joint": 3.9048619133524576,
        "distance_shoulder_lift_joint": 0.6965675006835568,
        "distance_shoulder_pan_joint": 1.2425213677475215,
        "distance_wrist_1_joint": 1.4794022990319229,
        "distance_wrist_2_joint": 1.6911076286721363,
        "distance_wrist_3_joint": 1.0880016375661674,
        "smoothness": 9.21073918473635e-16,
        "time": 5.008194533,
        "traj_len": 3.1784370918823868,
        "weighted_distance": 3.930518483596045
    },
    "planner": "PRMstar",
    "start": {
        "state": {
            "elbow_joint": -1.919643507792019,
            "shoulder_lift_joint": -0.07675430207160344,
            "shoulder_pan_joint": -1.1188671864651873,
            "wrist_1_joint": 0.42560062535961957,
            "wrist_2_joint": 1.5706038300724876,
            "wrist_3_joint": 1.1188968870953055
        }
    },
    "waypoints": [
        {
            "positions": [
                -1.1188671864651873,
                -0.07675430207160344,
                -1.919643507792019,
                0.42560062535961957,
                1.5706038300724876,
                1.1188968870953055
            ]
        },
        {
            "positions": [
                -1.0710779030902826,
                -0.10354535979020178,
                -1.7694565111246168,
                0.4825007137839243,
                1.5055612289697131,
                1.0770506702658376
            ]
        },
        {
            "positions": [
                -1.023288619715378,
                -0.13033641750880012,
                -1.6192695144572147,
                0.5394008022082291,
                1.4405186278669386,
                1.0352044534363696
            ]
        },
        {
            "positions": [
                -0.9754993363404734,
                -0.15712747522739845,
                -1.4690825177898124,
                0.5963008906325338,
                1.3754760267641641,
                0.9933582366069016
            ]
        },
        {
            "positions": [
                -0.9277100529655686,
                -0.1839185329459968,
                -1.31889552112241,
                0.6532009790568385,
                1.3104334256613897,
                0.9515120197774336
            ]
        },
        {
            "positions": [
                -0.8799207695906639,
                -0.21070959066459513,
                -1.168708524455008,
                0.7101010674811432,
                1.2453908245586152,
                0.9096658029479656
            ]
        },
        {
            "positions": [
                -0.8321314862157593,
                -0.23750064838319349,
                -1.0185215277876059,
                0.7670011559054479,
                1.1803482234558407,
                0.8678195861184976
            ]
        },
        {
            "positions": [
                -0.7843422028408547,
                -0.26429170610179176,
                -0.8683345311202035,
                0.8239012443297526,
                1.1153056223530664,
                0.8259733692890296
            ]
        },
        {
            "positions": [
                -0.7365529194659499,
                -0.29108276382039017,
                -0.7181475344528012,
                0.8808013327540574,
                1.050263021250292,
                0.7841271524595617
            ]
        },
        {
            "positions": [
                -0.6887636360910453,
                -0.31787382153898847,
                -0.5679605377853991,
                0.9377014211783621,
                0.9852204201475174,
                0.7422809356300938
            ]
        },
        {
            "positions": [
                -0.6409743527161406,
                -0.3446648792575868,
                -0.4177735411179968,
                0.9946015096026668,
                0.9201778190447428,
                0.7004347188006257
            ]
        },
        {
            "positions": [
                -0.5931850693412359,
                -0.3714559369761852,
                -0.2675865444505947,
                1.0515015980269715,
                0.8551352179419685,
                0.6585885019711578
            ]
        },
        {
            "positions": [
                -0.5453957859663312,
                -0.39824699469478353,
                -0.11739954778319239,
                1.1084016864512762,
                0.7900926168391939,
                0.6167422851416898
            ]
        },
        {
            "positions": [
                -0.4976065025914266,
                -0.42503805241338183,
                0.0327874488842097,
                1.165301774875581,
                0.7250500157364195,
                0.5748960683122218
            ]
        },
        {
            "positions": [
                -0.44981721921652196,
                -0.4518291101319801,
                0.18297444555161202,
                1.2222018632998857,
                0.6600074146336451,
                0.5330498514827539
            ]
        },
        {
            "positions": [
                -0.40202793584161733,
                -0.4786201678505785,
                0.3331614422190141,
                1.2791019517241904,
                0.5949648135308706,
                0.491203634653286
            ]
        },
        {
            "positions": [
                -0.3542386524667125,
                -0.505411225569177,
                0.48334843888641665,
                1.3360020401484953,
                0.529922212428096,
                0.4493574178238179
            ]
        },
        {
            "positions": [
                -0.30644936909180787,
                -0.5322022832877752,
                0.6335354355538187,
                1.3929021285727998,
                0.4648796113253215,
                0.4075112009943499
            ]
        },
        {
            "positions": [
                -0.25866008571690324,
                -0.5589933410063734,
                0.7837224322212208,
                1.4498022169971048,
                0.39983701022254725,
                0.365664984164882
            ]
        },
        {
            "positions": [
                -0.21087080234199862,
                -0.5857843987249718,
                0.9339094288886229,
                1.5067023054214093,
                0.33479440911977276,
                0.32381876733541404
            ]
        },
        {
            "positions": [
                -0.16308151896709377,
                -0.6125754564435701,
                1.0840964255560255,
                1.5636023938457142,
                0.26975180801699805,
                0.28197255050594594
            ]
        },
        {
            "positions": [
                -0.11529223559218926,
                -0.6393665141621685,
                1.2342834222234276,
                1.620502482270019,
                0.20470920691422356,
                0.24012633367647795
            ]
        },
        {
            "positions": [
                -0.06750295221728453,
                -0.6661575718807669,
                1.3844704188908297,
                1.6774025706943236,
                0.1396666058114493,
                0.19828011684701008
            ]
        },
        {
            "positions": [
                -0.019713668842379795,
                -0.6929486295993652,
                1.5346574155582318,
                1.7343026591186284,
                0.07462400470867481,
                0.1564339000175421
            ]
        },
        {
            "positions": [
                0.02807561453252494,
                -0.7197396873179636,
                1.6848444122256343,
                1.791202747542933,
                0.009581403605900096,
                0.11458768318807411
            ]
        },
        {
            "positions": [
                0.07586489790742945,
                -0.7465307450365619,
                1.8350314088930364,
                1.8481028359672378,
                -0.05546119749687417,
                0.07274146635860612
            ]
        },
        {
            "positions": [
                0.12365418128233426,
                -0.7733218027551603,
                1.9852184055604385,
                1.9050029243915425,
                -0.12050379859964858,
                0.030895249529138198
            ]
        }
    ]
}