{
    "goal": {
        "global_pose": {
            "orientation": {
                "w": 0.5084816217422485,
                "x": -0.49083608388900757,
                "y": 0.5182115435600281,
                "z": -0.4816462993621826
            },
            "position": {
                "x": 0.5540239810943604,
                "y": 0.030875300988554955,
                "z": 0.16403168439865112
            }
        },
        "name": "move_to_storage_A"
    },
    "id": "PRMstar_move_to_storage_A_33",
    "joint_names": [
        "shoulder_pan_joint",
        "shoulder_lift_joint",
        "elbow_joint",
        "wrist_1_joint",
        "wrist_2_joint",
        "wrist_3_joint"
    ],
    "metrics": {
        "cart_traj_len": 0.3537023202874353,
        "distance_elbow_joint": 0.44880349006807174,
        "distance_shoulder_lift_joint": 0.2347705564325222,
        "distance_shoulder_pan_joint": 0.46457727149718864,
        "distance_wrist_1_joint": 0.23581229781654478,
        "distance_wrist_2_joint": 1.0912962160233637,
        "distance_wrist_3_joint": 0.0864437617217364,
        "smoothness": 2.2204460668324854e-16,
        "time": 5.010317116,
        "traj_len": 1.6005322844477168,
        "weighted_distance": 2.0153658801425633
    },
    "planner": "PRMstar",
    "start": {
        "state": {
            "elbow_joint": 1.9715463870305268,
            "shoulder_lift_joint": -1.1394903361783484,
            "shoulder_pan_joint": 0.12281147578464417,
            "wrist_1_joint": -0.7804599489681411,
            "wrist_2_joint": 0.12958660307563738,
            "wrist_3_joint": -3.1924946282119055
        }
    },
    "waypoints": [
        {
            "positions": [
                0.12281147578464417,
                -1.1394903361783484,
                1.9715463870305268,
                -0.7804599489681411,
                0.12958660307563738,
                -3.1924946282119055
            ]
        },
        {
            "positions": [
                0.056443294142188655,
                -1.17302898709728,
                2.0356611713259656,
                -0.8141474200847904,
                0.2854860625075465,
                -3.1801455193945145
            ]
        },
        {
            "positions": [
                -0.009924887500266863,
                -1.2065676380162118,
                2.0997759556214044,
                -0.8478348912014396,
                0.44138552193945557,
                -3.167796410577124
            ]
        },
        {
            "positions": [
                -0.07629306914272237,
                -1.2401062889351435,
                2.163890739916843,
                -0.8815223623180888,
                0.5972849813713647,
                -3.155447301759733
            ]
        },
        {
            "positions": [
                -0.14266125078517788,
                -1.2736449398540755,
                2.228005524212282,
                -0.915209833434738,
                0.7531844408032737,
                -3.143098192942342
            ]
        },
        {
            "positions": [
                -0.20902943242763344,
                -1.3071835907730072,
                2.292120308507721,
                -0.9488973045513873,
                0.9090839002351829,
                -3.130749084124951
            ]
        },
        {
            "positions": [
                -0.2753976140700889,
                -1.3407222416919389,
                2.3562350928031597,
                -0.9825847756680366,
                1.064983359667092,
                -3.11839997530756
            ]
        },
        {
            "positions": [
                -0.34176579571254445,
                -1.3742608926108706,
                2.4203498770985985,
                -1.0162722467846859,
                1.220882819099001,
                -3.106050866490169
            ]
        }
    ]
}