{
    "goal": {
        "global_pose": {
            "orientation": {
                "w": -0.00223480608172531,
                "x": 0.0024358444001904467,
                "y": 0.7094548369677653,
                "z": -0.704743149386269
            },
            "position": {
                "x": 0.6205249238014221,
                "y": -0.6371506643295288,
                "z": 0.19426114857196808
            }
        },
        "name": "move_to_magneteinheit_B"
    },
    "id": "PRMstar_move_to_magneteinheit_B_96",
    "joint_names": [
        "shoulder_pan_joint",
        "shoulder_lift_joint",
        "elbow_joint",
        "wrist_1_joint",
        "wrist_2_joint",
        "wrist_3_joint"
    ],
    "metrics": {
        "cart_traj_len": 4.679164544699878,
        "distance_elbow_joint": 4.580653905833472,
        "distance_shoulder_lift_joint": 1.5619966646110806,
        "distance_shoulder_pan_joint": 3.0920732691383326,
        "distance_wrist_1_joint": 2.9457230986108947,
        "distance_wrist_2_joint": 1.9843393980869446,
        "distance_wrist_3_joint": 6.268986004671417,
        "smoothness": 0.2098577873116069,
        "time": 5.093941675,
        "traj_len": 4.520373031172554,
        "weighted_distance": 6.156444334759538
    },
    "planner": "PRMstar",
    "start": {
        "state": {
            "elbow_joint": 2.39358713078474,
            "shoulder_lift_joint": -1.908514104345545,
            "shoulder_pan_joint": 0.7066247066606129,
            "wrist_1_joint": -0.4678290933515497,
            "wrist_2_joint": 0.7096259083745334,
            "wrist_3_joint": -3.1358149277392293
        }
    },
    "waypoints": [
        {
            "positions": [
                0.7066247066606129,
                -1.908514104345545,
                2.39358713078474,
                -0.4678290933515497,
                0.7096259083745334,
                -3.1358149277392293
            ]
        },
        {
            "positions": [
                0.6277095122134702,
                -1.865150307823063,
                2.3829911285554095,
                -0.4047505885316597,
                0.7640441661593614,
                -3.006836011693086
            ]
        },
        {
            "positions": [
                0.5487943177663274,
                -1.821786511300581,
                2.372395126326079,
                -0.34167208371176966,
                0.8184624239441894,
                -2.877857095646942
            ]
        },
        {
            "positions": [
                0.4698791233191846,
                -1.7784227147780989,
                2.3617991240967484,
                -0.27859357889187963,
                0.8728806817290173,
                -2.7488781796007986
            ]
        },
        {
            "positions": [
                0.3909639288720418,
                -1.7350589182556169,
                2.3512031218674174,
                -0.2155150740719896,
                0.9272989395138453,
                -2.619899263554655
            ]
        },
        {
            "positions": [
                0.312048734424899,
                -1.6916951217331349,
                2.340607119638087,
                -0.15243656925209959,
                0.9817171972986733,
                -2.4909203475085113
            ]
        },
        {
            "positions": [
                0.2331335399777562,
                -1.6483313252106528,
                2.3300111174087563,
                -0.08935806443220956,
                1.0361354550835014,
                -2.361941431462368
            ]
        },
        {
            "positions": [
                0.2093510181184213,
                -1.5866235382621492,
                2.206343086118425,
                -0.0622759857862759,
                1.0194004707466426,
                -2.3064200240527155
            ]
        },
        {
            "positions": [
                0.1855684962590864,
                -1.5249157513136455,
                2.0826750548280937,
                -0.035193907140342234,
                1.002665486409784,
                -2.250898616643063
            ]
        },
        {
            "positions": [
                0.16178597439975148,
                -1.463207964365142,
                1.9590070235377623,
                -0.008111828494408571,
                0.9859305020729253,
                -2.195377209233411
            ]
        },
        {
            "positions": [
                0.13800345254041657,
                -1.4015001774166385,
                1.835338992247431,
                0.018970250151525092,
                0.9691955177360666,
                -2.139855801823759
            ]
        },
        {
            "positions": [
                0.196771270058129,
                -1.3821696572738111,
                1.6903414356413002,
                -0.027138826914082273,
                0.960423760280895,
                -2.077473879658478
            ]
        },
        {
            "positions": [
                0.25553908757584143,
                -1.3628391371309838,
                1.5453438790351695,
                -0.07324790397968964,
                0.9516520028257234,
                -2.0150919574931976
            ]
        },
        {
            "positions": [
                0.31430690509355386,
                -1.3435086169881565,
                1.4003463224290387,
                -0.11935698104529699,
                0.9428802453705518,
                -1.952710035327917
            ]
        },
        {
            "positions": [
                0.3730747226112663,
                -1.324178096845329,
                1.2553487658229079,
                -0.16546605811090437,
                0.9341084879153801,
                -1.8903281131626364
            ]
        },
        {
            "positions": [
                0.4318425401289787,
                -1.3048475767025016,
                1.1103512092167769,
                -0.21157513517651175,
                0.9253367304602086,
                -1.8279461909973556
            ]
        },
        {
            "positions": [
                0.49061035764669114,
                -1.2855170565596743,
                0.9653536526106462,
                -0.25768421224211907,
                0.9165649730050369,
                -1.765564268832075
            ]
        },
        {
            "positions": [
                0.5493781751644036,
                -1.266186536416847,
                0.8203560960045154,
                -0.3037932893077265,
                0.9077932155498654,
                -1.7031823466667944
            ]
        },
        {
            "positions": [
                0.6097700308982004,
                -1.2732240756231965,
                0.7066807532768434,
                -0.3649130909870124,
                0.8729564719078073,
                -1.5962756520097638
            ]
        },
        {
            "positions": [
                0.6701618866319973,
                -1.280261614829546,
                0.5930054105491714,
                -0.4260328926662984,
                0.8381197282657494,
                -1.4893689573527333
            ]
        },
        {
            "positions": [
                0.7305537423657941,
                -1.2872991540358958,
                0.4793300678214995,
                -0.48715269434558434,
                0.8032829846236915,
                -1.382462262695703
            ]
        },
        {
            "positions": [
                0.7909455980995909,
                -1.2943366932422453,
                0.3656547250938275,
                -0.5482724960248703,
                0.7684462409816335,
                -1.2755555680386725
            ]
        },
        {
            "positions": [
                0.8513374538333878,
                -1.3013742324485948,
                0.2519793823661556,
                -0.6093922977041563,
                0.7336094973395755,
                -1.168648873381642
            ]
        },
        {
            "positions": [
                0.9117293095671846,
                -1.3084117716549444,
                0.1383040396384836,
                -0.6705120993834421,
                0.6987727536975176,
                -1.0617421787246117
            ]
        },
        {
            "positions": [
                0.9721211653009814,
                -1.315449310861294,
                0.0246286969108116,
                -0.7316319010627281,
                0.6639360100554597,
                -0.9548354840675811
            ]
        },
        {
            "positions": [
                1.0325130210347782,
                -1.3224868500676437,
                -0.08904664581686039,
                -0.7927517027420141,
                0.6290992664134016,
                -0.8479287894105507
            ]
        },
        {
            "positions": [
                1.092904876768575,
                -1.3295243892739932,
                -0.20272198854453227,
                -0.8538715044213001,
                0.5942625227713436,
                -0.7410220947535202
            ]
        },
        {
            "positions": [
                1.1532967325023717,
                -1.3365619284803427,
                -0.31639733127220426,
                -0.9149913061005861,
                0.5594257791292857,
                -0.6341154000964897
            ]
        },
        {
            "positions": [
                1.2136885882361688,
                -1.3435994676866923,
                -0.4300726739998765,
                -0.9761111077798721,
                0.5245890354872277,
                -0.5272087054394592
            ]
        },
        {
            "positions": [
                1.2740804439699653,
                -1.350637006893042,
                -0.5437480167275482,
                -1.0372309094591579,
                0.4897522918451698,
                -0.4203020107824289
            ]
        },
        {
            "positions": [
                1.3344722997037624,
                -1.3576745460993915,
                -0.6574233594552202,
                -1.0983507111384438,
                0.45491554820311175,
                -0.3133953161253984
            ]
        },
        {
            "positions": [
                1.3948641554375592,
                -1.364712085305741,
                -0.7710987021828922,
                -1.1594705128177298,
                0.42007880456105384,
                -0.20648862146836788
            ]
        },
        {
            "positions": [
                1.4552560111713562,
                -1.3717496245120906,
                -0.8847740449105642,
                -1.2205903144970158,
                0.3852420609189958,
                -0.09958192681133737
            ]
        },
        {
            "positions": [
                1.515647866905153,
                -1.3787871637184401,
                -0.9984493876382362,
                -1.2817101161763016,
                0.3504053172769379,
                0.007324767845692914
            ]
        },
        {
            "positions": [
                1.5760397226389498,
                -1.3858247029247899,
                -1.1121247303659083,
                -1.3428299178555876,
                0.3155685736348799,
                0.11423146250272342
            ]
        },
        {
            "positions": [
                1.6364315783727466,
                -1.3928622421311394,
                -1.22580007309358,
                -1.4039497195348736,
                0.280731829992822,
                0.22113815715975393
            ]
        },
        {
            "positions": [
                1.6968234341065433,
                -1.399899781337489,
                -1.3394754158212523,
                -1.4650695212141596,
                0.24589508635076399,
                0.32804485181678456
            ]
        },
        {
            "positions": [
                1.7507073047571535,
                -1.4313184383461188,
                -1.3974778809833173,
                -1.5257109732263006,
                0.2025685217472143,
                0.46291889747478243
            ]
        },
        {
            "positions": [
                1.8045911754077637,
                -1.462737095354749,
                -1.4554803461453822,
                -1.5863524252384416,
                0.15924195714366463,
                0.5977929431327802
            ]
        },
        {
            "positions": [
                1.8584750460583737,
                -1.4941557523633788,
                -1.5134828113074472,
                -1.6469938772505828,
                0.11591539254011496,
                0.7326669887907782
            ]
        },
        {
            "positions": [
                1.9123589167089838,
                -1.525574409372009,
                -1.5714852764695122,
                -1.7076353292627238,
                0.07258882793656526,
                0.867541034448776
            ]
        },
        {
            "positions": [
                1.966242787359594,
                -1.5569930663806388,
                -1.6294877416315772,
                -1.7682767812748648,
                0.029262263333015598,
                1.0024150801067737
            ]
        },
        {
            "positions": [
                2.020126658010204,
                -1.5884117233892687,
                -1.6874902067936421,
                -1.8289182332870058,
                -0.014064301270534069,
                1.1372891257647717
            ]
        },
        {
            "positions": [
                2.074010528660814,
                -1.6198303803978988,
                -1.7454926719557071,
                -1.8895596852991468,
                -0.057390865874083735,
                1.2721631714227695
            ]
        },
        {
            "positions": [
                2.1278943993114243,
                -1.6512490374065287,
                -1.803495137117772,
                -1.950201137311288,
                -0.10071743047763346,
                1.4070372170807675
            ]
        },
        {
            "positions": [
                2.1817782699620345,
                -1.6826676944151588,
                -1.861497602279837,
                -2.010842589323429,
                -0.14404399508118312,
                1.5419112627387652
            ]
        },
        {
            "positions": [
                2.2356621406126447,
                -1.7140863514237887,
                -1.919500067441902,
                -2.07148404133557,
                -0.18737055968473282,
                1.676785308396763
            ]
        },
        {
            "positions": [
                2.2799747205412864,
                -1.7678604935653848,
                -1.8965874750081342,
                -2.114842373480694,
                -0.23836296879478988,
                1.827322284734313
            ]
        },
        {
            "positions": [
                2.3242873004699276,
                -1.8216346357069808,
                -1.8736748825743663,
                -2.158200705625818,
                -0.28935537790484694,
                1.9778592610718628
            ]
        },
        {
            "positions": [
                2.3685998803985693,
                -1.8754087778485768,
                -1.8507622901405985,
                -2.201559037770942,
                -0.340347787014904,
                2.1283962374094125
            ]
        },
        {
            "positions": [
                2.4129124603272105,
                -1.9291829199901729,
                -1.8278496977068304,
                -2.244917369916066,
                -0.39134019612496107,
                2.2789332137469627
            ]
        },
        {
            "positions": [
                2.457225040255852,
                -1.982957062131769,
                -1.8049371052730625,
                -2.2882757020611897,
                -0.4423326052350181,
                2.4294701900845124
            ]
        },
        {
            "positions": [
                2.5015376201844934,
                -2.036731204273365,
                -1.7820245128392946,
                -2.331634034206314,
                -0.49332501434507514,
                2.580007166422062
            ]
        },
        {
            "positions": [
                2.545850200113135,
                -2.090505346414961,
                -1.7591119204055268,
                -2.374992366351438,
                -0.5443174234551322,
                2.730544142759612
            ]
        },
        {
            "positions": [
                2.5843852892616077,
                -2.122288775309717,
                -1.7233857335487082,
                -2.3966460792197237,
                -0.5185250991753513,
                2.864753120817136
            ]
        },
        {
            "positions": [
                2.62292037841008,
                -2.1540722042044735,
                -1.6876595466918896,
                -2.418299792088009,
                -0.4927327748955704,
                2.9989620988746597
            ]
        },
        {
            "positions": [
                2.6614554675585524,
                -2.1858556330992296,
                -1.651933359835071,
                -2.439953504956295,
                -0.4669404506157895,
                3.1331710769321837
            ]
        }
    ]
}