{
    "goal": {
        "global_pose": {
            "orientation": {
                "w": 0.7047431468963623,
                "x": -0.7094548344612122,
                "y": 0.0024358443915843964,
                "z": -0.0022348060738295317
            },
            "position": {
                "x": 0.6094750761985779,
                "y": 0.3671506643295288,
                "z": 0.19426114857196808
            }
        },
        "name": "move_to_magneteinheit_A"
    },
    "id": "PRMstar_move_to_magneteinheit_A_99",
    "joint_names": [
        "shoulder_pan_joint",
        "shoulder_lift_joint",
        "elbow_joint",
        "wrist_1_joint",
        "wrist_2_joint",
        "wrist_3_joint"
    ],
    "metrics": {
        "cart_traj_len": 2.081014422753889,
        "distance_elbow_joint": 3.8791844339330037,
        "distance_shoulder_lift_joint": 1.0565316516040961,
        "distance_shoulder_pan_joint": 1.2424189646701227,
        "distance_wrist_1_joint": 1.1419760786488984,
        "distance_wrist_2_joint": 1.4350345027129714,
        "distance_wrist_3_joint": 4.366033736841636,
        "smoothness": 2.537652633493131e-16,
        "time": 5.06886908,
        "traj_len": 3.622316850913339,
        "weighted_distance": 4.942697383358188
    },
    "planner": "PRMstar",
    "start": {
        "state": {
            "elbow_joint": -1.919643507792019,
            "shoulder_lift_joint": -0.07675430207160344,
            "shoulder_pan_joint": -1.1188671864651873,
            "wrist_1_joint": 0.42560062535961957,
            "wrist_2_joint": 1.5706038300724876,
            "wrist_3_joint": 1.1188968870953055
        }
    },
    "waypoints": [
        {
            "positions": [
                -1.1188671864651873,
                -0.07675430207160344,
                -1.919643507792019,
                0.42560062535961957,
                1.5706038300724876,
                1.1188968870953055
            ]
        },
        {
            "positions": [
                -1.081580517486007,
                -0.10778416107263838,
                -1.8035391998764267,
                0.39099827950552857,
                1.5277474160558528,
                0.9871090063809036
            ]
        },
        {
            "positions": [
                -1.0442938485068265,
                -0.13881402007367333,
                -1.6874348919608344,
                0.35639593365143757,
                1.484891002039218,
                0.8553211256665018
            ]
        },
        {
            "positions": [
                -1.007007179527646,
                -0.1698438790747083,
                -1.571330584045242,
                0.32179358779734657,
                1.442034588022583,
                0.7235332449520999
            ]
        },
        {
            "positions": [
                -0.9697205105484658,
                -0.20087373807574324,
                -1.4552262761296495,
                0.2871912419432556,
                1.3991781740059483,
                0.591745364237698
            ]
        },
        {
            "positions": [
                -0.9324338415692853,
                -0.23190359707677818,
                -1.3391219682140574,
                0.25258889608916457,
                1.3563217599893136,
                0.459957483523296
            ]
        },
        {
            "positions": [
                -0.8951471725901049,
                -0.26293345607781315,
                -1.2230176602984648,
                0.21798655023507363,
                1.3134653459726788,
                0.3281696028088942
            ]
        },
        {
            "positions": [
                -0.8578605036109245,
                -0.2939633150788481,
                -1.1069133523828727,
                0.18338420438098263,
                1.270608931956044,
                0.19638172209449223
            ]
        },
        {
            "positions": [
                -0.8205738346317442,
                -0.32499317407988304,
                -0.9908090444672801,
                0.14878185852689163,
                1.2277525179394093,
                0.06459384138009039
            ]
        },
        {
            "positions": [
                -0.7832871656525637,
                -0.356023033080918,
                -0.874704736551688,
                0.11417951267280069,
                1.1848961039227746,
                -0.06719403933431134
            ]
        },
        {
            "positions": [
                -0.7460004966733833,
                -0.3870528920819529,
                -0.7586004286360954,
                0.07957716681870963,
                1.1420396899061398,
                -0.1989819200487135
            ]
        },
        {
            "positions": [
                -0.7087138276942029,
                -0.41808275108298787,
                -0.6424961207205031,
                0.04497482096461869,
                1.099183275889505,
                -0.33076980076311524
            ]
        },
        {
            "positions": [
                -0.6714271587150225,
                -0.44911261008402287,
                -0.5263918128049108,
                0.01037247511052769,
                1.05632686187287,
                -0.4625576814775172
            ]
        },
        {
            "positions": [
                -0.634140489735842,
                -0.48014246908505775,
                -0.4102875048893184,
                -0.02422987074356331,
                1.0134704478562353,
                -0.5943455621919191
            ]
        },
        {
            "positions": [
                -0.5968538207566616,
                -0.5111723280860927,
                -0.2941831969737261,
                -0.05883221659765431,
                0.9706140338396005,
                -0.7261334429063211
            ]
        },
        {
            "positions": [
                -0.5595671517774813,
                -0.5422021870871276,
                -0.17807888905813374,
                -0.09343456245174525,
                0.9277576198229658,
                -0.8579213236207228
            ]
        },
        {
            "positions": [
                -0.5222804827983009,
                -0.5732320460881626,
                -0.061974581142541174,
                -0.1280369083058363,
                0.8849012058063309,
                -0.9897092043351248
            ]
        },
        {
            "positions": [
                -0.48499381381912043,
                -0.6042619050891975,
                0.054129726773050946,
                -0.16263925415992725,
                0.8420447917896962,
                -1.1214970850495267
            ]
        },
        {
            "positions": [
                -0.4477071448399401,
                -0.6352917640902325,
                0.17023403468864307,
                -0.1972416000140182,
                0.7991883777730614,
                -1.2532849657639282
            ]
        },
        {
            "positions": [
                -0.4104204758607596,
                -0.6663216230912676,
                0.2863383426042361,
                -0.23184394586810936,
                0.7563319637564265,
                -1.3850728464783306
            ]
        },
        {
            "positions": [
                -0.37313380688157916,
                -0.6973514820923024,
                0.4024426505198282,
                -0.2664462917222003,
                0.7134755497397918,
                -1.5168607271927326
            ]
        },
        {
            "positions": [
                -0.33584713790239884,
                -0.7283813410933373,
                0.5185469584354203,
                -0.30104863757629124,
                0.670619135723157,
                -1.648648607907134
            ]
        },
        {
            "positions": [
                -0.2985604689232184,
                -0.7594112000943722,
                0.6346512663510129,
                -0.3356509834303822,
                0.6277627217065223,
                -1.780436488621536
            ]
        },
        {
            "positions": [
                -0.261273799944038,
                -0.7904410590954074,
                0.7507555742666054,
                -0.37025332928447324,
                0.5849063076898873,
                -1.9122243693359384
            ]
        },
        {
            "positions": [
                -0.22398713096485756,
                -0.8214709180964423,
                0.8668598821821976,
                -0.4048556751385642,
                0.5420498936732525,
                -2.04401225005034
            ]
        },
        {
            "positions": [
                -0.18670046198567725,
                -0.8525007770974771,
                0.9829641900977901,
                -0.43945802099265524,
                0.49919347965661776,
                -2.175800130764742
            ]
        },
        {
            "positions": [
                -0.14941379300649682,
                -0.883530636098512,
                1.0990684980133822,
                -0.4740603668467462,
                0.456337065639983,
                -2.307588011479144
            ]
        },
        {
            "positions": [
                -0.11212712402731628,
                -0.9145604950995472,
                1.2151728059289748,
                -0.5086627127008372,
                0.41348065162334824,
                -2.439375892193546
            ]
        },
        {
            "positions": [
                -0.07484045504813586,
                -0.9455903541005821,
                1.331277113844567,
                -0.5432650585549281,
                0.3706242376067135,
                -2.5711637729079477
            ]
        },
        {
            "positions": [
                -0.03755378606895565,
                -0.9766202131016171,
                1.4473814217601595,
                -0.5778674044090191,
                0.3277678235900787,
                -2.7029516536223492
            ]
        },
        {
            "positions": [
                -0.0002671170897752262,
                -1.007650072102652,
                1.5634857296757516,
                -0.61246975026311,
                0.28491140957344396,
                -2.834739534336751
            ]
        },
        {
            "positions": [
                0.0370195518894052,
                -1.038679931103687,
                1.6795900375913442,
                -0.6470720961172012,
                0.24205499555680898,
                -2.966527415051153
            ]
        },
        {
            "positions": [
                0.07430622086858563,
                -1.069709790104722,
                1.7956943455069367,
                -0.6816744419712921,
                0.19919858154017422,
                -3.098315295765555
            ]
        },
        {
            "positions": [
                0.11159288984776605,
                -1.1007396491057568,
                1.9117986534225289,
                -0.7162767878253832,
                0.15634216752353947,
                -3.2301031764799575
            ]
        },
        {
            "positions": [
                0.12355177820493536,
                -1.1332859536756996,
                1.9595409261409846,
                -0.7163754532892789,
                0.13556932735951624,
                -3.2471368497463318
            ]
        }
    ]
}