{
    "goal": {
        "global_pose": {
            "orientation": {
                "w": 0.7047431468963623,
                "x": -0.7094548344612122,
                "y": 0.0024358443915843964,
                "z": -0.0022348060738295317
            },
            "position": {
                "x": 0.6094750761985779,
                "y": 0.3671506643295288,
                "z": 0.19426114857196808
            }
        },
        "name": "move_to_magneteinheit_A"
    },
    "id": "PRMstar_move_to_magneteinheit_A_125",
    "joint_names": [
        "shoulder_pan_joint",
        "shoulder_lift_joint",
        "elbow_joint",
        "wrist_1_joint",
        "wrist_2_joint",
        "wrist_3_joint"
    ],
    "metrics": {
        "cart_traj_len": 1.878177992466493,
        "distance_elbow_joint": 3.912119846013253,
        "distance_shoulder_lift_joint": 0.699098684270196,
        "distance_shoulder_pan_joint": 1.241339811130554,
        "distance_wrist_1_joint": 1.4993129234184912,
        "distance_wrist_2_joint": 1.6971782522192382,
        "distance_wrist_3_joint": 1.109732080705817,
        "smoothness": 6.579099420167375e-16,
        "time": 5.011058262,
        "traj_len": 3.1872843609815473,
        "weighted_distance": 3.9464841232173873
    },
    "planner": "PRMstar",
    "start": {
        "state": {
            "elbow_joint": -1.919643507792019,
            "shoulder_lift_joint": -0.07675430207160344,
            "shoulder_pan_joint": -1.1188671864651873,
            "wrist_1_joint": 0.42560062535961957,
            "wrist_2_joint": 1.5706038300724876,
            "wrist_3_joint": 1.1188968870953055
        }
    },
    "waypoints": [
        {
            "positions": [
                -1.1188671864651873,
                -0.07675430207160344,
                -1.919643507792019,
                0.42560062535961957,
                1.5706038300724876,
                1.1188968870953055
            ]
        },
        {
            "positions": [
                -1.0711233475755506,
                -0.10364271300507252,
                -1.7691773598684324,
                0.48326650702956153,
                1.5053277434486707,
                1.0762148839912355
            ]
        },
        {
            "positions": [
                -1.0233795086859139,
                -0.1305311239385416,
                -1.618711211944846,
                0.5409323886995036,
                1.4400516568248538,
                1.0335328808871658
            ]
        },
        {
            "positions": [
                -0.9756356697962772,
                -0.15741953487201069,
                -1.468245064021259,
                0.5985982703694455,
                1.3747755702010371,
                0.9908508777830959
            ]
        },
        {
            "positions": [
                -0.9278918309066406,
                -0.18430794580547977,
                -1.3177789160976725,
                0.6562641520393875,
                1.3094994835772202,
                0.948168874679026
            ]
        },
        {
            "positions": [
                -0.8801479920170039,
                -0.21119635673894885,
                -1.1673127681740858,
                0.7139300337093295,
                1.2442233969534033,
                0.9054868715749561
            ]
        },
        {
            "positions": [
                -0.8324041531273672,
                -0.23808476767241793,
                -1.016846620250499,
                0.7715959153792714,
                1.1789473103295864,
                0.8628048684708862
            ]
        },
        {
            "positions": [
                -0.7846603142377305,
                -0.264973178605887,
                -0.8663804723269126,
                0.8292617970492133,
                1.1136712237057695,
                0.8201228653668163
            ]
        },
        {
            "positions": [
                -0.7369164753480938,
                -0.2918615895393561,
                -0.7159143244033259,
                0.8869276787191553,
                1.0483951370819526,
                0.7774408622627464
            ]
        },
        {
            "positions": [
                -0.6891726364584572,
                -0.31875000047282515,
                -0.5654481764797392,
                0.9445935603890974,
                0.983119050458136,
                0.7347588591586766
            ]
        },
        {
            "positions": [
                -0.6414287975688204,
                -0.34563841140629425,
                -0.4149820285561525,
                1.0022594420590394,
                0.9178429638343191,
                0.6920768560546067
            ]
        },
        {
            "positions": [
                -0.5936849586791837,
                -0.3725268223397633,
                -0.26451588063256604,
                1.0599253237289812,
                0.8525668772105022,
                0.6493948529505368
            ]
        },
        {
            "positions": [
                -0.545941119789547,
                -0.3994152332732324,
                -0.11404973270897911,
                1.1175912053989232,
                0.7872907905866853,
                0.6067128498464669
            ]
        },
        {
            "positions": [
                -0.49819728089991033,
                -0.42630364420670147,
                0.03641641521460737,
                1.1752570870688652,
                0.7220147039628685,
                0.564030846742397
            ]
        },
        {
            "positions": [
                -0.4504534420102737,
                -0.4531920551401705,
                0.18688256313819385,
                1.232922968738807,
                0.6567386173390517,
                0.5213488436383271
            ]
        },
        {
            "positions": [
                -0.40270960312063697,
                -0.4800804660736396,
                0.3373487110617803,
                1.290588850408749,
                0.5914625307152349,
                0.47866684053425734
            ]
        },
        {
            "positions": [
                -0.35496576423100024,
                -0.5069688770071088,
                0.48781485898536725,
                1.348254732078691,
                0.5261864440914179,
                0.43598483743018734
            ]
        },
        {
            "positions": [
                -0.3072219253413635,
                -0.5338572879405779,
                0.6382810069089542,
                1.405920613748633,
                0.460910357467601,
                0.39330283432611746
            ]
        },
        {
            "positions": [
                -0.2594780864517269,
                -0.5607456988740469,
                0.7887471548325407,
                1.463586495418575,
                0.39563427084378433,
                0.35062083122204757
            ]
        },
        {
            "positions": [
                -0.21173424756209025,
                -0.587634109807516,
                0.9392133027561271,
                1.521252377088517,
                0.33035818421996743,
                0.3079388281179777
            ]
        },
        {
            "positions": [
                -0.1639904086724534,
                -0.614522520740985,
                1.089679450679714,
                1.5789182587584591,
                0.26508209759615053,
                0.2652568250139078
            ]
        },
        {
            "positions": [
                -0.11624656978281678,
                -0.6414109316744541,
                1.2401455986033005,
                1.636584140428401,
                0.19980601097233364,
                0.2225748219098379
            ]
        },
        {
            "positions": [
                -0.06850273089318004,
                -0.6682993426079231,
                1.390611746526887,
                1.694250022098343,
                0.13452992434851674,
                0.17989281880576802
            ]
        },
        {
            "positions": [
                -0.020758892003543528,
                -0.6951877535413922,
                1.541077894450474,
                1.7519159037682848,
                0.06925383772470006,
                0.13721081570169813
            ]
        },
        {
            "positions": [
                0.02698494688609343,
                -0.7220761644748614,
                1.6915440423740609,
                1.809581785438227,
                0.0039777511008829425,
                0.09452881259762824
            ]
        },
        {
            "positions": [
                0.07472878577572994,
                -0.7489645754083305,
                1.8420101902976473,
                1.8672476671081688,
                -0.06129833552293373,
                0.051846809493558244
            ]
        },
        {
            "positions": [
                0.12247262466536661,
                -0.7758529863417994,
                1.9924763382212336,
                1.9249135487781108,
                -0.12657442214675071,
                0.009164806389488434
            ]
        }
    ]
}