{
    "goal": {
        "global_pose": {
            "orientation": {
                "w": 0.7047431468963623,
                "x": -0.7094548344612122,
                "y": 0.0024358443915843964,
                "z": -0.0022348060738295317
            },
            "position": {
                "x": 0.6094750761985779,
                "y": 0.3671506643295288,
                "z": 0.19426114857196808
            }
        },
        "name": "move_to_magneteinheit_A"
    },
    "id": "PRMstar_move_to_magneteinheit_A_29",
    "joint_names": [
        "shoulder_pan_joint",
        "shoulder_lift_joint",
        "elbow_joint",
        "wrist_1_joint",
        "wrist_2_joint",
        "wrist_3_joint"
    ],
    "metrics": {
        "cart_traj_len": 2.0674006565671394,
        "distance_elbow_joint": 3.8865343160107026,
        "distance_shoulder_lift_joint": 1.060183547799928,
        "distance_shoulder_pan_joint": 1.241615385343004,
        "distance_wrist_1_joint": 1.172318757370047,
        "distance_wrist_2_joint": 1.43214761383939,
        "distance_wrist_3_joint": 4.335430706410593,
        "smoothness": 4.314009467414736e-16,
        "time": 5.1088230580000005,
        "traj_len": 3.6232899865693424,
        "weighted_distance": 4.939995760201044
    },
    "planner": "PRMstar",
    "start": {
        "state": {
            "elbow_joint": -1.919643507792019,
            "shoulder_lift_joint": -0.07675430207160344,
            "shoulder_pan_joint": -1.1188671864651873,
            "wrist_1_joint": 0.42560062535961957,
            "wrist_2_joint": 1.5706038300724876,
            "wrist_3_joint": 1.1188968870953055
        }
    },
    "waypoints": [
        {
            "positions": [
                -1.1188671864651873,
                -0.07675430207160344,
                -1.919643507792019,
                0.42560062535961957,
                1.5706038300724876,
                1.1188968870953055
            ]
        },
        {
            "positions": [
                -1.0808374287690956,
                -0.10977763536481458,
                -1.7958144386011412,
                0.3949241618633507,
                1.5255227447139939,
                0.9944110615735291
            ]
        },
        {
            "positions": [
                -1.0428076710730037,
                -0.14280096865802572,
                -1.671985369410263,
                0.3642476983670818,
                1.4804416593554999,
                0.8699252360517526
            ]
        },
        {
            "positions": [
                -1.004777913376912,
                -0.17582430195123686,
                -1.5481563002193852,
                0.33357123487081297,
                1.4353605739970061,
                0.7454394105299762
            ]
        },
        {
            "positions": [
                -0.9667481556808202,
                -0.208847635244448,
                -1.4243272310285073,
                0.3028947713745441,
                1.3902794886385124,
                0.6209535850081997
            ]
        },
        {
            "positions": [
                -0.9287183979847283,
                -0.24187096853765913,
                -1.3004981618376292,
                0.2722183078782753,
                1.3451984032800184,
                0.4964677594864233
            ]
        },
        {
            "positions": [
                -0.8906886402886365,
                -0.27489430183087027,
                -1.1766690926467511,
                0.2415418443820064,
                1.3001173179215246,
                0.37198193396464696
            ]
        },
        {
            "positions": [
                -0.8526588825925447,
                -0.30791763512408143,
                -1.0528400234558732,
                0.21086538088573756,
                1.2550362325630309,
                0.2474961084428705
            ]
        },
        {
            "positions": [
                -0.814629124896453,
                -0.34094096841729254,
                -0.9290109542649954,
                0.18018891738946868,
                1.209955147204537,
                0.12301028292109406
            ]
        },
        {
            "positions": [
                -0.776599367200361,
                -0.3739643017105037,
                -0.8051818850741173,
                0.14951245389319978,
                1.1648740618460431,
                -0.0014755426006825
            ]
        },
        {
            "positions": [
                -0.7385696095042693,
                -0.4069876350037148,
                -0.6813528158832394,
                0.11883599039693099,
                1.1197929764875494,
                -0.12596136812245895
            ]
        },
        {
            "positions": [
                -0.7005398518081776,
                -0.440010968296926,
                -0.5575237466923613,
                0.08815952690066209,
                1.0747118911290554,
                -0.2504471936442354
            ]
        },
        {
            "positions": [
                -0.6625100941120857,
                -0.4730343015901371,
                -0.4336946775014834,
                0.05748306340439324,
                1.0296308057705617,
                -0.3749330191660116
            ]
        },
        {
            "positions": [
                -0.6244803364159939,
                -0.5060576348833483,
                -0.3098656083106053,
                0.02680659990812434,
                0.9845497204120678,
                -0.4994188446877883
            ]
        },
        {
            "positions": [
                -0.5864505787199021,
                -0.5390809681765594,
                -0.1860365391197274,
                -0.003869863588144451,
                0.939468635053574,
                -0.6239046702095645
            ]
        },
        {
            "positions": [
                -0.5484208210238103,
                -0.5721043014697705,
                -0.06220746992884929,
                -0.03454632708441335,
                0.8943875496950802,
                -0.7483904957313412
            ]
        },
        {
            "positions": [
                -0.5103910633277186,
                -0.6051276347629817,
                0.06162159926202837,
                -0.0652227905806822,
                0.8493064643365864,
                -0.8728763212531174
            ]
        },
        {
            "positions": [
                -0.4723613056316268,
                -0.6381509680561928,
                0.18545066845290648,
                -0.09589925407695105,
                0.8042253789780927,
                -0.9973621467748939
            ]
        },
        {
            "positions": [
                -0.43433154793553486,
                -0.671174301349404,
                0.3092797376437846,
                -0.12657571757322,
                0.7591442936195987,
                -1.1218479722966705
            ]
        },
        {
            "positions": [
                -0.3963017902394431,
                -0.7041976346426151,
                0.4331088068346627,
                -0.15725218106948885,
                0.7140632082611049,
                -1.2463337978184468
            ]
        },
        {
            "positions": [
                -0.3582720325433514,
                -0.7372209679358261,
                0.5569378760255403,
                -0.18792864456575759,
                0.668982122902611,
                -1.3708196233402234
            ]
        },
        {
            "positions": [
                -0.32024227484725953,
                -0.7702443012290374,
                0.6807669452164185,
                -0.21860510806202643,
                0.6239010375441173,
                -1.4953054488619997
            ]
        },
        {
            "positions": [
                -0.2822125171511677,
                -0.8032676345222485,
                0.8045960144072966,
                -0.2492815715582954,
                0.5788199521856233,
                -1.6197912743837763
            ]
        },
        {
            "positions": [
                -0.24418275945507595,
                -0.8362909678154598,
                0.9284250835981742,
                -0.27995803505456424,
                0.5337388668271297,
                -1.7442770999055526
            ]
        },
        {
            "positions": [
                -0.2061530017589841,
                -0.8693143011086708,
                1.0522541527890523,
                -0.3106344985508331,
                0.4886577814686357,
                -1.8687629254273288
            ]
        },
        {
            "positions": [
                -0.16812324406289236,
                -0.9023376344018819,
                1.17608322197993,
                -0.34131096204710193,
                0.44357669611014194,
                -1.9932487509491055
            ]
        },
        {
            "positions": [
                -0.13009348636680051,
                -0.9353609676950931,
                1.2999122911708085,
                -0.3719874255433709,
                0.39849561075164797,
                -2.117734576470882
            ]
        },
        {
            "positions": [
                -0.09206372867070867,
                -0.9683843009883042,
                1.4237413603616862,
                -0.40266388903963973,
                0.3534145253931542,
                -2.2422204019926584
            ]
        },
        {
            "positions": [
                -0.05403397097461693,
                -1.0014076342815152,
                1.5475704295525643,
                -0.43334035253590847,
                0.30833344003466046,
                -2.3667062275144346
            ]
        },
        {
            "positions": [
                -0.016004213278525192,
                -1.0344309675747265,
                1.671399498743442,
                -0.4640168160321773,
                0.2632523546761667,
                -2.4911920530362113
            ]
        },
        {
            "positions": [
                0.022025544417566767,
                -1.0674543008679376,
                1.7952285679343205,
                -0.4946932795284463,
                0.21817126931767272,
                -2.615677878557988
            ]
        },
        {
            "positions": [
                0.060055302113658615,
                -1.1004776341611489,
                1.9190576371251984,
                -0.5253697430247151,
                0.17309018395917886,
                -2.740163704079764
            ]
        },
        {
            "positions": [
                0.08095293436837805,
                -1.112631039397943,
                1.9350020274896935,
                -0.5991525393532858,
                0.16154552805048505,
                -2.898953742491605
            ]
        },
        {
            "positions": [
                0.10185056662309751,
                -1.1247844446347373,
                1.9509464178541889,
                -0.6729353356818566,
                0.15000087214179128,
                -3.057743780903446
            ]
        },
        {
            "positions": [
                0.12274819887781696,
                -1.1369378498715315,
                1.966890808218684,
                -0.7467181320104275,
                0.13845621623309748,
                -3.216533819315287
            ]
        }
    ]
}