{
    "goal": {
        "global_pose": {
            "orientation": {
                "w": 0.7047431468963623,
                "x": -0.7094548344612122,
                "y": 0.0024358443915843964,
                "z": -0.0022348060738295317
            },
            "position": {
                "x": 0.6094750761985779,
                "y": 0.3671506643295288,
                "z": 0.19426114857196808
            }
        },
        "name": "move_to_magneteinheit_A"
    },
    "id": "PRMstar_move_to_magneteinheit_A_52",
    "joint_names": [
        "shoulder_pan_joint",
        "shoulder_lift_joint",
        "elbow_joint",
        "wrist_1_joint",
        "wrist_2_joint",
        "wrist_3_joint"
    ],
    "metrics": {
        "cart_traj_len": 1.8794721683407427,
        "distance_elbow_joint": 3.9123830807863493,
        "distance_shoulder_lift_joint": 0.6993510763465227,
        "distance_shoulder_pan_joint": 1.2411141385755085,
        "distance_wrist_1_joint": 1.4850697409435614,
        "distance_wrist_2_joint": 1.706667152443673,
        "distance_wrist_3_joint": 1.098067268107818,
        "smoothness": 6.579099420167375e-16,
        "time": 5.01035768,
        "traj_len": 3.1847531234309874,
        "weighted_distance": 3.9408785678838547
    },
    "planner": "PRMstar",
    "start": {
        "state": {
            "elbow_joint": -1.919643507792019,
            "shoulder_lift_joint": -0.07675430207160344,
            "shoulder_pan_joint": -1.1188671864651873,
            "wrist_1_joint": 0.42560062535961957,
            "wrist_2_joint": 1.5706038300724876,
            "wrist_3_joint": 1.1188968870953055
        }
    },
    "waypoints": [
        {
            "positions": [
                -1.1188671864651873,
                -0.07675430207160344,
                -1.919643507792019,
                0.42560062535961957,
                1.5706038300724876,
                1.1188968870953055
            ]
        },
        {
            "positions": [
                -1.0711320272892062,
                -0.10365242039262354,
                -1.7691672354540826,
                0.48271869231898734,
                1.504962785747731,
                1.0766635306296202
            ]
        },
        {
            "positions": [
                -1.023396868113225,
                -0.13055053871364364,
                -1.618690963116146,
                0.5398367592783551,
                1.4393217414229742,
                1.034430174163935
            ]
        },
        {
            "positions": [
                -0.975661708937244,
                -0.15744865703466376,
                -1.4682146907782094,
                0.5969548262377228,
                1.3736806970982176,
                0.9921968176982496
            ]
        },
        {
            "positions": [
                -0.927926549761263,
                -0.18434677535568386,
                -1.317738418440273,
                0.6540728931970905,
                1.308039652773461,
                0.9499634612325643
            ]
        },
        {
            "positions": [
                -0.8801913905852818,
                -0.21124489367670396,
                -1.1672621461023365,
                0.7111909601564583,
                1.2423986084487044,
                0.907730104766879
            ]
        },
        {
            "positions": [
                -0.8324562314093007,
                -0.23814301199772409,
                -1.0167858737644,
                0.768309027115826,
                1.1767575641239476,
                0.8654967483011937
            ]
        },
        {
            "positions": [
                -0.7847210722333198,
                -0.26504113031874416,
                -0.8663096014264635,
                0.8254270940751938,
                1.111116519799191,
                0.8232633918355083
            ]
        },
        {
            "positions": [
                -0.7369859130573386,
                -0.2919392486397643,
                -0.7158333290885268,
                0.8825451610345616,
                1.0454754754744342,
                0.7810300353698231
            ]
        },
        {
            "positions": [
                -0.6892507538813575,
                -0.31883736696078435,
                -0.5653570567505906,
                0.9396632279939292,
                0.9798344311496777,
                0.7387966789041378
            ]
        },
        {
            "positions": [
                -0.6415155947053763,
                -0.3457354852818045,
                -0.41488078441265386,
                0.996781294953297,
                0.914193386824921,
                0.6965633224384524
            ]
        },
        {
            "positions": [
                -0.5937804355293953,
                -0.3726336036028246,
                -0.2644045120747174,
                1.0538993619126646,
                0.8485523425001644,
                0.6543299659727672
            ]
        },
        {
            "positions": [
                -0.5460452763534142,
                -0.39953172192384473,
                -0.1139282397367809,
                1.1110174288720325,
                0.7829112981754077,
                0.6120966095070818
            ]
        },
        {
            "positions": [
                -0.4983101171774331,
                -0.4264298402448648,
                0.03654803260115558,
                1.1681354958314003,
                0.7172702538506511,
                0.5698632530413965
            ]
        },
        {
            "positions": [
                -0.4505749580014521,
                -0.45332795856588487,
                0.18702430493909206,
                1.225253562790768,
                0.6516292095258945,
                0.5276298965757112
            ]
        },
        {
            "positions": [
                -0.40283979882547094,
                -0.480226076886905,
                0.33750057727702854,
                1.2823716297501357,
                0.585988165201138,
                0.485396540110026
            ]
        },
        {
            "positions": [
                -0.3551046396494898,
                -0.5071241952079251,
                0.48797684961496546,
                1.3394896967095036,
                0.520347120876381,
                0.4431631836443406
            ]
        },
        {
            "positions": [
                -0.30736948047350876,
                -0.5340223135289452,
                0.6384531219529015,
                1.3966077636688712,
                0.4547060765516244,
                0.4009298271786552
            ]
        },
        {
            "positions": [
                -0.2596343212975276,
                -0.5609204318499653,
                0.788929394290838,
                1.453725830628239,
                0.38906503222686784,
                0.35869647071296995
            ]
        },
        {
            "positions": [
                -0.21189916212154658,
                -0.5878185501709854,
                0.9394056666287744,
                1.5108438975876066,
                0.32342398790211124,
                0.3164631142472847
            ]
        },
        {
            "positions": [
                -0.16416400294556543,
                -0.6147166684920056,
                1.0898819389667114,
                1.5679619645469747,
                0.25778294357735443,
                0.2742297577815993
            ]
        },
        {
            "positions": [
                -0.1164288437695844,
                -0.6416147868130258,
                1.2403582113046479,
                1.6250800315063423,
                0.19214189925259784,
                0.23199640131591404
            ]
        },
        {
            "positions": [
                -0.06869368459360325,
                -0.6685129051340457,
                1.3908344836425843,
                1.68219809846571,
                0.12650085492784124,
                0.18976304485022877
            ]
        },
        {
            "positions": [
                -0.02095852541762211,
                -0.6954110234550659,
                1.5413107559805204,
                1.7393161654250777,
                0.06085981060308465,
                0.1475296883845434
            ]
        },
        {
            "positions": [
                0.026776633758359036,
                -0.7223091417760861,
                1.6917870283184573,
                1.7964342323844456,
                -0.004781233721672162,
                0.10529633191885801
            ]
        },
        {
            "positions": [
                0.07451179293433996,
                -0.749207260097106,
                1.8422633006563938,
                1.8535522993438134,
                -0.07042227804642875,
                0.06306297545317285
            ]
        },
        {
            "positions": [
                0.12224695211032113,
                -0.7761053784181262,
                1.9927395729943302,
                1.910670366303181,
                -0.1360633223711854,
                0.02082961898748746
            ]
        }
    ]
}