{
    "goal": {
        "global_pose": {
            "orientation": {
                "w": 0.7031023502349854,
                "x": -0.7110244035720825,
                "y": 0.007748599164187908,
                "z": 0.005598929710686207
            },
            "position": {
                "x": 0.11585023208521307,
                "y": 0.44412534475326537,
                "z": 0.3711530566215515
            }
        },
        "name": "move_to_auspresseinheit_A"
    },
    "id": "PRMstar_move_to_auspresseinheit_A_64",
    "joint_names": [
        "shoulder_pan_joint",
        "shoulder_lift_joint",
        "elbow_joint",
        "wrist_1_joint",
        "wrist_2_joint",
        "wrist_3_joint"
    ],
    "metrics": {
        "cart_traj_len": 0.6791616228537392,
        "distance_elbow_joint": 0.03929415024000793,
        "distance_shoulder_lift_joint": 0.5381329590844903,
        "distance_shoulder_pan_joint": 1.0451825348854293,
        "distance_wrist_1_joint": 0.55120201026181,
        "distance_wrist_2_joint": 0.5165601361153891,
        "distance_wrist_3_joint": 0.1607091799907372,
        "smoothness": 0.1038236179243545,
        "time": 5.020684234,
        "traj_len": 1.6885144271157009,
        "weighted_distance": 2.0591895194315013
    },
    "planner": "PRMstar",
    "start": {
        "state": {
            "elbow_joint": 2.422574709923281,
            "shoulder_lift_joint": -1.3736533754116391,
            "shoulder_pan_joint": -0.33786336945926293,
            "wrist_1_joint": -1.0288603412921917,
            "wrist_2_joint": 1.2330224858903978,
            "wrist_3_joint": -3.094022268022082
        }
    },
    "waypoints": [
        {
            "positions": [
                -0.33786336945926293,
                -1.3736533754116391,
                2.422574709923281,
                -1.0288603412921917,
                1.2330224858903978,
                -3.094022268022082
            ]
        },
        {
            "positions": [
                -0.20371959171590326,
                -1.4494635246258725,
                2.4235584140801394,
                -0.9578456718896179,
                1.1657043692099178,
                -3.0848362812597867
            ]
        },
        {
            "positions": [
                -0.06957581397254359,
                -1.5252736738401058,
                2.4245421182369977,
                -0.8868310024870442,
                1.098386252529438,
                -3.0756502944974917
            ]
        },
        {
            "positions": [
                0.06456796377081608,
                -1.601083823054339,
                2.425525822393856,
                -0.8158163330844703,
                1.0310681358489582,
                -3.0664643077351963
            ]
        },
        {
            "positions": [
                0.19871174151417575,
                -1.6768939722685723,
                2.426509526550715,
                -0.7448016636818966,
                0.9637500191684782,
                -3.0572783209729013
            ]
        },
        {
            "positions": [
                0.3328555192575355,
                -1.7527041214828056,
                2.427493230707573,
                -0.6737869942793226,
                0.8964319024879983,
                -3.048092334210606
            ]
        },
        {
            "positions": [
                0.4669992970008951,
                -1.828514270697039,
                2.4284769348644315,
                -0.6027723248767489,
                0.8291137858075185,
                -3.038906347448311
            ]
        },
        {
            "positions": [
                0.6011430747442549,
                -1.9043244199112723,
                2.42946063902129,
                -0.5317576554741751,
                0.7617956691270386,
                -3.0297203606860155
            ]
        },
        {
            "positions": [
                0.7073191654261664,
                -1.9117863344961294,
                2.3970524178792907,
                -0.47765833103038163,
                0.7164623497750087,
                -3.126127633340686
            ]
        }
    ]
}