{
    "goal": {
        "global_pose": {
            "orientation": {
                "w": 0.5084816217422485,
                "x": -0.49083608388900757,
                "y": 0.5182115435600281,
                "z": -0.4816462993621826
            },
            "position": {
                "x": 0.5540239810943604,
                "y": 0.030875300988554955,
                "z": 0.16403168439865112
            }
        },
        "name": "move_to_storage_A"
    },
    "id": "PRMstar_move_to_storage_A_123",
    "joint_names": [
        "shoulder_pan_joint",
        "shoulder_lift_joint",
        "elbow_joint",
        "wrist_1_joint",
        "wrist_2_joint",
        "wrist_3_joint"
    ],
    "metrics": {
        "cart_traj_len": 0.353661385656225,
        "distance_elbow_joint": 0.4479157516486669,
        "distance_shoulder_lift_joint": 0.2338865200214908,
        "distance_shoulder_pan_joint": 0.4643015737500398,
        "distance_wrist_1_joint": 0.2353933484552121,
        "distance_wrist_2_joint": 1.0914426469388323,
        "distance_wrist_3_joint": 0.10379890665685476,
        "smoothness": 2.2204460668324854e-16,
        "time": 5.017245777,
        "traj_len": 1.6052223358373434,
        "weighted_distance": 2.027602662303157
    },
    "planner": "PRMstar",
    "start": {
        "state": {
            "elbow_joint": 1.9715463870305268,
            "shoulder_lift_joint": -1.1394903361783484,
            "shoulder_pan_joint": 0.12281147578464417,
            "wrist_1_joint": -0.7804599489681411,
            "wrist_2_joint": 0.12958660307563738,
            "wrist_3_joint": -3.1924946282119055
        }
    },
    "waypoints": [
        {
            "positions": [
                0.12281147578464417,
                -1.1394903361783484,
                1.9715463870305268,
                -0.7804599489681411,
                0.12958660307563738,
                -3.1924946282119055
            ]
        },
        {
            "positions": [
                0.056482679534638494,
                -1.1729026961814184,
                2.0355343515517648,
                -0.8140875701760285,
                0.28550698120975626,
                -3.177666212975212
            ]
        },
        {
            "positions": [
                -0.009846116715367184,
                -1.2063150561844886,
                2.099522316073003,
                -0.8477151913839159,
                0.4414273593438751,
                -3.1628377977385185
            ]
        },
        {
            "positions": [
                -0.07617491296537286,
                -1.2397274161875587,
                2.163510280594241,
                -0.8813428125918034,
                0.5973477374779941,
                -3.148009382501825
            ]
        },
        {
            "positions": [
                -0.14250370921537853,
                -1.273139776190629,
                2.2274982451154792,
                -0.9149704337996909,
                0.7532681156121129,
                -3.1331809672651314
            ]
        },
        {
            "positions": [
                -0.20883250546538423,
                -1.306552136193699,
                2.2914862096367177,
                -0.9485980550075783,
                0.9091884937462319,
                -3.118352552028438
            ]
        },
        {
            "positions": [
                -0.2751613017153899,
                -1.3399644961967692,
                2.3554741741579557,
                -0.9822256762154657,
                1.0651088718803507,
                -3.1035241367917443
            ]
        },
        {
            "positions": [
                -0.3414900979653956,
                -1.3733768561998392,
                2.4194621386791937,
                -1.0158532974233532,
                1.2210292500144697,
                -3.088695721555051
            ]
        }
    ]
}