{
    "goal": {
        "global_pose": {
            "orientation": {
                "w": -0.00223480608172531,
                "x": 0.0024358444001904467,
                "y": 0.7094548369677653,
                "z": -0.704743149386269
            },
            "position": {
                "x": 0.6205249238014221,
                "y": -0.6371506643295288,
                "z": 0.19426114857196808
            }
        },
        "name": "move_to_magneteinheit_B"
    },
    "id": "PRMstar_move_to_magneteinheit_B_108",
    "joint_names": [
        "shoulder_pan_joint",
        "shoulder_lift_joint",
        "elbow_joint",
        "wrist_1_joint",
        "wrist_2_joint",
        "wrist_3_joint"
    ],
    "metrics": {
        "cart_traj_len": 3.4740464074670334,
        "distance_elbow_joint": 4.131348773412755,
        "distance_shoulder_lift_joint": 1.2112448853922433,
        "distance_shoulder_pan_joint": 1.9549322871142936,
        "distance_wrist_1_joint": 2.5355118990004146,
        "distance_wrist_2_joint": 1.7943059323895745,
        "distance_wrist_3_joint": 1.3445134786280577,
        "smoothness": 0.3328120782089215,
        "time": 5.053591955000001,
        "traj_len": 3.6016464645960657,
        "weighted_distance": 4.471096291133019
    },
    "planner": "PRMstar",
    "start": {
        "state": {
            "elbow_joint": 2.39358713078474,
            "shoulder_lift_joint": -1.908514104345545,
            "shoulder_pan_joint": 0.7066247066606129,
            "wrist_1_joint": -0.4678290933515497,
            "wrist_2_joint": 0.7096259083745334,
            "wrist_3_joint": -3.1358149277392293
        }
    },
    "waypoints": [
        {
            "positions": [
                0.7066247066606129,
                -1.908514104345545,
                2.39358713078474,
                -0.4678290933515497,
                0.7096259083745334,
                -3.1358149277392293
            ]
        },
        {
            "positions": [
                0.7433749414897866,
                -2.000878421438367,
                2.344363517538996,
                -0.37452803325964545,
                0.7957683043116899,
                -3.1508919232112222
            ]
        },
        {
            "positions": [
                0.7801251763189603,
                -2.093242738531189,
                2.2951399042932525,
                -0.28122697316774126,
                0.8819107002488463,
                -3.165968918683215
            ]
        },
        {
            "positions": [
                0.8235882194415797,
                -2.197889742052156,
                2.240470756412344,
                -0.187270809178767,
                0.9604470391388631,
                -3.1674972440957267
            ]
        },
        {
            "positions": [
                0.8874288852710481,
                -2.2680853731904893,
                2.1672599185236217,
                -0.19609661561300434,
                0.9103500923756345,
                -3.0877382753890137
            ]
        },
        {
            "positions": [
                0.9512695511005167,
                -2.338281004328822,
                2.0940490806348997,
                -0.20492242204724165,
                0.8602531456124058,
                -3.0079793066823006
            ]
        },
        {
            "positions": [
                1.015110216929985,
                -2.4084766354671547,
                2.0208382427461773,
                -0.21374822848147895,
                0.8101561988491772,
                -2.928220337975588
            ]
        },
        {
            "positions": [
                1.0789508827594536,
                -2.478672266605488,
                1.9476274048574551,
                -0.22257403491571628,
                0.7600592520859486,
                -2.848461369268875
            ]
        },
        {
            "positions": [
                1.1346379090132612,
                -2.456981664643522,
                1.7879186791867991,
                -0.3025236590132462,
                0.6996394763917464,
                -2.8320301381869517
            ]
        },
        {
            "positions": [
                1.1903249352670688,
                -2.435291062681556,
                1.6282099535161432,
                -0.3824732831107761,
                0.6392197006975442,
                -2.8155989071050285
            ]
        },
        {
            "positions": [
                1.2460119615208765,
                -2.4136004607195902,
                1.4685012278454872,
                -0.46242290720830603,
                0.5787999250033419,
                -2.7991676760231052
            ]
        },
        {
            "positions": [
                1.301698987774684,
                -2.391909858757624,
                1.3087925021748312,
                -0.542372531305836,
                0.5183801493091397,
                -2.7827364449411824
            ]
        },
        {
            "positions": [
                1.3573860140284917,
                -2.370219256795658,
                1.1490837765041753,
                -0.6223221554033659,
                0.4579603736149374,
                -2.766305213859259
            ]
        },
        {
            "positions": [
                1.413073040282299,
                -2.348528654833692,
                0.9893750508335193,
                -0.7022717795008958,
                0.3975405979207352,
                -2.749873982777336
            ]
        },
        {
            "positions": [
                1.4687600665361067,
                -2.3268380528717265,
                0.8296663251628633,
                -0.7822214035984257,
                0.33712082222653295,
                -2.7334427516954127
            ]
        },
        {
            "positions": [
                1.5244470927899143,
                -2.3051474509097605,
                0.6699575994922073,
                -0.8621710276959557,
                0.27670104653233074,
                -2.7170115206134895
            ]
        },
        {
            "positions": [
                1.580134119043722,
                -2.2834568489477944,
                0.5102488738215514,
                -0.9421206517934856,
                0.21628127083812854,
                -2.7005802895315663
            ]
        },
        {
            "positions": [
                1.6358211452975295,
                -2.2617662469858284,
                0.3505401481508954,
                -1.0220702758910156,
                0.15586149514392622,
                -2.684149058449643
            ]
        },
        {
            "positions": [
                1.6915081715513371,
                -2.240075645023863,
                0.1908314224802392,
                -1.1020198999885455,
                0.09544171944972402,
                -2.6677178273677202
            ]
        },
        {
            "positions": [
                1.7471951978051448,
                -2.2183850430618968,
                0.03112269680958346,
                -1.1819695240860755,
                0.03502194375552181,
                -2.651286596285797
            ]
        },
        {
            "positions": [
                1.8028822240589524,
                -2.1966944410999307,
                -0.12858602886107273,
                -1.2619191481836054,
                -0.025397831938680504,
                -2.6348553652038738
            ]
        },
        {
            "positions": [
                1.85856925031276,
                -2.1750038391379647,
                -0.2882947545317285,
                -1.3418687722811353,
                -0.08581760763288271,
                -2.6184241341219505
            ]
        },
        {
            "positions": [
                1.9142562765665674,
                -2.1533132371759987,
                -0.4480034802023847,
                -1.4218183963786653,
                -0.1462373833270849,
                -2.6019929030400273
            ]
        },
        {
            "positions": [
                1.9699433028203752,
                -2.131622635214033,
                -0.6077122058730404,
                -1.5017680204761952,
                -0.20665715902128712,
                -2.585561671958104
            ]
        },
        {
            "positions": [
                2.0256303290741826,
                -2.109932033252067,
                -0.7674209315436966,
                -1.581717644573725,
                -0.2670769347154893,
                -2.569130440876181
            ]
        },
        {
            "positions": [
                2.0813173553279904,
                -2.088241431290101,
                -0.9271296572143524,
                -1.661667268671255,
                -0.3274967104096915,
                -2.552699209794258
            ]
        },
        {
            "positions": [
                2.137004381581798,
                -2.0665508293281354,
                -1.0868383828850086,
                -1.741616892768785,
                -0.38791648610389395,
                -2.536267978712335
            ]
        },
        {
            "positions": [
                2.1926914078356052,
                -2.0448602273661693,
                -1.2465471085556643,
                -1.8215665168663149,
                -0.44833626179809616,
                -2.5198367476304115
            ]
        },
        {
            "positions": [
                2.248378434089413,
                -2.0231696254042033,
                -1.4062558342263203,
                -1.9015161409638448,
                -0.5087560374922984,
                -2.5034055165484883
            ]
        },
        {
            "positions": [
                2.277292588720267,
                -2.0361190661075166,
                -1.496021456097399,
                -1.9741762186735434,
                -0.5136521386057158,
                -2.576572935276318
            ]
        },
        {
            "positions": [
                2.3062067433511206,
                -2.0490685068108303,
                -1.585787077968478,
                -2.0468362963832423,
                -0.5185482397191332,
                -2.6497403540041473
            ]
        },
        {
            "positions": [
                2.3351208979819744,
                -2.0620179475141436,
                -1.6755526998395567,
                -2.119496374092941,
                -0.5234443408325506,
                -2.722907772731977
            ]
        },
        {
            "positions": [
                2.3751900011907883,
                -2.1074398514369683,
                -1.6817782331794393,
                -2.1939143458398895,
                -0.504986433893794,
                -2.8385075830541395
            ]
        },
        {
            "positions": [
                2.4152591043996026,
                -2.152861755359793,
                -1.688003766519322,
                -2.2683323175868377,
                -0.4865285269550374,
                -2.954107393376302
            ]
        },
        {
            "positions": [
                2.4553282076084164,
                -2.198283659282618,
                -1.6942292998592046,
                -2.3427502893337864,
                -0.46807062001628075,
                -3.0697072036984645
            ]
        },
        {
            "positions": [
                2.558442600691661,
                -2.193048635256317,
                -1.6724631284748002,
                -2.3924873566700926,
                -0.46596076959750016,
                -3.1109260774856375
            ]
        },
        {
            "positions": [
                2.6615569937749064,
                -2.1878136112300166,
                -1.6506969570903955,
                -2.442224424006399,
                -0.46385091917871957,
                -3.15214495127281
            ]
        }
    ]
}