{
    "goal": {
        "global_pose": {
            "orientation": {
                "w": 0.5084816217422485,
                "x": -0.49083608388900757,
                "y": 0.5182115435600281,
                "z": -0.4816462993621826
            },
            "position": {
                "x": 0.5540239810943604,
                "y": 0.030875300988554955,
                "z": 0.16403168439865112
            }
        },
        "name": "move_to_storage_A"
    },
    "id": "PRMstar_move_to_storage_A_49",
    "joint_names": [
        "shoulder_pan_joint",
        "shoulder_lift_joint",
        "elbow_joint",
        "wrist_1_joint",
        "wrist_2_joint",
        "wrist_3_joint"
    ],
    "metrics": {
        "cart_traj_len": 0.3525129773601533,
        "distance_elbow_joint": 0.4492746249584183,
        "distance_shoulder_lift_joint": 0.23637692682488232,
        "distance_shoulder_pan_joint": 0.4619075107046403,
        "distance_wrist_1_joint": 0.2343766956448371,
        "distance_wrist_2_joint": 1.0948185293184762,
        "distance_wrist_3_joint": 0.09233522781676928,
        "smoothness": 8.881784213138256e-16,
        "time": 5.010800107,
        "traj_len": 1.6028379566469042,
        "weighted_distance": 2.0206323752392157
    },
    "planner": "PRMstar",
    "start": {
        "state": {
            "elbow_joint": 1.9715463870305268,
            "shoulder_lift_joint": -1.1394903361783484,
            "shoulder_pan_joint": 0.12281147578464417,
            "wrist_1_joint": -0.7804599489681411,
            "wrist_2_joint": 0.12958660307563738,
            "wrist_3_joint": -3.1924946282119055
        }
    },
    "waypoints": [
        {
            "positions": [
                0.12281147578464417,
                -1.1394903361783484,
                1.9715463870305268,
                -0.7804599489681411,
                0.12958660307563738,
                -3.1924946282119055
            ]
        },
        {
            "positions": [
                0.05682468854112413,
                -1.173258468581903,
                2.0357284763103007,
                -0.8139423340602606,
                0.28598925012113396,
                -3.1793038813809384
            ]
        },
        {
            "positions": [
                -0.009162098702395913,
                -1.2070266009854576,
                2.0999105655900747,
                -0.8474247191523803,
                0.4423918971666305,
                -3.1661131345499713
            ]
        },
        {
            "positions": [
                -0.07514888594591594,
                -1.2407947333890121,
                2.1640926548698487,
                -0.8809071042444998,
                0.5987945442121272,
                -3.1529223877190042
            ]
        },
        {
            "positions": [
                -0.14113567318943598,
                -1.274562865792567,
                2.2282747441496227,
                -0.9143894893366195,
                0.7551971912576237,
                -3.1397316408880376
            ]
        },
        {
            "positions": [
                -0.20712246043295607,
                -1.3083309981961215,
                2.292456833429397,
                -0.947871874428739,
                0.9115998383031204,
                -3.1265408940570705
            ]
        },
        {
            "positions": [
                -0.27310924767647604,
                -1.3420991305996761,
                2.356638922709171,
                -0.9813542595208586,
                1.068002485348617,
                -3.1133501472261034
            ]
        },
        {
            "positions": [
                -0.3390960349199961,
                -1.3758672630032307,
                2.420821011988945,
                -1.0148366446129782,
                1.2244051323941136,
                -3.1001594003951363
            ]
        }
    ]
}