{
    "goal": {
        "global_pose": {
            "orientation": {
                "w": 0.7031023502349854,
                "x": -0.7110244035720825,
                "y": 0.007748599164187908,
                "z": 0.005598929710686207
            },
            "position": {
                "x": 0.11585023208521307,
                "y": 0.44412534475326537,
                "z": 0.3711530566215515
            }
        },
        "name": "move_to_auspresseinheit_A"
    },
    "id": "PRMstar_move_to_auspresseinheit_A_58",
    "joint_names": [
        "shoulder_pan_joint",
        "shoulder_lift_joint",
        "elbow_joint",
        "wrist_1_joint",
        "wrist_2_joint",
        "wrist_3_joint"
    ],
    "metrics": {
        "cart_traj_len": 0.7333443304980926,
        "distance_elbow_joint": 0.03269397401823415,
        "distance_shoulder_lift_joint": 0.5392209821686351,
        "distance_shoulder_pan_joint": 1.204682620149674,
        "distance_wrist_1_joint": 0.5484871378411942,
        "distance_wrist_2_joint": 0.6673625482637311,
        "distance_wrist_3_joint": 0.10826458405058537,
        "smoothness": 1.6725879751889454,
        "time": 5.024423707,
        "traj_len": 1.7608838253820307,
        "weighted_distance": 2.1291056105083537
    },
    "planner": "PRMstar",
    "start": {
        "state": {
            "elbow_joint": 2.422574709923281,
            "shoulder_lift_joint": -1.3736533754116391,
            "shoulder_pan_joint": -0.33786336945926293,
            "wrist_1_joint": -1.0288603412921917,
            "wrist_2_joint": 1.2330224858903978,
            "wrist_3_joint": -3.094022268022082
        }
    },
    "waypoints": [
        {
            "positions": [
                -0.33786336945926293,
                -1.3736533754116391,
                2.422574709923281,
                -1.0288603412921917,
                1.2330224858903978,
                -3.094022268022082
            ]
        },
        {
            "positions": [
                -0.4187548903480337,
                -1.3812845439603345,
                2.4264226047584736,
                -1.0017914244911819,
                1.1209998264066543,
                -3.051283766117325
            ]
        },
        {
            "positions": [
                -0.27767075076950054,
                -1.4535816127002323,
                2.4230157792678595,
                -0.9285053771442413,
                1.051666146992943,
                -3.0549042280705927
            ]
        },
        {
            "positions": [
                -0.13658661119096732,
                -1.5258786814401304,
                2.419608953777245,
                -0.8552193297973008,
                0.9823324675792313,
                -3.0585246900238605
            ]
        },
        {
            "positions": [
                0.004497528387565897,
                -1.5981757501800282,
                2.416202128286631,
                -0.7819332824503601,
                0.9129987881655199,
                -3.0621451519771283
            ]
        },
        {
            "positions": [
                0.14558166796609906,
                -1.6704728189199263,
                2.4127953027960167,
                -0.7086472351034195,
                0.8436651087518083,
                -3.0657656139303957
            ]
        },
        {
            "positions": [
                0.28666580754463233,
                -1.742769887659824,
                2.4093884773054026,
                -0.6353611877564789,
                0.774331429338097,
                -3.0693860758836635
            ]
        },
        {
            "positions": [
                0.4277499471231655,
                -1.815066956399722,
                2.405981651814788,
                -0.5620751404095383,
                0.7049977499243855,
                -3.0730065378369313
            ]
        },
        {
            "positions": [
                0.5688340867016988,
                -1.88736402513962,
                2.402574826324174,
                -0.4887890930625978,
                0.635664070510674,
                -3.076626999790199
            ]
        },
        {
            "positions": [
                0.7050362089128697,
                -1.9128743575802742,
                2.397576525575432,
                -0.4803732034509976,
                0.7056682033946813,
                -3.116809848263153
            ]
        }
    ]
}