{
    "goal": {
        "global_pose": {
            "orientation": {
                "w": 0.5084816217422485,
                "x": -0.49083608388900757,
                "y": 0.5182115435600281,
                "z": -0.4816462993621826
            },
            "position": {
                "x": 0.5540239810943604,
                "y": 0.030875300988554955,
                "z": 0.16403168439865112
            }
        },
        "name": "move_to_storage_A"
    },
    "id": "PRMstar_move_to_storage_A_59",
    "joint_names": [
        "shoulder_pan_joint",
        "shoulder_lift_joint",
        "elbow_joint",
        "wrist_1_joint",
        "wrist_2_joint",
        "wrist_3_joint"
    ],
    "metrics": {
        "cart_traj_len": 0.35303401612695007,
        "distance_elbow_joint": 0.44775224466708474,
        "distance_shoulder_lift_joint": 0.23266470175478604,
        "distance_shoulder_pan_joint": 0.4603050641848998,
        "distance_wrist_1_joint": 0.23809023847934208,
        "distance_wrist_2_joint": 1.1032316604412444,
        "distance_wrist_3_joint": 0.091955362857711,
        "smoothness": 1.1102230263833737e-15,
        "time": 5.014442964,
        "traj_len": 1.604368808094033,
        "weighted_distance": 2.0246559947361615
    },
    "planner": "PRMstar",
    "start": {
        "state": {
            "elbow_joint": 1.9715463870305268,
            "shoulder_lift_joint": -1.1394903361783484,
            "shoulder_pan_joint": 0.12281147578464417,
            "wrist_1_joint": -0.7804599489681411,
            "wrist_2_joint": 0.12958660307563738,
            "wrist_3_joint": -3.1924946282119055
        }
    },
    "waypoints": [
        {
            "positions": [
                0.12281147578464417,
                -1.1394903361783484,
                1.9715463870305268,
                -0.7804599489681411,
                0.12958660307563738,
                -3.1924946282119055
            ]
        },
        {
            "positions": [
                0.05705360947251563,
                -1.1727281507147465,
                2.0355109934115387,
                -0.8144728401794756,
                0.28719112599581514,
                -3.179358147803661
            ]
        },
        {
            "positions": [
                -0.008704256839612914,
                -1.2059659652511443,
                2.099475599792551,
                -0.8484857313908103,
                0.4447956489159929,
                -3.166221667395417
            ]
        },
        {
            "positions": [
                -0.07446212315174146,
                -1.2392037797875424,
                2.163440206173563,
                -0.8824986226021448,
                0.6024001718361707,
                -3.1530851869871723
            ]
        },
        {
            "positions": [
                -0.14021998946387,
                -1.2724415943239404,
                2.227404812554575,
                -0.9165115138134794,
                0.7600046947563485,
                -3.1399487065789278
            ]
        },
        {
            "positions": [
                -0.20597785577599853,
                -1.3056794088603385,
                2.291369418935587,
                -0.9505244050248141,
                0.9176092176765263,
                -3.126812226170683
            ]
        },
        {
            "positions": [
                -0.2717357220881271,
                -1.3389172233967364,
                2.3553340253165995,
                -0.9845372962361485,
                1.075213740596704,
                -3.113675745762439
            ]
        },
        {
            "positions": [
                -0.3374935884002556,
                -1.3721550379331344,
                2.4192986316976115,
                -1.0185501874474832,
                1.2328182635168818,
                -3.1005392653541946
            ]
        }
    ]
}