{
    "goal": {
        "global_pose": {
            "orientation": {
                "w": 0.5084816217422485,
                "x": -0.49083608388900757,
                "y": 0.5182115435600281,
                "z": -0.4816462993621826
            },
            "position": {
                "x": 0.5540239810943604,
                "y": 0.030875300988554955,
                "z": 0.16403168439865112
            }
        },
        "name": "move_to_storage_A"
    },
    "id": "PRMstar_move_to_storage_A_40",
    "joint_names": [
        "shoulder_pan_joint",
        "shoulder_lift_joint",
        "elbow_joint",
        "wrist_1_joint",
        "wrist_2_joint",
        "wrist_3_joint"
    ],
    "metrics": {
        "cart_traj_len": 0.35258033235043584,
        "distance_elbow_joint": 0.4496188411845745,
        "distance_shoulder_lift_joint": 0.2330956215938853,
        "distance_shoulder_pan_joint": 0.46007570208420523,
        "distance_wrist_1_joint": 0.2460470338325963,
        "distance_wrist_2_joint": 1.1011408768206326,
        "distance_wrist_3_joint": 0.08790223002123243,
        "smoothness": 1.1102230298998083e-15,
        "time": 5.002253883,
        "traj_len": 1.6055778727726433,
        "weighted_distance": 2.0250611537019862
    },
    "planner": "PRMstar",
    "start": {
        "state": {
            "elbow_joint": 1.9715463870305268,
            "shoulder_lift_joint": -1.1394903361783484,
            "shoulder_pan_joint": 0.12281147578464417,
            "wrist_1_joint": -0.7804599489681411,
            "wrist_2_joint": 0.12958660307563738,
            "wrist_3_joint": -3.1924946282119055
        }
    },
    "waypoints": [
        {
            "positions": [
                0.12281147578464417,
                -1.1394903361783484,
                1.9715463870305268,
                -0.7804599489681411,
                0.12958660307563738,
                -3.1924946282119055
            ]
        },
        {
            "positions": [
                0.05708637548690057,
                -1.1727897106917606,
                2.0357776500568945,
                -0.8156095252299406,
                0.28689244262144203,
                -3.179937166780301
            ]
        },
        {
            "positions": [
                -0.008638724810843032,
                -1.2060890852051727,
                2.100008913083262,
                -0.85075910149174,
                0.44419828216724666,
                -3.1673797053486963
            ]
        },
        {
            "positions": [
                -0.07436382510858662,
                -1.239388459718585,
                2.16424017610963,
                -0.8859086777535394,
                0.6015041217130513,
                -3.1548222439170917
            ]
        },
        {
            "positions": [
                -0.14008892540633022,
                -1.2726878342319972,
                2.2284714391359977,
                -0.9210582540153389,
                0.758809961258856,
                -3.142264782485487
            ]
        },
        {
            "positions": [
                -0.20581402570407387,
                -1.3059872087454094,
                2.292702702162366,
                -0.9562078302771384,
                0.9161158008046607,
                -3.1297073210538824
            ]
        },
        {
            "positions": [
                -0.2715391260018174,
                -1.3392865832588214,
                2.3569339651887335,
                -0.9913574065389379,
                1.0734216403504653,
                -3.1171498596222778
            ]
        },
        {
            "positions": [
                -0.33726422629956104,
                -1.3725859577722337,
                2.4211652282151013,
                -1.0265069828007374,
                1.23072747989627,
                -3.104592398190673
            ]
        }
    ]
}