{
    "goal": {
        "global_pose": {
            "orientation": {
                "w": 0.5084816217422485,
                "x": -0.49083608388900757,
                "y": 0.5182115435600281,
                "z": -0.4816462993621826
            },
            "position": {
                "x": 0.5540239810943604,
                "y": 0.030875300988554955,
                "z": 0.16403168439865112
            }
        },
        "name": "move_to_storage_A"
    },
    "id": "PRMstar_move_to_storage_A_148",
    "joint_names": [
        "shoulder_pan_joint",
        "shoulder_lift_joint",
        "elbow_joint",
        "wrist_1_joint",
        "wrist_2_joint",
        "wrist_3_joint"
    ],
    "metrics": {
        "cart_traj_len": 0.3527185473161091,
        "distance_elbow_joint": 0.44959962410260523,
        "distance_shoulder_lift_joint": 0.2342457016130146,
        "distance_shoulder_pan_joint": 0.4620658321596907,
        "distance_wrist_1_joint": 0.23840581787817572,
        "distance_wrist_2_joint": 1.094722659105454,
        "distance_wrist_3_joint": 0.08734488227235637,
        "smoothness": 4.440892098500626e-16,
        "time": 5.008301831,
        "traj_len": 1.6019939191929837,
        "weighted_distance": 2.0184654464864242
    },
    "planner": "PRMstar",
    "start": {
        "state": {
            "elbow_joint": 1.9715463870305268,
            "shoulder_lift_joint": -1.1394903361783484,
            "shoulder_pan_joint": 0.12281147578464417,
            "wrist_1_joint": -0.7804599489681411,
            "wrist_2_joint": 0.12958660307563738,
            "wrist_3_joint": -3.1924946282119055
        }
    },
    "waypoints": [
        {
            "positions": [
                0.12281147578464417,
                -1.1394903361783484,
                1.9715463870305268,
                -0.7804599489681411,
                0.12958660307563738,
                -3.1924946282119055
            ]
        },
        {
            "positions": [
                0.05680207119040265,
                -1.1729540078373504,
                2.0357749047594704,
                -0.8145179229507377,
                0.28597555437641653,
                -3.180016787887283
            ]
        },
        {
            "positions": [
                -0.009207333403838877,
                -1.2064176794963526,
                2.100003422488414,
                -0.8485758969333341,
                0.44236450567719565,
                -3.1675389475626607
            ]
        },
        {
            "positions": [
                -0.07521673799808042,
                -1.2398813511553546,
                2.1642319402173578,
                -0.8826338709159307,
                0.5987534569779748,
                -3.1550611072380383
            ]
        },
        {
            "positions": [
                -0.1412261425923219,
                -1.2733450228143568,
                2.228460457946301,
                -0.9166918448985272,
                0.7551424082787539,
                -3.1425832669134164
            ]
        },
        {
            "positions": [
                -0.20723554718656345,
                -1.3068086944733588,
                2.2926889756752447,
                -0.9507498188811238,
                0.9115313595795331,
                -3.130105426588794
            ]
        },
        {
            "positions": [
                -0.273244951780805,
                -1.340272366132361,
                2.3569174934041883,
                -0.9848077928637202,
                1.0679203108803121,
                -3.1176275862641716
            ]
        },
        {
            "positions": [
                -0.33925435637504653,
                -1.373736037791363,
                2.421146011133132,
                -1.0188657668463168,
                1.2243092621810914,
                -3.105149745939549
            ]
        }
    ]
}