{
    "goal": {
        "global_pose": {
            "orientation": {
                "w": 0.5084816217422485,
                "x": -0.49083608388900757,
                "y": 0.5182115435600281,
                "z": -0.4816462993621826
            },
            "position": {
                "x": 0.5540239810943604,
                "y": 0.030875300988554955,
                "z": 0.16403168439865112
            }
        },
        "name": "move_to_storage_A"
    },
    "id": "PRMstar_move_to_storage_A_70",
    "joint_names": [
        "shoulder_pan_joint",
        "shoulder_lift_joint",
        "elbow_joint",
        "wrist_1_joint",
        "wrist_2_joint",
        "wrist_3_joint"
    ],
    "metrics": {
        "cart_traj_len": 0.35372308922200574,
        "distance_elbow_joint": 0.4497708248676968,
        "distance_shoulder_lift_joint": 0.23480760899529396,
        "distance_shoulder_pan_joint": 0.46239430937018944,
        "distance_wrist_1_joint": 0.24150502467929036,
        "distance_wrist_2_joint": 1.1008415090343329,
        "distance_wrist_3_joint": 0.08902942476811404,
        "smoothness": 1.4432899257867367e-15,
        "time": 5.004353034999999,
        "traj_len": 1.6057237314416566,
        "weighted_distance": 2.0245379929664864
    },
    "planner": "PRMstar",
    "start": {
        "state": {
            "elbow_joint": 1.9715463870305268,
            "shoulder_lift_joint": -1.1394903361783484,
            "shoulder_pan_joint": 0.12281147578464417,
            "wrist_1_joint": -0.7804599489681411,
            "wrist_2_joint": 0.12958660307563738,
            "wrist_3_joint": -3.1924946282119055
        }
    },
    "waypoints": [
        {
            "positions": [
                0.12281147578464417,
                -1.1394903361783484,
                1.9715463870305268,
                -0.7804599489681411,
                0.12958660307563738,
                -3.1924946282119055
            ]
        },
        {
            "positions": [
                0.05675514587461711,
                -1.1730342803205331,
                2.0357993620116264,
                -0.8149606667794683,
                0.2868496757948278,
                -3.1797761389593178
            ]
        },
        {
            "positions": [
                -0.009301184035409957,
                -1.2065782244627181,
                2.100052336992726,
                -0.8494613845907955,
                0.44411274851401816,
                -3.16705764970673
            ]
        },
        {
            "positions": [
                -0.07535751394543701,
                -1.2401221686049029,
                2.1643053119738256,
                -0.8839621024021227,
                0.6013758212332085,
                -3.154339160454142
            ]
        },
        {
            "positions": [
                -0.14141384385546407,
                -1.2736661127470879,
                2.2285582869549247,
                -0.9184628202134498,
                0.758638893952399,
                -3.141620671201555
            ]
        },
        {
            "positions": [
                -0.20747017376549115,
                -1.3072100568892726,
                2.2928112619360244,
                -0.9529635380247771,
                0.9159019666715895,
                -3.128902181948967
            ]
        },
        {
            "positions": [
                -0.2735265036755182,
                -1.3407540010314576,
                2.357064236917124,
                -0.9874642558361042,
                1.0731650393907797,
                -3.1161836926963793
            ]
        },
        {
            "positions": [
                -0.33958283358554525,
                -1.3742979451736423,
                2.4213172118982236,
                -1.0219649736474314,
                1.2304281121099703,
                -3.1034652034437915
            ]
        }
    ]
}