{
    "goal": {
        "global_pose": {
            "orientation": {
                "w": -0.00223480608172531,
                "x": 0.0024358444001904467,
                "y": 0.7094548369677653,
                "z": -0.704743149386269
            },
            "position": {
                "x": 0.6205249238014221,
                "y": -0.6371506643295288,
                "z": 0.19426114857196808
            }
        },
        "name": "move_to_magneteinheit_B"
    },
    "id": "PRMstar_move_to_magneteinheit_B_23",
    "joint_names": [
        "shoulder_pan_joint",
        "shoulder_lift_joint",
        "elbow_joint",
        "wrist_1_joint",
        "wrist_2_joint",
        "wrist_3_joint"
    ],
    "metrics": {
        "cart_traj_len": 1.45395998887842,
        "distance_elbow_joint": 0.7305582059022164,
        "distance_shoulder_lift_joint": 1.247942503679703,
        "distance_shoulder_pan_joint": 1.6219263457294004,
        "distance_wrist_1_joint": 2.6091120690143677,
        "distance_wrist_2_joint": 2.937594390689302,
        "distance_wrist_3_joint": 3.1292607642820376,
        "smoothness": 1.665334550124364e-16,
        "time": 5.001535933,
        "traj_len": 3.503768582440488,
        "weighted_distance": 4.907302952494861
    },
    "planner": "PRMstar",
    "start": {
        "state": {
            "elbow_joint": 2.39358713078474,
            "shoulder_lift_joint": -1.908514104345545,
            "shoulder_pan_joint": 0.7066247066606129,
            "wrist_1_joint": -0.4678290933515497,
            "wrist_2_joint": 0.7096259083745334,
            "wrist_3_joint": -3.1358149277392293
        }
    },
    "waypoints": [
        {
            "positions": [
                0.7066247066606129,
                -1.908514104345545,
                2.39358713078474,
                -0.4678290933515497,
                0.7096259083745334,
                -3.1358149277392293
            ]
        },
        {
            "positions": [
                0.6543045019596645,
                -1.8682578945494255,
                2.3700207370459587,
                -0.3836641878994733,
                0.6148647989974592,
                -3.0348710321172283
            ]
        },
        {
            "positions": [
                0.6019842972587162,
                -1.828001684753306,
                2.346454343307178,
                -0.299499282447397,
                0.5201036896203849,
                -2.933927136495227
            ]
        },
        {
            "positions": [
                0.5496640925577677,
                -1.7877454749571866,
                2.3228879495683965,
                -0.2153343769953206,
                0.4253425802433107,
                -2.832983240873226
            ]
        },
        {
            "positions": [
                0.4973438878568194,
                -1.7474892651610672,
                2.299321555829615,
                -0.1311694715432442,
                0.3305814708662364,
                -2.7320393452512244
            ]
        },
        {
            "positions": [
                0.44502368315587093,
                -1.7072330553649477,
                2.2757551620908343,
                -0.04700456609116782,
                0.23582036148916213,
                -2.6310954496292234
            ]
        },
        {
            "positions": [
                0.39270347845492254,
                -1.6669768455688283,
                2.252188768352053,
                0.03716033936090851,
                0.14105925211208792,
                -2.530151554007222
            ]
        },
        {
            "positions": [
                0.34038327375397415,
                -1.6267206357727089,
                2.2286223746132716,
                0.12132524481298496,
                0.04629814273501365,
                -2.429207658385221
            ]
        },
        {
            "positions": [
                0.28806306905302576,
                -1.5864644259765894,
                2.2050559808744907,
                0.2054901502650613,
                -0.04846296664206062,
                -2.3282637627632194
            ]
        },
        {
            "positions": [
                0.2357428643520773,
                -1.5462082161804698,
                2.1814895871357094,
                0.28965505571713773,
                -0.143224076019135,
                -2.2273198671412184
            ]
        },
        {
            "positions": [
                0.18342265965112892,
                -1.5059520063843506,
                2.1579231933969285,
                0.37381996116921407,
                -0.23798518539620916,
                -2.1263759715192174
            ]
        },
        {
            "positions": [
                0.13110245495018047,
                -1.465695796588231,
                2.134356799658147,
                0.4579848666212905,
                -0.33274629477328344,
                -2.025432075897216
            ]
        },
        {
            "positions": [
                0.07878225024923213,
                -1.4254395867921115,
                2.110790405919366,
                0.5421497720733668,
                -0.4275074041503576,
                -1.9244881802752147
            ]
        },
        {
            "positions": [
                0.026462045548283686,
                -1.385183376995992,
                2.087224012180585,
                0.6263146775254433,
                -0.522268513527432,
                -1.8235442846532135
            ]
        },
        {
            "positions": [
                -0.02585815915266465,
                -1.3449271671998726,
                2.0636576184418036,
                0.7104795829775197,
                -0.6170296229045061,
                -1.7226003890312125
            ]
        },
        {
            "positions": [
                -0.0781783638536131,
                -1.3046709574037532,
                2.0400912247030223,
                0.794644488429596,
                -0.7117907322815805,
                -1.621656493409211
            ]
        },
        {
            "positions": [
                -0.13049856855456143,
                -1.2644147476076337,
                2.0165248309642414,
                0.8788093938816723,
                -0.8065518416586547,
                -1.52071259778721
            ]
        },
        {
            "positions": [
                -0.18281877325550977,
                -1.2241585378115143,
                1.99295843722546,
                0.9629742993337487,
                -0.9013129510357288,
                -1.4197687021652088
            ]
        },
        {
            "positions": [
                -0.23513897795645833,
                -1.1839023280153946,
                1.969392043486679,
                1.0471392047858252,
                -0.9960740604128034,
                -1.3188248065432073
            ]
        },
        {
            "positions": [
                -0.28745918265740666,
                -1.1436461182192752,
                1.9458256497478978,
                1.1313041102379016,
                -1.0908351697898775,
                -1.2178809109212063
            ]
        },
        {
            "positions": [
                -0.3397793873583551,
                -1.103389908423156,
                1.9222592560091165,
                1.215469015689978,
                -1.1855962791669516,
                -1.116937015299205
            ]
        },
        {
            "positions": [
                -0.39209959205930345,
                -1.0631336986270365,
                1.8986928622703354,
                1.2996339211420542,
                -1.2803573885440258,
                -1.015993119677204
            ]
        },
        {
            "positions": [
                -0.444419796760252,
                -1.022877488830917,
                1.8751264685315543,
                1.3837988265941308,
                -1.3751184979211004,
                -0.9150492240552026
            ]
        },
        {
            "positions": [
                -0.49674000146120034,
                -0.9826212790347976,
                1.851560074792773,
                1.4679637320462071,
                -1.4698796072981746,
                -0.8141053284332016
            ]
        },
        {
            "positions": [
                -0.5490602061621487,
                -0.9423650692386781,
                1.8279936810539918,
                1.5521286374982832,
                -1.5646407166752487,
                -0.7131614328112001
            ]
        },
        {
            "positions": [
                -0.601380410863097,
                -0.9021088594425588,
                1.8044272873152107,
                1.6362935429503596,
                -1.659401826052323,
                -0.6122175371891991
            ]
        },
        {
            "positions": [
                -0.6537006155640456,
                -0.8618526496464392,
                1.7808608935764294,
                1.7204584484024363,
                -1.7541629354293975,
                -0.5112736415671977
            ]
        },
        {
            "positions": [
                -0.7060208202649939,
                -0.8215964398503197,
                1.7572944998376483,
                1.8046233538545127,
                -1.8489240448064717,
                -0.41032974594519667
            ]
        },
        {
            "positions": [
                -0.7583410249659422,
                -0.7813402300542003,
                1.7337281060988672,
                1.888788259306589,
                -1.9436851541835458,
                -0.30938585032319565
            ]
        },
        {
            "positions": [
                -0.8106612296668906,
                -0.7410840202580808,
                1.710161712360086,
                1.972953164758665,
                -2.03844626356062,
                -0.2084419547011942
            ]
        },
        {
            "positions": [
                -0.8629814343678391,
                -0.7008278104619614,
                1.6865953186213047,
                2.0571180702107417,
                -2.1332073729376946,
                -0.10749805907919274
            ]
        },
        {
            "positions": [
                -0.9153016390687875,
                -0.6605716006658419,
                1.6630289248825236,
                2.141282975662818,
                -2.2279684823147687,
                -0.006554163457191897
            ]
        }
    ]
}