{
    "goal": {
        "global_pose": {
            "orientation": {
                "w": 0.7031023502349854,
                "x": -0.7110244035720825,
                "y": 0.007748599164187908,
                "z": 0.005598929710686207
            },
            "position": {
                "x": 0.11585023208521307,
                "y": 0.44412534475326537,
                "z": 0.3711530566215515
            }
        },
        "name": "move_to_auspresseinheit_A"
    },
    "id": "PRMstar_move_to_auspresseinheit_A_127",
    "joint_names": [
        "shoulder_pan_joint",
        "shoulder_lift_joint",
        "elbow_joint",
        "wrist_1_joint",
        "wrist_2_joint",
        "wrist_3_joint"
    ],
    "metrics": {
        "cart_traj_len": 1.5082637782118353,
        "distance_elbow_joint": 0.09043546941078429,
        "distance_shoulder_lift_joint": 2.424101392979779,
        "distance_shoulder_pan_joint": 1.4460949761405648,
        "distance_wrist_1_joint": 1.147797740235677,
        "distance_wrist_2_joint": 0.730269584840637,
        "distance_wrist_3_joint": 12.613090816679607,
        "smoothness": 0.6166330443701974,
        "time": 5.068560612000001,
        "traj_len": 4.295554676672973,
        "weighted_distance": 6.749521385900081
    },
    "planner": "PRMstar",
    "start": {
        "state": {
            "elbow_joint": 2.422574709923281,
            "shoulder_lift_joint": -1.3736533754116391,
            "shoulder_pan_joint": -0.33786336945926293,
            "wrist_1_joint": -1.0288603412921917,
            "wrist_2_joint": 1.2330224858903978,
            "wrist_3_joint": -3.094022268022082
        }
    },
    "waypoints": [
        {
            "positions": [
                -0.33786336945926293,
                -1.3736533754116391,
                2.422574709923281,
                -1.0288603412921917,
                1.2330224858903978,
                -3.094022268022082
            ]
        },
        {
            "positions": [
                -0.29181686809984075,
                -1.4283926144459171,
                2.4203032623985687,
                -0.9970059338299729,
                1.2095744014828689,
                -2.8614733025805292
            ]
        },
        {
            "positions": [
                -0.24577036674041863,
                -1.4831318534801952,
                2.418031814873856,
                -0.965151526367754,
                1.1861263170753398,
                -2.6289243371389768
            ]
        },
        {
            "positions": [
                -0.19972386538099648,
                -1.5378710925144734,
                2.4157603673491437,
                -0.9332971189055352,
                1.162678232667811,
                -2.396375371697424
            ]
        },
        {
            "positions": [
                -0.15367736402157434,
                -1.5926103315487514,
                2.4134889198244314,
                -0.9014427114433163,
                1.1392301482602818,
                -2.163826406255871
            ]
        },
        {
            "positions": [
                -0.10763086266215219,
                -1.6473495705830294,
                2.4112174722997186,
                -0.8695883039810975,
                1.115782063852753,
                -1.9312774408143185
            ]
        },
        {
            "positions": [
                -0.06158436130273004,
                -1.7020888096173077,
                2.4089460247750063,
                -0.8377338965188786,
                1.092333979445224,
                -1.6987284753727658
            ]
        },
        {
            "positions": [
                -0.015537859943307919,
                -1.7568280486515857,
                2.406674577250294,
                -0.8058794890566598,
                1.068885895037695,
                -1.4661795099312132
            ]
        },
        {
            "positions": [
                0.030508641416114257,
                -1.8115672876858637,
                2.4044031297255812,
                -0.774025081594441,
                1.045437810630166,
                -1.2336305444896603
            ]
        },
        {
            "positions": [
                0.07655514277553638,
                -1.8663065267201417,
                2.402131682200869,
                -0.7421706741322222,
                1.021989726222637,
                -1.0010815790481078
            ]
        },
        {
            "positions": [
                0.12260164413495855,
                -1.9210457657544198,
                2.3998602346761566,
                -0.7103162666700034,
                0.9985416418151081,
                -0.7685326136065549
            ]
        },
        {
            "positions": [
                0.16864814549438073,
                -1.975785004788698,
                2.397588787151444,
                -0.6784618592077845,
                0.9750935574075791,
                -0.535983648165002
            ]
        },
        {
            "positions": [
                0.21469464685380285,
                -2.030524243822976,
                2.3953173396267315,
                -0.6466074517455656,
                0.9516454730000501,
                -0.30343468272344953
            ]
        },
        {
            "positions": [
                0.26074114821322497,
                -2.085263482857254,
                2.3930458921020192,
                -0.6147530442833468,
                0.9281973885925212,
                -0.07088571728189663
            ]
        },
        {
            "positions": [
                0.3067876495726471,
                -2.1400027218915323,
                2.3907744445773065,
                -0.582898636821128,
                0.9047493041849922,
                0.16166324815965583
            ]
        },
        {
            "positions": [
                0.3528341509320693,
                -2.1947419609258105,
                2.388502997052594,
                -0.5510442293589091,
                0.8813012197774632,
                0.39421221360120917
            ]
        },
        {
            "positions": [
                0.39888065229149144,
                -2.2494811999600883,
                2.386231549527882,
                -0.5191898218966903,
                0.8578531353699342,
                0.6267611790427616
            ]
        },
        {
            "positions": [
                0.4449271536509137,
                -2.3042204389943666,
                2.383960102003169,
                -0.48733541443447137,
                0.8344050509624052,
                0.8593101444843145
            ]
        },
        {
            "positions": [
                0.4909736550103357,
                -2.3589596780286444,
                2.381688654478457,
                -0.4554810069722526,
                0.8109569665548764,
                1.0918591099258665
            ]
        },
        {
            "positions": [
                0.5370201563697579,
                -2.4136989170629226,
                2.3794172069537445,
                -0.4236265995100337,
                0.7875088821473473,
                1.3244080753674203
            ]
        },
        {
            "positions": [
                0.5830666577291801,
                -2.468438156097201,
                2.3771457594290317,
                -0.3917721920478149,
                0.7640607977398184,
                1.5569570408089723
            ]
        },
        {
            "positions": [
                0.6291131590886023,
                -2.523177395131479,
                2.3748743119043194,
                -0.359917784585596,
                0.7406127133322894,
                1.7895060062505252
            ]
        },
        {
            "positions": [
                0.6751596604480243,
                -2.5779166341657564,
                2.372602864379607,
                -0.3280633771233772,
                0.7171646289247604,
                2.022054971692078
            ]
        },
        {
            "positions": [
                0.7212061618074466,
                -2.6326558732000347,
                2.3703314168548943,
                -0.2962089696611583,
                0.6937165445172314,
                2.254603937133631
            ]
        },
        {
            "positions": [
                0.7672526631668686,
                -2.687395112234313,
                2.368059969330182,
                -0.2643545621989395,
                0.6702684601097025,
                2.487152902575183
            ]
        },
        {
            "positions": [
                0.8132991645262908,
                -2.742134351268591,
                2.3657885218054697,
                -0.2325001547367206,
                0.6468203757021735,
                2.719701868016736
            ]
        },
        {
            "positions": [
                0.8593456658857128,
                -2.796873590302869,
                2.363517074280757,
                -0.2006457472745018,
                0.6233722912946446,
                2.952250833458289
            ]
        },
        {
            "positions": [
                0.905392167245135,
                -2.851612829337147,
                2.3612456267560447,
                -0.1687913398122829,
                0.5999242068871156,
                3.1847997988998418
            ]
        },
        {
            "positions": [
                0.8952501952733267,
                -2.804305732384434,
                2.3627009460682222,
                -0.1831777767500713,
                0.6047827721789834,
                2.8680863614119576
            ]
        },
        {
            "positions": [
                0.8851082233015184,
                -2.75699863543172,
                2.3641562653803994,
                -0.19756421368785973,
                0.609641337470851,
                2.5513729239240734
            ]
        },
        {
            "positions": [
                0.8749662513297101,
                -2.7096915384790066,
                2.365611584692577,
                -0.21195065062564813,
                0.6144999027627188,
                2.2346594864361893
            ]
        },
        {
            "positions": [
                0.8648242793579017,
                -2.662384441526293,
                2.367066904004754,
                -0.22633708756343654,
                0.6193584680545865,
                1.9179460489483051
            ]
        },
        {
            "positions": [
                0.8546823073860934,
                -2.6150773445735798,
                2.3685222233169316,
                -0.24072352450122497,
                0.6242170333464543,
                1.601232611460421
            ]
        },
        {
            "positions": [
                0.844540335414285,
                -2.567770247620866,
                2.369977542629109,
                -0.2551099614390134,
                0.629075598638322,
                1.2845191739725368
            ]
        },
        {
            "positions": [
                0.8343983634424766,
                -2.5204631506681525,
                2.3714328619412863,
                -0.2694963983768018,
                0.6339341639301898,
                0.9678057364846526
            ]
        },
        {
            "positions": [
                0.8242563914706683,
                -2.473156053715439,
                2.372888181253464,
                -0.2838828353145902,
                0.6387927292220574,
                0.6510922989967685
            ]
        },
        {
            "positions": [
                0.81411441949886,
                -2.4258489567627253,
                2.374343500565641,
                -0.29826927225237865,
                0.6436512945139252,
                0.3343788615088843
            ]
        },
        {
            "positions": [
                0.8039724475270517,
                -2.378541859810012,
                2.3757988198778186,
                -0.31265570919016705,
                0.648509859805793,
                0.01766542402100013
            ]
        },
        {
            "positions": [
                0.7938304755552433,
                -2.3312347628572985,
                2.377254139189996,
                -0.32704214612795546,
                0.6533684250976607,
                -0.2990480134668845
            ]
        },
        {
            "positions": [
                0.783688503583435,
                -2.283927665904585,
                2.3787094585021733,
                -0.34142858306574386,
                0.6582269903895285,
                -0.6157614509547682
            ]
        },
        {
            "positions": [
                0.7735465316116267,
                -2.2366205689518717,
                2.380164777814351,
                -0.35581502000353227,
                0.6630855556813962,
                -0.9324748884426524
            ]
        },
        {
            "positions": [
                0.7634045596398183,
                -2.189313471999158,
                2.381620097126528,
                -0.3702014569413207,
                0.6679441209732639,
                -1.2491883259305365
            ]
        },
        {
            "positions": [
                0.7532625876680099,
                -2.1420063750464444,
                2.3830754164387056,
                -0.3845878938791091,
                0.6728026862651316,
                -1.5659017634184207
            ]
        },
        {
            "positions": [
                0.7431206156962016,
                -2.0946992780937306,
                2.384530735750883,
                -0.3989743308168975,
                0.6776612515569994,
                -1.8826152009063049
            ]
        },
        {
            "positions": [
                0.7329786437243933,
                -2.047392181141017,
                2.3859860550630603,
                -0.4133607677546859,
                0.6825198168488671,
                -2.199328638394189
            ]
        },
        {
            "positions": [
                0.7228366717525849,
                -2.0000850841883038,
                2.387441374375238,
                -0.42774720469247435,
                0.6873783821407349,
                -2.516042075882073
            ]
        },
        {
            "positions": [
                0.7126946997807766,
                -1.9527779872355904,
                2.388896693687415,
                -0.44213364163026275,
                0.6922369474326026,
                -2.8327555133699573
            ]
        },
        {
            "positions": [
                0.7025527278089683,
                -1.9054708902828768,
                2.3903520129995925,
                -0.45652007856805116,
                0.6970955127244703,
                -3.149468950857841
            ]
        }
    ]
}