{
    "goal": {
        "global_pose": {
            "orientation": {
                "w": 0.7047431468963623,
                "x": -0.7094548344612122,
                "y": 0.0024358443915843964,
                "z": -0.0022348060738295317
            },
            "position": {
                "x": 0.6094750761985779,
                "y": 0.3671506643295288,
                "z": 0.19426114857196808
            }
        },
        "name": "move_to_magneteinheit_A"
    },
    "id": "PRMstar_move_to_magneteinheit_A_104",
    "joint_names": [
        "shoulder_pan_joint",
        "shoulder_lift_joint",
        "elbow_joint",
        "wrist_1_joint",
        "wrist_2_joint",
        "wrist_3_joint"
    ],
    "metrics": {
        "cart_traj_len": 2.063350107367907,
        "distance_elbow_joint": 3.8764143194336023,
        "distance_shoulder_lift_joint": 1.05496774085016,
        "distance_shoulder_pan_joint": 1.2417730107452436,
        "distance_wrist_1_joint": 1.1414915001375667,
        "distance_wrist_2_joint": 1.439834253352252,
        "distance_wrist_3_joint": 1.9088372371725,
        "smoothness": 3.4892723817896226e-16,
        "time": 5.007515557,
        "traj_len": 3.26547363512421,
        "weighted_distance": 4.130655915169665
    },
    "planner": "PRMstar",
    "start": {
        "state": {
            "elbow_joint": -1.919643507792019,
            "shoulder_lift_joint": -0.07675430207160344,
            "shoulder_pan_joint": -1.1188671864651873,
            "wrist_1_joint": 0.42560062535961957,
            "wrist_2_joint": 1.5706038300724876,
            "wrist_3_joint": 1.1188968870953055
        }
    },
    "waypoints": [
        {
            "positions": [
                -1.1188671864651873,
                -0.07675430207160344,
                -1.919643507792019,
                0.42560062535961957,
                1.5706038300724876,
                1.1188968870953055
            ]
        },
        {
            "positions": [
                -1.0728755934746228,
                -0.11582718136235011,
                -1.7760726070722561,
                0.38332316239156156,
                1.5172766355038856,
                1.1895945625461388
            ]
        },
        {
            "positions": [
                -1.0268840004840583,
                -0.15490006065309678,
                -1.632501706352493,
                0.3410456994235035,
                1.4639494409352838,
                1.260292237996972
            ]
        },
        {
            "positions": [
                -0.9808924074934936,
                -0.19397293994384346,
                -1.48893080563273,
                0.2987682364554455,
                1.4106222463666818,
                1.3309899134478056
            ]
        },
        {
            "positions": [
                -0.9349008145029291,
                -0.2330458192345901,
                -1.345359904912967,
                0.25649077348738747,
                1.35729505179808,
                1.4016875888986389
            ]
        },
        {
            "positions": [
                -0.8889092215123645,
                -0.27211869852533677,
                -1.2017890041932038,
                0.21421331051932943,
                1.303967857229478,
                1.4723852643494721
            ]
        },
        {
            "positions": [
                -0.8429176285217999,
                -0.3111915778160834,
                -1.0582181034734408,
                0.1719358475512714,
                1.2506406626608761,
                1.5430829398003056
            ]
        },
        {
            "positions": [
                -0.7969260355312353,
                -0.35026445710683013,
                -0.9146472027536778,
                0.12965838458321338,
                1.1973134680922741,
                1.613780615251139
            ]
        },
        {
            "positions": [
                -0.7509344425406708,
                -0.3893373363975768,
                -0.7710763020339149,
                0.08738092161515537,
                1.1439862735236723,
                1.6844782907019722
            ]
        },
        {
            "positions": [
                -0.7049428495501062,
                -0.42841021568832344,
                -0.6275054013141517,
                0.04510345864709736,
                1.0906590789550703,
                1.7551759661528055
            ]
        },
        {
            "positions": [
                -0.6589512565595417,
                -0.46748309497907015,
                -0.4839345005943887,
                0.002825995679039295,
                1.0373318843864685,
                1.8258736416036387
            ]
        },
        {
            "positions": [
                -0.612959663568977,
                -0.5065559742698168,
                -0.3403635998746257,
                -0.039451467289018716,
                0.9840046898178665,
                1.8965713170544722
            ]
        },
        {
            "positions": [
                -0.5669680705784125,
                -0.5456288535605635,
                -0.19679269915486253,
                -0.08172893025707678,
                0.9306774952492646,
                1.9672689925053055
            ]
        },
        {
            "positions": [
                -0.5209764775878478,
                -0.5847017328513102,
                -0.053221798435099554,
                -0.12400639322513479,
                0.8773503006806627,
                2.037966667956139
            ]
        },
        {
            "positions": [
                -0.4749848845972833,
                -0.6237746121420569,
                0.09034910228466342,
                -0.1662838561931928,
                0.8240231061120608,
                2.1086643434069723
            ]
        },
        {
            "positions": [
                -0.4289932916067186,
                -0.6628474914328035,
                0.2339200030044266,
                -0.2085613191612508,
                0.7706959115434587,
                2.1793620188578053
            ]
        },
        {
            "positions": [
                -0.3830016986161542,
                -0.7019203707235502,
                0.37749090372418936,
                -0.2508387821293088,
                0.7173687169748569,
                2.250059694308639
            ]
        },
        {
            "positions": [
                -0.33701010562558953,
                -0.7409932500142968,
                0.521061804443953,
                -0.29311624509736695,
                0.6640415224062549,
                2.3207573697594723
            ]
        },
        {
            "positions": [
                -0.291018512635025,
                -0.7800661293050435,
                0.6646327051637158,
                -0.33539370806542484,
                0.610714327837653,
                2.3914550452103054
            ]
        },
        {
            "positions": [
                -0.24502691964446033,
                -0.8191390085957901,
                0.808203605883479,
                -0.37767117103348297,
                0.557387133269051,
                2.462152720661139
            ]
        },
        {
            "positions": [
                -0.1990353266538959,
                -0.8582118878865368,
                0.9517745066032417,
                -0.419948634001541,
                0.5040599387004492,
                2.5328503961119724
            ]
        },
        {
            "positions": [
                -0.15304373366333124,
                -0.8972847671772834,
                1.095345407323005,
                -0.462226096969599,
                0.45073274413184716,
                2.6035480715628054
            ]
        },
        {
            "positions": [
                -0.1070521406727667,
                -0.9363576464680301,
                1.2389163080427676,
                -0.504503559937657,
                0.39740554956324536,
                2.6742457470136385
            ]
        },
        {
            "positions": [
                -0.06106054768220215,
                -0.9754305257587768,
                1.3824872087625308,
                -0.5467810229057151,
                0.34407835499464334,
                2.7449434224644724
            ]
        },
        {
            "positions": [
                -0.015068954691637604,
                -1.0145034050495234,
                1.526058109482294,
                -0.5890584858737731,
                0.29075116042604154,
                2.8156410979153055
            ]
        },
        {
            "positions": [
                0.030922638298927163,
                -1.0535762843402703,
                1.6696290102020572,
                -0.6313359488418311,
                0.23742396585743952,
                2.886338773366139
            ]
        },
        {
            "positions": [
                0.07691423128949171,
                -1.092649163631017,
                1.81319991092182,
                -0.6736134118098891,
                0.18409677128883772,
                2.957036448816972
            ]
        },
        {
            "positions": [
                0.12290582428005621,
                -1.1317220429217636,
                1.9567708116415832,
                -0.7158908747779472,
                0.13076957672023581,
                3.0277341242678055
            ]
        }
    ]
}