{
    "goal": {
        "global_pose": {
            "orientation": {
                "w": 0.5084816217422485,
                "x": -0.49083608388900757,
                "y": 0.5182115435600281,
                "z": -0.4816462993621826
            },
            "position": {
                "x": 0.5540239810943604,
                "y": 0.030875300988554955,
                "z": 0.16403168439865112
            }
        },
        "name": "move_to_storage_A"
    },
    "id": "PRMstar_move_to_storage_A_111",
    "joint_names": [
        "shoulder_pan_joint",
        "shoulder_lift_joint",
        "elbow_joint",
        "wrist_1_joint",
        "wrist_2_joint",
        "wrist_3_joint"
    ],
    "metrics": {
        "cart_traj_len": 0.3527139502777833,
        "distance_elbow_joint": 0.4488431643672932,
        "distance_shoulder_lift_joint": 0.23464392969084735,
        "distance_shoulder_pan_joint": 0.4615217870678879,
        "distance_wrist_1_joint": 0.24109088771495835,
        "distance_wrist_2_joint": 1.096511265457541,
        "distance_wrist_3_joint": 0.0969664143920097,
        "smoothness": 6.661338165333112e-16,
        "time": 5.013650318,
        "traj_len": 1.6061063005575122,
        "weighted_distance": 2.02758783549494
    },
    "planner": "PRMstar",
    "start": {
        "state": {
            "elbow_joint": 1.9715463870305268,
            "shoulder_lift_joint": -1.1394903361783484,
            "shoulder_pan_joint": 0.12281147578464417,
            "wrist_1_joint": -0.7804599489681411,
            "wrist_2_joint": 0.12958660307563738,
            "wrist_3_joint": -3.1924946282119055
        }
    },
    "waypoints": [
        {
            "positions": [
                0.12281147578464417,
                -1.1394903361783484,
                1.9715463870305268,
                -0.7804599489681411,
                0.12958660307563738,
                -3.1924946282119055
            ]
        },
        {
            "positions": [
                0.056879791917803055,
                -1.1730108975627551,
                2.0356668390829973,
                -0.8149015043559923,
                0.2862310695695718,
                -3.1786422832987613
            ]
        },
        {
            "positions": [
                -0.009051891949038063,
                -1.2065314589471619,
                2.099787291135468,
                -0.8493430597438435,
                0.44287553606350627,
                -3.164789938385617
            ]
        },
        {
            "positions": [
                -0.07498357581587918,
                -1.2400520203315686,
                2.1639077431879383,
                -0.8837846151316946,
                0.5995200025574406,
                -3.150937593472473
            ]
        },
        {
            "positions": [
                -0.14091525968272028,
                -1.2735725817159755,
                2.2280281952404084,
                -0.9182261705195458,
                0.7561644690513751,
                -3.1370852485593286
            ]
        },
        {
            "positions": [
                -0.20684694354956146,
                -1.3070931431003823,
                2.292148647292879,
                -0.952667725907397,
                0.9128089355453096,
                -3.1232329036461843
            ]
        },
        {
            "positions": [
                -0.2727786274164025,
                -1.340613704484789,
                2.3562690993453494,
                -0.9871092812952482,
                1.0694534020392439,
                -3.10938055873304
            ]
        },
        {
            "positions": [
                -0.3387103112832437,
                -1.3741342658691957,
                2.42038955139782,
                -1.0215508366830994,
                1.2260978685331785,
                -3.095528213819896
            ]
        }
    ]
}