{
    "goal": {
        "global_pose": {
            "orientation": {
                "w": 0.5084816217422485,
                "x": -0.49083608388900757,
                "y": 0.5182115435600281,
                "z": -0.4816462993621826
            },
            "position": {
                "x": 0.5540239810943604,
                "y": 0.030875300988554955,
                "z": 0.16403168439865112
            }
        },
        "name": "move_to_storage_A"
    },
    "id": "PRMstar_move_to_storage_A_3",
    "joint_names": [
        "shoulder_pan_joint",
        "shoulder_lift_joint",
        "elbow_joint",
        "wrist_1_joint",
        "wrist_2_joint",
        "wrist_3_joint"
    ],
    "metrics": {
        "cart_traj_len": 0.35347021168926435,
        "distance_elbow_joint": 0.45021048924892115,
        "distance_shoulder_lift_joint": 0.2360738904516766,
        "distance_shoulder_pan_joint": 0.46225137928620996,
        "distance_wrist_1_joint": 0.2374406143178448,
        "distance_wrist_2_joint": 1.1006252525194178,
        "distance_wrist_3_joint": 0.08627378375286776,
        "smoothness": 4.440892098500626e-16,
        "time": 5.001549969,
        "traj_len": 1.6040185190878995,
        "weighted_distance": 2.0207644206883533
    },
    "planner": "PRMstar",
    "start": {
        "state": {
            "elbow_joint": 1.9715463870305268,
            "shoulder_lift_joint": -1.1394903361783484,
            "shoulder_pan_joint": 0.12281147578464417,
            "wrist_1_joint": -0.7804599489681411,
            "wrist_2_joint": 0.12958660307563738,
            "wrist_3_joint": -3.1924946282119055
        }
    },
    "waypoints": [
        {
            "positions": [
                0.12281147578464417,
                -1.1394903361783484,
                1.9715463870305268,
                -0.7804599489681411,
                0.12958660307563738,
                -3.1924946282119055
            ]
        },
        {
            "positions": [
                0.05677556445804276,
                -1.173215177671445,
                2.035862171208944,
                -0.8143800367278332,
                0.28681878200698274,
                -3.1801698019614957
            ]
        },
        {
            "positions": [
                -0.009260346868558658,
                -1.2069400191645416,
                2.100177955387361,
                -0.8483001244875253,
                0.4440509609383282,
                -3.1678449757110863
            ]
        },
        {
            "positions": [
                -0.07529625819516007,
                -1.2406648606576383,
                2.1644937395657786,
                -0.8822202122472174,
                0.6012831398696735,
                -3.1555201494606764
            ]
        },
        {
            "positions": [
                -0.14133216952176147,
                -1.274389702150735,
                2.228809523744196,
                -0.9161403000069095,
                0.758515318801019,
                -3.143195323210267
            ]
        },
        {
            "positions": [
                -0.20736808084836295,
                -1.3081145436438317,
                2.2931253079226135,
                -0.9500603877666016,
                0.9157474977323644,
                -3.130870496959857
            ]
        },
        {
            "positions": [
                -0.2734039921749643,
                -1.3418393851369284,
                2.3574410921010305,
                -0.9839804755262938,
                1.0729796766637096,
                -3.1185456707094477
            ]
        },
        {
            "positions": [
                -0.3394399035015658,
                -1.375564226630025,
                2.421756876279448,
                -1.0179005632859859,
                1.2302118555950552,
                -3.106220844459038
            ]
        }
    ]
}