{
    "goal": {
        "global_pose": {
            "orientation": {
                "w": 0.5084816217422485,
                "x": -0.49083608388900757,
                "y": 0.5182115435600281,
                "z": -0.4816462993621826
            },
            "position": {
                "x": 0.5540239810943604,
                "y": 0.030875300988554955,
                "z": 0.16403168439865112
            }
        },
        "name": "move_to_storage_A"
    },
    "id": "PRMstar_move_to_storage_A_25",
    "joint_names": [
        "shoulder_pan_joint",
        "shoulder_lift_joint",
        "elbow_joint",
        "wrist_1_joint",
        "wrist_2_joint",
        "wrist_3_joint"
    ],
    "metrics": {
        "cart_traj_len": 0.35240925850221766,
        "distance_elbow_joint": 0.44995712222218653,
        "distance_shoulder_lift_joint": 0.2353365255096722,
        "distance_shoulder_pan_joint": 0.46037220355203234,
        "distance_wrist_1_joint": 0.2377156760317588,
        "distance_wrist_2_joint": 1.1003380743577114,
        "distance_wrist_3_joint": 0.0887514259692126,
        "smoothness": 1.665334528953551e-15,
        "time": 5.006836698,
        "traj_len": 1.6038924613709529,
        "weighted_distance": 2.02188714570583
    },
    "planner": "PRMstar",
    "start": {
        "state": {
            "elbow_joint": 1.9715463870305268,
            "shoulder_lift_joint": -1.1394903361783484,
            "shoulder_pan_joint": 0.12281147578464417,
            "wrist_1_joint": -0.7804599489681411,
            "wrist_2_joint": 0.12958660307563738,
            "wrist_3_joint": -3.1924946282119055
        }
    },
    "waypoints": [
        {
            "positions": [
                0.12281147578464417,
                -1.1394903361783484,
                1.9715463870305268,
                -0.7804599489681411,
                0.12958660307563738,
                -3.1924946282119055
            ]
        },
        {
            "positions": [
                0.057044018134353836,
                -1.1731098398225872,
                2.0358259759194106,
                -0.8144193312583924,
                0.28677775655531046,
                -3.1798158530734466
            ]
        },
        {
            "positions": [
                -0.008723439515936501,
                -1.2067293434668263,
                2.1001055648082945,
                -0.8483787135486436,
                0.4439689100349835,
                -3.1671370779349877
            ]
        },
        {
            "positions": [
                -0.07449089716622682,
                -1.240348847111065,
                2.1643851536971783,
                -0.8823380958388949,
                0.6011600635146566,
                -3.1544583027965287
            ]
        },
        {
            "positions": [
                -0.14025835481651716,
                -1.273968350755304,
                2.2286647425860617,
                -0.9162974781291461,
                0.7583512169943296,
                -3.14177952765807
            ]
        },
        {
            "positions": [
                -0.2060258124668075,
                -1.307587854399543,
                2.2929443314749456,
                -0.9502568604193974,
                0.9155423704740027,
                -3.129100752519611
            ]
        },
        {
            "positions": [
                -0.2717932701170978,
                -1.3412073580437818,
                2.3572239203638294,
                -0.9842162427096486,
                1.0727335239536757,
                -3.116421977381152
            ]
        },
        {
            "positions": [
                -0.33756072776738816,
                -1.3748268616880206,
                2.4215035092527133,
                -1.0181756249998999,
                1.2299246774333488,
                -3.103743202242693
            ]
        }
    ]
}