{
    "goal": {
        "global_pose": {
            "orientation": {
                "w": -0.00223480608172531,
                "x": 0.0024358444001904467,
                "y": 0.7094548369677653,
                "z": -0.704743149386269
            },
            "position": {
                "x": 0.6205249238014221,
                "y": -0.6371506643295288,
                "z": 0.19426114857196808
            }
        },
        "name": "move_to_magneteinheit_B"
    },
    "id": "PRMstar_move_to_magneteinheit_B_91",
    "joint_names": [
        "shoulder_pan_joint",
        "shoulder_lift_joint",
        "elbow_joint",
        "wrist_1_joint",
        "wrist_2_joint",
        "wrist_3_joint"
    ],
    "metrics": {
        "cart_traj_len": 1.4537002355418172,
        "distance_elbow_joint": 0.7330071843133792,
        "distance_shoulder_lift_joint": 1.2506020522664625,
        "distance_shoulder_pan_joint": 1.62104387312261,
        "distance_wrist_1_joint": 2.6026025554374033,
        "distance_wrist_2_joint": 2.9416501474955625,
        "distance_wrist_3_joint": 3.135064330550418,
        "smoothness": 2.960594733002109e-16,
        "time": 5.003620896,
        "traj_len": 3.5048495179088412,
        "weighted_distance": 4.909007181418625
    },
    "planner": "PRMstar",
    "start": {
        "state": {
            "elbow_joint": 2.39358713078474,
            "shoulder_lift_joint": -1.908514104345545,
            "shoulder_pan_joint": 0.7066247066606129,
            "wrist_1_joint": -0.4678290933515497,
            "wrist_2_joint": 0.7096259083745334,
            "wrist_3_joint": -3.1358149277392293
        }
    },
    "waypoints": [
        {
            "positions": [
                0.7066247066606129,
                -1.908514104345545,
                2.39358713078474,
                -0.4678290933515497,
                0.7096259083745334,
                -3.1358149277392293
            ]
        },
        {
            "positions": [
                0.6559670856255314,
                -1.8694327902122179,
                2.370680656274947,
                -0.38649776349413084,
                0.6176993412652971,
                -3.0378441674095287
            ]
        },
        {
            "positions": [
                0.6053094645904498,
                -1.830351476078891,
                2.347774181765154,
                -0.30516643363671203,
                0.5257727741560607,
                -2.939873407079828
            ]
        },
        {
            "positions": [
                0.5546518435553682,
                -1.791270161945564,
                2.3248677072553607,
                -0.22383510377929317,
                0.4338462070468244,
                -2.8419026467501274
            ]
        },
        {
            "positions": [
                0.5039942225202867,
                -1.7521888478122372,
                2.3019612327455676,
                -0.1425037739218743,
                0.3419196399375881,
                -2.743931886420427
            ]
        },
        {
            "positions": [
                0.45333660148520516,
                -1.71310753367891,
                2.2790547582357745,
                -0.061172444064455433,
                0.24999307282835181,
                -2.6459611260907265
            ]
        },
        {
            "positions": [
                0.40267898045012357,
                -1.6740262195455833,
                2.2561482837259814,
                0.020158885792963377,
                0.1580665057191154,
                -2.547990365761026
            ]
        },
        {
            "positions": [
                0.352021359415042,
                -1.6349449054122562,
                2.2332418092161883,
                0.10149021565038224,
                0.0661399386098791,
                -2.4500196054313252
            ]
        },
        {
            "positions": [
                0.30136373837996044,
                -1.5958635912789294,
                2.210335334706395,
                0.1828215455078011,
                -0.0257866284993572,
                -2.352048845101625
            ]
        },
        {
            "positions": [
                0.2507061173448789,
                -1.5567822771456024,
                2.187428860196602,
                0.26415287536522,
                -0.1177131956085935,
                -2.2540780847719244
            ]
        },
        {
            "positions": [
                0.20004849630979737,
                -1.5177009630122753,
                2.164522385686809,
                0.34548420522263884,
                -0.2096397627178298,
                -2.1561073244422237
            ]
        },
        {
            "positions": [
                0.14939087527471573,
                -1.4786196488789485,
                2.141615911177016,
                0.4268155350800577,
                -0.3015663298270662,
                -2.058136564112523
            ]
        },
        {
            "positions": [
                0.0987332542396342,
                -1.4395383347456214,
                2.118709436667223,
                0.5081468649374765,
                -0.3934928969363026,
                -1.9601658037828225
            ]
        },
        {
            "positions": [
                0.04807563320455266,
                -1.4004570206122944,
                2.0958029621574297,
                0.5894781947948955,
                -0.4854194640455388,
                -1.862195043453122
            ]
        },
        {
            "positions": [
                -0.0025819878305289867,
                -1.3613757064789676,
                2.0728964876476366,
                0.6708095246523142,
                -0.5773460311547752,
                -1.7642242831234214
            ]
        },
        {
            "positions": [
                -0.05323960886561052,
                -1.3222943923456407,
                2.0499900131378435,
                0.7521408545097332,
                -0.6692725982640114,
                -1.666253522793721
            ]
        },
        {
            "positions": [
                -0.10389722990069206,
                -1.2832130782123137,
                2.0270835386280504,
                0.833472184367152,
                -0.7611991653732478,
                -1.5682827624640203
            ]
        },
        {
            "positions": [
                -0.1545548509357736,
                -1.2441317640789866,
                2.0041770641182572,
                0.9148035142245707,
                -0.8531257324824842,
                -1.4703120021343197
            ]
        },
        {
            "positions": [
                -0.20521247197085513,
                -1.2050504499456598,
                1.9812705896084641,
                0.9961348440819897,
                -0.9450522995917204,
                -1.3723412418046192
            ]
        },
        {
            "positions": [
                -0.25587009300593677,
                -1.165969135812333,
                1.958364115098671,
                1.0774661739394085,
                -1.0369788667009567,
                -1.2743704814749186
            ]
        },
        {
            "positions": [
                -0.3065277140410182,
                -1.126887821679006,
                1.935457640588878,
                1.1587975037968274,
                -1.1289054338101931,
                -1.1763997211452182
            ]
        },
        {
            "positions": [
                -0.35718533507609995,
                -1.0878065075456789,
                1.912551166079085,
                1.2401288336542462,
                -1.2208320009194296,
                -1.0784289608155175
            ]
        },
        {
            "positions": [
                -0.4078429561111815,
                -1.048725193412352,
                1.8896446915692917,
                1.3214601635116652,
                -1.312758568028666,
                -0.9804582004858169
            ]
        },
        {
            "positions": [
                -0.458500577146263,
                -1.009643879279025,
                1.8667382170594986,
                1.402791493369084,
                -1.4046851351379024,
                -0.8824874401561162
            ]
        },
        {
            "positions": [
                -0.5091581981813446,
                -0.970562565145698,
                1.8438317425497057,
                1.4841228232265027,
                -1.4966117022471388,
                -0.7845166798264156
            ]
        },
        {
            "positions": [
                -0.5598158192164261,
                -0.9314812510123711,
                1.8209252680399126,
                1.5654541530839214,
                -1.5885382693563748,
                -0.6865459194967154
            ]
        },
        {
            "positions": [
                -0.6104734402515076,
                -0.8923999368790441,
                1.7980187935301195,
                1.6467854829413406,
                -1.6804648364656112,
                -0.5885751591670147
            ]
        },
        {
            "positions": [
                -0.6611310612865892,
                -0.8533186227457172,
                1.7751123190203264,
                1.7281168127987594,
                -1.7723914035748476,
                -0.4906043988373141
            ]
        },
        {
            "positions": [
                -0.7117886823216709,
                -0.8142373086123902,
                1.7522058445105333,
                1.8094481426561781,
                -1.864317970684084,
                -0.39263363850761346
            ]
        },
        {
            "positions": [
                -0.7624463033567525,
                -0.7751559944790634,
                1.7292993700007402,
                1.890779472513597,
                -1.9562445377933204,
                -0.2946628781779128
            ]
        },
        {
            "positions": [
                -0.813103924391834,
                -0.7360746803457363,
                1.706392895490947,
                1.972110802371016,
                -2.0481711049025564,
                -0.1966921178482126
            ]
        },
        {
            "positions": [
                -0.8637615454269155,
                -0.6969933662124095,
                1.683486420981154,
                2.053442132228435,
                -2.140097672011793,
                -0.09872135751851197
            ]
        },
        {
            "positions": [
                -0.9144191664619971,
                -0.6579120520790823,
                1.6605799464713609,
                2.1347734620858536,
                -2.232024239121029,
                -0.0007505971888114542
            ]
        }
    ]
}