{
    "goal": {
        "global_pose": {
            "orientation": {
                "w": 0.7031023502349854,
                "x": -0.7110244035720825,
                "y": 0.007748599164187908,
                "z": 0.005598929710686207
            },
            "position": {
                "x": 0.11585023208521307,
                "y": 0.44412534475326537,
                "z": 0.3711530566215515
            }
        },
        "name": "move_to_auspresseinheit_A"
    },
    "id": "PRMstar_move_to_auspresseinheit_A_63",
    "joint_names": [
        "shoulder_pan_joint",
        "shoulder_lift_joint",
        "elbow_joint",
        "wrist_1_joint",
        "wrist_2_joint",
        "wrist_3_joint"
    ],
    "metrics": {
        "cart_traj_len": 1.555836185544644,
        "distance_elbow_joint": 0.09287973675411676,
        "distance_shoulder_lift_joint": 0.9218265199710873,
        "distance_shoulder_pan_joint": 1.8375769175679513,
        "distance_wrist_1_joint": 7.3632786880908245,
        "distance_wrist_2_joint": 4.301387759271841,
        "distance_wrist_3_joint": 1.4151642483671818,
        "smoothness": 0.7591357814989659,
        "time": 5.1285421,
        "traj_len": 3.9915052135783315,
        "weighted_distance": 5.5160773031312775
    },
    "planner": "PRMstar",
    "start": {
        "state": {
            "elbow_joint": 2.422574709923281,
            "shoulder_lift_joint": -1.3736533754116391,
            "shoulder_pan_joint": -0.33786336945926293,
            "wrist_1_joint": -1.0288603412921917,
            "wrist_2_joint": 1.2330224858903978,
            "wrist_3_joint": -3.094022268022082
        }
    },
    "waypoints": [
        {
            "positions": [
                -0.33786336945926293,
                -1.3736533754116391,
                2.422574709923281,
                -1.0288603412921917,
                1.2330224858903978,
                -3.094022268022082
            ]
        },
        {
            "positions": [
                -0.3568281619040477,
                -1.408268218715228,
                2.419638160072593,
                -0.8400073608419804,
                1.1178397588101294,
                -3.0615434624746776
            ]
        },
        {
            "positions": [
                -0.3757929543488324,
                -1.442883062018817,
                2.4167016102219048,
                -0.651154380391769,
                1.0026570317298613,
                -3.0290646569272726
            ]
        },
        {
            "positions": [
                -0.3947577467936172,
                -1.477497905322406,
                2.4137650603712166,
                -0.4623013999415576,
                0.887474304649593,
                -2.996585851379868
            ]
        },
        {
            "positions": [
                -0.4137225392384019,
                -1.5121127486259949,
                2.410828510520529,
                -0.27344841949134624,
                0.7722915775693246,
                -2.9641070458324634
            ]
        },
        {
            "positions": [
                -0.4326873316831867,
                -1.546727591929584,
                2.407891960669841,
                -0.08459543904113487,
                0.6571088504890564,
                -2.931628240285059
            ]
        },
        {
            "positions": [
                -0.4516521241279714,
                -1.5813424352331729,
                2.4049554108191527,
                0.1042575414090765,
                0.5419261234087882,
                -2.899149434737654
            ]
        },
        {
            "positions": [
                -0.47061691657275617,
                -1.6159572785367617,
                2.4020188609684645,
                0.29311052185928776,
                0.4267433963285199,
                -2.8666706291902493
            ]
        },
        {
            "positions": [
                -0.48958170901754094,
                -1.6505721218403506,
                2.3990823111177764,
                0.48196350230949925,
                0.31156066924825165,
                -2.8341918236428447
            ]
        },
        {
            "positions": [
                -0.5085465014623256,
                -1.6851869651439397,
                2.3961457612670882,
                0.6708164827597105,
                0.19637794216798343,
                -2.80171301809544
            ]
        },
        {
            "positions": [
                -0.5275112939071104,
                -1.7198018084475286,
                2.3932092114164,
                0.859669463209922,
                0.0811952150877151,
                -2.769234212548035
            ]
        },
        {
            "positions": [
                -0.5464760863518952,
                -1.7544166517511177,
                2.3902726615657124,
                1.0485224436601337,
                -0.03398751199255323,
                -2.7367554070006306
            ]
        },
        {
            "positions": [
                -0.5654408787966799,
                -1.7890314950547066,
                2.3873361117150242,
                1.2373754241103447,
                -0.14917023907282134,
                -2.704276601453226
            ]
        },
        {
            "positions": [
                -0.5844056712414647,
                -1.8236463383582957,
                2.384399561864336,
                1.4262284045605562,
                -0.2643529661530899,
                -2.671797795905821
            ]
        },
        {
            "positions": [
                -0.6033704636862494,
                -1.8582611816618844,
                2.381463012013648,
                1.6150813850107673,
                -0.379535693233358,
                -2.6393189903584164
            ]
        },
        {
            "positions": [
                -0.6223352561310342,
                -1.8928760249654735,
                2.37852646216296,
                1.8039343654609792,
                -0.49471842031362634,
                -2.606840184811012
            ]
        },
        {
            "positions": [
                -0.6413000485758189,
                -1.9274908682690624,
                2.3755899123122717,
                1.9927873459111902,
                -0.6099011473938944,
                -2.574361379263607
            ]
        },
        {
            "positions": [
                -0.6602648410206037,
                -1.9621057115726512,
                2.3726533624615835,
                2.1816403263614017,
                -0.7250838744741628,
                -2.5418825737162023
            ]
        },
        {
            "positions": [
                -0.6792296334653884,
                -1.9967205548762403,
                2.369716812610896,
                2.3704933068116127,
                -0.8402666015544309,
                -2.5094037681687977
            ]
        },
        {
            "positions": [
                -0.6981944259101731,
                -2.0313353981798294,
                2.3667802627602077,
                2.5593462872618247,
                -0.9554493286346992,
                -2.4769249626213927
            ]
        },
        {
            "positions": [
                -0.7171592183549579,
                -2.065950241483418,
                2.3638437129095196,
                2.7481992677120357,
                -1.0706320557149676,
                -2.444446157073988
            ]
        },
        {
            "positions": [
                -0.7361240107997427,
                -2.100565084787007,
                2.3609071630588314,
                2.937052248162247,
                -1.1858147827952359,
                -2.4119673515265836
            ]
        },
        {
            "positions": [
                -0.6641581969883691,
                -2.090819344257221,
                2.3624677725533147,
                2.767183943230428,
                -1.0916872582659256,
                -2.448622818120168
            ]
        },
        {
            "positions": [
                -0.5921923831769955,
                -2.081073603727435,
                2.364028382047798,
                2.5973156382986087,
                -0.9975597337366152,
                -2.485278284713752
            ]
        },
        {
            "positions": [
                -0.5202265693656218,
                -2.0713278631976495,
                2.3655889915422814,
                2.4274473333667896,
                -0.9034322092073048,
                -2.521933751307336
            ]
        },
        {
            "positions": [
                -0.44826075555424827,
                -2.0615821226678634,
                2.3671496010367648,
                2.25757902843497,
                -0.8093046846779945,
                -2.5585892179009204
            ]
        },
        {
            "positions": [
                -0.3762949417428747,
                -2.0518363821380774,
                2.368710210531248,
                2.087710723503151,
                -0.7151771601486842,
                -2.5952446844945043
            ]
        },
        {
            "positions": [
                -0.30432912793150113,
                -2.0420906416082913,
                2.3702708200257314,
                1.9178424185713319,
                -0.6210496356193739,
                -2.6319001510880886
            ]
        },
        {
            "positions": [
                -0.23236331412012756,
                -2.0323449010785053,
                2.3718314295202148,
                1.7479741136395126,
                -0.5269221110900635,
                -2.6685556176816725
            ]
        },
        {
            "positions": [
                -0.16039750030875388,
                -2.0225991605487197,
                2.373392039014698,
                1.5781058087076931,
                -0.4327945865607531,
                -2.705211084275257
            ]
        },
        {
            "positions": [
                -0.08843168649738031,
                -2.0128534200189336,
                2.3749526485091814,
                1.408237503775874,
                -0.3386670620314427,
                -2.741866550868841
            ]
        },
        {
            "positions": [
                -0.016465872686006744,
                -2.0031076794891476,
                2.3765132580036648,
                1.2383691988440548,
                -0.24453953750213242,
                -2.778522017462425
            ]
        },
        {
            "positions": [
                0.055499941125366936,
                -1.9933619389593615,
                2.3780738674981485,
                1.0685008939122353,
                -0.15041201297282192,
                -2.8151774840560093
            ]
        },
        {
            "positions": [
                0.1274657549367404,
                -1.9836161984295757,
                2.379634476992632,
                0.8986325889804165,
                -0.05628448844351186,
                -2.8518329506495936
            ]
        },
        {
            "positions": [
                0.19943156874811407,
                -1.9738704578997897,
                2.381195086487115,
                0.728764284048597,
                0.03784303608579864,
                -2.8884884172431775
            ]
        },
        {
            "positions": [
                0.27139738255948753,
                -1.9641247173700038,
                2.3827556959815985,
                0.558895979116778,
                0.13197056061510892,
                -2.925143883836762
            ]
        },
        {
            "positions": [
                0.3433631963708612,
                -1.9543789768402178,
                2.384316305476082,
                0.38902767418495854,
                0.22609808514441943,
                -2.961799350430346
            ]
        },
        {
            "positions": [
                0.4153290101822349,
                -1.9446332363104317,
                2.385876914970565,
                0.21915936925313906,
                0.3202256096737297,
                -2.99845481702393
            ]
        },
        {
            "positions": [
                0.48729482399360835,
                -1.934887495780646,
                2.3874375244650485,
                0.049291064321320466,
                0.41435313420304,
                -3.0351102836175143
            ]
        },
        {
            "positions": [
                0.559260637804982,
                -1.9251417552508598,
                2.388998133959532,
                -0.12057724061049901,
                0.5084806587323505,
                -3.0717657502110987
            ]
        },
        {
            "positions": [
                0.6312264516163555,
                -1.915396014721074,
                2.390558743454015,
                -0.29044554554231805,
                0.6026081832616605,
                -3.1084212168046825
            ]
        },
        {
            "positions": [
                0.7031922654277293,
                -1.905650274191288,
                2.3921193529484985,
                -0.46031385047413764,
                0.6967357077909712,
                -3.145076683398267
            ]
        }
    ]
}