{
    "goal": {
        "global_pose": {
            "orientation": {
                "w": 0.7047431468963623,
                "x": -0.7094548344612122,
                "y": 0.0024358443915843964,
                "z": -0.0022348060738295317
            },
            "position": {
                "x": 0.6094750761985779,
                "y": 0.3671506643295288,
                "z": 0.19426114857196808
            }
        },
        "name": "move_to_magneteinheit_A"
    },
    "id": "PRMstar_move_to_magneteinheit_A_10",
    "joint_names": [
        "shoulder_pan_joint",
        "shoulder_lift_joint",
        "elbow_joint",
        "wrist_1_joint",
        "wrist_2_joint",
        "wrist_3_joint"
    ],
    "metrics": {
        "cart_traj_len": 2.068705754009376,
        "distance_elbow_joint": 3.8967251617118475,
        "distance_shoulder_lift_joint": 1.066612019529925,
        "distance_shoulder_pan_joint": 1.2422537278208363,
        "distance_wrist_1_joint": 1.2342008801718394,
        "distance_wrist_2_joint": 1.4439369281220387,
        "distance_wrist_3_joint": 1.9945552669736117,
        "smoothness": 1.8376105380682637e-16,
        "time": 5.008473029,
        "traj_len": 3.2982243684034143,
        "weighted_distance": 4.188738751291515
    },
    "planner": "PRMstar",
    "start": {
        "state": {
            "elbow_joint": -1.919643507792019,
            "shoulder_lift_joint": -0.07675430207160344,
            "shoulder_pan_joint": -1.1188671864651873,
            "wrist_1_joint": 0.42560062535961957,
            "wrist_2_joint": 1.5706038300724876,
            "wrist_3_joint": 1.1188968870953055
        }
    },
    "waypoints": [
        {
            "positions": [
                -1.1188671864651873,
                -0.07675430207160344,
                -1.919643507792019,
                0.42560062535961957,
                1.5706038300724876,
                1.1188968870953055
            ]
        },
        {
            "positions": [
                -1.0745009819001574,
                -0.11484758848338647,
                -1.780474752016596,
                0.3815220224963396,
                1.519034654068129,
                1.1901310037729345
            ]
        },
        {
            "positions": [
                -1.0301347773351277,
                -0.1529408748951695,
                -1.641305996241173,
                0.3374434196330596,
                1.4674654780637706,
                1.2613651204505636
            ]
        },
        {
            "positions": [
                -0.9857685727700978,
                -0.19103416130695253,
                -1.5021372404657498,
                0.29336481676977966,
                1.415896302059412,
                1.3325992371281925
            ]
        },
        {
            "positions": [
                -0.9414023682050678,
                -0.22912744771873556,
                -1.3629684846903265,
                0.2492862139064997,
                1.3643271260550536,
                1.4038333538058214
            ]
        },
        {
            "positions": [
                -0.897036163640038,
                -0.2672207341305186,
                -1.2237997289149034,
                0.20520761104321972,
                1.312757950050695,
                1.4750674704834505
            ]
        },
        {
            "positions": [
                -0.8526699590750082,
                -0.3053140205423016,
                -1.0846309731394803,
                0.16112900817993975,
                1.2611887740463366,
                1.5463015871610795
            ]
        },
        {
            "positions": [
                -0.8083037545099783,
                -0.34340730695408467,
                -0.9454622173640572,
                0.11705040531665978,
                1.209619598041978,
                1.6175357038387084
            ]
        },
        {
            "positions": [
                -0.7639375499449483,
                -0.38150059336586767,
                -0.8062934615886341,
                0.07297180245337981,
                1.1580504220376193,
                1.6887698205163373
            ]
        },
        {
            "positions": [
                -0.7195713453799185,
                -0.4195938797776508,
                -0.6671247058132108,
                0.028893199590099783,
                1.106481246033261,
                1.7600039371939666
            ]
        },
        {
            "positions": [
                -0.6752051408148887,
                -0.4576871661894338,
                -0.5279559500377877,
                -0.015185403273180131,
                1.0549120700289023,
                1.8312380538715956
            ]
        },
        {
            "positions": [
                -0.6308389362498588,
                -0.4957804526012168,
                -0.38878719426236485,
                -0.0592640061364601,
                1.003342894024544,
                1.9024721705492245
            ]
        },
        {
            "positions": [
                -0.5864727316848289,
                -0.5338737390129997,
                -0.24961843848694176,
                -0.10334260899974007,
                0.9517737180201854,
                1.9737062872268534
            ]
        },
        {
            "positions": [
                -0.542106527119799,
                -0.5719670254247828,
                -0.11044968271151845,
                -0.1474212118630201,
                0.9002045420158268,
                2.0449404039044827
            ]
        },
        {
            "positions": [
                -0.4977403225547692,
                -0.610060311836566,
                0.028719073063904643,
                -0.1914998147263,
                0.8486353660114683,
                2.1161745205821116
            ]
        },
        {
            "positions": [
                -0.45337411798973937,
                -0.6481535982483488,
                0.1678878288393275,
                -0.23557841758957992,
                0.7970661900071098,
                2.1874086372597406
            ]
        },
        {
            "positions": [
                -0.40900791342470944,
                -0.686246884660132,
                0.3070565846147508,
                -0.27965702045285995,
                0.7454970140027513,
                2.2586427539373695
            ]
        },
        {
            "positions": [
                -0.3646417088596796,
                -0.7243401710719148,
                0.4462253403901737,
                -0.32373562331613986,
                0.6939278379983927,
                2.3298768706149984
            ]
        },
        {
            "positions": [
                -0.3202755042946497,
                -0.7624334574836982,
                0.5853940961655975,
                -0.36781422617942,
                0.6423586619940341,
                2.4011109872926273
            ]
        },
        {
            "positions": [
                -0.27590929972961986,
                -0.8005267438954811,
                0.7245628519410203,
                -0.4118928290426999,
                0.5907894859896756,
                2.472345103970256
            ]
        },
        {
            "positions": [
                -0.23154309516458993,
                -0.8386200303072642,
                0.8637316077164436,
                -0.45597143190597983,
                0.539220309985317,
                2.543579220647885
            ]
        },
        {
            "positions": [
                -0.1871768905995601,
                -0.8767133167190471,
                1.0029003634918665,
                -0.5000500347692598,
                0.4876511339809586,
                2.6148133373255145
            ]
        },
        {
            "positions": [
                -0.1428106860345303,
                -0.9148066031308302,
                1.1420691192672894,
                -0.5441286376325398,
                0.4360819579766002,
                2.6860474540031434
            ]
        },
        {
            "positions": [
                -0.09844448146950047,
                -0.9528998895426131,
                1.2812378750427127,
                -0.5882072404958196,
                0.3845127819722416,
                2.7572815706807723
            ]
        },
        {
            "positions": [
                -0.054078276904470535,
                -0.9909931759543962,
                1.4204066308181356,
                -0.6322858433590997,
                0.3329436059678832,
                2.828515687358401
            ]
        },
        {
            "positions": [
                -0.009712072339440603,
                -1.0290864623661793,
                1.5595753865935593,
                -0.6763644462223797,
                0.28137442996352435,
                2.8997498040360306
            ]
        },
        {
            "positions": [
                0.03465413222558933,
                -1.0671797487779624,
                1.6987441423689822,
                -0.7204430490856597,
                0.22980525395916596,
                2.9709839207136595
            ]
        },
        {
            "positions": [
                0.07902033679061904,
                -1.1052730351897453,
                1.8379128981444055,
                -0.7645216519489395,
                0.17823607795480734,
                3.0422180373912884
            ]
        },
        {
            "positions": [
                0.12338654135564903,
                -1.1433663216015284,
                1.9770816539198282,
                -0.8086002548122196,
                0.12666690195044902,
                3.1134521540689173
            ]
        }
    ]
}