{
    "goal": {
        "global_pose": {
            "orientation": {
                "w": -0.00223480608172531,
                "x": 0.0024358444001904467,
                "y": 0.7094548369677653,
                "z": -0.704743149386269
            },
            "position": {
                "x": 0.6205249238014221,
                "y": -0.6371506643295288,
                "z": 0.19426114857196808
            }
        },
        "name": "move_to_magneteinheit_B"
    },
    "id": "PRMstar_move_to_magneteinheit_B_48",
    "joint_names": [
        "shoulder_pan_joint",
        "shoulder_lift_joint",
        "elbow_joint",
        "wrist_1_joint",
        "wrist_2_joint",
        "wrist_3_joint"
    ],
    "metrics": {
        "cart_traj_len": 3.7186684190162143,
        "distance_elbow_joint": 6.145784705669172,
        "distance_shoulder_lift_joint": 5.175533965367634,
        "distance_shoulder_pan_joint": 5.591166303909175,
        "distance_wrist_1_joint": 6.595275130121524,
        "distance_wrist_2_joint": 3.458131640845048,
        "distance_wrist_3_joint": 7.644187123950559,
        "smoothness": 0.39985875244375324,
        "time": 5.236594245,
        "traj_len": 5.8830331352001695,
        "weighted_distance": 7.7428586380438915
    },
    "planner": "PRMstar",
    "start": {
        "state": {
            "elbow_joint": 2.39358713078474,
            "shoulder_lift_joint": -1.908514104345545,
            "shoulder_pan_joint": 0.7066247066606129,
            "wrist_1_joint": -0.4678290933515497,
            "wrist_2_joint": 0.7096259083745334,
            "wrist_3_joint": -3.1358149277392293
        }
    },
    "waypoints": [
        {
            "positions": [
                0.7066247066606129,
                -1.908514104345545,
                2.39358713078474,
                -0.4678290933515497,
                0.7096259083745334,
                -3.1358149277392293
            ]
        },
        {
            "positions": [
                0.6482833482879087,
                -1.9451472672436825,
                2.3850521092364563,
                -0.5459856035995784,
                0.6048517667901666,
                -3.0435562374334926
            ]
        },
        {
            "positions": [
                0.5899419899152043,
                -1.98178043014182,
                2.3765170876881725,
                -0.6241421138476071,
                0.5000776252057999,
                -2.9512975471277563
            ]
        },
        {
            "positions": [
                0.5316006315425,
                -2.018413593039958,
                2.367982066139889,
                -0.7022986240956357,
                0.39530348362143314,
                -2.8590388568220195
            ]
        },
        {
            "positions": [
                0.47325927316979577,
                -2.055046755938095,
                2.3594470445916054,
                -0.7804551343436645,
                0.2905293420370663,
                -2.766780166516283
            ]
        },
        {
            "positions": [
                0.41491791479709145,
                -2.091679918836233,
                2.3509120230433216,
                -0.8586116445916931,
                0.18575520045269955,
                -2.6745214762105465
            ]
        },
        {
            "positions": [
                0.3565765564243872,
                -2.1283130817343703,
                2.342377001495038,
                -0.9367681548397218,
                0.08098105886833284,
                -2.5822627859048097
            ]
        },
        {
            "positions": [
                0.29823519805168286,
                -2.164946244632508,
                2.3338419799467545,
                -1.0149246650877506,
                -0.023793082716033975,
                -2.4900040955990734
            ]
        },
        {
            "positions": [
                0.23989383967897854,
                -2.2015794075306454,
                2.3253069583984707,
                -1.0930811753357792,
                -0.1285672243004008,
                -2.3977454052933367
            ]
        },
        {
            "positions": [
                0.18155248130627422,
                -2.238212570428783,
                2.316771936850187,
                -1.171237685583808,
                -0.23334136588476762,
                -2.3054867149876
            ]
        },
        {
            "positions": [
                0.12321112293356995,
                -2.2748457333269205,
                2.308236915301903,
                -1.2493941958318366,
                -0.3381155074691343,
                -2.2132280246818636
            ]
        },
        {
            "positions": [
                0.06486976456086568,
                -2.3114788962250583,
                2.2997018937536193,
                -1.3275507060798653,
                -0.44288964905350114,
                -2.120969334376127
            ]
        },
        {
            "positions": [
                0.0065284061881614175,
                -2.3481120591231956,
                2.291166872205336,
                -1.4057072163278939,
                -0.5476637906378677,
                -2.02871064407039
            ]
        },
        {
            "positions": [
                -0.05181295218454296,
                -2.3847452220213334,
                2.282631850657052,
                -1.4838637265759227,
                -0.6524379322222348,
                -1.9364519537646536
            ]
        },
        {
            "positions": [
                -0.11015431055724723,
                -2.421378384919471,
                2.2740968291087684,
                -1.5620202368239513,
                -0.7572120738066014,
                -1.844193263458917
            ]
        },
        {
            "positions": [
                -0.1684956689299515,
                -2.4580115478176086,
                2.2655618075604846,
                -1.64017674707198,
                -0.8619862153909682,
                -1.7519345731531806
            ]
        },
        {
            "positions": [
                -0.22683702730265587,
                -2.4946447107157463,
                2.2570267860122013,
                -1.7183332573200087,
                -0.966760356975335,
                -1.6596758828474438
            ]
        },
        {
            "positions": [
                -0.28517838567536,
                -2.5312778736138837,
                2.2484917644639175,
                -1.7964897675680374,
                -1.0715344985597017,
                -1.5674171925417075
            ]
        },
        {
            "positions": [
                -0.3435197440480645,
                -2.5679110365120215,
                2.2399567429156337,
                -1.8746462778160662,
                -1.1763086401440686,
                -1.4751585022359708
            ]
        },
        {
            "positions": [
                -0.40186110242076867,
                -2.6045441994101592,
                2.23142172136735,
                -1.9528027880640948,
                -1.2810827817284354,
                -1.3828998119302343
            ]
        },
        {
            "positions": [
                -0.46020246079347304,
                -2.6411773623082966,
                2.2228866998190666,
                -2.0309592983121236,
                -1.3858569233128022,
                -1.2906411216244977
            ]
        },
        {
            "positions": [
                -0.5185438191661774,
                -2.677810525206434,
                2.214351678270783,
                -2.1091158085601522,
                -1.490631064897169,
                -1.198382431318761
            ]
        },
        {
            "positions": [
                -0.5768851775388817,
                -2.7144436881045717,
                2.205816656722499,
                -2.187272318808181,
                -1.5954052064815356,
                -1.1061237410130245
            ]
        },
        {
            "positions": [
                -0.4801300963746238,
                -2.6516577624837008,
                2.079993444261194,
                -2.128137567154916,
                -1.566106885881567,
                -1.1237174478709306
            ]
        },
        {
            "positions": [
                -0.3833750152103659,
                -2.58887183686283,
                1.954170231799889,
                -2.0690028155016518,
                -1.5368085652815981,
                -1.1413111547288368
            ]
        },
        {
            "positions": [
                -0.28661993404610786,
                -2.5260859112419585,
                1.828347019338584,
                -2.009868063848387,
                -1.5075102446816295,
                -1.1589048615867432
            ]
        },
        {
            "positions": [
                -0.18986485288185,
                -2.4632999856210875,
                1.702523806877279,
                -1.9507333121951227,
                -1.4782119240816607,
                -1.1764985684446494
            ]
        },
        {
            "positions": [
                -0.0931097717175921,
                -2.4005140600002166,
                1.5767005944159742,
                -1.8915985605418582,
                -1.448913603481692,
                -1.1940922753025556
            ]
        },
        {
            "positions": [
                0.0036453094466659675,
                -2.3377281343793452,
                1.450877381954669,
                -1.8324638088885936,
                -1.4196152828817232,
                -1.2116859821604617
            ]
        },
        {
            "positions": [
                0.10040039061092376,
                -2.2749422087584743,
                1.325054169493364,
                -1.7733290572353289,
                -1.3903169622817546,
                -1.2292796890183681
            ]
        },
        {
            "positions": [
                0.19715547177518167,
                -2.2121562831376034,
                1.1992309570320592,
                -1.7141943055820645,
                -1.3610186416817858,
                -1.2468733958762743
            ]
        },
        {
            "positions": [
                0.2939105529394397,
                -2.149370357516732,
                1.0734077445707542,
                -1.6550595539287998,
                -1.331720321081817,
                -1.2644671027341805
            ]
        },
        {
            "positions": [
                0.3906656341036975,
                -2.0865844318958615,
                0.9475845321094494,
                -1.5959248022755355,
                -1.3024220004818483,
                -1.2820608095920867
            ]
        },
        {
            "positions": [
                0.4874207152679555,
                -2.02379850627499,
                0.8217613196481441,
                -1.5367900506222707,
                -1.2731236798818797,
                -1.2996545164499929
            ]
        },
        {
            "positions": [
                0.5841757964322136,
                -1.9610125806541192,
                0.6959381071868391,
                -1.4776552989690062,
                -1.2438253592819108,
                -1.3172482233078993
            ]
        },
        {
            "positions": [
                0.6809308775964713,
                -1.8982266550332483,
                0.5701148947255343,
                -1.4185205473157416,
                -1.2145270386819422,
                -1.3348419301658054
            ]
        },
        {
            "positions": [
                0.7776859587607292,
                -1.8354407294123771,
                0.4442916822642291,
                -1.359385795662477,
                -1.1852287180819734,
                -1.3524356370237116
            ]
        },
        {
            "positions": [
                0.8744410399249873,
                -1.772654803791506,
                0.3184684698029241,
                -1.3002510440092125,
                -1.1559303974820048,
                -1.370029343881618
            ]
        },
        {
            "positions": [
                0.971196121089245,
                -1.709868878170635,
                0.1926452573416193,
                -1.241116292355948,
                -1.126632076882036,
                -1.3876230507395242
            ]
        },
        {
            "positions": [
                1.0679512022535032,
                -1.647082952549764,
                0.06682204488031429,
                -1.1819815407026835,
                -1.0973337562820673,
                -1.4052167575974304
            ]
        },
        {
            "positions": [
                1.164706283417761,
                -1.5842970269288927,
                -0.05900116758099072,
                -1.1228467890494187,
                -1.0680354356820985,
                -1.4228104644553365
            ]
        },
        {
            "positions": [
                1.261461364582019,
                -1.5215111013080218,
                -0.18482438004229573,
                -1.0637120373961544,
                -1.0387371150821298,
                -1.4404041713132427
            ]
        },
        {
            "positions": [
                1.3582164457462766,
                -1.4587251756871509,
                -0.3106475925036003,
                -1.0045772857428898,
                -1.0094387944821612,
                -1.457997878171149
            ]
        },
        {
            "positions": [
                1.4549715269105348,
                -1.39593925006628,
                -0.43647080496490576,
                -0.9454425340896253,
                -0.9801404738821924,
                -1.4755915850290553
            ]
        },
        {
            "positions": [
                1.5517266080747927,
                -1.3331533244454088,
                -0.5622940174262108,
                -0.8863077824363605,
                -0.9508421532822237,
                -1.4931852918869615
            ]
        },
        {
            "positions": [
                1.6484816892390506,
                -1.2703673988245376,
                -0.6881172298875158,
                -0.827173030783096,
                -0.9215438326822548,
                -1.5107789987448677
            ]
        },
        {
            "positions": [
                1.745236770403309,
                -1.2075814732036665,
                -0.8139404423488208,
                -0.7680382791298315,
                -0.8922455120822861,
                -1.528372705602774
            ]
        },
        {
            "positions": [
                1.8419918515675668,
                -1.1447955475827956,
                -0.9397636548101258,
                -0.7089035274765669,
                -0.8629471914823174,
                -1.5459664124606802
            ]
        },
        {
            "positions": [
                1.9387469327318243,
                -1.0820096219619246,
                -1.0655868672714304,
                -0.6497687758233024,
                -0.8336488708823487,
                -1.5635601193185864
            ]
        },
        {
            "positions": [
                2.035502013896082,
                -1.0192236963410535,
                -1.1914100797327354,
                -0.5906340241700379,
                -0.80435055028238,
                -1.5811538261764926
            ]
        },
        {
            "positions": [
                2.13225709506034,
                -0.9564377707201825,
                -1.3172332921940408,
                -0.5314992725167733,
                -0.7750522296824113,
                -1.5987475330343988
            ]
        },
        {
            "positions": [
                2.2290121762245985,
                -0.8936518450993114,
                -1.4430565046553459,
                -0.4723645208635088,
                -0.7457539090824425,
                -1.6163412398923052
            ]
        },
        {
            "positions": [
                2.3257672573888564,
                -0.8308659194784402,
                -1.5688797171166509,
                -0.413229769210244,
                -0.7164555884824737,
                -1.6339349467502113
            ]
        },
        {
            "positions": [
                2.422522338553114,
                -0.7680799938575695,
                -1.6947029295779554,
                -0.3540950175569797,
                -0.6871572678825051,
                -1.6515286536081175
            ]
        },
        {
            "positions": [
                2.5192774197173717,
                -0.7052940682366984,
                -1.8205261420392604,
                -0.29496026590371516,
                -0.6578589472825364,
                -1.669122360466024
            ]
        },
        {
            "positions": [
                2.61603250088163,
                -0.6425081426158274,
                -1.9463493545005655,
                -0.23582551425045062,
                -0.6285606266825676,
                -1.68671606732393
            ]
        },
        {
            "positions": [
                2.712787582045888,
                -0.5797222169949561,
                -2.0721725669618705,
                -0.17669076259718608,
                -0.5992623060825989,
                -1.7043097741818363
            ]
        },
        {
            "positions": [
                2.809542663210146,
                -0.5169362913740851,
                -2.1979957794231755,
                -0.11755601094392132,
                -0.5699639854826302,
                -1.7219034810397424
            ]
        },
        {
            "positions": [
                2.906297744374404,
                -0.45415036575321377,
                -2.3238189918844805,
                -0.05842125929065656,
                -0.5406656648826613,
                -1.7394971878976486
            ]
        },
        {
            "positions": [
                3.0030528255386617,
                -0.3913644401323433,
                -2.4496422043457855,
                0.0007134923626077594,
                -0.5113673442826927,
                -1.7570908947555548
            ]
        },
        {
            "positions": [
                3.0998079067029196,
                -0.3285785145114719,
                -2.5754654168070905,
                0.059848244015872076,
                -0.4820690236827241,
                -1.774684601613461
            ]
        },
        {
            "positions": [
                3.1965629878671775,
                -0.265792588890601,
                -2.701288629268396,
                0.11898299566913684,
                -0.45277070308275524,
                -1.7922783084713674
            ]
        },
        {
            "positions": [
                3.1774841216420477,
                -0.33439806326183774,
                -2.6637561669249656,
                0.027212403162437615,
                -0.4531444896038339,
                -1.6162661166940098
            ]
        },
        {
            "positions": [
                3.158405255416918,
                -0.4030035376330745,
                -2.6262237045815353,
                -0.06455818934426161,
                -0.45351827612491263,
                -1.4402539249166522
            ]
        },
        {
            "positions": [
                3.139326389191788,
                -0.47160901200431127,
                -2.5886912422381054,
                -0.15632878185096083,
                -0.4538920626459913,
                -1.2642417331392943
            ]
        },
        {
            "positions": [
                3.1202475229666584,
                -0.540214486375548,
                -2.551158779894675,
                -0.24809937435766005,
                -0.45426584916706997,
                -1.0882295413619367
            ]
        },
        {
            "positions": [
                3.1011686567415286,
                -0.6088199607467848,
                -2.5136263175512448,
                -0.33986996686435933,
                -0.4546396356881487,
                -0.9122173495845791
            ]
        },
        {
            "positions": [
                3.082089790516399,
                -0.6774254351180216,
                -2.4760938552078144,
                -0.4316405593710585,
                -0.45501342220922736,
                -0.7362051578072215
            ]
        },
        {
            "positions": [
                3.063010924291269,
                -0.7460309094892583,
                -2.4385613928643846,
                -0.5234111518777578,
                -0.455387208730306,
                -0.5601929660298639
            ]
        },
        {
            "positions": [
                3.0439320580661393,
                -0.8146363838604951,
                -2.4010289305209542,
                -0.6151817443844569,
                -0.45576099525138475,
                -0.3841807742525063
            ]
        },
        {
            "positions": [
                3.0248531918410095,
                -0.8832418582317318,
                -2.363496468177524,
                -0.7069523368911563,
                -0.4561347817724634,
                -0.20816858247514847
            ]
        },
        {
            "positions": [
                3.0057743256158798,
                -0.9518473326029686,
                -2.3259640058340936,
                -0.7987229293978555,
                -0.4565085682935421,
                -0.03215639069779086
            ]
        },
        {
            "positions": [
                2.98669545939075,
                -1.0204528069742054,
                -2.2884315434906632,
                -0.8904935219045547,
                -0.4568823548146208,
                0.14385580107956653
            ]
        },
        {
            "positions": [
                2.96761659316562,
                -1.0890582813454421,
                -2.2508990811472334,
                -0.9822641144112538,
                -0.4572561413356995,
                0.31986799285692435
            ]
        },
        {
            "positions": [
                2.94853772694049,
                -1.157663755716679,
                -2.213366618803803,
                -1.0740347069179532,
                -0.45762992785677814,
                0.49588018463428196
            ]
        },
        {
            "positions": [
                2.9294588607153607,
                -1.2262692300879157,
                -2.1758341564603727,
                -1.1658052994246524,
                -0.4580037143778568,
                0.6718923764116396
            ]
        },
        {
            "positions": [
                2.9103799944902304,
                -1.2948747044591524,
                -2.1383016941169424,
                -1.2575758919313516,
                -0.45837750089893553,
                0.8479045681889972
            ]
        },
        {
            "positions": [
                2.891301128265101,
                -1.3634801788303892,
                -2.100769231773512,
                -1.3493464844380507,
                -0.4587512874200142,
                1.0239167599663548
            ]
        },
        {
            "positions": [
                2.872222262039971,
                -1.432085653201626,
                -2.063236769430082,
                -1.4411170769447499,
                -0.45912507394109286,
                1.1999289517437124
            ]
        },
        {
            "positions": [
                2.853143395814841,
                -1.5006911275728627,
                -2.025704307086652,
                -1.5328876694514495,
                -0.4594988604621716,
                1.3759411435210704
            ]
        },
        {
            "positions": [
                2.8340645295897113,
                -1.5692966019440995,
                -1.9881718447432215,
                -1.6246582619581487,
                -0.45987264698325026,
                1.551953335298428
            ]
        },
        {
            "positions": [
                2.8149856633645816,
                -1.6379020763153362,
                -1.9506393823997912,
                -1.7164288544648478,
                -0.4602464335043289,
                1.7279655270757857
            ]
        },
        {
            "positions": [
                2.795906797139452,
                -1.706507550686573,
                -1.913106920056361,
                -1.808199446971547,
                -0.46062022002540765,
                1.9039777188531433
            ]
        },
        {
            "positions": [
                2.776827930914322,
                -1.7751130250578098,
                -1.875574457712931,
                -1.8999700394782462,
                -0.4609940065464863,
                2.0799899106305
            ]
        },
        {
            "positions": [
                2.7577490646891922,
                -1.8437184994290465,
                -1.8380419953695006,
                -1.9917406319849453,
                -0.461367793067565,
                2.2560021024078587
            ]
        },
        {
            "positions": [
                2.7386701984640625,
                -1.9123239738002833,
                -1.8005095330260703,
                -2.0835112244916445,
                -0.4617415795886437,
                2.4320142941852163
            ]
        },
        {
            "positions": [
                2.7195913322389327,
                -1.98092944817152,
                -1.76297707068264,
                -2.175281816998344,
                -0.46211536610972237,
                2.608026485962574
            ]
        },
        {
            "positions": [
                2.700512466013803,
                -2.049534922542757,
                -1.7254446083392099,
                -2.2670524095050433,
                -0.46248915263080104,
                2.7840386777399315
            ]
        },
        {
            "positions": [
                2.681433599788673,
                -2.1181403969139936,
                -1.6879121459957795,
                -2.3588230020117424,
                -0.46286293915187976,
                2.960050869517289
            ]
        },
        {
            "positions": [
                2.6623547335635434,
                -2.1867458712852303,
                -1.6503796836523494,
                -2.4505935945184416,
                -0.4632367256729584,
                3.1360630612946463
            ]
        }
    ]
}