{
    "goal": {
        "global_pose": {
            "orientation": {
                "w": 0.5084816217422485,
                "x": -0.49083608388900757,
                "y": 0.5182115435600281,
                "z": -0.4816462993621826
            },
            "position": {
                "x": 0.5540239810943604,
                "y": 0.030875300988554955,
                "z": 0.16403168439865112
            }
        },
        "name": "move_to_storage_A"
    },
    "id": "PRMstar_move_to_storage_A_38",
    "joint_names": [
        "shoulder_pan_joint",
        "shoulder_lift_joint",
        "elbow_joint",
        "wrist_1_joint",
        "wrist_2_joint",
        "wrist_3_joint"
    ],
    "metrics": {
        "cart_traj_len": 0.3531811882169815,
        "distance_elbow_joint": 0.44791984142460395,
        "distance_shoulder_lift_joint": 0.23370680361263108,
        "distance_shoulder_pan_joint": 0.46333885151058307,
        "distance_wrist_1_joint": 0.23559559358147986,
        "distance_wrist_2_joint": 1.0919120494558514,
        "distance_wrist_3_joint": 0.09636033864840776,
        "smoothness": 1.1102230298998083e-15,
        "time": 5.004972316,
        "traj_len": 1.6027580847506453,
        "weighted_distance": 2.0221428729364557
    },
    "planner": "PRMstar",
    "start": {
        "state": {
            "elbow_joint": 1.9715463870305268,
            "shoulder_lift_joint": -1.1394903361783484,
            "shoulder_pan_joint": 0.12281147578464417,
            "wrist_1_joint": -0.7804599489681411,
            "wrist_2_joint": 0.12958660307563738,
            "wrist_3_joint": -3.1924946282119055
        }
    },
    "waypoints": [
        {
            "positions": [
                0.12281147578464417,
                -1.1394903361783484,
                1.9715463870305268,
                -0.7804599489681411,
                0.12958660307563738,
                -3.1924946282119055
            ]
        },
        {
            "positions": [
                0.05662021128313231,
                -1.1728770224087242,
                2.03553493580547,
                -0.8141164623369239,
                0.28557403871218756,
                -3.178728865547847
            ]
        },
        {
            "positions": [
                -0.009571053218379547,
                -1.2062637086391002,
                2.0995234845804136,
                -0.8477729757057068,
                0.4415614743487377,
                -3.1649631028837892
            ]
        },
        {
            "positions": [
                -0.0757623177198914,
                -1.239650394869476,
                2.163512033355357,
                -0.8814294890744896,
                0.597548909985288,
                -3.151197340219731
            ]
        },
        {
            "positions": [
                -0.14195358222140325,
                -1.273037081099852,
                2.2275005821303004,
                -0.9150860024432724,
                0.7535363456218381,
                -3.1374315775556725
            ]
        },
        {
            "positions": [
                -0.20814484672291517,
                -1.3064237673302277,
                2.291489130905244,
                -0.9487425158120553,
                0.9095237812583884,
                -3.123665814891614
            ]
        },
        {
            "positions": [
                -0.27433611122442697,
                -1.3398104535606037,
                2.3554776796801873,
                -0.9823990291808381,
                1.0655112168949386,
                -3.109900052227556
            ]
        },
        {
            "positions": [
                -0.3405273757259389,
                -1.3731971397909795,
                2.4194662284551307,
                -1.016055542549621,
                1.2214986525314888,
                -3.096134289563498
            ]
        }
    ]
}