{
    "goal": {
        "global_pose": {
            "orientation": {
                "w": 0.7031023502349854,
                "x": -0.7110244035720825,
                "y": 0.007748599164187908,
                "z": 0.005598929710686207
            },
            "position": {
                "x": 0.11585023208521307,
                "y": 0.44412534475326537,
                "z": 0.3711530566215515
            }
        },
        "name": "move_to_auspresseinheit_A"
    },
    "id": "PRMstar_move_to_auspresseinheit_A_41",
    "joint_names": [
        "shoulder_pan_joint",
        "shoulder_lift_joint",
        "elbow_joint",
        "wrist_1_joint",
        "wrist_2_joint",
        "wrist_3_joint"
    ],
    "metrics": {
        "cart_traj_len": 0.7457251336043731,
        "distance_elbow_joint": 0.5506481689302398,
        "distance_shoulder_lift_joint": 1.3423198376109111,
        "distance_shoulder_pan_joint": 1.04694074936734,
        "distance_wrist_1_joint": 0.5450963734262633,
        "distance_wrist_2_joint": 0.513450698254388,
        "distance_wrist_3_joint": 0.17432422625340038,
        "smoothness": 1.0962724518755746,
        "time": 5.033322299,
        "traj_len": 2.0427383713639253,
        "weighted_distance": 2.3621971928757333
    },
    "planner": "PRMstar",
    "start": {
        "state": {
            "elbow_joint": 2.422574709923281,
            "shoulder_lift_joint": -1.3736533754116391,
            "shoulder_pan_joint": -0.33786336945926293,
            "wrist_1_joint": -1.0288603412921917,
            "wrist_2_joint": 1.2330224858903978,
            "wrist_3_joint": -3.094022268022082
        }
    },
    "waypoints": [
        {
            "positions": [
                -0.33786336945926293,
                -1.3736533754116391,
                2.422574709923281,
                -1.0288603412921917,
                1.2330224858903978,
                -3.094022268022082
            ]
        },
        {
            "positions": [
                -0.23321870562121222,
                -1.491190289287313,
                2.4554973347115796,
                -0.989244345461165,
                1.1817550004661872,
                -3.085350910501345
            ]
        },
        {
            "positions": [
                -0.1285740417831615,
                -1.608727203162987,
                2.488419959499878,
                -0.9496283496301383,
                1.1304875150419766,
                -3.076679552980608
            ]
        },
        {
            "positions": [
                -0.023929377945110797,
                -1.7262641170386606,
                2.5213425842881767,
                -0.9100123537991116,
                1.079220029617766,
                -3.068008195459871
            ]
        },
        {
            "positions": [
                0.08071528589293991,
                -1.8438010309143344,
                2.5542652090764753,
                -0.8703963579680849,
                1.0279525441935555,
                -3.0593368379391337
            ]
        },
        {
            "positions": [
                0.18535994973099063,
                -1.9613379447900083,
                2.5871878338647734,
                -0.8307803621370582,
                0.976685058769345,
                -3.0506654804183966
            ]
        },
        {
            "positions": [
                0.29000461356904134,
                -2.078874858665682,
                2.620110458653072,
                -0.7911643663060314,
                0.9254175733451344,
                -3.0419941228976595
            ]
        },
        {
            "positions": [
                0.39464927740709205,
                -2.1964117725413557,
                2.6530330834413705,
                -0.7515483704750047,
                0.8741500879209239,
                -3.0333227653769224
            ]
        },
        {
            "positions": [
                0.4992939412451427,
                -2.3139486864170298,
                2.685955708229669,
                -0.711932374643978,
                0.8228826024967133,
                -3.0246514078561852
            ]
        },
        {
            "positions": [
                0.5517398009108763,
                -2.2134425547656496,
                2.6141389155737063,
                -0.6548902729494656,
                0.7970548987815373,
                -3.050889749378061
            ]
        },
        {
            "positions": [
                0.6041856605766098,
                -2.1129364231142693,
                2.542322122917743,
                -0.5978481712549532,
                0.7712271950663615,
                -3.077128090899937
            ]
        },
        {
            "positions": [
                0.6566315202423434,
                -2.0124302914628895,
                2.47050533026178,
                -0.5408060695604409,
                0.7453994913511857,
                -3.103366432421813
            ]
        },
        {
            "positions": [
                0.709077379908077,
                -1.9119241598115093,
                2.398688537605817,
                -0.4837639678659284,
                0.7195717876360097,
                -3.1296047739436887
            ]
        }
    ]
}