{
    "goal": {
        "global_pose": {
            "orientation": {
                "w": -0.00223480608172531,
                "x": 0.0024358444001904467,
                "y": 0.7094548369677653,
                "z": -0.704743149386269
            },
            "position": {
                "x": 0.6205249238014221,
                "y": -0.6371506643295288,
                "z": 0.19426114857196808
            }
        },
        "name": "move_to_magneteinheit_B"
    },
    "id": "PRMstar_move_to_magneteinheit_B_22",
    "joint_names": [
        "shoulder_pan_joint",
        "shoulder_lift_joint",
        "elbow_joint",
        "wrist_1_joint",
        "wrist_2_joint",
        "wrist_3_joint"
    ],
    "metrics": {
        "cart_traj_len": 3.437699425240155,
        "distance_elbow_joint": 5.228215653489741,
        "distance_shoulder_lift_joint": 2.923202888829019,
        "distance_shoulder_pan_joint": 2.8381563859714913,
        "distance_wrist_1_joint": 1.475805971560035,
        "distance_wrist_2_joint": 0.39094733130790316,
        "distance_wrist_3_joint": 4.307907829790933,
        "smoothness": 0.5198391914033149,
        "time": 5.094984555,
        "traj_len": 4.142974301265833,
        "weighted_distance": 5.258022919634234
    },
    "planner": "PRMstar",
    "start": {
        "state": {
            "elbow_joint": 2.39358713078474,
            "shoulder_lift_joint": -1.908514104345545,
            "shoulder_pan_joint": 0.7066247066606129,
            "wrist_1_joint": -0.4678290933515497,
            "wrist_2_joint": 0.7096259083745334,
            "wrist_3_joint": -3.1358149277392293
        }
    },
    "waypoints": [
        {
            "positions": [
                0.7066247066606129,
                -1.908514104345545,
                2.39358713078474,
                -0.4678290933515497,
                0.7096259083745334,
                -3.1358149277392293
            ]
        },
        {
            "positions": [
                0.7862331201836307,
                -1.9659792714269306,
                2.406946515359747,
                -0.4733652294417643,
                0.7374022452006472,
                -3.0211470125183086
            ]
        },
        {
            "positions": [
                0.8658415337066485,
                -2.0234444385083163,
                2.420305899934754,
                -0.4789013655319788,
                0.7651785820267611,
                -2.906479097297388
            ]
        },
        {
            "positions": [
                0.9454499472296662,
                -2.080909605589702,
                2.433665284509761,
                -0.4844375016221934,
                0.792954918852875,
                -2.7918111820764673
            ]
        },
        {
            "positions": [
                1.0128427118256462,
                -2.0441049876556137,
                2.288459077599452,
                -0.4497442141148647,
                0.7873429681183779,
                -2.6858023717979873
            ]
        },
        {
            "positions": [
                1.0802354764216264,
                -2.0073003697215253,
                2.1432528706891434,
                -0.415050926607536,
                0.7817310173838808,
                -2.5797935615195073
            ]
        },
        {
            "positions": [
                1.1476282410176064,
                -1.9704957517874364,
                1.9980466637788343,
                -0.38035763910020726,
                0.7761190666493838,
                -2.4737847512410274
            ]
        },
        {
            "positions": [
                1.2150210056135866,
                -1.933691133853348,
                1.8528404568685255,
                -0.34566435159287856,
                0.7705071159148867,
                -2.367775940962548
            ]
        },
        {
            "positions": [
                1.2824137702095666,
                -1.8968865159192596,
                1.7076342499582167,
                -0.31097106408554986,
                0.7648951651803897,
                -2.261767130684068
            ]
        },
        {
            "positions": [
                1.3498065348055466,
                -1.860081897985171,
                1.5624280430479076,
                -0.27627777657822117,
                0.7592832144458925,
                -2.155758320405588
            ]
        },
        {
            "positions": [
                1.4171992994015268,
                -1.8232772800510824,
                1.4172218361375988,
                -0.24158448907089247,
                0.7536712637113955,
                -2.049749510127108
            ]
        },
        {
            "positions": [
                1.484592063997507,
                -1.786472662116994,
                1.27201562922729,
                -0.20689120156356378,
                0.7480593129768984,
                -1.943740699848628
            ]
        },
        {
            "positions": [
                1.551984828593487,
                -1.7496680441829056,
                1.1268094223169811,
                -0.17219791405623508,
                0.7424473622424014,
                -1.837731889570148
            ]
        },
        {
            "positions": [
                1.619377593189467,
                -1.712863426248817,
                0.9816032154066723,
                -0.13750462654890638,
                0.7368354115079043,
                -1.731723079291668
            ]
        },
        {
            "positions": [
                1.6867703577854471,
                -1.6760588083147283,
                0.8363970084963632,
                -0.10281133904157769,
                0.7312234607734073,
                -1.6257142690131883
            ]
        },
        {
            "positions": [
                1.7541631223814271,
                -1.63925419038064,
                0.6911908015860544,
                -0.06811805153424894,
                0.7256115100389102,
                -1.5197054587347083
            ]
        },
        {
            "positions": [
                1.8215558869774071,
                -1.6024495724465515,
                0.5459845946757456,
                -0.03342476402692024,
                0.7199995593044132,
                -1.4136966484562283
            ]
        },
        {
            "positions": [
                1.8889486515733873,
                -1.5656449545124629,
                0.4007783877654365,
                0.0012685234804084566,
                0.7143876085699161,
                -1.3076878381777486
            ]
        },
        {
            "positions": [
                1.9563414161693675,
                -1.5288403365783743,
                0.2555721808551277,
                0.03596181098773715,
                0.7087756578354191,
                -1.2016790278992686
            ]
        },
        {
            "positions": [
                2.0237341807653477,
                -1.4920357186442859,
                0.11036597394481884,
                0.07065509849506585,
                0.703163707100922,
                -1.0956702176207886
            ]
        },
        {
            "positions": [
                2.0911269453613275,
                -1.4552311007101975,
                -0.03484023296548999,
                0.10534838600239455,
                0.6975517563664249,
                -0.9896614073423087
            ]
        },
        {
            "positions": [
                2.1585197099573077,
                -1.4184264827761088,
                -0.18004643987579882,
                0.14004167350972324,
                0.6919398056319278,
                -0.8836525970638287
            ]
        },
        {
            "positions": [
                2.2259124745532874,
                -1.3816218648420202,
                -0.32525264678610766,
                0.17473496101705194,
                0.6863278548974308,
                -0.7776437867853487
            ]
        },
        {
            "positions": [
                2.2933052391492676,
                -1.3448172469079318,
                -0.4704588536964165,
                0.20942824852438063,
                0.6807159041629337,
                -0.6716349765068688
            ]
        },
        {
            "positions": [
                2.360698003745248,
                -1.3080126289738434,
                -0.6156650606067258,
                0.24412153603170933,
                0.6751039534284367,
                -0.5656261662283892
            ]
        },
        {
            "positions": [
                2.428090768341228,
                -1.2712080110397548,
                -0.7608712675170346,
                0.278814823539038,
                0.6694920026939396,
                -0.45961735594990927
            ]
        },
        {
            "positions": [
                2.4954835329372083,
                -1.2344033931056662,
                -0.9060774744273434,
                0.3135081110463667,
                0.6638800519594426,
                -0.3536085456714293
            ]
        },
        {
            "positions": [
                2.562876297533188,
                -1.1975987751715778,
                -1.0512836813376523,
                0.34820139855369553,
                0.6582681012249455,
                -0.24759973539294933
            ]
        },
        {
            "positions": [
                2.6302690621291682,
                -1.1607941572374894,
                -1.196489888247961,
                0.3828946860610242,
                0.6526561504904485,
                -0.14159092511446936
            ]
        },
        {
            "positions": [
                2.697661826725148,
                -1.1239895393034007,
                -1.34169609515827,
                0.4175879735683529,
                0.6470441997559513,
                -0.03558211483598939
            ]
        },
        {
            "positions": [
                2.765054591321128,
                -1.087184921369312,
                -1.4869023020685788,
                0.4522812610756816,
                0.6414322490214543,
                0.07042669544249058
            ]
        },
        {
            "positions": [
                2.8324473559171084,
                -1.0503803034352237,
                -1.632108508978888,
                0.4869745485830103,
                0.6358202982869572,
                0.1764355057209701
            ]
        },
        {
            "positions": [
                2.8998401205130886,
                -1.0135756855011353,
                -1.7773147158891964,
                0.5216678360903391,
                0.6302083475524601,
                0.2824443159994501
            ]
        },
        {
            "positions": [
                2.967232885109069,
                -0.9767710675670467,
                -1.9225209227995057,
                0.5563611235976678,
                0.6245963968179631,
                0.38845312627793005
            ]
        },
        {
            "positions": [
                3.0346256497050486,
                -0.9399664496329581,
                -2.067727129709814,
                0.5910544111049965,
                0.618984446083466,
                0.49446193655641
            ]
        },
        {
            "positions": [
                3.1020184143010288,
                -0.9031618316988697,
                -2.2129333366201234,
                0.6257476986123252,
                0.613372495348969,
                0.60047074683489
            ]
        },
        {
            "positions": [
                3.057742146467921,
                -1.0604677930682727,
                -2.15877944875664,
                0.6606489349178125,
                0.6005689056164034,
                0.5433085313132084
            ]
        },
        {
            "positions": [
                3.0134658786348134,
                -1.2177737544376757,
                -2.1046255608931563,
                0.6955501712232999,
                0.5877653158838378,
                0.486146315791527
            ]
        },
        {
            "positions": [
                2.969189610801706,
                -1.3750797158070784,
                -2.050471673029673,
                0.7304514075287872,
                0.5749617261512723,
                0.42898410026984546
            ]
        },
        {
            "positions": [
                2.9249133429685985,
                -1.5323856771764817,
                -1.9963177851661893,
                0.7653526438342746,
                0.5621581364187067,
                0.37182188474816397
            ]
        },
        {
            "positions": [
                2.880637075135491,
                -1.6896916385458844,
                -1.9421638973027058,
                0.800253880139762,
                0.5493545466861411,
                0.3146596692264825
            ]
        },
        {
            "positions": [
                2.836360807302383,
                -1.8469975999152872,
                -1.8880100094392223,
                0.8351551164452493,
                0.5365509569535756,
                0.257497453704801
            ]
        },
        {
            "positions": [
                2.7920845394692755,
                -2.00430356128469,
                -1.8338561215757387,
                0.8700563527507367,
                0.52374736722101,
                0.2003352381831195
            ]
        },
        {
            "positions": [
                2.747808271636168,
                -2.1616095226540937,
                -1.7797022337122552,
                0.904957589056224,
                0.5109437774884444,
                0.14317302266143794
            ]
        },
        {
            "positions": [
                2.7035320038030606,
                -2.3189154840234965,
                -1.7255483458487717,
                0.9398588253617114,
                0.49814018775587887,
                0.0860108071397564
            ]
        },
        {
            "positions": [
                2.659255735969953,
                -2.4762214453928992,
                -1.6713944579852882,
                0.9747600616671988,
                0.4853365980233133,
                0.02884859161807499
            ]
        }
    ]
}