{
    "goal": {
        "global_pose": {
            "orientation": {
                "w": 0.5084816217422485,
                "x": -0.49083608388900757,
                "y": 0.5182115435600281,
                "z": -0.4816462993621826
            },
            "position": {
                "x": 0.5540239810943604,
                "y": 0.030875300988554955,
                "z": 0.16403168439865112
            }
        },
        "name": "move_to_storage_A"
    },
    "id": "PRMstar_move_to_storage_A_12",
    "joint_names": [
        "shoulder_pan_joint",
        "shoulder_lift_joint",
        "elbow_joint",
        "wrist_1_joint",
        "wrist_2_joint",
        "wrist_3_joint"
    ],
    "metrics": {
        "cart_traj_len": 0.3534408403503664,
        "distance_elbow_joint": 0.4492860965517491,
        "distance_shoulder_lift_joint": 0.23505326106369417,
        "distance_shoulder_pan_joint": 0.46218451157656465,
        "distance_wrist_1_joint": 0.23653585506996044,
        "distance_wrist_2_joint": 1.0999535202325963,
        "distance_wrist_3_joint": 0.09240547197688675,
        "smoothness": 4.440892098500626e-16,
        "time": 5.015386707,
        "traj_len": 1.6048111155121811,
        "weighted_distance": 2.0240353346045574
    },
    "planner": "PRMstar",
    "start": {
        "state": {
            "elbow_joint": 1.9715463870305268,
            "shoulder_lift_joint": -1.1394903361783484,
            "shoulder_pan_joint": 0.12281147578464417,
            "wrist_1_joint": -0.7804599489681411,
            "wrist_2_joint": 0.12958660307563738,
            "wrist_3_joint": -3.1924946282119055
        }
    },
    "waypoints": [
        {
            "positions": [
                0.12281147578464417,
                -1.1394903361783484,
                1.9715463870305268,
                -0.7804599489681411,
                0.12958660307563738,
                -3.1924946282119055
            ]
        },
        {
            "positions": [
                0.05678511698799209,
                -1.1730693734731619,
                2.035730115109348,
                -0.8142507854067068,
                0.2867228202517226,
                -3.1792938465009217
            ]
        },
        {
            "positions": [
                -0.009241241808659997,
                -1.2066484107679754,
                2.0999138431881694,
                -0.8480416218452727,
                0.44385903742780775,
                -3.166093064789938
            ]
        },
        {
            "positions": [
                -0.07526760060531208,
                -1.2402274480627888,
                2.1640975712669905,
                -0.8818324582838384,
                0.6009952546038929,
                -3.152892283078954
            ]
        },
        {
            "positions": [
                -0.14129395940196415,
                -1.273806485357602,
                2.228281299345812,
                -0.9156232947224042,
                0.7581314717799781,
                -3.1396915013679703
            ]
        },
        {
            "positions": [
                -0.2073203181986163,
                -1.3073855226524156,
                2.292465027424633,
                -0.94941413116097,
                0.9152676889560634,
                -3.1264907196569864
            ]
        },
        {
            "positions": [
                -0.2733466769952683,
                -1.340964559947229,
                2.3566487555034543,
                -0.9832049675995358,
                1.0724039061321484,
                -3.1132899379460026
            ]
        },
        {
            "positions": [
                -0.33937303579192046,
                -1.3745435972420426,
                2.420832483582276,
                -1.0169958040381015,
                1.2295401233082337,
                -3.100089156235019
            ]
        }
    ]
}