{
    "goal": {
        "global_pose": {
            "orientation": {
                "w": 0.7047431468963623,
                "x": -0.7094548344612122,
                "y": 0.0024358443915843964,
                "z": -0.0022348060738295317
            },
            "position": {
                "x": 0.6094750761985779,
                "y": 0.3671506643295288,
                "z": 0.19426114857196808
            }
        },
        "name": "move_to_magneteinheit_A"
    },
    "id": "PRMstar_move_to_magneteinheit_A_23",
    "joint_names": [
        "shoulder_pan_joint",
        "shoulder_lift_joint",
        "elbow_joint",
        "wrist_1_joint",
        "wrist_2_joint",
        "wrist_3_joint"
    ],
    "metrics": {
        "cart_traj_len": 2.064080837915533,
        "distance_elbow_joint": 3.8765745036759442,
        "distance_shoulder_lift_joint": 1.0545505147629692,
        "distance_shoulder_pan_joint": 1.2422132639776278,
        "distance_wrist_1_joint": 1.1471149590937226,
        "distance_wrist_2_joint": 1.4442487486226245,
        "distance_wrist_3_joint": 1.9223110113950899,
        "smoothness": 2.8548592019432043e-16,
        "time": 5.016522282,
        "traj_len": 3.2690997233990857,
        "weighted_distance": 4.137994530208384
    },
    "planner": "PRMstar",
    "start": {
        "state": {
            "elbow_joint": -1.919643507792019,
            "shoulder_lift_joint": -0.07675430207160344,
            "shoulder_pan_joint": -1.1188671864651873,
            "wrist_1_joint": 0.42560062535961957,
            "wrist_2_joint": 1.5706038300724876,
            "wrist_3_joint": 1.1188968870953055
        }
    },
    "waypoints": [
        {
            "positions": [
                -1.1188671864651873,
                -0.07675430207160344,
                -1.919643507792019,
                0.42560062535961957,
                1.5706038300724876,
                1.1188968870953055
            ]
        },
        {
            "positions": [
                -1.0728592877993492,
                -0.115811728544306,
                -1.7760666743225397,
                0.38311488613392614,
                1.517113135679057,
                1.1900935912210495
            ]
        },
        {
            "positions": [
                -1.0268513891335111,
                -0.15486915501700857,
                -1.6324898408530601,
                0.3406291469082327,
                1.4636224412856265,
                1.2612902953467937
            ]
        },
        {
            "positions": [
                -0.9808434904676732,
                -0.19392658148971115,
                -1.4889130073835808,
                0.2981434076825393,
                1.410131746892196,
                1.3324869994725377
            ]
        },
        {
            "positions": [
                -0.9348355918018351,
                -0.2329840079624137,
                -1.3453361739141014,
                0.25565766845684584,
                1.3566410524987655,
                1.4036837035982819
            ]
        },
        {
            "positions": [
                -0.8888276931359971,
                -0.27204143443511625,
                -1.201759340444622,
                0.2131719292311524,
                1.303150358105335,
                1.4748804077240258
            ]
        },
        {
            "positions": [
                -0.842819794470159,
                -0.3110988609078188,
                -1.0581825069751427,
                0.17068619000545898,
                1.2496596637119044,
                1.5460771118497698
            ]
        },
        {
            "positions": [
                -0.7968118958043209,
                -0.3501562873805214,
                -0.9146056735056631,
                0.12820045077976555,
                1.1961689693184738,
                1.617273815975514
            ]
        },
        {
            "positions": [
                -0.7508039971384828,
                -0.38921371385322395,
                -0.7710288400361838,
                0.08571471155407212,
                1.1426782749250433,
                1.6884705201012582
            ]
        },
        {
            "positions": [
                -0.7047960984726448,
                -0.4282711403259265,
                -0.6274520065667044,
                0.04322897232837869,
                1.089187580531613,
                1.7596672242270022
            ]
        },
        {
            "positions": [
                -0.6587881998068067,
                -0.46732856679862905,
                -0.48387517309722505,
                0.000743233102685259,
                1.0356968861381821,
                1.8308639283527461
            ]
        },
        {
            "positions": [
                -0.6127803011409687,
                -0.5063859932713316,
                -0.3402983396277457,
                -0.04174250612300817,
                0.9822061917447518,
                1.90206063247849
            ]
        },
        {
            "positions": [
                -0.5667724024751306,
                -0.5454434197440342,
                -0.1967215061582661,
                -0.0842282453487016,
                0.9287154973513212,
                1.9732573366042343
            ]
        },
        {
            "positions": [
                -0.5207645038092925,
                -0.5845008462167367,
                -0.053144672688786754,
                -0.12671398457439503,
                0.8752248029578906,
                2.0444540407299785
            ]
        },
        {
            "positions": [
                -0.4747566051434544,
                -0.6235582726894393,
                0.09043216078069283,
                -0.16919972380008846,
                0.8217341085644602,
                2.1156507448557225
            ]
        },
        {
            "positions": [
                -0.4287487064776163,
                -0.6626156991621419,
                0.2340089942501724,
                -0.2116854630257819,
                0.7682434141710295,
                2.1868474489814664
            ]
        },
        {
            "positions": [
                -0.3827408078117783,
                -0.7016731256348445,
                0.37758582771965155,
                -0.2541712022514753,
                0.714752719777599,
                2.2580441531072104
            ]
        },
        {
            "positions": [
                -0.33673290914594023,
                -0.7407305521075471,
                0.5211626611891311,
                -0.29665694147716876,
                0.6612620253841685,
                2.329240857232955
            ]
        },
        {
            "positions": [
                -0.29072501048010224,
                -0.7797879785802495,
                0.6647394946586103,
                -0.3391426807028622,
                0.607771330990738,
                2.400437561358699
            ]
        },
        {
            "positions": [
                -0.24471711181426403,
                -0.8188454050529521,
                0.8083163281280898,
                -0.3816284199285556,
                0.5542806365973074,
                2.471634265484443
            ]
        },
        {
            "positions": [
                -0.19870921314842604,
                -0.8579028315256547,
                0.951893161597569,
                -0.42411415915424905,
                0.5007899422038768,
                2.542830969610187
            ]
        },
        {
            "positions": [
                -0.15270131448258795,
                -0.8969602579983573,
                1.0954699950670486,
                -0.4665998983799425,
                0.4472992478104463,
                2.614027673735931
            ]
        },
        {
            "positions": [
                -0.10669341581675007,
                -0.9360176844710597,
                1.2390468285365277,
                -0.5090856376056359,
                0.3938085534170159,
                2.685224377861675
            ]
        },
        {
            "positions": [
                -0.06068551715091175,
                -0.9750751109437625,
                1.3826236620060077,
                -0.5515713768313293,
                0.34031785902358513,
                2.756421081987419
            ]
        },
        {
            "positions": [
                -0.014677618485073873,
                -1.014132537416465,
                1.5262004954754869,
                -0.5940571160570227,
                0.2868271646301548,
                2.827617786113163
            ]
        },
        {
            "positions": [
                0.031330280180764225,
                -1.0531899638891675,
                1.6697773289449664,
                -0.6365428552827161,
                0.2333364702367242,
                2.898814490238907
            ]
        },
        {
            "positions": [
                0.07733817884660232,
                -1.0922473903618701,
                1.8133541624144456,
                -0.6790285945084096,
                0.17984577584329364,
                2.970011194364651
            ]
        },
        {
            "positions": [
                0.12334607751244037,
                -1.1313048168345727,
                1.956930995883925,
                -0.721514333734103,
                0.12635508144986307,
                3.0412078984903954
            ]
        }
    ]
}