{
    "goal": {
        "global_pose": {
            "orientation": {
                "w": 0.7031023502349854,
                "x": -0.7110244035720825,
                "y": 0.007748599164187908,
                "z": 0.005598929710686207
            },
            "position": {
                "x": 0.11585023208521307,
                "y": 0.44412534475326537,
                "z": 0.3711530566215515
            }
        },
        "name": "move_to_auspresseinheit_A"
    },
    "id": "PRMstar_move_to_auspresseinheit_A_49",
    "joint_names": [
        "shoulder_pan_joint",
        "shoulder_lift_joint",
        "elbow_joint",
        "wrist_1_joint",
        "wrist_2_joint",
        "wrist_3_joint"
    ],
    "metrics": {
        "cart_traj_len": 0.686512632332966,
        "distance_elbow_joint": 0.03275841761188447,
        "distance_shoulder_lift_joint": 0.5335015161987333,
        "distance_shoulder_pan_joint": 1.0408646941188437,
        "distance_wrist_1_joint": 0.5759219633561001,
        "distance_wrist_2_joint": 0.5356640748637559,
        "distance_wrist_3_joint": 0.29612481121069,
        "smoothness": 0.2974271098553647,
        "time": 5.012219241,
        "traj_len": 1.736328159467561,
        "weighted_distance": 2.1722502475546515
    },
    "planner": "PRMstar",
    "start": {
        "state": {
            "elbow_joint": 2.422574709923281,
            "shoulder_lift_joint": -1.3736533754116391,
            "shoulder_pan_joint": -0.33786336945926293,
            "wrist_1_joint": -1.0288603412921917,
            "wrist_2_joint": 1.2330224858903978,
            "wrist_3_joint": -3.094022268022082
        }
    },
    "waypoints": [
        {
            "positions": [
                -0.33786336945926293,
                -1.3736533754116391,
                2.422574709923281,
                -1.0288603412921917,
                1.2330224858903978,
                -3.094022268022082
            ]
        },
        {
            "positions": [
                -0.21892990977018,
                -1.4235630824827648,
                2.417728419267391,
                -0.9404806883813761,
                1.154813364655725,
                -3.0629418511478823
            ]
        },
        {
            "positions": [
                -0.09999645008109709,
                -1.4734727895538904,
                2.4128821286115008,
                -0.8521010354705605,
                1.0766042434210525,
                -3.031861434273683
            ]
        },
        {
            "positions": [
                0.018937009607985833,
                -1.523382496625016,
                2.408035837955611,
                -0.7637213825597449,
                0.9983951221863799,
                -3.000781017399483
            ]
        },
        {
            "positions": [
                0.13787046929706875,
                -1.5732922036961416,
                2.403189547299721,
                -0.6753417296489292,
                0.9201860009517073,
                -2.9697006005252833
            ]
        },
        {
            "positions": [
                0.27915318313769677,
                -1.6567578756746992,
                2.3998462335526396,
                -0.6197408917207198,
                0.864479103470441,
                -3.012651386453756
            ]
        },
        {
            "positions": [
                0.4204358969783248,
                -1.740223547653257,
                2.3965029198055587,
                -0.5641400537925104,
                0.8087722059891747,
                -3.055602172382229
            ]
        },
        {
            "positions": [
                0.5617186108189528,
                -1.8236892196318149,
                2.393159606058478,
                -0.508539215864301,
                0.7530653085079082,
                -3.0985529583107017
            ]
        },
        {
            "positions": [
                0.7030013246595808,
                -1.9071548916103724,
                2.3898162923113966,
                -0.45293837793609154,
                0.6973584110266419,
                -3.1415037442391744
            ]
        }
    ]
}