{
    "goal": {
        "global_pose": {
            "orientation": {
                "w": 0.5084816217422485,
                "x": -0.49083608388900757,
                "y": 0.5182115435600281,
                "z": -0.4816462993621826
            },
            "position": {
                "x": 0.5540239810943604,
                "y": 0.030875300988554955,
                "z": 0.16403168439865112
            }
        },
        "name": "move_to_storage_A"
    },
    "id": "PRMstar_move_to_storage_A_41",
    "joint_names": [
        "shoulder_pan_joint",
        "shoulder_lift_joint",
        "elbow_joint",
        "wrist_1_joint",
        "wrist_2_joint",
        "wrist_3_joint"
    ],
    "metrics": {
        "cart_traj_len": 0.35293070704054774,
        "distance_elbow_joint": 0.44820534646248866,
        "distance_shoulder_lift_joint": 0.23672601066941912,
        "distance_shoulder_pan_joint": 0.46177057831318374,
        "distance_wrist_1_joint": 0.2340235420116713,
        "distance_wrist_2_joint": 1.0981490966310634,
        "distance_wrist_3_joint": 0.09464870363215283,
        "smoothness": 8.881784232165597e-16,
        "time": 5.00250968,
        "traj_len": 1.6042204579545727,
        "weighted_distance": 2.023608984865164
    },
    "planner": "PRMstar",
    "start": {
        "state": {
            "elbow_joint": 1.9715463870305268,
            "shoulder_lift_joint": -1.1394903361783484,
            "shoulder_pan_joint": 0.12281147578464417,
            "wrist_1_joint": -0.7804599489681411,
            "wrist_2_joint": 0.12958660307563738,
            "wrist_3_joint": -3.1924946282119055
        }
    },
    "waypoints": [
        {
            "positions": [
                0.12281147578464417,
                -1.1394903361783484,
                1.9715463870305268,
                -0.7804599489681411,
                0.12958660307563738,
                -3.1924946282119055
            ]
        },
        {
            "positions": [
                0.05684425031133221,
                -1.173308337702551,
                2.0355757222394537,
                -0.813891883541237,
                0.2864650454515036,
                -3.1789733848358837
            ]
        },
        {
            "positions": [
                -0.009122975161979754,
                -1.207126339226754,
                2.0996050574483807,
                -0.8473238181143329,
                0.44334348782736976,
                -3.1654521414598618
            ]
        },
        {
            "positions": [
                -0.07509020063529172,
                -1.2409443407509566,
                2.1636343926573076,
                -0.8807557526874288,
                0.600221930203236,
                -3.15193089808384
            ]
        },
        {
            "positions": [
                -0.14105742610860367,
                -1.2747623422751593,
                2.2276637278662346,
                -0.9141876872605247,
                0.7571003725791022,
                -3.1384096547078184
            ]
        },
        {
            "positions": [
                -0.20702465158191563,
                -1.308580343799362,
                2.2916930630751615,
                -0.9476196218336206,
                0.9139788149549685,
                -3.1248884113317965
            ]
        },
        {
            "positions": [
                -0.2729918770552276,
                -1.3423983453235648,
                2.3557223982840885,
                -0.9810515564067165,
                1.0708572573308346,
                -3.1113671679557746
            ]
        },
        {
            "positions": [
                -0.33895910252853956,
                -1.3762163468477675,
                2.4197517334930154,
                -1.0144834909798124,
                1.2277356997067008,
                -3.0978459245797527
            ]
        }
    ]
}