{
    "goal": {
        "global_pose": {
            "orientation": {
                "w": 0.7031023502349854,
                "x": -0.7110244035720825,
                "y": 0.007748599164187908,
                "z": 0.005598929710686207
            },
            "position": {
                "x": 0.11585023208521307,
                "y": 0.44412534475326537,
                "z": 0.3711530566215515
            }
        },
        "name": "move_to_auspresseinheit_A"
    },
    "id": "ProjEST_move_to_auspresseinheit_A_24",
    "joint_names": [
        "shoulder_pan_joint",
        "shoulder_lift_joint",
        "elbow_joint",
        "wrist_1_joint",
        "wrist_2_joint",
        "wrist_3_joint"
    ],
    "metrics": {
        "cart_traj_len": 1.1766481565073135,
        "distance_elbow_joint": 0.15448641915746286,
        "distance_shoulder_lift_joint": 1.8128730206404229,
        "distance_shoulder_pan_joint": 1.7812624260325747,
        "distance_wrist_1_joint": 2.7745356783847455,
        "distance_wrist_2_joint": 6.06991437329632,
        "distance_wrist_3_joint": 5.963122084837183,
        "smoothness": 0.646132028946033,
        "time": 0.459177497,
        "traj_len": 4.307690100546779,
        "weighted_distance": 6.271115389123704
    },
    "planner": "ProjEST",
    "start": {
        "state": {
            "elbow_joint": 2.422574709923281,
            "shoulder_lift_joint": -1.3736533754116391,
            "shoulder_pan_joint": -0.33786336945926293,
            "wrist_1_joint": -1.0288603412921917,
            "wrist_2_joint": 1.2330224858903978,
            "wrist_3_joint": -3.094022268022082
        }
    },
    "waypoints": [
        {
            "positions": [
                -0.33786336945926293,
                -1.3736533754116391,
                2.422574709923281,
                -1.0288603412921917,
                1.2330224858903978,
                -3.094022268022082
            ]
        },
        {
            "positions": [
                -0.35389495764070816,
                -1.4247679102639808,
                2.42539098148077,
                -1.0771946812854474,
                1.089740918559303,
                -2.9649744150416417
            ]
        },
        {
            "positions": [
                -0.3699265458221534,
                -1.4758824451163222,
                2.4282072530382592,
                -1.125529021278703,
                0.9464593512282085,
                -2.835926562061201
            ]
        },
        {
            "positions": [
                -0.38595813400359863,
                -1.5269969799686638,
                2.4310235245957483,
                -1.1738633612719587,
                0.8031777838971137,
                -2.7068787090807604
            ]
        },
        {
            "positions": [
                -0.4019897221850438,
                -1.5781115148210054,
                2.4338397961532374,
                -1.2221977012652143,
                0.659896216566019,
                -2.57783085610032
            ]
        },
        {
            "positions": [
                -0.41802131036648904,
                -1.6292260496733468,
                2.4366560677107265,
                -1.2705320412584697,
                0.5166146492349243,
                -2.448783003119879
            ]
        },
        {
            "positions": [
                -0.4340528985479343,
                -1.6803405845256885,
                2.4394723392682156,
                -1.3188663812517254,
                0.37333308190382963,
                -2.3197351501394388
            ]
        },
        {
            "positions": [
                -0.4500844867293795,
                -1.73145511937803,
                2.4422886108257047,
                -1.367200721244981,
                0.23005151457273487,
                -2.1906872971589983
            ]
        },
        {
            "positions": [
                -0.46611607491082474,
                -1.7825696542303715,
                2.445104882383194,
                -1.4155350612382367,
                0.08676994724164033,
                -2.0616394441785575
            ]
        },
        {
            "positions": [
                -0.48214766309227,
                -1.8336841890827131,
                2.447921153940683,
                -1.4638694012314923,
                -0.05651162008945465,
                -1.932591591198117
            ]
        },
        {
            "positions": [
                -0.4981792512737152,
                -1.8847987239350545,
                2.450737425498172,
                -1.512203741224748,
                -0.1997931874205492,
                -1.8035437382176767
            ]
        },
        {
            "positions": [
                -0.5142108394551604,
                -1.9359132587873962,
                2.453553697055661,
                -1.5605380812180036,
                -0.34307475475164395,
                -1.674495885237236
            ]
        },
        {
            "positions": [
                -0.5302424276366057,
                -1.9870277936397378,
                2.4563699686131497,
                -1.608872421211259,
                -0.4863563220827385,
                -1.5454480322567956
            ]
        },
        {
            "positions": [
                -0.5462740158180508,
                -2.0381423284920794,
                2.459186240170639,
                -1.6572067612045147,
                -0.629637889413833,
                -1.4164001792763552
            ]
        },
        {
            "positions": [
                -0.5623056039994961,
                -2.089256863344421,
                2.462002511728128,
                -1.7055411011977704,
                -0.772919456744928,
                -1.2873523262959143
            ]
        },
        {
            "positions": [
                -0.5783371921809413,
                -2.1403713981967627,
                2.464818783285617,
                -1.753875441191026,
                -0.9162010240760226,
                -1.158304473315474
            ]
        },
        {
            "positions": [
                -0.5943687803623865,
                -2.191485933049104,
                2.467635054843106,
                -1.8022097811842817,
                -1.059482591407117,
                -1.0292566203350333
            ]
        },
        {
            "positions": [
                -0.6104003685438317,
                -2.2426004679014455,
                2.470451326400595,
                -1.850544121177537,
                -1.202764158738212,
                -0.9002087673545929
            ]
        },
        {
            "positions": [
                -0.626431956725277,
                -2.293715002753787,
                2.4732675979580843,
                -1.898878461170793,
                -1.346045726069307,
                -0.771160914374152
            ]
        },
        {
            "positions": [
                -0.6424635449067222,
                -2.3448295376061288,
                2.4760838695155734,
                -1.9472128011640484,
                -1.4893272934004016,
                -0.6421130613937116
            ]
        },
        {
            "positions": [
                -0.6584951330881674,
                -2.3959440724584704,
                2.4789001410730624,
                -1.9955471411573042,
                -1.6326088607314961,
                -0.5130652084132712
            ]
        },
        {
            "positions": [
                -0.6745267212696127,
                -2.4470586073108116,
                2.4817164126305515,
                -2.0438814811505597,
                -1.7758904280625907,
                -0.3840173554328308
            ]
        },
        {
            "positions": [
                -0.6905583094510579,
                -2.4981731421631537,
                2.4845326841880406,
                -2.0922158211438155,
                -1.9191719953936857,
                -0.2549695024523899
            ]
        },
        {
            "positions": [
                -0.7065898976325031,
                -2.549287677015495,
                2.4873489557455297,
                -2.140550161137071,
                -2.06245356272478,
                -0.1259216494719495
            ]
        },
        {
            "positions": [
                -0.6500884617181297,
                -2.523798128254032,
                2.4837604688121213,
                -2.0740363267954764,
                -1.9514760297375344,
                -0.2457225081234314
            ]
        },
        {
            "positions": [
                -0.5935870258037563,
                -2.4983085794925697,
                2.4801719818787125,
                -2.0075224924538815,
                -1.8404984967502886,
                -0.3655233667749133
            ]
        },
        {
            "positions": [
                -0.537085589889383,
                -2.472819030731107,
                2.476583494945304,
                -1.941008658112287,
                -1.729520963763043,
                -0.4853242254263952
            ]
        },
        {
            "positions": [
                -0.48058415397500964,
                -2.447329481969644,
                2.4729950080118956,
                -1.8744948237706922,
                -1.618543430775797,
                -0.6051250840778771
            ]
        },
        {
            "positions": [
                -0.42408271806063624,
                -2.4218399332081813,
                2.469406521078487,
                -1.8079809894290975,
                -1.5075658977885515,
                -0.7249259427293591
            ]
        },
        {
            "positions": [
                -0.3675812821462629,
                -2.396350384446719,
                2.4658180341450784,
                -1.741467155087503,
                -1.3965883648013058,
                -0.8447268013808409
            ]
        },
        {
            "positions": [
                -0.3110798462318895,
                -2.370860835685256,
                2.4622295472116695,
                -1.6749533207459082,
                -1.28561083181406,
                -0.9645276600323229
            ]
        },
        {
            "positions": [
                -0.25457841031751616,
                -2.3453712869237933,
                2.458641060278261,
                -1.6084394864043134,
                -1.1746332988268142,
                -1.0843285186838048
            ]
        },
        {
            "positions": [
                -0.19807697440314276,
                -2.319881738162331,
                2.4550525733448527,
                -1.541925652062719,
                -1.0636557658395684,
                -1.2041293773352866
            ]
        },
        {
            "positions": [
                -0.14157553848876936,
                -2.294392189400868,
                2.451464086411444,
                -1.475411817721124,
                -0.9526782328523227,
                -1.3239302359867686
            ]
        },
        {
            "positions": [
                -0.08507410257439607,
                -2.2689026406394053,
                2.4478755994780355,
                -1.4088979833795294,
                -0.8417006998650769,
                -1.4437310946382504
            ]
        },
        {
            "positions": [
                -0.028572666660022672,
                -2.2434130918779425,
                2.444287112544627,
                -1.342384149037935,
                -0.7307231668778313,
                -1.5635319532897323
            ]
        },
        {
            "positions": [
                0.027928769254350727,
                -2.21792354311648,
                2.440698625611218,
                -1.27587031469634,
                -0.6197456338905853,
                -1.6833328119412143
            ]
        },
        {
            "positions": [
                0.08443020516872413,
                -2.1924339943550173,
                2.43711013867781,
                -1.2093564803547454,
                -0.5087681009033396,
                -1.8031336705926964
            ]
        },
        {
            "positions": [
                0.14093164108309741,
                -2.1669444455935545,
                2.4335216517444014,
                -1.1428426460131509,
                -0.397790567916094,
                -1.922934529244178
            ]
        },
        {
            "positions": [
                0.1974330769974708,
                -2.1414548968320917,
                2.4299331648109925,
                -1.076328811671556,
                -0.28681303492884824,
                -2.04273538789566
            ]
        },
        {
            "positions": [
                0.2539345129118443,
                -2.1159653480706293,
                2.426344677877584,
                -1.0098149773299612,
                -0.17583550194160225,
                -2.162536246547142
            ]
        },
        {
            "positions": [
                0.3104359488262176,
                -2.0904757993091665,
                2.4227561909441757,
                -0.9433011429883666,
                -0.06485796895435669,
                -2.2823371051986237
            ]
        },
        {
            "positions": [
                0.366937384740591,
                -2.0649862505477037,
                2.419167704010767,
                -0.8767873086467719,
                0.04611956403288886,
                -2.4021379638501057
            ]
        },
        {
            "positions": [
                0.4234388206549644,
                -2.0394967017862413,
                2.4155792170773585,
                -0.8102734743051772,
                0.15709709702013486,
                -2.5219388225015877
            ]
        },
        {
            "positions": [
                0.4799402565693376,
                -2.0140071530247785,
                2.4119907301439496,
                -0.7437596399635826,
                0.2680746300073804,
                -2.6417396811530693
            ]
        },
        {
            "positions": [
                0.536441692483711,
                -1.9885176042633157,
                2.408402243210541,
                -0.6772458056219879,
                0.3790521629946264,
                -2.7615405398045514
            ]
        },
        {
            "positions": [
                0.5929431283980844,
                -1.963028055501853,
                2.404813756277133,
                -0.6107319712803931,
                0.49002969598187196,
                -2.8813413984560334
            ]
        },
        {
            "positions": [
                0.6494445643124578,
                -1.9375385067403905,
                2.401225269343724,
                -0.5442181369387986,
                0.6010072289691175,
                -3.001142257107515
            ]
        },
        {
            "positions": [
                0.7059460002268312,
                -1.9120489579789277,
                2.3976367824103155,
                -0.4777043025972038,
                0.7119847619563636,
                -3.120943115758997
            ]
        }
    ]
}