{
    "goal": {
        "global_pose": {
            "orientation": {
                "w": 0.7031023502349854,
                "x": -0.7110244035720825,
                "y": 0.007748599164187908,
                "z": 0.005598929710686207
            },
            "position": {
                "x": 0.11585023208521307,
                "y": 0.44412534475326537,
                "z": 0.3711530566215515
            }
        },
        "name": "move_to_auspresseinheit_A"
    },
    "id": "ProjEST_move_to_auspresseinheit_A_45",
    "joint_names": [
        "shoulder_pan_joint",
        "shoulder_lift_joint",
        "elbow_joint",
        "wrist_1_joint",
        "wrist_2_joint",
        "wrist_3_joint"
    ],
    "metrics": {
        "cart_traj_len": 0.6871938412458796,
        "distance_elbow_joint": 0.032612552467294,
        "distance_shoulder_lift_joint": 0.5316045674062964,
        "distance_shoulder_pan_joint": 1.0402881394967345,
        "distance_wrist_1_joint": 0.5751567074828916,
        "distance_wrist_2_joint": 0.5348830751317073,
        "distance_wrist_3_joint": 0.061043929679714726,
        "smoothness": 5.921189475903449e-16,
        "time": 1.4812988040000001,
        "traj_len": 1.666009895428187,
        "weighted_distance": 2.0019282238978167
    },
    "planner": "ProjEST",
    "start": {
        "state": {
            "elbow_joint": 2.422574709923281,
            "shoulder_lift_joint": -1.3736533754116391,
            "shoulder_pan_joint": -0.33786336945926293,
            "wrist_1_joint": -1.0288603412921917,
            "wrist_2_joint": 1.2330224858903978,
            "wrist_3_joint": -3.094022268022082
        }
    },
    "waypoints": [
        {
            "positions": [
                -0.33786336945926293,
                -1.3736533754116391,
                2.422574709923281,
                -1.0288603412921917,
                1.2330224858903978,
                -3.094022268022082
            ]
        },
        {
            "positions": [
                -0.20782735202217115,
                -1.440103946337426,
                2.418498140864869,
                -0.9569657528568303,
                1.1661621014989343,
                -3.1016527592320466
            ]
        },
        {
            "positions": [
                -0.07779133458507936,
                -1.506554517263213,
                2.4144215718064577,
                -0.8850711644214688,
                1.0993017171074708,
                -3.1092832504420107
            ]
        },
        {
            "positions": [
                0.05224468285201239,
                -1.5730050881890003,
                2.4103450027480458,
                -0.8131765759861074,
                1.0324413327160076,
                -3.116913741651975
            ]
        },
        {
            "positions": [
                0.1822807002891042,
                -1.6394556591147873,
                2.4062684336896343,
                -0.7412819875507459,
                0.9655809483245441,
                -3.1245442328619397
            ]
        },
        {
            "positions": [
                0.312316717726196,
                -1.7059062300405743,
                2.4021918646312224,
                -0.6693873991153845,
                0.8987205639330806,
                -3.132174724071904
            ]
        },
        {
            "positions": [
                0.4423527351632877,
                -1.7723568009663615,
                2.3981152955728104,
                -0.597492810680023,
                0.8318601795416173,
                -3.1398052152818683
            ]
        },
        {
            "positions": [
                0.5723887526003795,
                -1.8388073718921485,
                2.394038726514399,
                -0.5255982222446616,
                0.7649997951501539,
                -3.1474357064918324
            ]
        },
        {
            "positions": [
                0.7024247700374714,
                -1.9052579428179355,
                2.389962157455987,
                -0.4537036338093002,
                0.6981394107586905,
                -3.155066197701797
            ]
        }
    ]
}