{
    "goal": {
        "global_pose": {
            "orientation": {
                "w": 0.7047431468963623,
                "x": -0.7094548344612122,
                "y": 0.0024358443915843964,
                "z": -0.0022348060738295317
            },
            "position": {
                "x": 0.6094750761985779,
                "y": 0.3671506643295288,
                "z": 0.19426114857196808
            }
        },
        "name": "move_to_magneteinheit_A"
    },
    "id": "ProjEST_move_to_magneteinheit_A_57",
    "joint_names": [
        "shoulder_pan_joint",
        "shoulder_lift_joint",
        "elbow_joint",
        "wrist_1_joint",
        "wrist_2_joint",
        "wrist_3_joint"
    ],
    "metrics": {
        "cart_traj_len": 2.0654800106669544,
        "distance_elbow_joint": 3.883843158860108,
        "distance_shoulder_lift_joint": 1.0585321595461452,
        "distance_shoulder_pan_joint": 1.240899848436306,
        "distance_wrist_1_joint": 1.175800951223997,
        "distance_wrist_2_joint": 1.4509581569137697,
        "distance_wrist_3_joint": 1.946943857780684,
        "smoothness": 6.125368442950309e-16,
        "time": 0.056726697000000006,
        "traj_len": 3.27978324478326,
        "weighted_distance": 4.156636255009589
    },
    "planner": "ProjEST",
    "start": {
        "state": {
            "elbow_joint": -1.919643507792019,
            "shoulder_lift_joint": -0.07675430207160344,
            "shoulder_pan_joint": -1.1188671864651873,
            "wrist_1_joint": 0.42560062535961957,
            "wrist_2_joint": 1.5706038300724876,
            "wrist_3_joint": 1.1188968870953055
        }
    },
    "waypoints": [
        {
            "positions": [
                -1.1188671864651873,
                -0.07675430207160344,
                -1.919643507792019,
                0.42560062535961957,
                1.5706038300724876,
                1.1188968870953055
            ]
        },
        {
            "positions": [
                -1.0745493347353192,
                -0.11455902205539434,
                -1.7809348235470153,
                0.3836077342444768,
                1.518783895896996,
                1.1884305963017585
            ]
        },
        {
            "positions": [
                -1.0302314830054513,
                -0.15236374203918523,
                -1.6422261393020114,
                0.34161484312933404,
                1.466963961721504,
                1.2579643055082115
            ]
        },
        {
            "positions": [
                -0.9859136312755832,
                -0.19016846202297613,
                -1.5035174550570076,
                0.2996219520141913,
                1.4151440275460123,
                1.3274980147146644
            ]
        },
        {
            "positions": [
                -0.941595779545715,
                -0.22797318200676703,
                -1.3648087708120036,
                0.2576290608990486,
                1.3633240933705206,
                1.3970317239211174
            ]
        },
        {
            "positions": [
                -0.8972779278158469,
                -0.26577790199055795,
                -1.2261000865669998,
                0.2156361697839058,
                1.3115041591950287,
                1.4665654331275706
            ]
        },
        {
            "positions": [
                -0.8529600760859789,
                -0.3035826219743488,
                -1.087391402321996,
                0.17364327866876306,
                1.259684225019537,
                1.5360991423340236
            ]
        },
        {
            "positions": [
                -0.8086422243561109,
                -0.34138734195813975,
                -0.9486827180769921,
                0.1316503875536203,
                1.2078642908440451,
                1.6056328515404765
            ]
        },
        {
            "positions": [
                -0.7643243726262428,
                -0.3791920619419306,
                -0.8099740338319883,
                0.08965749643847754,
                1.1560443566685534,
                1.6751665607469295
            ]
        },
        {
            "positions": [
                -0.7200065208963746,
                -0.4169967819257216,
                -0.6712653495869843,
                0.047664605323334774,
                1.1042244224930615,
                1.7447002699533827
            ]
        },
        {
            "positions": [
                -0.6756886691665066,
                -0.45480150190951246,
                -0.5325566653419804,
                0.0056717142081920136,
                1.0524044883175698,
                1.8142339791598356
            ]
        },
        {
            "positions": [
                -0.6313708174366386,
                -0.49260622189330333,
                -0.39384798109697683,
                -0.03632117690695069,
                1.000584554142078,
                1.8837676883662886
            ]
        },
        {
            "positions": [
                -0.5870529657067705,
                -0.5304109418770941,
                -0.255139296851973,
                -0.07831406802209345,
                0.9487646199665863,
                1.9533013975727416
            ]
        },
        {
            "positions": [
                -0.5427351139769023,
                -0.5682156618608851,
                -0.11643061260696896,
                -0.12030695913723627,
                0.8969446857910945,
                2.0228351067791945
            ]
        },
        {
            "positions": [
                -0.4984172622470343,
                -0.6060203818446761,
                0.022278071638034858,
                -0.16229985025237897,
                0.8451247516156027,
                2.0923688159856475
            ]
        },
        {
            "positions": [
                -0.4540994105171663,
                -0.6438251018284669,
                0.16098675588303846,
                -0.20429274136752168,
                0.7933048174401109,
                2.1619025251921005
            ]
        },
        {
            "positions": [
                -0.40978155878729816,
                -0.6816298218122578,
                0.2996954401280425,
                -0.2462856324826645,
                0.7414848832646193,
                2.2314362343985534
            ]
        },
        {
            "positions": [
                -0.36546370705743014,
                -0.7194345417960486,
                0.4384041243730461,
                -0.2882785235978072,
                0.6896649490891275,
                2.3009699436050064
            ]
        },
        {
            "positions": [
                -0.3211458553275619,
                -0.7572392617798398,
                0.5771128086180506,
                -0.33027141471295,
                0.6378450149136355,
                2.3705036528114594
            ]
        },
        {
            "positions": [
                -0.2768280035976939,
                -0.7950439817636306,
                0.7158214928630542,
                -0.3722643058280927,
                0.5860250807381439,
                2.4400373620179128
            ]
        },
        {
            "positions": [
                -0.23251015186782586,
                -0.8328487017474215,
                0.8545301771080582,
                -0.41425719694323554,
                0.5342051465626521,
                2.5095710712243653
            ]
        },
        {
            "positions": [
                -0.18819230013795774,
                -0.8706534217312123,
                0.9932388613530618,
                -0.45625008805837824,
                0.48238521238716037,
                2.5791047804308187
            ]
        },
        {
            "positions": [
                -0.14387444840808972,
                -0.9084581417150033,
                1.1319475455980654,
                -0.49824297917352095,
                0.43056527821166846,
                2.648638489637271
            ]
        },
        {
            "positions": [
                -0.0995565966782217,
                -0.946262861698794,
                1.2706562298430695,
                -0.5402358702886638,
                0.37874534403617677,
                2.7181721988437246
            ]
        },
        {
            "positions": [
                -0.05523874494835357,
                -0.984067581682585,
                1.409364914088073,
                -0.5822287614038064,
                0.3269254098606851,
                2.787705908050177
            ]
        },
        {
            "positions": [
                -0.010920893218485439,
                -1.021872301666376,
                1.5480735983330776,
                -0.6242216525189492,
                0.27510547568519317,
                2.8572396172566306
            ]
        },
        {
            "positions": [
                0.03339695851138269,
                -1.059677021650167,
                1.6867822825780812,
                -0.666214543634092,
                0.22328554150970148,
                2.9267733264630835
            ]
        },
        {
            "positions": [
                0.0777148102412506,
                -1.0974817416339577,
                1.8254909668230852,
                -0.7082074347492346,
                0.17146560733420957,
                2.9963070356695365
            ]
        },
        {
            "positions": [
                0.12203266197111869,
                -1.1352864616177487,
                1.964199651068089,
                -0.7502003258643775,
                0.11964567315871781,
                3.0658407448759895
            ]
        }
    ]
}