{
    "goal": {
        "global_pose": {
            "orientation": {
                "w": 0.7031023502349854,
                "x": -0.7110244035720825,
                "y": 0.007748599164187908,
                "z": 0.005598929710686207
            },
            "position": {
                "x": 0.11585023208521307,
                "y": 0.44412534475326537,
                "z": 0.3711530566215515
            }
        },
        "name": "move_to_auspresseinheit_A"
    },
    "id": "ProjEST_move_to_auspresseinheit_A_97",
    "joint_names": [
        "shoulder_pan_joint",
        "shoulder_lift_joint",
        "elbow_joint",
        "wrist_1_joint",
        "wrist_2_joint",
        "wrist_3_joint"
    ],
    "metrics": {
        "cart_traj_len": 0.7417280159372989,
        "distance_elbow_joint": 0.43753632733822334,
        "distance_shoulder_lift_joint": 0.5338197207861379,
        "distance_shoulder_pan_joint": 1.042901746844414,
        "distance_wrist_1_joint": 1.6452056817510117,
        "distance_wrist_2_joint": 1.194469883611214,
        "distance_wrist_3_joint": 2.4027303338551143,
        "smoothness": 1.125979584745338,
        "time": 0.31700456400000004,
        "traj_len": 2.693819536306416,
        "weighted_distance": 3.860284954152811
    },
    "planner": "ProjEST",
    "start": {
        "state": {
            "elbow_joint": 2.422574709923281,
            "shoulder_lift_joint": -1.3736533754116391,
            "shoulder_pan_joint": -0.33786336945926293,
            "wrist_1_joint": -1.0288603412921917,
            "wrist_2_joint": 1.2330224858903978,
            "wrist_3_joint": -3.094022268022082
        }
    },
    "waypoints": [
        {
            "positions": [
                -0.33786336945926293,
                -1.3736533754116391,
                2.422574709923281,
                -1.0288603412921917,
                1.2330224858903978,
                -3.094022268022082
            ]
        },
        {
            "positions": [
                -0.2958855430118017,
                -1.4142927997883747,
                2.401238464942952,
                -0.9282472467477797,
                1.1546461420139664,
                -2.9867702186802827
            ]
        },
        {
            "positions": [
                -0.25390771656434047,
                -1.4549322241651104,
                2.3799022199626223,
                -0.8276341522033677,
                1.076269798137535,
                -2.8795181693384833
            ]
        },
        {
            "positions": [
                -0.21192989011687927,
                -1.495571648541846,
                2.358565974982293,
                -0.7270210576589557,
                0.9978934542611037,
                -2.772266119996684
            ]
        },
        {
            "positions": [
                -0.16995206366941804,
                -1.5362110729185818,
                2.337229730001964,
                -0.6264079631145436,
                0.9195171103846723,
                -2.6650140706548844
            ]
        },
        {
            "positions": [
                -0.12797423722195683,
                -1.5768504972953175,
                2.315893485021635,
                -0.5257948685701317,
                0.841140766508241,
                -2.557762021313085
            ]
        },
        {
            "positions": [
                -0.0859964107744956,
                -1.617489921672053,
                2.2945572400413052,
                -0.42518177402571966,
                0.7627644226318095,
                -2.4505099719712855
            ]
        },
        {
            "positions": [
                -0.04401858432703437,
                -1.6581293460487887,
                2.273220995060976,
                -0.32456867948130763,
                0.6843880787553782,
                -2.343257922629486
            ]
        },
        {
            "positions": [
                -0.0020407578795731407,
                -1.6987687704255245,
                2.251884750080647,
                -0.2239555849368956,
                0.6060117348789469,
                -2.236005873287686
            ]
        },
        {
            "positions": [
                0.03993706856788809,
                -1.7394081948022602,
                2.2305485051003178,
                -0.12334249039248346,
                0.5276353910025154,
                -2.128753823945887
            ]
        },
        {
            "positions": [
                0.08191489501534926,
                -1.7800476191789958,
                2.209212260119988,
                -0.022729395848071654,
                0.4492590471260842,
                -2.0215017746040873
            ]
        },
        {
            "positions": [
                0.1238927214628105,
                -1.8206870435557314,
                2.187876015139659,
                0.07788369869634047,
                0.3708827032496528,
                -1.914249725262288
            ]
        },
        {
            "positions": [
                0.19653592845310305,
                -1.831535300135987,
                2.213230719208984,
                0.010575993476030512,
                0.41242396587096136,
                -2.067119449149203
            ]
        },
        {
            "positions": [
                0.2691791354433956,
                -1.8423835567162428,
                2.2385854232783093,
                -0.05673171174427945,
                0.45396522849226995,
                -2.2199891730361183
            ]
        },
        {
            "positions": [
                0.34182234243368814,
                -1.8532318132964984,
                2.2639401273476345,
                -0.12403941696458941,
                0.4955064911135786,
                -2.372858896923033
            ]
        },
        {
            "positions": [
                0.41446554942398073,
                -1.8640800698767541,
                2.2892948314169597,
                -0.19134712218489935,
                0.5370477537348872,
                -2.5257286208099483
            ]
        },
        {
            "positions": [
                0.4871087564142733,
                -1.87492832645701,
                2.314649535486285,
                -0.2586548274052093,
                0.5785890163561958,
                -2.678598344696863
            ]
        },
        {
            "positions": [
                0.5597519634045658,
                -1.8857765830372657,
                2.34000423955561,
                -0.3259625326255193,
                0.6201302789775044,
                -2.8314680685837783
            ]
        },
        {
            "positions": [
                0.6323951703948584,
                -1.8966248396175214,
                2.365358943624935,
                -0.39327023784582926,
                0.661671541598813,
                -2.9843377924706935
            ]
        },
        {
            "positions": [
                0.705038377385151,
                -1.907473096197777,
                2.3907136476942603,
                -0.4605779430661392,
                0.7032128042201216,
                -3.1372075163576083
            ]
        }
    ]
}