{
    "goal": {
        "global_pose": {
            "orientation": {
                "w": 0.5084816217422485,
                "x": -0.49083608388900757,
                "y": 0.5182115435600281,
                "z": -0.4816462993621826
            },
            "position": {
                "x": 0.5540239810943604,
                "y": 0.030875300988554955,
                "z": 0.16403168439865112
            }
        },
        "name": "move_to_storage_A"
    },
    "id": "ProjEST_move_to_storage_A_15",
    "joint_names": [
        "shoulder_pan_joint",
        "shoulder_lift_joint",
        "elbow_joint",
        "wrist_1_joint",
        "wrist_2_joint",
        "wrist_3_joint"
    ],
    "metrics": {
        "cart_traj_len": 0.35300604408844094,
        "distance_elbow_joint": 0.4505640162573661,
        "distance_shoulder_lift_joint": 0.23364052157893012,
        "distance_shoulder_pan_joint": 0.45977149113427707,
        "distance_wrist_1_joint": 0.24587081435173508,
        "distance_wrist_2_joint": 1.1063511548077432,
        "distance_wrist_3_joint": 0.09661732362834119,
        "smoothness": 2.2204460668324854e-16,
        "time": 0.042777209,
        "traj_len": 1.6102221342902951,
        "weighted_distance": 2.034274302589145
    },
    "planner": "ProjEST",
    "start": {
        "state": {
            "elbow_joint": 1.9715463870305268,
            "shoulder_lift_joint": -1.1394903361783484,
            "shoulder_pan_joint": 0.12281147578464417,
            "wrist_1_joint": -0.7804599489681411,
            "wrist_2_joint": 0.12958660307563738,
            "wrist_3_joint": -3.1924946282119055
        }
    },
    "waypoints": [
        {
            "positions": [
                0.12281147578464417,
                -1.1394903361783484,
                1.9715463870305268,
                -0.7804599489681411,
                0.12958660307563738,
                -3.1924946282119055
            ]
        },
        {
            "positions": [
                0.05712983419403317,
                -1.172867553546767,
                2.0359126750672933,
                -0.815584351018389,
                0.2876367680481721,
                -3.178692153407857
            ]
        },
        {
            "positions": [
                -0.008551807396577835,
                -1.2062447709151856,
                2.10027896310406,
                -0.8507087530686368,
                0.44568693302070683,
                -3.164889678603808
            ]
        },
        {
            "positions": [
                -0.07423344898718885,
                -1.2396219882836041,
                2.1646452511408265,
                -0.8858331551188847,
                0.6037370979932416,
                -3.1510872037997593
            ]
        },
        {
            "positions": [
                -0.13991509057779983,
                -1.2729992056520227,
                2.229011539177593,
                -0.9209575571691325,
                0.7617872629657764,
                -3.1372847289957106
            ]
        },
        {
            "positions": [
                -0.20559673216841085,
                -1.3063764230204413,
                2.2933778272143597,
                -0.9560819592193804,
                0.9198374279383111,
                -3.123482254191662
            ]
        },
        {
            "positions": [
                -0.27127837375902186,
                -1.33975364038886,
                2.3577441152511263,
                -0.9912063612696282,
                1.0778875929108458,
                -3.109679779387613
            ]
        },
        {
            "positions": [
                -0.3369600153496329,
                -1.3731308577572785,
                2.422110403287893,
                -1.0263307633198762,
                1.2359377578833806,
                -3.0958773045835644
            ]
        }
    ]
}