{
    "goal": {
        "global_pose": {
            "orientation": {
                "w": 0.5084816217422485,
                "x": -0.49083608388900757,
                "y": 0.5182115435600281,
                "z": -0.4816462993621826
            },
            "position": {
                "x": 0.5540239810943604,
                "y": 0.030875300988554955,
                "z": 0.16403168439865112
            }
        },
        "name": "move_to_storage_A"
    },
    "id": "ProjEST_move_to_storage_A_87",
    "joint_names": [
        "shoulder_pan_joint",
        "shoulder_lift_joint",
        "elbow_joint",
        "wrist_1_joint",
        "wrist_2_joint",
        "wrist_3_joint"
    ],
    "metrics": {
        "cart_traj_len": 0.35288126684093746,
        "distance_elbow_joint": 0.45183709108882475,
        "distance_shoulder_lift_joint": 0.23271636321419598,
        "distance_shoulder_pan_joint": 0.460699920310682,
        "distance_wrist_1_joint": 0.2580224460925239,
        "distance_wrist_2_joint": 1.1005380679357237,
        "distance_wrist_3_joint": 0.10952995379828678,
        "smoothness": 7.771561092534257e-16,
        "time": 0.039249515,
        "traj_len": 1.6165840041396666,
        "weighted_distance": 2.047184472407179
    },
    "planner": "ProjEST",
    "start": {
        "state": {
            "elbow_joint": 1.9715463870305268,
            "shoulder_lift_joint": -1.1394903361783484,
            "shoulder_pan_joint": 0.12281147578464417,
            "wrist_1_joint": -0.7804599489681411,
            "wrist_2_joint": 0.12958660307563738,
            "wrist_3_joint": -3.1924946282119055
        }
    },
    "waypoints": [
        {
            "positions": [
                0.12281147578464417,
                -1.1394903361783484,
                1.9715463870305268,
                -0.7804599489681411,
                0.12958660307563738,
                -3.1924946282119055
            ]
        },
        {
            "positions": [
                0.056997201454546745,
                -1.1727355309232335,
                2.0360945429003587,
                -0.8173202984099303,
                0.28680632706645504,
                -3.1768474919550074
            ]
        },
        {
            "positions": [
                -0.008817072875550683,
                -1.2059807256681188,
                2.100642698770191,
                -0.8541806478517193,
                0.44402605105727266,
                -3.161200355698109
            ]
        },
        {
            "positions": [
                -0.07463134720564811,
                -1.2392259204130038,
                2.165190854640023,
                -0.8910409972935085,
                0.6012457750480904,
                -3.145553219441211
            ]
        },
        {
            "positions": [
                -0.14044562153574552,
                -1.272471115157889,
                2.229739010509855,
                -0.9279013467352976,
                0.758465499038908,
                -3.1299060831843133
            ]
        },
        {
            "positions": [
                -0.20625989586584298,
                -1.305716309902774,
                2.2942871663796875,
                -0.9647616961770867,
                0.9156852230297258,
                -3.114258946927415
            ]
        },
        {
            "positions": [
                -0.2720741701959404,
                -1.3389615046476593,
                2.3588353222495195,
                -1.0016220456188758,
                1.0729049470205434,
                -3.098611810670517
            ]
        },
        {
            "positions": [
                -0.33788844452603783,
                -1.3722066993925444,
                2.4233834781193515,
                -1.038482395060665,
                1.2301246710113611,
                -3.0829646744136188
            ]
        }
    ]
}