{
    "goal": {
        "global_pose": {
            "orientation": {
                "w": 0.5084816217422485,
                "x": -0.49083608388900757,
                "y": 0.5182115435600281,
                "z": -0.4816462993621826
            },
            "position": {
                "x": 0.5540239810943604,
                "y": 0.030875300988554955,
                "z": 0.16403168439865112
            }
        },
        "name": "move_to_storage_A"
    },
    "id": "ProjEST_move_to_storage_A_112",
    "joint_names": [
        "shoulder_pan_joint",
        "shoulder_lift_joint",
        "elbow_joint",
        "wrist_1_joint",
        "wrist_2_joint",
        "wrist_3_joint"
    ],
    "metrics": {
        "cart_traj_len": 0.3533631809074016,
        "distance_elbow_joint": 0.44919413759181737,
        "distance_shoulder_lift_joint": 0.23329954000776754,
        "distance_shoulder_pan_joint": 0.45826230722568945,
        "distance_wrist_1_joint": 0.24496601848174182,
        "distance_wrist_2_joint": 1.1148042505338904,
        "distance_wrist_3_joint": 0.10580941551111156,
        "smoothness": 4.440892098500626e-16,
        "time": 0.066722761,
        "traj_len": 1.614414961945044,
        "weighted_distance": 2.043948328453993
    },
    "planner": "ProjEST",
    "start": {
        "state": {
            "elbow_joint": 1.9715463870305268,
            "shoulder_lift_joint": -1.1394903361783484,
            "shoulder_pan_joint": 0.12281147578464417,
            "wrist_1_joint": -0.7804599489681411,
            "wrist_2_joint": 0.12958660307563738,
            "wrist_3_joint": -3.1924946282119055
        }
    },
    "waypoints": [
        {
            "positions": [
                0.12281147578464417,
                -1.1394903361783484,
                1.9715463870305268,
                -0.7804599489681411,
                0.12958660307563738,
                -3.1924946282119055
            ]
        },
        {
            "positions": [
                0.057345431895259966,
                -1.1728188418937437,
                2.035716978115072,
                -0.8154550944655328,
                0.28884435315190743,
                -3.177378997424604
            ]
        },
        {
            "positions": [
                -0.008120611994124241,
                -1.206147347609139,
                2.0998875691996175,
                -0.8504502399629245,
                0.44810210322817745,
                -3.162263366637302
            ]
        },
        {
            "positions": [
                -0.07358665588350845,
                -1.2394758533245345,
                2.1640581602841626,
                -0.8854453854603161,
                0.6073598533044475,
                -3.1471477358500004
            ]
        },
        {
            "positions": [
                -0.13905269977289264,
                -1.2728043590399298,
                2.2282287513687082,
                -0.9204405309577078,
                0.7666176033807176,
                -3.132032105062699
            ]
        },
        {
            "positions": [
                -0.20451874366227685,
                -1.3061328647553252,
                2.2923993424532534,
                -0.9554356764550995,
                0.9258753534569877,
                -3.1169164742753974
            ]
        },
        {
            "positions": [
                -0.26998478755166105,
                -1.3394613704707206,
                2.3565699335377985,
                -0.9904308219524912,
                1.0851331035332576,
                -3.1018008434880957
            ]
        },
        {
            "positions": [
                -0.33545083144104526,
                -1.372789876186116,
                2.420740524622344,
                -1.025425967449883,
                1.2443908536095278,
                -3.086685212700794
            ]
        }
    ]
}