{
    "goal": {
        "global_pose": {
            "orientation": {
                "w": 0.7047431468963623,
                "x": -0.7094548344612122,
                "y": 0.0024358443915843964,
                "z": -0.0022348060738295317
            },
            "position": {
                "x": 0.6094750761985779,
                "y": 0.3671506643295288,
                "z": 0.19426114857196808
            }
        },
        "name": "move_to_magneteinheit_A"
    },
    "id": "ProjEST_move_to_magneteinheit_A_107",
    "joint_names": [
        "shoulder_pan_joint",
        "shoulder_lift_joint",
        "elbow_joint",
        "wrist_1_joint",
        "wrist_2_joint",
        "wrist_3_joint"
    ],
    "metrics": {
        "cart_traj_len": 1.8800099330876316,
        "distance_elbow_joint": 3.9063706483099137,
        "distance_shoulder_lift_joint": 0.6981973475322185,
        "distance_shoulder_pan_joint": 1.241169220108398,
        "distance_wrist_1_joint": 1.4795353115219143,
        "distance_wrist_2_joint": 1.6935217944392855,
        "distance_wrist_3_joint": 1.101680272227368,
        "smoothness": 3.2895497286407187e-16,
        "time": 0.205607545,
        "traj_len": 3.181269336937553,
        "weighted_distance": 3.936609231884089
    },
    "planner": "ProjEST",
    "start": {
        "state": {
            "elbow_joint": -1.919643507792019,
            "shoulder_lift_joint": -0.07675430207160344,
            "shoulder_pan_joint": -1.1188671864651873,
            "wrist_1_joint": 0.42560062535961957,
            "wrist_2_joint": 1.5706038300724876,
            "wrist_3_joint": 1.1188968870953055
        }
    },
    "waypoints": [
        {
            "positions": [
                -1.1188671864651873,
                -0.07675430207160344,
                -1.919643507792019,
                0.42560062535961957,
                1.5706038300724876,
                1.1188968870953055
            ]
        },
        {
            "positions": [
                -1.0711299087687105,
                -0.103608046207458,
                -1.7693984828570224,
                0.48250582964892397,
                1.5054683764402075,
                1.0765245689327145
            ]
        },
        {
            "positions": [
                -1.0233926310722337,
                -0.13046179034331257,
                -1.6191534579220257,
                0.5394110339382283,
                1.4403329228079271,
                1.0341522507701233
            ]
        },
        {
            "positions": [
                -0.9756553533757568,
                -0.15731553447916713,
                -1.468908432987029,
                0.5963162382275328,
                1.375197469175647,
                0.9917799326075323
            ]
        },
        {
            "positions": [
                -0.92791807567928,
                -0.1841692786150217,
                -1.3186634080520323,
                0.6532214425168372,
                1.3100620155433669,
                0.9494076144449413
            ]
        },
        {
            "positions": [
                -0.8801807979828031,
                -0.21102302275087623,
                -1.1684183831170356,
                0.7101266468061416,
                1.2449265619110865,
                0.9070352962823501
            ]
        },
        {
            "positions": [
                -0.8324435202863263,
                -0.2378767668867308,
                -1.018173358182039,
                0.7670318510954459,
                1.1797911082788062,
                0.864662978119759
            ]
        },
        {
            "positions": [
                -0.7847062425898494,
                -0.2647305110225854,
                -0.8679283332470424,
                0.8239370553847503,
                1.1146556546465263,
                0.822290659957168
            ]
        },
        {
            "positions": [
                -0.7369689648933726,
                -0.2915842551584399,
                -0.7176833083120455,
                0.8808422596740548,
                1.049520201014246,
                0.779918341794577
            ]
        },
        {
            "positions": [
                -0.6892316871968958,
                -0.31843799929429445,
                -0.567438283377049,
                0.9377474639633592,
                0.9843847473819657,
                0.7375460236319858
            ]
        },
        {
            "positions": [
                -0.6414944095004189,
                -0.345291743430149,
                -0.41719325844205213,
                0.9946526682526635,
                0.9192492937496854,
                0.6951737054693947
            ]
        },
        {
            "positions": [
                -0.5937571318039421,
                -0.3721454875660036,
                -0.26694823350705565,
                1.0515578725419679,
                0.8541138401174053,
                0.6528013873068037
            ]
        },
        {
            "positions": [
                -0.5460198541074652,
                -0.39899923170185814,
                -0.11670320857205874,
                1.1084630768312724,
                0.788978386485125,
                0.6104290691442126
            ]
        },
        {
            "positions": [
                -0.4982825764109884,
                -0.4258529758377127,
                0.03354181636293774,
                1.1653682811205768,
                0.7238429328528448,
                0.5680567509816216
            ]
        },
        {
            "positions": [
                -0.45054529871451154,
                -0.45270671997356726,
                0.1837868412979342,
                1.2222734854098811,
                0.6587074792205647,
                0.5256844328190305
            ]
        },
        {
            "positions": [
                -0.4028080210180348,
                -0.47956046410942177,
                0.3340318662329309,
                1.2791786896991855,
                0.5935720255882845,
                0.4833121146564394
            ]
        },
        {
            "positions": [
                -0.35507074332155786,
                -0.5064142082452764,
                0.48427689116792805,
                1.33608389398849,
                0.5284365719560042,
                0.4409397964938483
            ]
        },
        {
            "positions": [
                -0.307333465625081,
                -0.533267952381131,
                0.6345219161029243,
                1.3929890982777944,
                0.4633011183237239,
                0.3985674783312573
            ]
        },
        {
            "positions": [
                -0.25959618792860417,
                -0.5601216965169855,
                0.784766941037921,
                1.4498943025670987,
                0.39816566469144377,
                0.35619516016866615
            ]
        },
        {
            "positions": [
                -0.21185891023212733,
                -0.58697544065284,
                0.9350119659729177,
                1.506799506856403,
                0.33303021105916364,
                0.31382284200607513
            ]
        },
        {
            "positions": [
                -0.16412163253565049,
                -0.6138291847886945,
                1.0852569909079148,
                1.5637047111457076,
                0.2678947574268833,
                0.271450523843484
            ]
        },
        {
            "positions": [
                -0.11638435483917364,
                -0.6406829289245493,
                1.235502015842911,
                1.620609915435012,
                0.20275930379460316,
                0.229078205680893
            ]
        },
        {
            "positions": [
                -0.0686470771426968,
                -0.6675366730604038,
                1.3857470407779078,
                1.6775151197243163,
                0.13762385016232304,
                0.18670588751830186
            ]
        },
        {
            "positions": [
                -0.020909799446219957,
                -0.6943904171962583,
                1.5359920657129045,
                1.7344203240136207,
                0.07248839653004269,
                0.14433356935571084
            ]
        },
        {
            "positions": [
                0.026827478250256886,
                -0.7212441613321128,
                1.6862370906479016,
                1.7913255283029252,
                0.007352942897762338,
                0.1019612511931196
            ]
        },
        {
            "positions": [
                0.07456475594673373,
                -0.7480979054679675,
                1.8364821155828979,
                1.8482307325922296,
                -0.05778251073451779,
                0.05958893303052859
            ]
        },
        {
            "positions": [
                0.12230203364321064,
                -0.774951649603822,
                1.9867271405178946,
                1.905135936881534,
                -0.12291796436679803,
                0.017216614867937522
            ]
        }
    ]
}