{
    "goal": {
        "global_pose": {
            "orientation": {
                "w": 0.7031023502349854,
                "x": -0.7110244035720825,
                "y": 0.007748599164187908,
                "z": 0.005598929710686207
            },
            "position": {
                "x": 0.11585023208521307,
                "y": 0.44412534475326537,
                "z": 0.3711530566215515
            }
        },
        "name": "move_to_auspresseinheit_A"
    },
    "id": "ProjEST_move_to_auspresseinheit_A_104",
    "joint_names": [
        "shoulder_pan_joint",
        "shoulder_lift_joint",
        "elbow_joint",
        "wrist_1_joint",
        "wrist_2_joint",
        "wrist_3_joint"
    ],
    "metrics": {
        "cart_traj_len": 0.652862115883005,
        "distance_elbow_joint": 0.0709347489275447,
        "distance_shoulder_lift_joint": 0.5319985883480269,
        "distance_shoulder_pan_joint": 1.0420871369708937,
        "distance_wrist_1_joint": 1.426177385131453,
        "distance_wrist_2_joint": 0.533571438202083,
        "distance_wrist_3_joint": 2.2942133858293876,
        "smoothness": 1.1108707592234526,
        "time": 0.524779446,
        "traj_len": 2.4287821399642637,
        "weighted_distance": 3.5280530435924145
    },
    "planner": "ProjEST",
    "start": {
        "state": {
            "elbow_joint": 2.422574709923281,
            "shoulder_lift_joint": -1.3736533754116391,
            "shoulder_pan_joint": -0.33786336945926293,
            "wrist_1_joint": -1.0288603412921917,
            "wrist_2_joint": 1.2330224858903978,
            "wrist_3_joint": -3.094022268022082
        }
    },
    "waypoints": [
        {
            "positions": [
                -0.33786336945926293,
                -1.3736533754116391,
                2.422574709923281,
                -1.0288603412921917,
                1.2330224858903978,
                -3.094022268022082
            ]
        },
        {
            "positions": [
                -0.3034057726103969,
                -1.4092980536460569,
                2.4250493515687195,
                -0.9040939086206792,
                1.1862097320358103,
                -2.9535755446164957
            ]
        },
        {
            "positions": [
                -0.26894817576153085,
                -1.4449427318804746,
                2.4275239932141575,
                -0.7793274759491666,
                1.1393969781812228,
                -2.8131288212109093
            ]
        },
        {
            "positions": [
                -0.2344905789126648,
                -1.4805874101148921,
                2.4299986348595954,
                -0.6545610432776541,
                1.0925842243266353,
                -2.672682097805323
            ]
        },
        {
            "positions": [
                -0.20003298206379877,
                -1.51623208834931,
                2.432473276505034,
                -0.5297946106061415,
                1.0457714704720478,
                -2.5322353743997366
            ]
        },
        {
            "positions": [
                -0.16557538521493273,
                -1.5518767665837276,
                2.4349479181504723,
                -0.405028177934629,
                0.9989587166174603,
                -2.39178865099415
            ]
        },
        {
            "positions": [
                -0.1311177883660667,
                -1.5875214448181452,
                2.4374225597959103,
                -0.2802617452631164,
                0.9521459627628728,
                -2.2513419275885638
            ]
        },
        {
            "positions": [
                -0.09666019151720065,
                -1.623166123052563,
                2.4398972014413483,
                -0.15549531259160387,
                0.9053332089082853,
                -2.1108952041829774
            ]
        },
        {
            "positions": [
                -0.06220259466833464,
                -1.6588108012869807,
                2.4423718430867867,
                -0.030728879920091268,
                0.8585204550536978,
                -1.970448480777391
            ]
        },
        {
            "positions": [
                0.03360070060416105,
                -1.6896659465960664,
                2.435979641116282,
                -0.08423462039001026,
                0.8386367791330249,
                -2.116778430600478
            ]
        },
        {
            "positions": [
                0.12940399587665674,
                -1.7205210919051521,
                2.429587439145777,
                -0.13774036085992925,
                0.8187531032123521,
                -2.263108380423565
            ]
        },
        {
            "positions": [
                0.22520729114915242,
                -1.7513762372142376,
                2.423195237175272,
                -0.19124610132984826,
                0.7988694272916792,
                -2.409438330246652
            ]
        },
        {
            "positions": [
                0.32101058642164815,
                -1.7822313825233234,
                2.416803035204767,
                -0.24475184179976725,
                0.7789857513710063,
                -2.5557682800697394
            ]
        },
        {
            "positions": [
                0.4168138816941438,
                -1.813086527832409,
                2.410410833234262,
                -0.29825758226968624,
                0.7591020754503334,
                -2.702098229892826
            ]
        },
        {
            "positions": [
                0.5126171769666394,
                -1.8439416731414946,
                2.4040186312637575,
                -0.35176332273960526,
                0.7392183995296605,
                -2.8484281797159134
            ]
        },
        {
            "positions": [
                0.6084204722391352,
                -1.8747968184505803,
                2.3976264292932523,
                -0.4052690632095242,
                0.7193347236089876,
                -2.9947581295390004
            ]
        },
        {
            "positions": [
                0.7042237675116308,
                -1.905651963759666,
                2.3912342273227476,
                -0.45877480367944323,
                0.6994510476883148,
                -3.1410880793620874
            ]
        }
    ]
}