{
    "goal": {
        "global_pose": {
            "orientation": {
                "w": 0.7047431468963623,
                "x": -0.7094548344612122,
                "y": 0.0024358443915843964,
                "z": -0.0022348060738295317
            },
            "position": {
                "x": 0.6094750761985779,
                "y": 0.3671506643295288,
                "z": 0.19426114857196808
            }
        },
        "name": "move_to_magneteinheit_A"
    },
    "id": "ProjEST_move_to_magneteinheit_A_75",
    "joint_names": [
        "shoulder_pan_joint",
        "shoulder_lift_joint",
        "elbow_joint",
        "wrist_1_joint",
        "wrist_2_joint",
        "wrist_3_joint"
    ],
    "metrics": {
        "cart_traj_len": 1.8801681845646825,
        "distance_elbow_joint": 3.9080783216496116,
        "distance_shoulder_lift_joint": 0.6975204799968987,
        "distance_shoulder_pan_joint": 1.2411940698823254,
        "distance_wrist_1_joint": 1.4774313581908112,
        "distance_wrist_2_joint": 1.7049995510113636,
        "distance_wrist_3_joint": 1.0965690929501277,
        "smoothness": 4.605369601539975e-16,
        "time": 0.09903680999999999,
        "traj_len": 3.182105100979717,
        "weighted_distance": 3.9371769034148785
    },
    "planner": "ProjEST",
    "start": {
        "state": {
            "elbow_joint": -1.919643507792019,
            "shoulder_lift_joint": -0.07675430207160344,
            "shoulder_pan_joint": -1.1188671864651873,
            "wrist_1_joint": 0.42560062535961957,
            "wrist_2_joint": 1.5706038300724876,
            "wrist_3_joint": 1.1188968870953055
        }
    },
    "waypoints": [
        {
            "positions": [
                -1.1188671864651873,
                -0.07675430207160344,
                -1.919643507792019,
                0.42560062535961957,
                1.5706038300724876,
                1.1188968870953055
            ]
        },
        {
            "positions": [
                -1.071128953008175,
                -0.10358201284071494,
                -1.7693328031131879,
                0.48242490836695845,
                1.5050269242643581,
                1.0767211527510698
            ]
        },
        {
            "positions": [
                -1.0233907195511622,
                -0.13040972360982644,
                -1.6190220984343566,
                0.5392491913742974,
                1.4394500184562289,
                1.0345454184068341
            ]
        },
        {
            "positions": [
                -0.9756524860941498,
                -0.15723743437893792,
                -1.4687113937555254,
                0.5960734743816363,
                1.3738731126480994,
                0.9923696840625985
            ]
        },
        {
            "positions": [
                -0.9279142526371373,
                -0.18406514514804942,
                -1.3184006890766942,
                0.6528977573889752,
                1.3082962068399702,
                0.9501939497183628
            ]
        },
        {
            "positions": [
                -0.8801760191801248,
                -0.21089285591716092,
                -1.168089984397863,
                0.709722040396314,
                1.2427193010318407,
                0.9080182153741272
            ]
        },
        {
            "positions": [
                -0.8324377857231122,
                -0.2377205666862724,
                -1.0177792797190317,
                0.7665463234036529,
                1.1771423952237114,
                0.8658424810298915
            ]
        },
        {
            "positions": [
                -0.7846995522660998,
                -0.2645482774553839,
                -0.8674685750402007,
                0.8233706064109918,
                1.111565489415582,
                0.8236667466856558
            ]
        },
        {
            "positions": [
                -0.7369613188090872,
                -0.2913759882244954,
                -0.7171578703613692,
                0.8801948894183307,
                1.0459885836074525,
                0.78149101234142
            ]
        },
        {
            "positions": [
                -0.6892230853520747,
                -0.3182036989936069,
                -0.5668471656825382,
                0.9370191724256696,
                0.9804116777993233,
                0.7393152779971844
            ]
        },
        {
            "positions": [
                -0.6414848518950622,
                -0.3450314097627184,
                -0.4165364610037068,
                0.9938434554330084,
                0.9148347719911939,
                0.6971395436529487
            ]
        },
        {
            "positions": [
                -0.5937466184380497,
                -0.37185912053182985,
                -0.2662257563248758,
                1.0506677384403473,
                0.8492578661830645,
                0.6549638093087131
            ]
        },
        {
            "positions": [
                -0.5460083849810371,
                -0.39868683130094135,
                -0.11591505164604432,
                1.1074920214476862,
                0.7836809603749352,
                0.6127880749644773
            ]
        },
        {
            "positions": [
                -0.49827015152402465,
                -0.42551454207005285,
                0.03439565303278669,
                1.164316304455025,
                0.7181040545668058,
                0.5706123406202417
            ]
        },
        {
            "positions": [
                -0.4505319180670122,
                -0.45234225283916435,
                0.1847063577116177,
                1.221140587462364,
                0.6525271487586765,
                0.5284366062760061
            ]
        },
        {
            "positions": [
                -0.40279368460999965,
                -0.4791699636082758,
                0.3350170623904487,
                1.2779648704697029,
                0.5869502429505472,
                0.48626087193177037
            ]
        },
        {
            "positions": [
                -0.3550554511529871,
                -0.5059976743773873,
                0.4853277670692806,
                1.334789153477042,
                0.5213733371424176,
                0.44408513758753465
            ]
        },
        {
            "positions": [
                -0.30731721769597453,
                -0.5328253851464988,
                0.6356384717481116,
                1.3916134364843806,
                0.4557964313342884,
                0.40190940324329893
            ]
        },
        {
            "positions": [
                -0.2595789842389621,
                -0.5596530959156103,
                0.7859491764269426,
                1.4484377194917197,
                0.3902195255261589,
                0.35973366889906333
            ]
        },
        {
            "positions": [
                -0.21184075078194964,
                -0.5864808066847218,
                0.9362598811057736,
                1.5052620024990584,
                0.32464261971802966,
                0.3175579345548276
            ]
        },
        {
            "positions": [
                -0.16410251732493697,
                -0.6133085174538333,
                1.0865705857846055,
                1.5620862855063975,
                0.2590657139099002,
                0.2753822002105919
            ]
        },
        {
            "positions": [
                -0.11636428386792441,
                -0.6401362282229448,
                1.2368812904634365,
                1.6189105685137364,
                0.19348880810177094,
                0.23320646586635618
            ]
        },
        {
            "positions": [
                -0.06862605041091197,
                -0.6669639389920563,
                1.3871919951422675,
                1.6757348515210753,
                0.12791190229364147,
                0.19103073152212058
            ]
        },
        {
            "positions": [
                -0.02088781695389952,
                -0.6937916497611678,
                1.5375026998210986,
                1.7325591345284141,
                0.06233499648551222,
                0.14885499717788486
            ]
        },
        {
            "positions": [
                0.02685041650311315,
                -0.7206193605302793,
                1.6878134044999304,
                1.789383417535753,
                -0.0032419093226172535,
                0.10667926283364904
            ]
        },
        {
            "positions": [
                0.0745886499601256,
                -0.7474470712993908,
                1.8381241091787615,
                1.846207700543092,
                -0.06881881513074672,
                0.06450352848941354
            ]
        },
        {
            "positions": [
                0.12232688341713795,
                -0.7742747820685022,
                1.9884348138575922,
                1.9030319835504308,
                -0.13439572093887608,
                0.02232779414517776
            ]
        }
    ]
}