{
    "goal": {
        "global_pose": {
            "orientation": {
                "w": 0.7031023502349854,
                "x": -0.7110244035720825,
                "y": 0.007748599164187908,
                "z": 0.005598929710686207
            },
            "position": {
                "x": 0.11585023208521307,
                "y": 0.44412534475326537,
                "z": 0.3711530566215515
            }
        },
        "name": "move_to_auspresseinheit_A"
    },
    "id": "ProjEST_move_to_auspresseinheit_A_123",
    "joint_names": [
        "shoulder_pan_joint",
        "shoulder_lift_joint",
        "elbow_joint",
        "wrist_1_joint",
        "wrist_2_joint",
        "wrist_3_joint"
    ],
    "metrics": {
        "cart_traj_len": 0.8825074543217774,
        "distance_elbow_joint": 0.8670244967550227,
        "distance_shoulder_lift_joint": 0.5317794744459954,
        "distance_shoulder_pan_joint": 1.0404946400149133,
        "distance_wrist_1_joint": 3.8945798242680016,
        "distance_wrist_2_joint": 0.5342611066422028,
        "distance_wrist_3_joint": 2.0383070333123356,
        "smoothness": 1.0097263038308402,
        "time": 0.048121327,
        "traj_len": 2.9843670309528743,
        "weighted_distance": 4.172757070927248
    },
    "planner": "ProjEST",
    "start": {
        "state": {
            "elbow_joint": 2.422574709923281,
            "shoulder_lift_joint": -1.3736533754116391,
            "shoulder_pan_joint": -0.33786336945926293,
            "wrist_1_joint": -1.0288603412921917,
            "wrist_2_joint": 1.2330224858903978,
            "wrist_3_joint": -3.094022268022082
        }
    },
    "waypoints": [
        {
            "positions": [
                -0.33786336945926293,
                -1.3736533754116391,
                2.422574709923281,
                -1.0288603412921917,
                1.2330224858903978,
                -3.094022268022082
            ]
        },
        {
            "positions": [
                -0.32891129861550134,
                -1.4013104208112654,
                2.3851211018473797,
                -0.8427385524441751,
                1.2010237219319149,
                -3.0110877018376905
            ]
        },
        {
            "positions": [
                -0.31995922777173974,
                -1.4289674662108915,
                2.347667493771478,
                -0.6566167635961584,
                1.1690249579734318,
                -2.9281531356532993
            ]
        },
        {
            "positions": [
                -0.31100715692797815,
                -1.4566245116105179,
                2.3102138856955765,
                -0.4704949747481417,
                1.1370261940149489,
                -2.8452185694689076
            ]
        },
        {
            "positions": [
                -0.30205508608421655,
                -1.4842815570101442,
                2.272760277619675,
                -0.28437318590012506,
                1.105027430056466,
                -2.7622840032845164
            ]
        },
        {
            "positions": [
                -0.29310301524045496,
                -1.5119386024097703,
                2.2353066695437733,
                -0.09825139705210839,
                1.0730286660979829,
                -2.6793494371001247
            ]
        },
        {
            "positions": [
                -0.28415094439669336,
                -1.5395956478093966,
                2.197853061467872,
                0.08787039179590828,
                1.0410299021395,
                -2.5964148709157335
            ]
        },
        {
            "positions": [
                -0.27519887355293177,
                -1.567252693209023,
                2.1603994533919706,
                0.27399218064392494,
                1.009031138181017,
                -2.513480304731342
            ]
        },
        {
            "positions": [
                -0.26624680270917017,
                -1.594909738608649,
                2.122945845316069,
                0.4601139694919416,
                0.9770323742225342,
                -2.43054573854695
            ]
        },
        {
            "positions": [
                -0.2572947318654086,
                -1.6225667840082754,
                2.0854922372401674,
                0.6462357583399583,
                0.9450336102640512,
                -2.347611172362559
            ]
        },
        {
            "positions": [
                -0.24834266102164698,
                -1.6502238294079017,
                2.048038629164266,
                0.8323575471879749,
                0.9130348463055682,
                -2.2646766061781674
            ]
        },
        {
            "positions": [
                -0.2393905901778854,
                -1.6778808748075278,
                2.0105850210883642,
                1.0184793360359916,
                0.8810360823470853,
                -2.181742039993776
            ]
        },
        {
            "positions": [
                -0.2304385193341238,
                -1.7055379202071541,
                1.9731314130124629,
                1.2046011248840085,
                0.8490373183886023,
                -2.0988074738093845
            ]
        },
        {
            "positions": [
                -0.15268270350997595,
                -1.7221958310113608,
                2.0079298463328135,
                1.066174595043025,
                0.836514323460235,
                -2.1857318270676878
            ]
        },
        {
            "positions": [
                -0.07492688768582811,
                -1.7388537418155674,
                2.0427282796531636,
                0.9277480652020417,
                0.8239913285318677,
                -2.272656180325991
            ]
        },
        {
            "positions": [
                0.002828928138319753,
                -1.7555116526197743,
                2.0775267129735138,
                0.7893215353610582,
                0.8114683336035005,
                -2.359580533584294
            ]
        },
        {
            "positions": [
                0.08058474396246756,
                -1.772169563423981,
                2.1123251462938644,
                0.6508950055200748,
                0.7989453386751332,
                -2.446504886842597
            ]
        },
        {
            "positions": [
                0.1583405597866155,
                -1.7888274742281876,
                2.147123579614215,
                0.5124684756790913,
                0.7864223437467659,
                -2.5334292401009004
            ]
        },
        {
            "positions": [
                0.2360963756107633,
                -1.8054853850323944,
                2.181922012934565,
                0.3740419458381079,
                0.7738993488183986,
                -2.6203535933592033
            ]
        },
        {
            "positions": [
                0.3138521914349112,
                -1.822143295836601,
                2.2167204462549157,
                0.23561541599712443,
                0.7613763538900313,
                -2.7072779466175065
            ]
        },
        {
            "positions": [
                0.3916080072590589,
                -1.8388012066408077,
                2.251518879575266,
                0.09718888615614119,
                0.748853358961664,
                -2.79420229987581
            ]
        },
        {
            "positions": [
                0.46936382308320684,
                -1.8554591174450143,
                2.2863173128956165,
                -0.041237643684842284,
                0.7363303640332968,
                -2.881126653134113
            ]
        },
        {
            "positions": [
                0.5471196389073547,
                -1.872117028249221,
                2.3211157462159666,
                -0.17966417352582598,
                0.7238073691049295,
                -2.9680510063924164
            ]
        },
        {
            "positions": [
                0.6248754547315025,
                -1.8887749390534279,
                2.3559141795363168,
                -0.3180907033668092,
                0.7112843741765622,
                -3.054975359650719
            ]
        },
        {
            "positions": [
                0.7026312705556503,
                -1.9054328498576345,
                2.3907126128566674,
                -0.45651723320779275,
                0.6987613792481949,
                -3.1418997129090225
            ]
        }
    ]
}