{
    "goal": {
        "global_pose": {
            "orientation": {
                "w": 0.7031023502349854,
                "x": -0.7110244035720825,
                "y": 0.007748599164187908,
                "z": 0.005598929710686207
            },
            "position": {
                "x": 0.11585023208521307,
                "y": 0.44412534475326537,
                "z": 0.3711530566215515
            }
        },
        "name": "move_to_auspresseinheit_A"
    },
    "id": "ProjEST_move_to_auspresseinheit_A_73",
    "joint_names": [
        "shoulder_pan_joint",
        "shoulder_lift_joint",
        "elbow_joint",
        "wrist_1_joint",
        "wrist_2_joint",
        "wrist_3_joint"
    ],
    "metrics": {
        "cart_traj_len": 2.572659781140797,
        "distance_elbow_joint": 3.0339300503943627,
        "distance_shoulder_lift_joint": 0.973975351793849,
        "distance_shoulder_pan_joint": 1.8341666831353114,
        "distance_wrist_1_joint": 2.918232640998472,
        "distance_wrist_2_joint": 3.104125060522139,
        "distance_wrist_3_joint": 4.915162359024048,
        "smoothness": 0.3603004146377929,
        "time": 0.307962931,
        "traj_len": 4.096290046599262,
        "weighted_distance": 5.712466592063091
    },
    "planner": "ProjEST",
    "start": {
        "state": {
            "elbow_joint": 2.422574709923281,
            "shoulder_lift_joint": -1.3736533754116391,
            "shoulder_pan_joint": -0.33786336945926293,
            "wrist_1_joint": -1.0288603412921917,
            "wrist_2_joint": 1.2330224858903978,
            "wrist_3_joint": -3.094022268022082
        }
    },
    "waypoints": [
        {
            "positions": [
                -0.33786336945926293,
                -1.3736533754116391,
                2.422574709923281,
                -1.0288603412921917,
                1.2330224858903978,
                -3.094022268022082
            ]
        },
        {
            "positions": [
                -0.27189422273556396,
                -1.3554347254277705,
                2.294982519711787,
                -1.029212176420601,
                1.2361902294294627,
                -2.9216549474035234
            ]
        },
        {
            "positions": [
                -0.20592507601186494,
                -1.3372160754439018,
                2.167390329500293,
                -1.0295640115490106,
                1.2393579729685276,
                -2.749287626784965
            ]
        },
        {
            "positions": [
                -0.13995592928816591,
                -1.318997425460033,
                2.039798139288799,
                -1.02991584667742,
                1.2425257165075925,
                -2.5769203061664063
            ]
        },
        {
            "positions": [
                -0.07398678256446695,
                -1.3007787754761644,
                1.912205949077305,
                -1.0302676818058294,
                1.2456934600466576,
                -2.4045529855478476
            ]
        },
        {
            "positions": [
                -0.008017635840767867,
                -1.2825601254922958,
                1.7846137588658106,
                -1.0306195169342387,
                1.2488612035857225,
                -2.232185664929289
            ]
        },
        {
            "positions": [
                0.0579515108829311,
                -1.264341475508427,
                1.6570215686543166,
                -1.0309713520626482,
                1.2520289471247874,
                -2.05981834431073
            ]
        },
        {
            "positions": [
                0.12392065760663012,
                -1.2461228255245582,
                1.5294293784428223,
                -1.0313231871910578,
                1.2551966906638523,
                -1.8874510236921715
            ]
        },
        {
            "positions": [
                0.18988980433032904,
                -1.2279041755406896,
                1.4018371882313285,
                -1.031675022319467,
                1.2583644342029172,
                -1.715083703073613
            ]
        },
        {
            "positions": [
                0.25585895105402817,
                -1.209685525556821,
                1.2742449980198343,
                -1.0320268574478764,
                1.2615321777419823,
                -1.5427163824550543
            ]
        },
        {
            "positions": [
                0.3218280977777272,
                -1.1914668755729523,
                1.1466528078083402,
                -1.032378692576286,
                1.2646999212810472,
                -1.3703490618364957
            ]
        },
        {
            "positions": [
                0.3877972445014261,
                -1.1732482255890835,
                1.0190606175968462,
                -1.0327305277046954,
                1.2678676648201122,
                -1.1979817412179372
            ]
        },
        {
            "positions": [
                0.4537663912251251,
                -1.155029575605215,
                0.8914684273853521,
                -1.0330823628331047,
                1.271035408359177,
                -1.0256144205993785
            ]
        },
        {
            "positions": [
                0.5054648822870883,
                -1.1739227921728246,
                0.9014133420082564,
                -0.9013516778041573,
                1.1508674687838596,
                -0.9945041344605036
            ]
        },
        {
            "positions": [
                0.5571633733490515,
                -1.1928160087404343,
                0.9113582566311605,
                -0.7696209927752099,
                1.0306995292085421,
                -0.9633938483216287
            ]
        },
        {
            "positions": [
                0.6088618644110148,
                -1.2117092253080437,
                0.9213031712540648,
                -0.6378903077462625,
                0.9105315896332247,
                -0.9322835621827538
            ]
        },
        {
            "positions": [
                0.660560355472978,
                -1.2306024418756534,
                0.9312480858769691,
                -0.5061596227173151,
                0.7903636500579072,
                -0.9011732760438789
            ]
        },
        {
            "positions": [
                0.7122588465349412,
                -1.249495658443263,
                0.9411930004998732,
                -0.3744289376883676,
                0.6701957104825896,
                -0.870062989905004
            ]
        },
        {
            "positions": [
                0.7639573375969044,
                -1.2683888750108727,
                0.9511379151227775,
                -0.24269825265942024,
                0.5500277709072722,
                -0.8389527037661291
            ]
        },
        {
            "positions": [
                0.8156558286588677,
                -1.2872820915784824,
                0.9610828297456817,
                -0.11096756763047277,
                0.4298598313319546,
                -0.8078424176272542
            ]
        },
        {
            "positions": [
                0.8673543197208309,
                -1.306175308146092,
                0.9710277443685859,
                0.020763117398474584,
                0.30969189175663725,
                -0.7767321314883793
            ]
        },
        {
            "positions": [
                0.9190528107827941,
                -1.3250685247137017,
                0.9809726589914901,
                0.15249380242742205,
                0.18952395218131968,
                -0.7456218453495044
            ]
        },
        {
            "positions": [
                0.9707513018447573,
                -1.3439617412813112,
                0.9909175736143944,
                0.2842244874563695,
                0.06935601260600222,
                -0.7145115592106295
            ]
        },
        {
            "positions": [
                1.0224497929067207,
                -1.3628549578489209,
                1.0008624882372985,
                0.41595517248531677,
                -0.050811926969315246,
                -0.6834012730717546
            ]
        },
        {
            "positions": [
                1.0741482839686838,
                -1.3817481744165305,
                1.0108074028602028,
                0.5476858575142642,
                -0.17097986654463262,
                -0.6522909869328797
            ]
        },
        {
            "positions": [
                1.0327671561360365,
                -1.4224358282999667,
                1.095181962450696,
                0.5704214013288182,
                -0.22335927652509596,
                -0.770147269314345
            ]
        },
        {
            "positions": [
                0.9913860283033893,
                -1.463123482183403,
                1.179556522041189,
                0.5931569451433721,
                -0.27573868650555927,
                -0.8880035516958102
            ]
        },
        {
            "positions": [
                0.950004900470742,
                -1.5038111360668391,
                1.2639310816316822,
                0.6158924889579261,
                -0.3281180964860226,
                -1.0058598340772755
            ]
        },
        {
            "positions": [
                0.9086237726380948,
                -1.5444987899502751,
                1.3483056412221752,
                0.63862803277248,
                -0.38049750646648595,
                -1.1237161164587408
            ]
        },
        {
            "positions": [
                0.8672426448054475,
                -1.5851864438337113,
                1.4326802008126684,
                0.661363576587034,
                -0.43287691644694926,
                -1.241572398840206
            ]
        },
        {
            "positions": [
                0.8258615169728003,
                -1.6258740977171475,
                1.5170547604031617,
                0.6840991204015879,
                -0.48525632642741257,
                -1.3594286812216714
            ]
        },
        {
            "positions": [
                0.7844803891401531,
                -1.6665617516005837,
                1.6014293199936547,
                0.7068346642161419,
                -0.5376357364078759,
                -1.4772849636031367
            ]
        },
        {
            "positions": [
                0.7749945501923626,
                -1.6860990103826619,
                1.6612126827762235,
                0.629515468176455,
                -0.45770536260597117,
                -1.597148880624461
            ]
        },
        {
            "positions": [
                0.7655087112445722,
                -1.70563626916474,
                1.7209960455587925,
                0.5521962721367681,
                -0.37777498880406646,
                -1.717012797645785
            ]
        },
        {
            "positions": [
                0.7560228722967818,
                -1.7251735279468179,
                1.7807794083413613,
                0.47487707609708124,
                -0.29784461500216175,
                -1.8368767146671092
            ]
        },
        {
            "positions": [
                0.7465370333489914,
                -1.744710786728896,
                1.8405627711239303,
                0.3975578800573943,
                -0.217914241200257,
                -1.9567406316884335
            ]
        },
        {
            "positions": [
                0.7370511944012009,
                -1.7642480455109741,
                1.900346133906499,
                0.32023868401770744,
                -0.13798386739835228,
                -2.0766045487097577
            ]
        },
        {
            "positions": [
                0.7275653554534105,
                -1.7837853042930523,
                1.9601294966890679,
                0.24291948797802054,
                -0.058053493596447625,
                -2.1964684657310816
            ]
        },
        {
            "positions": [
                0.71807951650562,
                -1.8033225630751304,
                2.0199128594716367,
                0.1656002919383336,
                0.021876880205457194,
                -2.316332382752406
            ]
        },
        {
            "positions": [
                0.7085936775578295,
                -1.8228598218572085,
                2.0796962222542055,
                0.08828109589864663,
                0.1018072540073619,
                -2.43619629977373
            ]
        },
        {
            "positions": [
                0.6991078386100391,
                -1.8423970806392864,
                2.1394795850367747,
                0.01096189985895979,
                0.1817376278092666,
                -2.5560602167950544
            ]
        },
        {
            "positions": [
                0.6896219996622487,
                -1.8619343394213645,
                2.1992629478193435,
                -0.06635729618072705,
                0.2616680016111713,
                -2.6759241338163786
            ]
        },
        {
            "positions": [
                0.6801361607144583,
                -1.8814715982034427,
                2.2590463106019123,
                -0.143676492220414,
                0.3415983754130761,
                -2.795788050837703
            ]
        },
        {
            "positions": [
                0.6871718873277428,
                -1.888698980550742,
                2.2928577817618807,
                -0.22457210121335314,
                0.43615009577941505,
                -2.8782715543452086
            ]
        },
        {
            "positions": [
                0.6942076139410275,
                -1.8959263628980412,
                2.326669252921849,
                -0.30546771020629226,
                0.530701816145754,
                -2.9607550578527144
            ]
        },
        {
            "positions": [
                0.7012433405543121,
                -1.9031537452453404,
                2.3604807240818175,
                -0.38636331919923145,
                0.6252535365120929,
                -3.0432385613602206
            ]
        },
        {
            "positions": [
                0.7082790671675967,
                -1.9103811275926397,
                2.394292195241786,
                -0.4672589281921706,
                0.7198052568784319,
                -3.1257220648677264
            ]
        }
    ]
}