{
    "goal": {
        "global_pose": {
            "orientation": {
                "w": 0.7047431468963623,
                "x": -0.7094548344612122,
                "y": 0.0024358443915843964,
                "z": -0.0022348060738295317
            },
            "position": {
                "x": 0.6094750761985779,
                "y": 0.3671506643295288,
                "z": 0.19426114857196808
            }
        },
        "name": "move_to_magneteinheit_A"
    },
    "id": "ProjEST_move_to_magneteinheit_A_5",
    "joint_names": [
        "shoulder_pan_joint",
        "shoulder_lift_joint",
        "elbow_joint",
        "wrist_1_joint",
        "wrist_2_joint",
        "wrist_3_joint"
    ],
    "metrics": {
        "cart_traj_len": 1.8714894191321727,
        "distance_elbow_joint": 3.9254061931870847,
        "distance_shoulder_lift_joint": 0.7065800410841587,
        "distance_shoulder_pan_joint": 1.241726291812945,
        "distance_wrist_1_joint": 1.547687953330633,
        "distance_wrist_2_joint": 1.697079308149485,
        "distance_wrist_3_joint": 1.1796384220099938,
        "smoothness": 3.9474596743688624e-16,
        "time": 0.088099875,
        "traj_len": 3.2090681216786745,
        "weighted_distance": 3.9877515362763525
    },
    "planner": "ProjEST",
    "start": {
        "state": {
            "elbow_joint": -1.919643507792019,
            "shoulder_lift_joint": -0.07675430207160344,
            "shoulder_pan_joint": -1.1188671864651873,
            "wrist_1_joint": 0.42560062535961957,
            "wrist_2_joint": 1.5706038300724876,
            "wrist_3_joint": 1.1188968870953055
        }
    },
    "waypoints": [
        {
            "positions": [
                -1.1188671864651873,
                -0.07675430207160344,
                -1.919643507792019,
                0.42560062535961957,
                1.5706038300724876,
                1.1188968870953055
            ]
        },
        {
            "positions": [
                -1.0711084829339201,
                -0.10393045749791724,
                -1.7686663465155927,
                0.4851270851031054,
                1.5053315489898151,
                1.0735261785564596
            ]
        },
        {
            "positions": [
                -1.0233497794026531,
                -0.13110661292423104,
                -1.6176891852391664,
                0.5446535448465913,
                1.4400592679071427,
                1.0281554700176136
            ]
        },
        {
            "positions": [
                -0.9755910758713859,
                -0.15828276835054483,
                -1.46671202396274,
                0.6041800045900773,
                1.37478698682447,
                0.9827847614787678
            ]
        },
        {
            "positions": [
                -0.9278323723401188,
                -0.18545892377685863,
                -1.3157348626863137,
                0.6637064643335631,
                1.3095147057417975,
                0.9374140529399219
            ]
        },
        {
            "positions": [
                -0.8800736688088517,
                -0.21263507920317243,
                -1.1647577014098873,
                0.723232924077049,
                1.244242424659125,
                0.892043344401076
            ]
        },
        {
            "positions": [
                -0.8323149652775846,
                -0.23981123462948623,
                -1.013780540133461,
                0.7827593838205349,
                1.1789701435764526,
                0.8466726358622301
            ]
        },
        {
            "positions": [
                -0.7845562617463175,
                -0.2669873900558,
                -0.8628033788570348,
                0.8422858435640207,
                1.11369786249378,
                0.8013019273233841
            ]
        },
        {
            "positions": [
                -0.7367975582150503,
                -0.2941635454821138,
                -0.7118262175806083,
                0.9018123033075067,
                1.0484255814111076,
                0.7559312187845382
            ]
        },
        {
            "positions": [
                -0.6890388546837833,
                -0.3213397009084276,
                -0.5608490563041821,
                0.9613387630509924,
                0.9831533003284351,
                0.7105605102456923
            ]
        },
        {
            "positions": [
                -0.6412801511525161,
                -0.3485158563347414,
                -0.40987189502775556,
                1.0208652227944783,
                0.9178810192457626,
                0.6651898017068464
            ]
        },
        {
            "positions": [
                -0.593521447621249,
                -0.3756920117610552,
                -0.25889473375132943,
                1.0803916825379642,
                0.8526087381630901,
                0.6198190931680005
            ]
        },
        {
            "positions": [
                -0.5457627440899819,
                -0.402868167187369,
                -0.10791757247490286,
                1.1399181422814502,
                0.7873364570804176,
                0.5744483846291545
            ]
        },
        {
            "positions": [
                -0.49800404055871483,
                -0.4300443226136828,
                0.043059588801523274,
                1.199444602024936,
                0.7220641759977451,
                0.5290776760903086
            ]
        },
        {
            "positions": [
                -0.45024533702744773,
                -0.4572204780399966,
                0.1940367500779494,
                1.2589710617684218,
                0.6567918949150726,
                0.4837069675514628
            ]
        },
        {
            "positions": [
                -0.40248663349618063,
                -0.48439663346631034,
                0.34501391135437554,
                1.3184975215119077,
                0.5915196138324001,
                0.43833625901261686
            ]
        },
        {
            "positions": [
                -0.3547279299649134,
                -0.5115727888926243,
                0.49599107263080255,
                1.3780239812553938,
                0.5262473327497275,
                0.3929655504737709
            ]
        },
        {
            "positions": [
                -0.3069692264336463,
                -0.5387489443189379,
                0.6469682339072287,
                1.4375504409988795,
                0.460975051667055,
                0.34759484193492496
            ]
        },
        {
            "positions": [
                -0.2592105229023792,
                -0.5659250997452518,
                0.7979453951836548,
                1.4970769007423654,
                0.3957027705843825,
                0.3022241333960791
            ]
        },
        {
            "positions": [
                -0.21145181937111224,
                -0.5931012551715655,
                0.948922556460081,
                1.5566033604858514,
                0.33043048950171006,
                0.25685342485723317
            ]
        },
        {
            "positions": [
                -0.16369311583984492,
                -0.6202774105978794,
                1.099899717736508,
                1.6161298202293373,
                0.2651582084190376,
                0.21148271631838722
            ]
        },
        {
            "positions": [
                -0.11593441230857793,
                -0.6474535660241931,
                1.250876879012934,
                1.6756562799728232,
                0.19988592733636512,
                0.16611200777954127
            ]
        },
        {
            "positions": [
                -0.06817570877731072,
                -0.674629721450507,
                1.4018540402893602,
                1.735182739716309,
                0.13461364625369265,
                0.12074129924069543
            ]
        },
        {
            "positions": [
                -0.02041700524604373,
                -0.7018058768768207,
                1.5528312015657864,
                1.7947091994597948,
                0.06934136517102019,
                0.0753705907018496
            ]
        },
        {
            "positions": [
                0.02734169828522348,
                -0.7289820323031346,
                1.7038083628422134,
                1.854235659203281,
                0.004069084088347497,
                0.029999882163003422
            ]
        },
        {
            "positions": [
                0.07510040181649069,
                -0.7561581877294483,
                1.8547855241186395,
                1.9137621189467666,
                -0.06120319699432497,
                -0.015370826375842306
            ]
        },
        {
            "positions": [
                0.12285910534775762,
                -0.7833343431557622,
                2.005762685395066,
                1.9732885786902525,
                -0.12647547807699738,
                -0.060741534914688276
            ]
        }
    ]
}