{
    "goal": {
        "global_pose": {
            "orientation": {
                "w": 0.7047431468963623,
                "x": -0.7094548344612122,
                "y": 0.0024358443915843964,
                "z": -0.0022348060738295317
            },
            "position": {
                "x": 0.6094750761985779,
                "y": 0.3671506643295288,
                "z": 0.19426114857196808
            }
        },
        "name": "move_to_magneteinheit_A"
    },
    "id": "ProjEST_move_to_magneteinheit_A_147",
    "joint_names": [
        "shoulder_pan_joint",
        "shoulder_lift_joint",
        "elbow_joint",
        "wrist_1_joint",
        "wrist_2_joint",
        "wrist_3_joint"
    ],
    "metrics": {
        "cart_traj_len": 1.878556475752458,
        "distance_elbow_joint": 3.90846899459709,
        "distance_shoulder_lift_joint": 0.6988571257646979,
        "distance_shoulder_pan_joint": 1.2411872767041758,
        "distance_wrist_1_joint": 1.4923118321090603,
        "distance_wrist_2_joint": 1.6908836083484244,
        "distance_wrist_3_joint": 1.111114779890427,
        "smoothness": 4.276414619397388e-16,
        "time": 0.071987988,
        "traj_len": 3.18477999513528,
        "weighted_distance": 3.943126756477936
    },
    "planner": "ProjEST",
    "start": {
        "state": {
            "elbow_joint": -1.919643507792019,
            "shoulder_lift_joint": -0.07675430207160344,
            "shoulder_pan_joint": -1.1188671864651873,
            "wrist_1_joint": 0.42560062535961957,
            "wrist_2_joint": 1.5706038300724876,
            "wrist_3_joint": 1.1188968870953055
        }
    },
    "waypoints": [
        {
            "positions": [
                -1.1188671864651873,
                -0.07675430207160344,
                -1.919643507792019,
                0.42560062535961957,
                1.5706038300724876,
                1.1188968870953055
            ]
        },
        {
            "positions": [
                -1.0711292142842574,
                -0.10363342229332259,
                -1.7693177772305926,
                0.4829972342868911,
                1.5055698451360098,
                1.0761617032533661
            ]
        },
        {
            "positions": [
                -1.0233912421033278,
                -0.13051254251504174,
                -1.6189920466691659,
                0.5403938432141626,
                1.440535860199532,
                1.0334265194114265
            ]
        },
        {
            "positions": [
                -0.9756532699223979,
                -0.15739166273676092,
                -1.4686663161077393,
                0.5977904521414342,
                1.375501875263054,
                0.9906913355694871
            ]
        },
        {
            "positions": [
                -0.927915297741468,
                -0.18427078295848007,
                -1.3183405855463128,
                0.6551870610687058,
                1.310467890326576,
                0.9479561517275475
            ]
        },
        {
            "positions": [
                -0.8801773255605381,
                -0.21114990318019922,
                -1.1680148549848863,
                0.7125836699959773,
                1.2454339053900982,
                0.905220967885608
            ]
        },
        {
            "positions": [
                -0.8324393533796083,
                -0.2380290234019184,
                -1.0176891244234598,
                0.7699802789232488,
                1.1803999204536204,
                0.8624857840436686
            ]
        },
        {
            "positions": [
                -0.7847013811986785,
                -0.2649081436236375,
                -0.8673633938620333,
                0.8273768878505203,
                1.1153659355171426,
                0.819750600201729
            ]
        },
        {
            "positions": [
                -0.7369634090177486,
                -0.2917872638453567,
                -0.7170376633006066,
                0.884773496777792,
                1.0503319505806648,
                0.7770154163597895
            ]
        },
        {
            "positions": [
                -0.6892254368368188,
                -0.3186663840670758,
                -0.5667119327391803,
                0.9421701057050635,
                0.9852979656441868,
                0.73428023251785
            ]
        },
        {
            "positions": [
                -0.6414874646558889,
                -0.345545504288795,
                -0.4163862021777536,
                0.999566714632335,
                0.920263980707709,
                0.6915450486759105
            ]
        },
        {
            "positions": [
                -0.5937494924749591,
                -0.37242462451051417,
                -0.26606047161632707,
                1.0569633235596065,
                0.8552299957712312,
                0.6488098648339711
            ]
        },
        {
            "positions": [
                -0.5460115202940292,
                -0.39930374473223335,
                -0.11573474105490056,
                1.1143599324868783,
                0.7901960108347532,
                0.6060746809920315
            ]
        },
        {
            "positions": [
                -0.49827354811309943,
                -0.42618286495395247,
                0.03459098950652595,
                1.1717565414141498,
                0.7251620258982754,
                0.563339497150092
            ]
        },
        {
            "positions": [
                -0.45053557593216964,
                -0.4530619851756716,
                0.18491672006795246,
                1.2291531503414213,
                0.6601280409617976,
                0.5206043133081525
            ]
        },
        {
            "positions": [
                -0.40279760375123985,
                -0.47994110539739077,
                0.33524245062937896,
                1.2865497592686927,
                0.5950940560253197,
                0.47786912946621307
            ]
        },
        {
            "positions": [
                -0.35505963157030984,
                -0.5068202256191099,
                0.4855681811908059,
                1.3439463681959645,
                0.5300600710888417,
                0.43513394562427343
            ]
        },
        {
            "positions": [
                -0.30732165938938005,
                -0.5336993458408291,
                0.635893911752232,
                1.401342977123236,
                0.46502608615236385,
                0.392398761782334
            ]
        },
        {
            "positions": [
                -0.25958368720845026,
                -0.5605784660625482,
                0.7862196423136585,
                1.4587395860505075,
                0.399992101215886,
                0.3496635779403945
            ]
        },
        {
            "positions": [
                -0.21184571502752048,
                -0.5874575862842675,
                0.936545372875085,
                1.516136194977779,
                0.3349581162794082,
                0.30692839409845507
            ]
        },
        {
            "positions": [
                -0.16410774284659047,
                -0.6143367065059866,
                1.086871103436512,
                1.5735328039050507,
                0.26992413134293036,
                0.26419321025651543
            ]
        },
        {
            "positions": [
                -0.11636977066566079,
                -0.6412158267277057,
                1.2371968339979384,
                1.6309294128323222,
                0.20489014640645253,
                0.22145802641457601
            ]
        },
        {
            "positions": [
                -0.06863179848473089,
                -0.6680949469494248,
                1.387522564559365,
                1.6883260217595937,
                0.1398561614699747,
                0.1787228425726365
            ]
        },
        {
            "positions": [
                -0.02089382630380099,
                -0.694974067171144,
                1.537848295120791,
                1.7457226306868652,
                0.07482217653349688,
                0.13598765873069707
            ]
        },
        {
            "positions": [
                0.02684414587712891,
                -0.7218531873928633,
                1.688174025682218,
                1.803119239614137,
                0.009788191597018825,
                0.09325247488875754
            ]
        },
        {
            "positions": [
                0.07458211805805859,
                -0.7487323076145824,
                1.8384997562436445,
                1.8605158485414084,
                -0.055245793339459004,
                0.0505172910468179
            ]
        },
        {
            "positions": [
                0.12232009023898859,
                -0.7756114278363014,
                1.988825486805071,
                1.9179124574686799,
                -0.12027977827593682,
                0.007782107204878567
            ]
        }
    ]
}