{
    "goal": {
        "global_pose": {
            "orientation": {
                "w": 0.5084816217422485,
                "x": -0.49083608388900757,
                "y": 0.5182115435600281,
                "z": -0.4816462993621826
            },
            "position": {
                "x": 0.5540239810943604,
                "y": 0.030875300988554955,
                "z": 0.16403168439865112
            }
        },
        "name": "move_to_storage_A"
    },
    "id": "ProjEST_move_to_storage_A_75",
    "joint_names": [
        "shoulder_pan_joint",
        "shoulder_lift_joint",
        "elbow_joint",
        "wrist_1_joint",
        "wrist_2_joint",
        "wrist_3_joint"
    ],
    "metrics": {
        "cart_traj_len": 0.35257425491752453,
        "distance_elbow_joint": 0.45160042598144434,
        "distance_shoulder_lift_joint": 0.23304166396718706,
        "distance_shoulder_pan_joint": 0.4596467695535281,
        "distance_wrist_1_joint": 0.2508110312228994,
        "distance_wrist_2_joint": 1.1034827531573548,
        "distance_wrist_3_joint": 0.1084533732605335,
        "smoothness": 4.440892098500626e-16,
        "time": 0.04430542,
        "traj_len": 1.6146318518916152,
        "weighted_distance": 2.044073518258154
    },
    "planner": "ProjEST",
    "start": {
        "state": {
            "elbow_joint": 1.9715463870305268,
            "shoulder_lift_joint": -1.1394903361783484,
            "shoulder_pan_joint": 0.12281147578464417,
            "wrist_1_joint": -0.7804599489681411,
            "wrist_2_joint": 0.12958660307563738,
            "wrist_3_joint": -3.1924946282119055
        }
    },
    "waypoints": [
        {
            "positions": [
                0.12281147578464417,
                -1.1394903361783484,
                1.9715463870305268,
                -0.7804599489681411,
                0.12958660307563738,
                -3.1924946282119055
            ]
        },
        {
            "positions": [
                0.05714765156271159,
                -1.1727820024593751,
                2.0360607335993044,
                -0.8162900962856982,
                0.2872269963838309,
                -3.1770012891746866
            ]
        },
        {
            "positions": [
                -0.008516172659220986,
                -1.206073668740402,
                2.1005750801680825,
                -0.8521202436032552,
                0.44486738969202444,
                -3.161507950137467
            ]
        },
        {
            "positions": [
                -0.07417999688115358,
                -1.2393653350214286,
                2.16508942673686,
                -0.8879503909208122,
                0.602507783000218,
                -3.1460146111002483
            ]
        },
        {
            "positions": [
                -0.13984382110308613,
                -1.2726570013024552,
                2.2296037733056377,
                -0.9237805382383693,
                0.7601481763084116,
                -3.1305212720630293
            ]
        },
        {
            "positions": [
                -0.20550764532501875,
                -1.305948667583482,
                2.2941181198744154,
                -0.9596106855559263,
                0.9177885696166052,
                -3.1150279330258104
            ]
        },
        {
            "positions": [
                -0.2711714695469513,
                -1.3392403338645087,
                2.3586324664431935,
                -0.9954408328734834,
                1.0754289629247986,
                -3.099534593988591
            ]
        },
        {
            "positions": [
                -0.33683529376888394,
                -1.3725320001455354,
                2.423146813011971,
                -1.0312709801910405,
                1.2330693562329922,
                -3.084041254951372
            ]
        }
    ]
}