{
    "goal": {
        "global_pose": {
            "orientation": {
                "w": 0.5084816217422485,
                "x": -0.49083608388900757,
                "y": 0.5182115435600281,
                "z": -0.4816462993621826
            },
            "position": {
                "x": 0.5540239810943604,
                "y": 0.030875300988554955,
                "z": 0.16403168439865112
            }
        },
        "name": "move_to_storage_A"
    },
    "id": "ProjEST_move_to_storage_A_13",
    "joint_names": [
        "shoulder_pan_joint",
        "shoulder_lift_joint",
        "elbow_joint",
        "wrist_1_joint",
        "wrist_2_joint",
        "wrist_3_joint"
    ],
    "metrics": {
        "cart_traj_len": 0.35410342606798784,
        "distance_elbow_joint": 0.45101396851250186,
        "distance_shoulder_lift_joint": 0.2345999236663192,
        "distance_shoulder_pan_joint": 0.4616054748451523,
        "distance_wrist_1_joint": 0.2470175923671888,
        "distance_wrist_2_joint": 1.1071324553349924,
        "distance_wrist_3_joint": 0.10003196361438915,
        "smoothness": 8.881784232165597e-16,
        "time": 0.033779004,
        "traj_len": 1.6128860400972362,
        "weighted_distance": 2.038532647094842
    },
    "planner": "ProjEST",
    "start": {
        "state": {
            "elbow_joint": 1.9715463870305268,
            "shoulder_lift_joint": -1.1394903361783484,
            "shoulder_pan_joint": 0.12281147578464417,
            "wrist_1_joint": -0.7804599489681411,
            "wrist_2_joint": 0.12958660307563738,
            "wrist_3_joint": -3.1924946282119055
        }
    },
    "waypoints": [
        {
            "positions": [
                0.12281147578464417,
                -1.1394903361783484,
                1.9715463870305268,
                -0.7804599489681411,
                0.12958660307563738,
                -3.1924946282119055
            ]
        },
        {
            "positions": [
                0.056867836521050985,
                -1.1730046109878225,
                2.0359769539608843,
                -0.8157481764491681,
                0.28774838240920775,
                -3.1782043476955644
            ]
        },
        {
            "positions": [
                -0.009075802742542202,
                -1.2065188857972968,
                2.1004075208912414,
                -0.851036403930195,
                0.4459101617427781,
                -3.1639140671792227
            ]
        },
        {
            "positions": [
                -0.07501944200613538,
                -1.240033160606771,
                2.164838087821599,
                -0.886324631411222,
                0.6040719410763484,
                -3.1496237866628816
            ]
        },
        {
            "positions": [
                -0.14096308126972856,
                -1.273547435416245,
                2.2292686547519565,
                -0.921612858892249,
                0.7622337204099188,
                -3.1353335061465404
            ]
        },
        {
            "positions": [
                -0.20690672053332176,
                -1.3070617102257192,
                2.293699221682314,
                -0.9569010863732759,
                0.9203954997434891,
                -3.121043225630199
            ]
        },
        {
            "positions": [
                -0.2728503597969149,
                -1.3405759850351935,
                2.358129788612671,
                -0.9921893138543029,
                1.0785572790770594,
                -3.1067529451138576
            ]
        },
        {
            "positions": [
                -0.3387939990605081,
                -1.3740902598446676,
                2.4225603555430286,
                -1.0274775413353299,
                1.2367190584106298,
                -3.0924626645975164
            ]
        }
    ]
}