{
    "goal": {
        "global_pose": {
            "orientation": {
                "w": 0.5084816217422485,
                "x": -0.49083608388900757,
                "y": 0.5182115435600281,
                "z": -0.4816462993621826
            },
            "position": {
                "x": 0.5540239810943604,
                "y": 0.030875300988554955,
                "z": 0.16403168439865112
            }
        },
        "name": "move_to_storage_A"
    },
    "id": "ProjEST_move_to_storage_A_86",
    "joint_names": [
        "shoulder_pan_joint",
        "shoulder_lift_joint",
        "elbow_joint",
        "wrist_1_joint",
        "wrist_2_joint",
        "wrist_3_joint"
    ],
    "metrics": {
        "cart_traj_len": 0.35344900127208684,
        "distance_elbow_joint": 0.4510312324651995,
        "distance_shoulder_lift_joint": 0.23405386751660862,
        "distance_shoulder_pan_joint": 0.463507910261744,
        "distance_wrist_1_joint": 0.24648061303002866,
        "distance_wrist_2_joint": 1.093868075801775,
        "distance_wrist_3_joint": 0.09506535172863062,
        "smoothness": 1.3322676330666221e-15,
        "time": 0.031455095,
        "traj_len": 1.6074846969112915,
        "weighted_distance": 2.0284196910632306
    },
    "planner": "ProjEST",
    "start": {
        "state": {
            "elbow_joint": 1.9715463870305268,
            "shoulder_lift_joint": -1.1394903361783484,
            "shoulder_pan_joint": 0.12281147578464417,
            "wrist_1_joint": -0.7804599489681411,
            "wrist_2_joint": 0.12958660307563738,
            "wrist_3_joint": -3.1924946282119055
        }
    },
    "waypoints": [
        {
            "positions": [
                0.12281147578464417,
                -1.1394903361783484,
                1.9715463870305268,
                -0.7804599489681411,
                0.12958660307563738,
                -3.1924946282119055
            ]
        },
        {
            "positions": [
                0.056596060032966466,
                -1.1729266029664354,
                2.035979420239841,
                -0.815671465115288,
                0.2858534710473195,
                -3.1789138636792442
            ]
        },
        {
            "positions": [
                -0.00961935571871124,
                -1.2063628697545223,
                2.100412453449155,
                -0.850882981262435,
                0.4421203390190016,
                -3.1653330991465825
            ]
        },
        {
            "positions": [
                -0.07583477147038896,
                -1.2397991365426093,
                2.164845486658469,
                -0.8860944974095819,
                0.5983872069906837,
                -3.151752334613921
            ]
        },
        {
            "positions": [
                -0.14205018722206664,
                -1.273235403330696,
                2.2292785198677834,
                -0.9213060135567289,
                0.7546540749623659,
                -3.1381715700812594
            ]
        },
        {
            "positions": [
                -0.20826560297374436,
                -1.306671670118783,
                2.293711553077098,
                -0.9565175297038758,
                0.9109209429340481,
                -3.124590805548598
            ]
        },
        {
            "positions": [
                -0.2744810187254221,
                -1.34010793690687,
                2.358144586286412,
                -0.9917290458510228,
                1.06718781090573,
                -3.1110100410159363
            ]
        },
        {
            "positions": [
                -0.3406964344770998,
                -1.373544203694957,
                2.4225776194957263,
                -1.0269405619981697,
                1.2234546788774123,
                -3.097429276483275
            ]
        }
    ]
}