{
    "goal": {
        "global_pose": {
            "orientation": {
                "w": 0.5084816217422485,
                "x": -0.49083608388900757,
                "y": 0.5182115435600281,
                "z": -0.4816462993621826
            },
            "position": {
                "x": 0.5540239810943604,
                "y": 0.030875300988554955,
                "z": 0.16403168439865112
            }
        },
        "name": "move_to_storage_A"
    },
    "id": "ProjEST_move_to_storage_A_143",
    "joint_names": [
        "shoulder_pan_joint",
        "shoulder_lift_joint",
        "elbow_joint",
        "wrist_1_joint",
        "wrist_2_joint",
        "wrist_3_joint"
    ],
    "metrics": {
        "cart_traj_len": 0.35261463426687506,
        "distance_elbow_joint": 0.4527698756086367,
        "distance_shoulder_lift_joint": 0.2348769635382686,
        "distance_shoulder_pan_joint": 0.45674644556889676,
        "distance_wrist_1_joint": 0.25876734385713773,
        "distance_wrist_2_joint": 1.1167374132494483,
        "distance_wrist_3_joint": 0.10954535565781853,
        "smoothness": 9.992007236661072e-16,
        "time": 0.079383184,
        "traj_len": 1.621555857033672,
        "weighted_distance": 2.0552466678971726
    },
    "planner": "ProjEST",
    "start": {
        "state": {
            "elbow_joint": 1.9715463870305268,
            "shoulder_lift_joint": -1.1394903361783484,
            "shoulder_pan_joint": 0.12281147578464417,
            "wrist_1_joint": -0.7804599489681411,
            "wrist_2_joint": 0.12958660307563738,
            "wrist_3_joint": -3.1924946282119055
        }
    },
    "waypoints": [
        {
            "positions": [
                0.12281147578464417,
                -1.1394903361783484,
                1.9715463870305268,
                -0.7804599489681411,
                0.12958660307563738,
                -3.1924946282119055
            ]
        },
        {
            "positions": [
                0.05756198356051606,
                -1.1730441881123868,
                2.0362277978317604,
                -0.8174267123763036,
                0.28912051925412996,
                -3.17684529168936
            ]
        },
        {
            "positions": [
                -0.00768750866361205,
                -1.2065980400464251,
                2.1009092086329946,
                -0.8543934757844661,
                0.4486544354326226,
                -3.1611959551668147
            ]
        },
        {
            "positions": [
                -0.07293700088774015,
                -1.2401518919804635,
                2.1655906194342283,
                -0.8913602391926286,
                0.6081883516111152,
                -3.145546618644269
            ]
        },
        {
            "positions": [
                -0.13818649311186826,
                -1.2737057439145019,
                2.230272030235462,
                -0.9283270026007913,
                0.7677222677896078,
                -3.1298972821217235
            ]
        },
        {
            "positions": [
                -0.20343598533599638,
                -1.3072595958485402,
                2.2949534410366956,
                -0.9652937660089538,
                0.9272561839681005,
                -3.114247945599178
            ]
        },
        {
            "positions": [
                -0.26868547756012445,
                -1.3408134477825786,
                2.3596348518379298,
                -1.0022605294171163,
                1.086790100146593,
                -3.0985986090766326
            ]
        },
        {
            "positions": [
                -0.3339349697842526,
                -1.374367299716617,
                2.4243162626391634,
                -1.0392272928252788,
                1.2463240163250857,
                -3.082949272554087
            ]
        }
    ]
}