{
    "goal": {
        "global_pose": {
            "orientation": {
                "w": 0.7031023502349854,
                "x": -0.7110244035720825,
                "y": 0.007748599164187908,
                "z": 0.005598929710686207
            },
            "position": {
                "x": 0.11585023208521307,
                "y": 0.44412534475326537,
                "z": 0.3711530566215515
            }
        },
        "name": "move_to_auspresseinheit_A"
    },
    "id": "ProjEST_move_to_auspresseinheit_A_90",
    "joint_names": [
        "shoulder_pan_joint",
        "shoulder_lift_joint",
        "elbow_joint",
        "wrist_1_joint",
        "wrist_2_joint",
        "wrist_3_joint"
    ],
    "metrics": {
        "cart_traj_len": 0.8032635911043033,
        "distance_elbow_joint": 0.5953797867282096,
        "distance_shoulder_lift_joint": 0.5330159502460419,
        "distance_shoulder_pan_joint": 1.0425238084265658,
        "distance_wrist_1_joint": 2.436751207124308,
        "distance_wrist_2_joint": 1.5420014032792013,
        "distance_wrist_3_joint": 1.5117336490498552,
        "smoothness": 1.08355781495679,
        "time": 0.39294797800000003,
        "traj_len": 2.767924457938508,
        "weighted_distance": 3.8293113889258734
    },
    "planner": "ProjEST",
    "start": {
        "state": {
            "elbow_joint": 2.422574709923281,
            "shoulder_lift_joint": -1.3736533754116391,
            "shoulder_pan_joint": -0.33786336945926293,
            "wrist_1_joint": -1.0288603412921917,
            "wrist_2_joint": 1.2330224858903978,
            "wrist_3_joint": -3.094022268022082
        }
    },
    "waypoints": [
        {
            "positions": [
                -0.33786336945926293,
                -1.3736533754116391,
                2.422574709923281,
                -1.0288603412921917,
                1.2330224858903978,
                -3.094022268022082
            ]
        },
        {
            "positions": [
                -0.3323541804550634,
                -1.4029996654517387,
                2.394169922537053,
                -0.8925666325500246,
                1.1389452046486515,
                -3.0270462488213274
            ]
        },
        {
            "positions": [
                -0.3268449914508639,
                -1.4323459554918383,
                2.3657651351508258,
                -0.7562729238078574,
                1.044867923406905,
                -2.9600702296205723
            ]
        },
        {
            "positions": [
                -0.3213358024466643,
                -1.4616922455319379,
                2.337360347764598,
                -0.6199792150656903,
                0.9507906421651586,
                -2.8930942104198176
            ]
        },
        {
            "positions": [
                -0.3158266134424648,
                -1.4910385355720375,
                2.30895556037837,
                -0.48368550632352314,
                0.8567133609234121,
                -2.826118191219063
            ]
        },
        {
            "positions": [
                -0.31031742443826527,
                -1.520384825612137,
                2.2805507729921426,
                -0.34739179758135597,
                0.7626360796816658,
                -2.759142172018308
            ]
        },
        {
            "positions": [
                -0.30480823543406577,
                -1.5497311156522366,
                2.2521459856059147,
                -0.2110980888391889,
                0.6685587984399194,
                -2.692166152817553
            ]
        },
        {
            "positions": [
                -0.2992990464298662,
                -1.5790774056923362,
                2.2237411982196873,
                -0.07480438009702162,
                0.574481517198173,
                -2.6251901336167984
            ]
        },
        {
            "positions": [
                -0.2937898574256667,
                -1.6084236957324358,
                2.1953364108334594,
                0.06148932864514545,
                0.48040423595642656,
                -2.5582141144160433
            ]
        },
        {
            "positions": [
                -0.28828066842146716,
                -1.6377699857725354,
                2.1669316234472316,
                0.19778303738731284,
                0.38632695471468004,
                -2.4912380952152886
            ]
        },
        {
            "positions": [
                -0.28277147941726766,
                -1.667116275812635,
                2.138526836061004,
                0.3340767461294798,
                0.29224967347293374,
                -2.424262076014534
            ]
        },
        {
            "positions": [
                -0.2772622904130681,
                -1.6964625658527346,
                2.1101220486747763,
                0.470370454871647,
                0.1981723922311873,
                -2.357286056813779
            ]
        },
        {
            "positions": [
                -0.17907001747503104,
                -1.7174832418332293,
                2.1384147612227467,
                0.37661841377560007,
                0.24888752319318633,
                -2.434785800597934
            ]
        },
        {
            "positions": [
                -0.08087774453699395,
                -1.7385039178137238,
                2.166707473770717,
                0.28286637267955306,
                0.2996026541551854,
                -2.512285544382089
            ]
        },
        {
            "positions": [
                0.017314528401043083,
                -1.7595245937942185,
                2.195000186318688,
                0.18911433158350616,
                0.35031778511718437,
                -2.589785288166244
            ]
        },
        {
            "positions": [
                0.1155068013390802,
                -1.780545269774713,
                2.2232928988666583,
                0.09536229048745914,
                0.40103291607918345,
                -2.6672850319503993
            ]
        },
        {
            "positions": [
                0.21369907427711726,
                -1.8015659457552078,
                2.2515856114146287,
                0.0016102493914121885,
                0.45174804704118243,
                -2.744784775734555
            ]
        },
        {
            "positions": [
                0.31189134721515427,
                -1.8225866217357025,
                2.279878323962599,
                -0.09214179170463471,
                0.5024631780031815,
                -2.8222845195187096
            ]
        },
        {
            "positions": [
                0.4100836201531914,
                -1.843607297716197,
                2.3081710365105694,
                -0.18589383280068167,
                0.5531783089651805,
                -2.899784263302865
            ]
        },
        {
            "positions": [
                0.5082758930912286,
                -1.8646279736966918,
                2.3364637490585403,
                -0.27964587389672874,
                0.6038934399271796,
                -2.9772840070870203
            ]
        },
        {
            "positions": [
                0.6064681660292657,
                -1.8856486496771863,
                2.3647564616065107,
                -0.3733979149927757,
                0.6546085708891786,
                -3.0547837508711755
            ]
        },
        {
            "positions": [
                0.7046604389673027,
                -1.906669325657681,
                2.393049174154481,
                -0.46714995608882265,
                0.7053237018511777,
                -3.1322834946553306
            ]
        }
    ]
}