{
    "goal": {
        "global_pose": {
            "orientation": {
                "w": 0.5084816217422485,
                "x": -0.49083608388900757,
                "y": 0.5182115435600281,
                "z": -0.4816462993621826
            },
            "position": {
                "x": 0.5540239810943604,
                "y": 0.030875300988554955,
                "z": 0.16403168439865112
            }
        },
        "name": "move_to_storage_A"
    },
    "id": "ProjEST_move_to_storage_A_42",
    "joint_names": [
        "shoulder_pan_joint",
        "shoulder_lift_joint",
        "elbow_joint",
        "wrist_1_joint",
        "wrist_2_joint",
        "wrist_3_joint"
    ],
    "metrics": {
        "cart_traj_len": 0.3532026331514304,
        "distance_elbow_joint": 0.45045718072750995,
        "distance_shoulder_lift_joint": 0.23229609730611434,
        "distance_shoulder_pan_joint": 0.46276880889966154,
        "distance_wrist_1_joint": 0.24697872909363594,
        "distance_wrist_2_joint": 1.0942435591668707,
        "distance_wrist_3_joint": 0.10573582845432972,
        "smoothness": 0.0,
        "time": 0.0357942,
        "traj_len": 1.6101180713376648,
        "weighted_distance": 2.0359700756193075
    },
    "planner": "ProjEST",
    "start": {
        "state": {
            "elbow_joint": 1.9715463870305268,
            "shoulder_lift_joint": -1.1394903361783484,
            "shoulder_pan_joint": 0.12281147578464417,
            "wrist_1_joint": -0.7804599489681411,
            "wrist_2_joint": 0.12958660307563738,
            "wrist_3_joint": -3.1924946282119055
        }
    },
    "waypoints": [
        {
            "positions": [
                0.12281147578464417,
                -1.1394903361783484,
                1.9715463870305268,
                -0.7804599489681411,
                0.12958660307563738,
                -3.1924946282119055
            ]
        },
        {
            "positions": [
                0.05670164594183538,
                -1.1726754929363647,
                2.0358974128487426,
                -0.8157426245529462,
                0.2859071115280475,
                -3.177389509861287
            ]
        },
        {
            "positions": [
                -0.009408183900973408,
                -1.2058606496943811,
                2.100248438666958,
                -0.8510253001377514,
                0.44222761998045756,
                -3.1622843915106684
            ]
        },
        {
            "positions": [
                -0.07551801374378218,
                -1.2390458064523975,
                2.164599464485174,
                -0.8863079757225565,
                0.5985481284328676,
                -3.14717927316005
            ]
        },
        {
            "positions": [
                -0.14162784358659097,
                -1.2722309632104136,
                2.2289504903033897,
                -0.9215906513073616,
                0.7548686368852777,
                -3.1320741548094313
            ]
        },
        {
            "positions": [
                -0.2077376734293998,
                -1.30541611996843,
                2.2933015161216055,
                -0.9568733268921668,
                0.9111891453376879,
                -3.116969036458813
            ]
        },
        {
            "positions": [
                -0.2738475032722085,
                -1.3386012767264464,
                2.357652541939821,
                -0.9921560024769719,
                1.0675096537900979,
                -3.101863918108194
            ]
        },
        {
            "positions": [
                -0.33995733311501736,
                -1.3717864334844627,
                2.4220035677580367,
                -1.027438678061777,
                1.223830162242508,
                -3.086758799757576
            ]
        }
    ]
}