{
    "goal": {
        "global_pose": {
            "orientation": {
                "w": 0.7031023502349854,
                "x": -0.7110244035720825,
                "y": 0.007748599164187908,
                "z": 0.005598929710686207
            },
            "position": {
                "x": 0.11585023208521307,
                "y": 0.44412534475326537,
                "z": 0.3711530566215515
            }
        },
        "name": "move_to_auspresseinheit_A"
    },
    "id": "ProjEST_move_to_auspresseinheit_A_96",
    "joint_names": [
        "shoulder_pan_joint",
        "shoulder_lift_joint",
        "elbow_joint",
        "wrist_1_joint",
        "wrist_2_joint",
        "wrist_3_joint"
    ],
    "metrics": {
        "cart_traj_len": 3.53056746247675,
        "distance_elbow_joint": 4.926668282578674,
        "distance_shoulder_lift_joint": 1.0810573481990318,
        "distance_shoulder_pan_joint": 2.4111189792651286,
        "distance_wrist_1_joint": 2.3711426518513807,
        "distance_wrist_2_joint": 0.8481194412207524,
        "distance_wrist_3_joint": 5.814232791147784,
        "smoothness": 0.8149663878546606,
        "time": 0.263861126,
        "traj_len": 4.177599728823089,
        "weighted_distance": 5.683314804727119
    },
    "planner": "ProjEST",
    "start": {
        "state": {
            "elbow_joint": 2.422574709923281,
            "shoulder_lift_joint": -1.3736533754116391,
            "shoulder_pan_joint": -0.33786336945926293,
            "wrist_1_joint": -1.0288603412921917,
            "wrist_2_joint": 1.2330224858903978,
            "wrist_3_joint": -3.094022268022082
        }
    },
    "waypoints": [
        {
            "positions": [
                -0.33786336945926293,
                -1.3736533754116391,
                2.422574709923281,
                -1.0288603412921917,
                1.2330224858903978,
                -3.094022268022082
            ]
        },
        {
            "positions": [
                -0.3434730980964311,
                -1.3977299524059108,
                2.2965043331427752,
                -0.9662673993933466,
                1.2419465497875408,
                -2.9418034924319447
            ]
        },
        {
            "positions": [
                -0.3490828267335993,
                -1.4218065294001825,
                2.170433956362269,
                -0.9036744574945015,
                1.2508706136846837,
                -2.7895847168418078
            ]
        },
        {
            "positions": [
                -0.35469255537076744,
                -1.445883106394454,
                2.044363579581763,
                -0.8410815155956564,
                1.2597946775818267,
                -2.6373659412516703
            ]
        },
        {
            "positions": [
                -0.3603022840079356,
                -1.4699596833887256,
                1.9182932028012574,
                -0.7784885736968112,
                1.2687187414789698,
                -2.485147165661533
            ]
        },
        {
            "positions": [
                -0.3659120126451038,
                -1.4940362603829973,
                1.7922228260207513,
                -0.715895631797966,
                1.2776428053761126,
                -2.332928390071396
            ]
        },
        {
            "positions": [
                -0.371521741282272,
                -1.518112837377269,
                1.6661524492402453,
                -0.6533026898991209,
                1.2865668692732557,
                -2.1807096144812586
            ]
        },
        {
            "positions": [
                -0.37713146991944013,
                -1.5421894143715407,
                1.5400820724597395,
                -0.5907097480002756,
                1.2954909331703988,
                -2.0284908388911216
            ]
        },
        {
            "positions": [
                -0.3827411985566083,
                -1.5662659913658123,
                1.4140116956792335,
                -0.5281168061014306,
                1.3044149970675416,
                -1.876272063300984
            ]
        },
        {
            "positions": [
                -0.3883509271937765,
                -1.590342568360084,
                1.2879413188987276,
                -0.4655238642025854,
                1.3133390609646847,
                -1.7240532877108468
            ]
        },
        {
            "positions": [
                -0.3939606558309447,
                -1.6144191453543555,
                1.1618709421182216,
                -0.4029309223037403,
                1.3222631248618277,
                -1.5718345121207096
            ]
        },
        {
            "positions": [
                -0.3995703844681129,
                -1.6384957223486272,
                1.0358005653377156,
                -0.34033798040489505,
                1.3311871887589708,
                -1.4196157365305722
            ]
        },
        {
            "positions": [
                -0.405180113105281,
                -1.6625722993428989,
                0.9097301885572098,
                -0.27774503850605003,
                1.3401112526561136,
                -1.267396960940435
            ]
        },
        {
            "positions": [
                -0.4107898417424492,
                -1.6866488763371705,
                0.7836598117767037,
                -0.2151520966072048,
                1.3490353165532567,
                -1.1151781853502976
            ]
        },
        {
            "positions": [
                -0.4163995703796174,
                -1.7107254533314422,
                0.6575894349961979,
                -0.15255915470835968,
                1.3579593804503998,
                -0.9629594097601606
            ]
        },
        {
            "positions": [
                -0.4220092990167856,
                -1.734802030325714,
                0.5315190582156917,
                -0.08996621280951456,
                1.3668834443475426,
                -0.8107406341700232
            ]
        },
        {
            "positions": [
                -0.42761902765395376,
                -1.7588786073199856,
                0.40544868143518586,
                -0.027373270910669545,
                1.3758075082446857,
                -0.6585218585798858
            ]
        },
        {
            "positions": [
                -0.4332287562911219,
                -1.782955184314257,
                0.27937830465468005,
                0.0352196709881758,
                1.3847315721418287,
                -0.5063030829897484
            ]
        },
        {
            "positions": [
                -0.4388384849282901,
                -1.8070317613085287,
                0.15330792787417424,
                0.09781261288702092,
                1.3936556360389716,
                -0.3540843073996114
            ]
        },
        {
            "positions": [
                -0.44444821356545827,
                -1.8311083383028004,
                0.027237551093667822,
                0.16040555478586604,
                1.4025796999361146,
                -0.2018655318094741
            ]
        },
        {
            "positions": [
                -0.35339609466992683,
                -1.8496381635467234,
                0.15622999941690496,
                0.11246536179008235,
                1.3858699707761868,
                -0.2849530838270119
            ]
        },
        {
            "positions": [
                -0.2623439757743954,
                -1.8681679887906466,
                0.2852224477401421,
                0.06452516879429863,
                1.3691602416162592,
                -0.3680406358445497
            ]
        },
        {
            "positions": [
                -0.171291856878864,
                -1.8866978140345696,
                0.4142148960633792,
                0.016584975798514923,
                1.3524505124563313,
                -0.4511281878620875
            ]
        },
        {
            "positions": [
                -0.08023973798333256,
                -1.9052276392784928,
                0.5432073443866163,
                -0.031355217197268775,
                1.3357407832964037,
                -0.5342157398796253
            ]
        },
        {
            "positions": [
                0.010812380912198882,
                -1.9237574645224158,
                0.6721997927098535,
                -0.07929541019305247,
                1.3190310541364758,
                -0.6173032918971632
            ]
        },
        {
            "positions": [
                0.10186449980773027,
                -1.9422872897663388,
                0.8011922410330905,
                -0.1272356031888362,
                1.3023213249765482,
                -0.7003908439147009
            ]
        },
        {
            "positions": [
                0.1929166187032617,
                -1.960817115010262,
                0.9301846893563277,
                -0.17517579618461987,
                1.2856115958166203,
                -0.7834783959322387
            ]
        },
        {
            "positions": [
                0.28396873759879315,
                -1.979346940254185,
                1.059177137679565,
                -0.2231159891804036,
                1.2689018666566927,
                -0.8665659479497765
            ]
        },
        {
            "positions": [
                0.3750208564943246,
                -1.9978767654981082,
                1.1881695860028019,
                -0.27105618217618727,
                1.2521921374967648,
                -0.9496534999673143
            ]
        },
        {
            "positions": [
                0.46607297538985604,
                -2.016406590742031,
                1.317162034326039,
                -0.318996375171971,
                1.2354824083368372,
                -1.032741051984852
            ]
        },
        {
            "positions": [
                0.5571250942853875,
                -2.034936415985954,
                1.4461544826492763,
                -0.3669365681677548,
                1.2187726791769093,
                -1.11582860400239
            ]
        },
        {
            "positions": [
                0.6481772131809188,
                -2.053466241229877,
                1.5751469309725132,
                -0.41487676116353844,
                1.2020629500169817,
                -1.1989161560199277
            ]
        },
        {
            "positions": [
                0.7392293320764504,
                -2.0719960664738006,
                1.7041393792957507,
                -0.4628169541593221,
                1.1853532208570539,
                -1.2820037080374656
            ]
        },
        {
            "positions": [
                0.8302814509719817,
                -2.0905258917177236,
                1.8331318276189876,
                -0.5107571471551058,
                1.1686434916971262,
                -1.3650912600550034
            ]
        },
        {
            "positions": [
                0.9213335698675132,
                -2.1090557169616466,
                1.9621242759422248,
                -0.5586973401508896,
                1.1519337625371984,
                -1.4481788120725412
            ]
        },
        {
            "positions": [
                1.0123856887630445,
                -2.1275855422055696,
                2.0911167242654622,
                -0.6066375331466732,
                1.1352240333772707,
                -1.531266364090079
            ]
        },
        {
            "positions": [
                1.103437807658576,
                -2.146115367449493,
                2.220109172588699,
                -0.6545777261424569,
                1.1185143042173429,
                -1.6143539161076168
            ]
        },
        {
            "positions": [
                1.1944899265541076,
                -2.164645192693416,
                2.349101620911936,
                -0.7025179191382406,
                1.101804575057415,
                -1.6974414681251546
            ]
        },
        {
            "positions": [
                1.2855420454496391,
                -2.183175017937339,
                2.4780940692351736,
                -0.7504581121340244,
                1.0850948458974874,
                -1.7805290201426924
            ]
        },
        {
            "positions": [
                1.2137240609316595,
                -2.1492330547281724,
                2.468034743534229,
                -0.7165814760273453,
                1.0399601742554363,
                -1.9484555909679364
            ]
        },
        {
            "positions": [
                1.1419060764136801,
                -2.115291091519006,
                2.4579754178332847,
                -0.6827048399206663,
                0.9948255026133853,
                -2.1163821617931804
            ]
        },
        {
            "positions": [
                1.0700880918957005,
                -2.0813491283098395,
                2.44791609213234,
                -0.6488282038139874,
                0.9496908309713343,
                -2.284308732618425
            ]
        },
        {
            "positions": [
                0.998270107377721,
                -2.0474071651006733,
                2.4378567664313957,
                -0.6149515677073084,
                0.9045561593292832,
                -2.452235303443669
            ]
        },
        {
            "positions": [
                0.9264521228597415,
                -2.0134652018915067,
                2.427797440730451,
                -0.5810749316006294,
                0.8594214876872321,
                -2.620161874268913
            ]
        },
        {
            "positions": [
                0.8546341383417619,
                -1.97952323868234,
                2.4177381150295063,
                -0.5471982954939505,
                0.8142868160451812,
                -2.788088445094157
            ]
        },
        {
            "positions": [
                0.7828161538237824,
                -1.9455812754731736,
                2.407678789328562,
                -0.5133216593872715,
                0.7691521444031302,
                -2.956015015919401
            ]
        },
        {
            "positions": [
                0.710998169305803,
                -1.9116393122640072,
                2.3976194636276174,
                -0.47944502328059246,
                0.7240174727610791,
                -3.123941586744645
            ]
        }
    ]
}