{
    "goal": {
        "global_pose": {
            "orientation": {
                "w": 0.7047431468963623,
                "x": -0.7094548344612122,
                "y": 0.0024358443915843964,
                "z": -0.0022348060738295317
            },
            "position": {
                "x": 0.6094750761985779,
                "y": 0.3671506643295288,
                "z": 0.19426114857196808
            }
        },
        "name": "move_to_magneteinheit_A"
    },
    "id": "ProjEST_move_to_magneteinheit_A_65",
    "joint_names": [
        "shoulder_pan_joint",
        "shoulder_lift_joint",
        "elbow_joint",
        "wrist_1_joint",
        "wrist_2_joint",
        "wrist_3_joint"
    ],
    "metrics": {
        "cart_traj_len": 1.8740189364672848,
        "distance_elbow_joint": 3.9235484747646856,
        "distance_shoulder_lift_joint": 0.7035977789626618,
        "distance_shoulder_pan_joint": 1.2411107040908098,
        "distance_wrist_1_joint": 1.5374550649133856,
        "distance_wrist_2_joint": 1.6959683832056132,
        "distance_wrist_3_joint": 1.1662388254668878,
        "smoothness": 4.605369582982944e-16,
        "time": 0.12450016400000001,
        "traj_len": 3.2043594104600754,
        "weighted_distance": 3.9791733224951154
    },
    "planner": "ProjEST",
    "start": {
        "state": {
            "elbow_joint": -1.919643507792019,
            "shoulder_lift_joint": -0.07675430207160344,
            "shoulder_pan_joint": -1.1188671864651873,
            "wrist_1_joint": 0.42560062535961957,
            "wrist_2_joint": 1.5706038300724876,
            "wrist_3_joint": 1.1188968870953055
        }
    },
    "waypoints": [
        {
            "positions": [
                -1.1188671864651873,
                -0.07675430207160344,
                -1.919643507792019,
                0.42560062535961957,
                1.5706038300724876,
                1.1188968870953055
            ]
        },
        {
            "positions": [
                -1.0711321593847716,
                -0.10381575510862891,
                -1.7687377972241465,
                0.48473351247167284,
                1.5053742768722718,
                1.0740415476542715
            ]
        },
        {
            "positions": [
                -1.0233971323043558,
                -0.13087720814565437,
                -1.617832086656274,
                0.5438663995837262,
                1.4401447236720557,
                1.0291862082132373
            ]
        },
        {
            "positions": [
                -0.97566210522394,
                -0.15793866118267982,
                -1.4669263760884015,
                0.6029992866957794,
                1.3749151704718399,
                0.9843308687722031
            ]
        },
        {
            "positions": [
                -0.9279270781435243,
                -0.1850001142197053,
                -1.3160206655205289,
                0.6621321738078327,
                1.309685617271624,
                0.939475529331169
            ]
        },
        {
            "positions": [
                -0.8801920510631085,
                -0.21206156725673075,
                -1.1651149549526565,
                0.7212650609198861,
                1.2444560640714082,
                0.8946201898901348
            ]
        },
        {
            "positions": [
                -0.8324570239826927,
                -0.2391230202937562,
                -1.0142092443847839,
                0.7803979480319394,
                1.1792265108711923,
                0.8497648504491007
            ]
        },
        {
            "positions": [
                -0.784721996902277,
                -0.26618447333078166,
                -0.8633035338169115,
                0.8395308351439925,
                1.1139969576709765,
                0.8049095110080665
            ]
        },
        {
            "positions": [
                -0.7369869698218612,
                -0.2932459263678071,
                -0.7123978232490389,
                0.8986637222560458,
                1.0487674044707604,
                0.7600541715670324
            ]
        },
        {
            "positions": [
                -0.6892519427414455,
                -0.32030737940483256,
                -0.5614921126811665,
                0.9577966093680992,
                0.9835378512705446,
                0.7151988321259982
            ]
        },
        {
            "positions": [
                -0.6415169156610296,
                -0.34736883244185807,
                -0.41058640211329367,
                1.0169294964801525,
                0.9183082980703287,
                0.6703434926849641
            ]
        },
        {
            "positions": [
                -0.593781888580614,
                -0.3744302854788835,
                -0.2596806915454213,
                1.0760623835922059,
                0.8530787448701128,
                0.6254881532439299
            ]
        },
        {
            "positions": [
                -0.5460468615001982,
                -0.40149173851590897,
                -0.10877498097754867,
                1.1351952707042592,
                0.7878491916698969,
                0.5806328138028958
            ]
        },
        {
            "positions": [
                -0.49831183441978244,
                -0.4285531915529344,
                0.04213072959032371,
                1.1943281578163123,
                0.722619638469681,
                0.5357774743618616
            ]
        },
        {
            "positions": [
                -0.45057680733936667,
                -0.45561464458995987,
                0.1930364401581961,
                1.2534610449283656,
                0.6573900852694652,
                0.4909221349208275
            ]
        },
        {
            "positions": [
                -0.402841780258951,
                -0.4826760976269853,
                0.3439421507260685,
                1.312593932040419,
                0.5921605320692493,
                0.44606679547979344
            ]
        },
        {
            "positions": [
                -0.35510675317853513,
                -0.5097375506640108,
                0.4948478612939413,
                1.3717268191524723,
                0.5269309788690333,
                0.4012114560387592
            ]
        },
        {
            "positions": [
                -0.30737172609811936,
                -0.5367990037010363,
                0.6457535718618137,
                1.4308597062645256,
                0.46170142566881744,
                0.35635611659772504
            ]
        },
        {
            "positions": [
                -0.2596366990177037,
                -0.5638604567380617,
                0.7966592824296861,
                1.4899925933765787,
                0.3964718724686016,
                0.3115007771566909
            ]
        },
        {
            "positions": [
                -0.21190167193728793,
                -0.5909219097750871,
                0.9475649929975585,
                1.549125480488632,
                0.33124231926838577,
                0.26664543771565674
            ]
        },
        {
            "positions": [
                -0.16416664485687205,
                -0.6179833628121127,
                1.0984707035654317,
                1.6082583676006854,
                0.2660127660681697,
                0.2217900982746226
            ]
        },
        {
            "positions": [
                -0.11643161777645639,
                -0.6450448158491382,
                1.2493764141333041,
                1.6673912547127387,
                0.20078321286795386,
                0.17693475883358845
            ]
        },
        {
            "positions": [
                -0.06869659069604062,
                -0.6721062688861636,
                1.4002821247011765,
                1.726524141824792,
                0.13555365966773802,
                0.1320794193925543
            ]
        },
        {
            "positions": [
                -0.020961563615624845,
                -0.6991677219231891,
                1.551187835269049,
                1.7856570289368452,
                0.07032410646752218,
                0.08722407995152026
            ]
        },
        {
            "positions": [
                0.026773463464790925,
                -0.7262291749602146,
                1.7020935458369217,
                1.8447899160488987,
                0.005094553267306123,
                0.042368740510486
            ]
        },
        {
            "positions": [
                0.0745084905452067,
                -0.75329062799724,
                1.8529992564047941,
                1.9039228031609519,
                -0.060134999932909716,
                -0.002486598930548256
            ]
        },
        {
            "positions": [
                0.1222435176256224,
                -0.7803520810342653,
                2.0039049669726667,
                1.9630556902730052,
                -0.12536455313312547,
                -0.04734193837158232
            ]
        }
    ]
}