{
    "goal": {
        "global_pose": {
            "orientation": {
                "w": 0.5084816217422485,
                "x": -0.49083608388900757,
                "y": 0.5182115435600281,
                "z": -0.4816462993621826
            },
            "position": {
                "x": 0.5540239810943604,
                "y": 0.030875300988554955,
                "z": 0.16403168439865112
            }
        },
        "name": "move_to_storage_A"
    },
    "id": "ProjEST_move_to_storage_A_104",
    "joint_names": [
        "shoulder_pan_joint",
        "shoulder_lift_joint",
        "elbow_joint",
        "wrist_1_joint",
        "wrist_2_joint",
        "wrist_3_joint"
    ],
    "metrics": {
        "cart_traj_len": 0.35233800656388986,
        "distance_elbow_joint": 0.451910560496978,
        "distance_shoulder_lift_joint": 0.232611259525227,
        "distance_shoulder_pan_joint": 0.46002236877538155,
        "distance_wrist_1_joint": 0.25467111703031386,
        "distance_wrist_2_joint": 1.0997135509068579,
        "distance_wrist_3_joint": 0.10422274050300961,
        "smoothness": 8.881784197001252e-16,
        "time": 0.082235099,
        "traj_len": 1.6134285225065805,
        "weighted_distance": 2.0410736748537417
    },
    "planner": "ProjEST",
    "start": {
        "state": {
            "elbow_joint": 1.9715463870305268,
            "shoulder_lift_joint": -1.1394903361783484,
            "shoulder_pan_joint": 0.12281147578464417,
            "wrist_1_joint": -0.7804599489681411,
            "wrist_2_joint": 0.12958660307563738,
            "wrist_3_joint": -3.1924946282119055
        }
    },
    "waypoints": [
        {
            "positions": [
                0.12281147578464417,
                -1.1394903361783484,
                1.9715463870305268,
                -0.7804599489681411,
                0.12958660307563738,
                -3.1924946282119055
            ]
        },
        {
            "positions": [
                0.05709399453101824,
                -1.1727205161105236,
                2.036105038530095,
                -0.8168415371153288,
                0.2866885389194742,
                -3.177605665282904
            ]
        },
        {
            "positions": [
                -0.008623486722607696,
                -1.2059506960426989,
                2.100663690029663,
                -0.8532231252625164,
                0.443790474763311,
                -3.1627167023539027
            ]
        },
        {
            "positions": [
                -0.07434096797623362,
                -1.2391808759748741,
                2.1652223415292315,
                -0.8896047134097042,
                0.6008924106071478,
                -3.1478277394249012
            ]
        },
        {
            "positions": [
                -0.14005844922985955,
                -1.2724110559070496,
                2.2297809930288,
                -0.9259863015568919,
                0.7579943464509847,
                -3.1329387764959002
            ]
        },
        {
            "positions": [
                -0.20577593048348553,
                -1.3056412358392249,
                2.2943396445283684,
                -0.9623678897040795,
                0.9150962822948217,
                -3.118049813566899
            ]
        },
        {
            "positions": [
                -0.2714934117371114,
                -1.3388714157714001,
                2.3588982960279363,
                -0.9987494778512672,
                1.0721982181386582,
                -3.1031608506378974
            ]
        },
        {
            "positions": [
                -0.33721089299073737,
                -1.3721015957035754,
                2.4234569475275047,
                -1.035131065998455,
                1.2293001539824953,
                -3.088271887708896
            ]
        }
    ]
}