{
    "goal": {
        "global_pose": {
            "orientation": {
                "w": 0.5084816217422485,
                "x": -0.49083608388900757,
                "y": 0.5182115435600281,
                "z": -0.4816462993621826
            },
            "position": {
                "x": 0.5540239810943604,
                "y": 0.030875300988554955,
                "z": 0.16403168439865112
            }
        },
        "name": "move_to_storage_A"
    },
    "id": "ProjEST_move_to_storage_A_85",
    "joint_names": [
        "shoulder_pan_joint",
        "shoulder_lift_joint",
        "elbow_joint",
        "wrist_1_joint",
        "wrist_2_joint",
        "wrist_3_joint"
    ],
    "metrics": {
        "cart_traj_len": 0.3529432037310893,
        "distance_elbow_joint": 0.4489535932834876,
        "distance_shoulder_lift_joint": 0.23366328878104725,
        "distance_shoulder_pan_joint": 0.4582692013634761,
        "distance_wrist_1_joint": 0.23938545180118187,
        "distance_wrist_2_joint": 1.1121736306077425,
        "distance_wrist_3_joint": 0.08784666390429496,
        "smoothness": 4.440892098500626e-16,
        "time": 0.074615973,
        "traj_len": 1.6063286804826808,
        "weighted_distance": 2.0267077342228563
    },
    "planner": "ProjEST",
    "start": {
        "state": {
            "elbow_joint": 1.9715463870305268,
            "shoulder_lift_joint": -1.1394903361783484,
            "shoulder_pan_joint": 0.12281147578464417,
            "wrist_1_joint": -0.7804599489681411,
            "wrist_2_joint": 0.12958660307563738,
            "wrist_3_joint": -3.1924946282119055
        }
    },
    "waypoints": [
        {
            "positions": [
                0.12281147578464417,
                -1.1394903361783484,
                1.9715463870305268,
                -0.7804599489681411,
                0.12958660307563738,
                -3.1924946282119055
            ]
        },
        {
            "positions": [
                0.0573444470184333,
                -1.1728708060042123,
                2.0356826146424534,
                -0.8146578706540242,
                0.2884685503053149,
                -3.179945104797006
            ]
        },
        {
            "positions": [
                -0.008122581747777566,
                -1.206251275830076,
                2.0998188422543804,
                -0.8488557923399074,
                0.44735049753499234,
                -3.167395581382107
            ]
        },
        {
            "positions": [
                -0.07358961051398842,
                -1.23963174565594,
                2.163955069866307,
                -0.8830537140257905,
                0.6062324447646699,
                -3.1548460579672075
            ]
        },
        {
            "positions": [
                -0.1390566392801993,
                -1.273012215481804,
                2.228091297478234,
                -0.9172516357116736,
                0.7651143919943474,
                -3.1422965345523086
            ]
        },
        {
            "positions": [
                -0.2045236680464102,
                -1.306392685307668,
                2.2922275250901607,
                -0.9514495573975568,
                0.9239963392240249,
                -3.1297470111374093
            ]
        },
        {
            "positions": [
                -0.269990696812621,
                -1.3397731551335317,
                2.3563637527020873,
                -0.9856474790834397,
                1.0828782864537023,
                -3.11719748772251
            ]
        },
        {
            "positions": [
                -0.3354577255788319,
                -1.3731536249593956,
                2.4204999803140144,
                -1.019845400769323,
                1.24176023368338,
                -3.1046479643076106
            ]
        }
    ]
}