{
    "goal": {
        "global_pose": {
            "orientation": {
                "w": 0.7031023502349854,
                "x": -0.7110244035720825,
                "y": 0.007748599164187908,
                "z": 0.005598929710686207
            },
            "position": {
                "x": 0.11585023208521307,
                "y": 0.44412534475326537,
                "z": 0.3711530566215515
            }
        },
        "name": "move_to_auspresseinheit_A"
    },
    "id": "ProjEST_move_to_auspresseinheit_A_149",
    "joint_names": [
        "shoulder_pan_joint",
        "shoulder_lift_joint",
        "elbow_joint",
        "wrist_1_joint",
        "wrist_2_joint",
        "wrist_3_joint"
    ],
    "metrics": {
        "cart_traj_len": 1.6965442096086014,
        "distance_elbow_joint": 2.1279990516033487,
        "distance_shoulder_lift_joint": 0.5361036188723716,
        "distance_shoulder_pan_joint": 1.6648384301187398,
        "distance_wrist_1_joint": 1.498064106549665,
        "distance_wrist_2_joint": 2.3481567061754047,
        "distance_wrist_3_joint": 4.098455096631272,
        "smoothness": 0.6192224303340107,
        "time": 0.132828567,
        "traj_len": 3.503372233998381,
        "weighted_distance": 4.931201477929939
    },
    "planner": "ProjEST",
    "start": {
        "state": {
            "elbow_joint": 2.422574709923281,
            "shoulder_lift_joint": -1.3736533754116391,
            "shoulder_pan_joint": -0.33786336945926293,
            "wrist_1_joint": -1.0288603412921917,
            "wrist_2_joint": 1.2330224858903978,
            "wrist_3_joint": -3.094022268022082
        }
    },
    "waypoints": [
        {
            "positions": [
                -0.33786336945926293,
                -1.3736533754116391,
                2.422574709923281,
                -1.0288603412921917,
                1.2330224858903978,
                -3.094022268022082
            ]
        },
        {
            "positions": [
                -0.3586127946691706,
                -1.3869996910846198,
                2.350649031916244,
                -0.9712484513508011,
                1.137226532277278,
                -2.9587137210063568
            ]
        },
        {
            "positions": [
                -0.37936221987907826,
                -1.4003460067576008,
                2.2787233539092075,
                -0.9136365614094104,
                1.0414305786641584,
                -2.823405173990631
            ]
        },
        {
            "positions": [
                -0.40011164508898595,
                -1.4136923224305815,
                2.2067976759021706,
                -0.8560246714680199,
                0.9456346250510386,
                -2.6880966269749056
            ]
        },
        {
            "positions": [
                -0.42086107029889364,
                -1.4270386381035622,
                2.134871997895134,
                -0.7984127815266292,
                0.8498386714379189,
                -2.5527880799591802
            ]
        },
        {
            "positions": [
                -0.44161049550880127,
                -1.440384953776543,
                2.062946319888097,
                -0.7408008915852387,
                0.7540427178247993,
                -2.417479532943455
            ]
        },
        {
            "positions": [
                -0.46235992071870896,
                -1.453731269449524,
                1.9910206418810603,
                -0.683189001643848,
                0.6582467642116795,
                -2.282170985927729
            ]
        },
        {
            "positions": [
                -0.4831093459286166,
                -1.4670775851225046,
                1.9190949638740236,
                -0.6255771117024573,
                0.5624508105985597,
                -2.1468624389120037
            ]
        },
        {
            "positions": [
                -0.5038587711385243,
                -1.4804239007954854,
                1.8471692858669868,
                -0.5679652217610667,
                0.46665485698544007,
                -2.0115538918962783
            ]
        },
        {
            "positions": [
                -0.5246081963484319,
                -1.493770216468466,
                1.77524360785995,
                -0.5103533318196761,
                0.3708589033723203,
                -1.8762453448805527
            ]
        },
        {
            "positions": [
                -0.5453576215583396,
                -1.507116532141447,
                1.7033179298529133,
                -0.45274144187828547,
                0.27506294975920065,
                -1.7409367978648274
            ]
        },
        {
            "positions": [
                -0.5661070467682473,
                -1.5204628478144278,
                1.6313922518458766,
                -0.3951295519368948,
                0.17926699614608088,
                -1.605628250849102
            ]
        },
        {
            "positions": [
                -0.5868564719781549,
                -1.5338091634874085,
                1.5594665738388396,
                -0.33751766199550415,
                0.08347104253296123,
                -1.4703197038333762
            ]
        },
        {
            "positions": [
                -0.6076058971880627,
                -1.5471554791603892,
                1.4875408958318028,
                -0.2799057720541135,
                -0.012324911080158651,
                -1.3350111568176508
            ]
        },
        {
            "positions": [
                -0.6283553223979703,
                -1.5605017948333701,
                1.415615217824766,
                -0.22229388211272294,
                -0.1081208646932783,
                -1.1997026098019252
            ]
        },
        {
            "positions": [
                -0.649104747607878,
                -1.5738481105063509,
                1.3436895398177293,
                -0.16468199217133228,
                -0.20391681830639802,
                -1.0643940627861996
            ]
        },
        {
            "positions": [
                -0.527346659934956,
                -1.603357276889428,
                1.429960368913867,
                -0.14585879520675699,
                -0.19773588896411703,
                -1.1668761939037564
            ]
        },
        {
            "positions": [
                -0.40558857226203415,
                -1.6328664432725053,
                1.5162311980100047,
                -0.1270355982421817,
                -0.19155495962183602,
                -1.2693583250213132
            ]
        },
        {
            "positions": [
                -0.2838304845891122,
                -1.6623756096555824,
                1.6025020271061423,
                -0.10821240127760638,
                -0.18537403027955504,
                -1.37184045613887
            ]
        },
        {
            "positions": [
                -0.1620723969161903,
                -1.6918847760386597,
                1.6887728562022801,
                -0.08938920431303109,
                -0.17919310093727406,
                -1.4743225872564267
            ]
        },
        {
            "positions": [
                -0.04031430924326829,
                -1.7213939424217368,
                1.7750436852984177,
                -0.07056600734845576,
                -0.17301217159499305,
                -1.5768047183739835
            ]
        },
        {
            "positions": [
                0.08144377842965356,
                -1.7509031088048141,
                1.8613145143945555,
                -0.05174281038388048,
                -0.16683124225271206,
                -1.6792868494915403
            ]
        },
        {
            "positions": [
                0.2032018661025755,
                -1.7804122751878912,
                1.9475853434906931,
                -0.03291961341930516,
                -0.16065031291043108,
                -1.781768980609097
            ]
        },
        {
            "positions": [
                0.32495995377549736,
                -1.8099214415709683,
                2.0338561725868307,
                -0.014096416454729893,
                -0.1544693835681501,
                -1.8842511117266538
            ]
        },
        {
            "positions": [
                0.4467180414484193,
                -1.8394306079540457,
                2.1201270016829685,
                0.00472678050984543,
                -0.1482884542258691,
                -1.9867332428442106
            ]
        },
        {
            "positions": [
                0.48259288059248834,
                -1.8486697678374018,
                2.1558107629287657,
                -0.045581491572819044,
                -0.05250344245477946,
                -2.1225500543047104
            ]
        },
        {
            "positions": [
                0.5184677197365574,
                -1.8579089277207579,
                2.1914945241745625,
                -0.09588976365548352,
                0.043281569316310164,
                -2.2583668657652103
            ]
        },
        {
            "positions": [
                0.5543425588806264,
                -1.867148087604114,
                2.2271782854203597,
                -0.146198035738148,
                0.1390665810873998,
                -2.39418367722571
            ]
        },
        {
            "positions": [
                0.5843725079769504,
                -1.8756698689400932,
                2.260303312599393,
                -0.20890846943807484,
                0.2527133816043621,
                -2.541991132616886
            ]
        },
        {
            "positions": [
                0.6144024570732743,
                -1.8841916502760727,
                2.2934283397784263,
                -0.27161890313800163,
                0.3663601821213244,
                -2.689798588008061
            ]
        },
        {
            "positions": [
                0.6444324061695984,
                -1.892713431612052,
                2.3265533669574596,
                -0.3343293368379284,
                0.48000698263828667,
                -2.8376060433992367
            ]
        },
        {
            "positions": [
                0.6744623552659224,
                -1.9012352129480314,
                2.359678394136493,
                -0.39703977053785533,
                0.593653783155249,
                -2.985413498790412
            ]
        },
        {
            "positions": [
                0.7044923043622463,
                -1.9097569942840107,
                2.3928034213155263,
                -0.4597502042377821,
                0.7073005836722112,
                -3.1332209541815876
            ]
        }
    ]
}