{
    "goal": {
        "global_pose": {
            "orientation": {
                "w": 0.7047431468963623,
                "x": -0.7094548344612122,
                "y": 0.0024358443915843964,
                "z": -0.0022348060738295317
            },
            "position": {
                "x": 0.6094750761985779,
                "y": 0.3671506643295288,
                "z": 0.19426114857196808
            }
        },
        "name": "move_to_magneteinheit_A"
    },
    "id": "ProjEST_move_to_magneteinheit_A_58",
    "joint_names": [
        "shoulder_pan_joint",
        "shoulder_lift_joint",
        "elbow_joint",
        "wrist_1_joint",
        "wrist_2_joint",
        "wrist_3_joint"
    ],
    "metrics": {
        "cart_traj_len": 2.062923123803521,
        "distance_elbow_joint": 3.870231047415983,
        "distance_shoulder_lift_joint": 1.0500936992682681,
        "distance_shoulder_pan_joint": 1.2420554016560286,
        "distance_wrist_1_joint": 1.124106166677427,
        "distance_wrist_2_joint": 1.447199688050018,
        "distance_wrist_3_joint": 1.89990487650747,
        "smoothness": 3.1720657918664137e-16,
        "time": 0.09186066300000001,
        "traj_len": 3.260918717106453,
        "weighted_distance": 4.123676331541744
    },
    "planner": "ProjEST",
    "start": {
        "state": {
            "elbow_joint": -1.919643507792019,
            "shoulder_lift_joint": -0.07675430207160344,
            "shoulder_pan_joint": -1.1188671864651873,
            "wrist_1_joint": 0.42560062535961957,
            "wrist_2_joint": 1.5706038300724876,
            "wrist_3_joint": 1.1188968870953055
        }
    },
    "waypoints": [
        {
            "positions": [
                -1.1188671864651873,
                -0.07675430207160344,
                -1.919643507792019,
                0.42560062535961957,
                1.5706038300724876,
                1.1188968870953055
            ]
        },
        {
            "positions": [
                -1.072865134552001,
                -0.11564666130376153,
                -1.7763016171469828,
                0.383967063630826,
                1.5170038416261906,
                1.18926373437336
            ]
        },
        {
            "positions": [
                -1.0268630826388148,
                -0.1545390205359196,
                -1.6329597265019462,
                0.3423335019020324,
                1.4634038531798936,
                1.2596305816514144
            ]
        },
        {
            "positions": [
                -0.9808610307256287,
                -0.19343137976807767,
                -1.4896178358569099,
                0.3006999401732388,
                1.4098038647335966,
                1.329997428929469
            ]
        },
        {
            "positions": [
                -0.9348589788124424,
                -0.23232373900023576,
                -1.3462759452118735,
                0.2590663784444452,
                1.3562038762872999,
                1.4003642762075232
            ]
        },
        {
            "positions": [
                -0.8888569268992561,
                -0.2712160982323938,
                -1.2029340545668372,
                0.21743281671565162,
                1.302603887841003,
                1.4707311234855778
            ]
        },
        {
            "positions": [
                -0.8428548749860699,
                -0.3101084574645519,
                -1.0595921639218007,
                0.17579925498685803,
                1.249003899394706,
                1.5410979707636323
            ]
        },
        {
            "positions": [
                -0.7968528230728837,
                -0.34900081669670996,
                -0.9162502732767643,
                0.13416569325806443,
                1.195403910948409,
                1.6114648180416866
            ]
        },
        {
            "positions": [
                -0.7508507711596974,
                -0.3878931759288681,
                -0.7729083826317278,
                0.09253213152927081,
                1.141803922502112,
                1.681831665319741
            ]
        },
        {
            "positions": [
                -0.7048487192465112,
                -0.42678553516102613,
                -0.6295664919866915,
                0.050898569800477245,
                1.088203934055815,
                1.7521985125977955
            ]
        },
        {
            "positions": [
                -0.6588466673333249,
                -0.4656778943931842,
                -0.4862246013416551,
                0.009265008071683678,
                1.034603945609518,
                1.82256535987585
            ]
        },
        {
            "positions": [
                -0.6128446154201387,
                -0.5045702536253422,
                -0.3428827106966186,
                -0.032368553657109944,
                0.9810039571632211,
                1.8929322071539043
            ]
        },
        {
            "positions": [
                -0.5668425635069525,
                -0.5434626128575004,
                -0.19954082005158225,
                -0.07400211538590351,
                0.9274039687169241,
                1.9632990544319588
            ]
        },
        {
            "positions": [
                -0.5208405115937662,
                -0.5823549720896584,
                -0.05619892940654592,
                -0.11563567711469708,
                0.8738039802706271,
                2.0336659017100134
            ]
        },
        {
            "positions": [
                -0.47483845968058,
                -0.6212473313218165,
                0.08714296123849041,
                -0.1572692388434907,
                0.8202039918243301,
                2.1040327489880677
            ]
        },
        {
            "positions": [
                -0.4288364077673936,
                -0.6601396905539747,
                0.2304848518835272,
                -0.19890280057228432,
                0.7666040033780331,
                2.174399596266122
            ]
        },
        {
            "positions": [
                -0.38283435585420744,
                -0.6990320497861326,
                0.3738267425285635,
                -0.24053636230107794,
                0.7130040149317363,
                2.2447664435441768
            ]
        },
        {
            "positions": [
                -0.33683230394102115,
                -0.7379244090182908,
                0.5171686331735998,
                -0.28216992402987157,
                0.6594040264854393,
                2.315133290822231
            ]
        },
        {
            "positions": [
                -0.29083025202783497,
                -0.7768167682504488,
                0.6605105238186362,
                -0.3238034857586651,
                0.6058040380391423,
                2.3855001381002854
            ]
        },
        {
            "positions": [
                -0.24482820011464868,
                -0.8157091274826069,
                0.803852414463673,
                -0.3654370474874587,
                0.5522040495928453,
                2.45586698537834
            ]
        },
        {
            "positions": [
                -0.1988261482014625,
                -0.8546014867147649,
                0.9471943051087088,
                -0.4070706092162522,
                0.4986040611465483,
                2.5262338326563945
            ]
        },
        {
            "positions": [
                -0.1528240962882762,
                -0.893493845946923,
                1.0905361957537456,
                -0.44870417094504594,
                0.44500407270025133,
                2.5966006799344488
            ]
        },
        {
            "positions": [
                -0.10682204437509002,
                -0.9323862051790812,
                1.233878086398782,
                -0.49033773267383945,
                0.39140408425395457,
                2.6669675272125035
            ]
        },
        {
            "positions": [
                -0.06081999246190373,
                -0.9712785644112392,
                1.3772199770438183,
                -0.5319712944026331,
                0.3378040958076576,
                2.737334374490558
            ]
        },
        {
            "positions": [
                -0.014817940548717656,
                -1.0101709236433973,
                1.5205618676888546,
                -0.5736048561314266,
                0.2842041073613606,
                2.807701221768612
            ]
        },
        {
            "positions": [
                0.031184111364468636,
                -1.0490632828755555,
                1.6639037583338914,
                -0.6152384178602202,
                0.2306041189150636,
                2.878068069046667
            ]
        },
        {
            "positions": [
                0.07718616327765493,
                -1.0879556421077134,
                1.8072456489789273,
                -0.6568719795890137,
                0.17700413046876662,
                2.9484349163247208
            ]
        },
        {
            "positions": [
                0.12318821519084112,
                -1.1268480013398716,
                1.950587539623964,
                -0.6985055413178074,
                0.12340414202246956,
                3.0188017636027755
            ]
        }
    ]
}