{
    "goal": {
        "global_pose": {
            "orientation": {
                "w": 0.7031023502349854,
                "x": -0.7110244035720825,
                "y": 0.007748599164187908,
                "z": 0.005598929710686207
            },
            "position": {
                "x": 0.11585023208521307,
                "y": 0.44412534475326537,
                "z": 0.3711530566215515
            }
        },
        "name": "move_to_auspresseinheit_A"
    },
    "id": "ProjEST_move_to_auspresseinheit_A_135",
    "joint_names": [
        "shoulder_pan_joint",
        "shoulder_lift_joint",
        "elbow_joint",
        "wrist_1_joint",
        "wrist_2_joint",
        "wrist_3_joint"
    ],
    "metrics": {
        "cart_traj_len": 0.9414494314515326,
        "distance_elbow_joint": 0.6778687646495869,
        "distance_shoulder_lift_joint": 0.5348761252971208,
        "distance_shoulder_pan_joint": 1.559086873544985,
        "distance_wrist_1_joint": 3.145805283840279,
        "distance_wrist_2_joint": 0.5134415942940812,
        "distance_wrist_3_joint": 3.3946412123124503,
        "smoothness": 0.9843754285586642,
        "time": 0.235260557,
        "traj_len": 3.1346004297100616,
        "weighted_distance": 4.502693544612798
    },
    "planner": "ProjEST",
    "start": {
        "state": {
            "elbow_joint": 2.422574709923281,
            "shoulder_lift_joint": -1.3736533754116391,
            "shoulder_pan_joint": -0.33786336945926293,
            "wrist_1_joint": -1.0288603412921917,
            "wrist_2_joint": 1.2330224858903978,
            "wrist_3_joint": -3.094022268022082
        }
    },
    "waypoints": [
        {
            "positions": [
                -0.33786336945926293,
                -1.3736533754116391,
                2.422574709923281,
                -1.0288603412921917,
                1.2330224858903978,
                -3.094022268022082
            ]
        },
        {
            "positions": [
                -0.3576400312817673,
                -1.4030453612954192,
                2.395336539722309,
                -0.8860019581734249,
                1.2094881307298202,
                -2.9652394981920716
            ]
        },
        {
            "positions": [
                -0.37741669310427167,
                -1.4324373471791993,
                2.3680983695213365,
                -0.7431435750546581,
                1.1859537755692426,
                -2.8364567283620605
            ]
        },
        {
            "positions": [
                -0.39719335492677604,
                -1.4618293330629795,
                2.3408601993203644,
                -0.6002851919358912,
                1.162419420408665,
                -2.70767395853205
            ]
        },
        {
            "positions": [
                -0.4169700167492804,
                -1.4912213189467596,
                2.313622029119392,
                -0.4574268088171245,
                1.1388850652480875,
                -2.5788911887020394
            ]
        },
        {
            "positions": [
                -0.4367466785717848,
                -1.5206133048305397,
                2.2863838589184198,
                -0.31456842569835763,
                1.11535071008751,
                -2.4501084188720283
            ]
        },
        {
            "positions": [
                -0.45652334039428916,
                -1.5500052907143198,
                2.2591456887174477,
                -0.17171004257959077,
                1.0918163549269324,
                -2.3213256490420173
            ]
        },
        {
            "positions": [
                -0.47630000221679347,
                -1.5793972765980997,
                2.231907518516475,
                -0.02885165946082413,
                1.0682819997663549,
                -2.1925428792120067
            ]
        },
        {
            "positions": [
                -0.49607666403929784,
                -1.60878926248188,
                2.204669348315503,
                0.11400672365794273,
                1.0447476446057773,
                -2.063760109381996
            ]
        },
        {
            "positions": [
                -0.5158533258618022,
                -1.63818124836566,
                2.177431178114531,
                0.2568651067767096,
                1.0212132894451997,
                -1.9349773395519854
            ]
        },
        {
            "positions": [
                -0.5356299876843066,
                -1.66757323424944,
                2.1501930079135585,
                0.39972348989547646,
                0.9976789342846223,
                -1.8061945697219746
            ]
        },
        {
            "positions": [
                -0.555406649506811,
                -1.6969652201332202,
                2.1229548377125864,
                0.5425818730142431,
                0.9741445791240447,
                -1.677411799891964
            ]
        },
        {
            "positions": [
                -0.5751833113293153,
                -1.7263572060170003,
                2.095716667511614,
                0.6854402561330102,
                0.9506102239634672,
                -1.548629030061953
            ]
        },
        {
            "positions": [
                -0.5949599731518197,
                -1.7557491919007804,
                2.068478497310642,
                0.8282986392517768,
                0.9270758688028896,
                -1.4198462602319424
            ]
        },
        {
            "positions": [
                -0.49480687547086366,
                -1.767501523347548,
                2.0933840782365607,
                0.7291720005366761,
                0.9111147167100763,
                -1.5521897375028892
            ]
        },
        {
            "positions": [
                -0.3946537777899076,
                -1.7792538547943157,
                2.11828965916248,
                0.6300453618215752,
                0.895153564617263,
                -1.6845332147738363
            ]
        },
        {
            "positions": [
                -0.2945006801089516,
                -1.7910061862410833,
                2.143195240088399,
                0.5309187231064745,
                0.8791924125244497,
                -1.8168766920447834
            ]
        },
        {
            "positions": [
                -0.19434758242799555,
                -1.8027585176878511,
                2.1681008210143182,
                0.4317920843913737,
                0.8632312604316363,
                -1.9492201693157303
            ]
        },
        {
            "positions": [
                -0.09419448474703951,
                -1.8145108491346187,
                2.193006401940237,
                0.3326654456762729,
                0.847270108338823,
                -2.081563646586677
            ]
        },
        {
            "positions": [
                0.0059586129339165295,
                -1.8262631805813863,
                2.217911982866156,
                0.23353880696117202,
                0.8313089562460098,
                -2.2139071238576244
            ]
        },
        {
            "positions": [
                0.10611171061487246,
                -1.838015512028154,
                2.2428175637920753,
                0.13441216824607138,
                0.8153478041531964,
                -2.3462506011285713
            ]
        },
        {
            "positions": [
                0.2062648082958286,
                -1.8497678434749216,
                2.267723144717994,
                0.03528552953097053,
                0.7993866520603832,
                -2.478594078399518
            ]
        },
        {
            "positions": [
                0.30641790597678453,
                -1.8615201749216892,
                2.292628725643913,
                -0.06384110918413022,
                0.7834254999675698,
                -2.610937555670465
            ]
        },
        {
            "positions": [
                0.4065710036577407,
                -1.873272506368457,
                2.3175343065698324,
                -0.16296774789923107,
                0.7674643478747565,
                -2.743281032941412
            ]
        },
        {
            "positions": [
                0.5067241013386966,
                -1.8850248378152246,
                2.3424398874957513,
                -0.26209438661433193,
                0.7515031957819431,
                -2.8756245102123588
            ]
        },
        {
            "positions": [
                0.6068771990196528,
                -1.8967771692619924,
                2.3673454684216706,
                -0.3612210253294328,
                0.7355420436891298,
                -3.007967987483306
            ]
        },
        {
            "positions": [
                0.7070302967006087,
                -1.90852950070876,
                2.3922510493475895,
                -0.46034766404453337,
                0.7195808915963166,
                -3.140311464754253
            ]
        }
    ]
}