{
    "goal": {
        "global_pose": {
            "orientation": {
                "w": 0.5084816217422485,
                "x": -0.49083608388900757,
                "y": 0.5182115435600281,
                "z": -0.4816462993621826
            },
            "position": {
                "x": 0.5540239810943604,
                "y": 0.030875300988554955,
                "z": 0.16403168439865112
            }
        },
        "name": "move_to_storage_A"
    },
    "id": "ProjEST_move_to_storage_A_107",
    "joint_names": [
        "shoulder_pan_joint",
        "shoulder_lift_joint",
        "elbow_joint",
        "wrist_1_joint",
        "wrist_2_joint",
        "wrist_3_joint"
    ],
    "metrics": {
        "cart_traj_len": 0.35284868528700764,
        "distance_elbow_joint": 0.45110609799334345,
        "distance_shoulder_lift_joint": 0.234654661489887,
        "distance_shoulder_pan_joint": 0.4624259569276606,
        "distance_wrist_1_joint": 0.24170260172048408,
        "distance_wrist_2_joint": 1.0947425543471683,
        "distance_wrist_3_joint": 0.10365587386107178,
        "smoothness": 6.661338165333112e-16,
        "time": 0.014672502,
        "traj_len": 1.608815634664089,
        "weighted_distance": 2.032743134321061
    },
    "planner": "ProjEST",
    "start": {
        "state": {
            "elbow_joint": 1.9715463870305268,
            "shoulder_lift_joint": -1.1394903361783484,
            "shoulder_pan_joint": 0.12281147578464417,
            "wrist_1_joint": -0.7804599489681411,
            "wrist_2_joint": 0.12958660307563738,
            "wrist_3_joint": -3.1924946282119055
        }
    },
    "waypoints": [
        {
            "positions": [
                0.12281147578464417,
                -1.1394903361783484,
                1.9715463870305268,
                -0.7804599489681411,
                0.12958660307563738,
                -3.1924946282119055
            ]
        },
        {
            "positions": [
                0.056750624794978374,
                -1.1730124306769036,
                2.03599011531529,
                -0.8149888920710674,
                0.2859783965538043,
                -3.1776866462317526
            ]
        },
        {
            "positions": [
                -0.009310226194687424,
                -1.206534525175459,
                2.1004338436000536,
                -0.8495178351739937,
                0.4423701900319712,
                -3.162878664251599
            ]
        },
        {
            "positions": [
                -0.07537107718435322,
                -1.2400566196740141,
                2.164877571884817,
                -0.8840467782769199,
                0.5987619835101381,
                -3.148070682271446
            ]
        },
        {
            "positions": [
                -0.141431928174019,
                -1.2735787141725696,
                2.22932130016958,
                -0.9185757213798462,
                0.755153776988305,
                -3.133262700291293
            ]
        },
        {
            "positions": [
                -0.2074927791636848,
                -1.3071008086711249,
                2.2937650284543434,
                -0.9531046644827725,
                0.9115455704664719,
                -3.11845471831114
            ]
        },
        {
            "positions": [
                -0.2735536301533506,
                -1.3406229031696801,
                2.358208756739107,
                -0.9876336075856988,
                1.0679373639446388,
                -3.1036467363309868
            ]
        },
        {
            "positions": [
                -0.3396144811430164,
                -1.3741449976682354,
                2.42265248502387,
                -1.0221625506886252,
                1.2243291574228057,
                -3.0888387543508338
            ]
        }
    ]
}