{
    "goal": {
        "global_pose": {
            "orientation": {
                "w": 0.7031023502349854,
                "x": -0.7110244035720825,
                "y": 0.007748599164187908,
                "z": 0.005598929710686207
            },
            "position": {
                "x": 0.11585023208521307,
                "y": 0.44412534475326537,
                "z": 0.3711530566215515
            }
        },
        "name": "move_to_auspresseinheit_A"
    },
    "id": "ProjEST_move_to_auspresseinheit_A_92",
    "joint_names": [
        "shoulder_pan_joint",
        "shoulder_lift_joint",
        "elbow_joint",
        "wrist_1_joint",
        "wrist_2_joint",
        "wrist_3_joint"
    ],
    "metrics": {
        "cart_traj_len": 1.95951441017016,
        "distance_elbow_joint": 0.49467772478611804,
        "distance_shoulder_lift_joint": 2.1124908771745066,
        "distance_shoulder_pan_joint": 1.5805309569104335,
        "distance_wrist_1_joint": 5.3145525681956745,
        "distance_wrist_2_joint": 1.3341900653059235,
        "distance_wrist_3_joint": 0.19312344734898446,
        "smoothness": 1.040438134594188,
        "time": 0.046925698,
        "traj_len": 3.321078987275316,
        "weighted_distance": 4.250241777584096
    },
    "planner": "ProjEST",
    "start": {
        "state": {
            "elbow_joint": 2.422574709923281,
            "shoulder_lift_joint": -1.3736533754116391,
            "shoulder_pan_joint": -0.33786336945926293,
            "wrist_1_joint": -1.0288603412921917,
            "wrist_2_joint": 1.2330224858903978,
            "wrist_3_joint": -3.094022268022082
        }
    },
    "waypoints": [
        {
            "positions": [
                -0.33786336945926293,
                -1.3736533754116391,
                2.422574709923281,
                -1.0288603412921917,
                1.2330224858903978,
                -3.094022268022082
            ]
        },
        {
            "positions": [
                -0.26498221769159463,
                -1.4471530918841904,
                2.4079997970689555,
                -0.865722117845654,
                1.1811227561063962,
                -3.0898072512215116
            ]
        },
        {
            "positions": [
                -0.19210106592392637,
                -1.5206528083567414,
                2.3934248842146295,
                -0.7025838943991163,
                1.1292230263223946,
                -3.0855922344209414
            ]
        },
        {
            "positions": [
                -0.1192199141562581,
                -1.5941525248292927,
                2.378849971360304,
                -0.5394456709525784,
                1.077323296538393,
                -3.081377217620371
            ]
        },
        {
            "positions": [
                -0.046338762388589805,
                -1.6676522413018438,
                2.3642750585059784,
                -0.3763074475060407,
                1.0254235667543914,
                -3.0771622008198007
            ]
        },
        {
            "positions": [
                0.02654238937907849,
                -1.7411519577743952,
                2.3497001456516524,
                -0.21316922405950278,
                0.9735238369703899,
                -3.07294718401923
            ]
        },
        {
            "positions": [
                0.09942354114674673,
                -1.8146516742469463,
                2.335125232797327,
                -0.05003100061296517,
                0.9216241071863884,
                -3.0687321672186596
            ]
        },
        {
            "positions": [
                0.17230469291441503,
                -1.8881513907194973,
                2.3205503199430013,
                0.11310722283357277,
                0.8697243774023868,
                -3.0645171504180895
            ]
        },
        {
            "positions": [
                0.24518584468208332,
                -1.9616511071920486,
                2.3059754070886753,
                0.2762454462801103,
                0.8178246476183852,
                -3.060302133617519
            ]
        },
        {
            "positions": [
                0.3180669964497516,
                -2.0351508236646,
                2.2914004942343498,
                0.4393836697266482,
                0.7659249178343837,
                -3.056087116816949
            ]
        },
        {
            "positions": [
                0.3909481482174199,
                -2.108650540137151,
                2.276825581380024,
                0.6025218931731862,
                0.7140251880503821,
                -3.051872100016378
            ]
        },
        {
            "positions": [
                0.4638292999850882,
                -2.1821502566097024,
                2.2622506685256982,
                0.7656601166197239,
                0.6621254582663805,
                -3.0476570832158076
            ]
        },
        {
            "positions": [
                0.5367104517527563,
                -2.2556499730822535,
                2.2476757556713727,
                0.9287983400662614,
                0.610225728482379,
                -3.0434420664152375
            ]
        },
        {
            "positions": [
                0.6095916035204247,
                -2.3291496895548045,
                2.233100842817047,
                1.091936563512799,
                0.5583259986983774,
                -3.039227049614667
            ]
        },
        {
            "positions": [
                0.6824727552880929,
                -2.402649406027356,
                2.218525929962721,
                1.2550747869593373,
                0.5064262689143758,
                -3.0350120328140964
            ]
        },
        {
            "positions": [
                0.7553539070557613,
                -2.476149122499907,
                2.2039510171083956,
                1.418213010405875,
                0.4545265391303742,
                -3.0307970160135262
            ]
        },
        {
            "positions": [
                0.8282350588234295,
                -2.549648838972458,
                2.18937610425407,
                1.5813512338524123,
                0.40262680934637274,
                -3.0265819992129557
            ]
        },
        {
            "positions": [
                0.9011162105910977,
                -2.6231485554450096,
                2.174801191399744,
                1.7444894572989504,
                0.35072707956237115,
                -3.0223669824123855
            ]
        },
        {
            "positions": [
                0.9739973623587661,
                -2.6966482719175606,
                2.1602262785454185,
                1.9076276807454884,
                0.29882734977836956,
                -3.018151965611815
            ]
        },
        {
            "positions": [
                0.9495727964412748,
                -2.6248759100385985,
                2.1813471234007142,
                1.6914399947311254,
                0.33519052515963277,
                -3.028811342424426
            ]
        },
        {
            "positions": [
                0.9251482305237834,
                -2.553103548159636,
                2.2024679682560104,
                1.4752523087167622,
                0.371553700540896,
                -3.0394707192370363
            ]
        },
        {
            "positions": [
                0.900723664606292,
                -2.481331186280674,
                2.223588813111306,
                1.2590646227023992,
                0.40791687592215914,
                -3.050130096049647
            ]
        },
        {
            "positions": [
                0.8762990986888006,
                -2.4095588244017114,
                2.2447096579666024,
                1.042876936688036,
                0.4442800513034224,
                -3.0607894728622576
            ]
        },
        {
            "positions": [
                0.8518745327713093,
                -2.3377864625227494,
                2.265830502821898,
                0.8266892506736729,
                0.48064322668468556,
                -3.0714488496748684
            ]
        },
        {
            "positions": [
                0.8274499668538179,
                -2.2660141006437873,
                2.2869513476771943,
                0.6105015646593099,
                0.5170064020659487,
                -3.082108226487479
            ]
        },
        {
            "positions": [
                0.8030254009363266,
                -2.1942417387648248,
                2.30807219253249,
                0.3943138786449467,
                0.553369577447212,
                -3.0927676033000897
            ]
        },
        {
            "positions": [
                0.7786008350188351,
                -2.1224693768858627,
                2.3291930373877863,
                0.1781261926305835,
                0.5897327528284753,
                -3.1034269801127
            ]
        },
        {
            "positions": [
                0.7541762691013438,
                -2.0506970150069,
                2.350313882243082,
                -0.03806149338377973,
                0.6260959282097385,
                -3.114086356925311
            ]
        },
        {
            "positions": [
                0.7297517031838525,
                -1.978924653127938,
                2.3714347270983778,
                -0.2542491793981425,
                0.6624591035910016,
                -3.1247457337379214
            ]
        },
        {
            "positions": [
                0.7053271372663611,
                -1.9071522912489758,
                2.392555571953674,
                -0.4704368654125058,
                0.6988222789722648,
                -3.1354051105505323
            ]
        }
    ]
}