{
    "goal": {
        "global_pose": {
            "orientation": {
                "w": 0.7047431468963623,
                "x": -0.7094548344612122,
                "y": 0.0024358443915843964,
                "z": -0.0022348060738295317
            },
            "position": {
                "x": 0.6094750761985779,
                "y": 0.3671506643295288,
                "z": 0.19426114857196808
            }
        },
        "name": "move_to_magneteinheit_A"
    },
    "id": "ProjEST_move_to_magneteinheit_A_114",
    "joint_names": [
        "shoulder_pan_joint",
        "shoulder_lift_joint",
        "elbow_joint",
        "wrist_1_joint",
        "wrist_2_joint",
        "wrist_3_joint"
    ],
    "metrics": {
        "cart_traj_len": 2.5265179289682416,
        "distance_elbow_joint": 3.9090011051513684,
        "distance_shoulder_lift_joint": 1.0720080902688596,
        "distance_shoulder_pan_joint": 2.031594695848086,
        "distance_wrist_1_joint": 1.2843556940417855,
        "distance_wrist_2_joint": 1.4343120911514395,
        "distance_wrist_3_joint": 4.245900449331162,
        "smoothness": 0.11652157415222596,
        "time": 0.097526053,
        "traj_len": 3.7386056392447578,
        "weighted_distance": 5.018729003407961
    },
    "planner": "ProjEST",
    "start": {
        "state": {
            "elbow_joint": -1.919643507792019,
            "shoulder_lift_joint": -0.07675430207160344,
            "shoulder_pan_joint": -1.1188671864651873,
            "wrist_1_joint": 0.42560062535961957,
            "wrist_2_joint": 1.5706038300724876,
            "wrist_3_joint": 1.1188968870953055
        }
    },
    "waypoints": [
        {
            "positions": [
                -1.1188671864651873,
                -0.07675430207160344,
                -1.919643507792019,
                0.42560062535961957,
                1.5706038300724876,
                1.1188968870953055
            ]
        },
        {
            "positions": [
                -1.16827520471888,
                -0.11360160998018612,
                -1.8727142120632596,
                0.29840625687030514,
                1.4949297132863568,
                1.1081060711775481
            ]
        },
        {
            "positions": [
                -1.2176832229725727,
                -0.1504489178887688,
                -1.8257849163345004,
                0.17121188838099072,
                1.4192555965002258,
                1.0973152552597907
            ]
        },
        {
            "positions": [
                -1.2670912412262654,
                -0.1872962257973515,
                -1.7788556206057409,
                0.04401751989167629,
                1.343581479714095,
                1.0865244393420335
            ]
        },
        {
            "positions": [
                -1.3164992594799578,
                -0.22414353370593418,
                -1.7319263248769814,
                -0.08317684859763813,
                1.2679073629279642,
                1.075733623424276
            ]
        },
        {
            "positions": [
                -1.3659072777336505,
                -0.26099084161451686,
                -1.684997029148222,
                -0.21037121708695256,
                1.1922332461418332,
                1.0649428075065186
            ]
        },
        {
            "positions": [
                -1.4153152959873432,
                -0.29783814952309956,
                -1.6380677334194624,
                -0.337565585576267,
                1.1165591293557025,
                1.0541519915887614
            ]
        },
        {
            "positions": [
                -1.4647233142410359,
                -0.3346854574316822,
                -1.5911384376907032,
                -0.4647599540655814,
                1.0408850125695714,
                1.043361175671004
            ]
        },
        {
            "positions": [
                -1.5141313324947285,
                -0.3715327653402649,
                -1.5442091419619437,
                -0.5919543225548959,
                0.9652108957834407,
                1.0325703597532465
            ]
        },
        {
            "positions": [
                -1.4577061411216752,
                -0.3983337869609614,
                -1.4223620130198302,
                -0.6011543482834224,
                0.9366274765812892,
                0.8891367762363809
            ]
        },
        {
            "positions": [
                -1.401280949748622,
                -0.42513480858165786,
                -1.3005148840777165,
                -0.610354374011949,
                0.9080440573791377,
                0.7457031927195152
            ]
        },
        {
            "positions": [
                -1.3448557583755687,
                -0.4519358302023544,
                -1.178667755135603,
                -0.6195543997404755,
                0.8794606381769862,
                0.6022696092026496
            ]
        },
        {
            "positions": [
                -1.2884305670025156,
                -0.47873685182305087,
                -1.0568206261934894,
                -0.6287544254690022,
                0.8508772189748347,
                0.4588360256857841
            ]
        },
        {
            "positions": [
                -1.2320053756294622,
                -0.5055378734437473,
                -0.9349734972513758,
                -0.6379544511975287,
                0.8222937997726832,
                0.31540244216891844
            ]
        },
        {
            "positions": [
                -1.1755801842564089,
                -0.5323388950644439,
                -0.8131263683092623,
                -0.6471544769260553,
                0.7937103805705318,
                0.1719688586520528
            ]
        },
        {
            "positions": [
                -1.1191549928833557,
                -0.5591399166851403,
                -0.6912792393671486,
                -0.6563545026545818,
                0.7651269613683802,
                0.028535275135187277
            ]
        },
        {
            "positions": [
                -1.0627298015103024,
                -0.5859409383058368,
                -0.5694321104250352,
                -0.6655545283831084,
                0.7365435421662287,
                -0.11489830838167836
            ]
        },
        {
            "positions": [
                -1.0063046101372493,
                -0.6127419599265334,
                -0.4475849814829216,
                -0.674754554111635,
                0.7079601229640773,
                -0.258331891898544
            ]
        },
        {
            "positions": [
                -0.9498794187641959,
                -0.6395429815472298,
                -0.3257378525408079,
                -0.6839545798401615,
                0.6793767037619258,
                -0.40176547541540963
            ]
        },
        {
            "positions": [
                -0.8934542273911427,
                -0.6663440031679262,
                -0.20389072359869442,
                -0.6931546055686881,
                0.6507932845597744,
                -0.5451990589322753
            ]
        },
        {
            "positions": [
                -0.8370290360180894,
                -0.6931450247886228,
                -0.08204359465658095,
                -0.7023546312972146,
                0.6222098653576229,
                -0.6886326424491409
            ]
        },
        {
            "positions": [
                -0.7806038446450362,
                -0.7199460464093193,
                0.03980353428553274,
                -0.7115546570257412,
                0.5936264461554714,
                -0.8320662259660065
            ]
        },
        {
            "positions": [
                -0.7241786532719828,
                -0.7467470680300158,
                0.16165066322764643,
                -0.7207546827542678,
                0.5650430269533199,
                -0.975499809482872
            ]
        },
        {
            "positions": [
                -0.6677534618989296,
                -0.7735480896507123,
                0.2834977921697599,
                -0.7299547084827943,
                0.5364596077511683,
                -1.1189333929997378
            ]
        },
        {
            "positions": [
                -0.6113282705258763,
                -0.8003491112714087,
                0.40534492111187337,
                -0.7391547342113209,
                0.5078761885490168,
                -1.2623669765166032
            ]
        },
        {
            "positions": [
                -0.5549030791528232,
                -0.8271501328921051,
                0.5271920500539868,
                -0.7483547599398475,
                0.4792927693468655,
                -1.4058005600334686
            ]
        },
        {
            "positions": [
                -0.49847788777976976,
                -0.8539511545128018,
                0.6490391789961005,
                -0.757554785668374,
                0.4507093501447139,
                -1.5492341435503345
            ]
        },
        {
            "positions": [
                -0.4420526964067166,
                -0.8807521761334982,
                0.7708863079382142,
                -0.7667548113969006,
                0.42212593094256246,
                -1.6926677270672
            ]
        },
        {
            "positions": [
                -0.3856275050336633,
                -0.9075531977541947,
                0.8927334368803279,
                -0.7759548371254272,
                0.393542511740411,
                -1.8361013105840658
            ]
        },
        {
            "positions": [
                -0.32920231366061015,
                -0.9343542193748912,
                1.0145805658224412,
                -0.7851548628539537,
                0.36495909253825953,
                -1.9795348941009312
            ]
        },
        {
            "positions": [
                -0.2727771222875568,
                -0.9611552409955876,
                1.1364276947645549,
                -0.7943548885824803,
                0.33637567333610807,
                -2.122968477617797
            ]
        },
        {
            "positions": [
                -0.21635193091450344,
                -0.9879562626162841,
                1.2582748237066685,
                -0.8035549143110068,
                0.3077922541339565,
                -2.266402061134663
            ]
        },
        {
            "positions": [
                -0.1599267395414503,
                -1.0147572842369805,
                1.3801219526487818,
                -0.8127549400395334,
                0.27920883493180504,
                -2.4098356446515283
            ]
        },
        {
            "positions": [
                -0.10350154816839718,
                -1.0415583058576772,
                1.5019690815908955,
                -0.8219549657680599,
                0.2506254157296536,
                -2.5532692281683937
            ]
        },
        {
            "positions": [
                -0.04707635679534383,
                -1.0683593274783736,
                1.6238162105330092,
                -0.8311549914965866,
                0.22204199652750212,
                -2.6967028116852596
            ]
        },
        {
            "positions": [
                0.00934883457770952,
                -1.09516034909907,
                1.7456633394751224,
                -0.8403550172251131,
                0.19345857732535066,
                -2.840136395202125
            ]
        },
        {
            "positions": [
                0.06577402595076287,
                -1.1219613707197666,
                1.8675104684172366,
                -0.8495550429536396,
                0.16487515812319908,
                -2.9835699787189904
            ]
        },
        {
            "positions": [
                0.12219921732381589,
                -1.148762392340463,
                1.9893575973593496,
                -0.8587550686821662,
                0.13629173892104757,
                -3.1270035622358563
            ]
        }
    ]
}