{
    "goal": {
        "global_pose": {
            "orientation": {
                "w": 0.7031023502349854,
                "x": -0.7110244035720825,
                "y": 0.007748599164187908,
                "z": 0.005598929710686207
            },
            "position": {
                "x": 0.11585023208521307,
                "y": 0.44412534475326537,
                "z": 0.3711530566215515
            }
        },
        "name": "move_to_auspresseinheit_A"
    },
    "id": "ProjEST_move_to_auspresseinheit_A_108",
    "joint_names": [
        "shoulder_pan_joint",
        "shoulder_lift_joint",
        "elbow_joint",
        "wrist_1_joint",
        "wrist_2_joint",
        "wrist_3_joint"
    ],
    "metrics": {
        "cart_traj_len": 2.6310560502490286,
        "distance_elbow_joint": 0.7875655666352239,
        "distance_shoulder_lift_joint": 1.4237933626823602,
        "distance_shoulder_pan_joint": 6.404234963159128,
        "distance_wrist_1_joint": 5.065637993670773,
        "distance_wrist_2_joint": 4.143459464625506,
        "distance_wrist_3_joint": 7.804937213428699,
        "smoothness": 0.5247843681868499,
        "time": 0.25229965,
        "traj_len": 5.062571339171598,
        "weighted_distance": 7.102717821324132
    },
    "planner": "ProjEST",
    "start": {
        "state": {
            "elbow_joint": 2.422574709923281,
            "shoulder_lift_joint": -1.3736533754116391,
            "shoulder_pan_joint": -0.33786336945926293,
            "wrist_1_joint": -1.0288603412921917,
            "wrist_2_joint": 1.2330224858903978,
            "wrist_3_joint": -3.094022268022082
        }
    },
    "waypoints": [
        {
            "positions": [
                -0.33786336945926293,
                -1.3736533754116391,
                2.422574709923281,
                -1.0288603412921917,
                1.2330224858903978,
                -3.094022268022082
            ]
        },
        {
            "positions": [
                -0.4243802532265375,
                -1.4051970198863977,
                2.4347694974784093,
                -1.1012949158814134,
                1.2911977784277495,
                -2.9690123068147303
            ]
        },
        {
            "positions": [
                -0.510897136993812,
                -1.4367406643611562,
                2.4469642850335376,
                -1.173729490470635,
                1.3493730709651013,
                -2.8440023456073784
            ]
        },
        {
            "positions": [
                -0.5974140207610865,
                -1.4682843088359148,
                2.459159072588666,
                -1.2461640650598567,
                1.4075483635024528,
                -2.7189923844000266
            ]
        },
        {
            "positions": [
                -0.6839309045283611,
                -1.4998279533106733,
                2.471353860143794,
                -1.3185986396490783,
                1.4657236560398046,
                -2.5939824231926747
            ]
        },
        {
            "positions": [
                -0.7704477882956358,
                -1.5313715977854319,
                2.4835486476989224,
                -1.3910332142383,
                1.5238989485771564,
                -2.468972461985323
            ]
        },
        {
            "positions": [
                -0.8569646720629103,
                -1.5629152422601904,
                2.4957434352540506,
                -1.4634677888275216,
                1.5820742411145081,
                -2.343962500777971
            ]
        },
        {
            "positions": [
                -0.9434815558301848,
                -1.594458886734949,
                2.507938222809179,
                -1.5359023634167432,
                1.6402495336518599,
                -2.218952539570619
            ]
        },
        {
            "positions": [
                -1.0299984395974593,
                -1.6260025312097075,
                2.520133010364307,
                -1.6083369380059649,
                1.6984248261892116,
                -2.0939425783632677
            ]
        },
        {
            "positions": [
                -1.116515323364734,
                -1.657546175684466,
                2.5323277979194354,
                -1.6807715125951868,
                1.7566001187265634,
                -1.9689326171559154
            ]
        },
        {
            "positions": [
                -1.2030322071320085,
                -1.6890898201592246,
                2.5445225854745637,
                -1.7532060871844082,
                1.814775411263915,
                -1.8439226559485637
            ]
        },
        {
            "positions": [
                -1.289549090899283,
                -1.7206334646339831,
                2.556717373029692,
                -1.82564066177363,
                1.872950703801267,
                -1.7189126947412117
            ]
        },
        {
            "positions": [
                -1.3760659746665576,
                -1.7521771091087417,
                2.56891216058482,
                -1.8980752363628515,
                1.9311259963386185,
                -1.59390273353386
            ]
        },
        {
            "positions": [
                -1.4625828584338323,
                -1.7837207535835002,
                2.5811069481399485,
                -1.9705098109520733,
                1.9893012888759702,
                -1.4688927723265082
            ]
        },
        {
            "positions": [
                -1.5490997422011068,
                -1.8152643980582588,
                2.5933017356950767,
                -2.0429443855412948,
                2.047476581413322,
                -1.3438828111191563
            ]
        },
        {
            "positions": [
                -1.6356166259683813,
                -1.8468080425330173,
                2.6054965232502045,
                -2.1153789601305166,
                2.1056518739506735,
                -1.2188728499118044
            ]
        },
        {
            "positions": [
                -1.7221335097356558,
                -1.8783516870077759,
                2.6176913108053332,
                -2.187813534719738,
                2.1638271664880255,
                -1.0938628887044528
            ]
        },
        {
            "positions": [
                -1.8086503935029303,
                -1.9098953314825344,
                2.629886098360461,
                -2.26024810930896,
                2.222002459025377,
                -0.968852927497101
            ]
        },
        {
            "positions": [
                -1.895167277270205,
                -1.941438975957293,
                2.6420808859155893,
                -2.332682683898182,
                2.2801777515627286,
                -0.8438429662897486
            ]
        },
        {
            "positions": [
                -1.9816841610374796,
                -1.9729826204320515,
                2.6542756734707176,
                -2.405117258487403,
                2.3383530441000806,
                -0.7188330050823972
            ]
        },
        {
            "positions": [
                -2.068201044804754,
                -2.00452626490681,
                2.666470461025846,
                -2.4775518330766246,
                2.3965283366374326,
                -0.5938230438750454
            ]
        },
        {
            "positions": [
                -2.1547179285720284,
                -2.0360699093815686,
                2.678665248580974,
                -2.5499864076658465,
                2.4547036291747837,
                -0.4688130826676935
            ]
        },
        {
            "positions": [
                -2.2412348123393033,
                -2.067613553856327,
                2.6908600361361024,
                -2.6224209822550684,
                2.5128789217121357,
                -0.3438031214603412
            ]
        },
        {
            "positions": [
                -2.327751696106578,
                -2.0991571983310857,
                2.7030548236912306,
                -2.69485555684429,
                2.5710542142494877,
                -0.21879316025298978
            ]
        },
        {
            "positions": [
                -2.414268579873852,
                -2.1307008428058443,
                2.715249611246359,
                -2.767290131433511,
                2.629229506786839,
                -0.09378319904563792
            ]
        },
        {
            "positions": [
                -2.5007854636411264,
                -2.162244487280603,
                2.727444398801487,
                -2.839724706022733,
                2.6874047993241907,
                0.03122676216171394
            ]
        },
        {
            "positions": [
                -2.5873023474084014,
                -2.1937881317553614,
                2.7396391863566154,
                -2.912159280611955,
                2.7455800918615427,
                0.1562367233690658
            ]
        },
        {
            "positions": [
                -2.673819231175676,
                -2.22533177623012,
                2.7518339739117437,
                -2.9845938552011764,
                2.8037553843988947,
                0.28124668457641766
            ]
        },
        {
            "positions": [
                -2.7603361149429504,
                -2.2568754207048785,
                2.764028761466872,
                -3.057028429790398,
                2.861930676936246,
                0.4062566457837695
            ]
        },
        {
            "positions": [
                -2.8468529987102245,
                -2.288419065179637,
                2.776223549022,
                -3.1294630043796197,
                2.920105969473598,
                0.5312666069911214
            ]
        },
        {
            "positions": [
                -2.9333698824774994,
                -2.3199627096543955,
                2.7884183365771285,
                -3.2018975789688415,
                2.97828126201095,
                0.6562765681984732
            ]
        },
        {
            "positions": [
                -3.019886766244774,
                -2.351506354129154,
                2.8006131241322567,
                -3.274332153558063,
                3.0364565545483013,
                0.7812865294058251
            ]
        },
        {
            "positions": [
                -2.913537864348385,
                -2.3387652003015873,
                2.7889123483486498,
                -3.1937559769464943,
                2.969598686092084,
                0.6690114318058022
            ]
        },
        {
            "positions": [
                -2.8071889624519963,
                -2.32602404647402,
                2.7772115725650424,
                -3.1131798003349256,
                2.902740817635867,
                0.5567363342057794
            ]
        },
        {
            "positions": [
                -2.700840060555607,
                -2.3132828926464533,
                2.7655107967814354,
                -3.0326036237233573,
                2.83588294917965,
                0.4444612366057564
            ]
        },
        {
            "positions": [
                -2.5944911586592183,
                -2.300541738818886,
                2.7538100209978285,
                -2.9520274471117887,
                2.7690250807234325,
                0.33218613900573357
            ]
        },
        {
            "positions": [
                -2.4881422567628295,
                -2.287800584991319,
                2.742109245214221,
                -2.87145127050022,
                2.7021672122672156,
                0.21991104140571072
            ]
        },
        {
            "positions": [
                -2.3817933548664407,
                -2.275059431163752,
                2.730408469430614,
                -2.7908750938886513,
                2.6353093438109982,
                0.10763594380568775
            ]
        },
        {
            "positions": [
                -2.275444452970052,
                -2.262318277336185,
                2.718707693647007,
                -2.7102989172770826,
                2.568451475354781,
                -0.004639153794335105
            ]
        },
        {
            "positions": [
                -2.169095551073663,
                -2.249577123508618,
                2.7070069178634,
                -2.6297227406655144,
                2.501593606898564,
                -0.11691425139435796
            ]
        },
        {
            "positions": [
                -2.0627466491772743,
                -2.236835969681051,
                2.695306142079793,
                -2.5491465640539457,
                2.4347357384423467,
                -0.22918934899438081
            ]
        },
        {
            "positions": [
                -1.9563977472808853,
                -2.224094815853484,
                2.683605366296186,
                -2.468570387442377,
                2.3678778699861294,
                -0.34146444659440367
            ]
        },
        {
            "positions": [
                -1.8500488453844963,
                -2.211353662025917,
                2.671904590512579,
                -2.3879942108308083,
                2.3010200015299125,
                -0.4537395441944265
            ]
        },
        {
            "positions": [
                -1.7436999434881075,
                -2.19861250819835,
                2.6602038147289715,
                -2.30741803421924,
                2.234162133073695,
                -0.5660146417944496
            ]
        },
        {
            "positions": [
                -1.6373510415917185,
                -2.185871354370783,
                2.6485030389453645,
                -2.2268418576076714,
                2.167304264617478,
                -0.6782897393944725
            ]
        },
        {
            "positions": [
                -1.5310021396953297,
                -2.173130200543216,
                2.6368022631617576,
                -2.1462656809961027,
                2.1004463961612605,
                -0.7905648369944953
            ]
        },
        {
            "positions": [
                -1.424653237798941,
                -2.160389046715649,
                2.62510148737815,
                -2.065689504384534,
                2.0335885277050436,
                -0.9028399345945182
            ]
        },
        {
            "positions": [
                -1.3183043359025521,
                -2.1476478928880818,
                2.6134007115945432,
                -1.9851133277729656,
                1.9667306592488263,
                -1.015115032194541
            ]
        },
        {
            "positions": [
                -1.2119554340061631,
                -2.134906739060515,
                2.6016999358109363,
                -1.9045371511613969,
                1.8998727907926092,
                -1.1273901297945639
            ]
        },
        {
            "positions": [
                -1.1056065321097746,
                -2.122165585232948,
                2.589999160027329,
                -1.8239609745498284,
                1.833014922336392,
                -1.2396652273945867
            ]
        },
        {
            "positions": [
                -0.9992576302133855,
                -2.109424431405381,
                2.578298384243722,
                -1.7433847979382597,
                1.7661570538801747,
                -1.3519403249946094
            ]
        },
        {
            "positions": [
                -0.8929087283169967,
                -2.096683277577814,
                2.566597608460115,
                -1.662808621326691,
                1.6992991854239576,
                -1.4642154225946324
            ]
        },
        {
            "positions": [
                -0.786559826420608,
                -2.083942123750247,
                2.5548968326765076,
                -1.5822324447151226,
                1.6324413169677403,
                -1.5764905201946555
            ]
        },
        {
            "positions": [
                -0.6802109245242187,
                -2.07120096992268,
                2.5431960568929006,
                -1.501656268103554,
                1.5655834485115232,
                -1.6887656177946782
            ]
        },
        {
            "positions": [
                -0.5738620226278299,
                -2.058459816095113,
                2.5314952811092937,
                -1.4210800914919852,
                1.4987255800553059,
                -1.8010407153947012
            ]
        },
        {
            "positions": [
                -0.46751312073144113,
                -2.045718662267546,
                2.5197945053256863,
                -1.3405039148804168,
                1.4318677115990888,
                -1.9133158129947243
            ]
        },
        {
            "positions": [
                -0.36116421883505234,
                -2.032977508439979,
                2.5080937295420793,
                -1.259927738268848,
                1.3650098431428717,
                -2.025590910594747
            ]
        },
        {
            "positions": [
                -0.2548153169386631,
                -2.020236354612412,
                2.4963929537584724,
                -1.1793515616572794,
                1.2981519746866543,
                -2.13786600819477
            ]
        },
        {
            "positions": [
                -0.1484664150422743,
                -2.007495200784845,
                2.484692177974865,
                -1.0987753850457107,
                1.2312941062304372,
                -2.250141105794793
            ]
        },
        {
            "positions": [
                -0.04211751314588552,
                -1.994754046957278,
                2.472991402191258,
                -1.018199208434142,
                1.16443623777422,
                -2.3624162033948157
            ]
        },
        {
            "positions": [
                0.06423138875050327,
                -1.9820128931297107,
                2.461290626407651,
                -0.9376230318225733,
                1.0975783693180028,
                -2.474691300994839
            ]
        },
        {
            "positions": [
                0.17058029064689206,
                -1.969271739302144,
                2.449589850624044,
                -0.8570468552110051,
                1.030720500861786,
                -2.5869663985948614
            ]
        },
        {
            "positions": [
                0.27692919254328086,
                -1.956530585474577,
                2.4378890748404367,
                -0.7764706785994364,
                0.9638626324055686,
                -2.699241496194884
            ]
        },
        {
            "positions": [
                0.38327809443966965,
                -1.94378943164701,
                2.4261882990568298,
                -0.6958945019878682,
                0.8970047639493512,
                -2.811516593794907
            ]
        },
        {
            "positions": [
                0.48962699633605844,
                -1.9310482778194429,
                2.414487523273223,
                -0.6153183253762995,
                0.8301468954931339,
                -2.9237916913949302
            ]
        },
        {
            "positions": [
                0.5959758982324477,
                -1.9183071239918759,
                2.4027867474896154,
                -0.5347421487647308,
                0.763289027036917,
                -3.036066788994953
            ]
        },
        {
            "positions": [
                0.7023248001288366,
                -1.9055659701643088,
                2.3910859717060085,
                -0.45416597215316223,
                0.6964311585806998,
                -3.148341886594976
            ]
        }
    ]
}