{
    "goal": {
        "global_pose": {
            "orientation": {
                "w": 0.5084816217422485,
                "x": -0.49083608388900757,
                "y": 0.5182115435600281,
                "z": -0.4816462993621826
            },
            "position": {
                "x": 0.5540239810943604,
                "y": 0.030875300988554955,
                "z": 0.16403168439865112
            }
        },
        "name": "move_to_storage_A"
    },
    "id": "ProjEST_move_to_storage_A_72",
    "joint_names": [
        "shoulder_pan_joint",
        "shoulder_lift_joint",
        "elbow_joint",
        "wrist_1_joint",
        "wrist_2_joint",
        "wrist_3_joint"
    ],
    "metrics": {
        "cart_traj_len": 0.3536272563471627,
        "distance_elbow_joint": 0.45153662887323476,
        "distance_shoulder_lift_joint": 0.23598079114593262,
        "distance_shoulder_pan_joint": 0.46462269174806803,
        "distance_wrist_1_joint": 0.24506474181992355,
        "distance_wrist_2_joint": 1.0914593673456776,
        "distance_wrist_3_joint": 0.10316310484982161,
        "smoothness": 4.440892098500626e-16,
        "time": 0.079433353,
        "traj_len": 1.6099153163389242,
        "weighted_distance": 2.033390676837066
    },
    "planner": "ProjEST",
    "start": {
        "state": {
            "elbow_joint": 1.9715463870305268,
            "shoulder_lift_joint": -1.1394903361783484,
            "shoulder_pan_joint": 0.12281147578464417,
            "wrist_1_joint": -0.7804599489681411,
            "wrist_2_joint": 0.12958660307563738,
            "wrist_3_joint": -3.1924946282119055
        }
    },
    "waypoints": [
        {
            "positions": [
                0.12281147578464417,
                -1.1394903361783484,
                1.9715463870305268,
                -0.7804599489681411,
                0.12958660307563738,
                -3.1924946282119055
            ]
        },
        {
            "positions": [
                0.05643680553492017,
                -1.1732018777706246,
                2.0360516197267033,
                -0.8154691977995587,
                0.28550936983930564,
                -3.1777570418047882
            ]
        },
        {
            "positions": [
                -0.009937864714803832,
                -1.2069134193629005,
                2.1005568524228795,
                -0.8504784466309764,
                0.44143213660297387,
                -3.163019455397671
            ]
        },
        {
            "positions": [
                -0.07631253496452782,
                -1.2406249609551767,
                2.165062085119056,
                -0.885487695462394,
                0.5973549033666421,
                -3.1482818689905536
            ]
        },
        {
            "positions": [
                -0.14268720521425182,
                -1.2743365025474527,
                2.229567317815232,
                -0.9204969442938117,
                0.7532776701303103,
                -3.133544282583436
            ]
        },
        {
            "positions": [
                -0.20906187546397587,
                -1.3080480441397289,
                2.294072550511409,
                -0.9555061931252293,
                0.9092004368939786,
                -3.1188066961763186
            ]
        },
        {
            "positions": [
                -0.2754365457136998,
                -1.3417595857320048,
                2.358577783207585,
                -0.990515441956647,
                1.0651232036576468,
                -3.1040691097692013
            ]
        },
        {
            "positions": [
                -0.34181121596342384,
                -1.375471127324281,
                2.4230830159037615,
                -1.0255246907880646,
                1.221045970421315,
                -3.089331523362084
            ]
        }
    ]
}