{
    "goal": {
        "global_pose": {
            "orientation": {
                "w": 0.5084816217422485,
                "x": -0.49083608388900757,
                "y": 0.5182115435600281,
                "z": -0.4816462993621826
            },
            "position": {
                "x": 0.5540239810943604,
                "y": 0.030875300988554955,
                "z": 0.16403168439865112
            }
        },
        "name": "move_to_storage_A"
    },
    "id": "ProjEST_move_to_storage_A_40",
    "joint_names": [
        "shoulder_pan_joint",
        "shoulder_lift_joint",
        "elbow_joint",
        "wrist_1_joint",
        "wrist_2_joint",
        "wrist_3_joint"
    ],
    "metrics": {
        "cart_traj_len": 0.35294163951828655,
        "distance_elbow_joint": 0.45171145584449146,
        "distance_shoulder_lift_joint": 0.2362680943982376,
        "distance_shoulder_pan_joint": 0.46197364346739805,
        "distance_wrist_1_joint": 0.24787798891098356,
        "distance_wrist_2_joint": 1.097648379856398,
        "distance_wrist_3_joint": 0.10645945842613269,
        "smoothness": 2.2204460668324854e-16,
        "time": 0.056853286999999995,
        "traj_len": 1.6130527024569414,
        "weighted_distance": 2.039702014148951
    },
    "planner": "ProjEST",
    "start": {
        "state": {
            "elbow_joint": 1.9715463870305268,
            "shoulder_lift_joint": -1.1394903361783484,
            "shoulder_pan_joint": 0.12281147578464417,
            "wrist_1_joint": -0.7804599489681411,
            "wrist_2_joint": 0.12958660307563738,
            "wrist_3_joint": -3.1924946282119055
        }
    },
    "waypoints": [
        {
            "positions": [
                0.12281147578464417,
                -1.1394903361783484,
                1.9715463870305268,
                -0.7804599489681411,
                0.12958660307563738,
                -3.1924946282119055
            ]
        },
        {
            "positions": [
                0.05681524100358731,
                -1.1732429210923823,
                2.036076595008311,
                -0.8158710902411387,
                0.2863935144836942,
                -3.1772861341510295
            ]
        },
        {
            "positions": [
                -0.009180993777469545,
                -1.2069955060064164,
                2.100606802986096,
                -0.8512822315141364,
                0.4432004258917511,
                -3.1620776400901534
            ]
        },
        {
            "positions": [
                -0.07517722855852642,
                -1.2407480909204502,
                2.16513701096388,
                -0.886693372787134,
                0.6000073372998079,
                -3.1468691460292773
            ]
        },
        {
            "positions": [
                -0.14117346333958325,
                -1.2745006758344841,
                2.229667218941665,
                -0.9221045140601317,
                0.7568142487078648,
                -3.131660651968401
            ]
        },
        {
            "positions": [
                -0.20716969812064012,
                -1.308253260748518,
                2.294197426919449,
                -0.9575156553331293,
                0.9136211601159218,
                -3.116452157907525
            ]
        },
        {
            "positions": [
                -0.273165932901697,
                -1.342005845662552,
                2.3587276348972335,
                -0.992926796606127,
                1.0704280715239785,
                -3.101243663846649
            ]
        },
        {
            "positions": [
                -0.33916216768275387,
                -1.375758430576586,
                2.423257842875018,
                -1.0283379378791246,
                1.2272349829320355,
                -3.086035169785773
            ]
        }
    ]
}