{
    "goal": {
        "global_pose": {
            "orientation": {
                "w": 0.5084816217422485,
                "x": -0.49083608388900757,
                "y": 0.5182115435600281,
                "z": -0.4816462993621826
            },
            "position": {
                "x": 0.5540239810943604,
                "y": 0.030875300988554955,
                "z": 0.16403168439865112
            }
        },
        "name": "move_to_storage_A"
    },
    "id": "ProjEST_move_to_storage_A_55",
    "joint_names": [
        "shoulder_pan_joint",
        "shoulder_lift_joint",
        "elbow_joint",
        "wrist_1_joint",
        "wrist_2_joint",
        "wrist_3_joint"
    ],
    "metrics": {
        "cart_traj_len": 0.35284347296503,
        "distance_elbow_joint": 0.45075828504011817,
        "distance_shoulder_lift_joint": 0.23253493092470334,
        "distance_shoulder_pan_joint": 0.45815185243721124,
        "distance_wrist_1_joint": 0.24741055315268035,
        "distance_wrist_2_joint": 1.111676134589655,
        "distance_wrist_3_joint": 0.10756211567518914,
        "smoothness": 8.881784197001252e-16,
        "time": 0.018018371999999998,
        "traj_len": 1.614959402529846,
        "weighted_distance": 2.045068407391858
    },
    "planner": "ProjEST",
    "start": {
        "state": {
            "elbow_joint": 1.9715463870305268,
            "shoulder_lift_joint": -1.1394903361783484,
            "shoulder_pan_joint": 0.12281147578464417,
            "wrist_1_joint": -0.7804599489681411,
            "wrist_2_joint": 0.12958660307563738,
            "wrist_3_joint": -3.1924946282119055
        }
    },
    "waypoints": [
        {
            "positions": [
                0.12281147578464417,
                -1.1394903361783484,
                1.9715463870305268,
                -0.7804599489681411,
                0.12958660307563738,
                -3.1924946282119055
            ]
        },
        {
            "positions": [
                0.05736121115075686,
                -1.1727096120247347,
                2.0359404277505435,
                -0.8158043137042382,
                0.28839747944558813,
                -3.1771286116868787
            ]
        },
        {
            "positions": [
                -0.008089053483130451,
                -1.2059288878711207,
                2.1003344684705607,
                -0.8511486784403355,
                0.44720835581553886,
                -3.1617625951618513
            ]
        },
        {
            "positions": [
                -0.07353931811701776,
                -1.239148163717507,
                2.1647285091905775,
                -0.8864930431764326,
                0.6060192321854896,
                -3.1463965786368244
            ]
        },
        {
            "positions": [
                -0.13898958275090506,
                -1.272367439563893,
                2.229122549910594,
                -0.9218374079125299,
                0.7648301085554403,
                -3.1310305621117975
            ]
        },
        {
            "positions": [
                -0.20443984738479243,
                -1.3055867154102794,
                2.2935165906306114,
                -0.957181772648627,
                0.923640984925391,
                -3.1156645455867706
            ]
        },
        {
            "positions": [
                -0.2698901120186797,
                -1.3388059912566654,
                2.357910631350628,
                -0.9925261373847243,
                1.0824518612953418,
                -3.1002985290617433
            ]
        },
        {
            "positions": [
                -0.33534037665256705,
                -1.3720252671030517,
                2.422304672070645,
                -1.0278705021208214,
                1.2412627376652925,
                -3.0849325125367164
            ]
        }
    ]
}