{
    "goal": {
        "global_pose": {
            "orientation": {
                "w": 0.7047431468963623,
                "x": -0.7094548344612122,
                "y": 0.0024358443915843964,
                "z": -0.0022348060738295317
            },
            "position": {
                "x": 0.6094750761985779,
                "y": 0.3671506643295288,
                "z": 0.19426114857196808
            }
        },
        "name": "move_to_magneteinheit_A"
    },
    "id": "ProjEST_move_to_magneteinheit_A_74",
    "joint_names": [
        "shoulder_pan_joint",
        "shoulder_lift_joint",
        "elbow_joint",
        "wrist_1_joint",
        "wrist_2_joint",
        "wrist_3_joint"
    ],
    "metrics": {
        "cart_traj_len": 1.8785712471484122,
        "distance_elbow_joint": 3.913885356579578,
        "distance_shoulder_lift_joint": 0.7012526380368214,
        "distance_shoulder_pan_joint": 1.2410796519217848,
        "distance_wrist_1_joint": 1.4892538754222207,
        "distance_wrist_2_joint": 1.7041718301549056,
        "distance_wrist_3_joint": 1.1092701184278981,
        "smoothness": 5.921189493705662e-16,
        "time": 0.112245285,
        "traj_len": 3.187305048241101,
        "weighted_distance": 3.945995364033786
    },
    "planner": "ProjEST",
    "start": {
        "state": {
            "elbow_joint": -1.919643507792019,
            "shoulder_lift_joint": -0.07675430207160344,
            "shoulder_pan_joint": -1.1188671864651873,
            "wrist_1_joint": 0.42560062535961957,
            "wrist_2_joint": 1.5706038300724876,
            "wrist_3_joint": 1.1188968870953055
        }
    },
    "waypoints": [
        {
            "positions": [
                -1.1188671864651873,
                -0.07675430207160344,
                -1.919643507792019,
                0.42560062535961957,
                1.5706038300724876,
                1.1188968870953055
            ]
        },
        {
            "positions": [
                -1.071133353698965,
                -0.10372555738071196,
                -1.7691094556158815,
                0.4828796205681665,
                1.5050587596819143,
                1.0762326517711556
            ]
        },
        {
            "positions": [
                -1.0233995209327424,
                -0.13069681268982047,
                -1.6185754034397437,
                0.5401586157767134,
                1.439513689291341,
                1.0335684164470056
            ]
        },
        {
            "positions": [
                -0.9756656881665199,
                -0.157668067998929,
                -1.4680413512636061,
                0.5974376109852604,
                1.3739686189007676,
                0.9909041811228557
            ]
        },
        {
            "positions": [
                -0.9279318554002973,
                -0.1846393233080375,
                -1.3175072990874686,
                0.6547166061938073,
                1.3084235485101945,
                0.9482399457987059
            ]
        },
        {
            "positions": [
                -0.8801980226340749,
                -0.21161057861714602,
                -1.166973246911331,
                0.7119956014023543,
                1.2428784781196212,
                0.9055757104745559
            ]
        },
        {
            "positions": [
                -0.8324641898678524,
                -0.23858183392625454,
                -1.0164391947351934,
                0.7692745966109013,
                1.1773334077290478,
                0.8629114751504059
            ]
        },
        {
            "positions": [
                -0.78473035710163,
                -0.265553089235363,
                -0.8659051425590558,
                0.8265535918194482,
                1.1117883373384747,
                0.8202472398262561
            ]
        },
        {
            "positions": [
                -0.7369965243354073,
                -0.29252434454447157,
                -0.715371090382918,
                0.8838325870279952,
                1.0462432669479012,
                0.7775830045021062
            ]
        },
        {
            "positions": [
                -0.6892626915691848,
                -0.31949559985358006,
                -0.5648370382067807,
                0.9411115822365421,
                0.980698196557328,
                0.7349187691779562
            ]
        },
        {
            "positions": [
                -0.6415288588029624,
                -0.3464668551626886,
                -0.41430298603064286,
                0.9983905774450892,
                0.9151531261667547,
                0.6922545338538062
            ]
        },
        {
            "positions": [
                -0.59379502603674,
                -0.3734381104717971,
                -0.2637689338545053,
                1.055669572653636,
                0.8496080557761814,
                0.6495902985296563
            ]
        },
        {
            "positions": [
                -0.5460611932705174,
                -0.40040936578090564,
                -0.1132348816783677,
                1.1129485678621829,
                0.784062985385608,
                0.6069260632055063
            ]
        },
        {
            "positions": [
                -0.49832736050429494,
                -0.4273806210900141,
                0.037299170497769873,
                1.17022756307073,
                0.7185179149950348,
                0.5642618278813565
            ]
        },
        {
            "positions": [
                -0.4505935277380725,
                -0.4543518763991226,
                0.18783322267390745,
                1.2275065582792768,
                0.6529728446044616,
                0.5215975925572066
            ]
        },
        {
            "positions": [
                -0.40285969497185004,
                -0.4813231317082311,
                0.33836727485004503,
                1.2847855534878236,
                0.5874277742138884,
                0.47893335723305663
            ]
        },
        {
            "positions": [
                -0.35512586220562736,
                -0.5082943870173398,
                0.48890132702618305,
                1.3420645486963707,
                0.5218827038233149,
                0.43626912190890665
            ]
        },
        {
            "positions": [
                -0.3073920294394049,
                -0.5352656423264481,
                0.6394353792023202,
                1.3993435439049178,
                0.4563376334327416,
                0.3936048865847568
            ]
        },
        {
            "positions": [
                -0.25965819667318246,
                -0.5622368976355567,
                0.7899694313784578,
                1.4566225391134646,
                0.3907925630421685,
                0.3509406512606068
            ]
        },
        {
            "positions": [
                -0.21192436390696,
                -0.5892081529446651,
                0.9405034835545953,
                1.5139015343220115,
                0.32524749265159514,
                0.30827641593645694
            ]
        },
        {
            "positions": [
                -0.16419053114073745,
                -0.6161794082537737,
                1.0910375357307334,
                1.5711805295305588,
                0.2597024222610218,
                0.26561218061230696
            ]
        },
        {
            "positions": [
                -0.116456698374515,
                -0.6431506635628823,
                1.241571587906871,
                1.6284595247391056,
                0.19415735187044847,
                0.2229479452881571
            ]
        },
        {
            "positions": [
                -0.06872286560829255,
                -0.6701219188719907,
                1.3921056400830085,
                1.6857385199476524,
                0.12861228147987513,
                0.1802837099640071
            ]
        },
        {
            "positions": [
                -0.0209890328420701,
                -0.6970931741810993,
                1.5426396922591457,
                1.7430175151561993,
                0.06306721108930202,
                0.13761947463985724
            ]
        },
        {
            "positions": [
                0.026744799924152574,
                -0.7240644294902079,
                1.6931737444352837,
                1.8002965103647464,
                -0.0024778593012715344,
                0.09495523931570715
            ]
        },
        {
            "positions": [
                0.07447863269037502,
                -0.7510356847993163,
                1.8437077966114213,
                1.8575755055732934,
                -0.06802292969184465,
                0.052291003991557394
            ]
        },
        {
            "positions": [
                0.12221246545659738,
                -0.7780069401084249,
                1.9942418487875586,
                1.9148545007818403,
                -0.13356800008241798,
                0.009626768667407326
            ]
        }
    ]
}