{
    "goal": {
        "global_pose": {
            "orientation": {
                "w": 0.7047431468963623,
                "x": -0.7094548344612122,
                "y": 0.0024358443915843964,
                "z": -0.0022348060738295317
            },
            "position": {
                "x": 0.6094750761985779,
                "y": 0.3671506643295288,
                "z": 0.19426114857196808
            }
        },
        "name": "move_to_magneteinheit_A"
    },
    "id": "ProjEST_move_to_magneteinheit_A_150",
    "joint_names": [
        "shoulder_pan_joint",
        "shoulder_lift_joint",
        "elbow_joint",
        "wrist_1_joint",
        "wrist_2_joint",
        "wrist_3_joint"
    ],
    "metrics": {
        "cart_traj_len": 1.8792020852858504,
        "distance_elbow_joint": 3.9106480116558213,
        "distance_shoulder_lift_joint": 0.6994394966666666,
        "distance_shoulder_pan_joint": 1.2408934629082795,
        "distance_wrist_1_joint": 1.4801779251119729,
        "distance_wrist_2_joint": 1.707664043962728,
        "distance_wrist_3_joint": 1.0986865562624968,
        "smoothness": 3.9474596558118316e-16,
        "time": 0.106158891,
        "traj_len": 3.18394558630765,
        "weighted_distance": 3.9398889042925638
    },
    "planner": "ProjEST",
    "start": {
        "state": {
            "elbow_joint": -1.919643507792019,
            "shoulder_lift_joint": -0.07675430207160344,
            "shoulder_pan_joint": -1.1188671864651873,
            "wrist_1_joint": 0.42560062535961957,
            "wrist_2_joint": 1.5706038300724876,
            "wrist_3_joint": 1.1188968870953055
        }
    },
    "waypoints": [
        {
            "positions": [
                -1.1188671864651873,
                -0.07675430207160344,
                -1.919643507792019,
                0.42560062535961957,
                1.5706038300724876,
                1.1188968870953055
            ]
        },
        {
            "positions": [
                -1.071140514814869,
                -0.10365582117416755,
                -1.7692339688821799,
                0.4825305455562339,
                1.5049244437662288,
                1.0766397118544402
            ]
        },
        {
            "positions": [
                -1.0234138431645505,
                -0.13055734027673166,
                -1.6188244299723404,
                0.5394604657528482,
                1.43924505745997,
                1.034382536613575
            ]
        },
        {
            "positions": [
                -0.975687171514232,
                -0.15745885937929574,
                -1.4684148910625012,
                0.5963903859494626,
                1.3735656711537112,
                0.9921253613727098
            ]
        },
        {
            "positions": [
                -0.9279604998639136,
                -0.18436037848185985,
                -1.318005352152662,
                0.653320306146077,
                1.3078862848474526,
                0.9498681861318445
            ]
        },
        {
            "positions": [
                -0.8802338282135951,
                -0.21126189758442396,
                -1.1675958132428228,
                0.7102502263426913,
                1.2422068985411938,
                0.9076110108909792
            ]
        },
        {
            "positions": [
                -0.8325071565632767,
                -0.23816341668698804,
                -1.0171862743329834,
                0.7671801465393056,
                1.176527512234935,
                0.865353835650114
            ]
        },
        {
            "positions": [
                -0.7847804849129583,
                -0.26506493578955215,
                -0.8667767354231442,
                0.82411006673592,
                1.1108481259286762,
                0.8230966604092487
            ]
        },
        {
            "positions": [
                -0.7370538132626399,
                -0.29196645489211626,
                -0.7163671965133047,
                0.8810399869325343,
                1.0451687396224174,
                0.7808394851683834
            ]
        },
        {
            "positions": [
                -0.6893271416123214,
                -0.31886797399468036,
                -0.5659576576034655,
                0.9379699071291487,
                0.9794893533161587,
                0.7385823099275182
            ]
        },
        {
            "positions": [
                -0.6416004699620028,
                -0.3457694930972445,
                -0.4155481186936263,
                0.994899827325763,
                0.9138099670098999,
                0.6963251346866529
            ]
        },
        {
            "positions": [
                -0.5938737983116845,
                -0.3726710121998085,
                -0.2651385797837871,
                1.0518297475223772,
                0.8481305807036411,
                0.6540679594457877
            ]
        },
        {
            "positions": [
                -0.546147126661366,
                -0.39957253130237264,
                -0.11472904087394764,
                1.1087596677189917,
                0.7824511943973823,
                0.6118107842049224
            ]
        },
        {
            "positions": [
                -0.4984204550110476,
                -0.42647405040493674,
                0.03568049803589157,
                1.165689587915606,
                0.7167718080911236,
                0.5695536089640572
            ]
        },
        {
            "positions": [
                -0.4506937833607292,
                -0.45337556950750085,
                0.18609003694573079,
                1.2226195081122204,
                0.6510924217848649,
                0.5272964337231919
            ]
        },
        {
            "positions": [
                -0.4029671117104108,
                -0.4802770886100649,
                0.33649957585557,
                1.2795494283088347,
                0.5854130354786061,
                0.48503925848232665
            ]
        },
        {
            "positions": [
                -0.35524044006009226,
                -0.507178607712629,
                0.48690911476540966,
                1.3364793485054491,
                0.5197336491723472,
                0.4427820832414613
            ]
        },
        {
            "positions": [
                -0.30751376840977385,
                -0.5340801268151931,
                0.6373186536752489,
                1.3934092687020634,
                0.45405426286608863,
                0.40052490800059615
            ]
        },
        {
            "positions": [
                -0.25978709675945544,
                -0.5609816459177572,
                0.7877281925850881,
                1.4503391888986779,
                0.38837487655982983,
                0.3582677327597309
            ]
        },
        {
            "positions": [
                -0.21206042510913703,
                -0.5878831650203213,
                0.9381377314949273,
                1.507269109095292,
                0.322695490253571,
                0.31601055751886564
            ]
        },
        {
            "positions": [
                -0.1643337534588184,
                -0.6147846841228854,
                1.0885472704047665,
                1.5641990292919066,
                0.2570161039473122,
                0.2737533822780003
            ]
        },
        {
            "positions": [
                -0.1166070818085001,
                -0.6416862032254496,
                1.2389568093146057,
                1.6211289494885208,
                0.19133671764105342,
                0.23149620703713503
            ]
        },
        {
            "positions": [
                -0.06888041015818169,
                -0.6685877223280137,
                1.389366348224445,
                1.678058869685135,
                0.12565733133479462,
                0.18923903179626977
            ]
        },
        {
            "positions": [
                -0.021153738507863284,
                -0.6954892414305778,
                1.5397758871342841,
                1.7349887898817495,
                0.05997794502853604,
                0.14698185655540463
            ]
        },
        {
            "positions": [
                0.026572933142455346,
                -0.7223907605331419,
                1.6901854260441238,
                1.7919187100783638,
                -0.005701441277722985,
                0.10472468131453927
            ]
        },
        {
            "positions": [
                0.07429960479277375,
                -0.749292279635706,
                1.840594964953963,
                1.8488486302749783,
                -0.07138082758398157,
                0.062467506073673906
            ]
        },
        {
            "positions": [
                0.12202627644309212,
                -0.7761937987382701,
                1.9910045038638025,
                1.9057785504715925,
                -0.13706021389024037,
                0.0202103308328087
            ]
        }
    ]
}