{
    "goal": {
        "global_pose": {
            "orientation": {
                "w": 0.7047431468963623,
                "x": -0.7094548344612122,
                "y": 0.0024358443915843964,
                "z": -0.0022348060738295317
            },
            "position": {
                "x": 0.6094750761985779,
                "y": 0.3671506643295288,
                "z": 0.19426114857196808
            }
        },
        "name": "move_to_magneteinheit_A"
    },
    "id": "ProjEST_move_to_magneteinheit_A_56",
    "joint_names": [
        "shoulder_pan_joint",
        "shoulder_lift_joint",
        "elbow_joint",
        "wrist_1_joint",
        "wrist_2_joint",
        "wrist_3_joint"
    ],
    "metrics": {
        "cart_traj_len": 1.873614515366751,
        "distance_elbow_joint": 3.922178082167296,
        "distance_shoulder_lift_joint": 0.7047163375711263,
        "distance_shoulder_pan_joint": 1.2403989495411274,
        "distance_wrist_1_joint": 1.528671310636588,
        "distance_wrist_2_joint": 1.6975048586112869,
        "distance_wrist_3_joint": 1.1612183498299495,
        "smoothness": 3.6185046736692446e-16,
        "time": 0.0951857,
        "traj_len": 3.202294160185377,
        "weighted_distance": 3.9753365589928538
    },
    "planner": "ProjEST",
    "start": {
        "state": {
            "elbow_joint": -1.919643507792019,
            "shoulder_lift_joint": -0.07675430207160344,
            "shoulder_pan_joint": -1.1188671864651873,
            "wrist_1_joint": 0.42560062535961957,
            "wrist_2_joint": 1.5706038300724876,
            "wrist_3_joint": 1.1188968870953055
        }
    },
    "waypoints": [
        {
            "positions": [
                -1.1188671864651873,
                -0.07675430207160344,
                -1.919643507792019,
                0.42560062535961957,
                1.5706038300724876,
                1.1188968870953055
            ]
        },
        {
            "positions": [
                -1.0711595345597593,
                -0.10385877659356985,
                -1.7687905046317385,
                0.4843956757687191,
                1.5053151816643613,
                1.0742346428710767
            ]
        },
        {
            "positions": [
                -1.0234518826543313,
                -0.13096325111553625,
                -1.6179375014714579,
                0.5431907261778186,
                1.4400265332562348,
                1.029572398646848
            ]
        },
        {
            "positions": [
                -0.9757442307489034,
                -0.15806772563750263,
                -1.4670844983111773,
                0.6019857765869182,
                1.3747378848481084,
                0.9849101544226191
            ]
        },
        {
            "positions": [
                -0.9280365788434755,
                -0.18517220015946903,
                -1.3162314951508967,
                0.6607808269960177,
                1.309449236439982,
                0.9402479101983903
            ]
        },
        {
            "positions": [
                -0.8803289269380474,
                -0.21227667468143543,
                -1.165378491990616,
                0.7195758774051173,
                1.2441605880318556,
                0.8955856659741614
            ]
        },
        {
            "positions": [
                -0.8326212750326194,
                -0.2393811492034018,
                -1.0145254888303354,
                0.7783709278142168,
                1.178871939623729,
                0.8509234217499326
            ]
        },
        {
            "positions": [
                -0.7849136231271916,
                -0.2664856237253682,
                -0.8636724856700548,
                0.8371659782233163,
                1.1135832912156027,
                0.8062611775257038
            ]
        },
        {
            "positions": [
                -0.7372059712217636,
                -0.2935900982473346,
                -0.7128194825097742,
                0.8959610286324159,
                1.0482946428074762,
                0.7615989333014749
            ]
        },
        {
            "positions": [
                -0.6894983193163355,
                -0.320694572769301,
                -0.5619664793494936,
                0.9547560790415153,
                0.9830059943993499,
                0.7169366890772462
            ]
        },
        {
            "positions": [
                -0.6417906674109075,
                -0.3477990472912674,
                -0.411113476189213,
                1.013551129450615,
                0.9177173459912233,
                0.6722744448530172
            ]
        },
        {
            "positions": [
                -0.5940830155054796,
                -0.3749035218132338,
                -0.2602604730289324,
                1.0723461798597145,
                0.852428697583097,
                0.6276122006287884
            ]
        },
        {
            "positions": [
                -0.5463753636000516,
                -0.4020079963352002,
                -0.1094074698686518,
                1.131141230268814,
                0.7871400491749706,
                0.5829499564045596
            ]
        },
        {
            "positions": [
                -0.49866771169462365,
                -0.4291124708571666,
                0.04144553329162881,
                1.1899362806779135,
                0.7218514007668442,
                0.5382877121803308
            ]
        },
        {
            "positions": [
                -0.45096005978919573,
                -0.456216945379133,
                0.19229853645190942,
                1.248731331087013,
                0.6565627523587177,
                0.49362546795610196
            ]
        },
        {
            "positions": [
                -0.4032524078837677,
                -0.48332141990109934,
                0.34315153961219,
                1.3075263814961124,
                0.5912741039505914,
                0.44896322373187314
            ]
        },
        {
            "positions": [
                -0.3555447559783397,
                -0.5104258944230657,
                0.49400454277247063,
                1.3663214319052122,
                0.5259854555424648,
                0.4043009795076442
            ]
        },
        {
            "positions": [
                -0.30783710407291176,
                -0.5375303689450321,
                0.6448575459327512,
                1.4251164823143117,
                0.46069680713433847,
                0.3596387352834155
            ]
        },
        {
            "positions": [
                -0.26012945216748373,
                -0.5646348434669985,
                0.7957105490930318,
                1.4839115327234111,
                0.39540815872621216,
                0.3149764910591867
            ]
        },
        {
            "positions": [
                -0.21242180026205582,
                -0.591739317988965,
                0.9465635522533125,
                1.5427065831325106,
                0.33011951031808584,
                0.27031424683495786
            ]
        },
        {
            "positions": [
                -0.1647141483566278,
                -0.6188437925109314,
                1.097416555413593,
                1.6015016335416103,
                0.2648308619099591,
                0.22565200261072893
            ]
        },
        {
            "positions": [
                -0.11700649645119987,
                -0.6459482670328978,
                1.2482695585738737,
                1.6602966839507098,
                0.19954221350183277,
                0.1809897583865001
            ]
        },
        {
            "positions": [
                -0.06929884454577184,
                -0.6730527415548642,
                1.3991225617341543,
                1.7190917343598093,
                0.13425356509370645,
                0.1363275141622713
            ]
        },
        {
            "positions": [
                -0.021591192640343815,
                -0.7001572160768306,
                1.5499755648944349,
                1.7778867847689088,
                0.06896491668558014,
                0.09166526993804247
            ]
        },
        {
            "positions": [
                0.026116459265084213,
                -0.727261690598797,
                1.7008285680547155,
                1.8366818351780085,
                0.003676268277453598,
                0.04700302571381365
            ]
        },
        {
            "positions": [
                0.07382411117051202,
                -0.7543661651207634,
                1.851681571214996,
                1.895476885587108,
                -0.06161238013067294,
                0.002340781489584831
            ]
        },
        {
            "positions": [
                0.12153176307593995,
                -0.7814706396427298,
                2.002534574375277,
                1.9542719359962075,
                -0.12690102853879928,
                -0.042321462734644065
            ]
        }
    ]
}