{
    "goal": {
        "global_pose": {
            "orientation": {
                "w": 0.7031023502349854,
                "x": -0.7110244035720825,
                "y": 0.007748599164187908,
                "z": 0.005598929710686207
            },
            "position": {
                "x": 0.11585023208521307,
                "y": 0.44412534475326537,
                "z": 0.3711530566215515
            }
        },
        "name": "move_to_auspresseinheit_A"
    },
    "id": "ProjEST_move_to_auspresseinheit_A_48",
    "joint_names": [
        "shoulder_pan_joint",
        "shoulder_lift_joint",
        "elbow_joint",
        "wrist_1_joint",
        "wrist_2_joint",
        "wrist_3_joint"
    ],
    "metrics": {
        "cart_traj_len": 0.7995060305303284,
        "distance_elbow_joint": 0.056823275842604826,
        "distance_shoulder_lift_joint": 1.0500590629097344,
        "distance_shoulder_pan_joint": 1.3458126823065153,
        "distance_wrist_1_joint": 1.7823085792454278,
        "distance_wrist_2_joint": 0.6810104182655504,
        "distance_wrist_3_joint": 2.5541098232787562,
        "smoothness": 1.0195805475355832,
        "time": 0.124683409,
        "traj_len": 2.7331527293308344,
        "weighted_distance": 3.8783582204222804
    },
    "planner": "ProjEST",
    "start": {
        "state": {
            "elbow_joint": 2.422574709923281,
            "shoulder_lift_joint": -1.3736533754116391,
            "shoulder_pan_joint": -0.33786336945926293,
            "wrist_1_joint": -1.0288603412921917,
            "wrist_2_joint": 1.2330224858903978,
            "wrist_3_joint": -3.094022268022082
        }
    },
    "waypoints": [
        {
            "positions": [
                -0.33786336945926293,
                -1.3736533754116391,
                2.422574709923281,
                -1.0288603412921917,
                1.2330224858903978,
                -3.094022268022082
            ]
        },
        {
            "positions": [
                -0.3548945737431111,
                -1.4617463882497481,
                2.4241953170143677,
                -0.8990020580971848,
                1.2409822568693831,
                -2.9542110782135915
            ]
        },
        {
            "positions": [
                -0.37192577802695936,
                -1.5498394010878571,
                2.425815924105455,
                -0.7691437749021779,
                1.2489420278483683,
                -2.814399888405101
            ]
        },
        {
            "positions": [
                -0.38895698231080755,
                -1.637932413925966,
                2.4274365311965416,
                -0.639285491707171,
                1.2569017988273536,
                -2.67458869859661
            ]
        },
        {
            "positions": [
                -0.4059881865946558,
                -1.7260254267640749,
                2.4290571382876287,
                -0.509427208512164,
                1.2648615698063388,
                -2.5347775087881192
            ]
        },
        {
            "positions": [
                -0.423019390878504,
                -1.8141184396021839,
                2.4306777453787154,
                -0.379568925317157,
                1.2728213407853242,
                -2.3949663189796286
            ]
        },
        {
            "positions": [
                -0.44005059516235223,
                -1.9022114524402927,
                2.4322983524698025,
                -0.24971064212215022,
                1.2807811117643093,
                -2.255155129171138
            ]
        },
        {
            "positions": [
                -0.4570817994462004,
                -1.9903044652784017,
                2.433918959560889,
                -0.11985235892714319,
                1.2887408827432947,
                -2.1153439393626474
            ]
        },
        {
            "positions": [
                -0.4741130037300486,
                -2.0783974781165107,
                2.4355395666519764,
                0.01000592426786362,
                1.2967006537222798,
                -1.9755327495541568
            ]
        },
        {
            "positions": [
                -0.49114420801389685,
                -2.1664904909546197,
                2.437160173743063,
                0.13986420746287065,
                1.3046604247012652,
                -1.835721559745666
            ]
        },
        {
            "positions": [
                -0.38273222221827125,
                -2.143106677557642,
                2.433320372650079,
                0.08408384105465566,
                1.2492629265690214,
                -1.9535223883822423
            ]
        },
        {
            "positions": [
                -0.2743202364226457,
                -2.1197228641606642,
                2.4294805715570953,
                0.028303474646440688,
                1.1938654284367773,
                -2.0713232170188185
            ]
        },
        {
            "positions": [
                -0.16590825062702014,
                -2.096339050763687,
                2.425640770464111,
                -0.027476891761774286,
                1.1384679303045335,
                -2.189124045655395
            ]
        },
        {
            "positions": [
                -0.05749626483139447,
                -2.0729552373667093,
                2.4218009693711275,
                -0.08325725816998927,
                1.0830704321722895,
                -2.3069248742919717
            ]
        },
        {
            "positions": [
                0.05091572096423108,
                -2.0495714239697316,
                2.4179611682781434,
                -0.13903762457820423,
                1.0276729340400457,
                -2.424725702928548
            ]
        },
        {
            "positions": [
                0.15932770675985658,
                -2.026187610572754,
                2.41412136718516,
                -0.19481799098641922,
                0.9722754359078019,
                -2.542526531565124
            ]
        },
        {
            "positions": [
                0.2677396925554823,
                -2.002803797175776,
                2.4102815660921757,
                -0.2505983573946342,
                0.9168779377755578,
                -2.6603273602017006
            ]
        },
        {
            "positions": [
                0.3761516783511079,
                -1.9794199837787987,
                2.406441764999192,
                -0.3063787238028492,
                0.861480439643314,
                -2.778128188838277
            ]
        },
        {
            "positions": [
                0.4845636641467335,
                -1.956036170381821,
                2.402601963906208,
                -0.3621590902110642,
                0.80608294151107,
                -2.8959290174748533
            ]
        },
        {
            "positions": [
                0.5929756499423591,
                -1.9326523569848435,
                2.3987621628132243,
                -0.4179394566192791,
                0.7506854433788261,
                -3.0137298461114295
            ]
        },
        {
            "positions": [
                0.7013876357379846,
                -1.9092685435878658,
                2.39492236172024,
                -0.4737198230274942,
                0.6952879452465822,
                -3.131530674748006
            ]
        }
    ]
}