{
    "goal": {
        "global_pose": {
            "orientation": {
                "w": 0.7031023502349854,
                "x": -0.7110244035720825,
                "y": 0.007748599164187908,
                "z": 0.005598929710686207
            },
            "position": {
                "x": 0.11585023208521307,
                "y": 0.44412534475326537,
                "z": 0.3711530566215515
            }
        },
        "name": "move_to_auspresseinheit_A"
    },
    "id": "ProjEST_move_to_auspresseinheit_A_18",
    "joint_names": [
        "shoulder_pan_joint",
        "shoulder_lift_joint",
        "elbow_joint",
        "wrist_1_joint",
        "wrist_2_joint",
        "wrist_3_joint"
    ],
    "metrics": {
        "cart_traj_len": 2.1739427803403752,
        "distance_elbow_joint": 2.465716500130437,
        "distance_shoulder_lift_joint": 0.546229045304985,
        "distance_shoulder_pan_joint": 1.5878898580754686,
        "distance_wrist_1_joint": 0.7845392782076143,
        "distance_wrist_2_joint": 2.1153853247786056,
        "distance_wrist_3_joint": 5.117090865622934,
        "smoothness": 0.8020622499429629,
        "time": 0.42880214,
        "traj_len": 3.55202067450628,
        "weighted_distance": 5.074540098014021
    },
    "planner": "ProjEST",
    "start": {
        "state": {
            "elbow_joint": 2.422574709923281,
            "shoulder_lift_joint": -1.3736533754116391,
            "shoulder_pan_joint": -0.33786336945926293,
            "wrist_1_joint": -1.0288603412921917,
            "wrist_2_joint": 1.2330224858903978,
            "wrist_3_joint": -3.094022268022082
        }
    },
    "waypoints": [
        {
            "positions": [
                -0.33786336945926293,
                -1.3736533754116391,
                2.422574709923281,
                -1.0288603412921917,
                1.2330224858903978,
                -3.094022268022082
            ]
        },
        {
            "positions": [
                -0.35484335121274907,
                -1.4037634552262395,
                2.3446585839943235,
                -1.036245932701533,
                1.1503725699157086,
                -2.9348095602298927
            ]
        },
        {
            "positions": [
                -0.37182333296623526,
                -1.43387353504084,
                2.266742458065366,
                -1.0436315241108745,
                1.0677226539410194,
                -2.7755968524377037
            ]
        },
        {
            "positions": [
                -0.3888033147197214,
                -1.4639836148554404,
                2.1888263321364088,
                -1.0510171155202157,
                0.98507273796633,
                -2.6163841446455143
            ]
        },
        {
            "positions": [
                -0.40578329647320754,
                -1.494093694670041,
                2.110910206207451,
                -1.0584027069295572,
                0.9024228219916408,
                -2.457171436853325
            ]
        },
        {
            "positions": [
                -0.4227632782266937,
                -1.5242037744846413,
                2.0329940802784936,
                -1.0657882983388984,
                0.8197729060169516,
                -2.297958729061136
            ]
        },
        {
            "positions": [
                -0.4397432599801799,
                -1.5543138542992416,
                1.955077954349536,
                -1.0731738897482397,
                0.7371229900422623,
                -2.1387460212689464
            ]
        },
        {
            "positions": [
                -0.456723241733666,
                -1.5844239341138422,
                1.8771618284205784,
                -1.0805594811575812,
                0.654473074067573,
                -1.9795333134767572
            ]
        },
        {
            "positions": [
                -0.4737032234871522,
                -1.6145340139284425,
                1.799245702491621,
                -1.0879450725669224,
                0.5718231580928839,
                -1.820320605684568
            ]
        },
        {
            "positions": [
                -0.49068320524063835,
                -1.644644093743043,
                1.7213295765626637,
                -1.0953306639762637,
                0.4891732421181947,
                -1.6611078978923788
            ]
        },
        {
            "positions": [
                -0.5076631869941245,
                -1.6747541735576434,
                1.6434134506337061,
                -1.1027162553856051,
                0.4065233261435054,
                -1.5018951901001896
            ]
        },
        {
            "positions": [
                -0.5246431687476106,
                -1.7048642533722438,
                1.5654973247047486,
                -1.1101018467949464,
                0.3238734101688161,
                -1.3426824823080001
            ]
        },
        {
            "positions": [
                -0.5416231505010969,
                -1.7349743331868441,
                1.487581198775791,
                -1.1174874382042876,
                0.24122349419412692,
                -1.183469774515811
            ]
        },
        {
            "positions": [
                -0.558603132254583,
                -1.7650844130014447,
                1.4096650728468336,
                -1.1248730296136291,
                0.15857357821943774,
                -1.0242570667236217
            ]
        },
        {
            "positions": [
                -0.5755831140080692,
                -1.795194492816045,
                1.331748946917876,
                -1.1322586210229704,
                0.07592366224474834,
                -0.8650443589314323
            ]
        },
        {
            "positions": [
                -0.5925630957615553,
                -1.8253045726306456,
                1.2538328209889187,
                -1.1396442124323118,
                -0.006726253729940845,
                -0.7058316511392433
            ]
        },
        {
            "positions": [
                -0.6095430775150414,
                -1.855414652445246,
                1.175916695059961,
                -1.147029803841653,
                -0.08937616970463014,
                -0.5466189433470536
            ]
        },
        {
            "positions": [
                -0.5323355729811072,
                -1.8596789783815197,
                1.2594425500542032,
                -1.1152459535373047,
                -0.06733383876727136,
                -0.7058764955275365
            ]
        },
        {
            "positions": [
                -0.4551280684471729,
                -1.8639433043177935,
                1.3429684050484454,
                -1.0834621032329566,
                -0.04529150782991259,
                -0.8651340477080195
            ]
        },
        {
            "positions": [
                -0.3779205639132387,
                -1.8682076302540673,
                1.4264942600426875,
                -1.0516782529286082,
                -0.02324917689255382,
                -1.0243915998885025
            ]
        },
        {
            "positions": [
                -0.3007130593793044,
                -1.8724719561903411,
                1.5100201150369297,
                -1.01989440262426,
                -0.0012068459551950461,
                -1.1836491520689854
            ]
        },
        {
            "positions": [
                -0.22350555484537016,
                -1.876736282126615,
                1.5935459700311718,
                -0.9881105523199116,
                0.020835484982163727,
                -1.3429067042494682
            ]
        },
        {
            "positions": [
                -0.1462980503114359,
                -1.8810006080628887,
                1.677071825025414,
                -0.9563267020155635,
                0.0428778159195225,
                -1.502164256429951
            ]
        },
        {
            "positions": [
                -0.06909054577750162,
                -1.8852649339991623,
                1.760597680019656,
                -0.9245428517112151,
                0.06492014685688127,
                -1.6614218086104342
            ]
        },
        {
            "positions": [
                0.00811695875643259,
                -1.889529259935436,
                1.8441235350138983,
                -0.8927590014068669,
                0.08696247779424005,
                -1.820679360790917
            ]
        },
        {
            "positions": [
                0.08532446329036691,
                -1.8937935858717099,
                1.9276493900081406,
                -0.8609751511025185,
                0.10900480873159885,
                -1.9799369129714002
            ]
        },
        {
            "positions": [
                0.16253196782430113,
                -1.8980579118079837,
                2.0111752450023825,
                -0.8291913007981703,
                0.1310471396689576,
                -2.139194465151883
            ]
        },
        {
            "positions": [
                0.23973947235823545,
                -1.9023222377442575,
                2.094701099996625,
                -0.797407450493822,
                0.15308947060631636,
                -2.298452017332366
            ]
        },
        {
            "positions": [
                0.31694697689216966,
                -1.9065865636805313,
                2.178226954990867,
                -0.7656236001894738,
                0.17513180154367514,
                -2.457709569512849
            ]
        },
        {
            "positions": [
                0.394154481426104,
                -1.910850889616805,
                2.2617528099851087,
                -0.7338397498851255,
                0.19717413248103394,
                -2.6169671216933317
            ]
        },
        {
            "positions": [
                0.47136198596003825,
                -1.9151152155530788,
                2.345278664979351,
                -0.7020558995807772,
                0.21921646341839268,
                -2.7762246738738146
            ]
        },
        {
            "positions": [
                0.5301882575961909,
                -1.9139234142621926,
                2.3577027938162827,
                -0.6467069217314579,
                0.34031497243353154,
                -2.8612451264791012
            ]
        },
        {
            "positions": [
                0.5890145292323437,
                -1.9127316129713061,
                2.3701269226532147,
                -0.5913579438821387,
                0.46141348144867045,
                -2.9462655790843875
            ]
        },
        {
            "positions": [
                0.6478408008684964,
                -1.9115398116804199,
                2.3825510514901467,
                -0.5360089660328194,
                0.5825119904638093,
                -3.0312860316896737
            ]
        },
        {
            "positions": [
                0.7066670725046491,
                -1.9103480103895336,
                2.3949751803270782,
                -0.4806599881835002,
                0.7036104994789482,
                -3.1163064842949604
            ]
        }
    ]
}