{
    "goal": {
        "global_pose": {
            "orientation": {
                "w": 0.5084816217422485,
                "x": -0.49083608388900757,
                "y": 0.5182115435600281,
                "z": -0.4816462993621826
            },
            "position": {
                "x": 0.5540239810943604,
                "y": 0.030875300988554955,
                "z": 0.16403168439865112
            }
        },
        "name": "move_to_storage_A"
    },
    "id": "ProjEST_move_to_storage_A_82",
    "joint_names": [
        "shoulder_pan_joint",
        "shoulder_lift_joint",
        "elbow_joint",
        "wrist_1_joint",
        "wrist_2_joint",
        "wrist_3_joint"
    ],
    "metrics": {
        "cart_traj_len": 0.35286202395166744,
        "distance_elbow_joint": 0.4485613695810473,
        "distance_shoulder_lift_joint": 0.23558784225018736,
        "distance_shoulder_pan_joint": 0.4619297984926165,
        "distance_wrist_1_joint": 0.23815519880130387,
        "distance_wrist_2_joint": 1.096329278745823,
        "distance_wrist_3_joint": 0.10346281106645794,
        "smoothness": 8.881784197001252e-16,
        "time": 0.072251675,
        "traj_len": 1.6074906839348824,
        "weighted_distance": 2.0311170322306586
    },
    "planner": "ProjEST",
    "start": {
        "state": {
            "elbow_joint": 1.9715463870305268,
            "shoulder_lift_joint": -1.1394903361783484,
            "shoulder_pan_joint": 0.12281147578464417,
            "wrist_1_joint": -0.7804599489681411,
            "wrist_2_joint": 0.12958660307563738,
            "wrist_3_joint": -3.1924946282119055
        }
    },
    "waypoints": [
        {
            "positions": [
                0.12281147578464417,
                -1.1394903361783484,
                1.9715463870305268,
                -0.7804599489681411,
                0.12958660307563738,
                -3.1924946282119055
            ]
        },
        {
            "positions": [
                0.056821504571413245,
                -1.1731457422140894,
                2.035626582684962,
                -0.8144821202254702,
                0.2862050714678978,
                -3.177714226630983
            ]
        },
        {
            "positions": [
                -0.009168466641817682,
                -1.2068011482498304,
                2.0997067783393972,
                -0.8485042914827994,
                0.4428235398601582,
                -3.1629338250500605
            ]
        },
        {
            "positions": [
                -0.0751584378550486,
                -1.2404565542855714,
                2.1637869739938327,
                -0.8825264627401285,
                0.5994420082524187,
                -3.1481534234691377
            ]
        },
        {
            "positions": [
                -0.14114840906827952,
                -1.2741119603213127,
                2.227867169648268,
                -0.9165486339974576,
                0.7560604766446791,
                -3.1333730218882154
            ]
        },
        {
            "positions": [
                -0.2071383802815105,
                -1.3077673663570537,
                2.2919473653027036,
                -0.9505708052547868,
                0.9126789450369396,
                -3.1185926203072927
            ]
        },
        {
            "positions": [
                -0.27312835149474135,
                -1.3414227723927947,
                2.3560275609571386,
                -0.9845929765121157,
                1.0692974134292,
                -3.1038122187263704
            ]
        },
        {
            "positions": [
                -0.3391183227079723,
                -1.3750781784285357,
                2.420107756611574,
                -1.018615147769445,
                1.2259158818214604,
                -3.0890318171454476
            ]
        }
    ]
}