{
    "goal": {
        "global_pose": {
            "orientation": {
                "w": 0.7047431468963623,
                "x": -0.7094548344612122,
                "y": 0.0024358443915843964,
                "z": -0.0022348060738295317
            },
            "position": {
                "x": 0.6094750761985779,
                "y": 0.3671506643295288,
                "z": 0.19426114857196808
            }
        },
        "name": "move_to_magneteinheit_A"
    },
    "id": "ProjEST_move_to_magneteinheit_A_13",
    "joint_names": [
        "shoulder_pan_joint",
        "shoulder_lift_joint",
        "elbow_joint",
        "wrist_1_joint",
        "wrist_2_joint",
        "wrist_3_joint"
    ],
    "metrics": {
        "cart_traj_len": 1.873538752234523,
        "distance_elbow_joint": 3.9207956114490417,
        "distance_shoulder_lift_joint": 0.7049479321072578,
        "distance_shoulder_pan_joint": 1.2409427995733333,
        "distance_wrist_1_joint": 1.5300619773848363,
        "distance_wrist_2_joint": 1.692228755933295,
        "distance_wrist_3_joint": 1.1610907889581912,
        "smoothness": 3.2895497286407187e-16,
        "time": 0.043382112,
        "traj_len": 3.201572717494631,
        "weighted_distance": 3.9742345397120777
    },
    "planner": "ProjEST",
    "start": {
        "state": {
            "elbow_joint": -1.919643507792019,
            "shoulder_lift_joint": -0.07675430207160344,
            "shoulder_pan_joint": -1.1188671864651873,
            "wrist_1_joint": 0.42560062535961957,
            "wrist_2_joint": 1.5706038300724876,
            "wrist_3_joint": 1.1188968870953055
        }
    },
    "waypoints": [
        {
            "positions": [
                -1.1188671864651873,
                -0.07675430207160344,
                -1.919643507792019,
                0.42560062535961957,
                1.5706038300724876,
                1.1188968870953055
            ]
        },
        {
            "positions": [
                -1.0711386172508284,
                -0.10386768407572874,
                -1.7688436765824405,
                0.48444916295134405,
                1.505518108690438,
                1.074239549058452
            ]
        },
        {
            "positions": [
                -1.0234100480364694,
                -0.13098106607985405,
                -1.618043845372862,
                0.5432977005430685,
                1.440432387308388,
                1.0295822110215984
            ]
        },
        {
            "positions": [
                -0.9756814788221104,
                -0.15809444808397935,
                -1.4672440141632834,
                0.602146238134793,
                1.3753466659263383,
                0.9849248729847451
            ]
        },
        {
            "positions": [
                -0.9279529096077515,
                -0.18520783008810465,
                -1.3164441829537048,
                0.6609947757265174,
                1.3102609445442883,
                0.9402675349478915
            ]
        },
        {
            "positions": [
                -0.8802243403933925,
                -0.21232121209222996,
                -1.1656443517441264,
                0.719843313318242,
                1.2451752231622386,
                0.8956101969110379
            ]
        },
        {
            "positions": [
                -0.8324957711790335,
                -0.23943459409635526,
                -1.014844520534548,
                0.7786918509099664,
                1.1800895017801887,
                0.8509528588741845
            ]
        },
        {
            "positions": [
                -0.7847672019646745,
                -0.26654797610048053,
                -0.8640446893249694,
                0.8375403885016909,
                1.115003780398139,
                0.806295520837331
            ]
        },
        {
            "positions": [
                -0.7370386327503156,
                -0.29366135810460586,
                -0.7132448581153907,
                0.8963889260934154,
                1.0499180590160893,
                0.7616381828004775
            ]
        },
        {
            "positions": [
                -0.6893100635359566,
                -0.32077474010873114,
                -0.5624450269058123,
                0.9552374636851397,
                0.9848323376340394,
                0.716980844763624
            ]
        },
        {
            "positions": [
                -0.6415814943215976,
                -0.34788812211285647,
                -0.4116451956962337,
                1.0140860012768644,
                0.9197466162519895,
                0.6723235067267704
            ]
        },
        {
            "positions": [
                -0.5938529251072386,
                -0.37500150411698174,
                -0.2608453644866553,
                1.0729345388685887,
                0.8546608948699398,
                0.627666168689917
            ]
        },
        {
            "positions": [
                -0.5461243558928797,
                -0.4021148861211071,
                -0.11004553327707667,
                1.1317830764603132,
                0.7895751734878899,
                0.5830088306530634
            ]
        },
        {
            "positions": [
                -0.4983957866785207,
                -0.42922826812523235,
                0.04075429793250174,
                1.1906316140520377,
                0.7244894521058401,
                0.53835149261621
            ]
        },
        {
            "positions": [
                -0.4506672174641617,
                -0.4563416501293576,
                0.19155412914208036,
                1.2494801516437621,
                0.6594037307237904,
                0.4936941545793565
            ]
        },
        {
            "positions": [
                -0.40293864824980286,
                -0.4834550321334829,
                0.34235396035165855,
                1.3083286892354866,
                0.5943180093417406,
                0.44903681654250305
            ]
        },
        {
            "positions": [
                -0.35521007903544377,
                -0.5105684141376083,
                0.4931537915612376,
                1.367177226827211,
                0.5292322879596907,
                0.40437947850564937
            ]
        },
        {
            "positions": [
                -0.3074815098210848,
                -0.5376817961417335,
                0.6439536227708158,
                1.4260257644189356,
                0.464146566577641,
                0.3597221404687959
            ]
        },
        {
            "positions": [
                -0.2597529406067258,
                -0.5647951781458589,
                0.7947534539803944,
                1.48487430201066,
                0.39906084519559126,
                0.31506480243194246
            ]
        },
        {
            "positions": [
                -0.21202437139236685,
                -0.591908560149984,
                0.9455532851899726,
                1.5437228396023845,
                0.33397512381354133,
                0.270407464395089
            ]
        },
        {
            "positions": [
                -0.16429580217800788,
                -0.6190219421541094,
                1.0963531163995517,
                1.6025713771941092,
                0.2688894024314914,
                0.22575012635823533
            ]
        },
        {
            "positions": [
                -0.1165672329636489,
                -0.6461353241582348,
                1.2471529476091299,
                1.6614199147858335,
                0.2038036810494417,
                0.18109278832138187
            ]
        },
        {
            "positions": [
                -0.06883866374928993,
                -0.67324870616236,
                1.3979527788187085,
                1.720268452377558,
                0.13871795966739198,
                0.13643545028452841
            ]
        },
        {
            "positions": [
                -0.021110094534930957,
                -0.7003620881664854,
                1.5487526100282867,
                1.7791169899692825,
                0.07363223828534227,
                0.09177811224767485
            ]
        },
        {
            "positions": [
                0.026618474679428017,
                -0.7274754701706108,
                1.6995524412378658,
                1.837965527561007,
                0.008546516903292112,
                0.04712077421082128
            ]
        },
        {
            "positions": [
                0.07434704389378699,
                -0.7545888521747359,
                1.850352272447444,
                1.8968140651527314,
                -0.0565392044787576,
                0.0024634361739679367
            ]
        },
        {
            "positions": [
                0.12207561310814603,
                -0.7817022341788613,
                2.001152103657023,
                1.955662602744456,
                -0.12162492586080727,
                -0.04219390186288568
            ]
        }
    ]
}