{
    "goal": {
        "global_pose": {
            "orientation": {
                "w": 0.7047431468963623,
                "x": -0.7094548344612122,
                "y": 0.0024358443915843964,
                "z": -0.0022348060738295317
            },
            "position": {
                "x": 0.6094750761985779,
                "y": 0.3671506643295288,
                "z": 0.19426114857196808
            }
        },
        "name": "move_to_magneteinheit_A"
    },
    "id": "ProjEST_move_to_magneteinheit_A_20",
    "joint_names": [
        "shoulder_pan_joint",
        "shoulder_lift_joint",
        "elbow_joint",
        "wrist_1_joint",
        "wrist_2_joint",
        "wrist_3_joint"
    ],
    "metrics": {
        "cart_traj_len": 1.8790039490804609,
        "distance_elbow_joint": 3.910420647545556,
        "distance_shoulder_lift_joint": 0.6999073393072602,
        "distance_shoulder_pan_joint": 1.241529237728394,
        "distance_wrist_1_joint": 1.4886224093038902,
        "distance_wrist_2_joint": 1.6970832148927202,
        "distance_wrist_3_joint": 1.103827744631669,
        "smoothness": 7.237009347338488e-16,
        "time": 0.112541972,
        "traj_len": 3.1845550071257196,
        "weighted_distance": 3.9414149371601868
    },
    "planner": "ProjEST",
    "start": {
        "state": {
            "elbow_joint": -1.919643507792019,
            "shoulder_lift_joint": -0.07675430207160344,
            "shoulder_pan_joint": -1.1188671864651873,
            "wrist_1_joint": 0.42560062535961957,
            "wrist_2_joint": 1.5706038300724876,
            "wrist_3_joint": 1.1188968870953055
        }
    },
    "waypoints": [
        {
            "positions": [
                -1.1188671864651873,
                -0.07675430207160344,
                -1.919643507792019,
                0.42560062535961957,
                1.5706038300724876,
                1.1188968870953055
            ]
        },
        {
            "positions": [
                -1.0711160619371722,
                -0.10367381512188269,
                -1.7692427136556514,
                0.4828553334097692,
                1.50533139873046,
                1.0764419738402413
            ]
        },
        {
            "positions": [
                -1.0233649374091571,
                -0.13059332817216193,
                -1.618841919519284,
                0.5401100414599188,
                1.440058967388432,
                1.033987060585177
            ]
        },
        {
            "positions": [
                -0.9756138128811419,
                -0.1575128412224412,
                -1.4684411253829164,
                0.5973647495100685,
                1.3747865360464044,
                0.991532147330113
            ]
        },
        {
            "positions": [
                -0.9278626883531267,
                -0.18443235427272042,
                -1.3180403312465487,
                0.6546194575602181,
                1.3095141047043768,
                0.9490772340750487
            ]
        },
        {
            "positions": [
                -0.8801115638251116,
                -0.21135186732299968,
                -1.1676395371101813,
                0.7118741656103678,
                1.2442416733623491,
                0.9066223208199846
            ]
        },
        {
            "positions": [
                -0.8323604392970965,
                -0.2382713803732789,
                -1.017238742973814,
                0.7691288736605173,
                1.1789692420203215,
                0.8641674075649204
            ]
        },
        {
            "positions": [
                -0.7846093147690814,
                -0.26519089342355817,
                -0.8668379488374462,
                0.8263835817106668,
                1.1136968106782938,
                0.8217124943098562
            ]
        },
        {
            "positions": [
                -0.736858190241066,
                -0.2921104064738374,
                -0.7164371547010786,
                0.8836382897608166,
                1.048424379336266,
                0.7792575810547919
            ]
        },
        {
            "positions": [
                -0.6891070657130509,
                -0.31902991952411663,
                -0.5660363605647112,
                0.9408929978109661,
                0.9831519479942383,
                0.7368026677997278
            ]
        },
        {
            "positions": [
                -0.6413559411850358,
                -0.3459494325743959,
                -0.41563556642834354,
                0.9981477058611159,
                0.9178795166522106,
                0.6943477545446636
            ]
        },
        {
            "positions": [
                -0.5936048166570207,
                -0.3728689456246751,
                -0.2652347722919761,
                1.0554024139112654,
                0.8526070853101829,
                0.6518928412895995
            ]
        },
        {
            "positions": [
                -0.5458536921290055,
                -0.3997884586749544,
                -0.11483397815560847,
                1.1126571219614152,
                0.7873346539681552,
                0.6094379280345351
            ]
        },
        {
            "positions": [
                -0.49810256760099036,
                -0.4267079717252336,
                0.03556681598075895,
                1.1699118300115647,
                0.7220622226261275,
                0.566983014779471
            ]
        },
        {
            "positions": [
                -0.45035144307297525,
                -0.45362748477551285,
                0.1859676101171266,
                1.2271665380617143,
                0.6567897912840999,
                0.5245281015244069
            ]
        },
        {
            "positions": [
                -0.40260031854496015,
                -0.4805469978257921,
                0.3363684042534938,
                1.2844212461118638,
                0.5915173599420722,
                0.48207318826934265
            ]
        },
        {
            "positions": [
                -0.3548491940169448,
                -0.5074665108760714,
                0.4867691983898619,
                1.3416759541620136,
                0.5262449286000443,
                0.4396182750142784
            ]
        },
        {
            "positions": [
                -0.3070980694889297,
                -0.5343860239263506,
                0.6371699925262291,
                1.3989306622121631,
                0.4609724972580167,
                0.3971633617592142
            ]
        },
        {
            "positions": [
                -0.2593469449609146,
                -0.5613055369766298,
                0.7875707866625967,
                1.4561853702623129,
                0.39570006591598905,
                0.35470844850415006
            ]
        },
        {
            "positions": [
                -0.21159582043289948,
                -0.5882250500269091,
                0.9379715807989639,
                1.5134400783124624,
                0.3304276345739614,
                0.31225353524908583
            ]
        },
        {
            "positions": [
                -0.16384469590488426,
                -0.6151445630771883,
                1.088372374935332,
                1.5706947863626122,
                0.26515520323193353,
                0.2697986219940216
            ]
        },
        {
            "positions": [
                -0.11609357137686915,
                -0.6420640761274676,
                1.2387731690716992,
                1.6279494944127617,
                0.19988277188990589,
                0.22734370873895737
            ]
        },
        {
            "positions": [
                -0.06834244684885404,
                -0.6689835891777467,
                1.3891739632080669,
                1.6852042024629112,
                0.13461034054787824,
                0.18488879548389325
            ]
        },
        {
            "positions": [
                -0.020591322320838934,
                -0.695903102228026,
                1.539574757344434,
                1.742458910513061,
                0.06933790920585059,
                0.14243388222882902
            ]
        },
        {
            "positions": [
                0.027159802207176398,
                -0.7228226152783053,
                1.6899755514808021,
                1.7997136185632108,
                0.00406547786382272,
                0.09997896897376468
            ]
        },
        {
            "positions": [
                0.07491092673519151,
                -0.7497421283285846,
                1.8403763456171693,
                1.8569683266133603,
                -0.06120695347820493,
                0.05752405571870067
            ]
        },
        {
            "positions": [
                0.12266205126320652,
                -0.7766616413788637,
                1.9907771397535372,
                1.9142230346635098,
                -0.1264793848202327,
                0.015069142463636402
            ]
        }
    ]
}