{
    "goal": {
        "global_pose": {
            "orientation": {
                "w": 0.7031023502349854,
                "x": -0.7110244035720825,
                "y": 0.007748599164187908,
                "z": 0.005598929710686207
            },
            "position": {
                "x": 0.11585023208521307,
                "y": 0.44412534475326537,
                "z": 0.3711530566215515
            }
        },
        "name": "move_to_auspresseinheit_A"
    },
    "id": "ProjEST_move_to_auspresseinheit_A_130",
    "joint_names": [
        "shoulder_pan_joint",
        "shoulder_lift_joint",
        "elbow_joint",
        "wrist_1_joint",
        "wrist_2_joint",
        "wrist_3_joint"
    ],
    "metrics": {
        "cart_traj_len": 2.0152241397902415,
        "distance_elbow_joint": 2.4441863496404097,
        "distance_shoulder_lift_joint": 0.8820735938779858,
        "distance_shoulder_pan_joint": 1.1365958485776617,
        "distance_wrist_1_joint": 2.532390520998094,
        "distance_wrist_2_joint": 2.1201040041937946,
        "distance_wrist_3_joint": 1.5872436261408054,
        "smoothness": 0.8133029545094689,
        "time": 0.6769179439999999,
        "traj_len": 3.271481918554457,
        "weighted_distance": 4.304599368222582
    },
    "planner": "ProjEST",
    "start": {
        "state": {
            "elbow_joint": 2.422574709923281,
            "shoulder_lift_joint": -1.3736533754116391,
            "shoulder_pan_joint": -0.33786336945926293,
            "wrist_1_joint": -1.0288603412921917,
            "wrist_2_joint": 1.2330224858903978,
            "wrist_3_joint": -3.094022268022082
        }
    },
    "waypoints": [
        {
            "positions": [
                -0.33786336945926293,
                -1.3736533754116391,
                2.422574709923281,
                -1.0288603412921917,
                1.2330224858903978,
                -3.094022268022082
            ]
        },
        {
            "positions": [
                -0.30207159573482484,
                -1.3796464936906387,
                2.3102755759095177,
                -0.9419930228570115,
                1.180123303407955,
                -3.0230515838545573
            ]
        },
        {
            "positions": [
                -0.2662798220103867,
                -1.3856396119696384,
                2.1979764418957544,
                -0.8551257044218312,
                1.1272241209255123,
                -2.9520808996870325
            ]
        },
        {
            "positions": [
                -0.2304880482859486,
                -1.3916327302486382,
                2.0856773078819915,
                -0.768258385986651,
                1.0743249384430695,
                -2.8811102155195076
            ]
        },
        {
            "positions": [
                -0.1946962745615105,
                -1.3976258485276378,
                1.9733781738682281,
                -0.6813910675514707,
                1.0214257559606268,
                -2.810139531351983
            ]
        },
        {
            "positions": [
                -0.1589045008370724,
                -1.4036189668066374,
                1.8610790398544648,
                -0.5945237491162905,
                0.968526573478184,
                -2.739168847184458
            ]
        },
        {
            "positions": [
                -0.1231127271126343,
                -1.409612085085637,
                1.7487799058407014,
                -0.5076564306811102,
                0.9156273909957413,
                -2.668198163016933
            ]
        },
        {
            "positions": [
                -0.08732095338819618,
                -1.4156052033646367,
                1.636480771826938,
                -0.42078911224592996,
                0.8627282085132986,
                -2.5972274788494083
            ]
        },
        {
            "positions": [
                -0.051529179663758085,
                -1.4215983216436363,
                1.524181637813175,
                -0.3339217938107497,
                0.8098290260308558,
                -2.5262567946818835
            ]
        },
        {
            "positions": [
                -0.015737405939319937,
                -1.4275914399226362,
                1.4118825037994116,
                -0.24705447537556946,
                0.7569298435484131,
                -2.4552861105143586
            ]
        },
        {
            "positions": [
                0.020054367785118155,
                -1.4335845582016358,
                1.2995833697856485,
                -0.1601871569403892,
                0.7040306610659703,
                -2.384315426346834
            ]
        },
        {
            "positions": [
                0.055846141509556246,
                -1.4395776764806354,
                1.1872842357718851,
                -0.07331983850520901,
                0.6511314785835276,
                -2.313344742179309
            ]
        },
        {
            "positions": [
                0.11604433706873482,
                -1.5039802670135811,
                1.2508544820985399,
                -0.014664086191420997,
                0.5773330373863762,
                -2.3628273725704636
            ]
        },
        {
            "positions": [
                0.1762425326279134,
                -1.5683828575465268,
                1.3144247284251949,
                0.04399166612236702,
                0.5035345961892248,
                -2.4123100029616182
            ]
        },
        {
            "positions": [
                0.23644072818709194,
                -1.6327854480794728,
                1.3779949747518496,
                0.10264741843615502,
                0.4297361549920734,
                -2.461792633352773
            ]
        },
        {
            "positions": [
                0.29663892374627054,
                -1.6971880386124185,
                1.4415652210785044,
                0.16130317074994305,
                0.35593771379492195,
                -2.5112752637439275
            ]
        },
        {
            "positions": [
                0.3568371193054491,
                -1.7615906291453642,
                1.5051354674051591,
                0.21995892306373105,
                0.28213927259777055,
                -2.560757894135082
            ]
        },
        {
            "positions": [
                0.41703531486462764,
                -1.82599321967831,
                1.5687057137318141,
                0.27861467537751905,
                0.20834083140061915,
                -2.6102405245262363
            ]
        },
        {
            "positions": [
                0.4772335104238062,
                -1.8903958102112557,
                1.6322759600584689,
                0.33727042769130705,
                0.1345423902034678,
                -2.659723154917391
            ]
        },
        {
            "positions": [
                0.5374317059829848,
                -1.9547984007442016,
                1.6958462063851236,
                0.3959261800050951,
                0.0607439490063163,
                -2.7092057853085456
            ]
        },
        {
            "positions": [
                0.5976299015421633,
                -2.019200991277147,
                1.7594164527117786,
                0.45458193231888316,
                -0.013054492190835099,
                -2.7586884156997002
            ]
        },
        {
            "positions": [
                0.6578280971013419,
                -2.083603581810093,
                1.8229866990384334,
                0.5132376846326712,
                -0.08685293338798647,
                -2.808171046090855
            ]
        },
        {
            "positions": [
                0.6766482579834443,
                -2.071714571651338,
                1.9087899604426446,
                0.41632534605725846,
                0.0016086729958633972,
                -2.8629017714725022
            ]
        },
        {
            "positions": [
                0.6954684188655467,
                -2.0598255614925827,
                1.994593221846856,
                0.31941300748184576,
                0.09007027937971326,
                -2.917632496854149
            ]
        },
        {
            "positions": [
                0.7142885797476491,
                -2.0479365513338275,
                2.0803964832510675,
                0.2225006689064331,
                0.17853188576356308,
                -2.9723632222357965
            ]
        },
        {
            "positions": [
                0.7331087406297515,
                -2.0360475411750723,
                2.1661997446552785,
                0.12558833033102035,
                0.26699349214741297,
                -3.0270939476174434
            ]
        },
        {
            "positions": [
                0.7519289015118539,
                -2.024158531016317,
                2.25200300605949,
                0.0286759917556077,
                0.3554550985312628,
                -3.081824672999091
            ]
        },
        {
            "positions": [
                0.7402280071102176,
                -1.9959889468448782,
                2.2880472823598423,
                -0.09775670879343423,
                0.4449352367803031,
                -3.0913462153686533
            ]
        },
        {
            "positions": [
                0.7285271127085813,
                -1.9678193626734393,
                2.3240915586601947,
                -0.22418940934247616,
                0.5344153750293434,
                -3.100867757738216
            ]
        },
        {
            "positions": [
                0.716826218306945,
                -1.9396497785020002,
                2.3601358349605466,
                -0.3506221098915181,
                0.6238955132783839,
                -3.1103893001077787
            ]
        },
        {
            "positions": [
                0.7051253239053088,
                -1.9114801943305613,
                2.396180111260899,
                -0.47705481044056,
                0.7133756515274242,
                -3.119910842477341
            ]
        }
    ]
}