{
    "goal": {
        "global_pose": {
            "orientation": {
                "w": 0.7031023502349854,
                "x": -0.7110244035720825,
                "y": 0.007748599164187908,
                "z": 0.005598929710686207
            },
            "position": {
                "x": 0.11585023208521307,
                "y": 0.44412534475326537,
                "z": 0.3711530566215515
            }
        },
        "name": "move_to_auspresseinheit_A"
    },
    "id": "ProjEST_move_to_auspresseinheit_A_95",
    "joint_names": [
        "shoulder_pan_joint",
        "shoulder_lift_joint",
        "elbow_joint",
        "wrist_1_joint",
        "wrist_2_joint",
        "wrist_3_joint"
    ],
    "metrics": {
        "cart_traj_len": 0.7110254405247441,
        "distance_elbow_joint": 0.2244591983267794,
        "distance_shoulder_lift_joint": 1.0881294853330457,
        "distance_shoulder_pan_joint": 1.0421455787773903,
        "distance_wrist_1_joint": 1.8660427618823026,
        "distance_wrist_2_joint": 0.5328958375717717,
        "distance_wrist_3_joint": 0.7068542438507732,
        "smoothness": 1.2419147944488425,
        "time": 0.09047522,
        "traj_len": 2.3367770766040272,
        "weighted_distance": 3.045188695778586
    },
    "planner": "ProjEST",
    "start": {
        "state": {
            "elbow_joint": 2.422574709923281,
            "shoulder_lift_joint": -1.3736533754116391,
            "shoulder_pan_joint": -0.33786336945926293,
            "wrist_1_joint": -1.0288603412921917,
            "wrist_2_joint": 1.2330224858903978,
            "wrist_3_joint": -3.094022268022082
        }
    },
    "waypoints": [
        {
            "positions": [
                -0.33786336945926293,
                -1.3736533754116391,
                2.422574709923281,
                -1.0288603412921917,
                1.2330224858903978,
                -3.094022268022082
            ]
        },
        {
            "positions": [
                -0.268902454484823,
                -1.4637709388079918,
                2.4334608986429584,
                -0.8940697176436732,
                1.2072434020712968,
                -3.0568684844467984
            ]
        },
        {
            "positions": [
                -0.19994153951038307,
                -1.5538885022043445,
                2.444347087362636,
                -0.7592790939951545,
                1.181464318252196,
                -3.019714700871515
            ]
        },
        {
            "positions": [
                -0.13098062453594317,
                -1.644006065600697,
                2.4552332760823132,
                -0.6244884703466358,
                1.155685234433095,
                -2.9825609172962313
            ]
        },
        {
            "positions": [
                -0.06201970956150321,
                -1.7341236289970499,
                2.4661194648019906,
                -0.4896978466981172,
                1.1299061506139942,
                -2.9454071337209475
            ]
        },
        {
            "positions": [
                0.006941205412936691,
                -1.8242411923934023,
                2.4770056535216685,
                -0.35490722304959843,
                1.1041270667948933,
                -2.908253350145664
            ]
        },
        {
            "positions": [
                0.07590212038737659,
                -1.914358755789755,
                2.487891842241346,
                -0.22011659940107986,
                1.0783479829757925,
                -2.8710995665703805
            ]
        },
        {
            "positions": [
                0.14486303536181655,
                -2.0044763191861077,
                2.4987780309610232,
                -0.08532597575256118,
                1.0525688991566915,
                -2.8339457829950967
            ]
        },
        {
            "positions": [
                0.2138239503362565,
                -2.09459388258246,
                2.5096642196807006,
                0.04946464789595728,
                1.0267898153375907,
                -2.7967919994198134
            ]
        },
        {
            "positions": [
                0.28278486531069646,
                -2.184711445978813,
                2.520550408400378,
                0.18425527154447613,
                1.0010107315184897,
                -2.7596382158445296
            ]
        },
        {
            "positions": [
                0.3530344226452683,
                -2.1385328768511678,
                2.4994698250920977,
                0.07543408003687034,
                0.9508633843185125,
                -2.8217165811233995
            ]
        },
        {
            "positions": [
                0.42328397997984013,
                -2.0923543077235225,
                2.4783892417838174,
                -0.03338711147073545,
                0.9007160371185352,
                -2.88379494640227
            ]
        },
        {
            "positions": [
                0.493533537314412,
                -2.046175738595877,
                2.4573086584755366,
                -0.14220830297834125,
                0.8505686899185578,
                -2.94587331168114
            ]
        },
        {
            "positions": [
                0.5637830946489839,
                -1.999997169468232,
                2.4362280751672563,
                -0.251029494485947,
                0.8004213427185807,
                -3.00795167696001
            ]
        },
        {
            "positions": [
                0.6340326519835557,
                -1.9538186003405866,
                2.415147491858976,
                -0.3598506859935529,
                0.7502739955186033,
                -3.07003004223888
            ]
        },
        {
            "positions": [
                0.7042822093181276,
                -1.9076400312129413,
                2.3940669085506956,
                -0.4686718775011586,
                0.700126648318626,
                -3.1321084075177503
            ]
        }
    ]
}