{
    "goal": {
        "global_pose": {
            "orientation": {
                "w": 0.7047431468963623,
                "x": -0.7094548344612122,
                "y": 0.0024358443915843964,
                "z": -0.0022348060738295317
            },
            "position": {
                "x": 0.6094750761985779,
                "y": 0.3671506643295288,
                "z": 0.19426114857196808
            }
        },
        "name": "move_to_magneteinheit_A"
    },
    "id": "ProjEST_move_to_magneteinheit_A_134",
    "joint_names": [
        "shoulder_pan_joint",
        "shoulder_lift_joint",
        "elbow_joint",
        "wrist_1_joint",
        "wrist_2_joint",
        "wrist_3_joint"
    ],
    "metrics": {
        "cart_traj_len": 2.590079646400598,
        "distance_elbow_joint": 3.886118953575058,
        "distance_shoulder_lift_joint": 1.060326924646328,
        "distance_shoulder_pan_joint": 3.1005377402706977,
        "distance_wrist_1_joint": 2.4428891216183644,
        "distance_wrist_2_joint": 2.9029311652044543,
        "distance_wrist_3_joint": 6.027869677036888,
        "smoothness": 0.2595076543482591,
        "time": 0.052772414000000004,
        "traj_len": 4.406889331756788,
        "weighted_distance": 6.068132597698273
    },
    "planner": "ProjEST",
    "start": {
        "state": {
            "elbow_joint": -1.919643507792019,
            "shoulder_lift_joint": -0.07675430207160344,
            "shoulder_pan_joint": -1.1188671864651873,
            "wrist_1_joint": 0.42560062535961957,
            "wrist_2_joint": 1.5706038300724876,
            "wrist_3_joint": 1.1188968870953055
        }
    },
    "waypoints": [
        {
            "positions": [
                -1.1188671864651873,
                -0.07675430207160344,
                -1.919643507792019,
                0.42560062535961957,
                1.5706038300724876,
                1.1188968870953055
            ]
        },
        {
            "positions": [
                -1.1677742507263424,
                -0.1321491010258103,
                -1.8227747806346632,
                0.4585452718717629,
                1.4561028856211091,
                1.1638116787469979
            ]
        },
        {
            "positions": [
                -1.2166813149874975,
                -0.18754389998001714,
                -1.7259060534773074,
                0.49148991838390627,
                1.3416019411697306,
                1.2087264703986902
            ]
        },
        {
            "positions": [
                -1.2655883792486524,
                -0.24293869893422396,
                -1.6290373263199516,
                0.5244345648960497,
                1.2271009967183522,
                1.2536412620503825
            ]
        },
        {
            "positions": [
                -1.3144954435098075,
                -0.2983334978884308,
                -1.5321685991625957,
                0.557379211408193,
                1.1126000522669737,
                1.2985560537020748
            ]
        },
        {
            "positions": [
                -1.3634025077709626,
                -0.3537282968426376,
                -1.4352998720052401,
                0.5903238579203364,
                0.9980991078155952,
                1.3434708453537672
            ]
        },
        {
            "positions": [
                -1.4123095720321177,
                -0.40912309579684447,
                -1.3384311448478843,
                0.6232685044324797,
                0.8835981633642167,
                1.3883856370054595
            ]
        },
        {
            "positions": [
                -1.4612166362932726,
                -0.4645178947510513,
                -1.2415624176905284,
                0.6562131509446231,
                0.7690972189128382,
                1.4333004286571516
            ]
        },
        {
            "positions": [
                -1.5101237005544277,
                -0.5199126937052582,
                -1.1446936905331726,
                0.6891577974567664,
                0.6545962744614597,
                1.4782152203088441
            ]
        },
        {
            "positions": [
                -1.5590307648155828,
                -0.575307492659465,
                -1.0478249633758168,
                0.7221024439689098,
                0.5400953300100813,
                1.5231300119605362
            ]
        },
        {
            "positions": [
                -1.6079378290767379,
                -0.6307022916136718,
                -0.9509562362184609,
                0.7550470904810531,
                0.42559438555870277,
                1.5680448036122285
            ]
        },
        {
            "positions": [
                -1.656844893337893,
                -0.6860970905678787,
                -0.8540875090611049,
                0.7879917369931965,
                0.3110934411073243,
                1.6129595952639209
            ]
        },
        {
            "positions": [
                -1.7057519575990479,
                -0.7414918895220854,
                -0.7572187819037492,
                0.8209363835053398,
                0.1965924966559458,
                1.6578743869156132
            ]
        },
        {
            "positions": [
                -1.7546590218602032,
                -0.7968866884762924,
                -0.6603500547463934,
                0.8538810300174833,
                0.08209155220456732,
                1.7027891785673055
            ]
        },
        {
            "positions": [
                -1.803566086121358,
                -0.8522814874304991,
                -0.5634813275890376,
                0.8868256765296265,
                -0.032409392246811164,
                1.7477039702189978
            ]
        },
        {
            "positions": [
                -1.8524731503825131,
                -0.9076762863847061,
                -0.46661260043168173,
                0.91977032304177,
                -0.14691033669818965,
                1.7926187618706901
            ]
        },
        {
            "positions": [
                -1.9013802146436682,
                -0.9630710853389128,
                -0.3697438732743259,
                0.9527149695539132,
                -0.26141128114956813,
                1.8375335535223825
            ]
        },
        {
            "positions": [
                -1.9502872789048231,
                -1.0184658842931198,
                -0.27287514611697006,
                0.9856596160660567,
                -0.3759122256009466,
                1.8824483451740748
            ]
        },
        {
            "positions": [
                -1.9991943431659782,
                -1.0738606832473265,
                -0.17600641895961422,
                1.0186042625782,
                -0.4904131700523251,
                1.927363136825767
            ]
        },
        {
            "positions": [
                -2.0481014074271333,
                -1.1292554822015335,
                -0.07913769180225833,
                1.0515489090903434,
                -0.6049141145037035,
                1.9722779284774594
            ]
        },
        {
            "positions": [
                -1.9780593584171735,
                -1.1295079255730303,
                -0.013150171234990654,
                0.9929379143197743,
                -0.5814491719027917,
                1.8053589402305326
            ]
        },
        {
            "positions": [
                -1.908017309407214,
                -1.1297603689445268,
                0.05283734933227702,
                0.9343269195492052,
                -0.55798422930188,
                1.6384399519836057
            ]
        },
        {
            "positions": [
                -1.8379752603972541,
                -1.1300128123160236,
                0.11882486989954469,
                0.8757159247786361,
                -0.5345192867009682,
                1.4715209637366788
            ]
        },
        {
            "positions": [
                -1.7679332113872943,
                -1.1302652556875203,
                0.18481239046681236,
                0.8171049300080672,
                -0.5110543441000563,
                1.3046019754897518
            ]
        },
        {
            "positions": [
                -1.6978911623773345,
                -1.1305176990590171,
                0.25079991103408,
                0.7584939352374981,
                -0.48758940149914465,
                1.137682987242825
            ]
        },
        {
            "positions": [
                -1.627849113367375,
                -1.1307701424305137,
                0.3167874316013477,
                0.699882940466929,
                -0.46412445889823284,
                0.970763998995898
            ]
        },
        {
            "positions": [
                -1.5578070643574151,
                -1.1310225858020104,
                0.38277495216861535,
                0.64127194569636,
                -0.4406595162973211,
                0.803845010748971
            ]
        },
        {
            "positions": [
                -1.4877650153474553,
                -1.1312750291735072,
                0.44876247273588304,
                0.582660950925791,
                -0.41719457369640933,
                0.6369260225020441
            ]
        },
        {
            "positions": [
                -1.4177229663374957,
                -1.131527472545004,
                0.5147499933031507,
                0.5240499561552218,
                -0.3937296310954975,
                0.47000703425511703
            ]
        },
        {
            "positions": [
                -1.347680917327536,
                -1.1317799159165005,
                0.5807375138704183,
                0.4654389613846528,
                -0.37026468849458577,
                0.3030880460081904
            ]
        },
        {
            "positions": [
                -1.2776388683175761,
                -1.1320323592879973,
                0.646725034437686,
                0.4068279666140837,
                -0.346799745893674,
                0.1361690577612633
            ]
        },
        {
            "positions": [
                -1.2075968193076165,
                -1.132284802659494,
                0.7127125550049538,
                0.34821697184351463,
                -0.32333480329276226,
                -0.030749930485663324
            ]
        },
        {
            "positions": [
                -1.1375547702976565,
                -1.1325372460309908,
                0.7787000755722213,
                0.28960597707294555,
                -0.29986986069185045,
                -0.19766891873259063
            ]
        },
        {
            "positions": [
                -1.067512721287697,
                -1.1327896894024874,
                0.8446875961394891,
                0.23099498230237658,
                -0.2764049180909387,
                -0.3645879069795175
            ]
        },
        {
            "positions": [
                -0.9974706722777371,
                -1.1330421327739841,
                0.9106751167067568,
                0.1723839875318075,
                -0.2529399754900269,
                -0.5315068952264443
            ]
        },
        {
            "positions": [
                -0.9274286232677775,
                -1.133294576145481,
                0.9766626372740244,
                0.11377299276123842,
                -0.2294750328891152,
                -0.6984258834733712
            ]
        },
        {
            "positions": [
                -0.8573865742578177,
                -1.1335470195169777,
                1.042650157841292,
                0.055161997990669454,
                -0.20601009028820344,
                -0.8653448717202981
            ]
        },
        {
            "positions": [
                -0.7873445252478579,
                -1.1337994628884742,
                1.1086376784085596,
                -0.003448996779899849,
                -0.18254514768729158,
                -1.0322638599672254
            ]
        },
        {
            "positions": [
                -0.7173024762378981,
                -1.134051906259971,
                1.1746251989758274,
                -0.06205999155046871,
                -0.15908020508637982,
                -1.1991828482141522
            ]
        },
        {
            "positions": [
                -0.6472604272279385,
                -1.1343043496314678,
                1.240612719543095,
                -0.12067098632103779,
                -0.13561526248546807,
                -1.3661018364610786
            ]
        },
        {
            "positions": [
                -0.577218378217979,
                -1.1345567930029645,
                1.3066002401103625,
                -0.17928198109160687,
                -0.11215031988455637,
                -1.5330208247080055
            ]
        },
        {
            "positions": [
                -0.5071763292080189,
                -1.134809236374461,
                1.3725877606776304,
                -0.23789297586217595,
                -0.08868537728364456,
                -1.6999398129549328
            ]
        },
        {
            "positions": [
                -0.43713428019805933,
                -1.1350616797459578,
                1.438575281244898,
                -0.29650397063274503,
                -0.06522043468273275,
                -1.8668588012018597
            ]
        },
        {
            "positions": [
                -0.3670922311880995,
                -1.1353141231174546,
                1.5045628018121657,
                -0.3551149654033141,
                -0.041755492081821055,
                -2.033777789448786
            ]
        },
        {
            "positions": [
                -0.29705018217813994,
                -1.1355665664889514,
                1.5705503223794333,
                -0.41372596017388297,
                -0.018290549480909246,
                -2.200696777695713
            ]
        },
        {
            "positions": [
                -0.22700813316817992,
                -1.135819009860448,
                1.636537842946701,
                -0.47233695494445227,
                0.005174393120002563,
                -2.3676157659426407
            ]
        },
        {
            "positions": [
                -0.15696608415822033,
                -1.1360714532319447,
                1.7025253635139688,
                -0.5309479497150211,
                0.02863933572091426,
                -2.5345347541895675
            ]
        },
        {
            "positions": [
                -0.08692403514826053,
                -1.1363238966034415,
                1.7685128840812363,
                -0.5895589444855902,
                0.05210427832182607,
                -2.7014537424364944
            ]
        },
        {
            "positions": [
                -0.016881986138300942,
                -1.1365763399749382,
                1.8345004046485038,
                -0.6481699392561593,
                0.07556922092273777,
                -2.8683727306834212
            ]
        },
        {
            "positions": [
                0.053160062871659086,
                -1.1368287833464348,
                1.9004879252157718,
                -0.7067809340267284,
                0.09903416352364969,
                -3.035291718930348
            ]
        },
        {
            "positions": [
                0.12320211188161863,
                -1.1370812267179315,
                1.9664754457830396,
                -0.7653919287972973,
                0.12249910612456137,
                -3.2022107071772745
            ]
        }
    ]
}