{
    "goal": {
        "global_pose": {
            "orientation": {
                "w": 0.7031023502349854,
                "x": -0.7110244035720825,
                "y": 0.007748599164187908,
                "z": 0.005598929710686207
            },
            "position": {
                "x": 0.11585023208521307,
                "y": 0.44412534475326537,
                "z": 0.3711530566215515
            }
        },
        "name": "move_to_auspresseinheit_A"
    },
    "id": "ProjEST_move_to_auspresseinheit_A_84",
    "joint_names": [
        "shoulder_pan_joint",
        "shoulder_lift_joint",
        "elbow_joint",
        "wrist_1_joint",
        "wrist_2_joint",
        "wrist_3_joint"
    ],
    "metrics": {
        "cart_traj_len": 1.4427533557307828,
        "distance_elbow_joint": 0.4275608871811163,
        "distance_shoulder_lift_joint": 1.2868141372312705,
        "distance_shoulder_pan_joint": 1.4088557492346103,
        "distance_wrist_1_joint": 5.839208976597618,
        "distance_wrist_2_joint": 4.694398946250452,
        "distance_wrist_3_joint": 1.6608384624356924,
        "smoothness": 0.7907986717849772,
        "time": 0.249466631,
        "traj_len": 3.9137804178224873,
        "weighted_distance": 5.401200052455955
    },
    "planner": "ProjEST",
    "start": {
        "state": {
            "elbow_joint": 2.422574709923281,
            "shoulder_lift_joint": -1.3736533754116391,
            "shoulder_pan_joint": -0.33786336945926293,
            "wrist_1_joint": -1.0288603412921917,
            "wrist_2_joint": 1.2330224858903978,
            "wrist_3_joint": -3.094022268022082
        }
    },
    "waypoints": [
        {
            "positions": [
                -0.33786336945926293,
                -1.3736533754116391,
                2.422574709923281,
                -1.0288603412921917,
                1.2330224858903978,
                -3.094022268022082
            ]
        },
        {
            "positions": [
                -0.346578804332312,
                -1.417031723917406,
                2.4117411769568657,
                -0.8768398053667497,
                1.1085184402174977,
                -3.055062672044992
            ]
        },
        {
            "positions": [
                -0.355294239205361,
                -1.4604100724231728,
                2.4009076439904504,
                -0.7248192694413076,
                0.9840143945445975,
                -3.0161030760679015
            ]
        },
        {
            "positions": [
                -0.36400967407841006,
                -1.5037884209289394,
                2.390074111024035,
                -0.5727987335158655,
                0.8595103488716974,
                -2.9771434800908114
            ]
        },
        {
            "positions": [
                -0.3727251089514591,
                -1.5471667694347062,
                2.37924057805762,
                -0.42077819759042345,
                0.7350063031987972,
                -2.9381838841137213
            ]
        },
        {
            "positions": [
                -0.38144054382450815,
                -1.590545117940473,
                2.3684070450912045,
                -0.2687576616649813,
                0.6105022575258972,
                -2.8992242881366312
            ]
        },
        {
            "positions": [
                -0.3901559786975572,
                -1.6339234664462396,
                2.3575735121247896,
                -0.1167371257395392,
                0.4859982118529971,
                -2.8602646921595407
            ]
        },
        {
            "positions": [
                -0.39887141357060624,
                -1.6773018149520065,
                2.3467399791583743,
                0.03528341018590275,
                0.361494166180097,
                -2.8213050961824506
            ]
        },
        {
            "positions": [
                -0.4075868484436552,
                -1.7206801634577733,
                2.335906446191959,
                0.18730394611134482,
                0.2369901205071968,
                -2.7823455002053605
            ]
        },
        {
            "positions": [
                -0.41630228331670427,
                -1.7640585119635401,
                2.3250729132255437,
                0.3393244820367871,
                0.11248607483429685,
                -2.74338590422827
            ]
        },
        {
            "positions": [
                -0.4250177181897533,
                -1.807436860469307,
                2.3142393802591283,
                0.4913450179622292,
                -0.012017970838603453,
                -2.70442630825118
            ]
        },
        {
            "positions": [
                -0.43373315306280236,
                -1.8508152089750736,
                2.303405847292713,
                0.6433655538876712,
                -0.13652201651150353,
                -2.66546671227409
            ]
        },
        {
            "positions": [
                -0.4424485879358514,
                -1.8941935574808404,
                2.2925723143262977,
                0.7953860898131133,
                -0.2610260621844036,
                -2.6265071162969997
            ]
        },
        {
            "positions": [
                -0.45116402280890044,
                -1.9375719059866072,
                2.2817387813598824,
                0.9474066257385556,
                -0.3855301078573039,
                -2.587547520319909
            ]
        },
        {
            "positions": [
                -0.4598794576819495,
                -1.9809502544923738,
                2.270905248393467,
                1.0994271616639972,
                -0.5100341535302038,
                -2.548587924342819
            ]
        },
        {
            "positions": [
                -0.46859489255499853,
                -2.024328602998141,
                2.2600717154270518,
                1.2514476975894397,
                -0.6345381992031041,
                -2.509628328365729
            ]
        },
        {
            "positions": [
                -0.4773103274280476,
                -2.0677069515039075,
                2.249238182460637,
                1.4034682335148814,
                -0.7590422448760041,
                -2.4706687323886385
            ]
        },
        {
            "positions": [
                -0.4860257623010966,
                -2.111085300009674,
                2.2384046494942216,
                1.5554887694403239,
                -0.8835462905489044,
                -2.4317091364115484
            ]
        },
        {
            "positions": [
                -0.49474119717414566,
                -2.154463648515441,
                2.2275711165278063,
                1.707509305365766,
                -1.008050336221804,
                -2.3927495404344583
            ]
        },
        {
            "positions": [
                -0.5034566320471947,
                -2.1978419970212077,
                2.216737583561391,
                1.859529841291208,
                -1.1325543818947046,
                -2.3537899444573682
            ]
        },
        {
            "positions": [
                -0.5121720669202438,
                -2.2412203455269744,
                2.2059040505949756,
                2.01155037721665,
                -1.2570584275676047,
                -2.314830348480278
            ]
        },
        {
            "positions": [
                -0.5208875017932928,
                -2.2845986940327414,
                2.1950705176285603,
                2.163570913142092,
                -1.3815624732405047,
                -2.2758707525031876
            ]
        },
        {
            "positions": [
                -0.4563700482722096,
                -2.264816124632206,
                2.205599817359423,
                2.0242668225019167,
                -1.272098579181581,
                -2.3202226970777557
            ]
        },
        {
            "positions": [
                -0.39185259475112644,
                -2.245033555231671,
                2.2161291170902864,
                1.884962731861741,
                -1.1626346851226574,
                -2.3645746416523243
            ]
        },
        {
            "positions": [
                -0.32733514123004326,
                -2.225250985831136,
                2.226658416821149,
                1.7456586412215653,
                -1.0531707910637338,
                -2.4089265862268925
            ]
        },
        {
            "positions": [
                -0.26281768770896013,
                -2.205468416430601,
                2.237187716552012,
                1.6063545505813899,
                -0.9437068970048103,
                -2.4532785308014606
            ]
        },
        {
            "positions": [
                -0.19830023418787696,
                -2.1856858470300655,
                2.247717016282875,
                1.4670504599412142,
                -0.8342430029458866,
                -2.4976304753760292
            ]
        },
        {
            "positions": [
                -0.13378278066679378,
                -2.1659032776295306,
                2.258246316013738,
                1.3277463693010385,
                -0.7247791088869631,
                -2.5419824199505974
            ]
        },
        {
            "positions": [
                -0.0692653271457106,
                -2.1461207082289953,
                2.268775615744601,
                1.188442278660863,
                -0.6153152148280394,
                -2.5863343645251655
            ]
        },
        {
            "positions": [
                -0.004747873624627474,
                -2.12633813882846,
                2.2793049154754637,
                1.0491381880206874,
                -0.5058513207691158,
                -2.630686309099734
            ]
        },
        {
            "positions": [
                0.059769579896455705,
                -2.106555569427925,
                2.2898342152063265,
                0.9098340973805119,
                -0.3963874267101921,
                -2.6750382536743023
            ]
        },
        {
            "positions": [
                0.12428703341753888,
                -2.0867730000273896,
                2.3003635149371897,
                0.7705300067403362,
                -0.28692353265126846,
                -2.719390198248871
            ]
        },
        {
            "positions": [
                0.18880448693862217,
                -2.0669904306268547,
                2.3108928146680525,
                0.6312259161001605,
                -0.17745963859234481,
                -2.763742142823439
            ]
        },
        {
            "positions": [
                0.25332194045970524,
                -2.0472078612263194,
                2.3214221143989153,
                0.4919218254599851,
                -0.06799574453342139,
                -2.808094087398007
            ]
        },
        {
            "positions": [
                0.31783939398078853,
                -2.027425291825784,
                2.331951414129778,
                0.3526177348198094,
                0.041468149525502485,
                -2.8524460319725757
            ]
        },
        {
            "positions": [
                0.3823568475018716,
                -2.007642722425249,
                2.3424807138606414,
                0.21331364417963394,
                0.1509320435844259,
                -2.896797976547144
            ]
        },
        {
            "positions": [
                0.4468743010229548,
                -1.9878601530247137,
                2.353010013591504,
                0.07400955353945804,
                0.2603959376433498,
                -2.9411499211217125
            ]
        },
        {
            "positions": [
                0.5113917545440378,
                -1.9680775836241788,
                2.363539313322367,
                -0.06529453710071742,
                0.3698598317022732,
                -2.9855018656962806
            ]
        },
        {
            "positions": [
                0.5759092080651211,
                -1.9482950142236435,
                2.37406861305323,
                -0.20459862774089288,
                0.47932372576119686,
                -3.0298538102708488
            ]
        },
        {
            "positions": [
                0.6404266615862042,
                -1.9285124448231084,
                2.384597912784093,
                -0.34390271838106834,
                0.5887876198201205,
                -3.0742057548454174
            ]
        },
        {
            "positions": [
                0.7049441151072876,
                -1.9087298754225732,
                2.395127212514956,
                -0.4832068090212442,
                0.698251513879044,
                -3.1185576994199855
            ]
        }
    ]
}