{
    "goal": {
        "global_pose": {
            "orientation": {
                "w": 0.7047431468963623,
                "x": -0.7094548344612122,
                "y": 0.0024358443915843964,
                "z": -0.0022348060738295317
            },
            "position": {
                "x": 0.6094750761985779,
                "y": 0.3671506643295288,
                "z": 0.19426114857196808
            }
        },
        "name": "move_to_magneteinheit_A"
    },
    "id": "ProjEST_move_to_magneteinheit_A_100",
    "joint_names": [
        "shoulder_pan_joint",
        "shoulder_lift_joint",
        "elbow_joint",
        "wrist_1_joint",
        "wrist_2_joint",
        "wrist_3_joint"
    ],
    "metrics": {
        "cart_traj_len": 1.876033726702872,
        "distance_elbow_joint": 3.9153341185633046,
        "distance_shoulder_lift_joint": 0.702062181444344,
        "distance_shoulder_pan_joint": 1.2411522287079026,
        "distance_wrist_1_joint": 1.513166806446814,
        "distance_wrist_2_joint": 1.6909641909842297,
        "distance_wrist_3_joint": 1.1272487415440746,
        "smoothness": 3.289549710083688e-16,
        "time": 0.149456431,
        "traj_len": 3.192166704245044,
        "weighted_distance": 3.9558256721207847
    },
    "planner": "ProjEST",
    "start": {
        "state": {
            "elbow_joint": -1.919643507792019,
            "shoulder_lift_joint": -0.07675430207160344,
            "shoulder_pan_joint": -1.1188671864651873,
            "wrist_1_joint": 0.42560062535961957,
            "wrist_2_joint": 1.5706038300724876,
            "wrist_3_joint": 1.1188968870953055
        }
    },
    "waypoints": [
        {
            "positions": [
                -1.1188671864651873,
                -0.07675430207160344,
                -1.919643507792019,
                0.42560062535961957,
                1.5706038300724876,
                1.1188968870953055
            ]
        },
        {
            "positions": [
                -1.071130562284114,
                -0.10375669366561667,
                -1.7690537340011228,
                0.48379934868449703,
                1.5055667458038633,
                1.0755411662666874
            ]
        },
        {
            "positions": [
                -1.023393938103041,
                -0.1307590852596299,
                -1.6184639602102264,
                0.5419980720093744,
                1.4405296615352392,
                1.032185445438069
            ]
        },
        {
            "positions": [
                -0.9756573139219678,
                -0.15776147685364314,
                -1.46787418641933,
                0.600196795334252,
                1.375492577266615,
                0.9888297246094508
            ]
        },
        {
            "positions": [
                -0.9279206897408946,
                -0.18476386844765635,
                -1.3172844126284338,
                0.6583955186591295,
                1.3104554929979908,
                0.9454740037808325
            ]
        },
        {
            "positions": [
                -0.8801840655598214,
                -0.2117662600416696,
                -1.1666946388375374,
                0.7165942419840069,
                1.2454184087293665,
                0.9021182829522143
            ]
        },
        {
            "positions": [
                -0.8324474413787483,
                -0.23876865163568284,
                -1.016104865046641,
                0.7747929653088843,
                1.1803813244607424,
                0.858762562123596
            ]
        },
        {
            "positions": [
                -0.7847108171976751,
                -0.265771043229696,
                -0.8655150912557448,
                0.8329916886337618,
                1.115344240192118,
                0.8154068412949778
            ]
        },
        {
            "positions": [
                -0.7369741930166018,
                -0.2927734348237093,
                -0.7149253174648484,
                0.8911904119586394,
                1.0503071559234938,
                0.7720511204663595
            ]
        },
        {
            "positions": [
                -0.6892375688355288,
                -0.3197758264177225,
                -0.5643355436739521,
                0.9493891352835166,
                0.9852700716548697,
                0.7286953996377412
            ]
        },
        {
            "positions": [
                -0.6415009446544555,
                -0.34677821801173575,
                -0.4137457698830558,
                1.0075878586083942,
                0.9202329873862454,
                0.685339678809123
            ]
        },
        {
            "positions": [
                -0.5937643204733823,
                -0.37378060960574894,
                -0.26315599609215945,
                1.0657865819332717,
                0.8551959031176212,
                0.6419839579805047
            ]
        },
        {
            "positions": [
                -0.5460276962923092,
                -0.40078300119976223,
                -0.11256622230126312,
                1.1239853052581492,
                0.790158818848997,
                0.5986282371518865
            ]
        },
        {
            "positions": [
                -0.498291072111236,
                -0.4277853927937754,
                0.03802355148963321,
                1.1821840285830265,
                0.7251217345803728,
                0.5552725163232682
            ]
        },
        {
            "positions": [
                -0.45055444793016286,
                -0.4547877843877886,
                0.18861332528052954,
                1.240382751907904,
                0.6600846503117486,
                0.51191679549465
            ]
        },
        {
            "positions": [
                -0.4028178237490897,
                -0.48179017598180185,
                0.3392030990714259,
                1.2985814752327813,
                0.5950475660431244,
                0.4685610746660318
            ]
        },
        {
            "positions": [
                -0.3550811995680164,
                -0.5087925675758151,
                0.4897928728623222,
                1.356780198557659,
                0.5300104817745002,
                0.4252053538374134
            ]
        },
        {
            "positions": [
                -0.30734457538694326,
                -0.5357949591698283,
                0.6403826466532185,
                1.4149789218825364,
                0.46497339750587585,
                0.38184963300879526
            ]
        },
        {
            "positions": [
                -0.2596079512058701,
                -0.5627973507638415,
                0.7909724204441149,
                1.473177645207414,
                0.39993631323725176,
                0.338493912180177
            ]
        },
        {
            "positions": [
                -0.21187132702479705,
                -0.5897997423578547,
                0.9415621942350112,
                1.5313763685322914,
                0.33489922896862745,
                0.2951381913515587
            ]
        },
        {
            "positions": [
                -0.16413470284372367,
                -0.6168021339518681,
                1.0921519680259075,
                1.589575091857169,
                0.26986214470000314,
                0.25178247052294045
            ]
        },
        {
            "positions": [
                -0.11639807866265062,
                -0.6438045255458813,
                1.2427417418168039,
                1.6477738151820462,
                0.20482506043137905,
                0.20842674969432218
            ]
        },
        {
            "positions": [
                -0.06866145448157734,
                -0.6708069171398945,
                1.3933315156077002,
                1.7059725385069238,
                0.13978797616275473,
                0.1650710288657039
            ]
        },
        {
            "positions": [
                -0.020924830300504293,
                -0.6978093087339077,
                1.5439212893985965,
                1.7641712618318013,
                0.07475089189413064,
                0.12171530803708575
            ]
        },
        {
            "positions": [
                0.02681179388056898,
                -0.7248117003279211,
                1.6945110631894928,
                1.8223699851566788,
                0.009713807625506332,
                0.07835958720846747
            ]
        },
        {
            "positions": [
                0.07454841806164225,
                -0.7518140919219343,
                1.8451008369803892,
                1.880568708481556,
                -0.05532327664311798,
                0.03500386637984909
            ]
        },
        {
            "positions": [
                0.1222850422427153,
                -0.7788164835159475,
                1.9956906107712857,
                1.9387674318064336,
                -0.120360360911742,
                -0.008351854448768974
            ]
        }
    ]
}