{
    "goal": {
        "global_pose": {
            "orientation": {
                "w": 0.7047431468963623,
                "x": -0.7094548344612122,
                "y": 0.0024358443915843964,
                "z": -0.0022348060738295317
            },
            "position": {
                "x": 0.6094750761985779,
                "y": 0.3671506643295288,
                "z": 0.19426114857196808
            }
        },
        "name": "move_to_magneteinheit_A"
    },
    "id": "ProjEST_move_to_magneteinheit_A_36",
    "joint_names": [
        "shoulder_pan_joint",
        "shoulder_lift_joint",
        "elbow_joint",
        "wrist_1_joint",
        "wrist_2_joint",
        "wrist_3_joint"
    ],
    "metrics": {
        "cart_traj_len": 2.4586205450651044,
        "distance_elbow_joint": 3.8764716539221786,
        "distance_shoulder_lift_joint": 1.2949889924965667,
        "distance_shoulder_pan_joint": 2.1456918177609694,
        "distance_wrist_1_joint": 1.1319263140885811,
        "distance_wrist_2_joint": 1.437425007456355,
        "distance_wrist_3_joint": 4.373975548952886,
        "smoothness": 0.07901597207548108,
        "time": 0.132292397,
        "traj_len": 3.7763049843302556,
        "weighted_distance": 5.0574481464596595
    },
    "planner": "ProjEST",
    "start": {
        "state": {
            "elbow_joint": -1.919643507792019,
            "shoulder_lift_joint": -0.07675430207160344,
            "shoulder_pan_joint": -1.1188671864651873,
            "wrist_1_joint": 0.42560062535961957,
            "wrist_2_joint": 1.5706038300724876,
            "wrist_3_joint": 1.1188968870953055
        }
    },
    "waypoints": [
        {
            "positions": [
                -1.1188671864651873,
                -0.07675430207160344,
                -1.919643507792019,
                0.42560062535961957,
                1.5706038300724876,
                1.1188968870953055
            ]
        },
        {
            "positions": [
                -1.1490311646096993,
                -0.15505828213063771,
                -1.8210323448551375,
                0.40992332838522677,
                1.4770959831869257,
                1.0472375246082688
            ]
        },
        {
            "positions": [
                -1.1791951427542113,
                -0.23336226218967196,
                -1.722421181918256,
                0.394246031410834,
                1.3835881363013638,
                0.9755781621212319
            ]
        },
        {
            "positions": [
                -1.2093591208987233,
                -0.31166624224870626,
                -1.6238100189813744,
                0.3785687344364411,
                1.2900802894158017,
                0.9039187996341952
            ]
        },
        {
            "positions": [
                -1.2395230990432353,
                -0.3899702223077405,
                -1.5251988560444931,
                0.3628914374620483,
                1.1965724425302398,
                0.8322594371471583
            ]
        },
        {
            "positions": [
                -1.2696870771877473,
                -0.46827420236677475,
                -1.4265876931076116,
                0.34721414048765553,
                1.1030645956446778,
                0.7606000746601216
            ]
        },
        {
            "positions": [
                -1.2998510553322593,
                -0.5465781824258091,
                -1.32797653017073,
                0.33153684351326274,
                1.009556748759116,
                0.6889407121730848
            ]
        },
        {
            "positions": [
                -1.3300150334767713,
                -0.6248821624848433,
                -1.2293653672338487,
                0.31585954653886994,
                0.9160489018735539,
                0.617281349686048
            ]
        },
        {
            "positions": [
                -1.3601790116212833,
                -0.7031861425438775,
                -1.130754204296967,
                0.30018224956447714,
                0.822541054987992,
                0.5456219871990112
            ]
        },
        {
            "positions": [
                -1.3903429897657953,
                -0.7814901226029118,
                -1.0321430413600856,
                0.28450495259008435,
                0.7290332081024301,
                0.4739626247119745
            ]
        },
        {
            "positions": [
                -1.4205069679103073,
                -0.859794102661946,
                -0.9335318784232041,
                0.2688276556156915,
                0.6355253612168681,
                0.4023032622249376
            ]
        },
        {
            "positions": [
                -1.4506709460548193,
                -0.9380980827209804,
                -0.8349207154863227,
                0.2531503586412987,
                0.5420175143313062,
                0.33064389973790087
            ]
        },
        {
            "positions": [
                -1.4808349241993313,
                -1.0164020627800148,
                -0.736309552549441,
                0.23747306166690588,
                0.44850966744574405,
                0.258984537250864
            ]
        },
        {
            "positions": [
                -1.5109989023438433,
                -1.094706042839049,
                -0.6376983896125594,
                0.22179576469251308,
                0.35500182056018215,
                0.18732517476382726
            ]
        },
        {
            "positions": [
                -1.5411628804883553,
                -1.1730100228980833,
                -0.5390872266756781,
                0.20611846771812026,
                0.26149397367462024,
                0.1156658122767904
            ]
        },
        {
            "positions": [
                -1.5713268586328673,
                -1.2513140029571175,
                -0.4404760637387965,
                0.19044117074372746,
                0.16798612678905833,
                0.04400644978975374
            ]
        },
        {
            "positions": [
                -1.4943617611058995,
                -1.245839944247524,
                -0.3315076905629349,
                0.14967904076769614,
                0.16640397659937994,
                -0.10595196437603421
            ]
        },
        {
            "positions": [
                -1.417396663578932,
                -1.240365885537931,
                -0.2225393173870733,
                0.10891691079166481,
                0.16482182640970153,
                -0.2559103785418222
            ]
        },
        {
            "positions": [
                -1.3404315660519641,
                -1.2348918268283375,
                -0.11357094421121172,
                0.0681547808156335,
                0.16323967622002314,
                -0.40586879270761
            ]
        },
        {
            "positions": [
                -1.2634664685249963,
                -1.2294177681187441,
                -0.0046025710353501115,
                0.027392650839602156,
                0.16165752603034472,
                -0.555827206873398
            ]
        },
        {
            "positions": [
                -1.1865013709980288,
                -1.223943709409151,
                0.10436580214051144,
                -0.013369479136429135,
                0.16007537584066633,
                -0.705785621039186
            ]
        },
        {
            "positions": [
                -1.1095362734710612,
                -1.2184696506995576,
                0.21333417531637305,
                -0.054131609112460455,
                0.15849322565098795,
                -0.8557440352049738
            ]
        },
        {
            "positions": [
                -1.0325711759440934,
                -1.2129955919899644,
                0.32230254849223466,
                -0.0948937390884918,
                0.15691107546130953,
                -1.005702449370762
            ]
        },
        {
            "positions": [
                -0.9556060784171256,
                -1.207521533280371,
                0.4312709216680963,
                -0.13565586906452315,
                0.15532892527163114,
                -1.15566086353655
            ]
        },
        {
            "positions": [
                -0.878640980890158,
                -1.2020474745707777,
                0.540239294843958,
                -0.17641799904055444,
                0.15374677508195272,
                -1.3056192777023379
            ]
        },
        {
            "positions": [
                -0.8016758833631903,
                -1.1965734158611845,
                0.6492076680198193,
                -0.21718012901658573,
                0.15216462489227434,
                -1.4555776918681258
            ]
        },
        {
            "positions": [
                -0.7247107858362226,
                -1.191099357151591,
                0.758176041195681,
                -0.2579422589926171,
                0.15058247470259595,
                -1.6055361060339137
            ]
        },
        {
            "positions": [
                -0.6477456883092549,
                -1.1856252984419977,
                0.8671444143715425,
                -0.29870438896864837,
                0.14900032451291753,
                -1.7554945201997014
            ]
        },
        {
            "positions": [
                -0.5707805907822872,
                -1.1801512397324045,
                0.9761127875474043,
                -0.3394665189446797,
                0.14741817432323914,
                -1.9054529343654898
            ]
        },
        {
            "positions": [
                -0.4938154932553196,
                -1.1746771810228112,
                1.0850811607232658,
                -0.38022864892071107,
                0.14583602413356073,
                -2.0554113485312775
            ]
        },
        {
            "positions": [
                -0.41685039572835203,
                -1.1692031223132178,
                1.1940495338991273,
                -0.4209907788967423,
                0.14425387394388234,
                -2.205369762697065
            ]
        },
        {
            "positions": [
                -0.339885298201384,
                -1.1637290636036246,
                1.303017907074989,
                -0.46175290887277376,
                0.14267172375420392,
                -2.3553281768628533
            ]
        },
        {
            "positions": [
                -0.26292020067441646,
                -1.1582550048940312,
                1.4119862802508507,
                -0.502515038848805,
                0.14108957356452553,
                -2.505286591028641
            ]
        },
        {
            "positions": [
                -0.18595510314744867,
                -1.1527809461844378,
                1.5209546534267124,
                -0.5432771688248363,
                0.13950742337484714,
                -2.655245005194429
            ]
        },
        {
            "positions": [
                -0.10899000562048111,
                -1.1473068874748447,
                1.629923026602574,
                -0.5840392988008677,
                0.13792527318516873,
                -2.805203419360217
            ]
        },
        {
            "positions": [
                -0.03202490809351333,
                -1.1418328287652513,
                1.7388913997784352,
                -0.6248014287768989,
                0.13634312299549034,
                -2.955161833526005
            ]
        },
        {
            "positions": [
                0.04494018943345446,
                -1.136358770055658,
                1.847859772954297,
                -0.6655635587529304,
                0.13476097280581192,
                -3.105120247691793
            ]
        },
        {
            "positions": [
                0.12190528696042197,
                -1.1308847113460647,
                1.9568281461301587,
                -0.7063256887289616,
                0.13317882261613354,
                -3.255078661857581
            ]
        }
    ]
}