{
    "goal": {
        "global_pose": {
            "orientation": {
                "w": 0.7031023502349854,
                "x": -0.7110244035720825,
                "y": 0.007748599164187908,
                "z": 0.005598929710686207
            },
            "position": {
                "x": 0.11585023208521307,
                "y": 0.44412534475326537,
                "z": 0.3711530566215515
            }
        },
        "name": "move_to_auspresseinheit_A"
    },
    "id": "ProjEST_move_to_auspresseinheit_A_88",
    "joint_names": [
        "shoulder_pan_joint",
        "shoulder_lift_joint",
        "elbow_joint",
        "wrist_1_joint",
        "wrist_2_joint",
        "wrist_3_joint"
    ],
    "metrics": {
        "cart_traj_len": 0.7821676360656019,
        "distance_elbow_joint": 0.26048327159865226,
        "distance_shoulder_lift_joint": 1.3531941827330716,
        "distance_shoulder_pan_joint": 1.0469593508015156,
        "distance_wrist_1_joint": 0.5651789425474935,
        "distance_wrist_2_joint": 1.543269700484914,
        "distance_wrist_3_joint": 5.7009126347489305,
        "smoothness": 0.9240661848478827,
        "time": 0.25106591,
        "traj_len": 3.2357376412364736,
        "weighted_distance": 4.896965590592284
    },
    "planner": "ProjEST",
    "start": {
        "state": {
            "elbow_joint": 2.422574709923281,
            "shoulder_lift_joint": -1.3736533754116391,
            "shoulder_pan_joint": -0.33786336945926293,
            "wrist_1_joint": -1.0288603412921917,
            "wrist_2_joint": 1.2330224858903978,
            "wrist_3_joint": -3.094022268022082
        }
    },
    "waypoints": [
        {
            "positions": [
                -0.33786336945926293,
                -1.3736533754116391,
                2.422574709923281,
                -1.0288603412921917,
                1.2330224858903978,
                -3.094022268022082
            ]
        },
        {
            "positions": [
                -0.28780372197295107,
                -1.4366159386084145,
                2.430291145403511,
                -1.017167940340882,
                1.1643337053475118,
                -2.9052540320327185
            ]
        },
        {
            "positions": [
                -0.2377440744866392,
                -1.49957850180519,
                2.4380075808837405,
                -1.0054755393895722,
                1.0956449248046258,
                -2.716485796043355
            ]
        },
        {
            "positions": [
                -0.18768442700032734,
                -1.5625410650019653,
                2.4457240163639704,
                -0.9937831384382625,
                1.0269561442617399,
                -2.527717560053991
            ]
        },
        {
            "positions": [
                -0.1376247795140155,
                -1.6255036281987407,
                2.4534404518442003,
                -0.9820907374869529,
                0.9582673637188539,
                -2.3389493240646275
            ]
        },
        {
            "positions": [
                -0.08756513202770366,
                -1.6884661913955161,
                2.4611568873244303,
                -0.9703983365356431,
                0.889578583175968,
                -2.150181088075264
            ]
        },
        {
            "positions": [
                -0.03750548454139174,
                -1.7514287545922915,
                2.4688733228046598,
                -0.9587059355843334,
                0.820889802633082,
                -1.9614128520859
            ]
        },
        {
            "positions": [
                0.012554162944920066,
                -1.8143913177890671,
                2.4765897582848897,
                -0.9470135346330236,
                0.7522010220901961,
                -1.7726446160965363
            ]
        },
        {
            "positions": [
                0.06261381043123193,
                -1.8773538809858423,
                2.4843061937651196,
                -0.9353211336817139,
                0.6835122415473102,
                -1.5838763801071727
            ]
        },
        {
            "positions": [
                0.11267345791754374,
                -1.940316444182618,
                2.4920226292453496,
                -0.9236287327304041,
                0.6148234610044242,
                -1.395108144117809
            ]
        },
        {
            "positions": [
                0.1627331054038556,
                -2.003279007379393,
                2.499739064725579,
                -0.9119363317790944,
                0.5461346804615383,
                -1.2063399081284454
            ]
        },
        {
            "positions": [
                0.21279275289016747,
                -2.0662415705761688,
                2.507455500205809,
                -0.9002439308277848,
                0.4774458999186524,
                -1.017571672139082
            ]
        },
        {
            "positions": [
                0.26285240037647944,
                -2.1292041337729444,
                2.515171935686039,
                -0.888551529876475,
                0.4087571193757663,
                -0.8288034361497179
            ]
        },
        {
            "positions": [
                0.3129120478627912,
                -2.1921666969697196,
                2.522888371166269,
                -0.8768591289251653,
                0.34006833883288035,
                -0.6400352001603542
            ]
        },
        {
            "positions": [
                0.36297169534910306,
                -2.2551292601664947,
                2.5306048066464983,
                -0.8651667279738555,
                0.2713795582899945,
                -0.45126696417099055
            ]
        },
        {
            "positions": [
                0.41303134283541487,
                -2.3180918233632704,
                2.5383212421267283,
                -0.8534743270225458,
                0.20269077774710853,
                -0.2624987281816269
            ]
        },
        {
            "positions": [
                0.437703396044318,
                -2.284028845464817,
                2.526259847177128,
                -0.8209915829993918,
                0.2454356104422439,
                -0.5016144860906664
            ]
        },
        {
            "positions": [
                0.46237544925322116,
                -2.2499658675663636,
                2.5141984522275274,
                -0.7885088389762379,
                0.2881804431373793,
                -0.740730243999706
            ]
        },
        {
            "positions": [
                0.48704750246212436,
                -2.2159028896679103,
                2.502137057277927,
                -0.7560260949530839,
                0.3309252758325147,
                -0.9798460019087456
            ]
        },
        {
            "positions": [
                0.5117195556710274,
                -2.181839911769457,
                2.4900756623283264,
                -0.7235433509299299,
                0.37367010852765004,
                -1.218961759817785
            ]
        },
        {
            "positions": [
                0.5363916088799306,
                -2.1477769338710035,
                2.478014267378726,
                -0.691060606906776,
                0.41641494122278544,
                -1.4580775177268248
            ]
        },
        {
            "positions": [
                0.5610636620888338,
                -2.11371395597255,
                2.465952872429126,
                -0.6585778628836221,
                0.45915977391792084,
                -1.6971932756358643
            ]
        },
        {
            "positions": [
                0.5857357152977369,
                -2.079650978074097,
                2.4538914774795253,
                -0.6260951188604681,
                0.5019046066130562,
                -1.936309033544904
            ]
        },
        {
            "positions": [
                0.61040776850664,
                -2.0455880001756435,
                2.441830082529925,
                -0.5936123748373141,
                0.5446494393081915,
                -2.1754247914539433
            ]
        },
        {
            "positions": [
                0.6350798217155432,
                -2.01152502227719,
                2.4297686875803244,
                -0.5611296308141602,
                0.587394272003327,
                -2.4145405493629832
            ]
        },
        {
            "positions": [
                0.6597518749244464,
                -1.9774620443787367,
                2.417707292630724,
                -0.5286468867910062,
                0.6301391046984623,
                -2.6536563072720227
            ]
        },
        {
            "positions": [
                0.6844239281333495,
                -1.9433990664802834,
                2.4056458976811235,
                -0.4961641427678523,
                0.6728839373935978,
                -2.8927720651810622
            ]
        },
        {
            "positions": [
                0.7090959813422527,
                -1.90933608858183,
                2.3935845027315232,
                -0.4636813987446983,
                0.7156287700887332,
                -3.1318878230901017
            ]
        }
    ]
}