{
    "goal": {
        "global_pose": {
            "orientation": {
                "w": 0.7047431468963623,
                "x": -0.7094548344612122,
                "y": 0.0024358443915843964,
                "z": -0.0022348060738295317
            },
            "position": {
                "x": 0.6094750761985779,
                "y": 0.3671506643295288,
                "z": 0.19426114857196808
            }
        },
        "name": "move_to_magneteinheit_A"
    },
    "id": "ProjEST_move_to_magneteinheit_A_41",
    "joint_names": [
        "shoulder_pan_joint",
        "shoulder_lift_joint",
        "elbow_joint",
        "wrist_1_joint",
        "wrist_2_joint",
        "wrist_3_joint"
    ],
    "metrics": {
        "cart_traj_len": 1.8801710737857458,
        "distance_elbow_joint": 3.907352781434054,
        "distance_shoulder_lift_joint": 0.6985316895549321,
        "distance_shoulder_pan_joint": 1.2417191251721038,
        "distance_wrist_1_joint": 1.4789348571215986,
        "distance_wrist_2_joint": 1.6979905959318327,
        "distance_wrist_3_joint": 1.094460206213628,
        "smoothness": 2.631639782912575e-16,
        "time": 0.10235071100000001,
        "traj_len": 3.1810358777335646,
        "weighted_distance": 3.9350775241294595
    },
    "planner": "ProjEST",
    "start": {
        "state": {
            "elbow_joint": -1.919643507792019,
            "shoulder_lift_joint": -0.07675430207160344,
            "shoulder_pan_joint": -1.1188671864651873,
            "wrist_1_joint": 0.42560062535961957,
            "wrist_2_joint": 1.5706038300724876,
            "wrist_3_joint": 1.1188968870953055
        }
    },
    "waypoints": [
        {
            "positions": [
                -1.1188671864651873,
                -0.07675430207160344,
                -1.919643507792019,
                0.42560062535961957,
                1.5706038300724876,
                1.1188968870953055
            ]
        },
        {
            "positions": [
                -1.0711087585739525,
                -0.1036209055160239,
                -1.7693607085060938,
                0.48248273524891183,
                1.5052964994597249,
                1.0768022637793968
            ]
        },
        {
            "positions": [
                -1.0233503306827179,
                -0.13048750896044436,
                -1.6190779092201688,
                0.539364845138204,
                1.439989168846962,
                1.034707640463488
            ]
        },
        {
            "positions": [
                -0.975591902791483,
                -0.15735411240486485,
                -1.4687951099342436,
                0.5962469550274964,
                1.3746818382341992,
                0.9926130171475792
            ]
        },
        {
            "positions": [
                -0.9278334749002483,
                -0.1842207158492853,
                -1.3185123106483183,
                0.6531290649167886,
                1.3093745076214365,
                0.9505183938316705
            ]
        },
        {
            "positions": [
                -0.8800750470090135,
                -0.21108731929370578,
                -1.1682295113623933,
                0.7100111748060809,
                1.2440671770086738,
                0.9084237705157617
            ]
        },
        {
            "positions": [
                -0.8323166191177788,
                -0.23795392273812624,
                -1.0179467120764683,
                0.7668932846953731,
                1.1787598463959108,
                0.8663291471998529
            ]
        },
        {
            "positions": [
                -0.784558191226544,
                -0.2648205261825467,
                -0.867663912790543,
                0.8237753945846653,
                1.113452515783148,
                0.8242345238839441
            ]
        },
        {
            "positions": [
                -0.7367997633353092,
                -0.2916871296269672,
                -0.7173811135046178,
                0.8806575044739576,
                1.0481451851703851,
                0.7821399005680354
            ]
        },
        {
            "positions": [
                -0.6890413354440745,
                -0.31855373307138757,
                -0.5670983142186927,
                0.9375396143632497,
                0.9828378545576225,
                0.7400452772521267
            ]
        },
        {
            "positions": [
                -0.6412829075528397,
                -0.3454203365158081,
                -0.4168155149327675,
                0.9944217242525422,
                0.9175305239448597,
                0.6979506539362179
            ]
        },
        {
            "positions": [
                -0.5935244796616049,
                -0.37228693996022855,
                -0.26653271564684244,
                1.0513038341418344,
                0.8522231933320968,
                0.6558560306203092
            ]
        },
        {
            "positions": [
                -0.5457660517703702,
                -0.39915354340464904,
                -0.1162499163609172,
                1.1081859440311266,
                0.786915862719334,
                0.6137614073044003
            ]
        },
        {
            "positions": [
                -0.49800762387913544,
                -0.42602014684906947,
                0.034032882925007835,
                1.1650680539204188,
                0.7216085321065713,
                0.5716667839884916
            ]
        },
        {
            "positions": [
                -0.4502491959879007,
                -0.4528867502934899,
                0.18431568221093309,
                1.221950163809711,
                0.6563012014938086,
                0.5295721606725828
            ]
        },
        {
            "positions": [
                -0.40249076809666595,
                -0.47975335373791034,
                0.3345984814968579,
                1.2788322736990032,
                0.5909938708810458,
                0.4874775373566741
            ]
        },
        {
            "positions": [
                -0.3547323402054311,
                -0.5066199571823309,
                0.4848812807827836,
                1.3357143835882956,
                0.5256865402682829,
                0.44538291404076524
            ]
        },
        {
            "positions": [
                -0.30697391231419635,
                -0.5334865606267514,
                0.6351640800687084,
                1.3925964934775878,
                0.46037920965552015,
                0.4032882907248565
            ]
        },
        {
            "positions": [
                -0.2592154844229616,
                -0.5603531640711717,
                0.7854468793546336,
                1.44947860336688,
                0.3950718790427574,
                0.36119366740894776
            ]
        },
        {
            "positions": [
                -0.21145705653172697,
                -0.5872197675155921,
                0.9357296786405584,
                1.5063607132561723,
                0.3297645484299945,
                0.319099044093039
            ]
        },
        {
            "positions": [
                -0.163698628640492,
                -0.6140863709600128,
                1.0860124779264841,
                1.5632428231454647,
                0.26445721781723175,
                0.27700442077713017
            ]
        },
        {
            "positions": [
                -0.11594020074925737,
                -0.6409529744044331,
                1.236295277212409,
                1.620124933034757,
                0.1991498872044688,
                0.23490979746122143
            ]
        },
        {
            "positions": [
                -0.06818177285802252,
                -0.6678195778488536,
                1.3865780764983342,
                1.6770070429240491,
                0.13384255659170607,
                0.19281517414531268
            ]
        },
        {
            "positions": [
                -0.020423344966787882,
                -0.6946861812932741,
                1.536860875784259,
                1.7338891528133413,
                0.06853522597894335,
                0.15072055082940394
            ]
        },
        {
            "positions": [
                0.027335082924446974,
                -0.7215527847376946,
                1.6871436750701847,
                1.7907712627026338,
                0.0032278953661804,
                0.10862592751349509
            ]
        },
        {
            "positions": [
                0.07509351081568183,
                -0.7484193881821151,
                1.8374264743561095,
                1.847653372591926,
                -0.062079435246582326,
                0.06653130419758635
            ]
        },
        {
            "positions": [
                0.12285193870691638,
                -0.7752859916265356,
                1.987709273642035,
                1.9045354824812182,
                -0.12738676585934516,
                0.02443668088167764
            ]
        }
    ]
}