{
    "goal": {
        "global_pose": {
            "orientation": {
                "w": 0.7031023502349854,
                "x": -0.7110244035720825,
                "y": 0.007748599164187908,
                "z": 0.005598929710686207
            },
            "position": {
                "x": 0.11585023208521307,
                "y": 0.44412534475326537,
                "z": 0.3711530566215515
            }
        },
        "name": "move_to_auspresseinheit_A"
    },
    "id": "ProjEST_move_to_auspresseinheit_A_121",
    "joint_names": [
        "shoulder_pan_joint",
        "shoulder_lift_joint",
        "elbow_joint",
        "wrist_1_joint",
        "wrist_2_joint",
        "wrist_3_joint"
    ],
    "metrics": {
        "cart_traj_len": 1.030460922624751,
        "distance_elbow_joint": 1.1538850900023765,
        "distance_shoulder_lift_joint": 0.5334271508921888,
        "distance_shoulder_pan_joint": 1.0426293437597267,
        "distance_wrist_1_joint": 2.718200946166164,
        "distance_wrist_2_joint": 2.216374928108456,
        "distance_wrist_3_joint": 2.9769100600710545,
        "smoothness": 0.7462833495060788,
        "time": 0.564485766,
        "traj_len": 3.262120095735282,
        "weighted_distance": 4.640024085434978
    },
    "planner": "ProjEST",
    "start": {
        "state": {
            "elbow_joint": 2.422574709923281,
            "shoulder_lift_joint": -1.3736533754116391,
            "shoulder_pan_joint": -0.33786336945926293,
            "wrist_1_joint": -1.0288603412921917,
            "wrist_2_joint": 1.2330224858903978,
            "wrist_3_joint": -3.094022268022082
        }
    },
    "waypoints": [
        {
            "positions": [
                -0.33786336945926293,
                -1.3736533754116391,
                2.422574709923281,
                -1.0288603412921917,
                1.2330224858903978,
                -3.094022268022082
            ]
        },
        {
            "positions": [
                -0.3092458811953619,
                -1.3961488796621855,
                2.383106932934102,
                -0.9194993188563072,
                1.141377611288066,
                -2.99605042981996
            ]
        },
        {
            "positions": [
                -0.2806283929314609,
                -1.4186443839127316,
                2.3436391559449237,
                -0.8101382964204228,
                1.049732736685734,
                -2.8980785916178373
            ]
        },
        {
            "positions": [
                -0.2520109046675599,
                -1.441139888163278,
                2.3041713789557448,
                -0.7007772739845384,
                0.9580878620834022,
                -2.800106753415715
            ]
        },
        {
            "positions": [
                -0.2233934164036589,
                -1.4636353924138241,
                2.2647036019665663,
                -0.5914162515486538,
                0.8664429874810704,
                -2.702134915213593
            ]
        },
        {
            "positions": [
                -0.19477592813975786,
                -1.4861308966643705,
                2.2252358249773874,
                -0.48205522911276943,
                0.7747981128787387,
                -2.6041630770114708
            ]
        },
        {
            "positions": [
                -0.16615843987585682,
                -1.5086264009149166,
                2.185768047988209,
                -0.3726942066768849,
                0.6831532382764067,
                -2.506191238809348
            ]
        },
        {
            "positions": [
                -0.13754095161195581,
                -1.531121905165463,
                2.14630027099903,
                -0.2633331842410005,
                0.5915083636740749,
                -2.408219400607226
            ]
        },
        {
            "positions": [
                -0.10892346334805483,
                -1.5536174094160091,
                2.1068324940098515,
                -0.15397216180511597,
                0.49986348907174316,
                -2.3102475624051038
            ]
        },
        {
            "positions": [
                -0.08030597508415382,
                -1.5761129136665555,
                2.0673647170206726,
                -0.044611139369231556,
                0.4082186144694113,
                -2.2122757242029816
            ]
        },
        {
            "positions": [
                -0.05168848682025279,
                -1.5986084179171016,
                2.0278969400314937,
                0.06474988306665286,
                0.3165737398670795,
                -2.114303886000859
            ]
        },
        {
            "positions": [
                -0.023070998556351807,
                -1.621103922167648,
                1.9884291630423152,
                0.17411090550253738,
                0.22492886526474765,
                -2.0163320477987368
            ]
        },
        {
            "positions": [
                0.005546489707549285,
                -1.6435994264181941,
                1.9489613860531363,
                0.2834719279384219,
                0.1332839906624157,
                -1.9183602095966144
            ]
        },
        {
            "positions": [
                0.034163977971450266,
                -1.6660949306687405,
                1.9094936090639576,
                0.39283295037430643,
                0.04163911606008397,
                -1.8203883713944922
            ]
        },
        {
            "positions": [
                0.0627814662353513,
                -1.6885904349192868,
                1.870025832074779,
                0.5021939728101907,
                -0.05000575854224798,
                -1.7224165331923698
            ]
        },
        {
            "positions": [
                0.09139895449925227,
                -1.711085939169833,
                1.8305580550856002,
                0.6115549952460754,
                -0.14165063314457968,
                -1.6244446949902476
            ]
        },
        {
            "positions": [
                0.13809542142213177,
                -1.734001056547514,
                1.879031349169524,
                0.5557107658791473,
                -0.10953546332994009,
                -1.7779946000647202
            ]
        },
        {
            "positions": [
                0.18479188834501126,
                -1.756916173925195,
                1.9275046432534482,
                0.4998665365122192,
                -0.0774202935153005,
                -1.9315445051391928
            ]
        },
        {
            "positions": [
                0.23148835526789074,
                -1.7798312913028762,
                1.975977937337372,
                0.4440223071452911,
                -0.04530512370066091,
                -2.0850944102136655
            ]
        },
        {
            "positions": [
                0.27818482219077023,
                -1.8027464086805571,
                2.024451231421296,
                0.388178077778363,
                -0.013189953886021316,
                -2.238644315288138
            ]
        },
        {
            "positions": [
                0.3248812891136497,
                -1.825661526058238,
                2.0729245255052198,
                0.3323338484114349,
                0.01892521592861826,
                -2.3921942203626108
            ]
        },
        {
            "positions": [
                0.3715777560365292,
                -1.8485766434359192,
                2.121397819589144,
                0.2764896190445068,
                0.051040385743257866,
                -2.5457441254370834
            ]
        },
        {
            "positions": [
                0.4182742229594087,
                -1.8714917608136004,
                2.169871113673068,
                0.22064538967757874,
                0.08315555555789747,
                -2.699294030511556
            ]
        },
        {
            "positions": [
                0.4649706898822882,
                -1.8944068781912813,
                2.218344407756992,
                0.16480116031065065,
                0.11527072537253708,
                -2.8528439355860287
            ]
        },
        {
            "positions": [
                0.5129297467659232,
                -1.8969416078137906,
                2.2531608242556525,
                0.03859480537215634,
                0.23222681548380952,
                -2.9086305848747163
            ]
        },
        {
            "positions": [
                0.5608888036495583,
                -1.8994763374363,
                2.2879772407543135,
                -0.08761154956633796,
                0.349182905595082,
                -2.9644172341634043
            ]
        },
        {
            "positions": [
                0.6088478605331933,
                -1.9020110670588093,
                2.322793657252974,
                -0.21381790450483226,
                0.4661389957063544,
                -3.020203883452092
            ]
        },
        {
            "positions": [
                0.6568069174168284,
                -1.9045457966813186,
                2.3576100737516352,
                -0.3400242594433266,
                0.5830950858176269,
                -3.07599053274078
            ]
        },
        {
            "positions": [
                0.7047659743004634,
                -1.907080526303828,
                2.392426490250296,
                -0.4662306143818209,
                0.7000511759288994,
                -3.1317771820294675
            ]
        }
    ]
}