{
    "goal": {
        "global_pose": {
            "orientation": {
                "w": 0.7047431468963623,
                "x": -0.7094548344612122,
                "y": 0.0024358443915843964,
                "z": -0.0022348060738295317
            },
            "position": {
                "x": 0.6094750761985779,
                "y": 0.3671506643295288,
                "z": 0.19426114857196808
            }
        },
        "name": "move_to_magneteinheit_A"
    },
    "id": "ProjEST_move_to_magneteinheit_A_135",
    "joint_names": [
        "shoulder_pan_joint",
        "shoulder_lift_joint",
        "elbow_joint",
        "wrist_1_joint",
        "wrist_2_joint",
        "wrist_3_joint"
    ],
    "metrics": {
        "cart_traj_len": 2.0649035549022834,
        "distance_elbow_joint": 3.8834043930831585,
        "distance_shoulder_lift_joint": 1.0585975308026236,
        "distance_shoulder_pan_joint": 1.2408582448932233,
        "distance_wrist_1_joint": 1.163386794327919,
        "distance_wrist_2_joint": 1.4323626012760344,
        "distance_wrist_3_joint": 1.9351991219285125,
        "smoothness": 3.981489473232051e-16,
        "time": 0.10065959199999999,
        "traj_len": 3.2731954855021215,
        "weighted_distance": 4.144871086749556
    },
    "planner": "ProjEST",
    "start": {
        "state": {
            "elbow_joint": -1.919643507792019,
            "shoulder_lift_joint": -0.07675430207160344,
            "shoulder_pan_joint": -1.1188671864651873,
            "wrist_1_joint": 0.42560062535961957,
            "wrist_2_joint": 1.5706038300724876,
            "wrist_3_joint": 1.1188968870953055
        }
    },
    "waypoints": [
        {
            "positions": [
                -1.1188671864651873,
                -0.07675430207160344,
                -1.919643507792019,
                0.42560062535961957,
                1.5706038300724876,
                1.1188968870953055
            ]
        },
        {
            "positions": [
                -1.0745508205761436,
                -0.1145613567431257,
                -1.780950493753335,
                0.38405109699076534,
                1.519448022884058,
                1.1880111414498953
            ]
        },
        {
            "positions": [
                -1.0302344546871,
                -0.15236841141464796,
                -1.6422574797146505,
                0.34250156862191106,
                1.468292215695628,
                1.257125395804485
            ]
        },
        {
            "positions": [
                -0.9859180887980563,
                -0.19017546608617025,
                -1.5035644656759664,
                0.30095204025305683,
                1.4171364085071982,
                1.3262396501590747
            ]
        },
        {
            "positions": [
                -0.9416017229090126,
                -0.22798252075769251,
                -1.3648714516372822,
                0.2594025118842026,
                1.3659806013187685,
                1.3953539045136645
            ]
        },
        {
            "positions": [
                -0.8972853570199689,
                -0.2657895754292148,
                -1.2261784375985978,
                0.21785298351534832,
                1.3148247941303386,
                1.4644681588682542
            ]
        },
        {
            "positions": [
                -0.8529689911309253,
                -0.30359663010073706,
                -1.0874854235599138,
                0.17630345514649406,
                1.2636689869419089,
                1.533582413222844
            ]
        },
        {
            "positions": [
                -0.8086526252418815,
                -0.34140368477225935,
                -0.9487924095212295,
                0.1347539267776398,
                1.212513179753479,
                1.6026966675774337
            ]
        },
        {
            "positions": [
                -0.7643362593528378,
                -0.3792107394437816,
                -0.8100993954825453,
                0.09320439840878558,
                1.1613573725650492,
                1.6718109219320234
            ]
        },
        {
            "positions": [
                -0.7200198934637941,
                -0.41701779411530393,
                -0.6714063814438609,
                0.0516548700399313,
                1.1102015653766193,
                1.7409251762866131
            ]
        },
        {
            "positions": [
                -0.6757035275747505,
                -0.45482484878682616,
                -0.5327133674051767,
                0.010105341671077073,
                1.0590457581881896,
                1.8100394306412029
            ]
        },
        {
            "positions": [
                -0.6313871616857067,
                -0.49263190345834845,
                -0.39402035336649255,
                -0.03144418669777721,
                1.0078899509997599,
                1.8791536849957926
            ]
        },
        {
            "positions": [
                -0.5870707957966631,
                -0.5304389581298707,
                -0.2553273393278084,
                -0.07299371506663144,
                0.95673414381133,
                1.9482679393503823
            ]
        },
        {
            "positions": [
                -0.5427544299076194,
                -0.5682460128013931,
                -0.11663432528912399,
                -0.11454324343548566,
                0.9055783366229002,
                2.017382193704972
            ]
        },
        {
            "positions": [
                -0.4984380640185757,
                -0.6060530674729152,
                0.022058688749560185,
                -0.15609277180433995,
                0.8544225294344704,
                2.086496448059562
            ]
        },
        {
            "positions": [
                -0.45412169812953207,
                -0.6438601221444376,
                0.16075170278824458,
                -0.19764230017319423,
                0.8032667222460406,
                2.1556107024141515
            ]
        },
        {
            "positions": [
                -0.4098053322404883,
                -0.6816671768159597,
                0.2994447168269285,
                -0.2391918285420484,
                0.7521109150576109,
                2.2247249567687413
            ]
        },
        {
            "positions": [
                -0.3654889663514447,
                -0.719474231487482,
                0.4381377308656129,
                -0.2807413569109027,
                0.700955107869181,
                2.293839211123331
            ]
        },
        {
            "positions": [
                -0.3211726004624009,
                -0.7572812861590044,
                0.5768307449042973,
                -0.32229088527975697,
                0.6497993006807511,
                2.3629534654779207
            ]
        },
        {
            "positions": [
                -0.2768562345733573,
                -0.7950883408305267,
                0.7155237589429813,
                -0.36384041364861125,
                0.5986434934923214,
                2.4320677198325105
            ]
        },
        {
            "positions": [
                -0.23253986868431353,
                -0.8328953955020488,
                0.8542167729816657,
                -0.4053899420174654,
                0.5474876863038916,
                2.5011819741871
            ]
        },
        {
            "positions": [
                -0.1882235027952699,
                -0.8707024501735712,
                0.99290978702035,
                -0.4469394703863197,
                0.49633187911546184,
                2.57029622854169
            ]
        },
        {
            "positions": [
                -0.14390713690622625,
                -0.9085095048450935,
                1.131602801059034,
                -0.488488998755174,
                0.4451760719270319,
                2.6394104828962797
            ]
        },
        {
            "positions": [
                -0.09959077101718261,
                -0.9463165595166156,
                1.2702958150977184,
                -0.5300385271240282,
                0.3940202647386022,
                2.7085247372508694
            ]
        },
        {
            "positions": [
                -0.05527440512813886,
                -0.984123614188138,
                1.4089888291364023,
                -0.5715880554928825,
                0.3428644575501725,
                2.777638991605459
            ]
        },
        {
            "positions": [
                -0.010958039239095108,
                -1.0219306688596603,
                1.5476818431750867,
                -0.6131375838617368,
                0.29170865036174254,
                2.846753245960049
            ]
        },
        {
            "positions": [
                0.033358326649948644,
                -1.0597377235311827,
                1.6863748572137711,
                -0.6546871122305908,
                0.24055284317331282,
                2.9158675003146386
            ]
        },
        {
            "positions": [
                0.07767469253899217,
                -1.0975447782027048,
                1.825067871252455,
                -0.6962366405994451,
                0.1893970359848829,
                2.9849817546692283
            ]
        },
        {
            "positions": [
                0.12199105842803583,
                -1.1353518328742271,
                1.9637608852911392,
                -0.7377861689682995,
                0.1382412287964532,
                3.054096009023818
            ]
        }
    ]
}