{
    "goal": {
        "global_pose": {
            "orientation": {
                "w": 0.7047431468963623,
                "x": -0.7094548344612122,
                "y": 0.0024358443915843964,
                "z": -0.0022348060738295317
            },
            "position": {
                "x": 0.6094750761985779,
                "y": 0.3671506643295288,
                "z": 0.19426114857196808
            }
        },
        "name": "move_to_magneteinheit_A"
    },
    "id": "ProjEST_move_to_magneteinheit_A_51",
    "joint_names": [
        "shoulder_pan_joint",
        "shoulder_lift_joint",
        "elbow_joint",
        "wrist_1_joint",
        "wrist_2_joint",
        "wrist_3_joint"
    ],
    "metrics": {
        "cart_traj_len": 1.8804201579996864,
        "distance_elbow_joint": 3.9076688777498187,
        "distance_shoulder_lift_joint": 0.6977610016949112,
        "distance_shoulder_pan_joint": 1.2419556024235054,
        "distance_wrist_1_joint": 1.4791200437212741,
        "distance_wrist_2_joint": 1.7017220219174851,
        "distance_wrist_3_joint": 1.0945752214949778,
        "smoothness": 2.9605947464981317e-16,
        "time": 0.29549655399999997,
        "traj_len": 3.1816352350641917,
        "weighted_distance": 3.9360888299974492
    },
    "planner": "ProjEST",
    "start": {
        "state": {
            "elbow_joint": -1.919643507792019,
            "shoulder_lift_joint": -0.07675430207160344,
            "shoulder_pan_joint": -1.1188671864651873,
            "wrist_1_joint": 0.42560062535961957,
            "wrist_2_joint": 1.5706038300724876,
            "wrist_3_joint": 1.1188968870953055
        }
    },
    "waypoints": [
        {
            "positions": [
                -1.1188671864651873,
                -0.07675430207160344,
                -1.919643507792019,
                0.42560062535961957,
                1.5706038300724876,
                1.1188968870953055
            ]
        },
        {
            "positions": [
                -1.0710996632950525,
                -0.10359126367525387,
                -1.7693485509554876,
                0.4824898578104378,
                1.5051529830756611,
                1.0767978401147296
            ]
        },
        {
            "positions": [
                -1.0233321401249178,
                -0.1304282252789043,
                -1.619053594118956,
                0.5393790902612561,
                1.439702136078835,
                1.0346987931341534
            ]
        },
        {
            "positions": [
                -0.9755646169547829,
                -0.15726518688255475,
                -1.4687586372824246,
                0.5962683227120743,
                1.3742512890820087,
                0.9925997461535774
            ]
        },
        {
            "positions": [
                -0.927797093784648,
                -0.18410214848620515,
                -1.3184636804458931,
                0.6531575551628925,
                1.3088004420851822,
                0.9505006991730013
            ]
        },
        {
            "positions": [
                -0.8800295706145131,
                -0.2109391100898556,
                -1.1681687236093616,
                0.7100467876137108,
                1.2433495950883557,
                0.9084016521924252
            ]
        },
        {
            "positions": [
                -0.8322620474443784,
                -0.23777607169350604,
                -1.0178737667728301,
                0.766936020064529,
                1.1778987480915295,
                0.8663026052118492
            ]
        },
        {
            "positions": [
                -0.7844945242742436,
                -0.26461303329715646,
                -0.8675788099362987,
                0.8238252525153472,
                1.1124479010947033,
                0.824203558231273
            ]
        },
        {
            "positions": [
                -0.7367270011041087,
                -0.2914499949008069,
                -0.7172838530997672,
                0.8807144849661654,
                1.0469970540978768,
                0.782104511250697
            ]
        },
        {
            "positions": [
                -0.6889594779339739,
                -0.31828695650445726,
                -0.5669888962632357,
                0.9376037174169838,
                0.9815462071010504,
                0.7400054642701209
            ]
        },
        {
            "positions": [
                -0.6411919547638391,
                -0.3451239181081078,
                -0.4166939394267042,
                0.9944929498678019,
                0.9160953601042241,
                0.6979064172895448
            ]
        },
        {
            "positions": [
                -0.5934244315937043,
                -0.3719608797117582,
                -0.2663989825901727,
                1.0513821823186202,
                0.8506445131073977,
                0.6558073703089689
            ]
        },
        {
            "positions": [
                -0.5456569084235694,
                -0.39879784131540863,
                -0.1161040257536412,
                1.1082714147694384,
                0.7851936661105714,
                0.6137083233283928
            ]
        },
        {
            "positions": [
                -0.4978893852534346,
                -0.42563480291905903,
                0.034190931082890286,
                1.1651606472202567,
                0.719742819113745,
                0.5716092763478167
            ]
        },
        {
            "positions": [
                -0.45012186208329985,
                -0.45247176452270943,
                0.18448588791942178,
                1.2220498796710748,
                0.6542919721169187,
                0.5295102293672406
            ]
        },
        {
            "positions": [
                -0.4023543389131651,
                -0.47930872612635983,
                0.33478084475595327,
                1.278939112121893,
                0.5888411251200925,
                0.4874111823866646
            ]
        },
        {
            "positions": [
                -0.3545868157430301,
                -0.5061456877300103,
                0.48507580159248476,
                1.3358283445727115,
                0.523390278123266,
                0.4453121354060884
            ]
        },
        {
            "positions": [
                -0.3068192925728953,
                -0.5329826493336607,
                0.6353707584290162,
                1.3927175770235296,
                0.45793943112643953,
                0.4032130884255124
            ]
        },
        {
            "positions": [
                -0.25905176940276053,
                -0.5598196109373111,
                0.7856657152655477,
                1.449606809474348,
                0.3924885841296133,
                0.3611140414449363
            ]
        },
        {
            "positions": [
                -0.21128424623262576,
                -0.5866565725409616,
                0.9359606721020792,
                1.506496041925166,
                0.32703773713278705,
                0.3190149944643603
            ]
        },
        {
            "positions": [
                -0.16351672306249077,
                -0.6134935341446122,
                1.0862556289386107,
                1.5633852743759844,
                0.2615868901359606,
                0.2769159474837841
            ]
        },
        {
            "positions": [
                -0.1157491998923561,
                -0.6403304957482625,
                1.2365505857751422,
                1.6202745068268025,
                0.19613604313913413,
                0.23481690050320814
            ]
        },
        {
            "positions": [
                -0.06798167672222122,
                -0.6671674573519129,
                1.3868455426116737,
                1.6771637392776209,
                0.1306851961423079,
                0.19271785352263204
            ]
        },
        {
            "positions": [
                -0.020214153552086334,
                -0.6940044189555632,
                1.5371404994482052,
                1.734052971728439,
                0.06523434914548165,
                0.15061880654205606
            ]
        },
        {
            "positions": [
                0.02755336961804855,
                -0.7208413805592138,
                1.6874354562847367,
                1.7909422041792573,
                -0.00021649785134481014,
                0.10851975956147997
            ]
        },
        {
            "positions": [
                0.07532089278818321,
                -0.7476783421628641,
                1.8377304131212682,
                1.8478314366300757,
                -0.06566734484817127,
                0.06642071258090376
            ]
        },
        {
            "positions": [
                0.12308841595831804,
                -0.7745153037665147,
                1.9880253699577994,
                1.9047206690808938,
                -0.13111819184499754,
                0.0243216656003277
            ]
        }
    ]
}