{
    "goal": {
        "global_pose": {
            "orientation": {
                "w": 0.5084816217422485,
                "x": -0.49083608388900757,
                "y": 0.5182115435600281,
                "z": -0.4816462993621826
            },
            "position": {
                "x": 0.5540239810943604,
                "y": 0.030875300988554955,
                "z": 0.16403168439865112
            }
        },
        "name": "move_to_storage_A"
    },
    "id": "ProjEST_move_to_storage_A_92",
    "joint_names": [
        "shoulder_pan_joint",
        "shoulder_lift_joint",
        "elbow_joint",
        "wrist_1_joint",
        "wrist_2_joint",
        "wrist_3_joint"
    ],
    "metrics": {
        "cart_traj_len": 0.3539542008614215,
        "distance_elbow_joint": 0.4525402954587232,
        "distance_shoulder_lift_joint": 0.2343257233209266,
        "distance_shoulder_pan_joint": 0.462415220171526,
        "distance_wrist_1_joint": 0.2518351083714042,
        "distance_wrist_2_joint": 1.1027426975949932,
        "distance_wrist_3_joint": 0.1066589732981642,
        "smoothness": 8.881784267329941e-16,
        "time": 0.05013058,
        "traj_len": 1.6157097567990786,
        "weighted_distance": 2.0441168681801107
    },
    "planner": "ProjEST",
    "start": {
        "state": {
            "elbow_joint": 1.9715463870305268,
            "shoulder_lift_joint": -1.1394903361783484,
            "shoulder_pan_joint": 0.12281147578464417,
            "wrist_1_joint": -0.7804599489681411,
            "wrist_2_joint": 0.12958660307563738,
            "wrist_3_joint": -3.1924946282119055
        }
    },
    "waypoints": [
        {
            "positions": [
                0.12281147578464417,
                -1.1394903361783484,
                1.9715463870305268,
                -0.7804599489681411,
                0.12958660307563738,
                -3.1924946282119055
            ]
        },
        {
            "positions": [
                0.05675215861728332,
                -1.1729654395099094,
                2.036195000667487,
                -0.8164363930211989,
                0.2871212741606364,
                -3.1772576320264534
            ]
        },
        {
            "positions": [
                -0.009307158550077535,
                -1.2064405428414702,
                2.1008436143044475,
                -0.8524128370742565,
                0.44465594524563545,
                -3.1620206358410017
            ]
        },
        {
            "positions": [
                -0.07536647571743839,
                -1.2399156461730312,
                2.165492227941408,
                -0.8883892811273143,
                0.6021906163306344,
                -3.1467836396555495
            ]
        },
        {
            "positions": [
                -0.14142579288479923,
                -1.2733907495045922,
                2.2301408415783683,
                -0.9243657251803721,
                0.7597252874156335,
                -3.1315466434700974
            ]
        },
        {
            "positions": [
                -0.20748511005216008,
                -1.3068658528361532,
                2.294789455215329,
                -0.9603421692334297,
                0.9172599585006326,
                -3.116309647284645
            ]
        },
        {
            "positions": [
                -0.27354442721952094,
                -1.340340956167714,
                2.3594380688522896,
                -0.9963186132864875,
                1.0747946295856314,
                -3.1010726510991935
            ]
        },
        {
            "positions": [
                -0.3396037443868818,
                -1.373816059499275,
                2.42408668248925,
                -1.0322950573395453,
                1.2323293006706306,
                -3.0858356549137413
            ]
        }
    ]
}