{
    "goal": {
        "global_pose": {
            "orientation": {
                "w": 0.7031023502349854,
                "x": -0.7110244035720825,
                "y": 0.007748599164187908,
                "z": 0.005598929710686207
            },
            "position": {
                "x": 0.11585023208521307,
                "y": 0.44412534475326537,
                "z": 0.3711530566215515
            }
        },
        "name": "move_to_auspresseinheit_A"
    },
    "id": "ProjEST_move_to_auspresseinheit_A_79",
    "joint_names": [
        "shoulder_pan_joint",
        "shoulder_lift_joint",
        "elbow_joint",
        "wrist_1_joint",
        "wrist_2_joint",
        "wrist_3_joint"
    ],
    "metrics": {
        "cart_traj_len": 0.7030548680167706,
        "distance_elbow_joint": 0.4074847918138844,
        "distance_shoulder_lift_joint": 0.5347406878566299,
        "distance_shoulder_pan_joint": 1.0430618420527158,
        "distance_wrist_1_joint": 1.808995534999953,
        "distance_wrist_2_joint": 1.0662565648806543,
        "distance_wrist_3_joint": 2.850359861484311,
        "smoothness": 1.0465120283055145,
        "time": 0.190715378,
        "traj_len": 2.776850605107907,
        "weighted_distance": 4.035699580734098
    },
    "planner": "ProjEST",
    "start": {
        "state": {
            "elbow_joint": 2.422574709923281,
            "shoulder_lift_joint": -1.3736533754116391,
            "shoulder_pan_joint": -0.33786336945926293,
            "wrist_1_joint": -1.0288603412921917,
            "wrist_2_joint": 1.2330224858903978,
            "wrist_3_joint": -3.094022268022082
        }
    },
    "waypoints": [
        {
            "positions": [
                -0.33786336945926293,
                -1.3736533754116391,
                2.422574709923281,
                -1.0288603412921917,
                1.2330224858903978,
                -3.094022268022082
            ]
        },
        {
            "positions": [
                -0.2982644594958993,
                -1.3997491351503404,
                2.40427123977348,
                -0.9296087286898262,
                1.1668114070648237,
                -2.977113605579447
            ]
        },
        {
            "positions": [
                -0.25866554953253573,
                -1.4258448948890416,
                2.3859677696236785,
                -0.8303571160874608,
                1.1006003282392496,
                -2.8602049431368117
            ]
        },
        {
            "positions": [
                -0.21906663956917213,
                -1.451940654627743,
                2.3676642994738772,
                -0.7311055034850952,
                1.0343892494136755,
                -2.7432962806941763
            ]
        },
        {
            "positions": [
                -0.17946772960580853,
                -1.4780364143664442,
                2.349360829324076,
                -0.6318538908827297,
                0.9681781705881015,
                -2.6263876182515413
            ]
        },
        {
            "positions": [
                -0.13986881964244494,
                -1.5041321741051454,
                2.3310573591742747,
                -0.5326022782803641,
                0.9019670917625274,
                -2.5094789558089063
            ]
        },
        {
            "positions": [
                -0.10026990967908134,
                -1.5302279338438467,
                2.3127538890244734,
                -0.4333506656779986,
                0.8357560129369535,
                -2.392570293366271
            ]
        },
        {
            "positions": [
                -0.06067099971571771,
                -1.556323693582548,
                2.294450418874672,
                -0.33409905307563303,
                0.7695449341113794,
                -2.2756616309236355
            ]
        },
        {
            "positions": [
                -0.02107208975235414,
                -1.5824194533212492,
                2.276146948724871,
                -0.23484744047326767,
                0.7033338552858053,
                -2.1587529684810005
            ]
        },
        {
            "positions": [
                0.01852682021100943,
                -1.6085152130599505,
                2.2578434785750696,
                -0.13559582787090207,
                0.6371227764602312,
                -2.0418443060383655
            ]
        },
        {
            "positions": [
                0.05812573017437306,
                -1.6346109727986518,
                2.2395400084252683,
                -0.036344215268536484,
                0.5709116976346571,
                -1.92493564359573
            ]
        },
        {
            "positions": [
                0.09772464013773663,
                -1.660706732537353,
                2.221236538275467,
                0.062907397333829,
                0.5047006188090831,
                -1.808026981153095
            ]
        },
        {
            "positions": [
                0.13732355010110028,
                -1.6868024922760543,
                2.202933068125666,
                0.16215900993619456,
                0.43848953998350904,
                -1.6911183187104597
            ]
        },
        {
            "positions": [
                0.20042076371136164,
                -1.711423777941856,
                2.2238045292385844,
                0.09349498951713156,
                0.4686810532028163,
                -1.851946753396314
            ]
        },
        {
            "positions": [
                0.263517977321623,
                -1.7360450636076576,
                2.2446759903515034,
                0.02483096909806856,
                0.4988725664221236,
                -2.012775188082168
            ]
        },
        {
            "positions": [
                0.3266151909318844,
                -1.760666349273459,
                2.265547451464422,
                -0.04383305132099444,
                0.5290640796414309,
                -2.1736036227680224
            ]
        },
        {
            "positions": [
                0.38971240454214573,
                -1.7852876349392608,
                2.286418912577341,
                -0.11249707174005744,
                0.5592555928607381,
                -2.334432057453877
            ]
        },
        {
            "positions": [
                0.45280961815240717,
                -1.8099089206050625,
                2.3072903736902597,
                -0.1811610921591205,
                0.5894471060800454,
                -2.4952604921397312
            ]
        },
        {
            "positions": [
                0.5159068317626685,
                -1.8345302062708642,
                2.3281618348031787,
                -0.24982511257818343,
                0.6196386192993526,
                -2.6560889268255856
            ]
        },
        {
            "positions": [
                0.5790040453729299,
                -1.8591514919366658,
                2.3490332959160973,
                -0.31848913299724646,
                0.64983013251866,
                -2.8169173615114396
            ]
        },
        {
            "positions": [
                0.6421012589831913,
                -1.8837727776024673,
                2.3699047570290164,
                -0.3871531534163094,
                0.6800216457379672,
                -2.977745796197294
            ]
        },
        {
            "positions": [
                0.7051984725934527,
                -1.908394063268269,
                2.390776218141935,
                -0.4558171738353725,
                0.7102131589572744,
                -3.1385742308831484
            ]
        }
    ]
}