{
    "goal": {
        "global_pose": {
            "orientation": {
                "w": 0.7031023502349854,
                "x": -0.7110244035720825,
                "y": 0.007748599164187908,
                "z": 0.005598929710686207
            },
            "position": {
                "x": 0.11585023208521307,
                "y": 0.44412534475326537,
                "z": 0.3711530566215515
            }
        },
        "name": "move_to_auspresseinheit_A"
    },
    "id": "ProjEST_move_to_auspresseinheit_A_22",
    "joint_names": [
        "shoulder_pan_joint",
        "shoulder_lift_joint",
        "elbow_joint",
        "wrist_1_joint",
        "wrist_2_joint",
        "wrist_3_joint"
    ],
    "metrics": {
        "cart_traj_len": 6.17863614308498,
        "distance_elbow_joint": 3.9715773830126446,
        "distance_shoulder_lift_joint": 3.565210717711758,
        "distance_shoulder_pan_joint": 1.0435507742479644,
        "distance_wrist_1_joint": 4.871775063703392,
        "distance_wrist_2_joint": 3.3363563530699865,
        "distance_wrist_3_joint": 5.207787843493323,
        "smoothness": 0.6395678183863572,
        "time": 0.696164416,
        "traj_len": 4.6900168587371915,
        "weighted_distance": 6.373379420605611
    },
    "planner": "ProjEST",
    "start": {
        "state": {
            "elbow_joint": 2.422574709923281,
            "shoulder_lift_joint": -1.3736533754116391,
            "shoulder_pan_joint": -0.33786336945926293,
            "wrist_1_joint": -1.0288603412921917,
            "wrist_2_joint": 1.2330224858903978,
            "wrist_3_joint": -3.094022268022082
        }
    },
    "waypoints": [
        {
            "positions": [
                -0.33786336945926293,
                -1.3736533754116391,
                2.422574709923281,
                -1.0288603412921917,
                1.2330224858903978,
                -3.094022268022082
            ]
        },
        {
            "positions": [
                -0.3328438024595553,
                -1.4723622030945944,
                2.2893090182318074,
                -1.0880669009808261,
                1.2441186386117922,
                -3.0108747112544383
            ]
        },
        {
            "positions": [
                -0.3278242354598477,
                -1.5710710307775495,
                2.156043326540334,
                -1.1472734606694603,
                1.2552147913331866,
                -2.927727154486795
            ]
        },
        {
            "positions": [
                -0.32280466846014005,
                -1.6697798584605048,
                2.02277763484886,
                -1.2064800203580948,
                1.266310944054581,
                -2.844579597719151
            ]
        },
        {
            "positions": [
                -0.31778510146043243,
                -1.7684886861434599,
                1.889511943157387,
                -1.2656865800467292,
                1.2774070967759754,
                -2.7614320409515076
            ]
        },
        {
            "positions": [
                -0.3127655344607248,
                -1.8671975138264152,
                1.7562462514659134,
                -1.3248931397353636,
                1.2885032494973698,
                -2.678284484183864
            ]
        },
        {
            "positions": [
                -0.3077459674610172,
                -1.9659063415093705,
                1.6229805597744398,
                -1.3840996994239978,
                1.2995994022187642,
                -2.59513692741622
            ]
        },
        {
            "positions": [
                -0.3027264004613095,
                -2.064615169192326,
                1.4897148680829662,
                -1.4433062591126322,
                1.3106955549401587,
                -2.5119893706485765
            ]
        },
        {
            "positions": [
                -0.29770683346160187,
                -2.163323996875281,
                1.3564491763914928,
                -1.5025128188012666,
                1.321791707661553,
                -2.4288418138809327
            ]
        },
        {
            "positions": [
                -0.29268726646189425,
                -2.262032824558236,
                1.2231834847000194,
                -1.5617193784899008,
                1.3328878603829475,
                -2.3456942571132893
            ]
        },
        {
            "positions": [
                -0.2876676994621866,
                -2.3607416522411913,
                1.0899177930085457,
                -1.6209259381785353,
                1.343984013104342,
                -2.2625467003456454
            ]
        },
        {
            "positions": [
                -0.282648132462479,
                -2.459450479924146,
                0.9566521013170723,
                -1.6801324978671697,
                1.3550801658257363,
                -2.179399143578002
            ]
        },
        {
            "positions": [
                -0.27762856546277137,
                -2.5581593076071014,
                0.8233864096255985,
                -1.739339057555804,
                1.3661763185471307,
                -2.096251586810358
            ]
        },
        {
            "positions": [
                -0.27260899846306375,
                -2.6568681352900567,
                0.6901207179341251,
                -1.7985456172444385,
                1.3772724712685251,
                -2.0131040300427143
            ]
        },
        {
            "positions": [
                -0.2675894314633561,
                -2.755576962973012,
                0.5568550262426515,
                -1.8577521769330727,
                1.3883686239899196,
                -1.9299564732750707
            ]
        },
        {
            "positions": [
                -0.2625698644636485,
                -2.8542857906559673,
                0.423589334551178,
                -1.9169587366217071,
                1.399464776711314,
                -1.846808916507427
            ]
        },
        {
            "positions": [
                -0.24939449724088525,
                -2.7884702353294473,
                0.4935611421987959,
                -1.7991412726745197,
                1.4533321153137622,
                -1.7883520183390247
            ]
        },
        {
            "positions": [
                -0.23621913001812203,
                -2.7226546800029268,
                0.5635329498464138,
                -1.6813238087273323,
                1.5071994539162104,
                -1.7298951201706223
            ]
        },
        {
            "positions": [
                -0.22304376279535879,
                -2.6568391246764067,
                0.6335047574940318,
                -1.563506344780145,
                1.5610667925186585,
                -1.67143822200222
            ]
        },
        {
            "positions": [
                -0.20986839557259557,
                -2.5910235693498866,
                0.7034765651416497,
                -1.4456888808329578,
                1.6149341311211067,
                -1.6129813238338175
            ]
        },
        {
            "positions": [
                -0.19669302834983232,
                -2.525208014023366,
                0.7734483727892676,
                -1.3278714168857704,
                1.668801469723555,
                -1.5545244256654152
            ]
        },
        {
            "positions": [
                -0.18351766112706908,
                -2.459392458696846,
                0.8434201804368855,
                -1.210053952938583,
                1.722668808326003,
                -1.4960675274970128
            ]
        },
        {
            "positions": [
                -0.17034229390430583,
                -2.393576903370326,
                0.9133919880845034,
                -1.0922364889913956,
                1.7765361469284513,
                -1.4376106293286102
            ]
        },
        {
            "positions": [
                -0.1571669266815426,
                -2.327761348043806,
                0.9833637957321213,
                -0.9744190250442082,
                1.8304034855308995,
                -1.3791537311602078
            ]
        },
        {
            "positions": [
                -0.14399155945877937,
                -2.2619457927172855,
                1.0533356033797392,
                -0.8566015610970208,
                1.8842708241333477,
                -1.3206968329918054
            ]
        },
        {
            "positions": [
                -0.13081619223601615,
                -2.1961302373907654,
                1.123307411027357,
                -0.7387840971498334,
                1.9381381627357959,
                -1.262239934823403
            ]
        },
        {
            "positions": [
                -0.1176408250132529,
                -2.130314682064245,
                1.193279218674975,
                -0.620966633202646,
                1.992005501338244,
                -1.2037830366550006
            ]
        },
        {
            "positions": [
                -0.10446545779048966,
                -2.064499126737725,
                1.263251026322593,
                -0.5031491692554586,
                2.0458728399406922,
                -1.1453261384865983
            ]
        },
        {
            "positions": [
                -0.09129009056772644,
                -1.9986835714112048,
                1.3332228339702108,
                -0.38533170530827143,
                2.0997401785431404,
                -1.0868692403181959
            ]
        },
        {
            "positions": [
                -0.07811472334496317,
                -1.9328680160846843,
                1.403194641617829,
                -0.2675142413610838,
                2.1536075171455886,
                -1.0284123421497933
            ]
        },
        {
            "positions": [
                -0.06493935612219995,
                -1.8670524607581642,
                1.4731664492654466,
                -0.14969677741389642,
                2.207474855748037,
                -0.969955443981391
            ]
        },
        {
            "positions": [
                -0.05176398889943673,
                -1.8012369054316442,
                1.5431382569130645,
                -0.03187931346670925,
                2.261342194350485,
                -0.9114985458129886
            ]
        },
        {
            "positions": [
                -0.038588621676673485,
                -1.7354213501051239,
                1.6131100645606824,
                0.08593815048047815,
                2.315209532952933,
                -0.8530416476445863
            ]
        },
        {
            "positions": [
                -0.02541325445391024,
                -1.6696057947786036,
                1.6830818722083007,
                0.20375561442766554,
                2.3690768715553814,
                -0.7945847494761837
            ]
        },
        {
            "positions": [
                -0.012237887231146993,
                -1.6037902394520835,
                1.7530536798559186,
                0.32157307837485294,
                2.4229442101578296,
                -0.7361278513077814
            ]
        },
        {
            "positions": [
                0.0009374799916161969,
                -1.5379746841255633,
                1.8230254875035365,
                0.43939054232204033,
                2.4768115487602778,
                -0.677670953139379
            ]
        },
        {
            "positions": [
                0.014112847214379443,
                -1.4721591287990432,
                1.892997295151154,
                0.5572080062692277,
                2.530678887362726,
                -0.6192140549709766
            ]
        },
        {
            "positions": [
                0.027288214437142688,
                -1.4063435734725227,
                1.9629691027987723,
                0.6750254702164151,
                2.584546225965174,
                -0.5607571568025742
            ]
        },
        {
            "positions": [
                0.040463581659905934,
                -1.3405280181460026,
                2.0329409104463902,
                0.7928429341636023,
                2.6384135645676223,
                -0.5023002586341718
            ]
        },
        {
            "positions": [
                0.07547536182457938,
                -1.3705712039332378,
                2.052058827906671,
                0.7257968816589411,
                2.536783813283793,
                -0.6399879341134043
            ]
        },
        {
            "positions": [
                0.11048714198925283,
                -1.4006143897204728,
                2.071176745366951,
                0.6587508291542798,
                2.435154061999963,
                -0.7776756095926367
            ]
        },
        {
            "positions": [
                0.1454989221539263,
                -1.430657575507708,
                2.090294662827232,
                0.5917047766496185,
                2.333524310716134,
                -0.9153632850718691
            ]
        },
        {
            "positions": [
                0.18051070231859973,
                -1.460700761294943,
                2.109412580287512,
                0.5246587241449573,
                2.231894559432304,
                -1.0530509605511016
            ]
        },
        {
            "positions": [
                0.2155224824832732,
                -1.4907439470821782,
                2.128530497747793,
                0.457612671640296,
                2.1302648081484747,
                -1.190738636030334
            ]
        },
        {
            "positions": [
                0.25053426264794665,
                -1.5207871328694131,
                2.147648415208073,
                0.3905666191356348,
                2.028635056864645,
                -1.3284263115095665
            ]
        },
        {
            "positions": [
                0.2855460428126201,
                -1.5508303186566483,
                2.1667663326683537,
                0.3235205666309735,
                1.9270053055808156,
                -1.466113986988799
            ]
        },
        {
            "positions": [
                0.3205578229772935,
                -1.5808735044438833,
                2.185884250128634,
                0.2564745141263123,
                1.8253755542969858,
                -1.6038016624680314
            ]
        },
        {
            "positions": [
                0.355569603141967,
                -1.6109166902311185,
                2.2050021675889147,
                0.18942846162165095,
                1.7237458030131565,
                -1.7414893379472638
            ]
        },
        {
            "positions": [
                0.39058138330664044,
                -1.6409598760183535,
                2.224120085049195,
                0.12238240911698972,
                1.622116051729327,
                -1.8791770134264962
            ]
        },
        {
            "positions": [
                0.42559316347131393,
                -1.6710030618055887,
                2.2432380025094756,
                0.055336356612328386,
                1.5204863004454972,
                -2.016864688905729
            ]
        },
        {
            "positions": [
                0.4606049436359873,
                -1.7010462475928236,
                2.262355919969756,
                -0.011709695892332728,
                1.4188565491616678,
                -2.154552364384961
            ]
        },
        {
            "positions": [
                0.4956167238006608,
                -1.7310894333800588,
                2.2814738374300365,
                -0.07875574839699406,
                1.3172267978778383,
                -2.292240039864194
            ]
        },
        {
            "positions": [
                0.5306285039653342,
                -1.7611326191672938,
                2.3005917548903168,
                -0.1458018009016553,
                1.2155970465940087,
                -2.429927715343426
            ]
        },
        {
            "positions": [
                0.5656402841300077,
                -1.791175804954529,
                2.3197096723505974,
                -0.2128478534063165,
                1.1139672953101791,
                -2.5676153908226587
            ]
        },
        {
            "positions": [
                0.6006520642946811,
                -1.821218990741764,
                2.3388275898108777,
                -0.27989390591097774,
                1.0123375440263496,
                -2.705303066301891
            ]
        },
        {
            "positions": [
                0.6356638444593546,
                -1.8512621765289992,
                2.3579455072711584,
                -0.3469399584156392,
                0.91070779274252,
                -2.8429907417811235
            ]
        },
        {
            "positions": [
                0.6706756246240281,
                -1.8813053623162341,
                2.3770634247314386,
                -0.4139860109203004,
                0.8090780414586904,
                -2.9806784172603558
            ]
        },
        {
            "positions": [
                0.7056874047887015,
                -1.9113485481034693,
                2.3961813421917193,
                -0.4810320634249616,
                0.707448290174861,
                -3.1183660927395884
            ]
        }
    ]
}