{
    "goal": {
        "global_pose": {
            "orientation": {
                "w": 0.7031023502349854,
                "x": -0.7110244035720825,
                "y": 0.007748599164187908,
                "z": 0.005598929710686207
            },
            "position": {
                "x": 0.11585023208521307,
                "y": 0.44412534475326537,
                "z": 0.3711530566215515
            }
        },
        "name": "move_to_auspresseinheit_A"
    },
    "id": "ProjEST_move_to_auspresseinheit_A_126",
    "joint_names": [
        "shoulder_pan_joint",
        "shoulder_lift_joint",
        "elbow_joint",
        "wrist_1_joint",
        "wrist_2_joint",
        "wrist_3_joint"
    ],
    "metrics": {
        "cart_traj_len": 1.4084473038492806,
        "distance_elbow_joint": 0.7354412032518884,
        "distance_shoulder_lift_joint": 0.5328688658659753,
        "distance_shoulder_pan_joint": 1.6776010387691536,
        "distance_wrist_1_joint": 0.8353087853451177,
        "distance_wrist_2_joint": 0.5331019717473844,
        "distance_wrist_3_joint": 1.4663131626828712,
        "smoothness": 1.1593442873427224,
        "time": 0.741594375,
        "traj_len": 2.404295120750028,
        "weighted_distance": 3.1751648949496523
    },
    "planner": "ProjEST",
    "start": {
        "state": {
            "elbow_joint": 2.422574709923281,
            "shoulder_lift_joint": -1.3736533754116391,
            "shoulder_pan_joint": -0.33786336945926293,
            "wrist_1_joint": -1.0288603412921917,
            "wrist_2_joint": 1.2330224858903978,
            "wrist_3_joint": -3.094022268022082
        }
    },
    "waypoints": [
        {
            "positions": [
                -0.33786336945926293,
                -1.3736533754116391,
                2.422574709923281,
                -1.0288603412921917,
                1.2330224858903978,
                -3.094022268022082
            ]
        },
        {
            "positions": [
                -0.40139373494996083,
                -1.3825418981166913,
                2.3458643492418756,
                -1.055391328220714,
                1.1774265098378174,
                -2.9519844752290054
            ]
        },
        {
            "positions": [
                -0.4649241004406587,
                -1.3914304208217434,
                2.26915398856047,
                -1.081922315149236,
                1.121830533785237,
                -2.8099466824359287
            ]
        },
        {
            "positions": [
                -0.5284544659313566,
                -1.4003189435267953,
                2.192443627879065,
                -1.1084533020777583,
                1.0662345577326564,
                -2.6679088896428516
            ]
        },
        {
            "positions": [
                -0.5919848314220545,
                -1.4092074662318474,
                2.1157332671976596,
                -1.1349842890062805,
                1.010638581680076,
                -2.525871096849775
            ]
        },
        {
            "positions": [
                -0.6555151969127524,
                -1.4180959889368996,
                2.039022906516254,
                -1.1615152759348026,
                0.9550426056274957,
                -2.383833304056698
            ]
        },
        {
            "positions": [
                -0.519520275781186,
                -1.466938614170971,
                2.07421184650074,
                -1.091249890864552,
                0.9295303964790474,
                -2.4594457239284466
            ]
        },
        {
            "positions": [
                -0.38352535464961957,
                -1.5157812394050425,
                2.1094007864852267,
                -1.0209845057943012,
                0.9040181873305992,
                -2.5350581438001956
            ]
        },
        {
            "positions": [
                -0.24753043351805315,
                -1.564623864639114,
                2.1445897264697127,
                -0.9507191207240506,
                0.8785059781821509,
                -2.6106705636719445
            ]
        },
        {
            "positions": [
                -0.11153551238648673,
                -1.6134664898731854,
                2.1797786664541987,
                -0.8804537356537999,
                0.8529937690337027,
                -2.686282983543693
            ]
        },
        {
            "positions": [
                0.02445940874507968,
                -1.662309115107257,
                2.2149676064386847,
                -0.8101883505835492,
                0.8274815598852545,
                -2.7618954034154415
            ]
        },
        {
            "positions": [
                0.1604543298766461,
                -1.7111517403413283,
                2.250156546423171,
                -0.7399229655132986,
                0.8019693507368063,
                -2.8375078232871904
            ]
        },
        {
            "positions": [
                0.2964492510082124,
                -1.7599943655754,
                2.2853454864076572,
                -0.669657580443048,
                0.7764571415883581,
                -2.9131202431589394
            ]
        },
        {
            "positions": [
                0.4324441721397789,
                -1.8088369908094715,
                2.3205344263921432,
                -0.5993921953727972,
                0.7509449324399098,
                -2.988732663030688
            ]
        },
        {
            "positions": [
                0.5684390932713455,
                -1.857679616043543,
                2.3557233663766297,
                -0.5291268103025466,
                0.7254327232914616,
                -3.0643450829024363
            ]
        },
        {
            "positions": [
                0.7044340144029118,
                -1.9065222412776144,
                2.3909123063611157,
                -0.4588614252322959,
                0.6999205141430134,
                -3.1399575027741853
            ]
        }
    ]
}