{
    "goal": {
        "global_pose": {
            "orientation": {
                "w": 0.7031023502349854,
                "x": -0.7110244035720825,
                "y": 0.007748599164187908,
                "z": 0.005598929710686207
            },
            "position": {
                "x": 0.11585023208521307,
                "y": 0.44412534475326537,
                "z": 0.3711530566215515
            }
        },
        "name": "move_to_auspresseinheit_A"
    },
    "id": "ProjEST_move_to_auspresseinheit_A_1",
    "joint_names": [
        "shoulder_pan_joint",
        "shoulder_lift_joint",
        "elbow_joint",
        "wrist_1_joint",
        "wrist_2_joint",
        "wrist_3_joint"
    ],
    "metrics": {
        "cart_traj_len": 0.824572554506207,
        "distance_elbow_joint": 0.5535235949725092,
        "distance_shoulder_lift_joint": 0.531804556602284,
        "distance_shoulder_pan_joint": 1.1234598545793861,
        "distance_wrist_1_joint": 0.8603644204636074,
        "distance_wrist_2_joint": 0.5949836893384985,
        "distance_wrist_3_joint": 1.5543584675283473,
        "smoothness": 0.7853576789226174,
        "time": 0.813875585,
        "traj_len": 2.2844024565484586,
        "weighted_distance": 3.1277083668947516
    },
    "planner": "ProjEST",
    "start": {
        "state": {
            "elbow_joint": 2.422574709923281,
            "shoulder_lift_joint": -1.3736533754116391,
            "shoulder_pan_joint": -0.33786336945926293,
            "wrist_1_joint": -1.0288603412921917,
            "wrist_2_joint": 1.2330224858903978,
            "wrist_3_joint": -3.094022268022082
        }
    },
    "waypoints": [
        {
            "positions": [
                -0.33786336945926293,
                -1.3736533754116391,
                2.422574709923281,
                -1.0288603412921917,
                1.2330224858903978,
                -3.094022268022082
            ]
        },
        {
            "positions": [
                -0.34474313788971084,
                -1.385462692138193,
                2.3737718933601184,
                -0.9101707657531691,
                1.1588277902831756,
                -2.967959723143104
            ]
        },
        {
            "positions": [
                -0.35162290632015875,
                -1.3972720088647466,
                2.324969076796956,
                -0.7914811902141465,
                1.0846330946759535,
                -2.8418971782641265
            ]
        },
        {
            "positions": [
                -0.3585026747506067,
                -1.4090813255913004,
                2.2761662602337935,
                -0.6727916146751238,
                1.0104383990687311,
                -2.7158346333851484
            ]
        },
        {
            "positions": [
                -0.3653824431810546,
                -1.4208906423178542,
                2.227363443670631,
                -0.5541020391361013,
                0.9362437034615091,
                -2.5897720885061704
            ]
        },
        {
            "positions": [
                -0.3722622116115025,
                -1.4326999590444078,
                2.1785606271074687,
                -0.43541246359707864,
                0.8620490078542868,
                -2.4637095436271927
            ]
        },
        {
            "positions": [
                -0.37914198004195043,
                -1.4445092757709617,
                2.129757810544306,
                -0.31672288805805604,
                0.7878543122470647,
                -2.3376469987482147
            ]
        },
        {
            "positions": [
                -0.22480426020831537,
                -1.5192879647225574,
                2.1657893130067882,
                -0.31611269964395367,
                0.7677608388089391,
                -2.409478824206965
            ]
        },
        {
            "positions": [
                -0.07046654037468031,
                -1.5940666536741535,
                2.201820815469271,
                -0.31550251122985123,
                0.7476673653708135,
                -2.4813106496657147
            ]
        },
        {
            "positions": [
                0.08387117945895478,
                -1.6688453426257492,
                2.237852317931753,
                -0.31489232281574886,
                0.7275738919326877,
                -2.5531424751244645
            ]
        },
        {
            "positions": [
                0.23820889929258982,
                -1.743624031577345,
                2.2738838203942353,
                -0.3142821344016465,
                0.7074804184945621,
                -2.6249743005832147
            ]
        },
        {
            "positions": [
                0.3925466191262249,
                -1.818402720528941,
                2.309915322856718,
                -0.31367194598754405,
                0.6873869450564365,
                -2.696806126041965
            ]
        },
        {
            "positions": [
                0.54688433895986,
                -1.8931814094805368,
                2.3459468253192,
                -0.3130617575734417,
                0.6672934716183109,
                -2.7686379515007147
            ]
        },
        {
            "positions": [
                0.6249618014573041,
                -1.89931967074723,
                2.36820566572852,
                -0.3853446759458703,
                0.6819208091515168,
                -2.9521340742517044
            ]
        },
        {
            "positions": [
                0.7030392639547481,
                -1.905457932013923,
                2.3904645061378402,
                -0.45762759431829897,
                0.6965481466847225,
                -3.1356301970026945
            ]
        }
    ]
}