{
    "goal": {
        "global_pose": {
            "orientation": {
                "w": 0.5084816217422485,
                "x": -0.49083608388900757,
                "y": 0.5182115435600281,
                "z": -0.4816462993621826
            },
            "position": {
                "x": 0.5540239810943604,
                "y": 0.030875300988554955,
                "z": 0.16403168439865112
            }
        },
        "name": "move_to_storage_A"
    },
    "id": "ProjEST_move_to_storage_A_17",
    "joint_names": [
        "shoulder_pan_joint",
        "shoulder_lift_joint",
        "elbow_joint",
        "wrist_1_joint",
        "wrist_2_joint",
        "wrist_3_joint"
    ],
    "metrics": {
        "cart_traj_len": 0.352620135592958,
        "distance_elbow_joint": 0.4537848340961377,
        "distance_shoulder_lift_joint": 0.23572476281956267,
        "distance_shoulder_pan_joint": 0.46216579482782094,
        "distance_wrist_1_joint": 0.2581914709440002,
        "distance_wrist_2_joint": 1.0942622264816517,
        "distance_wrist_3_joint": 0.09456749444104684,
        "smoothness": 4.440892098500626e-16,
        "time": 0.033590137,
        "traj_len": 1.612047326727792,
        "weighted_distance": 2.034769094987922
    },
    "planner": "ProjEST",
    "start": {
        "state": {
            "elbow_joint": 1.9715463870305268,
            "shoulder_lift_joint": -1.1394903361783484,
            "shoulder_pan_joint": 0.12281147578464417,
            "wrist_1_joint": -0.7804599489681411,
            "wrist_2_joint": 0.12958660307563738,
            "wrist_3_joint": -3.1924946282119055
        }
    },
    "waypoints": [
        {
            "positions": [
                0.12281147578464417,
                -1.1394903361783484,
                1.9715463870305268,
                -0.7804599489681411,
                0.12958660307563738,
                -3.1924946282119055
            ]
        },
        {
            "positions": [
                0.05678779080924118,
                -1.1731653022954287,
                2.0363727919014036,
                -0.817344444817284,
                0.2859097782873019,
                -3.178984986148899
            ]
        },
        {
            "positions": [
                -0.009235894166161815,
                -1.2068402684125092,
                2.1011991967722805,
                -0.8542289406664269,
                0.4422329534989664,
                -3.165475344085892
            ]
        },
        {
            "positions": [
                -0.0752595791415648,
                -1.2405152345295896,
                2.1660256016431574,
                -0.8911134365155697,
                0.5985561287106309,
                -3.1519657020228853
            ]
        },
        {
            "positions": [
                -0.1412832641169678,
                -1.2741902006466699,
                2.230852006514034,
                -0.9279979323647126,
                0.7548793039222955,
                -3.138456059959879
            ]
        },
        {
            "positions": [
                -0.2073069490923708,
                -1.3078651667637504,
                2.2956784113849107,
                -0.9648824282138555,
                0.9112024791339601,
                -3.124946417896872
            ]
        },
        {
            "positions": [
                -0.27333063406777375,
                -1.3415401328808307,
                2.3605048162557876,
                -1.0017669240629985,
                1.0675256543456244,
                -3.1114367758338655
            ]
        },
        {
            "positions": [
                -0.33935431904317676,
                -1.375215098997911,
                2.4253312211266644,
                -1.0386514199121413,
                1.2238488295572891,
                -3.0979271337708587
            ]
        }
    ]
}