{
    "goal": {
        "global_pose": {
            "orientation": {
                "w": 0.7047431468963623,
                "x": -0.7094548344612122,
                "y": 0.0024358443915843964,
                "z": -0.0022348060738295317
            },
            "position": {
                "x": 0.6094750761985779,
                "y": 0.3671506643295288,
                "z": 0.19426114857196808
            }
        },
        "name": "move_to_magneteinheit_A"
    },
    "id": "ProjEST_move_to_magneteinheit_A_140",
    "joint_names": [
        "shoulder_pan_joint",
        "shoulder_lift_joint",
        "elbow_joint",
        "wrist_1_joint",
        "wrist_2_joint",
        "wrist_3_joint"
    ],
    "metrics": {
        "cart_traj_len": 2.0687599005704844,
        "distance_elbow_joint": 3.8930437816809724,
        "distance_shoulder_lift_joint": 1.0632450203302306,
        "distance_shoulder_pan_joint": 1.2423607100339038,
        "distance_wrist_1_joint": 1.2186502610771521,
        "distance_wrist_2_joint": 1.4380668601649997,
        "distance_wrist_3_joint": 1.9781700749210853,
        "smoothness": 6.431636840045833e-16,
        "time": 0.123391588,
        "traj_len": 3.29143383773825,
        "weighted_distance": 4.176912014789474
    },
    "planner": "ProjEST",
    "start": {
        "state": {
            "elbow_joint": -1.919643507792019,
            "shoulder_lift_joint": -0.07675430207160344,
            "shoulder_pan_joint": -1.1188671864651873,
            "wrist_1_joint": 0.42560062535961957,
            "wrist_2_joint": 1.5706038300724876,
            "wrist_3_joint": 1.1188968870953055
        }
    },
    "waypoints": [
        {
            "positions": [
                -1.1188671864651873,
                -0.07675430207160344,
                -1.919643507792019,
                0.42560062535961957,
                1.5706038300724876,
                1.1188968870953055
            ]
        },
        {
            "positions": [
                -1.0744971611068337,
                -0.11472733851196881,
                -1.7806062298748415,
                0.38207740174972127,
                1.519244299352309,
                1.1895458183424872
            ]
        },
        {
            "positions": [
                -1.03012713574848,
                -0.15270037495233418,
                -1.641568951957664,
                0.33855417813982297,
                1.4678847686321306,
                1.2601947495896688
            ]
        },
        {
            "positions": [
                -0.9857571103901263,
                -0.19067341139269955,
                -1.5025316740404864,
                0.29503095452992467,
                1.416525237911952,
                1.3308436808368505
            ]
        },
        {
            "positions": [
                -0.9413870850317725,
                -0.22864644783306495,
                -1.3634943961233088,
                0.25150773092002643,
                1.3651657071917733,
                1.401492612084032
            ]
        },
        {
            "positions": [
                -0.8970170596734188,
                -0.26661948427343035,
                -1.2244571182061312,
                0.2079845073101281,
                1.3138061764715947,
                1.4721415433312137
            ]
        },
        {
            "positions": [
                -0.8526470343150652,
                -0.3045925207137957,
                -1.0854198402889537,
                0.16446128370022983,
                1.2624466457514163,
                1.5427904745783954
            ]
        },
        {
            "positions": [
                -0.8082770089567114,
                -0.3425655571541611,
                -0.946382562371776,
                0.12093806009033153,
                1.2110871150312377,
                1.6134394058255768
            ]
        },
        {
            "positions": [
                -0.7639069835983576,
                -0.38053859359452646,
                -0.8073452844545985,
                0.07741483648043324,
                1.1597275843110593,
                1.6840883370727586
            ]
        },
        {
            "positions": [
                -0.719536958240004,
                -0.4185116300348919,
                -0.6683080065374207,
                0.03389161287053494,
                1.1083680535908806,
                1.75473726831994
            ]
        },
        {
            "positions": [
                -0.6751669328816503,
                -0.45648466647525726,
                -0.5292707286202432,
                -0.009631610739363361,
                1.057008522870702,
                1.825386199567122
            ]
        },
        {
            "positions": [
                -0.6307969075232966,
                -0.4944577029156226,
                -0.3902334507030656,
                -0.053154834349261604,
                1.0056489921505234,
                1.8960351308143033
            ]
        },
        {
            "positions": [
                -0.5864268821649429,
                -0.532430739355988,
                -0.25119617278588824,
                -0.0966780579591599,
                0.9542894614303449,
                1.966684062061485
            ]
        },
        {
            "positions": [
                -0.5420568568065891,
                -0.5704037757963534,
                -0.11215889486871045,
                -0.14020128156905826,
                0.9029299307101663,
                2.0373329933086666
            ]
        },
        {
            "positions": [
                -0.49768683144823544,
                -0.6083768122367188,
                0.026878383048467125,
                -0.1837245051789565,
                0.8515703999899877,
                2.1079819245558484
            ]
        },
        {
            "positions": [
                -0.4533168060898818,
                -0.646349848677084,
                0.1659156609656447,
                -0.22724772878885474,
                0.8002108692698092,
                2.17863085580303
            ]
        },
        {
            "positions": [
                -0.408946780731528,
                -0.6843228851174494,
                0.30495293888282204,
                -0.2707709523987531,
                0.7488513385496307,
                2.2492797870502113
            ]
        },
        {
            "positions": [
                -0.36457675537317435,
                -0.7222959215578149,
                0.44399021679999984,
                -0.31429417600865134,
                0.6974918078294521,
                2.319928718297393
            ]
        },
        {
            "positions": [
                -0.3202067300148206,
                -0.7602689579981803,
                0.5830274947171776,
                -0.3578173996185497,
                0.6461322771092735,
                2.390577649544575
            ]
        },
        {
            "positions": [
                -0.2758367046564669,
                -0.7982419944385457,
                0.722064772634355,
                -0.40134062322844793,
                0.5947727463890948,
                2.4612265807917564
            ]
        },
        {
            "positions": [
                -0.23146667929811315,
                -0.8362150308789111,
                0.8611020505515328,
                -0.4448638468383463,
                0.5434132156689164,
                2.531875512038938
            ]
        },
        {
            "positions": [
                -0.1870966539397595,
                -0.8741880673192763,
                1.0001393284687101,
                -0.48838707044824453,
                0.4920536849487378,
                2.6025244432861196
            ]
        },
        {
            "positions": [
                -0.14272662858140583,
                -0.9121611037596418,
                1.139176606385888,
                -0.5319102940581428,
                0.4406941542285592,
                2.673173374533301
            ]
        },
        {
            "positions": [
                -0.09835660322305206,
                -0.9501341402000072,
                1.2782138843030653,
                -0.575433517668041,
                0.3893346235083808,
                2.7438223057804825
            ]
        },
        {
            "positions": [
                -0.053986577864698404,
                -0.9881071766403724,
                1.4172511622202426,
                -0.6189567412779393,
                0.33797509278820215,
                2.8144712370276643
            ]
        },
        {
            "positions": [
                -0.009616552506344522,
                -1.026080213080738,
                1.5562884401374208,
                -0.6624799648878377,
                0.2866155620680235,
                2.885120168274846
            ]
        },
        {
            "positions": [
                0.03475347285200914,
                -1.0640532495211033,
                1.6953257180545982,
                -0.706003188497736,
                0.2352560313478449,
                2.9557690995220276
            ]
        },
        {
            "positions": [
                0.0791234982103628,
                -1.1020262859614687,
                1.834362995971776,
                -0.7495264121076342,
                0.1838965006276665,
                3.026418030769209
            ]
        },
        {
            "positions": [
                0.12349352356871639,
                -1.139999322401834,
                1.9734002738889533,
                -0.7930496357175325,
                0.13253696990748776,
                3.097066962016391
            ]
        }
    ]
}