{
    "goal": {
        "global_pose": {
            "orientation": {
                "w": 0.7031023502349854,
                "x": -0.7110244035720825,
                "y": 0.007748599164187908,
                "z": 0.005598929710686207
            },
            "position": {
                "x": 0.11585023208521307,
                "y": 0.44412534475326537,
                "z": 0.3711530566215515
            }
        },
        "name": "move_to_auspresseinheit_A"
    },
    "id": "ProjEST_move_to_auspresseinheit_A_75",
    "joint_names": [
        "shoulder_pan_joint",
        "shoulder_lift_joint",
        "elbow_joint",
        "wrist_1_joint",
        "wrist_2_joint",
        "wrist_3_joint"
    ],
    "metrics": {
        "cart_traj_len": 0.7683805826570957,
        "distance_elbow_joint": 0.34923114227413476,
        "distance_shoulder_lift_joint": 0.5353211491407632,
        "distance_shoulder_pan_joint": 1.0414438025927537,
        "distance_wrist_1_joint": 0.5549168908776014,
        "distance_wrist_2_joint": 1.24607017573452,
        "distance_wrist_3_joint": 0.8991127568364119,
        "smoothness": 1.0213293853036054,
        "time": 0.576558456,
        "traj_len": 2.150836097301741,
        "weighted_distance": 2.867979863552241
    },
    "planner": "ProjEST",
    "start": {
        "state": {
            "elbow_joint": 2.422574709923281,
            "shoulder_lift_joint": -1.3736533754116391,
            "shoulder_pan_joint": -0.33786336945926293,
            "wrist_1_joint": -1.0288603412921917,
            "wrist_2_joint": 1.2330224858903978,
            "wrist_3_joint": -3.094022268022082
        }
    },
    "waypoints": [
        {
            "positions": [
                -0.33786336945926293,
                -1.3736533754116391,
                2.422574709923281,
                -1.0288603412921917,
                1.2330224858903978,
                -3.094022268022082
            ]
        },
        {
            "positions": [
                -0.2941540298064783,
                -1.4303460556099414,
                2.3990354310015554,
                -0.9700800698296469,
                1.1216538747137195,
                -3.040248894872145
            ]
        },
        {
            "positions": [
                -0.2504446901536937,
                -1.487038735808244,
                2.3754961520798297,
                -0.9112997983671021,
                1.010285263537041,
                -2.986475521722208
            ]
        },
        {
            "positions": [
                -0.2067353505009091,
                -1.5437314160065463,
                2.3519568731581044,
                -0.8525195269045571,
                0.8989166523603626,
                -2.932702148572271
            ]
        },
        {
            "positions": [
                -0.1630260108481245,
                -1.6004240962048488,
                2.3284175942363787,
                -0.7937392554420123,
                0.7875480411836842,
                -2.8789287754223336
            ]
        },
        {
            "positions": [
                -0.11931667119533987,
                -1.6571167764031511,
                2.304878315314653,
                -0.7349589839794675,
                0.6761794300070058,
                -2.8251554022723964
            ]
        },
        {
            "positions": [
                -0.07560733154255528,
                -1.7138094566014535,
                2.281339036392928,
                -0.6761787125169225,
                0.5648108188303274,
                -2.771382029122459
            ]
        },
        {
            "positions": [
                -0.03189799188977066,
                -1.770502136799756,
                2.257799757471202,
                -0.6173984410543777,
                0.45344220765364895,
                -2.7176086559725223
            ]
        },
        {
            "positions": [
                0.011811347763013944,
                -1.8271948169980583,
                2.2342604785494764,
                -0.5586181695918329,
                0.34207359647697055,
                -2.663835282822585
            ]
        },
        {
            "positions": [
                0.1501651648371093,
                -1.843550758508927,
                2.2664438607295425,
                -0.5416832257563844,
                0.4130978537411891,
                -2.757620437149968
            ]
        },
        {
            "positions": [
                0.2885189819112046,
                -1.859906700019796,
                2.2986272429096086,
                -0.5247482819209358,
                0.48412211100540775,
                -2.851405591477351
            ]
        },
        {
            "positions": [
                0.42687279898529995,
                -1.8762626415306647,
                2.3308106250896743,
                -0.5078133380854872,
                0.5551463682696263,
                -2.945190745804734
            ]
        },
        {
            "positions": [
                0.5652266160593953,
                -1.8926185830415336,
                2.3629940072697404,
                -0.49087839425003876,
                0.626170625533845,
                -3.038975900132117
            ]
        },
        {
            "positions": [
                0.7035804331334906,
                -1.9089745245524024,
                2.3951773894498065,
                -0.47394345041459024,
                0.6971948827980635,
                -3.1327610544595
            ]
        }
    ]
}