{
    "goal": {
        "global_pose": {
            "orientation": {
                "w": 0.7047431468963623,
                "x": -0.7094548344612122,
                "y": 0.0024358443915843964,
                "z": -0.0022348060738295317
            },
            "position": {
                "x": 0.6094750761985779,
                "y": 0.3671506643295288,
                "z": 0.19426114857196808
            }
        },
        "name": "move_to_magneteinheit_A"
    },
    "id": "ProjEST_move_to_magneteinheit_A_61",
    "joint_names": [
        "shoulder_pan_joint",
        "shoulder_lift_joint",
        "elbow_joint",
        "wrist_1_joint",
        "wrist_2_joint",
        "wrist_3_joint"
    ],
    "metrics": {
        "cart_traj_len": 2.1802995527012268,
        "distance_elbow_joint": 3.8955992059525126,
        "distance_shoulder_lift_joint": 2.1006195459477235,
        "distance_shoulder_pan_joint": 1.4111788108726597,
        "distance_wrist_1_joint": 1.4539539253377751,
        "distance_wrist_2_joint": 1.4349353010603392,
        "distance_wrist_3_joint": 4.298911227832125,
        "smoothness": 0.08591470713136723,
        "time": 0.152197041,
        "traj_len": 3.820366215037916,
        "weighted_distance": 5.107045104467504
    },
    "planner": "ProjEST",
    "start": {
        "state": {
            "elbow_joint": -1.919643507792019,
            "shoulder_lift_joint": -0.07675430207160344,
            "shoulder_pan_joint": -1.1188671864651873,
            "wrist_1_joint": 0.42560062535961957,
            "wrist_2_joint": 1.5706038300724876,
            "wrist_3_joint": 1.1188968870953055
        }
    },
    "waypoints": [
        {
            "positions": [
                -1.1188671864651873,
                -0.07675430207160344,
                -1.919643507792019,
                0.42560062535961957,
                1.5706038300724876,
                1.1188968870953055
            ]
        },
        {
            "positions": [
                -1.1231275497895044,
                -0.15590653224020004,
                -1.7717082147025565,
                0.3587031477115158,
                1.5227662781258453,
                1.0733884102385622
            ]
        },
        {
            "positions": [
                -1.1273879131138214,
                -0.23505876240879664,
                -1.6237729216130938,
                0.29180567006341207,
                1.474928726179203,
                1.0278799333818187
            ]
        },
        {
            "positions": [
                -1.1316482764381384,
                -0.3142109925773932,
                -1.4758376285236314,
                0.22490819241530835,
                1.4270911742325607,
                0.9823714565250754
            ]
        },
        {
            "positions": [
                -1.1359086397624552,
                -0.39336322274598984,
                -1.3279023354341688,
                0.15801071476720457,
                1.3792536222859186,
                0.9368629796683321
            ]
        },
        {
            "positions": [
                -1.1401690030867722,
                -0.4725154529145864,
                -1.1799670423447062,
                0.09111323711910085,
                1.3314160703392763,
                0.8913545028115887
            ]
        },
        {
            "positions": [
                -1.1444293664110892,
                -0.551667683083183,
                -1.0320317492552435,
                0.024215759470997134,
                1.283578518392634,
                0.8458460259548453
            ]
        },
        {
            "positions": [
                -1.1486897297354062,
                -0.6308199132517796,
                -0.8840964561657811,
                -0.04268171817710659,
                1.2357409664459917,
                0.800337549098102
            ]
        },
        {
            "positions": [
                -1.1529500930597232,
                -0.7099721434203763,
                -0.7361611630763183,
                -0.10957919582521042,
                1.1879034144993494,
                0.7548290722413585
            ]
        },
        {
            "positions": [
                -1.1572104563840402,
                -0.7891243735889728,
                -0.5882258699868559,
                -0.17647667347331414,
                1.1400658625527071,
                0.7093205953846151
            ]
        },
        {
            "positions": [
                -1.1614708197083572,
                -0.8682766037575693,
                -0.44029057689739326,
                -0.24337415112141786,
                1.0922283106060648,
                0.6638121185278718
            ]
        },
        {
            "positions": [
                -1.165731183032674,
                -0.9474288339261661,
                -0.29235528380793063,
                -0.3102716287695217,
                1.0443907586594228,
                0.6183036416711284
            ]
        },
        {
            "positions": [
                -1.169991546356991,
                -1.0265810640947626,
                -0.14441999071846823,
                -0.3771691064176253,
                0.9965532067127805,
                0.5727951648143851
            ]
        },
        {
            "positions": [
                -1.174251909681308,
                -1.1057332942633593,
                0.003515302370994622,
                -0.44406658406572913,
                0.9487156547661382,
                0.5272866879576417
            ]
        },
        {
            "positions": [
                -1.178512273005625,
                -1.1848855244319558,
                0.1514505954604568,
                -0.5109640617138327,
                0.900878102819496,
                0.48177821110089836
            ]
        },
        {
            "positions": [
                -1.182772636329942,
                -1.2640377546005523,
                0.29938588854991965,
                -0.5778615393619366,
                0.8530405508728536,
                0.43626973424415494
            ]
        },
        {
            "positions": [
                -1.187032999654259,
                -1.343189984769149,
                0.4473211816393825,
                -0.6447590170100403,
                0.8052029989262113,
                0.3907612573874115
            ]
        },
        {
            "positions": [
                -1.1912933629785758,
                -1.4223422149377456,
                0.5952564747288449,
                -0.7116564946581441,
                0.7573654469795691,
                0.3452527805306682
            ]
        },
        {
            "positions": [
                -1.1955537263028928,
                -1.5014944451063421,
                0.7431917678183073,
                -0.7785539723062478,
                0.7095278950329268,
                0.2997443036739248
            ]
        },
        {
            "positions": [
                -1.1998140896272098,
                -1.5806466752749386,
                0.8911270609077697,
                -0.8454514499543515,
                0.6616903430862846,
                0.2542358268171815
            ]
        },
        {
            "positions": [
                -1.2040744529515268,
                -1.6597989054435354,
                1.0390623539972328,
                -0.9123489276024552,
                0.6138527911396423,
                0.20872734996043804
            ]
        },
        {
            "positions": [
                -1.1304093671522868,
                -1.6310447419671026,
                1.091111984228525,
                -0.9059042402482497,
                0.587286998799226,
                0.020463922699479303
            ]
        },
        {
            "positions": [
                -1.0567442813530468,
                -1.6022905784906696,
                1.1431616144598173,
                -0.8994595528940441,
                0.5607212064588097,
                -0.16779950456147943
            ]
        },
        {
            "positions": [
                -0.9830791955538067,
                -1.5735364150142368,
                1.1952112446911096,
                -0.8930148655398387,
                0.5341554141183934,
                -0.3560629318224382
            ]
        },
        {
            "positions": [
                -0.9094141097545667,
                -1.544782251537804,
                1.247260874922402,
                -0.8865701781856331,
                0.5075896217779771,
                -0.5443263590833969
            ]
        },
        {
            "positions": [
                -0.8357490239553267,
                -1.516028088061371,
                1.2993105051536942,
                -0.8801254908314275,
                0.4810238294375607,
                -0.7325897863443558
            ]
        },
        {
            "positions": [
                -0.7620839381560868,
                -1.4872739245849382,
                1.3513601353849864,
                -0.873680803477222,
                0.4544580370971445,
                -0.9208532136053145
            ]
        },
        {
            "positions": [
                -0.6884188523568467,
                -1.4585197611085055,
                1.4034097656162787,
                -0.8672361161230165,
                0.42789224475672816,
                -1.1091166408662732
            ]
        },
        {
            "positions": [
                -0.6147537665576067,
                -1.4297655976320724,
                1.455459395847571,
                -0.860791428768811,
                0.4013264524163118,
                -1.2973800681272318
            ]
        },
        {
            "positions": [
                -0.5410886807583667,
                -1.4010114341556397,
                1.5075090260788633,
                -0.8543467414146054,
                0.37476066007589554,
                -1.4856434953881907
            ]
        },
        {
            "positions": [
                -0.46742359495912666,
                -1.3722572706792069,
                1.5595586563101556,
                -0.8479020540603999,
                0.3481948677354792,
                -1.6739069226491496
            ]
        },
        {
            "positions": [
                -0.39375850915988664,
                -1.3435031072027739,
                1.6116082865414478,
                -0.8414573667061943,
                0.3216290753950629,
                -1.8621703499101083
            ]
        },
        {
            "positions": [
                -0.3200934233606467,
                -1.314748943726341,
                1.66365791677274,
                -0.8350126793519889,
                0.29506328305464663,
                -2.050433777171067
            ]
        },
        {
            "positions": [
                -0.2464283375614067,
                -1.2859947802499083,
                1.7157075470040324,
                -0.8285679919977833,
                0.2684974907142303,
                -2.2386972044320257
            ]
        },
        {
            "positions": [
                -0.17276325176216667,
                -1.2572406167734753,
                1.7677571772353247,
                -0.8221233046435777,
                0.241931698373814,
                -2.4269606316929844
            ]
        },
        {
            "positions": [
                -0.09909816596292664,
                -1.2284864532970425,
                1.819806807466617,
                -0.8156786172893722,
                0.21536590603339767,
                -2.6152240589539435
            ]
        },
        {
            "positions": [
                -0.025433080163686617,
                -1.1997322898206098,
                1.8718564376979092,
                -0.8092339299351667,
                0.18880011369298139,
                -2.8034874862149017
            ]
        },
        {
            "positions": [
                0.04823200563555341,
                -1.1709781263441768,
                1.9239060679292015,
                -0.8027892425809612,
                0.1622343213525651,
                -2.991750913475861
            ]
        },
        {
            "positions": [
                0.12189709143479352,
                -1.142223962867744,
                1.9759556981604938,
                -0.7963445552267556,
                0.13566852901214876,
                -3.1800143407368195
            ]
        }
    ]
}