{
    "goal": {
        "global_pose": {
            "orientation": {
                "w": 0.7031023502349854,
                "x": -0.7110244035720825,
                "y": 0.007748599164187908,
                "z": 0.005598929710686207
            },
            "position": {
                "x": 0.11585023208521307,
                "y": 0.44412534475326537,
                "z": 0.3711530566215515
            }
        },
        "name": "move_to_auspresseinheit_A"
    },
    "id": "ProjEST_move_to_auspresseinheit_A_41",
    "joint_names": [
        "shoulder_pan_joint",
        "shoulder_lift_joint",
        "elbow_joint",
        "wrist_1_joint",
        "wrist_2_joint",
        "wrist_3_joint"
    ],
    "metrics": {
        "cart_traj_len": 1.4217530961741127,
        "distance_elbow_joint": 1.8776464009749878,
        "distance_shoulder_lift_joint": 0.6619508608962898,
        "distance_shoulder_pan_joint": 1.0425488939949887,
        "distance_wrist_1_joint": 2.868672645045177,
        "distance_wrist_2_joint": 1.9402044266329828,
        "distance_wrist_3_joint": 4.275313792154908,
        "smoothness": 0.7818144773248745,
        "time": 0.605028026,
        "traj_len": 3.5589797723082572,
        "weighted_distance": 5.101552869047552
    },
    "planner": "ProjEST",
    "start": {
        "state": {
            "elbow_joint": 2.422574709923281,
            "shoulder_lift_joint": -1.3736533754116391,
            "shoulder_pan_joint": -0.33786336945926293,
            "wrist_1_joint": -1.0288603412921917,
            "wrist_2_joint": 1.2330224858903978,
            "wrist_3_joint": -3.094022268022082
        }
    },
    "waypoints": [
        {
            "positions": [
                -0.33786336945926293,
                -1.3736533754116391,
                2.422574709923281,
                -1.0288603412921917,
                1.2330224858903978,
                -3.094022268022082
            ]
        },
        {
            "positions": [
                -0.33777169498062154,
                -1.3955475407224898,
                2.366453889591487,
                -0.9279070602259812,
                1.160421083621866,
                -2.9693590769699245
            ]
        },
        {
            "positions": [
                -0.3376800205019801,
                -1.4174417060333404,
                2.310333069259693,
                -0.8269537791597708,
                1.0878196813533343,
                -2.844695885917767
            ]
        },
        {
            "positions": [
                -0.3375883460233387,
                -1.439335871344191,
                2.254212248927899,
                -0.7260004980935603,
                1.0152182790848026,
                -2.7200326948656093
            ]
        },
        {
            "positions": [
                -0.3374966715446973,
                -1.4612300366550417,
                2.1980914285961055,
                -0.6250472170273498,
                0.9426168768162709,
                -2.5953695038134517
            ]
        },
        {
            "positions": [
                -0.3374049970660559,
                -1.4831242019658923,
                2.1419706082643115,
                -0.5240939359611393,
                0.8700154745477392,
                -2.470706312761294
            ]
        },
        {
            "positions": [
                -0.3373133225874145,
                -1.505018367276743,
                2.0858497879325175,
                -0.4231406548949288,
                0.7974140722792075,
                -2.346043121709136
            ]
        },
        {
            "positions": [
                -0.3372216481087731,
                -1.5269125325875936,
                2.0297289676007235,
                -0.3221873738287184,
                0.7248126700106758,
                -2.221379930656979
            ]
        },
        {
            "positions": [
                -0.3371299736301317,
                -1.5488066978984443,
                1.9736081472689295,
                -0.22123409276250794,
                0.6522112677421441,
                -2.0967167396048207
            ]
        },
        {
            "positions": [
                -0.33703829915149025,
                -1.5707008632092951,
                1.9174873269371355,
                -0.12028081169629734,
                0.5796098654736124,
                -1.9720535485526633
            ]
        },
        {
            "positions": [
                -0.33694662467284886,
                -1.5925950285201458,
                1.8613665066053418,
                -0.019327530630086853,
                0.5070084632050806,
                -1.8473903575005057
            ]
        },
        {
            "positions": [
                -0.33685495019420747,
                -1.6144891938309964,
                1.8052456862735478,
                0.08162575043612352,
                0.4344070609365489,
                -1.722727166448348
            ]
        },
        {
            "positions": [
                -0.336763275715566,
                -1.636383359141847,
                1.749124865941754,
                0.18257903150233412,
                0.36180565866801717,
                -1.5980639753961903
            ]
        },
        {
            "positions": [
                -0.33667160123692463,
                -1.6582775244526977,
                1.69300404560996,
                0.2835323125685445,
                0.28920425639948566,
                -1.4734007843440329
            ]
        },
        {
            "positions": [
                -0.33657992675828324,
                -1.6801716897635484,
                1.636883225278166,
                0.3844855936347549,
                0.21660285413095393,
                -1.3487375932918753
            ]
        },
        {
            "positions": [
                -0.33648825227964185,
                -1.702065855074399,
                1.580762404946372,
                0.4854388747009655,
                0.1440014518624222,
                -1.2240744022397174
            ]
        },
        {
            "positions": [
                -0.3363965778010004,
                -1.7239600203852496,
                1.5246415846145782,
                0.5863921557671758,
                0.07140004959389046,
                -1.0994112111875598
            ]
        },
        {
            "positions": [
                -0.336304903322359,
                -1.7458541856961003,
                1.4685207642827842,
                0.6873454368333864,
                -0.0012013526746413768,
                -0.9747480201354022
            ]
        },
        {
            "positions": [
                -0.2679320389341959,
                -1.7646786994856671,
                1.5407488098914401,
                0.6317503025732822,
                0.03336018218064232,
                -1.1087996882143882
            ]
        },
        {
            "positions": [
                -0.19955917454603284,
                -1.783503213275234,
                1.6129768555000958,
                0.5761551683131779,
                0.06792171703592603,
                -1.2428513562933743
            ]
        },
        {
            "positions": [
                -0.13118631015786972,
                -1.802327727064801,
                1.6852049011087518,
                0.5205600340530736,
                0.10248325189120974,
                -1.3769030243723601
            ]
        },
        {
            "positions": [
                -0.06281344576970666,
                -1.8211522408543679,
                1.7574329467174077,
                0.4649648997929694,
                0.13704478674649342,
                -1.5109546924513462
            ]
        },
        {
            "positions": [
                0.005559418618456491,
                -1.8399767546439347,
                1.8296609923260636,
                0.40936976553286514,
                0.17160632160177713,
                -1.6450063605303322
            ]
        },
        {
            "positions": [
                0.07393228300661958,
                -1.8588012684335018,
                1.9018890379347195,
                0.3537746312727609,
                0.20616785645706084,
                -1.7790580286093183
            ]
        },
        {
            "positions": [
                0.14230514739478273,
                -1.8776257822230686,
                1.9741170835433755,
                0.2981794970126566,
                0.24072939131234455,
                -1.9131096966883043
            ]
        },
        {
            "positions": [
                0.2106780117829457,
                -1.8964502960126355,
                2.046345129152031,
                0.24258436275255235,
                0.27529092616762824,
                -2.04716136476729
            ]
        },
        {
            "positions": [
                0.27905087617110885,
                -1.9152748098022023,
                2.1185731747606873,
                0.18698922849244815,
                0.309852461022912,
                -2.1812130328462764
            ]
        },
        {
            "positions": [
                0.347423740559272,
                -1.9340993235917692,
                2.1908012203693428,
                0.13139409423234383,
                0.34441399587819566,
                -2.3152647009252627
            ]
        },
        {
            "positions": [
                0.41579660494743503,
                -1.9529238373813362,
                2.2630292659779987,
                0.07579895997223962,
                0.37897553073347934,
                -2.449316369004248
            ]
        },
        {
            "positions": [
                0.4841694693355982,
                -1.971748351170903,
                2.3352573115866546,
                0.020203825712135304,
                0.4135370655887631,
                -2.5833680370832344
            ]
        },
        {
            "positions": [
                0.5282726803756237,
                -1.9589771741434978,
                2.3466284931927786,
                -0.07686122544753443,
                0.471785499549671,
                -2.6928519425473136
            ]
        },
        {
            "positions": [
                0.5723758914156492,
                -1.9462059971160928,
                2.357999674798903,
                -0.17392627660720417,
                0.5300339335105788,
                -2.8023358480113925
            ]
        },
        {
            "positions": [
                0.6164791024556746,
                -1.9334348200886875,
                2.369370856405027,
                -0.27099132776687385,
                0.5882823674714868,
                -2.9118197534754717
            ]
        },
        {
            "positions": [
                0.6605823134957002,
                -1.9206636430612825,
                2.3807420380111513,
                -0.36805637892654364,
                0.6465308014323947,
                -3.0213036589395506
            ]
        },
        {
            "positions": [
                0.7046855245357256,
                -1.9078924660338772,
                2.392113219617275,
                -0.4651214300862133,
                0.7047792353933026,
                -3.13078756440363
            ]
        }
    ]
}