{
    "goal": {
        "global_pose": {
            "orientation": {
                "w": 0.5084816217422485,
                "x": -0.49083608388900757,
                "y": 0.5182115435600281,
                "z": -0.4816462993621826
            },
            "position": {
                "x": 0.5540239810943604,
                "y": 0.030875300988554955,
                "z": 0.16403168439865112
            }
        },
        "name": "move_to_storage_A"
    },
    "id": "ProjEST_move_to_storage_A_59",
    "joint_names": [
        "shoulder_pan_joint",
        "shoulder_lift_joint",
        "elbow_joint",
        "wrist_1_joint",
        "wrist_2_joint",
        "wrist_3_joint"
    ],
    "metrics": {
        "cart_traj_len": 0.35273957803460404,
        "distance_elbow_joint": 0.4499695668055752,
        "distance_shoulder_lift_joint": 0.2349688715827869,
        "distance_shoulder_pan_joint": 0.46076063700351716,
        "distance_wrist_1_joint": 0.245042016801453,
        "distance_wrist_2_joint": 1.100302627246015,
        "distance_wrist_3_joint": 0.09231020139255675,
        "smoothness": 4.440892098500626e-16,
        "time": 0.12351595500000001,
        "traj_len": 1.6072815312918594,
        "weighted_distance": 2.028131891092018
    },
    "planner": "ProjEST",
    "start": {
        "state": {
            "elbow_joint": 1.9715463870305268,
            "shoulder_lift_joint": -1.1394903361783484,
            "shoulder_pan_joint": 0.12281147578464417,
            "wrist_1_joint": -0.7804599489681411,
            "wrist_2_joint": 0.12958660307563738,
            "wrist_3_joint": -3.1924946282119055
        }
    },
    "waypoints": [
        {
            "positions": [
                0.12281147578464417,
                -1.1394903361783484,
                1.9715463870305268,
                -0.7804599489681411,
                0.12958660307563738,
                -3.1924946282119055
            ]
        },
        {
            "positions": [
                0.05698852764128458,
                -1.1730573178330321,
                2.0358277537170375,
                -0.8154659513683487,
                0.28677269268221095,
                -3.1793074565843975
            ]
        },
        {
            "positions": [
                -0.008834420502075016,
                -1.206624299487716,
                2.1001091204035482,
                -0.8504719537685562,
                0.4439587822887845,
                -3.1661202849568895
            ]
        },
        {
            "positions": [
                -0.07465736864543461,
                -1.2401912811423998,
                2.164390487090059,
                -0.8854779561687638,
                0.601144871895358,
                -3.1529331133293814
            ]
        },
        {
            "positions": [
                -0.1404803167887942,
                -1.2737582627970838,
                2.2286718537765697,
                -0.9204839585689714,
                0.7583309615019317,
                -3.139745941701873
            ]
        },
        {
            "positions": [
                -0.20630326493215378,
                -1.3073252444517676,
                2.2929532204630805,
                -0.9554899609691789,
                0.9155170511085053,
                -3.126558770074365
            ]
        },
        {
            "positions": [
                -0.2721262130755134,
                -1.3408922261064515,
                2.357234587149591,
                -0.9904959633693865,
                1.0727031407150787,
                -3.113371598446857
            ]
        },
        {
            "positions": [
                -0.337949161218873,
                -1.3744592077611353,
                2.421515953836102,
                -1.025501965769594,
                1.2298892303216524,
                -3.100184426819349
            ]
        }
    ]
}