{
    "goal": {
        "global_pose": {
            "orientation": {
                "w": 0.7031023502349854,
                "x": -0.7110244035720825,
                "y": 0.007748599164187908,
                "z": 0.005598929710686207
            },
            "position": {
                "x": 0.11585023208521307,
                "y": 0.44412534475326537,
                "z": 0.3711530566215515
            }
        },
        "name": "move_to_auspresseinheit_A"
    },
    "id": "ProjEST_move_to_auspresseinheit_A_131",
    "joint_names": [
        "shoulder_pan_joint",
        "shoulder_lift_joint",
        "elbow_joint",
        "wrist_1_joint",
        "wrist_2_joint",
        "wrist_3_joint"
    ],
    "metrics": {
        "cart_traj_len": 5.608415383936341,
        "distance_elbow_joint": 3.205655504180114,
        "distance_shoulder_lift_joint": 1.010711559515177,
        "distance_shoulder_pan_joint": 6.924162928191486,
        "distance_wrist_1_joint": 8.850266220924826,
        "distance_wrist_2_joint": 3.0497715200817463,
        "distance_wrist_3_joint": 1.0375137953301983,
        "smoothness": 0.7063957584288543,
        "time": 0.255644133,
        "traj_len": 4.906942176979829,
        "weighted_distance": 6.168723276326351
    },
    "planner": "ProjEST",
    "start": {
        "state": {
            "elbow_joint": 2.422574709923281,
            "shoulder_lift_joint": -1.3736533754116391,
            "shoulder_pan_joint": -0.33786336945926293,
            "wrist_1_joint": -1.0288603412921917,
            "wrist_2_joint": 1.2330224858903978,
            "wrist_3_joint": -3.094022268022082
        }
    },
    "waypoints": [
        {
            "positions": [
                -0.33786336945926293,
                -1.3736533754116391,
                2.422574709923281,
                -1.0288603412921917,
                1.2330224858903978,
                -3.094022268022082
            ]
        },
        {
            "positions": [
                -0.49550470418337145,
                -1.3743522996902893,
                2.314852533848668,
                -1.097750112085664,
                1.2138551356434446,
                -3.060339435018167
            ]
        },
        {
            "positions": [
                -0.6531460389074799,
                -1.3750512239689394,
                2.2071303577740555,
                -1.1666398828791367,
                1.1946877853964912,
                -3.0266566020142527
            ]
        },
        {
            "positions": [
                -0.8107873736315885,
                -1.3757501482475893,
                2.0994081816994425,
                -1.235529653672609,
                1.175520435149538,
                -2.9929737690103377
            ]
        },
        {
            "positions": [
                -0.9684287083556968,
                -1.3764490725262395,
                1.9916860056248296,
                -1.3044194244660816,
                1.1563530849025847,
                -2.959290936006423
            ]
        },
        {
            "positions": [
                -1.1260700430798054,
                -1.3771479968048896,
                1.8839638295502168,
                -1.373309195259554,
                1.1371857346556316,
                -2.9256081030025083
            ]
        },
        {
            "positions": [
                -1.283711377803914,
                -1.3778469210835398,
                1.7762416534756038,
                -1.4421989660530266,
                1.1180183844086784,
                -2.8919252699985933
            ]
        },
        {
            "positions": [
                -1.4413527125280226,
                -1.37854584536219,
                1.668519477400991,
                -1.511088736846499,
                1.098851034161725,
                -2.8582424369946784
            ]
        },
        {
            "positions": [
                -1.598994047252131,
                -1.3792447696408399,
                1.560797301326378,
                -1.5799785076399715,
                1.0796836839147719,
                -2.824559603990764
            ]
        },
        {
            "positions": [
                -1.7566353819762395,
                -1.37994369391949,
                1.4530751252517653,
                -1.6488682784334439,
                1.0605163336678185,
                -2.790876770986849
            ]
        },
        {
            "positions": [
                -1.9142767167003478,
                -1.3806426181981402,
                1.3453529491771525,
                -1.7177580492269162,
                1.0413489834208653,
                -2.757193937982934
            ]
        },
        {
            "positions": [
                -2.0719180514244564,
                -1.3813415424767903,
                1.2376307731025395,
                -1.7866478200203888,
                1.0221816331739122,
                -2.7235111049790195
            ]
        },
        {
            "positions": [
                -2.2295593861485647,
                -1.3820404667554405,
                1.1299085970279266,
                -1.8555375908138614,
                1.0030142829269588,
                -2.6898282719751045
            ]
        },
        {
            "positions": [
                -2.387200720872673,
                -1.3827393910340904,
                1.0221864209533138,
                -1.9244273616073337,
                0.9838469326800057,
                -2.6561454389711896
            ]
        },
        {
            "positions": [
                -2.544842055596782,
                -1.3834383153127405,
                0.9144642448787008,
                -1.993317132400806,
                0.9646795824330524,
                -2.622462605967275
            ]
        },
        {
            "positions": [
                -2.7024833903208902,
                -1.3841372395913907,
                0.806742068804088,
                -2.0622069031942787,
                0.9455122321860991,
                -2.58877977296336
            ]
        },
        {
            "positions": [
                -2.569694274855435,
                -1.4095873109891999,
                0.8265007222069258,
                -1.9054911596785087,
                0.8954688443665565,
                -2.5928778220521567
            ]
        },
        {
            "positions": [
                -2.43690515938998,
                -1.435037382387009,
                0.8462593756097636,
                -1.7487754161627387,
                0.8454254565470138,
                -2.5969758711409527
            ]
        },
        {
            "positions": [
                -2.304116043924525,
                -1.4604874537848183,
                0.8660180290126015,
                -1.592059672646969,
                0.7953820687274712,
                -2.601073920229749
            ]
        },
        {
            "positions": [
                -2.1713269284590697,
                -1.4859375251826274,
                0.8857766824154393,
                -1.435343929131199,
                0.7453386809079285,
                -2.6051719693185453
            ]
        },
        {
            "positions": [
                -2.038537812993615,
                -1.5113875965804366,
                0.905535335818277,
                -1.2786281856154291,
                0.695295293088386,
                -2.609270018407342
            ]
        },
        {
            "positions": [
                -1.9057486975281597,
                -1.5368376679782458,
                0.9252939892211149,
                -1.1219124420996591,
                0.6452519052688432,
                -2.613368067496138
            ]
        },
        {
            "positions": [
                -1.7729595820627044,
                -1.562287739376055,
                0.9450526426239527,
                -0.9651966985838891,
                0.5952085174493007,
                -2.617466116584934
            ]
        },
        {
            "positions": [
                -1.6401704665972494,
                -1.5877378107738642,
                0.9648112960267905,
                -0.8084809550681191,
                0.5451651296297579,
                -2.6215641656737305
            ]
        },
        {
            "positions": [
                -1.5073813511317944,
                -1.6131878821716732,
                0.9845699494296283,
                -0.6517652115523493,
                0.4951217418102154,
                -2.625662214762527
            ]
        },
        {
            "positions": [
                -1.3745922356663394,
                -1.6386379535694824,
                1.004328602832466,
                -0.49504946803657934,
                0.44507835399067275,
                -2.629760263851323
            ]
        },
        {
            "positions": [
                -1.2418031202008843,
                -1.6640880249672916,
                1.0240872562353038,
                -0.33833372452080934,
                0.3950349661711301,
                -2.633858312940119
            ]
        },
        {
            "positions": [
                -1.109014004735429,
                -1.6895380963651008,
                1.0438459096381418,
                -0.18161798100503934,
                0.34499157835158734,
                -2.6379563620289157
            ]
        },
        {
            "positions": [
                -0.9762248892699739,
                -1.71498816776291,
                1.0636045630409796,
                -0.024902237489269563,
                0.2949481905320448,
                -2.642054411117712
            ]
        },
        {
            "positions": [
                -0.8434357738045188,
                -1.7404382391607192,
                1.0833632164438174,
                0.13181350602650044,
                0.24490480271250215,
                -2.6461524602065083
            ]
        },
        {
            "positions": [
                -0.7106466583390638,
                -1.7658883105585284,
                1.1031218698466552,
                0.28852924954227044,
                0.1948614148929595,
                -2.6502505092953044
            ]
        },
        {
            "positions": [
                -0.5778575428736086,
                -1.7913383819563375,
                1.122880523249493,
                0.44524499305804044,
                0.14481802707341684,
                -2.654348558384101
            ]
        },
        {
            "positions": [
                -0.4450684274081538,
                -1.8167884533541467,
                1.1426391766523307,
                0.6019607365738104,
                0.0947746392538742,
                -2.6584466074728974
            ]
        },
        {
            "positions": [
                -0.31227931194269853,
                -1.842238524751956,
                1.1623978300551685,
                0.75867648008958,
                0.044731251434331654,
                -2.6625446565616935
            ]
        },
        {
            "positions": [
                -0.17949019647724374,
                -1.8676885961497651,
                1.1821564834580065,
                0.91539222360535,
                -0.005312136385210997,
                -2.6666427056504896
            ]
        },
        {
            "positions": [
                -0.04670108101178849,
                -1.893138667547574,
                1.201915136860844,
                1.07210796712112,
                -0.05535552420475365,
                -2.670740754739286
            ]
        },
        {
            "positions": [
                0.08608803445366675,
                -1.9185887389453833,
                1.221673790263682,
                1.22882371063689,
                -0.10539891202429619,
                -2.6748388038280826
            ]
        },
        {
            "positions": [
                0.21887714991912155,
                -1.9440388103431925,
                1.2414324436665198,
                1.38553945415266,
                -0.15544229984383895,
                -2.6789368529168787
            ]
        },
        {
            "positions": [
                0.35166626538457724,
                -1.9694888817410017,
                1.2611910970693576,
                1.54225519766843,
                -0.2054856876633817,
                -2.6830349020056747
            ]
        },
        {
            "positions": [
                0.48445538085003204,
                -1.9949389531388109,
                1.2809497504721954,
                1.6989709411842,
                -0.2555290754829245,
                -2.6871329510944713
            ]
        },
        {
            "positions": [
                0.6172444963154873,
                -2.02038902453662,
                1.3007084038750332,
                1.85568668469997,
                -0.305572463302467,
                -2.6912310001832678
            ]
        },
        {
            "positions": [
                0.7500336117809425,
                -2.0458390959344293,
                1.3204670572778712,
                2.0124024282157396,
                -0.35561585112200955,
                -2.695329049272064
            ]
        },
        {
            "positions": [
                0.8828227272463973,
                -2.0712891673322384,
                1.3402257106807087,
                2.1691181717315096,
                -0.4056592389415523,
                -2.69942709836086
            ]
        },
        {
            "positions": [
                1.0156118427118526,
                -2.0967392387300476,
                1.3599843640835467,
                2.3258339152472796,
                -0.45570262676109485,
                -2.7035251474496564
            ]
        },
        {
            "positions": [
                1.1484009581773074,
                -2.122189310127857,
                1.3797430174863845,
                2.4825496587630496,
                -0.5057460145806376,
                -2.707623196538453
            ]
        },
        {
            "positions": [
                1.2811900736427626,
                -2.147639381525666,
                1.3995016708892223,
                2.6392654022788196,
                -0.5557894024001802,
                -2.711721245627249
            ]
        },
        {
            "positions": [
                1.247315400503574,
                -2.1337143489726573,
                1.4581524509466213,
                2.456003793246488,
                -0.4816153064124644,
                -2.7357994707806363
            ]
        },
        {
            "positions": [
                1.2134407273643855,
                -2.119789316419648,
                1.5168032310040205,
                2.2727421842141564,
                -0.4074412104247486,
                -2.759877695934024
            ]
        },
        {
            "positions": [
                1.179566054225197,
                -2.1058642838666395,
                1.5754540110614195,
                2.089480575181825,
                -0.33326711443703283,
                -2.7839559210874114
            ]
        },
        {
            "positions": [
                1.1456913810860083,
                -2.091939251313631,
                1.6341047911188187,
                1.9062189661494935,
                -0.2590930184493171,
                -2.808034146240799
            ]
        },
        {
            "positions": [
                1.1118167079468195,
                -2.078014218760622,
                1.6927555711762177,
                1.722957357117162,
                -0.1849189224616013,
                -2.8321123713941865
            ]
        },
        {
            "positions": [
                1.077942034807631,
                -2.064089186207613,
                1.7514063512336167,
                1.5396957480848303,
                -0.11074482647388556,
                -2.856190596547574
            ]
        },
        {
            "positions": [
                1.0440673616684424,
                -2.0501641536546042,
                1.8100571312910159,
                1.356434139052499,
                -0.03657073048616988,
                -2.8802688217009615
            ]
        },
        {
            "positions": [
                1.0101926885292538,
                -2.0362391211015956,
                1.8687079113484149,
                1.1731725300201674,
                0.03760336550154597,
                -2.904347046854349
            ]
        },
        {
            "positions": [
                0.9763180153900652,
                -2.0223140885485864,
                1.9273586914058138,
                0.9899109209878358,
                0.11177746148926171,
                -2.9284252720077366
            ]
        },
        {
            "positions": [
                0.9424433422508767,
                -2.0083890559955777,
                1.986009471463213,
                0.8066493119555043,
                0.18595155747697756,
                -2.952503497161124
            ]
        },
        {
            "positions": [
                0.908568669111688,
                -1.994464023442569,
                2.0446602515206123,
                0.6233877029231727,
                0.2601256534646933,
                -2.9765817223145117
            ]
        },
        {
            "positions": [
                0.8746939959724994,
                -1.98053899088956,
                2.103311031578011,
                0.4401260938908411,
                0.33429974945240903,
                -3.000659947467899
            ]
        },
        {
            "positions": [
                0.8408193228333108,
                -1.9666139583365512,
                2.1619618116354102,
                0.25686448485851,
                0.40847384544012466,
                -3.0247381726212863
            ]
        },
        {
            "positions": [
                0.8069446496941223,
                -1.9526889257835425,
                2.2206125916928094,
                0.07360287582617842,
                0.4826479414278404,
                -3.048816397774674
            ]
        },
        {
            "positions": [
                0.7730699765549337,
                -1.9387638932305336,
                2.2792633717502087,
                -0.10965873320615316,
                0.5568220374155564,
                -3.0728946229280614
            ]
        },
        {
            "positions": [
                0.739195303415745,
                -1.9248388606775249,
                2.3379141518076074,
                -0.29292034223848473,
                0.6309961334032721,
                -3.096972848081449
            ]
        },
        {
            "positions": [
                0.7053206302765564,
                -1.910913828124516,
                2.3965649318650066,
                -0.4761819512708165,
                0.7051702293909878,
                -3.1210510732348364
            ]
        }
    ]
}