{
    "goal": {
        "global_pose": {
            "orientation": {
                "w": 0.5084816217422485,
                "x": -0.49083608388900757,
                "y": 0.5182115435600281,
                "z": -0.4816462993621826
            },
            "position": {
                "x": 0.5540239810943604,
                "y": 0.030875300988554955,
                "z": 0.16403168439865112
            }
        },
        "name": "move_to_storage_A"
    },
    "id": "ProjEST_move_to_storage_A_11",
    "joint_names": [
        "shoulder_pan_joint",
        "shoulder_lift_joint",
        "elbow_joint",
        "wrist_1_joint",
        "wrist_2_joint",
        "wrist_3_joint"
    ],
    "metrics": {
        "cart_traj_len": 0.35323722023744974,
        "distance_elbow_joint": 0.4469222549199787,
        "distance_shoulder_lift_joint": 0.2348134126567274,
        "distance_shoulder_pan_joint": 0.46056163109750853,
        "distance_wrist_1_joint": 0.23415458592154204,
        "distance_wrist_2_joint": 1.1043456415772652,
        "distance_wrist_3_joint": 0.10401395396165825,
        "smoothness": 1.3322676330666221e-15,
        "time": 0.086828875,
        "traj_len": 1.607734891123123,
        "weighted_distance": 2.0325697074287032
    },
    "planner": "ProjEST",
    "start": {
        "state": {
            "elbow_joint": 1.9715463870305268,
            "shoulder_lift_joint": -1.1394903361783484,
            "shoulder_pan_joint": 0.12281147578464417,
            "wrist_1_joint": -0.7804599489681411,
            "wrist_2_joint": 0.12958660307563738,
            "wrist_3_joint": -3.1924946282119055
        }
    },
    "waypoints": [
        {
            "positions": [
                0.12281147578464417,
                -1.1394903361783484,
                1.9715463870305268,
                -0.7804599489681411,
                0.12958660307563738,
                -3.1924946282119055
            ]
        },
        {
            "positions": [
                0.057016957056428674,
                -1.1730351094150238,
                2.0353924234476666,
                -0.81391060409979,
                0.28735026615810383,
                -3.1776354919316687
            ]
        },
        {
            "positions": [
                -0.008777561671786824,
                -1.2065798826516991,
                2.0992384598648064,
                -0.8473612592314388,
                0.44511392924057025,
                -3.162776355651432
            ]
        },
        {
            "positions": [
                -0.07457208040000234,
                -1.2401246558883745,
                2.163084496281946,
                -0.8808119143630877,
                0.6028775923230367,
                -3.147917219371195
            ]
        },
        {
            "positions": [
                -0.1403665991282178,
                -1.2736694291250497,
                2.226930532699086,
                -0.9142625694947365,
                0.7606412554055032,
                -3.133058083090958
            ]
        },
        {
            "positions": [
                -0.20616111785643332,
                -1.307214202361725,
                2.290776569116226,
                -0.9477132246263854,
                0.9184049184879697,
                -3.118198946810721
            ]
        },
        {
            "positions": [
                -0.27195563658464883,
                -1.3407589755984004,
                2.3546226055333657,
                -0.9811638797580342,
                1.076168581570436,
                -3.103339810530484
            ]
        },
        {
            "positions": [
                -0.33775015531286434,
                -1.3743037488350758,
                2.4184686419505055,
                -1.0146145348896831,
                1.2339322446529026,
                -3.0884806742502473
            ]
        }
    ]
}