{
    "goal": {
        "global_pose": {
            "orientation": {
                "w": 0.5084816217422485,
                "x": -0.49083608388900757,
                "y": 0.5182115435600281,
                "z": -0.4816462993621826
            },
            "position": {
                "x": 0.5540239810943604,
                "y": 0.030875300988554955,
                "z": 0.16403168439865112
            }
        },
        "name": "move_to_storage_A"
    },
    "id": "ProjEST_move_to_storage_A_21",
    "joint_names": [
        "shoulder_pan_joint",
        "shoulder_lift_joint",
        "elbow_joint",
        "wrist_1_joint",
        "wrist_2_joint",
        "wrist_3_joint"
    ],
    "metrics": {
        "cart_traj_len": 0.3526767093154165,
        "distance_elbow_joint": 0.45084731217440766,
        "distance_shoulder_lift_joint": 0.23413547858133854,
        "distance_shoulder_pan_joint": 0.46237784843452584,
        "distance_wrist_1_joint": 0.24478603361361972,
        "distance_wrist_2_joint": 1.0930341911727124,
        "distance_wrist_3_joint": 0.09843228797428871,
        "smoothness": 4.440892133664971e-16,
        "time": 0.048703491,
        "traj_len": 1.6073621719920166,
        "weighted_distance": 2.029359000444673
    },
    "planner": "ProjEST",
    "start": {
        "state": {
            "elbow_joint": 1.9715463870305268,
            "shoulder_lift_joint": -1.1394903361783484,
            "shoulder_pan_joint": 0.12281147578464417,
            "wrist_1_joint": -0.7804599489681411,
            "wrist_2_joint": 0.12958660307563738,
            "wrist_3_joint": -3.1924946282119055
        }
    },
    "waypoints": [
        {
            "positions": [
                0.12281147578464417,
                -1.1394903361783484,
                1.9715463870305268,
                -0.7804599489681411,
                0.12958660307563738,
                -3.1924946282119055
            ]
        },
        {
            "positions": [
                0.056757497436854765,
                -1.1729382616899682,
                2.035953145912585,
                -0.8154293823415153,
                0.28573434467173914,
                -3.178432872787007
            ]
        },
        {
            "positions": [
                -0.009296480910934643,
                -1.206386187201588,
                2.1003599047946433,
                -0.8503988157148896,
                0.44188208626784087,
                -3.164371117362109
            ]
        },
        {
            "positions": [
                -0.07535045925872404,
                -1.2398341127132078,
                2.1647666636767013,
                -0.8853682490882638,
                0.5980298278639427,
                -3.1503093619372105
            ]
        },
        {
            "positions": [
                -0.14140443760651344,
                -1.2732820382248276,
                2.22917342255876,
                -0.920337682461638,
                0.7541775694600444,
                -3.136247606512312
            ]
        },
        {
            "positions": [
                -0.20745841595430287,
                -1.3067299637364473,
                2.293580181440818,
                -0.9553071158350124,
                0.9103253110561462,
                -3.1221858510874134
            ]
        },
        {
            "positions": [
                -0.27351239430209223,
                -1.3401778892480671,
                2.357986940322876,
                -0.9902765492083865,
                1.066473052652248,
                -3.1081240956625154
            ]
        },
        {
            "positions": [
                -0.33956637264988165,
                -1.373625814759687,
                2.4223936992049344,
                -1.0252459825817608,
                1.2226207942483498,
                -3.094062340237617
            ]
        }
    ]
}