{
    "goal": {
        "global_pose": {
            "orientation": {
                "w": 0.7031023502349854,
                "x": -0.7110244035720825,
                "y": 0.007748599164187908,
                "z": 0.005598929710686207
            },
            "position": {
                "x": 0.11585023208521307,
                "y": 0.44412534475326537,
                "z": 0.3711530566215515
            }
        },
        "name": "move_to_auspresseinheit_A"
    },
    "id": "ProjEST_move_to_auspresseinheit_A_119",
    "joint_names": [
        "shoulder_pan_joint",
        "shoulder_lift_joint",
        "elbow_joint",
        "wrist_1_joint",
        "wrist_2_joint",
        "wrist_3_joint"
    ],
    "metrics": {
        "cart_traj_len": 1.059153682008114,
        "distance_elbow_joint": 0.7140630649920223,
        "distance_shoulder_lift_joint": 0.9120940137837799,
        "distance_shoulder_pan_joint": 1.541046531554428,
        "distance_wrist_1_joint": 1.8637981104584358,
        "distance_wrist_2_joint": 1.2764847179774477,
        "distance_wrist_3_joint": 2.207871408090698,
        "smoothness": 1.0345230399064655,
        "time": 0.191894563,
        "traj_len": 2.91810860778978,
        "weighted_distance": 4.008913006224268
    },
    "planner": "ProjEST",
    "start": {
        "state": {
            "elbow_joint": 2.422574709923281,
            "shoulder_lift_joint": -1.3736533754116391,
            "shoulder_pan_joint": -0.33786336945926293,
            "wrist_1_joint": -1.0288603412921917,
            "wrist_2_joint": 1.2330224858903978,
            "wrist_3_joint": -3.094022268022082
        }
    },
    "waypoints": [
        {
            "positions": [
                -0.33786336945926293,
                -1.3736533754116391,
                2.422574709923281,
                -1.0288603412921917,
                1.2330224858903978,
                -3.094022268022082
            ]
        },
        {
            "positions": [
                -0.35863666974561637,
                -1.433770575853884,
                2.39140314352158,
                -0.9272808805037923,
                1.1575597830778432,
                -3.0040037456749626
            ]
        },
        {
            "positions": [
                -0.37940997003196975,
                -1.4938877762961287,
                2.360231577119879,
                -0.8257014197153929,
                1.0820970802652887,
                -2.9139852233278436
            ]
        },
        {
            "positions": [
                -0.4001832703183232,
                -1.5540049767383737,
                2.3290600107181785,
                -0.7241219589269935,
                1.0066343774527344,
                -2.823966700980724
            ]
        },
        {
            "positions": [
                -0.42095657060467656,
                -1.6141221771806185,
                2.2978884443164773,
                -0.6225424981385941,
                0.9311716746401799,
                -2.7339481786336046
            ]
        },
        {
            "positions": [
                -0.44172987089103,
                -1.6742393776228632,
                2.266716877914776,
                -0.5209630373501947,
                0.8557089718276254,
                -2.6439296562864856
            ]
        },
        {
            "positions": [
                -0.4625031711773834,
                -1.734356578065108,
                2.2355453115130755,
                -0.41938357656179526,
                0.7802462690150709,
                -2.553911133939366
            ]
        },
        {
            "positions": [
                -0.4832764714637368,
                -1.7944737785073528,
                2.2043737451113747,
                -0.31780411577339585,
                0.7047835662025164,
                -2.4638926115922466
            ]
        },
        {
            "positions": [
                -0.5040497717500902,
                -1.8545909789495976,
                2.1732021787096736,
                -0.21622465498499643,
                0.629320863389962,
                -2.3738740892451275
            ]
        },
        {
            "positions": [
                -0.5248230720364436,
                -1.9147081793918423,
                2.1420306123079724,
                -0.11464519419659702,
                0.5538581605774074,
                -2.283855566898008
            ]
        },
        {
            "positions": [
                -0.545596372322797,
                -1.9748253798340873,
                2.1108590459062717,
                -0.01306573340819761,
                0.4783954577648529,
                -2.1938370445508886
            ]
        },
        {
            "positions": [
                -0.5663696726091505,
                -2.034942580276332,
                2.079687479504571,
                0.08851372738020169,
                0.4029327549522985,
                -2.1038185222037695
            ]
        },
        {
            "positions": [
                -0.5871429728955039,
                -2.095059780718577,
                2.04851591310287,
                0.19009318816860116,
                0.327470052139744,
                -2.01379999985665
            ]
        },
        {
            "positions": [
                -0.4697096157938505,
                -2.0777245435843184,
                2.0794253920275616,
                0.13147095353245186,
                0.36119116888763436,
                -2.116313558031674
            ]
        },
        {
            "positions": [
                -0.35227625869219714,
                -2.0603893064500602,
                2.110334870952254,
                0.07284871889630254,
                0.39491228563552466,
                -2.2188271162066986
            ]
        },
        {
            "positions": [
                -0.23484290159054383,
                -2.0430540693158017,
                2.1412443498769456,
                0.014226484260153244,
                0.42863340238341496,
                -2.3213406743817226
            ]
        },
        {
            "positions": [
                -0.1174095444888904,
                -2.0257188321815436,
                2.1721538288016373,
                -0.04439575037599608,
                0.4623545191313053,
                -2.4238542325567467
            ]
        },
        {
            "positions": [
                2.3812612762852403e-05,
                -2.008383595047285,
                2.2030633077263295,
                -0.10301798501214537,
                0.4960756358791956,
                -2.5263677907317708
            ]
        },
        {
            "positions": [
                0.11745716971441622,
                -1.9910483579130267,
                2.2339727866510213,
                -0.16164021964829467,
                0.5297967526270859,
                -2.628881348906795
            ]
        },
        {
            "positions": [
                0.2348905268160696,
                -1.9737131207787684,
                2.2648822655757135,
                -0.22026245428444402,
                0.5635178693749763,
                -2.7313949070818193
            ]
        },
        {
            "positions": [
                0.35232388391772307,
                -1.9563778836445098,
                2.2957917445004052,
                -0.2788846889205933,
                0.5972389861228666,
                -2.8339084652568434
            ]
        },
        {
            "positions": [
                0.4697572410193763,
                -1.9390426465102515,
                2.326701223425097,
                -0.33750692355674267,
                0.630960102870757,
                -2.9364220234318674
            ]
        },
        {
            "positions": [
                0.5871905981210296,
                -1.9217074093759932,
                2.357610702349789,
                -0.3961291581928919,
                0.6646812196186472,
                -3.038935581606892
            ]
        },
        {
            "positions": [
                0.7046239552226831,
                -1.9043721722417348,
                2.388520181274481,
                -0.45475139282904126,
                0.6984023363665376,
                -3.141449139781916
            ]
        }
    ]
}