{
    "goal": {
        "global_pose": {
            "orientation": {
                "w": 0.7031023502349854,
                "x": -0.7110244035720825,
                "y": 0.007748599164187908,
                "z": 0.005598929710686207
            },
            "position": {
                "x": 0.11585023208521307,
                "y": 0.44412534475326537,
                "z": 0.3711530566215515
            }
        },
        "name": "move_to_auspresseinheit_A"
    },
    "id": "ProjEST_move_to_auspresseinheit_A_12",
    "joint_names": [
        "shoulder_pan_joint",
        "shoulder_lift_joint",
        "elbow_joint",
        "wrist_1_joint",
        "wrist_2_joint",
        "wrist_3_joint"
    ],
    "metrics": {
        "cart_traj_len": 2.2147152082599626,
        "distance_elbow_joint": 2.148133917746105,
        "distance_shoulder_lift_joint": 0.9133912651292544,
        "distance_shoulder_pan_joint": 1.0444289268008413,
        "distance_wrist_1_joint": 2.8495074990628377,
        "distance_wrist_2_joint": 2.950317490719928,
        "distance_wrist_3_joint": 10.946740779590971,
        "smoothness": 0.5688766809268082,
        "time": 0.482640452,
        "traj_len": 4.566455942966047,
        "weighted_distance": 6.967483507552395
    },
    "planner": "ProjEST",
    "start": {
        "state": {
            "elbow_joint": 2.422574709923281,
            "shoulder_lift_joint": -1.3736533754116391,
            "shoulder_pan_joint": -0.33786336945926293,
            "wrist_1_joint": -1.0288603412921917,
            "wrist_2_joint": 1.2330224858903978,
            "wrist_3_joint": -3.094022268022082
        }
    },
    "waypoints": [
        {
            "positions": [
                -0.33786336945926293,
                -1.3736533754116391,
                2.422574709923281,
                -1.0288603412921917,
                1.2330224858903978,
                -3.094022268022082
            ]
        },
        {
            "positions": [
                -0.31607123029322787,
                -1.3999586998959184,
                2.382308665075317,
                -1.0670078434296593,
                1.1687897545523385,
                -2.8918925365592427
            ]
        },
        {
            "positions": [
                -0.29427909112719286,
                -1.4262640243801978,
                2.3420426202273537,
                -1.1051553455671266,
                1.1045570232142792,
                -2.6897628050964033
            ]
        },
        {
            "positions": [
                -0.2724869519611578,
                -1.452569348864477,
                2.3017765753793897,
                -1.1433028477045941,
                1.0403242918762199,
                -2.487633073633564
            ]
        },
        {
            "positions": [
                -0.25069481279512273,
                -1.4788746733487566,
                2.261510530531426,
                -1.1814503498420617,
                0.9760915605381607,
                -2.2855033421707245
            ]
        },
        {
            "positions": [
                -0.22890267362908773,
                -1.5051799978330358,
                2.221244485683462,
                -1.219597851979529,
                0.9118588292001015,
                -2.083373610707885
            ]
        },
        {
            "positions": [
                -0.2071105344630527,
                -1.5314853223173153,
                2.1809784408354984,
                -1.2577453541169965,
                0.8476260978620422,
                -1.8812438792450457
            ]
        },
        {
            "positions": [
                -0.18531839529701763,
                -1.5577906468015945,
                2.1407123959875345,
                -1.295892856254464,
                0.783393366523983,
                -1.6791141477822062
            ]
        },
        {
            "positions": [
                -0.1635262561309826,
                -1.584095971285874,
                2.1004463511395706,
                -1.3340403583919316,
                0.7191606351859237,
                -1.4769844163193668
            ]
        },
        {
            "positions": [
                -0.14173411696494756,
                -1.6104012957701532,
                2.060180306291607,
                -1.372187860529399,
                0.6549279038478644,
                -1.2748546848565274
            ]
        },
        {
            "positions": [
                -0.11994197779891252,
                -1.6367066202544325,
                2.019914261443643,
                -1.4103353626668664,
                0.5906951725098052,
                -1.072724953393688
            ]
        },
        {
            "positions": [
                -0.09814983863287749,
                -1.663011944738712,
                1.9796482165956795,
                -1.448482864804334,
                0.5264624411717459,
                -0.8705952219308486
            ]
        },
        {
            "positions": [
                -0.07635769946684245,
                -1.6893172692229912,
                1.9393821717477155,
                -1.4866303669418013,
                0.4622297098336866,
                -0.6684654904680092
            ]
        },
        {
            "positions": [
                -0.05456556030080739,
                -1.7156225937072707,
                1.8991161268997518,
                -1.5247778690792688,
                0.3979969784956273,
                -0.46633575900516977
            ]
        },
        {
            "positions": [
                -0.03277342113477233,
                -1.74192791819155,
                1.858850082051788,
                -1.5629253712167364,
                0.33376424715756814,
                -0.26420602754233036
            ]
        },
        {
            "positions": [
                -0.010981281968737266,
                -1.7682332426758294,
                1.8185840372038242,
                -1.601072873354204,
                0.26953151581950874,
                -0.0620762960794905
            ]
        },
        {
            "positions": [
                0.01081085719729774,
                -1.7945385671601086,
                1.7783179923558605,
                -1.6392203754916712,
                0.20529878448144956,
                0.14005343538334847
            ]
        },
        {
            "positions": [
                0.032602996363332803,
                -1.820843891644388,
                1.7380519475078966,
                -1.6773678776291387,
                0.14106605314339027,
                0.3421831668461883
            ]
        },
        {
            "positions": [
                0.05439513552936781,
                -1.8471492161286673,
                1.697785902659933,
                -1.715515379766606,
                0.07683332180533098,
                0.5443128983090273
            ]
        },
        {
            "positions": [
                0.07618727469540287,
                -1.8734545406129466,
                1.657519857811969,
                -1.7536628819040736,
                0.012600590467271688,
                0.7464426297718671
            ]
        },
        {
            "positions": [
                0.09797941386143788,
                -1.899759865097226,
                1.6172538129640053,
                -1.7918103840415411,
                -0.05163214087078738,
                0.9485723612347061
            ]
        },
        {
            "positions": [
                0.11977155302747294,
                -1.9260651895815055,
                1.5769877681160414,
                -1.8299578861790087,
                -0.11586487220884689,
                1.150702092697546
            ]
        },
        {
            "positions": [
                0.14156369219350795,
                -1.9523705140657848,
                1.5367217232680779,
                -1.8681053883164762,
                -0.18009760354690596,
                1.352831824160385
            ]
        },
        {
            "positions": [
                0.16335583135954307,
                -1.978675838550064,
                1.496455678420114,
                -1.9062528904539435,
                -0.24433033488496547,
                1.5549615556232248
            ]
        },
        {
            "positions": [
                0.18514797052557802,
                -2.0049811630343433,
                1.45618963357215,
                -1.9444003925914108,
                -0.30856306622302454,
                1.7570912870860638
            ]
        },
        {
            "positions": [
                0.20694010969161308,
                -2.0312864875186225,
                1.4159235887241863,
                -1.9825478947288784,
                -0.37279579756108383,
                1.9592210185489036
            ]
        },
        {
            "positions": [
                0.22873224885764815,
                -2.057591812002902,
                1.3756575438762226,
                -2.020695396866346,
                -0.4370285288991431,
                2.1613507500117426
            ]
        },
        {
            "positions": [
                0.25052438802368326,
                -2.0838971364871814,
                1.3353914990282587,
                -2.0588428990038135,
                -0.5012612602372025,
                2.3634804814745825
            ]
        },
        {
            "positions": [
                0.2719831218903592,
                -2.084910405737352,
                1.380575355349101,
                -1.976372593234126,
                -0.4630069744883987,
                2.177436910362819
            ]
        },
        {
            "positions": [
                0.2934418557570352,
                -2.0859236749875225,
                1.4257592116699431,
                -1.8939022874644387,
                -0.424752688739595,
                1.9913933392510557
            ]
        },
        {
            "positions": [
                0.3149005896237111,
                -2.086936944237693,
                1.4709430679907853,
                -1.8114319816947515,
                -0.3864984029907912,
                1.8053497681392923
            ]
        },
        {
            "positions": [
                0.33635932349038705,
                -2.0879502134878636,
                1.5161269243116275,
                -1.7289616759250641,
                -0.34824411724198745,
                1.619306197027529
            ]
        },
        {
            "positions": [
                0.35781805735706296,
                -2.088963482738034,
                1.5613107806324698,
                -1.6464913701553767,
                -0.30998983149318365,
                1.433262625915766
            ]
        },
        {
            "positions": [
                0.3792767912237389,
                -2.0899767519882047,
                1.606494636953312,
                -1.5640210643856896,
                -0.27173554574437986,
                1.2472190548040023
            ]
        },
        {
            "positions": [
                0.4007355250904149,
                -2.090990021238375,
                1.651678493274154,
                -1.4815507586160022,
                -0.23348125999557606,
                1.0611754836922391
            ]
        },
        {
            "positions": [
                0.42219425895709084,
                -2.0920032904885457,
                1.6968623495949964,
                -1.3990804528463148,
                -0.19522697424677232,
                0.8751319125804757
            ]
        },
        {
            "positions": [
                0.4436529928237668,
                -2.0930165597387163,
                1.7420462059158384,
                -1.3166101470766276,
                -0.15697268849796853,
                0.6890883414687126
            ]
        },
        {
            "positions": [
                0.4651117266904427,
                -2.094029828988887,
                1.7872300622366806,
                -1.2341398413069402,
                -0.11871840274916479,
                0.5030447703569492
            ]
        },
        {
            "positions": [
                0.48657046055711867,
                -2.0950430982390573,
                1.8324139185575228,
                -1.1516695355372528,
                -0.08046411700036099,
                0.317001199245186
            ]
        },
        {
            "positions": [
                0.5080291944237947,
                -2.096056367489228,
                1.8775977748783652,
                -1.0691992297675654,
                -0.042209831251557195,
                0.13095762813342215
            ]
        },
        {
            "positions": [
                0.5294879282904705,
                -2.0970696367393984,
                1.9227816311992072,
                -0.986728923997878,
                -0.003955545502753399,
                -0.055085942978340796
            ]
        },
        {
            "positions": [
                0.5509466621571465,
                -2.098082905989569,
                1.9679654875200494,
                -0.9042586182281909,
                0.034298740246050397,
                -0.2411295140901042
            ]
        },
        {
            "positions": [
                0.5724053960238225,
                -2.0990961752397395,
                2.0131493438408916,
                -0.8217883124585035,
                0.07255302599485411,
                -0.4271730852018676
            ]
        },
        {
            "positions": [
                0.5889546237199224,
                -2.0928434045996385,
                2.051432520105678,
                -0.7639890277637071,
                0.1164304346403465,
                -0.6256819372804957
            ]
        },
        {
            "positions": [
                0.6055038514160223,
                -2.0865906339595375,
                2.0897156963704644,
                -0.7061897430689109,
                0.16030784328583889,
                -0.8241907893591238
            ]
        },
        {
            "positions": [
                0.622053079112122,
                -2.0803378633194365,
                2.1279988726352506,
                -0.6483904583741146,
                0.20418525193133127,
                -1.022699641437752
            ]
        },
        {
            "positions": [
                0.6386023068082219,
                -2.0740850926793355,
                2.1662820489000367,
                -0.5905911736793182,
                0.24806266057682366,
                -1.22120849351638
            ]
        },
        {
            "positions": [
                0.6551515345043218,
                -2.067832322039234,
                2.204565225164823,
                -0.532791888984522,
                0.2919400692223161,
                -1.419717345595008
            ]
        },
        {
            "positions": [
                0.6717007622004216,
                -2.061579551399133,
                2.242848401429609,
                -0.4749926042897257,
                0.33581747786780847,
                -1.6182261976736363
            ]
        },
        {
            "positions": [
                0.6882499898965215,
                -2.055326780759032,
                2.2811315776943957,
                -0.41719331959492933,
                0.37969488651330086,
                -1.8167350497522645
            ]
        },
        {
            "positions": [
                0.7047992175926214,
                -2.049074010118931,
                2.319414753959182,
                -0.35939403490013305,
                0.42357229515879324,
                -2.0152439018308925
            ]
        },
        {
            "positions": [
                0.7051524855424128,
                -2.0214887500828618,
                2.3348002443432136,
                -0.38340925034964024,
                0.4818123329980595,
                -2.2373466311886583
            ]
        },
        {
            "positions": [
                0.7055057534922042,
                -1.993903490046793,
                2.3501857347272455,
                -0.4074244657991475,
                0.5400523708373257,
                -2.459449360546424
            ]
        },
        {
            "positions": [
                0.7058590214419957,
                -1.9663182300107236,
                2.3655712251112777,
                -0.43143968124865467,
                0.598292408676592,
                -2.68155208990419
            ]
        },
        {
            "positions": [
                0.7062122893917872,
                -1.9387329699746545,
                2.3809567154953095,
                -0.4554548966981619,
                0.6565324465158583,
                -2.903654819261956
            ]
        },
        {
            "positions": [
                0.7065655573415786,
                -1.9111477099385854,
                2.3963422058793413,
                -0.4794701121476691,
                0.7147724843551245,
                -3.1257575486197218
            ]
        }
    ]
}