{
    "goal": {
        "global_pose": {
            "orientation": {
                "w": 0.7047431468963623,
                "x": -0.7094548344612122,
                "y": 0.0024358443915843964,
                "z": -0.0022348060738295317
            },
            "position": {
                "x": 0.6094750761985779,
                "y": 0.3671506643295288,
                "z": 0.19426114857196808
            }
        },
        "name": "move_to_magneteinheit_A"
    },
    "id": "ProjEST_move_to_magneteinheit_A_123",
    "joint_names": [
        "shoulder_pan_joint",
        "shoulder_lift_joint",
        "elbow_joint",
        "wrist_1_joint",
        "wrist_2_joint",
        "wrist_3_joint"
    ],
    "metrics": {
        "cart_traj_len": 2.058319748614395,
        "distance_elbow_joint": 3.906988949286575,
        "distance_shoulder_lift_joint": 1.1261225474454841,
        "distance_shoulder_pan_joint": 1.2414407360399642,
        "distance_wrist_1_joint": 1.28701031495156,
        "distance_wrist_2_joint": 1.44410022074707,
        "distance_wrist_3_joint": 4.253783152686305,
        "smoothness": 0.10116281170976876,
        "time": 0.30261553100000005,
        "traj_len": 3.641352210533466,
        "weighted_distance": 4.949557835022052
    },
    "planner": "ProjEST",
    "start": {
        "state": {
            "elbow_joint": -1.919643507792019,
            "shoulder_lift_joint": -0.07675430207160344,
            "shoulder_pan_joint": -1.1188671864651873,
            "wrist_1_joint": 0.42560062535961957,
            "wrist_2_joint": 1.5706038300724876,
            "wrist_3_joint": 1.1188968870953055
        }
    },
    "waypoints": [
        {
            "positions": [
                -1.1188671864651873,
                -0.07675430207160344,
                -1.919643507792019,
                0.42560062535961957,
                1.5706038300724876,
                1.1188968870953055
            ]
        },
        {
            "positions": [
                -1.0818236827193368,
                -0.11004913489120123,
                -1.8025401510441144,
                0.38672247459302533,
                1.5281287793119764,
                0.9928544373927237
            ]
        },
        {
            "positions": [
                -1.044780178973486,
                -0.14334396771079902,
                -1.6854367942962099,
                0.34784432382643116,
                1.485653728551465,
                0.8668119876901418
            ]
        },
        {
            "positions": [
                -1.0077366752276355,
                -0.1766388005303968,
                -1.5683334375483051,
                0.308966173059837,
                1.4431786777909539,
                0.7407695379875598
            ]
        },
        {
            "positions": [
                -0.970693171481785,
                -0.2099336333499946,
                -1.4512300808004004,
                0.27008802229324275,
                1.4007036270304425,
                0.614727088284978
            ]
        },
        {
            "positions": [
                -0.9336496677359345,
                -0.24322846616959237,
                -1.3341267240524957,
                0.23120987152664857,
                1.3582285762699313,
                0.4886846385823961
            ]
        },
        {
            "positions": [
                -0.8966061639900839,
                -0.27652329898919015,
                -1.217023367304591,
                0.19233172076005436,
                1.31575352550942,
                0.36264218887981425
            ]
        },
        {
            "positions": [
                -0.8595626602442332,
                -0.3098181318087879,
                -1.0999200105566862,
                0.15345356999346016,
                1.2732784747489088,
                0.23659973917723232
            ]
        },
        {
            "positions": [
                -0.8225191564983827,
                -0.34311296462838575,
                -0.9828166538087817,
                0.11457541922686593,
                1.2308034239883976,
                0.11055728947465049
            ]
        },
        {
            "positions": [
                -0.7854756527525322,
                -0.37640779744798347,
                -0.8657132970608772,
                0.0756972684602718,
                1.1883283732278862,
                -0.015485160227931338
            ]
        },
        {
            "positions": [
                -0.7484321490066815,
                -0.4097026302675813,
                -0.7486099403129722,
                0.03681911769367757,
                1.145853322467375,
                -0.1415276099305134
            ]
        },
        {
            "positions": [
                -0.711388645260831,
                -0.4429974630871791,
                -0.6315065835650677,
                -0.002059033072916605,
                1.1033782717068639,
                -0.267570059633095
            ]
        },
        {
            "positions": [
                -0.6743451415149804,
                -0.47629229590677685,
                -0.514403226817163,
                -0.04093718383951084,
                1.0609032209463525,
                -0.39361250933567704
            ]
        },
        {
            "positions": [
                -0.6373016377691298,
                -0.5095871287263747,
                -0.39729987006925827,
                -0.07981533460610507,
                1.0184281701858413,
                -0.5196549590382589
            ]
        },
        {
            "positions": [
                -0.6002581340232792,
                -0.5428819615459725,
                -0.28019651332135354,
                -0.11869348537269925,
                0.97595311942533,
                -0.6456974087408409
            ]
        },
        {
            "positions": [
                -0.5632146302774287,
                -0.5761767943655702,
                -0.16309315657344903,
                -0.15757163613929343,
                0.9334780686648187,
                -0.7717398584434225
            ]
        },
        {
            "positions": [
                -0.526171126531578,
                -0.6094716271851681,
                -0.0459897998255443,
                -0.1964497869058877,
                0.8910030179043075,
                -0.8977823081460046
            ]
        },
        {
            "positions": [
                -0.4891276227857275,
                -0.6427664600047658,
                0.07111355692236043,
                -0.23532793767248178,
                0.8485279671437963,
                -1.0238247578485864
            ]
        },
        {
            "positions": [
                -0.452084119039877,
                -0.6760612928243634,
                0.18821691367026472,
                -0.27420608843907596,
                0.806052916383285,
                -1.1498672075511682
            ]
        },
        {
            "positions": [
                -0.41504061529402625,
                -0.7093561256439613,
                0.3053202704181699,
                -0.31308423920567036,
                0.7635778656227736,
                -1.2759096572537505
            ]
        },
        {
            "positions": [
                -0.3779971115481757,
                -0.7426509584635592,
                0.4224236271660746,
                -0.3519623899722644,
                0.7211028148622625,
                -1.4019521069563323
            ]
        },
        {
            "positions": [
                -0.3409536078023252,
                -0.7759457912831569,
                0.5395269839139789,
                -0.3908405407388586,
                0.6786277641017513,
                -1.5279945566589137
            ]
        },
        {
            "positions": [
                -0.3039101040564747,
                -0.8092406241027548,
                0.6566303406618836,
                -0.4297186915054528,
                0.63615271334124,
                -1.6540370063614955
            ]
        },
        {
            "positions": [
                -0.2668666003106239,
                -0.8425354569223527,
                0.7737336974097888,
                -0.46859684227204706,
                0.5936776625807286,
                -1.7800794560640778
            ]
        },
        {
            "positions": [
                -0.2298230965647734,
                -0.8758302897419503,
                0.8908370541576931,
                -0.5074749930386413,
                0.5512026118202173,
                -1.9061219057666596
            ]
        },
        {
            "positions": [
                -0.19277959281892287,
                -0.909125122561548,
                1.0079404109055978,
                -0.5463531438052354,
                0.5087275610597062,
                -2.0321643554692415
            ]
        },
        {
            "positions": [
                -0.15573608907307235,
                -0.9424199553811459,
                1.1250437676535026,
                -0.5852312945718297,
                0.466252510299195,
                -2.1582068051718233
            ]
        },
        {
            "positions": [
                -0.1186925853272216,
                -0.9757147882007438,
                1.2421471244014073,
                -0.6241094453384239,
                0.4237774595386836,
                -2.2842492548744056
            ]
        },
        {
            "positions": [
                -0.08164908158137107,
                -1.0090096210203414,
                1.359250481149312,
                -0.662987596105018,
                0.38130240877817245,
                -2.4102917045769874
            ]
        },
        {
            "positions": [
                -0.04460557783552055,
                -1.0423044538399393,
                1.4763538378972163,
                -0.7018657468716123,
                0.3388273580176613,
                -2.5363341542795688
            ]
        },
        {
            "positions": [
                -0.007562074089670023,
                -1.075599286659537,
                1.593457194645121,
                -0.7407438976382064,
                0.2963523072571499,
                -2.6623766039821506
            ]
        },
        {
            "positions": [
                0.029481429656180724,
                -1.1088941194791349,
                1.7105605513930262,
                -0.7796220484048006,
                0.2538772564966385,
                -2.788419053684733
            ]
        },
        {
            "positions": [
                0.06652493340203125,
                -1.1421889522987327,
                1.8276639081409305,
                -0.8185001991713949,
                0.21140220573612734,
                -2.9144615033873147
            ]
        },
        {
            "positions": [
                0.10356843714788186,
                -1.1754837851183304,
                1.9447672648888352,
                -0.857378349937989,
                0.16892715497561606,
                -3.0405039530898965
            ]
        },
        {
            "positions": [
                0.12257354957477697,
                -1.1480907207195732,
                1.987345441494556,
                -0.8533470102840378,
                0.12650360932541757,
                -3.134886265590999
            ]
        }
    ]
}