{
    "goal": {
        "global_pose": {
            "orientation": {
                "w": 0.7031023502349854,
                "x": -0.7110244035720825,
                "y": 0.007748599164187908,
                "z": 0.005598929710686207
            },
            "position": {
                "x": 0.11585023208521307,
                "y": 0.44412534475326537,
                "z": 0.3711530566215515
            }
        },
        "name": "move_to_auspresseinheit_A"
    },
    "id": "ProjEST_move_to_auspresseinheit_A_132",
    "joint_names": [
        "shoulder_pan_joint",
        "shoulder_lift_joint",
        "elbow_joint",
        "wrist_1_joint",
        "wrist_2_joint",
        "wrist_3_joint"
    ],
    "metrics": {
        "cart_traj_len": 0.7549845797858771,
        "distance_elbow_joint": 0.17202980740586948,
        "distance_shoulder_lift_joint": 0.7138407160705837,
        "distance_shoulder_pan_joint": 1.0439866106666458,
        "distance_wrist_1_joint": 0.5462846211505274,
        "distance_wrist_2_joint": 1.3568516936566482,
        "distance_wrist_3_joint": 1.0938809153076132,
        "smoothness": 1.3290478509141295,
        "time": 0.907874175,
        "traj_len": 2.2196563617501446,
        "weighted_distance": 3.00296062406424
    },
    "planner": "ProjEST",
    "start": {
        "state": {
            "elbow_joint": 2.422574709923281,
            "shoulder_lift_joint": -1.3736533754116391,
            "shoulder_pan_joint": -0.33786336945926293,
            "wrist_1_joint": -1.0288603412921917,
            "wrist_2_joint": 1.2330224858903978,
            "wrist_3_joint": -3.094022268022082
        }
    },
    "waypoints": [
        {
            "positions": [
                -0.33786336945926293,
                -1.3736533754116391,
                2.422574709923281,
                -1.0288603412921917,
                1.2330224858903978,
                -3.094022268022082
            ]
        },
        {
            "positions": [
                -0.24701033861697175,
                -1.443190635538926,
                2.4116652177123648,
                -0.9743145354104529,
                1.1289243542241385,
                -3.035051361718062
            ]
        },
        {
            "positions": [
                -0.15615730777468056,
                -1.512727895666213,
                2.4007557255014484,
                -0.9197687295287139,
                1.024826222557879,
                -2.9760804554140416
            ]
        },
        {
            "positions": [
                -0.06530427693238938,
                -1.5822651557934997,
                2.3898462332905326,
                -0.8652229236469751,
                0.9207280908916198,
                -2.917109549110021
            ]
        },
        {
            "positions": [
                0.0255487539099018,
                -1.6518024159207867,
                2.3789367410796163,
                -0.8106771177652361,
                0.8166299592253603,
                -2.8581386428060007
            ]
        },
        {
            "positions": [
                0.11640178475219304,
                -1.7213396760480735,
                2.3680272488687,
                -0.7561313118834971,
                0.7125318275591009,
                -2.7991677365019805
            ]
        },
        {
            "positions": [
                0.20725481559448417,
                -1.7908769361753603,
                2.3571177566577837,
                -0.7015855060017584,
                0.6084336958928417,
                -2.7401968301979602
            ]
        },
        {
            "positions": [
                0.2981078464367754,
                -1.8604141963026473,
                2.346208264446868,
                -0.6470397001200194,
                0.5043355642265823,
                -2.6812259238939395
            ]
        },
        {
            "positions": [
                0.38896087727906653,
                -1.9299514564299343,
                2.3352987722359515,
                -0.5924938942382805,
                0.40023743256032296,
                -2.6222550175899193
            ]
        },
        {
            "positions": [
                0.4798139081213578,
                -1.999488716557221,
                2.324389280025035,
                -0.5379480883565416,
                0.2961393008940636,
                -2.563284111285899
            ]
        },
        {
            "positions": [
                0.5363912413928641,
                -1.9774873728259705,
                2.342850374401941,
                -0.5241049963028223,
                0.40113142805914204,
                -2.7040698009287567
            ]
        },
        {
            "positions": [
                0.5929685746643704,
                -1.95548602909472,
                2.361311468778847,
                -0.510261904249103,
                0.5061235552242205,
                -2.8448554905716144
            ]
        },
        {
            "positions": [
                0.6495459079358766,
                -1.9334846853634697,
                2.379772563155753,
                -0.49641881219538364,
                0.611115682389299,
                -2.9856411802144716
            ]
        },
        {
            "positions": [
                0.7061232412073829,
                -1.9114833416322192,
                2.398233657532659,
                -0.48257572014166433,
                0.7161078095543775,
                -3.126426869857329
            ]
        }
    ]
}