{
    "goal": {
        "global_pose": {
            "orientation": {
                "w": 0.7047431468963623,
                "x": -0.7094548344612122,
                "y": 0.0024358443915843964,
                "z": -0.0022348060738295317
            },
            "position": {
                "x": 0.6094750761985779,
                "y": 0.3671506643295288,
                "z": 0.19426114857196808
            }
        },
        "name": "move_to_magneteinheit_A"
    },
    "id": "ProjEST_move_to_magneteinheit_A_31",
    "joint_names": [
        "shoulder_pan_joint",
        "shoulder_lift_joint",
        "elbow_joint",
        "wrist_1_joint",
        "wrist_2_joint",
        "wrist_3_joint"
    ],
    "metrics": {
        "cart_traj_len": 2.0609807392529267,
        "distance_elbow_joint": 3.869604547566365,
        "distance_shoulder_lift_joint": 1.0508427131915512,
        "distance_shoulder_pan_joint": 1.2404701433872565,
        "distance_wrist_1_joint": 1.1183552773671983,
        "distance_wrist_2_joint": 1.4507028069500365,
        "distance_wrist_3_joint": 1.89799569155986,
        "smoothness": 2.854859219837484e-16,
        "time": 0.094027855,
        "traj_len": 3.2600569289541967,
        "weighted_distance": 4.1222591679149945
    },
    "planner": "ProjEST",
    "start": {
        "state": {
            "elbow_joint": -1.919643507792019,
            "shoulder_lift_joint": -0.07675430207160344,
            "shoulder_pan_joint": -1.1188671864651873,
            "wrist_1_joint": 0.42560062535961957,
            "wrist_2_joint": 1.5706038300724876,
            "wrist_3_joint": 1.1188968870953055
        }
    },
    "waypoints": [
        {
            "positions": [
                -1.1188671864651873,
                -0.07675430207160344,
                -1.919643507792019,
                0.42560062535961957,
                1.5706038300724876,
                1.1188968870953055
            ]
        },
        {
            "positions": [
                -1.0729238478212149,
                -0.11567440256017941,
                -1.7763248208451168,
                0.3841800595312048,
                1.5168740964817455,
                1.1891930238197448
            ]
        },
        {
            "positions": [
                -1.0269805091772424,
                -0.15459450304875538,
                -1.6330061338982143,
                0.3427594937027901,
                1.4631443628910035,
                1.259489160544184
            ]
        },
        {
            "positions": [
                -0.98103717053327,
                -0.19351460353733135,
                -1.489687446951312,
                0.30133892787437533,
                1.4094146293002614,
                1.3297852972686233
            ]
        },
        {
            "positions": [
                -0.9350938318892975,
                -0.23243470402590732,
                -1.3463687600044096,
                0.2599183620459605,
                1.3556848957095193,
                1.4000814339930625
            ]
        },
        {
            "positions": [
                -0.889150493245325,
                -0.2713548045144833,
                -1.203050073057507,
                0.2184977962175458,
                1.301955162118777,
                1.4703775707175017
            ]
        },
        {
            "positions": [
                -0.8432071546013526,
                -0.31027490500305926,
                -1.0597313861106046,
                0.17707723038913106,
                1.248225428528035,
                1.540673707441941
            ]
        },
        {
            "positions": [
                -0.7972638159573802,
                -0.34919500549163524,
                -0.9164126991637023,
                0.13565666456071634,
                1.194495694937293,
                1.6109698441663802
            ]
        },
        {
            "positions": [
                -0.7513204773134077,
                -0.3881151059802112,
                -0.7730940122168,
                0.09423609873230154,
                1.1407659613465508,
                1.6812659808908195
            ]
        },
        {
            "positions": [
                -0.7053771386694352,
                -0.4270352064687872,
                -0.6297753252698974,
                0.0528155329038868,
                1.0870362277558088,
                1.7515621176152587
            ]
        },
        {
            "positions": [
                -0.6594338000254627,
                -0.46595530695736315,
                -0.4864566383229951,
                0.011394967075472051,
                1.0333064941650667,
                1.821858254339698
            ]
        },
        {
            "positions": [
                -0.6134904613814903,
                -0.5048754074459392,
                -0.3431379513760928,
                -0.030025598752942695,
                0.9795767605743246,
                1.8921543910641372
            ]
        },
        {
            "positions": [
                -0.5675471227375178,
                -0.5437955079345151,
                -0.1998192644291903,
                -0.07144616458135744,
                0.9258470269835826,
                1.9624505277885764
            ]
        },
        {
            "positions": [
                -0.5216037840935454,
                -0.5827156084230911,
                -0.056500577482287984,
                -0.11286673040977219,
                0.8721172933928404,
                2.0327466645130157
            ]
        },
        {
            "positions": [
                -0.47566044544957287,
                -0.6216357089116671,
                0.08681810946461455,
                -0.15428729623818688,
                0.8183875598020983,
                2.1030428012374554
            ]
        },
        {
            "positions": [
                -0.4297171068056004,
                -0.660555809400243,
                0.2301367964115173,
                -0.1957078620666018,
                0.7646578262113561,
                2.173338937961894
            ]
        },
        {
            "positions": [
                -0.383773768161628,
                -0.699475909888819,
                0.37345548335841916,
                -0.23712842789501648,
                0.7109280926206142,
                2.243635074686334
            ]
        },
        {
            "positions": [
                -0.3378304295176555,
                -0.738396010377395,
                0.5167741703053219,
                -0.2785489937234313,
                0.657198359029872,
                2.3139312114107726
            ]
        },
        {
            "positions": [
                -0.29188709087368303,
                -0.777316110865971,
                0.6600928572522242,
                -0.319969559551846,
                0.6034686254391299,
                2.3842273481352123
            ]
        },
        {
            "positions": [
                -0.24594375222971054,
                -0.8162362113545469,
                0.8034115441991265,
                -0.3613901253802608,
                0.5497388918483879,
                2.4545234848596515
            ]
        },
        {
            "positions": [
                -0.20000041358573817,
                -0.8551563118431229,
                0.9467302311460288,
                -0.40281069120867546,
                0.4960091582576458,
                2.524819621584091
            ]
        },
        {
            "positions": [
                -0.15405707494176568,
                -0.8940764123316989,
                1.0900489180929316,
                -0.44423125703709027,
                0.44227942466690373,
                2.59511575830853
            ]
        },
        {
            "positions": [
                -0.1081137362977933,
                -0.9329965128202748,
                1.2333676050398334,
                -0.48565182286550496,
                0.38854969107616166,
                2.6654118950329693
            ]
        },
        {
            "positions": [
                -0.06217039765382082,
                -0.9719166133088508,
                1.3766862919867362,
                -0.5270723886939197,
                0.3348199574854194,
                2.7357080317574085
            ]
        },
        {
            "positions": [
                -0.016227059009848332,
                -1.0108367137974268,
                1.5200049789336385,
                -0.5684929545223345,
                0.2810902238946775,
                2.8060041684818477
            ]
        },
        {
            "positions": [
                0.029716279634124154,
                -1.0497568142860028,
                1.6633236658805413,
                -0.6099135203507491,
                0.22736049030393524,
                2.876300305206287
            ]
        },
        {
            "positions": [
                0.07565961827809664,
                -1.0886769147745787,
                1.8066423528274431,
                -0.6513340861791639,
                0.17363075671319317,
                2.9465964419307262
            ]
        },
        {
            "positions": [
                0.12160295692206903,
                -1.1275970152631547,
                1.9499610397743459,
                -0.6927546520075787,
                0.11990102312245117,
                3.0168925786551655
            ]
        }
    ]
}