{
    "goal": {
        "global_pose": {
            "orientation": {
                "w": 0.5084816217422485,
                "x": -0.49083608388900757,
                "y": 0.5182115435600281,
                "z": -0.4816462993621826
            },
            "position": {
                "x": 0.5540239810943604,
                "y": 0.030875300988554955,
                "z": 0.16403168439865112
            }
        },
        "name": "move_to_storage_A"
    },
    "id": "ProjEST_move_to_storage_A_117",
    "joint_names": [
        "shoulder_pan_joint",
        "shoulder_lift_joint",
        "elbow_joint",
        "wrist_1_joint",
        "wrist_2_joint",
        "wrist_3_joint"
    ],
    "metrics": {
        "cart_traj_len": 0.3531122935197062,
        "distance_elbow_joint": 0.45181109230334915,
        "distance_shoulder_lift_joint": 0.2334886569836505,
        "distance_shoulder_pan_joint": 0.45869533715200494,
        "distance_wrist_1_joint": 0.24796638420478023,
        "distance_wrist_2_joint": 1.1121611160354312,
        "distance_wrist_3_joint": 0.09049266728595695,
        "smoothness": 2.2204460668324854e-16,
        "time": 0.08089442,
        "traj_len": 1.6107809453694109,
        "weighted_distance": 2.033648959082491
    },
    "planner": "ProjEST",
    "start": {
        "state": {
            "elbow_joint": 1.9715463870305268,
            "shoulder_lift_joint": -1.1394903361783484,
            "shoulder_pan_joint": 0.12281147578464417,
            "wrist_1_joint": -0.7804599489681411,
            "wrist_2_joint": 0.12958660307563738,
            "wrist_3_joint": -3.1924946282119055
        }
    },
    "waypoints": [
        {
            "positions": [
                0.12281147578464417,
                -1.1394903361783484,
                1.9715463870305268,
                -0.7804599489681411,
                0.12958660307563738,
                -3.1924946282119055
            ]
        },
        {
            "positions": [
                0.0572835704772149,
                -1.1728458586045842,
                2.036090828788148,
                -0.8158837181402525,
                0.2884667625092704,
                -3.1795671043139118
            ]
        },
        {
            "positions": [
                -0.008244334830214375,
                -1.2062013810308199,
                2.1006352705457694,
                -0.851307487312364,
                0.4473469219429034,
                -3.166639580415918
            ]
        },
        {
            "positions": [
                -0.07377224013764365,
                -1.2395569034570557,
                2.1651797123033907,
                -0.8867312564844755,
                0.6062270813765365,
                -3.153712056517924
            ]
        },
        {
            "positions": [
                -0.1393001454450729,
                -1.2729124258832916,
                2.229724154061012,
                -0.9221550256565869,
                0.7651072408101695,
                -3.14078453261993
            ]
        },
        {
            "positions": [
                -0.2048280507525022,
                -1.3062679483095274,
                2.2942685958186333,
                -0.9575787948286985,
                0.9239874002438025,
                -3.127857008721936
            ]
        },
        {
            "positions": [
                -0.27035595605993146,
                -1.339623470735763,
                2.3588130375762546,
                -0.9930025640008098,
                1.0828675596774355,
                -3.1149294848239424
            ]
        },
        {
            "positions": [
                -0.33588386136736076,
                -1.372978993161999,
                2.423357479333876,
                -1.0284263331729213,
                1.2417477191110686,
                -3.1020019609259486
            ]
        }
    ]
}