{
    "goal": {
        "global_pose": {
            "orientation": {
                "w": 0.7047431468963623,
                "x": -0.7094548344612122,
                "y": 0.0024358443915843964,
                "z": -0.0022348060738295317
            },
            "position": {
                "x": 0.6094750761985779,
                "y": 0.3671506643295288,
                "z": 0.19426114857196808
            }
        },
        "name": "move_to_magneteinheit_A"
    },
    "id": "ProjEST_move_to_magneteinheit_A_12",
    "joint_names": [
        "shoulder_pan_joint",
        "shoulder_lift_joint",
        "elbow_joint",
        "wrist_1_joint",
        "wrist_2_joint",
        "wrist_3_joint"
    ],
    "metrics": {
        "cart_traj_len": 2.0642627650419305,
        "distance_elbow_joint": 3.8749540246944676,
        "distance_shoulder_lift_joint": 1.0532420367408546,
        "distance_shoulder_pan_joint": 1.242641868343017,
        "distance_wrist_1_joint": 1.1351309476648277,
        "distance_wrist_2_joint": 1.447556547865782,
        "distance_wrist_3_joint": 1.9148376440534607,
        "smoothness": 2.2204460578853453e-16,
        "time": 0.09089103500000001,
        "traj_len": 3.2662460209485764,
        "weighted_distance": 4.132883479243025
    },
    "planner": "ProjEST",
    "start": {
        "state": {
            "elbow_joint": -1.919643507792019,
            "shoulder_lift_joint": -0.07675430207160344,
            "shoulder_pan_joint": -1.1188671864651873,
            "wrist_1_joint": 0.42560062535961957,
            "wrist_2_joint": 1.5706038300724876,
            "wrist_3_joint": 1.1188968870953055
        }
    },
    "waypoints": [
        {
            "positions": [
                -1.1188671864651873,
                -0.07675430207160344,
                -1.919643507792019,
                0.42560062535961957,
                1.5706038300724876,
                1.1188968870953055
            ]
        },
        {
            "positions": [
                -1.072843413563594,
                -0.11576326639533879,
                -1.7761266920625944,
                0.3835587384090704,
                1.5169906245959772,
                1.1898167998380262
            ]
        },
        {
            "positions": [
                -1.026819640662001,
                -0.15477223071907414,
                -1.6326098763331696,
                0.34151685145852123,
                1.4633774191194666,
                1.2607367125807472
            ]
        },
        {
            "positions": [
                -0.9807958677604077,
                -0.1937811950428095,
                -1.489093060603745,
                0.29947496450797206,
                1.4097642136429562,
                1.3316566253234678
            ]
        },
        {
            "positions": [
                -0.9347720948588145,
                -0.23279015936654485,
                -1.3455762448743203,
                0.25743307755742284,
                1.3561510081664458,
                1.4025765380661885
            ]
        },
        {
            "positions": [
                -0.8887483219572212,
                -0.2717991236902802,
                -1.2020594291448954,
                0.2153911906068737,
                1.3025378026899355,
                1.4734964508089092
            ]
        },
        {
            "positions": [
                -0.8427245490556281,
                -0.31080808801401555,
                -1.0585426134154707,
                0.17334930365632456,
                1.248924597213425,
                1.5444163635516301
            ]
        },
        {
            "positions": [
                -0.7967007761540348,
                -0.3498170523377509,
                -0.9150257976860461,
                0.1313074167057754,
                1.1953113917369145,
                1.6153362762943508
            ]
        },
        {
            "positions": [
                -0.7506770032524417,
                -0.38882601666148625,
                -0.7715089819566214,
                0.08926552975522617,
                1.141698186260404,
                1.6862561890370715
            ]
        },
        {
            "positions": [
                -0.7046532303508484,
                -0.4278349809852216,
                -0.6279921662271966,
                0.047223642804677,
                1.0880849807838937,
                1.7571761017797924
            ]
        },
        {
            "positions": [
                -0.6586294574492552,
                -0.46684394530895695,
                -0.4844753504977719,
                0.005181755854127834,
                1.034471775307383,
                1.8280960145225131
            ]
        },
        {
            "positions": [
                -0.612605684547662,
                -0.5058529096326922,
                -0.34095853476834725,
                -0.036860131096421334,
                0.9808585698308728,
                1.8990159272652338
            ]
        },
        {
            "positions": [
                -0.5665819116460687,
                -0.5448618739564277,
                -0.19744171903892238,
                -0.07890201804697045,
                0.9272453643543623,
                1.9699358400079547
            ]
        },
        {
            "positions": [
                -0.5205581387444755,
                -0.583870838280163,
                -0.05392490330949773,
                -0.12094390499751967,
                0.873632158877852,
                2.0408557527506757
            ]
        },
        {
            "positions": [
                -0.47453436584288233,
                -0.6228798026038984,
                0.08959191241992692,
                -0.16298579194806878,
                0.8200189534013415,
                2.111775665493396
            ]
        },
        {
            "positions": [
                -0.428510592941289,
                -0.6618887669276339,
                0.2331087281493518,
                -0.20502767889861812,
                0.766405747924831,
                2.182695578236117
            ]
        },
        {
            "positions": [
                -0.3824868200396959,
                -0.7008977312513691,
                0.3766255438787762,
                -0.24706956584916723,
                0.7127925424483206,
                2.253615490978838
            ]
        },
        {
            "positions": [
                -0.3364630471381026,
                -0.7399066955751046,
                0.5201423596082015,
                -0.28911145279971645,
                0.6591793369718101,
                2.3245354037215584
            ]
        },
        {
            "positions": [
                -0.2904392742365094,
                -0.7789156598988398,
                0.663659175337626,
                -0.33115333975026556,
                0.6055661314952997,
                2.3954553164642793
            ]
        },
        {
            "positions": [
                -0.24441550133491619,
                -0.8179246242225753,
                0.8071759910670508,
                -0.3731952267008148,
                0.5519529260187892,
                2.4663752292070003
            ]
        },
        {
            "positions": [
                -0.19839172843332298,
                -0.8569335885463105,
                0.9506928067964753,
                -0.4152371136513639,
                0.4983397205422788,
                2.5372951419497207
            ]
        },
        {
            "positions": [
                -0.15236795553172977,
                -0.895942552870046,
                1.0942096225259001,
                -0.4572790006019131,
                0.4447265150657682,
                2.6082150546924416
            ]
        },
        {
            "positions": [
                -0.10634418263013656,
                -0.9349515171937812,
                1.2377264382553246,
                -0.49932088755246223,
                0.39111330958925805,
                2.6791349674351626
            ]
        },
        {
            "positions": [
                -0.060320409728543245,
                -0.9739604815175167,
                1.3812432539847495,
                -0.5413627745030114,
                0.33750010411274745,
                2.750054880177883
            ]
        },
        {
            "positions": [
                -0.014296636826950149,
                -1.012969445841252,
                1.5247600697141743,
                -0.5834046614535604,
                0.28388689863623706,
                2.820974792920604
            ]
        },
        {
            "positions": [
                0.03172713607464317,
                -1.0519784101649874,
                1.6682768854435992,
                -0.6254465484041096,
                0.23027369315972646,
                2.891894705663325
            ]
        },
        {
            "positions": [
                0.07775090897623627,
                -1.0909873744887226,
                1.8117937011730236,
                -0.6674884353546588,
                0.1766604876832163,
                2.9628146184060453
            ]
        },
        {
            "positions": [
                0.1237746818778295,
                -1.129996338812458,
                1.9553105169024487,
                -0.7095303223052082,
                0.12304728220670574,
                3.0337345311487662
            ]
        }
    ]
}