{
    "goal": {
        "global_pose": {
            "orientation": {
                "w": 0.5084816217422485,
                "x": -0.49083608388900757,
                "y": 0.5182115435600281,
                "z": -0.4816462993621826
            },
            "position": {
                "x": 0.5540239810943604,
                "y": 0.030875300988554955,
                "z": 0.16403168439865112
            }
        },
        "name": "move_to_storage_A"
    },
    "id": "ProjEST_move_to_storage_A_140",
    "joint_names": [
        "shoulder_pan_joint",
        "shoulder_lift_joint",
        "elbow_joint",
        "wrist_1_joint",
        "wrist_2_joint",
        "wrist_3_joint"
    ],
    "metrics": {
        "cart_traj_len": 0.35335923434866834,
        "distance_elbow_joint": 0.4516304738269068,
        "distance_shoulder_lift_joint": 0.23376219158719658,
        "distance_shoulder_pan_joint": 0.4621222946241646,
        "distance_wrist_1_joint": 0.2520707431576986,
        "distance_wrist_2_joint": 1.0988360233000019,
        "distance_wrist_3_joint": 0.09015686441750992,
        "smoothness": 0.0,
        "time": 0.052013235000000005,
        "traj_len": 1.6089060230210708,
        "weighted_distance": 2.029728820854204
    },
    "planner": "ProjEST",
    "start": {
        "state": {
            "elbow_joint": 1.9715463870305268,
            "shoulder_lift_joint": -1.1394903361783484,
            "shoulder_pan_joint": 0.12281147578464417,
            "wrist_1_joint": -0.7804599489681411,
            "wrist_2_joint": 0.12958660307563738,
            "wrist_3_joint": -3.1924946282119055
        }
    },
    "waypoints": [
        {
            "positions": [
                0.12281147578464417,
                -1.1394903361783484,
                1.9715463870305268,
                -0.7804599489681411,
                0.12958660307563738,
                -3.1924946282119055
            ]
        },
        {
            "positions": [
                0.05679400512404924,
                -1.1728849349765194,
                2.0360650261486564,
                -0.8164700551335266,
                0.2865631778327805,
                -3.1796150761522615
            ]
        },
        {
            "positions": [
                -0.009223465536545697,
                -1.2062795337746903,
                2.100583665266786,
                -0.8524801612989121,
                0.4435397525899236,
                -3.166735524092617
            ]
        },
        {
            "positions": [
                -0.07524093619714063,
                -1.2396741325728613,
                2.1651023043849156,
                -0.8884902674642976,
                0.6005163273470667,
                -3.153855972032973
            ]
        },
        {
            "positions": [
                -0.14125840685773555,
                -1.273068731371032,
                2.2296209435030447,
                -0.9245003736296832,
                0.7574929021042098,
                -3.1409764199733283
            ]
        },
        {
            "positions": [
                -0.20727587751833054,
                -1.306463330169203,
                2.2941395826211743,
                -0.9605104797950687,
                0.914469476861353,
                -3.1280968679136842
            ]
        },
        {
            "positions": [
                -0.2732933481789254,
                -1.339857928967374,
                2.358658221739304,
                -0.9965205859604542,
                1.071446051618496,
                -3.1152173158540397
            ]
        },
        {
            "positions": [
                -0.3393108188395204,
                -1.373252527765545,
                2.4231768608574336,
                -1.0325306921258397,
                1.2284226263756393,
                -3.1023377637943956
            ]
        }
    ]
}