{
    "goal": {
        "global_pose": {
            "orientation": {
                "w": 0.7031023502349854,
                "x": -0.7110244035720825,
                "y": 0.007748599164187908,
                "z": 0.005598929710686207
            },
            "position": {
                "x": 0.11585023208521307,
                "y": 0.44412534475326537,
                "z": 0.3711530566215515
            }
        },
        "name": "move_to_auspresseinheit_A"
    },
    "id": "ProjEST_move_to_auspresseinheit_A_11",
    "joint_names": [
        "shoulder_pan_joint",
        "shoulder_lift_joint",
        "elbow_joint",
        "wrist_1_joint",
        "wrist_2_joint",
        "wrist_3_joint"
    ],
    "metrics": {
        "cart_traj_len": 1.1002101181385044,
        "distance_elbow_joint": 0.6533997917551182,
        "distance_shoulder_lift_joint": 0.9859051406570432,
        "distance_shoulder_pan_joint": 1.5209774807363066,
        "distance_wrist_1_joint": 2.373603810942435,
        "distance_wrist_2_joint": 0.8697078987712524,
        "distance_wrist_3_joint": 0.12123406810938997,
        "smoothness": 1.3307077631783955,
        "time": 0.19781732400000002,
        "traj_len": 2.5543743247557797,
        "weighted_distance": 3.163954493494496
    },
    "planner": "ProjEST",
    "start": {
        "state": {
            "elbow_joint": 2.422574709923281,
            "shoulder_lift_joint": -1.3736533754116391,
            "shoulder_pan_joint": -0.33786336945926293,
            "wrist_1_joint": -1.0288603412921917,
            "wrist_2_joint": 1.2330224858903978,
            "wrist_3_joint": -3.094022268022082
        }
    },
    "waypoints": [
        {
            "positions": [
                -0.33786336945926293,
                -1.3736533754116391,
                2.422574709923281,
                -1.0288603412921917,
                1.2330224858903978,
                -3.094022268022082
            ]
        },
        {
            "positions": [
                -0.2211264445438276,
                -1.4426926471399877,
                2.3914389400624687,
                -0.895084522075822,
                1.2491209082526737,
                -3.101909128994609
            ]
        },
        {
            "positions": [
                -0.10438951962839227,
                -1.5117319188683365,
                2.3603031702016564,
                -0.7613087028594523,
                1.2652193306149495,
                -3.1097959899671355
            ]
        },
        {
            "positions": [
                0.012347405287043034,
                -1.580771190596685,
                2.3291674003408445,
                -0.6275328836430826,
                1.2813177529772255,
                -3.117682850939662
            ]
        },
        {
            "positions": [
                0.1290843302024784,
                -1.6498104623250336,
                2.298031630480032,
                -0.49375706442671286,
                1.2974161753395013,
                -3.125569711912189
            ]
        },
        {
            "positions": [
                0.2458212551179137,
                -1.7188497340533822,
                2.2668958606192198,
                -0.35998124521034314,
                1.3135145977017773,
                -3.1334565728847155
            ]
        },
        {
            "positions": [
                0.362558180033349,
                -1.787889005781731,
                2.2357600907584074,
                -0.22620542599397342,
                1.329613020064053,
                -3.1413434338572426
            ]
        },
        {
            "positions": [
                0.4792951049487843,
                -1.8569282775100795,
                2.204624320897595,
                -0.09242960677760359,
                1.345711442426329,
                -3.1492302948297692
            ]
        },
        {
            "positions": [
                0.5960320298642197,
                -1.925967549238428,
                2.1734885510367827,
                0.04134621243876602,
                1.3618098647886048,
                -3.157117155802296
            ]
        },
        {
            "positions": [
                0.712768954779655,
                -1.9950068209667768,
                2.142352781175971,
                0.17512203165513585,
                1.3779082871508808,
                -3.1650040167748226
            ]
        },
        {
            "positions": [
                0.8295058796950903,
                -2.064046092695125,
                2.1112170113151585,
                0.30889785087150545,
                1.3940067095131565,
                -3.1728908777473492
            ]
        },
        {
            "positions": [
                0.9462428046105256,
                -2.133085364423474,
                2.080081241454346,
                0.4426736700878752,
                1.4101051318754325,
                -3.180777738719876
            ]
        },
        {
            "positions": [
                0.9124040465153086,
                -2.100732057045587,
                2.1244964304952294,
                0.3138065558646797,
                1.311158667191687,
                -3.1758522248039336
            ]
        },
        {
            "positions": [
                0.8785652884200917,
                -2.0683787496677,
                2.1689116195361127,
                0.18493944164148418,
                1.2122122025079418,
                -3.1709267108879913
            ]
        },
        {
            "positions": [
                0.8447265303248748,
                -2.036025442289813,
                2.213326808576996,
                0.05607232741828866,
                1.1132657378241964,
                -3.166001196972049
            ]
        },
        {
            "positions": [
                0.8108877722296579,
                -2.0036721349119264,
                2.2577419976178796,
                -0.07279478680490686,
                1.0143192731404511,
                -3.1610756830561066
            ]
        },
        {
            "positions": [
                0.7770490141344409,
                -1.9713188275340394,
                2.302157186658763,
                -0.20166190102810239,
                0.9153728084567057,
                -3.1561501691401643
            ]
        },
        {
            "positions": [
                0.7432102560392241,
                -1.9389655201561526,
                2.346572375699646,
                -0.3305290152512979,
                0.8164263437729603,
                -3.151224655224222
            ]
        },
        {
            "positions": [
                0.7093714979440071,
                -1.9066122127782656,
                2.3909875647405294,
                -0.45939612947449343,
                0.7174798790892148,
                -3.1462991413082797
            ]
        }
    ]
}