{
    "goal": {
        "global_pose": {
            "orientation": {
                "w": 0.7031023502349854,
                "x": -0.7110244035720825,
                "y": 0.007748599164187908,
                "z": 0.005598929710686207
            },
            "position": {
                "x": 0.11585023208521307,
                "y": 0.44412534475326537,
                "z": 0.3711530566215515
            }
        },
        "name": "move_to_auspresseinheit_A"
    },
    "id": "ProjEST_move_to_auspresseinheit_A_69",
    "joint_names": [
        "shoulder_pan_joint",
        "shoulder_lift_joint",
        "elbow_joint",
        "wrist_1_joint",
        "wrist_2_joint",
        "wrist_3_joint"
    ],
    "metrics": {
        "cart_traj_len": 0.693664154524606,
        "distance_elbow_joint": 0.44863105899037814,
        "distance_shoulder_lift_joint": 1.1144564195695894,
        "distance_shoulder_pan_joint": 1.0442571974857042,
        "distance_wrist_1_joint": 0.552033268467222,
        "distance_wrist_2_joint": 0.5147429613963046,
        "distance_wrist_3_joint": 0.29002188490842196,
        "smoothness": 1.014110914261863,
        "time": 0.251340153,
        "traj_len": 1.9910155174728348,
        "weighted_distance": 2.3687470929793224
    },
    "planner": "ProjEST",
    "start": {
        "state": {
            "elbow_joint": 2.422574709923281,
            "shoulder_lift_joint": -1.3736533754116391,
            "shoulder_pan_joint": -0.33786336945926293,
            "wrist_1_joint": -1.0288603412921917,
            "wrist_2_joint": 1.2330224858903978,
            "wrist_3_joint": -3.094022268022082
        }
    },
    "waypoints": [
        {
            "positions": [
                -0.33786336945926293,
                -1.3736533754116391,
                2.422574709923281,
                -1.0288603412921917,
                1.2330224858903978,
                -3.094022268022082
            ]
        },
        {
            "positions": [
                -0.22132303508457302,
                -1.4917022311787622,
                2.4527741559205505,
                -0.9812726897215353,
                1.1882927865450217,
                -3.116829699911984
            ]
        },
        {
            "positions": [
                -0.1047827007098831,
                -1.6097510869458855,
                2.4829736019178203,
                -0.9336850381508788,
                1.1435630871996454,
                -3.139637131801886
            ]
        },
        {
            "positions": [
                0.01175763366480681,
                -1.7277999427130086,
                2.5131730479150898,
                -0.8860973865802224,
                1.0988333878542693,
                -3.1624445636917877
            ]
        },
        {
            "positions": [
                0.12829796803949672,
                -1.845848798480132,
                2.5433724939123596,
                -0.8385097350095659,
                1.0541036885088932,
                -3.1852519955816896
            ]
        },
        {
            "positions": [
                0.24483830241418664,
                -1.963897654247255,
                2.573571939909629,
                -0.7909220834389095,
                1.009373989163517,
                -3.2080594274715915
            ]
        },
        {
            "positions": [
                0.36137863678887655,
                -2.081946510014378,
                2.603771385906899,
                -0.743334431868253,
                0.9646442898181409,
                -3.2308668593614933
            ]
        },
        {
            "positions": [
                0.47791897116356646,
                -2.1999953657815015,
                2.6339708319041684,
                -0.6957467802975965,
                0.9199145904727648,
                -3.253674291251395
            ]
        },
        {
            "positions": [
                0.5350376853792852,
                -2.12796675848157,
                2.5746620976517955,
                -0.6410168534294398,
                0.8695058239780968,
                -3.221081825831618
            ]
        },
        {
            "positions": [
                0.592156399595004,
                -2.055938151181638,
                2.5153533633994227,
                -0.5862869265612831,
                0.819097057483429,
                -3.1884893604118405
            ]
        },
        {
            "positions": [
                0.6492751138107227,
                -1.983909543881706,
                2.4560446291470504,
                -0.5315569996931264,
                0.7686882909887611,
                -3.1558968949920634
            ]
        },
        {
            "positions": [
                0.7063938280264415,
                -1.9118809365817744,
                2.3967358948946775,
                -0.4768270728249698,
                0.7182795244940932,
                -3.1233044295722863
            ]
        }
    ]
}