{
    "goal": {
        "global_pose": {
            "orientation": {
                "w": 0.5084816217422485,
                "x": -0.49083608388900757,
                "y": 0.5182115435600281,
                "z": -0.4816462993621826
            },
            "position": {
                "x": 0.5540239810943604,
                "y": 0.030875300988554955,
                "z": 0.16403168439865112
            }
        },
        "name": "move_to_storage_A"
    },
    "id": "ProjEST_move_to_storage_A_83",
    "joint_names": [
        "shoulder_pan_joint",
        "shoulder_lift_joint",
        "elbow_joint",
        "wrist_1_joint",
        "wrist_2_joint",
        "wrist_3_joint"
    ],
    "metrics": {
        "cart_traj_len": 0.3526417096269837,
        "distance_elbow_joint": 0.4506974012382692,
        "distance_shoulder_lift_joint": 0.23570500777215675,
        "distance_shoulder_pan_joint": 0.45921747089543064,
        "distance_wrist_1_joint": 0.24078670592716633,
        "distance_wrist_2_joint": 1.1072714976936058,
        "distance_wrist_3_joint": 0.09297308449508668,
        "smoothness": 9.992007236661072e-16,
        "time": 0.042773049,
        "traj_len": 1.60830692593849,
        "weighted_distance": 2.0299397874401746
    },
    "planner": "ProjEST",
    "start": {
        "state": {
            "elbow_joint": 1.9715463870305268,
            "shoulder_lift_joint": -1.1394903361783484,
            "shoulder_pan_joint": 0.12281147578464417,
            "wrist_1_joint": -0.7804599489681411,
            "wrist_2_joint": 0.12958660307563738,
            "wrist_3_joint": -3.1924946282119055
        }
    },
    "waypoints": [
        {
            "positions": [
                0.12281147578464417,
                -1.1394903361783484,
                1.9715463870305268,
                -0.7804599489681411,
                0.12958660307563738,
                -3.1924946282119055
            ]
        },
        {
            "positions": [
                0.0572089799424398,
                -1.1731624801457994,
                2.0359317300645654,
                -0.8148580498148791,
                0.28776824560329534,
                -3.1792127589983217
            ]
        },
        {
            "positions": [
                -0.008393515899764573,
                -1.2068346241132504,
                2.1003170730986036,
                -0.8492561506616172,
                0.44594988813095326,
                -3.165930889784738
            ]
        },
        {
            "positions": [
                -0.07399601174196895,
                -1.2405067680807014,
                2.1647024161326422,
                -0.8836542515083552,
                0.6041315306586112,
                -3.152649020571154
            ]
        },
        {
            "positions": [
                -0.1395985075841733,
                -1.2741789120481521,
                2.2290877591666804,
                -0.9180523523550933,
                0.7623131731862692,
                -3.1393671513575705
            ]
        },
        {
            "positions": [
                -0.2052010034263777,
                -1.3078510560156031,
                2.293473102200719,
                -0.9524504532018313,
                0.9204948157139272,
                -3.1260852821439866
            ]
        },
        {
            "positions": [
                -0.27080349926858205,
                -1.3415231999830541,
                2.3578584452347573,
                -0.9868485540485694,
                1.078676458241585,
                -3.1128034129304027
            ]
        },
        {
            "positions": [
                -0.33640599511078645,
                -1.3751953439505051,
                2.422243788268796,
                -1.0212466548953074,
                1.2368581007692432,
                -3.099521543716819
            ]
        }
    ]
}