{
    "goal": {
        "global_pose": {
            "orientation": {
                "w": 0.7047431468963623,
                "x": -0.7094548344612122,
                "y": 0.0024358443915843964,
                "z": -0.0022348060738295317
            },
            "position": {
                "x": 0.6094750761985779,
                "y": 0.3671506643295288,
                "z": 0.19426114857196808
            }
        },
        "name": "move_to_magneteinheit_A"
    },
    "id": "ProjEST_move_to_magneteinheit_A_105",
    "joint_names": [
        "shoulder_pan_joint",
        "shoulder_lift_joint",
        "elbow_joint",
        "wrist_1_joint",
        "wrist_2_joint",
        "wrist_3_joint"
    ],
    "metrics": {
        "cart_traj_len": 2.065828906338458,
        "distance_elbow_joint": 3.8825293679819852,
        "distance_shoulder_lift_joint": 1.0573835779905016,
        "distance_shoulder_pan_joint": 1.2415962604996948,
        "distance_wrist_1_joint": 1.1633441653122962,
        "distance_wrist_2_joint": 1.4444758601199843,
        "distance_wrist_3_joint": 1.927262110817892,
        "smoothness": 7.044173704006298e-16,
        "time": 0.123500633,
        "traj_len": 3.2736205251559563,
        "weighted_distance": 4.144747952504521
    },
    "planner": "ProjEST",
    "start": {
        "state": {
            "elbow_joint": -1.919643507792019,
            "shoulder_lift_joint": -0.07675430207160344,
            "shoulder_pan_joint": -1.1188671864651873,
            "wrist_1_joint": 0.42560062535961957,
            "wrist_2_joint": 1.5706038300724876,
            "wrist_3_joint": 1.1188968870953055
        }
    },
    "waypoints": [
        {
            "positions": [
                -1.1188671864651873,
                -0.07675430207160344,
                -1.919643507792019,
                0.42560062535961957,
                1.5706038300724876,
                1.1188968870953055
            ]
        },
        {
            "positions": [
                -1.0745244628759125,
                -0.11451800128554993,
                -1.7809817446498053,
                0.384052619455609,
                1.5190154064967738,
                1.187727676767373
            ]
        },
        {
            "positions": [
                -1.0301817392866377,
                -0.1522817004994964,
                -1.6423199815075915,
                0.3425046135515984,
                1.4674269829210602,
                1.2565584664394407
            ]
        },
        {
            "positions": [
                -0.9858390156973629,
                -0.1900453997134429,
                -1.503658218365378,
                0.3009566076475878,
                1.4158385593453464,
                1.3253892561115084
            ]
        },
        {
            "positions": [
                -0.941496292108088,
                -0.22780909892738938,
                -1.3649964552231642,
                0.25940860174357727,
                1.3642501357696326,
                1.3942200457835758
            ]
        },
        {
            "positions": [
                -0.8971535685188132,
                -0.2655727981413359,
                -1.2263346920809504,
                0.21786059583956666,
                1.312661712193919,
                1.4630508354556433
            ]
        },
        {
            "positions": [
                -0.8528108449295384,
                -0.30333649735528234,
                -1.0876729289387366,
                0.1763125899355561,
                1.2610732886182052,
                1.531881625127711
            ]
        },
        {
            "positions": [
                -0.8084681213402636,
                -0.34110019656922885,
                -0.9490111657965228,
                0.1347645840315455,
                1.2094848650424916,
                1.6007124147997787
            ]
        },
        {
            "positions": [
                -0.7641253977509888,
                -0.3788638957831753,
                -0.810349402654309,
                0.09321657812753492,
                1.1578964414667778,
                1.6695432044718461
            ]
        },
        {
            "positions": [
                -0.7197826741617139,
                -0.4166275949971219,
                -0.6716876395120952,
                0.051668572223524334,
                1.106308017891064,
                1.7383739941439136
            ]
        },
        {
            "positions": [
                -0.6754399505724391,
                -0.45439129421106833,
                -0.5330258763698814,
                0.010120566319513746,
                1.0547195943153502,
                1.8072047838159813
            ]
        },
        {
            "positions": [
                -0.6310972269831644,
                -0.4921549934250148,
                -0.39436411322766785,
                -0.031427439584496786,
                1.0031311707396366,
                1.876035573488049
            ]
        },
        {
            "positions": [
                -0.5867545033938896,
                -0.5299186926389612,
                -0.25570235008545406,
                -0.07297544548850737,
                0.951542747163923,
                1.9448663631601164
            ]
        },
        {
            "positions": [
                -0.5424117798046147,
                -0.5676823918529078,
                -0.11704058694324027,
                -0.11452345139251802,
                0.8999543235882091,
                2.013697152832184
            ]
        },
        {
            "positions": [
                -0.4980690562153399,
                -0.6054460910668542,
                0.021621176198973524,
                -0.15607145729652855,
                0.8483659000124955,
                2.0825279425042513
            ]
        },
        {
            "positions": [
                -0.4537263326260651,
                -0.6432097902808007,
                0.1602829393411873,
                -0.19761946320053908,
                0.7967774764367818,
                2.151358732176319
            ]
        },
        {
            "positions": [
                -0.4093836090367903,
                -0.6809734894947472,
                0.2989447024834011,
                -0.23916746910454972,
                0.7451890528610681,
                2.2201895218483867
            ]
        },
        {
            "positions": [
                -0.36504088544751556,
                -0.7187371887086937,
                0.43760646562561445,
                -0.28071547500856026,
                0.6936006292853544,
                2.289020311520454
            ]
        },
        {
            "positions": [
                -0.3206981618582406,
                -0.7565008879226403,
                0.5762682287678287,
                -0.3222634809125709,
                0.6420122057096405,
                2.357851101192522
            ]
        },
        {
            "positions": [
                -0.2763554382689658,
                -0.7942645871365868,
                0.7149299919100425,
                -0.36381148681658143,
                0.5904237821339268,
                2.4266818908645895
            ]
        },
        {
            "positions": [
                -0.23201271467969098,
                -0.8320282863505333,
                0.8535917550522563,
                -0.4053594927205921,
                0.5388353585582131,
                2.495512680536657
            ]
        },
        {
            "positions": [
                -0.18766999109041627,
                -0.8697919855644798,
                0.99225351819447,
                -0.4469074986246026,
                0.4872469349824995,
                2.5643434702087244
            ]
        },
        {
            "positions": [
                -0.14332726750114144,
                -0.9075556847784261,
                1.1309152813366834,
                -0.48845550452861314,
                0.4356585114067857,
                2.633174259880792
            ]
        },
        {
            "positions": [
                -0.09898454391186662,
                -0.9453193839923726,
                1.2695770444788972,
                -0.5300035104326237,
                0.3840700878310719,
                2.7020050495528594
            ]
        },
        {
            "positions": [
                -0.054641820322591794,
                -0.9830830832063191,
                1.408238807621111,
                -0.5715515163366343,
                0.3324816642553583,
                2.7708358392249273
            ]
        },
        {
            "positions": [
                -0.01029909673331697,
                -1.0208467824202656,
                1.5469005707633252,
                -0.613099522240645,
                0.2808932406796445,
                2.839666628896995
            ]
        },
        {
            "positions": [
                0.034043626855957854,
                -1.0586104816342121,
                1.6855623339055386,
                -0.6546475281446555,
                0.2293048171039307,
                2.9084974185690626
            ]
        },
        {
            "positions": [
                0.07838635044523268,
                -1.0963741808481586,
                1.8242240970477523,
                -0.6961955340486661,
                0.1777163935282171,
                2.97732820824113
            ]
        },
        {
            "positions": [
                0.12272907403450754,
                -1.1341378800621051,
                1.9628858601899661,
                -0.7377435399526766,
                0.12612796995250328,
                3.0461589979131976
            ]
        }
    ]
}