{
    "goal": {
        "global_pose": {
            "orientation": {
                "w": 0.7031023502349854,
                "x": -0.7110244035720825,
                "y": 0.007748599164187908,
                "z": 0.005598929710686207
            },
            "position": {
                "x": 0.11585023208521307,
                "y": 0.44412534475326537,
                "z": 0.3711530566215515
            }
        },
        "name": "move_to_auspresseinheit_A"
    },
    "id": "ProjEST_move_to_auspresseinheit_A_106",
    "joint_names": [
        "shoulder_pan_joint",
        "shoulder_lift_joint",
        "elbow_joint",
        "wrist_1_joint",
        "wrist_2_joint",
        "wrist_3_joint"
    ],
    "metrics": {
        "cart_traj_len": 2.0965683688225174,
        "distance_elbow_joint": 1.7784063103754133,
        "distance_shoulder_lift_joint": 0.6813908283857526,
        "distance_shoulder_pan_joint": 1.2024298823280857,
        "distance_wrist_1_joint": 2.149369092238224,
        "distance_wrist_2_joint": 1.8222655205059286,
        "distance_wrist_3_joint": 2.1252674422558315,
        "smoothness": 0.4404355938910235,
        "time": 0.414287584,
        "traj_len": 3.1239604792777436,
        "weighted_distance": 4.240436130086745
    },
    "planner": "ProjEST",
    "start": {
        "state": {
            "elbow_joint": 2.422574709923281,
            "shoulder_lift_joint": -1.3736533754116391,
            "shoulder_pan_joint": -0.33786336945926293,
            "wrist_1_joint": -1.0288603412921917,
            "wrist_2_joint": 1.2330224858903978,
            "wrist_3_joint": -3.094022268022082
        }
    },
    "waypoints": [
        {
            "positions": [
                -0.33786336945926293,
                -1.3736533754116391,
                2.422574709923281,
                -1.0288603412921917,
                1.2330224858903978,
                -3.094022268022082
            ]
        },
        {
            "positions": [
                -0.3171954948997466,
                -1.3701569222644667,
                2.241685112753604,
                -1.0562822997342223,
                1.1603964342661177,
                -3.011643979027469
            ]
        },
        {
            "positions": [
                -0.2965276203402303,
                -1.3666604691172943,
                2.0607955155839273,
                -1.0837042581762528,
                1.0877703826418375,
                -2.929265690032856
            ]
        },
        {
            "positions": [
                -0.2758597457807139,
                -1.3631640159701217,
                1.8799059184142501,
                -1.1111262166182834,
                1.0151443310175574,
                -2.8468874010382437
            ]
        },
        {
            "positions": [
                -0.2551918712211976,
                -1.3596675628229493,
                1.699016321244573,
                -1.138548175060314,
                0.9425182793932774,
                -2.7645091120436307
            ]
        },
        {
            "positions": [
                -0.23452399666168125,
                -1.356171109675777,
                1.5181267240748961,
                -1.1659701335023445,
                0.8698922277689972,
                -2.6821308230490177
            ]
        },
        {
            "positions": [
                -0.15307906760300533,
                -1.4010946528743196,
                1.5216287787347509,
                -1.0433390466459311,
                0.7957825623069771,
                -2.6249268969681983
            ]
        },
        {
            "positions": [
                -0.07163413854432937,
                -1.4460181960728622,
                1.5251308333946056,
                -0.9207079597895176,
                0.7216728968449571,
                -2.5677229708873788
            ]
        },
        {
            "positions": [
                0.009810790514346551,
                -1.4909417392714046,
                1.5286328880544604,
                -0.7980768729331043,
                0.6475632313829369,
                -2.5105190448065593
            ]
        },
        {
            "positions": [
                0.0912557195730225,
                -1.5358652824699472,
                1.5321349427143152,
                -0.6754457860766908,
                0.5734535659209168,
                -2.45331511872574
            ]
        },
        {
            "positions": [
                0.17270064863169846,
                -1.5807888256684899,
                1.53563699737417,
                -0.5528146992202775,
                0.4993439004588967,
                -2.3961111926449203
            ]
        },
        {
            "positions": [
                0.2541455776903744,
                -1.6257123688670325,
                1.5391390520340245,
                -0.43018361236386404,
                0.4252342349968766,
                -2.3389072665641004
            ]
        },
        {
            "positions": [
                0.33559050674905033,
                -1.6706359120655752,
                1.5426411066938792,
                -0.3075525255074506,
                0.3511245695348565,
                -2.281703340483281
            ]
        },
        {
            "positions": [
                0.4170354358077263,
                -1.7155594552641178,
                1.546143161353734,
                -0.18492143865103716,
                0.27701490407283635,
                -2.2244994144024615
            ]
        },
        {
            "positions": [
                0.49848036486640235,
                -1.7604829984626602,
                1.5496452160135887,
                -0.06229035179462361,
                0.20290523861081622,
                -2.167295488321642
            ]
        },
        {
            "positions": [
                0.5799252939250782,
                -1.8054065416612028,
                1.5531472706734435,
                0.0603407350617895,
                0.1287955731487962,
                -2.1100915622408225
            ]
        },
        {
            "positions": [
                0.6613702229837541,
                -1.8503300848597455,
                1.5566493253332983,
                0.18297182191820302,
                0.05468590768677607,
                -2.052887636160003
            ]
        },
        {
            "positions": [
                0.7048817530169477,
                -1.8843603453098152,
                1.6848463984325501,
                0.18922564529189045,
                0.06394836043031273,
                -2.1434148584548014
            ]
        },
        {
            "positions": [
                0.7208492861672835,
                -1.9002268974468681,
                1.7874018376354563,
                0.14813725439136347,
                0.10454413795793271,
                -2.246637943171212
            ]
        },
        {
            "positions": [
                0.7368168193176194,
                -1.9160934495839212,
                1.8899572768383626,
                0.10704886349083648,
                0.1451399154855527,
                -2.3498610278876226
            ]
        },
        {
            "positions": [
                0.7527843524679553,
                -1.9319600017209742,
                1.9925127160412686,
                0.06596047259030952,
                0.18573569301317266,
                -2.4530841126040333
            ]
        },
        {
            "positions": [
                0.7687518856182912,
                -1.9478265538580273,
                2.095068155244175,
                0.0248720816897825,
                0.22633147054079267,
                -2.556307197320444
            ]
        },
        {
            "positions": [
                0.784719418768627,
                -1.9636931059950802,
                2.197623594447081,
                -0.016216309210744465,
                0.2669272480684126,
                -2.6595302820368545
            ]
        },
        {
            "positions": [
                0.7704812645814785,
                -1.9539710646933997,
                2.2389828289365816,
                -0.10291795155752337,
                0.3497859893779136,
                -2.7535731950034887
            ]
        },
        {
            "positions": [
                0.75624311039433,
                -1.9442490233917193,
                2.2803420634260823,
                -0.18961959390430227,
                0.43264473068741466,
                -2.8476161079701234
            ]
        },
        {
            "positions": [
                0.7420049562071814,
                -1.9345269820900388,
                2.321701297915583,
                -0.2763212362510812,
                0.5155034719969157,
                -2.9416590209367577
            ]
        },
        {
            "positions": [
                0.7234386404378064,
                -1.920916760877266,
                2.3568931732587535,
                -0.372079556096513,
                0.6070591609929994,
                -3.0393397337452566
            ]
        },
        {
            "positions": [
                0.7048723246684314,
                -1.907306539664493,
                2.3920850486019245,
                -0.46783787594194476,
                0.698614849989083,
                -3.1370204465537554
            ]
        }
    ]
}