{
    "goal": {
        "global_pose": {
            "orientation": {
                "w": 0.7031023502349854,
                "x": -0.7110244035720825,
                "y": 0.007748599164187908,
                "z": 0.005598929710686207
            },
            "position": {
                "x": 0.11585023208521307,
                "y": 0.44412534475326537,
                "z": 0.3711530566215515
            }
        },
        "name": "move_to_auspresseinheit_A"
    },
    "id": "ProjEST_move_to_auspresseinheit_A_6",
    "joint_names": [
        "shoulder_pan_joint",
        "shoulder_lift_joint",
        "elbow_joint",
        "wrist_1_joint",
        "wrist_2_joint",
        "wrist_3_joint"
    ],
    "metrics": {
        "cart_traj_len": 0.7137709325942108,
        "distance_elbow_joint": 0.028517955617497037,
        "distance_shoulder_lift_joint": 0.728064351271636,
        "distance_shoulder_pan_joint": 1.0418684211639624,
        "distance_wrist_1_joint": 0.5626747361972898,
        "distance_wrist_2_joint": 0.7030155809062116,
        "distance_wrist_3_joint": 1.2905156790184282,
        "smoothness": 0.9289414137821043,
        "time": 0.116013219,
        "traj_len": 2.086781427024648,
        "weighted_distance": 2.863804881502122
    },
    "planner": "ProjEST",
    "start": {
        "state": {
            "elbow_joint": 2.422574709923281,
            "shoulder_lift_joint": -1.3736533754116391,
            "shoulder_pan_joint": -0.33786336945926293,
            "wrist_1_joint": -1.0288603412921917,
            "wrist_2_joint": 1.2330224858903978,
            "wrist_3_joint": -3.094022268022082
        }
    },
    "waypoints": [
        {
            "positions": [
                -0.33786336945926293,
                -1.3736533754116391,
                2.422574709923281,
                -1.0288603412921917,
                1.2330224858903978,
                -3.094022268022082
            ]
        },
        {
            "positions": [
                -0.26723910319017646,
                -1.4638785981674531,
                2.4215594579036703,
                -0.9882150114720102,
                1.1452872697572867,
                -3.0042847775557995
            ]
        },
        {
            "positions": [
                -0.19661483692109002,
                -1.554103820923267,
                2.4205442058840596,
                -0.9475696816518285,
                1.0575520536241756,
                -2.914547287089517
            ]
        },
        {
            "positions": [
                -0.12599057065200356,
                -1.644329043679081,
                2.419528953864449,
                -0.906924351831647,
                0.9698168374910646,
                -2.824809796623234
            ]
        },
        {
            "positions": [
                -0.05536630438291712,
                -1.734554266434895,
                2.4185137018448386,
                -0.8662790220114653,
                0.8820816213579536,
                -2.7350723061569515
            ]
        },
        {
            "positions": [
                0.015257961886169347,
                -1.8247794891907088,
                2.417498449825228,
                -0.8256336921912838,
                0.7943464052248426,
                -2.645334815690669
            ]
        },
        {
            "positions": [
                0.08588222815525581,
                -1.9150047119465228,
                2.416483197805617,
                -0.7849883623711023,
                0.7066111890917315,
                -2.555597325224386
            ]
        },
        {
            "positions": [
                0.15650649442434228,
                -2.005229934702337,
                2.4154679457860064,
                -0.7443430325509206,
                0.6188759729586204,
                -2.4658598347581036
            ]
        },
        {
            "positions": [
                0.26600620588041374,
                -1.9859323763061492,
                2.411185707489962,
                -0.6887115470597168,
                0.6366497865535072,
                -2.5983304839089936
            ]
        },
        {
            "positions": [
                0.3755059173364852,
                -1.9666348179099615,
                2.4069034691939173,
                -0.6330800615685132,
                0.6544236001483941,
                -2.7308011330598836
            ]
        },
        {
            "positions": [
                0.4850056287925566,
                -1.9473372595137737,
                2.402621230897873,
                -0.5774485760773094,
                0.672197413743281,
                -2.863271782210773
            ]
        },
        {
            "positions": [
                0.5945053402486281,
                -1.928039701117586,
                2.3983389926018286,
                -0.5218170905861057,
                0.6899712273381678,
                -2.995742431361663
            ]
        },
        {
            "positions": [
                0.7040050517046995,
                -1.9087421427213984,
                2.394056754305784,
                -0.4661856050949019,
                0.7077450409330547,
                -3.128213080512553
            ]
        }
    ]
}