{
    "goal": {
        "global_pose": {
            "orientation": {
                "w": 0.5084816217422485,
                "x": -0.49083608388900757,
                "y": 0.5182115435600281,
                "z": -0.4816462993621826
            },
            "position": {
                "x": 0.5540239810943604,
                "y": 0.030875300988554955,
                "z": 0.16403168439865112
            }
        },
        "name": "move_to_storage_A"
    },
    "id": "ProjEST_move_to_storage_A_127",
    "joint_names": [
        "shoulder_pan_joint",
        "shoulder_lift_joint",
        "elbow_joint",
        "wrist_1_joint",
        "wrist_2_joint",
        "wrist_3_joint"
    ],
    "metrics": {
        "cart_traj_len": 0.35317677759181054,
        "distance_elbow_joint": 0.45432910891899647,
        "distance_shoulder_lift_joint": 0.23391440109029826,
        "distance_shoulder_pan_joint": 0.4636184172010843,
        "distance_wrist_1_joint": 0.25765731637885125,
        "distance_wrist_2_joint": 1.0919006638967017,
        "distance_wrist_3_joint": 0.10767080827602715,
        "smoothness": 4.440892098500626e-16,
        "time": 0.014275246,
        "traj_len": 1.6152680012189802,
        "weighted_distance": 2.04303458428622
    },
    "planner": "ProjEST",
    "start": {
        "state": {
            "elbow_joint": 1.9715463870305268,
            "shoulder_lift_joint": -1.1394903361783484,
            "shoulder_pan_joint": 0.12281147578464417,
            "wrist_1_joint": -0.7804599489681411,
            "wrist_2_joint": 0.12958660307563738,
            "wrist_3_joint": -3.1924946282119055
        }
    },
    "waypoints": [
        {
            "positions": [
                0.12281147578464417,
                -1.1394903361783484,
                1.9715463870305268,
                -0.7804599489681411,
                0.12958660307563738,
                -3.1924946282119055
            ]
        },
        {
            "positions": [
                0.056580273327346414,
                -1.1729066791912481,
                2.036450545447526,
                -0.8172681370222626,
                0.28557241220373764,
                -3.1771130841724733
            ]
        },
        {
            "positions": [
                -0.009650929129951344,
                -1.2063230222041479,
                2.101354703864526,
                -0.8540763250763843,
                0.44155822133183786,
                -3.1617315401330406
            ]
        },
        {
            "positions": [
                -0.07588213158724909,
                -1.2397393652170476,
                2.1662588622815253,
                -0.8908845131305059,
                0.5975440304599381,
                -3.1463499960936083
            ]
        },
        {
            "positions": [
                -0.14211333404454685,
                -1.2731557082299474,
                2.2311630206985247,
                -0.9276927011846275,
                0.7535298395880383,
                -3.1309684520541756
            ]
        },
        {
            "positions": [
                -0.20834453650184465,
                -1.3065720512428471,
                2.296067179115524,
                -0.9645008892387491,
                0.9095156487161387,
                -3.1155869080147434
            ]
        },
        {
            "positions": [
                -0.27457573895914233,
                -1.339988394255747,
                2.360971337532524,
                -1.0013090772928708,
                1.0655014578442388,
                -3.1002053639753107
            ]
        },
        {
            "positions": [
                -0.34080694141644013,
                -1.3734047372686466,
                2.4258754959495232,
                -1.0381172653469923,
                1.2214872669723391,
                -3.0848238199358784
            ]
        }
    ]
}