{
    "goal": {
        "global_pose": {
            "orientation": {
                "w": 0.7031023502349854,
                "x": -0.7110244035720825,
                "y": 0.007748599164187908,
                "z": 0.005598929710686207
            },
            "position": {
                "x": 0.11585023208521307,
                "y": 0.44412534475326537,
                "z": 0.3711530566215515
            }
        },
        "name": "move_to_auspresseinheit_A"
    },
    "id": "ProjEST_move_to_auspresseinheit_A_82",
    "joint_names": [
        "shoulder_pan_joint",
        "shoulder_lift_joint",
        "elbow_joint",
        "wrist_1_joint",
        "wrist_2_joint",
        "wrist_3_joint"
    ],
    "metrics": {
        "cart_traj_len": 0.9758728303531041,
        "distance_elbow_joint": 0.3038894736966249,
        "distance_shoulder_lift_joint": 0.8051237603227348,
        "distance_shoulder_pan_joint": 2.1914458335080984,
        "distance_wrist_1_joint": 2.0304334920126603,
        "distance_wrist_2_joint": 2.3263778609536754,
        "distance_wrist_3_joint": 2.051277982533442,
        "smoothness": 1.025265780848271,
        "time": 0.122052754,
        "traj_len": 3.115854361652232,
        "weighted_distance": 4.2623838073383835
    },
    "planner": "ProjEST",
    "start": {
        "state": {
            "elbow_joint": 2.422574709923281,
            "shoulder_lift_joint": -1.3736533754116391,
            "shoulder_pan_joint": -0.33786336945926293,
            "wrist_1_joint": -1.0288603412921917,
            "wrist_2_joint": 1.2330224858903978,
            "wrist_3_joint": -3.094022268022082
        }
    },
    "waypoints": [
        {
            "positions": [
                -0.33786336945926293,
                -1.3736533754116391,
                2.422574709923281,
                -1.0288603412921917,
                1.2330224858903978,
                -3.094022268022082
            ]
        },
        {
            "positions": [
                -0.38574425005221663,
                -1.4295676947134406,
                2.4341435517258665,
                -1.0904097781067423,
                1.1140481002323117,
                -3.009813338368648
            ]
        },
        {
            "positions": [
                -0.43362513064517033,
                -1.4854820140152423,
                2.445712393528452,
                -1.1519592149212927,
                0.9950737145742257,
                -2.9256044087152135
            ]
        },
        {
            "positions": [
                -0.48150601123812403,
                -1.541396333317044,
                2.4572812353310374,
                -1.213508651735843,
                0.8760993289161396,
                -2.8413954790617795
            ]
        },
        {
            "positions": [
                -0.5293868918310778,
                -1.5973106526188454,
                2.468850077133623,
                -1.2750580885503937,
                0.7571249432580536,
                -2.7571865494083454
            ]
        },
        {
            "positions": [
                -0.5772677724240314,
                -1.6532249719206469,
                2.4804189189362083,
                -1.3366075253649443,
                0.6381505575999675,
                -2.6729776197549113
            ]
        },
        {
            "positions": [
                -0.6251486530169852,
                -1.7091392912224486,
                2.4919877607387937,
                -1.3981569621794947,
                0.5191761719418815,
                -2.5887686901014773
            ]
        },
        {
            "positions": [
                -0.6730295336099388,
                -1.7650536105242502,
                2.503556602541379,
                -1.459706398994045,
                0.40020178628379544,
                -2.5045597604480427
            ]
        },
        {
            "positions": [
                -0.7209104142028926,
                -1.8209679298260517,
                2.5151254443439646,
                -1.5212558358085957,
                0.2812274006257094,
                -2.4203508307946087
            ]
        },
        {
            "positions": [
                -0.7687912947958462,
                -1.8768822491278532,
                2.52669428614655,
                -1.5828052726231463,
                0.16225301496762334,
                -2.3361419011411746
            ]
        },
        {
            "positions": [
                -0.8166721753888,
                -1.9327965684296549,
                2.5382631279491354,
                -1.6443547094376967,
                0.0432786293095373,
                -2.25193297148774
            ]
        },
        {
            "positions": [
                -0.8645530559817536,
                -1.9887108877314565,
                2.549831969751721,
                -1.705904146252247,
                -0.07569575634854875,
                -2.167724041834306
            ]
        },
        {
            "positions": [
                -0.9124339365747073,
                -2.044625207033258,
                2.5614008115543063,
                -1.7674535830667977,
                -0.19467014200663485,
                -2.083515112180872
            ]
        },
        {
            "positions": [
                -0.7880589160829646,
                -2.034305827902403,
                2.5487036290877216,
                -1.6680812561254088,
                -0.12554050869458536,
                -2.1635744065418128
            ]
        },
        {
            "positions": [
                -0.663683895591222,
                -2.0239864487715478,
                2.536006446621137,
                -1.5687089291840202,
                -0.05641087538253586,
                -2.2436337009027536
            ]
        },
        {
            "positions": [
                -0.5393088750994794,
                -2.0136670696406926,
                2.5233092641545527,
                -1.4693366022426313,
                0.012718757929513602,
                -2.323692995263695
            ]
        },
        {
            "positions": [
                -0.41493385460773674,
                -2.0033476905098375,
                2.510612081687968,
                -1.3699642753012424,
                0.08184839124156312,
                -2.4037522896246357
            ]
        },
        {
            "positions": [
                -0.29055883411599404,
                -1.9930283113789826,
                2.4979148992213833,
                -1.2705919483598538,
                0.1509780245536126,
                -2.4838115839855766
            ]
        },
        {
            "positions": [
                -0.1661838136242515,
                -1.9827089322481275,
                2.4852177167547986,
                -1.171219621418465,
                0.22010765786566205,
                -2.5638708783465174
            ]
        },
        {
            "positions": [
                -0.04180879313250885,
                -1.9723895531172726,
                2.4725205342882144,
                -1.071847294477076,
                0.2892372911777115,
                -2.6439301727074582
            ]
        },
        {
            "positions": [
                0.0825662273592338,
                -1.9620701739864175,
                2.4598233518216297,
                -0.9724749675356873,
                0.3583669244897611,
                -2.723989467068399
            ]
        },
        {
            "positions": [
                0.20694124785097634,
                -1.9517507948555624,
                2.447126169355045,
                -0.8731026405942985,
                0.42749655780181045,
                -2.80404876142934
            ]
        },
        {
            "positions": [
                0.3313162683427192,
                -1.9414314157247072,
                2.4344289868884603,
                -0.7737303136529097,
                0.49662619111386,
                -2.884108055790281
            ]
        },
        {
            "positions": [
                0.45569128883446164,
                -1.9311120365938523,
                2.421731804421876,
                -0.6743579867115208,
                0.5657558244259095,
                -2.964167350151222
            ]
        },
        {
            "positions": [
                0.5800663093262043,
                -1.9207926574629972,
                2.4090346219552914,
                -0.5749856597701319,
                0.634885457737959,
                -3.044226644512163
            ]
        },
        {
            "positions": [
                0.7044413298179469,
                -1.910473278332142,
                2.3963374394887067,
                -0.47561333282874335,
                0.7040150910500084,
                -3.1242859388731037
            ]
        }
    ]
}