{
    "goal": {
        "global_pose": {
            "orientation": {
                "w": 0.7031023502349854,
                "x": -0.7110244035720825,
                "y": 0.007748599164187908,
                "z": 0.005598929710686207
            },
            "position": {
                "x": 0.11585023208521307,
                "y": 0.44412534475326537,
                "z": 0.3711530566215515
            }
        },
        "name": "move_to_auspresseinheit_A"
    },
    "id": "ProjEST_move_to_auspresseinheit_A_103",
    "joint_names": [
        "shoulder_pan_joint",
        "shoulder_lift_joint",
        "elbow_joint",
        "wrist_1_joint",
        "wrist_2_joint",
        "wrist_3_joint"
    ],
    "metrics": {
        "cart_traj_len": 2.41702598159592,
        "distance_elbow_joint": 2.4869419483166255,
        "distance_shoulder_lift_joint": 1.205780421685359,
        "distance_shoulder_pan_joint": 1.9611183711889764,
        "distance_wrist_1_joint": 1.7339578728722653,
        "distance_wrist_2_joint": 1.580276778637086,
        "distance_wrist_3_joint": 3.3878766157230356,
        "smoothness": 0.8981638454315275,
        "time": 0.875119418,
        "traj_len": 3.5151034136172083,
        "weighted_distance": 4.737714627473753
    },
    "planner": "ProjEST",
    "start": {
        "state": {
            "elbow_joint": 2.422574709923281,
            "shoulder_lift_joint": -1.3736533754116391,
            "shoulder_pan_joint": -0.33786336945926293,
            "wrist_1_joint": -1.0288603412921917,
            "wrist_2_joint": 1.2330224858903978,
            "wrist_3_joint": -3.094022268022082
        }
    },
    "waypoints": [
        {
            "positions": [
                -0.33786336945926293,
                -1.3736533754116391,
                2.422574709923281,
                -1.0288603412921917,
                1.2330224858903978,
                -3.094022268022082
            ]
        },
        {
            "positions": [
                -0.27359294863864947,
                -1.355863597087438,
                2.2967447140780313,
                -1.0782287910957524,
                1.1854442772792424,
                -3.0220935246265475
            ]
        },
        {
            "positions": [
                -0.20932252781803604,
                -1.338073818763237,
                2.1709147182327815,
                -1.1275972408993131,
                1.1378660686680873,
                -2.9501647812310123
            ]
        },
        {
            "positions": [
                -0.14505210699742258,
                -1.320284040439036,
                2.045084722387532,
                -1.176965690702874,
                1.090287860056932,
                -2.878236037835477
            ]
        },
        {
            "positions": [
                -0.08078168617680914,
                -1.302494262114835,
                1.9192547265422824,
                -1.2263341405064347,
                1.0427096514457768,
                -2.8063072944399425
            ]
        },
        {
            "positions": [
                -0.01651126535619568,
                -1.2847044837906338,
                1.7934247306970326,
                -1.2757025903099954,
                0.9951314428346214,
                -2.734378551044408
            ]
        },
        {
            "positions": [
                0.04775915546441778,
                -1.2669147054664327,
                1.6675947348517828,
                -1.3250710401135561,
                0.9475532342234663,
                -2.6624498076488727
            ]
        },
        {
            "positions": [
                0.11202957628503118,
                -1.2491249271422318,
                1.5417647390065332,
                -1.3744394899171168,
                0.8999750256123109,
                -2.5905210642533376
            ]
        },
        {
            "positions": [
                0.17629999710564465,
                -1.2313351488180306,
                1.4159347431612834,
                -1.4238079397206778,
                0.8523968170011557,
                -2.518592320857803
            ]
        },
        {
            "positions": [
                0.24057041792625816,
                -1.2135453704938297,
                1.2901047473160336,
                -1.4731763895242385,
                0.8048186083900004,
                -2.4466635774622683
            ]
        },
        {
            "positions": [
                0.3048408387468715,
                -1.1957555921696286,
                1.164274751470784,
                -1.5225448393277992,
                0.7572403997788452,
                -2.374734834066733
            ]
        },
        {
            "positions": [
                0.37654680765430915,
                -1.268209658544416,
                1.2280665614213924,
                -1.4767491881648813,
                0.7091990609087443,
                -2.2952010720915226
            ]
        },
        {
            "positions": [
                0.44825277656174684,
                -1.3406637249192037,
                1.2918583713720009,
                -1.4309535370019635,
                0.6611577220386434,
                -2.2156673101163116
            ]
        },
        {
            "positions": [
                0.5199587454691845,
                -1.4131177912939912,
                1.3556501813226092,
                -1.3851578858390454,
                0.6131163831685426,
                -2.1361335481411006
            ]
        },
        {
            "positions": [
                0.5916647143766222,
                -1.4855718576687786,
                1.4194419912732177,
                -1.3393622346761276,
                0.5650750442984418,
                -2.05659978616589
            ]
        },
        {
            "positions": [
                0.6633706832840599,
                -1.5580259240435663,
                1.483233801223826,
                -1.2935665835132097,
                0.5170337054283408,
                -1.9770660241906792
            ]
        },
        {
            "positions": [
                0.7350766521914975,
                -1.6304799904183538,
                1.5470256111744343,
                -1.2477709323502917,
                0.46899236655824,
                -1.8975322622154684
            ]
        },
        {
            "positions": [
                0.8067826210989353,
                -1.7029340567931412,
                1.6108174211250428,
                -1.2019752811873738,
                0.42095102768813913,
                -1.8179985002402577
            ]
        },
        {
            "positions": [
                0.8784885900063728,
                -1.7753881231679287,
                1.674609231075651,
                -1.156179630024456,
                0.3729096888180383,
                -1.7384647382650469
            ]
        },
        {
            "positions": [
                0.9501945589138105,
                -1.8478421895427164,
                1.7384010410262596,
                -1.1103839788615382,
                0.32486834994793745,
                -1.658930976289836
            ]
        },
        {
            "positions": [
                1.0219005278212483,
                -1.920296255917504,
                1.8021928509768679,
                -1.0645883276986203,
                0.2768270110778365,
                -1.5793972143146253
            ]
        },
        {
            "positions": [
                1.0936064967286858,
                -1.9927503222922915,
                1.8659846609274764,
                -1.0187926765357025,
                0.2287856722077357,
                -1.4998634523394145
            ]
        },
        {
            "positions": [
                1.1653124656361236,
                -2.065204388667079,
                1.9297764708780847,
                -0.9729970253727844,
                0.18074433333763484,
                -1.4203296903642038
            ]
        },
        {
            "positions": [
                1.1129832453465636,
                -2.0589219273284765,
                1.9838823364232243,
                -0.8982336695031247,
                0.22083252312153298,
                -1.5782832049927662
            ]
        },
        {
            "positions": [
                1.0606540250570036,
                -2.0526394659898743,
                2.037988201968364,
                -0.8234703136334649,
                0.2609207129054311,
                -1.7362367196213286
            ]
        },
        {
            "positions": [
                1.0083248047674434,
                -2.046357004651272,
                2.0920940675135036,
                -0.7487069577638052,
                0.3010089026893292,
                -1.894190234249891
            ]
        },
        {
            "positions": [
                0.9559955844778834,
                -2.0400745433126692,
                2.1461999330586434,
                -0.6739436018941455,
                0.3410970924732274,
                -2.0521437488784535
            ]
        },
        {
            "positions": [
                0.9036663641883234,
                -2.033792081974067,
                2.200305798603783,
                -0.5991802460244857,
                0.38118528225712556,
                -2.210097263507016
            ]
        },
        {
            "positions": [
                0.8513371438987632,
                -2.0275096206354646,
                2.2544116641489227,
                -0.5244168901548261,
                0.42127347204102367,
                -2.3680507781355784
            ]
        },
        {
            "positions": [
                0.7990079236092031,
                -2.0212271592968625,
                2.308517529694062,
                -0.4496535342851663,
                0.4613616618249218,
                -2.526004292764141
            ]
        },
        {
            "positions": [
                0.7466787033196431,
                -2.01494469795826,
                2.362623395239202,
                -0.37489017841550654,
                0.5014498516088199,
                -2.6839578073927033
            ]
        },
        {
            "positions": [
                0.7335757787272733,
                -1.9788866475459004,
                2.3727211772711057,
                -0.40576308305696157,
                0.5705475542131994,
                -2.8341431144049225
            ]
        },
        {
            "positions": [
                0.7204728541349035,
                -1.9428285971335406,
                2.3828189593030094,
                -0.43663598769841666,
                0.6396452568175787,
                -2.9843284214171417
            ]
        },
        {
            "positions": [
                0.7073699295425336,
                -1.906770546721181,
                2.392916741334913,
                -0.4675088923398717,
                0.7087429594219581,
                -3.134513728429361
            ]
        }
    ]
}