{
    "goal": {
        "global_pose": {
            "orientation": {
                "w": 0.7031023502349854,
                "x": -0.7110244035720825,
                "y": 0.007748599164187908,
                "z": 0.005598929710686207
            },
            "position": {
                "x": 0.11585023208521307,
                "y": 0.44412534475326537,
                "z": 0.3711530566215515
            }
        },
        "name": "move_to_auspresseinheit_A"
    },
    "id": "ProjEST_move_to_auspresseinheit_A_56",
    "joint_names": [
        "shoulder_pan_joint",
        "shoulder_lift_joint",
        "elbow_joint",
        "wrist_1_joint",
        "wrist_2_joint",
        "wrist_3_joint"
    ],
    "metrics": {
        "cart_traj_len": 0.7274788874815679,
        "distance_elbow_joint": 0.42665885487650757,
        "distance_shoulder_lift_joint": 0.5319315663593491,
        "distance_shoulder_pan_joint": 1.0430868997317768,
        "distance_wrist_1_joint": 1.5611988210315364,
        "distance_wrist_2_joint": 0.5474030392236869,
        "distance_wrist_3_joint": 1.5491692311272383,
        "smoothness": 1.1165499186614187,
        "time": 0.15161413099999999,
        "traj_len": 2.3789595230583678,
        "weighted_distance": 3.296420594350756
    },
    "planner": "ProjEST",
    "start": {
        "state": {
            "elbow_joint": 2.422574709923281,
            "shoulder_lift_joint": -1.3736533754116391,
            "shoulder_pan_joint": -0.33786336945926293,
            "wrist_1_joint": -1.0288603412921917,
            "wrist_2_joint": 1.2330224858903978,
            "wrist_3_joint": -3.094022268022082
        }
    },
    "waypoints": [
        {
            "positions": [
                -0.33786336945926293,
                -1.3736533754116391,
                2.422574709923281,
                -1.0288603412921917,
                1.2330224858903978,
                -3.094022268022082
            ]
        },
        {
            "positions": [
                -0.3003453524945928,
                -1.4158932564690272,
                2.3970986874168236,
                -0.9102601253223569,
                1.1734732261943066,
                -3.010950832633574
            ]
        },
        {
            "positions": [
                -0.26282733552992277,
                -1.458133137526415,
                2.371622664910366,
                -0.7916599093525222,
                1.1139239664982152,
                -2.9278793972450656
            ]
        },
        {
            "positions": [
                -0.22530931856525266,
                -1.5003730185838031,
                2.3461466424039084,
                -0.6730596933826873,
                1.054374706802124,
                -2.8448079618565574
            ]
        },
        {
            "positions": [
                -0.18779130160058255,
                -1.5426128996411912,
                2.320670619897451,
                -0.5544594774128526,
                0.9948254471060327,
                -2.761736526468049
            ]
        },
        {
            "positions": [
                -0.15027328463591244,
                -1.584852780698579,
                2.2951945973909935,
                -0.4358592614430177,
                0.9352761874099416,
                -2.678665091079541
            ]
        },
        {
            "positions": [
                -0.11275526767124236,
                -1.6270926617559671,
                2.269718574884536,
                -0.31725904547318295,
                0.8757269277138503,
                -2.5955936556910326
            ]
        },
        {
            "positions": [
                -0.07523725070657222,
                -1.6693325428133552,
                2.2442425523780782,
                -0.19865882950334812,
                0.816177668017759,
                -2.5125222203025244
            ]
        },
        {
            "positions": [
                -0.03771923374190217,
                -1.711572423870743,
                2.218766529871621,
                -0.0800586135335134,
                0.7566284083216678,
                -2.429450784914016
            ]
        },
        {
            "positions": [
                -0.0002012167772320675,
                -1.7538123049281311,
                2.1932905073651634,
                0.03854160243632147,
                0.6970791486255765,
                -2.346379349525508
            ]
        },
        {
            "positions": [
                0.11736957439772555,
                -1.7791077444019407,
                2.226186282751562,
                -0.04375787711418237,
                0.6989890989520542,
                -2.4799670682972854
            ]
        },
        {
            "positions": [
                0.2349403655726832,
                -1.8044031838757502,
                2.25908205813796,
                -0.1260573566646862,
                0.7008990492785317,
                -2.6135547870690625
            ]
        },
        {
            "positions": [
                0.35251115674764083,
                -1.8296986233495596,
                2.291977833524358,
                -0.20835683621519008,
                0.7028089996050093,
                -2.7471425058408396
            ]
        },
        {
            "positions": [
                0.47008194792259844,
                -1.8549940628233692,
                2.3248736089107567,
                -0.2906563157656939,
                0.704718949931487,
                -2.880730224612617
            ]
        },
        {
            "positions": [
                0.5876527390975561,
                -1.8802895022971788,
                2.357769384297155,
                -0.37295579531619777,
                0.7066289002579647,
                -3.0143179433843947
            ]
        },
        {
            "positions": [
                0.7052235302725137,
                -1.9055849417709882,
                2.3906651596835533,
                -0.4552552748667016,
                0.7085388505844422,
                -3.147905662156172
            ]
        }
    ]
}