{
    "goal": {
        "global_pose": {
            "orientation": {
                "w": 0.7047431468963623,
                "x": -0.7094548344612122,
                "y": 0.0024358443915843964,
                "z": -0.0022348060738295317
            },
            "position": {
                "x": 0.6094750761985779,
                "y": 0.3671506643295288,
                "z": 0.19426114857196808
            }
        },
        "name": "move_to_magneteinheit_A"
    },
    "id": "ProjEST_move_to_magneteinheit_A_124",
    "joint_names": [
        "shoulder_pan_joint",
        "shoulder_lift_joint",
        "elbow_joint",
        "wrist_1_joint",
        "wrist_2_joint",
        "wrist_3_joint"
    ],
    "metrics": {
        "cart_traj_len": 1.878683702715539,
        "distance_elbow_joint": 3.9136824610519185,
        "distance_shoulder_lift_joint": 0.7014438235650141,
        "distance_shoulder_pan_joint": 1.2424903255446955,
        "distance_wrist_1_joint": 1.4943479797813592,
        "distance_wrist_2_joint": 1.701182547333999,
        "distance_wrist_3_joint": 1.1210800162325236,
        "smoothness": 4.934324551070873e-16,
        "time": 0.307440227,
        "traj_len": 3.189706436885613,
        "weighted_distance": 3.9511919357441894
    },
    "planner": "ProjEST",
    "start": {
        "state": {
            "elbow_joint": -1.919643507792019,
            "shoulder_lift_joint": -0.07675430207160344,
            "shoulder_pan_joint": -1.1188671864651873,
            "wrist_1_joint": 0.42560062535961957,
            "wrist_2_joint": 1.5706038300724876,
            "wrist_3_joint": 1.1188968870953055
        }
    },
    "waypoints": [
        {
            "positions": [
                -1.1188671864651873,
                -0.07675430207160344,
                -1.919643507792019,
                0.42560062535961957,
                1.5706038300724876,
                1.1188968870953055
            ]
        },
        {
            "positions": [
                -1.0710790970211606,
                -0.10373291067025783,
                -1.7691172592900222,
                0.4830755476589026,
                1.5051737320981031,
                1.0757784249325162
            ]
        },
        {
            "positions": [
                -1.0232910075771338,
                -0.13071151926891222,
                -1.6185910107880255,
                0.5405504699581857,
                1.4397436341237184,
                1.0326599627697268
            ]
        },
        {
            "positions": [
                -0.9755029181331071,
                -0.15769012786756664,
                -1.4680647622860286,
                0.5980253922574688,
                1.374313536149334,
                0.9895415006069375
            ]
        },
        {
            "positions": [
                -0.9277148286890804,
                -0.184668736466221,
                -1.3175385137840316,
                0.6555003145567517,
                1.3088834381749492,
                0.9464230384441481
            ]
        },
        {
            "positions": [
                -0.8799267392450536,
                -0.21164734506487543,
                -1.1670122652820347,
                0.7129752368560348,
                1.2434533402005647,
                0.9033045762813587
            ]
        },
        {
            "positions": [
                -0.8321386498010268,
                -0.23862595366352982,
                -1.0164860167800378,
                0.7704501591553179,
                1.17802324222618,
                0.8601861141185694
            ]
        },
        {
            "positions": [
                -0.7843505603570001,
                -0.2656045622621842,
                -0.8659597682780411,
                0.8279250814546009,
                1.1125931442517956,
                0.81706765195578
            ]
        },
        {
            "positions": [
                -0.7365624709129733,
                -0.2925831708608386,
                -0.7154335197760442,
                0.8854000037538841,
                1.047163046277411,
                0.7739491897929905
            ]
        },
        {
            "positions": [
                -0.6887743814689467,
                -0.31956177945949293,
                -0.5649072712740473,
                0.942874926053167,
                0.9817329483030265,
                0.7308307276302013
            ]
        },
        {
            "positions": [
                -0.6409862920249199,
                -0.3465403880581474,
                -0.41438102277205036,
                1.00034984835245,
                0.9163028503286418,
                0.6877122654674118
            ]
        },
        {
            "positions": [
                -0.5931982025808931,
                -0.37351899665680177,
                -0.26385477427005366,
                1.0578247706517332,
                0.8508727523542573,
                0.6445938033046225
            ]
        },
        {
            "positions": [
                -0.5454101131368663,
                -0.4004976052554562,
                -0.11332852576805652,
                1.1152996929510162,
                0.7854426543798726,
                0.6014753411418331
            ]
        },
        {
            "positions": [
                -0.4976220236928396,
                -0.42747621385411055,
                0.037197722733940175,
                1.1727746152502991,
                0.7200125564054881,
                0.5583568789790437
            ]
        },
        {
            "positions": [
                -0.4498339342488129,
                -0.4544548224527649,
                0.18772397123593687,
                1.230249537549582,
                0.6545824584311036,
                0.5152384168162544
            ]
        },
        {
            "positions": [
                -0.4020458448047861,
                -0.4814334310514193,
                0.3382502197379338,
                1.2877244598488653,
                0.589152360456719,
                0.472119954653465
            ]
        },
        {
            "positions": [
                -0.3542577553607593,
                -0.5084120396500738,
                0.4887764682399307,
                1.3451993821481485,
                0.5237222624823343,
                0.42900149249067554
            ]
        },
        {
            "positions": [
                -0.3064696659167325,
                -0.5353906482487281,
                0.6393027167419276,
                1.4026743044474315,
                0.45829216450794985,
                0.3858830303278863
            ]
        },
        {
            "positions": [
                -0.25868157647270584,
                -0.5623692568473825,
                0.7898289652439245,
                1.4601492267467144,
                0.39286206653356537,
                0.34276456816509693
            ]
        },
        {
            "positions": [
                -0.21089348702867916,
                -0.5893478654460369,
                0.940355213745921,
                1.5176241490459974,
                0.32743196855918066,
                0.29964610600230757
            ]
        },
        {
            "positions": [
                -0.16310539758465226,
                -0.6163264740446914,
                1.0908814622479184,
                1.5750990713452806,
                0.26200187058479596,
                0.2565276438395181
            ]
        },
        {
            "positions": [
                -0.11531730814062557,
                -0.6433050826433457,
                1.2414077107499153,
                1.6325739936445636,
                0.19657177261041148,
                0.21340918167672873
            ]
        },
        {
            "positions": [
                -0.06752921869659878,
                -0.670283691242,
                1.3919339592519118,
                1.6900489159438468,
                0.131141674636027,
                0.17029071951393937
            ]
        },
        {
            "positions": [
                -0.01974112925257221,
                -0.6972622998406544,
                1.5424602077539087,
                1.7475238382431297,
                0.06571157666164251,
                0.12717225735115012
            ]
        },
        {
            "positions": [
                0.028046960191454806,
                -0.7242409084393089,
                1.692986456255906,
                1.804998760542413,
                0.00028147868725758585,
                0.08405379518836065
            ]
        },
        {
            "positions": [
                0.07583504963548138,
                -0.7512195170379632,
                1.8435127047579025,
                1.862473682841696,
                -0.0651486192871269,
                0.040935333025571286
            ]
        },
        {
            "positions": [
                0.12362313907950812,
                -0.7781981256366176,
                1.9940389532598994,
                1.9199486051409789,
                -0.13057871726151138,
                -0.0021831291372181295
            ]
        }
    ]
}