{
    "goal": {
        "global_pose": {
            "orientation": {
                "w": 0.5084816217422485,
                "x": -0.49083608388900757,
                "y": 0.5182115435600281,
                "z": -0.4816462993621826
            },
            "position": {
                "x": 0.5540239810943604,
                "y": 0.030875300988554955,
                "z": 0.16403168439865112
            }
        },
        "name": "move_to_storage_A"
    },
    "id": "ProjEST_move_to_storage_A_119",
    "joint_names": [
        "shoulder_pan_joint",
        "shoulder_lift_joint",
        "elbow_joint",
        "wrist_1_joint",
        "wrist_2_joint",
        "wrist_3_joint"
    ],
    "metrics": {
        "cart_traj_len": 0.35295377496347813,
        "distance_elbow_joint": 0.45146535942098875,
        "distance_shoulder_lift_joint": 0.2315495610837095,
        "distance_shoulder_pan_joint": 0.4590890379680228,
        "distance_wrist_1_joint": 0.25762249236162604,
        "distance_wrist_2_joint": 1.1074863507645558,
        "distance_wrist_3_joint": 0.10496486319754261,
        "smoothness": 0.0,
        "time": 0.0497755,
        "traj_len": 1.616223271951139,
        "weighted_distance": 2.0462688568019876
    },
    "planner": "ProjEST",
    "start": {
        "state": {
            "elbow_joint": 1.9715463870305268,
            "shoulder_lift_joint": -1.1394903361783484,
            "shoulder_pan_joint": 0.12281147578464417,
            "wrist_1_joint": -0.7804599489681411,
            "wrist_2_joint": 0.12958660307563738,
            "wrist_3_joint": -3.1924946282119055
        }
    },
    "waypoints": [
        {
            "positions": [
                0.12281147578464417,
                -1.1394903361783484,
                1.9715463870305268,
                -0.7804599489681411,
                0.12958660307563738,
                -3.1924946282119055
            ]
        },
        {
            "positions": [
                0.05722732750349806,
                -1.1725688449045926,
                2.0360414383763823,
                -0.817263162162659,
                0.2877989388991453,
                -3.1774996477551136
            ]
        },
        {
            "positions": [
                -0.008356820777648058,
                -1.2056473536308367,
                2.100536489722238,
                -0.8540663753571771,
                0.44601127472265334,
                -3.162504667298322
            ]
        },
        {
            "positions": [
                -0.07394096905879417,
                -1.238725862357081,
                2.1650315410680934,
                -0.8908695885516951,
                0.6042236105461612,
                -3.14750968684153
            ]
        },
        {
            "positions": [
                -0.13952511733994027,
                -1.2718043710833253,
                2.229526592413949,
                -0.9276728017462131,
                0.7624359463696693,
                -3.1325147063847383
            ]
        },
        {
            "positions": [
                -0.2051092656210864,
                -1.3048828798095695,
                2.2940216437598044,
                -0.9644760149407311,
                0.9206482821931773,
                -3.1175197259279464
            ]
        },
        {
            "positions": [
                -0.2706934139022325,
                -1.3379613885358137,
                2.35851669510566,
                -1.0012792281352492,
                1.078860618016685,
                -3.102524745471155
            ]
        },
        {
            "positions": [
                -0.3362775621833786,
                -1.3710398972620579,
                2.4230117464515155,
                -1.0380824413297671,
                1.2370729538401932,
                -3.087529765014363
            ]
        }
    ]
}