{
    "goal": {
        "global_pose": {
            "orientation": {
                "w": 0.7031023502349854,
                "x": -0.7110244035720825,
                "y": 0.007748599164187908,
                "z": 0.005598929710686207
            },
            "position": {
                "x": 0.11585023208521307,
                "y": 0.44412534475326537,
                "z": 0.3711530566215515
            }
        },
        "name": "move_to_auspresseinheit_A"
    },
    "id": "ProjEST_move_to_auspresseinheit_A_50",
    "joint_names": [
        "shoulder_pan_joint",
        "shoulder_lift_joint",
        "elbow_joint",
        "wrist_1_joint",
        "wrist_2_joint",
        "wrist_3_joint"
    ],
    "metrics": {
        "cart_traj_len": 3.5044579326415075,
        "distance_elbow_joint": 2.6718125478302586,
        "distance_shoulder_lift_joint": 0.7656289189781973,
        "distance_shoulder_pan_joint": 4.059989828091468,
        "distance_wrist_1_joint": 1.6769636233929996,
        "distance_wrist_2_joint": 3.2032189678937875,
        "distance_wrist_3_joint": 5.5961490223172206,
        "smoothness": 0.38994796467081155,
        "time": 0.190831342,
        "traj_len": 4.239547488648279,
        "weighted_distance": 5.834915898659138
    },
    "planner": "ProjEST",
    "start": {
        "state": {
            "elbow_joint": 2.422574709923281,
            "shoulder_lift_joint": -1.3736533754116391,
            "shoulder_pan_joint": -0.33786336945926293,
            "wrist_1_joint": -1.0288603412921917,
            "wrist_2_joint": 1.2330224858903978,
            "wrist_3_joint": -3.094022268022082
        }
    },
    "waypoints": [
        {
            "positions": [
                -0.33786336945926293,
                -1.3736533754116391,
                2.422574709923281,
                -1.0288603412921917,
                1.2330224858903978,
                -3.094022268022082
            ]
        },
        {
            "positions": [
                -0.27001022967142285,
                -1.3641212439309456,
                2.309128868814847,
                -1.0360637800723271,
                1.2102176298052716,
                -2.948375013781779
            ]
        },
        {
            "positions": [
                -0.20215708988358283,
                -1.354589112450252,
                2.195683027706413,
                -1.0432672188524623,
                1.1874127737201454,
                -2.802727759541476
            ]
        },
        {
            "positions": [
                -0.13430395009574278,
                -1.3450569809695585,
                2.082237186597979,
                -1.0504706576325977,
                1.1646079176350193,
                -2.6570805053011726
            ]
        },
        {
            "positions": [
                -0.06645081030790273,
                -1.335524849488865,
                1.9687913454895452,
                -1.0576740964127331,
                1.141803061549893,
                -2.5114332510608692
            ]
        },
        {
            "positions": [
                0.0014023294799373476,
                -1.3259927180081714,
                1.8553455043811113,
                -1.0648775351928685,
                1.118998205464767,
                -2.3657859968205663
            ]
        },
        {
            "positions": [
                0.06925546926777737,
                -1.316460586527478,
                1.7418996632726773,
                -1.0720809739730037,
                1.0961933493796407,
                -2.220138742580263
            ]
        },
        {
            "positions": [
                0.13710860905561745,
                -1.3069284550467846,
                1.6284538221642433,
                -1.0792844127531391,
                1.0733884932945146,
                -2.0744914883399597
            ]
        },
        {
            "positions": [
                0.20496174884345747,
                -1.297396323566091,
                1.5150079810558092,
                -1.0864878515332745,
                1.0505836372093884,
                -1.9288442340996566
            ]
        },
        {
            "positions": [
                0.2728148886312976,
                -1.2878641920853975,
                1.4015621399473752,
                -1.09369129031341,
                1.0277787811242622,
                -1.7831969798593532
            ]
        },
        {
            "positions": [
                0.3406680284191376,
                -1.278332060604704,
                1.2881162988389414,
                -1.1008947290935451,
                1.004973925039136,
                -1.6375497256190503
            ]
        },
        {
            "positions": [
                0.40852116820697765,
                -1.2687999291240104,
                1.1746704577305074,
                -1.1080981678736805,
                0.9821690689540099,
                -1.491902471378747
            ]
        },
        {
            "positions": [
                0.49144039243683835,
                -1.2761811472847748,
                1.1368160197941215,
                -1.1291977060823841,
                0.9183450061626346,
                -1.3875160217795206
            ]
        },
        {
            "positions": [
                0.574359616666699,
                -1.283562365445539,
                1.0989615818577354,
                -1.150297244291088,
                0.8545209433712592,
                -1.2831295721802944
            ]
        },
        {
            "positions": [
                0.6814264270544722,
                -1.3041536216745861,
                1.1296710178779077,
                -1.177372351502856,
                0.7577651071793037,
                -1.211834674829068
            ]
        },
        {
            "positions": [
                0.7884932374422453,
                -1.3247448779036333,
                1.1603804538980802,
                -1.204447458714624,
                0.6610092709873482,
                -1.1405397774778414
            ]
        },
        {
            "positions": [
                0.8955600478300185,
                -1.3453361341326804,
                1.1910898899182527,
                -1.2315225659263922,
                0.5642534347953927,
                -1.069244880126615
            ]
        },
        {
            "positions": [
                1.0026268582177917,
                -1.3659273903617275,
                1.221799325938425,
                -1.2585976731381603,
                0.4674975986034372,
                -0.9979499827753885
            ]
        },
        {
            "positions": [
                1.1096936686055647,
                -1.3865186465907746,
                1.2525087619585973,
                -1.2856727803499284,
                0.3707417624114817,
                -0.926655085424162
            ]
        },
        {
            "positions": [
                1.2167604789933382,
                -1.4071099028198217,
                1.2832181979787698,
                -1.3127478875616965,
                0.2739859262195262,
                -0.8553601880729356
            ]
        },
        {
            "positions": [
                1.3238272893811112,
                -1.4277011590488689,
                1.3139276339989423,
                -1.3398229947734646,
                0.17723009002757073,
                -0.784065290721709
            ]
        },
        {
            "positions": [
                1.4308940997688844,
                -1.448292415277916,
                1.3446370700191146,
                -1.3668981019852326,
                0.0804742538356153,
                -0.7127703933704825
            ]
        },
        {
            "positions": [
                1.5178868186501597,
                -1.4656249869498188,
                1.3752147679963413,
                -1.388429031282904,
                0.0014743510898360956,
                -0.659592207968217
            ]
        },
        {
            "positions": [
                1.6048795375314349,
                -1.4829575586217214,
                1.405792465973568,
                -1.4099599605805753,
                -0.0775255516559431,
                -0.6064140225659514
            ]
        },
        {
            "positions": [
                1.6918722564127102,
                -1.5002901302936242,
                1.4363701639507949,
                -1.4314908898782466,
                -0.1565254544017223,
                -0.553235837163686
            ]
        },
        {
            "positions": [
                1.7965803456740916,
                -1.5220056856730402,
                1.4888698707211356,
                -1.4534654586667068,
                -0.25032635023562355,
                -0.5049031716713611
            ]
        },
        {
            "positions": [
                1.9012884349354728,
                -1.543721241052456,
                1.5413695774914764,
                -1.4754400274551671,
                -0.3441272460695247,
                -0.45657050617903633
            ]
        },
        {
            "positions": [
                2.005996524196854,
                -1.5654367964318718,
                1.593869284261817,
                -1.4974145962436274,
                -0.4379281419034259,
                -0.40823784068671154
            ]
        },
        {
            "positions": [
                2.1107046134582355,
                -1.5871523518112876,
                1.6463689910321577,
                -1.5193891650320877,
                -0.5317290377373272,
                -0.3599051751943867
            ]
        },
        {
            "positions": [
                2.215412702719617,
                -1.6088679071907035,
                1.6988686978024985,
                -1.541363733820548,
                -0.6255299335712283,
                -0.31157250970206185
            ]
        },
        {
            "positions": [
                2.1559529160126707,
                -1.6339048639427813,
                1.7587786490166566,
                -1.45036118007283,
                -0.6110043533840194,
                -0.44639159011152474
            ]
        },
        {
            "positions": [
                2.096493129305724,
                -1.6589418206948592,
                1.8186886002308147,
                -1.359358626325112,
                -0.5964787731968104,
                -0.5812106705209876
            ]
        },
        {
            "positions": [
                2.037033342598778,
                -1.683978777446937,
                1.8785985514449726,
                -1.2683560725773941,
                -0.5819531930096015,
                -0.7160297509304504
            ]
        },
        {
            "positions": [
                1.9775735558918317,
                -1.7090157341990149,
                1.9385085026591307,
                -1.1773535188296762,
                -0.5674276128223925,
                -0.8508488313399133
            ]
        },
        {
            "positions": [
                1.9181137691848855,
                -1.7340526909510927,
                1.9984184538732888,
                -1.0863509650819583,
                -0.5529020326351837,
                -0.9856679117493762
            ]
        },
        {
            "positions": [
                1.8586539824779391,
                -1.7590896477031706,
                2.0583284050874466,
                -0.9953484113342403,
                -0.5383764524479747,
                -1.120486992158839
            ]
        },
        {
            "positions": [
                1.7991941957709927,
                -1.7841266044552484,
                2.118238356301605,
                -0.9043458575865224,
                -0.5238508722607658,
                -1.2553060725683018
            ]
        },
        {
            "positions": [
                1.7397344090640465,
                -1.8091635612073262,
                2.178148307515763,
                -0.8133433038388045,
                -0.5093252920735568,
                -1.3901251529777647
            ]
        },
        {
            "positions": [
                1.6621993351095798,
                -1.8192016388081513,
                2.200286181822769,
                -0.7781107319881259,
                -0.4257474170317047,
                -1.5238074846230603
            ]
        },
        {
            "positions": [
                1.5846642611551132,
                -1.8292397164089766,
                2.2224240561297752,
                -0.7428781601374472,
                -0.3421695419898526,
                -1.6574898162683558
            ]
        },
        {
            "positions": [
                1.5071291872006467,
                -1.8392777940098017,
                2.244561930436781,
                -0.7076455882867685,
                -0.2585916669480005,
                -1.791172147913651
            ]
        },
        {
            "positions": [
                1.42959411324618,
                -1.8493158716106268,
                2.266699804743787,
                -0.6724130164360899,
                -0.1750137919061484,
                -1.9248544795589466
            ]
        },
        {
            "positions": [
                1.3520590392917133,
                -1.8593539492114521,
                2.2888376790507934,
                -0.6371804445854112,
                -0.09143591686429631,
                -2.058536811204242
            ]
        },
        {
            "positions": [
                1.2745239653372467,
                -1.8693920268122772,
                2.3109755533577996,
                -0.6019478727347326,
                -0.007858041822444206,
                -2.1922191428495377
            ]
        },
        {
            "positions": [
                1.1969888913827802,
                -1.8794301044131025,
                2.333113427664806,
                -0.566715300884054,
                0.0757198332194079,
                -2.325901474494833
            ]
        },
        {
            "positions": [
                1.1194538174283135,
                -1.8894681820139276,
                2.355251301971812,
                -0.5314827290333752,
                0.15929770826126,
                -2.4595838061401287
            ]
        },
        {
            "positions": [
                1.0419187434738468,
                -1.8995062596147527,
                2.3773891762788177,
                -0.4962501571826966,
                0.2428755833031121,
                -2.5932661377854247
            ]
        },
        {
            "positions": [
                0.9643836695193801,
                -1.909544337215578,
                2.399527050585824,
                -0.46101758533201803,
                0.3264534583449642,
                -2.72694846943072
            ]
        },
        {
            "positions": [
                0.8868485955649135,
                -1.9195824148164031,
                2.42166492489283,
                -0.42578501348133935,
                0.41003133338681635,
                -2.8606308010760153
            ]
        },
        {
            "positions": [
                0.8274653793122851,
                -1.9162514191503446,
                2.4131662326496244,
                -0.4420788503231512,
                0.5130664272115213,
                -2.9488444586170974
            ]
        },
        {
            "positions": [
                0.7680821630596568,
                -1.9129204234842858,
                2.404667540406418,
                -0.458372687164963,
                0.6161015210362263,
                -3.0370581161581796
            ]
        },
        {
            "positions": [
                0.7086989468070285,
                -1.9095894278182273,
                2.3961688481632124,
                -0.47466652400677484,
                0.7191366148609313,
                -3.1252717736992617
            ]
        }
    ]
}