{
    "goal": {
        "global_pose": {
            "orientation": {
                "w": 0.5084816217422485,
                "x": -0.49083608388900757,
                "y": 0.5182115435600281,
                "z": -0.4816462993621826
            },
            "position": {
                "x": 0.5540239810943604,
                "y": 0.030875300988554955,
                "z": 0.16403168439865112
            }
        },
        "name": "move_to_storage_A"
    },
    "id": "ProjEST_move_to_storage_A_150",
    "joint_names": [
        "shoulder_pan_joint",
        "shoulder_lift_joint",
        "elbow_joint",
        "wrist_1_joint",
        "wrist_2_joint",
        "wrist_3_joint"
    ],
    "metrics": {
        "cart_traj_len": 0.3527050489981211,
        "distance_elbow_joint": 0.44863248389458166,
        "distance_shoulder_lift_joint": 0.23276018852363323,
        "distance_shoulder_pan_joint": 0.4577723152246963,
        "distance_wrist_1_joint": 0.24375223214631714,
        "distance_wrist_2_joint": 1.1116274506203496,
        "distance_wrist_3_joint": 0.102595053568725,
        "smoothness": 8.881784197001252e-16,
        "time": 0.041849486,
        "traj_len": 1.6115643716520613,
        "weighted_distance": 2.0390462265192566
    },
    "planner": "ProjEST",
    "start": {
        "state": {
            "elbow_joint": 1.9715463870305268,
            "shoulder_lift_joint": -1.1394903361783484,
            "shoulder_pan_joint": 0.12281147578464417,
            "wrist_1_joint": -0.7804599489681411,
            "wrist_2_joint": 0.12958660307563738,
            "wrist_3_joint": -3.1924946282119055
        }
    },
    "waypoints": [
        {
            "positions": [
                0.12281147578464417,
                -1.1394903361783484,
                1.9715463870305268,
                -0.7804599489681411,
                0.12958660307563738,
                -3.1924946282119055
            ]
        },
        {
            "positions": [
                0.05741543075254471,
                -1.1727417916817247,
                2.03563674187261,
                -0.8152816964176149,
                0.2883905245928302,
                -3.177838191987802
            ]
        },
        {
            "positions": [
                -0.007980614279554751,
                -1.2059932471851007,
                2.099727096714693,
                -0.8501034438670888,
                0.447194446110023,
                -3.1631817557636985
            ]
        },
        {
            "positions": [
                -0.07337665931165423,
                -1.239244702688477,
                2.163817451556776,
                -0.8849251913165627,
                0.6059983676272158,
                -3.148525319539595
            ]
        },
        {
            "positions": [
                -0.13877270434375366,
                -1.272496158191853,
                2.227907806398859,
                -0.9197469387660366,
                0.7648022891444086,
                -3.133868883315491
            ]
        },
        {
            "positions": [
                -0.20416874937585316,
                -1.3057476136952293,
                2.2919981612409424,
                -0.9545686862155105,
                0.9236062106616014,
                -3.1192124470913876
            ]
        },
        {
            "positions": [
                -0.2695647944079526,
                -1.3389990691986053,
                2.3560885160830254,
                -0.9893904336649844,
                1.0824101321787942,
                -3.104556010867284
            ]
        },
        {
            "positions": [
                -0.3349608394400521,
                -1.3722505247019816,
                2.4201788709251084,
                -1.0242121811144582,
                1.241214053695987,
                -3.0898995746431805
            ]
        }
    ]
}