{
    "goal": {
        "global_pose": {
            "orientation": {
                "w": 0.7031023502349854,
                "x": -0.7110244035720825,
                "y": 0.007748599164187908,
                "z": 0.005598929710686207
            },
            "position": {
                "x": 0.11585023208521307,
                "y": 0.44412534475326537,
                "z": 0.3711530566215515
            }
        },
        "name": "move_to_auspresseinheit_A"
    },
    "id": "ProjEST_move_to_auspresseinheit_A_118",
    "joint_names": [
        "shoulder_pan_joint",
        "shoulder_lift_joint",
        "elbow_joint",
        "wrist_1_joint",
        "wrist_2_joint",
        "wrist_3_joint"
    ],
    "metrics": {
        "cart_traj_len": 0.9493054175942653,
        "distance_elbow_joint": 0.7043475881448753,
        "distance_shoulder_lift_joint": 0.5333485021780535,
        "distance_shoulder_pan_joint": 1.1709444369564355,
        "distance_wrist_1_joint": 1.7850081441669885,
        "distance_wrist_2_joint": 0.523367964402603,
        "distance_wrist_3_joint": 1.8661884110509481,
        "smoothness": 1.1533377326191154,
        "time": 1.443641951,
        "traj_len": 2.565775720303687,
        "weighted_distance": 3.5530209649777458
    },
    "planner": "ProjEST",
    "start": {
        "state": {
            "elbow_joint": 2.422574709923281,
            "shoulder_lift_joint": -1.3736533754116391,
            "shoulder_pan_joint": -0.33786336945926293,
            "wrist_1_joint": -1.0288603412921917,
            "wrist_2_joint": 1.2330224858903978,
            "wrist_3_joint": -3.094022268022082
        }
    },
    "waypoints": [
        {
            "positions": [
                -0.33786336945926293,
                -1.3736533754116391,
                2.422574709923281,
                -1.0288603412921917,
                1.2330224858903978,
                -3.094022268022082
            ]
        },
        {
            "positions": [
                -0.3449550356115314,
                -1.426099498544536,
                2.381795002399193,
                -0.8981147045986905,
                1.1838452387387541,
                -2.992605716417617
            ]
        },
        {
            "positions": [
                -0.35204670176379993,
                -1.478545621677433,
                2.3410152948751057,
                -0.7673690679051892,
                1.1346679915871105,
                -2.8911891648131514
            ]
        },
        {
            "positions": [
                -0.3591383679160684,
                -1.53099174481033,
                2.300235587351018,
                -0.6366234312116881,
                1.0854907444354667,
                -2.789772613208686
            ]
        },
        {
            "positions": [
                -0.3662300340683369,
                -1.583437867943227,
                2.2594558798269304,
                -0.5058777945181868,
                1.036313497283823,
                -2.688356061604221
            ]
        },
        {
            "positions": [
                -0.3733217002206054,
                -1.635883991076124,
                2.2186761723028425,
                -0.37513215782468545,
                0.9871362501321793,
                -2.5869395099997554
            ]
        },
        {
            "positions": [
                -0.3804133663728739,
                -1.688330114209021,
                2.177896464778755,
                -0.2443865211311843,
                0.9379590029805357,
                -2.4855229583952902
            ]
        },
        {
            "positions": [
                -0.38750503252514235,
                -1.740776237341918,
                2.137116757254667,
                -0.11364088443768305,
                0.888781755828892,
                -2.384106406790825
            ]
        },
        {
            "positions": [
                -0.3945966986774109,
                -1.793222360474815,
                2.0963370497305798,
                0.01710475225581809,
                0.8396045086772483,
                -2.2826898551863595
            ]
        },
        {
            "positions": [
                -0.40168836482967935,
                -1.845668483607712,
                2.055557342206492,
                0.14785038894931943,
                0.7904272615256046,
                -2.1812733035818943
            ]
        },
        {
            "positions": [
                -0.263298434631427,
                -1.8533351578554595,
                2.0977236197600027,
                0.07181321220863486,
                0.7803306690208783,
                -2.3004532344082396
            ]
        },
        {
            "positions": [
                -0.12490850443317458,
                -1.8610018321032071,
                2.1398898973135134,
                -0.0042239645320497066,
                0.7702340765161522,
                -2.4196331652345844
            ]
        },
        {
            "positions": [
                0.01348142576507777,
                -1.8686685063509547,
                2.182056174867024,
                -0.08026114127273429,
                0.7601374840114259,
                -2.538813096060929
            ]
        },
        {
            "positions": [
                0.15187135596333018,
                -1.8763351805987023,
                2.224222452420535,
                -0.15629831801341884,
                0.7500408915066996,
                -2.6579930268872745
            ]
        },
        {
            "positions": [
                0.2902612861615826,
                -1.8840018548464499,
                2.2663887299740457,
                -0.2323354947541034,
                0.7399442990019734,
                -2.7771729577136197
            ]
        },
        {
            "positions": [
                0.4286512163598349,
                -1.8916685290941975,
                2.3085550075275565,
                -0.308372671494788,
                0.7298477064972472,
                -2.8963528885399645
            ]
        },
        {
            "positions": [
                0.5670411465580874,
                -1.899335203341945,
                2.3507212850810673,
                -0.38440984823547253,
                0.719751113992521,
                -3.0155328193663093
            ]
        },
        {
            "positions": [
                0.7054310767563398,
                -1.9070018775896926,
                2.392887562634578,
                -0.4604470249761571,
                0.7096545214877947,
                -3.1347127501926546
            ]
        }
    ]
}