{
    "goal": {
        "global_pose": {
            "orientation": {
                "w": 0.5084816217422485,
                "x": -0.49083608388900757,
                "y": 0.5182115435600281,
                "z": -0.4816462993621826
            },
            "position": {
                "x": 0.5540239810943604,
                "y": 0.030875300988554955,
                "z": 0.16403168439865112
            }
        },
        "name": "move_to_storage_A"
    },
    "id": "ProjEST_move_to_storage_A_146",
    "joint_names": [
        "shoulder_pan_joint",
        "shoulder_lift_joint",
        "elbow_joint",
        "wrist_1_joint",
        "wrist_2_joint",
        "wrist_3_joint"
    ],
    "metrics": {
        "cart_traj_len": 0.35222639196137434,
        "distance_elbow_joint": 0.44911947233630256,
        "distance_shoulder_lift_joint": 0.23586052679289748,
        "distance_shoulder_pan_joint": 0.46062573866743417,
        "distance_wrist_1_joint": 0.23489568926054127,
        "distance_wrist_2_joint": 1.0978913888512263,
        "distance_wrist_3_joint": 0.10263556407100438,
        "smoothness": 4.440892098500626e-16,
        "time": 0.09439899299999999,
        "traj_len": 1.6065579292323717,
        "weighted_distance": 2.029553297214237
    },
    "planner": "ProjEST",
    "start": {
        "state": {
            "elbow_joint": 1.9715463870305268,
            "shoulder_lift_joint": -1.1394903361783484,
            "shoulder_pan_joint": 0.12281147578464417,
            "wrist_1_joint": -0.7804599489681411,
            "wrist_2_joint": 0.12958660307563738,
            "wrist_3_joint": -3.1924946282119055
        }
    },
    "waypoints": [
        {
            "positions": [
                0.12281147578464417,
                -1.1394903361783484,
                1.9715463870305268,
                -0.7804599489681411,
                0.12958660307563738,
                -3.1924946282119055
            ]
        },
        {
            "positions": [
                0.05700779883215358,
                -1.1731846971487623,
                2.0357063116499985,
                -0.8140164760053613,
                0.286428230054384,
                -3.1778324047731905
            ]
        },
        {
            "positions": [
                -0.008795878120337011,
                -1.2068790581191762,
                2.09986623626947,
                -0.8475730030425814,
                0.4432698570331306,
                -3.163170181334476
            ]
        },
        {
            "positions": [
                -0.0745995550728276,
                -1.24057341908959,
                2.164026160888942,
                -0.8811295300798017,
                0.6001114840118772,
                -3.148507957895761
            ]
        },
        {
            "positions": [
                -0.14040323202531818,
                -1.2742677800600042,
                2.2281860855084137,
                -0.9146860571170218,
                0.7569531109906238,
                -3.133845734457046
            ]
        },
        {
            "positions": [
                -0.2062069089778088,
                -1.307962141030418,
                2.292346010127886,
                -0.948242584154242,
                0.9137947379693705,
                -3.119183511018331
            ]
        },
        {
            "positions": [
                -0.27201058593029936,
                -1.341656502000832,
                2.3565059347473576,
                -0.9817991111914621,
                1.070636364948117,
                -3.104521287579616
            ]
        },
        {
            "positions": [
                -0.33781426288279,
                -1.3753508629712459,
                2.4206658593668293,
                -1.0153556382286824,
                1.2274779919268637,
                -3.089859064140901
            ]
        }
    ]
}