{
    "goal": {
        "global_pose": {
            "orientation": {
                "w": 0.5084816217422485,
                "x": -0.49083608388900757,
                "y": 0.5182115435600281,
                "z": -0.4816462993621826
            },
            "position": {
                "x": 0.5540239810943604,
                "y": 0.030875300988554955,
                "z": 0.16403168439865112
            }
        },
        "name": "move_to_storage_A"
    },
    "id": "ProjEST_move_to_storage_A_110",
    "joint_names": [
        "shoulder_pan_joint",
        "shoulder_lift_joint",
        "elbow_joint",
        "wrist_1_joint",
        "wrist_2_joint",
        "wrist_3_joint"
    ],
    "metrics": {
        "cart_traj_len": 0.3525010782605845,
        "distance_elbow_joint": 0.4522996995439277,
        "distance_shoulder_lift_joint": 0.2320201493424756,
        "distance_shoulder_pan_joint": 0.4607090269603016,
        "distance_wrist_1_joint": 0.26170986416323216,
        "distance_wrist_2_joint": 1.0972676210091057,
        "distance_wrist_3_joint": 0.10174794204471116,
        "smoothness": 2.2204460668324854e-16,
        "time": 0.089463733,
        "traj_len": 1.6142348971149625,
        "weighted_distance": 2.041623783248401
    },
    "planner": "ProjEST",
    "start": {
        "state": {
            "elbow_joint": 1.9715463870305268,
            "shoulder_lift_joint": -1.1394903361783484,
            "shoulder_pan_joint": 0.12281147578464417,
            "wrist_1_joint": -0.7804599489681411,
            "wrist_2_joint": 0.12958660307563738,
            "wrist_3_joint": -3.1924946282119055
        }
    },
    "waypoints": [
        {
            "positions": [
                0.12281147578464417,
                -1.1394903361783484,
                1.9715463870305268,
                -0.7804599489681411,
                0.12958660307563738,
                -3.1924946282119055
            ]
        },
        {
            "positions": [
                0.0569959005046011,
                -1.172636071798702,
                2.0361606298225166,
                -0.8178470724200314,
                0.28633912036265247,
                -3.177959207919804
            ]
        },
        {
            "positions": [
                -0.008819674775441974,
                -1.2057818074190556,
                2.100774872614506,
                -0.8552341958719217,
                0.4430916376496675,
                -3.1634237876277025
            ]
        },
        {
            "positions": [
                -0.07463525005548506,
                -1.2389275430394093,
                2.1653891154064957,
                -0.892621319323812,
                0.5998441549366826,
                -3.148888367335601
            ]
        },
        {
            "positions": [
                -0.1404508253355281,
                -1.272073278659763,
                2.2300033581984855,
                -0.9300084427757023,
                0.7565966722236978,
                -3.134352947043499
            ]
        },
        {
            "positions": [
                -0.20626640061557122,
                -1.3052190142801168,
                2.2946176009904753,
                -0.9673955662275926,
                0.9133491895107129,
                -3.1198175267513975
            ]
        },
        {
            "positions": [
                -0.2720819758956143,
                -1.3383647499004703,
                2.3592318437824646,
                -1.004782689679483,
                1.0701017067977279,
                -3.105282106459296
            ]
        },
        {
            "positions": [
                -0.3378975511756574,
                -1.371510485520824,
                2.4238460865744544,
                -1.0421698131313732,
                1.226854224084743,
                -3.0907466861671944
            ]
        }
    ]
}