{
    "goal": {
        "global_pose": {
            "orientation": {
                "w": 0.7047431468963623,
                "x": -0.7094548344612122,
                "y": 0.0024358443915843964,
                "z": -0.0022348060738295317
            },
            "position": {
                "x": 0.6094750761985779,
                "y": 0.3671506643295288,
                "z": 0.19426114857196808
            }
        },
        "name": "move_to_magneteinheit_A"
    },
    "id": "ProjEST_move_to_magneteinheit_A_146",
    "joint_names": [
        "shoulder_pan_joint",
        "shoulder_lift_joint",
        "elbow_joint",
        "wrist_1_joint",
        "wrist_2_joint",
        "wrist_3_joint"
    ],
    "metrics": {
        "cart_traj_len": 2.180662940743842,
        "distance_elbow_joint": 3.8875966318862893,
        "distance_shoulder_lift_joint": 1.2962322203241847,
        "distance_shoulder_pan_joint": 1.2425685720490545,
        "distance_wrist_1_joint": 2.432673607415383,
        "distance_wrist_2_joint": 1.4362564204701131,
        "distance_wrist_3_joint": 4.820074868719246,
        "smoothness": 0.2667806124528569,
        "time": 0.219680682,
        "traj_len": 3.8878531763512196,
        "weighted_distance": 5.350185238492986
    },
    "planner": "ProjEST",
    "start": {
        "state": {
            "elbow_joint": -1.919643507792019,
            "shoulder_lift_joint": -0.07675430207160344,
            "shoulder_pan_joint": -1.1188671864651873,
            "wrist_1_joint": 0.42560062535961957,
            "wrist_2_joint": 1.5706038300724876,
            "wrist_3_joint": 1.1188968870953055
        }
    },
    "waypoints": [
        {
            "positions": [
                -1.1188671864651873,
                -0.07675430207160344,
                -1.919643507792019,
                0.42560062535961957,
                1.5706038300724876,
                1.1188968870953055
            ]
        },
        {
            "positions": [
                -1.104965028293527,
                -0.11248562980193733,
                -1.8023043089732569,
                0.37075835382446953,
                1.5349166359471857,
                0.9802877868870212
            ]
        },
        {
            "positions": [
                -1.091062870121867,
                -0.1482169575322712,
                -1.684965110154495,
                0.31591608228931944,
                1.4992294418218841,
                0.8416786866787369
            ]
        },
        {
            "positions": [
                -1.0771607119502067,
                -0.18394828526260512,
                -1.5676259113357327,
                0.26107381075416936,
                1.4635422476965823,
                0.7030695864704527
            ]
        },
        {
            "positions": [
                -1.0632585537785466,
                -0.219679612992939,
                -1.4502867125169705,
                0.20623153921901932,
                1.4278550535712804,
                0.5644604862621684
            ]
        },
        {
            "positions": [
                -1.0493563956068863,
                -0.2554109407232729,
                -1.3329475136982083,
                0.1513892676838693,
                1.3921678594459785,
                0.42585138605388406
            ]
        },
        {
            "positions": [
                -1.0354542374352262,
                -0.2911422684536068,
                -1.215608314879446,
                0.0965469961487192,
                1.3564806653206767,
                0.28724228584559985
            ]
        },
        {
            "positions": [
                -1.021552079263566,
                -0.3268735961839407,
                -1.0982691160606841,
                0.041704724613569166,
                1.320793471195375,
                0.14863318563731553
            ]
        },
        {
            "positions": [
                -1.0076499210919059,
                -0.36260492391427457,
                -0.980929917241922,
                -0.013137546921580923,
                1.2851062770700732,
                0.010024085429031215
            ]
        },
        {
            "positions": [
                -0.9937477629202457,
                -0.39833625164460845,
                -0.8635907184231599,
                -0.0679798184567309,
                1.2494190829447713,
                -0.12858501477925288
            ]
        },
        {
            "positions": [
                -0.9798456047485855,
                -0.4340675793749424,
                -0.7462515196043977,
                -0.12282208999188099,
                1.2137318888194697,
                -0.2671941149875374
            ]
        },
        {
            "positions": [
                -0.9659434465769253,
                -0.4697989071052762,
                -0.6289123207856357,
                -0.17766436152703108,
                1.1780446946941678,
                -0.4058032151958215
            ]
        },
        {
            "positions": [
                -0.9520412884052651,
                -0.5055302348356101,
                -0.5115731219668733,
                -0.23250663306218117,
                1.142357500568866,
                -0.5444123154041058
            ]
        },
        {
            "positions": [
                -0.938139130233605,
                -0.541261562565944,
                -0.39423392314811134,
                -0.28734890459733115,
                1.1066703064435641,
                -0.6830214156123902
            ]
        },
        {
            "positions": [
                -0.9242369720619448,
                -0.576992890296278,
                -0.27689472432934914,
                -0.34219117613248123,
                1.0709831123182623,
                -0.8216305158206745
            ]
        },
        {
            "positions": [
                -0.9103348138902845,
                -0.6127242180266117,
                -0.15955552551058716,
                -0.3970334476676313,
                1.0352959181929604,
                -0.9602396160289586
            ]
        },
        {
            "positions": [
                -0.8964326557186244,
                -0.6484555457569456,
                -0.04221632669182496,
                -0.4518757192027814,
                0.9996087240676588,
                -1.0988487162372431
            ]
        },
        {
            "positions": [
                -0.8825304975469641,
                -0.6841868734872796,
                0.07512287212693725,
                -0.5067179907379313,
                0.9639215299423569,
                -1.2374578164455272
            ]
        },
        {
            "positions": [
                -0.868628339375304,
                -0.7199182012176135,
                0.19246207094569923,
                -0.5615602622730813,
                0.9282343358170552,
                -1.3760669166538113
            ]
        },
        {
            "positions": [
                -0.8547261812036437,
                -0.7556495289479475,
                0.3098012697644619,
                -0.6164025338082315,
                0.8925471416917533,
                -1.5146760168620963
            ]
        },
        {
            "positions": [
                -0.8408240230319837,
                -0.7913808566782814,
                0.42714046858322363,
                -0.6712448053433815,
                0.8568599475664516,
                -1.6532851170703804
            ]
        },
        {
            "positions": [
                -0.8269218648603234,
                -0.8271121844086151,
                0.5444796674019858,
                -0.7260870768785317,
                0.8211727534411497,
                -1.7918942172786645
            ]
        },
        {
            "positions": [
                -0.8130197066886633,
                -0.862843512138949,
                0.6618188662207476,
                -0.7809293484136817,
                0.785485559315848,
                -1.9305033174869486
            ]
        },
        {
            "positions": [
                -0.799117548517003,
                -0.898574839869283,
                0.7791580650395102,
                -0.8357716199488319,
                0.7497983651905461,
                -2.069112417695233
            ]
        },
        {
            "positions": [
                -0.7852153903453428,
                -0.9343061675996169,
                0.8964972638582724,
                -0.8906138914839818,
                0.7141111710652442,
                -2.2077215179035172
            ]
        },
        {
            "positions": [
                -0.7713132321736826,
                -0.9700374953299506,
                1.0138364626770342,
                -0.9454561630191318,
                0.6784239769399425,
                -2.3463306181118018
            ]
        },
        {
            "positions": [
                -0.7574110740020226,
                -1.0057688230602846,
                1.1311756614957964,
                -1.0002984345542818,
                0.6427367828146408,
                -2.484939718320086
            ]
        },
        {
            "positions": [
                -0.7435089158303623,
                -1.0415001507906185,
                1.2485148603145586,
                -1.055140706089432,
                0.6070495886893389,
                -2.6235488185283704
            ]
        },
        {
            "positions": [
                -0.7296067576587021,
                -1.0772314785209525,
                1.3658540591333208,
                -1.109982977624582,
                0.571362394564037,
                -2.7621579187366545
            ]
        },
        {
            "positions": [
                -0.7157045994870419,
                -1.1129628062512864,
                1.483193257952083,
                -1.1648252491597322,
                0.5356752004387353,
                -2.9007670189449386
            ]
        },
        {
            "positions": [
                -0.7018024413153817,
                -1.1486941339816201,
                1.6005324567708448,
                -1.2196675206948822,
                0.49998800631343343,
                -3.0393761191532227
            ]
        },
        {
            "positions": [
                -0.6879002831437215,
                -1.1844254617119543,
                1.7178716555896074,
                -1.2745097922300324,
                0.4643008121881316,
                -3.1779852193615077
            ]
        },
        {
            "positions": [
                -0.6739981249720614,
                -1.220156789442288,
                1.8352108544083692,
                -1.3293520637651823,
                0.42861361806282994,
                -3.316594319569792
            ]
        },
        {
            "positions": [
                -0.6600959668004012,
                -1.255888117172622,
                1.9525500532271312,
                -1.3841943353003323,
                0.3929264239375281,
                -3.4552034197780763
            ]
        },
        {
            "positions": [
                -0.5294630747363565,
                -1.2363717163020942,
                1.9551172317049876,
                -1.2803812275077604,
                0.34982992154833586,
                -3.4142076594704323
            ]
        },
        {
            "positions": [
                -0.39883018267231174,
                -1.2168553154315664,
                1.957684410182844,
                -1.1765681197151887,
                0.3067334191591437,
                -3.373211899162788
            ]
        },
        {
            "positions": [
                -0.268197290608267,
                -1.1973389145610387,
                1.9602515886607004,
                -1.0727550119226168,
                0.2636369167699515,
                -3.332216138855144
            ]
        },
        {
            "positions": [
                -0.1375643985442223,
                -1.1778225136905112,
                1.9628187671385569,
                -0.9689419041300451,
                0.2205404143807593,
                -3.2912203785475005
            ]
        },
        {
            "positions": [
                -0.006931506480177596,
                -1.1583061128199834,
                1.965385945616413,
                -0.8651287963374732,
                0.1774439119915671,
                -3.2502246182398564
            ]
        },
        {
            "positions": [
                0.12370138558386706,
                -1.1387897119494557,
                1.9679531240942696,
                -0.7613156885449014,
                0.13434740960237493,
                -3.2092288579322124
            ]
        }
    ]
}