{
    "goal": {
        "global_pose": {
            "orientation": {
                "w": 0.7047431468963623,
                "x": -0.7094548344612122,
                "y": 0.0024358443915843964,
                "z": -0.0022348060738295317
            },
            "position": {
                "x": 0.6094750761985779,
                "y": 0.3671506643295288,
                "z": 0.19426114857196808
            }
        },
        "name": "move_to_magneteinheit_A"
    },
    "id": "ProjEST_move_to_magneteinheit_A_21",
    "joint_names": [
        "shoulder_pan_joint",
        "shoulder_lift_joint",
        "elbow_joint",
        "wrist_1_joint",
        "wrist_2_joint",
        "wrist_3_joint"
    ],
    "metrics": {
        "cart_traj_len": 1.8795951078198327,
        "distance_elbow_joint": 3.907776647809807,
        "distance_shoulder_lift_joint": 0.6978490101236934,
        "distance_shoulder_pan_joint": 1.241294878043147,
        "distance_wrist_1_joint": 1.4858901268003448,
        "distance_wrist_2_joint": 1.6949516099460615,
        "distance_wrist_3_joint": 1.0954072793068659,
        "smoothness": 5.592234510853675e-16,
        "time": 0.166965733,
        "traj_len": 3.1816928751892317,
        "weighted_distance": 3.936346764118992
    },
    "planner": "ProjEST",
    "start": {
        "state": {
            "elbow_joint": -1.919643507792019,
            "shoulder_lift_joint": -0.07675430207160344,
            "shoulder_pan_joint": -1.1188671864651873,
            "wrist_1_joint": 0.42560062535961957,
            "wrist_2_joint": 1.5706038300724876,
            "wrist_3_joint": 1.1188968870953055
        }
    },
    "waypoints": [
        {
            "positions": [
                -1.1188671864651873,
                -0.07675430207160344,
                -1.919643507792019,
                0.42560062535961957,
                1.5706038300724876,
                1.1188968870953055
            ]
        },
        {
            "positions": [
                -1.07112507577122,
                -0.10359464861482243,
                -1.7693444059531804,
                0.4827502456211713,
                1.5054133835361005,
                1.0767658378911953
            ]
        },
        {
            "positions": [
                -1.023382965077253,
                -0.1304349951580414,
                -1.6190453041143416,
                0.539899865882723,
                1.4402229369997137,
                1.034634788687085
            ]
        },
        {
            "positions": [
                -0.9756408543832857,
                -0.15727534170126037,
                -1.468746202275503,
                0.5970494861442748,
                1.3750324904633267,
                0.9925037394829749
            ]
        },
        {
            "positions": [
                -0.9278987436893186,
                -0.18411568824447935,
                -1.3184471004366642,
                0.6541991064058265,
                1.3098420439269396,
                0.9503726902788646
            ]
        },
        {
            "positions": [
                -0.8801566329953514,
                -0.21095603478769834,
                -1.1681479985978256,
                0.7113487266673781,
                1.2446515973905528,
                0.9082416410747545
            ]
        },
        {
            "positions": [
                -0.8324145223013841,
                -0.2377963813309173,
                -1.0178488967589867,
                0.7684983469289299,
                1.1794611508541657,
                0.8661105918706442
            ]
        },
        {
            "positions": [
                -0.7846724116074171,
                -0.2646367278741363,
                -0.867549794920148,
                0.8256479671904816,
                1.1142707043177786,
                0.823979542666534
            ]
        },
        {
            "positions": [
                -0.7369303009134498,
                -0.29147707441735526,
                -0.7172506930813092,
                0.8827975874520334,
                1.0490802577813918,
                0.7818484934624237
            ]
        },
        {
            "positions": [
                -0.6891881902194826,
                -0.31831742096057425,
                -0.5669515912424705,
                0.9399472077135851,
                0.9838898112450047,
                0.7397174442583135
            ]
        },
        {
            "positions": [
                -0.6414460795255155,
                -0.34515776750379323,
                -0.41665248940363186,
                0.9970968279751369,
                0.9186993647086178,
                0.6975863950542033
            ]
        },
        {
            "positions": [
                -0.5937039688315483,
                -0.37199811404701216,
                -0.2663533875647932,
                1.0542464482366884,
                0.8535089181722308,
                0.6554553458500931
            ]
        },
        {
            "positions": [
                -0.545961858137581,
                -0.39883846059023115,
                -0.11605428572595433,
                1.1113960684982402,
                0.7883184716358438,
                0.6133242966459828
            ]
        },
        {
            "positions": [
                -0.49821974744361386,
                -0.42567880713345013,
                0.034244816112884324,
                1.168545688759792,
                0.7231280250994568,
                0.5711932474418726
            ]
        },
        {
            "positions": [
                -0.4504776367496467,
                -0.4525191536766691,
                0.18454391795172298,
                1.2256953090213436,
                0.6579375785630699,
                0.5290621982377625
            ]
        },
        {
            "positions": [
                -0.4027355260556795,
                -0.47935950021988805,
                0.33484301979056164,
                1.2828449292828954,
                0.5927471320266829,
                0.4869311490336522
            ]
        },
        {
            "positions": [
                -0.35499341536171225,
                -0.506199846763107,
                0.48514212162940074,
                1.3399945495444472,
                0.5275566854902958,
                0.44480009982954194
            ]
        },
        {
            "positions": [
                -0.3072513046677451,
                -0.533040193306326,
                0.6354412234682394,
                1.397144169805999,
                0.46236623895390894,
                0.4026690506254317
            ]
        },
        {
            "positions": [
                -0.2595091939737779,
                -0.559880539849545,
                0.785740325307078,
                1.4542937900675506,
                0.3971757924175219,
                0.36053800142132153
            ]
        },
        {
            "positions": [
                -0.21176708327981075,
                -0.586720886392764,
                0.9360394271459167,
                1.5114434103291023,
                0.33198534588113504,
                0.31840695221721127
            ]
        },
        {
            "positions": [
                -0.16402497258584348,
                -0.613561232935983,
                1.0863385289847554,
                1.5685930305906541,
                0.266794899344748,
                0.276275903013101
            ]
        },
        {
            "positions": [
                -0.11628286189187631,
                -0.640401579479202,
                1.236637630823594,
                1.625742650852206,
                0.20160445280836092,
                0.23414485380899075
            ]
        },
        {
            "positions": [
                -0.06854075119790926,
                -0.6672419260224209,
                1.3869367326624327,
                1.6828922711137575,
                0.1364140062719741,
                0.1920138046048806
            ]
        },
        {
            "positions": [
                -0.02079864050394198,
                -0.6940822725656399,
                1.5372358345012713,
                1.7400418913753093,
                0.07122355973558703,
                0.14988275540077034
            ]
        },
        {
            "positions": [
                0.026943470190025298,
                -0.7209226191088589,
                1.6875349363401104,
                1.797191511636861,
                0.006033113199199969,
                0.10775170619665997
            ]
        },
        {
            "positions": [
                0.07468558088399257,
                -0.7477629656520779,
                1.837834038178949,
                1.8543411318984127,
                -0.05915733333718709,
                0.06562065699254993
            ]
        },
        {
            "positions": [
                0.12242769157795956,
                -0.7746033121952969,
                1.9881331400177877,
                1.9114907521599644,
                -0.12434777987357383,
                0.023489607788439722
            ]
        }
    ]
}