{
    "goal": {
        "global_pose": {
            "orientation": {
                "w": 0.7047431468963623,
                "x": -0.7094548344612122,
                "y": 0.0024358443915843964,
                "z": -0.0022348060738295317
            },
            "position": {
                "x": 0.6094750761985779,
                "y": 0.3671506643295288,
                "z": 0.19426114857196808
            }
        },
        "name": "move_to_magneteinheit_A"
    },
    "id": "ProjEST_move_to_magneteinheit_A_32",
    "joint_names": [
        "shoulder_pan_joint",
        "shoulder_lift_joint",
        "elbow_joint",
        "wrist_1_joint",
        "wrist_2_joint",
        "wrist_3_joint"
    ],
    "metrics": {
        "cart_traj_len": 2.069480803103153,
        "distance_elbow_joint": 3.8769237441667856,
        "distance_shoulder_lift_joint": 1.05464712580091,
        "distance_shoulder_pan_joint": 1.2429545821585646,
        "distance_wrist_1_joint": 1.14972139595999,
        "distance_wrist_2_joint": 2.004604887336079,
        "distance_wrist_3_joint": 4.355857019946207,
        "smoothness": 0.12645925121237936,
        "time": 0.19742315700000002,
        "traj_len": 3.69928489783749,
        "weighted_distance": 5.054774879117467
    },
    "planner": "ProjEST",
    "start": {
        "state": {
            "elbow_joint": -1.919643507792019,
            "shoulder_lift_joint": -0.07675430207160344,
            "shoulder_pan_joint": -1.1188671864651873,
            "wrist_1_joint": 0.42560062535961957,
            "wrist_2_joint": 1.5706038300724876,
            "wrist_3_joint": 1.1188968870953055
        }
    },
    "waypoints": [
        {
            "positions": [
                -1.1188671864651873,
                -0.07675430207160344,
                -1.919643507792019,
                0.42560062535961957,
                1.5706038300724876,
                1.1188968870953055
            ]
        },
        {
            "positions": [
                -1.0806578433804195,
                -0.10635116709548839,
                -1.805325814022341,
                0.39011566089554467,
                1.5166679578865612,
                0.9988862014389563
            ]
        },
        {
            "positions": [
                -1.0424485002956516,
                -0.13594803211937334,
                -1.6910081202526628,
                0.35463069643146977,
                1.4627320857006347,
                0.8788755157826071
            ]
        },
        {
            "positions": [
                -1.0042391572108837,
                -0.16554489714325826,
                -1.5766904264829846,
                0.3191457319673949,
                1.4087962135147083,
                0.758864830126258
            ]
        },
        {
            "positions": [
                -0.9660298141261159,
                -0.1951417621671432,
                -1.4623727327133063,
                0.28366076750332,
                1.3548603413287819,
                0.6388541444699088
            ]
        },
        {
            "positions": [
                -0.927820471041348,
                -0.22473862719102816,
                -1.3480550389436283,
                0.24817580303924508,
                1.3009244691428554,
                0.5188434588135596
            ]
        },
        {
            "positions": [
                -0.8896111279565801,
                -0.2543354922149131,
                -1.23373734517395,
                0.21269083857517018,
                1.2469885969569288,
                0.39883277315721055
            ]
        },
        {
            "positions": [
                -0.8514017848718123,
                -0.28393235723879806,
                -1.1194196514042718,
                0.17720587411109529,
                1.1930527247710023,
                0.27882208750086135
            ]
        },
        {
            "positions": [
                -0.8131924417870444,
                -0.313529222262683,
                -1.0051019576345936,
                0.1417209096470204,
                1.139116852585076,
                0.15881140184451215
            ]
        },
        {
            "positions": [
                -0.7749830987022766,
                -0.3431260872865679,
                -0.8907842638649155,
                0.10623594518294549,
                1.0851809803991495,
                0.03880071618816294
            ]
        },
        {
            "positions": [
                -0.7367737556175087,
                -0.3727229523104529,
                -0.7764665700952373,
                0.07075098071887059,
                1.031245108213223,
                -0.08120996946818626
            ]
        },
        {
            "positions": [
                -0.6985644125327408,
                -0.4023198173343378,
                -0.6621488763255592,
                0.035266016254795696,
                0.9773092360272966,
                -0.20122065512453546
            ]
        },
        {
            "positions": [
                -0.6603550694479728,
                -0.4319166823582227,
                -0.5478311825558808,
                -0.00021894820927920167,
                0.9233733638413701,
                -0.32123134078088444
            ]
        },
        {
            "positions": [
                -0.622145726363205,
                -0.4615135473821077,
                -0.43351348878620266,
                -0.0357039126733541,
                0.8694374916554437,
                -0.44124202643723365
            ]
        },
        {
            "positions": [
                -0.5839363832784371,
                -0.4911104124059926,
                -0.3191957950165245,
                -0.071188877137429,
                0.8155016194695172,
                -0.5612527120935829
            ]
        },
        {
            "positions": [
                -0.5457270401936692,
                -0.5207072774298775,
                -0.20487810124684636,
                -0.1066738416015039,
                0.7615657472835907,
                -0.681263397749932
            ]
        },
        {
            "positions": [
                -0.5075176971089014,
                -0.5503041424537625,
                -0.0905604074771682,
                -0.1421588060655788,
                0.7076298750976643,
                -0.8012740834062813
            ]
        },
        {
            "positions": [
                -0.4693083540241335,
                -0.5799010074776474,
                0.02375728629250995,
                -0.1776437705296537,
                0.6536940029117378,
                -0.9212847690626305
            ]
        },
        {
            "positions": [
                -0.43109901093936565,
                -0.6094978725015323,
                0.1380749800621881,
                -0.21312873499372859,
                0.5997581307258114,
                -1.0412954547189797
            ]
        },
        {
            "positions": [
                -0.3928896678545978,
                -0.6390947375254175,
                0.2523926738318665,
                -0.24861369945780348,
                0.5458222585398849,
                -1.1613061403753289
            ]
        },
        {
            "positions": [
                -0.3546803247698299,
                -0.6686916025493024,
                0.3667103676015444,
                -0.2840986639218784,
                0.4918863863539584,
                -1.281316826031678
            ]
        },
        {
            "positions": [
                -0.31647098168506205,
                -0.6982884675731873,
                0.4810280613712228,
                -0.3195836283859533,
                0.437950514168032,
                -1.4013275116880273
            ]
        },
        {
            "positions": [
                -0.2782616386002942,
                -0.7278853325970722,
                0.5953457551409007,
                -0.3550685928500282,
                0.38401464198210555,
                -1.5213381973443765
            ]
        },
        {
            "positions": [
                -0.24005229551552631,
                -0.7574821976209571,
                0.7096634489105791,
                -0.3905535573141031,
                0.3300787697961791,
                -1.6413488830007257
            ]
        },
        {
            "positions": [
                -0.20184295243075834,
                -0.7870790626448421,
                0.8239811426802575,
                -0.42603852177817797,
                0.2761428976102527,
                -1.7613595686570744
            ]
        },
        {
            "positions": [
                -0.16363360934599047,
                -0.816675927668727,
                0.9382988364499354,
                -0.46152348624225287,
                0.22220702542432624,
                -1.8813702543134236
            ]
        },
        {
            "positions": [
                -0.1254242662612226,
                -0.8462727926926119,
                1.0526165302196138,
                -0.49700845070632776,
                0.1682711532383998,
                -2.001380939969773
            ]
        },
        {
            "positions": [
                -0.08721492317645474,
                -0.8758696577164968,
                1.1669342239892917,
                -0.5324934151704026,
                0.11433528105247315,
                -2.121391625626122
            ]
        },
        {
            "positions": [
                -0.04900558009168687,
                -0.9054665227403818,
                1.28125191775897,
                -0.5679783796344775,
                0.06039940886654671,
                -2.2414023112824712
            ]
        },
        {
            "positions": [
                -0.010796237006919007,
                -0.9350633877642667,
                1.395569611528648,
                -0.6034633440985524,
                0.006463536680620274,
                -2.3614129969388205
            ]
        },
        {
            "positions": [
                0.02741310607784886,
                -0.9646602527881518,
                1.5098873052983264,
                -0.6389483085626273,
                -0.04747233550530616,
                -2.4814236825951697
            ]
        },
        {
            "positions": [
                0.06562244916261673,
                -0.9942571178120367,
                1.6242049990680043,
                -0.6744332730267022,
                -0.1014082076912326,
                -2.601434368251519
            ]
        },
        {
            "positions": [
                0.10383179224738454,
                -1.0238539828359217,
                1.7385226928376825,
                -0.7099182374907771,
                -0.1553440798771591,
                -2.721445053907868
            ]
        },
        {
            "positions": [
                0.11058366006271535,
                -1.0597031311814522,
                1.8114418740167102,
                -0.7146524151939748,
                -0.06245842074834837,
                -2.8932834135555456
            ]
        },
        {
            "positions": [
                0.11733552787804616,
                -1.095552279526983,
                1.884361055195738,
                -0.7193865928971727,
                0.03042723838046235,
                -3.065121773203223
            ]
        },
        {
            "positions": [
                0.12408739569337697,
                -1.1314014278725135,
                1.9572802363747657,
                -0.7241207706003704,
                0.1233128975092731,
                -3.236960132850901
            ]
        }
    ]
}