{
    "goal": {
        "global_pose": {
            "orientation": {
                "w": 0.7031023502349854,
                "x": -0.7110244035720825,
                "y": 0.007748599164187908,
                "z": 0.005598929710686207
            },
            "position": {
                "x": 0.11585023208521307,
                "y": 0.44412534475326537,
                "z": 0.3711530566215515
            }
        },
        "name": "move_to_auspresseinheit_A"
    },
    "id": "ProjEST_move_to_auspresseinheit_A_63",
    "joint_names": [
        "shoulder_pan_joint",
        "shoulder_lift_joint",
        "elbow_joint",
        "wrist_1_joint",
        "wrist_2_joint",
        "wrist_3_joint"
    ],
    "metrics": {
        "cart_traj_len": 0.7271496634115012,
        "distance_elbow_joint": 0.3712673997079685,
        "distance_shoulder_lift_joint": 1.0808279549373698,
        "distance_shoulder_pan_joint": 1.0444388432243277,
        "distance_wrist_1_joint": 1.229180249406579,
        "distance_wrist_2_joint": 0.5331093609269205,
        "distance_wrist_3_joint": 0.6428587987017873,
        "smoothness": 1.359141613235801,
        "time": 0.594837413,
        "traj_len": 2.2139743916551864,
        "weighted_distance": 2.8195194297330226
    },
    "planner": "ProjEST",
    "start": {
        "state": {
            "elbow_joint": 2.422574709923281,
            "shoulder_lift_joint": -1.3736533754116391,
            "shoulder_pan_joint": -0.33786336945926293,
            "wrist_1_joint": -1.0288603412921917,
            "wrist_2_joint": 1.2330224858903978,
            "wrist_3_joint": -3.094022268022082
        }
    },
    "waypoints": [
        {
            "positions": [
                -0.33786336945926293,
                -1.3736533754116391,
                2.422574709923281,
                -1.0288603412921917,
                1.2330224858903978,
                -3.094022268022082
            ]
        },
        {
            "positions": [
                -0.2577300662226478,
                -1.4632496918004723,
                2.441435820780712,
                -0.9292602198658145,
                1.182495692865123,
                -3.0603943740945256
            ]
        },
        {
            "positions": [
                -0.17759676298603277,
                -1.5528460081893054,
                2.460296931638143,
                -0.8296600984394372,
                1.131968899839848,
                -3.0267664801669687
            ]
        },
        {
            "positions": [
                -0.09746345974941767,
                -1.6424423245781385,
                2.4791580424955737,
                -0.73005997701306,
                1.0814421068145732,
                -2.993138586239412
            ]
        },
        {
            "positions": [
                -0.01733015651280262,
                -1.7320386409669717,
                2.4980191533530047,
                -0.6304598555866827,
                1.0309153137892983,
                -2.9595106923118553
            ]
        },
        {
            "positions": [
                0.06280314672381254,
                -1.8216349573558048,
                2.5168802642104358,
                -0.5308597341603054,
                0.9803885207640235,
                -2.9258827983842988
            ]
        },
        {
            "positions": [
                0.1429364499604276,
                -1.911231273744638,
                2.535741375067867,
                -0.4312596127339283,
                0.9298617277387486,
                -2.892254904456742
            ]
        },
        {
            "positions": [
                0.22306975319704264,
                -2.000827590133471,
                2.5546024859252974,
                -0.331659491307551,
                0.8793349347134738,
                -2.8586270105291853
            ]
        },
        {
            "positions": [
                0.3032030564336577,
                -2.0904239065223043,
                2.5734635967827284,
                -0.23205936988117382,
                0.8288081416881989,
                -2.824999116601629
            ]
        },
        {
            "positions": [
                0.3833363596702728,
                -2.1800202229111374,
                2.5923247076401594,
                -0.1324592484547965,
                0.7782813486629241,
                -2.791371222674072
            ]
        },
        {
            "positions": [
                0.46414613819397077,
                -2.1114049460516693,
                2.541945357142387,
                -0.2156540375970925,
                0.7586892927380624,
                -2.876423161012516
            ]
        },
        {
            "positions": [
                0.5449559167176687,
                -2.0427896691922016,
                2.4915660066446144,
                -0.2988488267393885,
                0.7390972368132007,
                -2.9614750993509604
            ]
        },
        {
            "positions": [
                0.6257656952413668,
                -1.9741743923327337,
                2.441186656146842,
                -0.38204361588168456,
                0.7195051808883389,
                -3.0465270376894047
            ]
        },
        {
            "positions": [
                0.7065754737650648,
                -1.9055591154732658,
                2.3908073056490693,
                -0.46523840502398056,
                0.6999131249634772,
                -3.131578976027849
            ]
        }
    ]
}