{
    "goal": {
        "global_pose": {
            "orientation": {
                "w": 0.7047431468963623,
                "x": -0.7094548344612122,
                "y": 0.0024358443915843964,
                "z": -0.0022348060738295317
            },
            "position": {
                "x": 0.6094750761985779,
                "y": 0.3671506643295288,
                "z": 0.19426114857196808
            }
        },
        "name": "move_to_magneteinheit_A"
    },
    "id": "ProjEST_move_to_magneteinheit_A_96",
    "joint_names": [
        "shoulder_pan_joint",
        "shoulder_lift_joint",
        "elbow_joint",
        "wrist_1_joint",
        "wrist_2_joint",
        "wrist_3_joint"
    ],
    "metrics": {
        "cart_traj_len": 1.951277487796653,
        "distance_elbow_joint": 3.9021421287852016,
        "distance_shoulder_lift_joint": 1.6862786742492915,
        "distance_shoulder_pan_joint": 1.2403360565661496,
        "distance_wrist_1_joint": 1.6584623245058046,
        "distance_wrist_2_joint": 1.9512159998849212,
        "distance_wrist_3_joint": 4.267730556072419,
        "smoothness": 0.1383643233464989,
        "time": 0.238374219,
        "traj_len": 3.8348618932190752,
        "weighted_distance": 5.181824502682367
    },
    "planner": "ProjEST",
    "start": {
        "state": {
            "elbow_joint": -1.919643507792019,
            "shoulder_lift_joint": -0.07675430207160344,
            "shoulder_pan_joint": -1.1188671864651873,
            "wrist_1_joint": 0.42560062535961957,
            "wrist_2_joint": 1.5706038300724876,
            "wrist_3_joint": 1.1188968870953055
        }
    },
    "waypoints": [
        {
            "positions": [
                -1.1188671864651873,
                -0.07675430207160344,
                -1.919643507792019,
                0.42560062535961957,
                1.5706038300724876,
                1.1188968870953055
            ]
        },
        {
            "positions": [
                -1.1054821866971751,
                -0.12973023888367496,
                -1.811351482492329,
                0.3695615245110791,
                1.5052093367013542,
                1.0279266615265186
            ]
        },
        {
            "positions": [
                -1.092097186929163,
                -0.1827061756957465,
                -1.7030594571926385,
                0.3135224236625387,
                1.4398148433302205,
                0.9369564359577316
            ]
        },
        {
            "positions": [
                -1.0787121871611505,
                -0.23568211250781804,
                -1.5947674318929483,
                0.2574833228139982,
                1.374420349959087,
                0.8459862103889446
            ]
        },
        {
            "positions": [
                -1.0653271873931383,
                -0.2886580493198896,
                -1.4864754065932582,
                0.20144422196545775,
                1.3090258565879536,
                0.7550159848201575
            ]
        },
        {
            "positions": [
                -1.051942187625126,
                -0.3416339861319611,
                -1.3781833812935678,
                0.14540512111691728,
                1.2436313632168199,
                0.6640457592513705
            ]
        },
        {
            "positions": [
                -1.0385571878571138,
                -0.39460992294403263,
                -1.2698913559938778,
                0.08936602026837687,
                1.1782368698456864,
                0.5730755336825836
            ]
        },
        {
            "positions": [
                -1.0251721880891016,
                -0.4475858597561041,
                -1.1615993306941874,
                0.0333269194198364,
                1.112842376474553,
                0.4821053081137966
            ]
        },
        {
            "positions": [
                -1.0117871883210894,
                -0.5005617965681757,
                -1.0533073053944972,
                -0.02271218142870407,
                1.0474478831034193,
                0.3911350825450095
            ]
        },
        {
            "positions": [
                -0.998402188553077,
                -0.5535377333802471,
                -0.9450152800948071,
                -0.07875128227724454,
                0.982053389732286,
                0.30016485697622264
            ]
        },
        {
            "positions": [
                -0.9850171887850647,
                -0.6065136701923188,
                -0.8367232547951167,
                -0.134790383125785,
                0.9166588963611524,
                0.20919463140743555
            ]
        },
        {
            "positions": [
                -0.9716321890170525,
                -0.6594896070043903,
                -0.7284312294954267,
                -0.19082948397432536,
                0.8512644029900189,
                0.11822440583864857
            ]
        },
        {
            "positions": [
                -0.9582471892490403,
                -0.7124655438164618,
                -0.6201392041957363,
                -0.24686858482286583,
                0.7858699096188854,
                0.027254180269861594
            ]
        },
        {
            "positions": [
                -0.9448621894810281,
                -0.7654414806285332,
                -0.5118471788960461,
                -0.3029076856714063,
                0.7204754162477519,
                -0.06371604529892538
            ]
        },
        {
            "positions": [
                -0.9314771897130157,
                -0.8184174174406047,
                -0.40355515359635596,
                -0.35894678651994677,
                0.6550809228766185,
                -0.15468627086771236
            ]
        },
        {
            "positions": [
                -0.9180921899450035,
                -0.8713933542526762,
                -0.2952631282966658,
                -0.4149858873684871,
                0.589686429505485,
                -0.24565649643649934
            ]
        },
        {
            "positions": [
                -0.9047071901769912,
                -0.9243692910647479,
                -0.1869711029969754,
                -0.4710249882170277,
                0.5242919361343512,
                -0.33662672200528654
            ]
        },
        {
            "positions": [
                -0.891322190408979,
                -0.9773452278768193,
                -0.07867907769728522,
                -0.527064089065568,
                0.45889744276321776,
                -0.4275969475740733
            ]
        },
        {
            "positions": [
                -0.8779371906409668,
                -1.0303211646888908,
                0.02961294760240496,
                -0.5831031899141086,
                0.3935029493920843,
                -0.5185671731428603
            ]
        },
        {
            "positions": [
                -0.8645521908729545,
                -1.0832971015009625,
                0.1379049729020949,
                -0.639142290762649,
                0.32810845602095084,
                -0.6095373987116472
            ]
        },
        {
            "positions": [
                -0.8511671911049422,
                -1.1362730383130342,
                0.24619699820178576,
                -0.6951813916111895,
                0.26271396264981717,
                -0.7005076242804344
            ]
        },
        {
            "positions": [
                -0.8377821913369299,
                -1.1892489751251056,
                0.3544890235014757,
                -0.7512204924597299,
                0.1973194692786837,
                -0.7914778498492214
            ]
        },
        {
            "positions": [
                -0.8243971915689177,
                -1.242224911937177,
                0.46278104880116566,
                -0.8072595933082702,
                0.13192497590755026,
                -0.8824480754180084
            ]
        },
        {
            "positions": [
                -0.8110121918009054,
                -1.2952008487492486,
                0.5710730741008561,
                -0.8632986941568108,
                0.0665304825364168,
                -0.9734183009867952
            ]
        },
        {
            "positions": [
                -0.7976271920328932,
                -1.3481767855613203,
                0.6793650994005465,
                -0.9193377950053512,
                0.0011359891652831244,
                -1.0643885265555824
            ]
        },
        {
            "positions": [
                -0.784242192264881,
                -1.4011527223733917,
                0.7876571247002369,
                -0.9753768958538918,
                -0.06425850420585033,
                -1.1553587521243696
            ]
        },
        {
            "positions": [
                -0.7708571924968687,
                -1.4541286591854632,
                0.8959491499999266,
                -1.0314159967024321,
                -0.12965299757698381,
                -1.2463289776931563
            ]
        },
        {
            "positions": [
                -0.6964966872803828,
                -1.4283866327575105,
                0.9864949392493646,
                -1.0146288548321194,
                -0.1087397332240296,
                -1.4048710353001528
            ]
        },
        {
            "positions": [
                -0.6221361820638969,
                -1.402644606329558,
                1.0770407284988026,
                -0.9978417129618066,
                -0.08782646887107538,
                -1.563413092907149
            ]
        },
        {
            "positions": [
                -0.5477756768474109,
                -1.3769025799016053,
                1.1675865177482407,
                -0.9810545710914939,
                -0.06691320451812116,
                -1.7219551505141455
            ]
        },
        {
            "positions": [
                -0.47341517163092506,
                -1.3511605534736526,
                1.2581323069976786,
                -0.964267429221181,
                -0.04599994016516695,
                -1.8804972081211417
            ]
        },
        {
            "positions": [
                -0.39905466641443915,
                -1.3254185270457,
                1.348678096247117,
                -0.9474802873508683,
                -0.025086675812212716,
                -2.0390392657281384
            ]
        },
        {
            "positions": [
                -0.32469416119795325,
                -1.2996765006177473,
                1.4392238854965549,
                -0.9306931454805556,
                -0.004173411459258508,
                -2.1975813233351347
            ]
        },
        {
            "positions": [
                -0.2503336559814673,
                -1.2739344741897947,
                1.529769674745993,
                -0.9139060036102428,
                0.016739852893695728,
                -2.3561233809421314
            ]
        },
        {
            "positions": [
                -0.17597315076498143,
                -1.248192447761842,
                1.620315463995431,
                -0.89711886173993,
                0.03765311724664991,
                -2.5146654385491276
            ]
        },
        {
            "positions": [
                -0.10161264554849547,
                -1.2224504213338894,
                1.710861253244869,
                -0.8803317198696172,
                0.058566381599604145,
                -2.673207496156124
            ]
        },
        {
            "positions": [
                -0.027252140332009622,
                -1.1967083949059367,
                1.8014070424943072,
                -0.8635445779993045,
                0.07947964595255838,
                -2.83174955376312
            ]
        },
        {
            "positions": [
                0.04710836488447623,
                -1.170966368477984,
                1.891952831743745,
                -0.8467574361289918,
                0.10039291030551256,
                -2.9902916113701163
            ]
        },
        {
            "positions": [
                0.12146887010096216,
                -1.1452243420500314,
                1.9824986209931832,
                -0.829970294258679,
                0.12130617465846678,
                -3.148833668977113
            ]
        }
    ]
}