{
    "goal": {
        "global_pose": {
            "orientation": {
                "w": 0.5084816217422485,
                "x": -0.49083608388900757,
                "y": 0.5182115435600281,
                "z": -0.4816462993621826
            },
            "position": {
                "x": 0.5540239810943604,
                "y": 0.030875300988554955,
                "z": 0.16403168439865112
            }
        },
        "name": "move_to_storage_A"
    },
    "id": "ProjEST_move_to_storage_A_103",
    "joint_names": [
        "shoulder_pan_joint",
        "shoulder_lift_joint",
        "elbow_joint",
        "wrist_1_joint",
        "wrist_2_joint",
        "wrist_3_joint"
    ],
    "metrics": {
        "cart_traj_len": 0.35318023291896883,
        "distance_elbow_joint": 0.45343918303356023,
        "distance_shoulder_lift_joint": 0.23217001907199752,
        "distance_shoulder_pan_joint": 0.46182913024670846,
        "distance_wrist_1_joint": 0.25832569314083764,
        "distance_wrist_2_joint": 1.0985232653255521,
        "distance_wrist_3_joint": 0.09935119048018182,
        "smoothness": 4.440892133664971e-16,
        "time": 0.064294631,
        "traj_len": 1.613579400370133,
        "weighted_distance": 2.0394091842309607
    },
    "planner": "ProjEST",
    "start": {
        "state": {
            "elbow_joint": 1.9715463870305268,
            "shoulder_lift_joint": -1.1394903361783484,
            "shoulder_pan_joint": 0.12281147578464417,
            "wrist_1_joint": -0.7804599489681411,
            "wrist_2_joint": 0.12958660307563738,
            "wrist_3_joint": -3.1924946282119055
        }
    },
    "waypoints": [
        {
            "positions": [
                0.12281147578464417,
                -1.1394903361783484,
                1.9715463870305268,
                -0.7804599489681411,
                0.12958660307563738,
                -3.1924946282119055
            ]
        },
        {
            "positions": [
                0.056835885749400114,
                -1.1726574817600623,
                2.036323413178178,
                -0.8173636194168322,
                0.2865184981221448,
                -3.178301601000451
            ]
        },
        {
            "positions": [
                -0.009139704285843944,
                -1.2058246273417763,
                2.1011004393258297,
                -0.8542672898655232,
                0.4434503931686522,
                -3.1641085737889965
            ]
        },
        {
            "positions": [
                -0.075115294321088,
                -1.2389917729234903,
                2.165877465473481,
                -0.8911709603142144,
                0.6003822882151597,
                -3.149915546577542
            ]
        },
        {
            "positions": [
                -0.14109088435633205,
                -1.272158918505204,
                2.2306544916211326,
                -0.9280746307629054,
                0.7573141832616671,
                -3.1357225193660874
            ]
        },
        {
            "positions": [
                -0.20706647439157616,
                -1.305326064086918,
                2.295431517768784,
                -0.9649783012115966,
                0.9142460783081746,
                -3.121529492154633
            ]
        },
        {
            "positions": [
                -0.27304206442682016,
                -1.338493209668632,
                2.3602085439164355,
                -1.0018819716602876,
                1.071177973354682,
                -3.1073364649431783
            ]
        },
        {
            "positions": [
                -0.3390176544620643,
                -1.371660355250346,
                2.424985570064087,
                -1.0387856421089787,
                1.2281098684011895,
                -3.0931434377317237
            ]
        }
    ]
}