{
    "goal": {
        "global_pose": {
            "orientation": {
                "w": 0.7031023502349854,
                "x": -0.7110244035720825,
                "y": 0.007748599164187908,
                "z": 0.005598929710686207
            },
            "position": {
                "x": 0.11585023208521307,
                "y": 0.44412534475326537,
                "z": 0.3711530566215515
            }
        },
        "name": "move_to_auspresseinheit_A"
    },
    "id": "RRT_move_to_auspresseinheit_A_11",
    "joint_names": [
        "shoulder_pan_joint",
        "shoulder_lift_joint",
        "elbow_joint",
        "wrist_1_joint",
        "wrist_2_joint",
        "wrist_3_joint"
    ],
    "metrics": {
        "cart_traj_len": 0.76282605765936,
        "distance_elbow_joint": 0.3243608503134161,
        "distance_shoulder_lift_joint": 0.5358184280090228,
        "distance_shoulder_pan_joint": 1.0425907764923812,
        "distance_wrist_1_joint": 0.5437076767057716,
        "distance_wrist_2_joint": 0.8406168059188498,
        "distance_wrist_3_joint": 0.7150657752600349,
        "smoothness": 0.8479575010349031,
        "time": 0.374639119,
        "traj_len": 2.000540005273445,
        "weighted_distance": 2.610865056996276
    },
    "planner": "RRT",
    "start": {
        "state": {
            "elbow_joint": 2.422574709923281,
            "shoulder_lift_joint": -1.3736533754116391,
            "shoulder_pan_joint": -0.33786336945926293,
            "wrist_1_joint": -1.0288603412921917,
            "wrist_2_joint": 1.2330224858903978,
            "wrist_3_joint": -3.094022268022082
        }
    },
    "waypoints": [
        {
            "positions": [
                -0.33786336945926293,
                -1.3736533754116391,
                2.422574709923281,
                -1.0288603412921917,
                1.2330224858903978,
                -3.094022268022082
            ]
        },
        {
            "positions": [
                -0.2868546016557856,
                -1.424912257639309,
                2.393413078140799,
                -0.9832893544383535,
                1.118462406753548,
                -3.036482368037163
            ]
        },
        {
            "positions": [
                -0.23584583385230828,
                -1.4761711398669786,
                2.364251446358317,
                -0.9377183675845153,
                1.0039023276166983,
                -2.978942468052243
            ]
        },
        {
            "positions": [
                -0.18483706604883096,
                -1.5274300220946484,
                2.3350898145758348,
                -0.892147380730677,
                0.8893422484798483,
                -2.9214025680673235
            ]
        },
        {
            "positions": [
                -0.13382829824535364,
                -1.5786889043223182,
                2.3059281827933527,
                -0.8465763938768389,
                0.7747821693429986,
                -2.863862668082404
            ]
        },
        {
            "positions": [
                -0.08281953044187629,
                -1.6299477865499878,
                2.2767665510108706,
                -0.8010054070230006,
                0.6602220902061487,
                -2.806322768097485
            ]
        },
        {
            "positions": [
                -0.031810762638399,
                -1.6812066687776577,
                2.2476049192283885,
                -0.7554344201691624,
                0.545662011069299,
                -2.7487828681125652
            ]
        },
        {
            "positions": [
                0.09486830866703805,
                -1.7215847943279872,
                2.2884355943071784,
                -0.6772647443131447,
                0.5679113056825178,
                -2.815243146496433
            ]
        },
        {
            "positions": [
                0.2215473799724751,
                -1.7619629198783167,
                2.329266269385968,
                -0.599095068457127,
                0.5901606002957365,
                -2.8817034248803
            ]
        },
        {
            "positions": [
                0.34822645127791213,
                -1.8023410454286461,
                2.3700969444647577,
                -0.5209253926011093,
                0.6124098949089553,
                -2.948163703264168
            ]
        },
        {
            "positions": [
                0.5264769291555152,
                -1.8559064244246541,
                2.383546461655835,
                -0.5030390285937647,
                0.6556641185380027,
                -3.0333864733636258
            ]
        },
        {
            "positions": [
                0.7047274070331184,
                -1.909471803420662,
                2.396995978846912,
                -0.4851526645864202,
                0.6989183421670501,
                -3.118609243463083
            ]
        }
    ]
}