{
    "goal": {
        "global_pose": {
            "orientation": {
                "w": 0.7047431468963623,
                "x": -0.7094548344612122,
                "y": 0.0024358443915843964,
                "z": -0.0022348060738295317
            },
            "position": {
                "x": 0.6094750761985779,
                "y": 0.3671506643295288,
                "z": 0.19426114857196808
            }
        },
        "name": "move_to_magneteinheit_A"
    },
    "id": "RRT_move_to_magneteinheit_A_56",
    "joint_names": [
        "shoulder_pan_joint",
        "shoulder_lift_joint",
        "elbow_joint",
        "wrist_1_joint",
        "wrist_2_joint",
        "wrist_3_joint"
    ],
    "metrics": {
        "cart_traj_len": 1.87820571476272,
        "distance_elbow_joint": 3.914363005695474,
        "distance_shoulder_lift_joint": 0.7002319649451108,
        "distance_shoulder_pan_joint": 1.240663429341884,
        "distance_wrist_1_joint": 1.4944123529584976,
        "distance_wrist_2_joint": 1.704030927715547,
        "distance_wrist_3_joint": 1.109060410341017,
        "smoothness": 5.592234510853675e-16,
        "time": 0.207934421,
        "traj_len": 3.1879087331662324,
        "weighted_distance": 3.947065516602633
    },
    "planner": "RRT",
    "start": {
        "state": {
            "elbow_joint": -1.919643507792019,
            "shoulder_lift_joint": -0.07675430207160344,
            "shoulder_pan_joint": -1.1188671864651873,
            "wrist_1_joint": 0.42560062535961957,
            "wrist_2_joint": 1.5706038300724876,
            "wrist_3_joint": 1.1188968870953055
        }
    },
    "waypoints": [
        {
            "positions": [
                -1.1188671864651873,
                -0.07675430207160344,
                -1.919643507792019,
                0.42560062535961957,
                1.5706038300724876,
                1.1188968870953055
            ]
        },
        {
            "positions": [
                -1.0711493622597303,
                -0.10368630072333847,
                -1.7690910844960392,
                0.483078023550331,
                1.5050641790065051,
                1.076240717466805
            ]
        },
        {
            "positions": [
                -1.0234315380542731,
                -0.1306182993750735,
                -1.6185386612000596,
                0.5405554217410424,
                1.4395245279405224,
                1.0335845478383043
            ]
        },
        {
            "positions": [
                -0.9757137138488161,
                -0.15755029802680853,
                -1.4679862379040798,
                0.598032819931754,
                1.37398487687454,
                0.9909283782098035
            ]
        },
        {
            "positions": [
                -0.9279958896433591,
                -0.18448229667854354,
                -1.3174338146081,
                0.6555102181224653,
                1.3084452258085573,
                0.9482722085813029
            ]
        },
        {
            "positions": [
                -0.880278065437902,
                -0.21141429533027858,
                -1.16688139131212,
                0.7129876163131768,
                1.2429055747425748,
                0.9056160389528023
            ]
        },
        {
            "positions": [
                -0.8325602412324449,
                -0.23834629398201362,
                -1.0163289680161403,
                0.7704650145038883,
                1.177365923676592,
                0.8629598693243016
            ]
        },
        {
            "positions": [
                -0.7848424170269879,
                -0.26527829263374864,
                -0.8657765447201606,
                0.8279424126945997,
                1.1118262726106096,
                0.820303699695801
            ]
        },
        {
            "positions": [
                -0.7371245928215308,
                -0.2922102912854837,
                -0.7152241214241808,
                0.8854198108853112,
                1.046286621544627,
                0.7776475300673003
            ]
        },
        {
            "positions": [
                -0.6894067686160736,
                -0.3191422899372187,
                -0.5646716981282012,
                0.9428972090760226,
                0.9807469704786445,
                0.7349913604387996
            ]
        },
        {
            "positions": [
                -0.6416889444106166,
                -0.3460742885889537,
                -0.41411927483222133,
                1.000374607266734,
                0.9152073194126618,
                0.6923351908102989
            ]
        },
        {
            "positions": [
                -0.5939711202051595,
                -0.37300628724068874,
                -0.2635668515362415,
                1.0578520054574454,
                0.8496676683466793,
                0.6496790211817983
            ]
        },
        {
            "positions": [
                -0.5462532959997024,
                -0.3999382858924238,
                -0.11301442824026164,
                1.115329403648157,
                0.7841280172806967,
                0.6070228515532976
            ]
        },
        {
            "positions": [
                -0.4985354717942454,
                -0.4268702845441588,
                0.037537995055717976,
                1.1728068018388684,
                0.7185883662147141,
                0.564366681924797
            ]
        },
        {
            "positions": [
                -0.4508176475887884,
                -0.45380228319589383,
                0.18809041835169782,
                1.2302842000295797,
                0.6530487151487315,
                0.5217105122962964
            ]
        },
        {
            "positions": [
                -0.4030998233833313,
                -0.48073428184762884,
                0.3386428416476772,
                1.2877615982202912,
                0.587509064082749,
                0.4790543426677958
            ]
        },
        {
            "positions": [
                -0.35538199917787416,
                -0.5076662804993639,
                0.4891952649436575,
                1.3452389964110028,
                0.5219694130167662,
                0.43639817303929496
            ]
        },
        {
            "positions": [
                -0.30766417497241705,
                -0.5345982791510989,
                0.6397476882396369,
                1.4027163946017143,
                0.4564297619507838,
                0.39374200341079435
            ]
        },
        {
            "positions": [
                -0.25994635076696004,
                -0.5615302778028339,
                0.7903001115356167,
                1.4601937927924256,
                0.3908901108848013,
                0.35108583378229374
            ]
        },
        {
            "positions": [
                -0.21222852656150304,
                -0.588462276454569,
                0.9408525348315966,
                1.517671190983137,
                0.3253504598188188,
                0.30842966415379314
            ]
        },
        {
            "positions": [
                -0.1645107023560458,
                -0.615394275106304,
                1.0914049581275764,
                1.5751485891738486,
                0.2598108087528359,
                0.2657734945252923
            ]
        },
        {
            "positions": [
                -0.1167928781505887,
                -0.6423262737580391,
                1.2419573814235563,
                1.63262598736456,
                0.19427115768685344,
                0.2231173248967917
            ]
        },
        {
            "positions": [
                -0.06907505394513169,
                -0.669258272409774,
                1.3925098047195361,
                1.6901033855552714,
                0.12873150662087096,
                0.1804611552682911
            ]
        },
        {
            "positions": [
                -0.021357229739674688,
                -0.6961902710615091,
                1.5430622280155155,
                1.747580783745983,
                0.06319185555488849,
                0.1378049856397905
            ]
        },
        {
            "positions": [
                0.02636059446578254,
                -0.7231222697132442,
                1.6936146513114958,
                1.8050581819366944,
                -0.0023477955110942084,
                0.09514881601128966
            ]
        },
        {
            "positions": [
                0.07407841867123954,
                -0.7500542683649791,
                1.8441670746074752,
                1.8625355801274057,
                -0.0678874465770769,
                0.052492646382789054
            ]
        },
        {
            "positions": [
                0.12179624287669658,
                -0.7769862670167142,
                1.994719497903455,
                1.9200129783181172,
                -0.1334270976430595,
                0.009836476754288368
            ]
        }
    ]
}