{
    "goal": {
        "global_pose": {
            "orientation": {
                "w": 0.7047431468963623,
                "x": -0.7094548344612122,
                "y": 0.0024358443915843964,
                "z": -0.0022348060738295317
            },
            "position": {
                "x": 0.6094750761985779,
                "y": 0.3671506643295288,
                "z": 0.19426114857196808
            }
        },
        "name": "move_to_magneteinheit_A"
    },
    "id": "RRT_move_to_magneteinheit_A_47",
    "joint_names": [
        "shoulder_pan_joint",
        "shoulder_lift_joint",
        "elbow_joint",
        "wrist_1_joint",
        "wrist_2_joint",
        "wrist_3_joint"
    ],
    "metrics": {
        "cart_traj_len": 2.0658011333470085,
        "distance_elbow_joint": 3.87981756184845,
        "distance_shoulder_lift_joint": 1.055007830189587,
        "distance_shoulder_pan_joint": 1.2418116107316597,
        "distance_wrist_1_joint": 1.1590488252533162,
        "distance_wrist_2_joint": 1.4420111879847028,
        "distance_wrist_3_joint": 1.9310690294341448,
        "smoothness": 6.125368408395837e-16,
        "time": 0.353543955,
        "traj_len": 3.2724251015786225,
        "weighted_distance": 4.143906866418232
    },
    "planner": "RRT",
    "start": {
        "state": {
            "elbow_joint": -1.919643507792019,
            "shoulder_lift_joint": -0.07675430207160344,
            "shoulder_pan_joint": -1.1188671864651873,
            "wrist_1_joint": 0.42560062535961957,
            "wrist_2_joint": 1.5706038300724876,
            "wrist_3_joint": 1.1188968870953055
        }
    },
    "waypoints": [
        {
            "positions": [
                -1.1188671864651873,
                -0.07675430207160344,
                -1.919643507792019,
                0.42560062535961957,
                1.5706038300724876,
                1.1188968870953055
            ]
        },
        {
            "positions": [
                -1.0745167717961994,
                -0.11443315314980299,
                -1.78107859486886,
                0.3842060244577154,
                1.5191034305016053,
                1.187863638146525
            ]
        },
        {
            "positions": [
                -1.0301663571272117,
                -0.15211200422800253,
                -1.6425136819457014,
                0.3428114235558113,
                1.467603030930723,
                1.2568303891977444
            ]
        },
        {
            "positions": [
                -0.9858159424582238,
                -0.18979085530620204,
                -1.5039487690225424,
                0.3014168226539071,
                1.4161026313598408,
                1.325797140248964
            ]
        },
        {
            "positions": [
                -0.941465527789236,
                -0.2274697063844016,
                -1.3653838560993834,
                0.26002222175200296,
                1.3646022317889586,
                1.3947638913001834
            ]
        },
        {
            "positions": [
                -0.8971151131202482,
                -0.26514855746260113,
                -1.2268189431762244,
                0.21862762085009882,
                1.3131018322180763,
                1.4637306423514027
            ]
        },
        {
            "positions": [
                -0.8527646984512602,
                -0.3028274085408007,
                -1.0882540302530654,
                0.17723301994819468,
                1.2616014326471943,
                1.5326973934026222
            ]
        },
        {
            "positions": [
                -0.8084142837822724,
                -0.3405062596190002,
                -0.9496891173299066,
                0.13583841904629052,
                1.2101010330763118,
                1.6016641444538418
            ]
        },
        {
            "positions": [
                -0.7640638691132846,
                -0.37818511069719973,
                -0.8111242044067477,
                0.0944438181443864,
                1.1586006335054297,
                1.6706308955050613
            ]
        },
        {
            "positions": [
                -0.7197134544442967,
                -0.4158639617753993,
                -0.6725592914835887,
                0.05304921724248218,
                1.1071002339345473,
                1.7395976465562808
            ]
        },
        {
            "positions": [
                -0.6753630397753089,
                -0.4535428128535988,
                -0.5339943785604297,
                0.011654616340578072,
                1.0555998343636652,
                1.8085643976075
            ]
        },
        {
            "positions": [
                -0.6310126251063211,
                -0.4912216639317984,
                -0.39542946563727077,
                -0.029739984561326094,
                1.004099434792783,
                1.8775311486587196
            ]
        },
        {
            "positions": [
                -0.5866622104373332,
                -0.5289005150099979,
                -0.256864552714112,
                -0.0711345854632302,
                0.9525990352219007,
                1.946497899709939
            ]
        },
        {
            "positions": [
                -0.5423117957683453,
                -0.5665793660881975,
                -0.11829963979095304,
                -0.11252918636513437,
                0.9010986356510184,
                2.0154646507611584
            ]
        },
        {
            "positions": [
                -0.4979613810993575,
                -0.604258217166397,
                0.02026527313220594,
                -0.15392378726703854,
                0.8495982360801362,
                2.084431401812378
            ]
        },
        {
            "positions": [
                -0.4536109664303697,
                -0.6419370682445966,
                0.1588301860553647,
                -0.1953183881689427,
                0.7980978365092539,
                2.1533981528635975
            ]
        },
        {
            "positions": [
                -0.4092605517613819,
                -0.679615919322796,
                0.2973950989785237,
                -0.23671298907084676,
                0.7465974369383718,
                2.2223649039148166
            ]
        },
        {
            "positions": [
                -0.36491013709239406,
                -0.7172947704009955,
                0.43596001190168265,
                -0.2781075899727509,
                0.6950970373674895,
                2.2913316549660365
            ]
        },
        {
            "positions": [
                -0.320559722423406,
                -0.7549736214791951,
                0.5745249248248416,
                -0.3195021908746552,
                0.6435966377966071,
                2.3602984060172556
            ]
        },
        {
            "positions": [
                -0.2762093077544182,
                -0.7926524725573947,
                0.7130898377480006,
                -0.36089679177655937,
                0.5920962382257249,
                2.4292651570684756
            ]
        },
        {
            "positions": [
                -0.2318588930854304,
                -0.8303313236355943,
                0.8516547506711596,
                -0.4022913926784634,
                0.5405958386548426,
                2.4982319081196946
            ]
        },
        {
            "positions": [
                -0.18750847841644258,
                -0.8680101747137938,
                0.9902196635943186,
                -0.4436859935803676,
                0.48909543908396036,
                2.567198659170914
            ]
        },
        {
            "positions": [
                -0.14315806374745477,
                -0.9056890257919934,
                1.1287845765174775,
                -0.48508059448227175,
                0.4375950395130783,
                2.6361654102221337
            ]
        },
        {
            "positions": [
                -0.09880764907846684,
                -0.9433678768701927,
                1.267349489440636,
                -0.5264751953841758,
                0.38609463994219606,
                2.7051321612733528
            ]
        },
        {
            "positions": [
                -0.05445723440947914,
                -0.9810467279483923,
                1.405914402363795,
                -0.5678697962860799,
                0.3345942403713138,
                2.7740989123245727
            ]
        },
        {
            "positions": [
                -0.010106819740491213,
                -1.0187255790265919,
                1.5444793152869545,
                -0.6092643971879841,
                0.2830938408004313,
                2.843065663375792
            ]
        },
        {
            "positions": [
                0.03424359492849671,
                -1.0564044301047915,
                1.683044228210113,
                -0.6506589980898883,
                0.23159344122954928,
                2.9120324144270118
            ]
        },
        {
            "positions": [
                0.07859400959748442,
                -1.094083281182991,
                1.821609141133272,
                -0.6920535989917924,
                0.18009304165866702,
                2.980999165478231
            ]
        },
        {
            "positions": [
                0.12294442426647227,
                -1.1317621322611906,
                1.960174054056431,
                -0.7334481998936967,
                0.12859264208778481,
                3.0499659165294504
            ]
        }
    ]
}