{
    "goal": {
        "global_pose": {
            "orientation": {
                "w": -0.00223480608172531,
                "x": 0.0024358444001904467,
                "y": 0.7094548369677653,
                "z": -0.704743149386269
            },
            "position": {
                "x": 0.6205249238014221,
                "y": -0.6371506643295288,
                "z": 0.19426114857196808
            }
        },
        "name": "move_to_magneteinheit_B"
    },
    "id": "RRT_move_to_magneteinheit_B_44",
    "joint_names": [
        "shoulder_pan_joint",
        "shoulder_lift_joint",
        "elbow_joint",
        "wrist_1_joint",
        "wrist_2_joint",
        "wrist_3_joint"
    ],
    "metrics": {
        "cart_traj_len": 1.4524045240533507,
        "distance_elbow_joint": 0.726741336031907,
        "distance_shoulder_lift_joint": 1.2460037485297888,
        "distance_shoulder_pan_joint": 1.6220902327071878,
        "distance_wrist_1_joint": 2.6101244828108956,
        "distance_wrist_2_joint": 2.936809222464151,
        "distance_wrist_3_joint": 3.1308340018674277,
        "smoothness": 3.8857805856418593e-16,
        "time": 0.042468743,
        "traj_len": 3.5032275153651318,
        "weighted_distance": 4.90726041019032
    },
    "planner": "RRT",
    "start": {
        "state": {
            "elbow_joint": 2.39358713078474,
            "shoulder_lift_joint": -1.908514104345545,
            "shoulder_pan_joint": 0.7066247066606129,
            "wrist_1_joint": -0.4678290933515497,
            "wrist_2_joint": 0.7096259083745334,
            "wrist_3_joint": -3.1358149277392293
        }
    },
    "waypoints": [
        {
            "positions": [
                0.7066247066606129,
                -1.908514104345545,
                2.39358713078474,
                -0.4678290933515497,
                0.7096259083745334,
                -3.1358149277392293
            ]
        },
        {
            "positions": [
                0.6542992152829618,
                -1.8683204350381324,
                2.370143861880485,
                -0.3836315293899079,
                0.6148901270047221,
                -3.0348202825176993
            ]
        },
        {
            "positions": [
                0.6019737239053105,
                -1.8281267657307199,
                2.34670059297623,
                -0.2994339654282661,
                0.5201543456349108,
                -2.9338256372961693
            ]
        },
        {
            "positions": [
                0.5496482325276593,
                -1.7879330964233073,
                2.323257324071975,
                -0.21523640146662432,
                0.4254185642650995,
                -2.8328309920746397
            ]
        },
        {
            "positions": [
                0.4973227411500081,
                -1.7477394271158948,
                2.2998140551677198,
                -0.13103883750498252,
                0.3306827828952882,
                -2.7318363468531097
            ]
        },
        {
            "positions": [
                0.4449972497723569,
                -1.7075457578084823,
                2.2763707862634646,
                -0.04684127354334078,
                0.23594700152547687,
                -2.6308417016315797
            ]
        },
        {
            "positions": [
                0.39267175839470564,
                -1.6673520885010698,
                2.25292751735921,
                0.037356290418301075,
                0.14121122015566556,
                -2.5298470564100497
            ]
        },
        {
            "positions": [
                0.34034626701705445,
                -1.6271584191936572,
                2.2294842484549546,
                0.12155385437994287,
                0.04647543878585425,
                -2.4288524111885197
            ]
        },
        {
            "positions": [
                0.2880207756394032,
                -1.5869647498862447,
                2.2060409795506994,
                0.20575141834158467,
                -0.04826034258395706,
                -2.32785776596699
            ]
        },
        {
            "positions": [
                0.23569528426175196,
                -1.546771080578832,
                2.1825977106464443,
                0.28994898230322647,
                -0.14299612395376848,
                -2.2268631207454597
            ]
        },
        {
            "positions": [
                0.18336979288410082,
                -1.5065774112714196,
                2.1591544417421895,
                0.37414654626486815,
                -0.23773190532357968,
                -2.12586847552393
            ]
        },
        {
            "positions": [
                0.13104430150644952,
                -1.466383741964007,
                2.1357111728379343,
                0.45834411022651006,
                -0.3324676866933912,
                -2.0248738303024
            ]
        },
        {
            "positions": [
                0.07871881012879833,
                -1.4261900726565944,
                2.112267903933679,
                0.5425416741881519,
                -0.4272034680632023,
                -1.9238791850808703
            ]
        },
        {
            "positions": [
                0.026393318751147032,
                -1.3859964033491818,
                2.0888246350294244,
                0.6267392381497936,
                -0.5219392494330138,
                -1.8228845398593403
            ]
        },
        {
            "positions": [
                -0.025932172626504046,
                -1.3458027340417693,
                2.065381366125169,
                0.7109368021114355,
                -0.6166750308028249,
                -1.7218898946378105
            ]
        },
        {
            "positions": [
                -0.07825766400415535,
                -1.3056090647343568,
                2.041938097220914,
                0.7951343660730772,
                -0.7114108121726365,
                -1.6208952494162805
            ]
        },
        {
            "positions": [
                -0.13058315538180654,
                -1.2654153954269443,
                2.018494828316659,
                0.8793319300347191,
                -0.8061465935424476,
                -1.5199006041947505
            ]
        },
        {
            "positions": [
                -0.18290864675945773,
                -1.2252217261195317,
                1.995051559412404,
                0.9635294939963608,
                -0.9008823749122589,
                -1.4189059589732207
            ]
        },
        {
            "positions": [
                -0.23523413813710903,
                -1.185028056812119,
                1.971608290508149,
                1.0477270579580027,
                -0.9956181562820704,
                -1.3179113137516905
            ]
        },
        {
            "positions": [
                -0.2875596295147602,
                -1.1448343875047065,
                1.9481650216038937,
                1.1319246219196444,
                -1.0903539376518818,
                -1.2169166685301607
            ]
        },
        {
            "positions": [
                -0.3398851208924113,
                -1.1046407181972941,
                1.9247217526996387,
                1.216122185881286,
                -1.185089719021693,
                -1.1159220233086309
            ]
        },
        {
            "positions": [
                -0.3922106122700625,
                -1.0644470488898816,
                1.9012784837953838,
                1.300319749842928,
                -1.279825500391504,
                -1.0149273780871009
            ]
        },
        {
            "positions": [
                -0.4445361036477139,
                -1.0242533795824689,
                1.8778352148911286,
                1.3845173138045699,
                -1.374561281761316,
                -0.9139327328655709
            ]
        },
        {
            "positions": [
                -0.4968615950253651,
                -0.9840597102750565,
                1.8543919459868734,
                1.4687148777662116,
                -1.469297063131127,
                -0.8129380876440409
            ]
        },
        {
            "positions": [
                -0.5491870864030163,
                -0.9438660409676439,
                1.8309486770826184,
                1.5529124417278535,
                -1.5640328445009382,
                -0.7119434424225113
            ]
        },
        {
            "positions": [
                -0.6015125777806675,
                -0.9036723716602315,
                1.8075054081783635,
                1.637110005689495,
                -1.6587686258707497,
                -0.6109487972009813
            ]
        },
        {
            "positions": [
                -0.6538380691583189,
                -0.8634787023528188,
                1.7840621392741083,
                1.7213075696511368,
                -1.7535044072405612,
                -0.5099541519794513
            ]
        },
        {
            "positions": [
                -0.7061635605359701,
                -0.8232850330454062,
                1.7606188703698533,
                1.8055051336127788,
                -1.8482401886103723,
                -0.40895950675792125
            ]
        },
        {
            "positions": [
                -0.758489051913621,
                -0.7830913637379937,
                1.7371756014655984,
                1.8897026975744207,
                -1.9429759699801834,
                -0.3079648615363917
            ]
        },
        {
            "positions": [
                -0.8108145432912722,
                -0.7428976944305812,
                1.7137323325613432,
                1.9739002615360621,
                -2.037711751349995,
                -0.20697021631486168
            ]
        },
        {
            "positions": [
                -0.8631400346689236,
                -0.7027040251231687,
                1.690289063657088,
                2.058097825497704,
                -2.1324475327198065,
                -0.10597557109333167
            ]
        },
        {
            "positions": [
                -0.9154655260465747,
                -0.6625103558157561,
                1.666845794752833,
                2.142295389459346,
                -2.2271833140896176,
                -0.004980925871801683
            ]
        }
    ]
}