{
    "goal": {
        "global_pose": {
            "orientation": {
                "w": 0.7031023502349854,
                "x": -0.7110244035720825,
                "y": 0.007748599164187908,
                "z": 0.005598929710686207
            },
            "position": {
                "x": 0.11585023208521307,
                "y": 0.44412534475326537,
                "z": 0.3711530566215515
            }
        },
        "name": "move_to_auspresseinheit_A"
    },
    "id": "RRT_move_to_auspresseinheit_A_80",
    "joint_names": [
        "shoulder_pan_joint",
        "shoulder_lift_joint",
        "elbow_joint",
        "wrist_1_joint",
        "wrist_2_joint",
        "wrist_3_joint"
    ],
    "metrics": {
        "cart_traj_len": 0.6644762446869491,
        "distance_elbow_joint": 0.07881658249934853,
        "distance_shoulder_lift_joint": 0.6419419633602705,
        "distance_shoulder_pan_joint": 1.0453043727552735,
        "distance_wrist_1_joint": 0.7679106119816744,
        "distance_wrist_2_joint": 0.5152028911761667,
        "distance_wrist_3_joint": 0.034064150357596024,
        "smoothness": 0.5366632068189972,
        "time": 1.454814413,
        "traj_len": 1.7559158784322015,
        "weighted_distance": 2.1058210693226913
    },
    "planner": "RRT",
    "start": {
        "state": {
            "elbow_joint": 2.422574709923281,
            "shoulder_lift_joint": -1.3736533754116391,
            "shoulder_pan_joint": -0.33786336945926293,
            "wrist_1_joint": -1.0288603412921917,
            "wrist_2_joint": 1.2330224858903978,
            "wrist_3_joint": -3.094022268022082
        }
    },
    "waypoints": [
        {
            "positions": [
                -0.33786336945926293,
                -1.3736533754116391,
                2.422574709923281,
                -1.0288603412921917,
                1.2330224858903978,
                -3.094022268022082
            ]
        },
        {
            "positions": [
                -0.217092782148567,
                -1.4719256302440547,
                2.4268804537846376,
                -0.9180859306000368,
                1.2300328971907186,
                -3.0956254754655705
            ]
        },
        {
            "positions": [
                -0.09632219483787108,
                -1.5701978850764704,
                2.431186197645994,
                -0.8073115199078821,
                1.2270433084910393,
                -3.097228682909059
            ]
        },
        {
            "positions": [
                0.024448392472824876,
                -1.668470139908886,
                2.43549194150735,
                -0.6965371092157273,
                1.22405371979136,
                -3.098831890352547
            ]
        },
        {
            "positions": [
                0.14521897978352077,
                -1.7667423947413015,
                2.4397976853687067,
                -0.5857626985235724,
                1.2210641310916808,
                -3.1004350977960353
            ]
        },
        {
            "positions": [
                0.2659895670942168,
                -1.8650146495737172,
                2.444103429230063,
                -0.47498828783141755,
                1.2180745423920016,
                -3.1020383052395237
            ]
        },
        {
            "positions": [
                0.38676015440491274,
                -1.9632869044061327,
                2.4484091730914197,
                -0.3642138771392628,
                1.2150849536923223,
                -3.103641512683012
            ]
        },
        {
            "positions": [
                0.4936537707019454,
                -1.9458507596175405,
                2.430748466647683,
                -0.3986352597488446,
                1.0493298340329584,
                -3.111789814581901
            ]
        },
        {
            "positions": [
                0.600547386998978,
                -1.928414614828948,
                2.4130877602039464,
                -0.43305664235842645,
                0.8835747143735948,
                -3.1199381164807893
            ]
        },
        {
            "positions": [
                0.7074410032960107,
                -1.9109784700403558,
                2.39542705376021,
                -0.4674780249680083,
                0.7178195947142311,
                -3.128086418379678
            ]
        }
    ]
}