{
    "goal": {
        "global_pose": {
            "orientation": {
                "w": 0.5084816217422485,
                "x": -0.49083608388900757,
                "y": 0.5182115435600281,
                "z": -0.4816462993621826
            },
            "position": {
                "x": 0.5540239810943604,
                "y": 0.030875300988554955,
                "z": 0.16403168439865112
            }
        },
        "name": "move_to_storage_A"
    },
    "id": "RRT_move_to_storage_A_133",
    "joint_names": [
        "shoulder_pan_joint",
        "shoulder_lift_joint",
        "elbow_joint",
        "wrist_1_joint",
        "wrist_2_joint",
        "wrist_3_joint"
    ],
    "metrics": {
        "cart_traj_len": 0.3522585856917441,
        "distance_elbow_joint": 0.4508495783867672,
        "distance_shoulder_lift_joint": 0.2343292708536997,
        "distance_shoulder_pan_joint": 0.4569063945964475,
        "distance_wrist_1_joint": 0.24723361973681512,
        "distance_wrist_2_joint": 1.1133370436411434,
        "distance_wrist_3_joint": 0.09387465132745731,
        "smoothness": 4.440892098500626e-16,
        "time": 0.012066670000000002,
        "traj_len": 1.6113753623977034,
        "weighted_distance": 2.0358905973983976
    },
    "planner": "RRT",
    "start": {
        "state": {
            "elbow_joint": 1.9715463870305268,
            "shoulder_lift_joint": -1.1394903361783484,
            "shoulder_pan_joint": 0.12281147578464417,
            "wrist_1_joint": -0.7804599489681411,
            "wrist_2_joint": 0.12958660307563738,
            "wrist_3_joint": -3.1924946282119055
        }
    },
    "waypoints": [
        {
            "positions": [
                0.12281147578464417,
                -1.1394903361783484,
                1.9715463870305268,
                -0.7804599489681411,
                0.12958660307563738,
                -3.1924946282119055
            ]
        },
        {
            "positions": [
                0.05753913369943739,
                -1.1729659463003055,
                2.035953469657208,
                -0.8157790375019718,
                0.2886347521672293,
                -3.1790839637365544
            ]
        },
        {
            "positions": [
                -0.007733208385769394,
                -1.2064415564222626,
                2.1003605522838886,
                -0.8510981260358026,
                0.44768290125882115,
                -3.1656732992612033
            ]
        },
        {
            "positions": [
                -0.07300555047097616,
                -1.2399171665442197,
                2.16476763491057,
                -0.8864172145696333,
                0.6067310503504131,
                -3.1522626347858522
            ]
        },
        {
            "positions": [
                -0.13827789255618295,
                -1.2733927766661768,
                2.229174717537251,
                -0.921736303103464,
                0.765779199442005,
                -3.1388519703105016
            ]
        },
        {
            "positions": [
                -0.20355023464138977,
                -1.3068683867881339,
                2.293581800163932,
                -0.9570553916372948,
                0.9248273485335969,
                -3.1254413058351505
            ]
        },
        {
            "positions": [
                -0.2688225767265965,
                -1.340343996910091,
                2.357988882790613,
                -0.9923744801711254,
                1.0838754976251888,
                -3.1120306413597993
            ]
        },
        {
            "positions": [
                -0.3340949188118033,
                -1.373819607032048,
                2.422395965417294,
                -1.0276935687049562,
                1.2429236467167808,
                -3.0986199768844482
            ]
        }
    ]
}