{
    "goal": {
        "global_pose": {
            "orientation": {
                "w": -0.00223480608172531,
                "x": 0.0024358444001904467,
                "y": 0.7094548369677653,
                "z": -0.704743149386269
            },
            "position": {
                "x": 0.6205249238014221,
                "y": -0.6371506643295288,
                "z": 0.19426114857196808
            }
        },
        "name": "move_to_magneteinheit_B"
    },
    "id": "RRT_move_to_magneteinheit_B_125",
    "joint_names": [
        "shoulder_pan_joint",
        "shoulder_lift_joint",
        "elbow_joint",
        "wrist_1_joint",
        "wrist_2_joint",
        "wrist_3_joint"
    ],
    "metrics": {
        "cart_traj_len": 1.4525754469672665,
        "distance_elbow_joint": 0.7264277467418572,
        "distance_shoulder_lift_joint": 1.2458423679055441,
        "distance_shoulder_pan_joint": 1.6215357745279269,
        "distance_wrist_1_joint": 2.6129858356025926,
        "distance_wrist_2_joint": 2.9388668788673717,
        "distance_wrist_3_joint": 3.1330193764256085,
        "smoothness": 4.996003619058102e-16,
        "time": 0.04744041,
        "traj_len": 3.504094459353358,
        "weighted_distance": 4.908825668873573
    },
    "planner": "RRT",
    "start": {
        "state": {
            "elbow_joint": 2.39358713078474,
            "shoulder_lift_joint": -1.908514104345545,
            "shoulder_pan_joint": 0.7066247066606129,
            "wrist_1_joint": -0.4678290933515497,
            "wrist_2_joint": 0.7096259083745334,
            "wrist_3_joint": -3.1358149277392293
        }
    },
    "waypoints": [
        {
            "positions": [
                0.7066247066606129,
                -1.908514104345545,
                2.39358713078474,
                -0.4678290933515497,
                0.7096259083745334,
                -3.1358149277392293
            ]
        },
        {
            "positions": [
                0.6543171010306799,
                -1.8683256408647209,
                2.370153977664035,
                -0.3835392276869499,
                0.6148237509917149,
                -3.03474978656421
            ]
        },
        {
            "positions": [
                0.6020094954007467,
                -1.8281371773838968,
                2.34672082454333,
                -0.2992493620223502,
                0.5200215936088965,
                -2.93368464538919
            ]
        },
        {
            "positions": [
                0.5497018897708136,
                -1.787948713903073,
                2.3232876714226247,
                -0.2149594963577504,
                0.4252194362260781,
                -2.8326195042141706
            ]
        },
        {
            "positions": [
                0.4973942841408805,
                -1.747760250422249,
                2.29985451830192,
                -0.13066963069315068,
                0.33041727884325967,
                -2.731554363039151
            ]
        },
        {
            "positions": [
                0.44508667851094735,
                -1.7075717869414249,
                2.2764213651812146,
                -0.0463797650285509,
                0.23561512146044122,
                -2.6304892218641314
            ]
        },
        {
            "positions": [
                0.3927790728810142,
                -1.6673833234606008,
                2.25298821206051,
                0.03791010063604888,
                0.14081296407762278,
                -2.5294240806891115
            ]
        },
        {
            "positions": [
                0.3404714672510811,
                -1.627194859979777,
                2.2295550589398045,
                0.12219996630064861,
                0.046010806694804396,
                -2.428358939514092
            ]
        },
        {
            "positions": [
                0.288163861621148,
                -1.587006396498953,
                2.2061219058190993,
                0.20648983196524834,
                -0.0487913506880141,
                -2.3272937983390722
            ]
        },
        {
            "positions": [
                0.2358562559912148,
                -1.5468179330181289,
                2.1826887526983945,
                0.2907796976298482,
                -0.1435935080708326,
                -2.226228657164053
            ]
        },
        {
            "positions": [
                0.18354865036128176,
                -1.5066294695373048,
                2.159255599577689,
                0.3750695632944479,
                -0.23839566545365098,
                -2.125163515989033
            ]
        },
        {
            "positions": [
                0.13124104473134857,
                -1.4664410060564808,
                2.1358224464569844,
                0.45935942895904774,
                -0.3331978228364695,
                -2.024098374814013
            ]
        },
        {
            "positions": [
                0.07893343910141548,
                -1.426252542575657,
                2.112389293336279,
                0.5436492946236475,
                -0.42799998021928787,
                -1.923033233638994
            ]
        },
        {
            "positions": [
                0.026625833471482285,
                -1.3860640790948329,
                2.0889561402155743,
                0.6279391602882474,
                -0.5228021376021065,
                -1.821968092463974
            ]
        },
        {
            "positions": [
                -0.0256817721584508,
                -1.3458756156140088,
                2.065522987094869,
                0.712229025952847,
                -0.6176042949849246,
                -1.7209029512889547
            ]
        },
        {
            "positions": [
                -0.077989377788384,
                -1.305687152133185,
                2.042089833974164,
                0.7965188916174468,
                -0.7124064523677432,
                -1.6198378101139348
            ]
        },
        {
            "positions": [
                -0.13029698341831697,
                -1.265498688652361,
                2.018656680853459,
                0.8808087572820464,
                -0.8072086097505616,
                -1.5187726689389154
            ]
        },
        {
            "positions": [
                -0.18260458904825005,
                -1.2253102251715369,
                1.995223527732754,
                0.9650986229466461,
                -0.90201076713338,
                -1.4177075277638957
            ]
        },
        {
            "positions": [
                -0.23491219467818336,
                -1.1851217616907128,
                1.9717903746120489,
                1.0493884886112461,
                -0.9968129245161986,
                -1.316642386588876
            ]
        },
        {
            "positions": [
                -0.28721980030811645,
                -1.1449332982098888,
                1.9483572214913436,
                1.1336783542758457,
                -1.091615081899017,
                -1.2155772454138563
            ]
        },
        {
            "positions": [
                -0.3395274059380494,
                -1.1047448347290647,
                1.9249240683706388,
                1.2179682199404456,
                -1.1864172392818353,
                -1.1145121042388366
            ]
        },
        {
            "positions": [
                -0.3918350115679826,
                -1.0645563712482409,
                1.9014909152499335,
                1.3022580856050452,
                -1.2812193966646537,
                -1.0134469630638172
            ]
        },
        {
            "positions": [
                -0.4441426171979158,
                -1.0243679077674168,
                1.8780577621292285,
                1.3865479512696453,
                -1.3760215540474725,
                -0.9123818218887974
            ]
        },
        {
            "positions": [
                -0.496450222827849,
                -0.9841794442865928,
                1.8546246090085234,
                1.4708378169342449,
                -1.470823711430291,
                -0.8113166807137779
            ]
        },
        {
            "positions": [
                -0.548757828457782,
                -0.9439909808057688,
                1.8311914558878184,
                1.5551276825988447,
                -1.5656258688131093,
                -0.7102515395387585
            ]
        },
        {
            "positions": [
                -0.6010654340877152,
                -0.9038025173249449,
                1.8077583027671134,
                1.6394175482634443,
                -1.6604280261959277,
                -0.6091863983637387
            ]
        },
        {
            "positions": [
                -0.6533730397176484,
                -0.8636140538441208,
                1.784325149646408,
                1.7237074139280444,
                -1.7552301835787465,
                -0.5081212571887188
            ]
        },
        {
            "positions": [
                -0.7056806453475813,
                -0.8234255903632968,
                1.7608919965257033,
                1.807997279592644,
                -1.8500323409615649,
                -0.4070561160136994
            ]
        },
        {
            "positions": [
                -0.7579882509775145,
                -0.7832371268824727,
                1.737458843404998,
                1.8922871452572436,
                -1.9448344983443828,
                -0.30599097483868
            ]
        },
        {
            "positions": [
                -0.8102958566074475,
                -0.7430486634016489,
                1.7140256902842932,
                1.9765770109218432,
                -2.039636655727201,
                -0.20492583366366013
            ]
        },
        {
            "positions": [
                -0.8626034622373809,
                -0.7028601999208248,
                1.690592537163588,
                2.0608668765864433,
                -2.13443881311002,
                -0.10386069248864027
            ]
        },
        {
            "positions": [
                -0.914911067867314,
                -0.6626717364400008,
                1.6671593840428829,
                2.145156742251043,
                -2.2292409704928384,
                -0.002795551313620721
            ]
        }
    ]
}