{
    "goal": {
        "global_pose": {
            "orientation": {
                "w": -0.00223480608172531,
                "x": 0.0024358444001904467,
                "y": 0.7094548369677653,
                "z": -0.704743149386269
            },
            "position": {
                "x": 0.6205249238014221,
                "y": -0.6371506643295288,
                "z": 0.19426114857196808
            }
        },
        "name": "move_to_magneteinheit_B"
    },
    "id": "RRT_move_to_magneteinheit_B_43",
    "joint_names": [
        "shoulder_pan_joint",
        "shoulder_lift_joint",
        "elbow_joint",
        "wrist_1_joint",
        "wrist_2_joint",
        "wrist_3_joint"
    ],
    "metrics": {
        "cart_traj_len": 3.274038938576736,
        "distance_elbow_joint": 4.0564765071706,
        "distance_shoulder_lift_joint": 0.5860193233173177,
        "distance_shoulder_pan_joint": 2.2436708622875474,
        "distance_wrist_1_joint": 1.6999207691869878,
        "distance_wrist_2_joint": 1.0922959363775437,
        "distance_wrist_3_joint": 3.1653991681602,
        "smoothness": 0.13997727001515703,
        "time": 2.87428332,
        "traj_len": 3.5838223402535174,
        "weighted_distance": 4.686875036565955
    },
    "planner": "RRT",
    "start": {
        "state": {
            "elbow_joint": 2.39358713078474,
            "shoulder_lift_joint": -1.908514104345545,
            "shoulder_pan_joint": 0.7066247066606129,
            "wrist_1_joint": -0.4678290933515497,
            "wrist_2_joint": 0.7096259083745334,
            "wrist_3_joint": -3.1358149277392293
        }
    },
    "waypoints": [
        {
            "positions": [
                0.7066247066606129,
                -1.908514104345545,
                2.39358713078474,
                -0.4678290933515497,
                0.7096259083745334,
                -3.1358149277392293
            ]
        },
        {
            "positions": [
                0.7823198308360733,
                -1.9125454749264246,
                2.385152444069951,
                -0.41193315842540956,
                0.6856986253961204,
                -3.101818335748007
            ]
        },
        {
            "positions": [
                0.9105421489811557,
                -1.911591580731298,
                2.3624465939088983,
                -0.3153384677734113,
                0.6401955550420717,
                -3.0338990113822057
            ]
        },
        {
            "positions": [
                1.0387644671262382,
                -1.9106376865361712,
                2.3397407437478455,
                -0.21874377712141305,
                0.594692484688023,
                -2.965979687016404
            ]
        },
        {
            "positions": [
                1.1669867852713207,
                -1.9096837923410446,
                2.3170348935867926,
                -0.1221490864694148,
                0.5491894143339744,
                -2.898060362650603
            ]
        },
        {
            "positions": [
                1.2952091034164033,
                -1.9087298981459178,
                2.2943290434257397,
                -0.02555439581741653,
                0.5036863439799258,
                -2.830141038284802
            ]
        },
        {
            "positions": [
                1.4234314215614856,
                -1.9077760039507912,
                2.271623193264687,
                0.07104029483458174,
                0.4581832736258772,
                -2.7622217139190006
            ]
        },
        {
            "positions": [
                1.5516537397065682,
                -1.9068221097556644,
                2.248917343103634,
                0.16763498548657996,
                0.4126802032718285,
                -2.694302389553199
            ]
        },
        {
            "positions": [
                1.6798760578516507,
                -1.9058682155605378,
                2.226211492942581,
                0.26422967613857823,
                0.36717713291777987,
                -2.626383065187398
            ]
        },
        {
            "positions": [
                1.731036870658915,
                -1.9160727236773911,
                2.0679421849352155,
                0.30274898280971146,
                0.3525142663304671,
                -2.508325299144206
            ]
        },
        {
            "positions": [
                1.7821976834661792,
                -1.9262772317942445,
                1.9096728769278504,
                0.3412682894808447,
                0.33785139974315437,
                -2.3902675331010137
            ]
        },
        {
            "positions": [
                1.8333584962734433,
                -1.9364817399110978,
                1.7514035689204848,
                0.3797875961519779,
                0.3231885331558416,
                -2.272209767057822
            ]
        },
        {
            "positions": [
                1.8845193090807075,
                -1.9466862480279512,
                1.5931342609131194,
                0.4183069028231111,
                0.30852566656852887,
                -2.1541520010146296
            ]
        },
        {
            "positions": [
                1.9356801218879718,
                -1.9568907561448046,
                1.434864952905754,
                0.45682620949424435,
                0.2938627999812161,
                -2.0360942349714377
            ]
        },
        {
            "positions": [
                1.986840934695236,
                -1.9670952642616581,
                1.2765956448983886,
                0.4953455161653776,
                0.2791999333939034,
                -1.9180364689282459
            ]
        },
        {
            "positions": [
                2.0380017475025003,
                -1.9772997723785115,
                1.1183263368910232,
                0.5338648228365108,
                0.26453706680659067,
                -1.7999787028850536
            ]
        },
        {
            "positions": [
                2.0891625603097643,
                -1.9875042804953649,
                0.9600570288836576,
                0.5723841295076441,
                0.24987420021927792,
                -1.6819209368418617
            ]
        },
        {
            "positions": [
                2.140323373117029,
                -1.9977087886122182,
                0.8017877208762922,
                0.6109034361787773,
                0.23521133363196514,
                -1.5638631707986694
            ]
        },
        {
            "positions": [
                2.191484185924293,
                -2.0079132967290714,
                0.6435184128689269,
                0.6494227428499104,
                0.22054846704465242,
                -1.4458054047554776
            ]
        },
        {
            "positions": [
                2.2426449987315573,
                -2.018117804845925,
                0.4852491048615615,
                0.6879420495210438,
                0.20588560045733967,
                -1.3277476387122855
            ]
        },
        {
            "positions": [
                2.2938058115388213,
                -2.0283223129627785,
                0.3269797968541961,
                0.7264613561921769,
                0.19122273387002695,
                -1.2096898726690937
            ]
        },
        {
            "positions": [
                2.3449666243460854,
                -2.038526821079632,
                0.1687104888468305,
                0.7649806628633102,
                0.17655986728271417,
                -1.0916321066259014
            ]
        },
        {
            "positions": [
                2.39612743715335,
                -2.0487313291964853,
                0.010441180839465325,
                0.8034999695344434,
                0.16189700069540144,
                -0.9735743405827095
            ]
        },
        {
            "positions": [
                2.447288249960614,
                -2.0589358373133386,
                -0.14782812716789984,
                0.8420192762055765,
                0.1472341341080887,
                -0.8555165745395175
            ]
        },
        {
            "positions": [
                2.498449062767878,
                -2.069140345430192,
                -0.3060974351752659,
                0.8805385828767098,
                0.13257126752077594,
                -0.7374588084963254
            ]
        },
        {
            "positions": [
                2.5496098755751424,
                -2.0793448535470453,
                -0.46436674318263105,
                0.919057889547843,
                0.11790840093346319,
                -0.6194010424531333
            ]
        },
        {
            "positions": [
                2.600770688382407,
                -2.0895493616638987,
                -0.6226360511899967,
                0.9575771962189763,
                0.10324553434615041,
                -0.501343276409941
            ]
        },
        {
            "positions": [
                2.651931501189671,
                -2.099753869780752,
                -0.7809053591973618,
                0.9960965028901094,
                0.08858266775883772,
                -0.3832855103667492
            ]
        },
        {
            "positions": [
                2.703092313996935,
                -2.1099583778976054,
                -0.9391746672047274,
                1.0346158095612428,
                0.07391980117152497,
                -0.26522774432355734
            ]
        },
        {
            "positions": [
                2.7542531268041994,
                -2.120162886014459,
                -1.097443975212093,
                1.073135116232376,
                0.05925693458421222,
                -0.14716997828036504
            ]
        },
        {
            "positions": [
                2.8054139396114635,
                -2.130367394131312,
                -1.2557132832194582,
                1.1116544229035092,
                0.04459406799689946,
                -0.029112212237173224
            ]
        },
        {
            "positions": [
                2.789286182755715,
                -2.1937142971008052,
                -1.3534130375840643,
                1.0976547648453105,
                0.11290678055727624,
                -0.004905275108190128
            ]
        },
        {
            "positions": [
                2.7731584258999673,
                -2.2570612000702983,
                -1.4511127919486704,
                1.0836551067871116,
                0.181219493117653,
                0.01930166202079297
            ]
        },
        {
            "positions": [
                2.7356163873582338,
                -2.3317671030238953,
                -1.521704986761067,
                1.0528424611819347,
                0.27809905007737173,
                0.015874135887400442
            ]
        },
        {
            "positions": [
                2.6980743488164998,
                -2.406473005977492,
                -1.5922971815734634,
                1.0220298155767575,
                0.3749786070370905,
                0.012446609754007916
            ]
        },
        {
            "positions": [
                2.660532310274766,
                -2.481178908931089,
                -1.66288937638586,
                0.9912171699715806,
                0.47185816399680924,
                0.00901908362061539
            ]
        }
    ]
}