{
    "goal": {
        "global_pose": {
            "orientation": {
                "w": -0.00223480608172531,
                "x": 0.0024358444001904467,
                "y": 0.7094548369677653,
                "z": -0.704743149386269
            },
            "position": {
                "x": 0.6205249238014221,
                "y": -0.6371506643295288,
                "z": 0.19426114857196808
            }
        },
        "name": "move_to_magneteinheit_B"
    },
    "id": "RRT_move_to_magneteinheit_B_37",
    "joint_names": [
        "shoulder_pan_joint",
        "shoulder_lift_joint",
        "elbow_joint",
        "wrist_1_joint",
        "wrist_2_joint",
        "wrist_3_joint"
    ],
    "metrics": {
        "cart_traj_len": 4.192150988678646,
        "distance_elbow_joint": 4.043652711865716,
        "distance_shoulder_lift_joint": 0.7261611292412868,
        "distance_shoulder_pan_joint": 3.0755971514327416,
        "distance_wrist_1_joint": 3.1298202448715715,
        "distance_wrist_2_joint": 2.8385465565950305,
        "distance_wrist_3_joint": 2.200899944582188,
        "smoothness": 0.46310502806614445,
        "time": 0.30177013799999997,
        "traj_len": 4.001834296743,
        "weighted_distance": 5.1366179952590905
    },
    "planner": "RRT",
    "start": {
        "state": {
            "elbow_joint": 2.39358713078474,
            "shoulder_lift_joint": -1.908514104345545,
            "shoulder_pan_joint": 0.7066247066606129,
            "wrist_1_joint": -0.4678290933515497,
            "wrist_2_joint": 0.7096259083745334,
            "wrist_3_joint": -3.1358149277392293
        }
    },
    "waypoints": [
        {
            "positions": [
                0.7066247066606129,
                -1.908514104345545,
                2.39358713078474,
                -0.4678290933515497,
                0.7096259083745334,
                -3.1358149277392293
            ]
        },
        {
            "positions": [
                0.6317731994929516,
                -1.9160536296702568,
                2.377742377965718,
                -0.3729479293985652,
                0.6224839036739216,
                -3.044783594638226
            ]
        },
        {
            "positions": [
                0.5569216923252904,
                -1.923593154994969,
                2.3618976251466957,
                -0.2780667654455806,
                0.5353418989733097,
                -2.9537522615372223
            ]
        },
        {
            "positions": [
                0.48207018515762906,
                -1.9311326803196809,
                2.3460528723276735,
                -0.1831856014925961,
                0.44819989427269785,
                -2.862720928436219
            ]
        },
        {
            "positions": [
                0.4072186779899678,
                -1.9386722056443928,
                2.330208119508651,
                -0.08830443753961159,
                0.361057889572086,
                -2.7716895953352156
            ]
        },
        {
            "positions": [
                0.33236717082230643,
                -1.946211730969105,
                2.3143633666896286,
                0.00657672641337298,
                0.2739158848714741,
                -2.680658262234212
            ]
        },
        {
            "positions": [
                0.2575156636546452,
                -1.9537512562938169,
                2.2985186138706064,
                0.10145789036635752,
                0.1867738801708623,
                -2.5896269291332086
            ]
        },
        {
            "positions": [
                0.370875322427787,
                -1.975515799865966,
                2.1630219394546546,
                0.03654308505791501,
                0.21718964809389713,
                -2.5643608646461367
            ]
        },
        {
            "positions": [
                0.4842349812009288,
                -1.997280343438115,
                2.027525265038703,
                -0.028371720250527505,
                0.24760541601693192,
                -2.539094800159065
            ]
        },
        {
            "positions": [
                0.5975946399740706,
                -2.019044887010264,
                1.8920285906227507,
                -0.09328652555897002,
                0.2780211839399668,
                -2.5138287356719933
            ]
        },
        {
            "positions": [
                0.7109542987472124,
                -2.040809430582413,
                1.7565319162067987,
                -0.15820133086741253,
                0.3084369518630016,
                -2.488562671184922
            ]
        },
        {
            "positions": [
                0.8243139575203543,
                -2.0625739741545623,
                1.621035241790847,
                -0.22311613617585505,
                0.33885271978603637,
                -2.46329660669785
            ]
        },
        {
            "positions": [
                0.9376736162934961,
                -2.0843385177267115,
                1.485538567374895,
                -0.28803094148429753,
                0.36926848770907117,
                -2.438030542210778
            ]
        },
        {
            "positions": [
                1.0510332750666378,
                -2.1061030612988603,
                1.3500418929589433,
                -0.35294574679274004,
                0.399684255632106,
                -2.4127644777237065
            ]
        },
        {
            "positions": [
                1.1643929338397796,
                -2.1278676048710095,
                1.2145452185429912,
                -0.41786055210118256,
                0.4301000235551409,
                -2.3874984132366346
            ]
        },
        {
            "positions": [
                1.2777525926129216,
                -2.1496321484431586,
                1.0790485441270394,
                -0.48277535740962507,
                0.4605157914781757,
                -2.3622323487495627
            ]
        },
        {
            "positions": [
                1.3911122513860634,
                -2.171396692015308,
                0.9435518697110876,
                -0.5476901627180676,
                0.49093155940121047,
                -2.336966284262491
            ]
        },
        {
            "positions": [
                1.5044719101592052,
                -2.1931612355874566,
                0.8080551952951354,
                -0.6126049680265101,
                0.5213473273242453,
                -2.3117002197754193
            ]
        },
        {
            "positions": [
                1.617831568932347,
                -2.2149257791596058,
                0.6725585208791838,
                -0.6775197733349526,
                0.5517630952472801,
                -2.286434155288348
            ]
        },
        {
            "positions": [
                1.7311912277054888,
                -2.236690322731755,
                0.5370618464632317,
                -0.7424345786433951,
                0.582178863170315,
                -2.261168090801276
            ]
        },
        {
            "positions": [
                1.8445508864786306,
                -2.258454866303904,
                0.40156517204727993,
                -0.8073493839518376,
                0.6125946310933498,
                -2.235902026314204
            ]
        },
        {
            "positions": [
                1.9579105452517727,
                -2.280219409876053,
                0.2660684976313279,
                -0.8722641892602802,
                0.6430103990163846,
                -2.2106359618271325
            ]
        },
        {
            "positions": [
                2.0712702040249145,
                -2.301983953448202,
                0.13057182321537608,
                -0.9371789945687227,
                0.6734261669394194,
                -2.1853698973400606
            ]
        },
        {
            "positions": [
                2.1846298627980563,
                -2.3237484970203512,
                -0.0049248512005757306,
                -1.0020937998771653,
                0.7038419348624542,
                -2.1601038328529887
            ]
        },
        {
            "positions": [
                2.297989521571198,
                -2.3455130405925004,
                -0.14042152561652754,
                -1.0670086051856078,
                0.734257702785489,
                -2.134837768365917
            ]
        },
        {
            "positions": [
                2.41134918034434,
                -2.3672775841646496,
                -0.2759182000324798,
                -1.1319234104940503,
                0.7646734707085239,
                -2.1095717038788453
            ]
        },
        {
            "positions": [
                2.5247088391174817,
                -2.3890421277367984,
                -0.41141487444843117,
                -1.1968382158024928,
                0.7950892386315587,
                -2.084305639391774
            ]
        },
        {
            "positions": [
                2.6380684978906235,
                -2.4108066713089475,
                -0.5469115488643835,
                -1.2617530211109353,
                0.8255050065545935,
                -2.059039574904702
            ]
        },
        {
            "positions": [
                2.668524836267692,
                -2.402759708071514,
                -0.66159561156857,
                -1.383779546128994,
                0.9120282978518093,
                -2.046195170783566
            ]
        },
        {
            "positions": [
                2.6989811746447603,
                -2.394712744834081,
                -0.7762796742727566,
                -1.5058060711470524,
                0.9985515891490252,
                -2.0333507666624295
            ]
        },
        {
            "positions": [
                2.711557860283424,
                -2.379152085814618,
                -0.9072548450255231,
                -1.6454953489268171,
                1.0055999257623978,
                -2.0500471466643377
            ]
        },
        {
            "positions": [
                2.7241345459220874,
                -2.3635914267951548,
                -1.0382300157782898,
                -1.7851846267065818,
                1.0126482623757704,
                -2.0667435266662464
            ]
        },
        {
            "positions": [
                2.7101568057563483,
                -2.3467017128557544,
                -1.1129001681118635,
                -1.864496737080574,
                0.8948206215789372,
                -2.1311106371065613
            ]
        },
        {
            "positions": [
                2.696179065590609,
                -2.329811998916354,
                -1.1875703204454373,
                -1.9438088474545663,
                0.7769929807821038,
                -2.1954777475468763
            ]
        },
        {
            "positions": [
                2.6822013254248698,
                -2.3129222849769535,
                -1.262240472779011,
                -2.0231209578285583,
                0.6591653399852705,
                -2.2598448579871913
            ]
        },
        {
            "positions": [
                2.6682235852591303,
                -2.2960325710375526,
                -1.3369106251125848,
                -2.1024330682025507,
                0.5413376991884371,
                -2.324211968427506
            ]
        },
        {
            "positions": [
                2.6542458450933912,
                -2.2791428570981522,
                -1.4115807774461588,
                -2.181745178576543,
                0.4235100583916038,
                -2.3885790788678207
            ]
        },
        {
            "positions": [
                2.640268104927652,
                -2.262253143158752,
                -1.4862509297797326,
                -2.261057288950535,
                0.30568241759477055,
                -2.4529461893081357
            ]
        },
        {
            "positions": [
                2.6262903647619127,
                -2.2453634292193514,
                -1.5609210821133064,
                -2.340369399324527,
                0.18785477679793716,
                -2.5173132997484506
            ]
        },
        {
            "positions": [
                2.6123126245961736,
                -2.228473715279951,
                -1.6355912344468801,
                -2.4196815096985196,
                0.07002713600110391,
                -2.5816804101887656
            ]
        },
        {
            "positions": [
                2.6243244508045285,
                -2.218089813717729,
                -1.6392098211054047,
                -2.429529974970716,
                -0.06677261895184244,
                -2.7192069451835286
            ]
        },
        {
            "positions": [
                2.636336277012883,
                -2.2077059121555074,
                -1.642828407763929,
                -2.439378440242913,
                -0.2035723739047888,
                -2.856733480178292
            ]
        },
        {
            "positions": [
                2.6483481032212373,
                -2.197322010593285,
                -1.6464469944224536,
                -2.44922690551511,
                -0.34037212885773516,
                -2.994260015173055
            ]
        },
        {
            "positions": [
                2.660359929429592,
                -2.1869381090310633,
                -1.6500655810809781,
                -2.4590753707873065,
                -0.4771718838106815,
                -3.131786550167818
            ]
        }
    ]
}