{
    "goal": {
        "global_pose": {
            "orientation": {
                "w": 0.5084816217422485,
                "x": -0.49083608388900757,
                "y": 0.5182115435600281,
                "z": -0.4816462993621826
            },
            "position": {
                "x": 0.5540239810943604,
                "y": 0.030875300988554955,
                "z": 0.16403168439865112
            }
        },
        "name": "move_to_storage_A"
    },
    "id": "RRT_move_to_storage_A_54",
    "joint_names": [
        "shoulder_pan_joint",
        "shoulder_lift_joint",
        "elbow_joint",
        "wrist_1_joint",
        "wrist_2_joint",
        "wrist_3_joint"
    ],
    "metrics": {
        "cart_traj_len": 0.35332380663788165,
        "distance_elbow_joint": 0.45199822830533165,
        "distance_shoulder_lift_joint": 0.23435458036949242,
        "distance_shoulder_pan_joint": 0.4623771828206061,
        "distance_wrist_1_joint": 0.24835508730661704,
        "distance_wrist_2_joint": 1.0982365077377425,
        "distance_wrist_3_joint": 0.09545214855101136,
        "smoothness": 6.661338165333112e-16,
        "time": 0.011827149,
        "traj_len": 1.6095880637886208,
        "weighted_distance": 2.031814368301687
    },
    "planner": "RRT",
    "start": {
        "state": {
            "elbow_joint": 1.9715463870305268,
            "shoulder_lift_joint": -1.1394903361783484,
            "shoulder_pan_joint": 0.12281147578464417,
            "wrist_1_joint": -0.7804599489681411,
            "wrist_2_joint": 0.12958660307563738,
            "wrist_3_joint": -3.1924946282119055
        }
    },
    "waypoints": [
        {
            "positions": [
                0.12281147578464417,
                -1.1394903361783484,
                1.9715463870305268,
                -0.7804599489681411,
                0.12958660307563738,
                -3.1924946282119055
            ]
        },
        {
            "positions": [
                0.05675759252455759,
                -1.1729695619454188,
                2.036117562502717,
                -0.8159392471548007,
                0.28647753275245774,
                -3.1788586069903326
            ]
        },
        {
            "positions": [
                -0.009296290735528998,
                -1.206448787712489,
                2.1006887379749073,
                -0.8514185453414602,
                0.4433684624292781,
                -3.1652225857687593
            ]
        },
        {
            "positions": [
                -0.07535017399561557,
                -1.2399280134795594,
                2.1652599134470973,
                -0.8868978435281198,
                0.6002593921060985,
                -3.1515865645471863
            ]
        },
        {
            "positions": [
                -0.14140405725570215,
                -1.2734072392466298,
                2.229831088919288,
                -0.9223771417147794,
                0.7571503217829189,
                -3.1379505433256134
            ]
        },
        {
            "positions": [
                -0.20745794051578875,
                -1.3068864650137002,
                2.294402264391478,
                -0.957856439901439,
                0.9140412514597392,
                -3.1243145221040405
            ]
        },
        {
            "positions": [
                -0.2735118237758753,
                -1.3403656907807704,
                2.358973439863668,
                -0.9933357380880985,
                1.0709321811365595,
                -3.110678500882467
            ]
        },
        {
            "positions": [
                -0.3395657070359619,
                -1.3738449165478408,
                2.4235446153358584,
                -1.0288150362747581,
                1.22782311081338,
                -3.097042479660894
            ]
        }
    ]
}