{
    "goal": {
        "global_pose": {
            "orientation": {
                "w": -0.00223480608172531,
                "x": 0.0024358444001904467,
                "y": 0.7094548369677653,
                "z": -0.704743149386269
            },
            "position": {
                "x": 0.6205249238014221,
                "y": -0.6371506643295288,
                "z": 0.19426114857196808
            }
        },
        "name": "move_to_magneteinheit_B"
    },
    "id": "RRT_move_to_magneteinheit_B_71",
    "joint_names": [
        "shoulder_pan_joint",
        "shoulder_lift_joint",
        "elbow_joint",
        "wrist_1_joint",
        "wrist_2_joint",
        "wrist_3_joint"
    ],
    "metrics": {
        "cart_traj_len": 1.452126951696187,
        "distance_elbow_joint": 0.730129029329357,
        "distance_shoulder_lift_joint": 1.2490274204951484,
        "distance_shoulder_pan_joint": 1.6207862825322434,
        "distance_wrist_1_joint": 2.6027084508666927,
        "distance_wrist_2_joint": 2.936375022351155,
        "distance_wrist_3_joint": 3.1411526160841308,
        "smoothness": 4.163336351824667e-16,
        "time": 0.043015914,
        "traj_len": 3.5043086082219883,
        "weighted_distance": 4.909334733652294
    },
    "planner": "RRT",
    "start": {
        "state": {
            "elbow_joint": 2.39358713078474,
            "shoulder_lift_joint": -1.908514104345545,
            "shoulder_pan_joint": 0.7066247066606129,
            "wrist_1_joint": -0.4678290933515497,
            "wrist_2_joint": 0.7096259083745334,
            "wrist_3_joint": -3.1358149277392293
        }
    },
    "waypoints": [
        {
            "positions": [
                0.7066247066606129,
                -1.908514104345545,
                2.39358713078474,
                -0.4678290933515497,
                0.7096259083745334,
                -3.1358149277392293
            ]
        },
        {
            "positions": [
                0.6543412781918309,
                -1.868222897232798,
                2.370034581451535,
                -0.38387075622681766,
                0.6149041334599801,
                -3.03448742399458
            ]
        },
        {
            "positions": [
                0.6020578497230489,
                -1.8279316901200515,
                2.3464820321183297,
                -0.29991241910208566,
                0.5201823585454266,
                -2.9331599202499303
            ]
        },
        {
            "positions": [
                0.5497744212542668,
                -1.7876404830073047,
                2.322929482785125,
                -0.21595408197735366,
                0.42546058363087325,
                -2.8318324165052813
            ]
        },
        {
            "positions": [
                0.49749099278548475,
                -1.7473492758945581,
                2.29937693345192,
                -0.1319957448526216,
                0.3307388087163199,
                -2.730504912760632
            ]
        },
        {
            "positions": [
                0.4452075643167027,
                -1.7070580687818113,
                2.2758243841187147,
                -0.048037407727889614,
                0.23601703380176647,
                -2.6291774090159823
            ]
        },
        {
            "positions": [
                0.3929241358479207,
                -1.6667668616690645,
                2.2522718347855095,
                0.03592092939684238,
                0.14129525888721306,
                -2.5278499052713332
            ]
        },
        {
            "positions": [
                0.34064070737913865,
                -1.626475654556318,
                2.228719285452305,
                0.11987926652157438,
                0.0465734839726597,
                -2.4265224015266837
            ]
        },
        {
            "positions": [
                0.28835727891035656,
                -1.5861844474435711,
                2.2051667361190996,
                0.2038376036463065,
                -0.04814829094189366,
                -2.3251948977820343
            ]
        },
        {
            "positions": [
                0.23607385044157447,
                -1.5458932403308243,
                2.1816141867858945,
                0.2877959407710385,
                -0.14287006585644713,
                -2.2238673940373848
            ]
        },
        {
            "positions": [
                0.1837904219727925,
                -1.5056020332180777,
                2.1580616374526893,
                0.3717542778957705,
                -0.23759184077100048,
                -2.1225398902927353
            ]
        },
        {
            "positions": [
                0.1315069935040104,
                -1.465310826105331,
                2.1345090881194846,
                0.4557126150205026,
                -0.33231361568555384,
                -2.021212386548086
            ]
        },
        {
            "positions": [
                0.07922356503522843,
                -1.4250196189925843,
                2.1109565387862794,
                0.5396709521452345,
                -0.4270353906001073,
                -1.9198848828034367
            ]
        },
        {
            "positions": [
                0.026940136566446338,
                -1.3847284118798375,
                2.0874039894530743,
                0.6236292892699666,
                -0.5217571655146608,
                -1.8185573790587872
            ]
        },
        {
            "positions": [
                -0.02534329190233564,
                -1.344437204767091,
                2.063851440119869,
                0.7075876263946985,
                -0.616478940429214,
                -1.717229875314138
            ]
        },
        {
            "positions": [
                -0.07762672037111773,
                -1.3041459976543441,
                2.040298890786664,
                0.7915459635194306,
                -0.7112007153437675,
                -1.6159023715694887
            ]
        },
        {
            "positions": [
                -0.12991014883989982,
                -1.2638547905415973,
                2.016746341453459,
                0.8755043006441627,
                -0.8059224902583207,
                -1.5145748678248392
            ]
        },
        {
            "positions": [
                -0.1821935773086818,
                -1.2235635834288507,
                1.993193792120254,
                0.9594626377688946,
                -0.900644265172874,
                -1.41324736408019
            ]
        },
        {
            "positions": [
                -0.234477005777464,
                -1.1832723763161037,
                1.9696412427870489,
                1.0434209748936267,
                -0.9953660400874277,
                -1.3119198603355404
            ]
        },
        {
            "positions": [
                -0.286760434246246,
                -1.1429811692033574,
                1.9460886934538437,
                1.1273793120183588,
                -1.090087815001981,
                -1.2105923565908911
            ]
        },
        {
            "positions": [
                -0.33904386271502795,
                -1.1026899620906105,
                1.9225361441206388,
                1.2113376491430907,
                -1.1848095899165343,
                -1.1092648528462417
            ]
        },
        {
            "positions": [
                -0.39132729118381004,
                -1.0623987549778637,
                1.8989835947874338,
                1.2952959862678226,
                -1.2795313648310875,
                -1.0079373491015926
            ]
        },
        {
            "positions": [
                -0.44361071965259213,
                -1.022107547865117,
                1.8754310454542287,
                1.379254323392555,
                -1.3742531397456412,
                -0.9066098453569427
            ]
        },
        {
            "positions": [
                -0.4958941481213742,
                -0.9818163407523703,
                1.8518784961210235,
                1.4632126605172868,
                -1.4689749146601945,
                -0.8052823416122936
            ]
        },
        {
            "positions": [
                -0.5481775765901561,
                -0.9415251336396236,
                1.8283259467878186,
                1.5471709976420187,
                -1.5636966895747482,
                -0.7039548378676441
            ]
        },
        {
            "positions": [
                -0.6004610050589382,
                -0.901233926526877,
                1.8047733974546136,
                1.6311293347667508,
                -1.6584184644893014,
                -0.6026273341229951
            ]
        },
        {
            "positions": [
                -0.6527444335277203,
                -0.8609427194141301,
                1.7812208481214085,
                1.715087671891483,
                -1.753140239403855,
                -0.5012998303783451
            ]
        },
        {
            "positions": [
                -0.7050278619965024,
                -0.8206515123013833,
                1.7576682987882033,
                1.799046009016215,
                -1.8478620143184084,
                -0.3999723266336961
            ]
        },
        {
            "positions": [
                -0.7573112904652842,
                -0.7803603051886367,
                1.7341157494549981,
                1.8830043461409467,
                -1.9425837892329616,
                -0.2986448228890466
            ]
        },
        {
            "positions": [
                -0.8095947189340663,
                -0.7400690980758902,
                1.7105632001217934,
                1.9669626832656788,
                -2.037305564147515,
                -0.19731731914439754
            ]
        },
        {
            "positions": [
                -0.8618781474028484,
                -0.6997778909631431,
                1.6870106507885883,
                2.050921020390411,
                -2.1320273390620685,
                -0.09598981539974805
            ]
        },
        {
            "positions": [
                -0.9141615758716305,
                -0.6594866838503964,
                1.663458101455383,
                2.134879357515143,
                -2.226749113976622,
                0.005337688344901453
            ]
        }
    ]
}