{
    "goal": {
        "global_pose": {
            "orientation": {
                "w": 0.7047431468963623,
                "x": -0.7094548344612122,
                "y": 0.0024358443915843964,
                "z": -0.0022348060738295317
            },
            "position": {
                "x": 0.6094750761985779,
                "y": 0.3671506643295288,
                "z": 0.19426114857196808
            }
        },
        "name": "move_to_magneteinheit_A"
    },
    "id": "RRT_move_to_magneteinheit_A_46",
    "joint_names": [
        "shoulder_pan_joint",
        "shoulder_lift_joint",
        "elbow_joint",
        "wrist_1_joint",
        "wrist_2_joint",
        "wrist_3_joint"
    ],
    "metrics": {
        "cart_traj_len": 1.8802360073508395,
        "distance_elbow_joint": 3.908930457140425,
        "distance_shoulder_lift_joint": 0.697538702460449,
        "distance_shoulder_pan_joint": 1.2415134185766927,
        "distance_wrist_1_joint": 1.4886620397284278,
        "distance_wrist_2_joint": 1.6930054823510823,
        "distance_wrist_3_joint": 1.1026551820021748,
        "smoothness": 7.565964348038105e-16,
        "time": 0.166552319,
        "traj_len": 3.183128222717277,
        "weighted_distance": 3.9394521406336573
    },
    "planner": "RRT",
    "start": {
        "state": {
            "elbow_joint": -1.919643507792019,
            "shoulder_lift_joint": -0.07675430207160344,
            "shoulder_pan_joint": -1.1188671864651873,
            "wrist_1_joint": 0.42560062535961957,
            "wrist_2_joint": 1.5706038300724876,
            "wrist_3_joint": 1.1188968870953055
        }
    },
    "waypoints": [
        {
            "positions": [
                -1.1188671864651873,
                -0.07675430207160344,
                -1.919643507792019,
                0.42560062535961957,
                1.5706038300724876,
                1.1188968870953055
            ]
        },
        {
            "positions": [
                -1.0711166703660837,
                -0.10358271370469764,
                -1.7693000286712335,
                0.4828568576568668,
                1.505488234597446,
                1.0764870724029143
            ]
        },
        {
            "positions": [
                -1.0233661542669803,
                -0.13041112533779184,
                -1.6189565495504479,
                0.540113089954114,
                1.4403726391224043,
                1.0340772577105228
            ]
        },
        {
            "positions": [
                -0.9756156381678767,
                -0.15723953697088605,
                -1.4686130704296623,
                0.5973693222513612,
                1.3752570436473628,
                0.9916674430181316
            ]
        },
        {
            "positions": [
                -0.927865122068773,
                -0.18406794860398024,
                -1.3182695913088769,
                0.6546255545486085,
                1.310141448172321,
                0.9492576283257401
            ]
        },
        {
            "positions": [
                -0.8801146059696695,
                -0.21089636023707445,
                -1.1679261121880913,
                0.7118817868458557,
                1.2450258526972795,
                0.9068478136333489
            ]
        },
        {
            "positions": [
                -0.832364089870566,
                -0.23772477187016863,
                -1.0175826330673057,
                0.769138019143103,
                1.1799102572222377,
                0.8644379989409575
            ]
        },
        {
            "positions": [
                -0.7846135737714623,
                -0.26455318350326285,
                -0.8672391539465201,
                0.8263942514403502,
                1.1147946617471962,
                0.8220281842485662
            ]
        },
        {
            "positions": [
                -0.7368630576723587,
                -0.29138159513635703,
                -0.7168956748257345,
                0.8836504837375974,
                1.0496790662721547,
                0.7796183695561748
            ]
        },
        {
            "positions": [
                -0.6891125415732553,
                -0.3182100067694512,
                -0.5665521957049491,
                0.9409067160348445,
                0.984563470797113,
                0.7372085548637834
            ]
        },
        {
            "positions": [
                -0.6413620254741517,
                -0.34503841840254545,
                -0.41620871658416325,
                0.9981629483320917,
                0.9194478753220713,
                0.6947987401713922
            ]
        },
        {
            "positions": [
                -0.5936115093750481,
                -0.3718668300356396,
                -0.26586523746337787,
                1.055419180629339,
                0.8543322798470298,
                0.6523889254790007
            ]
        },
        {
            "positions": [
                -0.5458609932759445,
                -0.3986952416687338,
                -0.11552175834259204,
                1.1126754129265863,
                0.789216684371988,
                0.6099791107866095
            ]
        },
        {
            "positions": [
                -0.498110477176841,
                -0.425523653301828,
                0.034821720778193344,
                1.1699316452238335,
                0.7241010888969465,
                0.5675692960942181
            ]
        },
        {
            "positions": [
                -0.45035996107773746,
                -0.4523520649349222,
                0.18516519989897895,
                1.2271878775210807,
                0.6589854934219049,
                0.5251594814018268
            ]
        },
        {
            "positions": [
                -0.40260944497863393,
                -0.4791804765680164,
                0.3355086790197641,
                1.284444109818328,
                0.5938698979468633,
                0.48274966670943553
            ]
        },
        {
            "positions": [
                -0.3548589288795302,
                -0.5060088882011107,
                0.48585215814055016,
                1.341700342115575,
                0.5287543024718215,
                0.44033985201704406
            ]
        },
        {
            "positions": [
                -0.30710841278042667,
                -0.5328372998342048,
                0.6361956372613358,
                1.3989565744128223,
                0.46363870699678,
                0.3979300373246528
            ]
        },
        {
            "positions": [
                -0.25935789668132314,
                -0.5596657114672989,
                0.7865391163821209,
                1.4562128067100697,
                0.39852311152173847,
                0.35552022263226146
            ]
        },
        {
            "positions": [
                -0.21160738058221962,
                -0.5864941231003931,
                0.9368825955029065,
                1.5134690390073169,
                0.3334075160466967,
                0.3131104079398701
            ]
        },
        {
            "positions": [
                -0.16385686448311598,
                -0.6133225347334874,
                1.0872260746236926,
                1.570725271304564,
                0.26829192057165496,
                0.27070059324747875
            ]
        },
        {
            "positions": [
                -0.11610634838401235,
                -0.6401509463665815,
                1.2375695537444782,
                1.6279815036018113,
                0.20317632509661343,
                0.2282907785550874
            ]
        },
        {
            "positions": [
                -0.06835583228490894,
                -0.6669793579996757,
                1.3879130328652634,
                1.6852377358990585,
                0.1380607296215719,
                0.18588096386269604
            ]
        },
        {
            "positions": [
                -0.0206053161858053,
                -0.69380776963277,
                1.538256511986049,
                1.7424939681963056,
                0.07294513414653037,
                0.1434711491703048
            ]
        },
        {
            "positions": [
                0.027145199913298335,
                -0.7206361812658642,
                1.688599991106835,
                1.799750200493553,
                0.00782953867148839,
                0.10106133447791343
            ]
        },
        {
            "positions": [
                0.07489571601240175,
                -0.7474645928989585,
                1.8389434702276202,
                1.8570064327908002,
                -0.05728605680355314,
                0.058651519785521966
            ]
        },
        {
            "positions": [
                0.12264623211150531,
                -0.7742930045320525,
                1.989286949348406,
                1.9142626650880474,
                -0.12240165227859463,
                0.016241705093130793
            ]
        }
    ]
}