{
    "goal": {
        "global_pose": {
            "orientation": {
                "w": 0.7047431468963623,
                "x": -0.7094548344612122,
                "y": 0.0024358443915843964,
                "z": -0.0022348060738295317
            },
            "position": {
                "x": 0.6094750761985779,
                "y": 0.3671506643295288,
                "z": 0.19426114857196808
            }
        },
        "name": "move_to_magneteinheit_A"
    },
    "id": "RRT_move_to_magneteinheit_A_149",
    "joint_names": [
        "shoulder_pan_joint",
        "shoulder_lift_joint",
        "elbow_joint",
        "wrist_1_joint",
        "wrist_2_joint",
        "wrist_3_joint"
    ],
    "metrics": {
        "cart_traj_len": 2.0687266745774657,
        "distance_elbow_joint": 3.897641564623497,
        "distance_shoulder_lift_joint": 1.066974941169812,
        "distance_shoulder_pan_joint": 1.2419253853625614,
        "distance_wrist_1_joint": 1.242387318451498,
        "distance_wrist_2_joint": 1.442195642411955,
        "distance_wrist_3_joint": 2.000630998858654,
        "smoothness": 5.819100011960789e-16,
        "time": 0.08594914,
        "traj_len": 3.300266027289009,
        "weighted_distance": 4.1925649439762696
    },
    "planner": "RRT",
    "start": {
        "state": {
            "elbow_joint": -1.919643507792019,
            "shoulder_lift_joint": -0.07675430207160344,
            "shoulder_pan_joint": -1.1188671864651873,
            "wrist_1_joint": 0.42560062535961957,
            "wrist_2_joint": 1.5706038300724876,
            "wrist_3_joint": 1.1188968870953055
        }
    },
    "waypoints": [
        {
            "positions": [
                -1.1188671864651873,
                -0.07675430207160344,
                -1.919643507792019,
                0.42560062535961957,
                1.5706038300724876,
                1.1188968870953055
            ]
        },
        {
            "positions": [
                -1.0745127084165245,
                -0.1148605499705253,
                -1.78044202334118,
                0.3812296497006375,
                1.5190968428434892,
                1.1903479941974004
            ]
        },
        {
            "positions": [
                -1.0301582303678616,
                -0.15296679786944717,
                -1.6412405388903408,
                0.3368586740416554,
                1.4675898556144908,
                1.2617991012994951
            ]
        },
        {
            "positions": [
                -0.9858037523191987,
                -0.191073045768369,
                -1.5020390544395017,
                0.29248769838267336,
                1.4160828683854925,
                1.3332502084015898
            ]
        },
        {
            "positions": [
                -0.9414492742705357,
                -0.22917929366729087,
                -1.3628375699886623,
                0.24811672272369129,
                1.364575881156494,
                1.4047013155036847
            ]
        },
        {
            "positions": [
                -0.8970947962218728,
                -0.26728554156621276,
                -1.2236360855378232,
                0.20374574706470922,
                1.3130688939274955,
                1.4761524226057796
            ]
        },
        {
            "positions": [
                -0.8527403181732099,
                -0.30539178946513457,
                -1.084434601086984,
                0.15937477140572714,
                1.2615619066984973,
                1.5476035297078743
            ]
        },
        {
            "positions": [
                -0.808385840124547,
                -0.34349803736405643,
                -0.9452331166361448,
                0.11500379574674507,
                1.2100549194694987,
                1.619054636809969
            ]
        },
        {
            "positions": [
                -0.7640313620758841,
                -0.3816042852629783,
                -0.8060316321853058,
                0.070632820087763,
                1.1585479322405003,
                1.6905057439120639
            ]
        },
        {
            "positions": [
                -0.7196768840272212,
                -0.41971053316190016,
                -0.6668301477344665,
                0.02626184442878088,
                1.107040945011502,
                1.7619568510141588
            ]
        },
        {
            "positions": [
                -0.6753224059785583,
                -0.457816781060822,
                -0.5276286632836273,
                -0.018109131230201136,
                1.0555339577825036,
                1.8334079581162535
            ]
        },
        {
            "positions": [
                -0.6309679279298954,
                -0.49592302895974383,
                -0.3884271788327882,
                -0.06248010688918321,
                1.0040269705535052,
                1.9048590652183481
            ]
        },
        {
            "positions": [
                -0.5866134498812325,
                -0.5340292768586656,
                -0.24922569438194908,
                -0.10685108254816528,
                0.9525199833245069,
                1.976310172320443
            ]
        },
        {
            "positions": [
                -0.5422589718325695,
                -0.5721355247575876,
                -0.11002420993110973,
                -0.15122205820714735,
                0.9010129960955084,
                2.047761279422538
            ]
        },
        {
            "positions": [
                -0.49790449378390667,
                -0.6102417726565095,
                0.0291772745197294,
                -0.19559303386612942,
                0.8495060088665101,
                2.119212386524633
            ]
        },
        {
            "positions": [
                -0.4535500157352438,
                -0.6483480205554313,
                0.16837875897056853,
                -0.2399640095251115,
                0.7979990216375117,
                2.1906634936267273
            ]
        },
        {
            "positions": [
                -0.4091955376865809,
                -0.6864542684543531,
                0.30758024342140744,
                -0.28433498518409356,
                0.7464920344085133,
                2.262114600728822
            ]
        },
        {
            "positions": [
                -0.364841059637918,
                -0.7245605163532749,
                0.4467817278722468,
                -0.3287059608430755,
                0.6949850471795149,
                2.3335657078309167
            ]
        },
        {
            "positions": [
                -0.320486581589255,
                -0.7626667642521969,
                0.5859832123230861,
                -0.3730769365020578,
                0.6434780599505164,
                2.4050168149330116
            ]
        },
        {
            "positions": [
                -0.27613210354059214,
                -0.8007730121511187,
                0.7251846967739255,
                -0.41744791216103977,
                0.591971072721518,
                2.4764679220351065
            ]
        },
        {
            "positions": [
                -0.23177762549192926,
                -0.8388792600500405,
                0.8643861812247644,
                -0.46181888782002184,
                0.5404640854925196,
                2.5479190291372014
            ]
        },
        {
            "positions": [
                -0.18742314744326638,
                -0.8769855079489624,
                1.0035876656756038,
                -0.5061898634790039,
                0.4889570982635212,
                2.6193701362392963
            ]
        },
        {
            "positions": [
                -0.1430686693946034,
                -0.9150917558478842,
                1.1427891501264427,
                -0.5505608391379859,
                0.437450111034523,
                2.690821243341391
            ]
        },
        {
            "positions": [
                -0.09871419134594062,
                -0.9531980037468062,
                1.281990634577282,
                -0.594931814796968,
                0.38594312380552465,
                2.7622723504434856
            ]
        },
        {
            "positions": [
                -0.054359713297277734,
                -0.991304251645728,
                1.421192119028121,
                -0.6393027904559501,
                0.33443613657652627,
                2.8337234575455805
            ]
        },
        {
            "positions": [
                -0.01000523524861463,
                -1.0294104995446498,
                1.5603936034789607,
                -0.6836737661149321,
                0.28292914934752766,
                2.9051745646476754
            ]
        },
        {
            "positions": [
                0.03434924280004825,
                -1.0675167474435716,
                1.6995950879297996,
                -0.7280447417739142,
                0.23142216211852928,
                2.97662567174977
            ]
        },
        {
            "positions": [
                0.07870372084871113,
                -1.1056229953424936,
                1.838796572380639,
                -0.7724157174328963,
                0.1799151748895309,
                3.048076778851865
            ]
        },
        {
            "positions": [
                0.12305819889737407,
                -1.1437292432414154,
                1.977998056831478,
                -0.8167866930918785,
                0.1284081876605326,
                3.1195278859539597
            ]
        }
    ]
}