{
    "goal": {
        "global_pose": {
            "orientation": {
                "w": 0.7047431468963623,
                "x": -0.7094548344612122,
                "y": 0.0024358443915843964,
                "z": -0.0022348060738295317
            },
            "position": {
                "x": 0.6094750761985779,
                "y": 0.3671506643295288,
                "z": 0.19426114857196808
            }
        },
        "name": "move_to_magneteinheit_A"
    },
    "id": "RRT_move_to_magneteinheit_A_31",
    "joint_names": [
        "shoulder_pan_joint",
        "shoulder_lift_joint",
        "elbow_joint",
        "wrist_1_joint",
        "wrist_2_joint",
        "wrist_3_joint"
    ],
    "metrics": {
        "cart_traj_len": 1.8790640476044072,
        "distance_elbow_joint": 3.915045853775041,
        "distance_shoulder_lift_joint": 0.6999548432921705,
        "distance_shoulder_pan_joint": 1.2428790612216938,
        "distance_wrist_1_joint": 1.4973187172051052,
        "distance_wrist_2_joint": 1.7080414788043754,
        "distance_wrist_3_joint": 1.1103143934690392,
        "smoothness": 3.9474596558118316e-16,
        "time": 0.107069939,
        "traj_len": 3.189600969990984,
        "weighted_distance": 3.9496257203328753
    },
    "planner": "RRT",
    "start": {
        "state": {
            "elbow_joint": -1.919643507792019,
            "shoulder_lift_joint": -0.07675430207160344,
            "shoulder_pan_joint": -1.1188671864651873,
            "wrist_1_joint": 0.42560062535961957,
            "wrist_2_joint": 1.5706038300724876,
            "wrist_3_joint": 1.1188968870953055
        }
    },
    "waypoints": [
        {
            "positions": [
                -1.1188671864651873,
                -0.07675430207160344,
                -1.919643507792019,
                0.42560062535961957,
                1.5706038300724876,
                1.1188968870953055
            ]
        },
        {
            "positions": [
                -1.0710641456489685,
                -0.10367564219822539,
                -1.7690648211083637,
                0.48318980679058515,
                1.50490992704155,
                1.0761924873464963
            ]
        },
        {
            "positions": [
                -1.0232611048327493,
                -0.13059698232484734,
                -1.6184861344247081,
                0.5407789882215508,
                1.4392160240106127,
                1.033488087597687
            ]
        },
        {
            "positions": [
                -0.9754580640165303,
                -0.15751832245146927,
                -1.4679074477410528,
                0.5983681696525163,
                1.373522120979675,
                0.9907836878488779
            ]
        },
        {
            "positions": [
                -0.9276550232003113,
                -0.18443966257809122,
                -1.3173287610573974,
                0.655957351083482,
                1.3078282179487375,
                0.9480792881000688
            ]
        },
        {
            "positions": [
                -0.8798519823840923,
                -0.21136100270471317,
                -1.1667500743737418,
                0.7135465325144474,
                1.2421343149178,
                0.9053748883512596
            ]
        },
        {
            "positions": [
                -0.8320489415678733,
                -0.2382823428313351,
                -1.0161713876900866,
                0.7711357139454131,
                1.1764404118868625,
                0.8626704886024503
            ]
        },
        {
            "positions": [
                -0.7842459007516545,
                -0.26520368295795704,
                -0.8655927010064313,
                0.8287248953763786,
                1.110746508855925,
                0.8199660888536412
            ]
        },
        {
            "positions": [
                -0.7364428599354353,
                -0.292125023084579,
                -0.7150140143227757,
                0.8863140768073443,
                1.0450526058249876,
                0.777261689104832
            ]
        },
        {
            "positions": [
                -0.6886398191192165,
                -0.31904636321120095,
                -0.5644353276391203,
                0.9439032582383098,
                0.97935870279405,
                0.7345572893560228
            ]
        },
        {
            "positions": [
                -0.6408367783029973,
                -0.3459677033378229,
                -0.4138566409554647,
                1.0014924396692755,
                0.9136647997631124,
                0.6918528896072136
            ]
        },
        {
            "positions": [
                -0.5930337374867785,
                -0.3728890434644448,
                -0.26327795427180956,
                1.059081621100241,
                0.847970896732175,
                0.6491484898584043
            ]
        },
        {
            "positions": [
                -0.5452306966705595,
                -0.39981038359106674,
                -0.11269926758815396,
                1.1166708025312067,
                0.7822769937012374,
                0.6064440901095951
            ]
        },
        {
            "positions": [
                -0.49742765585434046,
                -0.4267317237176887,
                0.03787941909550141,
                1.1742599839621721,
                0.7165830906702999,
                0.563739690360786
            ]
        },
        {
            "positions": [
                -0.44962461503812146,
                -0.45365306384431064,
                0.18845810577915656,
                1.2318491653931378,
                0.6508891876393624,
                0.5210352906119768
            ]
        },
        {
            "positions": [
                -0.40182157422190257,
                -0.48057440397093254,
                0.33903679246281215,
                1.2894383468241033,
                0.585195284608425,
                0.4783308908631676
            ]
        },
        {
            "positions": [
                -0.35401853340568346,
                -0.5074957440975545,
                0.48961547914646775,
                1.347027528255069,
                0.5195013815774874,
                0.43562649111435836
            ]
        },
        {
            "positions": [
                -0.30621549258946446,
                -0.5344170842241764,
                0.6401941658301233,
                1.4046167096860345,
                0.4538074785465498,
                0.3929220913655491
            ]
        },
        {
            "positions": [
                -0.25841245177324557,
                -0.5613384243507984,
                0.7907728525137785,
                1.4622058911170002,
                0.38811357551561243,
                0.35021769161674
            ]
        },
        {
            "positions": [
                -0.21060941095702657,
                -0.5882597644774203,
                0.9413515391974336,
                1.5197950725479656,
                0.32241967248467485,
                0.30751329186793086
            ]
        },
        {
            "positions": [
                -0.16280637014080745,
                -0.6151811046040423,
                1.0919302258810897,
                1.5773842539789313,
                0.25672576945373726,
                0.2648088921191215
            ]
        },
        {
            "positions": [
                -0.11500332932458845,
                -0.6421024447306642,
                1.2425089125647448,
                1.634973435409897,
                0.19103186642279968,
                0.22210449237031238
            ]
        },
        {
            "positions": [
                -0.06720028850836957,
                -0.6690237848572862,
                1.3930875992484,
                1.6925626168408625,
                0.12533796339186232,
                0.17940009262150325
            ]
        },
        {
            "positions": [
                -0.019397247692150676,
                -0.6959451249839081,
                1.5436662859320556,
                1.750151798271828,
                0.05964406036092473,
                0.136695692872694
            ]
        },
        {
            "positions": [
                0.028405793124068435,
                -0.7228664651105301,
                1.6942449726157112,
                1.8077409797027937,
                -0.0060498426700128505,
                0.09399129312388466
            ]
        },
        {
            "positions": [
                0.07620883394028755,
                -0.749787805237152,
                1.8448236592993668,
                1.8653301611337594,
                -0.07174374570095043,
                0.05128689337507564
            ]
        },
        {
            "positions": [
                0.12401187475650642,
                -0.776709145363774,
                1.995402345983022,
                1.9229193425647249,
                -0.1374376487318879,
                0.008582493626266435
            ]
        }
    ]
}