{
    "goal": {
        "global_pose": {
            "orientation": {
                "w": 0.7047431468963623,
                "x": -0.7094548344612122,
                "y": 0.0024358443915843964,
                "z": -0.0022348060738295317
            },
            "position": {
                "x": 0.6094750761985779,
                "y": 0.3671506643295288,
                "z": 0.19426114857196808
            }
        },
        "name": "move_to_magneteinheit_A"
    },
    "id": "RRT_move_to_magneteinheit_A_88",
    "joint_names": [
        "shoulder_pan_joint",
        "shoulder_lift_joint",
        "elbow_joint",
        "wrist_1_joint",
        "wrist_2_joint",
        "wrist_3_joint"
    ],
    "metrics": {
        "cart_traj_len": 2.0634272784527887,
        "distance_elbow_joint": 3.873372996830827,
        "distance_shoulder_lift_joint": 1.0517926637828778,
        "distance_shoulder_pan_joint": 1.2413496039021124,
        "distance_wrist_1_joint": 1.121412142526247,
        "distance_wrist_2_joint": 1.4455320900589566,
        "distance_wrist_3_joint": 1.9000290804236037,
        "smoothness": 3.489272382473687e-16,
        "time": 0.035848434,
        "traj_len": 3.2609030309907445,
        "weighted_distance": 4.123165164161755
    },
    "planner": "RRT",
    "start": {
        "state": {
            "elbow_joint": -1.919643507792019,
            "shoulder_lift_joint": -0.07675430207160344,
            "shoulder_pan_joint": -1.1188671864651873,
            "wrist_1_joint": 0.42560062535961957,
            "wrist_2_joint": 1.5706038300724876,
            "wrist_3_joint": 1.1188968870953055
        }
    },
    "waypoints": [
        {
            "positions": [
                -1.1188671864651873,
                -0.07675430207160344,
                -1.919643507792019,
                0.42560062535961957,
                1.5706038300724876,
                1.1188968870953055
            ]
        },
        {
            "positions": [
                -1.0728912752095536,
                -0.11570958591541372,
                -1.7761852486501366,
                0.3840668423030919,
                1.5170656045147486,
                1.189268334518402
            ]
        },
        {
            "positions": [
                -1.0269153639539197,
                -0.154664869759224,
                -1.6327269895082541,
                0.34253305924656424,
                1.4635273789570094,
                1.2596397819414984
            ]
        },
        {
            "positions": [
                -0.980939452698286,
                -0.1936201536030343,
                -1.4892687303663716,
                0.3009992761900366,
                1.4099891533992701,
                1.330011229364595
            ]
        },
        {
            "positions": [
                -0.9349635414426523,
                -0.23257543744684459,
                -1.3458104712244892,
                0.2594654931335089,
                1.356450927841531,
                1.4003826767876912
            ]
        },
        {
            "positions": [
                -0.8889876301870184,
                -0.2715307212906549,
                -1.2023522120826067,
                0.21793171007698126,
                1.302912702283792,
                1.4707541242107878
            ]
        },
        {
            "positions": [
                -0.8430117189313846,
                -0.31048600513446517,
                -1.0588939529407242,
                0.1763979270204536,
                1.2493744767260528,
                1.541125571633884
            ]
        },
        {
            "positions": [
                -0.7970358076757509,
                -0.3494412889782755,
                -0.9154356937988417,
                0.13486414396392593,
                1.1958362511683136,
                1.6114970190569806
            ]
        },
        {
            "positions": [
                -0.7510598964201171,
                -0.38839657282208573,
                -0.7719774346569592,
                0.09333036090739827,
                1.1422980256105746,
                1.681868466480077
            ]
        },
        {
            "positions": [
                -0.7050839851644832,
                -0.42735185666589603,
                -0.6285191755150767,
                0.051796577850870607,
                1.0887598000528356,
                1.7522399139031735
            ]
        },
        {
            "positions": [
                -0.6591080739088495,
                -0.46630714050970634,
                -0.48506091637319426,
                0.010262794794342944,
                1.0352215744950963,
                1.82261136132627
            ]
        },
        {
            "positions": [
                -0.6131321626532157,
                -0.5052624243535166,
                -0.3416026572313118,
                -0.03127098826218472,
                0.9816833489373572,
                1.8929828087493663
            ]
        },
        {
            "positions": [
                -0.5671562513975819,
                -0.544217708197327,
                -0.1981443980894293,
                -0.07280477131871238,
                0.9281451233796181,
                1.9633542561724626
            ]
        },
        {
            "positions": [
                -0.5211803401419481,
                -0.5831729920411373,
                -0.054686138947546814,
                -0.11433855437524004,
                0.874606897821879,
                2.033725703595559
            ]
        },
        {
            "positions": [
                -0.4752044288863143,
                -0.6221282758849476,
                0.08877212019433567,
                -0.1558723374317677,
                0.8210686722641398,
                2.1040971510186557
            ]
        },
        {
            "positions": [
                -0.4292285176306805,
                -0.6610835597287579,
                0.23223037933621815,
                -0.19740612048829537,
                0.7675304467064006,
                2.174468598441752
            ]
        },
        {
            "positions": [
                -0.38325260637504677,
                -0.700038843572568,
                0.37568863847810063,
                -0.23893990354482303,
                0.7139922211486616,
                2.2448400458648488
            ]
        },
        {
            "positions": [
                -0.33727669511941283,
                -0.7389941274163785,
                0.5191468976199831,
                -0.2804736866013507,
                0.6604539955909223,
                2.3152114932879453
            ]
        },
        {
            "positions": [
                -0.2913007838637791,
                -0.7779494112601886,
                0.6626051567618656,
                -0.32200746965787835,
                0.6069157700331833,
                2.3855829407110414
            ]
        },
        {
            "positions": [
                -0.24532487260814528,
                -0.8169046951039989,
                0.8060634159037481,
                -0.363541252714406,
                0.5533775444754441,
                2.455954388134138
            ]
        },
        {
            "positions": [
                -0.19934896135251157,
                -0.8558599789478092,
                0.9495216750456306,
                -0.4050750357709337,
                0.49983931891770506,
                2.526325835557234
            ]
        },
        {
            "positions": [
                -0.15337305009687774,
                -0.8948152627916195,
                1.092979934187513,
                -0.44660881882746134,
                0.4463010933599658,
                2.5966972829803305
            ]
        },
        {
            "positions": [
                -0.10739713884124402,
                -0.9337705466354298,
                1.2364381933293955,
                -0.488142601883989,
                0.3927628678022268,
                2.667068730403427
            ]
        },
        {
            "positions": [
                -0.06142122758561008,
                -0.9727258304792401,
                1.379896452471278,
                -0.5296763849405166,
                0.33922464224448756,
                2.7374401778265236
            ]
        },
        {
            "positions": [
                -0.015445316329976366,
                -1.0116811143230504,
                1.5233547116131605,
                -0.5712101679970443,
                0.28568641668674855,
                2.80781162524962
            ]
        },
        {
            "positions": [
                0.03053059492565735,
                -1.0506363981668607,
                1.666812970755043,
                -0.6127439510535719,
                0.2321481911290093,
                2.8781830726727167
            ]
        },
        {
            "positions": [
                0.07650650618129107,
                -1.089591682010671,
                1.8102712298969255,
                -0.6542777341100996,
                0.1786099655712703,
                2.9485545200958128
            ]
        },
        {
            "positions": [
                0.12248241743692491,
                -1.1285469658544813,
                1.953729489038808,
                -0.6958115171666274,
                0.12507174001353114,
                3.0189259675189093
            ]
        }
    ]
}