{
    "goal": {
        "global_pose": {
            "orientation": {
                "w": -0.00223480608172531,
                "x": 0.0024358444001904467,
                "y": 0.7094548369677653,
                "z": -0.704743149386269
            },
            "position": {
                "x": 0.6205249238014221,
                "y": -0.6371506643295288,
                "z": 0.19426114857196808
            }
        },
        "name": "move_to_magneteinheit_B"
    },
    "id": "RRT_move_to_magneteinheit_B_100",
    "joint_names": [
        "shoulder_pan_joint",
        "shoulder_lift_joint",
        "elbow_joint",
        "wrist_1_joint",
        "wrist_2_joint",
        "wrist_3_joint"
    ],
    "metrics": {
        "cart_traj_len": 1.4533504570512075,
        "distance_elbow_joint": 0.7308791210242729,
        "distance_shoulder_lift_joint": 1.2490640196073424,
        "distance_shoulder_pan_joint": 1.6223097480630653,
        "distance_wrist_1_joint": 2.603297670356116,
        "distance_wrist_2_joint": 2.933566976723612,
        "distance_wrist_3_joint": 3.132511821971595,
        "smoothness": 2.4980018173577986e-16,
        "time": 0.210653061,
        "traj_len": 3.5030885455189393,
        "weighted_distance": 4.906477111815454
    },
    "planner": "RRT",
    "start": {
        "state": {
            "elbow_joint": 2.39358713078474,
            "shoulder_lift_joint": -1.908514104345545,
            "shoulder_pan_joint": 0.7066247066606129,
            "wrist_1_joint": -0.4678290933515497,
            "wrist_2_joint": 0.7096259083745334,
            "wrist_3_joint": -3.1358149277392293
        }
    },
    "waypoints": [
        {
            "positions": [
                0.7066247066606129,
                -1.908514104345545,
                2.39358713078474,
                -0.4678290933515497,
                0.7096259083745334,
                -3.1358149277392293
            ]
        },
        {
            "positions": [
                0.6542921341424496,
                -1.8682217166162758,
                2.3700103849452474,
                -0.3838517491465137,
                0.6149947155769976,
                -3.034766159288533
            ]
        },
        {
            "positions": [
                0.6019595616242861,
                -1.8279293288870067,
                2.3464336391057548,
                -0.2998744049414777,
                0.5203635227794616,
                -2.933717390837836
            ]
        },
        {
            "positions": [
                0.5496269891061227,
                -1.7876369411577375,
                2.322856893266262,
                -0.21589706073644171,
                0.42573232998192584,
                -2.8326686223871396
            ]
        },
        {
            "positions": [
                0.49729441658795936,
                -1.7473445534284684,
                2.2992801474267694,
                -0.13191971653140572,
                0.33110113718438994,
                -2.7316198539364427
            ]
        },
        {
            "positions": [
                0.444961844069796,
                -1.7070521656991993,
                2.275703401587277,
                -0.04794237232636972,
                0.2364699443868541,
                -2.6305710854857463
            ]
        },
        {
            "positions": [
                0.3926292715516326,
                -1.6667597779699304,
                2.252126655747784,
                0.03603497187866628,
                0.14183875158931825,
                -2.52952231703505
            ]
        },
        {
            "positions": [
                0.3402966990334692,
                -1.6264673902406612,
                2.2285499099082915,
                0.12001231608370228,
                0.04720755879178229,
                -2.428473548584353
            ]
        },
        {
            "positions": [
                0.2879641265153058,
                -1.586175002511392,
                2.204973164068799,
                0.20398966028873827,
                -0.04742363400575356,
                -2.3274247801336565
            ]
        },
        {
            "positions": [
                0.23563155399714236,
                -1.545882614782123,
                2.181396418229306,
                0.28796700449377427,
                -0.1420548268032895,
                -2.2263760116829596
            ]
        },
        {
            "positions": [
                0.18329898147897905,
                -1.5055902270528538,
                2.157819672389813,
                0.37194434869881027,
                -0.23668601960082525,
                -2.125327243232263
            ]
        },
        {
            "positions": [
                0.13096640896081557,
                -1.4652978393235847,
                2.1342429265503204,
                0.45592169290384627,
                -0.3313172123983613,
                -2.0242784747815668
            ]
        },
        {
            "positions": [
                0.0786338364426522,
                -1.4250054515943156,
                2.110666180710828,
                0.5398990371088823,
                -0.42594840519589694,
                -1.92322970633087
            ]
        },
        {
            "positions": [
                0.026301263924488727,
                -1.3847130638650464,
                2.087089434871335,
                0.6238763813139183,
                -0.520579597993433,
                -1.8221809378801734
            ]
        },
        {
            "positions": [
                -0.02603130859367453,
                -1.3444206761357775,
                2.0635126890318425,
                0.7078537255189543,
                -0.6152107907909689,
                -1.7211321694294768
            ]
        },
        {
            "positions": [
                -0.07836388111183801,
                -1.3041282884065084,
                2.03993594319235,
                0.7918310697239903,
                -0.7098419835885047,
                -1.6200834009787801
            ]
        },
        {
            "positions": [
                -0.13069645363000137,
                -1.2638359006772393,
                2.016359197352857,
                0.8758084139290263,
                -0.8044731763860405,
                -1.5190346325280837
            ]
        },
        {
            "positions": [
                -0.18302902614816474,
                -1.2235435129479701,
                1.9927824515133645,
                0.9597857581340621,
                -0.8991043691835764,
                -1.417985864077387
            ]
        },
        {
            "positions": [
                -0.23536159866632822,
                -1.183251125218701,
                1.9692057056738719,
                1.0437631023390983,
                -0.9937355619811125,
                -1.3169370956266904
            ]
        },
        {
            "positions": [
                -0.2876941711844916,
                -1.1429587374894319,
                1.9456289598343792,
                1.1277404465441343,
                -1.0883667547786482,
                -1.2158883271759937
            ]
        },
        {
            "positions": [
                -0.34002674370265484,
                -1.1026663497601628,
                1.9220522139948866,
                1.2117177907491703,
                -1.182997947576184,
                -1.114839558725297
            ]
        },
        {
            "positions": [
                -0.3923593162208182,
                -1.0623739620308936,
                1.898475468155394,
                1.295695134954206,
                -1.2776291403737199,
                -1.0137907902746006
            ]
        },
        {
            "positions": [
                -0.4446918887389818,
                -1.0220815743016245,
                1.8748987223159013,
                1.3796724791592423,
                -1.3722603331712562,
                -0.9127420218239037
            ]
        },
        {
            "positions": [
                -0.49702446125714517,
                -0.9817891865723554,
                1.8513219764764086,
                1.4636498233642783,
                -1.466891525968792,
                -0.8116932533732073
            ]
        },
        {
            "positions": [
                -0.5493570337753085,
                -0.9414967988430863,
                1.827745230636916,
                1.5476271675693143,
                -1.5615227187663274,
                -0.7106444849225109
            ]
        },
        {
            "positions": [
                -0.6016896062934719,
                -0.9012044111138173,
                1.8041684847974233,
                1.6316045117743503,
                -1.6561539115638633,
                -0.6095957164718144
            ]
        },
        {
            "positions": [
                -0.6540221788116355,
                -0.860912023384548,
                1.7805917389579307,
                1.7155818559793863,
                -1.7507851043613996,
                -0.5085469480211176
            ]
        },
        {
            "positions": [
                -0.7063547513297989,
                -0.8206196356552791,
                1.757014993118438,
                1.7995592001844223,
                -1.8454162971589354,
                -0.4074981795704211
            ]
        },
        {
            "positions": [
                -0.758687323847962,
                -0.7803272479260099,
                1.7334382472789454,
                1.8835365443894583,
                -1.9400474899564712,
                -0.30644941111972424
            ]
        },
        {
            "positions": [
                -0.8110198963661254,
                -0.7400348601967408,
                1.7098615014394527,
                1.9675138885944943,
                -2.034678682754007,
                -0.2054006426690278
            ]
        },
        {
            "positions": [
                -0.863352468884289,
                -0.6997424724674717,
                1.6862847555999598,
                2.0514912327995303,
                -2.129309875551543,
                -0.10435187421833092
            ]
        },
        {
            "positions": [
                -0.9156850414024524,
                -0.6594500847382025,
                1.6627080097604672,
                2.1354685770045663,
                -2.223941068349079,
                -0.00330310576763469
            ]
        }
    ]
}