{
    "goal": {
        "global_pose": {
            "orientation": {
                "w": 0.7047431468963623,
                "x": -0.7094548344612122,
                "y": 0.0024358443915843964,
                "z": -0.0022348060738295317
            },
            "position": {
                "x": 0.6094750761985779,
                "y": 0.3671506643295288,
                "z": 0.19426114857196808
            }
        },
        "name": "move_to_magneteinheit_A"
    },
    "id": "RRT_move_to_magneteinheit_A_18",
    "joint_names": [
        "shoulder_pan_joint",
        "shoulder_lift_joint",
        "elbow_joint",
        "wrist_1_joint",
        "wrist_2_joint",
        "wrist_3_joint"
    ],
    "metrics": {
        "cart_traj_len": 1.8794909570807306,
        "distance_elbow_joint": 3.911222811461432,
        "distance_shoulder_lift_joint": 0.6984299290482826,
        "distance_shoulder_pan_joint": 1.2415028084696305,
        "distance_wrist_1_joint": 1.4942239469956686,
        "distance_wrist_2_joint": 1.695100495731057,
        "distance_wrist_3_joint": 1.1227900730810725,
        "smoothness": 3.289549710083688e-16,
        "time": 0.0620984,
        "traj_len": 3.1879884041174216,
        "weighted_distance": 3.94945244985631
    },
    "planner": "RRT",
    "start": {
        "state": {
            "elbow_joint": -1.919643507792019,
            "shoulder_lift_joint": -0.07675430207160344,
            "shoulder_pan_joint": -1.1188671864651873,
            "wrist_1_joint": 0.42560062535961957,
            "wrist_2_joint": 1.5706038300724876,
            "wrist_3_joint": 1.1188968870953055
        }
    },
    "waypoints": [
        {
            "positions": [
                -1.1188671864651873,
                -0.07675430207160344,
                -1.919643507792019,
                0.42560062535961957,
                1.5706038300724876,
                1.1188968870953055
            ]
        },
        {
            "positions": [
                -1.0711170784471247,
                -0.10361699165038354,
                -1.7692118611973486,
                0.4830707771671453,
                1.5054076571597546,
                1.0757126535152643
            ]
        },
        {
            "positions": [
                -1.023366970429062,
                -0.13047968122916365,
                -1.6187802146026782,
                0.540540928974671,
                1.4402114842470217,
                1.0325284199352232
            ]
        },
        {
            "positions": [
                -0.9756168624109992,
                -0.15734237080794378,
                -1.4683485680080077,
                0.5980110807821968,
                1.3750153113342887,
                0.9893441863551817
            ]
        },
        {
            "positions": [
                -0.9278667543929365,
                -0.18420506038672385,
                -1.3179169214133373,
                0.6554812325897225,
                1.3098191384215558,
                0.9461599527751405
            ]
        },
        {
            "positions": [
                -0.8801166463748737,
                -0.21106774996550398,
                -1.1674852748186668,
                0.7129513843972481,
                1.2446229655088228,
                0.9029757191950993
            ]
        },
        {
            "positions": [
                -0.8323665383568111,
                -0.23793043954428408,
                -1.0170536282239964,
                0.7704215362047739,
                1.17942679259609,
                0.859791485615058
            ]
        },
        {
            "positions": [
                -0.7846164303387484,
                -0.2647931291230642,
                -0.8666219816293259,
                0.8278916880122995,
                1.114230619683357,
                0.8166072520350168
            ]
        },
        {
            "positions": [
                -0.7368663223206857,
                -0.2916558187018443,
                -0.7161903350346555,
                0.8853618398198253,
                1.0490344467706239,
                0.7734230184549755
            ]
        },
        {
            "positions": [
                -0.689116214302623,
                -0.31851850828062434,
                -0.565758688439985,
                0.9428319916273511,
                0.983838273857891,
                0.7302387848749343
            ]
        },
        {
            "positions": [
                -0.6413661062845601,
                -0.3453811978594045,
                -0.41532704184531455,
                1.0003021434348767,
                0.918642100945158,
                0.687054551294893
            ]
        },
        {
            "positions": [
                -0.5936159982664976,
                -0.3722438874381846,
                -0.2648953952506441,
                1.0577722952424025,
                0.853445928032425,
                0.6438703177148518
            ]
        },
        {
            "positions": [
                -0.5458658902484348,
                -0.3991065770169647,
                -0.11446374865597364,
                1.1152424470499283,
                0.7882497551196921,
                0.6006860841348105
            ]
        },
        {
            "positions": [
                -0.4981157822303721,
                -0.4259692665957448,
                0.03596789793869681,
                1.1727125988574538,
                0.7230535822069591,
                0.5575018505547693
            ]
        },
        {
            "positions": [
                -0.45036567421230944,
                -0.4528319561745249,
                0.18639954453336727,
                1.2301827506649796,
                0.6578574092942262,
                0.5143176169747281
            ]
        },
        {
            "positions": [
                -0.40261556619424677,
                -0.47969464575330495,
                0.3368311911280377,
                1.2876529024725052,
                0.5926612363814933,
                0.4711333833946869
            ]
        },
        {
            "positions": [
                -0.354865458176184,
                -0.5065573353320851,
                0.4872628377227082,
                1.345123054280031,
                0.5274650634687603,
                0.4279491498146455
            ]
        },
        {
            "positions": [
                -0.3071153501581213,
                -0.5334200249108652,
                0.6376944843173786,
                1.4025932060875568,
                0.46226889055602727,
                0.3847649162346043
            ]
        },
        {
            "positions": [
                -0.2593652421400586,
                -0.5602827144896453,
                0.7881261309120491,
                1.4600633578950826,
                0.39707271764329444,
                0.3415806826545631
            ]
        },
        {
            "positions": [
                -0.21161513412199595,
                -0.5871454040684254,
                0.9385577775067195,
                1.5175335097026081,
                0.3318765447305614,
                0.2983964490745219
            ]
        },
        {
            "positions": [
                -0.16386502610393305,
                -0.6140080936472057,
                1.08898942410139,
                1.575003661510134,
                0.26668037181782833,
                0.2552122154944805
            ]
        },
        {
            "positions": [
                -0.11611491808587049,
                -0.6408707832259857,
                1.2394210706960604,
                1.6324738133176597,
                0.2014841989050955,
                0.21202798191443928
            ]
        },
        {
            "positions": [
                -0.06836481006780781,
                -0.6677334728047657,
                1.389852717290731,
                1.6899439651251853,
                0.13628802599236245,
                0.16884374833439808
            ]
        },
        {
            "positions": [
                -0.020614702049745137,
                -0.6945961623835457,
                1.5402843638854014,
                1.747414116932711,
                0.07109185307962962,
                0.12565951475435688
            ]
        },
        {
            "positions": [
                0.02713540596831776,
                -0.721458851962326,
                1.6907160104800718,
                1.8048842687402369,
                0.005895680166896566,
                0.08247528117431546
            ]
        },
        {
            "positions": [
                0.07488551398638044,
                -0.748321541541106,
                1.8411476570747423,
                1.8623544205477627,
                -0.059300492745836486,
                0.039291047594274264
            ]
        },
        {
            "positions": [
                0.12263562200444314,
                -0.7751842311198861,
                1.991579303669413,
                1.9198245723552883,
                -0.12449666565856929,
                -0.0038931859857669233
            ]
        }
    ]
}