{
    "goal": {
        "global_pose": {
            "orientation": {
                "w": 0.5084816217422485,
                "x": -0.49083608388900757,
                "y": 0.5182115435600281,
                "z": -0.4816462993621826
            },
            "position": {
                "x": 0.5540239810943604,
                "y": 0.030875300988554955,
                "z": 0.16403168439865112
            }
        },
        "name": "move_to_storage_A"
    },
    "id": "RRT_move_to_storage_A_108",
    "joint_names": [
        "shoulder_pan_joint",
        "shoulder_lift_joint",
        "elbow_joint",
        "wrist_1_joint",
        "wrist_2_joint",
        "wrist_3_joint"
    ],
    "metrics": {
        "cart_traj_len": 0.3533429211672998,
        "distance_elbow_joint": 0.45037391750302724,
        "distance_shoulder_lift_joint": 0.23215731788244431,
        "distance_shoulder_pan_joint": 0.46217390298592925,
        "distance_wrist_1_joint": 0.252035940719732,
        "distance_wrist_2_joint": 1.0972708338125055,
        "distance_wrist_3_joint": 0.10618125752012952,
        "smoothness": 6.661338165333112e-16,
        "time": 0.014633301000000001,
        "traj_len": 1.6125114481527776,
        "weighted_distance": 2.0400643274162373
    },
    "planner": "RRT",
    "start": {
        "state": {
            "elbow_joint": 1.9715463870305268,
            "shoulder_lift_joint": -1.1394903361783484,
            "shoulder_pan_joint": 0.12281147578464417,
            "wrist_1_joint": -0.7804599489681411,
            "wrist_2_joint": 0.12958660307563738,
            "wrist_3_joint": -3.1924946282119055
        }
    },
    "waypoints": [
        {
            "positions": [
                0.12281147578464417,
                -1.1394903361783484,
                1.9715463870305268,
                -0.7804599489681411,
                0.12958660307563738,
                -3.1924946282119055
            ]
        },
        {
            "positions": [
                0.05678663250094,
                -1.172655667304412,
                2.0358855181023876,
                -0.8164650833566742,
                0.2863395793345667,
                -3.1773258771376014
            ]
        },
        {
            "positions": [
                -0.00923821078276417,
                -1.2058209984304753,
                2.100224649174249,
                -0.8524702177452074,
                0.44309255559349603,
                -3.1621571260632972
            ]
        },
        {
            "positions": [
                -0.07526305406646834,
                -1.2389863295565389,
                2.1645637802461097,
                -0.8884753521337405,
                0.5998455318524254,
                -3.146988374988993
            ]
        },
        {
            "positions": [
                -0.1412878973501725,
                -1.2721516606826022,
                2.228902911317971,
                -0.9244804865222737,
                0.7565985081113548,
                -3.1318196239146885
            ]
        },
        {
            "positions": [
                -0.20731274063387672,
                -1.3053169918086658,
                2.293242042389832,
                -0.9604856209108068,
                0.9133514843702841,
                -3.1166508728403843
            ]
        },
        {
            "positions": [
                -0.27333758391758084,
                -1.3384823229347291,
                2.3575811734616927,
                -0.99649075529934,
                1.0701044606292134,
                -3.10148212176608
            ]
        },
        {
            "positions": [
                -0.33936242720128507,
                -1.3716476540607927,
                2.421920304533554,
                -1.032495889687873,
                1.2268574368881429,
                -3.086313370691776
            ]
        }
    ]
}