{
    "goal": {
        "global_pose": {
            "orientation": {
                "w": 0.7031023502349854,
                "x": -0.7110244035720825,
                "y": 0.007748599164187908,
                "z": 0.005598929710686207
            },
            "position": {
                "x": 0.11585023208521307,
                "y": 0.44412534475326537,
                "z": 0.3711530566215515
            }
        },
        "name": "move_to_auspresseinheit_A"
    },
    "id": "RRT_move_to_auspresseinheit_A_49",
    "joint_names": [
        "shoulder_pan_joint",
        "shoulder_lift_joint",
        "elbow_joint",
        "wrist_1_joint",
        "wrist_2_joint",
        "wrist_3_joint"
    ],
    "metrics": {
        "cart_traj_len": 0.6827600376738977,
        "distance_elbow_joint": 0.1908093466078502,
        "distance_shoulder_lift_joint": 0.5332293107959512,
        "distance_shoulder_pan_joint": 1.0413761964082613,
        "distance_wrist_1_joint": 0.6738880740628799,
        "distance_wrist_2_joint": 0.9126615408975566,
        "distance_wrist_3_joint": 0.20945319718969246,
        "smoothness": 0.788376586982821,
        "time": 0.18207395599999998,
        "traj_len": 1.887171869746418,
        "weighted_distance": 2.359422318132558
    },
    "planner": "RRT",
    "start": {
        "state": {
            "elbow_joint": 2.422574709923281,
            "shoulder_lift_joint": -1.3736533754116391,
            "shoulder_pan_joint": -0.33786336945926293,
            "wrist_1_joint": -1.0288603412921917,
            "wrist_2_joint": 1.2330224858903978,
            "wrist_3_joint": -3.094022268022082
        }
    },
    "waypoints": [
        {
            "positions": [
                -0.33786336945926293,
                -1.3736533754116391,
                2.422574709923281,
                -1.0288603412921917,
                1.2330224858903978,
                -3.094022268022082
            ]
        },
        {
            "positions": [
                -0.28758092561164456,
                -1.402693516890907,
                2.404233703446277,
                -0.9260962981521177,
                1.1122911558420079,
                -3.0807364269043056
            ]
        },
        {
            "positions": [
                -0.23729848176402618,
                -1.4317336583701747,
                2.385892696969272,
                -0.8233322550120437,
                0.9915598257936182,
                -3.067450585786529
            ]
        },
        {
            "positions": [
                -0.1870160379164078,
                -1.4607737998494428,
                2.367551690492268,
                -0.7205682118719695,
                0.8708284957452284,
                -3.0541647446687525
            ]
        },
        {
            "positions": [
                -0.13673359406878943,
                -1.4898139413287106,
                2.349210684015264,
                -0.6178041687318955,
                0.7500971656968386,
                -3.0408789035509765
            ]
        },
        {
            "positions": [
                -0.08645115022117106,
                -1.5188540828079784,
                2.330869677538259,
                -0.5150401255918213,
                0.6293658356484487,
                -3.0275930624332
            ]
        },
        {
            "positions": [
                -0.036168706373552684,
                -1.5478942242872462,
                2.312528671061255,
                -0.41227608245174735,
                0.508634505600059,
                -3.0143072213154234
            ]
        },
        {
            "positions": [
                0.14875167695708502,
                -1.6376413397673322,
                2.332719497997711,
                -0.42660203625735627,
                0.5557028957518634,
                -3.046741758936182
            ]
        },
        {
            "positions": [
                0.3336720602877227,
                -1.7273884552474184,
                2.352910324934167,
                -0.4409279900629651,
                0.6027712859036678,
                -3.0791762965569403
            ]
        },
        {
            "positions": [
                0.5185924436183604,
                -1.8171355707275043,
                2.373101151870623,
                -0.45525394386857404,
                0.6498396760554723,
                -3.1116108341776987
            ]
        },
        {
            "positions": [
                0.7035128269489982,
                -1.9068826862075903,
                2.393291978807079,
                -0.46957989767418296,
                0.6969080662072767,
                -3.144045371798457
            ]
        }
    ]
}