{
    "goal": {
        "global_pose": {
            "orientation": {
                "w": -0.00223480608172531,
                "x": 0.0024358444001904467,
                "y": 0.7094548369677653,
                "z": -0.704743149386269
            },
            "position": {
                "x": 0.6205249238014221,
                "y": -0.6371506643295288,
                "z": 0.19426114857196808
            }
        },
        "name": "move_to_magneteinheit_B"
    },
    "id": "RRT_move_to_magneteinheit_B_29",
    "joint_names": [
        "shoulder_pan_joint",
        "shoulder_lift_joint",
        "elbow_joint",
        "wrist_1_joint",
        "wrist_2_joint",
        "wrist_3_joint"
    ],
    "metrics": {
        "cart_traj_len": 4.44263899485498,
        "distance_elbow_joint": 4.121777459748071,
        "distance_shoulder_lift_joint": 0.7201200252105733,
        "distance_shoulder_pan_joint": 2.8489845081471628,
        "distance_wrist_1_joint": 2.507425084576748,
        "distance_wrist_2_joint": 1.4296486425836856,
        "distance_wrist_3_joint": 6.272157311403781,
        "smoothness": 0.3806049488952452,
        "time": 0.7238027419999999,
        "traj_len": 4.230852518307631,
        "weighted_distance": 5.863574113255328
    },
    "planner": "RRT",
    "start": {
        "state": {
            "elbow_joint": 2.39358713078474,
            "shoulder_lift_joint": -1.908514104345545,
            "shoulder_pan_joint": 0.7066247066606129,
            "wrist_1_joint": -0.4678290933515497,
            "wrist_2_joint": 0.7096259083745334,
            "wrist_3_joint": -3.1358149277392293
        }
    },
    "waypoints": [
        {
            "positions": [
                0.7066247066606129,
                -1.908514104345545,
                2.39358713078474,
                -0.4678290933515497,
                0.7096259083745334,
                -3.1358149277392293
            ]
        },
        {
            "positions": [
                0.6247629256103646,
                -1.8949819785145252,
                2.3896787181114587,
                -0.4040605338843487,
                0.7523399962276546,
                -3.0336315883267155
            ]
        },
        {
            "positions": [
                0.5429011445601162,
                -1.8814498526835057,
                2.385770305438177,
                -0.34029197441714765,
                0.7950540840807756,
                -2.931448248914202
            ]
        },
        {
            "positions": [
                0.4610393635098678,
                -1.867917726852486,
                2.3818618927648956,
                -0.27652341494994664,
                0.8377681719338967,
                -2.8292649095016884
            ]
        },
        {
            "positions": [
                0.48658996014048883,
                -1.8662751786613165,
                2.257638284319909,
                -0.30833058130560387,
                0.8032557756114825,
                -2.658560388252258
            ]
        },
        {
            "positions": [
                0.5121405567711098,
                -1.8646326304701468,
                2.133414675874923,
                -0.34013774766126104,
                0.7687433792890682,
                -2.4878558670028275
            ]
        },
        {
            "positions": [
                0.5376911534017309,
                -1.8629900822789773,
                2.0091910674299363,
                -0.37194491401691826,
                0.734230982966654,
                -2.3171513457533974
            ]
        },
        {
            "positions": [
                0.5632417500323519,
                -1.8613475340878076,
                1.8849674589849499,
                -0.4037520803725755,
                0.6997185866442397,
                -2.1464468245039665
            ]
        },
        {
            "positions": [
                0.588792346662973,
                -1.8597049858966381,
                1.7607438505399633,
                -0.43555924672823265,
                0.6652061903218255,
                -1.9757423032545363
            ]
        },
        {
            "positions": [
                0.614342943293594,
                -1.8580624377054684,
                1.636520242094977,
                -0.4673664130838899,
                0.6306937939994113,
                -1.805037782005106
            ]
        },
        {
            "positions": [
                0.639893539924215,
                -1.856419889514299,
                1.5122966336499903,
                -0.4991735794395471,
                0.596181397676997,
                -1.6343332607556753
            ]
        },
        {
            "positions": [
                0.665444136554836,
                -1.8547773413231292,
                1.3880730252050042,
                -0.5309807457952043,
                0.5616690013545828,
                -1.463628739506245
            ]
        },
        {
            "positions": [
                0.6909947331854571,
                -1.8531347931319597,
                1.2638494167600176,
                -0.5627879121508614,
                0.5271566050321685,
                -1.2929242182568146
            ]
        },
        {
            "positions": [
                0.7165453298160782,
                -1.8514922449407902,
                1.139625808315031,
                -0.5945950785065187,
                0.49264420870975423,
                -1.122219697007384
            ]
        },
        {
            "positions": [
                0.7420959264466992,
                -1.8498496967496205,
                1.0154021998700447,
                -0.626402244862176,
                0.45813181238733997,
                -0.9515151757579536
            ]
        },
        {
            "positions": [
                0.7676465230773202,
                -1.848207148558451,
                0.8911785914250583,
                -0.6582094112178332,
                0.42361941606492576,
                -0.7808106545085236
            ]
        },
        {
            "positions": [
                0.7931971197079413,
                -1.8465646003672813,
                0.7669549829800719,
                -0.6900165775734903,
                0.3891070197425115,
                -0.6101061332590931
            ]
        },
        {
            "positions": [
                0.8187477163385622,
                -1.8449220521761118,
                0.6427313745350853,
                -0.7218237439291475,
                0.35459462342009723,
                -0.4394016120096622
            ]
        },
        {
            "positions": [
                0.8442983129691832,
                -1.8432795039849421,
                0.518507766090099,
                -0.7536309102848047,
                0.32008222709768297,
                -0.26869709076023174
            ]
        },
        {
            "positions": [
                0.8698489095998043,
                -1.8416369557937726,
                0.3942841576451126,
                -0.7854380766404618,
                0.28556983077526876,
                -0.09799256951080171
            ]
        },
        {
            "positions": [
                0.8953995062304254,
                -1.839994407602603,
                0.27006054920012623,
                -0.8172452429961192,
                0.25105743445285456,
                0.07271195173862877
            ]
        },
        {
            "positions": [
                0.9209501028610464,
                -1.8383518594114334,
                0.14583694075513975,
                -0.8490524093517764,
                0.21654503813044024,
                0.24341647298805907
            ]
        },
        {
            "positions": [
                1.0288475676878786,
                -1.847631130886512,
                0.08383973368464748,
                -0.9115978572129019,
                0.19257969064288963,
                0.3728272246257872
            ]
        },
        {
            "positions": [
                1.1367450325147106,
                -1.8569104023615908,
                0.0218425266141552,
                -0.9741433050740274,
                0.16861434315533902,
                0.5022379762635154
            ]
        },
        {
            "positions": [
                1.2446424973415426,
                -1.8661896738366692,
                -0.04015468045633708,
                -1.0366887529351527,
                0.14464899566778844,
                0.6316487279012435
            ]
        },
        {
            "positions": [
                1.3525399621683747,
                -1.875468945311748,
                -0.10215188752682935,
                -1.0992342007962783,
                0.12068364818023782,
                0.7610594795389716
            ]
        },
        {
            "positions": [
                1.4604374269952067,
                -1.8847482167868266,
                -0.16414909459732163,
                -1.161779648657404,
                0.0967183006926872,
                0.8904702311766997
            ]
        },
        {
            "positions": [
                1.5683348918220388,
                -1.8940274882619053,
                -0.2261463016678139,
                -1.2243250965185293,
                0.07275295320513661,
                1.0198809828144277
            ]
        },
        {
            "positions": [
                1.676232356648871,
                -1.9033067597369837,
                -0.2881435087383062,
                -1.2868705443796546,
                0.048787605717586,
                1.149291734452156
            ]
        },
        {
            "positions": [
                1.7841298214757029,
                -1.9125860312120624,
                -0.35014071580879846,
                -1.3494159922407802,
                0.024822258230035393,
                1.2787024860898841
            ]
        },
        {
            "positions": [
                1.8920272863025351,
                -1.921865302687141,
                -0.41213792287929074,
                -1.4119614401019058,
                0.0008569107424847844,
                1.4081132377276122
            ]
        },
        {
            "positions": [
                1.9999247511293672,
                -1.9311445741622197,
                -0.474135129949783,
                -1.4745068879630312,
                -0.023108436745065825,
                1.5375239893653403
            ]
        },
        {
            "positions": [
                2.1078222159561992,
                -1.9404238456372984,
                -0.5361323370202753,
                -1.5370523358241568,
                -0.047073784232616434,
                1.6669347410030686
            ]
        },
        {
            "positions": [
                2.2157196807830313,
                -1.9497031171123769,
                -0.5981295440907676,
                -1.5995977836852822,
                -0.07103913172016701,
                1.7963454926407965
            ]
        },
        {
            "positions": [
                2.3236171456098633,
                -1.9589823885874555,
                -0.6601267511612599,
                -1.6621432315464078,
                -0.09500447920771765,
                1.9257562442785248
            ]
        },
        {
            "positions": [
                2.4315146104366954,
                -1.9682616600625342,
                -0.7221239582317521,
                -1.7246886794075331,
                -0.11896982669526823,
                2.055166995916253
            ]
        },
        {
            "positions": [
                2.5394120752635274,
                -1.977540931537613,
                -0.7841211653022444,
                -1.7872341272686585,
                -0.14293517418281887,
                2.1845777475539814
            ]
        },
        {
            "positions": [
                2.6473095400903595,
                -1.9868202030126914,
                -0.8461183723727367,
                -1.849779575129784,
                -0.16690052167036945,
                2.3139884991917095
            ]
        },
        {
            "positions": [
                2.7552070049171915,
                -1.99609947448777,
                -0.9081155794432288,
                -1.9123250229909095,
                -0.19086586915792003,
                2.4433992508294375
            ]
        },
        {
            "positions": [
                2.8631044697440236,
                -2.0053787459628487,
                -0.9701127865137212,
                -1.974870470852035,
                -0.21483121664547067,
                2.5728100024671656
            ]
        },
        {
            "positions": [
                2.838541298803809,
                -1.975336664250194,
                -1.1138745730495023,
                -2.083840957028058,
                -0.26334008979789014,
                2.5814777505273394
            ]
        },
        {
            "positions": [
                2.813978127863594,
                -1.9452945825375392,
                -1.2576363595852835,
                -2.1928114432040813,
                -0.31184896295030956,
                2.590145498587513
            ]
        },
        {
            "positions": [
                2.7894149569233795,
                -1.9152525008248844,
                -1.4013981461210645,
                -2.3017819293801045,
                -0.360357836102729,
                2.5988132466476865
            ]
        },
        {
            "positions": [
                2.7648517859831645,
                -1.8852104191122296,
                -1.545159932656846,
                -2.4107524155561277,
                -0.40886670925514845,
                2.6074809947078603
            ]
        },
        {
            "positions": [
                2.74028861504295,
                -1.8551683373995749,
                -1.688921719192627,
                -2.519722901732151,
                -0.4573755824075679,
                2.616148742768034
            ]
        },
        {
            "positions": [
                2.7141158803558874,
                -1.9660751657868325,
                -1.6758321826023914,
                -2.495416261934504,
                -0.4594964573018536,
                2.7895466230668733
            ]
        },
        {
            "positions": [
                2.6879431456688243,
                -2.07698199417409,
                -1.6627426460121562,
                -2.4711096221368574,
                -0.4616173321961394,
                2.9629445033657125
            ]
        },
        {
            "positions": [
                2.6617704109817617,
                -2.1878888225613475,
                -1.6496531094219207,
                -2.4468029823392103,
                -0.46373820709042507,
                3.1363423836645516
            ]
        }
    ]
}