{
    "goal": {
        "global_pose": {
            "orientation": {
                "w": -0.00223480608172531,
                "x": 0.0024358444001904467,
                "y": 0.7094548369677653,
                "z": -0.704743149386269
            },
            "position": {
                "x": 0.6205249238014221,
                "y": -0.6371506643295288,
                "z": 0.19426114857196808
            }
        },
        "name": "move_to_magneteinheit_B"
    },
    "id": "RRT_move_to_magneteinheit_B_95",
    "joint_names": [
        "shoulder_pan_joint",
        "shoulder_lift_joint",
        "elbow_joint",
        "wrist_1_joint",
        "wrist_2_joint",
        "wrist_3_joint"
    ],
    "metrics": {
        "cart_traj_len": 1.4525882370998706,
        "distance_elbow_joint": 0.7307204025116729,
        "distance_shoulder_lift_joint": 1.2479362018461706,
        "distance_shoulder_pan_joint": 1.6203815844185696,
        "distance_wrist_1_joint": 2.6065293505881195,
        "distance_wrist_2_joint": 2.9422161572801557,
        "distance_wrist_3_joint": 3.1278126822851773,
        "smoothness": 3.0531133340659197e-16,
        "time": 4.589650319,
        "traj_len": 3.5036547174243444,
        "weighted_distance": 4.907134321716544
    },
    "planner": "RRT",
    "start": {
        "state": {
            "elbow_joint": 2.39358713078474,
            "shoulder_lift_joint": -1.908514104345545,
            "shoulder_pan_joint": 0.7066247066606129,
            "wrist_1_joint": -0.4678290933515497,
            "wrist_2_joint": 0.7096259083745334,
            "wrist_3_joint": -3.1358149277392293
        }
    },
    "waypoints": [
        {
            "positions": [
                0.7066247066606129,
                -1.908514104345545,
                2.39358713078474,
                -0.4678290933515497,
                0.7096259083745334,
                -3.1358149277392293
            ]
        },
        {
            "positions": [
                0.6543543329696914,
                -1.8682580978343781,
                2.3700155048972666,
                -0.38374750139709424,
                0.6147157097525929,
                -3.0349177444397073
            ]
        },
        {
            "positions": [
                0.6020839592787698,
                -1.8280020913232113,
                2.3464438790097932,
                -0.29966590944263877,
                0.5198055111306524,
                -2.9340205611401857
            ]
        },
        {
            "positions": [
                0.5498135855878481,
                -1.7877460848120446,
                2.3228722531223203,
                -0.2155843174881833,
                0.42489531250871193,
                -2.8331233778406637
            ]
        },
        {
            "positions": [
                0.4975432118969265,
                -1.7474900783008778,
                2.299300627234847,
                -0.13150272553372783,
                0.32998511388677143,
                -2.732226194541142
            ]
        },
        {
            "positions": [
                0.44527283820600494,
                -1.707234071789711,
                2.2757290013473734,
                -0.047421133579272357,
                0.23507491526483093,
                -2.63132901124162
            ]
        },
        {
            "positions": [
                0.39300246451508336,
                -1.6669780652785442,
                2.2521573754599,
                0.036660458375183114,
                0.14016471664289043,
                -2.530431827942098
            ]
        },
        {
            "positions": [
                0.3407320908241617,
                -1.6267220587673774,
                2.228585749572427,
                0.12074205032963853,
                0.04525451802094993,
                -2.4295346446425765
            ]
        },
        {
            "positions": [
                0.28846171713324015,
                -1.5864660522562106,
                2.2050141236849536,
                0.20482364228409405,
                -0.04965568060099057,
                -2.3286374613430545
            ]
        },
        {
            "positions": [
                0.2361913434423185,
                -1.5462100457450436,
                2.1814424977974802,
                0.2889052342385496,
                -0.14456587922293118,
                -2.2277402780435325
            ]
        },
        {
            "positions": [
                0.18392096975139693,
                -1.505954039233877,
                2.157870871910007,
                0.372986826193005,
                -0.23947607784487157,
                -2.126843094744011
            ]
        },
        {
            "positions": [
                0.13165059606047536,
                -1.46569803272271,
                2.1342992460225334,
                0.4570684181474605,
                -0.3343862764668123,
                -2.025945911444489
            ]
        },
        {
            "positions": [
                0.07938022236955378,
                -1.4254420262115435,
                2.1107276201350604,
                0.541150010101916,
                -0.42929647508875257,
                -1.925048728144967
            ]
        },
        {
            "positions": [
                0.027109848678632087,
                -1.3851860197003765,
                2.087155994247587,
                0.6252316020563715,
                -0.5242066737106933,
                -1.8241515448454453
            ]
        },
        {
            "positions": [
                -0.025160525012289492,
                -1.34493001318921,
                2.0635843683601136,
                0.7093131940108268,
                -0.6191168723326336,
                -1.7232543615459235
            ]
        },
        {
            "positions": [
                -0.07743089870321107,
                -1.304674006678043,
                2.04001274247264,
                0.7933947859652823,
                -0.7140270709545743,
                -1.6223571782464015
            ]
        },
        {
            "positions": [
                -0.12970127239413265,
                -1.2644180001668763,
                2.016441116585167,
                0.8774763779197379,
                -0.8089372695765146,
                -1.52145999494688
            ]
        },
        {
            "positions": [
                -0.18197164608505423,
                -1.2241619936557093,
                1.9928694906976936,
                0.9615579698741932,
                -0.9038474681984551,
                -1.420562811647358
            ]
        },
        {
            "positions": [
                -0.23424201977597592,
                -1.1839059871445425,
                1.9692978648102204,
                1.045639561828649,
                -0.9987576668203958,
                -1.3196656283478359
            ]
        },
        {
            "positions": [
                -0.2865123934668975,
                -1.1436499806333758,
                1.945726238922747,
                1.1297211537831042,
                -1.0936678654423364,
                -1.2187684450483143
            ]
        },
        {
            "positions": [
                -0.3387827671578191,
                -1.1033939741222092,
                1.9221546130352736,
                1.2138027457375598,
                -1.1885780640642767,
                -1.1178712617487925
            ]
        },
        {
            "positions": [
                -0.39105314084874065,
                -1.0631379676110422,
                1.8985829871478004,
                1.297884337692015,
                -1.283488262686217,
                -1.0169740784492705
            ]
        },
        {
            "positions": [
                -0.44332351453966223,
                -1.0228819610998754,
                1.875011361260327,
                1.3819659296464708,
                -1.3783984613081581,
                -0.9160768951497484
            ]
        },
        {
            "positions": [
                -0.4955938882305838,
                -0.9826259545887086,
                1.8514397353728538,
                1.466047521600926,
                -1.4733086599300984,
                -0.8151797118502269
            ]
        },
        {
            "positions": [
                -0.5478642619215054,
                -0.9423699480775419,
                1.8278681094853804,
                1.5501291135553816,
                -1.5682188585520387,
                -0.7142825285507048
            ]
        },
        {
            "positions": [
                -0.600134635612427,
                -0.902113941566375,
                1.804296483597907,
                1.6342107055098367,
                -1.6631290571739794,
                -0.6133853452511833
            ]
        },
        {
            "positions": [
                -0.6524050093033488,
                -0.8618579350552082,
                1.7807248577104338,
                1.7182922974642927,
                -1.7580392557959201,
                -0.5124881619516612
            ]
        },
        {
            "positions": [
                -0.7046753829942703,
                -0.8216019285440415,
                1.7571532318229606,
                1.8023738894187482,
                -1.8529494544178604,
                -0.41159097865213923
            ]
        },
        {
            "positions": [
                -0.7569457566851919,
                -0.7813459220328747,
                1.7335816059354872,
                1.8864554813732033,
                -1.9478596530398007,
                -0.31069379535261765
            ]
        },
        {
            "positions": [
                -0.8092161303761133,
                -0.7410899155217079,
                1.7100099800480137,
                1.9705370733276588,
                -2.0427698516617414,
                -0.20979661205309608
            ]
        },
        {
            "positions": [
                -0.8614865040670351,
                -0.7008339090105411,
                1.6864383541605403,
                2.0546186652821143,
                -2.137680050283682,
                -0.10889942875357361
            ]
        },
        {
            "positions": [
                -0.9137568777579568,
                -0.6605779024993743,
                1.6628667282730671,
                2.13870025723657,
                -2.2325902489056224,
                -0.008002245454052023
            ]
        }
    ]
}