{
    "goal": {
        "global_pose": {
            "orientation": {
                "w": 0.5084816217422485,
                "x": -0.49083608388900757,
                "y": 0.5182115435600281,
                "z": -0.4816462993621826
            },
            "position": {
                "x": 0.5540239810943604,
                "y": 0.030875300988554955,
                "z": 0.16403168439865112
            }
        },
        "name": "move_to_storage_A"
    },
    "id": "RRT_move_to_storage_A_31",
    "joint_names": [
        "shoulder_pan_joint",
        "shoulder_lift_joint",
        "elbow_joint",
        "wrist_1_joint",
        "wrist_2_joint",
        "wrist_3_joint"
    ],
    "metrics": {
        "cart_traj_len": 0.35322507995524355,
        "distance_elbow_joint": 0.4487908303079493,
        "distance_shoulder_lift_joint": 0.2333215376574942,
        "distance_shoulder_pan_joint": 0.46011329542504226,
        "distance_wrist_1_joint": 0.24351851069913166,
        "distance_wrist_2_joint": 1.1057234522939356,
        "distance_wrist_3_joint": 0.09542846487541912,
        "smoothness": 1.7763568464331194e-15,
        "time": 0.013062928000000001,
        "traj_len": 1.6083830673253718,
        "weighted_distance": 2.0315006729023937
    },
    "planner": "RRT",
    "start": {
        "state": {
            "elbow_joint": 1.9715463870305268,
            "shoulder_lift_joint": -1.1394903361783484,
            "shoulder_pan_joint": 0.12281147578464417,
            "wrist_1_joint": -0.7804599489681411,
            "wrist_2_joint": 0.12958660307563738,
            "wrist_3_joint": -3.1924946282119055
        }
    },
    "waypoints": [
        {
            "positions": [
                0.12281147578464417,
                -1.1394903361783484,
                1.9715463870305268,
                -0.7804599489681411,
                0.12958660307563738,
                -3.1924946282119055
            ]
        },
        {
            "positions": [
                0.05708100500963814,
                -1.1728219844151333,
                2.035659362788805,
                -0.8152483076394456,
                0.28754709626048536,
                -3.17886199037256
            ]
        },
        {
            "positions": [
                -0.00864946576536789,
                -1.2061536326519182,
                2.099772338547084,
                -0.8500366663107501,
                0.4455075894453333,
                -3.1652293525332142
            ]
        },
        {
            "positions": [
                -0.07437993654037393,
                -1.2394852808887031,
                2.1638853143053622,
                -0.8848250249820546,
                0.6034680826301813,
                -3.1515967146938686
            ]
        },
        {
            "positions": [
                -0.14011040731537994,
                -1.2728169291254878,
                2.2279982900636406,
                -0.9196133836533592,
                0.7614285758150292,
                -3.1379640768545234
            ]
        },
        {
            "positions": [
                -0.20584087809038598,
                -1.3061485773622727,
                2.2921112658219194,
                -0.9544017423246637,
                0.9193890689998772,
                -3.1243314390151777
            ]
        },
        {
            "positions": [
                -0.271571348865392,
                -1.3394802255990577,
                2.3562242415801977,
                -0.9891901009959683,
                1.077349562184725,
                -3.110698801175832
            ]
        },
        {
            "positions": [
                -0.33730181964039807,
                -1.3728118738358426,
                2.420337217338476,
                -1.0239784596672727,
                1.235310055369573,
                -3.0970661633364864
            ]
        }
    ]
}