{
    "goal": {
        "global_pose": {
            "orientation": {
                "w": 0.7047431468963623,
                "x": -0.7094548344612122,
                "y": 0.0024358443915843964,
                "z": -0.0022348060738295317
            },
            "position": {
                "x": 0.6094750761985779,
                "y": 0.3671506643295288,
                "z": 0.19426114857196808
            }
        },
        "name": "move_to_magneteinheit_A"
    },
    "id": "RRT_move_to_magneteinheit_A_22",
    "joint_names": [
        "shoulder_pan_joint",
        "shoulder_lift_joint",
        "elbow_joint",
        "wrist_1_joint",
        "wrist_2_joint",
        "wrist_3_joint"
    ],
    "metrics": {
        "cart_traj_len": 2.064954524346147,
        "distance_elbow_joint": 3.8811100831578162,
        "distance_shoulder_lift_joint": 1.05706569382693,
        "distance_shoulder_pan_joint": 1.2415094821703776,
        "distance_wrist_1_joint": 1.1672690408611186,
        "distance_wrist_2_joint": 1.4428869494373195,
        "distance_wrist_3_joint": 1.9287099874985536,
        "smoothness": 4.2877579055425215e-16,
        "time": 4.451243749,
        "traj_len": 3.2739198580527464,
        "weighted_distance": 4.145615418999651
    },
    "planner": "RRT",
    "start": {
        "state": {
            "elbow_joint": -1.919643507792019,
            "shoulder_lift_joint": -0.07675430207160344,
            "shoulder_pan_joint": -1.1188671864651873,
            "wrist_1_joint": 0.42560062535961957,
            "wrist_2_joint": 1.5706038300724876,
            "wrist_3_joint": 1.1188968870953055
        }
    },
    "waypoints": [
        {
            "positions": [
                -1.1188671864651873,
                -0.07675430207160344,
                -1.919643507792019,
                0.42560062535961957,
                1.5706038300724876,
                1.1188968870953055
            ]
        },
        {
            "positions": [
                -1.0745275621019597,
                -0.11450664827970808,
                -1.7810324333935257,
                0.3839124453288653,
                1.519072153306869,
                1.1877793866488253
            ]
        },
        {
            "positions": [
                -1.0301879377387317,
                -0.15225899448781272,
                -1.6424213589950323,
                0.3422242652981111,
                1.4675404765412505,
                1.256661886202345
            ]
        },
        {
            "positions": [
                -0.985848313375504,
                -0.19001134069591735,
                -1.5038102845965389,
                0.30053608526735687,
                1.4160087997756319,
                1.3255443857558649
            ]
        },
        {
            "positions": [
                -0.9415086890122762,
                -0.22776368690402202,
                -1.3651992101980452,
                0.2588479052366026,
                1.3644771230100134,
                1.3944268853093846
            ]
        },
        {
            "positions": [
                -0.8971690646490484,
                -0.2655160331121267,
                -1.2265881357995518,
                0.2171597252058484,
                1.3129454462443948,
                1.4633093848629044
            ]
        },
        {
            "positions": [
                -0.8528294402858208,
                -0.3032683793202313,
                -1.0879770614010584,
                0.17547154517509417,
                1.2614137694787764,
                1.5321918844164242
            ]
        },
        {
            "positions": [
                -0.808489815922593,
                -0.34102072552833596,
                -0.949365987002565,
                0.13378336514433992,
                1.2098820927131577,
                1.601074383969944
            ]
        },
        {
            "positions": [
                -0.7641501915593651,
                -0.3787730717364406,
                -0.8107549126040716,
                0.09209518511358572,
                1.158350415947539,
                1.6699568835234637
            ]
        },
        {
            "positions": [
                -0.7198105671961375,
                -0.4165254179445453,
                -0.672143838205578,
                0.05040700508283141,
                1.1068187391819206,
                1.7388393830769835
            ]
        },
        {
            "positions": [
                -0.6754709428329096,
                -0.4542777641526499,
                -0.5335327638070846,
                0.008718825052077217,
                1.055287062416302,
                1.8077218826305033
            ]
        },
        {
            "positions": [
                -0.6311313184696818,
                -0.4920301103607545,
                -0.3949216894085914,
                -0.032969354978677035,
                1.0037553856506836,
                1.876604382184023
            ]
        },
        {
            "positions": [
                -0.5867916941064542,
                -0.5297824565688591,
                -0.256310615010098,
                -0.07465753500943123,
                0.952223708885065,
                1.9454868817375428
            ]
        },
        {
            "positions": [
                -0.5424520697432264,
                -0.5675348027769638,
                -0.11769954061160437,
                -0.11634571504018548,
                0.9006920321194464,
                2.0143693812910626
            ]
        },
        {
            "positions": [
                -0.49811244537999855,
                -0.6052871489850684,
                0.020911533786889036,
                -0.15803389507093973,
                0.8491603553538278,
                2.0832518808445823
            ]
        },
        {
            "positions": [
                -0.45377282101677074,
                -0.643039495193173,
                0.15952260818538222,
                -0.19972207510169399,
                0.7976286785882093,
                2.152134380398102
            ]
        },
        {
            "positions": [
                -0.40943319665354305,
                -0.6807918414012777,
                0.29813368258387585,
                -0.24141025513244813,
                0.7460970018225908,
                2.221016879951622
            ]
        },
        {
            "positions": [
                -0.36509357229031525,
                -0.7185441876093823,
                0.43674475698236903,
                -0.2830984351632024,
                0.6945653250569722,
                2.2898993795051417
            ]
        },
        {
            "positions": [
                -0.32075394792708745,
                -0.7562965338174872,
                0.5753558313808631,
                -0.32478661519395674,
                0.6430336482913536,
                2.3587818790586614
            ]
        },
        {
            "positions": [
                -0.27641432356385964,
                -0.7940488800255918,
                0.7139669057793563,
                -0.366474795224711,
                0.591501971525735,
                2.427664378612181
            ]
        },
        {
            "positions": [
                -0.23207469920063195,
                -0.8318012262336965,
                0.8525779801778499,
                -0.40816297525546513,
                0.5399702947601164,
                2.496546878165701
            ]
        },
        {
            "positions": [
                -0.18773507483740415,
                -0.8695535724418011,
                0.9911890545763431,
                -0.4498511552862194,
                0.48843861799449795,
                2.5654293777192207
            ]
        },
        {
            "positions": [
                -0.14339545047417634,
                -0.9073059186499055,
                1.1298001289748363,
                -0.49153933531697364,
                0.4369069412288795,
                2.6343118772727405
            ]
        },
        {
            "positions": [
                -0.09905582611094865,
                -0.9450582648580101,
                1.26841120337333,
                -0.5332275153477277,
                0.38537526446326087,
                2.7031943768262603
            ]
        },
        {
            "positions": [
                -0.05471620174772096,
                -0.9828106110661148,
                1.407022277771823,
                -0.574915695378482,
                0.33384358769764244,
                2.77207687637978
            ]
        },
        {
            "positions": [
                -0.010376577384493046,
                -1.0205629572742196,
                1.5456333521703172,
                -0.6166038754092362,
                0.28231191093202357,
                2.8409593759333
            ]
        },
        {
            "positions": [
                0.033963046978734646,
                -1.0583153034823243,
                1.6842444265688103,
                -0.6582920554399905,
                0.23078023416640514,
                2.9098418754868196
            ]
        },
        {
            "positions": [
                0.07830267134196256,
                -1.096067649690429,
                1.822855500967304,
                -0.6999802354707447,
                0.1792485574007865,
                2.9787243750403394
            ]
        },
        {
            "positions": [
                0.12264229570519035,
                -1.1338199958985336,
                1.961466575365797,
                -0.7416684155014991,
                0.12771688063516795,
                3.047606874593859
            ]
        }
    ]
}