{
    "goal": {
        "global_pose": {
            "orientation": {
                "w": 0.5084816217422485,
                "x": -0.49083608388900757,
                "y": 0.5182115435600281,
                "z": -0.4816462993621826
            },
            "position": {
                "x": 0.5540239810943604,
                "y": 0.030875300988554955,
                "z": 0.16403168439865112
            }
        },
        "name": "move_to_storage_A"
    },
    "id": "RRT_move_to_storage_A_95",
    "joint_names": [
        "shoulder_pan_joint",
        "shoulder_lift_joint",
        "elbow_joint",
        "wrist_1_joint",
        "wrist_2_joint",
        "wrist_3_joint"
    ],
    "metrics": {
        "cart_traj_len": 0.3530344115616713,
        "distance_elbow_joint": 0.45193580494138175,
        "distance_shoulder_lift_joint": 0.23474814425926782,
        "distance_shoulder_pan_joint": 0.4622445075756629,
        "distance_wrist_1_joint": 0.2529268645373638,
        "distance_wrist_2_joint": 1.0962715796955547,
        "distance_wrist_3_joint": 0.09008416589841328,
        "smoothness": 4.440892098500626e-16,
        "time": 0.030497492,
        "traj_len": 1.608791803468567,
        "weighted_distance": 2.029181569731351
    },
    "planner": "RRT",
    "start": {
        "state": {
            "elbow_joint": 1.9715463870305268,
            "shoulder_lift_joint": -1.1394903361783484,
            "shoulder_pan_joint": 0.12281147578464417,
            "wrist_1_joint": -0.7804599489681411,
            "wrist_2_joint": 0.12958660307563738,
            "wrist_3_joint": -3.1924946282119055
        }
    },
    "waypoints": [
        {
            "positions": [
                0.12281147578464417,
                -1.1394903361783484,
                1.9715463870305268,
                -0.7804599489681411,
                0.12958660307563738,
                -3.1924946282119055
            ]
        },
        {
            "positions": [
                0.056776546130978045,
                -1.1730257853582438,
                2.0361086448792958,
                -0.8165923581877644,
                0.28619682874643093,
                -3.1796254616549895
            ]
        },
        {
            "positions": [
                -0.009258383522688082,
                -1.2065612345381391,
                2.1006709027280643,
                -0.8527247674073879,
                0.44280705441722445,
                -3.166756295098073
            ]
        },
        {
            "positions": [
                -0.0752933131763542,
                -1.2400966837180345,
                2.1652331605768333,
                -0.8888571766270112,
                0.599417280088018,
                -3.153887128541157
            ]
        },
        {
            "positions": [
                -0.14132824283002032,
                -1.27363213289793,
                2.229795418425602,
                -0.9249895858466347,
                0.7560275057588115,
                -3.141017961984241
            ]
        },
        {
            "positions": [
                -0.20736317248368646,
                -1.3071675820778255,
                2.294357676274371,
                -0.9611219950662581,
                0.912637731429605,
                -3.128148795427325
            ]
        },
        {
            "positions": [
                -0.27339810213735255,
                -1.3407030312577208,
                2.3589199341231395,
                -0.9972544042858815,
                1.0692479571003985,
                -3.1152796288704083
            ]
        },
        {
            "positions": [
                -0.3394330317910187,
                -1.3742384804376162,
                2.4234821919719085,
                -1.0333868135055049,
                1.225858182771192,
                -3.1024104623134923
            ]
        }
    ]
}