{
    "goal": {
        "global_pose": {
            "orientation": {
                "w": 0.7047431468963623,
                "x": -0.7094548344612122,
                "y": 0.0024358443915843964,
                "z": -0.0022348060738295317
            },
            "position": {
                "x": 0.6094750761985779,
                "y": 0.3671506643295288,
                "z": 0.19426114857196808
            }
        },
        "name": "move_to_magneteinheit_A"
    },
    "id": "RRT_move_to_magneteinheit_A_86",
    "joint_names": [
        "shoulder_pan_joint",
        "shoulder_lift_joint",
        "elbow_joint",
        "wrist_1_joint",
        "wrist_2_joint",
        "wrist_3_joint"
    ],
    "metrics": {
        "cart_traj_len": 1.8755687432660746,
        "distance_elbow_joint": 3.9239309678227325,
        "distance_shoulder_lift_joint": 0.7043713520848133,
        "distance_shoulder_pan_joint": 1.2422705428286935,
        "distance_wrist_1_joint": 1.5222314651557798,
        "distance_wrist_2_joint": 1.709534382736948,
        "distance_wrist_3_joint": 1.1424834409185984,
        "smoothness": 9.539694166665506e-16,
        "time": 0.21215562500000001,
        "traj_len": 3.200753372496476,
        "weighted_distance": 3.9700824778935626
    },
    "planner": "RRT",
    "start": {
        "state": {
            "elbow_joint": -1.919643507792019,
            "shoulder_lift_joint": -0.07675430207160344,
            "shoulder_pan_joint": -1.1188671864651873,
            "wrist_1_joint": 0.42560062535961957,
            "wrist_2_joint": 1.5706038300724876,
            "wrist_3_joint": 1.1188968870953055
        }
    },
    "waypoints": [
        {
            "positions": [
                -1.1188671864651873,
                -0.07675430207160344,
                -1.919643507792019,
                0.42560062535961957,
                1.5706038300724876,
                1.1188968870953055
            ]
        },
        {
            "positions": [
                -1.0710875502025452,
                -0.10384550792101935,
                -1.7687230859526832,
                0.48414798940407267,
                1.504852507659528,
                1.074955216290744
            ]
        },
        {
            "positions": [
                -1.0233079139399033,
                -0.13093671377043525,
                -1.6178026641133474,
                0.5426953534485257,
                1.4391011852465685,
                1.0310135454861826
            ]
        },
        {
            "positions": [
                -0.9755282776772611,
                -0.15802791961985113,
                -1.4668822422740115,
                0.6012427174929788,
                1.373349862833609,
                0.9870718746816212
            ]
        },
        {
            "positions": [
                -0.9277486414146191,
                -0.18511912546926707,
                -1.3159618204346755,
                0.6597900815374318,
                1.3075985404206494,
                0.9431302038770596
            ]
        },
        {
            "positions": [
                -0.8799690051519771,
                -0.21221033131868294,
                -1.1650413985953398,
                0.718337445581885,
                1.2418472180076898,
                0.8991885330724981
            ]
        },
        {
            "positions": [
                -0.8321893688893349,
                -0.23930153716809885,
                -1.0141209767560038,
                0.776884809626338,
                1.1760958955947303,
                0.8552468622679367
            ]
        },
        {
            "positions": [
                -0.784409732626693,
                -0.2663927430175147,
                -0.8632005549166681,
                0.835432173670791,
                1.110344573181771,
                0.8113051914633752
            ]
        },
        {
            "positions": [
                -0.7366300963640509,
                -0.29348394886693063,
                -0.7122801330773321,
                0.8939795377152442,
                1.0445932507688114,
                0.7673635206588136
            ]
        },
        {
            "positions": [
                -0.6888504601014088,
                -0.32057515471634657,
                -0.5613597112379962,
                0.9525269017596971,
                0.9788419283558518,
                0.7234218498542522
            ]
        },
        {
            "positions": [
                -0.6410708238387668,
                -0.34766636056576244,
                -0.41043928939866037,
                1.0110742658041503,
                0.9130906059428922,
                0.6794801790496907
            ]
        },
        {
            "positions": [
                -0.5932911875761248,
                -0.3747575664151783,
                -0.2595188675593245,
                1.0696216298486032,
                0.8473392835299327,
                0.6355385082451293
            ]
        },
        {
            "positions": [
                -0.5455115513134826,
                -0.40184877226459426,
                -0.10859844571998867,
                1.1281689938930564,
                0.781587961116973,
                0.5915968374405678
            ]
        },
        {
            "positions": [
                -0.4977319150508406,
                -0.42893997811401013,
                0.04232197611934718,
                1.1867163579375095,
                0.7158366387040136,
                0.5476551666360063
            ]
        },
        {
            "positions": [
                -0.44995227878819855,
                -0.456031183963426,
                0.1932423979586828,
                1.2452637219819624,
                0.6500853162910541,
                0.5037134958314449
            ]
        },
        {
            "positions": [
                -0.4021726425255565,
                -0.4831223898128419,
                0.3441628197980189,
                1.3038110860264156,
                0.5843339938780946,
                0.4597718250268834
            ]
        },
        {
            "positions": [
                -0.35439300626291437,
                -0.5102135956622579,
                0.49508324163735495,
                1.3623584500708688,
                0.5185826714651349,
                0.41583015422232184
            ]
        },
        {
            "positions": [
                -0.30661337000027233,
                -0.5373048015116737,
                0.6460036634766906,
                1.4209058141153217,
                0.45283134905217537,
                0.3718884834177604
            ]
        },
        {
            "positions": [
                -0.2588337337376303,
                -0.5643960073610896,
                0.7969240853160267,
                1.4794531781597748,
                0.38708002663921603,
                0.3279468126131989
            ]
        },
        {
            "positions": [
                -0.21105409747498827,
                -0.5914872132105056,
                0.9478445071553623,
                1.5380005422042278,
                0.3213287042262565,
                0.28400514180863756
            ]
        },
        {
            "positions": [
                -0.16327446121234612,
                -0.6185784190599215,
                1.0987649289946984,
                1.5965479062486811,
                0.2555773818132967,
                0.24006347100407588
            ]
        },
        {
            "positions": [
                -0.11549482494970409,
                -0.6456696249093374,
                1.249685350834034,
                1.655095270293134,
                0.18982605940033714,
                0.19612180019951453
            ]
        },
        {
            "positions": [
                -0.06771518868706217,
                -0.6727608307587531,
                1.40060577267337,
                1.713642634337587,
                0.12407473698737781,
                0.15218012939495307
            ]
        },
        {
            "positions": [
                -0.019935552424420022,
                -0.6998520366081691,
                1.5515261945127057,
                1.7721899983820402,
                0.05832341457441825,
                0.1082384585903915
            ]
        },
        {
            "positions": [
                0.027844083838222122,
                -0.726943242457585,
                1.7024466163520418,
                1.8307373624264933,
                -0.007427907838541525,
                0.06429678778583003
            ]
        },
        {
            "positions": [
                0.07562372010086427,
                -0.754034448307001,
                1.8533670381913778,
                1.8892847264709465,
                -0.07317923025150086,
                0.020355116981268573
            ]
        },
        {
            "positions": [
                0.12340335636350618,
                -0.7811256541564168,
                2.0042874600307137,
                1.9478320905153994,
                -0.13893055266446033,
                -0.023586553823292923
            ]
        }
    ]
}