{
    "goal": {
        "global_pose": {
            "orientation": {
                "w": 0.7047431468963623,
                "x": -0.7094548344612122,
                "y": 0.0024358443915843964,
                "z": -0.0022348060738295317
            },
            "position": {
                "x": 0.6094750761985779,
                "y": 0.3671506643295288,
                "z": 0.19426114857196808
            }
        },
        "name": "move_to_magneteinheit_A"
    },
    "id": "RRT_move_to_magneteinheit_A_108",
    "joint_names": [
        "shoulder_pan_joint",
        "shoulder_lift_joint",
        "elbow_joint",
        "wrist_1_joint",
        "wrist_2_joint",
        "wrist_3_joint"
    ],
    "metrics": {
        "cart_traj_len": 2.2373860070344,
        "distance_elbow_joint": 4.286858775133838,
        "distance_shoulder_lift_joint": 1.0708945341740208,
        "distance_shoulder_pan_joint": 1.2407388373183983,
        "distance_wrist_1_joint": 1.4311504175915426,
        "distance_wrist_2_joint": 1.4357254698490973,
        "distance_wrist_3_joint": 4.365579835695536,
        "smoothness": 0.27187114478278,
        "time": 4.528492765,
        "traj_len": 3.718998234708163,
        "weighted_distance": 5.042715878234083
    },
    "planner": "RRT",
    "start": {
        "state": {
            "elbow_joint": -1.919643507792019,
            "shoulder_lift_joint": -0.07675430207160344,
            "shoulder_pan_joint": -1.1188671864651873,
            "wrist_1_joint": 0.42560062535961957,
            "wrist_2_joint": 1.5706038300724876,
            "wrist_3_joint": 1.1188968870953055
        }
    },
    "waypoints": [
        {
            "positions": [
                -1.1188671864651873,
                -0.07675430207160344,
                -1.919643507792019,
                0.42560062535961957,
                1.5706038300724876,
                1.1188968870953055
            ]
        },
        {
            "positions": [
                -1.0855646223184965,
                -0.10896289976951451,
                -1.7959624506007206,
                0.386728984928657,
                1.5315089438410874,
                0.9989910514112209
            ]
        },
        {
            "positions": [
                -1.0522620581718056,
                -0.14117149746742558,
                -1.6722813934094223,
                0.34785734449769434,
                1.4924140576096872,
                0.8790852157271363
            ]
        },
        {
            "positions": [
                -1.0189594940251148,
                -0.17338009516533665,
                -1.5486003362181238,
                0.30898570406673176,
                1.453319171378287,
                0.7591793800430517
            ]
        },
        {
            "positions": [
                -0.9856569298784239,
                -0.20558869286324774,
                -1.4249192790268252,
                0.2701140636357692,
                1.4142242851468867,
                0.639273544358967
            ]
        },
        {
            "positions": [
                -0.952354365731733,
                -0.2377972905611588,
                -1.301238221835527,
                0.23124242320480656,
                1.3751293989154865,
                0.5193677086748825
            ]
        },
        {
            "positions": [
                -0.9190518015850422,
                -0.2700058882590699,
                -1.1775571646442287,
                0.19237078277384398,
                1.3360345126840862,
                0.39946187299079783
            ]
        },
        {
            "positions": [
                -0.8857492374383513,
                -0.30221448595698097,
                -1.05387610745293,
                0.15349914234288137,
                1.296939626452686,
                0.2795560373067132
            ]
        },
        {
            "positions": [
                -0.8524466732916605,
                -0.33442308365489204,
                -0.9301950502616316,
                0.11462750191191878,
                1.2578447402212858,
                0.15965020162262855
            ]
        },
        {
            "positions": [
                -0.8191441091449696,
                -0.36663168135280305,
                -0.8065139930703333,
                0.0757558614809562,
                1.2187498539898858,
                0.039744365938544135
            ]
        },
        {
            "positions": [
                -0.7858415449982787,
                -0.3988402790507142,
                -0.6828329358790348,
                0.03688422104999356,
                1.1796549677584853,
                -0.08016146974554061
            ]
        },
        {
            "positions": [
                -0.752538980851588,
                -0.4310488767486252,
                -0.5591518786877365,
                -0.001987419380968969,
                1.1405600815270853,
                -0.20006730542962514
            ]
        },
        {
            "positions": [
                -0.719236416704897,
                -0.4632574744465363,
                -0.435470821496438,
                -0.04085905981193161,
                1.1014651952956849,
                -0.3199731411137099
            ]
        },
        {
            "positions": [
                -0.6859338525582063,
                -0.4954660721444473,
                -0.3117897643051395,
                -0.07973070024289414,
                1.0623703090642849,
                -0.4398789767977944
            ]
        },
        {
            "positions": [
                -0.6526312884115153,
                -0.5276746698423584,
                -0.18810870711384098,
                -0.11860234067385683,
                1.0232754228328846,
                -0.5597848124818792
            ]
        },
        {
            "positions": [
                -0.6193287242648245,
                -0.5598832675402695,
                -0.06442764992254268,
                -0.15747398110481942,
                0.9841805366014843,
                -0.6796906481659637
            ]
        },
        {
            "positions": [
                -0.5860261601181337,
                -0.5920918652381806,
                0.05925340726875583,
                -0.196345621535782,
                0.9450856503700841,
                -0.7995964838500484
            ]
        },
        {
            "positions": [
                -0.5527235959714428,
                -0.6243004629360915,
                0.18293446446005412,
                -0.23521726196674458,
                0.9059907641386838,
                -0.919502319534133
            ]
        },
        {
            "positions": [
                -0.519421031824752,
                -0.6565090606340027,
                0.3066155216513524,
                -0.27408890239770717,
                0.8668958779072837,
                -1.0394081552182173
            ]
        },
        {
            "positions": [
                -0.4861184676780611,
                -0.6887176583319139,
                0.43029657884265116,
                -0.31296054282866986,
                0.8278009916758834,
                -1.1593139909023025
            ]
        },
        {
            "positions": [
                -0.45281590353137025,
                -0.7209262560298249,
                0.5539776360339494,
                -0.35183218325963245,
                0.7887061054444832,
                -1.2792198265863868
            ]
        },
        {
            "positions": [
                -0.4195133393846794,
                -0.753134853727736,
                0.6776586932252477,
                -0.3907038236905949,
                0.7496112192130829,
                -1.3991256622704715
            ]
        },
        {
            "positions": [
                -0.38621077523798863,
                -0.785343451425647,
                0.801339750416546,
                -0.4295754641215575,
                0.7105163329816828,
                -1.5190314979545558
            ]
        },
        {
            "positions": [
                -0.35290821109129766,
                -0.8175520491235582,
                0.9250208076078448,
                -0.4684471045525202,
                0.6714214467502825,
                -1.6389373336386406
            ]
        },
        {
            "positions": [
                -0.3196056469446068,
                -0.8497606468214691,
                1.048701864799143,
                -0.5073187449834828,
                0.6323265605188823,
                -1.7588431693227253
            ]
        },
        {
            "positions": [
                -0.28630308279791605,
                -0.8819692445193803,
                1.1723829219904418,
                -0.5461903854144454,
                0.5932316742874821,
                -1.8787490050068096
            ]
        },
        {
            "positions": [
                -0.2530005186512252,
                -0.9141778422172913,
                1.29606397918174,
                -0.5850620258454078,
                0.5541367880560819,
                -1.9986548406908944
            ]
        },
        {
            "positions": [
                -0.21969795450453422,
                -0.9463864399152024,
                1.4197450363730388,
                -0.6239336662763706,
                0.5150419018246817,
                -2.118560676374979
            ]
        },
        {
            "positions": [
                -0.18639539035784336,
                -0.9785950376131134,
                1.5434260935643371,
                -0.6628053067073332,
                0.47594701559328145,
                -2.238466512059064
            ]
        },
        {
            "positions": [
                -0.1530928262111526,
                -1.0108036353110246,
                1.6671071507556354,
                -0.7016769471382958,
                0.4368521293618812,
                -2.358372347743148
            ]
        },
        {
            "positions": [
                -0.11979026206446175,
                -1.0430122330089355,
                1.7907882079469337,
                -0.7405485875692583,
                0.397757243130481,
                -2.478278183427233
            ]
        },
        {
            "positions": [
                -0.08648769791777089,
                -1.0752208307068467,
                1.9144692651382325,
                -0.7794202280002209,
                0.35866235689908077,
                -2.5981840191113177
            ]
        },
        {
            "positions": [
                -0.05318513377108003,
                -1.1074294284047579,
                2.038150322329531,
                -0.8182918684311835,
                0.31956747066768054,
                -2.7180898547954024
            ]
        },
        {
            "positions": [
                -0.019882569624389224,
                -1.1396380261026688,
                2.161831379520829,
                -0.8571635088621462,
                0.2804725844362803,
                -2.8379956904794867
            ]
        },
        {
            "positions": [
                0.027368837201477564,
                -1.136967756055017,
                2.0933700835804987,
                -0.807701414405554,
                0.23194117636531691,
                -2.974224776519735
            ]
        },
        {
            "positions": [
                0.07462024402734435,
                -1.1342974860073651,
                2.0249087876401686,
                -0.7582393199489619,
                0.18340976829435354,
                -3.110453862559983
            ]
        },
        {
            "positions": [
                0.12187165085321114,
                -1.1316272159597134,
                1.9564474916998387,
                -0.7087772254923697,
                0.13487836022339014,
                -3.2466829486002315
            ]
        }
    ]
}