{
    "goal": {
        "global_pose": {
            "orientation": {
                "w": 0.5084816217422485,
                "x": -0.49083608388900757,
                "y": 0.5182115435600281,
                "z": -0.4816462993621826
            },
            "position": {
                "x": 0.5540239810943604,
                "y": 0.030875300988554955,
                "z": 0.16403168439865112
            }
        },
        "name": "move_to_storage_A"
    },
    "id": "RRT_move_to_storage_A_20",
    "joint_names": [
        "shoulder_pan_joint",
        "shoulder_lift_joint",
        "elbow_joint",
        "wrist_1_joint",
        "wrist_2_joint",
        "wrist_3_joint"
    ],
    "metrics": {
        "cart_traj_len": 0.35227199348009053,
        "distance_elbow_joint": 0.45388968831511,
        "distance_shoulder_lift_joint": 0.23395621821616164,
        "distance_shoulder_pan_joint": 0.45990079308448956,
        "distance_wrist_1_joint": 0.26158776641110004,
        "distance_wrist_2_joint": 1.100546682089742,
        "distance_wrist_3_joint": 0.09692030073931468,
        "smoothness": 8.881784267329941e-16,
        "time": 0.012118528,
        "traj_len": 1.6145592119386387,
        "weighted_distance": 2.040288337180652
    },
    "planner": "RRT",
    "start": {
        "state": {
            "elbow_joint": 1.9715463870305268,
            "shoulder_lift_joint": -1.1394903361783484,
            "shoulder_pan_joint": 0.12281147578464417,
            "wrist_1_joint": -0.7804599489681411,
            "wrist_2_joint": 0.12958660307563738,
            "wrist_3_joint": -3.1924946282119055
        }
    },
    "waypoints": [
        {
            "positions": [
                0.12281147578464417,
                -1.1394903361783484,
                1.9715463870305268,
                -0.7804599489681411,
                0.12958660307563738,
                -3.1924946282119055
            ]
        },
        {
            "positions": [
                0.057111362486859954,
                -1.1729126530663714,
                2.0363877710755425,
                -0.8178296298840125,
                0.28680755765988625,
                -3.178648870963432
            ]
        },
        {
            "positions": [
                -0.008588750810924264,
                -1.2063349699543946,
                2.101229155120558,
                -0.855199310799884,
                0.4440285122441351,
                -3.1648031137149584
            ]
        },
        {
            "positions": [
                -0.07428886410870848,
                -1.2397572868424176,
                2.166070539165574,
                -0.8925689917157553,
                0.601249466828384,
                -3.150957356466485
            ]
        },
        {
            "positions": [
                -0.1399889774064927,
                -1.2731796037304408,
                2.2309119232105896,
                -0.9299386726316268,
                0.7584704214126329,
                -3.1371115992180116
            ]
        },
        {
            "positions": [
                -0.20568909070427693,
                -1.3066019206184638,
                2.2957533072556053,
                -0.9673083535474982,
                0.9156913759968818,
                -3.123265841969538
            ]
        },
        {
            "positions": [
                -0.2713892040020611,
                -1.340024237506487,
                2.360594691300621,
                -1.0046780344633697,
                1.0729123305811306,
                -3.1094200847210645
            ]
        },
        {
            "positions": [
                -0.33708931729984537,
                -1.37344655439451,
                2.4254360753456368,
                -1.0420477153792411,
                1.2301332851653795,
                -3.095574327472591
            ]
        }
    ]
}