{
    "goal": {
        "global_pose": {
            "orientation": {
                "w": 0.7047431468963623,
                "x": -0.7094548344612122,
                "y": 0.0024358443915843964,
                "z": -0.0022348060738295317
            },
            "position": {
                "x": 0.6094750761985779,
                "y": 0.3671506643295288,
                "z": 0.19426114857196808
            }
        },
        "name": "move_to_magneteinheit_A"
    },
    "id": "RRT_move_to_magneteinheit_A_54",
    "joint_names": [
        "shoulder_pan_joint",
        "shoulder_lift_joint",
        "elbow_joint",
        "wrist_1_joint",
        "wrist_2_joint",
        "wrist_3_joint"
    ],
    "metrics": {
        "cart_traj_len": 2.0621140939264544,
        "distance_elbow_joint": 3.873139683192793,
        "distance_shoulder_lift_joint": 1.0528481319589917,
        "distance_shoulder_pan_joint": 1.2407836664766343,
        "distance_wrist_1_joint": 1.1232745079265416,
        "distance_wrist_2_joint": 1.4448820394335047,
        "distance_wrist_3_joint": 1.9008130388222604,
        "smoothness": 6.026924996220558e-16,
        "time": 0.030490095000000002,
        "traj_len": 3.2612483910016308,
        "weighted_distance": 4.123775417359108
    },
    "planner": "RRT",
    "start": {
        "state": {
            "elbow_joint": -1.919643507792019,
            "shoulder_lift_joint": -0.07675430207160344,
            "shoulder_pan_joint": -1.1188671864651873,
            "wrist_1_joint": 0.42560062535961957,
            "wrist_2_joint": 1.5706038300724876,
            "wrist_3_joint": 1.1188968870953055
        }
    },
    "waypoints": [
        {
            "positions": [
                -1.1188671864651873,
                -0.07675430207160344,
                -1.919643507792019,
                0.42560062535961957,
                1.5706038300724876,
                1.1188968870953055
            ]
        },
        {
            "positions": [
                -1.0729122358549417,
                -0.11574867732934388,
                -1.7761938898959897,
                0.3839978658067847,
                1.5170896804638392,
                1.1892973700146485
            ]
        },
        {
            "positions": [
                -1.026957285244696,
                -0.15474305258708432,
                -1.6327442719999603,
                0.3423951062539498,
                1.463575530855191,
                1.2596978529339915
            ]
        },
        {
            "positions": [
                -0.9810023346344502,
                -0.19373742784482473,
                -1.489294654103931,
                0.30079234670111493,
                1.4100613812465426,
                1.3300983358533345
            ]
        },
        {
            "positions": [
                -0.9350473840242045,
                -0.23273180310256517,
                -1.3458450362079017,
                0.2591895871482801,
                1.3565472316378944,
                1.4004988187726775
            ]
        },
        {
            "positions": [
                -0.8890924334139588,
                -0.2717261783603056,
                -1.2023954183118724,
                0.2175868275954452,
                1.303033082029246,
                1.4708993016920204
            ]
        },
        {
            "positions": [
                -0.843137482803713,
                -0.31072055361804607,
                -1.058945800415843,
                0.17598406804261033,
                1.2495189324205977,
                1.5412997846113634
            ]
        },
        {
            "positions": [
                -0.7971825321934674,
                -0.3497149288757865,
                -0.9154961825198136,
                0.13438130848977548,
                1.1960047828119493,
                1.6117002675307064
            ]
        },
        {
            "positions": [
                -0.7512275815832217,
                -0.3887093041335269,
                -0.7720465646237842,
                0.0927785489369406,
                1.1424906332033011,
                1.6821007504500494
            ]
        },
        {
            "positions": [
                -0.705272630972976,
                -0.42770367939126736,
                -0.6285969467277548,
                0.05117578938410572,
                1.0889764835946527,
                1.7525012333693923
            ]
        },
        {
            "positions": [
                -0.6593176803627303,
                -0.46669805464900777,
                -0.4851473288317254,
                0.00957302983127084,
                1.0354623339860045,
                1.8229017162887353
            ]
        },
        {
            "positions": [
                -0.6133627297524845,
                -0.5056924299067482,
                -0.341697710935696,
                -0.03202972972156404,
                0.9819481843773561,
                1.8933021992080783
            ]
        },
        {
            "positions": [
                -0.5674077791422388,
                -0.5446868051644886,
                -0.19824809303966662,
                -0.07363248927439892,
                0.9284340347687078,
                1.9637026821274213
            ]
        },
        {
            "positions": [
                -0.521452828531993,
                -0.583681180422229,
                -0.054798475143637226,
                -0.11523524882723374,
                0.8749198851600595,
                2.0341031650467642
            ]
        },
        {
            "positions": [
                -0.47549787792174736,
                -0.6226755556799695,
                0.08865114275239194,
                -0.15683800838006862,
                0.8214057355514112,
                2.1045036479661072
            ]
        },
        {
            "positions": [
                -0.42954292731150157,
                -0.6616699309377101,
                0.23210076064842178,
                -0.1984407679329036,
                0.7678915859427627,
                2.17490413088545
            ]
        },
        {
            "positions": [
                -0.383587976701256,
                -0.7006643061954503,
                0.3755503785444507,
                -0.24004352748573837,
                0.7143774363341145,
                2.245304613804793
            ]
        },
        {
            "positions": [
                -0.3376330260910102,
                -0.7396586814531909,
                0.5189999964404806,
                -0.28164628703857336,
                0.6608632867254661,
                2.315705096724136
            ]
        },
        {
            "positions": [
                -0.2916780754807645,
                -0.7786530567109313,
                0.6624496143365095,
                -0.32324904659140813,
                0.6073491371168178,
                2.386105579643479
            ]
        },
        {
            "positions": [
                -0.24572312487051873,
                -0.8176474319686717,
                0.8058992322325389,
                -0.364851806144243,
                0.5538349875081694,
                2.456506062562822
            ]
        },
        {
            "positions": [
                -0.19976817426027316,
                -0.8566418072264121,
                0.9493488501285683,
                -0.4064545656970779,
                0.5003208378995212,
                2.526906545482165
            ]
        },
        {
            "positions": [
                -0.15381322365002736,
                -0.8956361824841526,
                1.0927984680245977,
                -0.44805732524991276,
                0.4468066882908728,
                2.597307028401508
            ]
        },
        {
            "positions": [
                -0.10785827303978168,
                -0.934630557741893,
                1.236248085920627,
                -0.48966008480274764,
                0.3932925386822246,
                2.667707511320851
            ]
        },
        {
            "positions": [
                -0.061903322429536,
                -0.9736249329996334,
                1.3796977038166565,
                -0.5312628443555825,
                0.33977838907357616,
                2.738107994240194
            ]
        },
        {
            "positions": [
                -0.01594837181929032,
                -1.0126193082573738,
                1.5231473217126859,
                -0.5728656039084175,
                0.28626423946492796,
                2.808508477159537
            ]
        },
        {
            "positions": [
                0.030006578790955585,
                -1.0516136835151144,
                1.6665969396087152,
                -0.6144683634612522,
                0.23275008985627954,
                2.87890896007888
            ]
        },
        {
            "positions": [
                0.07596152940120127,
                -1.0906080587728548,
                1.8100465575047446,
                -0.656071123014087,
                0.17923594024763134,
                2.949309442998223
            ]
        },
        {
            "positions": [
                0.12191648001144706,
                -1.1296024340305952,
                1.9534961754007738,
                -0.697673882566922,
                0.12572179063898287,
                3.019709925917566
            ]
        }
    ]
}