{
    "goal": {
        "global_pose": {
            "orientation": {
                "w": 0.7031023502349854,
                "x": -0.7110244035720825,
                "y": 0.007748599164187908,
                "z": 0.005598929710686207
            },
            "position": {
                "x": 0.11585023208521307,
                "y": 0.44412534475326537,
                "z": 0.3711530566215515
            }
        },
        "name": "move_to_auspresseinheit_A"
    },
    "id": "RRT_move_to_auspresseinheit_A_13",
    "joint_names": [
        "shoulder_pan_joint",
        "shoulder_lift_joint",
        "elbow_joint",
        "wrist_1_joint",
        "wrist_2_joint",
        "wrist_3_joint"
    ],
    "metrics": {
        "cart_traj_len": 2.507258455001337,
        "distance_elbow_joint": 2.9322642811637363,
        "distance_shoulder_lift_joint": 0.9535257354070761,
        "distance_shoulder_pan_joint": 1.0588638079326995,
        "distance_wrist_1_joint": 2.092987416441522,
        "distance_wrist_2_joint": 1.1826759602639847,
        "distance_wrist_3_joint": 1.560436117800578,
        "smoothness": 1.2178660434001722,
        "time": 0.445261648,
        "traj_len": 3.1274195943316587,
        "weighted_distance": 4.022100064806476
    },
    "planner": "RRT",
    "start": {
        "state": {
            "elbow_joint": 2.422574709923281,
            "shoulder_lift_joint": -1.3736533754116391,
            "shoulder_pan_joint": -0.33786336945926293,
            "wrist_1_joint": -1.0288603412921917,
            "wrist_2_joint": 1.2330224858903978,
            "wrist_3_joint": -3.094022268022082
        }
    },
    "waypoints": [
        {
            "positions": [
                -0.33786336945926293,
                -1.3736533754116391,
                2.422574709923281,
                -1.0288603412921917,
                1.2330224858903978,
                -3.094022268022082
            ]
        },
        {
            "positions": [
                -0.2593813056623984,
                -1.4143544932004293,
                2.2881026805457494,
                -1.0068417442441635,
                1.2010778487281157,
                -3.0245242295922465
            ]
        },
        {
            "positions": [
                -0.18089924186553394,
                -1.4550556109892192,
                2.1536306511682177,
                -0.9848231471961354,
                1.1691332115658335,
                -2.9550261911624114
            ]
        },
        {
            "positions": [
                -0.10241717806866946,
                -1.4957567287780094,
                2.019158621790686,
                -0.9628045501481072,
                1.1371885744035515,
                -2.885528152732576
            ]
        },
        {
            "positions": [
                -0.023935114271804947,
                -1.5364578465667995,
                1.8846865924131544,
                -0.940785953100079,
                1.1052439372412695,
                -2.81603011430274
            ]
        },
        {
            "positions": [
                0.05454694952505956,
                -1.5771589643555894,
                1.7502145630356227,
                -0.9187673560520507,
                1.0732993000789874,
                -2.746532075872905
            ]
        },
        {
            "positions": [
                0.13302901332192402,
                -1.6178600821443796,
                1.615742533658091,
                -0.8967487590040226,
                1.0413546629167052,
                -2.6770340374430694
            ]
        },
        {
            "positions": [
                0.21151107711878853,
                -1.6585611999331697,
                1.4812705042805594,
                -0.8747301619559944,
                1.0094100257544232,
                -2.6075359990132343
            ]
        },
        {
            "positions": [
                0.28999314091565304,
                -1.6992623177219597,
                1.3467984749030277,
                -0.8527115649079662,
                0.9774653885921412,
                -2.5380379605833987
            ]
        },
        {
            "positions": [
                0.36847520471251766,
                -1.7399634355107498,
                1.212326445525496,
                -0.830692967859938,
                0.945520751429859,
                -2.468539922153563
            ]
        },
        {
            "positions": [
                0.44695726850938206,
                -1.7806645532995398,
                1.0778544161479644,
                -0.8086743708119098,
                0.9135761142675769,
                -2.399041883723728
            ]
        },
        {
            "positions": [
                0.5254393323062465,
                -1.82136567108833,
                0.9433823867704327,
                -0.7866557737638816,
                0.8816314771052949,
                -2.3295438452938924
            ]
        },
        {
            "positions": [
                0.5444783638820504,
                -1.8544544646548127,
                1.0595721567498353,
                -0.6667489218121914,
                0.9189773516298425,
                -2.3861531296064786
            ]
        },
        {
            "positions": [
                0.5635173954578543,
                -1.8875432582212952,
                1.1757619267292378,
                -0.546842069860501,
                0.9563232261543901,
                -2.4427624139190653
            ]
        },
        {
            "positions": [
                0.5825564270336583,
                -1.920632051787778,
                1.2919516967086404,
                -0.4269352179088107,
                0.9936691006789378,
                -2.4993716982316516
            ]
        },
        {
            "positions": [
                0.6015954586094622,
                -1.9537208453542607,
                1.408141466688043,
                -0.30702836595712046,
                1.0310149752034854,
                -2.5559809825442383
            ]
        },
        {
            "positions": [
                0.6206344901852661,
                -1.9868096389207432,
                1.5243312366674457,
                -0.1871215140054301,
                1.068360849728033,
                -2.6125902668568246
            ]
        },
        {
            "positions": [
                0.63967352176107,
                -2.019898432487226,
                1.640521006646848,
                -0.06721466205373983,
                1.1057067242525807,
                -2.6691995511694113
            ]
        },
        {
            "positions": [
                0.6587125533368738,
                -2.0529872260537085,
                1.7567107766262509,
                0.05269218989795044,
                1.1430525987771283,
                -2.7258088354819976
            ]
        },
        {
            "positions": [
                0.6777515849126778,
                -2.0860760196201915,
                1.8729005466056532,
                0.1725990418496407,
                1.180398473301676,
                -2.782418119794584
            ]
        },
        {
            "positions": [
                0.6967906164884817,
                -2.119164813186674,
                1.989090316585056,
                0.2925058938013311,
                1.2177443478262235,
                -2.8390274041071706
            ]
        },
        {
            "positions": [
                0.6949296367588905,
                -2.093850552387621,
                2.1051485592336143,
                0.21299565094471373,
                1.1576696572445628,
                -2.9024410921418924
            ]
        },
        {
            "positions": [
                0.6930686570292992,
                -2.068536291588568,
                2.221206801882173,
                0.13348540808809642,
                1.097594966662902,
                -2.965854780176614
            ]
        },
        {
            "positions": [
                0.691207677299708,
                -2.043222030789515,
                2.3372650445307315,
                0.05397516523147908,
                1.0375202760812412,
                -3.029268468211336
            ]
        },
        {
            "positions": [
                0.6974166382317682,
                -1.9991981923778877,
                2.356994811280928,
                -0.1237216523612367,
                0.932537606410251,
                -3.0613461589296507
            ]
        },
        {
            "positions": [
                0.7036255991638286,
                -1.9551743539662603,
                2.376724578031124,
                -0.3014184699539525,
                0.8275549367392607,
                -3.093423849647966
            ]
        },
        {
            "positions": [
                0.7098345600958889,
                -1.911150515554633,
                2.3964543447813207,
                -0.4791152875466683,
                0.7225722670682704,
                -3.1255015403662805
            ]
        }
    ]
}