{
    "goal": {
        "global_pose": {
            "orientation": {
                "w": 0.7031023502349854,
                "x": -0.7110244035720825,
                "y": 0.007748599164187908,
                "z": 0.005598929710686207
            },
            "position": {
                "x": 0.11585023208521307,
                "y": 0.44412534475326537,
                "z": 0.3711530566215515
            }
        },
        "name": "move_to_auspresseinheit_A"
    },
    "id": "RRT_move_to_auspresseinheit_A_79",
    "joint_names": [
        "shoulder_pan_joint",
        "shoulder_lift_joint",
        "elbow_joint",
        "wrist_1_joint",
        "wrist_2_joint",
        "wrist_3_joint"
    ],
    "metrics": {
        "cart_traj_len": 0.6908246582032086,
        "distance_elbow_joint": 0.4823225537955098,
        "distance_shoulder_lift_joint": 1.1096482611545844,
        "distance_shoulder_pan_joint": 1.0420599529452423,
        "distance_wrist_1_joint": 0.5560170245806639,
        "distance_wrist_2_joint": 0.5259129512521209,
        "distance_wrist_3_joint": 0.36617879744183357,
        "smoothness": 0.9739840930830401,
        "time": 3.616364776,
        "traj_len": 2.020430533616525,
        "weighted_distance": 2.428255981540333
    },
    "planner": "RRT",
    "start": {
        "state": {
            "elbow_joint": 2.422574709923281,
            "shoulder_lift_joint": -1.3736533754116391,
            "shoulder_pan_joint": -0.33786336945926293,
            "wrist_1_joint": -1.0288603412921917,
            "wrist_2_joint": 1.2330224858903978,
            "wrist_3_joint": -3.094022268022082
        }
    },
    "waypoints": [
        {
            "positions": [
                -0.33786336945926293,
                -1.3736533754116391,
                2.422574709923281,
                -1.0288603412921917,
                1.2330224858903978,
                -3.094022268022082
            ]
        },
        {
            "positions": [
                -0.21991067236282802,
                -1.491174274822063,
                2.4550803914352732,
                -0.9903248094709002,
                1.1981430354868354,
                -3.0701143119257734
            ]
        },
        {
            "positions": [
                -0.10195797526639311,
                -1.608695174232487,
                2.487586072947266,
                -0.9517892776496087,
                1.1632635850832729,
                -3.046206355829465
            ]
        },
        {
            "positions": [
                0.015994721830041803,
                -1.726216073642911,
                2.520091754459258,
                -0.9132537458283172,
                1.1283841346797105,
                -3.0222983997331565
            ]
        },
        {
            "positions": [
                0.1339474189264767,
                -1.843736973053335,
                2.5525974359712507,
                -0.8747182140070257,
                1.0935046842761482,
                -2.9983904436368483
            ]
        },
        {
            "positions": [
                0.2519001160229117,
                -1.9612578724637593,
                2.585103117483243,
                -0.8361826821857341,
                1.058625233872586,
                -2.9744824875405396
            ]
        },
        {
            "positions": [
                0.36985281311934654,
                -2.078778771874183,
                2.6176087989952355,
                -0.7976471503644427,
                1.0237457834690233,
                -2.9505745314442313
            ]
        },
        {
            "positions": [
                0.48780551021578145,
                -2.1962996712846072,
                2.6501144805072276,
                -0.7591116185431511,
                0.988866333065461,
                -2.9266665753479226
            ]
        },
        {
            "positions": [
                0.5419032785333309,
                -2.124549179964203,
                2.5864187847043367,
                -0.6875445430852453,
                0.918427133458665,
                -2.9763723515398413
            ]
        },
        {
            "positions": [
                0.5960010468508804,
                -2.052798688643799,
                2.5227230889014463,
                -0.6159774676273395,
                0.847987933851869,
                -3.0260781277317594
            ]
        },
        {
            "positions": [
                0.6500988151684299,
                -1.981048197323395,
                2.4590273930985553,
                -0.5444103921694337,
                0.7775487342450729,
                -3.075783903923678
            ]
        },
        {
            "positions": [
                0.7041965834859794,
                -1.909297706002991,
                2.3953316972956644,
                -0.47284331671152785,
                0.7071095346382769,
                -3.1254896801155967
            ]
        }
    ]
}