{
    "goal": {
        "global_pose": {
            "orientation": {
                "w": 0.7047431468963623,
                "x": -0.7094548344612122,
                "y": 0.0024358443915843964,
                "z": -0.0022348060738295317
            },
            "position": {
                "x": 0.6094750761985779,
                "y": 0.3671506643295288,
                "z": 0.19426114857196808
            }
        },
        "name": "move_to_magneteinheit_A"
    },
    "id": "RRT_move_to_magneteinheit_A_133",
    "joint_names": [
        "shoulder_pan_joint",
        "shoulder_lift_joint",
        "elbow_joint",
        "wrist_1_joint",
        "wrist_2_joint",
        "wrist_3_joint"
    ],
    "metrics": {
        "cart_traj_len": 1.864629566579718,
        "distance_elbow_joint": 3.9427879260808423,
        "distance_shoulder_lift_joint": 0.7141796493325148,
        "distance_shoulder_pan_joint": 1.2416563206933469,
        "distance_wrist_1_joint": 1.6007681846253778,
        "distance_wrist_2_joint": 1.7098984337181689,
        "distance_wrist_3_joint": 1.2446222025193765,
        "smoothness": 1.1102230222875244e-15,
        "time": 0.073304307,
        "traj_len": 3.2332511063896083,
        "weighted_distance": 4.031603122872082
    },
    "planner": "RRT",
    "start": {
        "state": {
            "elbow_joint": -1.919643507792019,
            "shoulder_lift_joint": -0.07675430207160344,
            "shoulder_pan_joint": -1.1188671864651873,
            "wrist_1_joint": 0.42560062535961957,
            "wrist_2_joint": 1.5706038300724876,
            "wrist_3_joint": 1.1188968870953055
        }
    },
    "waypoints": [
        {
            "positions": [
                -1.1188671864651873,
                -0.07675430207160344,
                -1.919643507792019,
                0.42560062535961957,
                1.5706038300724876,
                1.1188968870953055
            ]
        },
        {
            "positions": [
                -1.0728799153283968,
                -0.10320540019502991,
                -1.7736143253445804,
                0.4848883359013002,
                1.507274258453296,
                1.0727997684834767
            ]
        },
        {
            "positions": [
                -1.0268926441916062,
                -0.12965649831845638,
                -1.627585142897142,
                0.5441760464429809,
                1.4439446868341048,
                1.026702649871648
            ]
        },
        {
            "positions": [
                -0.9809053730548155,
                -0.15610759644188285,
                -1.4815559604497033,
                0.6034637569846615,
                1.3806151152149133,
                0.9806055312598193
            ]
        },
        {
            "positions": [
                -0.9349181019180248,
                -0.18255869456530932,
                -1.3355267780022646,
                0.6627514675263422,
                1.3172855435957218,
                0.9345084126479906
            ]
        },
        {
            "positions": [
                -0.8889308307812342,
                -0.2090097926887358,
                -1.1894975955548261,
                0.7220391780680229,
                1.2539559719765303,
                0.8884112940361617
            ]
        },
        {
            "positions": [
                -0.8429435596444437,
                -0.23546089081216226,
                -1.0434684131073875,
                0.7813268886097036,
                1.190626400357339,
                0.8423141754243331
            ]
        },
        {
            "positions": [
                -0.796956288507653,
                -0.26191198893558876,
                -0.897439230659949,
                0.8406145991513841,
                1.1272968287381475,
                0.7962170568125042
            ]
        },
        {
            "positions": [
                -0.7509690173708623,
                -0.2883630870590152,
                -0.7514100482125103,
                0.8999023096930648,
                1.0639672571189562,
                0.7501199382006756
            ]
        },
        {
            "positions": [
                -0.7049817462340717,
                -0.3148141851824417,
                -0.6053808657650717,
                0.9591900202347454,
                1.0006376854997647,
                0.7040228195888467
            ]
        },
        {
            "positions": [
                -0.6589944750972812,
                -0.34126528330586814,
                -0.4593516833176332,
                1.0184777307764261,
                0.9373081138805732,
                0.657925700977018
            ]
        },
        {
            "positions": [
                -0.6130072039604905,
                -0.36771638142929464,
                -0.31332250087019453,
                1.0777654413181068,
                0.8739785422613818,
                0.6118285823651892
            ]
        },
        {
            "positions": [
                -0.5670199328236999,
                -0.3941674795527211,
                -0.16729331842275585,
                1.1370531518597875,
                0.8106489706421903,
                0.5657314637533605
            ]
        },
        {
            "positions": [
                -0.5210326616869093,
                -0.4206185776761476,
                -0.0212641359753174,
                1.1963408624014682,
                0.7473193990229989,
                0.5196343451415317
            ]
        },
        {
            "positions": [
                -0.47504539055011863,
                -0.447069675799574,
                0.12476504647212106,
                1.2556285729431487,
                0.6839898274038075,
                0.473537226529703
            ]
        },
        {
            "positions": [
                -0.42905811941332794,
                -0.47352077392300057,
                0.27079422891955995,
                1.3149162834848296,
                0.620660255784616,
                0.4274401079178741
            ]
        },
        {
            "positions": [
                -0.38307084827653737,
                -0.49997187204642696,
                0.4168234113669984,
                1.37420399402651,
                0.5573306841654246,
                0.3813429893060455
            ]
        },
        {
            "positions": [
                -0.3370835771397467,
                -0.5264229701698535,
                0.5628525938144373,
                1.433491704568191,
                0.49400111254623313,
                0.33524587069421663
            ]
        },
        {
            "positions": [
                -0.2910963060029561,
                -0.55287406829328,
                0.7088817762618758,
                1.4927794151098714,
                0.43067154092704185,
                0.2891487520823879
            ]
        },
        {
            "positions": [
                -0.24510903486616542,
                -0.5793251664167065,
                0.8549109587093142,
                1.5520671256515521,
                0.36734196930785035,
                0.24305163347055914
            ]
        },
        {
            "positions": [
                -0.19912176372937496,
                -0.6057762645401328,
                1.0009401411567527,
                1.6113548361932328,
                0.30401239768865884,
                0.1969545148587304
            ]
        },
        {
            "positions": [
                -0.15313449259258427,
                -0.6322273626635593,
                1.1469693236041916,
                1.6706425467349135,
                0.24068282606946734,
                0.15085739624690164
            ]
        },
        {
            "positions": [
                -0.10714722145579358,
                -0.6586784607869858,
                1.29299850605163,
                1.729930257276594,
                0.17735325445027605,
                0.1047602776350729
            ]
        },
        {
            "positions": [
                -0.06115995031900301,
                -0.6851295589104123,
                1.439027688499069,
                1.789217967818275,
                0.11402368283108455,
                0.05866315902324404
            ]
        },
        {
            "positions": [
                -0.015172679182212434,
                -0.7115806570338388,
                1.5850568709465074,
                1.8485056783599554,
                0.050694111211893045,
                0.012566040411415402
            ]
        },
        {
            "positions": [
                0.030814591954578363,
                -0.7380317551572653,
                1.7310860533939458,
                1.907793388901636,
                -0.01263546040729846,
                -0.033531078200413456
            ]
        },
        {
            "positions": [
                0.07680186309136872,
                -0.7644828532806918,
                1.8771152358413843,
                1.9670810994433168,
                -0.07596503202648974,
                -0.07962819681224209
            ]
        },
        {
            "positions": [
                0.12278913422815957,
                -0.7909339514041183,
                2.023144418288823,
                2.0263688099849975,
                -0.13929460364568128,
                -0.12572531542407098
            ]
        }
    ]
}