{
    "goal": {
        "global_pose": {
            "orientation": {
                "w": 0.5084816217422485,
                "x": -0.49083608388900757,
                "y": 0.5182115435600281,
                "z": -0.4816462993621826
            },
            "position": {
                "x": 0.5540239810943604,
                "y": 0.030875300988554955,
                "z": 0.16403168439865112
            }
        },
        "name": "move_to_storage_A"
    },
    "id": "RRT_move_to_storage_A_83",
    "joint_names": [
        "shoulder_pan_joint",
        "shoulder_lift_joint",
        "elbow_joint",
        "wrist_1_joint",
        "wrist_2_joint",
        "wrist_3_joint"
    ],
    "metrics": {
        "cart_traj_len": 0.35290507735644716,
        "distance_elbow_joint": 0.4480580496315709,
        "distance_shoulder_lift_joint": 0.23574002386993165,
        "distance_shoulder_pan_joint": 0.46217158482887294,
        "distance_wrist_1_joint": 0.23653057456873416,
        "distance_wrist_2_joint": 1.0955553501204862,
        "distance_wrist_3_joint": 0.08743873440309846,
        "smoothness": 8.881784197001252e-16,
        "time": 0.017305781,
        "traj_len": 1.6017160539317494,
        "weighted_distance": 2.018033129291517
    },
    "planner": "RRT",
    "start": {
        "state": {
            "elbow_joint": 1.9715463870305268,
            "shoulder_lift_joint": -1.1394903361783484,
            "shoulder_pan_joint": 0.12281147578464417,
            "wrist_1_joint": -0.7804599489681411,
            "wrist_2_joint": 0.12958660307563738,
            "wrist_3_joint": -3.1924946282119055
        }
    },
    "waypoints": [
        {
            "positions": [
                0.12281147578464417,
                -1.1394903361783484,
                1.9715463870305268,
                -0.7804599489681411,
                0.12958660307563738,
                -3.1924946282119055
            ]
        },
        {
            "positions": [
                0.05678696366623376,
                -1.1731674824454814,
                2.035554679835037,
                -0.8142500310493889,
                0.28609451023570687,
                -3.1800033804400343
            ]
        },
        {
            "positions": [
                -0.009237548452176655,
                -1.2068446287126147,
                2.099562972639547,
                -0.8480401131306365,
                0.4426024173957763,
                -3.167512132668163
            ]
        },
        {
            "positions": [
                -0.07526206057058708,
                -1.2405217749797477,
                2.163571265444057,
                -0.8818301952118843,
                0.5991103245558458,
                -3.1550208848962917
            ]
        },
        {
            "positions": [
                -0.14128657268899747,
                -1.2741989212468807,
                2.2275795582485673,
                -0.915620277293132,
                0.7556182317159152,
                -3.142529637124421
            ]
        },
        {
            "positions": [
                -0.2073110848074079,
                -1.3078760675140138,
                2.2915878510530776,
                -0.9494103593743798,
                0.9121261388759847,
                -3.1300383893525496
            ]
        },
        {
            "positions": [
                -0.2733355969258183,
                -1.341553213781147,
                2.3555961438575874,
                -0.9832004414556275,
                1.0686340460360542,
                -3.1175471415806784
            ]
        },
        {
            "positions": [
                -0.33936010904422875,
                -1.37523036004828,
                2.4196044366620977,
                -1.0169905235368752,
                1.2251419531961236,
                -3.105055893808807
            ]
        }
    ]
}