{
    "goal": {
        "global_pose": {
            "orientation": {
                "w": -0.00223480608172531,
                "x": 0.0024358444001904467,
                "y": 0.7094548369677653,
                "z": -0.704743149386269
            },
            "position": {
                "x": 0.6205249238014221,
                "y": -0.6371506643295288,
                "z": 0.19426114857196808
            }
        },
        "name": "move_to_magneteinheit_B"
    },
    "id": "RRT_move_to_magneteinheit_B_9",
    "joint_names": [
        "shoulder_pan_joint",
        "shoulder_lift_joint",
        "elbow_joint",
        "wrist_1_joint",
        "wrist_2_joint",
        "wrist_3_joint"
    ],
    "metrics": {
        "cart_traj_len": 4.033429533011129,
        "distance_elbow_joint": 4.6341958508422865,
        "distance_shoulder_lift_joint": 1.2029812854998037,
        "distance_shoulder_pan_joint": 2.254592068637129,
        "distance_wrist_1_joint": 2.7894155818431248,
        "distance_wrist_2_joint": 2.236539241562702,
        "distance_wrist_3_joint": 6.500484583264897,
        "smoothness": 0.5726269978254963,
        "time": 1.661312624,
        "traj_len": 4.429244699906513,
        "weighted_distance": 6.135562940886969
    },
    "planner": "RRT",
    "start": {
        "state": {
            "elbow_joint": 2.39358713078474,
            "shoulder_lift_joint": -1.908514104345545,
            "shoulder_pan_joint": 0.7066247066606129,
            "wrist_1_joint": -0.4678290933515497,
            "wrist_2_joint": 0.7096259083745334,
            "wrist_3_joint": -3.1358149277392293
        }
    },
    "waypoints": [
        {
            "positions": [
                0.7066247066606129,
                -1.908514104345545,
                2.39358713078474,
                -0.4678290933515497,
                0.7096259083745334,
                -3.1358149277392293
            ]
        },
        {
            "positions": [
                0.7827689807714486,
                -1.9366833962836458,
                2.4256572066644297,
                -0.41706671880767143,
                0.6087819064790341,
                -3.0338382087699802
            ]
        },
        {
            "positions": [
                0.8589132548822842,
                -1.964852688221747,
                2.457727282544119,
                -0.3663043442637932,
                0.5079379045835346,
                -2.9318614898007316
            ]
        },
        {
            "positions": [
                0.9350575289931199,
                -1.9930219801598479,
                2.4897973584238087,
                -0.315541969719915,
                0.40709390268803525,
                -2.8298847708314825
            ]
        },
        {
            "positions": [
                1.0112018031039556,
                -2.021191272097949,
                2.521867434303498,
                -0.26477959517603666,
                0.3062499007925358,
                -2.727908051862234
            ]
        },
        {
            "positions": [
                1.0873460772147912,
                -2.04936056403605,
                2.5539375101831876,
                -0.21401722063215844,
                0.20540589889703645,
                -2.6259313328929847
            ]
        },
        {
            "positions": [
                1.2118687998313997,
                -1.983697577206476,
                2.4448463875075825,
                -0.23605239310119505,
                0.1765055796999713,
                -2.5912141278222443
            ]
        },
        {
            "positions": [
                1.336391522448008,
                -1.9180345903769023,
                2.335755264831977,
                -0.25808756557023166,
                0.14760526050290612,
                -2.5564969227515033
            ]
        },
        {
            "positions": [
                1.4609142450646164,
                -1.8523716035473283,
                2.226664142156372,
                -0.28012273803926824,
                0.11870494130584097,
                -2.521779717680763
            ]
        },
        {
            "positions": [
                1.585436967681225,
                -1.7867086167177546,
                2.117573019480767,
                -0.3021579105083048,
                0.08980462210877582,
                -2.4870625126100223
            ]
        },
        {
            "positions": [
                1.7099596902978336,
                -1.7210456298881804,
                2.0084818968051614,
                -0.32419308297734145,
                0.060904302911710645,
                -2.4523453075392814
            ]
        },
        {
            "positions": [
                1.834482412914442,
                -1.6553826430586067,
                1.8993907741295564,
                -0.34622825544637803,
                0.032003983714645495,
                -2.417628102468541
            ]
        },
        {
            "positions": [
                1.911977910394659,
                -1.6328776313923736,
                1.7713060247876202,
                -0.3350264358225774,
                0.04781859565689319,
                -2.2986727113224976
            ]
        },
        {
            "positions": [
                1.9348647166425887,
                -1.6304812965347033,
                1.653212835070824,
                -0.3759055092853255,
                0.07624146790451743,
                -2.1356219222110426
            ]
        },
        {
            "positions": [
                1.9577515228905185,
                -1.628084961677033,
                1.5351196453540277,
                -0.4167845827480736,
                0.10466434015214165,
                -1.9725711330995872
            ]
        },
        {
            "positions": [
                1.980638329138448,
                -1.6256886268193627,
                1.4170264556372314,
                -0.45766365621082167,
                0.1330872123997659,
                -1.8095203439881322
            ]
        },
        {
            "positions": [
                2.003525135386378,
                -1.6232922919616923,
                1.298933265920435,
                -0.4985427296735698,
                0.16151008464739014,
                -1.646469554876677
            ]
        },
        {
            "positions": [
                2.0264119416343074,
                -1.620895957104022,
                1.1808400762036386,
                -0.5394218031363178,
                0.18993295689501438,
                -1.4834187657652218
            ]
        },
        {
            "positions": [
                2.049298747882237,
                -1.6184996222463517,
                1.0627468864868423,
                -0.5803008765990659,
                0.2183558291426386,
                -1.3203679766537668
            ]
        },
        {
            "positions": [
                2.072185554130167,
                -1.6161032873886814,
                0.944653696770046,
                -0.621179950061814,
                0.24677870139026287,
                -1.1573171875423114
            ]
        },
        {
            "positions": [
                2.0950723603780963,
                -1.613706952531011,
                0.8265605070532497,
                -0.6620590235245621,
                0.27520157363788705,
                -0.9942663984308564
            ]
        },
        {
            "positions": [
                2.117959166626026,
                -1.6113106176733407,
                0.7084673173364533,
                -0.7029380969873102,
                0.3036244458855113,
                -0.8312156093194012
            ]
        },
        {
            "positions": [
                2.1408459728739557,
                -1.6089142828156704,
                0.590374127619657,
                -0.7438171704500584,
                0.33204731813313554,
                -0.668164820207946
            ]
        },
        {
            "positions": [
                2.163732779121885,
                -1.606517947958,
                0.4722809379028605,
                -0.7846962439128065,
                0.3604701903807598,
                -0.5051140310964908
            ]
        },
        {
            "positions": [
                2.186619585369815,
                -1.6041216131003297,
                0.35418774818606447,
                -0.8255753173755545,
                0.38889306262838397,
                -0.3420632419850358
            ]
        },
        {
            "positions": [
                2.2095063916177446,
                -1.6017252782426594,
                0.23609455846926797,
                -0.8664543908383026,
                0.4173159348760082,
                -0.17901245287358059
            ]
        },
        {
            "positions": [
                2.232393197865674,
                -1.599328943384989,
                0.11800136875247169,
                -0.9073334643010508,
                0.4457388071236325,
                -0.015961663762125156
            ]
        },
        {
            "positions": [
                2.255280004113604,
                -1.5969326085273188,
                -9.182096432480691e-05,
                -0.9482125377637989,
                0.47416167937125675,
                0.14708912534932983
            ]
        },
        {
            "positions": [
                2.2781668103615336,
                -1.5945362736696485,
                -0.11818501068112086,
                -0.9890916112265469,
                0.5025845516188809,
                0.3101399144607848
            ]
        },
        {
            "positions": [
                2.3010536166094635,
                -1.5921399388119781,
                -0.23627820039791714,
                -1.029970684689295,
                0.5310074238665052,
                0.4731907035722398
            ]
        },
        {
            "positions": [
                2.323940422857393,
                -1.5897436039543078,
                -0.3543713901147138,
                -1.070849758152043,
                0.5594302961141294,
                0.6362414926836952
            ]
        },
        {
            "positions": [
                2.354379467785887,
                -1.6130788753624385,
                -0.41747633490133995,
                -1.1477485094022153,
                0.5203370950541154,
                0.7766712142626164
            ]
        },
        {
            "positions": [
                2.3848185127143813,
                -1.6364141467705695,
                -0.48058127968796616,
                -1.2246472606523873,
                0.4812438939941015,
                0.9171009358415375
            ]
        },
        {
            "positions": [
                2.415257557642876,
                -1.6597494181787003,
                -0.5436862244745924,
                -1.3015460119025595,
                0.4421506929340875,
                1.0575306574204586
            ]
        },
        {
            "positions": [
                2.44569660257137,
                -1.6830846895868312,
                -0.6067911692612185,
                -1.3784447631527315,
                0.4030574918740735,
                1.1979603789993798
            ]
        },
        {
            "positions": [
                2.476135647499864,
                -1.706419960994962,
                -0.6698961140478448,
                -1.4553435144029037,
                0.36396429081405957,
                1.338390100578301
            ]
        },
        {
            "positions": [
                2.5065746924283583,
                -1.7297552324030927,
                -0.7330010588344709,
                -1.5322422656530756,
                0.32487108975404555,
                1.478819822157222
            ]
        },
        {
            "positions": [
                2.5370137373568524,
                -1.7530905038112237,
                -0.796106003621097,
                -1.6091410169032478,
                0.2857778886940316,
                1.6192495437361432
            ]
        },
        {
            "positions": [
                2.567452782285347,
                -1.7764257752193544,
                -0.8592109484077233,
                -1.68603976815342,
                0.24668468763401763,
                1.7596792653150644
            ]
        },
        {
            "positions": [
                2.597891827213841,
                -1.7997610466274852,
                -0.9223158931943494,
                -1.762938519403592,
                0.20759148657400367,
                1.9001089868939856
            ]
        },
        {
            "positions": [
                2.6283308721423353,
                -1.8230963180356161,
                -0.9854208379809757,
                -1.839837270653764,
                0.1684982855139897,
                2.0405387084729067
            ]
        },
        {
            "positions": [
                2.6587699170708294,
                -1.8464315894437469,
                -1.0485257827676018,
                -1.9167360219039362,
                0.1294050844539757,
                2.180968430051828
            ]
        },
        {
            "positions": [
                2.6892089619993236,
                -1.8697668608518776,
                -1.1116307275542279,
                -1.9936347731541084,
                0.09031188339396173,
                2.321398151630749
            ]
        },
        {
            "positions": [
                2.7196480069278177,
                -1.8931021322600086,
                -1.1747356723408542,
                -2.0705335244042806,
                0.051218682333947774,
                2.4618278732096703
            ]
        },
        {
            "positions": [
                2.7500870518563123,
                -1.9164374036681393,
                -1.2378406171274803,
                -2.1474322756544524,
                0.012125481273933758,
                2.602257594788591
            ]
        },
        {
            "positions": [
                2.7805260967848064,
                -1.93977267507627,
                -1.3009455619141064,
                -2.2243310269046246,
                -0.026967719786080147,
                2.7426873163675123
            ]
        },
        {
            "positions": [
                2.8109651417133006,
                -1.963107946484401,
                -1.3640505067007327,
                -2.301229778154797,
                -0.0660609208460941,
                2.8831170379464335
            ]
        },
        {
            "positions": [
                2.7929069155352018,
                -1.9621452245178488,
                -1.4699495509732174,
                -2.2652899915519638,
                -0.14321566678500341,
                2.974815477102881
            ]
        },
        {
            "positions": [
                2.7748486893571034,
                -1.9611825025512968,
                -1.5758485952457022,
                -2.2293502049491307,
                -0.22037041272391272,
                3.0665139162593285
            ]
        },
        {
            "positions": [
                2.7567904631790046,
                -1.9602197805847448,
                -1.6817476395181872,
                -2.193410418346298,
                -0.29752515866282203,
                3.158212355415776
            ]
        },
        {
            "positions": [
                2.7387322370009057,
                -1.9592570586181925,
                -1.787646683790672,
                -2.157470631743465,
                -0.37467990460173134,
                3.249910794572224
            ]
        },
        {
            "positions": [
                2.712725994043557,
                -2.034357937061944,
                -1.7435595913006794,
                -2.251546753724186,
                -0.40714017253088736,
                3.2116578409210756
            ]
        },
        {
            "positions": [
                2.686719751086208,
                -2.109458815505696,
                -1.6994724988106868,
                -2.3456228757049065,
                -0.4396004404600433,
                3.173404887269927
            ]
        },
        {
            "positions": [
                2.6607135081288593,
                -2.1845596939494474,
                -1.6553854063206943,
                -2.4396989976856274,
                -0.47206070838919933,
                3.1351519336187788
            ]
        }
    ]
}