{
    "goal": {
        "global_pose": {
            "orientation": {
                "w": -0.00223480608172531,
                "x": 0.0024358444001904467,
                "y": 0.7094548369677653,
                "z": -0.704743149386269
            },
            "position": {
                "x": 0.6205249238014221,
                "y": -0.6371506643295288,
                "z": 0.19426114857196808
            }
        },
        "name": "move_to_magneteinheit_B"
    },
    "id": "RRT_move_to_magneteinheit_B_13",
    "joint_names": [
        "shoulder_pan_joint",
        "shoulder_lift_joint",
        "elbow_joint",
        "wrist_1_joint",
        "wrist_2_joint",
        "wrist_3_joint"
    ],
    "metrics": {
        "cart_traj_len": 3.2977505276557104,
        "distance_elbow_joint": 4.098696664743914,
        "distance_shoulder_lift_joint": 0.6658226134907532,
        "distance_shoulder_pan_joint": 2.6070550135243455,
        "distance_wrist_1_joint": 1.890645753314435,
        "distance_wrist_2_joint": 1.0592679505889953,
        "distance_wrist_3_joint": 3.335417230457531,
        "smoothness": 0.33746157237590424,
        "time": 0.19858488500000002,
        "traj_len": 3.695525027126724,
        "weighted_distance": 4.824692051409963
    },
    "planner": "RRT",
    "start": {
        "state": {
            "elbow_joint": 2.39358713078474,
            "shoulder_lift_joint": -1.908514104345545,
            "shoulder_pan_joint": 0.7066247066606129,
            "wrist_1_joint": -0.4678290933515497,
            "wrist_2_joint": 0.7096259083745334,
            "wrist_3_joint": -3.1358149277392293
        }
    },
    "waypoints": [
        {
            "positions": [
                0.7066247066606129,
                -1.908514104345545,
                2.39358713078474,
                -0.4678290933515497,
                0.7096259083745334,
                -3.1358149277392293
            ]
        },
        {
            "positions": [
                0.649954412856982,
                -1.924297042424633,
                2.355047854905089,
                -0.3658423088719349,
                0.6102228735416151,
                -3.07215546907759
            ]
        },
        {
            "positions": [
                0.593284119053351,
                -1.9400799805037212,
                2.3165085790254376,
                -0.2638555243923201,
                0.5108198387086966,
                -3.008496010415951
            ]
        },
        {
            "positions": [
                0.5366138252497201,
                -1.9558629185828096,
                2.277969303145786,
                -0.16186873991270534,
                0.41141680387577834,
                -2.944836551754312
            ]
        },
        {
            "positions": [
                0.47994353144608914,
                -1.9716458566618977,
                2.2394300272661347,
                -0.059881955433090495,
                0.31201376904285993,
                -2.881177093092673
            ]
        },
        {
            "positions": [
                0.42327323764245817,
                -1.9874287947409859,
                2.2008907513864835,
                0.042104829046524274,
                0.21261073420994156,
                -2.8175176344310335
            ]
        },
        {
            "positions": [
                0.4086719601714507,
                -1.9713058307345777,
                2.106259244685797,
                0.08631065772921198,
                0.18287709294594606,
                -2.6938962920764054
            ]
        },
        {
            "positions": [
                0.3940706827004432,
                -1.9551828667281694,
                2.01162773798511,
                0.1305164864118997,
                0.15314345168195054,
                -2.570274949721777
            ]
        },
        {
            "positions": [
                0.37946940522943573,
                -1.9390599027217612,
                1.9169962312844238,
                0.1747223150945874,
                0.12340981041795504,
                -2.446653607367149
            ]
        },
        {
            "positions": [
                0.45985496998812575,
                -1.9398825194288998,
                1.7616730206596012,
                0.21936994968242715,
                0.12091429068622549,
                -2.3381244516193047
            ]
        },
        {
            "positions": [
                0.5402405347468158,
                -1.9407051361360381,
                1.6063498100347784,
                0.2640175842702669,
                0.11841877095449593,
                -2.2295952958714604
            ]
        },
        {
            "positions": [
                0.6206260995055058,
                -1.9415277528431767,
                1.4510265994099558,
                0.30866521885810666,
                0.11592325122276637,
                -2.121066140123616
            ]
        },
        {
            "positions": [
                0.7010116642641959,
                -1.942350369550315,
                1.295703388785133,
                0.35331285344594643,
                0.11342773149103681,
                -2.012536984375772
            ]
        },
        {
            "positions": [
                0.7813972290228859,
                -1.9431729862574536,
                1.1403801781603105,
                0.39796048803378614,
                0.11093221175930726,
                -1.9040078286279274
            ]
        },
        {
            "positions": [
                0.8617827937815759,
                -1.9439956029645922,
                0.9850569675354879,
                0.4426081226216259,
                0.1084366920275777,
                -1.795478672880083
            ]
        },
        {
            "positions": [
                0.942168358540266,
                -1.9448182196717305,
                0.8297337569106651,
                0.4872557572094657,
                0.10594117229584815,
                -1.6869495171322386
            ]
        },
        {
            "positions": [
                1.022553923298956,
                -1.945640836378869,
                0.6744105462858425,
                0.5319033917973054,
                0.10344565256411858,
                -1.5784203613843943
            ]
        },
        {
            "positions": [
                1.102939488057646,
                -1.9464634530860074,
                0.5190873356610199,
                0.5765510263851452,
                0.10095013283238903,
                -1.46989120563655
            ]
        },
        {
            "positions": [
                1.1833250528163362,
                -1.947286069793146,
                0.36376412503619737,
                0.6211986609729849,
                0.09845461310065948,
                -1.3613620498887058
            ]
        },
        {
            "positions": [
                1.2637106175750261,
                -1.9481086865002846,
                0.20844091441137458,
                0.6658462955608246,
                0.09595909336892991,
                -1.2528328941408613
            ]
        },
        {
            "positions": [
                1.344096182333716,
                -1.948931303207423,
                0.053117703786552006,
                0.7104939301486644,
                0.09346357363720037,
                -1.144303738393017
            ]
        },
        {
            "positions": [
                1.4244817470924063,
                -1.9497539199145615,
                -0.10220550683827057,
                0.7551415647365041,
                0.0909680539054708,
                -1.0357745826451727
            ]
        },
        {
            "positions": [
                1.5048673118510965,
                -1.9505765366217,
                -0.2575287174630936,
                0.799789199324344,
                0.08847253417374125,
                -0.9272454268973283
            ]
        },
        {
            "positions": [
                1.5852528766097862,
                -1.9513991533288384,
                -0.41285192808791615,
                0.8444368339121837,
                0.0859770144420117,
                -0.818716271149484
            ]
        },
        {
            "positions": [
                1.6656384413684764,
                -1.952221770035977,
                -0.5681751387127387,
                0.8890844685000234,
                0.08348149471028213,
                -0.7101871154016397
            ]
        },
        {
            "positions": [
                1.7460240061271661,
                -1.9530443867431153,
                -0.7234983493375613,
                0.9337321030878631,
                0.08098597497855259,
                -0.6016579596537954
            ]
        },
        {
            "positions": [
                1.8264095708858563,
                -1.9538670034502539,
                -0.8788215599623839,
                0.9783797376757031,
                0.07849045524682302,
                -0.49312880390595093
            ]
        },
        {
            "positions": [
                1.9067951356445465,
                -1.9546896201573924,
                -1.0341447705872064,
                1.0230273722635428,
                0.07599493551509347,
                -0.38459964815810643
            ]
        },
        {
            "positions": [
                1.9871807004032362,
                -1.9555122368645308,
                -1.189467981212029,
                1.0676750068513825,
                0.07349941578336391,
                -0.2760704924102626
            ]
        },
        {
            "positions": [
                2.0675662651619264,
                -1.9563348535716694,
                -1.3447911918368516,
                1.1123226414392222,
                0.07100389605163435,
                -0.16754133666241833
            ]
        },
        {
            "positions": [
                2.1479518299206166,
                -1.9571574702788077,
                -1.5001144024616746,
                1.156970276027062,
                0.06850837631990479,
                -0.05901218091457361
            ]
        },
        {
            "positions": [
                2.2283373946793064,
                -1.9579800869859463,
                -1.655437613086497,
                1.2016179106149016,
                0.06601285658817524,
                0.049516974833270444
            ]
        },
        {
            "positions": [
                2.3337562528023605,
                -2.0833272024938325,
                -1.6634517873293193,
                1.146334395890267,
                0.1447331846846657,
                0.02671050626220957
            ]
        },
        {
            "positions": [
                2.4391751109254147,
                -2.2086743180017185,
                -1.6714659615721414,
                1.0910508811656323,
                0.22345351278115616,
                0.003904037691148693
            ]
        },
        {
            "positions": [
                2.544593969048469,
                -2.334021433509605,
                -1.6794801358149636,
                1.0357673664409976,
                0.30217384087764665,
                -0.018902430879912183
            ]
        },
        {
            "positions": [
                2.650012827171523,
                -2.459368549017491,
                -1.687494310057786,
                0.9804838517163629,
                0.3808941689741371,
                -0.04170889945097306
            ]
        },
        {
            "positions": [
                2.659369117322604,
                -2.477598933797849,
                -1.6698790861563972,
                0.980548542165808,
                0.4816677553908122,
                0.017150554149815197
            ]
        }
    ]
}