{
    "goal": {
        "global_pose": {
            "orientation": {
                "w": -0.00223480608172531,
                "x": 0.0024358444001904467,
                "y": 0.7094548369677653,
                "z": -0.704743149386269
            },
            "position": {
                "x": 0.6205249238014221,
                "y": -0.6371506643295288,
                "z": 0.19426114857196808
            }
        },
        "name": "move_to_magneteinheit_B"
    },
    "id": "RRT_move_to_magneteinheit_B_129",
    "joint_names": [
        "shoulder_pan_joint",
        "shoulder_lift_joint",
        "elbow_joint",
        "wrist_1_joint",
        "wrist_2_joint",
        "wrist_3_joint"
    ],
    "metrics": {
        "cart_traj_len": 1.4533280893385176,
        "distance_elbow_joint": 0.7278708641743252,
        "distance_shoulder_lift_joint": 1.247757474308412,
        "distance_shoulder_pan_joint": 1.6217720662046133,
        "distance_wrist_1_joint": 2.6107920937780773,
        "distance_wrist_2_joint": 2.9378934280889673,
        "distance_wrist_3_joint": 3.145492480640604,
        "smoothness": 1.6148698516042368e-16,
        "time": 0.828744241,
        "traj_len": 3.505934740863698,
        "weighted_distance": 4.912356755198391
    },
    "planner": "RRT",
    "start": {
        "state": {
            "elbow_joint": 2.39358713078474,
            "shoulder_lift_joint": -1.908514104345545,
            "shoulder_pan_joint": 0.7066247066606129,
            "wrist_1_joint": -0.4678290933515497,
            "wrist_2_joint": 0.7096259083745334,
            "wrist_3_joint": -3.1358149277392293
        }
    },
    "waypoints": [
        {
            "positions": [
                0.7066247066606129,
                -1.908514104345545,
                2.39358713078474,
                -0.4678290933515497,
                0.7096259083745334,
                -3.1358149277392293
            ]
        },
        {
            "positions": [
                0.6559443295917188,
                -1.869521683273407,
                2.3708411662792925,
                -0.3862418404209848,
                0.6178167387467532,
                -3.0375182877192106
            ]
        },
        {
            "positions": [
                0.6052639525228246,
                -1.8305292622012692,
                2.3480952017738446,
                -0.30465458749041985,
                0.526007569118973,
                -2.9392216476991915
            ]
        },
        {
            "positions": [
                0.5545835754539304,
                -1.7915368411291313,
                2.325349237268397,
                -0.22306733455985495,
                0.43419839949119277,
                -2.8409250076791728
            ]
        },
        {
            "positions": [
                0.5039031983850363,
                -1.7525444200569935,
                2.3026032727629495,
                -0.14148008162929004,
                0.3423892298634125,
                -2.7426283676591536
            ]
        },
        {
            "positions": [
                0.4532228213161421,
                -1.7135519989848556,
                2.2798573082575015,
                -0.05989282869872514,
                0.2505800602356323,
                -2.644331727639135
            ]
        },
        {
            "positions": [
                0.40254244424724794,
                -1.6745595779127176,
                2.257111343752054,
                0.021694424231839815,
                0.1587708906078521,
                -2.5460350876191162
            ]
        },
        {
            "positions": [
                0.3518620671783538,
                -1.6355671568405796,
                2.2343653792466065,
                0.10328167716240472,
                0.0669617209800718,
                -2.447738447599097
            ]
        },
        {
            "positions": [
                0.3011816901094596,
                -1.5965747357684419,
                2.2116194147411585,
                0.18486893009296962,
                -0.02484744864770838,
                -2.3494418075790784
            ]
        },
        {
            "positions": [
                0.25050131304056544,
                -1.5575823146963041,
                2.188873450235711,
                0.2664561830235345,
                -0.11665661827548857,
                -2.2511451675590592
            ]
        },
        {
            "positions": [
                0.19982093597167128,
                -1.5185898936241662,
                2.1661274857302635,
                0.3480434359540994,
                -0.20846578790326886,
                -2.1528485275390405
            ]
        },
        {
            "positions": [
                0.1491405589027771,
                -1.4795974725520282,
                2.143381521224816,
                0.4296306888846643,
                -0.30027495753104916,
                -2.054551887519022
            ]
        },
        {
            "positions": [
                0.09846018183388294,
                -1.4406050514798903,
                2.120635556719368,
                0.5112179418152294,
                -0.39208412715882923,
                -1.9562552474990027
            ]
        },
        {
            "positions": [
                0.047779804764988776,
                -1.4016126304077525,
                2.0978895922139205,
                0.5928051947457942,
                -0.48389329678660953,
                -1.8579586074789838
            ]
        },
        {
            "positions": [
                -0.002900572303905391,
                -1.3626202093356146,
                2.075143627708473,
                0.6743924476763592,
                -0.5757024664143898,
                -1.759661967458965
            ]
        },
        {
            "positions": [
                -0.05358094937279956,
                -1.3236277882634768,
                2.052397663203025,
                0.755979700606924,
                -0.6675116360421699,
                -1.6613653274389462
            ]
        },
        {
            "positions": [
                -0.10426132644169372,
                -1.2846353671913389,
                2.0296516986975774,
                0.837566953537489,
                -0.7593208056699502,
                -1.5630686874189272
            ]
        },
        {
            "positions": [
                -0.1549417035105879,
                -1.245642946119201,
                2.00690573419213,
                0.919154206468054,
                -0.8511299752977305,
                -1.4647720473989083
            ]
        },
        {
            "positions": [
                -0.20562208057948206,
                -1.2066505250470632,
                1.9841597696866822,
                1.0007414593986188,
                -0.9429391449255106,
                -1.3664754073788894
            ]
        },
        {
            "positions": [
                -0.2563024576483762,
                -1.1676581039749252,
                1.9614138051812344,
                1.0823287123291838,
                -1.034748314553291,
                -1.2681787673588707
            ]
        },
        {
            "positions": [
                -0.3069828347172704,
                -1.1286656829027875,
                1.938667840675787,
                1.1639159652597486,
                -1.1265574841810713,
                -1.1698821273388518
            ]
        },
        {
            "positions": [
                -0.35766321178616456,
                -1.0896732618306495,
                1.9159218761703392,
                1.2455032181903136,
                -1.2183666538088511,
                -1.0715854873188326
            ]
        },
        {
            "positions": [
                -0.4083435888550587,
                -1.0506808407585115,
                1.8931759116648914,
                1.3270904711208784,
                -1.3101758234366319,
                -0.9732888472988139
            ]
        },
        {
            "positions": [
                -0.4590239659239529,
                -1.0116884196863736,
                1.8704299471594439,
                1.4086777240514434,
                -1.4019849930644117,
                -0.8749922072787952
            ]
        },
        {
            "positions": [
                -0.5097043429928471,
                -0.9726959986142358,
                1.8476839826539961,
                1.4902649769820084,
                -1.493794162692192,
                -0.7766955672587761
            ]
        },
        {
            "positions": [
                -0.5603847200617412,
                -0.933703577542098,
                1.8249380181485484,
                1.5718522299125732,
                -1.5856033323199723,
                -0.6783989272387574
            ]
        },
        {
            "positions": [
                -0.6110650971306354,
                -0.8947111564699601,
                1.8021920536431009,
                1.653439482843138,
                -1.6774125019477526,
                -0.5801022872187382
            ]
        },
        {
            "positions": [
                -0.6617454741995296,
                -0.8557187353978222,
                1.7794460891376531,
                1.7350267357737033,
                -1.769221671575533,
                -0.48180564719871954
            ]
        },
        {
            "positions": [
                -0.7124258512684237,
                -0.8167263143256842,
                1.7567001246322054,
                1.816613988704268,
                -1.8610308412033132,
                -0.38350900717870084
            ]
        },
        {
            "positions": [
                -0.7631062283373179,
                -0.7777338932535465,
                1.7339541601267578,
                1.8982012416348328,
                -1.952840010831093,
                -0.2852123671586817
            ]
        },
        {
            "positions": [
                -0.8137866054062121,
                -0.7387414721814085,
                1.71120819562131,
                1.9797884945653976,
                -2.0446491804588733,
                -0.186915727138663
            ]
        },
        {
            "positions": [
                -0.8644669824751062,
                -0.6997490511092708,
                1.6884622311158624,
                2.061375747495963,
                -2.1364583500866536,
                -0.08861908711864386
            ]
        },
        {
            "positions": [
                -0.9151473595440005,
                -0.6607566300371329,
                1.6657162666104148,
                2.1429630004265277,
                -2.228267519714434,
                0.009677552901375048
            ]
        }
    ]
}