{
    "goal": {
        "global_pose": {
            "orientation": {
                "w": -0.00223480608172531,
                "x": 0.0024358444001904467,
                "y": 0.7094548369677653,
                "z": -0.704743149386269
            },
            "position": {
                "x": 0.6205249238014221,
                "y": -0.6371506643295288,
                "z": 0.19426114857196808
            }
        },
        "name": "move_to_magneteinheit_B"
    },
    "id": "RRT_move_to_magneteinheit_B_114",
    "joint_names": [
        "shoulder_pan_joint",
        "shoulder_lift_joint",
        "elbow_joint",
        "wrist_1_joint",
        "wrist_2_joint",
        "wrist_3_joint"
    ],
    "metrics": {
        "cart_traj_len": 1.45391731427793,
        "distance_elbow_joint": 0.7268495327837206,
        "distance_shoulder_lift_joint": 1.245896331275063,
        "distance_shoulder_pan_joint": 1.6206063177210142,
        "distance_wrist_1_joint": 2.620466654023716,
        "distance_wrist_2_joint": 2.937731626602009,
        "distance_wrist_3_joint": 3.146737854529295,
        "smoothness": 5.113754555385124e-16,
        "time": 0.126318243,
        "traj_len": 3.506891546217935,
        "weighted_distance": 4.914261115022191
    },
    "planner": "RRT",
    "start": {
        "state": {
            "elbow_joint": 2.39358713078474,
            "shoulder_lift_joint": -1.908514104345545,
            "shoulder_pan_joint": 0.7066247066606129,
            "wrist_1_joint": -0.4678290933515497,
            "wrist_2_joint": 0.7096259083745334,
            "wrist_3_joint": -3.1358149277392293
        }
    },
    "waypoints": [
        {
            "positions": [
                0.7066247066606129,
                -1.908514104345545,
                2.39358713078474,
                -0.4678290933515497,
                0.7096259083745334,
                -3.1358149277392293
            ]
        },
        {
            "positions": [
                0.6559807592318313,
                -1.8695798439931992,
                2.370873082885249,
                -0.3859395104133086,
                0.6178217950432207,
                -3.037479369785189
            ]
        },
        {
            "positions": [
                0.6053368118030495,
                -1.8306455836408535,
                2.3481590349857577,
                -0.3040499274750674,
                0.5260176817119079,
                -2.9391438118311486
            ]
        },
        {
            "positions": [
                0.5546928643742679,
                -1.7917113232885078,
                2.325444987086266,
                -0.22216034453682632,
                0.4342135683805951,
                -2.840808253877108
            ]
        },
        {
            "positions": [
                0.5040489169454861,
                -1.752777062936162,
                2.302730939186775,
                -0.1402707615985852,
                0.34240945504928233,
                -2.7424726959230674
            ]
        },
        {
            "positions": [
                0.4534049695167045,
                -1.7138428025838164,
                2.280016891287284,
                -0.05838117866034409,
                0.25060534171796955,
                -2.644137137969027
            ]
        },
        {
            "positions": [
                0.4027610220879228,
                -1.6749085422314707,
                2.2573028433877926,
                0.023508404277897077,
                0.15880122838665678,
                -2.5458015800149862
            ]
        },
        {
            "positions": [
                0.3521170746591411,
                -1.635974281879125,
                2.234588795488301,
                0.10539798721613819,
                0.066997115055344,
                -2.447466022060946
            ]
        },
        {
            "positions": [
                0.3014731272303594,
                -1.5970400215267793,
                2.21187474758881,
                0.1872875701543793,
                -0.024806998275968772,
                -2.3491304641069055
            ]
        },
        {
            "positions": [
                0.2508291798015777,
                -1.5581057611744336,
                2.1891606996893187,
                0.2691771530926204,
                -0.11661111160728155,
                -2.250794906152865
            ]
        },
        {
            "positions": [
                0.20018523237279606,
                -1.5191715008220879,
                2.1664466517898275,
                0.3510667360308615,
                -0.20841522493859432,
                -2.152459348198825
            ]
        },
        {
            "positions": [
                0.1495412849440143,
                -1.480237240469742,
                2.143732603890336,
                0.43295631896910264,
                -0.3002193382699071,
                -2.054123790244784
            ]
        },
        {
            "positions": [
                0.09889733751523266,
                -1.4413029801173962,
                2.1210185559908448,
                0.5148459019073439,
                -0.3920234516012199,
                -1.9557882322907436
            ]
        },
        {
            "positions": [
                0.04825339008645091,
                -1.4023687197650505,
                2.0983045080913536,
                0.596735484845585,
                -0.48382756493253265,
                -1.8574526743367032
            ]
        },
        {
            "positions": [
                -0.0023905573423307347,
                -1.3634344594127048,
                2.0755904601918624,
                0.6786250677838261,
                -0.5756316782638454,
                -1.7591171163826627
            ]
        },
        {
            "positions": [
                -0.05303450477111249,
                -1.324500199060359,
                2.0528764122923713,
                0.7605146507220673,
                -0.6674357915951582,
                -1.660781558428622
            ]
        },
        {
            "positions": [
                -0.10367845219989413,
                -1.2855659387080134,
                2.0301623643928797,
                0.8424042336603084,
                -0.759239904926471,
                -1.5624460004745817
            ]
        },
        {
            "positions": [
                -0.15432239962867578,
                -1.2466316783556677,
                2.0074483164933885,
                0.9242938165985495,
                -0.8510440182577838,
                -1.4641104425205413
            ]
        },
        {
            "positions": [
                -0.20496634705745753,
                -1.207697418003322,
                1.9847342685938973,
                1.0061833995367906,
                -0.9428481315890965,
                -1.3657748845665008
            ]
        },
        {
            "positions": [
                -0.2556102944862392,
                -1.1687631576509763,
                1.962020220694406,
                1.0880729824750317,
                -1.0346522449204092,
                -1.2674393266124602
            ]
        },
        {
            "positions": [
                -0.3062542419150208,
                -1.1298288972986306,
                1.9393061727949146,
                1.1699625654132728,
                -1.1264563582517222,
                -1.1691037686584198
            ]
        },
        {
            "positions": [
                -0.3568981893438027,
                -1.0908946369462846,
                1.9165921248954234,
                1.251852148351514,
                -1.2182604715830347,
                -1.0707682107043794
            ]
        },
        {
            "positions": [
                -0.40754213677258433,
                -1.051960376593939,
                1.8938780769959322,
                1.333741731289755,
                -1.3100645849143477,
                -0.9724326527503386
            ]
        },
        {
            "positions": [
                -0.458186084201366,
                -1.0130261162415932,
                1.8711640290964409,
                1.4156313142279962,
                -1.4018686982456603,
                -0.8740970947962983
            ]
        },
        {
            "positions": [
                -0.5088300316301476,
                -0.9740918558892476,
                1.8484499811969497,
                1.4975208971662375,
                -1.4936728115769733,
                -0.7757615368422579
            ]
        },
        {
            "positions": [
                -0.5594739790589293,
                -0.9351575955369019,
                1.8257359332974583,
                1.5794104801044786,
                -1.5854769249082863,
                -0.6774259788882175
            ]
        },
        {
            "positions": [
                -0.6101179264877111,
                -0.8962233351845561,
                1.8030218853979672,
                1.6613000630427197,
                -1.6772810382395988,
                -0.5790904209341772
            ]
        },
        {
            "positions": [
                -0.6607618739164928,
                -0.8572890748322104,
                1.780307837498476,
                1.7431896459809608,
                -1.7690851515709114,
                -0.48075486298013637
            ]
        },
        {
            "positions": [
                -0.7114058213452744,
                -0.8183548144798647,
                1.7575937895989846,
                1.825079228919202,
                -1.8608892649022244,
                -0.382419305026096
            ]
        },
        {
            "positions": [
                -0.7620497687740561,
                -0.779420554127519,
                1.7348797416994932,
                1.906968811857443,
                -1.9526933782335374,
                -0.28408374707205564
            ]
        },
        {
            "positions": [
                -0.8126937162028379,
                -0.7404862937751733,
                1.712165693800002,
                1.9888583947956842,
                -2.04449749156485,
                -0.18574818911801483
            ]
        },
        {
            "positions": [
                -0.8633376636316196,
                -0.7015520334228276,
                1.689451645900511,
                2.0707479777339253,
                -2.1363016048961625,
                -0.08741263116397446
            ]
        },
        {
            "positions": [
                -0.9139816110604012,
                -0.6626177730704818,
                1.6667375980010195,
                2.1526375606721664,
                -2.2281057182274755,
                0.01092292679006608
            ]
        }
    ]
}