{
    "goal": {
        "global_pose": {
            "orientation": {
                "w": 0.5084816217422485,
                "x": -0.49083608388900757,
                "y": 0.5182115435600281,
                "z": -0.4816462993621826
            },
            "position": {
                "x": 0.5540239810943604,
                "y": 0.030875300988554955,
                "z": 0.16403168439865112
            }
        },
        "name": "move_to_storage_A"
    },
    "id": "RRT_move_to_storage_A_132",
    "joint_names": [
        "shoulder_pan_joint",
        "shoulder_lift_joint",
        "elbow_joint",
        "wrist_1_joint",
        "wrist_2_joint",
        "wrist_3_joint"
    ],
    "metrics": {
        "cart_traj_len": 0.3526268083100286,
        "distance_elbow_joint": 0.45145913778993396,
        "distance_shoulder_lift_joint": 0.23187519594913408,
        "distance_shoulder_pan_joint": 0.45954327193549227,
        "distance_wrist_1_joint": 0.2554581003368207,
        "distance_wrist_2_joint": 1.1033908036181592,
        "distance_wrist_3_joint": 0.09409770232264458,
        "smoothness": 6.661338200497456e-16,
        "time": 0.015041766,
        "traj_len": 1.6111561724277956,
        "weighted_distance": 2.035403773346324
    },
    "planner": "RRT",
    "start": {
        "state": {
            "elbow_joint": 1.9715463870305268,
            "shoulder_lift_joint": -1.1394903361783484,
            "shoulder_pan_joint": 0.12281147578464417,
            "wrist_1_joint": -0.7804599489681411,
            "wrist_2_joint": 0.12958660307563738,
            "wrist_3_joint": -3.1924946282119055
        }
    },
    "waypoints": [
        {
            "positions": [
                0.12281147578464417,
                -1.1394903361783484,
                1.9715463870305268,
                -0.7804599489681411,
                0.12958660307563738,
                -3.1924946282119055
            ]
        },
        {
            "positions": [
                0.057162436936716715,
                -1.172615364171082,
                2.036040549571946,
                -0.8169539633019726,
                0.2872138607353744,
                -3.1790520993086706
            ]
        },
        {
            "positions": [
                -0.008486601911210742,
                -1.2057403921638152,
                2.100534712113365,
                -0.8534479776358042,
                0.4448411183951114,
                -3.1656095704054357
            ]
        },
        {
            "positions": [
                -0.07413564075913821,
                -1.2388654201565488,
                2.165028874654784,
                -0.8899419919696356,
                0.6024683760548485,
                -3.1521670415022007
            ]
        },
        {
            "positions": [
                -0.13978467960706564,
                -1.271990448149282,
                2.2295230371962034,
                -0.9264360063034672,
                0.7600956337145856,
                -3.138724512598966
            ]
        },
        {
            "positions": [
                -0.20543371845499314,
                -1.3051154761420156,
                2.2940171997376226,
                -0.9629300206372987,
                0.9177228913743226,
                -3.125281983695731
            ]
        },
        {
            "positions": [
                -0.2710827573029206,
                -1.338240504134749,
                2.3585113622790415,
                -0.9994240349711303,
                1.0753501490340596,
                -3.111839454792496
            ]
        },
        {
            "positions": [
                -0.3367317961508481,
                -1.3713655321274825,
                2.4230055248204607,
                -1.0359180493049618,
                1.2329774066937966,
                -3.098396925889261
            ]
        }
    ]
}