{
    "goal": {
        "global_pose": {
            "orientation": {
                "w": 0.7047431468963623,
                "x": -0.7094548344612122,
                "y": 0.0024358443915843964,
                "z": -0.0022348060738295317
            },
            "position": {
                "x": 0.6094750761985779,
                "y": 0.3671506643295288,
                "z": 0.19426114857196808
            }
        },
        "name": "move_to_magneteinheit_A"
    },
    "id": "RRT_move_to_magneteinheit_A_76",
    "joint_names": [
        "shoulder_pan_joint",
        "shoulder_lift_joint",
        "elbow_joint",
        "wrist_1_joint",
        "wrist_2_joint",
        "wrist_3_joint"
    ],
    "metrics": {
        "cart_traj_len": 1.8676463534354606,
        "distance_elbow_joint": 3.9392532049289732,
        "distance_shoulder_lift_joint": 0.7130860452137743,
        "distance_shoulder_pan_joint": 1.2419923585925587,
        "distance_wrist_1_joint": 1.5838102065729525,
        "distance_wrist_2_joint": 1.7020806762278953,
        "distance_wrist_3_joint": 1.2173229089010258,
        "smoothness": 1.5860328959332069e-16,
        "time": 0.388577176,
        "traj_len": 3.2245225073547212,
        "weighted_distance": 4.0147331294919315
    },
    "planner": "RRT",
    "start": {
        "state": {
            "elbow_joint": -1.919643507792019,
            "shoulder_lift_joint": -0.07675430207160344,
            "shoulder_pan_joint": -1.1188671864651873,
            "wrist_1_joint": 0.42560062535961957,
            "wrist_2_joint": 1.5706038300724876,
            "wrist_3_joint": 1.1188968870953055
        }
    },
    "waypoints": [
        {
            "positions": [
                -1.1188671864651873,
                -0.07675430207160344,
                -1.919643507792019,
                0.42560062535961957,
                1.5706038300724876,
                1.1188968870953055
            ]
        },
        {
            "positions": [
                -1.0728674694802778,
                -0.10316489633878027,
                -1.7737452409427978,
                0.4842602626400993,
                1.50756380502701,
                1.0738108534323045
            ]
        },
        {
            "positions": [
                -1.0268677524953682,
                -0.1295754906059571,
                -1.6278469740935766,
                0.542919899920579,
                1.4445237799815325,
                1.0287248197693037
            ]
        },
        {
            "positions": [
                -0.9808680355104586,
                -0.15598608487313392,
                -1.4819487072443553,
                0.6015795372010587,
                1.3814837549360548,
                0.9836387861063027
            ]
        },
        {
            "positions": [
                -0.9348683185255491,
                -0.18239667914031077,
                -1.3360504403951343,
                0.6602391744815385,
                1.3184437298905771,
                0.9385527524433017
            ]
        },
        {
            "positions": [
                -0.8888686015406394,
                -0.2088072734074876,
                -1.190152173545913,
                0.7188988117620181,
                1.2554037048450997,
                0.8934667187803008
            ]
        },
        {
            "positions": [
                -0.8428688845557298,
                -0.2352178676746644,
                -1.0442539066966918,
                0.7775584490424978,
                1.192363679799622,
                0.8483806851172998
            ]
        },
        {
            "positions": [
                -0.7968691675708203,
                -0.2616284619418412,
                -0.8983556398474706,
                0.8362180863229776,
                1.1293236547541445,
                0.8032946514542989
            ]
        },
        {
            "positions": [
                -0.7508694505859107,
                -0.28803905620901804,
                -0.7524573729982493,
                0.8948777236034573,
                1.0662836297086669,
                0.7582086177912979
            ]
        },
        {
            "positions": [
                -0.7048697336010011,
                -0.3144496504761949,
                -0.6065591061490281,
                0.953537360883937,
                1.0032436046631892,
                0.713122584128297
            ]
        },
        {
            "positions": [
                -0.6588700166160915,
                -0.34086024474337173,
                -0.46066083929980683,
                1.0121969981644168,
                0.9402035796177116,
                0.6680365504652961
            ]
        },
        {
            "positions": [
                -0.612870299631182,
                -0.3672708390105485,
                -0.3147625724505856,
                1.0708566354448965,
                0.877163554572234,
                0.6229505168022951
            ]
        },
        {
            "positions": [
                -0.5668705826462723,
                -0.39368143327772537,
                -0.16886430560136434,
                1.1295162727253762,
                0.8141235295267564,
                0.5778644831392941
            ]
        },
        {
            "positions": [
                -0.5208708656613628,
                -0.4200920275449022,
                -0.022966038752143092,
                1.188175910005856,
                0.7510835044812788,
                0.5327784494762932
            ]
        },
        {
            "positions": [
                -0.4748711486764532,
                -0.446502621812079,
                0.12293222809707793,
                1.2468355472863357,
                0.6880434794358012,
                0.48769241581329226
            ]
        },
        {
            "positions": [
                -0.4288714316915436,
                -0.4729132160792559,
                0.2688304949462996,
                1.3054951845668155,
                0.6250034543903236,
                0.44260638215029124
            ]
        },
        {
            "positions": [
                -0.38287171470663406,
                -0.4993238103464327,
                0.41472876179552043,
                1.364154821847295,
                0.5619634293448461,
                0.39752034848729034
            ]
        },
        {
            "positions": [
                -0.3368719977217244,
                -0.5257344046136095,
                0.5606270286447421,
                1.422814459127775,
                0.49892340429936843,
                0.35243431482428933
            ]
        },
        {
            "positions": [
                -0.2908722807368149,
                -0.5521449988807863,
                0.7065252954939629,
                1.4814740964082544,
                0.43588337925389076,
                0.30734828116128843
            ]
        },
        {
            "positions": [
                -0.24487256375190525,
                -0.5785555931479631,
                0.8524235623431842,
                1.5401337336887344,
                0.3728433542084131,
                0.2622622474982874
            ]
        },
        {
            "positions": [
                -0.19887284676699568,
                -0.60496618741514,
                0.9983218291924054,
                1.598793370969214,
                0.3098033291629356,
                0.2171762138352865
            ]
        },
        {
            "positions": [
                -0.15287312978208611,
                -0.6313767816823168,
                1.1442200960416267,
                1.6574530082496939,
                0.24676330411745795,
                0.1720901801722855
            ]
        },
        {
            "positions": [
                -0.10687341279717666,
                -0.6577873759494937,
                1.290118362890848,
                1.7161126455301734,
                0.1837232790719805,
                0.1270041465092846
            ]
        },
        {
            "positions": [
                -0.06087369581226687,
                -0.6841979702166705,
                1.4360166297400692,
                1.7747722828106531,
                0.12068325402650282,
                0.08191811284628359
            ]
        },
        {
            "positions": [
                -0.014873978827357304,
                -0.7106085644838473,
                1.5819148965892904,
                1.8334319200911329,
                0.05764322898102514,
                0.03683207918328257
            ]
        },
        {
            "positions": [
                0.031125738157552263,
                -0.7370191587510242,
                1.7278131634385117,
                1.8920915573716126,
                -0.005396796064452536,
                -0.00825395447971844
            ]
        },
        {
            "positions": [
                0.07712545514246183,
                -0.763429753018201,
                1.873711430287733,
                1.9507511946520923,
                -0.06843682110992999,
                -0.05333998814271923
            ]
        },
        {
            "positions": [
                0.12312517212737133,
                -0.7898403472853778,
                2.019609697136954,
                2.009410831932572,
                -0.1314768461554076,
                -0.09842602180572024
            ]
        }
    ]
}