{
    "goal": {
        "global_pose": {
            "orientation": {
                "w": 0.7047431468963623,
                "x": -0.7094548344612122,
                "y": 0.0024358443915843964,
                "z": -0.0022348060738295317
            },
            "position": {
                "x": 0.6094750761985779,
                "y": 0.3671506643295288,
                "z": 0.19426114857196808
            }
        },
        "name": "move_to_magneteinheit_A"
    },
    "id": "RRT_move_to_magneteinheit_A_23",
    "joint_names": [
        "shoulder_pan_joint",
        "shoulder_lift_joint",
        "elbow_joint",
        "wrist_1_joint",
        "wrist_2_joint",
        "wrist_3_joint"
    ],
    "metrics": {
        "cart_traj_len": 1.880676339260164,
        "distance_elbow_joint": 3.9046402251722885,
        "distance_shoulder_lift_joint": 0.6965154413535337,
        "distance_shoulder_pan_joint": 1.2404278057561837,
        "distance_wrist_1_joint": 1.477028142930248,
        "distance_wrist_2_joint": 1.689839228953742,
        "distance_wrist_3_joint": 1.100950262153257,
        "smoothness": 4.605369602249375e-16,
        "time": 0.042251325,
        "traj_len": 3.179528440872837,
        "weighted_distance": 3.9342304206171956
    },
    "planner": "RRT",
    "start": {
        "state": {
            "elbow_joint": -1.919643507792019,
            "shoulder_lift_joint": -0.07675430207160344,
            "shoulder_pan_joint": -1.1188671864651873,
            "wrist_1_joint": 0.42560062535961957,
            "wrist_2_joint": 1.5706038300724876,
            "wrist_3_joint": 1.1188968870953055
        }
    },
    "waypoints": [
        {
            "positions": [
                -1.1188671864651873,
                -0.07675430207160344,
                -1.919643507792019,
                0.42560062535961957,
                1.5706038300724876,
                1.1188968870953055
            ]
        },
        {
            "positions": [
                -1.071158424705334,
                -0.10354335750827781,
                -1.769465037593085,
                0.48240940008770605,
                1.5056100135742667,
                1.0765526462432573
            ]
        },
        {
            "positions": [
                -1.023449662945481,
                -0.13033241294495218,
                -1.6192865673941508,
                0.5392181748157925,
                1.4406161970760458,
                1.0342084053912088
            ]
        },
        {
            "positions": [
                -0.9757409011856277,
                -0.15712146838162655,
                -1.4691080971952166,
                0.596026949543879,
                1.3756223805778252,
                0.9918641645391605
            ]
        },
        {
            "positions": [
                -0.9280321394257744,
                -0.18391052381830095,
                -1.3189296269962822,
                0.6528357242719655,
                1.3106285640796043,
                0.9495199236871121
            ]
        },
        {
            "positions": [
                -0.8803233776659212,
                -0.21069957925497532,
                -1.1687511567973483,
                0.7096444990000519,
                1.2456347475813834,
                0.9071756828350638
            ]
        },
        {
            "positions": [
                -0.832614615906068,
                -0.23748863469164969,
                -1.018572686598414,
                0.7664532737281384,
                1.1806409310831625,
                0.8648314419830154
            ]
        },
        {
            "positions": [
                -0.7849058541462148,
                -0.264277690128324,
                -0.86839421639948,
                0.8232620484562247,
                1.1156471145849416,
                0.8224872011309672
            ]
        },
        {
            "positions": [
                -0.7371970923863616,
                -0.29106674556499845,
                -0.7182157462005456,
                0.8800708231843113,
                1.0506532980867207,
                0.7801429602789187
            ]
        },
        {
            "positions": [
                -0.6894883306265084,
                -0.31785580100167277,
                -0.5680372760016115,
                0.9368795979123978,
                0.9856594815885,
                0.7377987194268705
            ]
        },
        {
            "positions": [
                -0.6417795688666551,
                -0.3446448564383472,
                -0.4178588058026773,
                0.9936883726404842,
                0.9206656650902791,
                0.695454478574822
            ]
        },
        {
            "positions": [
                -0.5940708071068019,
                -0.37143391187502156,
                -0.26768033560374316,
                1.0504971473685707,
                0.8556718485920582,
                0.6531102377227738
            ]
        },
        {
            "positions": [
                -0.5463620453469487,
                -0.39822296731169593,
                -0.117501865404809,
                1.1073059220966572,
                0.7906780320938374,
                0.6107659968707254
            ]
        },
        {
            "positions": [
                -0.4986532835870955,
                -0.4250120227483703,
                0.03267660479412515,
                1.1641146968247436,
                0.7256842155956166,
                0.5684217560186771
            ]
        },
        {
            "positions": [
                -0.4509445218272423,
                -0.45180107818504467,
                0.18285507499305909,
                1.22092347155283,
                0.6606903990973958,
                0.5260775151666287
            ]
        },
        {
            "positions": [
                -0.40323576006738915,
                -0.47859013362171904,
                0.33303354519199346,
                1.2777322462809164,
                0.595696582599175,
                0.48373327431458046
            ]
        },
        {
            "positions": [
                -0.35552699830753576,
                -0.5053791890583934,
                0.48321201539092784,
                1.334541021009003,
                0.530702766100954,
                0.441389033462532
            ]
        },
        {
            "positions": [
                -0.3078182365476826,
                -0.5321682444950677,
                0.6333904855898618,
                1.3913497957370895,
                0.4657089496027331,
                0.39904479261048365
            ]
        },
        {
            "positions": [
                -0.2601094747878294,
                -0.5589572999317421,
                0.7835689557887962,
                1.448158570465176,
                0.40071513310451246,
                0.3567005517584354
            ]
        },
        {
            "positions": [
                -0.21240071302797625,
                -0.5857463553684166,
                0.9337474259877301,
                1.5049673451932624,
                0.33572131660629156,
                0.31435631090638705
            ]
        },
        {
            "positions": [
                -0.16469195126812286,
                -0.6125354108050909,
                1.0839258961866645,
                1.561776119921349,
                0.2707275001080707,
                0.2720120700543386
            ]
        },
        {
            "positions": [
                -0.1169831895082698,
                -0.6393244662417652,
                1.2341043663855984,
                1.6185848946494354,
                0.20573368360984978,
                0.22966782920229023
            ]
        },
        {
            "positions": [
                -0.06927442774841652,
                -0.6661135216784397,
                1.3842828365845328,
                1.6753936693775218,
                0.1407398671116289,
                0.187323588350242
            ]
        },
        {
            "positions": [
                -0.021565665988563243,
                -0.692902577115114,
                1.5344613067834667,
                1.7322024441056083,
                0.07574605061340822,
                0.14497934749819363
            ]
        },
        {
            "positions": [
                0.026143095771290037,
                -0.7196916325517884,
                1.684639776982401,
                1.7890112188336948,
                0.01075223411518711,
                0.10263510664614528
            ]
        },
        {
            "positions": [
                0.0738518575311431,
                -0.7464806879884629,
                1.8348182471813355,
                1.8458199935617814,
                -0.05424158238303356,
                0.060290865794096815
            ]
        },
        {
            "positions": [
                0.12156061929099633,
                -0.7732697434251372,
                1.9849967173802696,
                1.9026287682898677,
                -0.11923539888125442,
                0.017946624942048496
            ]
        }
    ]
}