{
    "goal": {
        "global_pose": {
            "orientation": {
                "w": 0.7031023502349854,
                "x": -0.7110244035720825,
                "y": 0.007748599164187908,
                "z": 0.005598929710686207
            },
            "position": {
                "x": 0.11585023208521307,
                "y": 0.44412534475326537,
                "z": 0.3711530566215515
            }
        },
        "name": "move_to_auspresseinheit_A"
    },
    "id": "RRT_move_to_auspresseinheit_A_85",
    "joint_names": [
        "shoulder_pan_joint",
        "shoulder_lift_joint",
        "elbow_joint",
        "wrist_1_joint",
        "wrist_2_joint",
        "wrist_3_joint"
    ],
    "metrics": {
        "cart_traj_len": 3.7637993138680255,
        "distance_elbow_joint": 3.26515870624678,
        "distance_shoulder_lift_joint": 0.9255527296403057,
        "distance_shoulder_pan_joint": 5.638846476748409,
        "distance_wrist_1_joint": 2.4716376902597412,
        "distance_wrist_2_joint": 0.528628716675666,
        "distance_wrist_3_joint": 0.6916757842717964,
        "smoothness": 0.8420077158920561,
        "time": 2.3677793229999997,
        "traj_len": 3.677159243742743,
        "weighted_distance": 4.231443970953851
    },
    "planner": "RRT",
    "start": {
        "state": {
            "elbow_joint": 2.422574709923281,
            "shoulder_lift_joint": -1.3736533754116391,
            "shoulder_pan_joint": -0.33786336945926293,
            "wrist_1_joint": -1.0288603412921917,
            "wrist_2_joint": 1.2330224858903978,
            "wrist_3_joint": -3.094022268022082
        }
    },
    "waypoints": [
        {
            "positions": [
                -0.33786336945926293,
                -1.3736533754116391,
                2.422574709923281,
                -1.0288603412921917,
                1.2330224858903978,
                -3.094022268022082
            ]
        },
        {
            "positions": [
                -0.4814018966230259,
                -1.3976342512078017,
                2.3197555350351955,
                -0.9345165403503293,
                1.2242707385481832,
                -3.0736765028141355
            ]
        },
        {
            "positions": [
                -0.6249404237867888,
                -1.4216151270039645,
                2.21693636014711,
                -0.8401727394084668,
                1.2155189912059685,
                -3.053330737606189
            ]
        },
        {
            "positions": [
                -0.7684789509505519,
                -1.4455960028001271,
                2.114117185259025,
                -0.7458289384666045,
                1.2067672438637538,
                -3.0329849723982423
            ]
        },
        {
            "positions": [
                -0.9120174781143149,
                -1.46957687859629,
                2.0112980103709392,
                -0.651485137524742,
                1.1980154965215393,
                -3.012639207190296
            ]
        },
        {
            "positions": [
                -1.055556005278078,
                -1.4935577543924525,
                1.9084788354828537,
                -0.5571413365828796,
                1.1892637491793248,
                -2.9922934419823495
            ]
        },
        {
            "positions": [
                -1.1990945324418407,
                -1.5175386301886151,
                1.8056596605947683,
                -0.4627975356410172,
                1.18051200183711,
                -2.971947676774403
            ]
        },
        {
            "positions": [
                -1.3426330596056038,
                -1.541519505984778,
                1.702840485706683,
                -0.36845373469915477,
                1.1717602544948953,
                -2.9516019115664562
            ]
        },
        {
            "positions": [
                -1.4861715867693668,
                -1.5655003817809405,
                1.6000213108185974,
                -0.2741099337572923,
                1.1630085071526808,
                -2.9312561463585096
            ]
        },
        {
            "positions": [
                -1.6297101139331298,
                -1.5894812575771031,
                1.4972021359305119,
                -0.17976613281542986,
                1.1542567598104663,
                -2.910910381150563
            ]
        },
        {
            "positions": [
                -1.7732486410968928,
                -1.613462133373266,
                1.3943829610424265,
                -0.0854223318735674,
                1.1455050124682515,
                -2.8905646159426164
            ]
        },
        {
            "positions": [
                -1.9167871682606556,
                -1.6374430091694285,
                1.2915637861543412,
                0.008921469068295051,
                1.1367532651260368,
                -2.8702188507346698
            ]
        },
        {
            "positions": [
                -2.0603256954244187,
                -1.6614238849655911,
                1.1887446112662556,
                0.10326527001015728,
                1.1280015177838223,
                -2.849873085526723
            ]
        },
        {
            "positions": [
                -2.2038642225881815,
                -1.685404760761754,
                1.08592543637817,
                0.19760907095201974,
                1.1192497704416078,
                -2.829527320318777
            ]
        },
        {
            "positions": [
                -2.3474027497519443,
                -1.7093856365579165,
                0.9831062614900847,
                0.2919528718938822,
                1.110498023099393,
                -2.8091815551108303
            ]
        },
        {
            "positions": [
                -2.4909412769157075,
                -1.7333665123540793,
                0.8802870866019994,
                0.38629667283574465,
                1.1017462757571783,
                -2.7888357899028837
            ]
        },
        {
            "positions": [
                -2.6344798040794704,
                -1.757347388150242,
                0.7774679117139138,
                0.4806404737776071,
                1.0929945284149638,
                -2.768490024694937
            ]
        },
        {
            "positions": [
                -2.441915136950014,
                -1.77786966762363,
                0.867350109270956,
                0.4240713047017969,
                1.0704756086656453,
                -2.7743154423193124
            ]
        },
        {
            "positions": [
                -2.249350469820557,
                -1.7983919470970182,
                0.9572323068279983,
                0.36750213562598666,
                1.0479566889163268,
                -2.7801408599436876
            ]
        },
        {
            "positions": [
                -2.0567858026911,
                -1.8189142265704064,
                1.0471145043850405,
                0.31093296655017644,
                1.0254377691670085,
                -2.785966277568063
            ]
        },
        {
            "positions": [
                -1.8642211355616434,
                -1.8394365060437945,
                1.1369967019420828,
                0.2543637974743662,
                1.00291884941769,
                -2.791791695192438
            ]
        },
        {
            "positions": [
                -1.6716564684321864,
                -1.8599587855171826,
                1.226878899499125,
                0.197794628398556,
                0.9803999296683714,
                -2.7976171128168135
            ]
        },
        {
            "positions": [
                -1.4790918013027297,
                -1.8804810649905708,
                1.3167610970561672,
                0.14122545932274577,
                0.9578810099190529,
                -2.8034425304411887
            ]
        },
        {
            "positions": [
                -1.2865271341732731,
                -1.901003344463959,
                1.4066432946132095,
                0.0846562902469356,
                0.9353620901697345,
                -2.809267948065564
            ]
        },
        {
            "positions": [
                -1.0939624670438164,
                -1.921525623937347,
                1.4965254921702518,
                0.028087121171125384,
                0.912843170420416,
                -2.8150933656899393
            ]
        },
        {
            "positions": [
                -0.9013977999143594,
                -1.9420479034107352,
                1.5864076897272938,
                -0.028482047904684893,
                0.8903242506710976,
                -2.8209187833143146
            ]
        },
        {
            "positions": [
                -0.7088331327849027,
                -1.9625701828841233,
                1.6762898872843361,
                -0.08505121698049511,
                0.867805330921779,
                -2.82674420093869
            ]
        },
        {
            "positions": [
                -0.5162684656554459,
                -1.9830924623575115,
                1.7661720848413784,
                -0.14162038605630534,
                0.8452864111724605,
                -2.832569618563065
            ]
        },
        {
            "positions": [
                -0.32370379852598896,
                -2.0036147418308996,
                1.8560542823984207,
                -0.19818955513211556,
                0.8227674914231421,
                -2.8383950361874404
            ]
        },
        {
            "positions": [
                -0.13113913139653288,
                -2.0241370213042877,
                1.9459364799554628,
                -0.25475872420792567,
                0.8002485716738237,
                -2.8442204538118157
            ]
        },
        {
            "positions": [
                0.061425535732924086,
                -2.044659300777676,
                2.035818677512505,
                -0.3113278932837359,
                0.7777296519245052,
                -2.850045871436191
            ]
        },
        {
            "positions": [
                0.25399020286238105,
                -2.065181580251064,
                2.125700875069547,
                -0.3678970623595461,
                0.7552107321751866,
                -2.855871289060566
            ]
        },
        {
            "positions": [
                0.4465548699918376,
                -2.085703859724452,
                2.2155830726265897,
                -0.42446623143535633,
                0.7326918124258681,
                -2.8616967066849415
            ]
        },
        {
            "positions": [
                0.6391195371212944,
                -2.1062261391978403,
                2.305465270183632,
                -0.48103540051116656,
                0.7101728926765497,
                -2.8675221243093167
            ]
        },
        {
            "positions": [
                0.6734348875850138,
                -2.009736156270788,
                2.35149254496748,
                -0.4808049000605828,
                0.7130624544074586,
                -3.0010778449744526
            ]
        },
        {
            "positions": [
                0.707750238048733,
                -1.9132461733437358,
                2.397519819751328,
                -0.48057439960999904,
                0.7159520161383677,
                -3.1346335656395885
            ]
        }
    ]
}