{
    "goal": {
        "global_pose": {
            "orientation": {
                "w": 0.5084816217422485,
                "x": -0.49083608388900757,
                "y": 0.5182115435600281,
                "z": -0.4816462993621826
            },
            "position": {
                "x": 0.5540239810943604,
                "y": 0.030875300988554955,
                "z": 0.16403168439865112
            }
        },
        "name": "move_to_storage_A"
    },
    "id": "RRT_move_to_storage_A_50",
    "joint_names": [
        "shoulder_pan_joint",
        "shoulder_lift_joint",
        "elbow_joint",
        "wrist_1_joint",
        "wrist_2_joint",
        "wrist_3_joint"
    ],
    "metrics": {
        "cart_traj_len": 0.3538385915549788,
        "distance_elbow_joint": 0.4498146149375586,
        "distance_shoulder_lift_joint": 0.2325056877668532,
        "distance_shoulder_pan_joint": 0.4590685134009145,
        "distance_wrist_1_joint": 0.24609740496333432,
        "distance_wrist_2_joint": 1.1148267707682922,
        "distance_wrist_3_joint": 0.10261766419056917,
        "smoothness": 4.440892098500626e-16,
        "time": 0.035376988,
        "traj_len": 1.6139797570067358,
        "weighted_distance": 2.0423246950816334
    },
    "planner": "RRT",
    "start": {
        "state": {
            "elbow_joint": 1.9715463870305268,
            "shoulder_lift_joint": -1.1394903361783484,
            "shoulder_pan_joint": 0.12281147578464417,
            "wrist_1_joint": -0.7804599489681411,
            "wrist_2_joint": 0.12958660307563738,
            "wrist_3_joint": -3.1924946282119055
        }
    },
    "waypoints": [
        {
            "positions": [
                0.12281147578464417,
                -1.1394903361783484,
                1.9715463870305268,
                -0.7804599489681411,
                0.12958660307563738,
                -3.1924946282119055
            ]
        },
        {
            "positions": [
                0.05723025958451354,
                -1.172705434430756,
                2.035805617735892,
                -0.8156167211057602,
                0.28884757032825054,
                -3.177834961898967
            ]
        },
        {
            "positions": [
                -0.008350956615617092,
                -1.2059205326831637,
                2.100064848441258,
                -0.8507734932433795,
                0.44810853758086366,
                -3.163175295586029
            ]
        },
        {
            "positions": [
                -0.07393217281574772,
                -1.2391356309355712,
                2.164324079146623,
                -0.8859302653809986,
                0.6073695048334768,
                -3.1485156292730903
            ]
        },
        {
            "positions": [
                -0.13951338901587834,
                -1.2723507291879788,
                2.228583309851989,
                -0.9210870375186179,
                0.76663047208609,
                -3.1338559629601517
            ]
        },
        {
            "positions": [
                -0.20509460521600903,
                -1.3055658274403865,
                2.2928425405573543,
                -0.956243809656237,
                0.9258914393387032,
                -3.119196296647213
            ]
        },
        {
            "positions": [
                -0.2706758214161396,
                -1.338780925692794,
                2.3571017712627196,
                -0.9914005817938563,
                1.0851524065913163,
                -3.104536630334275
            ]
        },
        {
            "positions": [
                -0.3362570376162703,
                -1.3719960239452016,
                2.4213610019680853,
                -1.0265573539314754,
                1.2444133738439296,
                -3.0898769640213364
            ]
        }
    ]
}