{
    "goal": {
        "global_pose": {
            "orientation": {
                "w": -0.00223480608172531,
                "x": 0.0024358444001904467,
                "y": 0.7094548369677653,
                "z": -0.704743149386269
            },
            "position": {
                "x": 0.6205249238014221,
                "y": -0.6371506643295288,
                "z": 0.19426114857196808
            }
        },
        "name": "move_to_magneteinheit_B"
    },
    "id": "RRT_move_to_magneteinheit_B_30",
    "joint_names": [
        "shoulder_pan_joint",
        "shoulder_lift_joint",
        "elbow_joint",
        "wrist_1_joint",
        "wrist_2_joint",
        "wrist_3_joint"
    ],
    "metrics": {
        "cart_traj_len": 1.4531789855932824,
        "distance_elbow_joint": 0.7282016676517684,
        "distance_shoulder_lift_joint": 1.2464329110572918,
        "distance_shoulder_pan_joint": 1.6215266622032867,
        "distance_wrist_1_joint": 2.6121597655740496,
        "distance_wrist_2_joint": 2.9330841659105555,
        "distance_wrist_3_joint": 3.1310896608718037,
        "smoothness": 3.885780601299354e-16,
        "time": 0.108283408,
        "traj_len": 3.503212073693049,
        "weighted_distance": 4.907129312184157
    },
    "planner": "RRT",
    "start": {
        "state": {
            "elbow_joint": 2.39358713078474,
            "shoulder_lift_joint": -1.908514104345545,
            "shoulder_pan_joint": 0.7066247066606129,
            "wrist_1_joint": -0.4678290933515497,
            "wrist_2_joint": 0.7096259083745334,
            "wrist_3_joint": -3.1358149277392293
        }
    },
    "waypoints": [
        {
            "positions": [
                0.7066247066606129,
                -1.908514104345545,
                2.39358713078474,
                -0.4678290933515497,
                0.7096259083745334,
                -3.1358149277392293
            ]
        },
        {
            "positions": [
                0.654317394976636,
                -1.8683065910856322,
                2.3700967544088765,
                -0.3835658751072255,
                0.6150102901193543,
                -3.034812035453042
            ]
        },
        {
            "positions": [
                0.6020100832926589,
                -1.8280990778257196,
                2.346606378033013,
                -0.29930265686290136,
                0.520394671864175,
                -2.933809143166855
            ]
        },
        {
            "positions": [
                0.549702771608682,
                -1.7878915645658071,
                2.3231160016571497,
                -0.21503943861857716,
                0.4257790536089958,
                -2.8328062508806675
            ]
        },
        {
            "positions": [
                0.497395459924705,
                -1.7476840513058944,
                2.299625625281286,
                -0.13077622037425302,
                0.3311634353538166,
                -2.7318033585944805
            ]
        },
        {
            "positions": [
                0.445088148240728,
                -1.7074765380459818,
                2.2761352489054225,
                -0.046513002129928815,
                0.23654781709863737,
                -2.630800466308293
            ]
        },
        {
            "positions": [
                0.392780836556751,
                -1.667269024786069,
                2.252644872529559,
                0.037750216114395385,
                0.1419321988434582,
                -2.529797574022106
            ]
        },
        {
            "positions": [
                0.34047352487277405,
                -1.6270615115261564,
                2.2291544961536958,
                0.12201343435871953,
                0.04731658058827892,
                -2.4287946817359187
            ]
        },
        {
            "positions": [
                0.28816621318879704,
                -1.5868539982662437,
                2.205664119777832,
                0.20627665260304368,
                -0.047299037666900245,
                -2.3277917894497318
            ]
        },
        {
            "positions": [
                0.23585890150482003,
                -1.546646485006331,
                2.1821737434019686,
                0.29053987084736793,
                -0.14191465592207952,
                -2.2267888971635443
            ]
        },
        {
            "positions": [
                0.18355158982084308,
                -1.5064389717464186,
                2.158683367026105,
                0.3748030890916921,
                -0.2365302741772587,
                -2.125786004877357
            ]
        },
        {
            "positions": [
                0.131244278136866,
                -1.466231458486506,
                2.135192990650242,
                0.45906630733601633,
                -0.33114589243243786,
                -2.02478311259117
            ]
        },
        {
            "positions": [
                0.07893696645288906,
                -1.4260239452265933,
                2.111702614274378,
                0.5433295255803405,
                -0.42576151068761703,
                -1.9237802203049827
            ]
        },
        {
            "positions": [
                0.026629654768912103,
                -1.3858164319666806,
                2.0882122378985146,
                0.6275927438246647,
                -0.5203771289427964,
                -1.8227773280187956
            ]
        },
        {
            "positions": [
                -0.02567765691506485,
                -1.345608918706768,
                2.064721861522651,
                0.7118559620689888,
                -0.6149927471979756,
                -1.7217744357326084
            ]
        },
        {
            "positions": [
                -0.07798496859904192,
                -1.3054014054468555,
                2.0412314851467874,
                0.7961191803133132,
                -0.7096083654531548,
                -1.620771543446421
            ]
        },
        {
            "positions": [
                -0.13029228028301887,
                -1.2651938921869426,
                2.0177411087709243,
                0.8803823985576371,
                -0.8042239837083339,
                -1.519768651160234
            ]
        },
        {
            "positions": [
                -0.18259959196699582,
                -1.22498637892703,
                1.9942507323950607,
                0.9646456168019613,
                -0.8988396019635131,
                -1.4187657588740468
            ]
        },
        {
            "positions": [
                -0.2349069036509729,
                -1.1847788656671172,
                1.970760356019197,
                1.0489088350462856,
                -0.9934552202186925,
                -1.3177628665878593
            ]
        },
        {
            "positions": [
                -0.28721421533494984,
                -1.1445713524072048,
                1.9472699796433335,
                1.1331720532906098,
                -1.0880708384738718,
                -1.2167599743016722
            ]
        },
        {
            "positions": [
                -0.3395215270189268,
                -1.1043638391472923,
                1.92377960326747,
                1.217435271534934,
                -1.182686456729051,
                -1.115757082015485
            ]
        },
        {
            "positions": [
                -0.39182883870290375,
                -1.0641563258873794,
                1.9002892268916067,
                1.301698489779258,
                -1.2773020749842297,
                -1.014754189729298
            ]
        },
        {
            "positions": [
                -0.4441361503868809,
                -1.023948812627467,
                1.8767988505157431,
                1.3859617080235824,
                -1.3719176932394093,
                -0.9137512974431106
            ]
        },
        {
            "positions": [
                -0.4964434620708579,
                -0.9837412993675542,
                1.8533084741398795,
                1.4702249262679066,
                -1.4665333114945884,
                -0.8127484051569231
            ]
        },
        {
            "positions": [
                -0.5487507737548348,
                -0.9435337861076416,
                1.8298180977640162,
                1.5544881445122307,
                -1.5611489297497676,
                -0.7117455128707362
            ]
        },
        {
            "positions": [
                -0.6010580854388118,
                -0.9033262728477289,
                1.8063277213881528,
                1.6387513627565546,
                -1.6557645480049468,
                -0.6107426205845492
            ]
        },
        {
            "positions": [
                -0.6533653971227887,
                -0.8631187595878163,
                1.7828373450122892,
                1.723014581000879,
                -1.7503801662601264,
                -0.5097397282983618
            ]
        },
        {
            "positions": [
                -0.7056727088067657,
                -0.8229112463279036,
                1.7593469686364256,
                1.8072777992452034,
                -1.8449957845153055,
                -0.40873683601217436
            ]
        },
        {
            "positions": [
                -0.7579800204907426,
                -0.7827037330679911,
                1.735856592260562,
                1.8915410174895273,
                -1.9396114027704847,
                -0.3077339437259874
            ]
        },
        {
            "positions": [
                -0.8102873321747196,
                -0.7424962198080785,
                1.7123662158846988,
                1.9758042357338517,
                -2.0342270210256634,
                -0.20673105143979997
            ]
        },
        {
            "positions": [
                -0.8625946438586968,
                -0.7022887065481658,
                1.6888758395088352,
                2.060067453978176,
                -2.128842639280843,
                -0.10572815915361256
            ]
        },
        {
            "positions": [
                -0.9149019555426736,
                -0.662081193288253,
                1.6653854631329716,
                2.1443306722225,
                -2.223458257536022,
                -0.004725266867425779
            ]
        }
    ]
}