{
    "goal": {
        "global_pose": {
            "orientation": {
                "w": -0.00223480608172531,
                "x": 0.0024358444001904467,
                "y": 0.7094548369677653,
                "z": -0.704743149386269
            },
            "position": {
                "x": 0.6205249238014221,
                "y": -0.6371506643295288,
                "z": 0.19426114857196808
            }
        },
        "name": "move_to_magneteinheit_B"
    },
    "id": "RRT_move_to_magneteinheit_B_24",
    "joint_names": [
        "shoulder_pan_joint",
        "shoulder_lift_joint",
        "elbow_joint",
        "wrist_1_joint",
        "wrist_2_joint",
        "wrist_3_joint"
    ],
    "metrics": {
        "cart_traj_len": 1.4522976095451203,
        "distance_elbow_joint": 0.7281772190872011,
        "distance_shoulder_lift_joint": 1.2465370478949822,
        "distance_shoulder_pan_joint": 1.6203364844768036,
        "distance_wrist_1_joint": 2.6110591661724465,
        "distance_wrist_2_joint": 2.938949954287668,
        "distance_wrist_3_joint": 3.1304668694427527,
        "smoothness": 2.4980018173577986e-16,
        "time": 0.026651123999999998,
        "traj_len": 3.5036447795633987,
        "weighted_distance": 4.9077968173822635
    },
    "planner": "RRT",
    "start": {
        "state": {
            "elbow_joint": 2.39358713078474,
            "shoulder_lift_joint": -1.908514104345545,
            "shoulder_pan_joint": 0.7066247066606129,
            "wrist_1_joint": -0.4678290933515497,
            "wrist_2_joint": 0.7096259083745334,
            "wrist_3_joint": -3.1358149277392293
        }
    },
    "waypoints": [
        {
            "positions": [
                0.7066247066606129,
                -1.908514104345545,
                2.39358713078474,
                -0.4678290933515497,
                0.7096259083745334,
                -3.1358149277392293
            ]
        },
        {
            "positions": [
                0.6543557878065225,
                -1.8683032318328037,
                2.3700975430722497,
                -0.38360137831372887,
                0.6148210711394474,
                -3.0348321254991406
            ]
        },
        {
            "positions": [
                0.6020868689524321,
                -1.8280923593200622,
                2.3466079553597594,
                -0.299373663275908,
                0.5200162339043612,
                -2.933849323259052
            ]
        },
        {
            "positions": [
                0.5498179500983417,
                -1.7878814868073207,
                2.323118367647269,
                -0.21514594823808714,
                0.42521139666927527,
                -2.832866521018963
            ]
        },
        {
            "positions": [
                0.4975490312442512,
                -1.7476706142945795,
                2.2996287799347788,
                -0.1309182332002663,
                0.3304065594341892,
                -2.731883718778874
            ]
        },
        {
            "positions": [
                0.44528011239016074,
                -1.7074597417818382,
                2.2761391922222884,
                -0.04669051816244546,
                0.23560172219910314,
                -2.6309009165387853
            ]
        },
        {
            "positions": [
                0.39301119353607034,
                -1.6672488692690968,
                2.2526496045097977,
                0.037537196875375434,
                0.1407968849640171,
                -2.5299181142986966
            ]
        },
        {
            "positions": [
                0.3407422746819799,
                -1.6270379967563553,
                2.2291600167973074,
                0.12176491191319622,
                0.04599204772893095,
                -2.428935312058608
            ]
        },
        {
            "positions": [
                0.28847335582788947,
                -1.586827124243614,
                2.205670429084817,
                0.2059926269510171,
                -0.048812789506155085,
                -2.3279525098185188
            ]
        },
        {
            "positions": [
                0.23620443697379895,
                -1.5466162517308726,
                2.1821808413723267,
                0.290220341988838,
                -0.14361762674124123,
                -2.22696970757843
            ]
        },
        {
            "positions": [
                0.18393551811970854,
                -1.5064053792181313,
                2.1586912536598364,
                0.3744480570266588,
                -0.23842246397632716,
                -2.1259869053383413
            ]
        },
        {
            "positions": [
                0.13166659926561808,
                -1.4661945067053899,
                2.135201665947346,
                0.4586757720644798,
                -0.3332273012114134,
                -2.0250041030982526
            ]
        },
        {
            "positions": [
                0.07939768041152773,
                -1.4259836341926486,
                2.1117120782348557,
                0.5429034871023006,
                -0.42803213844649923,
                -1.924021300858164
            ]
        },
        {
            "positions": [
                0.027128761557437264,
                -1.3857727616799072,
                2.0882224905223654,
                0.6271312021401214,
                -0.5228369756815855,
                -1.823038498618075
            ]
        },
        {
            "positions": [
                -0.0251401572966532,
                -1.345561889167166,
                2.064732902809875,
                0.7113589171779422,
                -0.6176418129166715,
                -1.7220556963779863
            ]
        },
        {
            "positions": [
                -0.07740907615074366,
                -1.3053510166544244,
                2.0412433150973848,
                0.7955866322157632,
                -0.7124466501517576,
                -1.6210728941378973
            ]
        },
        {
            "positions": [
                -0.129677995004834,
                -1.2651401441416832,
                2.0177537273848944,
                0.879814347253584,
                -0.8072514873868436,
                -1.5200900918978086
            ]
        },
        {
            "positions": [
                -0.18194691385892447,
                -1.224929271628942,
                1.9942641396724041,
                0.9640420622914048,
                -0.9020563246219296,
                -1.41910728965772
            ]
        },
        {
            "positions": [
                -0.23421583271301505,
                -1.1847183991162002,
                1.9707745519599136,
                1.0482697773292258,
                -0.9968611618570159,
                -1.3181244874176308
            ]
        },
        {
            "positions": [
                -0.2864847515671054,
                -1.144507526603459,
                1.9472849642474233,
                1.1324974923670466,
                -1.0916659990921018,
                -1.217141685177542
            ]
        },
        {
            "positions": [
                -0.33875367042119586,
                -1.1042966540907178,
                1.923795376534933,
                1.2167252074048673,
                -1.1864708363271879,
                -1.1161588829374534
            ]
        },
        {
            "positions": [
                -0.3910225892752862,
                -1.0640857815779765,
                1.9003057888224426,
                1.3009529224426881,
                -1.281275673562274,
                -1.0151760806973646
            ]
        },
        {
            "positions": [
                -0.4432915081293768,
                -1.0238749090652348,
                1.876816201109952,
                1.3851806374805093,
                -1.3760805107973604,
                -0.9141932784572755
            ]
        },
        {
            "positions": [
                -0.49556042698346714,
                -0.9836640365524936,
                1.8533266133974617,
                1.4694083525183301,
                -1.4708853480324464,
                -0.8132104762171868
            ]
        },
        {
            "positions": [
                -0.5478293458375575,
                -0.9434531640397522,
                1.8298370256849714,
                1.553636067556151,
                -1.565690185267532,
                -0.7122276739770985
            ]
        },
        {
            "positions": [
                -0.6000982646916478,
                -0.9032422915270109,
                1.806347437972481,
                1.6378637825939717,
                -1.660495022502618,
                -0.6112448717370098
            ]
        },
        {
            "positions": [
                -0.6523671835457384,
                -0.8630314190142694,
                1.7828578502599908,
                1.7220914976317925,
                -1.7552998597377045,
                -0.5102620694969207
            ]
        },
        {
            "positions": [
                -0.7046361023998288,
                -0.8228205465015281,
                1.7593682625475004,
                1.8063192126696133,
                -1.8501046969727906,
                -0.40927926725683195
            ]
        },
        {
            "positions": [
                -0.7569050212539193,
                -0.7826096739887869,
                1.7358786748350101,
                1.890546927707434,
                -1.9449095342078766,
                -0.30829646501674324
            ]
        },
        {
            "positions": [
                -0.8091739401080097,
                -0.7423988014760454,
                1.7123890871225198,
                1.9747746427452548,
                -2.0397143714429626,
                -0.20731366277665453
            ]
        },
        {
            "positions": [
                -0.8614428589621003,
                -0.702187928963304,
                1.6888994994100293,
                2.059002357783076,
                -2.1345192086780487,
                -0.10633086053656537
            ]
        },
        {
            "positions": [
                -0.9137117778161907,
                -0.6619770564505628,
                1.665409911697539,
                2.143230072820897,
                -2.2293240459131347,
                -0.005348058296476506
            ]
        }
    ]
}