{
    "goal": {
        "global_pose": {
            "orientation": {
                "w": 0.5084816217422485,
                "x": -0.49083608388900757,
                "y": 0.5182115435600281,
                "z": -0.4816462993621826
            },
            "position": {
                "x": 0.5540239810943604,
                "y": 0.030875300988554955,
                "z": 0.16403168439865112
            }
        },
        "name": "move_to_storage_A"
    },
    "id": "RRT_move_to_storage_A_46",
    "joint_names": [
        "shoulder_pan_joint",
        "shoulder_lift_joint",
        "elbow_joint",
        "wrist_1_joint",
        "wrist_2_joint",
        "wrist_3_joint"
    ],
    "metrics": {
        "cart_traj_len": 0.3526571511004973,
        "distance_elbow_joint": 0.45073308413622204,
        "distance_shoulder_lift_joint": 0.23265599904559986,
        "distance_shoulder_pan_joint": 0.4594943191131476,
        "distance_wrist_1_joint": 0.25000840090380405,
        "distance_wrist_2_joint": 1.1042643942792019,
        "distance_wrist_3_joint": 0.08916630948036675,
        "smoothness": 4.440892098500626e-16,
        "time": 0.011007203,
        "traj_len": 1.6082047465911617,
        "weighted_distance": 2.0295142081547697
    },
    "planner": "RRT",
    "start": {
        "state": {
            "elbow_joint": 1.9715463870305268,
            "shoulder_lift_joint": -1.1394903361783484,
            "shoulder_pan_joint": 0.12281147578464417,
            "wrist_1_joint": -0.7804599489681411,
            "wrist_2_joint": 0.12958660307563738,
            "wrist_3_joint": -3.1924946282119055
        }
    },
    "waypoints": [
        {
            "positions": [
                0.12281147578464417,
                -1.1394903361783484,
                1.9715463870305268,
                -0.7804599489681411,
                0.12958660307563738,
                -3.1924946282119055
            ]
        },
        {
            "positions": [
                0.05716943019705166,
                -1.1727269074705768,
                2.035936827621416,
                -0.8161754348115416,
                0.28733865940123765,
                -3.1797565840004247
            ]
        },
        {
            "positions": [
                -0.008472615390540852,
                -1.2059634787628055,
                2.1003272682123044,
                -0.8518909206549422,
                0.4450907157268379,
                -3.1670185397889434
            ]
        },
        {
            "positions": [
                -0.07411466097813336,
                -1.239200050055034,
                2.1647177088031935,
                -0.8876064064983428,
                0.6028427720524382,
                -3.1542804955774626
            ]
        },
        {
            "positions": [
                -0.13975670656572586,
                -1.2724366213472627,
                2.229108149394082,
                -0.9233218923417434,
                0.7605948283780385,
                -3.1415424513659818
            ]
        },
        {
            "positions": [
                -0.20539875215331838,
                -1.305673192639491,
                2.293498589984971,
                -0.959037378185144,
                0.9183468847036388,
                -3.128804407154501
            ]
        },
        {
            "positions": [
                -0.2710407977409109,
                -1.3389097639317198,
                2.3578890305758597,
                -0.9947528640285446,
                1.076098941029239,
                -3.1160663629430196
            ]
        },
        {
            "positions": [
                -0.3366828433285034,
                -1.3721463352239482,
                2.422279471166749,
                -1.0304683498719451,
                1.2338509973548393,
                -3.103328318731539
            ]
        }
    ]
}