{
    "goal": {
        "global_pose": {
            "orientation": {
                "w": 0.7047431468963623,
                "x": -0.7094548344612122,
                "y": 0.0024358443915843964,
                "z": -0.0022348060738295317
            },
            "position": {
                "x": 0.6094750761985779,
                "y": 0.3671506643295288,
                "z": 0.19426114857196808
            }
        },
        "name": "move_to_magneteinheit_A"
    },
    "id": "RRT_move_to_magneteinheit_A_122",
    "joint_names": [
        "shoulder_pan_joint",
        "shoulder_lift_joint",
        "elbow_joint",
        "wrist_1_joint",
        "wrist_2_joint",
        "wrist_3_joint"
    ],
    "metrics": {
        "cart_traj_len": 2.0659184328344713,
        "distance_elbow_joint": 3.8862761051417056,
        "distance_shoulder_lift_joint": 1.060490520412638,
        "distance_shoulder_pan_joint": 1.2415691531869986,
        "distance_wrist_1_joint": 1.1853142309658167,
        "distance_wrist_2_joint": 1.4402384321429784,
        "distance_wrist_3_joint": 1.9604801801775955,
        "smoothness": 6.737905254418592e-16,
        "time": 0.031391789,
        "traj_len": 3.2824333385504922,
        "weighted_distance": 4.161836330935146
    },
    "planner": "RRT",
    "start": {
        "state": {
            "elbow_joint": -1.919643507792019,
            "shoulder_lift_joint": -0.07675430207160344,
            "shoulder_pan_joint": -1.1188671864651873,
            "wrist_1_joint": 0.42560062535961957,
            "wrist_2_joint": 1.5706038300724876,
            "wrist_3_joint": 1.1188968870953055
        }
    },
    "waypoints": [
        {
            "positions": [
                -1.1188671864651873,
                -0.07675430207160344,
                -1.919643507792019,
                0.42560062535961957,
                1.5706038300724876,
                1.1188968870953055
            ]
        },
        {
            "positions": [
                -1.0745254309942232,
                -0.11462896351491195,
                -1.7808479326083868,
                0.3832679742536975,
                1.5191667432102385,
                1.1889140363873625
            ]
        },
        {
            "positions": [
                -1.030183675523259,
                -0.15250362495822045,
                -1.6420523574247543,
                0.3409353231477755,
                1.4677296563479891,
                1.2589311856794194
            ]
        },
        {
            "positions": [
                -0.9858419200522947,
                -0.19037828640152893,
                -1.503256782241122,
                0.29860267204185353,
                1.41629256948574,
                1.3289483349714766
            ]
        },
        {
            "positions": [
                -0.9415001645813305,
                -0.22825294784483743,
                -1.3644612070574897,
                0.2562700209359315,
                1.3648554826234907,
                1.3989654842635335
            ]
        },
        {
            "positions": [
                -0.8971584091103662,
                -0.26612760928814594,
                -1.2256656318738575,
                0.21393736983000944,
                1.3134183957612415,
                1.4689826335555904
            ]
        },
        {
            "positions": [
                -0.852816653639402,
                -0.30400227073145447,
                -1.0868700566902252,
                0.17160471872408745,
                1.2619813088989922,
                1.5389997828476474
            ]
        },
        {
            "positions": [
                -0.8084748981684378,
                -0.34187693217476295,
                -0.9480744815065927,
                0.1292720676181654,
                1.210544222036743,
                1.6090169321397045
            ]
        },
        {
            "positions": [
                -0.7641331426974736,
                -0.3797515936180714,
                -0.8092789063229604,
                0.0869394165122434,
                1.159107135174494,
                1.6790340814317615
            ]
        },
        {
            "positions": [
                -0.7197913872265091,
                -0.41762625506137996,
                -0.6704833311393279,
                0.0446067654063213,
                1.1076700483122446,
                1.7490512307238184
            ]
        },
        {
            "positions": [
                -0.675449631755545,
                -0.45550091650468844,
                -0.5316877559556956,
                0.0022741143003993103,
                1.0562329614499952,
                1.8190683800158753
            ]
        },
        {
            "positions": [
                -0.6311078762845808,
                -0.49337557794799697,
                -0.39289218077206334,
                -0.04005853680552268,
                1.004795874587746,
                1.8890855293079323
            ]
        },
        {
            "positions": [
                -0.5867661208136166,
                -0.5312502393913054,
                -0.25409660558843106,
                -0.08239118791144467,
                0.9533587877254969,
                1.9591026785999892
            ]
        },
        {
            "positions": [
                -0.5424243653426523,
                -0.569124900834614,
                -0.11530103040479855,
                -0.12472383901736678,
                0.9019217008632476,
                2.029119827892046
            ]
        },
        {
            "positions": [
                -0.49808260987168806,
                -0.6069995622779225,
                0.023494544778833726,
                -0.16705649012328877,
                0.8504846140009984,
                2.099136977184103
            ]
        },
        {
            "positions": [
                -0.45374085440072387,
                -0.644874223721231,
                0.162290119962466,
                -0.20938914122921076,
                0.7990475271387492,
                2.16915412647616
            ]
        },
        {
            "positions": [
                -0.4093990989297597,
                -0.6827488851645394,
                0.3010856951460983,
                -0.25172179233513275,
                0.7476104402765,
                2.239171275768217
            ]
        },
        {
            "positions": [
                -0.36505734345879537,
                -0.7206235466078479,
                0.43988127032973057,
                -0.29405444344105475,
                0.6961733534142508,
                2.309188425060274
            ]
        },
        {
            "positions": [
                -0.32071558798783106,
                -0.7584982080511564,
                0.5786768455133633,
                -0.33638709454697696,
                0.6447362665520014,
                2.3792055743523313
            ]
        },
        {
            "positions": [
                -0.27637383251686687,
                -0.796372869494465,
                0.7174724206969956,
                -0.37871974565289895,
                0.5932991796897522,
                2.449222723644388
            ]
        },
        {
            "positions": [
                -0.23203207704590267,
                -0.8342475309377735,
                0.8562679958806279,
                -0.42105239675882095,
                0.5418620928275031,
                2.519239872936445
            ]
        },
        {
            "positions": [
                -0.18769032157493837,
                -0.872122192381082,
                0.9950635710642601,
                -0.46338504786474294,
                0.49042500596525374,
                2.589257022228502
            ]
        },
        {
            "positions": [
                -0.14334856610397417,
                -0.9099968538243906,
                1.1338591462478924,
                -0.5057176989706649,
                0.4389879191030046,
                2.6592741715205594
            ]
        },
        {
            "positions": [
                -0.09900681063300998,
                -0.9478715152676989,
                1.2726547214315247,
                -0.548050350076587,
                0.3875508322407555,
                2.7292913208126164
            ]
        },
        {
            "positions": [
                -0.054665055162045784,
                -0.9857461767110074,
                1.411450296615157,
                -0.5903830011825089,
                0.33611374537850613,
                2.7993084701046733
            ]
        },
        {
            "positions": [
                -0.010323299691081367,
                -1.023620838154316,
                1.5502458717987897,
                -0.632715652288431,
                0.2846766585162568,
                2.8693256193967303
            ]
        },
        {
            "positions": [
                0.03401845577988283,
                -1.0614954995976245,
                1.689041446982422,
                -0.6750483033943531,
                0.23323957165400766,
                2.939342768688787
            ]
        },
        {
            "positions": [
                0.07836021125084702,
                -1.099370161040933,
                1.8278370221660543,
                -0.717380954500275,
                0.1818024847917583,
                3.009359917980844
            ]
        },
        {
            "positions": [
                0.12270196672181116,
                -1.1372448224842415,
                1.9666325973496865,
                -0.7597136056061972,
                0.13036539792950919,
                3.079377067272901
            ]
        }
    ]
}