{
    "goal": {
        "global_pose": {
            "orientation": {
                "w": 0.5084816217422485,
                "x": -0.49083608388900757,
                "y": 0.5182115435600281,
                "z": -0.4816462993621826
            },
            "position": {
                "x": 0.5540239810943604,
                "y": 0.030875300988554955,
                "z": 0.16403168439865112
            }
        },
        "name": "move_to_storage_A"
    },
    "id": "RRT_move_to_storage_A_124",
    "joint_names": [
        "shoulder_pan_joint",
        "shoulder_lift_joint",
        "elbow_joint",
        "wrist_1_joint",
        "wrist_2_joint",
        "wrist_3_joint"
    ],
    "metrics": {
        "cart_traj_len": 0.3534916511199678,
        "distance_elbow_joint": 0.4528244762242992,
        "distance_shoulder_lift_joint": 0.23514332112020497,
        "distance_shoulder_pan_joint": 0.4613121618308947,
        "distance_wrist_1_joint": 0.2547137793476598,
        "distance_wrist_2_joint": 1.1041628835229527,
        "distance_wrist_3_joint": 0.09258072128020745,
        "smoothness": 6.661338200497456e-16,
        "time": 0.037876041,
        "traj_len": 1.6126801739111878,
        "weighted_distance": 2.035872159237226
    },
    "planner": "RRT",
    "start": {
        "state": {
            "elbow_joint": 1.9715463870305268,
            "shoulder_lift_joint": -1.1394903361783484,
            "shoulder_pan_joint": 0.12281147578464417,
            "wrist_1_joint": -0.7804599489681411,
            "wrist_2_joint": 0.12958660307563738,
            "wrist_3_joint": -3.1924946282119055
        }
    },
    "waypoints": [
        {
            "positions": [
                0.12281147578464417,
                -1.1394903361783484,
                1.9715463870305268,
                -0.7804599489681411,
                0.12958660307563738,
                -3.1924946282119055
            ]
        },
        {
            "positions": [
                0.056909738380230654,
                -1.1730822391955205,
                2.0362355979197124,
                -0.8168476317320925,
                0.2873241578646306,
                -3.1792688108861618
            ]
        },
        {
            "positions": [
                -0.008991999024182865,
                -1.2066741422126928,
                2.100924808808898,
                -0.8532353144960438,
                0.4450617126536238,
                -3.1660429935604175
            ]
        },
        {
            "positions": [
                -0.07489373642859638,
                -1.2402660452298648,
                2.1656140196980838,
                -0.8896229972599953,
                0.602799267442617,
                -3.1528171762346737
            ]
        },
        {
            "positions": [
                -0.1407954738330099,
                -1.273857948247037,
                2.230303230587269,
                -0.9260106800239467,
                0.7605368222316103,
                -3.13959135890893
            ]
        },
        {
            "positions": [
                -0.20669721123742346,
                -1.307449851264209,
                2.2949924414764546,
                -0.962398362787898,
                0.9182743770206037,
                -3.126365541583186
            ]
        },
        {
            "positions": [
                -0.2725989486418369,
                -1.3410417542813813,
                2.3596816523656403,
                -0.9987860455518495,
                1.0760119318095966,
                -3.113139724257442
            ]
        },
        {
            "positions": [
                -0.3385006860462505,
                -1.3746336572985534,
                2.424370863254826,
                -1.035173728315801,
                1.23374948659859,
                -3.099913906931698
            ]
        }
    ]
}