{
    "goal": {
        "global_pose": {
            "orientation": {
                "w": 0.7031023502349854,
                "x": -0.7110244035720825,
                "y": 0.007748599164187908,
                "z": 0.005598929710686207
            },
            "position": {
                "x": 0.11585023208521307,
                "y": 0.44412534475326537,
                "z": 0.3711530566215515
            }
        },
        "name": "move_to_auspresseinheit_A"
    },
    "id": "RRT_move_to_auspresseinheit_A_59",
    "joint_names": [
        "shoulder_pan_joint",
        "shoulder_lift_joint",
        "elbow_joint",
        "wrist_1_joint",
        "wrist_2_joint",
        "wrist_3_joint"
    ],
    "metrics": {
        "cart_traj_len": 0.8087593627862346,
        "distance_elbow_joint": 0.03672817084867708,
        "distance_shoulder_lift_joint": 0.6589246151884103,
        "distance_shoulder_pan_joint": 1.0630693780496938,
        "distance_wrist_1_joint": 0.5459070376213095,
        "distance_wrist_2_joint": 0.774869210908994,
        "distance_wrist_3_joint": 0.05206955403800295,
        "smoothness": 1.4458381193302319,
        "time": 4.5166159100000005,
        "traj_len": 1.7696236793892333,
        "weighted_distance": 2.134592074205607
    },
    "planner": "RRT",
    "start": {
        "state": {
            "elbow_joint": 2.422574709923281,
            "shoulder_lift_joint": -1.3736533754116391,
            "shoulder_pan_joint": -0.33786336945926293,
            "wrist_1_joint": -1.0288603412921917,
            "wrist_2_joint": 1.2330224858903978,
            "wrist_3_joint": -3.094022268022082
        }
    },
    "waypoints": [
        {
            "positions": [
                -0.33786336945926293,
                -1.3736533754116391,
                2.422574709923281,
                -1.0288603412921917,
                1.2330224858903978,
                -3.094022268022082
            ]
        },
        {
            "positions": [
                -0.31136549925924406,
                -1.535130410799109,
                2.417695743837715,
                -0.9992757358681467,
                1.292705057439783,
                -3.111912963231646
            ]
        },
        {
            "positions": [
                -0.28486762905922525,
                -1.6966074461865792,
                2.4128167777521488,
                -0.9696911304441016,
                1.352387628989168,
                -3.12980365844121
            ]
        },
        {
            "positions": [
                -0.1184785139200244,
                -1.7424123246684615,
                2.409260687744384,
                -0.8930168267331523,
                1.2551278876332783,
                -3.1316248483281677
            ]
        },
        {
            "positions": [
                0.04791060121917645,
                -1.7882172031503438,
                2.405704597736619,
                -0.816342523022203,
                1.1578681462773883,
                -3.133446038215126
            ]
        },
        {
            "positions": [
                0.21429971635837736,
                -1.8340220816322264,
                2.402148507728854,
                -0.7396682193112538,
                1.0606084049214983,
                -3.1352672281020837
            ]
        },
        {
            "positions": [
                0.38068883149757815,
                -1.8798269601141087,
                2.3985924177210887,
                -0.6629939156003045,
                0.9633486635656086,
                -3.1370884179890415
            ]
        },
        {
            "positions": [
                0.5470779466367791,
                -1.925631838595991,
                2.3950363277133238,
                -0.5863196118893552,
                0.8660889222097187,
                -3.1389096078759997
            ]
        },
        {
            "positions": [
                0.71346706177598,
                -1.9714367170778733,
                2.391480237705559,
                -0.5096453081784059,
                0.7688291808538288,
                -3.1407307977629575
            ]
        },
        {
            "positions": [
                0.701728114961529,
                -1.9102954435556971,
                2.3971139363365137,
                -0.4829533036708822,
                0.6968835611789445,
                -3.13536977346583
            ]
        }
    ]
}