{
    "goal": {
        "global_pose": {
            "orientation": {
                "w": -0.00223480608172531,
                "x": 0.0024358444001904467,
                "y": 0.7094548369677653,
                "z": -0.704743149386269
            },
            "position": {
                "x": 0.6205249238014221,
                "y": -0.6371506643295288,
                "z": 0.19426114857196808
            }
        },
        "name": "move_to_magneteinheit_B"
    },
    "id": "RRT_move_to_magneteinheit_B_81",
    "joint_names": [
        "shoulder_pan_joint",
        "shoulder_lift_joint",
        "elbow_joint",
        "wrist_1_joint",
        "wrist_2_joint",
        "wrist_3_joint"
    ],
    "metrics": {
        "cart_traj_len": 4.391430924697176,
        "distance_elbow_joint": 5.689107590084221,
        "distance_shoulder_lift_joint": 2.883924310711665,
        "distance_shoulder_pan_joint": 2.4541509780652095,
        "distance_wrist_1_joint": 5.08984253590245,
        "distance_wrist_2_joint": 9.104813546649558,
        "distance_wrist_3_joint": 7.981623086817477,
        "smoothness": 0.6795663566703952,
        "time": 0.584491071,
        "traj_len": 5.7622445321446225,
        "weighted_distance": 7.9599851949873335
    },
    "planner": "RRT",
    "start": {
        "state": {
            "elbow_joint": 2.39358713078474,
            "shoulder_lift_joint": -1.908514104345545,
            "shoulder_pan_joint": 0.7066247066606129,
            "wrist_1_joint": -0.4678290933515497,
            "wrist_2_joint": 0.7096259083745334,
            "wrist_3_joint": -3.1358149277392293
        }
    },
    "waypoints": [
        {
            "positions": [
                0.7066247066606129,
                -1.908514104345545,
                2.39358713078474,
                -0.4678290933515497,
                0.7096259083745334,
                -3.1358149277392293
            ]
        },
        {
            "positions": [
                0.7477133242148346,
                -1.925886651069986,
                2.408356101549592,
                -0.5035700712688812,
                0.7413082412468661,
                -2.9136321099804317
            ]
        },
        {
            "positions": [
                0.7888019417690562,
                -1.943259197794427,
                2.4231250723144435,
                -0.5393110491862128,
                0.7729905741191987,
                -2.691449292221634
            ]
        },
        {
            "positions": [
                0.8298905593232778,
                -1.960631744518868,
                2.4378940430792952,
                -0.5750520271035442,
                0.8046729069915314,
                -2.4692664744628363
            ]
        },
        {
            "positions": [
                0.8709791768774995,
                -1.9780042912433091,
                2.4526630138441465,
                -0.6107930050208756,
                0.836355239863864,
                -2.2470836567040386
            ]
        },
        {
            "positions": [
                0.912067794431721,
                -1.9953768379677501,
                2.4674319846089983,
                -0.6465339829382072,
                0.8680375727361966,
                -2.024900838945241
            ]
        },
        {
            "positions": [
                0.9531564119859427,
                -2.012749384692191,
                2.48220095537385,
                -0.6822749608555387,
                0.8997199056085292,
                -1.8027180211864433
            ]
        },
        {
            "positions": [
                0.9942450295401644,
                -2.030121931416632,
                2.4969699261387017,
                -0.7180159387728702,
                0.9314022384808619,
                -1.5805352034276456
            ]
        },
        {
            "positions": [
                1.062900695333176,
                -2.006422883471609,
                2.3673994541394805,
                -0.7745897477055176,
                0.9809892640724466,
                -1.5244429437148177
            ]
        },
        {
            "positions": [
                1.131556361126188,
                -1.982723835526586,
                2.2378289821402593,
                -0.8311635566381651,
                1.0305762896640311,
                -1.4683506840019898
            ]
        },
        {
            "positions": [
                1.2002120269191998,
                -1.9590247875815627,
                2.108258510141038,
                -0.8877373655708125,
                1.0801633152556158,
                -1.4122584242891618
            ]
        },
        {
            "positions": [
                1.2688676927122116,
                -1.9353257396365398,
                1.9786880381418168,
                -0.94431117450346,
                1.1297503408472005,
                -1.3561661645763339
            ]
        },
        {
            "positions": [
                1.3375233585052235,
                -1.9116266916915166,
                1.8491175661425956,
                -1.0008849834361073,
                1.1793373664387852,
                -1.300073904863506
            ]
        },
        {
            "positions": [
                1.4061790242982353,
                -1.8879276437464934,
                1.7195470941433744,
                -1.0574587923687548,
                1.2289243920303696,
                -1.243981645150678
            ]
        },
        {
            "positions": [
                1.4748346900912472,
                -1.8642285958014704,
                1.5899766221441531,
                -1.1140326013014024,
                1.2785114176219543,
                -1.1878893854378498
            ]
        },
        {
            "positions": [
                1.5434903558842588,
                -1.8405295478564472,
                1.460406150144932,
                -1.1706064102340497,
                1.328098443213539,
                -1.1317971257250221
            ]
        },
        {
            "positions": [
                1.6121460216772707,
                -1.8168304999114242,
                1.3308356781457107,
                -1.2271802191666974,
                1.3776854688051237,
                -1.075704866012194
            ]
        },
        {
            "positions": [
                1.6808016874702827,
                -1.793131451966401,
                1.2012652061464895,
                -1.2837540280993447,
                1.4272724943967083,
                -1.0196126062993662
            ]
        },
        {
            "positions": [
                1.7494573532632942,
                -1.769432404021378,
                1.0716947341472682,
                -1.340327837031992,
                1.476859519988293,
                -0.9635203465865382
            ]
        },
        {
            "positions": [
                1.8181130190563062,
                -1.7457333560763548,
                0.942124262148047,
                -1.3969016459646397,
                1.5264465455798777,
                -0.9074280868737102
            ]
        },
        {
            "positions": [
                1.886768684849318,
                -1.7220343081313318,
                0.812553790148826,
                -1.453475454897287,
                1.5760335711714621,
                -0.8513358271608823
            ]
        },
        {
            "positions": [
                1.95542435064233,
                -1.6983352601863086,
                0.6829833181496043,
                -1.5100492638299345,
                1.625620596763047,
                -0.7952435674480542
            ]
        },
        {
            "positions": [
                2.0240800164353416,
                -1.6746362122412854,
                0.5534128461503833,
                -1.566623072762582,
                1.6752076223546315,
                -0.7391513077352264
            ]
        },
        {
            "positions": [
                2.092735682228353,
                -1.6509371642962625,
                0.4238423741511621,
                -1.6231968816952294,
                1.724794647946216,
                -0.6830590480223985
            ]
        },
        {
            "positions": [
                2.1613913480213656,
                -1.6272381163512393,
                0.2942719021519409,
                -1.679770690627877,
                1.7743816735378009,
                -0.6269667883095704
            ]
        },
        {
            "positions": [
                2.230047013814377,
                -1.6035390684062163,
                0.16470143015271965,
                -1.7363444995605244,
                1.8239686991293853,
                -0.5708745285967425
            ]
        },
        {
            "positions": [
                2.2987026796073886,
                -1.579840020461193,
                0.035130958153498426,
                -1.7929183084931717,
                1.87355572472097,
                -0.5147822688839145
            ]
        },
        {
            "positions": [
                2.367358345400401,
                -1.55614097251617,
                -0.0944395138457228,
                -1.8494921174258192,
                1.9231427503125547,
                -0.4586900091710866
            ]
        },
        {
            "positions": [
                2.4360140111934125,
                -1.532441924571147,
                -0.22400998584494403,
                -1.9060659263584667,
                1.9727297759041393,
                -0.40259774945825866
            ]
        },
        {
            "positions": [
                2.504669676986424,
                -1.508742876626124,
                -0.35358045784416525,
                -1.962639735291114,
                2.022316801495724,
                -0.3465054897454307
            ]
        },
        {
            "positions": [
                2.5733253427794365,
                -1.4850438286811007,
                -0.4831509298433865,
                -2.0192135442237618,
                2.0719038270873087,
                -0.2904132300326028
            ]
        },
        {
            "positions": [
                2.641981008572448,
                -1.4613447807360775,
                -0.6127214018426076,
                -2.075787353156409,
                2.1214908526788934,
                -0.23432097031977484
            ]
        },
        {
            "positions": [
                2.6406342803214264,
                -1.4123569188071152,
                -0.6899457942880772,
                -1.97186652139671,
                1.9750129865373727,
                -0.21906109244595875
            ]
        },
        {
            "positions": [
                2.6392875520704053,
                -1.363369056878153,
                -0.7671701867335469,
                -1.8679456896370106,
                1.8285351203958518,
                -0.20380121457214267
            ]
        },
        {
            "positions": [
                2.6379408238193838,
                -1.3143811949491906,
                -0.8443945791790165,
                -1.7640248578773114,
                1.6820572542543308,
                -0.18854133669832657
            ]
        },
        {
            "positions": [
                2.636594095568362,
                -1.2653933330202283,
                -0.9216189716244861,
                -1.660104026117612,
                1.5355793881128101,
                -0.1732814588245105
            ]
        },
        {
            "positions": [
                2.635247367317341,
                -1.2164054710912662,
                -0.9988433640699558,
                -1.556183194357913,
                1.3891015219712894,
                -0.1580215809506944
            ]
        },
        {
            "positions": [
                2.6339006390663195,
                -1.1674176091623039,
                -1.0760677565154255,
                -1.4522623625982136,
                1.2426236558297683,
                -0.1427617030768783
            ]
        },
        {
            "positions": [
                2.632553910815298,
                -1.1184297472333415,
                -1.1532921489608952,
                -1.3483415308385145,
                1.0961457896882476,
                -0.12750182520306225
            ]
        },
        {
            "positions": [
                2.631207182564277,
                -1.0694418853043792,
                -1.2305165414063648,
                -1.2444206990788151,
                0.9496679235467269,
                -0.11224194732924615
            ]
        },
        {
            "positions": [
                2.6298604543132553,
                -1.020454023375417,
                -1.3077409338518344,
                -1.140499867319116,
                0.803190057405206,
                -0.09698206945543006
            ]
        },
        {
            "positions": [
                2.6285137260622338,
                -0.9714661614464547,
                -1.384965326297304,
                -1.0365790355594169,
                0.6567121912636853,
                -0.08172219158161398
            ]
        },
        {
            "positions": [
                2.6271669978112127,
                -0.9224782995174924,
                -1.4621897187427735,
                -0.9326582037997175,
                0.5102343251221646,
                -0.0664623137077979
            ]
        },
        {
            "positions": [
                2.625820269560191,
                -0.8734904375885301,
                -1.5394141111882433,
                -0.8287373720400182,
                0.36375645898064346,
                -0.05120243583398179
            ]
        },
        {
            "positions": [
                2.6244735413091695,
                -0.8245025756595677,
                -1.616638503633713,
                -0.724816540280319,
                0.21727859283912276,
                -0.03594255796016571
            ]
        },
        {
            "positions": [
                2.6231268130581484,
                -0.7755147137306055,
                -1.6938628960791826,
                -0.6208957085206197,
                0.07080072669760185,
                -0.02068268008634963
            ]
        },
        {
            "positions": [
                2.621780084807127,
                -0.7265268518016432,
                -1.7710872885246522,
                -0.5169748767609206,
                -0.07567713944391885,
                -0.005422802212533551
            ]
        },
        {
            "positions": [
                2.637571419598974,
                -0.7724029401935518,
                -1.8064024275427017,
                -0.5958041262479943,
                0.07414332751149541,
                -0.055360138484768576
            ]
        },
        {
            "positions": [
                2.6533627543908214,
                -0.8182790285854604,
                -1.8417175665607513,
                -0.674633375735068,
                0.22396379446690967,
                -0.1052974747570036
            ]
        },
        {
            "positions": [
                2.669154089182669,
                -0.8641551169773691,
                -1.8770327055788005,
                -0.7534626252221417,
                0.37378426142232396,
                -0.15523481102923864
            ]
        },
        {
            "positions": [
                2.6849454239745163,
                -0.9100312053692777,
                -1.91234784459685,
                -0.8322918747092154,
                0.5236047283777382,
                -0.20517214730147365
            ]
        },
        {
            "positions": [
                2.7007367587663635,
                -0.9559072937611863,
                -1.9476629836148995,
                -0.9111211241962891,
                0.6734251953331525,
                -0.25510948357370866
            ]
        },
        {
            "positions": [
                2.716528093558211,
                -1.001783382153095,
                -1.982978122632949,
                -0.9899503736833628,
                0.8232456622885668,
                -0.30504681984594373
            ]
        },
        {
            "positions": [
                2.732319428350058,
                -1.0476594705450035,
                -2.0182932616509985,
                -1.0687796231704363,
                0.9730661292439811,
                -0.35498415611817874
            ]
        },
        {
            "positions": [
                2.7481107631419053,
                -1.0935355589369122,
                -2.053608400669048,
                -1.1476088726575102,
                1.1228865961993952,
                -0.40492149239041375
            ]
        },
        {
            "positions": [
                2.763902097933753,
                -1.1394116473288207,
                -2.0889235396870975,
                -1.2264381221445837,
                1.2727070631548096,
                -0.4548588286626488
            ]
        },
        {
            "positions": [
                2.7796934327256,
                -1.1852877357207294,
                -2.124238678705147,
                -1.3052673716316576,
                1.4225275301102238,
                -0.5047961649348838
            ]
        },
        {
            "positions": [
                2.7954847675174475,
                -1.2311638241126381,
                -2.1595538177231965,
                -1.384096621118731,
                1.5723479970656382,
                -0.5547335012071188
            ]
        },
        {
            "positions": [
                2.8112761023092947,
                -1.2770399125045466,
                -2.194868956741246,
                -1.462925870605805,
                1.7221684640210524,
                -0.6046708374793539
            ]
        },
        {
            "positions": [
                2.827067437101142,
                -1.3229160008964551,
                -2.230184095759295,
                -1.5417551200928785,
                1.8719889309764666,
                -0.6546081737515889
            ]
        },
        {
            "positions": [
                2.842858771892989,
                -1.3687920892883638,
                -2.265499234777345,
                -1.6205843695799522,
                2.021809397931881,
                -0.7045455100238239
            ]
        },
        {
            "positions": [
                2.858650106684837,
                -1.4146681776802725,
                -2.300814373795394,
                -1.699413619067026,
                2.171629864887295,
                -0.754482846296059
            ]
        },
        {
            "positions": [
                2.874441441476684,
                -1.4605442660721812,
                -2.336129512813444,
                -1.7782428685540996,
                2.3214503318427093,
                -0.804420182568294
            ]
        },
        {
            "positions": [
                2.8902327762685314,
                -1.5064203544640897,
                -2.371444651831493,
                -1.8570721180411733,
                2.4712707987981237,
                -0.854357518840529
            ]
        },
        {
            "positions": [
                2.880643565396588,
                -1.5347048503542207,
                -2.341556726133157,
                -1.8813627246420834,
                2.348402770798943,
                -0.687595175312913
            ]
        },
        {
            "positions": [
                2.871054354524644,
                -1.5629893462443514,
                -2.3116688004348207,
                -1.9056533312429935,
                2.225534742799762,
                -0.520832831785297
            ]
        },
        {
            "positions": [
                2.8614651436527003,
                -1.5912738421344823,
                -2.2817808747364845,
                -1.9299439378439036,
                2.1026667148005806,
                -0.35407048825768095
            ]
        },
        {
            "positions": [
                2.8518759327807564,
                -1.6195583380246132,
                -2.2518929490381483,
                -1.9542345444448137,
                1.9797986868014,
                -0.18730814473006496
            ]
        },
        {
            "positions": [
                2.842286721908813,
                -1.647842833914744,
                -2.2220050233398116,
                -1.9785251510457238,
                1.856930658802219,
                -0.020545801202448866
            ]
        },
        {
            "positions": [
                2.8326975110368693,
                -1.6761273298048749,
                -2.1921170976414754,
                -2.002815757646634,
                1.734062630803038,
                0.14621654232516712
            ]
        },
        {
            "positions": [
                2.8231083001649253,
                -1.7044118256950056,
                -2.1622291719431392,
                -2.027106364247544,
                1.611194602803857,
                0.31297888585278333
            ]
        },
        {
            "positions": [
                2.813519089292982,
                -1.7326963215851365,
                -2.132341246244803,
                -2.051396970848454,
                1.4883265748046761,
                0.4797412293803991
            ]
        },
        {
            "positions": [
                2.8039298784210382,
                -1.7609808174752675,
                -2.102453320546467,
                -2.075687577449364,
                1.3654585468054952,
                0.6465035729080153
            ]
        },
        {
            "positions": [
                2.7943406675490943,
                -1.7892653133653982,
                -2.0725653948481306,
                -2.0999781840502743,
                1.2425905188063142,
                0.8132659164356313
            ]
        },
        {
            "positions": [
                2.7847514566771507,
                -1.8175498092555291,
                -2.0426774691497944,
                -2.1242687906511843,
                1.1197224908071333,
                0.980028259963247
            ]
        },
        {
            "positions": [
                2.775162245805207,
                -1.8458343051456598,
                -2.012789543451458,
                -2.148559397252094,
                0.9968544628079523,
                1.1467906034908633
            ]
        },
        {
            "positions": [
                2.7655730349332632,
                -1.8741188010357908,
                -1.982901617753122,
                -2.172850003853004,
                0.8739864348087714,
                1.3135529470184792
            ]
        },
        {
            "positions": [
                2.7559838240613197,
                -1.9024032969259217,
                -1.9530136920547856,
                -2.197140610453914,
                0.7511184068095904,
                1.4803152905460957
            ]
        },
        {
            "positions": [
                2.7463946131893757,
                -1.9306877928160526,
                -1.9231257663564494,
                -2.2214312170548243,
                0.6282503788104095,
                1.6470776340737112
            ]
        },
        {
            "positions": [
                2.736805402317432,
                -1.9589722887061833,
                -1.8932378406581132,
                -2.2457218236557344,
                0.5053823508112285,
                1.8138399776013272
            ]
        },
        {
            "positions": [
                2.7272161914454887,
                -1.9872567845963143,
                -1.8633499149597768,
                -2.2700124302566445,
                0.38251432281204734,
                1.9806023211289436
            ]
        },
        {
            "positions": [
                2.7176269805735447,
                -2.015541280486445,
                -1.8334619892614406,
                -2.2943030368575545,
                0.2596462948128666,
                2.1473646646565596
            ]
        },
        {
            "positions": [
                2.708037769701601,
                -2.043825776376576,
                -1.8035740635631043,
                -2.3185936434584646,
                0.13677826681368588,
                2.314127008184175
            ]
        },
        {
            "positions": [
                2.698448558829657,
                -2.072110272266707,
                -1.7736861378647681,
                -2.3428842500593747,
                0.013910238814504705,
                2.4808893517117916
            ]
        },
        {
            "positions": [
                2.6888593479577136,
                -2.1003947681568373,
                -1.743798212166432,
                -2.367174856660285,
                -0.10895778918467647,
                2.6476516952394076
            ]
        },
        {
            "positions": [
                2.67927013708577,
                -2.1286792640469683,
                -1.7139102864680957,
                -2.391465463261195,
                -0.2318258171838572,
                2.814414038767023
            ]
        },
        {
            "positions": [
                2.669680926213826,
                -2.156963759937099,
                -1.6840223607697593,
                -2.415756069862105,
                -0.35469384518303837,
                2.9811763822946395
            ]
        },
        {
            "positions": [
                2.6600917153418826,
                -2.18524825582723,
                -1.654134435071423,
                -2.440046676463015,
                -0.4775618731822193,
                3.1479387258222555
            ]
        }
    ]
}