{
    "goal": {
        "global_pose": {
            "orientation": {
                "w": 0.7047431468963623,
                "x": -0.7094548344612122,
                "y": 0.0024358443915843964,
                "z": -0.0022348060738295317
            },
            "position": {
                "x": 0.6094750761985779,
                "y": 0.3671506643295288,
                "z": 0.19426114857196808
            }
        },
        "name": "move_to_magneteinheit_A"
    },
    "id": "RRT_move_to_magneteinheit_A_132",
    "joint_names": [
        "shoulder_pan_joint",
        "shoulder_lift_joint",
        "elbow_joint",
        "wrist_1_joint",
        "wrist_2_joint",
        "wrist_3_joint"
    ],
    "metrics": {
        "cart_traj_len": 2.4136090986919236,
        "distance_elbow_joint": 5.277177468893129,
        "distance_shoulder_lift_joint": 3.6232227860239283,
        "distance_shoulder_pan_joint": 2.377741890914012,
        "distance_wrist_1_joint": 6.676499748557963,
        "distance_wrist_2_joint": 6.64970777573461,
        "distance_wrist_3_joint": 4.38217654897192,
        "smoothness": 0.26003804178585355,
        "time": 0.195427356,
        "traj_len": 5.383913652641132,
        "weighted_distance": 7.1468235490553385
    },
    "planner": "RRT",
    "start": {
        "state": {
            "elbow_joint": -1.919643507792019,
            "shoulder_lift_joint": -0.07675430207160344,
            "shoulder_pan_joint": -1.1188671864651873,
            "wrist_1_joint": 0.42560062535961957,
            "wrist_2_joint": 1.5706038300724876,
            "wrist_3_joint": 1.1188968870953055
        }
    },
    "waypoints": [
        {
            "positions": [
                -1.1188671864651873,
                -0.07675430207160344,
                -1.919643507792019,
                0.42560062535961957,
                1.5706038300724876,
                1.1188968870953055
            ]
        },
        {
            "positions": [
                -1.133822348274908,
                -0.13828171279462853,
                -1.7992509904572769,
                0.49860686752697986,
                1.464109691642498,
                1.106760175662653
            ]
        },
        {
            "positions": [
                -1.1487775100846283,
                -0.19980912351765365,
                -1.6788584731225349,
                0.5716131096943402,
                1.3576155532125087,
                1.0946234642300008
            ]
        },
        {
            "positions": [
                -1.1637326718943488,
                -0.2613365342406787,
                -1.558465955787793,
                0.6446193518617005,
                1.2511214147825191,
                1.0824867527973483
            ]
        },
        {
            "positions": [
                -1.1786878337040694,
                -0.32286394496370385,
                -1.4380734384530507,
                0.7176255940290608,
                1.1446272763525296,
                1.070350041364696
            ]
        },
        {
            "positions": [
                -1.19364299551379,
                -0.38439135568672894,
                -1.3176809211183085,
                0.7906318361964211,
                1.0381331379225403,
                1.0582133299320435
            ]
        },
        {
            "positions": [
                -1.2085981573235103,
                -0.44591876640975403,
                -1.1972884037835665,
                0.8636380783637814,
                0.9316389994925508,
                1.046076618499391
            ]
        },
        {
            "positions": [
                -1.2235533191332308,
                -0.5074461771327792,
                -1.0768958864488245,
                0.9366443205311417,
                0.8251448610625614,
                1.0339399070667388
            ]
        },
        {
            "positions": [
                -1.2385084809429514,
                -0.5689735878558042,
                -0.9565033691140823,
                1.009650562698502,
                0.7186507226325718,
                1.0218031956340863
            ]
        },
        {
            "positions": [
                -1.253463642752672,
                -0.6305009985788292,
                -0.8361108517793403,
                1.0826568048658622,
                0.6121565842025823,
                1.0096664842014338
            ]
        },
        {
            "positions": [
                -1.2684188045623923,
                -0.6920284093018545,
                -0.7157183344445981,
                1.1556630470332225,
                0.5056624457725929,
                0.9975297727687814
            ]
        },
        {
            "positions": [
                -1.2833739663721129,
                -0.7535558200248795,
                -0.5953258171098559,
                1.2286692892005828,
                0.39916830734260333,
                0.985393061336129
            ]
        },
        {
            "positions": [
                -1.2983291281818334,
                -0.8150832307479046,
                -0.4749332997751139,
                1.3016755313679431,
                0.292674168912614,
                0.9732563499034766
            ]
        },
        {
            "positions": [
                -1.313284289991554,
                -0.8766106414709298,
                -0.3545407824403717,
                1.3746817735353036,
                0.18618003048262444,
                0.9611196384708243
            ]
        },
        {
            "positions": [
                -1.3282394518012743,
                -0.9381380521939549,
                -0.2341482651056297,
                1.4476880157026637,
                0.0796858920526351,
                0.9489829270381718
            ]
        },
        {
            "positions": [
                -1.343194613610995,
                -0.9996654629169801,
                -0.11375574777088748,
                1.5206942578700242,
                -0.026808246377354683,
                0.9368462156055194
            ]
        },
        {
            "positions": [
                -1.3581497754207155,
                -1.0611928736400051,
                0.0066367695638545054,
                1.5937005000373845,
                -0.13330238480734402,
                0.924709504172867
            ]
        },
        {
            "positions": [
                -1.373104937230436,
                -1.1227202843630302,
                0.12702928689859694,
                1.6667067422047448,
                -0.23979652323733358,
                0.9125727927402145
            ]
        },
        {
            "positions": [
                -1.3880600990401564,
                -1.1842476950860552,
                0.24742180423333848,
                1.739712984372105,
                -0.3462906616673229,
                0.9004360813075621
            ]
        },
        {
            "positions": [
                -1.403015260849877,
                -1.2457751058090805,
                0.3678143215680809,
                1.8127192265394654,
                -0.4527848000973125,
                0.8882993698749098
            ]
        },
        {
            "positions": [
                -1.4179704226595975,
                -1.3073025165321055,
                0.4882068389028229,
                1.8857254687068257,
                -0.5592789385273018,
                0.8761626584422574
            ]
        },
        {
            "positions": [
                -1.4329255844693178,
                -1.3688299272551308,
                0.6085993562375653,
                1.9587317108741862,
                -0.6657730769572916,
                0.864025947009605
            ]
        },
        {
            "positions": [
                -1.4478807462790384,
                -1.4303573379781558,
                0.7289918735723073,
                2.0317379530415463,
                -0.7722672153872809,
                0.8518892355769525
            ]
        },
        {
            "positions": [
                -1.462835908088759,
                -1.4918847487011808,
                0.8493843909070493,
                2.1047441952089065,
                -0.8787613538172703,
                0.8397525241443001
            ]
        },
        {
            "positions": [
                -1.4777910698984793,
                -1.5534121594242059,
                0.9697769082417913,
                2.177750437376267,
                -0.9852554922472596,
                0.8276158127116477
            ]
        },
        {
            "positions": [
                -1.4927462317082,
                -1.614939570147231,
                1.0901694255765337,
                2.250756679543627,
                -1.0917496306772494,
                0.8154791012789953
            ]
        },
        {
            "positions": [
                -1.5077013935179204,
                -1.6764669808702561,
                1.2105619429112757,
                2.3237629217109874,
                -1.1982437691072387,
                0.8033423898463429
            ]
        },
        {
            "positions": [
                -1.522656555327641,
                -1.7379943915932812,
                1.3309544602460177,
                2.3967691638783477,
                -1.304737907537228,
                0.7912056784136905
            ]
        },
        {
            "positions": [
                -1.5376117171373616,
                -1.7995218023163062,
                1.4513469775807597,
                2.4697754060457076,
                -1.4112320459672174,
                0.7790689669810381
            ]
        },
        {
            "positions": [
                -1.552566878947082,
                -1.8610492130393317,
                1.5717394949155021,
                2.5427816482130683,
                -1.5177261843972076,
                0.7669322555483856
            ]
        },
        {
            "positions": [
                -1.5675220407568025,
                -1.9225766237623567,
                1.6921320122502441,
                2.6157878903804286,
                -1.624220322827197,
                0.7547955441157332
            ]
        },
        {
            "positions": [
                -1.582477202566523,
                -1.9841040344853818,
                1.812524529584986,
                2.688794132547789,
                -1.7307144612571863,
                0.7426588326830809
            ]
        },
        {
            "positions": [
                -1.5974323643762434,
                -2.045631445208407,
                1.932917046919728,
                2.761800374715149,
                -1.8372085996871756,
                0.7305221212504285
            ]
        },
        {
            "positions": [
                -1.6123875261859641,
                -2.107158855931432,
                2.0533095642544703,
                2.8348066168825095,
                -1.9437027381171654,
                0.718385409817776
            ]
        },
        {
            "positions": [
                -1.6273426879956845,
                -2.168686266654457,
                2.173702081589213,
                2.9078128590498697,
                -2.0501968765471545,
                0.7062486983851236
            ]
        },
        {
            "positions": [
                -1.6422978498054048,
                -2.230213677377482,
                2.2940945989239543,
                2.98081910121723,
                -2.1566910149771443,
                0.6941119869524712
            ]
        },
        {
            "positions": [
                -1.6572530116151256,
                -2.291741088100507,
                2.4144871162586963,
                3.0538253433845903,
                -2.263185153407133,
                0.6819752755198187
            ]
        },
        {
            "positions": [
                -1.672208173424846,
                -2.353268498823532,
                2.534879633593439,
                3.1268315855519506,
                -2.369679291837123,
                0.6698385640871664
            ]
        },
        {
            "positions": [
                -1.6871633352345665,
                -2.4147959095465574,
                2.655272150928181,
                3.199837827719311,
                -2.4761734302671123,
                0.657701852654514
            ]
        },
        {
            "positions": [
                -1.6369009535083268,
                -2.3790964323646415,
                2.6357648784233776,
                3.09144164588047,
                -2.403869804839473,
                0.5487856994730937
            ]
        },
        {
            "positions": [
                -1.586638571782087,
                -2.3433969551827256,
                2.6162576059185736,
                2.983045464041629,
                -2.331566179411834,
                0.4398695462916735
            ]
        },
        {
            "positions": [
                -1.5363761900558472,
                -2.3076974780008097,
                2.59675033341377,
                2.874649282202788,
                -2.2592625539841946,
                0.3309533931102533
            ]
        },
        {
            "positions": [
                -1.4861138083296075,
                -2.2719980008188934,
                2.577243060908966,
                2.7662531003639472,
                -2.186958928556556,
                0.22203723992883306
            ]
        },
        {
            "positions": [
                -1.4358514266033677,
                -2.2362985236369775,
                2.5577357884041625,
                2.6578569185251064,
                -2.1146553031289166,
                0.11312108674741284
            ]
        },
        {
            "positions": [
                -1.3855890448771278,
                -2.2005990464550615,
                2.538228515899359,
                2.5494607366862656,
                -2.0423516777012773,
                0.004204933565992608
            ]
        },
        {
            "positions": [
                -1.335326663150888,
                -2.1648995692731456,
                2.518721243394555,
                2.4410645548474244,
                -1.970048052273638,
                -0.10471121961542762
            ]
        },
        {
            "positions": [
                -1.2850642814246482,
                -2.1292000920912297,
                2.4992139708897514,
                2.3326683730085835,
                -1.8977444268459989,
                -0.21362737279684785
            ]
        },
        {
            "positions": [
                -1.2348018996984085,
                -2.093500614909314,
                2.479706698384948,
                2.2242721911697423,
                -1.8254408014183596,
                -0.3225435259782681
            ]
        },
        {
            "positions": [
                -1.1845395179721687,
                -2.0578011377273975,
                2.460199425880144,
                2.1158760093309015,
                -1.7531371759907204,
                -0.4314596791596883
            ]
        },
        {
            "positions": [
                -1.1342771362459287,
                -2.0221016605454816,
                2.4406921533753403,
                2.0074798274920607,
                -1.6808335505630811,
                -0.5403758323411085
            ]
        },
        {
            "positions": [
                -1.0840147545196892,
                -1.9864021833635657,
                2.4211848808705367,
                1.8990836456532199,
                -1.6085299251354421,
                -0.6492919855225288
            ]
        },
        {
            "positions": [
                -1.0337523727934492,
                -1.9507027061816498,
                2.4016776083657327,
                1.7906874638143788,
                -1.536226299707803,
                -0.758208138703949
            ]
        },
        {
            "positions": [
                -0.9834899910672096,
                -1.9150032289997339,
                2.382170335860929,
                1.6822912819755378,
                -1.4639226742801636,
                -0.8671242918853692
            ]
        },
        {
            "positions": [
                -0.9332276093409697,
                -1.879303751817818,
                2.362663063356125,
                1.5738951001366968,
                -1.3916190488525244,
                -0.9760404450667894
            ]
        },
        {
            "positions": [
                -0.8829652276147301,
                -1.843604274635902,
                2.3431557908513216,
                1.4654989182978562,
                -1.3193154234248854,
                -1.0849565982482097
            ]
        },
        {
            "positions": [
                -0.8327028458884902,
                -1.807904797453986,
                2.323648518346518,
                1.3571027364590151,
                -1.2470117979972462,
                -1.19387275142963
            ]
        },
        {
            "positions": [
                -0.7824404641622504,
                -1.7722053202720698,
                2.304141245841714,
                1.248706554620174,
                -1.174708172569607,
                -1.3027889046110501
            ]
        },
        {
            "positions": [
                -0.7321780824360107,
                -1.7365058430901539,
                2.2846339733369105,
                1.1403103727813333,
                -1.1024045471419677,
                -1.4117050577924704
            ]
        },
        {
            "positions": [
                -0.6819157007097709,
                -1.700806365908238,
                2.2651267008321065,
                1.031914190942492,
                -1.0301009217143284,
                -1.5206212109738906
            ]
        },
        {
            "positions": [
                -0.6316533189835309,
                -1.665106888726322,
                2.245619428327303,
                0.9235180091036512,
                -0.9577972962866892,
                -1.6295373641553108
            ]
        },
        {
            "positions": [
                -0.5813909372572912,
                -1.629407411544406,
                2.2261121558224994,
                0.81512182726481,
                -0.88549367085905,
                -1.738453517336731
            ]
        },
        {
            "positions": [
                -0.5311285555310516,
                -1.5937079343624903,
                2.206604883317696,
                0.7067256454259696,
                -0.8131900454314112,
                -1.8473696705181513
            ]
        },
        {
            "positions": [
                -0.4808661738048119,
                -1.5580084571805741,
                2.187097610812892,
                0.5983294635871288,
                -0.7408864200037719,
                -1.9562858236995715
            ]
        },
        {
            "positions": [
                -0.4306037920785719,
                -1.522308979998658,
                2.1675903383080883,
                0.48993328174828754,
                -0.6685827945761327,
                -2.0652019768809917
            ]
        },
        {
            "positions": [
                -0.38034141035233215,
                -1.486609502816742,
                2.1480830658032843,
                0.38153709990944673,
                -0.5962791691484934,
                -2.174118130062412
            ]
        },
        {
            "positions": [
                -0.3300790286260924,
                -1.4509100256348262,
                2.128575793298481,
                0.2731409180706055,
                -0.5239755437208542,
                -2.283034283243832
            ]
        },
        {
            "positions": [
                -0.27981664689985264,
                -1.4152105484529103,
                2.1090685207936772,
                0.16474473623176467,
                -0.45167191829321496,
                -2.3919504364252524
            ]
        },
        {
            "positions": [
                -0.22955426517361288,
                -1.3795110712709941,
                2.0895612482888732,
                0.056348554392923855,
                -0.3793682928655757,
                -2.5008665896066726
            ]
        },
        {
            "positions": [
                -0.1792918834473729,
                -1.3438115940890782,
                2.0700539757840697,
                -0.0520476274459174,
                -0.3070646674379365,
                -2.609782742788093
            ]
        },
        {
            "positions": [
                -0.12902950172113314,
                -1.3081121169071621,
                2.0505467032792657,
                -0.1604438092847582,
                -0.23476104201029724,
                -2.718698895969513
            ]
        },
        {
            "positions": [
                -0.07876711999489361,
                -1.2724126397252464,
                2.031039430774462,
                -0.2688399911235986,
                -0.16245741658265844,
                -2.8276150491509333
            ]
        },
        {
            "positions": [
                -0.02850473826865385,
                -1.2367131625433303,
                2.0115321582696586,
                -0.37723617296243983,
                -0.0901537911550192,
                -2.9365312023323535
            ]
        },
        {
            "positions": [
                0.02175764345758613,
                -1.2010136853614144,
                1.9920248857648546,
                -0.48563235480128064,
                -0.017850165727379963,
                -3.0454473555137738
            ]
        },
        {
            "positions": [
                0.07202002518382589,
                -1.1653142081794983,
                1.972517613260051,
                -0.5940285366401219,
                0.05445345970025928,
                -3.154363508695194
            ]
        },
        {
            "positions": [
                0.12228240691006555,
                -1.1296147309975824,
                1.9530103407552473,
                -0.7024247184789627,
                0.1267570851278986,
                -3.2632796618766142
            ]
        }
    ]
}