{
    "goal": {
        "global_pose": {
            "orientation": {
                "w": 0.5084816217422485,
                "x": -0.49083608388900757,
                "y": 0.5182115435600281,
                "z": -0.4816462993621826
            },
            "position": {
                "x": 0.5540239810943604,
                "y": 0.030875300988554955,
                "z": 0.16403168439865112
            }
        },
        "name": "move_to_storage_A"
    },
    "id": "RRT_move_to_storage_A_137",
    "joint_names": [
        "shoulder_pan_joint",
        "shoulder_lift_joint",
        "elbow_joint",
        "wrist_1_joint",
        "wrist_2_joint",
        "wrist_3_joint"
    ],
    "metrics": {
        "cart_traj_len": 0.35257487004857824,
        "distance_elbow_joint": 0.45290615057458306,
        "distance_shoulder_lift_joint": 0.23317906032274993,
        "distance_shoulder_pan_joint": 0.4603556232999171,
        "distance_wrist_1_joint": 0.25437081499828273,
        "distance_wrist_2_joint": 1.1007945645087858,
        "distance_wrist_3_joint": 0.10861846882520565,
        "smoothness": 4.440892133664971e-16,
        "time": 0.018592074,
        "traj_len": 1.615618978141048,
        "weighted_distance": 2.0451471828910024
    },
    "planner": "RRT",
    "start": {
        "state": {
            "elbow_joint": 1.9715463870305268,
            "shoulder_lift_joint": -1.1394903361783484,
            "shoulder_pan_joint": 0.12281147578464417,
            "wrist_1_joint": -0.7804599489681411,
            "wrist_2_joint": 0.12958660307563738,
            "wrist_3_joint": -3.1924946282119055
        }
    },
    "waypoints": [
        {
            "positions": [
                0.12281147578464417,
                -1.1394903361783484,
                1.9715463870305268,
                -0.7804599489681411,
                0.12958660307563738,
                -3.1924946282119055
            ]
        },
        {
            "positions": [
                0.05704638674179888,
                -1.1728016305101698,
                2.0362472656840387,
                -0.8167986368250386,
                0.2868429694340353,
                -3.176977704094019
            ]
        },
        {
            "positions": [
                -0.008718702301046419,
                -1.2061129248419913,
                2.1009481443375506,
                -0.8531373246819361,
                0.4440993357924333,
                -3.1614607799761325
            ]
        },
        {
            "positions": [
                -0.0744837913438917,
                -1.2394242191738127,
                2.1656490229910625,
                -0.8894760125388337,
                0.6013557021508312,
                -3.145943855858246
            ]
        },
        {
            "positions": [
                -0.140248880386737,
                -1.272735513505634,
                2.230349901644574,
                -0.9258147003957312,
                0.7586120685092292,
                -3.1304269317403595
            ]
        },
        {
            "positions": [
                -0.20601396942958233,
                -1.3060468078374554,
                2.295050780298086,
                -0.9621533882526287,
                0.9158684348676273,
                -3.114910007622473
            ]
        },
        {
            "positions": [
                -0.27177905847242756,
                -1.3393581021692769,
                2.359751658951598,
                -0.9984920761095263,
                1.073124801226025,
                -3.0993930835045864
            ]
        },
        {
            "positions": [
                -0.3375441475152729,
                -1.3726693965010983,
                2.42445253760511,
                -1.0348307639664238,
                1.2303811675844232,
                -3.0838761593867
            ]
        }
    ]
}