{
    "goal": {
        "global_pose": {
            "orientation": {
                "w": -0.00223480608172531,
                "x": 0.0024358444001904467,
                "y": 0.7094548369677653,
                "z": -0.704743149386269
            },
            "position": {
                "x": 0.6205249238014221,
                "y": -0.6371506643295288,
                "z": 0.19426114857196808
            }
        },
        "name": "move_to_magneteinheit_B"
    },
    "id": "RRT_move_to_magneteinheit_B_140",
    "joint_names": [
        "shoulder_pan_joint",
        "shoulder_lift_joint",
        "elbow_joint",
        "wrist_1_joint",
        "wrist_2_joint",
        "wrist_3_joint"
    ],
    "metrics": {
        "cart_traj_len": 2.920415497834042,
        "distance_elbow_joint": 4.055383984514908,
        "distance_shoulder_lift_joint": 0.623651203349342,
        "distance_shoulder_pan_joint": 2.134043355564877,
        "distance_wrist_1_joint": 2.6993797858522344,
        "distance_wrist_2_joint": 1.7060723794096986,
        "distance_wrist_3_joint": 3.3523066427179584,
        "smoothness": 0.14079006811438036,
        "time": 1.89503344,
        "traj_len": 3.8171766204105646,
        "weighted_distance": 5.067632859837705
    },
    "planner": "RRT",
    "start": {
        "state": {
            "elbow_joint": 2.39358713078474,
            "shoulder_lift_joint": -1.908514104345545,
            "shoulder_pan_joint": 0.7066247066606129,
            "wrist_1_joint": -0.4678290933515497,
            "wrist_2_joint": 0.7096259083745334,
            "wrist_3_joint": -3.1358149277392293
        }
    },
    "waypoints": [
        {
            "positions": [
                0.7066247066606129,
                -1.908514104345545,
                2.39358713078474,
                -0.4678290933515497,
                0.7096259083745334,
                -3.1358149277392293
            ]
        },
        {
            "positions": [
                0.746364128870614,
                -1.932596431954353,
                2.370871075740527,
                -0.3998248033492884,
                0.6492617366984561,
                -3.126072167198478
            ]
        },
        {
            "positions": [
                0.7861035510806151,
                -1.956678759563161,
                2.3481550206963133,
                -0.331820513347027,
                0.5888975650223788,
                -3.1163294066577265
            ]
        },
        {
            "positions": [
                0.8490846038399883,
                -1.976088327921232,
                2.272376745790176,
                -0.22239566616099116,
                0.5355556462236213,
                -3.0617041725873926
            ]
        },
        {
            "positions": [
                0.9120656565993615,
                -1.995497896279303,
                2.1965984708840387,
                -0.11297081897495531,
                0.4822137274248637,
                -3.0070789385170587
            ]
        },
        {
            "positions": [
                0.9750467093587346,
                -2.014907464637374,
                2.1208201959779016,
                -0.0035459717889194664,
                0.42887180862610613,
                -2.9524537044467247
            ]
        },
        {
            "positions": [
                1.0380277621181078,
                -2.034317032995445,
                2.045041921071764,
                0.10587887539711638,
                0.3755298898273486,
                -2.897828470376391
            ]
        },
        {
            "positions": [
                1.1010088148774808,
                -2.053726601353516,
                1.9692636461656268,
                0.21530372258315222,
                0.32218797102859104,
                -2.8432032363060564
            ]
        },
        {
            "positions": [
                1.163989867636854,
                -2.073136169711587,
                1.8934853712594895,
                0.32472856976918807,
                0.2688460522298335,
                -2.7885780022357225
            ]
        },
        {
            "positions": [
                1.2269709203962273,
                -2.092545738069658,
                1.8177070963533521,
                0.4341534169552239,
                0.21550413343107594,
                -2.7339527681653886
            ]
        },
        {
            "positions": [
                1.2899519731556004,
                -2.111955306427729,
                1.7419288214472148,
                0.5435782641412598,
                0.1621622146323184,
                -2.6793275340950546
            ]
        },
        {
            "positions": [
                1.3529330259149734,
                -2.1313648747858,
                1.6661505465410775,
                0.6530031113272956,
                0.10882029583356084,
                -2.6247023000247207
            ]
        },
        {
            "positions": [
                1.4159140786743467,
                -2.150774443143871,
                1.5903722716349402,
                0.7624279585133314,
                0.055478377034803295,
                -2.570077065954387
            ]
        },
        {
            "positions": [
                1.47889513143372,
                -2.170184011501942,
                1.514593996728803,
                0.8718528056993674,
                0.0021364582360458018,
                -2.515451831884053
            ]
        },
        {
            "positions": [
                1.541876184193093,
                -2.189593579860013,
                1.4388157218226656,
                0.9812776528854031,
                -0.0512054605627118,
                -2.4608265978137185
            ]
        },
        {
            "positions": [
                1.604857236952466,
                -2.209003148218084,
                1.3630374469165283,
                1.0907025000714388,
                -0.1045473793614694,
                -2.406201363743385
            ]
        },
        {
            "positions": [
                1.6678382897118393,
                -2.228412716576155,
                1.287259172010391,
                1.200127347257475,
                -0.1578892981602269,
                -2.3515761296730506
            ]
        },
        {
            "positions": [
                1.7308193424712126,
                -2.247822284934226,
                1.2114808971042537,
                1.3095521944435107,
                -0.2112312169589844,
                -2.2969508956027167
            ]
        },
        {
            "positions": [
                1.7938003952305857,
                -2.267231853292297,
                1.1357026221981164,
                1.4189770416295464,
                -0.264573135757742,
                -2.2423256615323828
            ]
        },
        {
            "positions": [
                1.8514749941309168,
                -2.2656891610835643,
                0.9884842310131168,
                1.4312799436320478,
                -0.23205547355299205,
                -2.10533148021907
            ]
        },
        {
            "positions": [
                1.9091495930312479,
                -2.264146468874832,
                0.8412658398281172,
                1.4435828456345492,
                -0.19953781134824214,
                -1.9683372989057575
            ]
        },
        {
            "positions": [
                1.966824191931579,
                -2.2626037766660994,
                0.6940474486431176,
                1.4558857476370506,
                -0.16702014914349222,
                -1.8313431175924446
            ]
        },
        {
            "positions": [
                2.02449879083191,
                -2.261061084457367,
                0.546829057458118,
                1.468188649639552,
                -0.13450248693874228,
                -1.694348936279132
            ]
        },
        {
            "positions": [
                2.082173389732241,
                -2.2595183922486344,
                0.3996106662731185,
                1.4804915516420531,
                -0.10198482473399234,
                -1.5573547549658193
            ]
        },
        {
            "positions": [
                2.1398479886325723,
                -2.2579757000399017,
                0.2523922750881189,
                1.4927944536445545,
                -0.06946716252924243,
                -1.4203605736525065
            ]
        },
        {
            "positions": [
                2.1975225875329034,
                -2.2564330078311694,
                0.10517388390311933,
                1.505097355647056,
                -0.03694950032449251,
                -1.2833663923391938
            ]
        },
        {
            "positions": [
                2.255197186433234,
                -2.2548903156224367,
                -0.04204450728188025,
                1.5174002576495573,
                -0.0044318381197425705,
                -1.1463722110258812
            ]
        },
        {
            "positions": [
                2.3128717853335656,
                -2.253347623413704,
                -0.18926289846687983,
                1.5297031596520587,
                0.02808582408500737,
                -1.0093780297125685
            ]
        },
        {
            "positions": [
                2.3705463842338963,
                -2.2518049312049717,
                -0.3364812896518794,
                1.5420060616545601,
                0.06060348628975731,
                -0.8723838483992559
            ]
        },
        {
            "positions": [
                2.4282209831342274,
                -2.250262238996239,
                -0.483699680836879,
                1.5543089636570615,
                0.0931211484945072,
                -0.735389667085943
            ]
        },
        {
            "positions": [
                2.4858955820345585,
                -2.2487195467875063,
                -0.6309180720218786,
                1.5666118656595627,
                0.12563881069925714,
                -0.5983954857726304
            ]
        },
        {
            "positions": [
                2.5435701809348896,
                -2.247176854578774,
                -0.7781364632068781,
                1.578914767662064,
                0.15815647290400708,
                -0.4614013044593177
            ]
        },
        {
            "positions": [
                2.6012447798352207,
                -2.2456341623700413,
                -0.9253548543918777,
                1.5912176696645655,
                0.19067413510875697,
                -0.32440712314600484
            ]
        },
        {
            "positions": [
                2.658919378735552,
                -2.244091470161309,
                -1.0725732455768773,
                1.6035205716670669,
                0.2231917973135069,
                -0.18741294183269241
            ]
        },
        {
            "positions": [
                2.716593977635883,
                -2.2425487779525763,
                -1.219791636761877,
                1.6158234736695682,
                0.2557094595182568,
                -0.050418760519379706
            ]
        },
        {
            "positions": [
                2.7336877978505303,
                -2.272675355065273,
                -1.3356743740658192,
                1.5143883684800274,
                0.3008805840226809,
                0.023383736745953433
            ]
        },
        {
            "positions": [
                2.7507816180651776,
                -2.30280193217797,
                -1.4515571113697612,
                1.4129532632904866,
                0.346051708527105,
                0.09718623401128657
            ]
        },
        {
            "positions": [
                2.7438192675988002,
                -2.332833229560829,
                -1.5068077634907975,
                1.335987360936597,
                0.3725005510272831,
                0.10426111240209238
            ]
        },
        {
            "positions": [
                2.736856917132423,
                -2.3628645269436874,
                -1.5620584156118338,
                1.2590214585827075,
                0.3989493935274611,
                0.11133599079289819
            ]
        },
        {
            "positions": [
                2.6988760455186442,
                -2.4228318419795665,
                -1.6119276346710003,
                1.1295588567105797,
                0.43312479652357116,
                0.05875812869998249
            ]
        },
        {
            "positions": [
                2.6608951739048656,
                -2.4827991570154455,
                -1.6617968537301666,
                1.0000962548384515,
                0.4673001995196812,
                0.006180266607066792
            ]
        }
    ]
}