{
    "goal": {
        "global_pose": {
            "orientation": {
                "w": 0.7047431468963623,
                "x": -0.7094548344612122,
                "y": 0.0024358443915843964,
                "z": -0.0022348060738295317
            },
            "position": {
                "x": 0.6094750761985779,
                "y": 0.3671506643295288,
                "z": 0.19426114857196808
            }
        },
        "name": "move_to_magneteinheit_A"
    },
    "id": "RRT_move_to_magneteinheit_A_79",
    "joint_names": [
        "shoulder_pan_joint",
        "shoulder_lift_joint",
        "elbow_joint",
        "wrist_1_joint",
        "wrist_2_joint",
        "wrist_3_joint"
    ],
    "metrics": {
        "cart_traj_len": 2.064742422815381,
        "distance_elbow_joint": 3.8788855166569065,
        "distance_shoulder_lift_joint": 1.055443269400852,
        "distance_shoulder_pan_joint": 1.241579895841453,
        "distance_wrist_1_joint": 1.1554497575284293,
        "distance_wrist_2_joint": 1.4455873115740387,
        "distance_wrist_3_joint": 1.9364118448372087,
        "smoothness": 3.368952644486532e-16,
        "time": 0.069167479,
        "traj_len": 3.273126578034966,
        "weighted_distance": 4.145747020093698
    },
    "planner": "RRT",
    "start": {
        "state": {
            "elbow_joint": -1.919643507792019,
            "shoulder_lift_joint": -0.07675430207160344,
            "shoulder_pan_joint": -1.1188671864651873,
            "wrist_1_joint": 0.42560062535961957,
            "wrist_2_joint": 1.5706038300724876,
            "wrist_3_joint": 1.1188968870953055
        }
    },
    "waypoints": [
        {
            "positions": [
                -1.1188671864651873,
                -0.07675430207160344,
                -1.919643507792019,
                0.42560062535961957,
                1.5706038300724876,
                1.1188968870953055
            ]
        },
        {
            "positions": [
                -1.0745250473279926,
                -0.1144487045502053,
                -1.7811118821971297,
                0.3843345625907471,
                1.5189757118019862,
                1.1880544529823487
            ]
        },
        {
            "positions": [
                -1.0301829081907978,
                -0.15214310702880715,
                -1.64258025660224,
                0.34306849982187465,
                1.4673475935314848,
                1.2572120188693918
            ]
        },
        {
            "positions": [
                -0.9858407690536031,
                -0.18983750950740902,
                -1.5040486310073504,
                0.3018024370530022,
                1.4157194752609834,
                1.326369584756435
            ]
        },
        {
            "positions": [
                -0.9414986299164083,
                -0.22753191198601086,
                -1.365517005412461,
                0.2605363742841297,
                1.364091356990482,
                1.395527150643478
            ]
        },
        {
            "positions": [
                -0.8971564907792136,
                -0.26522631446461276,
                -1.2269853798175716,
                0.21927031151525722,
                1.3124632387199806,
                1.4646847165305215
            ]
        },
        {
            "positions": [
                -0.8528143516420188,
                -0.30292071694321454,
                -1.088453754222682,
                0.1780042487463848,
                1.2608351204494794,
                1.5338422824175646
            ]
        },
        {
            "positions": [
                -0.808472212504824,
                -0.34061511942181644,
                -0.9499221286277925,
                0.1367381859775123,
                1.209207002178978,
                1.6029998483046077
            ]
        },
        {
            "positions": [
                -0.7641300733676293,
                -0.3783095219004183,
                -0.8113905030329029,
                0.09547212320863985,
                1.1575788839084766,
                1.6721574141916509
            ]
        },
        {
            "positions": [
                -0.7197879342304345,
                -0.4160039243790202,
                -0.6728588774380133,
                0.054206060439767334,
                1.1059507656379752,
                1.7413149800786942
            ]
        },
        {
            "positions": [
                -0.6754457950932398,
                -0.453698326857622,
                -0.5343272518431239,
                0.012939997670894876,
                1.0543226473674738,
                1.8104725459657374
            ]
        },
        {
            "positions": [
                -0.6311036559560451,
                -0.49139272933622385,
                -0.3957956262482345,
                -0.028326065097977526,
                1.0026945290969724,
                1.8796301118527805
            ]
        },
        {
            "positions": [
                -0.5867615168188504,
                -0.5290871318148257,
                -0.25726400065334487,
                -0.06959212786684998,
                0.951066410826471,
                1.9487876777398236
            ]
        },
        {
            "positions": [
                -0.5424193776816556,
                -0.5667815342934276,
                -0.11873237505845524,
                -0.1108581906357225,
                0.8994382925559696,
                2.017945243626867
            ]
        },
        {
            "positions": [
                -0.49807723854446084,
                -0.6044759367720294,
                0.019799250536434165,
                -0.15212425340459496,
                0.8478101742854682,
                2.08710280951391
            ]
        },
        {
            "positions": [
                -0.4537350994072661,
                -0.6421703392506313,
                0.15833087613132357,
                -0.1933903161734674,
                0.7961820560149668,
                2.156260375400953
            ]
        },
        {
            "positions": [
                -0.4093929602700713,
                -0.6798647417292332,
                0.2968625017262132,
                -0.23465637894233987,
                0.7445539377444655,
                2.225417941287996
            ]
        },
        {
            "positions": [
                -0.3650508211328767,
                -0.7175591442078348,
                0.4353941273211024,
                -0.27592244171121233,
                0.6929258194739641,
                2.2945755071750393
            ]
        },
        {
            "positions": [
                -0.3207086819956818,
                -0.755253546686437,
                0.5739257529159925,
                -0.3171885044800849,
                0.6412977012034626,
                2.3637330730620825
            ]
        },
        {
            "positions": [
                -0.27636654285848705,
                -0.7929479491650389,
                0.7124573785108821,
                -0.35845456724895736,
                0.5896695829329612,
                2.432890638949126
            ]
        },
        {
            "positions": [
                -0.2320244037212923,
                -0.8306423516436405,
                0.8509890041057713,
                -0.3997206300178298,
                0.5380414646624598,
                2.5020482048361687
            ]
        },
        {
            "positions": [
                -0.18768226458409765,
                -0.8683367541222424,
                0.9895206297006609,
                -0.44098669278670216,
                0.48641334639195866,
                2.5712057707232123
            ]
        },
        {
            "positions": [
                -0.1433401254469029,
                -0.9060311566008443,
                1.12805225529555,
                -0.4822527555555746,
                0.43478522812145726,
                2.640363336610255
            ]
        },
        {
            "positions": [
                -0.09899798630970813,
                -0.943725559079446,
                1.2665838808904397,
                -0.523518818324447,
                0.38315710985095586,
                2.7095209024972986
            ]
        },
        {
            "positions": [
                -0.05465584717251337,
                -0.9814199615580479,
                1.4051155064853293,
                -0.5647848810933196,
                0.33152899158045446,
                2.7786784683843413
            ]
        },
        {
            "positions": [
                -0.010313708035318614,
                -1.01911436403665,
                1.543647132080219,
                -0.6060509438621922,
                0.27990087330995284,
                2.847836034271385
            ]
        },
        {
            "positions": [
                0.034028431101876144,
                -1.0568087665152517,
                1.6821787576751086,
                -0.6473170066310645,
                0.22827275503945166,
                2.916993600158428
            ]
        },
        {
            "positions": [
                0.0783705702390709,
                -1.0945031689938536,
                1.8207103832699978,
                -0.6885830693999371,
                0.17664463676895026,
                2.986151166045471
            ]
        },
        {
            "positions": [
                0.12271270937626572,
                -1.1321975714724555,
                1.9592420088648874,
                -0.7298491321688095,
                0.12501651849844875,
                3.0553087319325143
            ]
        }
    ]
}