{
    "goal": {
        "global_pose": {
            "orientation": {
                "w": 0.5084816217422485,
                "x": -0.49083608388900757,
                "y": 0.5182115435600281,
                "z": -0.4816462993621826
            },
            "position": {
                "x": 0.5540239810943604,
                "y": 0.030875300988554955,
                "z": 0.16403168439865112
            }
        },
        "name": "move_to_storage_A"
    },
    "id": "RRT_move_to_storage_A_29",
    "joint_names": [
        "shoulder_pan_joint",
        "shoulder_lift_joint",
        "elbow_joint",
        "wrist_1_joint",
        "wrist_2_joint",
        "wrist_3_joint"
    ],
    "metrics": {
        "cart_traj_len": 0.3522453469246358,
        "distance_elbow_joint": 0.45041733136260964,
        "distance_shoulder_lift_joint": 0.23350215678429542,
        "distance_shoulder_pan_joint": 0.458130324229569,
        "distance_wrist_1_joint": 0.24637063278238747,
        "distance_wrist_2_joint": 1.1075427311011294,
        "distance_wrist_3_joint": 0.10522696485557148,
        "smoothness": 0.0,
        "time": 0.015320004,
        "traj_len": 1.612820554530343,
        "weighted_distance": 2.0409697290038924
    },
    "planner": "RRT",
    "start": {
        "state": {
            "elbow_joint": 1.9715463870305268,
            "shoulder_lift_joint": -1.1394903361783484,
            "shoulder_pan_joint": 0.12281147578464417,
            "wrist_1_joint": -0.7804599489681411,
            "wrist_2_joint": 0.12958660307563738,
            "wrist_3_joint": -3.1924946282119055
        }
    },
    "waypoints": [
        {
            "positions": [
                0.12281147578464417,
                -1.1394903361783484,
                1.9715463870305268,
                -0.7804599489681411,
                0.12958660307563738,
                -3.1924946282119055
            ]
        },
        {
            "positions": [
                0.057364286608991455,
                -1.1728477871475333,
                2.0358917200823283,
                -0.8156557536513392,
                0.28780699323294157,
                -3.1774622046611096
            ]
        },
        {
            "positions": [
                -0.008082902566661263,
                -1.2062052381167185,
                2.1002370531341295,
                -0.8508515583345375,
                0.4460273833902457,
                -3.1624297811103137
            ]
        },
        {
            "positions": [
                -0.07353009174231397,
                -1.2395626890859035,
                2.164582386185931,
                -0.8860473630177357,
                0.60424777354755,
                -3.1473973575595178
            ]
        },
        {
            "positions": [
                -0.13897728091796668,
                -1.2729201400550887,
                2.228927719237732,
                -0.921243167700934,
                0.7624681637048542,
                -3.132364934008722
            ]
        },
        {
            "positions": [
                -0.20442447009361941,
                -1.3062775910242737,
                2.2932730522895337,
                -0.9564389723841321,
                0.9206885538621584,
                -3.117332510457926
            ]
        },
        {
            "positions": [
                -0.2698716592692721,
                -1.3396350419934588,
                2.357618385341335,
                -0.9916347770673304,
                1.0789089440194626,
                -3.10230008690713
            ]
        },
        {
            "positions": [
                -0.3353188484449248,
                -1.3729924929626438,
                2.4219637183931364,
                -1.0268305817505285,
                1.2371293341767668,
                -3.087267663356334
            ]
        }
    ]
}