{
    "goal": {
        "global_pose": {
            "orientation": {
                "w": 0.7031023502349854,
                "x": -0.7110244035720825,
                "y": 0.007748599164187908,
                "z": 0.005598929710686207
            },
            "position": {
                "x": 0.11585023208521307,
                "y": 0.44412534475326537,
                "z": 0.3711530566215515
            }
        },
        "name": "move_to_auspresseinheit_A"
    },
    "id": "RRT_move_to_auspresseinheit_A_27",
    "joint_names": [
        "shoulder_pan_joint",
        "shoulder_lift_joint",
        "elbow_joint",
        "wrist_1_joint",
        "wrist_2_joint",
        "wrist_3_joint"
    ],
    "metrics": {
        "cart_traj_len": 0.7996698058388283,
        "distance_elbow_joint": 0.1360725682177617,
        "distance_shoulder_lift_joint": 0.5343321261913236,
        "distance_shoulder_pan_joint": 1.3613971246033727,
        "distance_wrist_1_joint": 0.5781317398919157,
        "distance_wrist_2_joint": 0.9841176242505842,
        "distance_wrist_3_joint": 0.2135637586296828,
        "smoothness": 0.8232159599122871,
        "time": 0.24044903,
        "traj_len": 1.9513110827811748,
        "weighted_distance": 2.4076942960406136
    },
    "planner": "RRT",
    "start": {
        "state": {
            "elbow_joint": 2.422574709923281,
            "shoulder_lift_joint": -1.3736533754116391,
            "shoulder_pan_joint": -0.33786336945926293,
            "wrist_1_joint": -1.0288603412921917,
            "wrist_2_joint": 1.2330224858903978,
            "wrist_3_joint": -3.094022268022082
        }
    },
    "waypoints": [
        {
            "positions": [
                -0.33786336945926293,
                -1.3736533754116391,
                2.422574709923281,
                -1.0288603412921917,
                1.2330224858903978,
                -3.094022268022082
            ]
        },
        {
            "positions": [
                -0.377852682489749,
                -1.411221141134805,
                2.4015525860769973,
                -1.0244341612828882,
                1.0441900939841111,
                -3.07310557300757
            ]
        },
        {
            "positions": [
                -0.41784199552023515,
                -1.4487889068579707,
                2.3805304622307135,
                -1.0200079812735845,
                0.8553577020778245,
                -3.052188877993058
            ]
        },
        {
            "positions": [
                -0.45783130855072124,
                -1.4863566725811364,
                2.35950833838443,
                -1.0155818012642808,
                0.6665253101715379,
                -3.0312721829785456
            ]
        },
        {
            "positions": [
                -0.4978206215812073,
                -1.5239244383043022,
                2.3384862145381464,
                -1.0111556212549773,
                0.4776929182652513,
                -3.0103554879640333
            ]
        },
        {
            "positions": [
                -0.32618635408386043,
                -1.5787903044898253,
                2.3459125106570933,
                -0.9310946184185914,
                0.5103769263545995,
                -3.0289121991885524
            ]
        },
        {
            "positions": [
                -0.1545520865865136,
                -1.633656170675348,
                2.3533388067760397,
                -0.8510336155822055,
                0.5430609344439478,
                -3.0474689104130714
            ]
        },
        {
            "positions": [
                0.017082180910833245,
                -1.688522036860871,
                2.3607651028949865,
                -0.7709726127458196,
                0.575744942533296,
                -3.0660256216375905
            ]
        },
        {
            "positions": [
                0.18871644840818014,
                -1.743387903046394,
                2.3681913990139334,
                -0.6909116099094337,
                0.6084289506226443,
                -3.08458233286211
            ]
        },
        {
            "positions": [
                0.36035071590552703,
                -1.798253769231917,
                2.3756176951328802,
                -0.6108506070730478,
                0.6411129587119926,
                -3.103139044086629
            ]
        },
        {
            "positions": [
                0.5319849834028738,
                -1.8531196354174397,
                2.3830439912518266,
                -0.530789604236662,
                0.6737969668013408,
                -3.121695755311148
            ]
        },
        {
            "positions": [
                0.7036192509002209,
                -1.9079855016029628,
                2.3904702873707735,
                -0.45072860140027604,
                0.7064809748906891,
                -3.1402524665356673
            ]
        }
    ]
}