{
    "goal": {
        "global_pose": {
            "orientation": {
                "w": 0.7047431468963623,
                "x": -0.7094548344612122,
                "y": 0.0024358443915843964,
                "z": -0.0022348060738295317
            },
            "position": {
                "x": 0.6094750761985779,
                "y": 0.3671506643295288,
                "z": 0.19426114857196808
            }
        },
        "name": "move_to_magneteinheit_A"
    },
    "id": "RRT_move_to_magneteinheit_A_83",
    "joint_names": [
        "shoulder_pan_joint",
        "shoulder_lift_joint",
        "elbow_joint",
        "wrist_1_joint",
        "wrist_2_joint",
        "wrist_3_joint"
    ],
    "metrics": {
        "cart_traj_len": 2.063175520895988,
        "distance_elbow_joint": 3.870235472243913,
        "distance_shoulder_lift_joint": 1.0496063420740436,
        "distance_shoulder_pan_joint": 1.2418930520820604,
        "distance_wrist_1_joint": 1.1203764826962999,
        "distance_wrist_2_joint": 1.4454848723245415,
        "distance_wrist_3_joint": 1.9029377537947294,
        "smoothness": 5.075305277722828e-16,
        "time": 1.941112352,
        "traj_len": 3.2604499651452388,
        "weighted_distance": 4.1233809959577945
    },
    "planner": "RRT",
    "start": {
        "state": {
            "elbow_joint": -1.919643507792019,
            "shoulder_lift_joint": -0.07675430207160344,
            "shoulder_pan_joint": -1.1188671864651873,
            "wrist_1_joint": 0.42560062535961957,
            "wrist_2_joint": 1.5706038300724876,
            "wrist_3_joint": 1.1188968870953055
        }
    },
    "waypoints": [
        {
            "positions": [
                -1.1188671864651873,
                -0.07675430207160344,
                -1.919643507792019,
                0.42560062535961957,
                1.5706038300724876,
                1.1188968870953055
            ]
        },
        {
            "positions": [
                -1.0728711474991852,
                -0.11562861103730876,
                -1.7763014532644668,
                0.38410520007457144,
                1.5170673533197268,
                1.189376063161777
            ]
        },
        {
            "positions": [
                -1.0268751085331829,
                -0.15450292000301408,
                -1.6329593987369144,
                0.34260977478952326,
                1.4635308765669661,
                1.2598552392282485
            ]
        },
        {
            "positions": [
                -0.9808790695671806,
                -0.1933772289687194,
                -1.489617344209362,
                0.30111434950447513,
                1.4099943998142053,
                1.3303344152947199
            ]
        },
        {
            "positions": [
                -0.9348830306011784,
                -0.2322515379344247,
                -1.3462752896818098,
                0.259618924219427,
                1.3564579230614444,
                1.4008135913611914
            ]
        },
        {
            "positions": [
                -0.8888869916351761,
                -0.27112584690013003,
                -1.2029332351542574,
                0.21812349893437885,
                1.3029214463086836,
                1.4712927674276628
            ]
        },
        {
            "positions": [
                -0.8428909526691739,
                -0.31000015586583535,
                -1.059591180626705,
                0.17662807364933072,
                1.249384969555923,
                1.5417719434941342
            ]
        },
        {
            "positions": [
                -0.7968949137031718,
                -0.34887446483154066,
                -0.9162491260991528,
                0.13513264836428257,
                1.195848492803162,
                1.6122511195606057
            ]
        },
        {
            "positions": [
                -0.7508988747371694,
                -0.387748773797246,
                -0.7729070715716004,
                0.09363722307923444,
                1.1423120160504012,
                1.6827302956270773
            ]
        },
        {
            "positions": [
                -0.7049028357711673,
                -0.4266230827629513,
                -0.6295650170440481,
                0.05214179779418632,
                1.0887755392976404,
                1.7532094716935487
            ]
        },
        {
            "positions": [
                -0.658906796805165,
                -0.4654973917286566,
                -0.48622296251649577,
                0.010646372509138136,
                1.0352390625448797,
                1.82368864776002
            ]
        },
        {
            "positions": [
                -0.6129107578391628,
                -0.504371700694362,
                -0.34288090798894344,
                -0.03084905277590999,
                0.9817025857921189,
                1.8941678238264914
            ]
        },
        {
            "positions": [
                -0.5669147188731606,
                -0.5432460096600673,
                -0.1995388534613911,
                -0.07234447806095812,
                0.9281661090393581,
                1.964646999892963
            ]
        },
        {
            "positions": [
                -0.5209186799071583,
                -0.5821203186257726,
                -0.056196798933838776,
                -0.1138399033460063,
                0.8746296322865973,
                2.0351261759594346
            ]
        },
        {
            "positions": [
                -0.4749226409411561,
                -0.6209946275914779,
                0.08714525559371356,
                -0.15533532863105443,
                0.8210931555338365,
                2.105605352025906
            ]
        },
        {
            "positions": [
                -0.42892660197515375,
                -0.6598689365571833,
                0.2304873101212659,
                -0.19683075391610255,
                0.7675566787810756,
                2.1760845280923773
            ]
        },
        {
            "positions": [
                -0.3829305630091516,
                -0.6987432455228886,
                0.3738293646488182,
                -0.23832617920115068,
                0.714020202028315,
                2.2465637041588487
            ]
        },
        {
            "positions": [
                -0.3369345240431493,
                -0.7376175544885939,
                0.5171714191763706,
                -0.2798216044861989,
                0.6604837252755541,
                2.3170428802253205
            ]
        },
        {
            "positions": [
                -0.29093848507714715,
                -0.7764918634542992,
                0.6605134737039229,
                -0.32131702977124693,
                0.6069472485227934,
                2.387522056291792
            ]
        },
        {
            "positions": [
                -0.2449424461111449,
                -0.8153661724200045,
                0.8038555282314752,
                -0.36281245505629517,
                0.5534107717700325,
                2.4580012323582636
            ]
        },
        {
            "positions": [
                -0.19894640714514267,
                -0.8542404813857098,
                0.9471975827590275,
                -0.4043078803413433,
                0.49987429501727165,
                2.528480408424735
            ]
        },
        {
            "positions": [
                -0.15295036817914043,
                -0.8931147903514152,
                1.0905396372865799,
                -0.4458033056263914,
                0.4463378182645108,
                2.5989595844912063
            ]
        },
        {
            "positions": [
                -0.1069543292131383,
                -0.9319890993171205,
                1.2338816918141322,
                -0.48729873091143955,
                0.39280134151175017,
                2.6694387605576777
            ]
        },
        {
            "positions": [
                -0.06095829024713595,
                -0.9708634082828258,
                1.3772237463416845,
                -0.5287941561964877,
                0.3392648647589893,
                2.739917936624149
            ]
        },
        {
            "positions": [
                -0.01496225128113382,
                -1.0097377172485311,
                1.5205658008692369,
                -0.5702895814815359,
                0.2857283880062287,
                2.8103971126906204
            ]
        },
        {
            "positions": [
                0.03103378768486853,
                -1.0486120262142364,
                1.6639078553967892,
                -0.611785006766584,
                0.2321919112534676,
                2.880876288757092
            ]
        },
        {
            "positions": [
                0.07702982665087066,
                -1.0874863351799418,
                1.8072499099243415,
                -0.6532804320516321,
                0.17865543450070698,
                2.951355464823563
            ]
        },
        {
            "positions": [
                0.12302586561687302,
                -1.126360644145647,
                1.9505919644518939,
                -0.6947758573366802,
                0.12511895774794604,
                3.021834640890035
            ]
        }
    ]
}