{
    "goal": {
        "global_pose": {
            "orientation": {
                "w": 0.5084816217422485,
                "x": -0.49083608388900757,
                "y": 0.5182115435600281,
                "z": -0.4816462993621826
            },
            "position": {
                "x": 0.5540239810943604,
                "y": 0.030875300988554955,
                "z": 0.16403168439865112
            }
        },
        "name": "move_to_storage_A"
    },
    "id": "RRT_move_to_storage_A_53",
    "joint_names": [
        "shoulder_pan_joint",
        "shoulder_lift_joint",
        "elbow_joint",
        "wrist_1_joint",
        "wrist_2_joint",
        "wrist_3_joint"
    ],
    "metrics": {
        "cart_traj_len": 0.3535666959607096,
        "distance_elbow_joint": 0.4502982303992469,
        "distance_shoulder_lift_joint": 0.23647500918153996,
        "distance_shoulder_pan_joint": 0.46084341164140996,
        "distance_wrist_1_joint": 0.23951783185002629,
        "distance_wrist_2_joint": 1.1073961599067574,
        "distance_wrist_3_joint": 0.08966445661145483,
        "smoothness": 0.0,
        "time": 0.012760632000000001,
        "traj_len": 1.60754318747287,
        "weighted_distance": 2.0274215162541136
    },
    "planner": "RRT",
    "start": {
        "state": {
            "elbow_joint": 1.9715463870305268,
            "shoulder_lift_joint": -1.1394903361783484,
            "shoulder_pan_joint": 0.12281147578464417,
            "wrist_1_joint": -0.7804599489681411,
            "wrist_2_joint": 0.12958660307563738,
            "wrist_3_joint": -3.1924946282119055
        }
    },
    "waypoints": [
        {
            "positions": [
                0.12281147578464417,
                -1.1394903361783484,
                1.9715463870305268,
                -0.7804599489681411,
                0.12958660307563738,
                -3.1924946282119055
            ]
        },
        {
            "positions": [
                0.05697670269301418,
                -1.1732724803471397,
                2.0358747056589905,
                -0.8146767820895734,
                0.28778605449088845,
                -3.179685420124555
            ]
        },
        {
            "positions": [
                -0.008858070398615817,
                -1.2070546245159313,
                2.1002030242874543,
                -0.8488936152110057,
                0.4459855059061395,
                -3.166876212037204
            ]
        },
        {
            "positions": [
                -0.07469284349024581,
                -1.2408367686847226,
                2.164531342915918,
                -0.883110448332438,
                0.6041849573213905,
                -3.1540670039498533
            ]
        },
        {
            "positions": [
                -0.1405276165818758,
                -1.2746189128535141,
                2.228859661544382,
                -0.9173272814538704,
                0.7623844087366416,
                -3.141257795862503
            ]
        },
        {
            "positions": [
                -0.20636238967350579,
                -1.3084010570223055,
                2.293187980172846,
                -0.9515441145753027,
                0.9205838601518928,
                -3.1284485877751522
            ]
        },
        {
            "positions": [
                -0.2721971627651358,
                -1.342183201191097,
                2.35751629880131,
                -0.9857609476967351,
                1.0787833115671437,
                -3.1156393796878015
            ]
        },
        {
            "positions": [
                -0.3380319358567658,
                -1.3759653453598883,
                2.4218446174297736,
                -1.0199777808181674,
                1.2369827629823948,
                -3.1028301716004507
            ]
        }
    ]
}