{
    "goal": {
        "global_pose": {
            "orientation": {
                "w": -0.00223480608172531,
                "x": 0.0024358444001904467,
                "y": 0.7094548369677653,
                "z": -0.704743149386269
            },
            "position": {
                "x": 0.6205249238014221,
                "y": -0.6371506643295288,
                "z": 0.19426114857196808
            }
        },
        "name": "move_to_magneteinheit_B"
    },
    "id": "RRT_move_to_magneteinheit_B_18",
    "joint_names": [
        "shoulder_pan_joint",
        "shoulder_lift_joint",
        "elbow_joint",
        "wrist_1_joint",
        "wrist_2_joint",
        "wrist_3_joint"
    ],
    "metrics": {
        "cart_traj_len": 1.4517649894153637,
        "distance_elbow_joint": 0.7280664537007413,
        "distance_shoulder_lift_joint": 1.247614953434472,
        "distance_shoulder_pan_joint": 1.621026734058796,
        "distance_wrist_1_joint": 2.6055408358120506,
        "distance_wrist_2_joint": 2.9343782847754465,
        "distance_wrist_3_joint": 3.1401896761215173,
        "smoothness": 2.775557568481668e-16,
        "time": 0.116449412,
        "traj_len": 3.5038288967789257,
        "weighted_distance": 4.908881278940606
    },
    "planner": "RRT",
    "start": {
        "state": {
            "elbow_joint": 2.39358713078474,
            "shoulder_lift_joint": -1.908514104345545,
            "shoulder_pan_joint": 0.7066247066606129,
            "wrist_1_joint": -0.4678290933515497,
            "wrist_2_joint": 0.7096259083745334,
            "wrist_3_joint": -3.1358149277392293
        }
    },
    "waypoints": [
        {
            "positions": [
                0.7066247066606129,
                -1.908514104345545,
                2.39358713078474,
                -0.4678290933515497,
                0.7096259083745334,
                -3.1358149277392293
            ]
        },
        {
            "positions": [
                0.6543335216909744,
                -1.8682684606863684,
                2.3701011161492325,
                -0.38377938897051583,
                0.614968544349519,
                -3.034518486574019
            ]
        },
        {
            "positions": [
                0.6020423367213358,
                -1.828022817027192,
                2.3466151015137244,
                -0.2997296845894819,
                0.5203111803245046,
                -2.933222045408809
            ]
        },
        {
            "positions": [
                0.5497511517516972,
                -1.7877771733680154,
                2.323129086878217,
                -0.21567998020844803,
                0.42565381629949023,
                -2.8319256042435987
            ]
        },
        {
            "positions": [
                0.4974599667820586,
                -1.747531529708839,
                2.299643072242709,
                -0.13163027582741416,
                0.3309964522744758,
                -2.7306291630783885
            ]
        },
        {
            "positions": [
                0.44516878181242003,
                -1.7072858860496622,
                2.276157057607201,
                -0.04758057144638028,
                0.23633908824946143,
                -2.629332721913178
            ]
        },
        {
            "positions": [
                0.39287759684278145,
                -1.6670402423904858,
                2.252671042971693,
                0.03646913293465365,
                0.14168172422444703,
                -2.528036280747968
            ]
        },
        {
            "positions": [
                0.34058641187314287,
                -1.6267945987313093,
                2.2291850283361856,
                0.12051883731568752,
                0.04702436019943268,
                -2.4267398395827575
            ]
        },
        {
            "positions": [
                0.2882952269035043,
                -1.5865489550721328,
                2.205699013700678,
                0.2045685416967214,
                -0.04763300382558178,
                -2.3254433984175473
            ]
        },
        {
            "positions": [
                0.23600404193386565,
                -1.5463033114129563,
                2.18221299906517,
                0.2886182460777554,
                -0.14229036785059623,
                -2.224146957252337
            ]
        },
        {
            "positions": [
                0.18371285696422712,
                -1.5060576677537798,
                2.1587269844296624,
                0.37266795045878914,
                -0.23694773187561058,
                -2.122850516087127
            ]
        },
        {
            "positions": [
                0.13142167199458854,
                -1.4658120240946033,
                2.1352409697941543,
                0.45671765483982313,
                -0.33160509590062504,
                -2.0215540749219167
            ]
        },
        {
            "positions": [
                0.07913048702494996,
                -1.4255663804354266,
                2.1117549551586468,
                0.5407673592208571,
                -0.4262624599256394,
                -1.9202576337567066
            ]
        },
        {
            "positions": [
                0.026839302055311376,
                -1.3853207367762501,
                2.0882689405231387,
                0.624817063601891,
                -0.520919823950654,
                -1.8189611925914961
            ]
        },
        {
            "positions": [
                -0.025451882914327206,
                -1.3450750931170736,
                2.064782925887631,
                0.7088667679829248,
                -0.6155771879756681,
                -1.717664751426286
            ]
        },
        {
            "positions": [
                -0.07774306788396579,
                -1.3048294494578971,
                2.0412969112521235,
                0.7929164723639588,
                -0.7102345520006826,
                -1.6163683102610757
            ]
        },
        {
            "positions": [
                -0.13003425285360437,
                -1.2645838057987207,
                2.0178108966166155,
                0.8769661767449926,
                -0.804891916025697,
                -1.5150718690958656
            ]
        },
        {
            "positions": [
                -0.18232543782324284,
                -1.2243381621395442,
                1.9943248819811077,
                0.9610158811260263,
                -0.8995492800507113,
                -1.4137754279306554
            ]
        },
        {
            "positions": [
                -0.23461662279288165,
                -1.1840925184803677,
                1.9708388673455999,
                1.0450655855070605,
                -0.9942066440757259,
                -1.312478986765445
            ]
        },
        {
            "positions": [
                -0.2869078077625201,
                -1.143846874821191,
                1.9473528527100923,
                1.1291152898880943,
                -1.0888640081007401,
                -1.2111825456002348
            ]
        },
        {
            "positions": [
                -0.3391989927321587,
                -1.1036012311620147,
                1.9238668380745845,
                1.213164994269128,
                -1.1835213721257545,
                -1.1098861044350246
            ]
        },
        {
            "positions": [
                -0.3914901777017973,
                -1.063355587502838,
                1.9003808234390767,
                1.297214698650162,
                -1.2781787361507688,
                -1.0085896632698144
            ]
        },
        {
            "positions": [
                -0.44378136267143586,
                -1.0231099438436615,
                1.8768948088035686,
                1.381264403031196,
                -1.3728361001757836,
                -0.9072932221046042
            ]
        },
        {
            "positions": [
                -0.49607254764107445,
                -0.982864300184485,
                1.853408794168061,
                1.4653141074122298,
                -1.467493464200798,
                -0.805996780939394
            ]
        },
        {
            "positions": [
                -0.548363732610713,
                -0.9426186565253085,
                1.8299227795325532,
                1.5493638117932638,
                -1.5621508282258123,
                -0.7047003397741838
            ]
        },
        {
            "positions": [
                -0.6006549175803516,
                -0.902373012866132,
                1.8064367648970454,
                1.6334135161742975,
                -1.6568081922508267,
                -0.6034038986089736
            ]
        },
        {
            "positions": [
                -0.6529461025499902,
                -0.8621273692069553,
                1.7829507502615376,
                1.7174632205553317,
                -1.7514655562758414,
                -0.502107457443763
            ]
        },
        {
            "positions": [
                -0.7052372875196288,
                -0.8218817255477788,
                1.7594647356260298,
                1.8015129249363655,
                -1.8461229203008558,
                -0.40081101627855276
            ]
        },
        {
            "positions": [
                -0.7575284724892674,
                -0.7816360818886026,
                1.7359787209905222,
                1.8855626293173993,
                -1.9407802843258697,
                -0.29951457511334256
            ]
        },
        {
            "positions": [
                -0.8098196574589059,
                -0.7413904382294261,
                1.7124927063550144,
                1.969612333698433,
                -2.035437648350884,
                -0.1982181339481328
            ]
        },
        {
            "positions": [
                -0.8621108424285445,
                -0.7011447945702494,
                1.6890066917195066,
                2.0536620380794672,
                -2.130095012375899,
                -0.09692169278292218
            ]
        },
        {
            "positions": [
                -0.914402027398183,
                -0.6608991509110729,
                1.6655206770839988,
                2.137711742460501,
                -2.224752376400913,
                0.004374748382288109
            ]
        }
    ]
}