{
    "goal": {
        "global_pose": {
            "orientation": {
                "w": 0.7031023502349854,
                "x": -0.7110244035720825,
                "y": 0.007748599164187908,
                "z": 0.005598929710686207
            },
            "position": {
                "x": 0.11585023208521307,
                "y": 0.44412534475326537,
                "z": 0.3711530566215515
            }
        },
        "name": "move_to_auspresseinheit_A"
    },
    "id": "RRT_move_to_auspresseinheit_A_83",
    "joint_names": [
        "shoulder_pan_joint",
        "shoulder_lift_joint",
        "elbow_joint",
        "wrist_1_joint",
        "wrist_2_joint",
        "wrist_3_joint"
    ],
    "metrics": {
        "cart_traj_len": 3.7770138689076616,
        "distance_elbow_joint": 2.083738426921505,
        "distance_shoulder_lift_joint": 1.1148842626312245,
        "distance_shoulder_pan_joint": 4.66101230417133,
        "distance_wrist_1_joint": 4.085186972624458,
        "distance_wrist_2_joint": 4.208757012184789,
        "distance_wrist_3_joint": 1.997348574346839,
        "smoothness": 0.9596516425379178,
        "time": 0.232129283,
        "traj_len": 4.260390539948204,
        "weighted_distance": 5.51720660174903
    },
    "planner": "RRT",
    "start": {
        "state": {
            "elbow_joint": 2.422574709923281,
            "shoulder_lift_joint": -1.3736533754116391,
            "shoulder_pan_joint": -0.33786336945926293,
            "wrist_1_joint": -1.0288603412921917,
            "wrist_2_joint": 1.2330224858903978,
            "wrist_3_joint": -3.094022268022082
        }
    },
    "waypoints": [
        {
            "positions": [
                -0.33786336945926293,
                -1.3736533754116391,
                2.422574709923281,
                -1.0288603412921917,
                1.2330224858903978,
                -3.094022268022082
            ]
        },
        {
            "positions": [
                -0.39610659517947794,
                -1.3820428552318058,
                2.3903055674098836,
                -1.121100811450584,
                1.1012995918797395,
                -3.0368710360694946
            ]
        },
        {
            "positions": [
                -0.4543498208996929,
                -1.3904323350519725,
                2.358036424896486,
                -1.2133412816089764,
                0.9695766978690813,
                -2.979719804116907
            ]
        },
        {
            "positions": [
                -0.5125930466199079,
                -1.3988218148721392,
                2.3257672823830884,
                -1.305581751767369,
                0.837853803858423,
                -2.922568572164319
            ]
        },
        {
            "positions": [
                -0.5708362723401229,
                -1.4072112946923059,
                2.293498139869691,
                -1.3978222219257612,
                0.7061309098477648,
                -2.8654173402117316
            ]
        },
        {
            "positions": [
                -0.6290794980603379,
                -1.4156007745124723,
                2.261228997356293,
                -1.4900626920841535,
                0.5744080158371065,
                -2.808266108259144
            ]
        },
        {
            "positions": [
                -0.6873227237805529,
                -1.423990254332639,
                2.2289598548428957,
                -1.5823031622425459,
                0.44268512182644826,
                -2.7511148763065565
            ]
        },
        {
            "positions": [
                -0.7455659495007678,
                -1.4323797341528057,
                2.1966907123294983,
                -1.6745436324009382,
                0.3109622278157902,
                -2.6939636443539685
            ]
        },
        {
            "positions": [
                -0.8038091752209828,
                -1.4407692139729724,
                2.1644215698161005,
                -1.7667841025593307,
                0.1792393338051319,
                -2.636812412401381
            ]
        },
        {
            "positions": [
                -0.8620524009411978,
                -1.449158693793139,
                2.132152427302703,
                -1.8590245727177228,
                0.04751643979447362,
                -2.5796611804487934
            ]
        },
        {
            "positions": [
                -0.9202956266614128,
                -1.4575481736133058,
                2.099883284789305,
                -1.9512650428761154,
                -0.08420645421618467,
                -2.5225099484962055
            ]
        },
        {
            "positions": [
                -0.9785388523816279,
                -1.4659376534334725,
                2.067614142275908,
                -2.043505513034508,
                -0.21592934822684295,
                -2.465358716543618
            ]
        },
        {
            "positions": [
                -1.0367820781018429,
                -1.4743271332536392,
                2.0353449997625104,
                -2.1357459831929,
                -0.34765224223750124,
                -2.4082074845910304
            ]
        },
        {
            "positions": [
                -1.0950253038220579,
                -1.4827166130738056,
                2.0030758572491125,
                -2.227986453351292,
                -0.4793751362481591,
                -2.351056252638443
            ]
        },
        {
            "positions": [
                -1.1532685295422729,
                -1.4911060928939723,
                1.9708067147357151,
                -2.3202269235096846,
                -0.6110980302588174,
                -2.2939050206858553
            ]
        },
        {
            "positions": [
                -1.2115117552624879,
                -1.499495572714139,
                1.9385375722223177,
                -2.412467393668077,
                -0.7428209242694757,
                -2.2367537887332674
            ]
        },
        {
            "positions": [
                -1.269754980982703,
                -1.5078850525343057,
                1.9062684297089199,
                -2.5047078638264697,
                -0.8745438182801339,
                -2.17960255678068
            ]
        },
        {
            "positions": [
                -1.327998206702918,
                -1.5162745323544724,
                1.8739992871955224,
                -2.596948333984862,
                -1.0062667122907922,
                -2.1224513248280923
            ]
        },
        {
            "positions": [
                -1.2085707998650748,
                -1.5241410445085057,
                1.8439961308182387,
                -2.4853646532519367,
                -0.9243794213224341,
                -2.152273698291705
            ]
        },
        {
            "positions": [
                -1.0891433930272314,
                -1.5320075566625388,
                1.8139929744409546,
                -2.373780972519012,
                -0.842492130354076,
                -2.182096071755318
            ]
        },
        {
            "positions": [
                -0.9697159861893883,
                -1.5398740688165722,
                1.7839898180636709,
                -2.262197291786087,
                -0.7606048393857179,
                -2.211918445218931
            ]
        },
        {
            "positions": [
                -0.850288579351545,
                -1.5477405809706053,
                1.7539866616863868,
                -2.150613611053162,
                -0.6787175484173598,
                -2.2417408186825436
            ]
        },
        {
            "positions": [
                -0.7308611725137018,
                -1.5556070931246386,
                1.723983505309103,
                -2.039029930320237,
                -0.5968302574490016,
                -2.2715631921461563
            ]
        },
        {
            "positions": [
                -0.6114337656758585,
                -1.563473605278672,
                1.6939803489318193,
                -1.927446249587312,
                -0.5149429664806434,
                -2.3013855656097695
            ]
        },
        {
            "positions": [
                -0.49200635883801536,
                -1.571340117432705,
                1.6639771925545352,
                -1.8158625688543872,
                -0.4330556755122853,
                -2.331207939073382
            ]
        },
        {
            "positions": [
                -0.3725789520001721,
                -1.5792066295867384,
                1.6339740361772515,
                -1.704278888121462,
                -0.3511683845439272,
                -2.361030312536995
            ]
        },
        {
            "positions": [
                -0.25315154516232874,
                -1.5870731417407715,
                1.6039708797999674,
                -1.5926952073885372,
                -0.26928109357556906,
                -2.390852686000608
            ]
        },
        {
            "positions": [
                -0.1337241383244856,
                -1.5949396538948049,
                1.5739677234226837,
                -1.4811115266556123,
                -0.18739380260721095,
                -2.420675059464221
            ]
        },
        {
            "positions": [
                -0.014296731486642233,
                -1.602806166048838,
                1.5439645670453999,
                -1.3695278459226874,
                -0.10550651163885272,
                -2.4504974329278335
            ]
        },
        {
            "positions": [
                0.10513067535120091,
                -1.6106726782028713,
                1.5139614106681158,
                -1.2579441651897623,
                -0.0236192206704946,
                -2.4803198063914467
            ]
        },
        {
            "positions": [
                0.22455808218904405,
                -1.6185391903569046,
                1.483958254290832,
                -1.1463604844568376,
                0.058268070297863295,
                -2.5101421798550594
            ]
        },
        {
            "positions": [
                0.3439854890268872,
                -1.6264057025109377,
                1.453955097913548,
                -1.0347768037239127,
                0.14015536126622163,
                -2.539964553318672
            ]
        },
        {
            "positions": [
                0.46341289586473056,
                -1.634272214664971,
                1.4239519415362643,
                -0.9231931229909878,
                0.22204265223457975,
                -2.569786926782285
            ]
        },
        {
            "positions": [
                0.5828403027025737,
                -1.6421387268190042,
                1.3939487851589805,
                -0.8116094422580626,
                0.30392994320293787,
                -2.599609300245898
            ]
        },
        {
            "positions": [
                0.7022677095404171,
                -1.6500052389730375,
                1.3639456287816965,
                -0.7000257615251376,
                0.3858172341712959,
                -2.6294316737095107
            ]
        },
        {
            "positions": [
                0.8049504274235195,
                -1.718458557032561,
                1.4532179217815422,
                -0.6456262347149109,
                0.3696848643221518,
                -2.6467903174463134
            ]
        },
        {
            "positions": [
                0.907633145306622,
                -1.7869118750920845,
                1.542490214781388,
                -0.5912267079046842,
                0.35355249447300774,
                -2.664148961183116
            ]
        },
        {
            "positions": [
                1.0103158631897244,
                -1.8553651931516082,
                1.6317625077812337,
                -0.5368271810944576,
                0.33742012462386367,
                -2.681507604919919
            ]
        },
        {
            "positions": [
                1.112998581072827,
                -1.9238185112111317,
                1.7210348007810792,
                -0.48242765428423084,
                0.3212877547747196,
                -2.6988662486567216
            ]
        },
        {
            "positions": [
                1.2156812989559294,
                -1.9922718292706552,
                1.8103070937809251,
                -0.42802812747400415,
                0.30515538492557553,
                -2.716224892393524
            ]
        },
        {
            "positions": [
                1.3183640168390318,
                -2.060725147330179,
                1.8995793867807707,
                -0.37362860066377745,
                0.28902301507643147,
                -2.7335835361303267
            ]
        },
        {
            "positions": [
                1.4210467347221343,
                -2.1291784653897023,
                1.9888516797806164,
                -0.31922907385355076,
                0.2728906452272874,
                -2.7509421798671294
            ]
        },
        {
            "positions": [
                1.5237294526052367,
                -2.197631783449226,
                2.078123972780462,
                -0.26482954704332407,
                0.25675827537814333,
                -2.768300823603932
            ]
        },
        {
            "positions": [
                1.3979507796999153,
                -2.1532905996698917,
                2.128670513739454,
                -0.292726957053422,
                0.3262508159172687,
                -2.8275233524563212
            ]
        },
        {
            "positions": [
                1.2721721067945937,
                -2.1089494158905575,
                2.1792170546984457,
                -0.32062436706352,
                0.39574335645639397,
                -2.886745881308711
            ]
        },
        {
            "positions": [
                1.1463934338892723,
                -2.0646082321112234,
                2.2297635956574378,
                -0.348521777073618,
                0.4652358969955193,
                -2.9459684101611003
            ]
        },
        {
            "positions": [
                1.0206147609839507,
                -2.0202670483318896,
                2.28031013661643,
                -0.3764191870837159,
                0.5347284375346446,
                -3.0051909390134894
            ]
        },
        {
            "positions": [
                0.8948360880786292,
                -1.9759258645525555,
                2.3308566775754214,
                -0.40431659709381385,
                0.60422097807377,
                -3.0644134678658785
            ]
        },
        {
            "positions": [
                0.7690574151733077,
                -1.9315846807732213,
                2.3814032185344134,
                -0.43221400710391183,
                0.6737135186128953,
                -3.123635996718268
            ]
        },
        {
            "positions": [
                0.7045796449857149,
                -1.906725928855588,
                2.389054974561617,
                -0.44980974003357355,
                0.7050831841265033,
                -3.1482289559809415
            ]
        }
    ]
}