{
    "goal": {
        "global_pose": {
            "orientation": {
                "w": 0.7047431468963623,
                "x": -0.7094548344612122,
                "y": 0.0024358443915843964,
                "z": -0.0022348060738295317
            },
            "position": {
                "x": 0.6094750761985779,
                "y": 0.3671506643295288,
                "z": 0.19426114857196808
            }
        },
        "name": "move_to_magneteinheit_A"
    },
    "id": "RRT_move_to_magneteinheit_A_102",
    "joint_names": [
        "shoulder_pan_joint",
        "shoulder_lift_joint",
        "elbow_joint",
        "wrist_1_joint",
        "wrist_2_joint",
        "wrist_3_joint"
    ],
    "metrics": {
        "cart_traj_len": 1.876701474603765,
        "distance_elbow_joint": 3.9194482664626125,
        "distance_shoulder_lift_joint": 0.7031827991849002,
        "distance_shoulder_pan_joint": 1.2415153540215642,
        "distance_wrist_1_joint": 1.516174062607973,
        "distance_wrist_2_joint": 1.693967943597329,
        "distance_wrist_3_joint": 1.147935945107264,
        "smoothness": 9.210739189151353e-16,
        "time": 0.051509214,
        "traj_len": 3.197221351577279,
        "weighted_distance": 3.965884298287265
    },
    "planner": "RRT",
    "start": {
        "state": {
            "elbow_joint": -1.919643507792019,
            "shoulder_lift_joint": -0.07675430207160344,
            "shoulder_pan_joint": -1.1188671864651873,
            "wrist_1_joint": 0.42560062535961957,
            "wrist_2_joint": 1.5706038300724876,
            "wrist_3_joint": 1.1188968870953055
        }
    },
    "waypoints": [
        {
            "positions": [
                -1.1188671864651873,
                -0.07675430207160344,
                -1.919643507792019,
                0.42560062535961957,
                1.5706038300724876,
                1.1188968870953055
            ]
        },
        {
            "positions": [
                -1.0711165959258964,
                -0.10379979434794576,
                -1.768895497543457,
                0.48391501238300316,
                1.5054512168572056,
                1.07474550459118
            ]
        },
        {
            "positions": [
                -1.0233660053866054,
                -0.13084528662428807,
                -1.618147487294895,
                0.5422293994063867,
                1.4402986036419239,
                1.0305941220870545
            ]
        },
        {
            "positions": [
                -0.9756154148473145,
                -0.1578907789006304,
                -1.467399477046333,
                0.6005437864297702,
                1.3751459904266419,
                0.9864427395829289
            ]
        },
        {
            "positions": [
                -0.9278648243080236,
                -0.1849362711769727,
                -1.316651466797771,
                0.6588581734531539,
                1.30999337721136,
                0.9422913570788034
            ]
        },
        {
            "positions": [
                -0.8801142337687327,
                -0.21198176345331504,
                -1.1659034565492088,
                0.7171725604765374,
                1.2448407639960781,
                0.8981399745746779
            ]
        },
        {
            "positions": [
                -0.8323636432294417,
                -0.23902725572965736,
                -1.015155446300647,
                0.7754869474999211,
                1.1796881507807964,
                0.8539885920705523
            ]
        },
        {
            "positions": [
                -0.7846130526901509,
                -0.26607274800599967,
                -0.864407436052085,
                0.8338013345233046,
                1.1145355375655144,
                0.8098372095664268
            ]
        },
        {
            "positions": [
                -0.7368624621508599,
                -0.293118240282342,
                -0.7136594258035229,
                0.8921157215466882,
                1.0493829243502324,
                0.7656858270623013
            ]
        },
        {
            "positions": [
                -0.689111871611569,
                -0.32016373255868424,
                -0.562911415554961,
                0.9504301085700717,
                0.9842303111349506,
                0.7215344445581757
            ]
        },
        {
            "positions": [
                -0.641361281072278,
                -0.34720922483502664,
                -0.4121634053063987,
                1.0087444955934552,
                0.9190776979196688,
                0.6773830620540502
            ]
        },
        {
            "positions": [
                -0.5936106905329871,
                -0.37425471711136893,
                -0.26141539505783684,
                1.0670588826168388,
                0.8539250847043869,
                0.6332316795499247
            ]
        },
        {
            "positions": [
                -0.5458600999936961,
                -0.40130020938771127,
                -0.11066738480927474,
                1.1253732696402226,
                0.788772471489105,
                0.5890802970457991
            ]
        },
        {
            "positions": [
                -0.49810950945440524,
                -0.42834570166405356,
                0.04008062543928714,
                1.183687656663606,
                0.7236198582738231,
                0.5449289145416736
            ]
        },
        {
            "positions": [
                -0.45035891891511437,
                -0.45539119394039584,
                0.19082863568784902,
                1.2420020436869896,
                0.6584672450585413,
                0.500777532037548
            ]
        },
        {
            "positions": [
                -0.4026083283758234,
                -0.48243668621673813,
                0.3415766459364111,
                1.3003164307103732,
                0.5933146318432595,
                0.4566261495334226
            ]
        },
        {
            "positions": [
                -0.3548577378365324,
                -0.5094821784930805,
                0.49232465618497323,
                1.3586308177337567,
                0.5281620186279774,
                0.412474767029297
            ]
        },
        {
            "positions": [
                -0.30710714729724153,
                -0.5365276707694229,
                0.6430726664335353,
                1.4169452047571403,
                0.46300940541269564,
                0.36832338452517144
            ]
        },
        {
            "positions": [
                -0.25935655675795055,
                -0.5635731630457651,
                0.793820676682097,
                1.475259591780524,
                0.39785679219741366,
                0.3241720020210459
            ]
        },
        {
            "positions": [
                -0.21160596621865968,
                -0.5906186553221073,
                0.9445686869306591,
                1.5335739788039076,
                0.3327041789821319,
                0.28002061951692037
            ]
        },
        {
            "positions": [
                -0.1638553756793687,
                -0.6176641475984499,
                1.0953166971792216,
                1.591888365827291,
                0.2675515657668499,
                0.23586923701279483
            ]
        },
        {
            "positions": [
                -0.11610478514007783,
                -0.644709639874792,
                1.2460647074277833,
                1.6502027528506746,
                0.20239895255156815,
                0.1917178545086693
            ]
        },
        {
            "positions": [
                -0.06835419460078684,
                -0.6717551321511344,
                1.3968127176763454,
                1.7085171398740582,
                0.13724633933628616,
                0.14756647200454376
            ]
        },
        {
            "positions": [
                -0.02060360406149586,
                -0.6988006244274767,
                1.547560727924907,
                1.7668315268974417,
                0.0720937261210044,
                0.10341508950041822
            ]
        },
        {
            "positions": [
                0.02714698647779512,
                -0.725846116703819,
                1.6983087381734696,
                1.8251459139208255,
                0.006941112905722413,
                0.05926370699629269
            ]
        },
        {
            "positions": [
                0.07489757701708588,
                -0.7528916089801614,
                1.8490567484220313,
                1.883460300944209,
                -0.05821150030955957,
                0.01511232449216715
            ]
        },
        {
            "positions": [
                0.12264816755637692,
                -0.7799371012565037,
                1.9998047586705934,
                1.9417746879675926,
                -0.12336411352484143,
                -0.029039058011958486
            ]
        }
    ]
}