{
    "goal": {
        "global_pose": {
            "orientation": {
                "w": -0.00223480608172531,
                "x": 0.0024358444001904467,
                "y": 0.7094548369677653,
                "z": -0.704743149386269
            },
            "position": {
                "x": 0.6205249238014221,
                "y": -0.6371506643295288,
                "z": 0.19426114857196808
            }
        },
        "name": "move_to_magneteinheit_B"
    },
    "id": "RRT_move_to_magneteinheit_B_126",
    "joint_names": [
        "shoulder_pan_joint",
        "shoulder_lift_joint",
        "elbow_joint",
        "wrist_1_joint",
        "wrist_2_joint",
        "wrist_3_joint"
    ],
    "metrics": {
        "cart_traj_len": 3.6490651521918536,
        "distance_elbow_joint": 4.750552278549371,
        "distance_shoulder_lift_joint": 0.9947434248013445,
        "distance_shoulder_pan_joint": 3.133329511566789,
        "distance_wrist_1_joint": 1.4541279305919208,
        "distance_wrist_2_joint": 0.8208562752518045,
        "distance_wrist_3_joint": 4.51489898074999,
        "smoothness": 0.8943620389541523,
        "time": 1.527736975,
        "traj_len": 3.9583466752561254,
        "weighted_distance": 5.193581670567522
    },
    "planner": "RRT",
    "start": {
        "state": {
            "elbow_joint": 2.39358713078474,
            "shoulder_lift_joint": -1.908514104345545,
            "shoulder_pan_joint": 0.7066247066606129,
            "wrist_1_joint": -0.4678290933515497,
            "wrist_2_joint": 0.7096259083745334,
            "wrist_3_joint": -3.1358149277392293
        }
    },
    "waypoints": [
        {
            "positions": [
                0.7066247066606129,
                -1.908514104345545,
                2.39358713078474,
                -0.4678290933515497,
                0.7096259083745334,
                -3.1358149277392293
            ]
        },
        {
            "positions": [
                0.6357667067610736,
                -1.9380240261681208,
                2.4067560404284047,
                -0.3498873953345745,
                0.6263556529783878,
                -3.068976248164981
            ]
        },
        {
            "positions": [
                0.5649087068615342,
                -1.9675339479906964,
                2.41992495007207,
                -0.23194569731759934,
                0.5430853975822423,
                -3.0021375685907334
            ]
        },
        {
            "positions": [
                0.4940507069619948,
                -1.9970438698132722,
                2.4330938597157346,
                -0.11400399930062416,
                0.45981514218609665,
                -2.9352988890164857
            ]
        },
        {
            "positions": [
                0.4231927070624555,
                -2.026553791635848,
                2.4462627693593992,
                0.0039376987163510235,
                0.376544886789951,
                -2.8684602094422376
            ]
        },
        {
            "positions": [
                0.35233470716291604,
                -2.056063713458424,
                2.4594316790030644,
                0.1218793967333262,
                0.2932746313938054,
                -2.8016215298679894
            ]
        },
        {
            "positions": [
                0.2814767072633767,
                -2.0855736352809995,
                2.472600588646729,
                0.23982109475030144,
                0.2100043759976598,
                -2.7347828502937417
            ]
        },
        {
            "positions": [
                0.35771081265266724,
                -2.0770550205861333,
                2.2963261273089848,
                0.26038972343855227,
                0.20906481925519985,
                -2.625774578066579
            ]
        },
        {
            "positions": [
                0.4339449180419578,
                -2.068536405891267,
                2.12005166597124,
                0.2809583521268031,
                0.20812526251273988,
                -2.5167663058394165
            ]
        },
        {
            "positions": [
                0.5101790234312484,
                -2.0600177911964015,
                1.9437772046334958,
                0.3015269808150539,
                0.20718570577027992,
                -2.4077580336122537
            ]
        },
        {
            "positions": [
                0.586413128820539,
                -2.0514991765015353,
                1.767502743295751,
                0.32209560950330474,
                0.20624614902781993,
                -2.298749761385091
            ]
        },
        {
            "positions": [
                0.6626472342098295,
                -2.042980561806669,
                1.5912282819580068,
                0.3426642381915555,
                0.20530659228535997,
                -2.189741489157928
            ]
        },
        {
            "positions": [
                0.7388813395991201,
                -2.034461947111803,
                1.4149538206202623,
                0.3632328668798063,
                0.2043670355429,
                -2.0807332169307653
            ]
        },
        {
            "positions": [
                0.8151154449884107,
                -2.025943332416937,
                1.2386793592825178,
                0.38380149556805715,
                0.20342747880044004,
                -1.9717249447036027
            ]
        },
        {
            "positions": [
                0.8913495503777011,
                -2.0174247177220708,
                1.0624048979447733,
                0.404370124256308,
                0.20248792205798008,
                -1.8627166724764401
            ]
        },
        {
            "positions": [
                0.9675836557669917,
                -2.008906103027205,
                0.8861304366070291,
                0.42493875294455874,
                0.20154836531552012,
                -1.7537084002492773
            ]
        },
        {
            "positions": [
                1.0438177611562822,
                -2.000387488332339,
                0.7098559752692846,
                0.44550738163280956,
                0.20060880857306013,
                -1.6447001280221147
            ]
        },
        {
            "positions": [
                1.1200518665455728,
                -1.9918688736374728,
                0.5335815139315401,
                0.4660760103210604,
                0.19966925183060016,
                -1.535691855794952
            ]
        },
        {
            "positions": [
                1.1962859719348633,
                -1.9833502589426066,
                0.3573070525937956,
                0.4866446390093112,
                0.1987296950881402,
                -1.4266835835677893
            ]
        },
        {
            "positions": [
                1.2725200773241538,
                -1.9748316442477407,
                0.1810325912560513,
                0.507213267697562,
                0.19779013834568024,
                -1.3176753113406265
            ]
        },
        {
            "positions": [
                1.3487541827134448,
                -1.9663130295528746,
                0.004758129918306597,
                0.5277818963858129,
                0.19685058160322028,
                -1.2086670391134637
            ]
        },
        {
            "positions": [
                1.424988288102735,
                -1.9577944148580084,
                -0.17151633141943767,
                0.5483505250740637,
                0.1959110248607603,
                -1.0996587668863012
            ]
        },
        {
            "positions": [
                1.5012223934920255,
                -1.9492758001631425,
                -0.3477907927571824,
                0.5689191537623145,
                0.19497146811830032,
                -0.9906504946591386
            ]
        },
        {
            "positions": [
                1.5774564988813164,
                -1.9407571854682764,
                -0.5240652540949267,
                0.5894877824505653,
                0.19403191137584036,
                -0.8816422224319758
            ]
        },
        {
            "positions": [
                1.6536906042706065,
                -1.9322385707734102,
                -0.7003397154326709,
                0.610056411138816,
                0.1930923546333804,
                -0.7726339502048132
            ]
        },
        {
            "positions": [
                1.7299247096598975,
                -1.9237199560785443,
                -0.8766141767704156,
                0.630625039827067,
                0.19215279789092043,
                -0.6636256779776506
            ]
        },
        {
            "positions": [
                1.806158815049188,
                -1.9152013413836781,
                -1.05288863810816,
                0.6511936685153177,
                0.19121324114846047,
                -0.5546174057504878
            ]
        },
        {
            "positions": [
                1.8823929204384782,
                -1.9066827266888122,
                -1.2291630994459042,
                0.6717622972035685,
                0.1902736844060005,
                -0.445609133523325
            ]
        },
        {
            "positions": [
                1.9586270258277692,
                -1.898164111993946,
                -1.405437560783649,
                0.6923309258918193,
                0.18933412766354052,
                -0.3366008612961622
            ]
        },
        {
            "positions": [
                2.0348611312170597,
                -1.88964549729908,
                -1.5817120221213936,
                0.7128995545800703,
                0.18839457092108056,
                -0.22759258906899937
            ]
        },
        {
            "positions": [
                2.1110952366063502,
                -1.881126882604214,
                -1.7579864834591379,
                0.733468183268321,
                0.1874550141786206,
                -0.11858431684183701
            ]
        },
        {
            "positions": [
                2.1873293419956408,
                -1.8726082679093479,
                -1.9342609447968822,
                0.7540368119565718,
                0.18651545743616063,
                -0.009576044614674428
            ]
        },
        {
            "positions": [
                2.3149571004469918,
                -1.9054331004673177,
                -1.9069024980087008,
                0.7629156951311095,
                0.2449588696971369,
                -0.14645698537956692
            ]
        },
        {
            "positions": [
                2.4425848588983423,
                -1.9382579330252876,
                -1.8795440512205195,
                0.771794578305647,
                0.30340228195811314,
                -0.2833379261444594
            ]
        },
        {
            "positions": [
                2.5702126173496933,
                -1.9710827655832577,
                -1.8521856044323384,
                0.7806734614801847,
                0.3618456942190894,
                -0.42021886690935184
            ]
        },
        {
            "positions": [
                2.697840375801044,
                -2.0039075981412275,
                -1.824827157644157,
                0.7895523446547222,
                0.4202891064800657,
                -0.5570998076742444
            ]
        },
        {
            "positions": [
                2.825468134252395,
                -2.0367324306991974,
                -1.7974687108559757,
                0.7984312278292599,
                0.47873251874104195,
                -0.6939807484391368
            ]
        },
        {
            "positions": [
                2.7926301172162877,
                -2.1248513034400753,
                -1.7718917001954027,
                0.8360047497114821,
                0.47762676613933175,
                -0.5531296696789421
            ]
        },
        {
            "positions": [
                2.759792100180181,
                -2.212970176180953,
                -1.7463146895348294,
                0.8735782715937044,
                0.4765210135376216,
                -0.4122785909187473
            ]
        },
        {
            "positions": [
                2.726954083144074,
                -2.3010890489218307,
                -1.7207376788742563,
                0.9111517934759266,
                0.4754152609359114,
                -0.27142751215855254
            ]
        },
        {
            "positions": [
                2.6941160661079673,
                -2.3892079216627087,
                -1.695160668213683,
                0.9487253153581489,
                0.47430950833420127,
                -0.13057643339835778
            ]
        },
        {
            "positions": [
                2.66127804907186,
                -2.477326794403586,
                -1.66958365755311,
                0.986298837240371,
                0.47320375573249107,
                0.010274645361836924
            ]
        }
    ]
}