{
    "goal": {
        "global_pose": {
            "orientation": {
                "w": 0.7031023502349854,
                "x": -0.7110244035720825,
                "y": 0.007748599164187908,
                "z": 0.005598929710686207
            },
            "position": {
                "x": 0.11585023208521307,
                "y": 0.44412534475326537,
                "z": 0.3711530566215515
            }
        },
        "name": "move_to_auspresseinheit_A"
    },
    "id": "RRT_move_to_auspresseinheit_A_145",
    "joint_names": [
        "shoulder_pan_joint",
        "shoulder_lift_joint",
        "elbow_joint",
        "wrist_1_joint",
        "wrist_2_joint",
        "wrist_3_joint"
    ],
    "metrics": {
        "cart_traj_len": 0.9357502461756085,
        "distance_elbow_joint": 0.5057008975320842,
        "distance_shoulder_lift_joint": 0.5325093172700373,
        "distance_shoulder_pan_joint": 1.0445219598106015,
        "distance_wrist_1_joint": 4.469387751714515,
        "distance_wrist_2_joint": 1.6681493401296956,
        "distance_wrist_3_joint": 0.08562977060805244,
        "smoothness": 1.1748957483901212,
        "time": 3.029236261,
        "traj_len": 2.881995669161386,
        "weighted_distance": 3.822917167573122
    },
    "planner": "RRT",
    "start": {
        "state": {
            "elbow_joint": 2.422574709923281,
            "shoulder_lift_joint": -1.3736533754116391,
            "shoulder_pan_joint": -0.33786336945926293,
            "wrist_1_joint": -1.0288603412921917,
            "wrist_2_joint": 1.2330224858903978,
            "wrist_3_joint": -3.094022268022082
        }
    },
    "waypoints": [
        {
            "positions": [
                -0.33786336945926293,
                -1.3736533754116391,
                2.422574709923281,
                -1.0288603412921917,
                1.2330224858903978,
                -3.094022268022082
            ]
        },
        {
            "positions": [
                -0.32441645275171865,
                -1.4056640467836135,
                2.400172551480643,
                -0.8190732925059312,
                1.141476182660731,
                -3.091939815490574
            ]
        },
        {
            "positions": [
                -0.3109695360441743,
                -1.4376747181555878,
                2.3777703930380047,
                -0.6092862437196707,
                1.049929879431064,
                -3.0898573629590667
            ]
        },
        {
            "positions": [
                -0.29752261933663005,
                -1.4696853895275621,
                2.355368234595366,
                -0.39949919493341013,
                0.9583835762013975,
                -3.0877749104275587
            ]
        },
        {
            "positions": [
                -0.28407570262908577,
                -1.5016960608995364,
                2.332966076152728,
                -0.1897121461471496,
                0.8668372729717306,
                -3.085692457896051
            ]
        },
        {
            "positions": [
                -0.2706287859215415,
                -1.5337067322715108,
                2.31056391771009,
                0.020074902639110936,
                0.7752909697420638,
                -3.083610005364543
            ]
        },
        {
            "positions": [
                -0.2571818692139972,
                -1.565717403643485,
                2.2881617592674512,
                0.22986195142537147,
                0.6837446665123971,
                -3.0815275528330357
            ]
        },
        {
            "positions": [
                -0.24373495250645288,
                -1.5977280750154592,
                2.265759600824813,
                0.439649000211632,
                0.5921983632827302,
                -3.0794451003015277
            ]
        },
        {
            "positions": [
                -0.2302880357989086,
                -1.6297387463874335,
                2.243357442382175,
                0.6494360489978925,
                0.5006520600530635,
                -3.0773626477700198
            ]
        },
        {
            "positions": [
                -0.21684111909136433,
                -1.6617494177594079,
                2.220955283939537,
                0.8592230977841531,
                0.40910575682339667,
                -3.0752801952385123
            ]
        },
        {
            "positions": [
                -0.20339420238382003,
                -1.6937600891313822,
                2.1985531254968986,
                1.0690101465704136,
                0.31755945359372995,
                -3.0731977427070043
            ]
        },
        {
            "positions": [
                -0.18994728567627575,
                -1.7257707605033565,
                2.17615096705426,
                1.278797195356674,
                0.22601315036406322,
                -3.071115290175497
            ]
        },
        {
            "positions": [
                -0.17650036896873145,
                -1.7577814318753309,
                2.153748808611622,
                1.4885842441429344,
                0.13446684713439644,
                -3.069032837643989
            ]
        },
        {
            "positions": [
                -0.08818447303672444,
                -1.7726195579559654,
                2.1774363082336645,
                1.2933899275149956,
                0.1914262172717659,
                -3.0750968716669846
            ]
        },
        {
            "positions": [
                0.00013142289528256246,
                -1.7874576840365999,
                2.2011238078557067,
                1.098195610887057,
                0.24838558740913536,
                -3.0811609056899805
            ]
        },
        {
            "positions": [
                0.08844731882728951,
                -1.8022958101172346,
                2.2248113074777494,
                0.9030012942591181,
                0.3053449575465048,
                -3.0872249397129767
            ]
        },
        {
            "positions": [
                0.17676321475929657,
                -1.8171339361978691,
                2.248498807099792,
                0.7078069776311793,
                0.3623043276838742,
                -3.0932889737359726
            ]
        },
        {
            "positions": [
                0.2650791106913035,
                -1.8319720622785036,
                2.272186306721834,
                0.5126126610032405,
                0.4192636978212437,
                -3.0993530077589684
            ]
        },
        {
            "positions": [
                0.35339500662331047,
                -1.8468101883591381,
                2.295873806343877,
                0.3174183443753018,
                0.47622306795861313,
                -3.105417041781964
            ]
        },
        {
            "positions": [
                0.4417109025553174,
                -1.8616483144397726,
                2.3195613059659195,
                0.12222402774736296,
                0.5331824380959825,
                -3.11148107580496
            ]
        },
        {
            "positions": [
                0.5300267984873246,
                -1.8764864405204074,
                2.343248805587962,
                -0.07297028888057588,
                0.590141808233352,
                -3.1175451098279563
            ]
        },
        {
            "positions": [
                0.6183426944193315,
                -1.8913245666010419,
                2.3669363052100043,
                -0.2681646055085145,
                0.6471011783707215,
                -3.123609143850952
            ]
        },
        {
            "positions": [
                0.7066585903513385,
                -1.9061626926816764,
                2.390623804832047,
                -0.46335892213645336,
                0.7040605485080909,
                -3.129673177873948
            ]
        }
    ]
}