{
    "goal": {
        "global_pose": {
            "orientation": {
                "w": 0.7031023502349854,
                "x": -0.7110244035720825,
                "y": 0.007748599164187908,
                "z": 0.005598929710686207
            },
            "position": {
                "x": 0.11585023208521307,
                "y": 0.44412534475326537,
                "z": 0.3711530566215515
            }
        },
        "name": "move_to_auspresseinheit_A"
    },
    "id": "RRT_move_to_auspresseinheit_A_64",
    "joint_names": [
        "shoulder_pan_joint",
        "shoulder_lift_joint",
        "elbow_joint",
        "wrist_1_joint",
        "wrist_2_joint",
        "wrist_3_joint"
    ],
    "metrics": {
        "cart_traj_len": 0.6688799274275089,
        "distance_elbow_joint": 0.28951601791022386,
        "distance_shoulder_lift_joint": 0.536643493970901,
        "distance_shoulder_pan_joint": 1.0426115591010472,
        "distance_wrist_1_joint": 0.6652008045735711,
        "distance_wrist_2_joint": 0.5251079755849934,
        "distance_wrist_3_joint": 0.06222148620465573,
        "smoothness": 0.5210389358534722,
        "time": 0.7154577059999999,
        "traj_len": 1.7667205034598403,
        "weighted_distance": 2.1061939820237994
    },
    "planner": "RRT",
    "start": {
        "state": {
            "elbow_joint": 2.422574709923281,
            "shoulder_lift_joint": -1.3736533754116391,
            "shoulder_pan_joint": -0.33786336945926293,
            "wrist_1_joint": -1.0288603412921917,
            "wrist_2_joint": 1.2330224858903978,
            "wrist_3_joint": -3.094022268022082
        }
    },
    "waypoints": [
        {
            "positions": [
                -0.33786336945926293,
                -1.3736533754116391,
                2.422574709923281,
                -1.0288603412921917,
                1.2330224858903978,
                -3.094022268022082
            ]
        },
        {
            "positions": [
                -0.2995170855635057,
                -1.4444826339197698,
                2.4887572456268545,
                -1.0590592705511042,
                1.1036164192162838,
                -3.1152690796948006
            ]
        },
        {
            "positions": [
                -0.2611708016677485,
                -1.5153118924279008,
                2.5549397813304284,
                -1.0892581998100164,
                0.97421035254217,
                -3.1365158913675186
            ]
        },
        {
            "positions": [
                -0.12318237433781526,
                -1.571738317707135,
                2.532489646115703,
                -1.0028577789449098,
                0.9361680893654892,
                -3.133697625244773
            ]
        },
        {
            "positions": [
                0.014806052992117957,
                -1.6281647429863693,
                2.510039510900978,
                -0.9164573580798031,
                0.8981258261888084,
                -3.1308793591220274
            ]
        },
        {
            "positions": [
                0.15279448032205117,
                -1.6845911682656034,
                2.4875893756862526,
                -0.8300569372146964,
                0.8600835630121276,
                -3.128061092999282
            ]
        },
        {
            "positions": [
                0.2907829076519844,
                -1.7410175935448375,
                2.4651392404715278,
                -0.7436565163495898,
                0.8220412998354467,
                -3.125242826876536
            ]
        },
        {
            "positions": [
                0.4287713349819176,
                -1.7974440188240717,
                2.4426891052568025,
                -0.6572560954844832,
                0.7839990366587659,
                -3.1224245607537906
            ]
        },
        {
            "positions": [
                0.5667597623118508,
                -1.853870444103306,
                2.420238970042077,
                -0.5708556746193766,
                0.7459567734820851,
                -3.119606294631045
            ]
        },
        {
            "positions": [
                0.7047481896417841,
                -1.9102968693825402,
                2.397788834827352,
                -0.48445525375426984,
                0.7079145103054043,
                -3.1167880285082994
            ]
        }
    ]
}