{
    "goal": {
        "global_pose": {
            "orientation": {
                "w": 0.7047431468963623,
                "x": -0.7094548344612122,
                "y": 0.0024358443915843964,
                "z": -0.0022348060738295317
            },
            "position": {
                "x": 0.6094750761985779,
                "y": 0.3671506643295288,
                "z": 0.19426114857196808
            }
        },
        "name": "move_to_magneteinheit_A"
    },
    "id": "RRT_move_to_magneteinheit_A_10",
    "joint_names": [
        "shoulder_pan_joint",
        "shoulder_lift_joint",
        "elbow_joint",
        "wrist_1_joint",
        "wrist_2_joint",
        "wrist_3_joint"
    ],
    "metrics": {
        "cart_traj_len": 2.0685369608916955,
        "distance_elbow_joint": 3.8920997366569425,
        "distance_shoulder_lift_joint": 1.0630479544553633,
        "distance_shoulder_pan_joint": 1.2426972188820946,
        "distance_wrist_1_joint": 1.2010539979433676,
        "distance_wrist_2_joint": 1.4314852547418695,
        "distance_wrist_3_joint": 1.9612221534612262,
        "smoothness": 5.81910002857755e-16,
        "time": 0.066395995,
        "traj_len": 3.285058038473729,
        "weighted_distance": 4.164923753893768
    },
    "planner": "RRT",
    "start": {
        "state": {
            "elbow_joint": -1.919643507792019,
            "shoulder_lift_joint": -0.07675430207160344,
            "shoulder_pan_joint": -1.1188671864651873,
            "wrist_1_joint": 0.42560062535961957,
            "wrist_2_joint": 1.5706038300724876,
            "wrist_3_joint": 1.1188968870953055
        }
    },
    "waypoints": [
        {
            "positions": [
                -1.1188671864651873,
                -0.07675430207160344,
                -1.919643507792019,
                0.42560062535961957,
                1.5706038300724876,
                1.1188968870953055
            ]
        },
        {
            "positions": [
                -1.074485142933684,
                -0.11472030044500928,
                -1.7806399457685569,
                0.382705839718785,
                1.5194793566888494,
                1.1889405354332065
            ]
        },
        {
            "positions": [
                -1.0301030994021807,
                -0.1526862988184151,
                -1.6416363837450947,
                0.3398110540779504,
                1.4683548833052111,
                1.2589841837711073
            ]
        },
        {
            "positions": [
                -0.9857210558706773,
                -0.19065229719182092,
                -1.5026328217216325,
                0.29691626843711594,
                1.4172304099215731,
                1.3290278321090083
            ]
        },
        {
            "positions": [
                -0.9413390123391738,
                -0.22861829556522675,
                -1.36362925969817,
                0.25402148279628134,
                1.3661059365379349,
                1.3990714804469093
            ]
        },
        {
            "positions": [
                -0.8969569688076704,
                -0.2665842939386326,
                -1.2246256976747079,
                0.21112669715544677,
                1.3149814631542966,
                1.4691151287848103
            ]
        },
        {
            "positions": [
                -0.8525749252761671,
                -0.30455029231203845,
                -1.0856221356512457,
                0.16823191151461225,
                1.2638569897706584,
                1.539158777122711
            ]
        },
        {
            "positions": [
                -0.8081928817446637,
                -0.34251629068544426,
                -0.9466185736277835,
                0.12533712587377766,
                1.2127325163870202,
                1.609202425460612
            ]
        },
        {
            "positions": [
                -0.7638108382131603,
                -0.38048228905885007,
                -0.8076150116043213,
                0.08244234023294311,
                1.161608043003382,
                1.679246073798513
            ]
        },
        {
            "positions": [
                -0.7194287946816569,
                -0.4184482874322559,
                -0.6686114495808588,
                0.039547554592108514,
                1.1104835696197437,
                1.7492897221364139
            ]
        },
        {
            "positions": [
                -0.6750467511501536,
                -0.45641428580566173,
                -0.5296078875573966,
                -0.0033472310487260293,
                1.0593590962361055,
                1.8193333704743149
            ]
        },
        {
            "positions": [
                -0.6306647076186502,
                -0.4943802841790676,
                -0.39060432553393465,
                -0.04624201668956057,
                1.0082346228524675,
                1.8893770188122159
            ]
        },
        {
            "positions": [
                -0.5862826640871468,
                -0.5323462825524734,
                -0.25160076351047245,
                -0.08913680233039506,
                0.9571101494688293,
                1.9594206671501166
            ]
        },
        {
            "positions": [
                -0.5419006205556434,
                -0.5703122809258793,
                -0.11259720148701002,
                -0.13203158797122977,
                0.905985676085191,
                2.029464315488018
            ]
        },
        {
            "positions": [
                -0.49751857702414004,
                -0.6082782792992851,
                0.026406360536452178,
                -0.17492637361206426,
                0.8548612027015529,
                2.0995079638259186
            ]
        },
        {
            "positions": [
                -0.4531365334926367,
                -0.6462442776726909,
                0.16540992255991438,
                -0.21782115925289874,
                0.8037367293179147,
                2.1695516121638194
            ]
        },
        {
            "positions": [
                -0.4087544899611333,
                -0.6842102760460966,
                0.3044134845833766,
                -0.26071594489373334,
                0.7526122559342765,
                2.23959526050172
            ]
        },
        {
            "positions": [
                -0.36437244642962996,
                -0.7221762744195026,
                0.4434170466068388,
                -0.30361073053456783,
                0.7014877825506384,
                2.3096389088396214
            ]
        },
        {
            "positions": [
                -0.3199904028981264,
                -0.7601422727929084,
                0.5824206086303014,
                -0.34650551617540254,
                0.650363309167,
                2.3796825571775226
            ]
        },
        {
            "positions": [
                -0.2756083593666231,
                -0.7981082711663143,
                0.7214241706537636,
                -0.38940030181623714,
                0.5992388357833618,
                2.4497262055154234
            ]
        },
        {
            "positions": [
                -0.23122631583511977,
                -0.8360742695397201,
                0.8604277326772258,
                -0.4322950874570716,
                0.5481143623997236,
                2.519769853853324
            ]
        },
        {
            "positions": [
                -0.18684427230361633,
                -0.8740402679131258,
                0.999431294700688,
                -0.4751898730979061,
                0.49698988901608554,
                2.589813502191225
            ]
        },
        {
            "positions": [
                -0.142462228772113,
                -0.9120062662865318,
                1.1384348567241498,
                -0.5180846587387407,
                0.4458654156324473,
                2.659857150529126
            ]
        },
        {
            "positions": [
                -0.09808018524060969,
                -0.9499722646599376,
                1.277438418747612,
                -0.5609794443795753,
                0.39474094224880907,
                2.729900798867027
            ]
        },
        {
            "positions": [
                -0.05369814170910625,
                -0.9879382630333433,
                1.4164419807710742,
                -0.6038742300204096,
                0.34361646886517105,
                2.799944447204928
            ]
        },
        {
            "positions": [
                -0.009316098177602816,
                -1.0259042614067493,
                1.5554455427945368,
                -0.6467690156612445,
                0.2924919954815326,
                2.869988095542829
            ]
        },
        {
            "positions": [
                0.03506594535390062,
                -1.063870259780155,
                1.694449104817999,
                -0.689663801302079,
                0.24136752209789436,
                2.9400317438807297
            ]
        },
        {
            "positions": [
                0.07944798888540383,
                -1.101836258153561,
                1.8334526668414612,
                -0.7325585869429134,
                0.19024304871425635,
                3.0100753922186305
            ]
        },
        {
            "positions": [
                0.12383003241690724,
                -1.1398022565269668,
                1.9724562288649237,
                -0.775453372583748,
                0.1391185753306181,
                3.0801190405565317
            ]
        }
    ]
}