{
    "goal": {
        "global_pose": {
            "orientation": {
                "w": 0.5084816217422485,
                "x": -0.49083608388900757,
                "y": 0.5182115435600281,
                "z": -0.4816462993621826
            },
            "position": {
                "x": 0.5540239810943604,
                "y": 0.030875300988554955,
                "z": 0.16403168439865112
            }
        },
        "name": "move_to_storage_A"
    },
    "id": "RRT_move_to_storage_A_32",
    "joint_names": [
        "shoulder_pan_joint",
        "shoulder_lift_joint",
        "elbow_joint",
        "wrist_1_joint",
        "wrist_2_joint",
        "wrist_3_joint"
    ],
    "metrics": {
        "cart_traj_len": 0.3529244300442951,
        "distance_elbow_joint": 0.45256500451013615,
        "distance_shoulder_lift_joint": 0.2334189921884673,
        "distance_shoulder_pan_joint": 0.4586722321349708,
        "distance_wrist_1_joint": 0.2526997371617353,
        "distance_wrist_2_joint": 1.1107532945712488,
        "distance_wrist_3_joint": 0.08952034720479807,
        "smoothness": 4.440892098500626e-16,
        "time": 0.016418333,
        "traj_len": 1.6117163546267552,
        "weighted_distance": 2.0347293023677464
    },
    "planner": "RRT",
    "start": {
        "state": {
            "elbow_joint": 1.9715463870305268,
            "shoulder_lift_joint": -1.1394903361783484,
            "shoulder_pan_joint": 0.12281147578464417,
            "wrist_1_joint": -0.7804599489681411,
            "wrist_2_joint": 0.12958660307563738,
            "wrist_3_joint": -3.1924946282119055
        }
    },
    "waypoints": [
        {
            "positions": [
                0.12281147578464417,
                -1.1394903361783484,
                1.9715463870305268,
                -0.7804599489681411,
                0.12958660307563738,
                -3.1924946282119055
            ]
        },
        {
            "positions": [
                0.05728687119393405,
                -1.1728359064909866,
                2.036198530531975,
                -0.8165599114198175,
                0.28826564515724434,
                -3.1797060071826486
            ]
        },
        {
            "positions": [
                -0.008237733396776067,
                -1.2061814768036248,
                2.1008506740334227,
                -0.852659873871494,
                0.4469446872388513,
                -3.1669173861533917
            ]
        },
        {
            "positions": [
                -0.07376233798748617,
                -1.239527047116263,
                2.165502817534871,
                -0.8887598363231705,
                0.6056237293204583,
                -3.1541287651241348
            ]
        },
        {
            "positions": [
                -0.1392869425781963,
                -1.2728726174289011,
                2.2301549610363187,
                -0.924859798774847,
                0.7643027714020653,
                -3.1413401440948783
            ]
        },
        {
            "positions": [
                -0.20481154716890643,
                -1.3062181877415393,
                2.294807104537767,
                -0.9609597612265235,
                0.9229818134836723,
                -3.1285515230656213
            ]
        },
        {
            "positions": [
                -0.2703361517596165,
                -1.3395637580541775,
                2.3594592480392147,
                -0.9970597236782,
                1.0816608555652791,
                -3.1157629020363644
            ]
        },
        {
            "positions": [
                -0.33586075635032664,
                -1.3729093283668157,
                2.424111391540663,
                -1.0331596861298764,
                1.2403398976468862,
                -3.1029742810071075
            ]
        }
    ]
}