{
    "goal": {
        "global_pose": {
            "orientation": {
                "w": -0.00223480608172531,
                "x": 0.0024358444001904467,
                "y": 0.7094548369677653,
                "z": -0.704743149386269
            },
            "position": {
                "x": 0.6205249238014221,
                "y": -0.6371506643295288,
                "z": 0.19426114857196808
            }
        },
        "name": "move_to_magneteinheit_B"
    },
    "id": "RRT_move_to_magneteinheit_B_121",
    "joint_names": [
        "shoulder_pan_joint",
        "shoulder_lift_joint",
        "elbow_joint",
        "wrist_1_joint",
        "wrist_2_joint",
        "wrist_3_joint"
    ],
    "metrics": {
        "cart_traj_len": 1.4542362627505867,
        "distance_elbow_joint": 0.7345044894301078,
        "distance_shoulder_lift_joint": 1.2506253786674253,
        "distance_shoulder_pan_joint": 1.6205091694681777,
        "distance_wrist_1_joint": 2.604180631739935,
        "distance_wrist_2_joint": 2.9479251829027353,
        "distance_wrist_3_joint": 3.1274488063156616,
        "smoothness": 3.7680296739872524e-16,
        "time": 0.15903552799999998,
        "traj_len": 3.5050240596212805,
        "weighted_distance": 4.908380291480891
    },
    "planner": "RRT",
    "start": {
        "state": {
            "elbow_joint": 2.39358713078474,
            "shoulder_lift_joint": -1.908514104345545,
            "shoulder_pan_joint": 0.7066247066606129,
            "wrist_1_joint": -0.4678290933515497,
            "wrist_2_joint": 0.7096259083745334,
            "wrist_3_joint": -3.1358149277392293
        }
    },
    "waypoints": [
        {
            "positions": [
                0.7066247066606129,
                -1.908514104345545,
                2.39358713078474,
                -0.4678290933515497,
                0.7096259083745334,
                -3.1358149277392293
            ]
        },
        {
            "positions": [
                0.6559837951147324,
                -1.869432061262188,
                2.370633865490049,
                -0.38644844860967675,
                0.6175032464088229,
                -3.038082152541865
            ]
        },
        {
            "positions": [
                0.6053428835688518,
                -1.8303500181788308,
                2.3476806001953583,
                -0.30506780386780374,
                0.5253805844431125,
                -2.9403493773445004
            ]
        },
        {
            "positions": [
                0.5547019720229713,
                -1.7912679750954739,
                2.3247273349006674,
                -0.2236871591259308,
                0.433257922477402,
                -2.842616602147136
            ]
        },
        {
            "positions": [
                0.5040610604770908,
                -1.7521859320121167,
                2.3017740696059765,
                -0.14230651438405784,
                0.3411352605116915,
                -2.7448838269497715
            ]
        },
        {
            "positions": [
                0.4534201489312102,
                -1.7131038889287598,
                2.2788208043112856,
                -0.06092586964218488,
                0.249012598545981,
                -2.6471510517524073
            ]
        },
        {
            "positions": [
                0.4027792373853296,
                -1.6740218458454026,
                2.2558675390165948,
                0.020454775099688127,
                0.15688993658027062,
                -2.549418276555043
            ]
        },
        {
            "positions": [
                0.3521383258394491,
                -1.6349398027620456,
                2.232914273721904,
                0.10183541984156103,
                0.06476727461456011,
                -2.4516855013576784
            ]
        },
        {
            "positions": [
                0.3014974142935685,
                -1.5958577596786885,
                2.209961008427213,
                0.18321606458343404,
                -0.027355387351150395,
                -2.3539527261603137
            ]
        },
        {
            "positions": [
                0.25085650274768795,
                -1.5567757165953315,
                2.187007743132522,
                0.26459670932530704,
                -0.1194780493168609,
                -2.2562199509629495
            ]
        },
        {
            "positions": [
                0.20021559120180743,
                -1.5176936735119746,
                2.1640544778378312,
                0.34597735406717994,
                -0.2116007112825714,
                -2.1584871757655852
            ]
        },
        {
            "positions": [
                0.14957467965592686,
                -1.4786116304286174,
                2.1411012125431403,
                0.42735799880905295,
                -0.3037233732482819,
                -2.0607544005682206
            ]
        },
        {
            "positions": [
                0.09893376811004628,
                -1.4395295873452605,
                2.1181479472484495,
                0.508738643550926,
                -0.3958460352139922,
                -1.9630216253708563
            ]
        },
        {
            "positions": [
                0.04829285656416571,
                -1.4004475442619033,
                2.0951946819537586,
                0.590119288292799,
                -0.4879686971797027,
                -1.8652888501734919
            ]
        },
        {
            "positions": [
                -0.0023480549817147534,
                -1.3613655011785464,
                2.072241416659068,
                0.6714999330346718,
                -0.5800913591454132,
                -1.7675560749761274
            ]
        },
        {
            "positions": [
                -0.05298896652759533,
                -1.3222834580951894,
                2.049288151364377,
                0.7528805777765448,
                -0.6722140211111237,
                -1.669823299778763
            ]
        },
        {
            "positions": [
                -0.1036298780734759,
                -1.2832014150118323,
                2.0263348860696864,
                0.8342612225184178,
                -0.7643366830768342,
                -1.5720905245813985
            ]
        },
        {
            "positions": [
                -0.15427078961935647,
                -1.244119371928475,
                2.003381620774995,
                0.9156418672602908,
                -0.8564593450425447,
                -1.474357749384034
            ]
        },
        {
            "positions": [
                -0.20491170116523705,
                -1.2050373288451182,
                1.9804283554803044,
                0.9970225120021639,
                -0.9485820070082552,
                -1.3766249741866696
            ]
        },
        {
            "positions": [
                -0.2555526127111175,
                -1.1659552857617612,
                1.9574750901856135,
                1.0784031567440366,
                -1.0407046689739659,
                -1.2788921989893052
            ]
        },
        {
            "positions": [
                -0.3061935242569981,
                -1.126873242678404,
                1.9345218248909226,
                1.1597838014859096,
                -1.1328273309396764,
                -1.1811594237919407
            ]
        },
        {
            "positions": [
                -0.35683443580287866,
                -1.087791199595047,
                1.9115685595962317,
                1.2411644462277827,
                -1.2249499929053864,
                -1.0834266485945765
            ]
        },
        {
            "positions": [
                -0.40747534734875923,
                -1.04870915651169,
                1.888615294301541,
                1.3225450909696557,
                -1.3170726548710974,
                -0.9856938733972118
            ]
        },
        {
            "positions": [
                -0.4581162588946398,
                -1.009627113428333,
                1.8656620290068502,
                1.4039257357115287,
                -1.4091953168368079,
                -0.8879610981998476
            ]
        },
        {
            "positions": [
                -0.5087571704405204,
                -0.970545070344976,
                1.8427087637121593,
                1.4853063804534017,
                -1.501317978802518,
                -0.7902283230024834
            ]
        },
        {
            "positions": [
                -0.559398081986401,
                -0.9314630272616189,
                1.8197554984174684,
                1.5666870251952747,
                -1.5934406407682284,
                -0.6924955478051187
            ]
        },
        {
            "positions": [
                -0.6100389935322815,
                -0.892380984178262,
                1.7968022331227775,
                1.6480676699371477,
                -1.685563302733939,
                -0.5947627726077545
            ]
        },
        {
            "positions": [
                -0.6606799050781619,
                -0.8532989410949048,
                1.7738489678280867,
                1.7294483146790203,
                -1.7776859646996495,
                -0.4970299974103898
            ]
        },
        {
            "positions": [
                -0.7113208166240425,
                -0.8142168980115478,
                1.7508957025333958,
                1.8108289594208933,
                -1.86980862666536,
                -0.39929722221302555
            ]
        },
        {
            "positions": [
                -0.761961728169923,
                -0.7751348549281907,
                1.7279424372387049,
                1.8922096041627663,
                -1.9619312886310705,
                -0.3015644470156609
            ]
        },
        {
            "positions": [
                -0.8126026397158036,
                -0.7360528118448337,
                1.704989171944014,
                1.9735902489046393,
                -2.054053950596781,
                -0.20383167181829664
            ]
        },
        {
            "positions": [
                -0.8632435512616842,
                -0.6969707687614766,
                1.6820359066493231,
                2.0549708936465123,
                -2.1461766125624915,
                -0.10609889662093197
            ]
        },
        {
            "positions": [
                -0.9138844628075647,
                -0.6578887256781197,
                1.6590826413546322,
                2.1363515383883853,
                -2.238299274528202,
                -0.008366121423567767
            ]
        }
    ]
}