{
    "goal": {
        "global_pose": {
            "orientation": {
                "w": 0.5084816217422485,
                "x": -0.49083608388900757,
                "y": 0.5182115435600281,
                "z": -0.4816462993621826
            },
            "position": {
                "x": 0.5540239810943604,
                "y": 0.030875300988554955,
                "z": 0.16403168439865112
            }
        },
        "name": "move_to_storage_A"
    },
    "id": "RRT_move_to_storage_A_11",
    "joint_names": [
        "shoulder_pan_joint",
        "shoulder_lift_joint",
        "elbow_joint",
        "wrist_1_joint",
        "wrist_2_joint",
        "wrist_3_joint"
    ],
    "metrics": {
        "cart_traj_len": 0.3528908265083468,
        "distance_elbow_joint": 0.453318385526575,
        "distance_shoulder_lift_joint": 0.2329819073762165,
        "distance_shoulder_pan_joint": 0.4586481038372522,
        "distance_wrist_1_joint": 0.2596436490734785,
        "distance_wrist_2_joint": 1.1101668446575368,
        "distance_wrist_3_joint": 0.11076862376312668,
        "smoothness": 1.3322676330666221e-15,
        "time": 0.017157552000000003,
        "traj_len": 1.6203479608510591,
        "weighted_distance": 2.053503166662144
    },
    "planner": "RRT",
    "start": {
        "state": {
            "elbow_joint": 1.9715463870305268,
            "shoulder_lift_joint": -1.1394903361783484,
            "shoulder_pan_joint": 0.12281147578464417,
            "wrist_1_joint": -0.7804599489681411,
            "wrist_2_joint": 0.12958660307563738,
            "wrist_3_joint": -3.1924946282119055
        }
    },
    "waypoints": [
        {
            "positions": [
                0.12281147578464417,
                -1.1394903361783484,
                1.9715463870305268,
                -0.7804599489681411,
                0.12958660307563738,
                -3.1924946282119055
            ]
        },
        {
            "positions": [
                0.057290318093608156,
                -1.1727734658035223,
                2.036306156391466,
                -0.8175518988357808,
                0.2881818665981426,
                -3.1766705391028873
            ]
        },
        {
            "positions": [
                -0.00823083959742786,
                -1.206056595428696,
                2.101065925752405,
                -0.8546438487034207,
                0.4467771301206479,
                -3.1608464499938695
            ]
        },
        {
            "positions": [
                -0.07375199728846389,
                -1.2393397250538698,
                2.1658256951133446,
                -0.8917357985710604,
                0.6053723936431531,
                -3.1450223608848513
            ]
        },
        {
            "positions": [
                -0.13927315497949988,
                -1.2726228546790435,
                2.230585464474284,
                -0.9288277484387002,
                0.7639676571656584,
                -3.129198271775833
            ]
        },
        {
            "positions": [
                -0.20479431267053594,
                -1.3059059843042173,
                2.2953452338352234,
                -0.9659196983063401,
                0.9225629206881637,
                -3.113374182666815
            ]
        },
        {
            "positions": [
                -0.27031547036157194,
                -1.339189113929391,
                2.3601050031961623,
                -1.0030116481739797,
                1.0811581842106688,
                -3.097550093557797
            ]
        },
        {
            "positions": [
                -0.335836628052608,
                -1.3724722435545649,
                2.4248647725571018,
                -1.0401035980416196,
                1.2397534477331742,
                -3.081726004448779
            ]
        }
    ]
}