{
    "goal": {
        "global_pose": {
            "orientation": {
                "w": 0.5084816217422485,
                "x": -0.49083608388900757,
                "y": 0.5182115435600281,
                "z": -0.4816462993621826
            },
            "position": {
                "x": 0.5540239810943604,
                "y": 0.030875300988554955,
                "z": 0.16403168439865112
            }
        },
        "name": "move_to_storage_A"
    },
    "id": "RRT_move_to_storage_A_90",
    "joint_names": [
        "shoulder_pan_joint",
        "shoulder_lift_joint",
        "elbow_joint",
        "wrist_1_joint",
        "wrist_2_joint",
        "wrist_3_joint"
    ],
    "metrics": {
        "cart_traj_len": 0.35277010331829406,
        "distance_elbow_joint": 0.44912415108510606,
        "distance_shoulder_lift_joint": 0.23388021414431348,
        "distance_shoulder_pan_joint": 0.460048056747374,
        "distance_wrist_1_joint": 0.24102283772466937,
        "distance_wrist_2_joint": 1.1032011238784805,
        "distance_wrist_3_joint": 0.09987350627984348,
        "smoothness": 2.2204460668324854e-16,
        "time": 0.022909897,
        "traj_len": 1.608461964069958,
        "weighted_distance": 2.0325158951463633
    },
    "planner": "RRT",
    "start": {
        "state": {
            "elbow_joint": 1.9715463870305268,
            "shoulder_lift_joint": -1.1394903361783484,
            "shoulder_pan_joint": 0.12281147578464417,
            "wrist_1_joint": -0.7804599489681411,
            "wrist_2_joint": 0.12958660307563738,
            "wrist_3_joint": -3.1924946282119055
        }
    },
    "waypoints": [
        {
            "positions": [
                0.12281147578464417,
                -1.1394903361783484,
                1.9715463870305268,
                -0.7804599489681411,
                0.12958660307563738,
                -3.1924946282119055
            ]
        },
        {
            "positions": [
                0.057090324820733604,
                -1.1729017953418217,
                2.0357069800426846,
                -0.8148917829288082,
                0.287186763629706,
                -3.178226984457642
            ]
        },
        {
            "positions": [
                -0.008630826143176965,
                -1.206313254505295,
                2.099867573054843,
                -0.8493236168894752,
                0.44478692418377463,
                -3.163959340703379
            ]
        },
        {
            "positions": [
                -0.07435197710708753,
                -1.2397247136687684,
                2.1640281660670007,
                -0.8837554508501422,
                0.6023870847378433,
                -3.1496916969491155
            ]
        },
        {
            "positions": [
                -0.1400731280709981,
                -1.273136172832242,
                2.228188759079159,
                -0.9181872848108092,
                0.759987245291912,
                -3.135424053194852
            ]
        },
        {
            "positions": [
                -0.20579427903490866,
                -1.3065476319957152,
                2.2923493520913167,
                -0.9526191187714763,
                0.9175874058459806,
                -3.1211564094405886
            ]
        },
        {
            "positions": [
                -0.2715154299988192,
                -1.3399590911591885,
                2.3565099451034746,
                -0.9870509527321434,
                1.0751875664000492,
                -3.1068887656863255
            ]
        },
        {
            "positions": [
                -0.3372365809627298,
                -1.3733705503226619,
                2.420670538115633,
                -1.0214827866928105,
                1.2327877269541179,
                -3.092621121932062
            ]
        }
    ]
}