{
    "goal": {
        "global_pose": {
            "orientation": {
                "w": 0.7047431468963623,
                "x": -0.7094548344612122,
                "y": 0.0024358443915843964,
                "z": -0.0022348060738295317
            },
            "position": {
                "x": 0.6094750761985779,
                "y": 0.3671506643295288,
                "z": 0.19426114857196808
            }
        },
        "name": "move_to_magneteinheit_A"
    },
    "id": "RRT_move_to_magneteinheit_A_115",
    "joint_names": [
        "shoulder_pan_joint",
        "shoulder_lift_joint",
        "elbow_joint",
        "wrist_1_joint",
        "wrist_2_joint",
        "wrist_3_joint"
    ],
    "metrics": {
        "cart_traj_len": 1.8700960765114152,
        "distance_elbow_joint": 3.9286039409747193,
        "distance_shoulder_lift_joint": 0.7075725106814855,
        "distance_shoulder_pan_joint": 1.2408213012531277,
        "distance_wrist_1_joint": 1.5631960082132121,
        "distance_wrist_2_joint": 1.6898304000981388,
        "distance_wrist_3_joint": 1.1939876874229374,
        "smoothness": 9.51619733981068e-17,
        "time": 0.093783947,
        "traj_len": 3.21310003713604,
        "weighted_distance": 3.995624310642937
    },
    "planner": "RRT",
    "start": {
        "state": {
            "elbow_joint": -1.919643507792019,
            "shoulder_lift_joint": -0.07675430207160344,
            "shoulder_pan_joint": -1.1188671864651873,
            "wrist_1_joint": 0.42560062535961957,
            "wrist_2_joint": 1.5706038300724876,
            "wrist_3_joint": 1.1188968870953055
        }
    },
    "waypoints": [
        {
            "positions": [
                -1.1188671864651873,
                -0.07675430207160344,
                -1.919643507792019,
                0.42560062535961957,
                1.5706038300724876,
                1.1188968870953055
            ]
        },
        {
            "positions": [
                -1.0729108419743307,
                -0.1029606913561029,
                -1.7741396581262887,
                0.48349677381196077,
                1.5080175189577418,
                1.074675120894456
            ]
        },
        {
            "positions": [
                -1.0269544974834741,
                -0.12916708064060237,
                -1.6286358084605583,
                0.5413929222643019,
                1.4454312078429958,
                1.0304533546936065
            ]
        },
        {
            "positions": [
                -0.9809981529926176,
                -0.15537346992510184,
                -1.4831319587948282,
                0.5992890707166432,
                1.38284489672825,
                0.9862315884927569
            ]
        },
        {
            "positions": [
                -0.935041808501761,
                -0.1815798592096013,
                -1.3376281091290978,
                0.6571852191689843,
                1.320258585613504,
                0.9420098222919074
            ]
        },
        {
            "positions": [
                -0.8890854640109045,
                -0.20778624849410077,
                -1.1921242594633674,
                0.7150813676213255,
                1.2576722744987583,
                0.8977880560910579
            ]
        },
        {
            "positions": [
                -0.8431291195200479,
                -0.23399263777860024,
                -1.046620409797637,
                0.7729775160736667,
                1.1950859633840123,
                0.8535662898902083
            ]
        },
        {
            "positions": [
                -0.7971727750291913,
                -0.2601990270630997,
                -0.9011165601319067,
                0.8308736645260079,
                1.1324996522692665,
                0.8093445236893588
            ]
        },
        {
            "positions": [
                -0.7512164305383346,
                -0.2864054163475992,
                -0.7556127104661763,
                0.888769812978349,
                1.0699133411545207,
                0.7651227574885093
            ]
        },
        {
            "positions": [
                -0.7052600860474781,
                -0.31261180563209867,
                -0.6101088608004461,
                0.9466659614306903,
                1.0073270300397748,
                0.7209009912876598
            ]
        },
        {
            "positions": [
                -0.6593037415566215,
                -0.3388181949165981,
                -0.46460501113471575,
                1.0045621098830315,
                0.9447407189250289,
                0.6766792250868103
            ]
        },
        {
            "positions": [
                -0.613347397065765,
                -0.36502458420109757,
                -0.3191011614689854,
                1.0624582583353726,
                0.882154407810283,
                0.6324574588859607
            ]
        },
        {
            "positions": [
                -0.5673910525749084,
                -0.39123097348559704,
                -0.173597311803255,
                1.1203544067877138,
                0.8195680966955371,
                0.5882356926851112
            ]
        },
        {
            "positions": [
                -0.5214347080840518,
                -0.4174373627700965,
                -0.028093462137524616,
                1.178250555240055,
                0.7569817855807912,
                0.5440139264842616
            ]
        },
        {
            "positions": [
                -0.4754783635931952,
                -0.443643752054596,
                0.11741038752820576,
                1.236146703692396,
                0.6943954744660453,
                0.4997921602834121
            ]
        },
        {
            "positions": [
                -0.42952201910233856,
                -0.4698501413390955,
                0.26291423719393614,
                1.2940428521447374,
                0.6318091633512993,
                0.4555703940825625
            ]
        },
        {
            "positions": [
                -0.38356567461148205,
                -0.4960565306235949,
                0.4084180868596665,
                1.3519390005970786,
                0.5692228522365537,
                0.4113486278817131
            ]
        },
        {
            "positions": [
                -0.33760933012062544,
                -0.5222629199080944,
                0.5539219365253969,
                1.4098351490494199,
                0.5066365411218077,
                0.3671268616808635
            ]
        },
        {
            "positions": [
                -0.29165298562976893,
                -0.5484693091925938,
                0.6994257861911268,
                1.467731297501761,
                0.4440502300070619,
                0.322905095480014
            ]
        },
        {
            "positions": [
                -0.2456966411389122,
                -0.5746756984770933,
                0.8449296358568577,
                1.5256274459541022,
                0.3814639188923159,
                0.2786833292791644
            ]
        },
        {
            "positions": [
                -0.1997402966480557,
                -0.6008820877615928,
                0.9904334855225876,
                1.5835235944064434,
                0.3188776077775701,
                0.234461563078315
            ]
        },
        {
            "positions": [
                -0.1537839521571991,
                -0.6270884770460923,
                1.1359373351883184,
                1.6414197428587847,
                0.25629129666282413,
                0.1902397968774654
            ]
        },
        {
            "positions": [
                -0.1078276076663427,
                -0.6532948663305918,
                1.2814411848540483,
                1.6993158913111257,
                0.19370498554807836,
                0.1460180306766159
            ]
        },
        {
            "positions": [
                -0.06187126317548586,
                -0.6795012556150912,
                1.4269450345197787,
                1.757212039763467,
                0.13111867443333236,
                0.1017962644757664
            ]
        },
        {
            "positions": [
                -0.015914918684629464,
                -0.7057076448995907,
                1.572448884185509,
                1.8151081882158082,
                0.06853236331858659,
                0.057574498274916897
            ]
        },
        {
            "positions": [
                0.03004142580622715,
                -0.7319140341840902,
                1.7179527338512395,
                1.8730043366681495,
                0.0059460522038405905,
                0.013352732074067175
            ]
        },
        {
            "positions": [
                0.07599777029708377,
                -0.7581204234685897,
                1.8634565835169699,
                1.9309004851204905,
                -0.056640258910905183,
                -0.030869034126782324
            ]
        },
        {
            "positions": [
                0.12195411478794028,
                -0.784326812753089,
                2.0089604331827005,
                1.9887966335728318,
                -0.11922657002565125,
                -0.07509080032763173
            ]
        }
    ]
}