{
    "goal": {
        "global_pose": {
            "orientation": {
                "w": 0.5084816217422485,
                "x": -0.49083608388900757,
                "y": 0.5182115435600281,
                "z": -0.4816462993621826
            },
            "position": {
                "x": 0.5540239810943604,
                "y": 0.030875300988554955,
                "z": 0.16403168439865112
            }
        },
        "name": "move_to_storage_A"
    },
    "id": "RRT_move_to_storage_A_19",
    "joint_names": [
        "shoulder_pan_joint",
        "shoulder_lift_joint",
        "elbow_joint",
        "wrist_1_joint",
        "wrist_2_joint",
        "wrist_3_joint"
    ],
    "metrics": {
        "cart_traj_len": 0.352845785218578,
        "distance_elbow_joint": 0.44958699317032025,
        "distance_shoulder_lift_joint": 0.2351249083437552,
        "distance_shoulder_pan_joint": 0.4603981347747432,
        "distance_wrist_1_joint": 0.2435101740679989,
        "distance_wrist_2_joint": 1.1026744794503105,
        "distance_wrist_3_joint": 0.10571171222513476,
        "smoothness": 4.440892098500626e-16,
        "time": 0.016236444,
        "traj_len": 1.6115230069819864,
        "weighted_distance": 2.038287143657841
    },
    "planner": "RRT",
    "start": {
        "state": {
            "elbow_joint": 1.9715463870305268,
            "shoulder_lift_joint": -1.1394903361783484,
            "shoulder_pan_joint": 0.12281147578464417,
            "wrist_1_joint": -0.7804599489681411,
            "wrist_2_joint": 0.12958660307563738,
            "wrist_3_joint": -3.1924946282119055
        }
    },
    "waypoints": [
        {
            "positions": [
                0.12281147578464417,
                -1.1394903361783484,
                1.9715463870305268,
                -0.7804599489681411,
                0.12958660307563738,
                -3.1924946282119055
            ]
        },
        {
            "positions": [
                0.057040313673966586,
                -1.1730796087988848,
                2.0357731003405726,
                -0.8152471166921409,
                0.287111528711396,
                -3.1773929550368862
            ]
        },
        {
            "positions": [
                -0.008730848436711,
                -1.2066688814194213,
                2.0999998136506184,
                -0.8500342844161408,
                0.4446364543471546,
                -3.162291281861867
            ]
        },
        {
            "positions": [
                -0.0745020105473886,
                -1.2402581540399578,
                2.164226526960664,
                -0.8848214521401406,
                0.6021613799829133,
                -3.1471896086868476
            ]
        },
        {
            "positions": [
                -0.14027317265806616,
                -1.2738474266604942,
                2.2284532402707096,
                -0.9196086198641404,
                0.7596863056186719,
                -3.1320879355118287
            ]
        },
        {
            "positions": [
                -0.2060443347687438,
                -1.3074366992810307,
                2.2926799535807554,
                -0.9543957875881404,
                0.9172112312544306,
                -3.1169862623368094
            ]
        },
        {
            "positions": [
                -0.27181549687942136,
                -1.3410259719015671,
                2.356906666890801,
                -0.9891829553121401,
                1.0747361568901892,
                -3.10188458916179
            ]
        },
        {
            "positions": [
                -0.337586658990099,
                -1.3746152445221036,
                2.421133380200847,
                -1.02397012303614,
                1.232261082525948,
                -3.086782915986771
            ]
        }
    ]
}