{
    "goal": {
        "global_pose": {
            "orientation": {
                "w": 0.7031023502349854,
                "x": -0.7110244035720825,
                "y": 0.007748599164187908,
                "z": 0.005598929710686207
            },
            "position": {
                "x": 0.11585023208521307,
                "y": 0.44412534475326537,
                "z": 0.3711530566215515
            }
        },
        "name": "move_to_auspresseinheit_A"
    },
    "id": "RRT_move_to_auspresseinheit_A_127",
    "joint_names": [
        "shoulder_pan_joint",
        "shoulder_lift_joint",
        "elbow_joint",
        "wrist_1_joint",
        "wrist_2_joint",
        "wrist_3_joint"
    ],
    "metrics": {
        "cart_traj_len": 0.6702604485054244,
        "distance_elbow_joint": 0.056422535204380786,
        "distance_shoulder_lift_joint": 0.5333938989805656,
        "distance_shoulder_pan_joint": 1.0455902728246278,
        "distance_wrist_1_joint": 0.5672250632903009,
        "distance_wrist_2_joint": 1.490514844693382,
        "distance_wrist_3_joint": 0.12402021296414922,
        "smoothness": 1.084329248290557,
        "time": 0.170844163,
        "traj_len": 1.9537571056703558,
        "weighted_distance": 2.474458963464415
    },
    "planner": "RRT",
    "start": {
        "state": {
            "elbow_joint": 2.422574709923281,
            "shoulder_lift_joint": -1.3736533754116391,
            "shoulder_pan_joint": -0.33786336945926293,
            "wrist_1_joint": -1.0288603412921917,
            "wrist_2_joint": 1.2330224858903978,
            "wrist_3_joint": -3.094022268022082
        }
    },
    "waypoints": [
        {
            "positions": [
                -0.33786336945926293,
                -1.3736533754116391,
                2.422574709923281,
                -1.0288603412921917,
                1.2330224858903978,
                -3.094022268022082
            ]
        },
        {
            "positions": [
                -0.27262129737040985,
                -1.4437902052256273,
                2.424417954942584,
                -0.9725664986003266,
                1.0891222435296797,
                -3.1067832915231963
            ]
        },
        {
            "positions": [
                -0.20737922528155675,
                -1.5139270350396152,
                2.426261199961887,
                -0.9162726559084615,
                0.9452220011689616,
                -3.1195443150243105
            ]
        },
        {
            "positions": [
                -0.14213715319270365,
                -1.5840638648536034,
                2.42810444498119,
                -0.8599788132165963,
                0.8013217588082436,
                -3.1323053385254247
            ]
        },
        {
            "positions": [
                -0.07689508110385057,
                -1.6542006946675916,
                2.4299476900004926,
                -0.8036849705247312,
                0.6574215164475256,
                -3.145066362026539
            ]
        },
        {
            "positions": [
                -0.01165300901499744,
                -1.7243375244815797,
                2.4317909350197957,
                -0.747391127832866,
                0.5135212740868075,
                -3.157827385527653
            ]
        },
        {
            "positions": [
                0.053589063073855636,
                -1.7944743542955677,
                2.4336341800390984,
                -0.6910972851410009,
                0.3696210317260895,
                -3.1705884090287673
            ]
        },
        {
            "positions": [
                0.11883113516270877,
                -1.8646111841095558,
                2.4354774250584015,
                -0.6348034424491358,
                0.22572078936537143,
                -3.1833494325298815
            ]
        },
        {
            "positions": [
                0.26605507721337274,
                -1.875220206680218,
                2.4245974700410864,
                -0.5915114013373246,
                0.3465240764074603,
                -3.174676170415794
            ]
        },
        {
            "positions": [
                0.4132790192640367,
                -1.8858292292508803,
                2.4137175150237713,
                -0.5482193602255133,
                0.4673273634495492,
                -3.1660029083017065
            ]
        },
        {
            "positions": [
                0.5605029613147007,
                -1.8964382518215426,
                2.402837560006456,
                -0.5049273191137021,
                0.5881306504916382,
                -3.157329646187619
            ]
        },
        {
            "positions": [
                0.7077269033653647,
                -1.9070472743922047,
                2.391957604989141,
                -0.4616352780018909,
                0.708933937533727,
                -3.1486563840735315
            ]
        }
    ]
}