{
    "goal": {
        "global_pose": {
            "orientation": {
                "w": -0.00223480608172531,
                "x": 0.0024358444001904467,
                "y": 0.7094548369677653,
                "z": -0.704743149386269
            },
            "position": {
                "x": 0.6205249238014221,
                "y": -0.6371506643295288,
                "z": 0.19426114857196808
            }
        },
        "name": "move_to_magneteinheit_B"
    },
    "id": "RRT_move_to_magneteinheit_B_143",
    "joint_names": [
        "shoulder_pan_joint",
        "shoulder_lift_joint",
        "elbow_joint",
        "wrist_1_joint",
        "wrist_2_joint",
        "wrist_3_joint"
    ],
    "metrics": {
        "cart_traj_len": 1.4532098094257904,
        "distance_elbow_joint": 0.7313751031464875,
        "distance_shoulder_lift_joint": 1.249902311534348,
        "distance_shoulder_pan_joint": 1.6219426207967196,
        "distance_wrist_1_joint": 2.601654899949826,
        "distance_wrist_2_joint": 2.935029479629163,
        "distance_wrist_3_joint": 3.1403191493330675,
        "smoothness": 4.440892118007475e-16,
        "time": 1.9956764999999999,
        "traj_len": 3.504314992176019,
        "weighted_distance": 4.9089251616453415
    },
    "planner": "RRT",
    "start": {
        "state": {
            "elbow_joint": 2.39358713078474,
            "shoulder_lift_joint": -1.908514104345545,
            "shoulder_pan_joint": 0.7066247066606129,
            "wrist_1_joint": -0.4678290933515497,
            "wrist_2_joint": 0.7096259083745334,
            "wrist_3_joint": -3.1358149277392293
        }
    },
    "waypoints": [
        {
            "positions": [
                0.7066247066606129,
                -1.908514104345545,
                2.39358713078474,
                -0.4678290933515497,
                0.7096259083745334,
                -3.1358149277392293
            ]
        },
        {
            "positions": [
                0.654303976957493,
                -1.868194674941211,
                2.36999438552195,
                -0.383904741740265,
                0.6149475380639152,
                -3.0345143100188077
            ]
        },
        {
            "positions": [
                0.601983247254373,
                -1.8278752455368772,
                2.34640164025916,
                -0.29998039012898026,
                0.5202691677532971,
                -2.933213692298386
            ]
        },
        {
            "positions": [
                0.549662517551253,
                -1.7875558161325436,
                2.32280889499637,
                -0.21605603851769556,
                0.4255907974426789,
                -2.831913074577965
            ]
        },
        {
            "positions": [
                0.497341787848133,
                -1.7472363867282097,
                2.2992161497335806,
                -0.13213168690641086,
                0.33091242713206076,
                -2.730612456857543
            ]
        },
        {
            "positions": [
                0.445021058145013,
                -1.7069169573238758,
                2.2756234044707906,
                -0.048207335295126164,
                0.2362340568214426,
                -2.6293118391371215
            ]
        },
        {
            "positions": [
                0.392700328441893,
                -1.6665975279195422,
                2.2520306592080006,
                0.03571701631615859,
                0.1415556865108244,
                -2.5280112214167003
            ]
        },
        {
            "positions": [
                0.34037959873877305,
                -1.6262780985152083,
                2.2284379139452106,
                0.11964136792744323,
                0.0468773162002063,
                -2.4267106036962787
            ]
        },
        {
            "positions": [
                0.2880588690356531,
                -1.5859586691108745,
                2.2048451686824206,
                0.20356571953872798,
                -0.04780105411041191,
                -2.325409985975857
            ]
        },
        {
            "positions": [
                0.23573813933253301,
                -1.5456392397065406,
                2.1812524234196307,
                0.28749007115001274,
                -0.14247942442103012,
                -2.2241093682554354
            ]
        },
        {
            "positions": [
                0.1834174096294131,
                -1.505319810302207,
                2.1576596781568407,
                0.3714144227612974,
                -0.23715779473164822,
                -2.1228087505350137
            ]
        },
        {
            "positions": [
                0.13109667992629304,
                -1.465000380897873,
                2.134066932894051,
                0.45533877437258224,
                -0.33183616504226643,
                -2.021508132814592
            ]
        },
        {
            "positions": [
                0.07877595022317307,
                -1.4246809514935392,
                2.110474187631261,
                0.5392631259838669,
                -0.42651453535288464,
                -1.9202075150941709
            ]
        },
        {
            "positions": [
                0.026455220520053113,
                -1.3843615220892054,
                2.086881442368471,
                0.6231874775951516,
                -0.5211929056635028,
                -1.8189068973737492
            ]
        },
        {
            "positions": [
                -0.025865509183066848,
                -1.3440420926848717,
                2.063288697105681,
                0.7071118292064362,
                -0.6158712759741208,
                -1.7176062796533278
            ]
        },
        {
            "positions": [
                -0.07818623888618692,
                -1.3037226632805379,
                2.039695951842891,
                0.7910361808177211,
                -0.710549646284739,
                -1.6163056619329064
            ]
        },
        {
            "positions": [
                -0.13050696858930677,
                -1.263403233876204,
                2.0161032065801012,
                0.8749605324290057,
                -0.8052280165953573,
                -1.5150050442124847
            ]
        },
        {
            "positions": [
                -0.18282769829242673,
                -1.2230838044718704,
                1.9925104613173115,
                0.9588848840402904,
                -0.8999063869059752,
                -1.4137044264920633
            ]
        },
        {
            "positions": [
                -0.23514842799554692,
                -1.1827643750675363,
                1.9689177160545215,
                1.0428092356515752,
                -0.9945847572165937,
                -1.3124038087716416
            ]
        },
        {
            "positions": [
                -0.28746915769866677,
                -1.1424449456632026,
                1.9453249707917317,
                1.1267335872628599,
                -1.0892631275272118,
                -1.2111031910512202
            ]
        },
        {
            "positions": [
                -0.3397898874017867,
                -1.102125516258869,
                1.9217322255289417,
                1.2106579388741445,
                -1.18394149783783,
                -1.1098025733307986
            ]
        },
        {
            "positions": [
                -0.3921106171049068,
                -1.061806086854535,
                1.8981394802661518,
                1.2945822904854292,
                -1.2786198681484477,
                -1.0085019556103774
            ]
        },
        {
            "positions": [
                -0.4444313468080269,
                -1.0214866574502013,
                1.8745467350033618,
                1.3785066420967143,
                -1.3732982384590664,
                -0.9072013378899553
            ]
        },
        {
            "positions": [
                -0.4967520765111467,
                -0.9811672280458674,
                1.8509539897405718,
                1.462430993707999,
                -1.4679766087696846,
                -0.8059007201695341
            ]
        },
        {
            "positions": [
                -0.5490728062142668,
                -0.9408477986415337,
                1.827361244477782,
                1.5463553453192835,
                -1.5626549790803028,
                -0.7046001024491124
            ]
        },
        {
            "positions": [
                -0.6013935359173866,
                -0.9005283692371999,
                1.8037684992149923,
                1.6302796969305682,
                -1.6573333493909206,
                -0.6032994847286912
            ]
        },
        {
            "positions": [
                -0.6537142656205067,
                -0.8602089398328661,
                1.7801757539522023,
                1.7142040485418528,
                -1.7520117197015392,
                -0.5019988670082691
            ]
        },
        {
            "positions": [
                -0.7060349953236268,
                -0.8198895104285322,
                1.7565830086894123,
                1.7981284001531375,
                -1.846690090012157,
                -0.4006982492878479
            ]
        },
        {
            "positions": [
                -0.7583557250267466,
                -0.7795700810241983,
                1.7329902634266223,
                1.882052751764422,
                -1.9413684603227752,
                -0.29939763156742627
            ]
        },
        {
            "positions": [
                -0.8106764547298665,
                -0.7392506516198647,
                1.7093975181638323,
                1.9659771033757067,
                -2.0360468306333934,
                -0.19809701384700507
            ]
        },
        {
            "positions": [
                -0.8629971844329868,
                -0.6989312222155308,
                1.6858047729010424,
                2.049901454986992,
                -2.1307252009440116,
                -0.09679639612658342
            ]
        },
        {
            "positions": [
                -0.9153179141361066,
                -0.658611792811197,
                1.6622120276382526,
                2.1338258065982765,
                -2.22540357125463,
                0.004504221593838219
            ]
        }
    ]
}