{
    "goal": {
        "global_pose": {
            "orientation": {
                "w": 0.5084816217422485,
                "x": -0.49083608388900757,
                "y": 0.5182115435600281,
                "z": -0.4816462993621826
            },
            "position": {
                "x": 0.5540239810943604,
                "y": 0.030875300988554955,
                "z": 0.16403168439865112
            }
        },
        "name": "move_to_storage_A"
    },
    "id": "RRT_move_to_storage_A_68",
    "joint_names": [
        "shoulder_pan_joint",
        "shoulder_lift_joint",
        "elbow_joint",
        "wrist_1_joint",
        "wrist_2_joint",
        "wrist_3_joint"
    ],
    "metrics": {
        "cart_traj_len": 0.3526578414319972,
        "distance_elbow_joint": 0.45195958963635263,
        "distance_shoulder_lift_joint": 0.23470802608961838,
        "distance_shoulder_pan_joint": 0.45747260850462657,
        "distance_wrist_1_joint": 0.25650121643071244,
        "distance_wrist_2_joint": 1.113685163848625,
        "distance_wrist_3_joint": 0.0931209796200716,
        "smoothness": 2.6645352591003757e-15,
        "time": 0.012144826999999999,
        "traj_len": 1.6147592960345534,
        "weighted_distance": 2.0405577481780535
    },
    "planner": "RRT",
    "start": {
        "state": {
            "elbow_joint": 1.9715463870305268,
            "shoulder_lift_joint": -1.1394903361783484,
            "shoulder_pan_joint": 0.12281147578464417,
            "wrist_1_joint": -0.7804599489681411,
            "wrist_2_joint": 0.12958660307563738,
            "wrist_3_joint": -3.1924946282119055
        }
    },
    "waypoints": [
        {
            "positions": [
                0.12281147578464417,
                -1.1394903361783484,
                1.9715463870305268,
                -0.7804599489681411,
                0.12958660307563738,
                -3.1924946282119055
            ]
        },
        {
            "positions": [
                0.05745824599826896,
                -1.173020054191151,
                2.0361120426928627,
                -0.8171029798868142,
                0.28868448362544097,
                -3.1791916311233237
            ]
        },
        {
            "positions": [
                -0.007894983788106255,
                -1.2065497722039535,
                2.100677698355199,
                -0.8537460108054875,
                0.44778236417524453,
                -3.1658886340347423
            ]
        },
        {
            "positions": [
                -0.07324821357448148,
                -1.2400794902167562,
                2.165243354017535,
                -0.8903890417241607,
                0.6068802447250481,
                -3.1525856369461605
            ]
        },
        {
            "positions": [
                -0.13860144336085667,
                -1.273609208229559,
                2.229809009679871,
                -0.9270320726428339,
                0.7659781252748517,
                -3.139282639857579
            ]
        },
        {
            "positions": [
                -0.20395467314723192,
                -1.3071389262423616,
                2.2943746653422075,
                -0.9636751035615071,
                0.9250760058246552,
                -3.125979642768997
            ]
        },
        {
            "positions": [
                -0.2693079029336071,
                -1.340668644255164,
                2.3589403210045434,
                -1.0003181344801804,
                1.0841738863744588,
                -3.112676645680416
            ]
        },
        {
            "positions": [
                -0.3346611327199824,
                -1.3741983622679668,
                2.4235059766668794,
                -1.0369611653988535,
                1.2432717669242623,
                -3.099373648591834
            ]
        }
    ]
}