{
    "goal": {
        "global_pose": {
            "orientation": {
                "w": -0.00223480608172531,
                "x": 0.0024358444001904467,
                "y": 0.7094548369677653,
                "z": -0.704743149386269
            },
            "position": {
                "x": 0.6205249238014221,
                "y": -0.6371506643295288,
                "z": 0.19426114857196808
            }
        },
        "name": "move_to_magneteinheit_B"
    },
    "id": "RRT_move_to_magneteinheit_B_148",
    "joint_names": [
        "shoulder_pan_joint",
        "shoulder_lift_joint",
        "elbow_joint",
        "wrist_1_joint",
        "wrist_2_joint",
        "wrist_3_joint"
    ],
    "metrics": {
        "cart_traj_len": 3.6670989530942504,
        "distance_elbow_joint": 4.1496189011200535,
        "distance_shoulder_lift_joint": 0.4060478379253394,
        "distance_shoulder_pan_joint": 2.669546256961432,
        "distance_wrist_1_joint": 4.2543191428261515,
        "distance_wrist_2_joint": 1.241688847045061,
        "distance_wrist_3_joint": 6.28695679357833,
        "smoothness": 0.09830783426102531,
        "time": 0.774543509,
        "traj_len": 4.3598368982630955,
        "weighted_distance": 6.089178873746791
    },
    "planner": "RRT",
    "start": {
        "state": {
            "elbow_joint": 2.39358713078474,
            "shoulder_lift_joint": -1.908514104345545,
            "shoulder_pan_joint": 0.7066247066606129,
            "wrist_1_joint": -0.4678290933515497,
            "wrist_2_joint": 0.7096259083745334,
            "wrist_3_joint": -3.1358149277392293
        }
    },
    "waypoints": [
        {
            "positions": [
                0.7066247066606129,
                -1.908514104345545,
                2.39358713078474,
                -0.4678290933515497,
                0.7096259083745334,
                -3.1358149277392293
            ]
        },
        {
            "positions": [
                0.6047062359561197,
                -1.9244221563530495,
                2.3418505265250102,
                -0.32810851041602757,
                0.7287178707387675,
                -3.147374900845472
            ]
        },
        {
            "positions": [
                0.5289183155924058,
                -1.9302980723519947,
                2.2385471976670823,
                -0.18474444560154912,
                0.7351081812876783,
                -3.0943838244944484
            ]
        },
        {
            "positions": [
                0.5361746470336746,
                -1.9230113077108189,
                2.098828169385196,
                -0.08913809968521602,
                0.7214810665720569,
                -2.978583684647824
            ]
        },
        {
            "positions": [
                0.5434309784749434,
                -1.915724543069643,
                1.9591091411033092,
                0.006468246231117081,
                0.7078539518564355,
                -2.8627835448012
            ]
        },
        {
            "positions": [
                0.5506873099162122,
                -1.9084377784284674,
                1.8193901128214227,
                0.10207459214745018,
                0.6942268371408141,
                -2.746983404954576
            ]
        },
        {
            "positions": [
                0.557943641357481,
                -1.9011510137872916,
                1.6796710845395362,
                0.19768093806378328,
                0.6805997224251927,
                -2.6311832651079516
            ]
        },
        {
            "positions": [
                0.5651999727987499,
                -1.8938642491461157,
                1.5399520562576496,
                0.2932872839801164,
                0.6669726077095712,
                -2.5153831252613275
            ]
        },
        {
            "positions": [
                0.5724563042400187,
                -1.88657748450494,
                1.4002330279757633,
                0.3888936298964495,
                0.6533454929939498,
                -2.3995829854147037
            ]
        },
        {
            "positions": [
                0.5797126356812875,
                -1.8792907198637643,
                1.2605139996938766,
                0.4844999758127826,
                0.6397183782783284,
                -2.2837828455680795
            ]
        },
        {
            "positions": [
                0.5869689671225563,
                -1.8720039552225884,
                1.1207949714119902,
                0.5801063217291157,
                0.6260912635627071,
                -2.1679827057214553
            ]
        },
        {
            "positions": [
                0.5942252985638251,
                -1.8647171905814126,
                0.9810759431301037,
                0.6757126676454488,
                0.6124641488470857,
                -2.052182565874831
            ]
        },
        {
            "positions": [
                0.687881586525452,
                -1.8685139118671439,
                0.8679662294468172,
                0.6631196573011234,
                0.5900837771444039,
                -1.9063424701908107
            ]
        },
        {
            "positions": [
                0.7815378744870788,
                -1.8723106331528752,
                0.7548565157635306,
                0.6505266469567982,
                0.567703405441722,
                -1.7605023745067903
            ]
        },
        {
            "positions": [
                0.8751941624487056,
                -1.8761073544386067,
                0.6417468020802441,
                0.6379336366124728,
                0.5453230337390402,
                -1.6146622788227698
            ]
        },
        {
            "positions": [
                0.9688504504103325,
                -1.879904075724338,
                0.5286370883969576,
                0.6253406262681475,
                0.5229426620363584,
                -1.4688221831387493
            ]
        },
        {
            "positions": [
                1.0625067383719593,
                -1.8837007970100692,
                0.41552737471367107,
                0.6127476159238222,
                0.5005622903336766,
                -1.3229820874547287
            ]
        },
        {
            "positions": [
                1.1561630263335863,
                -1.8874975182958005,
                0.3024176610303846,
                0.6001546055794968,
                0.47818191863099474,
                -1.1771419917707082
            ]
        },
        {
            "positions": [
                1.249819314295213,
                -1.891294239581532,
                0.189307947347098,
                0.5875615952351715,
                0.4558015469283129,
                -1.0313018960866875
            ]
        },
        {
            "positions": [
                1.3434756022568397,
                -1.8950909608672633,
                0.07619823366381151,
                0.5749685848908462,
                0.43342117522563106,
                -0.8854618004026673
            ]
        },
        {
            "positions": [
                1.4371318902184669,
                -1.8988876821529945,
                -0.036911480019474974,
                0.5623755745465209,
                0.41104080352294925,
                -0.7396217047186466
            ]
        },
        {
            "positions": [
                1.5307881781800936,
                -1.9026844034387258,
                -0.15002119370276157,
                0.5497825642021956,
                0.38866043182026744,
                -0.5937816090346262
            ]
        },
        {
            "positions": [
                1.6244444661417203,
                -1.906481124724457,
                -0.26313090738604816,
                0.5371895538578703,
                0.3662800601175856,
                -0.4479415133506057
            ]
        },
        {
            "positions": [
                1.718100754103347,
                -1.9102778460101886,
                -0.37624062106933454,
                0.5245965435135449,
                0.3438996884149038,
                -0.30210141766658527
            ]
        },
        {
            "positions": [
                1.8117570420649738,
                -1.9140745672959198,
                -0.48935033475262113,
                0.5120035331692196,
                0.321519316712222,
                -0.15626132198256482
            ]
        },
        {
            "positions": [
                1.905413330026601,
                -1.9178712885816511,
                -0.6024600484359077,
                0.4994105228248943,
                0.29913894500954014,
                -0.010421226298543917
            ]
        },
        {
            "positions": [
                1.9990696179882277,
                -1.9216680098673824,
                -0.7155697621191943,
                0.4868175124805689,
                0.2767585733068583,
                0.1354188693854761
            ]
        },
        {
            "positions": [
                2.0927259059498544,
                -1.9254647311531137,
                -0.8286794758024807,
                0.4742245021362436,
                0.2543782016041765,
                0.28125896506949655
            ]
        },
        {
            "positions": [
                2.186382193911481,
                -1.9292614524388452,
                -0.9417891894857671,
                0.4616314917919183,
                0.2319978299014947,
                0.427099060753517
            ]
        },
        {
            "positions": [
                2.2800384818731083,
                -1.9330581737245764,
                -1.0548989031690537,
                0.44903848144759295,
                0.2096174581988129,
                0.5729391564375379
            ]
        },
        {
            "positions": [
                2.373694769834735,
                -1.9368548950103077,
                -1.1680086168523405,
                0.43644547110326765,
                0.18723708649613108,
                0.7187792521215584
            ]
        },
        {
            "positions": [
                2.4673510577963618,
                -1.940651616296039,
                -1.2811183305356268,
                0.42385246075894234,
                0.16485671479344927,
                0.8646193478055788
            ]
        },
        {
            "positions": [
                2.5610073457579885,
                -1.9444483375817705,
                -1.3942280442189132,
                0.41125945041461703,
                0.14247634309076745,
                1.0104594434895988
            ]
        },
        {
            "positions": [
                2.6546636337196157,
                -1.9482450588675018,
                -1.5073377579022,
                0.39866644007029167,
                0.12009597138808559,
                1.1562995391736197
            ]
        },
        {
            "positions": [
                2.7483199216812424,
                -1.952041780153233,
                -1.6204474715854862,
                0.38607342972596637,
                0.0977155996854038,
                1.30213963485764
            ]
        },
        {
            "positions": [
                2.75856754732224,
                -1.9565346954735507,
                -1.6300587152210464,
                0.19169780585869897,
                0.05667000926602286,
                1.3985899719493446
            ]
        },
        {
            "positions": [
                2.7688151729632375,
                -1.9610276107938684,
                -1.6396699588566068,
                -0.0026778180085684222,
                0.01562441884664191,
                1.4950403090410493
            ]
        },
        {
            "positions": [
                2.7790627986042353,
                -1.9655205261141864,
                -1.649281202492167,
                -0.19705344187583573,
                -0.025421171572739043,
                1.5914906461327538
            ]
        },
        {
            "positions": [
                2.7893104242452327,
                -1.970013441434504,
                -1.6588924461277272,
                -0.3914290657431032,
                -0.06646676199211998,
                1.6879409832244585
            ]
        },
        {
            "positions": [
                2.7995580498862305,
                -1.9745063567548218,
                -1.6685036897632877,
                -0.5858046896103706,
                -0.10751235241150098,
                1.7843913203161632
            ]
        },
        {
            "positions": [
                2.809805675527228,
                -1.9789992720751395,
                -1.6781149333988479,
                -0.7801803134776378,
                -0.1485579428308819,
                1.880841657407868
            ]
        },
        {
            "positions": [
                2.8200533011682256,
                -1.9834921873954574,
                -1.687726177034408,
                -0.9745559373449054,
                -0.18960353325026288,
                1.9772919944995726
            ]
        },
        {
            "positions": [
                2.830300926809223,
                -1.987985102715775,
                -1.6973374206699685,
                -1.168931561212173,
                -0.23064912366964377,
                2.0737423315912773
            ]
        },
        {
            "positions": [
                2.8405485524502208,
                -1.9924780180360928,
                -1.7069486643055287,
                -1.36330718507944,
                -0.27169471408902474,
                2.170192668682982
            ]
        },
        {
            "positions": [
                2.8287471552920023,
                -2.007765452361104,
                -1.7055769066776156,
                -1.5320123932884049,
                -0.3060101685279562,
                2.2810493351420984
            ]
        },
        {
            "positions": [
                2.8169457581337842,
                -2.023052886686116,
                -1.7042051490497023,
                -1.7007176014973695,
                -0.3403256229668876,
                2.3919060016012152
            ]
        },
        {
            "positions": [
                2.8051443609755657,
                -2.0383403210111273,
                -1.7028333914217892,
                -1.8694228097063341,
                -0.3746410774058191,
                2.5027626680603317
            ]
        },
        {
            "positions": [
                2.7933429638173477,
                -2.053627755336139,
                -1.701461633793876,
                -2.038128017915299,
                -0.40895653184475056,
                2.6136193345194485
            ]
        },
        {
            "positions": [
                2.781541566659129,
                -2.0689151896611504,
                -1.7000898761659629,
                -2.206833226124264,
                -0.443271986283682,
                2.724476000978565
            ]
        },
        {
            "positions": [
                2.74114068557769,
                -2.107076852684007,
                -1.6860151035358895,
                -2.2829103888107447,
                -0.4558807884705341,
                2.8589913071945814
            ]
        },
        {
            "positions": [
                2.70073980449625,
                -2.1452385157068634,
                -1.671940330905816,
                -2.358987551497225,
                -0.46848959065738616,
                2.9935066134105983
            ]
        },
        {
            "positions": [
                2.6603389234148107,
                -2.18340017872972,
                -1.6578655582757427,
                -2.435064714183706,
                -0.4810983928442383,
                3.128021919626615
            ]
        }
    ]
}