{
    "goal": {
        "global_pose": {
            "orientation": {
                "w": 0.5084816217422485,
                "x": -0.49083608388900757,
                "y": 0.5182115435600281,
                "z": -0.4816462993621826
            },
            "position": {
                "x": 0.5540239810943604,
                "y": 0.030875300988554955,
                "z": 0.16403168439865112
            }
        },
        "name": "move_to_storage_A"
    },
    "id": "RRT_move_to_storage_A_119",
    "joint_names": [
        "shoulder_pan_joint",
        "shoulder_lift_joint",
        "elbow_joint",
        "wrist_1_joint",
        "wrist_2_joint",
        "wrist_3_joint"
    ],
    "metrics": {
        "cart_traj_len": 0.35329315667657113,
        "distance_elbow_joint": 0.45429719495121423,
        "distance_shoulder_lift_joint": 0.23543800373055768,
        "distance_shoulder_pan_joint": 0.46203295317806853,
        "distance_wrist_1_joint": 0.25778414323132093,
        "distance_wrist_2_joint": 1.1001209472656035,
        "distance_wrist_3_joint": 0.10591981624286095,
        "smoothness": 1.1102230298998083e-15,
        "time": 0.012093828000000001,
        "traj_len": 1.6172795239536133,
        "weighted_distance": 2.0458098107063307
    },
    "planner": "RRT",
    "start": {
        "state": {
            "elbow_joint": 1.9715463870305268,
            "shoulder_lift_joint": -1.1394903361783484,
            "shoulder_pan_joint": 0.12281147578464417,
            "wrist_1_joint": -0.7804599489681411,
            "wrist_2_joint": 0.12958660307563738,
            "wrist_3_joint": -3.1924946282119055
        }
    },
    "waypoints": [
        {
            "positions": [
                0.12281147578464417,
                -1.1394903361783484,
                1.9715463870305268,
                -0.7804599489681411,
                0.12958660307563738,
                -3.1924946282119055
            ]
        },
        {
            "positions": [
                0.056806768187777246,
                -1.1731243367112851,
                2.0364459863092716,
                -0.8172862551440441,
                0.286746738399295,
                -3.177363225891497
            ]
        },
        {
            "positions": [
                -0.009197939409089681,
                -1.206758337244222,
                2.1013455855880165,
                -0.8541125613199471,
                0.4439068737229527,
                -3.162231823571088
            ]
        },
        {
            "positions": [
                -0.07520264700595662,
                -1.2403923377771588,
                2.1662451848667614,
                -0.89093886749585,
                0.6010670090466103,
                -3.1471004212506792
            ]
        },
        {
            "positions": [
                -0.14120735460282352,
                -1.2740263383100956,
                2.2311447841455063,
                -0.927765173671753,
                0.758227144370268,
                -3.131969018930271
            ]
        },
        {
            "positions": [
                -0.20721206219969046,
                -1.3076603388430326,
                2.296044383424251,
                -0.964591479847656,
                0.9153872796939256,
                -3.116837616609862
            ]
        },
        {
            "positions": [
                -0.2732167697965574,
                -1.3412943393759693,
                2.360943982702996,
                -1.0014177860235591,
                1.072547415017583,
                -3.1017062142894534
            ]
        },
        {
            "positions": [
                -0.33922147739342434,
                -1.374928339908906,
                2.425843581981741,
                -1.038244092199462,
                1.229707550341241,
                -3.0865748119690446
            ]
        }
    ]
}