{
    "goal": {
        "global_pose": {
            "orientation": {
                "w": 0.7031023502349854,
                "x": -0.7110244035720825,
                "y": 0.007748599164187908,
                "z": 0.005598929710686207
            },
            "position": {
                "x": 0.11585023208521307,
                "y": 0.44412534475326537,
                "z": 0.3711530566215515
            }
        },
        "name": "move_to_auspresseinheit_A"
    },
    "id": "RRT_move_to_auspresseinheit_A_142",
    "joint_names": [
        "shoulder_pan_joint",
        "shoulder_lift_joint",
        "elbow_joint",
        "wrist_1_joint",
        "wrist_2_joint",
        "wrist_3_joint"
    ],
    "metrics": {
        "cart_traj_len": 0.6685298465713514,
        "distance_elbow_joint": 0.06034008223805554,
        "distance_shoulder_lift_joint": 0.5376245009697864,
        "distance_shoulder_pan_joint": 1.044807775072402,
        "distance_wrist_1_joint": 0.5580337763194076,
        "distance_wrist_2_joint": 0.5203093322775599,
        "distance_wrist_3_joint": 0.032830637677336405,
        "smoothness": 0.043035566390205685,
        "time": 2.143339725,
        "traj_len": 1.6595017639504177,
        "weighted_distance": 1.9743227923787408
    },
    "planner": "RRT",
    "start": {
        "state": {
            "elbow_joint": 2.422574709923281,
            "shoulder_lift_joint": -1.3736533754116391,
            "shoulder_pan_joint": -0.33786336945926293,
            "wrist_1_joint": -1.0288603412921917,
            "wrist_2_joint": 1.2330224858903978,
            "wrist_3_joint": -3.094022268022082
        }
    },
    "waypoints": [
        {
            "positions": [
                -0.33786336945926293,
                -1.3736533754116391,
                2.422574709923281,
                -1.0288603412921917,
                1.2330224858903978,
                -3.094022268022082
            ]
        },
        {
            "positions": [
                -0.29558764981720387,
                -1.4709318893500205,
                2.4267300912374616,
                -0.8988136530302856,
                1.1543301287619867,
                -3.0948105226525735
            ]
        },
        {
            "positions": [
                -0.2533119301751448,
                -1.5682104032884019,
                2.4308854725516422,
                -0.7687669647683795,
                1.0756377716335757,
                -3.0955987772830653
            ]
        },
        {
            "positions": [
                -0.21103621053308574,
                -1.6654889172267833,
                2.435040853865823,
                -0.6387202765064732,
                0.9969454145051646,
                -3.096387031913557
            ]
        },
        {
            "positions": [
                -0.16876049089102668,
                -1.7627674311651647,
                2.4391962351800034,
                -0.5086735882445671,
                0.9182530573767536,
                -3.0971752865440485
            ]
        },
        {
            "positions": [
                0.050165733235014776,
                -1.79989504246923,
                2.4282665959346703,
                -0.49921183242662137,
                0.8668680814357747,
                -3.104594691332891
            ]
        },
        {
            "positions": [
                0.26909195736105623,
                -1.8370226537732952,
                2.417336956689337,
                -0.48975007660867564,
                0.8154831054947957,
                -3.1120140961217335
            ]
        },
        {
            "positions": [
                0.4880181814870977,
                -1.8741502650773603,
                2.4064073174440033,
                -0.48028832079072986,
                0.7640981295538167,
                -3.119433500910576
            ]
        },
        {
            "positions": [
                0.7069444056131391,
                -1.9112778763814255,
                2.39547767819867,
                -0.47082656497278413,
                0.7127131536128378,
                -3.1268529056994185
            ]
        }
    ]
}