{
    "goal": {
        "global_pose": {
            "orientation": {
                "w": 0.5084816217422485,
                "x": -0.49083608388900757,
                "y": 0.5182115435600281,
                "z": -0.4816462993621826
            },
            "position": {
                "x": 0.5540239810943604,
                "y": 0.030875300988554955,
                "z": 0.16403168439865112
            }
        },
        "name": "move_to_storage_A"
    },
    "id": "RRT_move_to_storage_A_106",
    "joint_names": [
        "shoulder_pan_joint",
        "shoulder_lift_joint",
        "elbow_joint",
        "wrist_1_joint",
        "wrist_2_joint",
        "wrist_3_joint"
    ],
    "metrics": {
        "cart_traj_len": 0.35377354385962995,
        "distance_elbow_joint": 0.44819833123433517,
        "distance_shoulder_lift_joint": 0.2347678134344895,
        "distance_shoulder_pan_joint": 0.4596451904994385,
        "distance_wrist_1_joint": 0.23804198432722512,
        "distance_wrist_2_joint": 1.1125906315107386,
        "distance_wrist_3_joint": 0.0918376109405945,
        "smoothness": 8.881784197001252e-16,
        "time": 0.015248316999999999,
        "traj_len": 1.607818883440178,
        "weighted_distance": 2.0296278968485764
    },
    "planner": "RRT",
    "start": {
        "state": {
            "elbow_joint": 1.9715463870305268,
            "shoulder_lift_joint": -1.1394903361783484,
            "shoulder_pan_joint": 0.12281147578464417,
            "wrist_1_joint": -0.7804599489681411,
            "wrist_2_joint": 0.12958660307563738,
            "wrist_3_joint": -3.1924946282119055
        }
    },
    "waypoints": [
        {
            "positions": [
                0.12281147578464417,
                -1.1394903361783484,
                1.9715463870305268,
                -0.7804599489681411,
                0.12958660307563738,
                -3.1924946282119055
            ]
        },
        {
            "positions": [
                0.05714787714186724,
                -1.1730285952404182,
                2.035574720064003,
                -0.8144659467291733,
                0.28852812186288573,
                -3.179374969506106
            ]
        },
        {
            "positions": [
                -0.008515721500909693,
                -1.2065668543024883,
                2.09960305309748,
                -0.8484719444902054,
                0.44746964065013406,
                -3.1662553108003073
            ]
        },
        {
            "positions": [
                -0.07417932014368663,
                -1.2401051133645582,
                2.163631386130956,
                -0.8824779422512375,
                0.6064111594373824,
                -3.153135652094508
            ]
        },
        {
            "positions": [
                -0.13984291878646354,
                -1.273643372426628,
                2.2276597191644325,
                -0.9164839400122697,
                0.7653526782246308,
                -3.1400159933887086
            ]
        },
        {
            "positions": [
                -0.20550651742924048,
                -1.3071816314886981,
                2.291688052197909,
                -0.9504899377733018,
                0.9242941970118792,
                -3.1268963346829093
            ]
        },
        {
            "positions": [
                -0.2711701160720174,
                -1.340719890550768,
                2.3557163852313856,
                -0.984495935534334,
                1.0832357157991275,
                -3.1137766759771104
            ]
        },
        {
            "positions": [
                -0.33683371471479434,
                -1.3742581496128379,
                2.419744718264862,
                -1.0185019332953662,
                1.242177234586376,
                -3.100657017271311
            ]
        }
    ]
}