{
    "goal": {
        "global_pose": {
            "orientation": {
                "w": 0.5084816217422485,
                "x": -0.49083608388900757,
                "y": 0.5182115435600281,
                "z": -0.4816462993621826
            },
            "position": {
                "x": 0.5540239810943604,
                "y": 0.030875300988554955,
                "z": 0.16403168439865112
            }
        },
        "name": "move_to_storage_A"
    },
    "id": "RRT_move_to_storage_A_82",
    "joint_names": [
        "shoulder_pan_joint",
        "shoulder_lift_joint",
        "elbow_joint",
        "wrist_1_joint",
        "wrist_2_joint",
        "wrist_3_joint"
    ],
    "metrics": {
        "cart_traj_len": 0.3536866818362053,
        "distance_elbow_joint": 0.4498472888123519,
        "distance_shoulder_lift_joint": 0.23315573372566023,
        "distance_shoulder_pan_joint": 0.4619034799331364,
        "distance_wrist_1_joint": 0.24518899487207213,
        "distance_wrist_2_joint": 1.1017894364551724,
        "distance_wrist_3_joint": 0.10396488148507954,
        "smoothness": 1.5543122362334363e-15,
        "time": 0.014749394,
        "traj_len": 1.611164118047405,
        "weighted_distance": 2.037340916386081
    },
    "planner": "RRT",
    "start": {
        "state": {
            "elbow_joint": 1.9715463870305268,
            "shoulder_lift_joint": -1.1394903361783484,
            "shoulder_pan_joint": 0.12281147578464417,
            "wrist_1_joint": -0.7804599489681411,
            "wrist_2_joint": 0.12958660307563738,
            "wrist_3_joint": -3.1924946282119055
        }
    },
    "waypoints": [
        {
            "positions": [
                0.12281147578464417,
                -1.1394903361783484,
                1.9715463870305268,
                -0.7804599489681411,
                0.12958660307563738,
                -3.1924946282119055
            ]
        },
        {
            "positions": [
                0.056825264365624684,
                -1.172798298139157,
                2.0358102854322913,
                -0.81548694823558,
                0.28698509399780486,
                -3.1776425022854657
            ]
        },
        {
            "positions": [
                -0.009160947053394805,
                -1.2061062600999657,
                2.1000741838340558,
                -0.8505139475030188,
                0.4443835849199723,
                -3.1627903763590255
            ]
        },
        {
            "positions": [
                -0.07514715847241428,
                -1.2394142220607742,
                2.1643380822358202,
                -0.8855409467704577,
                0.6017820758421398,
                -3.1479382504325857
            ]
        },
        {
            "positions": [
                -0.14113336989143377,
                -1.2727221840215828,
                2.2286019806375847,
                -0.9205679460378966,
                0.7591805667643073,
                -3.133086124506146
            ]
        },
        {
            "positions": [
                -0.20711958131045327,
                -1.3060301459823913,
                2.2928658790393497,
                -0.9555949453053354,
                0.9165790576864749,
                -3.118233998579706
            ]
        },
        {
            "positions": [
                -0.2731057927294727,
                -1.3393381079432,
                2.357129777441114,
                -0.9906219445727743,
                1.0739775486086423,
                -3.103381872653266
            ]
        },
        {
            "positions": [
                -0.3390920041484922,
                -1.3726460699040086,
                2.4213936758428787,
                -1.0256489438402132,
                1.2313760395308098,
                -3.088529746726826
            ]
        }
    ]
}