{
    "goal": {
        "global_pose": {
            "orientation": {
                "w": 0.5084816217422485,
                "x": -0.49083608388900757,
                "y": 0.5182115435600281,
                "z": -0.4816462993621826
            },
            "position": {
                "x": 0.5540239810943604,
                "y": 0.030875300988554955,
                "z": 0.16403168439865112
            }
        },
        "name": "move_to_storage_A"
    },
    "id": "RRT_move_to_storage_A_110",
    "joint_names": [
        "shoulder_pan_joint",
        "shoulder_lift_joint",
        "elbow_joint",
        "wrist_1_joint",
        "wrist_2_joint",
        "wrist_3_joint"
    ],
    "metrics": {
        "cart_traj_len": 0.35307681636139926,
        "distance_elbow_joint": 0.45098711328943075,
        "distance_shoulder_lift_joint": 0.23658028018074884,
        "distance_shoulder_pan_joint": 0.46001762029654136,
        "distance_wrist_1_joint": 0.24173302725567358,
        "distance_wrist_2_joint": 1.1074455257806928,
        "distance_wrist_3_joint": 0.09153376056542495,
        "smoothness": 5.551115138160447e-16,
        "time": 0.013144215999999998,
        "traj_len": 1.608818612326608,
        "weighted_distance": 2.0299121659657415
    },
    "planner": "RRT",
    "start": {
        "state": {
            "elbow_joint": 1.9715463870305268,
            "shoulder_lift_joint": -1.1394903361783484,
            "shoulder_pan_joint": 0.12281147578464417,
            "wrist_1_joint": -0.7804599489681411,
            "wrist_2_joint": 0.12958660307563738,
            "wrist_3_joint": -3.1924946282119055
        }
    },
    "waypoints": [
        {
            "positions": [
                0.12281147578464417,
                -1.1394903361783484,
                1.9715463870305268,
                -0.7804599489681411,
                0.12958660307563738,
                -3.1924946282119055
            ]
        },
        {
            "positions": [
                0.05709467288513827,
                -1.1732875190613126,
                2.0359731175004456,
                -0.8149932385760944,
                0.2877931067585935,
                -3.179418376702559
            ]
        },
        {
            "positions": [
                -0.008622130014367638,
                -1.2070847019442765,
                2.100399847970364,
                -0.8495265281840478,
                0.44599961044154957,
                -3.166342125193213
            ]
        },
        {
            "positions": [
                -0.07433893291387354,
                -1.2408818848272407,
                2.164826578440283,
                -0.8840598177920012,
                0.6042061141245056,
                -3.1532658736838663
            ]
        },
        {
            "positions": [
                -0.14005573581337943,
                -1.274679067710205,
                2.2292533089102013,
                -0.9185931073999546,
                0.7624126178074618,
                -3.14018962217452
            ]
        },
        {
            "positions": [
                -0.20577253871288537,
                -1.308476250593169,
                2.29368003938012,
                -0.9531263970079079,
                0.920619121490418,
                -3.1271133706651733
            ]
        },
        {
            "positions": [
                -0.27148934161239124,
                -1.342273433476133,
                2.3581067698500386,
                -0.9876596866158613,
                1.0788256251733739,
                -3.114037119155827
            ]
        },
        {
            "positions": [
                -0.3372061445118972,
                -1.3760706163590972,
                2.4225335003199575,
                -1.0221929762238147,
                1.2370321288563302,
                -3.1009608676464806
            ]
        }
    ]
}