{
    "goal": {
        "global_pose": {
            "orientation": {
                "w": 0.5084816217422485,
                "x": -0.49083608388900757,
                "y": 0.5182115435600281,
                "z": -0.4816462993621826
            },
            "position": {
                "x": 0.5540239810943604,
                "y": 0.030875300988554955,
                "z": 0.16403168439865112
            }
        },
        "name": "move_to_storage_A"
    },
    "id": "RRT_move_to_storage_A_126",
    "joint_names": [
        "shoulder_pan_joint",
        "shoulder_lift_joint",
        "elbow_joint",
        "wrist_1_joint",
        "wrist_2_joint",
        "wrist_3_joint"
    ],
    "metrics": {
        "cart_traj_len": 0.35290599529885447,
        "distance_elbow_joint": 0.45104798247260236,
        "distance_shoulder_lift_joint": 0.23533283717105702,
        "distance_shoulder_pan_joint": 0.46160340951735285,
        "distance_wrist_1_joint": 0.24051722464986092,
        "distance_wrist_2_joint": 1.0990479224753271,
        "distance_wrist_3_joint": 0.10147165966335558,
        "smoothness": 4.440892098500626e-16,
        "time": 0.032186071000000004,
        "traj_len": 1.609043515865732,
        "weighted_distance": 2.032616417920867
    },
    "planner": "RRT",
    "start": {
        "state": {
            "elbow_joint": 1.9715463870305268,
            "shoulder_lift_joint": -1.1394903361783484,
            "shoulder_pan_joint": 0.12281147578464417,
            "wrist_1_joint": -0.7804599489681411,
            "wrist_2_joint": 0.12958660307563738,
            "wrist_3_joint": -3.1924946282119055
        }
    },
    "waypoints": [
        {
            "positions": [
                0.12281147578464417,
                -1.1394903361783484,
                1.9715463870305268,
                -0.7804599489681411,
                0.12958660307563738,
                -3.1924946282119055
            ]
        },
        {
            "positions": [
                0.05686813156787948,
                -1.1731093129170709,
                2.0359818130980414,
                -0.8148195524895497,
                0.28659344914354123,
                -3.177998676831426
            ]
        },
        {
            "positions": [
                -0.009075212648885209,
                -1.2067282896557932,
                2.100417239165556,
                -0.8491791560109585,
                0.44360029521144506,
                -3.1635027254509467
            ]
        },
        {
            "positions": [
                -0.07501855686564989,
                -1.2403472663945156,
                2.1648526652330706,
                -0.8835387595323672,
                0.600607141279349,
                -3.1490067740704673
            ]
        },
        {
            "positions": [
                -0.14096190108241458,
                -1.2739662431332381,
                2.2292880913005853,
                -0.9178983630537759,
                0.7576139873472528,
                -3.1345108226899883
            ]
        },
        {
            "positions": [
                -0.2069052452991793,
                -1.3075852198719606,
                2.2937235173681,
                -0.9522579665751846,
                0.9146208334151568,
                -3.120014871309509
            ]
        },
        {
            "positions": [
                -0.27284858951594393,
                -1.341204196610683,
                2.3581589434356145,
                -0.9866175700965933,
                1.0716276794830606,
                -3.1055189199290294
            ]
        },
        {
            "positions": [
                -0.33879193373270866,
                -1.3748231733494054,
                2.422594369503129,
                -1.020977173618002,
                1.2286345255509645,
                -3.09102296854855
            ]
        }
    ]
}