{
    "goal": {
        "global_pose": {
            "orientation": {
                "w": 0.7047431468963623,
                "x": -0.7094548344612122,
                "y": 0.0024358443915843964,
                "z": -0.0022348060738295317
            },
            "position": {
                "x": 0.6094750761985779,
                "y": 0.3671506643295288,
                "z": 0.19426114857196808
            }
        },
        "name": "move_to_magneteinheit_A"
    },
    "id": "RRT_move_to_magneteinheit_A_24",
    "joint_names": [
        "shoulder_pan_joint",
        "shoulder_lift_joint",
        "elbow_joint",
        "wrist_1_joint",
        "wrist_2_joint",
        "wrist_3_joint"
    ],
    "metrics": {
        "cart_traj_len": 1.8753145261671629,
        "distance_elbow_joint": 3.9189786794003982,
        "distance_shoulder_lift_joint": 0.7032143752123402,
        "distance_shoulder_pan_joint": 1.2423297491022849,
        "distance_wrist_1_joint": 1.514592211236177,
        "distance_wrist_2_joint": 1.7089409924601764,
        "distance_wrist_3_joint": 1.1307243215503544,
        "smoothness": 4.934324565834932e-16,
        "time": 0.11171990700000001,
        "traj_len": 3.196682706957594,
        "weighted_distance": 3.96279726654781
    },
    "planner": "RRT",
    "start": {
        "state": {
            "elbow_joint": -1.919643507792019,
            "shoulder_lift_joint": -0.07675430207160344,
            "shoulder_pan_joint": -1.1188671864651873,
            "wrist_1_joint": 0.42560062535961957,
            "wrist_2_joint": 1.5706038300724876,
            "wrist_3_joint": 1.1188968870953055
        }
    },
    "waypoints": [
        {
            "positions": [
                -1.1188671864651873,
                -0.07675430207160344,
                -1.919643507792019,
                0.42560062535961957,
                1.5706038300724876,
                1.1188968870953055
            ]
        },
        {
            "positions": [
                -1.0710852730381764,
                -0.10380100881053961,
                -1.7689135585843114,
                0.48385417194562635,
                1.504875330362481,
                1.0754074901125996
            ]
        },
        {
            "positions": [
                -1.0233033596111654,
                -0.13084771554947577,
                -1.6181836093766038,
                0.5421077185316332,
                1.439146830652474,
                1.0319180931298937
            ]
        },
        {
            "positions": [
                -0.9755214461841545,
                -0.15789442228841194,
                -1.4674536601688961,
                0.60036126511764,
                1.3734183309424672,
                0.9884286961471878
            ]
        },
        {
            "positions": [
                -0.9277395327571435,
                -0.1849411290273481,
                -1.3167237109611887,
                0.6586148117036468,
                1.3076898312324605,
                0.9449392991644818
            ]
        },
        {
            "positions": [
                -0.8799576193301326,
                -0.21198783576628427,
                -1.165993761753481,
                0.7168683582896536,
                1.2419613315224538,
                0.9014499021817759
            ]
        },
        {
            "positions": [
                -0.8321757059031216,
                -0.23903454250522044,
                -1.0152638125457734,
                0.7751219048756604,
                1.1762328318124469,
                0.85796050519907
            ]
        },
        {
            "positions": [
                -0.7843937924761106,
                -0.2660812492441566,
                -0.8645338633380657,
                0.8333754514616671,
                1.1105043321024402,
                0.814471108216364
            ]
        },
        {
            "positions": [
                -0.7366118790490996,
                -0.29312795598309277,
                -0.713803914130358,
                0.891628998047674,
                1.0447758323924332,
                0.770981711233658
            ]
        },
        {
            "positions": [
                -0.6888299656220888,
                -0.32017466272202894,
                -0.5630739649226506,
                0.9498825446336807,
                0.9790473326824266,
                0.7274923142509522
            ]
        },
        {
            "positions": [
                -0.6410480521950778,
                -0.3472213694609651,
                -0.4123440157149427,
                1.0081360912196877,
                0.9133188329724198,
                0.6840029172682461
            ]
        },
        {
            "positions": [
                -0.5932661387680668,
                -0.37426807619990127,
                -0.2616140665072353,
                1.0663896378056945,
                0.847590333262413,
                0.6405135202855402
            ]
        },
        {
            "positions": [
                -0.5454842253410558,
                -0.40131478293883743,
                -0.11088411729952741,
                1.1246431843917013,
                0.7818618335524061,
                0.5970241233028343
            ]
        },
        {
            "positions": [
                -0.4977023119140449,
                -0.4283614896777736,
                0.03984583190818003,
                1.182896730977708,
                0.7161333338423994,
                0.5535347263201283
            ]
        },
        {
            "positions": [
                -0.449920398487034,
                -0.45540819641670977,
                0.1905757811158877,
                1.2411502775637149,
                0.6504048341323927,
                0.5100453293374224
            ]
        },
        {
            "positions": [
                -0.40213848506002303,
                -0.4824549031556459,
                0.3413057303235949,
                1.2994038241497217,
                0.584676334422386,
                0.4665559323547165
            ]
        },
        {
            "positions": [
                -0.35435657163301204,
                -0.5095016098945822,
                0.492035679531303,
                1.3576573707357285,
                0.518947834712379,
                0.42306653537201044
            ]
        },
        {
            "positions": [
                -0.30657465820600105,
                -0.5365483166335183,
                0.6427656287390107,
                1.4159109173217352,
                0.4532193350023723,
                0.3795771383893046
            ]
        },
        {
            "positions": [
                -0.25879274477899017,
                -0.5635950233724545,
                0.7934955779467179,
                1.474164463907742,
                0.3874908352923656,
                0.3360877414065987
            ]
        },
        {
            "positions": [
                -0.21101083135197918,
                -0.5906417301113907,
                0.9442255271544255,
                1.5324180104937488,
                0.32176233558235867,
                0.29259834442389276
            ]
        },
        {
            "positions": [
                -0.1632289179249682,
                -0.6176884368503268,
                1.0949554763621336,
                1.5906715570797558,
                0.25603383587235196,
                0.24910894744118672
            ]
        },
        {
            "positions": [
                -0.1154470044979572,
                -0.644735143589263,
                1.2456854255698413,
                1.6489251036657626,
                0.19030533616234502,
                0.2056195504584808
            ]
        },
        {
            "positions": [
                -0.0676650910709462,
                -0.6717818503281991,
                1.3964153747775485,
                1.7071786502517694,
                0.1245768364523383,
                0.16213015347577486
            ]
        },
        {
            "positions": [
                -0.019883177643935435,
                -0.6988285570671353,
                1.5471453239852562,
                1.7654321968377762,
                0.058848336742331586,
                0.11864075649306893
            ]
        },
        {
            "positions": [
                0.02789873578307578,
                -0.7258752638060715,
                1.6978752731929643,
                1.823685743423783,
                -0.006880162967675352,
                0.075151359510363
            ]
        },
        {
            "positions": [
                0.07568064921008655,
                -0.7529219705450076,
                1.8486052224006715,
                1.8819392900097898,
                -0.07260866267768207,
                0.03166196252765707
            ]
        },
        {
            "positions": [
                0.12346256263709757,
                -0.7799686772839437,
                1.9993351716083791,
                1.9401928365957966,
                -0.13833716238768873,
                -0.011827434455048759
            ]
        }
    ]
}