{
    "goal": {
        "global_pose": {
            "orientation": {
                "w": 0.5084816217422485,
                "x": -0.49083608388900757,
                "y": 0.5182115435600281,
                "z": -0.4816462993621826
            },
            "position": {
                "x": 0.5540239810943604,
                "y": 0.030875300988554955,
                "z": 0.16403168439865112
            }
        },
        "name": "move_to_storage_A"
    },
    "id": "RRT_move_to_storage_A_37",
    "joint_names": [
        "shoulder_pan_joint",
        "shoulder_lift_joint",
        "elbow_joint",
        "wrist_1_joint",
        "wrist_2_joint",
        "wrist_3_joint"
    ],
    "metrics": {
        "cart_traj_len": 0.3527504010601139,
        "distance_elbow_joint": 0.4490344618431834,
        "distance_shoulder_lift_joint": 0.23302413997252014,
        "distance_shoulder_pan_joint": 0.46112789917841135,
        "distance_wrist_1_joint": 0.2393136151533316,
        "distance_wrist_2_joint": 1.0982105999931813,
        "distance_wrist_3_joint": 0.10015008400223957,
        "smoothness": 4.440892133664971e-16,
        "time": 0.029970753,
        "traj_len": 1.6065057734545702,
        "weighted_distance": 2.0294544053251995
    },
    "planner": "RRT",
    "start": {
        "state": {
            "elbow_joint": 1.9715463870305268,
            "shoulder_lift_joint": -1.1394903361783484,
            "shoulder_pan_joint": 0.12281147578464417,
            "wrist_1_joint": -0.7804599489681411,
            "wrist_2_joint": 0.12958660307563738,
            "wrist_3_joint": -3.1924946282119055
        }
    },
    "waypoints": [
        {
            "positions": [
                0.12281147578464417,
                -1.1394903361783484,
                1.9715463870305268,
                -0.7804599489681411,
                0.12958660307563738,
                -3.1924946282119055
            ]
        },
        {
            "positions": [
                0.0569360616162997,
                -1.1727794990315656,
                2.0356941672938387,
                -0.8146476082757599,
                0.28647383164609186,
                -3.1781874733544426
            ]
        },
        {
            "positions": [
                -0.008939352552044769,
                -1.2060686618847827,
                2.0998419475571506,
                -0.8488352675833787,
                0.4433610602165463,
                -3.16388031849698
            ]
        },
        {
            "positions": [
                -0.07481476672038924,
                -1.239357824738,
                2.1639897278204625,
                -0.8830229268909975,
                0.6002482887870008,
                -3.1495731636395172
            ]
        },
        {
            "positions": [
                -0.1406901808887337,
                -1.272646987591217,
                2.2281375080837744,
                -0.9172105861986163,
                0.7571355173574552,
                -3.1352660087820543
            ]
        },
        {
            "positions": [
                -0.20656559505707822,
                -1.3059361504444342,
                2.2922852883470863,
                -0.9513982455062351,
                0.9140227459279098,
                -3.1209588539245914
            ]
        },
        {
            "positions": [
                -0.27244100922542264,
                -1.3392253132976513,
                2.3564330686103983,
                -0.9855859048138539,
                1.0709099744983641,
                -3.106651699067129
            ]
        },
        {
            "positions": [
                -0.33831642339376716,
                -1.3725144761508685,
                2.42058084887371,
                -1.0197735641214727,
                1.2277972030688187,
                -3.092344544209666
            ]
        }
    ]
}