{
    "goal": {
        "global_pose": {
            "orientation": {
                "w": -0.00223480608172531,
                "x": 0.0024358444001904467,
                "y": 0.7094548369677653,
                "z": -0.704743149386269
            },
            "position": {
                "x": 0.6205249238014221,
                "y": -0.6371506643295288,
                "z": 0.19426114857196808
            }
        },
        "name": "move_to_magneteinheit_B"
    },
    "id": "RRT_move_to_magneteinheit_B_36",
    "joint_names": [
        "shoulder_pan_joint",
        "shoulder_lift_joint",
        "elbow_joint",
        "wrist_1_joint",
        "wrist_2_joint",
        "wrist_3_joint"
    ],
    "metrics": {
        "cart_traj_len": 1.4542727251020167,
        "distance_elbow_joint": 0.7282335755887963,
        "distance_shoulder_lift_joint": 1.2466433468955092,
        "distance_shoulder_pan_joint": 1.6215609405461517,
        "distance_wrist_1_joint": 2.6166050188001577,
        "distance_wrist_2_joint": 2.9376415277974037,
        "distance_wrist_3_joint": 3.142989290099326,
        "smoothness": 3.2297397032084736e-16,
        "time": 0.030589583,
        "traj_len": 3.5062335489421326,
        "weighted_distance": 4.912626469265048
    },
    "planner": "RRT",
    "start": {
        "state": {
            "elbow_joint": 2.39358713078474,
            "shoulder_lift_joint": -1.908514104345545,
            "shoulder_pan_joint": 0.7066247066606129,
            "wrist_1_joint": -0.4678290933515497,
            "wrist_2_joint": 0.7096259083745334,
            "wrist_3_joint": -3.1358149277392293
        }
    },
    "waypoints": [
        {
            "positions": [
                0.7066247066606129,
                -1.908514104345545,
                2.39358713078474,
                -0.4678290933515497,
                0.7096259083745334,
                -3.1358149277392293
            ]
        },
        {
            "positions": [
                0.6559509272685458,
                -1.8695564997550602,
                2.37082983154759,
                -0.3860601865140448,
                0.6178246106308646,
                -3.0375965124236255
            ]
        },
        {
            "positions": [
                0.6052771478764785,
                -1.8305988951645755,
                2.3480725323104403,
                -0.30429127967653985,
                0.5260233128871957,
                -2.9393780971080217
            ]
        },
        {
            "positions": [
                0.5546033684844112,
                -1.7916412905740908,
                2.3253152330732902,
                -0.22252237283903492,
                0.4342220151435268,
                -2.8411596817924174
            ]
        },
        {
            "positions": [
                0.503929589092344,
                -1.7526836859836064,
                2.3025579338361406,
                -0.14075346600153,
                0.34242071739985797,
                -2.7429412664768136
            ]
        },
        {
            "positions": [
                0.45325580970027673,
                -1.7137260813931217,
                2.2798006345989905,
                -0.05898455916402506,
                0.2506194196561891,
                -2.6447228511612098
            ]
        },
        {
            "positions": [
                0.4025820303082095,
                -1.674768476802637,
                2.257043335361841,
                0.022784347673479866,
                0.1588181219125202,
                -2.5465044358456055
            ]
        },
        {
            "positions": [
                0.35190825091614225,
                -1.6358108722121523,
                2.234286036124691,
                0.1045532545109848,
                0.06701682416885135,
                -2.4482860205300017
            ]
        },
        {
            "positions": [
                0.301234471524075,
                -1.5968532676216676,
                2.211528736887541,
                0.18632216134848972,
                -0.0247844735748175,
                -2.350067605214398
            ]
        },
        {
            "positions": [
                0.25056069213200777,
                -1.557895663031183,
                2.188771437650391,
                0.26809106818599465,
                -0.11658577131848635,
                -2.251849189898794
            ]
        },
        {
            "positions": [
                0.19988691273994053,
                -1.5189380584406984,
                2.1660141384132414,
                0.3498599750234996,
                -0.2083870690621552,
                -2.15363077458319
            ]
        },
        {
            "positions": [
                0.14921313334787334,
                -1.4799804538502137,
                2.1432568391760913,
                0.4316288818610045,
                -0.30018836680582417,
                -2.055412359267586
            ]
        },
        {
            "positions": [
                0.09853935395580604,
                -1.441022849259729,
                2.1204995399389412,
                0.5133977886985095,
                -0.391989664549493,
                -1.957193943951982
            ]
        },
        {
            "positions": [
                0.047865574563738744,
                -1.4020652446692443,
                2.0977422407017916,
                0.5951666955360144,
                -0.4837909622931619,
                -1.8589755286363783
            ]
        },
        {
            "positions": [
                -0.002808204828328442,
                -1.3631076400787596,
                2.0749849414646415,
                0.6769356023735194,
                -0.5755922600368307,
                -1.7607571133207742
            ]
        },
        {
            "positions": [
                -0.05348198422039563,
                -1.324150035488275,
                2.052227642227492,
                0.7587045092110243,
                -0.6673935577804996,
                -1.6625386980051702
            ]
        },
        {
            "positions": [
                -0.10415576361246293,
                -1.2851924308977902,
                2.029470342990342,
                0.8404734160485292,
                -0.7591948555241684,
                -1.5643202826895664
            ]
        },
        {
            "positions": [
                -0.15482954300453022,
                -1.2462348263073055,
                2.006713043753192,
                0.9222423228860341,
                -0.8509961532678373,
                -1.4661018673739625
            ]
        },
        {
            "positions": [
                -0.2055033223965974,
                -1.207277221716821,
                1.983955744516042,
                1.004011229723539,
                -0.9427974510115061,
                -1.3678834520583585
            ]
        },
        {
            "positions": [
                -0.2561771017886646,
                -1.1683196171263364,
                1.9611984452788922,
                1.085780136561044,
                -1.034598748755175,
                -1.2696650367427544
            ]
        },
        {
            "positions": [
                -0.3068508811807319,
                -1.1293620125358517,
                1.9384411460417423,
                1.167549043398549,
                -1.1264000464988437,
                -1.1714466214271506
            ]
        },
        {
            "positions": [
                -0.3575246605727992,
                -1.0904044079453672,
                1.9156838468045925,
                1.2493179502360539,
                -1.2182013442425128,
                -1.0732282061115468
            ]
        },
        {
            "positions": [
                -0.40819843996486627,
                -1.0514468033548825,
                1.8929265475674426,
                1.3310868570735588,
                -1.3100026419861819,
                -0.9750097907959425
            ]
        },
        {
            "positions": [
                -0.45887221935693356,
                -1.0124891987643978,
                1.8701692483302927,
                1.4128557639110637,
                -1.4018039397298505,
                -0.8767913754803387
            ]
        },
        {
            "positions": [
                -0.5095459987490009,
                -0.9735315941739131,
                1.8474119490931429,
                1.4946246707485686,
                -1.4936052374735196,
                -0.7785729601647349
            ]
        },
        {
            "positions": [
                -0.5602197781410682,
                -0.9345739895834284,
                1.8246546498559928,
                1.5763935775860736,
                -1.5854065352171882,
                -0.680354544849131
            ]
        },
        {
            "positions": [
                -0.6108935575331355,
                -0.8956163849929437,
                1.8018973506188432,
                1.6581624844235785,
                -1.6772078329608573,
                -0.5821361295335272
            ]
        },
        {
            "positions": [
                -0.6615673369252025,
                -0.856658780402459,
                1.779140051381693,
                1.7399313912610834,
                -1.769009130704526,
                -0.48391771421792296
            ]
        },
        {
            "positions": [
                -0.7122411163172698,
                -0.8177011758119743,
                1.7563827521445434,
                1.8217002980985884,
                -1.860810428448195,
                -0.38569929890231913
            ]
        },
        {
            "positions": [
                -0.7629148957093371,
                -0.7787435712214898,
                1.7336254529073933,
                1.9034692049360933,
                -1.9526117261918636,
                -0.2874808835867153
            ]
        },
        {
            "positions": [
                -0.8135886751014042,
                -0.7397859666310052,
                1.7108681536702435,
                1.9852381117735982,
                -2.0444130239355327,
                -0.18926246827111104
            ]
        },
        {
            "positions": [
                -0.8642624544934715,
                -0.7008283620405205,
                1.6881108544330936,
                2.067007018611103,
                -2.1362143216792013,
                -0.09104405295550722
            ]
        },
        {
            "positions": [
                -0.9149362338855388,
                -0.6618707574500358,
                1.6653535551959437,
                2.148775925448608,
                -2.2280156194228704,
                0.007174362360096412
            ]
        }
    ]
}