{
    "goal": {
        "global_pose": {
            "orientation": {
                "w": 0.7047431468963623,
                "x": -0.7094548344612122,
                "y": 0.0024358443915843964,
                "z": -0.0022348060738295317
            },
            "position": {
                "x": 0.6094750761985779,
                "y": 0.3671506643295288,
                "z": 0.19426114857196808
            }
        },
        "name": "move_to_magneteinheit_A"
    },
    "id": "RRT_move_to_magneteinheit_A_67",
    "joint_names": [
        "shoulder_pan_joint",
        "shoulder_lift_joint",
        "elbow_joint",
        "wrist_1_joint",
        "wrist_2_joint",
        "wrist_3_joint"
    ],
    "metrics": {
        "cart_traj_len": 1.8737193637764409,
        "distance_elbow_joint": 3.925587817749962,
        "distance_shoulder_lift_joint": 0.7045223113786682,
        "distance_shoulder_pan_joint": 1.2424559328574636,
        "distance_wrist_1_joint": 1.538210688501553,
        "distance_wrist_2_joint": 1.707669577881226,
        "distance_wrist_3_joint": 1.1728578992976664,
        "smoothness": 3.9474596558118316e-16,
        "time": 0.175499548,
        "traj_len": 3.208006269892025,
        "weighted_distance": 3.985335656208226
    },
    "planner": "RRT",
    "start": {
        "state": {
            "elbow_joint": -1.919643507792019,
            "shoulder_lift_joint": -0.07675430207160344,
            "shoulder_pan_joint": -1.1188671864651873,
            "wrist_1_joint": 0.42560062535961957,
            "wrist_2_joint": 1.5706038300724876,
            "wrist_3_joint": 1.1188968870953055
        }
    },
    "waypoints": [
        {
            "positions": [
                -1.1188671864651873,
                -0.07675430207160344,
                -1.919643507792019,
                0.42560062535961957,
                1.5706038300724876,
                1.1188968870953055
            ]
        },
        {
            "positions": [
                -1.0710804198168233,
                -0.10385131404770606,
                -1.7686593609554822,
                0.4847625749173716,
                1.5049242309232096,
                1.0737869678915493
            ]
        },
        {
            "positions": [
                -1.0232936531684593,
                -0.13094832602380868,
                -1.617675214118945,
                0.5439245244751236,
                1.4392446317739318,
                1.0286770486877927
            ]
        },
        {
            "positions": [
                -0.9755068865200953,
                -0.15804533799991133,
                -1.466691067282408,
                0.6030864740328756,
                1.3735650326246538,
                0.9835671294840364
            ]
        },
        {
            "positions": [
                -0.9277201198717314,
                -0.18514234997601395,
                -1.3157069204458711,
                0.6622484235906277,
                1.3078854334753758,
                0.93845721028028
            ]
        },
        {
            "positions": [
                -0.8799333532233674,
                -0.21223936195211657,
                -1.1647227736093342,
                0.7214103731483797,
                1.242205834326098,
                0.8933472910765236
            ]
        },
        {
            "positions": [
                -0.8321465865750034,
                -0.23933637392821921,
                -1.013738626772797,
                0.7805723227061319,
                1.17652623517682,
                0.8482373718727672
            ]
        },
        {
            "positions": [
                -0.7843598199266395,
                -0.2664333859043218,
                -0.8627544799362601,
                0.8397342722638839,
                1.1108466360275422,
                0.8031274526690108
            ]
        },
        {
            "positions": [
                -0.7365730532782755,
                -0.29353039788042445,
                -0.7117703330997229,
                0.8988962218216359,
                1.0451670368782642,
                0.7580175334652544
            ]
        },
        {
            "positions": [
                -0.6887862866299115,
                -0.32062740985652705,
                -0.560786186263186,
                0.9580581713793879,
                0.9794874377289863,
                0.712907614261498
            ]
        },
        {
            "positions": [
                -0.6409995199815475,
                -0.3477244218326297,
                -0.40980203942664906,
                1.0172201209371399,
                0.9138078385797083,
                0.6677976950577416
            ]
        },
        {
            "positions": [
                -0.5932127533331836,
                -0.37482143380873234,
                -0.2588178925901121,
                1.0763820704948919,
                0.8481282394304305,
                0.6226877758539852
            ]
        },
        {
            "positions": [
                -0.5454259866848195,
                -0.401918445784835,
                -0.10783374575357496,
                1.135544020052644,
                0.7824486402811525,
                0.5775778566502288
            ]
        },
        {
            "positions": [
                -0.49763922003645555,
                -0.4290154577609376,
                0.043150401082961976,
                1.194705969610396,
                0.7167690411318746,
                0.5324679374464724
            ]
        },
        {
            "positions": [
                -0.44985245338809166,
                -0.45611246973704017,
                0.1941345479194989,
                1.253867919168148,
                0.6510894419825967,
                0.48735801824271596
            ]
        },
        {
            "positions": [
                -0.40206568673972765,
                -0.4832094817131428,
                0.34511869475603585,
                1.3130298687259,
                0.5854098428333188,
                0.4422480990389597
            ]
        },
        {
            "positions": [
                -0.3542789200913635,
                -0.5103064936892454,
                0.49610284159257323,
                1.372191818283652,
                0.5197302436840407,
                0.39713817983520316
            ]
        },
        {
            "positions": [
                -0.3064921534429996,
                -0.5374035056653481,
                0.6470869884291102,
                1.4313537678414043,
                0.45405064453476274,
                0.35202826063144677
            ]
        },
        {
            "positions": [
                -0.2587053867946356,
                -0.5645005176414507,
                0.7980711352656471,
                1.4905157173991563,
                0.38837104538548495,
                0.30691834142769037
            ]
        },
        {
            "positions": [
                -0.21091862014627172,
                -0.5915975296175533,
                0.949055282102184,
                1.5496776669569083,
                0.32269144623620716,
                0.26180842222393397
            ]
        },
        {
            "positions": [
                -0.1631318534979076,
                -0.618694541593656,
                1.100039428938721,
                1.6088396165146603,
                0.2570118470869289,
                0.21669850302017757
            ]
        },
        {
            "positions": [
                -0.11534508684954359,
                -0.6457915535697587,
                1.251023575775258,
                1.6680015660724123,
                0.19133224793765113,
                0.17158858381642117
            ]
        },
        {
            "positions": [
                -0.0675583202011798,
                -0.6728885655458612,
                1.4020077226117948,
                1.7271635156301643,
                0.12565264878837334,
                0.12647866461266477
            ]
        },
        {
            "positions": [
                -0.01977155355281579,
                -0.6999855775219639,
                1.5529918694483318,
                1.7863254651879164,
                0.05997304963909533,
                0.08136874540890848
            ]
        },
        {
            "positions": [
                0.02801521309554844,
                -0.7270825894980666,
                1.7039760162848692,
                1.8454874147456686,
                -0.005706549510182679,
                0.03625882620515197
            ]
        },
        {
            "positions": [
                0.07580197974391223,
                -0.7541796014741691,
                1.854960163121406,
                1.9046493643034206,
                -0.07138614865946069,
                -0.008851092998604537
            ]
        },
        {
            "positions": [
                0.12358874639227632,
                -0.7812766134502717,
                2.005944309957943,
                1.9638113138611726,
                -0.1370657478087384,
                -0.0539610122023609
            ]
        }
    ]
}