{
    "goal": {
        "global_pose": {
            "orientation": {
                "w": 0.7031023502349854,
                "x": -0.7110244035720825,
                "y": 0.007748599164187908,
                "z": 0.005598929710686207
            },
            "position": {
                "x": 0.11585023208521307,
                "y": 0.44412534475326537,
                "z": 0.3711530566215515
            }
        },
        "name": "move_to_auspresseinheit_A"
    },
    "id": "RRT_move_to_auspresseinheit_A_128",
    "joint_names": [
        "shoulder_pan_joint",
        "shoulder_lift_joint",
        "elbow_joint",
        "wrist_1_joint",
        "wrist_2_joint",
        "wrist_3_joint"
    ],
    "metrics": {
        "cart_traj_len": 1.8570818434726724,
        "distance_elbow_joint": 1.6183788925966067,
        "distance_shoulder_lift_joint": 0.6931069709827886,
        "distance_shoulder_pan_joint": 1.764298980587049,
        "distance_wrist_1_joint": 0.9056208367397485,
        "distance_wrist_2_joint": 2.4389312289871707,
        "distance_wrist_3_joint": 3.2801039676178565,
        "smoothness": 0.49032827445716054,
        "time": 4.055703474,
        "traj_len": 3.271152836159023,
        "weighted_distance": 4.539295196225274
    },
    "planner": "RRT",
    "start": {
        "state": {
            "elbow_joint": 2.422574709923281,
            "shoulder_lift_joint": -1.3736533754116391,
            "shoulder_pan_joint": -0.33786336945926293,
            "wrist_1_joint": -1.0288603412921917,
            "wrist_2_joint": 1.2330224858903978,
            "wrist_3_joint": -3.094022268022082
        }
    },
    "waypoints": [
        {
            "positions": [
                -0.33786336945926293,
                -1.3736533754116391,
                2.422574709923281,
                -1.0288603412921917,
                1.2330224858903978,
                -3.094022268022082
            ]
        },
        {
            "positions": [
                -0.2849532902576365,
                -1.4068715469765756,
                2.3509074808892385,
                -1.0100625678620188,
                1.138540451478823,
                -2.9770605184850143
            ]
        },
        {
            "positions": [
                -0.23204321105601006,
                -1.440089718541512,
                2.2792402518551955,
                -0.9912647944318456,
                1.0440584170672482,
                -2.8600987689479465
            ]
        },
        {
            "positions": [
                -0.17913313185438365,
                -1.4733078901064485,
                2.207573022821153,
                -0.9724670210016726,
                0.9495763826556736,
                -2.7431370194108786
            ]
        },
        {
            "positions": [
                -0.1262230526527572,
                -1.506526061671385,
                2.1359057937871104,
                -0.9536692475714995,
                0.8550943482440987,
                -2.626175269873811
            ]
        },
        {
            "positions": [
                -0.0733129734511308,
                -1.5397442332363214,
                2.064238564753068,
                -0.9348714741413264,
                0.760612313832524,
                -2.509213520336743
            ]
        },
        {
            "positions": [
                -0.020402894249504366,
                -1.5729624048012578,
                1.992571335719025,
                -0.9160737007111533,
                0.6661302794209493,
                -2.392251770799675
            ]
        },
        {
            "positions": [
                0.032507184952122015,
                -1.6061805763661943,
                1.9209041066849823,
                -0.8972759272809803,
                0.5716482450093745,
                -2.2752900212626073
            ]
        },
        {
            "positions": [
                0.0854172641537485,
                -1.6393987479311307,
                1.8492368776509396,
                -0.8784781538508073,
                0.4771662105977996,
                -2.1583282717255394
            ]
        },
        {
            "positions": [
                0.1383273433553749,
                -1.6726169194960672,
                1.7775696486168968,
                -0.8596803804206342,
                0.38268417618622497,
                -2.0413665221884716
            ]
        },
        {
            "positions": [
                0.19123742255700138,
                -1.7058350910610036,
                1.7059024195828543,
                -0.8408826069904611,
                0.2882021417746502,
                -1.9244047726514037
            ]
        },
        {
            "positions": [
                0.2804716567253427,
                -1.7478593928963273,
                1.6845524500571893,
                -0.7940540049309628,
                0.1806465882048689,
                -1.8354892854202578
            ]
        },
        {
            "positions": [
                0.36970589089368405,
                -1.789883694731651,
                1.6632024805315244,
                -0.7472254028714643,
                0.07309103463508762,
                -1.7465737981891118
            ]
        },
        {
            "positions": [
                0.45894012506202536,
                -1.8319079965669747,
                1.6418525110058595,
                -0.700396800811966,
                -0.034464518934693655,
                -1.657658310957966
            ]
        },
        {
            "positions": [
                0.5481743592303667,
                -1.8739322984022984,
                1.6205025414801946,
                -0.6535681987524675,
                -0.14202007250447496,
                -1.56874282372682
            ]
        },
        {
            "positions": [
                0.637408593398708,
                -1.915956600237622,
                1.5991525719545296,
                -0.6067395966929692,
                -0.24957562607425618,
                -1.479827336495674
            ]
        },
        {
            "positions": [
                0.7241840848942378,
                -1.9347110747831444,
                1.6484622219613274,
                -0.5598877202702569,
                -0.25332645213821936,
                -1.5279753593395815
            ]
        },
        {
            "positions": [
                0.7621081606909639,
                -1.9406507839205767,
                1.7274403752944072,
                -0.5304172351669088,
                -0.17766430920393034,
                -1.6787208274591485
            ]
        },
        {
            "positions": [
                0.80003223648769,
                -1.9465904930580091,
                1.806418528627487,
                -0.5009467500635607,
                -0.10200216626964131,
                -1.8294662955787153
            ]
        },
        {
            "positions": [
                0.8379563122844159,
                -1.9525302021954414,
                1.885396681960567,
                -0.47147626496021255,
                -0.02634002333535229,
                -1.9802117636982821
            ]
        },
        {
            "positions": [
                0.875880388081142,
                -1.9584699113328738,
                1.9643748352936468,
                -0.4420057798568644,
                0.04932211959893673,
                -2.130957231817849
            ]
        },
        {
            "positions": [
                0.9138044638778681,
                -1.964409620470306,
                2.0433529886267268,
                -0.41253529475351625,
                0.12498426253322581,
                -2.281702699937416
            ]
        },
        {
            "positions": [
                0.951728539674594,
                -1.9703493296077386,
                2.1223311419598065,
                -0.3830648096501682,
                0.20064640546751478,
                -2.432448168056983
            ]
        },
        {
            "positions": [
                0.9896526154713201,
                -1.9762890387451708,
                2.2013092952928863,
                -0.35359432454682005,
                0.27630854840180386,
                -2.58319363617655
            ]
        },
        {
            "positions": [
                1.0275766912680462,
                -1.9822287478826033,
                2.280287448625966,
                -0.3241238394434719,
                0.3519706913360928,
                -2.733939104296117
            ]
        },
        {
            "positions": [
                1.0655007670647723,
                -1.9881684570200355,
                2.359265601959046,
                -0.2946533543401238,
                0.4276328342703819,
                -2.8846845724156838
            ]
        },
        {
            "positions": [
                0.9451891523771009,
                -1.9619711605619048,
                2.3708801768334924,
                -0.3517913042693507,
                0.5181738357870328,
                -2.9717018391394965
            ]
        },
        {
            "positions": [
                0.8248775376894296,
                -1.935773864103774,
                2.3824947517079385,
                -0.40892925419857756,
                0.6087148373036837,
                -3.0587191058633096
            ]
        },
        {
            "positions": [
                0.7045659230017582,
                -1.9095765676456433,
                2.394109326582385,
                -0.46606720412780445,
                0.6992558388203347,
                -3.1457363725871224
            ]
        }
    ]
}