{
    "goal": {
        "global_pose": {
            "orientation": {
                "w": 0.7031023502349854,
                "x": -0.7110244035720825,
                "y": 0.007748599164187908,
                "z": 0.005598929710686207
            },
            "position": {
                "x": 0.11585023208521307,
                "y": 0.44412534475326537,
                "z": 0.3711530566215515
            }
        },
        "name": "move_to_auspresseinheit_A"
    },
    "id": "RRT_move_to_auspresseinheit_A_148",
    "joint_names": [
        "shoulder_pan_joint",
        "shoulder_lift_joint",
        "elbow_joint",
        "wrist_1_joint",
        "wrist_2_joint",
        "wrist_3_joint"
    ],
    "metrics": {
        "cart_traj_len": 2.116213590846754,
        "distance_elbow_joint": 0.39810334746135956,
        "distance_shoulder_lift_joint": 2.5207584335222877,
        "distance_shoulder_pan_joint": 3.0122433626278493,
        "distance_wrist_1_joint": 7.652439612503784,
        "distance_wrist_2_joint": 2.430231646841614,
        "distance_wrist_3_joint": 0.4696502731259633,
        "smoothness": 0.7875923393231651,
        "time": 4.776627734,
        "traj_len": 4.0599786546338965,
        "weighted_distance": 5.244558940624099
    },
    "planner": "RRT",
    "start": {
        "state": {
            "elbow_joint": 2.422574709923281,
            "shoulder_lift_joint": -1.3736533754116391,
            "shoulder_pan_joint": -0.33786336945926293,
            "wrist_1_joint": -1.0288603412921917,
            "wrist_2_joint": 1.2330224858903978,
            "wrist_3_joint": -3.094022268022082
        }
    },
    "waypoints": [
        {
            "positions": [
                -0.33786336945926293,
                -1.3736533754116391,
                2.422574709923281,
                -1.0288603412921917,
                1.2330224858903978,
                -3.094022268022082
            ]
        },
        {
            "positions": [
                -0.25667989112599265,
                -1.434738668814697,
                2.4298905756861617,
                -0.8642541467901788,
                1.1740587626396766,
                -3.104535341786784
            ]
        },
        {
            "positions": [
                -0.17549641279272238,
                -1.495823962217755,
                2.437206441449043,
                -0.6996479522881658,
                1.1150950393889552,
                -3.115048415551486
            ]
        },
        {
            "positions": [
                -0.09431293445945213,
                -1.5569092556208128,
                2.4445223072119235,
                -0.535041757786153,
                1.056131316138234,
                -3.125561489316188
            ]
        },
        {
            "positions": [
                -0.013129456126181827,
                -1.6179945490238707,
                2.451838172974804,
                -0.37043556328413996,
                0.9971675928875128,
                -3.1360745630808897
            ]
        },
        {
            "positions": [
                0.06805402220708845,
                -1.6790798424269289,
                2.4591540387376853,
                -0.2058293687821271,
                0.9382038696367915,
                -3.1465876368455916
            ]
        },
        {
            "positions": [
                0.14923750054035867,
                -1.7401651358299868,
                2.466469904500566,
                -0.04122317428011424,
                0.8792401463860703,
                -3.157100710610293
            ]
        },
        {
            "positions": [
                0.23042097887362906,
                -1.8012504292330447,
                2.473785770263447,
                0.12338302022189884,
                0.820276423135349,
                -3.167613784374995
            ]
        },
        {
            "positions": [
                0.3116044572068993,
                -1.8623357226361026,
                2.481101636026328,
                0.2879892147239118,
                0.7613126998846278,
                -3.178126858139697
            ]
        },
        {
            "positions": [
                0.3927879355401695,
                -1.9234210160391605,
                2.4884175017892085,
                0.45259540922592456,
                0.7023489766339065,
                -3.1886399319043988
            ]
        },
        {
            "positions": [
                0.47397141387343983,
                -1.9845063094422186,
                2.4957333675520896,
                0.6172016037279375,
                0.6433852533831852,
                -3.1991530056691007
            ]
        },
        {
            "positions": [
                0.55515489220671,
                -2.0455916028452763,
                2.5030492333149703,
                0.7818077982299505,
                0.584421530132464,
                -3.2096660794338026
            ]
        },
        {
            "positions": [
                0.6363383705399803,
                -2.1066768962483344,
                2.510365099077851,
                0.9464139927319632,
                0.5254578068817428,
                -3.2201791531985045
            ]
        },
        {
            "positions": [
                0.7175218488732507,
                -2.167762189651392,
                2.517680964840732,
                1.1110201872339762,
                0.4664940836310214,
                -3.2306922269632063
            ]
        },
        {
            "positions": [
                0.798705327206521,
                -2.2288474830544502,
                2.524996830603613,
                1.2756263817359894,
                0.4075303603803001,
                -3.2412053007279082
            ]
        },
        {
            "positions": [
                0.8798888055397911,
                -2.289932776457508,
                2.5323126963664935,
                1.4402325762380022,
                0.348566637129579,
                -3.25171837449261
            ]
        },
        {
            "positions": [
                0.9610722838730614,
                -2.351018069860566,
                2.5396285621293746,
                1.6048387707400154,
                0.2896029138788577,
                -3.262231448257312
            ]
        },
        {
            "positions": [
                1.0422557622063318,
                -2.4121033632636237,
                2.5469444278922553,
                1.769444965242028,
                0.23063919062813643,
                -3.272744522022014
            ]
        },
        {
            "positions": [
                1.1234392405396019,
                -2.473188656666682,
                2.554260293655136,
                1.9340511597440408,
                0.17167546737741524,
                -3.283257595786716
            ]
        },
        {
            "positions": [
                1.2046227188728722,
                -2.53427395006974,
                2.561576159418017,
                2.098657354246054,
                0.11271174412669405,
                -3.2937706695514173
            ]
        },
        {
            "positions": [
                1.2858061972061425,
                -2.5953592434727977,
                2.5688920251808978,
                2.263263548748067,
                0.053748020875972635,
                -3.304283743316119
            ]
        },
        {
            "positions": [
                1.3669896755394126,
                -2.6564445368758554,
                2.576207890943779,
                2.4278697432500795,
                -0.005215702374748554,
                -3.314796817080821
            ]
        },
        {
            "positions": [
                1.448173153872683,
                -2.717529830278914,
                2.5835237567066596,
                2.5924759377520927,
                -0.06417942562546974,
                -3.325309890845523
            ]
        },
        {
            "positions": [
                1.5293566322059533,
                -2.7786151236819716,
                2.5908396224695402,
                2.757082132254106,
                -0.12314314887619116,
                -3.335822964610225
            ]
        },
        {
            "positions": [
                1.6105401105392234,
                -2.8397004170850293,
                2.5981554882324214,
                2.9216883267561182,
                -0.18210687212691212,
                -3.3463360383749268
            ]
        },
        {
            "positions": [
                1.691723588872494,
                -2.9007857104880874,
                2.605471353995302,
                3.086294521258131,
                -0.24107059537763353,
                -3.3568491121396287
            ]
        },
        {
            "positions": [
                1.6371315664116,
                -2.8455842605744297,
                2.593515426029228,
                2.889778701816272,
                -0.18795178617910113,
                -3.345358921639161
            ]
        },
        {
            "positions": [
                1.5825395439507057,
                -2.790382810660772,
                2.5815594980631533,
                2.693262882374413,
                -0.13483297698056873,
                -3.3338687311386934
            ]
        },
        {
            "positions": [
                1.5279475214898117,
                -2.7351813607471143,
                2.5696035700970787,
                2.4967470629325543,
                -0.08171416778203633,
                -3.322378540638226
            ]
        },
        {
            "positions": [
                1.4733554990289175,
                -2.6799799108334565,
                2.5576476421310046,
                2.3002312434906953,
                -0.028595358583503927,
                -3.310888350137758
            ]
        },
        {
            "positions": [
                1.4187634765680235,
                -2.624778460919799,
                2.5456917141649305,
                2.1037154240488363,
                0.02452345061502853,
                -3.2993981596372906
            ]
        },
        {
            "positions": [
                1.3641714541071295,
                -2.569577011006141,
                2.533735786198856,
                1.9071996046069772,
                0.07764225981356088,
                -3.287907969136823
            ]
        },
        {
            "positions": [
                1.3095794316462352,
                -2.5143755610924834,
                2.5217798582327813,
                1.7106837851651182,
                0.13076106901209333,
                -3.2764177786363553
            ]
        },
        {
            "positions": [
                1.254987409185341,
                -2.4591741111788257,
                2.509823930266707,
                1.5141679657232594,
                0.18387987821062568,
                -3.2649275881358877
            ]
        },
        {
            "positions": [
                1.200395386724447,
                -2.4039726612651675,
                2.497868002300633,
                1.3176521462814004,
                0.23699868740915814,
                -3.2534373976354205
            ]
        },
        {
            "positions": [
                1.145803364263553,
                -2.34877121135151,
                2.4859120743345584,
                1.1211363268395413,
                0.2901174966076906,
                -3.241947207134953
            ]
        },
        {
            "positions": [
                1.0912113418026588,
                -2.293569761437852,
                2.473956146368484,
                0.9246205073976821,
                0.343236305806223,
                -3.2304570166344853
            ]
        },
        {
            "positions": [
                1.0366193193417648,
                -2.2383683115241944,
                2.4620002184024097,
                0.7281046879558235,
                0.3963551150047553,
                -3.2189668261340176
            ]
        },
        {
            "positions": [
                0.9820272968808706,
                -2.1831668616105366,
                2.4500442904363355,
                0.5315888685139645,
                0.4494739242032878,
                -3.20747663563355
            ]
        },
        {
            "positions": [
                0.9274352744199764,
                -2.127965411696879,
                2.438088362470261,
                0.33507304907210544,
                0.5025927334018202,
                -3.1959864451330824
            ]
        },
        {
            "positions": [
                0.8728432519590823,
                -2.072763961783221,
                2.4261324345041864,
                0.13855722963024641,
                0.5557115426003526,
                -3.1844962546326148
            ]
        },
        {
            "positions": [
                0.8182512294981883,
                -2.0175625118695635,
                2.414176506538112,
                -0.05795858981161217,
                0.6088303517988849,
                -3.173006064132147
            ]
        },
        {
            "positions": [
                0.7636592070372942,
                -1.9623610619559058,
                2.402220578572038,
                -0.2544744092534712,
                0.6619491609974174,
                -3.1615158736316795
            ]
        },
        {
            "positions": [
                0.7090671845764001,
                -1.907159612042248,
                2.3902646506059635,
                -0.4509902286953302,
                0.7150679701959498,
                -3.150025683131212
            ]
        }
    ]
}