{
    "goal": {
        "global_pose": {
            "orientation": {
                "w": 0.7047431468963623,
                "x": -0.7094548344612122,
                "y": 0.0024358443915843964,
                "z": -0.0022348060738295317
            },
            "position": {
                "x": 0.6094750761985779,
                "y": 0.3671506643295288,
                "z": 0.19426114857196808
            }
        },
        "name": "move_to_magneteinheit_A"
    },
    "id": "RRT_move_to_magneteinheit_A_109",
    "joint_names": [
        "shoulder_pan_joint",
        "shoulder_lift_joint",
        "elbow_joint",
        "wrist_1_joint",
        "wrist_2_joint",
        "wrist_3_joint"
    ],
    "metrics": {
        "cart_traj_len": 1.8775562754170236,
        "distance_elbow_joint": 3.91657713607218,
        "distance_shoulder_lift_joint": 0.7017743459926296,
        "distance_shoulder_pan_joint": 1.2428082393102318,
        "distance_wrist_1_joint": 1.5025955619390892,
        "distance_wrist_2_joint": 1.7089121559140905,
        "distance_wrist_3_joint": 1.1182102386113713,
        "smoothness": 5.263279528711088e-16,
        "time": 0.055926634,
        "traj_len": 3.192315410143489,
        "weighted_distance": 3.9545930097692117
    },
    "planner": "RRT",
    "start": {
        "state": {
            "elbow_joint": -1.919643507792019,
            "shoulder_lift_joint": -0.07675430207160344,
            "shoulder_pan_joint": -1.1188671864651873,
            "wrist_1_joint": 0.42560062535961957,
            "wrist_2_joint": 1.5706038300724876,
            "wrist_3_joint": 1.1188968870953055
        }
    },
    "waypoints": [
        {
            "positions": [
                -1.1188671864651873,
                -0.07675430207160344,
                -1.919643507792019,
                0.42560062535961957,
                1.5706038300724876,
                1.1188968870953055
            ]
        },
        {
            "positions": [
                -1.07106686956864,
                -0.10374562307131996,
                -1.7690059256353967,
                0.48339276235727685,
                1.5048764394604073,
                1.0758888009948682
            ]
        },
        {
            "positions": [
                -1.0232665526720925,
                -0.13073694407103648,
                -1.6183683434787746,
                0.5411848993549341,
                1.4391490488483267,
                1.0328807148944308
            ]
        },
        {
            "positions": [
                -0.9754662357755453,
                -0.157728265070753,
                -1.4677307613221522,
                0.5989770363525914,
                1.3734216582362464,
                0.9898726287939935
            ]
        },
        {
            "positions": [
                -0.9276659188789979,
                -0.18471958607046954,
                -1.3170931791655298,
                0.6567691733502486,
                1.307694267624166,
                0.9468645426935561
            ]
        },
        {
            "positions": [
                -0.8798656019824505,
                -0.21171090707018606,
                -1.1664555970089077,
                0.714561310347906,
                1.2419668770120855,
                0.9038564565931188
            ]
        },
        {
            "positions": [
                -0.832065285085903,
                -0.23870222806990257,
                -1.015818014852285,
                0.7723534473455632,
                1.1762394864000052,
                0.8608483704926815
            ]
        },
        {
            "positions": [
                -0.7842649681893558,
                -0.26569354906961906,
                -0.8651804326956629,
                0.8301455843432205,
                1.1105120957879249,
                0.8178402843922441
            ]
        },
        {
            "positions": [
                -0.7364646512928084,
                -0.29268487006933563,
                -0.7145428505390405,
                0.8879377213408778,
                1.0447847051758443,
                0.7748321982918067
            ]
        },
        {
            "positions": [
                -0.688664334396261,
                -0.3196761910690521,
                -0.5639052683824184,
                0.945729858338535,
                0.979057314563764,
                0.7318241121913693
            ]
        },
        {
            "positions": [
                -0.6408640174997136,
                -0.34666751206876867,
                -0.413267686225796,
                1.0035219953361925,
                0.9133299239516836,
                0.688816026090932
            ]
        },
        {
            "positions": [
                -0.5930637006031663,
                -0.3736588330684852,
                -0.26263010406917364,
                1.0613141323338495,
                0.8476025333396031,
                0.6458079399904946
            ]
        },
        {
            "positions": [
                -0.5452633837066188,
                -0.4006501540682017,
                -0.11199252191255127,
                1.1191062693315068,
                0.7818751427275227,
                0.6027998538900573
            ]
        },
        {
            "positions": [
                -0.49746306681007146,
                -0.4276414750679182,
                0.038645060244070883,
                1.176898406329164,
                0.7161477521154423,
                0.5597917677896199
            ]
        },
        {
            "positions": [
                -0.4496627499135242,
                -0.45463279606763474,
                0.18928264240069326,
                1.2346905433268214,
                0.650420361503362,
                0.5167836816891825
            ]
        },
        {
            "positions": [
                -0.40186243301697677,
                -0.48162411706735125,
                0.3399202245573154,
                1.2924826803244787,
                0.5846929708912816,
                0.47377559558874527
            ]
        },
        {
            "positions": [
                -0.35406211612042926,
                -0.5086154380670678,
                0.490557806713938,
                1.350274817322136,
                0.518965580279201,
                0.4307675094883078
            ]
        },
        {
            "positions": [
                -0.30626179922388197,
                -0.5356067590667843,
                0.6411953888705602,
                1.4080669543197932,
                0.4532381896671207,
                0.3877594233878705
            ]
        },
        {
            "positions": [
                -0.25846148232733457,
                -0.5625980800665008,
                0.7918329710271823,
                1.4658590913174505,
                0.3875107990550404,
                0.3447513372874331
            ]
        },
        {
            "positions": [
                -0.21066116543078728,
                -0.5895894010662173,
                0.9424705531838045,
                1.5236512283151078,
                0.32178340844296005,
                0.30174325118699585
            ]
        },
        {
            "positions": [
                -0.16286084853423977,
                -0.6165807220659338,
                1.093108135340427,
                1.5814433653127653,
                0.2560560178308795,
                0.25873516508655836
            ]
        },
        {
            "positions": [
                -0.11506053163769248,
                -0.6435720430656504,
                1.2437457174970492,
                1.6392355023104224,
                0.19032862721879917,
                0.2157270789861211
            ]
        },
        {
            "positions": [
                -0.06726021474114519,
                -0.670563364065367,
                1.3943832996536718,
                1.6970276393080796,
                0.12460123660671862,
                0.1727189928856837
            ]
        },
        {
            "positions": [
                -0.019459897844597673,
                -0.6975546850650833,
                1.545020881810294,
                1.754819776305737,
                0.058873845994638296,
                0.12971090678524644
            ]
        },
        {
            "positions": [
                0.02834041905194984,
                -0.7245460060647999,
                1.6956584639669166,
                1.8126119133033942,
                -0.006853544617442253,
                0.08670282068480906
            ]
        },
        {
            "positions": [
                0.07614073594849713,
                -0.7515373270645165,
                1.8462960461235387,
                1.8704040503010515,
                -0.07258093522952258,
                0.043694734584371675
            ]
        },
        {
            "positions": [
                0.12394105284504452,
                -0.778528648064233,
                1.9969336282801609,
                1.9281961872987088,
                -0.13830832584160282,
                0.0006866484839343159
            ]
        }
    ]
}