{
    "goal": {
        "global_pose": {
            "orientation": {
                "w": 0.5084816217422485,
                "x": -0.49083608388900757,
                "y": 0.5182115435600281,
                "z": -0.4816462993621826
            },
            "position": {
                "x": 0.5540239810943604,
                "y": 0.030875300988554955,
                "z": 0.16403168439865112
            }
        },
        "name": "move_to_storage_A"
    },
    "id": "RRT_move_to_storage_A_16",
    "joint_names": [
        "shoulder_pan_joint",
        "shoulder_lift_joint",
        "elbow_joint",
        "wrist_1_joint",
        "wrist_2_joint",
        "wrist_3_joint"
    ],
    "metrics": {
        "cart_traj_len": 0.3524074726118569,
        "distance_elbow_joint": 0.4516386383762412,
        "distance_shoulder_lift_joint": 0.23219920524073379,
        "distance_shoulder_pan_joint": 0.4615667890745636,
        "distance_wrist_1_joint": 0.25828437169254925,
        "distance_wrist_2_joint": 1.0929032553467264,
        "distance_wrist_3_joint": 0.11058526536575508,
        "smoothness": 0.0,
        "time": 0.020718051,
        "traj_len": 1.6146756717980764,
        "weighted_distance": 2.0443912744059918
    },
    "planner": "RRT",
    "start": {
        "state": {
            "elbow_joint": 1.9715463870305268,
            "shoulder_lift_joint": -1.1394903361783484,
            "shoulder_pan_joint": 0.12281147578464417,
            "wrist_1_joint": -0.7804599489681411,
            "wrist_2_joint": 0.12958660307563738,
            "wrist_3_joint": -3.1924946282119055
        }
    },
    "waypoints": [
        {
            "positions": [
                0.12281147578464417,
                -1.1394903361783484,
                1.9715463870305268,
                -0.7804599489681411,
                0.12958660307563738,
                -3.1924946282119055
            ]
        },
        {
            "positions": [
                0.056873363059706514,
                -1.172661651212739,
                2.036066192512847,
                -0.817357716352791,
                0.28571563955374113,
                -3.176696733159655
            ]
        },
        {
            "positions": [
                -0.009064749665231145,
                -1.2058329662471294,
                2.100585997995167,
                -0.8542554837374409,
                0.44184467603184485,
                -3.160898838107404
            ]
        },
        {
            "positions": [
                -0.0750028623901688,
                -1.23900428128152,
                2.1651058034774873,
                -0.8911532511220908,
                0.5979737125099487,
                -3.1451009430551533
            ]
        },
        {
            "positions": [
                -0.14094097511510645,
                -1.2721755963159105,
                2.2296256089598074,
                -0.9280510185067407,
                0.7541027489880524,
                -3.1293030480029027
            ]
        },
        {
            "positions": [
                -0.2068790878400441,
                -1.3053469113503011,
                2.2941454144421276,
                -0.9649487858913905,
                0.9102317854661562,
                -3.113505152950652
            ]
        },
        {
            "positions": [
                -0.27281720056498177,
                -1.3385182263846915,
                2.3586652199244478,
                -1.0018465532760406,
                1.06636082194426,
                -3.097707257898401
            ]
        },
        {
            "positions": [
                -0.3387553132899194,
                -1.3716895414190822,
                2.423185025406768,
                -1.0387443206606903,
                1.2224898584223638,
                -3.0819093628461505
            ]
        }
    ]
}