{
    "goal": {
        "global_pose": {
            "orientation": {
                "w": 0.7031023502349854,
                "x": -0.7110244035720825,
                "y": 0.007748599164187908,
                "z": 0.005598929710686207
            },
            "position": {
                "x": 0.11585023208521307,
                "y": 0.44412534475326537,
                "z": 0.3711530566215515
            }
        },
        "name": "move_to_auspresseinheit_A"
    },
    "id": "RRT_move_to_auspresseinheit_A_61",
    "joint_names": [
        "shoulder_pan_joint",
        "shoulder_lift_joint",
        "elbow_joint",
        "wrist_1_joint",
        "wrist_2_joint",
        "wrist_3_joint"
    ],
    "metrics": {
        "cart_traj_len": 2.2899795808412295,
        "distance_elbow_joint": 3.4074311151105774,
        "distance_shoulder_lift_joint": 0.6453858615197681,
        "distance_shoulder_pan_joint": 1.4232585163829412,
        "distance_wrist_1_joint": 2.3538717685965773,
        "distance_wrist_2_joint": 1.0769053276418155,
        "distance_wrist_3_joint": 4.054933764975876,
        "smoothness": 0.6720844901411053,
        "time": 1.8128050549999999,
        "traj_len": 3.600248096204976,
        "weighted_distance": 4.94999302832011
    },
    "planner": "RRT",
    "start": {
        "state": {
            "elbow_joint": 2.422574709923281,
            "shoulder_lift_joint": -1.3736533754116391,
            "shoulder_pan_joint": -0.33786336945926293,
            "wrist_1_joint": -1.0288603412921917,
            "wrist_2_joint": 1.2330224858903978,
            "wrist_3_joint": -3.094022268022082
        }
    },
    "waypoints": [
        {
            "positions": [
                -0.33786336945926293,
                -1.3736533754116391,
                2.422574709923281,
                -1.0288603412921917,
                1.2330224858903978,
                -3.094022268022082
            ]
        },
        {
            "positions": [
                -0.2939052562890901,
                -1.3884467651244807,
                2.327001865890726,
                -0.9517583697279188,
                1.1950423221017763,
                -2.98263468151015
            ]
        },
        {
            "positions": [
                -0.2499471431189172,
                -1.4032401548373221,
                2.2314290218581707,
                -0.874656398163646,
                1.1570621583131548,
                -2.871247094998218
            ]
        },
        {
            "positions": [
                -0.20598902994874435,
                -1.4180335445501637,
                2.1358561778256155,
                -0.7975544265993733,
                1.1190819945245334,
                -2.759859508486286
            ]
        },
        {
            "positions": [
                -0.16203091677857148,
                -1.4328269342630051,
                2.0402833337930604,
                -0.7204524550351004,
                1.081101830735912,
                -2.648471921974354
            ]
        },
        {
            "positions": [
                -0.11807280360839859,
                -1.4476203239758467,
                1.944710489760505,
                -0.6433504834708275,
                1.0431216669472905,
                -2.5370843354624215
            ]
        },
        {
            "positions": [
                -0.07411469043822577,
                -1.462413713688688,
                1.8491376457279498,
                -0.5662485119065547,
                1.005141503158669,
                -2.4256967489504895
            ]
        },
        {
            "positions": [
                -0.030156577268052875,
                -1.4772071034015297,
                1.7535648016953944,
                -0.4891465403422818,
                0.9671613393700474,
                -2.3143091624385574
            ]
        },
        {
            "positions": [
                0.013801535902119966,
                -1.492000493114371,
                1.6579919576628392,
                -0.412044568778009,
                0.929181175581426,
                -2.2029215759266254
            ]
        },
        {
            "positions": [
                0.05775964907229286,
                -1.5067938828272127,
                1.562419113630284,
                -0.3349425972137361,
                0.8912010117928044,
                -2.0915339894146934
            ]
        },
        {
            "positions": [
                0.10171776224246576,
                -1.5215872725400543,
                1.466846269597729,
                -0.2578406256494632,
                0.853220848004183,
                -1.9801464029027613
            ]
        },
        {
            "positions": [
                0.14567587541263866,
                -1.5363806622528957,
                1.3712734255651735,
                -0.1807386540851903,
                0.8152406842155615,
                -1.868758816390829
            ]
        },
        {
            "positions": [
                0.18963398858281139,
                -1.5511740519657373,
                1.2757005815326186,
                -0.10363668252091762,
                0.77726052042694,
                -1.7573712298788973
            ]
        },
        {
            "positions": [
                0.23359210175298434,
                -1.5659674416785787,
                1.1801277375000632,
                -0.026534710956644725,
                0.7392803566383186,
                -1.645983643366965
            ]
        },
        {
            "positions": [
                0.2775502149231572,
                -1.5807608313914203,
                1.084554893467508,
                0.05056726060762817,
                0.7013001928496971,
                -1.534596056855033
            ]
        },
        {
            "positions": [
                0.32150832809333013,
                -1.5955542211042617,
                0.9889820494349526,
                0.12766923217190107,
                0.6633200290610756,
                -1.4232084703431007
            ]
        },
        {
            "positions": [
                0.36546644126350286,
                -1.6103476108171033,
                0.8934092054023977,
                0.20477120373617375,
                0.6253398652724542,
                -1.311820883831169
            ]
        },
        {
            "positions": [
                0.4094245544336758,
                -1.6251410005299447,
                0.7978363613698423,
                0.28187317530044664,
                0.5873597014838327,
                -1.2004332973192366
            ]
        },
        {
            "positions": [
                0.4533826676038486,
                -1.6399343902427863,
                0.702263517337287,
                0.35897514686471954,
                0.5493795376952112,
                -1.0890457108073044
            ]
        },
        {
            "positions": [
                0.5086157468775276,
                -1.6698475529938752,
                0.8244844013635539,
                0.3685155733278324,
                0.5346431950648276,
                -1.206756302104492
            ]
        },
        {
            "positions": [
                0.5638488261512068,
                -1.6997607157449643,
                0.9467052853898209,
                0.3780559997909453,
                0.5199068524344441,
                -1.3244668934016797
            ]
        },
        {
            "positions": [
                0.619081905424886,
                -1.7296738784960533,
                1.0689261694160879,
                0.38759642625405816,
                0.5051705098040605,
                -1.4421774846988673
            ]
        },
        {
            "positions": [
                0.674314984698565,
                -1.7595870412471424,
                1.1911470534423547,
                0.39713685271717103,
                0.49043416717367694,
                -1.5598880759960552
            ]
        },
        {
            "positions": [
                0.729548063972244,
                -1.7895002039982313,
                1.3133679374686218,
                0.40667727918028396,
                0.47569782454329335,
                -1.6775986672932426
            ]
        },
        {
            "positions": [
                0.7847811432459232,
                -1.8194133667493202,
                1.4355888214948886,
                0.41621770564339683,
                0.4609614819129098,
                -1.7953092585904304
            ]
        },
        {
            "positions": [
                0.8400142225196023,
                -1.8493265295004093,
                1.5578097055211555,
                0.4257581321065097,
                0.4462251392825263,
                -1.913019849887618
            ]
        },
        {
            "positions": [
                0.8952473017932814,
                -1.8792396922514982,
                1.6800305895474226,
                0.4352985585696226,
                0.4314887966521427,
                -2.0307304411848057
            ]
        },
        {
            "positions": [
                0.8845440817756286,
                -1.8930544403256697,
                1.7785002479345176,
                0.3476255197196554,
                0.4490917819119022,
                -2.1532625281673914
            ]
        },
        {
            "positions": [
                0.8738408617579757,
                -1.9068691883998412,
                1.8769699063216128,
                0.25995248086968814,
                0.46669476717166164,
                -2.2757946151499775
            ]
        },
        {
            "positions": [
                0.8631376417403229,
                -1.920683936474013,
                1.975439564708708,
                0.17227944201972095,
                0.48429775243142115,
                -2.398326702132563
            ]
        },
        {
            "positions": [
                0.8524344217226701,
                -1.9344986845481844,
                2.0739092230958027,
                0.08460640316975376,
                0.5019007376911806,
                -2.520858789115149
            ]
        },
        {
            "positions": [
                0.8417312017050173,
                -1.948313432622356,
                2.172378881482898,
                -0.003066635680213481,
                0.5195037229509402,
                -2.643390876097735
            ]
        },
        {
            "positions": [
                0.8310279816873645,
                -1.9621281806965274,
                2.270848539869993,
                -0.09073967453018071,
                0.5371067082106996,
                -2.7659229630803206
            ]
        },
        {
            "positions": [
                0.7995458504312445,
                -1.9479004166378076,
                2.300482264867963,
                -0.18165833343892068,
                0.5795451399219504,
                -2.859192951952341
            ]
        },
        {
            "positions": [
                0.7680637191751246,
                -1.9336726525790875,
                2.3301159898659325,
                -0.27257699234766064,
                0.6219835716332013,
                -2.9524629408243612
            ]
        },
        {
            "positions": [
                0.7365815879190047,
                -1.9194448885203674,
                2.3597497148639017,
                -0.36349565125640065,
                0.6644220033444521,
                -3.0457329296963813
            ]
        },
        {
            "positions": [
                0.7050994566628848,
                -1.9052171244616476,
                2.3893834398618714,
                -0.4544143101651406,
                0.706860435055703,
                -3.139002918568402
            ]
        }
    ]
}