{
    "goal": {
        "global_pose": {
            "orientation": {
                "w": 0.7047431468963623,
                "x": -0.7094548344612122,
                "y": 0.0024358443915843964,
                "z": -0.0022348060738295317
            },
            "position": {
                "x": 0.6094750761985779,
                "y": 0.3671506643295288,
                "z": 0.19426114857196808
            }
        },
        "name": "move_to_magneteinheit_A"
    },
    "id": "RRT_move_to_magneteinheit_A_103",
    "joint_names": [
        "shoulder_pan_joint",
        "shoulder_lift_joint",
        "elbow_joint",
        "wrist_1_joint",
        "wrist_2_joint",
        "wrist_3_joint"
    ],
    "metrics": {
        "cart_traj_len": 1.8693620685785826,
        "distance_elbow_joint": 3.9323997109512767,
        "distance_shoulder_lift_joint": 0.7088923226605024,
        "distance_shoulder_pan_joint": 1.2425678700250615,
        "distance_wrist_1_joint": 1.5699328438335662,
        "distance_wrist_2_joint": 1.7040541417103106,
        "distance_wrist_3_joint": 1.1984264836487974,
        "smoothness": 3.4892723817896226e-16,
        "time": 0.42205325299999996,
        "traj_len": 3.2181164324538534,
        "weighted_distance": 4.0033877311186075
    },
    "planner": "RRT",
    "start": {
        "state": {
            "elbow_joint": -1.919643507792019,
            "shoulder_lift_joint": -0.07675430207160344,
            "shoulder_pan_joint": -1.1188671864651873,
            "wrist_1_joint": 0.42560062535961957,
            "wrist_2_joint": 1.5706038300724876,
            "wrist_3_joint": 1.1188968870953055
        }
    },
    "waypoints": [
        {
            "positions": [
                -1.1188671864651873,
                -0.07675430207160344,
                -1.919643507792019,
                0.42560062535961957,
                1.5706038300724876,
                1.1188968870953055
            ]
        },
        {
            "positions": [
                -1.0728461542420369,
                -0.10300957328125168,
                -1.7739990740530829,
                0.4837462862423442,
                1.5074907137128464,
                1.074510721034239
            ]
        },
        {
            "positions": [
                -1.0268251220188864,
                -0.12926484449089992,
                -1.6283546403141467,
                0.5418919471250689,
                1.4443775973532054,
                1.0301245549731723
            ]
        },
        {
            "positions": [
                -0.9808040897957361,
                -0.15552011570054813,
                -1.4827102065752107,
                0.6000376080077936,
                1.3812644809935641,
                0.9857383889121059
            ]
        },
        {
            "positions": [
                -0.9347830575725856,
                -0.1817753869101964,
                -1.3370657728362745,
                0.6581832688905183,
                1.3181513646339231,
                0.9413522228510393
            ]
        },
        {
            "positions": [
                -0.8887620253494353,
                -0.2080306581198446,
                -1.1914213390973383,
                0.7163289297732429,
                1.255038248274282,
                0.8969660567899727
            ]
        },
        {
            "positions": [
                -0.8427409931262848,
                -0.23428592932949285,
                -1.045776905358402,
                0.7744745906559676,
                1.191925131914641,
                0.8525798907289062
            ]
        },
        {
            "positions": [
                -0.7967199609031343,
                -0.2605412005391411,
                -0.9001324716194659,
                0.8326202515386922,
                1.1288120155549997,
                0.8081937246678396
            ]
        },
        {
            "positions": [
                -0.7506989286799839,
                -0.2867964717487893,
                -0.7544880378805296,
                0.8907659124214169,
                1.0656988991953584,
                0.763807558606773
            ]
        },
        {
            "positions": [
                -0.7046778964568335,
                -0.3130517429584376,
                -0.6088436041415937,
                0.9489115733041416,
                1.0025857828357174,
                0.7194213925457065
            ]
        },
        {
            "positions": [
                -0.6586568642336831,
                -0.3393070141680858,
                -0.46319917040265746,
                1.0070572341868662,
                0.9394726664760763,
                0.6750352264846399
            ]
        },
        {
            "positions": [
                -0.6126358320105327,
                -0.36556228537773405,
                -0.31755473666372125,
                1.0652028950695909,
                0.8763595501164352,
                0.6306490604235733
            ]
        },
        {
            "positions": [
                -0.5666147997873823,
                -0.39181755658738227,
                -0.17191030292478504,
                1.1233485559523155,
                0.8132464337567941,
                0.5862628943625067
            ]
        },
        {
            "positions": [
                -0.5205937675642318,
                -0.4180728277970305,
                -0.026265869185848834,
                1.1814942168350404,
                0.7501333173971529,
                0.5418767283014402
            ]
        },
        {
            "positions": [
                -0.47457273534108135,
                -0.44432809900667875,
                0.11937856455308737,
                1.239639877717765,
                0.6870202010375118,
                0.4974905622403736
            ]
        },
        {
            "positions": [
                -0.4285517031179309,
                -0.470583370216327,
                0.2650229982920236,
                1.2977855386004897,
                0.6239070846778706,
                0.453104396179307
            ]
        },
        {
            "positions": [
                -0.38253067089478054,
                -0.4968386414259752,
                0.4106674320309598,
                1.3559311994832144,
                0.5607939683182295,
                0.4087182301182405
            ]
        },
        {
            "positions": [
                -0.3365096386716301,
                -0.5230939126356235,
                0.556311865769896,
                1.414076860365939,
                0.49768085195858824,
                0.3643320640571738
            ]
        },
        {
            "positions": [
                -0.29048860644847974,
                -0.5493491838452718,
                0.7019562995088318,
                1.4722225212486637,
                0.43456773559894724,
                0.3199458979961073
            ]
        },
        {
            "positions": [
                -0.24446757422532917,
                -0.57560445505492,
                0.8476007332477684,
                1.5303681821313886,
                0.371454619239306,
                0.2755597319350407
            ]
        },
        {
            "positions": [
                -0.19844654200217882,
                -0.6018597262645682,
                0.9932451669867042,
                1.588513843014113,
                0.308341502879665,
                0.2311735658739742
            ]
        },
        {
            "positions": [
                -0.15242550977902836,
                -0.6281149974742164,
                1.1388896007256408,
                1.646659503896838,
                0.24522838652002377,
                0.18678739981290748
            ]
        },
        {
            "positions": [
                -0.10640447755587812,
                -0.6543702686838646,
                1.2845340344645766,
                1.7048051647795623,
                0.18211527016038276,
                0.142401233751841
            ]
        },
        {
            "positions": [
                -0.06038344533272744,
                -0.6806255398935128,
                1.4301784682035128,
                1.7629508256622872,
                0.11900215380074153,
                0.09801506769077428
            ]
        },
        {
            "positions": [
                -0.014362413109577199,
                -0.706880811103161,
                1.575822901942449,
                1.8210964865450117,
                0.05588903744110052,
                0.05362890162970779
            ]
        },
        {
            "positions": [
                0.03165861911357326,
                -0.7331360823128095,
                1.7214673356813852,
                1.8792421474277365,
                -0.007224078918540711,
                0.009242735568641303
            ]
        },
        {
            "positions": [
                0.07767965133672372,
                -0.7593913535224575,
                1.8671117694203214,
                1.9373878083104612,
                -0.07033719527818172,
                -0.03514343049242519
            ]
        },
        {
            "positions": [
                0.12370068355987422,
                -0.7856466247321059,
                2.0127562031592574,
                1.9955334691931859,
                -0.13345031163782287,
                -0.07952959655349197
            ]
        }
    ]
}