{
    "goal": {
        "global_pose": {
            "orientation": {
                "w": 0.7031023502349854,
                "x": -0.7110244035720825,
                "y": 0.007748599164187908,
                "z": 0.005598929710686207
            },
            "position": {
                "x": 0.11585023208521307,
                "y": 0.44412534475326537,
                "z": 0.3711530566215515
            }
        },
        "name": "move_to_auspresseinheit_A"
    },
    "id": "RRT_move_to_auspresseinheit_A_113",
    "joint_names": [
        "shoulder_pan_joint",
        "shoulder_lift_joint",
        "elbow_joint",
        "wrist_1_joint",
        "wrist_2_joint",
        "wrist_3_joint"
    ],
    "metrics": {
        "cart_traj_len": 0.7383153783665769,
        "distance_elbow_joint": 0.033092532727443835,
        "distance_shoulder_lift_joint": 0.8756307790414593,
        "distance_shoulder_pan_joint": 1.0448948049893576,
        "distance_wrist_1_joint": 1.3658947341394725,
        "distance_wrist_2_joint": 0.5264764849681495,
        "distance_wrist_3_joint": 0.32585088492620473,
        "smoothness": 0.8789403382630294,
        "time": 4.890807316999999,
        "traj_len": 2.042508315966446,
        "weighted_distance": 2.5915079026991448
    },
    "planner": "RRT",
    "start": {
        "state": {
            "elbow_joint": 2.422574709923281,
            "shoulder_lift_joint": -1.3736533754116391,
            "shoulder_pan_joint": -0.33786336945926293,
            "wrist_1_joint": -1.0288603412921917,
            "wrist_2_joint": 1.2330224858903978,
            "wrist_3_joint": -3.094022268022082
        }
    },
    "waypoints": [
        {
            "positions": [
                -0.33786336945926293,
                -1.3736533754116391,
                2.422574709923281,
                -1.0288603412921917,
                1.2330224858903978,
                -3.094022268022082
            ]
        },
        {
            "positions": [
                -0.3302389608669432,
                -1.4910919321564795,
                2.4171145929175433,
                -0.8669142455069906,
                1.1865687210923928,
                -3.071585684175392
            ]
        },
        {
            "positions": [
                -0.32261455227462343,
                -1.60853048890132,
                2.411654475911806,
                -0.7049681497217894,
                1.1401149562943875,
                -3.049149100328702
            ]
        },
        {
            "positions": [
                -0.3149901436823037,
                -1.7259690456461605,
                2.4061943589060686,
                -0.5430220539365883,
                1.0936611914963825,
                -3.0267125164820117
            ]
        },
        {
            "positions": [
                -0.307365735089984,
                -1.8434076023910009,
                2.400734241900331,
                -0.3810759581513872,
                1.0472074266983775,
                -3.0042759326353217
            ]
        },
        {
            "positions": [
                -0.2997413264976642,
                -1.9608461591358415,
                2.395274124894593,
                -0.21912986236618603,
                1.0007536619003723,
                -2.9818393487886317
            ]
        },
        {
            "positions": [
                -0.2921169179053445,
                -2.078284715880682,
                2.3898140078888557,
                -0.05718376658098484,
                0.9542998971023673,
                -2.9594027649419417
            ]
        },
        {
            "positions": [
                -0.1255921923327713,
                -2.0497848094519457,
                2.389869313004359,
                -0.12288679315236245,
                0.9130075810723475,
                -2.9912746619162855
            ]
        },
        {
            "positions": [
                0.040932533239801894,
                -2.0212849030232096,
                2.3899246181198617,
                -0.18858981972374006,
                0.8717152650423277,
                -3.02314655889063
            ]
        },
        {
            "positions": [
                0.20745725881237514,
                -1.9927849965944735,
                2.389979923235365,
                -0.2542928462951177,
                0.8304229490123078,
                -3.055018455864974
            ]
        },
        {
            "positions": [
                0.3739819843849483,
                -1.9642850901657376,
                2.390035228350868,
                -0.3199958728664953,
                0.789130632982288,
                -3.0868903528393177
            ]
        },
        {
            "positions": [
                0.5405067099575216,
                -1.9357851837370015,
                2.390090533466371,
                -0.38569889943787294,
                0.7478383169522681,
                -3.118762249813662
            ]
        },
        {
            "positions": [
                0.7070314355300947,
                -1.9072852773082654,
                2.390145838581874,
                -0.45140192600925055,
                0.7065460009222483,
                -3.150634146788006
            ]
        }
    ]
}