{
    "goal": {
        "global_pose": {
            "orientation": {
                "w": 0.7047431468963623,
                "x": -0.7094548344612122,
                "y": 0.0024358443915843964,
                "z": -0.0022348060738295317
            },
            "position": {
                "x": 0.6094750761985779,
                "y": 0.3671506643295288,
                "z": 0.19426114857196808
            }
        },
        "name": "move_to_magneteinheit_A"
    },
    "id": "RRT_move_to_magneteinheit_A_53",
    "joint_names": [
        "shoulder_pan_joint",
        "shoulder_lift_joint",
        "elbow_joint",
        "wrist_1_joint",
        "wrist_2_joint",
        "wrist_3_joint"
    ],
    "metrics": {
        "cart_traj_len": 2.0692748277205615,
        "distance_elbow_joint": 3.906403698865792,
        "distance_shoulder_lift_joint": 1.0812451744114087,
        "distance_shoulder_pan_joint": 1.241984770988019,
        "distance_wrist_1_joint": 1.329148444965141,
        "distance_wrist_2_joint": 1.436959018065927,
        "distance_wrist_3_joint": 4.253419027564707,
        "smoothness": 0.13414311134222842,
        "time": 0.11398592199999999,
        "traj_len": 3.6399395784629447,
        "weighted_distance": 4.951979973002866
    },
    "planner": "RRT",
    "start": {
        "state": {
            "elbow_joint": -1.919643507792019,
            "shoulder_lift_joint": -0.07675430207160344,
            "shoulder_pan_joint": -1.1188671864651873,
            "wrist_1_joint": 0.42560062535961957,
            "wrist_2_joint": 1.5706038300724876,
            "wrist_3_joint": 1.1188968870953055
        }
    },
    "waypoints": [
        {
            "positions": [
                -1.1188671864651873,
                -0.07675430207160344,
                -1.919643507792019,
                0.42560062535961957,
                1.5706038300724876,
                1.1188968870953055
            ]
        },
        {
            "positions": [
                -1.083030766124905,
                -0.10837955679022747,
                -1.8055562406032317,
                0.3872923370414809,
                1.5293373105692698,
                0.9950186295251462
            ]
        },
        {
            "positions": [
                -1.0471943457846224,
                -0.1400048115088515,
                -1.6914689734144441,
                0.34898404872334227,
                1.4880707910660522,
                0.8711403719549868
            ]
        },
        {
            "positions": [
                -1.0113579254443401,
                -0.1716300662274755,
                -1.5773817062256568,
                0.3106757604052036,
                1.4468042715628344,
                0.7472621143848275
            ]
        },
        {
            "positions": [
                -0.9755215051040576,
                -0.20325532094609955,
                -1.4632944390368694,
                0.272367472087065,
                1.4055377520596166,
                0.6233838568146681
            ]
        },
        {
            "positions": [
                -0.9396850847637751,
                -0.23488057566472356,
                -1.3492071718480818,
                0.23405918376892632,
                1.364271232556399,
                0.49950559924450877
            ]
        },
        {
            "positions": [
                -0.9038486644234927,
                -0.26650583038334763,
                -1.2351199046592942,
                0.19575089545078767,
                1.3230047130531812,
                0.3756273416743494
            ]
        },
        {
            "positions": [
                -0.8680122440832103,
                -0.2981310851019716,
                -1.121032637470507,
                0.15744260713264907,
                1.2817381935499634,
                0.25174908410419006
            ]
        },
        {
            "positions": [
                -0.8321758237429278,
                -0.32975633982059566,
                -1.0069453702817195,
                0.11913431881451042,
                1.2404716740467459,
                0.1278708265340307
            ]
        },
        {
            "positions": [
                -0.7963394034026454,
                -0.36138159453921964,
                -0.8928581030929319,
                0.08082603049637171,
                1.199205154543528,
                0.003992568963871346
            ]
        },
        {
            "positions": [
                -0.7605029830623629,
                -0.3930068492578437,
                -0.7787708359041445,
                0.042517742178233064,
                1.1579386350403102,
                -0.11988568860628801
            ]
        },
        {
            "positions": [
                -0.7246665627220805,
                -0.4246321039764677,
                -0.6646835687153569,
                0.004209453860094414,
                1.1166721155370927,
                -0.24376394617644737
            ]
        },
        {
            "positions": [
                -0.688830142381798,
                -0.45625735869509176,
                -0.5505963015265696,
                -0.034098834458044236,
                1.0754055960338749,
                -0.3676422037466067
            ]
        },
        {
            "positions": [
                -0.6529937220415156,
                -0.48788261341371575,
                -0.4365090343377822,
                -0.07240712277618283,
                1.0341390765306573,
                -0.4915204613167661
            ]
        },
        {
            "positions": [
                -0.6171573017012332,
                -0.5195078681323397,
                -0.32242176714899484,
                -0.11071541109432143,
                0.9928725570274395,
                -0.6153987188869254
            ]
        },
        {
            "positions": [
                -0.5813208813609507,
                -0.5511331228509637,
                -0.20833449996020725,
                -0.14902369941246013,
                0.9516060375242218,
                -0.7392769764570848
            ]
        },
        {
            "positions": [
                -0.5454844610206683,
                -0.5827583775695879,
                -0.09424723277141989,
                -0.18733198773059873,
                0.910339518021004,
                -0.8631552340272441
            ]
        },
        {
            "positions": [
                -0.5096480406803858,
                -0.6143836322882119,
                0.019840034417367702,
                -0.22564027604873743,
                0.8690729985177863,
                -0.9870334915974035
            ]
        },
        {
            "positions": [
                -0.4738116203401034,
                -0.6460088870068359,
                0.1339273016061553,
                -0.26394856436687614,
                0.8278064790145686,
                -1.1109117491675629
            ]
        },
        {
            "positions": [
                -0.43797519999982093,
                -0.6776341417254599,
                0.24801456879494288,
                -0.30225685268501473,
                0.7865399595113508,
                -1.2347900067377222
            ]
        },
        {
            "positions": [
                -0.4021387796595385,
                -0.7092593964440839,
                0.36210183598373,
                -0.34056514100315344,
                0.7452734400081331,
                -1.3586682643078816
            ]
        },
        {
            "positions": [
                -0.36630235931925603,
                -0.7408846511627081,
                0.4761891031725176,
                -0.37887342932129203,
                0.7040069205049153,
                -1.482546521878041
            ]
        },
        {
            "positions": [
                -0.3304659389789736,
                -0.7725099058813321,
                0.5902763703613052,
                -0.41718171763943074,
                0.6627404010016976,
                -1.6064247794482003
            ]
        },
        {
            "positions": [
                -0.29462951863869113,
                -0.804135160599956,
                0.7043636375500928,
                -0.45549000595756933,
                0.6214738814984799,
                -1.7303030370183596
            ]
        },
        {
            "positions": [
                -0.2587930982984087,
                -0.83576041531858,
                0.8184509047388799,
                -0.49379829427570804,
                0.5802073619952621,
                -1.854181294588519
            ]
        },
        {
            "positions": [
                -0.22295667795812624,
                -0.867385670037204,
                0.9325381719276675,
                -0.5321065825938467,
                0.5389408424920443,
                -1.9780595521586783
            ]
        },
        {
            "positions": [
                -0.1871202576178439,
                -0.899010924755828,
                1.0466254391164547,
                -0.5704148709119852,
                0.49767432298882697,
                -2.1019378097288377
            ]
        },
        {
            "positions": [
                -0.15128383727756145,
                -0.930636179474452,
                1.1607127063052423,
                -0.6087231592301239,
                0.45640780348560916,
                -2.225816067298997
            ]
        },
        {
            "positions": [
                -0.115447416937279,
                -0.9622614341930762,
                1.2747999734940294,
                -0.6470314475482624,
                0.41514128398239136,
                -2.3496943248691564
            ]
        },
        {
            "positions": [
                -0.07961099659699666,
                -0.9938866889117002,
                1.388887240682817,
                -0.6853397358664011,
                0.37387476447917356,
                -2.4735725824393158
            ]
        },
        {
            "positions": [
                -0.043774576256714104,
                -1.0255119436303242,
                1.5029745078716046,
                -0.7236480241845398,
                0.332608244975956,
                -2.597450840009475
            ]
        },
        {
            "positions": [
                -0.007938155916431766,
                -1.0571371983489481,
                1.6170617750603922,
                -0.7619563125026785,
                0.2913417254727382,
                -2.7213290975796345
            ]
        },
        {
            "positions": [
                0.027898264423850794,
                -1.0887624530675724,
                1.7311490422491793,
                -0.800264600820817,
                0.2500752059695204,
                -2.845207355149794
            ]
        },
        {
            "positions": [
                0.06373468476413313,
                -1.1203877077861963,
                1.845236309437967,
                -0.8385728891389557,
                0.2088086864663028,
                -2.969085612719953
            ]
        },
        {
            "positions": [
                0.09957110510441562,
                -1.1520129625048203,
                1.9593235766267545,
                -0.8768811774570945,
                0.16754216696308497,
                -3.092963870290112
            ]
        },
        {
            "positions": [
                0.12311758452283156,
                -1.1460264485266285,
                1.9867601910737727,
                -0.8502145353086678,
                0.1336448120065606,
                -3.1345221404694006
            ]
        }
    ]
}