{
    "goal": {
        "global_pose": {
            "orientation": {
                "w": 0.7031023502349854,
                "x": -0.7110244035720825,
                "y": 0.007748599164187908,
                "z": 0.005598929710686207
            },
            "position": {
                "x": 0.11585023208521307,
                "y": 0.44412534475326537,
                "z": 0.3711530566215515
            }
        },
        "name": "move_to_auspresseinheit_A"
    },
    "id": "RRT_move_to_auspresseinheit_A_40",
    "joint_names": [
        "shoulder_pan_joint",
        "shoulder_lift_joint",
        "elbow_joint",
        "wrist_1_joint",
        "wrist_2_joint",
        "wrist_3_joint"
    ],
    "metrics": {
        "cart_traj_len": 0.8198584501375519,
        "distance_elbow_joint": 0.08322923459860299,
        "distance_shoulder_lift_joint": 0.5348355560385663,
        "distance_shoulder_pan_joint": 1.0479146602856106,
        "distance_wrist_1_joint": 0.5554518807655053,
        "distance_wrist_2_joint": 0.5120666764563648,
        "distance_wrist_3_joint": 0.10209666300464226,
        "smoothness": 0.12073409500117835,
        "time": 1.529114261,
        "traj_len": 1.6839224065108498,
        "weighted_distance": 2.02664909502865
    },
    "planner": "RRT",
    "start": {
        "state": {
            "elbow_joint": 2.422574709923281,
            "shoulder_lift_joint": -1.3736533754116391,
            "shoulder_pan_joint": -0.33786336945926293,
            "wrist_1_joint": -1.0288603412921917,
            "wrist_2_joint": 1.2330224858903978,
            "wrist_3_joint": -3.094022268022082
        }
    },
    "waypoints": [
        {
            "positions": [
                -0.33786336945926293,
                -1.3736533754116391,
                2.422574709923281,
                -1.0288603412921917,
                1.2330224858903978,
                -3.094022268022082
            ]
        },
        {
            "positions": [
                -0.310478758885924,
                -1.5342938545148213,
                2.4041985757462045,
                -0.963364370694492,
                1.2262846712659254,
                -3.1183369190102384
            ]
        },
        {
            "positions": [
                -0.28309414831258506,
                -1.6949343336180034,
                2.3858224415691276,
                -0.8978684000967924,
                1.2195468566414533,
                -3.1426515699983946
            ]
        },
        {
            "positions": [
                -0.25570953773924615,
                -1.8555748127211857,
                2.367446307392051,
                -0.8323724294990926,
                1.212809042016981,
                -3.166966220986551
            ]
        },
        {
            "positions": [
                -0.0625573720261274,
                -1.8661576364669896,
                2.3730664738055256,
                -0.7605796357046114,
                1.1144383955003914,
                -3.161135678978516
            ]
        },
        {
            "positions": [
                0.13059479368699134,
                -1.8767404602127935,
                2.378686640219,
                -0.6887868419101302,
                1.0160677489838017,
                -3.1553051369704814
            ]
        },
        {
            "positions": [
                0.32374695940011006,
                -1.8873232839585976,
                2.384306806632475,
                -0.6169940481156488,
                0.9176971024672123,
                -3.1494745949624465
            ]
        },
        {
            "positions": [
                0.5168991251132289,
                -1.8979061077044015,
                2.3899269730459496,
                -0.5452012543211676,
                0.8193264559506226,
                -3.143644052954412
            ]
        },
        {
            "positions": [
                0.7100512908263475,
                -1.9084889314502054,
                2.395547139459424,
                -0.4734084605266864,
                0.7209558094340329,
                -3.137813510946377
            ]
        }
    ]
}