{
    "goal": {
        "global_pose": {
            "orientation": {
                "w": 0.5084816217422485,
                "x": -0.49083608388900757,
                "y": 0.5182115435600281,
                "z": -0.4816462993621826
            },
            "position": {
                "x": 0.5540239810943604,
                "y": 0.030875300988554955,
                "z": 0.16403168439865112
            }
        },
        "name": "move_to_storage_A"
    },
    "id": "RRT_move_to_storage_A_121",
    "joint_names": [
        "shoulder_pan_joint",
        "shoulder_lift_joint",
        "elbow_joint",
        "wrist_1_joint",
        "wrist_2_joint",
        "wrist_3_joint"
    ],
    "metrics": {
        "cart_traj_len": 0.3527163912465086,
        "distance_elbow_joint": 0.44919924844759906,
        "distance_shoulder_lift_joint": 0.23243747943743087,
        "distance_shoulder_pan_joint": 0.4600960049680626,
        "distance_wrist_1_joint": 0.24727990349700957,
        "distance_wrist_2_joint": 1.1015055536216682,
        "distance_wrist_3_joint": 0.09502821188846422,
        "smoothness": 8.881784232165597e-16,
        "time": 0.014849279,
        "traj_len": 1.607963432998473,
        "weighted_distance": 2.030859001200192
    },
    "planner": "RRT",
    "start": {
        "state": {
            "elbow_joint": 1.9715463870305268,
            "shoulder_lift_joint": -1.1394903361783484,
            "shoulder_pan_joint": 0.12281147578464417,
            "wrist_1_joint": -0.7804599489681411,
            "wrist_2_joint": 0.12958660307563738,
            "wrist_3_joint": -3.1924946282119055
        }
    },
    "waypoints": [
        {
            "positions": [
                0.12281147578464417,
                -1.1394903361783484,
                1.9715463870305268,
                -0.7804599489681411,
                0.12958660307563738,
                -3.1924946282119055
            ]
        },
        {
            "positions": [
                0.05708347507492095,
                -1.1726956903836956,
                2.0357177082373266,
                -0.8157856494677139,
                0.28694453930730424,
                -3.178919169370696
            ]
        },
        {
            "positions": [
                -0.008644525634802266,
                -1.205901044589043,
                2.0998890294441264,
                -0.8511113499672867,
                0.4443024755389712,
                -3.1653437105294873
            ]
        },
        {
            "positions": [
                -0.0743725263445255,
                -1.2391063987943902,
                2.164060350650926,
                -0.8864370504668595,
                0.601660411770638,
                -3.151768251688278
            ]
        },
        {
            "positions": [
                -0.1401005270542487,
                -1.2723117529997374,
                2.228231671857726,
                -0.9217627509664322,
                0.7590183480023049,
                -3.138192792847069
            ]
        },
        {
            "positions": [
                -0.20582852776397192,
                -1.3055171072050848,
                2.292402993064526,
                -0.9570884514660051,
                0.9163762842339719,
                -3.1246173340058596
            ]
        },
        {
            "positions": [
                -0.27155652847369516,
                -1.338722461410432,
                2.356574314271326,
                -0.9924141519655778,
                1.0737342204656386,
                -3.1110418751646507
            ]
        },
        {
            "positions": [
                -0.3372845291834184,
                -1.3719278156157793,
                2.420745635478126,
                -1.0277398524651506,
                1.2310921566973057,
                -3.0974664163234413
            ]
        }
    ]
}