{
    "goal": {
        "global_pose": {
            "orientation": {
                "w": 0.7047431468963623,
                "x": -0.7094548344612122,
                "y": 0.0024358443915843964,
                "z": -0.0022348060738295317
            },
            "position": {
                "x": 0.6094750761985779,
                "y": 0.3671506643295288,
                "z": 0.19426114857196808
            }
        },
        "name": "move_to_magneteinheit_A"
    },
    "id": "RRT_move_to_magneteinheit_A_40",
    "joint_names": [
        "shoulder_pan_joint",
        "shoulder_lift_joint",
        "elbow_joint",
        "wrist_1_joint",
        "wrist_2_joint",
        "wrist_3_joint"
    ],
    "metrics": {
        "cart_traj_len": 1.8743095421262161,
        "distance_elbow_joint": 3.923650380613501,
        "distance_shoulder_lift_joint": 0.7053568872704881,
        "distance_shoulder_pan_joint": 1.2423591323875809,
        "distance_wrist_1_joint": 1.526427377223664,
        "distance_wrist_2_joint": 1.707891593676032,
        "distance_wrist_3_joint": 1.1513759560532304,
        "smoothness": 4.2764146218976237e-16,
        "time": 0.037314848,
        "traj_len": 3.2026647228869427,
        "weighted_distance": 3.9741832129672447
    },
    "planner": "RRT",
    "start": {
        "state": {
            "elbow_joint": -1.919643507792019,
            "shoulder_lift_joint": -0.07675430207160344,
            "shoulder_pan_joint": -1.1188671864651873,
            "wrist_1_joint": 0.42560062535961957,
            "wrist_2_joint": 1.5706038300724876,
            "wrist_3_joint": 1.1188968870953055
        }
    },
    "waypoints": [
        {
            "positions": [
                -1.1188671864651873,
                -0.07675430207160344,
                -1.919643507792019,
                0.42560062535961957,
                1.5706038300724876,
                1.1188968870953055
            ]
        },
        {
            "positions": [
                -1.0710841429118187,
                -0.10388341312046837,
                -1.768733877768423,
                0.48430937063745283,
                1.5049156918541786,
                1.0746131964778736
            ]
        },
        {
            "positions": [
                -1.0233010993584504,
                -0.1310125241693333,
                -1.6178242477448266,
                0.543018115915286,
                1.4392275536358698,
                1.0303295058604416
            ]
        },
        {
            "positions": [
                -0.9755180558050819,
                -0.15814163521819824,
                -1.4669146177212304,
                0.6017268611931192,
                1.3735394154175609,
                0.9860458152430097
            ]
        },
        {
            "positions": [
                -0.9277350122517134,
                -0.18527074626706314,
                -1.3160049876976343,
                0.6604356064709525,
                1.3078512771992519,
                0.9417621246255778
            ]
        },
        {
            "positions": [
                -0.8799519686983448,
                -0.2123998573159281,
                -1.165095357674038,
                0.7191443517487858,
                1.2421631389809429,
                0.8974784340081459
            ]
        },
        {
            "positions": [
                -0.8321689251449764,
                -0.239528968364793,
                -1.014185727650442,
                0.777853097026619,
                1.1764750007626341,
                0.8531947433907139
            ]
        },
        {
            "positions": [
                -0.7843858815916078,
                -0.26665807941365793,
                -0.8632760976268459,
                0.8365618423044522,
                1.1107868625443251,
                0.808911052773282
            ]
        },
        {
            "positions": [
                -0.7366028380382393,
                -0.2937871904625229,
                -0.7123664676032495,
                0.8952705875822855,
                1.0450987243260164,
                0.76462736215585
            ]
        },
        {
            "positions": [
                -0.6888197944848709,
                -0.3209163015113877,
                -0.5614568375796534,
                0.9539793328601187,
                0.9794105861077074,
                0.7203436715384182
            ]
        },
        {
            "positions": [
                -0.6410367509315024,
                -0.34804541256025273,
                -0.410547207556057,
                1.012688078137952,
                0.9137224478893984,
                0.6760599809209862
            ]
        },
        {
            "positions": [
                -0.5932537073781339,
                -0.3751745236091176,
                -0.2596375775324611,
                1.0713968234157851,
                0.8480343096710895,
                0.6317762903035542
            ]
        },
        {
            "positions": [
                -0.5454706638247654,
                -0.4023036346579826,
                -0.10872794750886472,
                1.1301055686936183,
                0.7823461714527805,
                0.5874925996861222
            ]
        },
        {
            "positions": [
                -0.4976876202713969,
                -0.4294327457068475,
                0.04218168251473142,
                1.1888143139714515,
                0.7166580332344716,
                0.5432089090686903
            ]
        },
        {
            "positions": [
                -0.4499045767180284,
                -0.45656185675571237,
                0.19309131253832734,
                1.2475230592492847,
                0.6509698950161628,
                0.4989252184512585
            ]
        },
        {
            "positions": [
                -0.40212153316465993,
                -0.48369096780457727,
                0.3440009425619237,
                1.306231804527118,
                0.5852817567978539,
                0.4546415278338265
            ]
        },
        {
            "positions": [
                -0.35433848961129133,
                -0.5108200788534423,
                0.49491057258552007,
                1.3649405498049514,
                0.5195936185795449,
                0.4103578372163945
            ]
        },
        {
            "positions": [
                -0.30655544605792295,
                -0.5379491899023072,
                0.6458202026091164,
                1.4236492950827846,
                0.4539054803612359,
                0.36607414659896254
            ]
        },
        {
            "positions": [
                -0.25877240250455447,
                -0.5650783009511721,
                0.7967298326327124,
                1.4823580403606178,
                0.38821734214292714,
                0.32179045598153067
            ]
        },
        {
            "positions": [
                -0.21098935895118598,
                -0.5922074120000369,
                0.9476394626563083,
                1.541066785638451,
                0.32252920392461815,
                0.2775067653640988
            ]
        },
        {
            "positions": [
                -0.16320631539781738,
                -0.6193365230489021,
                1.098549092679905,
                1.5997755309162844,
                0.25684106570630916,
                0.2332230747466667
            ]
        },
        {
            "positions": [
                -0.115423271844449,
                -0.6464656340977668,
                1.249458722703501,
                1.6584842761941176,
                0.19115292748800017,
                0.18893938412923483
            ]
        },
        {
            "positions": [
                -0.0676402282910804,
                -0.6735947451466318,
                1.400368352727097,
                1.7171930214719506,
                0.1254647892696914,
                0.14465569351180296
            ]
        },
        {
            "positions": [
                -0.01985718473771203,
                -0.7007238561954967,
                1.5512779827506933,
                1.7759017667497838,
                0.05977665105138241,
                0.10037200289437109
            ]
        },
        {
            "positions": [
                0.027925858815656568,
                -0.7278529672443617,
                1.7021876127742896,
                1.8346105120276173,
                -0.005911487166926577,
                0.05608831227693889
            ]
        },
        {
            "positions": [
                0.07570890236902517,
                -0.7549820782932266,
                1.853097242797886,
                1.8933192573054505,
                -0.07159962538523557,
                0.01180462165950713
            ]
        },
        {
            "positions": [
                0.12349194592239358,
                -0.7821111893420916,
                2.0040068728214817,
                1.9520280025832837,
                -0.13728776360354444,
                -0.032479068957924774
            ]
        }
    ]
}