{
    "goal": {
        "global_pose": {
            "orientation": {
                "w": 0.7031023502349854,
                "x": -0.7110244035720825,
                "y": 0.007748599164187908,
                "z": 0.005598929710686207
            },
            "position": {
                "x": 0.11585023208521307,
                "y": 0.44412534475326537,
                "z": 0.3711530566215515
            }
        },
        "name": "move_to_auspresseinheit_A"
    },
    "id": "RRTConnect_move_to_auspresseinheit_A_74",
    "joint_names": [
        "shoulder_pan_joint",
        "shoulder_lift_joint",
        "elbow_joint",
        "wrist_1_joint",
        "wrist_2_joint",
        "wrist_3_joint"
    ],
    "metrics": {
        "cart_traj_len": 1.4140467449093863,
        "distance_elbow_joint": 0.25111513817058384,
        "distance_shoulder_lift_joint": 0.5348719762646019,
        "distance_shoulder_pan_joint": 3.2017445967036045,
        "distance_wrist_1_joint": 0.5555855637441616,
        "distance_wrist_2_joint": 2.8076626694635527,
        "distance_wrist_3_joint": 2.414625848075665,
        "smoothness": 0.9838649479609698,
        "time": 0.049213064,
        "traj_len": 3.1249969267860362,
        "weighted_distance": 4.237700522899326
    },
    "planner": "RRTConnect",
    "start": {
        "state": {
            "elbow_joint": 2.422574709923281,
            "shoulder_lift_joint": -1.3736533754116391,
            "shoulder_pan_joint": -0.33786336945926293,
            "wrist_1_joint": -1.0288603412921917,
            "wrist_2_joint": 1.2330224858903978,
            "wrist_3_joint": -3.094022268022082
        }
    },
    "waypoints": [
        {
            "positions": [
                -0.33786336945926293,
                -1.3736533754116391,
                2.422574709923281,
                -1.0288603412921917,
                1.2330224858903978,
                -3.094022268022082
            ]
        },
        {
            "positions": [
                -0.4208262345548246,
                -1.3996227729535342,
                2.411843043880825,
                -0.9917141506577225,
                1.104839009021573,
                -3.0023873310242664
            ]
        },
        {
            "positions": [
                -0.5037890996503862,
                -1.4255921704954293,
                2.4011113778383684,
                -0.9545679600232532,
                0.9766555321527483,
                -2.9107523940264506
            ]
        },
        {
            "positions": [
                -0.5867519647459478,
                -1.4515615680373246,
                2.3903797117959122,
                -0.9174217693887838,
                0.8484720552839236,
                -2.819117457028635
            ]
        },
        {
            "positions": [
                -0.6697148298415094,
                -1.4775309655792197,
                2.379648045753456,
                -0.8802755787543146,
                0.7202885784150987,
                -2.727482520030819
            ]
        },
        {
            "positions": [
                -0.752677694937071,
                -1.5035003631211148,
                2.3689163797109996,
                -0.8431293881198454,
                0.592105101546274,
                -2.6358475830330033
            ]
        },
        {
            "positions": [
                -0.8356405600326327,
                -1.5294697606630099,
                2.3581847136685434,
                -0.8059831974853761,
                0.46392162467744924,
                -2.544212646035187
            ]
        },
        {
            "positions": [
                -0.9186034251281943,
                -1.5554391582049052,
                2.3474530476260873,
                -0.7688370068509068,
                0.33573814780862465,
                -2.4525777090373717
            ]
        },
        {
            "positions": [
                -1.001566290223756,
                -1.5814085557468003,
                2.336721381583631,
                -0.7316908162164375,
                0.20755467093979973,
                -2.3609427720395555
            ]
        },
        {
            "positions": [
                -1.0845291553193175,
                -1.6073779532886954,
                2.3259897155411746,
                -0.6945446255819683,
                0.07937119407097515,
                -2.2693078350417397
            ]
        },
        {
            "positions": [
                -1.1674920204148793,
                -1.6333473508305905,
                2.3152580494987185,
                -0.6573984349474989,
                -0.04881228279784966,
                -2.177672898043924
            ]
        },
        {
            "positions": [
                -1.250454885510441,
                -1.6593167483724858,
                2.3045263834562624,
                -0.6202522443130297,
                -0.17699575966667447,
                -2.086037961046108
            ]
        },
        {
            "positions": [
                -1.3334177506060025,
                -1.6852861459143809,
                2.293794717413806,
                -0.5831060536785604,
                -0.3051792365354993,
                -1.9944030240482924
            ]
        },
        {
            "positions": [
                -1.4163806157015641,
                -1.711255543456276,
                2.2830630513713497,
                -0.5459598630440912,
                -0.433362713404324,
                -1.9027680870504766
            ]
        },
        {
            "positions": [
                -1.2530554348968486,
                -1.726430144088581,
                2.2916479344189384,
                -0.5403687026213172,
                -0.3455721387759523,
                -1.996873599904635
            ]
        },
        {
            "positions": [
                -1.0897302540921328,
                -1.741604744720886,
                2.300232817466527,
                -0.5347775421985433,
                -0.2577815641475806,
                -2.0909791127587933
            ]
        },
        {
            "positions": [
                -0.9264050732874172,
                -1.756779345353191,
                2.3088177005141155,
                -0.5291863817757694,
                -0.16999098951920893,
                -2.185084625612952
            ]
        },
        {
            "positions": [
                -0.7630798924827015,
                -1.771953945985496,
                2.3174025835617043,
                -0.5235952213529955,
                -0.08220041489083724,
                -2.2791901384671105
            ]
        },
        {
            "positions": [
                -0.5997547116779859,
                -1.787128546617801,
                2.325987466609293,
                -0.5180040609302216,
                0.005590159737534406,
                -2.3732956513212686
            ]
        },
        {
            "positions": [
                -0.4364295308732702,
                -1.802303147250106,
                2.3345723496568818,
                -0.5124129005074476,
                0.0933807343659061,
                -2.467401164175427
            ]
        },
        {
            "positions": [
                -0.2731043500685546,
                -1.817477747882411,
                2.34315723270447,
                -0.5068217400846737,
                0.1811713089942777,
                -2.5615066770295853
            ]
        },
        {
            "positions": [
                -0.1097791692638388,
                -1.832652348514716,
                2.351742115752059,
                -0.5012305796618998,
                0.2689618836226495,
                -2.655612189883744
            ]
        },
        {
            "positions": [
                0.05354601154087679,
                -1.847826949147021,
                2.3603269987996476,
                -0.49563941923912586,
                0.3567524582510211,
                -2.749717702737902
            ]
        },
        {
            "positions": [
                0.21687119234559238,
                -1.863001549779326,
                2.3689118818472363,
                -0.49004825881635194,
                0.4445430328793928,
                -2.8438232155920606
            ]
        },
        {
            "positions": [
                0.38019637315030796,
                -1.878176150411631,
                2.3774967648948246,
                -0.484457098393578,
                0.5323336075077644,
                -2.937928728446219
            ]
        },
        {
            "positions": [
                0.5435215539550238,
                -1.893350751043936,
                2.3860816479424134,
                -0.47886593797080407,
                0.6201241821361362,
                -3.0320342413003774
            ]
        },
        {
            "positions": [
                0.7068467347597394,
                -1.908525351676241,
                2.394666530990002,
                -0.47327477754803016,
                0.7079147567645078,
                -3.126139754154536
            ]
        }
    ]
}