{
    "goal": {
        "global_pose": {
            "orientation": {
                "w": 0.7047431468963623,
                "x": -0.7094548344612122,
                "y": 0.0024358443915843964,
                "z": -0.0022348060738295317
            },
            "position": {
                "x": 0.6094750761985779,
                "y": 0.3671506643295288,
                "z": 0.19426114857196808
            }
        },
        "name": "move_to_magneteinheit_A"
    },
    "id": "RRTConnect_move_to_magneteinheit_A_77",
    "joint_names": [
        "shoulder_pan_joint",
        "shoulder_lift_joint",
        "elbow_joint",
        "wrist_1_joint",
        "wrist_2_joint",
        "wrist_3_joint"
    ],
    "metrics": {
        "cart_traj_len": 2.065070102890599,
        "distance_elbow_joint": 3.886756687907477,
        "distance_shoulder_lift_joint": 1.0615227197225479,
        "distance_shoulder_pan_joint": 1.2408413683762585,
        "distance_wrist_1_joint": 1.1859878574511633,
        "distance_wrist_2_joint": 1.4425697310897165,
        "distance_wrist_3_joint": 1.959890906799734,
        "smoothness": 3.981489473232051e-16,
        "time": 0.09375734499999999,
        "traj_len": 3.2829208445143623,
        "weighted_distance": 4.162440230620405
    },
    "planner": "RRTConnect",
    "start": {
        "state": {
            "elbow_joint": -1.919643507792019,
            "shoulder_lift_joint": -0.07675430207160344,
            "shoulder_pan_joint": -1.1188671864651873,
            "wrist_1_joint": 0.42560062535961957,
            "wrist_2_joint": 1.5706038300724876,
            "wrist_3_joint": 1.1188968870953055
        }
    },
    "waypoints": [
        {
            "positions": [
                -1.1188671864651873,
                -0.07675430207160344,
                -1.919643507792019,
                0.42560062535961957,
                1.5706038300724876,
                1.1188968870953055
            ]
        },
        {
            "positions": [
                -1.0745514233088924,
                -0.11466582777598014,
                -1.7808307689381806,
                0.38324391616493514,
                1.519083482533569,
                1.1888929909095818
            ]
        },
        {
            "positions": [
                -1.0302356601525975,
                -0.15257735348035684,
                -1.642018030084342,
                0.34088720697025077,
                1.4675631349946507,
                1.258889094723858
            ]
        },
        {
            "positions": [
                -0.9859198969963026,
                -0.19048887918473356,
                -1.5032052912305036,
                0.2985304977755664,
                1.4160427874557322,
                1.3288851985381342
            ]
        },
        {
            "positions": [
                -0.9416041338400076,
                -0.22840040488911026,
                -1.3643925523766653,
                0.25617378858088197,
                1.3645224399168139,
                1.3988813023524105
            ]
        },
        {
            "positions": [
                -0.8972883706837126,
                -0.266311930593487,
                -1.2255798135228266,
                0.21381707938619754,
                1.3130020923778953,
                1.4688774061666867
            ]
        },
        {
            "positions": [
                -0.8529726075274178,
                -0.3042234562978637,
                -1.0867670746689884,
                0.17146037019151317,
                1.261481744838977,
                1.538873509980963
            ]
        },
        {
            "positions": [
                -0.8086568443711227,
                -0.3421349820022404,
                -0.9479543358151499,
                0.12910366099682874,
                1.2099613973000585,
                1.608869613795239
            ]
        },
        {
            "positions": [
                -0.7643410812148278,
                -0.3800465077066171,
                -0.8091415969613114,
                0.08674695180214437,
                1.15844104976114,
                1.6788657176095154
            ]
        },
        {
            "positions": [
                -0.7200253180585328,
                -0.41795803341099386,
                -0.6703288581074729,
                0.044390242607459884,
                1.1069207022222216,
                1.7488618214237914
            ]
        },
        {
            "positions": [
                -0.6757095549022378,
                -0.4558695591153705,
                -0.5315161192536344,
                0.0020335334127755123,
                1.055400354683303,
                1.8188579252380679
            ]
        },
        {
            "positions": [
                -0.6313937917459429,
                -0.49378108481974725,
                -0.39270338039979613,
                -0.04032317578190886,
                1.0038800071443847,
                1.888854029052344
            ]
        },
        {
            "positions": [
                -0.5870780285896481,
                -0.531692610524124,
                -0.25389064154595764,
                -0.08267988497659323,
                0.9523596596054663,
                1.9588501328666201
            ]
        },
        {
            "positions": [
                -0.542762265433353,
                -0.5696041362285007,
                -0.11507790269211915,
                -0.12503659417127772,
                0.9008393120665478,
                2.0288462366808964
            ]
        },
        {
            "positions": [
                -0.4984465022770581,
                -0.6075156619328774,
                0.02373483616171934,
                -0.1673933033659621,
                0.8493189645276293,
                2.098842340495173
            ]
        },
        {
            "positions": [
                -0.4541307391207632,
                -0.6454271876372542,
                0.1625475750155576,
                -0.20975001256064646,
                0.7977986169887109,
                2.168838444309449
            ]
        },
        {
            "positions": [
                -0.40981497596446825,
                -0.6833387133416307,
                0.3013603138693963,
                -0.25210672175533083,
                0.7462782694497925,
                2.238834548123725
            ]
        },
        {
            "positions": [
                -0.3654992128081733,
                -0.7212502390460074,
                0.4401730527232346,
                -0.2944634309500152,
                0.694757921910874,
                2.308830651938001
            ]
        },
        {
            "positions": [
                -0.3211834496518783,
                -0.7591617647503843,
                0.5789857915770733,
                -0.3368201401446998,
                0.6432375743719555,
                2.3788267557522778
            ]
        },
        {
            "positions": [
                -0.27686768649558335,
                -0.797073290454761,
                0.7177985304309116,
                -0.37917684933938417,
                0.5917172268330371,
                2.4488228595665538
            ]
        },
        {
            "positions": [
                -0.23255192333928842,
                -0.8349848161591376,
                0.8566112692847503,
                -0.42153355853406854,
                0.5401968792941185,
                2.51881896338083
            ]
        },
        {
            "positions": [
                -0.1882361601829935,
                -0.8728963418635143,
                0.9954240081385886,
                -0.4638902677287529,
                0.4886765317552002,
                2.5888150671951062
            ]
        },
        {
            "positions": [
                -0.14392039702669857,
                -0.910807867567891,
                1.1342367469924268,
                -0.5062469769234372,
                0.4371561842162819,
                2.6588111710093822
            ]
        },
        {
            "positions": [
                -0.09960463387040375,
                -0.9487193932722677,
                1.2730494858462655,
                -0.5486036861181216,
                0.38563583667736334,
                2.7288072748236587
            ]
        },
        {
            "positions": [
                -0.05528887071410882,
                -0.9866309189766445,
                1.4118622247001038,
                -0.590960395312806,
                0.334115489138445,
                2.7988033786379347
            ]
        },
        {
            "positions": [
                -0.010973107557813666,
                -1.0245424446810212,
                1.5506749635539425,
                -0.6333171045074906,
                0.28259514159952626,
                2.868799482452211
            ]
        },
        {
            "positions": [
                0.03334265559848126,
                -1.062453970385398,
                1.6894877024077808,
                -0.6756738137021749,
                0.23107479406060794,
                2.938795586266487
            ]
        },
        {
            "positions": [
                0.07765841875477619,
                -1.1003654960897746,
                1.8283004412616195,
                -0.7180305228968593,
                0.1795544465216894,
                3.0087916900807636
            ]
        },
        {
            "positions": [
                0.12197418191107122,
                -1.1382770217941514,
                1.9671131801154578,
                -0.7603872320915437,
                0.12803409898277113,
                3.0787877938950396
            ]
        }
    ]
}