{
    "goal": {
        "global_pose": {
            "orientation": {
                "w": -0.00223480608172531,
                "x": 0.0024358444001904467,
                "y": 0.7094548369677653,
                "z": -0.704743149386269
            },
            "position": {
                "x": 0.6205249238014221,
                "y": -0.6371506643295288,
                "z": 0.19426114857196808
            }
        },
        "name": "move_to_magneteinheit_B"
    },
    "id": "RRTConnect_move_to_magneteinheit_B_39",
    "joint_names": [
        "shoulder_pan_joint",
        "shoulder_lift_joint",
        "elbow_joint",
        "wrist_1_joint",
        "wrist_2_joint",
        "wrist_3_joint"
    ],
    "metrics": {
        "cart_traj_len": 3.738547963673603,
        "distance_elbow_joint": 4.463231068010864,
        "distance_shoulder_lift_joint": 0.9117128101715566,
        "distance_shoulder_pan_joint": 2.449003487652836,
        "distance_wrist_1_joint": 3.7498036887375243,
        "distance_wrist_2_joint": 1.2302545559644502,
        "distance_wrist_3_joint": 6.1296944322145315,
        "smoothness": 0.2747340101058937,
        "time": 0.193895118,
        "traj_len": 4.351287170798058,
        "weighted_distance": 6.014411621420901
    },
    "planner": "RRTConnect",
    "start": {
        "state": {
            "elbow_joint": 2.39358713078474,
            "shoulder_lift_joint": -1.908514104345545,
            "shoulder_pan_joint": 0.7066247066606129,
            "wrist_1_joint": -0.4678290933515497,
            "wrist_2_joint": 0.7096259083745334,
            "wrist_3_joint": -3.1358149277392293
        }
    },
    "waypoints": [
        {
            "positions": [
                0.7066247066606129,
                -1.908514104345545,
                2.39358713078474,
                -0.4678290933515497,
                0.7096259083745334,
                -3.1358149277392293
            ]
        },
        {
            "positions": [
                0.6560570384900868,
                -1.8795652540580219,
                2.3795680916125486,
                -0.3939026142708303,
                0.7184765186870867,
                -3.0404232695552924
            ]
        },
        {
            "positions": [
                0.6054893703195605,
                -1.8506164037704989,
                2.3655490524403566,
                -0.3199761351901108,
                0.7273271289996401,
                -2.9450316113713555
            ]
        },
        {
            "positions": [
                0.5549217021490344,
                -1.8216675534829758,
                2.351530013268165,
                -0.24604965610939136,
                0.7361777393121934,
                -2.8496399531874186
            ]
        },
        {
            "positions": [
                0.5629944350678411,
                -1.7981820099509531,
                2.246458867585023,
                -0.15980372029795967,
                0.7062274570982423,
                -2.793196586805803
            ]
        },
        {
            "positions": [
                0.5710671679866478,
                -1.7746964664189304,
                2.1413877219018813,
                -0.07355778448652797,
                0.6762771748842913,
                -2.736753220424187
            ]
        },
        {
            "positions": [
                0.5791399009054545,
                -1.7512109228869077,
                2.036316576218739,
                0.012688151324903724,
                0.6463268926703402,
                -2.6803098540425716
            ]
        },
        {
            "positions": [
                0.6011981655351145,
                -1.7291924385285904,
                1.9316798114893152,
                0.08176506011450674,
                0.6143953634069352,
                -2.618049004638593
            ]
        },
        {
            "positions": [
                0.6232564301647745,
                -1.707173954170273,
                1.827043046759891,
                0.15084196890410975,
                0.5824638341435304,
                -2.555788155234615
            ]
        },
        {
            "positions": [
                0.6453146947944344,
                -1.6851554698119555,
                1.7224062820304669,
                0.21991887769371277,
                0.5505323048801255,
                -2.4935273058306366
            ]
        },
        {
            "positions": [
                0.6673729594240944,
                -1.6631369854536382,
                1.617769517301043,
                0.2889957864833158,
                0.5186007756167206,
                -2.431266456426658
            ]
        },
        {
            "positions": [
                0.7500802763145064,
                -1.6833407156752693,
                1.4753295611528703,
                0.2946552285903436,
                0.4901159236717165,
                -2.328575123342063
            ]
        },
        {
            "positions": [
                0.8327875932049182,
                -1.7035444458969005,
                1.3328896050046979,
                0.3003146706973714,
                0.4616310717267125,
                -2.225883790257468
            ]
        },
        {
            "positions": [
                0.9154949100953302,
                -1.7237481761185316,
                1.1904496488565253,
                0.3059741128043992,
                0.4331462197817085,
                -2.123192457172873
            ]
        },
        {
            "positions": [
                0.9982022269857422,
                -1.7439519063401625,
                1.0480096927083529,
                0.31163355491142697,
                0.4046613678367045,
                -2.0205011240882778
            ]
        },
        {
            "positions": [
                1.0809095438761542,
                -1.7641556365617936,
                0.9055697365601802,
                0.31729299701845476,
                0.3761765158917004,
                -1.9178097910036827
            ]
        },
        {
            "positions": [
                1.1636168607665662,
                -1.7843593667834248,
                0.7631297804120076,
                0.32295243912548255,
                0.34769166394669637,
                -1.8151184579190875
            ]
        },
        {
            "positions": [
                1.2463241776569782,
                -1.804563097005056,
                0.620689824263835,
                0.3286118812325104,
                0.3192068120016923,
                -1.7124271248344924
            ]
        },
        {
            "positions": [
                1.3290314945473902,
                -1.824766827226687,
                0.4782498681156626,
                0.3342713233395382,
                0.2907219600566883,
                -1.6097357917498973
            ]
        },
        {
            "positions": [
                1.411738811437802,
                -1.8449705574483182,
                0.33580991196749,
                0.339930765446566,
                0.26223710811168427,
                -1.5070444586653022
            ]
        },
        {
            "positions": [
                1.494446128328214,
                -1.8651742876699493,
                0.1933699558193176,
                0.34559020755359376,
                0.23375225616668027,
                -1.4043531255807071
            ]
        },
        {
            "positions": [
                1.577153445218626,
                -1.8853780178915804,
                0.050929999671144977,
                0.35124964966062155,
                0.20526740422167622,
                -1.301661792496112
            ]
        },
        {
            "positions": [
                1.659860762109038,
                -1.9055817481132113,
                -0.09150995647702764,
                0.35690909176764934,
                0.17678255227667217,
                -1.198970459411517
            ]
        },
        {
            "positions": [
                1.74256807899945,
                -1.9257854783348425,
                -0.23394991262520004,
                0.36256853387467713,
                0.14829770033166817,
                -1.0962791263269218
            ]
        },
        {
            "positions": [
                1.8252753958898622,
                -1.9459892085564736,
                -0.3763898687733729,
                0.3682279759817049,
                0.11981284838666406,
                -0.9935877932423267
            ]
        },
        {
            "positions": [
                1.907982712780274,
                -1.9661929387781047,
                -0.5188298249215451,
                0.3738874180887327,
                0.09132799644166006,
                -0.8908964601577316
            ]
        },
        {
            "positions": [
                1.9906900296706858,
                -1.9863966689997359,
                -0.6612697810697177,
                0.3795468601957605,
                0.06284314449665607,
                -0.7882051270731365
            ]
        },
        {
            "positions": [
                2.0733973465610975,
                -2.006600399221367,
                -0.8037097372178903,
                0.3852063023027883,
                0.034358292551652014,
                -0.6855137939885416
            ]
        },
        {
            "positions": [
                2.1561046634515098,
                -2.026804129442998,
                -0.9461496933660629,
                0.39086574440981614,
                0.005873440606647962,
                -0.5828224609039463
            ]
        },
        {
            "positions": [
                2.238811980341922,
                -2.047007859664629,
                -1.0885896495142355,
                0.39652518651684393,
                -0.02261141133835609,
                -0.4801311278193512
            ]
        },
        {
            "positions": [
                2.3215192972323337,
                -2.06721158988626,
                -1.2310296056624077,
                0.4021846286238717,
                -0.05109626328336003,
                -0.3774397947347561
            ]
        },
        {
            "positions": [
                2.4042266141227455,
                -2.0874153201078913,
                -1.3734695618105803,
                0.4078440707308995,
                -0.07958111522836409,
                -0.274748461650161
            ]
        },
        {
            "positions": [
                2.4869339310131577,
                -2.1076190503295225,
                -1.515909517958753,
                0.4135035128379273,
                -0.10806596717336814,
                -0.17205712856556588
            ]
        },
        {
            "positions": [
                2.5696412479035695,
                -2.1278227805511536,
                -1.6583494741069256,
                0.4191629549449551,
                -0.13655081911837222,
                -0.06936579548097084
            ]
        },
        {
            "positions": [
                2.6070399579593397,
                -2.1536996987817556,
                -1.6990290636720145,
                0.26659553148567117,
                -0.15389839368393246,
                -0.18707817137640298
            ]
        },
        {
            "positions": [
                2.64443866801511,
                -2.179576617012357,
                -1.7397086532371033,
                0.11402810802638724,
                -0.1712459682494927,
                -0.30479054727183513
            ]
        },
        {
            "positions": [
                2.6818373780708806,
                -2.205453535242959,
                -1.7803882428021924,
                -0.038539315432896626,
                -0.18859354281505292,
                -0.4225029231672673
            ]
        },
        {
            "positions": [
                2.719236088126651,
                -2.2313304534735607,
                -1.8210678323672813,
                -0.1911067388921806,
                -0.20594111738061316,
                -0.5402152990626995
            ]
        },
        {
            "positions": [
                2.756634798182421,
                -2.2572073717041627,
                -1.8617474219323702,
                -0.3436741623514645,
                -0.2232886919461734,
                -0.6579276749581316
            ]
        },
        {
            "positions": [
                2.7536064538968006,
                -2.2547181548048405,
                -1.8517726117462912,
                -0.4913864765085576,
                -0.2404352277593687,
                -0.8268238309325987
            ]
        },
        {
            "positions": [
                2.7505781096111805,
                -2.2522289379055183,
                -1.8417978015602119,
                -0.6390987906656508,
                -0.257581763572564,
                -0.9957199869070659
            ]
        },
        {
            "positions": [
                2.74754976532556,
                -2.2497397210061965,
                -1.8318229913741328,
                -0.786811104822744,
                -0.2747282993857594,
                -1.164616142881533
            ]
        },
        {
            "positions": [
                2.74452142103994,
                -2.247250504106874,
                -1.8218481811880536,
                -0.934523418979837,
                -0.2918748351989547,
                -1.333512298856
            ]
        },
        {
            "positions": [
                2.7414930767543195,
                -2.244761287207552,
                -1.8118733710019745,
                -1.0822357331369303,
                -0.30902137101215,
                -1.502408454830467
            ]
        },
        {
            "positions": [
                2.7325546694565674,
                -2.238114707148384,
                -1.794315319406046,
                -1.2335038389546118,
                -0.3266328837568663,
                -1.6835420815645534
            ]
        },
        {
            "positions": [
                2.7236162621588154,
                -2.2314681270892156,
                -1.7767572678101173,
                -1.3847719447722935,
                -0.34424439650158256,
                -1.8646757082986398
            ]
        },
        {
            "positions": [
                2.7146778548610633,
                -2.224821547030047,
                -1.7591992162141885,
                -1.536040050589975,
                -0.3618559092462989,
                -2.045809335032726
            ]
        },
        {
            "positions": [
                2.705739447563311,
                -2.218174966970879,
                -1.74164116461826,
                -1.6873081564076564,
                -0.3794674219910152,
                -2.226942961766812
            ]
        },
        {
            "positions": [
                2.6968010402655587,
                -2.2115283869117106,
                -1.7240831130223313,
                -1.838576262225338,
                -0.39707893473573147,
                -2.408076588500899
            ]
        },
        {
            "positions": [
                2.6878626329678066,
                -2.2048818068525424,
                -1.7065250614264027,
                -1.9898443680430198,
                -0.41469044748044775,
                -2.589210215234985
            ]
        },
        {
            "positions": [
                2.6789242256700545,
                -2.198235226793374,
                -1.6889670098304739,
                -2.1411124738607015,
                -0.4323019602251641,
                -2.770343841969072
            ]
        },
        {
            "positions": [
                2.6699858183723024,
                -2.1915886467342056,
                -1.6714089582345453,
                -2.2923805796783827,
                -0.4499134729698804,
                -2.9514774687031577
            ]
        },
        {
            "positions": [
                2.6610474110745503,
                -2.1849420666750374,
                -1.6538509066386167,
                -2.4436486854960644,
                -0.46752498571459666,
                -3.132611095437244
            ]
        }
    ]
}