{
    "goal": {
        "global_pose": {
            "orientation": {
                "w": 0.7047431468963623,
                "x": -0.7094548344612122,
                "y": 0.0024358443915843964,
                "z": -0.0022348060738295317
            },
            "position": {
                "x": 0.6094750761985779,
                "y": 0.3671506643295288,
                "z": 0.19426114857196808
            }
        },
        "name": "move_to_magneteinheit_A"
    },
    "id": "RRTConnect_move_to_magneteinheit_A_82",
    "joint_names": [
        "shoulder_pan_joint",
        "shoulder_lift_joint",
        "elbow_joint",
        "wrist_1_joint",
        "wrist_2_joint",
        "wrist_3_joint"
    ],
    "metrics": {
        "cart_traj_len": 2.056054506250432,
        "distance_elbow_joint": 3.8766593758967787,
        "distance_shoulder_lift_joint": 1.0711229486079683,
        "distance_shoulder_pan_joint": 1.2410963947245393,
        "distance_wrist_1_joint": 1.1432635667679312,
        "distance_wrist_2_joint": 1.4476947204667576,
        "distance_wrist_3_joint": 4.360241710929484,
        "smoothness": 0.040791635448290876,
        "time": 0.132062495,
        "traj_len": 3.6249246498918377,
        "weighted_distance": 4.94484786686983
    },
    "planner": "RRTConnect",
    "start": {
        "state": {
            "elbow_joint": -1.919643507792019,
            "shoulder_lift_joint": -0.07675430207160344,
            "shoulder_pan_joint": -1.1188671864651873,
            "wrist_1_joint": 0.42560062535961957,
            "wrist_2_joint": 1.5706038300724876,
            "wrist_3_joint": 1.1188968870953055
        }
    },
    "waypoints": [
        {
            "positions": [
                -1.1188671864651873,
                -0.07675430207160344,
                -1.919643507792019,
                0.42560062535961957,
                1.5706038300724876,
                1.1188968870953055
            ]
        },
        {
            "positions": [
                -1.0816221135557798,
                -0.10894098465033547,
                -1.8042351866599422,
                0.39096072744446236,
                1.5272092078222865,
                0.9877432031752649
            ]
        },
        {
            "positions": [
                -1.0443770406463724,
                -0.1411276672290675,
                -1.688826865527865,
                0.35632082952930516,
                1.4838145855720857,
                0.8565895192552242
            ]
        },
        {
            "positions": [
                -1.0071319677369648,
                -0.17331434980779953,
                -1.5734185443957882,
                0.3216809316141479,
                1.4404199633218846,
                0.7254358353351834
            ]
        },
        {
            "positions": [
                -0.9698868948275574,
                -0.20550103238653156,
                -1.4580102232637113,
                0.2870410336989907,
                1.3970253410716837,
                0.5942821514151427
            ]
        },
        {
            "positions": [
                -0.9326418219181499,
                -0.23768771496526359,
                -1.3426019021316342,
                0.2524011357838335,
                1.3536307188214827,
                0.46312846749510195
            ]
        },
        {
            "positions": [
                -0.8953967490087424,
                -0.2698743975439956,
                -1.227193580999557,
                0.2177612378686763,
                1.3102360965712818,
                0.33197478357506127
            ]
        },
        {
            "positions": [
                -0.8581516760993348,
                -0.30206108012272764,
                -1.1117852598674802,
                0.1831213399535191,
                1.2668414743210807,
                0.2008210996550206
            ]
        },
        {
            "positions": [
                -0.8209066031899275,
                -0.33424776270145967,
                -0.9963769387354033,
                0.1484814420383619,
                1.2234468520708797,
                0.06966741573497992
            ]
        },
        {
            "positions": [
                -0.78366153028052,
                -0.3664344452801917,
                -0.8809686176033265,
                0.11384154412320469,
                1.1800522298206788,
                -0.061486268185060755
            ]
        },
        {
            "positions": [
                -0.7464164573711125,
                -0.39862112785892373,
                -0.7655602964712493,
                0.07920164620804748,
                1.136657607570478,
                -0.19263995210510165
            ]
        },
        {
            "positions": [
                -0.709171384461705,
                -0.43080781043765576,
                -0.6501519753391725,
                0.04456174829289028,
                1.0932629853202769,
                -0.3237936360251421
            ]
        },
        {
            "positions": [
                -0.6719263115522975,
                -0.4629944930163878,
                -0.5347436542070954,
                0.009921850377733021,
                1.0498683630700758,
                -0.454947319945183
            ]
        },
        {
            "positions": [
                -0.6346812386428901,
                -0.4951811755951198,
                -0.4193353330750187,
                -0.024718047537424126,
                1.006473740819875,
                -0.5861010038652237
            ]
        },
        {
            "positions": [
                -0.5974361657334825,
                -0.5273678581738519,
                -0.3039270119429416,
                -0.059357945452581384,
                0.963079118569674,
                -0.7172546877852644
            ]
        },
        {
            "positions": [
                -0.5601910928240751,
                -0.5595545407525839,
                -0.1885186908108647,
                -0.09399784336773859,
                0.919684496319473,
                -0.848408371705305
            ]
        },
        {
            "positions": [
                -0.5229460199146675,
                -0.591741223331316,
                -0.07311036967878759,
                -0.1286377412828958,
                0.876289874069272,
                -0.9795620556253457
            ]
        },
        {
            "positions": [
                -0.4857009470052601,
                -0.623927905910048,
                0.042297951453289295,
                -0.163277639198053,
                0.8328952518190711,
                -1.1107157395453866
            ]
        },
        {
            "positions": [
                -0.44845587409585264,
                -0.65611458848878,
                0.15770627258536618,
                -0.1979175371132102,
                0.7895006295688701,
                -1.241869423465427
            ]
        },
        {
            "positions": [
                -0.41121080118644504,
                -0.688301271067512,
                0.2731145937174435,
                -0.2325574350283675,
                0.746106007318669,
                -1.373023107385468
            ]
        },
        {
            "positions": [
                -0.37396572827703756,
                -0.7204879536462441,
                0.3885229148495204,
                -0.2671973329435246,
                0.7027113850684681,
                -1.5041767913055089
            ]
        },
        {
            "positions": [
                -0.3367206553676301,
                -0.7526746362249761,
                0.5039312359815973,
                -0.3018372308586818,
                0.6593167628182671,
                -1.6353304752255493
            ]
        },
        {
            "positions": [
                -0.2994755824582227,
                -0.7848613188037081,
                0.6193395571136742,
                -0.336477128773839,
                0.6159221405680662,
                -1.7664841591455898
            ]
        },
        {
            "positions": [
                -0.2622305095488151,
                -0.8170480013824402,
                0.7347478782457515,
                -0.3711170266889963,
                0.5725275183178651,
                -1.897637843065631
            ]
        },
        {
            "positions": [
                -0.22498543663940762,
                -0.8492346839611722,
                0.8501561993778284,
                -0.4057569246041535,
                0.5291328960676642,
                -2.0287915269856716
            ]
        },
        {
            "positions": [
                -0.18774036373000014,
                -0.8814213665399042,
                0.9655645205099048,
                -0.4403968225193106,
                0.48573827381746315,
                -2.159945210905712
            ]
        },
        {
            "positions": [
                -0.15049529082059276,
                -0.9136080491186362,
                1.0809728416419817,
                -0.4750367204344678,
                0.4423436515672623,
                -2.291098894825753
            ]
        },
        {
            "positions": [
                -0.11325021791118517,
                -0.9457947316973683,
                1.196381162774059,
                -0.5096766183496251,
                0.3989490293170612,
                -2.422252578745794
            ]
        },
        {
            "positions": [
                -0.07600514500177757,
                -0.9779814142761003,
                1.311789483906136,
                -0.5443165162647823,
                0.35555440706686037,
                -2.5534062626658343
            ]
        },
        {
            "positions": [
                -0.0387600720923702,
                -1.0101680968548323,
                1.4271978050382128,
                -0.5789564141799395,
                0.3121597848166593,
                -2.684559946585875
            ]
        },
        {
            "positions": [
                -0.0015149991829628284,
                -1.0423547794335644,
                1.5426061261702897,
                -0.6135963120950967,
                0.26876516256645844,
                -2.8157136305059156
            ]
        },
        {
            "positions": [
                0.035730073726444767,
                -1.0745414620122964,
                1.658014447302367,
                -0.6482362100102539,
                0.22537054031625736,
                -2.946867314425957
            ]
        },
        {
            "positions": [
                0.07297514663585236,
                -1.1067281445910284,
                1.773422768434444,
                -0.6828761079254111,
                0.18197591806605629,
                -3.078020998345997
            ]
        },
        {
            "positions": [
                0.11022021954525982,
                -1.1389148271697604,
                1.888831089566521,
                -0.7175160058405684,
                0.13858129581585535,
                -3.2091746822660383
            ]
        },
        {
            "positions": [
                0.12222920825935198,
                -1.129952403659949,
                1.95701586810476,
                -0.7176629414083114,
                0.12290910960572995,
                -3.241344823834179
            ]
        }
    ]
}