{
    "goal": {
        "global_pose": {
            "orientation": {
                "w": -0.00223480608172531,
                "x": 0.0024358444001904467,
                "y": 0.7094548369677653,
                "z": -0.704743149386269
            },
            "position": {
                "x": 0.6205249238014221,
                "y": -0.6371506643295288,
                "z": 0.19426114857196808
            }
        },
        "name": "move_to_magneteinheit_B"
    },
    "id": "RRTConnect_move_to_magneteinheit_B_94",
    "joint_names": [
        "shoulder_pan_joint",
        "shoulder_lift_joint",
        "elbow_joint",
        "wrist_1_joint",
        "wrist_2_joint",
        "wrist_3_joint"
    ],
    "metrics": {
        "cart_traj_len": 1.4537213275186638,
        "distance_elbow_joint": 0.7317757935865634,
        "distance_shoulder_lift_joint": 1.2493984658797186,
        "distance_shoulder_pan_joint": 1.6221272214074638,
        "distance_wrist_1_joint": 2.6036130313697847,
        "distance_wrist_2_joint": 2.9341103399413924,
        "distance_wrist_3_joint": 3.1332304153511923,
        "smoothness": 4.163336351824667e-16,
        "time": 0.11047130999999999,
        "traj_len": 3.5034633247025893,
        "weighted_distance": 4.906978649795583
    },
    "planner": "RRTConnect",
    "start": {
        "state": {
            "elbow_joint": 2.39358713078474,
            "shoulder_lift_joint": -1.908514104345545,
            "shoulder_pan_joint": 0.7066247066606129,
            "wrist_1_joint": -0.4678290933515497,
            "wrist_2_joint": 0.7096259083745334,
            "wrist_3_joint": -3.1358149277392293
        }
    },
    "waypoints": [
        {
            "positions": [
                0.7066247066606129,
                -1.908514104345545,
                2.39358713078474,
                -0.4678290933515497,
                0.7096259083745334,
                -3.1358149277392293
            ]
        },
        {
            "positions": [
                0.6542980220990818,
                -1.8682109280268444,
                2.369981460023883,
                -0.3838415762105889,
                0.6149771877312628,
                -3.034742978856933
            ]
        },
        {
            "positions": [
                0.6019713375375507,
                -1.8279077517081437,
                2.346375789263026,
                -0.29985405906962814,
                0.520328467087992,
                -2.9336710299746365
            ]
        },
        {
            "positions": [
                0.5496446529760197,
                -1.7876045753894432,
                2.322770118502169,
                -0.21586654192866733,
                0.4256797464447213,
                -2.8325990810923396
            ]
        },
        {
            "positions": [
                0.4973179684144886,
                -1.7473013990707424,
                2.2991644477413127,
                -0.13187902478770652,
                0.33103102580145055,
                -2.731527132210043
            ]
        },
        {
            "positions": [
                0.4449912838529575,
                -1.706998222752042,
                2.2755587769804557,
                -0.04789150764674571,
                0.23638230515817982,
                -2.6304551833277467
            ]
        },
        {
            "positions": [
                0.3926645992914264,
                -1.6666950464333414,
                2.2519531062195988,
                0.03609600949421504,
                0.14173358451490914,
                -2.5293832344454503
            ]
        },
        {
            "positions": [
                0.34033791472989533,
                -1.6263918701146407,
                2.228347435458742,
                0.12008352663517591,
                0.04708486387163835,
                -2.4283112855631535
            ]
        },
        {
            "positions": [
                0.2880112301683642,
                -1.5860886937959402,
                2.204741764697885,
                0.20407104377613666,
                -0.04756385677163233,
                -2.327239336680857
            ]
        },
        {
            "positions": [
                0.2356845456068331,
                -1.5457855174772395,
                2.181136093937028,
                0.28805856091709753,
                -0.14221257741490312,
                -2.2261673877985606
            ]
        },
        {
            "positions": [
                0.18335786104530205,
                -1.505482341158539,
                2.1575304231761714,
                0.3720460780580583,
                -0.2368612980581738,
                -2.125095438916264
            ]
        },
        {
            "positions": [
                0.13103117648377094,
                -1.4651791648398382,
                2.1339247524153144,
                0.45603359519901915,
                -0.3315100187014445,
                -2.0240234900339678
            ]
        },
        {
            "positions": [
                0.07870449192223983,
                -1.4248759885211377,
                2.1103190816544575,
                0.5400211123399798,
                -0.42615873934471515,
                -1.922951541151671
            ]
        },
        {
            "positions": [
                0.026377807360708716,
                -1.3845728122024372,
                2.0867134108936005,
                0.6240086294809408,
                -0.520807459987986,
                -1.8218795922693745
            ]
        },
        {
            "positions": [
                -0.025948877200822285,
                -1.3442696358837365,
                2.0631077401327436,
                0.7079961466219016,
                -0.6154561806312567,
                -1.720807643387078
            ]
        },
        {
            "positions": [
                -0.0782755617623534,
                -1.3039664595650358,
                2.0395020693718866,
                0.7919836637628623,
                -0.7101049012745274,
                -1.6197356945047814
            ]
        },
        {
            "positions": [
                -0.1306022463238845,
                -1.2636632832463355,
                2.01589639861103,
                0.8759711809038231,
                -0.8047536219177981,
                -1.518663745622485
            ]
        },
        {
            "positions": [
                -0.1829289308854155,
                -1.2233601069276347,
                1.9922907278501731,
                0.9599586980447838,
                -0.8994023425610688,
                -1.4175917967401885
            ]
        },
        {
            "positions": [
                -0.23525561544694673,
                -1.183056930608934,
                1.9686850570893162,
                1.0439462151857448,
                -0.9940510632043397,
                -1.3165198478578917
            ]
        },
        {
            "positions": [
                -0.28758230000847773,
                -1.1427537542902335,
                1.9450793863284592,
                1.1279337323267056,
                -1.0886997838476105,
                -1.2154478989755952
            ]
        },
        {
            "positions": [
                -0.33990898457000884,
                -1.102450577971533,
                1.9214737155676023,
                1.2119212494676663,
                -1.1833485044908811,
                -1.114375950093299
            ]
        },
        {
            "positions": [
                -0.39223566913153995,
                -1.0621474016528323,
                1.8978680448067455,
                1.295908766608627,
                -1.2779972251341514,
                -1.0133040012110026
            ]
        },
        {
            "positions": [
                -0.44456235369307107,
                -1.0218442253341316,
                1.8742623740458886,
                1.379896283749588,
                -1.3726459457774225,
                -0.9122320523287057
            ]
        },
        {
            "positions": [
                -0.4968890382546022,
                -0.9815410490154312,
                1.8506567032850318,
                1.4638838008905488,
                -1.4672946664206932,
                -0.8111601034464093
            ]
        },
        {
            "positions": [
                -0.5492157228161333,
                -0.9412378726967305,
                1.827051032524175,
                1.5478713180315093,
                -1.5619433870639639,
                -0.7100881545641129
            ]
        },
        {
            "positions": [
                -0.6015424073776642,
                -0.90093469637803,
                1.803445361763318,
                1.63185883517247,
                -1.6565921077072345,
                -0.6090162056818165
            ]
        },
        {
            "positions": [
                -0.6538690919391955,
                -0.8606315200593293,
                1.779839691002461,
                1.7158463523134313,
                -1.7512408283505057,
                -0.5079442567995196
            ]
        },
        {
            "positions": [
                -0.7061957765007264,
                -0.8203283437406288,
                1.756234020241604,
                1.799833869454392,
                -1.8458895489937763,
                -0.4068723079172232
            ]
        },
        {
            "positions": [
                -0.7585224610622575,
                -0.7800251674219281,
                1.7326283494807473,
                1.8838213865953528,
                -1.940538269637047,
                -0.30580035903492675
            ]
        },
        {
            "positions": [
                -0.8108491456237886,
                -0.7397219911032276,
                1.7090226787198906,
                1.9678089037363131,
                -2.0351869902803172,
                -0.20472841015263032
            ]
        },
        {
            "positions": [
                -0.8631758301853197,
                -0.6994188147845268,
                1.6854170079590336,
                2.0517964208772743,
                -2.1298357109235884,
                -0.10365646127033346
            ]
        },
        {
            "positions": [
                -0.9155025147468508,
                -0.6591156384658264,
                1.6618113371981766,
                2.135783938018235,
                -2.224484431566859,
                -0.002584512388037174
            ]
        }
    ]
}