{
    "goal": {
        "global_pose": {
            "orientation": {
                "w": -0.00223480608172531,
                "x": 0.0024358444001904467,
                "y": 0.7094548369677653,
                "z": -0.704743149386269
            },
            "position": {
                "x": 0.6205249238014221,
                "y": -0.6371506643295288,
                "z": 0.19426114857196808
            }
        },
        "name": "move_to_magneteinheit_B"
    },
    "id": "RRTConnect_move_to_magneteinheit_B_28",
    "joint_names": [
        "shoulder_pan_joint",
        "shoulder_lift_joint",
        "elbow_joint",
        "wrist_1_joint",
        "wrist_2_joint",
        "wrist_3_joint"
    ],
    "metrics": {
        "cart_traj_len": 1.4539774550075666,
        "distance_elbow_joint": 0.7256023908007092,
        "distance_shoulder_lift_joint": 1.2453660696493034,
        "distance_shoulder_pan_joint": 1.6221249080263032,
        "distance_wrist_1_joint": 2.619596446948114,
        "distance_wrist_2_joint": 2.9346523292877458,
        "distance_wrist_3_joint": 3.1373679100463865,
        "smoothness": 2.4223047925893806e-16,
        "time": 0.077307725,
        "traj_len": 3.504955071717548,
        "weighted_distance": 4.910569687020764
    },
    "planner": "RRTConnect",
    "start": {
        "state": {
            "elbow_joint": 2.39358713078474,
            "shoulder_lift_joint": -1.908514104345545,
            "shoulder_pan_joint": 0.7066247066606129,
            "wrist_1_joint": -0.4678290933515497,
            "wrist_2_joint": 0.7096259083745334,
            "wrist_3_joint": -3.1358149277392293
        }
    },
    "waypoints": [
        {
            "positions": [
                0.7066247066606129,
                -1.908514104345545,
                2.39358713078474,
                -0.4678290933515497,
                0.7096259083745334,
                -3.1358149277392293
            ]
        },
        {
            "positions": [
                0.6559333032847909,
                -1.8695964146690043,
                2.370912056072218,
                -0.38596670438442116,
                0.6179180230842913,
                -3.0377721805502795
            ]
        },
        {
            "positions": [
                0.605241899908969,
                -1.8306787249924634,
                2.3482369813596957,
                -0.30410431541729255,
                0.5262101377940493,
                -2.93972943336133
            ]
        },
        {
            "positions": [
                0.554550496533147,
                -1.7917610353159228,
                2.3255619066471738,
                -0.222241926450164,
                0.43450225250380725,
                -2.8416866861723804
            ]
        },
        {
            "positions": [
                0.503859093157325,
                -1.752843345639382,
                2.3028868319346514,
                -0.14037953748303544,
                0.3427943672135652,
                -2.743643938983431
            ]
        },
        {
            "positions": [
                0.45316768978150307,
                -1.7139256559628413,
                2.2802117572221294,
                -0.05851714851590689,
                0.25108648192332317,
                -2.6456011917944813
            ]
        },
        {
            "positions": [
                0.4024762864056811,
                -1.6750079662863004,
                2.257536682509607,
                0.023345240451221716,
                0.15937859663308107,
                -2.547558444605532
            ]
        },
        {
            "positions": [
                0.3517848830298591,
                -1.6360902766097598,
                2.234861607797085,
                0.10520762941835021,
                0.06767071134283908,
                -2.449515697416582
            ]
        },
        {
            "positions": [
                0.30109347965403715,
                -1.597172586933219,
                2.2121865330845627,
                0.18707001838547882,
                -0.024037173947403012,
                -2.351472950227633
            ]
        },
        {
            "positions": [
                0.2504020762782152,
                -1.5582548972566783,
                2.1895114583720408,
                0.2689324073526074,
                -0.11574505923764511,
                -2.253430203038683
            ]
        },
        {
            "positions": [
                0.1997106729023932,
                -1.5193372075801377,
                2.1668363836595184,
                0.3507947963197359,
                -0.2074529445278871,
                -2.1553874558497337
            ]
        },
        {
            "positions": [
                0.14901926952657119,
                -1.4804195179035968,
                2.1441613089469964,
                0.43265718528686453,
                -0.2991608298181291,
                -2.057344708660784
            ]
        },
        {
            "positions": [
                0.09832786615074929,
                -1.4415018282270562,
                2.121486234234474,
                0.5145195742539932,
                -0.3908687151083713,
                -1.9593019614718343
            ]
        },
        {
            "positions": [
                0.04763646277492728,
                -1.4025841385505156,
                2.098811159521952,
                0.5963819632211218,
                -0.4825766003986133,
                -1.8612592142828848
            ]
        },
        {
            "positions": [
                -0.003054940600894729,
                -1.3636664488739747,
                2.0761360848094297,
                0.6782443521882502,
                -0.5742844856888553,
                -1.7632164670939352
            ]
        },
        {
            "positions": [
                -0.053746343976716626,
                -1.3247487591974338,
                2.0534610100969077,
                0.7601067411553788,
                -0.6659923709790975,
                -1.6651737199049856
            ]
        },
        {
            "positions": [
                -0.10443774735253863,
                -1.2858310695208932,
                2.0307859353843853,
                0.8419691301225074,
                -0.7577002562693395,
                -1.567130972716036
            ]
        },
        {
            "positions": [
                -0.15512915072836064,
                -1.2469133798443526,
                2.0081108606718634,
                0.923831519089636,
                -0.8494081415595814,
                -1.4690882255270865
            ]
        },
        {
            "positions": [
                -0.20582055410418254,
                -1.2079956901678117,
                1.985435785959341,
                1.0056939080567646,
                -0.9411160268498237,
                -1.371045478338137
            ]
        },
        {
            "positions": [
                -0.25651195748000455,
                -1.1690780004912709,
                1.962760711246819,
                1.087556297023893,
                -1.0328239121400657,
                -1.2730027311491874
            ]
        },
        {
            "positions": [
                -0.30720336085582656,
                -1.1301603108147302,
                1.9400856365342967,
                1.1694186859910216,
                -1.1245317974303077,
                -1.1749599839602378
            ]
        },
        {
            "positions": [
                -0.35789476423164845,
                -1.0912426211381896,
                1.9174105618217747,
                1.2512810749581502,
                -1.2162396827205497,
                -1.0769172367712883
            ]
        },
        {
            "positions": [
                -0.4085861676074706,
                -1.0523249314616487,
                1.8947354871092525,
                1.3331434639252788,
                -1.3079475680107917,
                -0.9788744895823385
            ]
        },
        {
            "positions": [
                -0.45927757098329247,
                -1.013407241785108,
                1.8720604123967304,
                1.4150058528924074,
                -1.3996554533010341,
                -0.8808317423933891
            ]
        },
        {
            "positions": [
                -0.5099689743591144,
                -0.9744895521085674,
                1.8493853376842082,
                1.496868241859536,
                -1.4913633385912761,
                -0.7827889952044393
            ]
        },
        {
            "positions": [
                -0.5606603777349365,
                -0.9355718624320266,
                1.826710262971686,
                1.5787306308266644,
                -1.583071223881518,
                -0.68474624801549
            ]
        },
        {
            "positions": [
                -0.6113517811107584,
                -0.896654172755486,
                1.8040351882591639,
                1.6605930197937933,
                -1.67477910917176,
                -0.5867035008265402
            ]
        },
        {
            "positions": [
                -0.6620431844865803,
                -0.8577364830789451,
                1.7813601135466417,
                1.7424554087609216,
                -1.766486994462002,
                -0.48866075363759087
            ]
        },
        {
            "positions": [
                -0.7127345878624024,
                -0.8188187934024045,
                1.7586850388341195,
                1.82431779772805,
                -1.858194879752244,
                -0.3906180064486411
            ]
        },
        {
            "positions": [
                -0.7634259912382243,
                -0.7799011037258636,
                1.7360099641215974,
                1.9061801866951789,
                -1.9499027650424865,
                -0.29257525925969174
            ]
        },
        {
            "positions": [
                -0.8141173946140462,
                -0.740983414049323,
                1.7133348894090752,
                1.9880425756623072,
                -2.0416106503327285,
                -0.19453251207074196
            ]
        },
        {
            "positions": [
                -0.8648087979898683,
                -0.7020657243727821,
                1.690659814696553,
                2.069904964629436,
                -2.1333185356229705,
                -0.09648976488179262
            ]
        },
        {
            "positions": [
                -0.9155002013656902,
                -0.6631480346962416,
                1.6679847399840309,
                2.1517673535965645,
                -2.2250264209132125,
                0.0015529823071571936
            ]
        }
    ]
}