{
    "goal": {
        "global_pose": {
            "orientation": {
                "w": 0.5084816217422485,
                "x": -0.49083608388900757,
                "y": 0.5182115435600281,
                "z": -0.4816462993621826
            },
            "position": {
                "x": 0.5540239810943604,
                "y": 0.030875300988554955,
                "z": 0.16403168439865112
            }
        },
        "name": "move_to_storage_A"
    },
    "id": "RRTConnect_move_to_storage_A_62",
    "joint_names": [
        "shoulder_pan_joint",
        "shoulder_lift_joint",
        "elbow_joint",
        "wrist_1_joint",
        "wrist_2_joint",
        "wrist_3_joint"
    ],
    "metrics": {
        "cart_traj_len": 0.3527283695582392,
        "distance_elbow_joint": 0.4481725293127701,
        "distance_shoulder_lift_joint": 0.2329332939838371,
        "distance_shoulder_pan_joint": 0.4605876071121174,
        "distance_wrist_1_joint": 0.24009602946457165,
        "distance_wrist_2_joint": 1.0998228457120287,
        "distance_wrist_3_joint": 0.10464006241561474,
        "smoothness": 1.1102230263833737e-15,
        "time": 0.055828228,
        "traj_len": 1.6081829398426473,
        "weighted_distance": 2.0335809224146377
    },
    "planner": "RRTConnect",
    "start": {
        "state": {
            "elbow_joint": 1.9715463870305268,
            "shoulder_lift_joint": -1.1394903361783484,
            "shoulder_pan_joint": 0.12281147578464417,
            "wrist_1_joint": -0.7804599489681411,
            "wrist_2_joint": 0.12958660307563738,
            "wrist_3_joint": -3.1924946282119055
        }
    },
    "waypoints": [
        {
            "positions": [
                0.12281147578464417,
                -1.1394903361783484,
                1.9715463870305268,
                -0.7804599489681411,
                0.12958660307563738,
                -3.1924946282119055
            ]
        },
        {
            "positions": [
                0.05701324619719883,
                -1.1727665210331824,
                2.035571034075208,
                -0.8147593817487941,
                0.28670415246307,
                -3.1775460478668176
            ]
        },
        {
            "positions": [
                -0.008784983390246512,
                -1.206042705888016,
                2.0995956811198897,
                -0.8490588145294473,
                0.44382170185050274,
                -3.16259746752173
            ]
        },
        {
            "positions": [
                -0.07458321297769184,
                -1.23931889074285,
                2.163620328164571,
                -0.8833582473101004,
                0.6009392512379353,
                -3.147648887176642
            ]
        },
        {
            "positions": [
                -0.14038144256513718,
                -1.2725950755976838,
                2.2276449752092526,
                -0.9176576800907534,
                0.7580568006253681,
                -3.132700306831554
            ]
        },
        {
            "positions": [
                -0.20617967215258254,
                -1.3058712604525178,
                2.291669622253934,
                -0.9519571128714066,
                0.9151743500128008,
                -3.1177517264864663
            ]
        },
        {
            "positions": [
                -0.27197790174002784,
                -1.3391474453073515,
                2.355694269298615,
                -0.9862565456520596,
                1.0722918994002333,
                -3.1028031461413788
            ]
        },
        {
            "positions": [
                -0.3377761313274732,
                -1.3724236301621855,
                2.419718916343297,
                -1.0205559784327127,
                1.2294094487876661,
                -3.087854565796291
            ]
        }
    ]
}