{
    "goal": {
        "global_pose": {
            "orientation": {
                "w": 0.7047431468963623,
                "x": -0.7094548344612122,
                "y": 0.0024358443915843964,
                "z": -0.0022348060738295317
            },
            "position": {
                "x": 0.6094750761985779,
                "y": 0.3671506643295288,
                "z": 0.19426114857196808
            }
        },
        "name": "move_to_magneteinheit_A"
    },
    "id": "RRTConnect_move_to_magneteinheit_A_47",
    "joint_names": [
        "shoulder_pan_joint",
        "shoulder_lift_joint",
        "elbow_joint",
        "wrist_1_joint",
        "wrist_2_joint",
        "wrist_3_joint"
    ],
    "metrics": {
        "cart_traj_len": 1.8710608308707841,
        "distance_elbow_joint": 3.931393624355847,
        "distance_shoulder_lift_joint": 0.7071689123355154,
        "distance_shoulder_pan_joint": 1.2419471273314835,
        "distance_wrist_1_joint": 1.5572147176403428,
        "distance_wrist_2_joint": 1.710008424742458,
        "distance_wrist_3_joint": 1.180910473473822,
        "smoothness": 1.903239467962136e-16,
        "time": 0.06940806699999999,
        "traj_len": 3.2138206670378273,
        "weighted_distance": 3.9947074197254944
    },
    "planner": "RRTConnect",
    "start": {
        "state": {
            "elbow_joint": -1.919643507792019,
            "shoulder_lift_joint": -0.07675430207160344,
            "shoulder_pan_joint": -1.1188671864651873,
            "wrist_1_joint": 0.42560062535961957,
            "wrist_2_joint": 1.5706038300724876,
            "wrist_3_joint": 1.1188968870953055
        }
    },
    "waypoints": [
        {
            "positions": [
                -1.1188671864651873,
                -0.07675430207160344,
                -1.919643507792019,
                0.42560062535961957,
                1.5706038300724876,
                1.1188968870953055
            ]
        },
        {
            "positions": [
                -1.0728691447121694,
                -0.10294574326921513,
                -1.7740363365195804,
                0.4832752445314841,
                1.5072701847116559,
                1.0751594621518306
            ]
        },
        {
            "positions": [
                -1.0268711029591515,
                -0.12913718446682682,
                -1.6284291652471414,
                0.5409498637033486,
                1.4439365393508241,
                1.0314220372083558
            ]
        },
        {
            "positions": [
                -0.9808730612061336,
                -0.15532862566443847,
                -1.4828219939747027,
                0.5986244828752132,
                1.3806028939899924,
                0.9876846122648809
            ]
        },
        {
            "positions": [
                -0.9348750194531157,
                -0.18152006686205016,
                -1.337214822702264,
                0.6562991020470778,
                1.3172692486291604,
                0.943947187321406
            ]
        },
        {
            "positions": [
                -0.8888769777000978,
                -0.20771150805966185,
                -1.1916076514298253,
                0.7139737212189423,
                1.2539356032683286,
                0.900209762377931
            ]
        },
        {
            "positions": [
                -0.8428789359470799,
                -0.2339029492572735,
                -1.0460004801573866,
                0.7716483403908068,
                1.190601957907497,
                0.8564723374344563
            ]
        },
        {
            "positions": [
                -0.7968808941940619,
                -0.2600943904548852,
                -0.9003933088849476,
                0.8293229595626714,
                1.1272683125466652,
                0.8127349124909813
            ]
        },
        {
            "positions": [
                -0.7508828524410441,
                -0.2862858316524969,
                -0.7547861376125089,
                0.8869975787345359,
                1.0639346671858334,
                0.7689974875475065
            ]
        },
        {
            "positions": [
                -0.7048848106880262,
                -0.31247727285010857,
                -0.6091789663400702,
                0.9446721979064006,
                1.0006010218250017,
                0.7252600626040315
            ]
        },
        {
            "positions": [
                -0.6588867689350083,
                -0.33866871404772025,
                -0.46357179506763146,
                1.002346817078265,
                0.9372673764641698,
                0.6815226376605567
            ]
        },
        {
            "positions": [
                -0.6128887271819904,
                -0.3648601552453319,
                -0.31796462379519275,
                1.0600214362501295,
                0.873933731103338,
                0.6377852127170818
            ]
        },
        {
            "positions": [
                -0.5668906854289725,
                -0.39105159644294357,
                -0.1723574525227538,
                1.1176960554219941,
                0.8106000857425063,
                0.5940477877736069
            ]
        },
        {
            "positions": [
                -0.5208926436759546,
                -0.41724303764055526,
                -0.02675028125031509,
                1.1753706745938586,
                0.7472664403816746,
                0.550310362830132
            ]
        },
        {
            "positions": [
                -0.47489460192293664,
                -0.44343447883816695,
                0.11885689002212385,
                1.2330452937657232,
                0.6839327950208427,
                0.5065729378866571
            ]
        },
        {
            "positions": [
                -0.42889656016991873,
                -0.4696259200357787,
                0.2644640612945628,
                1.290719912937588,
                0.6205991496600108,
                0.46283551294318215
            ]
        },
        {
            "positions": [
                -0.3828985184169009,
                -0.4958173612333903,
                0.4100712325670013,
                1.3483945321094524,
                0.5572655042991792,
                0.4190980879997074
            ]
        },
        {
            "positions": [
                -0.3369004766638829,
                -0.522008802431002,
                0.5556784038394402,
                1.4060691512813168,
                0.49393185893834723,
                0.3753606630562324
            ]
        },
        {
            "positions": [
                -0.2909024349108651,
                -0.5482002436286137,
                0.7012855751118787,
                1.4637437704531815,
                0.4305982135775157,
                0.3316232381127575
            ]
        },
        {
            "positions": [
                -0.24490439315784707,
                -0.5743916848262254,
                0.8468927463843177,
                1.5214183896250462,
                0.36726456821668374,
                0.28788581316928263
            ]
        },
        {
            "positions": [
                -0.19890635140482926,
                -0.600583126023837,
                0.9924999176567562,
                1.5790930087969106,
                0.303930922855852,
                0.24414838822580776
            ]
        },
        {
            "positions": [
                -0.15290830965181124,
                -0.6267745672214486,
                1.138107088929195,
                1.636767627968775,
                0.24059727749502025,
                0.20041096328233288
            ]
        },
        {
            "positions": [
                -0.10691026789879343,
                -0.6529660084190603,
                1.2837142602016336,
                1.6944422471406395,
                0.1772636321341885,
                0.156673538338858
            ]
        },
        {
            "positions": [
                -0.060912226145775517,
                -0.6791574496166721,
                1.429321431474073,
                1.7521168663125042,
                0.11392998677335675,
                0.11293611339538301
            ]
        },
        {
            "positions": [
                -0.014914184392757601,
                -0.7053488908142838,
                1.5749286027465115,
                1.8097914854843686,
                0.050596341412525,
                0.06919868845190824
            ]
        },
        {
            "positions": [
                0.031083857360260314,
                -0.7315403320118954,
                1.7205357740189504,
                1.8674661046562333,
                -0.012737303948306966,
                0.02546126350843325
            ]
        },
        {
            "positions": [
                0.07708189911327823,
                -0.757731773209507,
                1.866142945291389,
                1.9251407238280978,
                -0.07607094930913849,
                -0.018276161435041516
            ]
        },
        {
            "positions": [
                0.12307994086629612,
                -0.7839232144071189,
                2.0117501165638276,
                1.9828153429999624,
                -0.13940459466997046,
                -0.06201358637851652
            ]
        }
    ]
}