{
    "goal": {
        "global_pose": {
            "orientation": {
                "w": 0.7047431468963623,
                "x": -0.7094548344612122,
                "y": 0.0024358443915843964,
                "z": -0.0022348060738295317
            },
            "position": {
                "x": 0.6094750761985779,
                "y": 0.3671506643295288,
                "z": 0.19426114857196808
            }
        },
        "name": "move_to_magneteinheit_A"
    },
    "id": "RRTConnect_move_to_magneteinheit_A_135",
    "joint_names": [
        "shoulder_pan_joint",
        "shoulder_lift_joint",
        "elbow_joint",
        "wrist_1_joint",
        "wrist_2_joint",
        "wrist_3_joint"
    ],
    "metrics": {
        "cart_traj_len": 1.877502929078316,
        "distance_elbow_joint": 3.919214084720373,
        "distance_shoulder_lift_joint": 0.702498416029185,
        "distance_shoulder_pan_joint": 1.2426973006589848,
        "distance_wrist_1_joint": 1.5101022463324842,
        "distance_wrist_2_joint": 1.704773186610913,
        "distance_wrist_3_joint": 1.1338268415276773,
        "smoothness": 4.934324565834932e-16,
        "time": 0.117991296,
        "traj_len": 3.195796000354156,
        "weighted_distance": 3.961772481084492
    },
    "planner": "RRTConnect",
    "start": {
        "state": {
            "elbow_joint": -1.919643507792019,
            "shoulder_lift_joint": -0.07675430207160344,
            "shoulder_pan_joint": -1.1188671864651873,
            "wrist_1_joint": 0.42560062535961957,
            "wrist_2_joint": 1.5706038300724876,
            "wrist_3_joint": 1.1188968870953055
        }
    },
    "waypoints": [
        {
            "positions": [
                -1.1188671864651873,
                -0.07675430207160344,
                -1.919643507792019,
                0.42560062535961957,
                1.5706038300724876,
                1.1188968870953055
            ]
        },
        {
            "positions": [
                -1.0710711364398418,
                -0.10377347191887978,
                -1.7689045045335432,
                0.48368148098779207,
                1.5050356305874524,
                1.075288162421164
            ]
        },
        {
            "positions": [
                -1.0232750864144962,
                -0.13079264176615613,
                -1.6181655012750673,
                0.5417623366159645,
                1.4394674311024174,
                1.0316794377470226
            ]
        },
        {
            "positions": [
                -0.9754790363891506,
                -0.1578118116134325,
                -1.4674264980165914,
                0.599843192244137,
                1.3738992316173824,
                0.9880707130728812
            ]
        },
        {
            "positions": [
                -0.9276829863638051,
                -0.1848309814607088,
                -1.3166874947581155,
                0.6579240478723094,
                1.3083310321323471,
                0.9444619883987397
            ]
        },
        {
            "positions": [
                -0.8798869363384595,
                -0.21185015130798518,
                -1.1659484914996396,
                0.716004903500482,
                1.242762832647312,
                0.9008532637245984
            ]
        },
        {
            "positions": [
                -0.8320908863131139,
                -0.23886932115526152,
                -1.0152094882411637,
                0.7740857591286544,
                1.177194633162277,
                0.8572445390504569
            ]
        },
        {
            "positions": [
                -0.7842948362877684,
                -0.26588849100253786,
                -0.8644704849826879,
                0.8321666147568269,
                1.111626433677242,
                0.8136358143763155
            ]
        },
        {
            "positions": [
                -0.7364987862624228,
                -0.29290766084981423,
                -0.713731481724212,
                0.8902474703849994,
                1.0460582341922067,
                0.770027089702174
            ]
        },
        {
            "positions": [
                -0.6887027362370772,
                -0.3199268306970905,
                -0.5629924784657361,
                0.9483283260131719,
                0.9804900347071716,
                0.7264183650280327
            ]
        },
        {
            "positions": [
                -0.6409066862117316,
                -0.3469460005443669,
                -0.4122534752072602,
                1.0064091816413443,
                0.9149218352221364,
                0.6828096403538912
            ]
        },
        {
            "positions": [
                -0.5931106361863862,
                -0.37396517039164323,
                -0.2615144719487843,
                1.0644900372695167,
                0.8493536357371013,
                0.6392009156797498
            ]
        },
        {
            "positions": [
                -0.5453145861610404,
                -0.4009843402389196,
                -0.11077546869030841,
                1.1225708928976892,
                0.7837854362520662,
                0.5955921910056083
            ]
        },
        {
            "positions": [
                -0.49751853613569497,
                -0.4280035100861959,
                0.03996353456816748,
                1.1806517485258616,
                0.7182172367670311,
                0.5519834663314669
            ]
        },
        {
            "positions": [
                -0.4497224861103495,
                -0.45502267993347223,
                0.19070253782664337,
                1.238732604154034,
                0.652649037281996,
                0.5083747416573254
            ]
        },
        {
            "positions": [
                -0.4019264360850039,
                -0.48204184978074854,
                0.34144154108511926,
                1.2968134597822065,
                0.587080837796961,
                0.4647660169831841
            ]
        },
        {
            "positions": [
                -0.3541303860596582,
                -0.509061019628025,
                0.49218054434359515,
                1.3548943154103792,
                0.5215126383119257,
                0.42115729230904253
            ]
        },
        {
            "positions": [
                -0.3063343360343127,
                -0.5360801894753013,
                0.642919547602071,
                1.4129751710385516,
                0.4559444388268905,
                0.3775485676349012
            ]
        },
        {
            "positions": [
                -0.2585382860089671,
                -0.5630993593225776,
                0.7936585508605469,
                1.471056026666724,
                0.3903762393418555,
                0.33393984296075974
            ]
        },
        {
            "positions": [
                -0.21074223598362163,
                -0.5901185291698539,
                0.9443975541190228,
                1.5291368822948965,
                0.3248080398568205,
                0.2903311182866183
            ]
        },
        {
            "positions": [
                -0.16294618595827592,
                -0.6171376990171304,
                1.0951365573774987,
                1.5872177379230692,
                0.25923984037178527,
                0.24672239361247683
            ]
        },
        {
            "positions": [
                -0.11515013593293033,
                -0.6441568688644066,
                1.2458755606359746,
                1.6452985935512416,
                0.19367164088675004,
                0.20311366893833538
            ]
        },
        {
            "positions": [
                -0.06735408590758496,
                -0.671176038711683,
                1.3966145638944505,
                1.7033794491794139,
                0.12810344140171503,
                0.15950494426419393
            ]
        },
        {
            "positions": [
                -0.019558035882239366,
                -0.6981952085589593,
                1.5473535671529264,
                1.7614603048075863,
                0.06253524191668003,
                0.11589621959005258
            ]
        },
        {
            "positions": [
                0.02823801414310645,
                -0.7252143784062357,
                1.6980925704114023,
                1.819541160435759,
                -0.003032957568355199,
                0.07228749491591113
            ]
        },
        {
            "positions": [
                0.07603406416845182,
                -0.7522335482535121,
                1.8488315736698782,
                1.8776220160639314,
                -0.06860115705339043,
                0.02867877024176968
            ]
        },
        {
            "positions": [
                0.12383011419379732,
                -0.7792527181007884,
                1.999570576928354,
                1.9357028716921039,
                -0.1341693565384254,
                -0.014929954432371773
            ]
        }
    ]
}