{
    "goal": {
        "global_pose": {
            "orientation": {
                "w": 0.7047431468963623,
                "x": -0.7094548344612122,
                "y": 0.0024358443915843964,
                "z": -0.0022348060738295317
            },
            "position": {
                "x": 0.6094750761985779,
                "y": 0.3671506643295288,
                "z": 0.19426114857196808
            }
        },
        "name": "move_to_magneteinheit_A"
    },
    "id": "RRTConnect_move_to_magneteinheit_A_76",
    "joint_names": [
        "shoulder_pan_joint",
        "shoulder_lift_joint",
        "elbow_joint",
        "wrist_1_joint",
        "wrist_2_joint",
        "wrist_3_joint"
    ],
    "metrics": {
        "cart_traj_len": 2.067388510283024,
        "distance_elbow_joint": 3.8872731755431884,
        "distance_shoulder_lift_joint": 1.0590004163109108,
        "distance_shoulder_pan_joint": 1.2409012679983693,
        "distance_wrist_1_joint": 1.196420858325137,
        "distance_wrist_2_joint": 1.4507126183064478,
        "distance_wrist_3_joint": 1.9542163036761888,
        "smoothness": 3.6752210284966843e-16,
        "time": 0.054165369000000005,
        "traj_len": 3.2845889606098724,
        "weighted_distance": 4.164623719394611
    },
    "planner": "RRTConnect",
    "start": {
        "state": {
            "elbow_joint": -1.919643507792019,
            "shoulder_lift_joint": -0.07675430207160344,
            "shoulder_pan_joint": -1.1188671864651873,
            "wrist_1_joint": 0.42560062535961957,
            "wrist_2_joint": 1.5706038300724876,
            "wrist_3_joint": 1.1188968870953055
        }
    },
    "waypoints": [
        {
            "positions": [
                -1.1188671864651873,
                -0.07675430207160344,
                -1.919643507792019,
                0.42560062535961957,
                1.5706038300724876,
                1.1188968870953055
            ]
        },
        {
            "positions": [
                -1.0745492840366742,
                -0.11457574551127883,
                -1.780812322951191,
                0.3828713089908647,
                1.5187926651329715,
                1.1886903265123123
            ]
        },
        {
            "positions": [
                -1.030231381608161,
                -0.15239718895095422,
                -1.6419811381103628,
                0.34014199262210976,
                1.4669815001934556,
                1.258483765929319
            ]
        },
        {
            "positions": [
                -0.9859134791796478,
                -0.19021863239062958,
                -1.5031499532695347,
                0.2974126762533549,
                1.4151703352539395,
                1.3282772053463257
            ]
        },
        {
            "positions": [
                -0.9415955767511346,
                -0.22804007583030497,
                -1.3643187684287064,
                0.2546833598846,
                1.3633591703144237,
                1.3980706447633324
            ]
        },
        {
            "positions": [
                -0.8972776743226214,
                -0.26586151926998036,
                -1.2254875835878782,
                0.2119540435158451,
                1.3115480053749076,
                1.4678640841803392
            ]
        },
        {
            "positions": [
                -0.8529597718941082,
                -0.3036829627096558,
                -1.0866563987470501,
                0.16922472714709025,
                1.2597368404353917,
                1.537657523597346
            ]
        },
        {
            "positions": [
                -0.808641869465595,
                -0.34150440614933114,
                -0.947825213906222,
                0.12649541077833532,
                1.2079256754958756,
                1.6074509630143528
            ]
        },
        {
            "positions": [
                -0.7643239670370818,
                -0.3793258495890065,
                -0.8089940290653939,
                0.08376609440958044,
                1.1561145105563597,
                1.6772444024313593
            ]
        },
        {
            "positions": [
                -0.7200060646085686,
                -0.4171472930286819,
                -0.6701628442245655,
                0.041036778040825506,
                1.1043033456168436,
                1.7470378418483663
            ]
        },
        {
            "positions": [
                -0.6756881621800555,
                -0.4549687364683573,
                -0.5313316593837374,
                -0.0016925383279293715,
                1.0524921806773277,
                1.8168312812653729
            ]
        },
        {
            "positions": [
                -0.6313702597515423,
                -0.4927901799080327,
                -0.3925004745429095,
                -0.04442185469668425,
                1.0006810157378117,
                1.8866247206823799
            ]
        },
        {
            "positions": [
                -0.5870523573230291,
                -0.5306116233477081,
                -0.25366928970208136,
                -0.08715117106543907,
                0.9488698507982957,
                1.9564181600993864
            ]
        },
        {
            "positions": [
                -0.5427344548945159,
                -0.5684330667873835,
                -0.11483810486125301,
                -0.12988048743419406,
                0.8970586858587797,
                2.0262115995163934
            ]
        },
        {
            "positions": [
                -0.4984165524660027,
                -0.6062545102270589,
                0.023993079979575116,
                -0.17260980380294894,
                0.8452475209192637,
                2.0960050389334
            ]
        },
        {
            "positions": [
                -0.4540986500374895,
                -0.6440759536667342,
                0.16282426482040324,
                -0.2153391201717038,
                0.7934363559797477,
                2.165798478350407
            ]
        },
        {
            "positions": [
                -0.4097807476089763,
                -0.6818973971064095,
                0.30165544966123137,
                -0.2580684365404587,
                0.7416251910402317,
                2.2355919177674135
            ]
        },
        {
            "positions": [
                -0.36546284518046324,
                -0.719718840546085,
                0.4404866345020595,
                -0.30079775290921357,
                0.6898140261007157,
                2.30538535718442
            ]
        },
        {
            "positions": [
                -0.3211449427519498,
                -0.7575402839857603,
                0.5793178193428881,
                -0.34352706927796856,
                0.6380028611611996,
                2.375178796601427
            ]
        },
        {
            "positions": [
                -0.27682704032343675,
                -0.7953617274254359,
                0.7181490041837162,
                -0.38625638564672343,
                0.5861916962216837,
                2.444972236018434
            ]
        },
        {
            "positions": [
                -0.23250913789492356,
                -0.8331831708651112,
                0.8569801890245443,
                -0.4289857020154783,
                0.5343805312821677,
                2.5147656754354406
            ]
        },
        {
            "positions": [
                -0.18819123546641037,
                -0.8710046143047865,
                0.995811373865372,
                -0.4717150183842332,
                0.4825693663426518,
                2.584559114852447
            ]
        },
        {
            "positions": [
                -0.14387333303789718,
                -0.908826057744462,
                1.1346425587062001,
                -0.5144443347529881,
                0.4307582014031357,
                2.6543525542694537
            ]
        },
        {
            "positions": [
                -0.09955543060938399,
                -0.9466475011841373,
                1.2734737435470282,
                -0.5571736511217429,
                0.3789470364636198,
                2.7241459936864603
            ]
        },
        {
            "positions": [
                -0.0552375281808708,
                -0.9844689446238126,
                1.4123049283878564,
                -0.5999029674904977,
                0.3271358715241037,
                2.7939394331034673
            ]
        },
        {
            "positions": [
                -0.010919625752357609,
                -1.0222903880634882,
                1.551136113228685,
                -0.6426322838592529,
                0.27532470658458763,
                2.8637328725204743
            ]
        },
        {
            "positions": [
                0.03339827667615558,
                -1.0601118315031635,
                1.689967298069513,
                -0.6853616002280076,
                0.22351354164507176,
                2.933526311937481
            ]
        },
        {
            "positions": [
                0.07771617910466877,
                -1.097933274942839,
                1.8287984829103412,
                -0.7280909165967626,
                0.17170237670555566,
                3.0033197513544874
            ]
        },
        {
            "positions": [
                0.12203408153318192,
                -1.1357547183825143,
                1.967629667751169,
                -0.7708202329655175,
                0.11989121176603976,
                3.0731131907714944
            ]
        }
    ]
}