{
    "goal": {
        "global_pose": {
            "orientation": {
                "w": -0.00223480608172531,
                "x": 0.0024358444001904467,
                "y": 0.7094548369677653,
                "z": -0.704743149386269
            },
            "position": {
                "x": 0.6205249238014221,
                "y": -0.6371506643295288,
                "z": 0.19426114857196808
            }
        },
        "name": "move_to_magneteinheit_B"
    },
    "id": "RRTConnect_move_to_magneteinheit_B_147",
    "joint_names": [
        "shoulder_pan_joint",
        "shoulder_lift_joint",
        "elbow_joint",
        "wrist_1_joint",
        "wrist_2_joint",
        "wrist_3_joint"
    ],
    "metrics": {
        "cart_traj_len": 1.4538833447501562,
        "distance_elbow_joint": 0.729322918273476,
        "distance_shoulder_lift_joint": 1.2481424760876356,
        "distance_shoulder_pan_joint": 1.6209499702395969,
        "distance_wrist_1_joint": 2.61256815986938,
        "distance_wrist_2_joint": 2.9360416822903135,
        "distance_wrist_3_joint": 3.1500354601894216,
        "smoothness": 1.076579911191508e-16,
        "time": 0.11414181300000001,
        "traj_len": 3.5067165079244464,
        "weighted_distance": 4.9138316443981225
    },
    "planner": "RRTConnect",
    "start": {
        "state": {
            "elbow_joint": 2.39358713078474,
            "shoulder_lift_joint": -1.908514104345545,
            "shoulder_pan_joint": 0.7066247066606129,
            "wrist_1_joint": -0.4678290933515497,
            "wrist_2_joint": 0.7096259083745334,
            "wrist_3_joint": -3.1358149277392293
        }
    },
    "waypoints": [
        {
            "positions": [
                0.7066247066606129,
                -1.908514104345545,
                2.39358713078474,
                -0.4678290933515497,
                0.7096259083745334,
                -3.1358149277392293
            ]
        },
        {
            "positions": [
                0.6559700200906255,
                -1.8695096519678063,
                2.3707957895886937,
                -0.3861863383556316,
                0.6178746058029612,
                -3.0373763196083097
            ]
        },
        {
            "positions": [
                0.6053153335206382,
                -1.8305051995900676,
                2.348004448392648,
                -0.30454358335971343,
                0.5261233032313888,
                -2.9389377114773905
            ]
        },
        {
            "positions": [
                0.5546606469506508,
                -1.791500747212329,
                2.3252131071966016,
                -0.22290082836379532,
                0.4343720006598165,
                -2.8404991033464713
            ]
        },
        {
            "positions": [
                0.5040059603806634,
                -1.7524962948345904,
                2.3024217660005557,
                -0.1412580733678772,
                0.34262069808824425,
                -2.7420604952155516
            ]
        },
        {
            "positions": [
                0.4533512738106759,
                -1.713491842456852,
                2.2796304248045094,
                -0.0596153183719591,
                0.250869395516672,
                -2.643621887084632
            ]
        },
        {
            "positions": [
                0.4026965872406885,
                -1.6744873900791133,
                2.2568390836084635,
                0.022027436623959062,
                0.1591180929450996,
                -2.5451832789537128
            ]
        },
        {
            "positions": [
                0.3520419006707011,
                -1.6354829377013747,
                2.234047742412417,
                0.10367019161987717,
                0.06736679037352733,
                -2.4467446708227936
            ]
        },
        {
            "positions": [
                0.30138721410071373,
                -1.596478485323636,
                2.211256401216371,
                0.18531294661579528,
                -0.02438451219804494,
                -2.348306062691874
            ]
        },
        {
            "positions": [
                0.25073252753072633,
                -1.5574740329458974,
                2.188465060020325,
                0.2669557016117134,
                -0.11613581476961721,
                -2.2498674545609543
            ]
        },
        {
            "positions": [
                0.20007784096073888,
                -1.5184695805681587,
                2.1656737188242787,
                0.3485984566076315,
                -0.20788711734118948,
                -2.151428846430035
            ]
        },
        {
            "positions": [
                0.1494231543907515,
                -1.4794651281904203,
                2.142882377628233,
                0.4302412116035496,
                -0.29963841991276186,
                -2.052990238299116
            ]
        },
        {
            "positions": [
                0.0987684678207641,
                -1.4404606758126817,
                2.1200910364321865,
                0.5118839665994679,
                -0.39138972248433423,
                -1.9545516301681962
            ]
        },
        {
            "positions": [
                0.0481137812507767,
                -1.401456223434943,
                2.0972996952361402,
                0.5935267215953859,
                -0.4831410250559064,
                -1.8561130220372768
            ]
        },
        {
            "positions": [
                -0.0025409053192106956,
                -1.3624517710572044,
                2.0745083540400944,
                0.6751694765913041,
                -0.5748923276274788,
                -1.7576744139063574
            ]
        },
        {
            "positions": [
                -0.05319559188919809,
                -1.3234473186794657,
                2.051717012844048,
                0.7568122315872221,
                -0.6666436301990509,
                -1.659235805775438
            ]
        },
        {
            "positions": [
                -0.10385027845918549,
                -1.284442866301727,
                2.028925671648002,
                0.8384549865831403,
                -0.7583949327706233,
                -1.5607971976445185
            ]
        },
        {
            "positions": [
                -0.15450496502917288,
                -1.2454384139239885,
                2.006134330451956,
                0.9200977415790585,
                -0.8501462353421957,
                -1.462358589513599
            ]
        },
        {
            "positions": [
                -0.20515965159916028,
                -1.2064339615462498,
                1.9833429892559098,
                1.0017404965749765,
                -0.9418975379137678,
                -1.3639199813826797
            ]
        },
        {
            "positions": [
                -0.25581433816914767,
                -1.1674295091685112,
                1.9605516480598637,
                1.0833832515708948,
                -1.0336488404853403,
                -1.2654813732517602
            ]
        },
        {
            "positions": [
                -0.3064690247391352,
                -1.1284250567907725,
                1.9377603068638176,
                1.1650260065668128,
                -1.1254001430569125,
                -1.1670427651208408
            ]
        },
        {
            "positions": [
                -0.35712371130912246,
                -1.089420604413034,
                1.9149689656677715,
                1.246668761562731,
                -1.2171514456284847,
                -1.0686041569899212
            ]
        },
        {
            "positions": [
                -0.40777839787910997,
                -1.0504161520352955,
                1.8921776244717252,
                1.328311516558649,
                -1.3089027482000573,
                -0.970165548859002
            ]
        },
        {
            "positions": [
                -0.45843308444909725,
                -1.0114116996575568,
                1.8693862832756794,
                1.4099542715545672,
                -1.4006540507716294,
                -0.8717269407280828
            ]
        },
        {
            "positions": [
                -0.5090877710190848,
                -0.9724072472798182,
                1.846594942079633,
                1.4915970265504854,
                -1.492405353343202,
                -0.7732883325971631
            ]
        },
        {
            "positions": [
                -0.559742457589072,
                -0.9334027949020796,
                1.823803600883587,
                1.5732397815464036,
                -1.5841566559147742,
                -0.6748497244662435
            ]
        },
        {
            "positions": [
                -0.6103971441590595,
                -0.8943983425243409,
                1.8010122596875409,
                1.6548825365423214,
                -1.6759079584863463,
                -0.5764111163353243
            ]
        },
        {
            "positions": [
                -0.6610518307290468,
                -0.8553938901466023,
                1.7782209184914948,
                1.7365252915382396,
                -1.7676592610579185,
                -0.47797250820440507
            ]
        },
        {
            "positions": [
                -0.7117065172990343,
                -0.8163894377688639,
                1.7554295772954487,
                1.8181680465341579,
                -1.859410563629491,
                -0.3795339000734854
            ]
        },
        {
            "positions": [
                -0.7623612038690216,
                -0.7773849853911252,
                1.7326382360994024,
                1.899810801530076,
                -1.9511618662010632,
                -0.2810952919425658
            ]
        },
        {
            "positions": [
                -0.8130158904390091,
                -0.7383805330133866,
                1.7098468949033565,
                1.9814535565259939,
                -2.0429131687726354,
                -0.18265668381164657
            ]
        },
        {
            "positions": [
                -0.8636705770089964,
                -0.6993760806356479,
                1.6870555537073102,
                2.063096311521912,
                -2.134664471344208,
                -0.08421807568072737
            ]
        },
        {
            "positions": [
                -0.9143252635789839,
                -0.6603716282579093,
                1.664264212511264,
                2.1447390665178303,
                -2.22641577391578,
                0.014220532450192195
            ]
        }
    ]
}