{
    "goal": {
        "global_pose": {
            "orientation": {
                "w": 0.7047431468963623,
                "x": -0.7094548344612122,
                "y": 0.0024358443915843964,
                "z": -0.0022348060738295317
            },
            "position": {
                "x": 0.6094750761985779,
                "y": 0.3671506643295288,
                "z": 0.19426114857196808
            }
        },
        "name": "move_to_magneteinheit_A"
    },
    "id": "RRTConnect_move_to_magneteinheit_A_87",
    "joint_names": [
        "shoulder_pan_joint",
        "shoulder_lift_joint",
        "elbow_joint",
        "wrist_1_joint",
        "wrist_2_joint",
        "wrist_3_joint"
    ],
    "metrics": {
        "cart_traj_len": 1.8798075986388518,
        "distance_elbow_joint": 3.9118105357354054,
        "distance_shoulder_lift_joint": 0.6996916047104824,
        "distance_shoulder_pan_joint": 1.2413232857433096,
        "distance_wrist_1_joint": 1.4868367069767139,
        "distance_wrist_2_joint": 1.6989150623450733,
        "distance_wrist_3_joint": 1.0954148308694276,
        "smoothness": 3.6185046736692446e-16,
        "time": 0.055675164,
        "traj_len": 3.1833931623945557,
        "weighted_distance": 3.938346538516012
    },
    "planner": "RRTConnect",
    "start": {
        "state": {
            "elbow_joint": -1.919643507792019,
            "shoulder_lift_joint": -0.07675430207160344,
            "shoulder_pan_joint": -1.1188671864651873,
            "wrist_1_joint": 0.42560062535961957,
            "wrist_2_joint": 1.5706038300724876,
            "wrist_3_joint": 1.1188968870953055
        }
    },
    "waypoints": [
        {
            "positions": [
                -1.1188671864651873,
                -0.07675430207160344,
                -1.919643507792019,
                0.42560062535961957,
                1.5706038300724876,
                1.1188968870953055
            ]
        },
        {
            "positions": [
                -1.0711239831673678,
                -0.10366551763739124,
                -1.7691892564175804,
                0.48278665255103165,
                1.5052609430592157,
                1.0767655474464815
            ]
        },
        {
            "positions": [
                -1.0233807798695482,
                -0.13057673320317903,
                -1.6187350050431417,
                0.5399726797424437,
                1.4399180560459435,
                1.0346342077976574
            ]
        },
        {
            "positions": [
                -0.9756375765717286,
                -0.1574879487689668,
                -1.468280753668703,
                0.5971587069338558,
                1.3745751690326715,
                0.9925028681488332
            ]
        },
        {
            "positions": [
                -0.9278943732739089,
                -0.1843991643347546,
                -1.3178265022942643,
                0.6543447341252678,
                1.3092322820193993,
                0.9503715285000089
            ]
        },
        {
            "positions": [
                -0.8801511699760893,
                -0.21131037990054238,
                -1.1673722509198257,
                0.7115307613166799,
                1.2438893950061274,
                0.9082401888511848
            ]
        },
        {
            "positions": [
                -0.8324079666782698,
                -0.23822159546633015,
                -1.016917999545387,
                0.768716788508092,
                1.1785465079928552,
                0.8661088492023608
            ]
        },
        {
            "positions": [
                -0.7846647633804502,
                -0.26513281103211794,
                -0.8664637481709485,
                0.8259028156995041,
                1.1132036209795833,
                0.8239775095535367
            ]
        },
        {
            "positions": [
                -0.7369215600826304,
                -0.29204402659790574,
                -0.7160094967965096,
                0.8830888428909162,
                1.0478607339663113,
                0.7818461699047125
            ]
        },
        {
            "positions": [
                -0.6891783567848109,
                -0.31895524216369353,
                -0.5655552454220711,
                0.9402748700823282,
                0.9825178469530392,
                0.7397148302558882
            ]
        },
        {
            "positions": [
                -0.6414351534869913,
                -0.3458664577294813,
                -0.41510099404763223,
                0.9974608972737404,
                0.917174959939767,
                0.6975834906070641
            ]
        },
        {
            "positions": [
                -0.5936919501891718,
                -0.37277767329526906,
                -0.26464674267319377,
                1.0546469244651524,
                0.8518320729264951,
                0.65545215095824
            ]
        },
        {
            "positions": [
                -0.5459487468913521,
                -0.39968888886105686,
                -0.11419249129875486,
                1.1118329516565644,
                0.7864891859132229,
                0.6133208113094158
            ]
        },
        {
            "positions": [
                -0.49820554359353253,
                -0.42660010442684465,
                0.0362617600756836,
                1.1690189788479766,
                0.721146298899951,
                0.5711894716605918
            ]
        },
        {
            "positions": [
                -0.45046234029571297,
                -0.45351131999263244,
                0.18671601145012207,
                1.2262050060393885,
                0.655803411886679,
                0.5290581320117677
            ]
        },
        {
            "positions": [
                -0.4027191369978934,
                -0.4804225355584202,
                0.33717026282456053,
                1.2833910332308005,
                0.5904605248734069,
                0.48692679236294356
            ]
        },
        {
            "positions": [
                -0.35497593370007363,
                -0.507333751124208,
                0.4876245141989999,
                1.3405770604222127,
                0.5251176378601348,
                0.44479545271411935
            ]
        },
        {
            "positions": [
                -0.3072327304022541,
                -0.5342449666899958,
                0.6380787655734383,
                1.3977630876136249,
                0.4597747508468628,
                0.40266411306529515
            ]
        },
        {
            "positions": [
                -0.2594895271044345,
                -0.5611561822557836,
                0.7885330169478768,
                1.4549491148050369,
                0.39443186383359086,
                0.36053277341647105
            ]
        },
        {
            "positions": [
                -0.21174632380661496,
                -0.5880673978215714,
                0.9389872683223153,
                1.5121351419964488,
                0.3290889768203187,
                0.31840143376764696
            ]
        },
        {
            "positions": [
                -0.16400312050879529,
                -0.6149786133873592,
                1.0894415196967546,
                1.5693211691878612,
                0.2637460898070465,
                0.27627009411882275
            ]
        },
        {
            "positions": [
                -0.11625991721097573,
                -0.641889828953147,
                1.239895771071193,
                1.6265071963792732,
                0.19840320279377455,
                0.23413875446999866
            ]
        },
        {
            "positions": [
                -0.06851671391315617,
                -0.6688010445189347,
                1.3903500224456316,
                1.6836932235706852,
                0.1330603157805026,
                0.19200741482117456
            ]
        },
        {
            "positions": [
                -0.02077351061533661,
                -0.6957122600847225,
                1.54080427382007,
                1.7408792507620972,
                0.06771742876723064,
                0.14987607517235035
            ]
        },
        {
            "positions": [
                0.02696969268248317,
                -0.7226234756505103,
                1.6912585251945094,
                1.7980652779535093,
                0.002374541753958237,
                0.10774473552352615
            ]
        },
        {
            "positions": [
                0.07471289598030273,
                -0.7495346912162981,
                1.8417127765689478,
                1.8552513051449215,
                -0.06296834525931372,
                0.06561339587470205
            ]
        },
        {
            "positions": [
                0.12245609927812234,
                -0.7764459067820859,
                1.992167027943386,
                1.9124373323363335,
                -0.12831123227258567,
                0.02348205622587805
            ]
        }
    ]
}