{
    "goal": {
        "global_pose": {
            "orientation": {
                "w": -0.00223480608172531,
                "x": 0.0024358444001904467,
                "y": 0.7094548369677653,
                "z": -0.704743149386269
            },
            "position": {
                "x": 0.6205249238014221,
                "y": -0.6371506643295288,
                "z": 0.19426114857196808
            }
        },
        "name": "move_to_magneteinheit_B"
    },
    "id": "RRTConnect_move_to_magneteinheit_B_92",
    "joint_names": [
        "shoulder_pan_joint",
        "shoulder_lift_joint",
        "elbow_joint",
        "wrist_1_joint",
        "wrist_2_joint",
        "wrist_3_joint"
    ],
    "metrics": {
        "cart_traj_len": 3.671879477863874,
        "distance_elbow_joint": 4.679547730802628,
        "distance_shoulder_lift_joint": 0.8674813563443058,
        "distance_shoulder_pan_joint": 2.7290131062542895,
        "distance_wrist_1_joint": 3.2393448267545253,
        "distance_wrist_2_joint": 2.660522032351226,
        "distance_wrist_3_joint": 6.289871523896235,
        "smoothness": 0.21065376099146488,
        "time": 0.489692465,
        "traj_len": 4.523912087607716,
        "weighted_distance": 6.2406242062234
    },
    "planner": "RRTConnect",
    "start": {
        "state": {
            "elbow_joint": 2.39358713078474,
            "shoulder_lift_joint": -1.908514104345545,
            "shoulder_pan_joint": 0.7066247066606129,
            "wrist_1_joint": -0.4678290933515497,
            "wrist_2_joint": 0.7096259083745334,
            "wrist_3_joint": -3.1358149277392293
        }
    },
    "waypoints": [
        {
            "positions": [
                0.7066247066606129,
                -1.908514104345545,
                2.39358713078474,
                -0.4678290933515497,
                0.7096259083745334,
                -3.1358149277392293
            ]
        },
        {
            "positions": [
                0.6719011559576377,
                -1.915854136882088,
                2.378280832367146,
                -0.3949270210017634,
                0.6338574406135373,
                -2.9854048128263675
            ]
        },
        {
            "positions": [
                0.6371776052546625,
                -1.9231941694186312,
                2.362974533949552,
                -0.32202494865197717,
                0.5580889728525413,
                -2.8349946979135057
            ]
        },
        {
            "positions": [
                0.6024540545516872,
                -1.9305342019551743,
                2.347668235531958,
                -0.24912287630219088,
                0.4823205050915453,
                -2.6845845830006443
            ]
        },
        {
            "positions": [
                0.567730503848712,
                -1.9378742344917177,
                2.332361937114364,
                -0.17622080395240458,
                0.40655203733054923,
                -2.5341744680877825
            ]
        },
        {
            "positions": [
                0.5330069531457368,
                -1.9452142670282608,
                2.31705563869677,
                -0.10331873160261829,
                0.3307835695695531,
                -2.3837643531749206
            ]
        },
        {
            "positions": [
                0.4982834024427616,
                -1.952554299564804,
                2.301749340279176,
                -0.030416659252832046,
                0.25501510180855713,
                -2.233354238262059
            ]
        },
        {
            "positions": [
                0.4635598517397863,
                -1.9598943321013471,
                2.286443041861582,
                0.0424854130969543,
                0.17924663404756108,
                -2.082944123349197
            ]
        },
        {
            "positions": [
                0.42645420699734815,
                -1.9586706470658601,
                2.205453974790947,
                0.08041606908879317,
                0.11291873463900803,
                -1.9926844344547696
            ]
        },
        {
            "positions": [
                0.38934856225490994,
                -1.9574469620303732,
                2.1244649077203124,
                0.11834672508063203,
                0.04659083523045497,
                -1.902424745560342
            ]
        },
        {
            "positions": [
                0.4157117108350231,
                -1.9366325627375465,
                1.9476713488068538,
                0.07172349558256622,
                -0.0262573175204677,
                -1.8546234611596781
            ]
        },
        {
            "positions": [
                0.4420748594151363,
                -1.9158181634447196,
                1.7708777898933952,
                0.025100266084500403,
                -0.09910547027139037,
                -1.8068221767590142
            ]
        },
        {
            "positions": [
                0.4684380079952495,
                -1.8950037641518929,
                1.5940842309799366,
                -0.021522963413565396,
                -0.17195362302231304,
                -1.7590208923583504
            ]
        },
        {
            "positions": [
                0.4948011565753626,
                -1.8741893648590662,
                1.417290672066478,
                -0.06814619291163122,
                -0.2448017757732357,
                -1.7112196079576862
            ]
        },
        {
            "positions": [
                0.5211643051554758,
                -1.8533749655662395,
                1.2404971131530194,
                -0.11476942240969705,
                -0.3176499285241584,
                -1.6634183235570223
            ]
        },
        {
            "positions": [
                0.547527453735589,
                -1.8325605662734126,
                1.0637035542395608,
                -0.1613926519077628,
                -0.39049808127508107,
                -1.6156170391563585
            ]
        },
        {
            "positions": [
                0.5738906023157022,
                -1.8117461669805859,
                0.8869099953261022,
                -0.20801588140582866,
                -0.4633462340260038,
                -1.5678157547556946
            ]
        },
        {
            "positions": [
                0.6002537508958153,
                -1.7909317676877592,
                0.7101164364126435,
                -0.25463911090389446,
                -0.5361943867769264,
                -1.5200144703550307
            ]
        },
        {
            "positions": [
                0.6266168994759286,
                -1.7701173683949323,
                0.5333228774991847,
                -0.3012623404019603,
                -0.6090425395278493,
                -1.4722131859543666
            ]
        },
        {
            "positions": [
                0.6529800480560417,
                -1.7493029691021056,
                0.35652931858572634,
                -0.3478855699000261,
                -0.6818906922787719,
                -1.424411901553703
            ]
        },
        {
            "positions": [
                0.6793431966361549,
                -1.728488569809279,
                0.17973575967226774,
                -0.3945087993980919,
                -0.7547388450296946,
                -1.3766106171530388
            ]
        },
        {
            "positions": [
                0.7057063452162681,
                -1.7076741705164522,
                0.0029422007588091326,
                -0.44113202889615766,
                -0.8275869977806172,
                -1.3288093327523751
            ]
        },
        {
            "positions": [
                0.7320694937963812,
                -1.6868597712236253,
                -0.17385135815464947,
                -0.4877552583942236,
                -0.90043515053154,
                -1.281008048351711
            ]
        },
        {
            "positions": [
                0.7584326423764944,
                -1.6660453719307986,
                -0.350644917068108,
                -0.5343784878922894,
                -0.9732833032824625,
                -1.2332067639510471
            ]
        },
        {
            "positions": [
                0.852920762659451,
                -1.6701130700320062,
                -0.43567423872655586,
                -0.629613149838064,
                -0.985842538393698,
                -1.1327125161272107
            ]
        },
        {
            "positions": [
                0.9474088829424075,
                -1.6741807681332135,
                -0.5207035603850036,
                -0.7248478117838386,
                -0.9984017735049335,
                -1.0322182683033745
            ]
        },
        {
            "positions": [
                1.041897003225364,
                -1.678248466234421,
                -0.6057328820434514,
                -0.8200824737296133,
                -1.0109610086161689,
                -0.9317240204795381
            ]
        },
        {
            "positions": [
                1.1363851235083207,
                -1.6823161643356284,
                -0.6907622037018992,
                -0.915317135675388,
                -1.0235202437274045,
                -0.8312297726557019
            ]
        },
        {
            "positions": [
                1.2308732437912773,
                -1.686383862436836,
                -0.7757915253603471,
                -1.0105517976211627,
                -1.03607947883864,
                -0.7307355248318654
            ]
        },
        {
            "positions": [
                1.3253613640742339,
                -1.6904515605380432,
                -0.8608208470187948,
                -1.105786459566937,
                -1.0486387139498754,
                -0.6302412770080291
            ]
        },
        {
            "positions": [
                1.4198494843571905,
                -1.6945192586392508,
                -0.9458501686772427,
                -1.2010211215127118,
                -1.061197949061111,
                -0.5297470291841928
            ]
        },
        {
            "positions": [
                1.514337604640147,
                -1.6985869567404583,
                -1.0308794903356906,
                -1.2962557834584865,
                -1.0737571841723466,
                -0.4292527813603565
            ]
        },
        {
            "positions": [
                1.6088257249231037,
                -1.7026546548416657,
                -1.1159088119941383,
                -1.3914904454042611,
                -1.086316419283582,
                -0.3287585335365202
            ]
        },
        {
            "positions": [
                1.70331384520606,
                -1.7067223529428732,
                -1.2009381336525862,
                -1.4867251073500358,
                -1.0988756543948175,
                -0.22826428571268376
            ]
        },
        {
            "positions": [
                1.7978019654890167,
                -1.7107900510440806,
                -1.285967455311034,
                -1.5819597692958105,
                -1.111434889506053,
                -0.12777003788884733
            ]
        },
        {
            "positions": [
                1.8922900857719733,
                -1.714857749145288,
                -1.3709967769694817,
                -1.6771944312415852,
                -1.1239941246172884,
                -0.02727579006501113
            ]
        },
        {
            "positions": [
                1.98677820605493,
                -1.7189254472464957,
                -1.4560260986279296,
                -1.7724290931873599,
                -1.136553359728524,
                0.0732184577588253
            ]
        },
        {
            "positions": [
                2.0812663263378863,
                -1.722993145347703,
                -1.5410554202863775,
                -1.8676637551331345,
                -1.1491125948397596,
                0.1737127055826615
            ]
        },
        {
            "positions": [
                2.175754446620843,
                -1.7270608434489105,
                -1.6260847419448254,
                -1.9628984170789092,
                -1.161671829950995,
                0.2742069534064979
            ]
        },
        {
            "positions": [
                2.2702425669037996,
                -1.7311285415501179,
                -1.7111140636032731,
                -2.058133079024684,
                -1.1742310650622305,
                0.3747012012303341
            ]
        },
        {
            "positions": [
                2.364730687186756,
                -1.7351962396513254,
                -1.796143385261721,
                -2.1533677409704586,
                -1.186790300173466,
                0.47519544905417055
            ]
        },
        {
            "positions": [
                2.4592188074697128,
                -1.7392639377525327,
                -1.8811727069201687,
                -2.2486024029162333,
                -1.1993495352847015,
                0.5756896968780068
            ]
        },
        {
            "positions": [
                2.5537069277526694,
                -1.7433316358537403,
                -1.9662020285786166,
                -2.343837064862008,
                -1.211908770395937,
                0.6761839447018433
            ]
        },
        {
            "positions": [
                2.5758987525254398,
                -1.781863990670154,
                -1.9460900932448943,
                -2.363767757724681,
                -1.1576228947090441,
                0.8836642537753967
            ]
        },
        {
            "positions": [
                2.59809057729821,
                -1.820396345486568,
                -1.9259781579111719,
                -2.3836984505873544,
                -1.1033370190221512,
                1.0911445628489502
            ]
        },
        {
            "positions": [
                2.620282402070981,
                -1.8589287003029815,
                -1.9058662225774496,
                -2.4036291434500274,
                -1.0490511433352585,
                1.2986248719225038
            ]
        },
        {
            "positions": [
                2.6424742268437513,
                -1.8974610551193953,
                -1.8857542872437274,
                -2.423559836312701,
                -0.9947652676483656,
                1.506105180996057
            ]
        },
        {
            "positions": [
                2.6646660516165217,
                -1.9359934099358092,
                -1.8656423519100052,
                -2.443490529175374,
                -0.9404793919614727,
                1.7135854900696108
            ]
        },
        {
            "positions": [
                2.6868578763892925,
                -1.9745257647522227,
                -1.845530416576283,
                -2.463421222038047,
                -0.8861935162745799,
                1.921065799143164
            ]
        },
        {
            "positions": [
                2.709049701162063,
                -2.013058119568637,
                -1.8254184812425605,
                -2.4833519149007204,
                -0.8319076405876871,
                2.1285461082167174
            ]
        },
        {
            "positions": [
                2.7312415259348333,
                -2.0515904743850504,
                -1.8053065459088382,
                -2.5032826077633934,
                -0.7776217649007942,
                2.336026417290271
            ]
        },
        {
            "positions": [
                2.7137805263926675,
                -2.085767240875976,
                -1.765590773716466,
                -2.4953976888938136,
                -0.7014466778793911,
                2.5405339620069545
            ]
        },
        {
            "positions": [
                2.696319526850502,
                -2.119944007366902,
                -1.7258750015240936,
                -2.4875127700242343,
                -0.625271590857988,
                2.745041506723638
            ]
        },
        {
            "positions": [
                2.678858527308336,
                -2.154120773857828,
                -1.6861592293317214,
                -2.479627851154655,
                -0.5490965038365849,
                2.9495490514403206
            ]
        },
        {
            "positions": [
                2.6613975277661703,
                -2.1882975403487537,
                -1.6464434571393491,
                -2.4717429322850752,
                -0.47292141681518185,
                3.154056596157004
            ]
        }
    ]
}