{
    "goal": {
        "global_pose": {
            "orientation": {
                "w": 0.7047431468963623,
                "x": -0.7094548344612122,
                "y": 0.0024358443915843964,
                "z": -0.0022348060738295317
            },
            "position": {
                "x": 0.6094750761985779,
                "y": 0.3671506643295288,
                "z": 0.19426114857196808
            }
        },
        "name": "move_to_magneteinheit_A"
    },
    "id": "RRTConnect_move_to_magneteinheit_A_27",
    "joint_names": [
        "shoulder_pan_joint",
        "shoulder_lift_joint",
        "elbow_joint",
        "wrist_1_joint",
        "wrist_2_joint",
        "wrist_3_joint"
    ],
    "metrics": {
        "cart_traj_len": 1.8714073248084633,
        "distance_elbow_joint": 3.926837506940222,
        "distance_shoulder_lift_joint": 0.7073113702262631,
        "distance_shoulder_pan_joint": 1.242065945857076,
        "distance_wrist_1_joint": 1.5548407783946112,
        "distance_wrist_2_joint": 1.6921438708829655,
        "distance_wrist_3_joint": 1.1804057618211299,
        "smoothness": 8.247371052379026e-16,
        "time": 0.158884712,
        "traj_len": 3.20992293273877,
        "weighted_distance": 3.9889098018182993
    },
    "planner": "RRTConnect",
    "start": {
        "state": {
            "elbow_joint": -1.919643507792019,
            "shoulder_lift_joint": -0.07675430207160344,
            "shoulder_pan_joint": -1.1188671864651873,
            "wrist_1_joint": 0.42560062535961957,
            "wrist_2_joint": 1.5706038300724876,
            "wrist_3_joint": 1.1188968870953055
        }
    },
    "waypoints": [
        {
            "positions": [
                -1.1188671864651873,
                -0.07675430207160344,
                -1.919643507792019,
                0.42560062535961957,
                1.5706038300724876,
                1.1188968870953055
            ]
        },
        {
            "positions": [
                -1.0728647440260364,
                -0.10295101948739097,
                -1.774205081609048,
                0.48318732085571625,
                1.5079318348546,
                1.0751781551760045
            ]
        },
        {
            "positions": [
                -1.0268623015868854,
                -0.1291477369031785,
                -1.6287666554260767,
                0.540774016351813,
                1.4452598396367125,
                1.0314594232567034
            ]
        },
        {
            "positions": [
                -0.9808598591477344,
                -0.155344454318966,
                -1.4833282292431056,
                0.5983607118479097,
                1.3825878444188249,
                0.9877406913374023
            ]
        },
        {
            "positions": [
                -0.9348574167085835,
                -0.18154117173475354,
                -1.3378898030601345,
                0.6559474073440064,
                1.319915849200937,
                0.9440219594181012
            ]
        },
        {
            "positions": [
                -0.8888549742694325,
                -0.20773788915054106,
                -1.1924513768771632,
                0.7135341028401031,
                1.2572438539830495,
                0.9003032274988
            ]
        },
        {
            "positions": [
                -0.8428525318302815,
                -0.23393460656632858,
                -1.0470129506941919,
                0.7711207983361998,
                1.194571858765162,
                0.8565844955794989
            ]
        },
        {
            "positions": [
                -0.7968500893911306,
                -0.26013132398211614,
                -0.9015745245112208,
                0.8287074938322965,
                1.1318998635472743,
                0.8128657636601978
            ]
        },
        {
            "positions": [
                -0.7508476469519797,
                -0.28632804139790363,
                -0.7561360983282497,
                0.8862941893283932,
                1.0692278683293868,
                0.7691470317408967
            ]
        },
        {
            "positions": [
                -0.7048452045128287,
                -0.3125247588136912,
                -0.6106976721452784,
                0.94388088482449,
                1.0065558731114992,
                0.7254282998215956
            ]
        },
        {
            "positions": [
                -0.6588427620736778,
                -0.3387214762294787,
                -0.4652592459623073,
                1.0014675803205866,
                0.9438838778936115,
                0.6817095679022944
            ]
        },
        {
            "positions": [
                -0.6128403196345268,
                -0.36491819364526623,
                -0.3198208197793362,
                1.0590542758166834,
                0.8812118826757239,
                0.6379908359829933
            ]
        },
        {
            "positions": [
                -0.5668378771953758,
                -0.3911149110610537,
                -0.17438239359636487,
                1.11664097131278,
                0.8185398874578363,
                0.5942721040636922
            ]
        },
        {
            "positions": [
                -0.5208354347562248,
                -0.4173116284768413,
                -0.02894396741339378,
                1.1742276668088767,
                0.7558678922399488,
                0.5505533721443912
            ]
        },
        {
            "positions": [
                -0.4748329923170739,
                -0.4435083458926288,
                0.11649445876957754,
                1.2318143623049735,
                0.6931958970220611,
                0.5068346402250901
            ]
        },
        {
            "positions": [
                -0.4288305498779229,
                -0.4697050633084164,
                0.26193288495254907,
                1.2894010578010702,
                0.6305239018041734,
                0.46311590830578897
            ]
        },
        {
            "positions": [
                -0.38282810743877205,
                -0.4959017807242038,
                0.4073713111355197,
                1.3469877532971668,
                0.5678519065862859,
                0.4193971763864879
            ]
        },
        {
            "positions": [
                -0.33682566499962097,
                -0.5220984981399914,
                0.5528097373184913,
                1.4045744487932637,
                0.5051799113683981,
                0.3756784444671867
            ]
        },
        {
            "positions": [
                -0.2908232225604701,
                -0.548295215555779,
                0.6982481635014623,
                1.4621611442893603,
                0.44250791615051077,
                0.3319597125478857
            ]
        },
        {
            "positions": [
                -0.24482078012131903,
                -0.5744919329715665,
                0.8436865896844334,
                1.5197478397854571,
                0.379835920932623,
                0.2882409806285845
            ]
        },
        {
            "positions": [
                -0.19881833768216817,
                -0.6006886503873539,
                0.9891250158674045,
                1.5773345352815538,
                0.3171639257147354,
                0.2445222487092834
            ]
        },
        {
            "positions": [
                -0.15281589524301709,
                -0.6268853678031414,
                1.134563442050376,
                1.6349212307776506,
                0.2544919304968478,
                0.20080351678998232
            ]
        },
        {
            "positions": [
                -0.10681345280386623,
                -0.653082085218929,
                1.2800018682333467,
                1.6925079262737472,
                0.19181993527896024,
                0.15708478487068123
            ]
        },
        {
            "positions": [
                -0.06081101036471526,
                -0.6792788026347165,
                1.4254402944163183,
                1.750094621769844,
                0.12914794006107266,
                0.11336605295138003
            ]
        },
        {
            "positions": [
                -0.014808567925564287,
                -0.7054755200505041,
                1.5708787205992893,
                1.8076813172659407,
                0.06647594484318509,
                0.06964732103207893
            ]
        },
        {
            "positions": [
                0.031193874513586684,
                -0.7316722374662916,
                1.7163171467822609,
                1.8652680127620374,
                0.003803949625297287,
                0.025928589112777845
            ]
        },
        {
            "positions": [
                0.07719631695273765,
                -0.7578689548820792,
                1.8617555729652315,
                1.922854708258134,
                -0.05886804559259007,
                -0.017790142806523246
            ]
        },
        {
            "positions": [
                0.12319875939188853,
                -0.7840656722978666,
                2.0071939991482033,
                1.9804414037542308,
                -0.12154004081047777,
                -0.06150887472582435
            ]
        }
    ]
}