{
    "goal": {
        "global_pose": {
            "orientation": {
                "w": 0.7031023502349854,
                "x": -0.7110244035720825,
                "y": 0.007748599164187908,
                "z": 0.005598929710686207
            },
            "position": {
                "x": 0.11585023208521307,
                "y": 0.44412534475326537,
                "z": 0.3711530566215515
            }
        },
        "name": "move_to_auspresseinheit_A"
    },
    "id": "RRTConnect_move_to_auspresseinheit_A_96",
    "joint_names": [
        "shoulder_pan_joint",
        "shoulder_lift_joint",
        "elbow_joint",
        "wrist_1_joint",
        "wrist_2_joint",
        "wrist_3_joint"
    ],
    "metrics": {
        "cart_traj_len": 2.5863514284098197,
        "distance_elbow_joint": 1.0867999093933474,
        "distance_shoulder_lift_joint": 1.7640654968043858,
        "distance_shoulder_pan_joint": 5.154535807716754,
        "distance_wrist_1_joint": 2.8995888592005095,
        "distance_wrist_2_joint": 5.816051052441846,
        "distance_wrist_3_joint": 9.657868392035278,
        "smoothness": 0.5437466751619062,
        "time": 0.18831727199999998,
        "traj_len": 5.136040256617168,
        "weighted_distance": 7.3763328431751924
    },
    "planner": "RRTConnect",
    "start": {
        "state": {
            "elbow_joint": 2.422574709923281,
            "shoulder_lift_joint": -1.3736533754116391,
            "shoulder_pan_joint": -0.33786336945926293,
            "wrist_1_joint": -1.0288603412921917,
            "wrist_2_joint": 1.2330224858903978,
            "wrist_3_joint": -3.094022268022082
        }
    },
    "waypoints": [
        {
            "positions": [
                -0.33786336945926293,
                -1.3736533754116391,
                2.422574709923281,
                -1.0288603412921917,
                1.2330224858903978,
                -3.094022268022082
            ]
        },
        {
            "positions": [
                -0.28846882520673073,
                -1.4220499734394716,
                2.382864894601154,
                -0.9910337050840962,
                1.1570140956952992,
                -2.949508817830926
            ]
        },
        {
            "positions": [
                -0.23907428095419853,
                -1.4704465714673043,
                2.3431550792790277,
                -0.9532070688760006,
                1.081005705500201,
                -2.8049953676397696
            ]
        },
        {
            "positions": [
                -0.18967973670166632,
                -1.5188431694951368,
                2.3034452639569007,
                -0.915380432667905,
                1.0049973153051024,
                -2.6604819174486134
            ]
        },
        {
            "positions": [
                -0.14028519244913412,
                -1.5672397675229695,
                2.2637354486347743,
                -0.8775537964598095,
                0.9289889251100039,
                -2.515968467257457
            ]
        },
        {
            "positions": [
                -0.09089064819660192,
                -1.615636365550802,
                2.2240256333126474,
                -0.8397271602517138,
                0.8529805349149054,
                -2.371455017066301
            ]
        },
        {
            "positions": [
                -0.04149610394406972,
                -1.6640329635786344,
                2.184315817990521,
                -0.8019005240436183,
                0.776972144719807,
                -2.226941566875145
            ]
        },
        {
            "positions": [
                0.007898440308462484,
                -1.712429561606467,
                2.144606002668394,
                -0.7640738878355227,
                0.7009637545247085,
                -2.082428116683989
            ]
        },
        {
            "positions": [
                0.057292984560994686,
                -1.7608261596342996,
                2.1048961873462675,
                -0.7262472516274272,
                0.6249553643296101,
                -1.9379146664928324
            ]
        },
        {
            "positions": [
                0.10668752881352694,
                -1.8092227576621323,
                2.0651863720241406,
                -0.6884206154193315,
                0.5489469741345115,
                -1.7934012163016761
            ]
        },
        {
            "positions": [
                0.1560820730660591,
                -1.8576193556899647,
                2.025476556702014,
                -0.650593979211236,
                0.4729385839394131,
                -1.64888776611052
            ]
        },
        {
            "positions": [
                0.2054766173185913,
                -1.9060159537177972,
                1.9857667413798872,
                -0.6127673430031404,
                0.3969301937443146,
                -1.5043743159193639
            ]
        },
        {
            "positions": [
                0.2548711615711235,
                -1.9544125517456299,
                1.9460569260577605,
                -0.5749407067950449,
                0.3209218035492162,
                -1.3598608657282076
            ]
        },
        {
            "positions": [
                0.3042657058236557,
                -2.0028091497734626,
                1.9063471107356338,
                -0.5371140705869493,
                0.24491341335411765,
                -1.2153474155370514
            ]
        },
        {
            "positions": [
                0.35366025007618784,
                -2.051205747801295,
                1.866637295413507,
                -0.4992874343788537,
                0.16890502315901917,
                -1.0708339653458951
            ]
        },
        {
            "positions": [
                0.4068913847028542,
                -2.089666016358451,
                1.9495953693425019,
                -0.4565898264516829,
                0.1434863386827987,
                -1.0419380342762303
            ]
        },
        {
            "positions": [
                0.46012251932952053,
                -2.1281262849156066,
                2.032553443271497,
                -0.41389221852451213,
                0.11806765420657821,
                -1.0130421032065653
            ]
        },
        {
            "positions": [
                0.5559509701719249,
                -2.1446020822972263,
                2.036145041714562,
                -0.36772835887595945,
                0.2280911795436617,
                -0.8990257997388473
            ]
        },
        {
            "positions": [
                0.6517794210143292,
                -2.1610778796788463,
                2.0397366401576265,
                -0.3215644992274068,
                0.33811470488074524,
                -0.7850094962711294
            ]
        },
        {
            "positions": [
                0.7476078718567336,
                -2.177553677060466,
                2.0433282386006915,
                -0.2754006395788542,
                0.4481382302178288,
                -0.6709931928034113
            ]
        },
        {
            "positions": [
                0.8434363226991379,
                -2.1940294744420856,
                2.0469198370437565,
                -0.2292367799303015,
                0.5581617555549122,
                -0.5569768893356933
            ]
        },
        {
            "positions": [
                0.9392647735415423,
                -2.2105052718237057,
                2.050511435486821,
                -0.18307292028174885,
                0.6681852808919958,
                -0.44296058586797527
            ]
        },
        {
            "positions": [
                1.0350932243839466,
                -2.2269810692053253,
                2.054103033929886,
                -0.1369090606331962,
                0.7782088062290793,
                -0.3289442824002573
            ]
        },
        {
            "positions": [
                1.1309216752263511,
                -2.243456866586945,
                2.057694632372951,
                -0.0907452009846435,
                0.8882323315661629,
                -0.21492797893253923
            ]
        },
        {
            "positions": [
                1.2267501260687552,
                -2.259932663968565,
                2.0612862308160156,
                -0.044581341336090874,
                0.9982558569032463,
                -0.10091167546482138
            ]
        },
        {
            "positions": [
                1.3225785769111598,
                -2.2764084613501847,
                2.0648778292590806,
                0.001582518312461756,
                1.1082793822403298,
                0.013104628002896801
            ]
        },
        {
            "positions": [
                1.418407027753564,
                -2.2928842587318043,
                2.0684694277021456,
                0.04774637796101444,
                1.2183029075774134,
                0.12712093147061476
            ]
        },
        {
            "positions": [
                1.5142354785959684,
                -2.3093600561134244,
                2.07206102614521,
                0.09391023760956713,
                1.3283264329144968,
                0.24113723493833272
            ]
        },
        {
            "positions": [
                1.6100639294383727,
                -2.325835853495044,
                2.075652624588275,
                0.14007409725811976,
                1.4383499582515804,
                0.3551535384060507
            ]
        },
        {
            "positions": [
                1.705892380280777,
                -2.3423116508766637,
                2.07924422303134,
                0.18623795690667239,
                1.5483734835886638,
                0.46916984187376864
            ]
        },
        {
            "positions": [
                1.8017208311231814,
                -2.358787448258284,
                2.0828358214744047,
                0.23240181655522513,
                1.6583970089257476,
                0.5831861453414868
            ]
        },
        {
            "positions": [
                1.8975492819655857,
                -2.3752632456399034,
                2.0864274199174697,
                0.27856567620377776,
                1.768420534262831,
                0.6972024488092046
            ]
        },
        {
            "positions": [
                1.99337773280799,
                -2.391739043021523,
                2.0900190183605347,
                0.3247295358523304,
                1.8784440595999143,
                0.8112187522769225
            ]
        },
        {
            "positions": [
                2.0892061836503943,
                -2.408214840403143,
                2.0936106168035993,
                0.3708933955008831,
                1.9884675849369982,
                0.9252350557446407
            ]
        },
        {
            "positions": [
                2.1850346344927987,
                -2.424690637784763,
                2.0972022152466643,
                0.41705725514943565,
                2.0984911102740815,
                1.039251359212359
            ]
        },
        {
            "positions": [
                2.280863085335203,
                -2.4411664351663824,
                2.1007938136897293,
                0.4632211147979883,
                2.208514635611165,
                1.1532676626800764
            ]
        },
        {
            "positions": [
                2.3766915361776073,
                -2.4576422325480025,
                2.104385412132794,
                0.5093849744465411,
                2.3185381609482487,
                1.2672839661477948
            ]
        },
        {
            "positions": [
                2.4725199870200116,
                -2.474118029929622,
                2.107977010575859,
                0.5555488340950936,
                2.4285616862853323,
                1.3813002696155128
            ]
        },
        {
            "positions": [
                2.568348437862416,
                -2.490593827311242,
                2.111568609018924,
                0.6017126937436463,
                2.5385852116224155,
                1.4953165730832307
            ]
        },
        {
            "positions": [
                2.6641768887048203,
                -2.507069624692862,
                2.1151602074619884,
                0.6478765533921991,
                2.648608736959499,
                1.6093328765509487
            ]
        },
        {
            "positions": [
                2.7600053395472246,
                -2.5235454220744815,
                2.1187518059050534,
                0.6940404130407516,
                2.7586322622965826,
                1.7233491800186669
            ]
        },
        {
            "positions": [
                2.686552943164715,
                -2.501610655997998,
                2.1287070910619117,
                0.6520158378669099,
                2.685041847558439,
                1.5504742891617191
            ]
        },
        {
            "positions": [
                2.6131005467822055,
                -2.479675889921514,
                2.1386623762187695,
                0.6099912626930681,
                2.6114514328202953,
                1.3775993983047714
            ]
        },
        {
            "positions": [
                2.5396481503996964,
                -2.4577411238450306,
                2.148617661375628,
                0.5679666875192264,
                2.5378610180821517,
                1.2047245074478239
            ]
        },
        {
            "positions": [
                2.466195754017187,
                -2.4358063577685467,
                2.1585729465324857,
                0.5259421123453847,
                2.4642706033440085,
                1.031849616590876
            ]
        },
        {
            "positions": [
                2.3927433576346773,
                -2.4138715916920632,
                2.168528231689344,
                0.48391753717154296,
                2.390680188605865,
                0.8589747257339283
            ]
        },
        {
            "positions": [
                2.3192909612521677,
                -2.3919368256155793,
                2.1784835168462022,
                0.44189296199770123,
                2.317089773867721,
                0.6860998348769807
            ]
        },
        {
            "positions": [
                2.245838564869658,
                -2.370002059539096,
                2.18843880200306,
                0.3998683868238595,
                2.2434993591295775,
                0.5132249440200329
            ]
        },
        {
            "positions": [
                2.172386168487149,
                -2.348067293462612,
                2.1983940871599184,
                0.3578438116500178,
                2.169908944391434,
                0.3403500531630852
            ]
        },
        {
            "positions": [
                2.0989337721046395,
                -2.3261325273861284,
                2.208349372316776,
                0.315819236476176,
                2.0963185296532902,
                0.16747516230613746
            ]
        },
        {
            "positions": [
                2.02548137572213,
                -2.3041977613096445,
                2.2183046574736345,
                0.2737946613023343,
                2.0227281149151466,
                -0.005399728550810279
            ]
        },
        {
            "positions": [
                1.9520289793396204,
                -2.282262995233161,
                2.2282599426304928,
                0.2317700861284926,
                1.9491377001770032,
                -0.1782746194077578
            ]
        },
        {
            "positions": [
                1.8785765829571108,
                -2.260328229156677,
                2.2382152277873506,
                0.18974551095465086,
                1.8755472854388597,
                -0.35114951026470553
            ]
        },
        {
            "positions": [
                1.8051241865746013,
                -2.2383934630801936,
                2.248170512944209,
                0.14772093578080914,
                1.801956870700716,
                -0.5240244011216535
            ]
        },
        {
            "positions": [
                1.731671790192092,
                -2.2164586970037097,
                2.2581257981010667,
                0.10569636060696741,
                1.7283664559625724,
                -0.696899291978601
            ]
        },
        {
            "positions": [
                1.6582193938095826,
                -2.194523930927226,
                2.268081083257925,
                0.06367178543312568,
                1.6547760412244288,
                -0.8697741828355485
            ]
        },
        {
            "positions": [
                1.584766997427073,
                -2.1725891648507423,
                2.2780363684147833,
                0.021647210259283955,
                1.5811856264862854,
                -1.0426490736924965
            ]
        },
        {
            "positions": [
                1.5113146010445637,
                -2.150654398774259,
                2.287991653571641,
                -0.02037736491455766,
                1.5075952117481417,
                -1.215523964549444
            ]
        },
        {
            "positions": [
                1.437862204662054,
                -2.128719632697775,
                2.2979469387284994,
                -0.06240194008839961,
                1.434004797009998,
                -1.388398855406392
            ]
        },
        {
            "positions": [
                1.3644098082795444,
                -2.1067848666212914,
                2.3079022238853577,
                -0.10442651526224123,
                1.3604143822718544,
                -1.5612737462633395
            ]
        },
        {
            "positions": [
                1.290957411897035,
                -2.0848501005448075,
                2.3178575090422155,
                -0.14645109043608295,
                1.286823967533711,
                -1.7341486371202874
            ]
        },
        {
            "positions": [
                1.2175050155145257,
                -2.062915334468324,
                2.327812794199074,
                -0.18847566560992468,
                1.2132335527955673,
                -1.907023527977235
            ]
        },
        {
            "positions": [
                1.1440526191320162,
                -2.04098056839184,
                2.3377680793559317,
                -0.2305002407837664,
                1.1396431380574237,
                -2.0798984188341825
            ]
        },
        {
            "positions": [
                1.0706002227495068,
                -2.0190458023153566,
                2.34772336451279,
                -0.27252481595760814,
                1.0660527233192802,
                -2.2527733096911304
            ]
        },
        {
            "positions": [
                0.9971478263669973,
                -1.9971110362388729,
                2.3576786496696482,
                -0.31454939113144986,
                0.9924623085811366,
                -2.425648200548078
            ]
        },
        {
            "positions": [
                0.9236954299844875,
                -1.9751762701623892,
                2.367633934826506,
                -0.3565739663052916,
                0.918871893842993,
                -2.5985230914050264
            ]
        },
        {
            "positions": [
                0.8502430336019782,
                -1.9532415040859055,
                2.3775892199833644,
                -0.3985985414791333,
                0.8452814791048493,
                -2.771397982261974
            ]
        },
        {
            "positions": [
                0.7767906372194686,
                -1.9313067380094218,
                2.387544505140222,
                -0.44062311665297504,
                0.7716910643667059,
                -2.9442728731189214
            ]
        },
        {
            "positions": [
                0.7033382408369593,
                -1.909371971932938,
                2.3974997902970805,
                -0.48264769182681677,
                0.6981006496285622,
                -3.1171477639758693
            ]
        }
    ]
}