{
    "goal": {
        "global_pose": {
            "orientation": {
                "w": 0.5084816217422485,
                "x": -0.49083608388900757,
                "y": 0.5182115435600281,
                "z": -0.4816462993621826
            },
            "position": {
                "x": 0.5540239810943604,
                "y": 0.030875300988554955,
                "z": 0.16403168439865112
            }
        },
        "name": "move_to_storage_A"
    },
    "id": "RRTConnect_move_to_storage_A_28",
    "joint_names": [
        "shoulder_pan_joint",
        "shoulder_lift_joint",
        "elbow_joint",
        "wrist_1_joint",
        "wrist_2_joint",
        "wrist_3_joint"
    ],
    "metrics": {
        "cart_traj_len": 0.35335241613085666,
        "distance_elbow_joint": 0.4495197127257451,
        "distance_shoulder_lift_joint": 0.23546699045100716,
        "distance_shoulder_pan_joint": 0.46449151600941024,
        "distance_wrist_1_joint": 0.2377983283079811,
        "distance_wrist_2_joint": 1.08944458324029,
        "distance_wrist_3_joint": 0.10040069890050507,
        "smoothness": 0.0,
        "time": 0.044961356999999993,
        "traj_len": 1.6053416551111288,
        "weighted_distance": 2.0261209586261675
    },
    "planner": "RRTConnect",
    "start": {
        "state": {
            "elbow_joint": 1.9715463870305268,
            "shoulder_lift_joint": -1.1394903361783484,
            "shoulder_pan_joint": 0.12281147578464417,
            "wrist_1_joint": -0.7804599489681411,
            "wrist_2_joint": 0.12958660307563738,
            "wrist_3_joint": -3.1924946282119055
        }
    },
    "waypoints": [
        {
            "positions": [
                0.12281147578464417,
                -1.1394903361783484,
                1.9715463870305268,
                -0.7804599489681411,
                0.12958660307563738,
                -3.1924946282119055
            ]
        },
        {
            "positions": [
                0.056455544926156995,
                -1.1731284776713493,
                2.0357634888484903,
                -0.8144311387264241,
                0.2852215435385359,
                -3.1781516712261193
            ]
        },
        {
            "positions": [
                -0.009900385932330183,
                -1.2067666191643505,
                2.099980590666454,
                -0.8484023284847071,
                0.4408564840014345,
                -3.1638087142403326
            ]
        },
        {
            "positions": [
                -0.07625631679081736,
                -1.2404047606573514,
                2.1641976924844175,
                -0.8823735182429902,
                0.596491424464333,
                -3.1494657572545464
            ]
        },
        {
            "positions": [
                -0.14261224764930452,
                -1.2740429021503525,
                2.228414794302381,
                -0.9163447080012731,
                0.7521263649272316,
                -3.1351228002687597
            ]
        },
        {
            "positions": [
                -0.2089681785077917,
                -1.3076810436433535,
                2.2926318961203447,
                -0.9503158977595562,
                0.9077613053901302,
                -3.1207798432829734
            ]
        },
        {
            "positions": [
                -0.2753241093662789,
                -1.3413191851363546,
                2.3568489979383083,
                -0.9842870875178391,
                1.0633962458530286,
                -3.1064368862971867
            ]
        },
        {
            "positions": [
                -0.34168004022476606,
                -1.3749573266293555,
                2.421066099756272,
                -1.0182582772761222,
                1.2190311863159273,
                -3.0920939293114005
            ]
        }
    ]
}