{
    "goal": {
        "global_pose": {
            "orientation": {
                "w": 0.7031023502349854,
                "x": -0.7110244035720825,
                "y": 0.007748599164187908,
                "z": 0.005598929710686207
            },
            "position": {
                "x": 0.11585023208521307,
                "y": 0.44412534475326537,
                "z": 0.3711530566215515
            }
        },
        "name": "move_to_auspresseinheit_A"
    },
    "id": "RRTConnect_move_to_auspresseinheit_A_49",
    "joint_names": [
        "shoulder_pan_joint",
        "shoulder_lift_joint",
        "elbow_joint",
        "wrist_1_joint",
        "wrist_2_joint",
        "wrist_3_joint"
    ],
    "metrics": {
        "cart_traj_len": 1.8563061710433792,
        "distance_elbow_joint": 1.8321502354040353,
        "distance_shoulder_lift_joint": 0.8426240784032011,
        "distance_shoulder_pan_joint": 1.3454783136150898,
        "distance_wrist_1_joint": 1.261089095895115,
        "distance_wrist_2_joint": 0.5261932027314807,
        "distance_wrist_3_joint": 1.0456312935209073,
        "smoothness": 0.9003024959015611,
        "time": 0.123163999,
        "traj_len": 2.6178552709364644,
        "weighted_distance": 3.2759290445976146
    },
    "planner": "RRTConnect",
    "start": {
        "state": {
            "elbow_joint": 2.422574709923281,
            "shoulder_lift_joint": -1.3736533754116391,
            "shoulder_pan_joint": -0.33786336945926293,
            "wrist_1_joint": -1.0288603412921917,
            "wrist_2_joint": 1.2330224858903978,
            "wrist_3_joint": -3.094022268022082
        }
    },
    "waypoints": [
        {
            "positions": [
                -0.33786336945926293,
                -1.3736533754116391,
                2.422574709923281,
                -1.0288603412921917,
                1.2330224858903978,
                -3.094022268022082
            ]
        },
        {
            "positions": [
                -0.2313898733519271,
                -1.4362201030831019,
                2.3379361005086423,
                -0.9461462443680548,
                1.2333014145040218,
                -3.0479683282336816
            ]
        },
        {
            "positions": [
                -0.12491637724459126,
                -1.4987868307545646,
                2.253297491094003,
                -0.8634321474439179,
                1.2335803431176458,
                -3.0019143884452815
            ]
        },
        {
            "positions": [
                -0.01844288113725545,
                -1.5613535584260272,
                2.1686588816793644,
                -0.7807180505197812,
                1.2338592717312697,
                -2.955860448656881
            ]
        },
        {
            "positions": [
                0.08803061497008041,
                -1.62392028609749,
                2.0840202722647256,
                -0.6980039535956443,
                1.2341382003448937,
                -2.909806508868481
            ]
        },
        {
            "positions": [
                0.19450411107741622,
                -1.6864870137689527,
                1.9993816628500867,
                -0.6152898566715075,
                1.2344171289585177,
                -2.8637525690800802
            ]
        },
        {
            "positions": [
                0.300977607184752,
                -1.7490537414404153,
                1.914743053435448,
                -0.5325757597473706,
                1.2346960575721417,
                -2.81769862929168
            ]
        },
        {
            "positions": [
                0.40745110329208795,
                -1.811620469111878,
                1.830104444020809,
                -0.4498616628232337,
                1.2349749861857657,
                -2.7716446895032796
            ]
        },
        {
            "positions": [
                0.5139245993994237,
                -1.8741871967833408,
                1.7454658346061702,
                -0.3671475658990968,
                1.2352539147993897,
                -2.7255907497148795
            ]
        },
        {
            "positions": [
                0.6203980955067596,
                -1.9367539244548033,
                1.6608272251915313,
                -0.2844334689749599,
                1.2355328434130137,
                -2.679536809926479
            ]
        },
        {
            "positions": [
                0.7268715916140953,
                -1.999320652126266,
                1.5761886157768923,
                -0.20171937205082313,
                1.2358117720266377,
                -2.633482870138079
            ]
        },
        {
            "positions": [
                0.8333450877214313,
                -2.061887379797729,
                1.4915500063622535,
                -0.11900527512668624,
                1.2360907006402617,
                -2.5874289303496782
            ]
        },
        {
            "positions": [
                0.8458269531911886,
                -2.053595028413287,
                1.635794336875439,
                -0.15824001194199858,
                1.1356623615268586,
                -2.6752765804960763
            ]
        },
        {
            "positions": [
                0.858308818660946,
                -2.045302677028845,
                1.7800386673886246,
                -0.19747474875731091,
                1.0352340224134553,
                -2.763124230642475
            ]
        },
        {
            "positions": [
                0.8361620331436133,
                -2.021715697906225,
                1.9019495525298507,
                -0.24778539886148093,
                0.9672061740075396,
                -2.835792234305742
            ]
        },
        {
            "positions": [
                0.8140152476262805,
                -1.9981287187836052,
                2.0238604376710767,
                -0.29809604896565095,
                0.899178325601624,
                -2.9084602379690088
            ]
        },
        {
            "positions": [
                0.7918684621089478,
                -1.9745417396609855,
                2.145771322812303,
                -0.34840669906982097,
                0.8311504771957083,
                -2.981128241632276
            ]
        },
        {
            "positions": [
                0.7504355776375063,
                -1.9410195227208016,
                2.269223430508782,
                -0.40932300196305826,
                0.7720580949271767,
                -3.0537975639152286
            ]
        },
        {
            "positions": [
                0.7090026931660649,
                -1.9074973057806175,
                2.3926755382052614,
                -0.4702393048562955,
                0.712965712658645,
                -3.1264668861981817
            ]
        }
    ]
}