{
    "goal": {
        "global_pose": {
            "orientation": {
                "w": 0.7047431468963623,
                "x": -0.7094548344612122,
                "y": 0.0024358443915843964,
                "z": -0.0022348060738295317
            },
            "position": {
                "x": 0.6094750761985779,
                "y": 0.3671506643295288,
                "z": 0.19426114857196808
            }
        },
        "name": "move_to_magneteinheit_A"
    },
    "id": "RRTConnect_move_to_magneteinheit_A_111",
    "joint_names": [
        "shoulder_pan_joint",
        "shoulder_lift_joint",
        "elbow_joint",
        "wrist_1_joint",
        "wrist_2_joint",
        "wrist_3_joint"
    ],
    "metrics": {
        "cart_traj_len": 1.8796227262295497,
        "distance_elbow_joint": 3.9065738951735214,
        "distance_shoulder_lift_joint": 0.697877148391061,
        "distance_shoulder_pan_joint": 1.2419740409827487,
        "distance_wrist_1_joint": 1.4789934921227859,
        "distance_wrist_2_joint": 1.703258979641184,
        "distance_wrist_3_joint": 1.0915256144992396,
        "smoothness": 9.539694167374905e-16,
        "time": 0.069557641,
        "traj_len": 3.1812266770556508,
        "weighted_distance": 3.935162877388049
    },
    "planner": "RRTConnect",
    "start": {
        "state": {
            "elbow_joint": -1.919643507792019,
            "shoulder_lift_joint": -0.07675430207160344,
            "shoulder_pan_joint": -1.1188671864651873,
            "wrist_1_joint": 0.42560062535961957,
            "wrist_2_joint": 1.5706038300724876,
            "wrist_3_joint": 1.1188968870953055
        }
    },
    "waypoints": [
        {
            "positions": [
                -1.1188671864651873,
                -0.07675430207160344,
                -1.919643507792019,
                0.42560062535961957,
                1.5706038300724876,
                1.1188968870953055
            ]
        },
        {
            "positions": [
                -1.071098954119697,
                -0.10359573085587502,
                -1.7693906656699605,
                0.4824849904412652,
                1.5050938693170575,
                1.0769151326914885
            ]
        },
        {
            "positions": [
                -1.0233307217742067,
                -0.1304371596401466,
                -1.6191378235479021,
                0.5393693555229108,
                1.4395839085616273,
                1.0349333782876717
            ]
        },
        {
            "positions": [
                -0.9755624894287164,
                -0.1572785884244182,
                -1.4688849814258436,
                0.5962537206045564,
                1.3740739478061972,
                0.9929516238838548
            ]
        },
        {
            "positions": [
                -0.927794257083226,
                -0.18412001720868976,
                -1.318632139303785,
                0.653138085686202,
                1.308563987050767,
                0.9509698694800379
            ]
        },
        {
            "positions": [
                -0.8800260247377356,
                -0.21096144599296135,
                -1.1683792971817266,
                0.7100224507678476,
                1.243054026295337,
                0.908988115076221
            ]
        },
        {
            "positions": [
                -0.8322577923922454,
                -0.23780287477723294,
                -1.0181264550596678,
                0.7669068158494932,
                1.1775440655399068,
                0.8670063606724041
            ]
        },
        {
            "positions": [
                -0.784489560046755,
                -0.2646443035615045,
                -0.8678736129376095,
                0.8237911809311389,
                1.1120341047844766,
                0.8250246062685872
            ]
        },
        {
            "positions": [
                -0.7367213277012646,
                -0.2914857323457761,
                -0.7176207708155509,
                0.8806755460127844,
                1.0465241440290463,
                0.7830428518647703
            ]
        },
        {
            "positions": [
                -0.6889530953557743,
                -0.31832716113004766,
                -0.5673679286934925,
                0.9375599110944302,
                0.9810141832736162,
                0.7410610974609534
            ]
        },
        {
            "positions": [
                -0.641184863010284,
                -0.34516858991431926,
                -0.4171150865714339,
                0.9944442761760757,
                0.9155042225181861,
                0.6990793430571365
            ]
        },
        {
            "positions": [
                -0.5934166306647937,
                -0.3720100186985908,
                -0.26686224444937534,
                1.0513286412577212,
                0.8499942617627559,
                0.6570975886533196
            ]
        },
        {
            "positions": [
                -0.5456483983193033,
                -0.39885144748286244,
                -0.11660940232731676,
                1.108213006339367,
                0.7844843010073258,
                0.6151158342495027
            ]
        },
        {
            "positions": [
                -0.497880165973813,
                -0.425692876267134,
                0.0336434397947416,
                1.1650973714210124,
                0.7189743402518957,
                0.5731340798456858
            ]
        },
        {
            "positions": [
                -0.4501119336283227,
                -0.4525343050514055,
                0.18389628191680019,
                1.2219817365026582,
                0.6534643794964655,
                0.5311523254418689
            ]
        },
        {
            "positions": [
                -0.40234370128283237,
                -0.4793757338356771,
                0.33414912403885855,
                1.2788661015843037,
                0.5879544187410355,
                0.48917057103805206
            ]
        },
        {
            "positions": [
                -0.35457546893734193,
                -0.5062171626199488,
                0.48440196616091735,
                1.3357504666659494,
                0.5224444579856051,
                0.44718881663423504
            ]
        },
        {
            "positions": [
                -0.3068072365918517,
                -0.5330585914042203,
                0.6346548082829757,
                1.392634831747595,
                0.456934497230175,
                0.40520706223041814
            ]
        },
        {
            "positions": [
                -0.2590390042463614,
                -0.5599000201884918,
                0.7849076504050341,
                1.4495191968292407,
                0.39142453647474484,
                0.36322530782660123
            ]
        },
        {
            "positions": [
                -0.21127077190087107,
                -0.5867414489727634,
                0.9351604925270924,
                1.5064035619108862,
                0.3259145757193149,
                0.3212435534227843
            ]
        },
        {
            "positions": [
                -0.16350253955538063,
                -0.6135828777570351,
                1.0854133346491512,
                1.563287926992532,
                0.26040461496388456,
                0.2792617990189674
            ]
        },
        {
            "positions": [
                -0.11573430720989042,
                -0.6404243065413067,
                1.2356661767712096,
                1.6201722920741775,
                0.19489465420845442,
                0.2372800446151505
            ]
        },
        {
            "positions": [
                -0.06796607486439998,
                -0.6672657353255782,
                1.3859190188932684,
                1.677056657155823,
                0.12938469345302428,
                0.1952982902113336
            ]
        },
        {
            "positions": [
                -0.02019784251890977,
                -0.6941071641098497,
                1.5361718610153268,
                1.7339410222374687,
                0.06387473269759414,
                0.1533165358075167
            ]
        },
        {
            "positions": [
                0.027570389826580666,
                -0.7209485928941215,
                1.6864247031373856,
                1.7908253873191142,
                -0.0016352280578360023,
                0.11133478140369979
            ]
        },
        {
            "positions": [
                0.0753386221720711,
                -0.747790021678393,
                1.836677545259444,
                1.84770975240076,
                -0.06714518881326614,
                0.06935302699988277
            ]
        },
        {
            "positions": [
                0.12310685451756122,
                -0.7746314504626645,
                1.9869303873815023,
                1.9045941174824055,
                -0.13265514956869626,
                0.027371272596065914
            ]
        }
    ]
}