{
    "goal": {
        "global_pose": {
            "orientation": {
                "w": 0.7031023502349854,
                "x": -0.7110244035720825,
                "y": 0.007748599164187908,
                "z": 0.005598929710686207
            },
            "position": {
                "x": 0.11585023208521307,
                "y": 0.44412534475326537,
                "z": 0.3711530566215515
            }
        },
        "name": "move_to_auspresseinheit_A"
    },
    "id": "RRTConnect_move_to_auspresseinheit_A_23",
    "joint_names": [
        "shoulder_pan_joint",
        "shoulder_lift_joint",
        "elbow_joint",
        "wrist_1_joint",
        "wrist_2_joint",
        "wrist_3_joint"
    ],
    "metrics": {
        "cart_traj_len": 1.1486213782990742,
        "distance_elbow_joint": 0.7083837900658767,
        "distance_shoulder_lift_joint": 1.4107575939669206,
        "distance_shoulder_pan_joint": 1.0447468302437763,
        "distance_wrist_1_joint": 1.0481923596463922,
        "distance_wrist_2_joint": 2.49965191168471,
        "distance_wrist_3_joint": 1.752705525299691,
        "smoothness": 1.1680807371508126,
        "time": 0.094144863,
        "traj_len": 2.909370724212947,
        "weighted_distance": 3.9392503516326363
    },
    "planner": "RRTConnect",
    "start": {
        "state": {
            "elbow_joint": 2.422574709923281,
            "shoulder_lift_joint": -1.3736533754116391,
            "shoulder_pan_joint": -0.33786336945926293,
            "wrist_1_joint": -1.0288603412921917,
            "wrist_2_joint": 1.2330224858903978,
            "wrist_3_joint": -3.094022268022082
        }
    },
    "waypoints": [
        {
            "positions": [
                -0.33786336945926293,
                -1.3736533754116391,
                2.422574709923281,
                -1.0288603412921917,
                1.2330224858903978,
                -3.094022268022082
            ]
        },
        {
            "positions": [
                -0.2998827806430981,
                -1.448473900954621,
                2.394250546564563,
                -0.9671291334761221,
                1.116646874830832,
                -3.027805322326858
            ]
        },
        {
            "positions": [
                -0.2619021918269333,
                -1.5232944264976032,
                2.3659263832058444,
                -0.9053979256600524,
                1.0002712637712663,
                -2.9615883766316338
            ]
        },
        {
            "positions": [
                -0.22392160301076847,
                -1.598114952040585,
                2.3376022198471262,
                -0.8436667178439826,
                0.8838956527117006,
                -2.8953714309364096
            ]
        },
        {
            "positions": [
                -0.18594101419460365,
                -1.672935477583567,
                2.309278056488408,
                -0.781935510027913,
                0.7675200416521349,
                -2.829154485241186
            ]
        },
        {
            "positions": [
                -0.14796042537843881,
                -1.747756003126549,
                2.2809538931296895,
                -0.7202043022118432,
                0.6511444305925692,
                -2.7629375395459617
            ]
        },
        {
            "positions": [
                -0.109979836562274,
                -1.822576528669531,
                2.2526297297709714,
                -0.6584730943957735,
                0.5347688195330035,
                -2.6967205938507375
            ]
        },
        {
            "positions": [
                -0.07199924774610922,
                -1.897397054212513,
                2.2243055664122533,
                -0.5967418865797038,
                0.41839320847343797,
                -2.6305036481555133
            ]
        },
        {
            "positions": [
                -0.03401865892994438,
                -1.9722175797554948,
                2.195981403053535,
                -0.5350106787636342,
                0.30201759741387213,
                -2.564286702460289
            ]
        },
        {
            "positions": [
                0.0039619298862204055,
                -2.0470381052984767,
                2.1676572396948166,
                -0.4732794709475645,
                0.18564198635430662,
                -2.498069756765065
            ]
        },
        {
            "positions": [
                0.0419425187023853,
                -2.121858630841459,
                2.1393330763360985,
                -0.41154826313149473,
                0.06926637529474067,
                -2.4318528110698407
            ]
        },
        {
            "positions": [
                0.07992310751855008,
                -2.196679156384441,
                2.1110089129773804,
                -0.3498170553154252,
                -0.04710923576482484,
                -2.365635865374617
            ]
        },
        {
            "positions": [
                0.11790369633471492,
                -2.271499681927423,
                2.082684749618662,
                -0.2880858474993554,
                -0.1634848468243908,
                -2.299418919679393
            ]
        },
        {
            "positions": [
                0.1558842851508797,
                -2.346320207470405,
                2.0543605862599437,
                -0.22635463968328576,
                -0.2798604578839562,
                -2.2332019739841686
            ]
        },
        {
            "positions": [
                0.21710641577683898,
                -2.2976434561472763,
                2.092157215860226,
                -0.25365315724300647,
                -0.1702194614494722,
                -2.3323003330132552
            ]
        },
        {
            "positions": [
                0.27832854640279825,
                -2.248966704824148,
                2.129953845460508,
                -0.2809516748027272,
                -0.06057846501498823,
                -2.4313986920423414
            ]
        },
        {
            "positions": [
                0.3395506770287575,
                -2.20028995350102,
                2.16775047506079,
                -0.3082501923624479,
                0.049062531419495736,
                -2.530497051071428
            ]
        },
        {
            "positions": [
                0.4007728076547168,
                -2.1516132021778915,
                2.2055471046610724,
                -0.33554870992216856,
                0.15870352785397973,
                -2.629595410100514
            ]
        },
        {
            "positions": [
                0.4619949382806761,
                -2.102936450854763,
                2.2433437342613542,
                -0.3628472274818893,
                0.2683445242884638,
                -2.7286937691296007
            ]
        },
        {
            "positions": [
                0.5232170689066353,
                -2.054259699531635,
                2.2811403638616365,
                -0.39014574504161004,
                0.37798552072294767,
                -2.827792128158687
            ]
        },
        {
            "positions": [
                0.5844391995325947,
                -2.005582948208507,
                2.318936993461919,
                -0.4174442626013307,
                0.48762651715743166,
                -2.9268904871877734
            ]
        },
        {
            "positions": [
                0.6456613301585539,
                -1.9569061968853783,
                2.3567336230622007,
                -0.4447427801610514,
                0.5972675135919157,
                -3.0259888462168596
            ]
        },
        {
            "positions": [
                0.7068834607845133,
                -1.90822944556225,
                2.394530252662483,
                -0.47204129772077214,
                0.7069085100263997,
                -3.125087205245946
            ]
        }
    ]
}