{
    "goal": {
        "global_pose": {
            "orientation": {
                "w": 0.5084816217422485,
                "x": -0.49083608388900757,
                "y": 0.5182115435600281,
                "z": -0.4816462993621826
            },
            "position": {
                "x": 0.5540239810943604,
                "y": 0.030875300988554955,
                "z": 0.16403168439865112
            }
        },
        "name": "move_to_storage_A"
    },
    "id": "RRTConnect_move_to_storage_A_84",
    "joint_names": [
        "shoulder_pan_joint",
        "shoulder_lift_joint",
        "elbow_joint",
        "wrist_1_joint",
        "wrist_2_joint",
        "wrist_3_joint"
    ],
    "metrics": {
        "cart_traj_len": 0.3531004410246526,
        "distance_elbow_joint": 0.4488954479557963,
        "distance_shoulder_lift_joint": 0.23649517997406933,
        "distance_shoulder_pan_joint": 0.4594227086217435,
        "distance_wrist_1_joint": 0.23393718150376286,
        "distance_wrist_2_joint": 1.1098510896388363,
        "distance_wrist_3_joint": 0.09515809111772411,
        "smoothness": 1.7763568394002505e-15,
        "time": 0.055759148999999994,
        "traj_len": 1.6074077574815708,
        "weighted_distance": 2.02925211646803
    },
    "planner": "RRTConnect",
    "start": {
        "state": {
            "elbow_joint": 1.9715463870305268,
            "shoulder_lift_joint": -1.1394903361783484,
            "shoulder_pan_joint": 0.12281147578464417,
            "wrist_1_joint": -0.7804599489681411,
            "wrist_2_joint": 0.12958660307563738,
            "wrist_3_joint": -3.1924946282119055
        }
    },
    "waypoints": [
        {
            "positions": [
                0.12281147578464417,
                -1.1394903361783484,
                1.9715463870305268,
                -0.7804599489681411,
                0.12958660307563738,
                -3.1924946282119055
            ]
        },
        {
            "positions": [
                0.05717966026725224,
                -1.1732753618889298,
                2.035674308167069,
                -0.8138795463258215,
                0.2881367587383283,
                -3.178900615195088
            ]
        },
        {
            "positions": [
                -0.00845215525013969,
                -1.207060387599511,
                2.0998022293036116,
                -0.8472991436835019,
                0.44668691440101915,
                -3.16530660217827
            ]
        },
        {
            "positions": [
                -0.0740839707675316,
                -1.2408454133100923,
                2.163930150440154,
                -0.8807187410411823,
                0.6052370700637101,
                -3.1517125891614524
            ]
        },
        {
            "positions": [
                -0.13971578628492354,
                -1.2746304390206737,
                2.228058071576696,
                -0.9141383383988627,
                0.763787225726401,
                -3.1381185761446346
            ]
        },
        {
            "positions": [
                -0.20534760180231548,
                -1.3084154647312551,
                2.2921859927132386,
                -0.9475579357565431,
                0.9223373813890919,
                -3.124524563127817
            ]
        },
        {
            "positions": [
                -0.27097941731970737,
                -1.3422004904418363,
                2.356313913849781,
                -0.9809775331142235,
                1.0808875370517828,
                -3.110930550110999
            ]
        },
        {
            "positions": [
                -0.3366112328370993,
                -1.3759855161524177,
                2.420441834986323,
                -1.014397130471904,
                1.2394376927144737,
                -3.0973365370941814
            ]
        }
    ]
}