{
    "goal": {
        "global_pose": {
            "orientation": {
                "w": -0.00223480608172531,
                "x": 0.0024358444001904467,
                "y": 0.7094548369677653,
                "z": -0.704743149386269
            },
            "position": {
                "x": 0.6205249238014221,
                "y": -0.6371506643295288,
                "z": 0.19426114857196808
            }
        },
        "name": "move_to_magneteinheit_B"
    },
    "id": "RRTConnect_move_to_magneteinheit_B_143",
    "joint_names": [
        "shoulder_pan_joint",
        "shoulder_lift_joint",
        "elbow_joint",
        "wrist_1_joint",
        "wrist_2_joint",
        "wrist_3_joint"
    ],
    "metrics": {
        "cart_traj_len": 3.9847412732236918,
        "distance_elbow_joint": 4.56298908650253,
        "distance_shoulder_lift_joint": 0.7735821958650151,
        "distance_shoulder_pan_joint": 3.179975335465114,
        "distance_wrist_1_joint": 2.360704539800268,
        "distance_wrist_2_joint": 1.8052405024798506,
        "distance_wrist_3_joint": 2.8642019073946985,
        "smoothness": 0.527440058892397,
        "time": 0.484738353,
        "traj_len": 3.94292956664299,
        "weighted_distance": 5.043911421166811
    },
    "planner": "RRTConnect",
    "start": {
        "state": {
            "elbow_joint": 2.39358713078474,
            "shoulder_lift_joint": -1.908514104345545,
            "shoulder_pan_joint": 0.7066247066606129,
            "wrist_1_joint": -0.4678290933515497,
            "wrist_2_joint": 0.7096259083745334,
            "wrist_3_joint": -3.1358149277392293
        }
    },
    "waypoints": [
        {
            "positions": [
                0.7066247066606129,
                -1.908514104345545,
                2.39358713078474,
                -0.4678290933515497,
                0.7096259083745334,
                -3.1358149277392293
            ]
        },
        {
            "positions": [
                0.5764042674276016,
                -1.9052454340215665,
                2.3582933343638843,
                -0.4214793707312018,
                0.7580588396839636,
                -3.0307847525720444
            ]
        },
        {
            "positions": [
                0.4461838281945903,
                -1.9019767636975882,
                2.322999537943029,
                -0.3751296481108539,
                0.8064917709933936,
                -2.9257545774048594
            ]
        },
        {
            "positions": [
                0.31596338896157894,
                -1.8987080933736098,
                2.2877057415221733,
                -0.32877992549050605,
                0.8549247023028238,
                -2.8207244022376745
            ]
        },
        {
            "positions": [
                0.18574294972856764,
                -1.8954394230496314,
                2.2524119451013176,
                -0.28243020287015813,
                0.903357633612254,
                -2.7156942270704896
            ]
        },
        {
            "positions": [
                0.2688543028444411,
                -1.8856794308377025,
                2.079441683865418,
                -0.29719365119467234,
                0.844761147465074,
                -2.6732604616213043
            ]
        },
        {
            "positions": [
                0.35196565596031454,
                -1.8759194386257734,
                1.906471422629519,
                -0.3119570995191866,
                0.7861646613178941,
                -2.6308266961721194
            ]
        },
        {
            "positions": [
                0.435077009076188,
                -1.8661594464138445,
                1.7335011613936195,
                -0.3267205478437008,
                0.7275681751707141,
                -2.588392930722934
            ]
        },
        {
            "positions": [
                0.5181883621920614,
                -1.8563994542019155,
                1.5605309001577203,
                -0.341483996168215,
                0.6689716890235342,
                -2.545959165273749
            ]
        },
        {
            "positions": [
                0.6012997153079349,
                -1.8466394619899864,
                1.387560638921821,
                -0.35624744449272927,
                0.6103752028763542,
                -2.503525399824564
            ]
        },
        {
            "positions": [
                0.6844110684238084,
                -1.8368794697780575,
                1.2145903776859215,
                -0.3710108928172435,
                0.5517787167291742,
                -2.4610916343753786
            ]
        },
        {
            "positions": [
                0.7675224215396819,
                -1.8271194775661286,
                1.041620116450022,
                -0.3857743411417577,
                0.49318223058199423,
                -2.4186578689261937
            ]
        },
        {
            "positions": [
                0.8506337746555552,
                -1.8173594853541994,
                0.8686498552141229,
                -0.4005377894662719,
                0.43458574443481435,
                -2.3762241034770084
            ]
        },
        {
            "positions": [
                0.9337451277714288,
                -1.8075994931422705,
                0.6956795939782234,
                -0.4153012377907861,
                0.3759892582876343,
                -2.3337903380278235
            ]
        },
        {
            "positions": [
                1.0168564808873022,
                -1.7978395009303416,
                0.522709332742324,
                -0.43006468611530035,
                0.31739277214045436,
                -2.2913565725786382
            ]
        },
        {
            "positions": [
                1.0999678340031758,
                -1.7880795087184125,
                0.3497390715064248,
                -0.44482813443981456,
                0.2587962859932744,
                -2.2489228071294534
            ]
        },
        {
            "positions": [
                1.1830791871190491,
                -1.7783195165064836,
                0.17676881027052538,
                -0.45959158276432877,
                0.20019979984609448,
                -2.206489041680268
            ]
        },
        {
            "positions": [
                1.2661905402349225,
                -1.7685595242945547,
                0.0037985490346263973,
                -0.474355031088843,
                0.14160331369891455,
                -2.1640552762310827
            ]
        },
        {
            "positions": [
                1.349301893350796,
                -1.7587995320826255,
                -0.16917171220127347,
                -0.4891184794133573,
                0.0830068275517345,
                -2.121621510781898
            ]
        },
        {
            "positions": [
                1.4324132464666695,
                -1.7490395398706966,
                -0.34214197343717245,
                -0.5038819277378714,
                0.02441034140455467,
                -2.0791877453327126
            ]
        },
        {
            "positions": [
                1.5155245995825428,
                -1.7392795476587677,
                -0.5151122346730719,
                -0.5186453760623857,
                -0.03418614474262527,
                -2.0367539798835277
            ]
        },
        {
            "positions": [
                1.5986359526984164,
                -1.7295195554468386,
                -0.6880824959089717,
                -0.5334088243869,
                -0.09278263088980532,
                -1.9943202144343424
            ]
        },
        {
            "positions": [
                1.68174730581429,
                -1.7197595632349096,
                -0.8610527571448707,
                -0.5481722727114141,
                -0.15137911703698537,
                -1.9518864489851573
            ]
        },
        {
            "positions": [
                1.7648586589301634,
                -1.7099995710229807,
                -1.0340230183807697,
                -0.5629357210359283,
                -0.20997560318416508,
                -1.9094526835359722
            ]
        },
        {
            "positions": [
                1.847970012046037,
                -1.7002395788110516,
                -1.2069932796166696,
                -0.5776991693604425,
                -0.26857208933134524,
                -1.8670189180867869
            ]
        },
        {
            "positions": [
                1.9310813651619103,
                -1.6904795865991227,
                -1.379963540852569,
                -0.5924626176849568,
                -0.3271685754785252,
                -1.824585152637602
            ]
        },
        {
            "positions": [
                2.0141927182777835,
                -1.6807195943871938,
                -1.552933802088468,
                -0.607226066009471,
                -0.3857650616257051,
                -1.7821513871884167
            ]
        },
        {
            "positions": [
                2.0973040713936575,
                -1.6709596021752646,
                -1.7259040633243679,
                -0.6219895143339853,
                -0.44436154777288506,
                -1.7397176217392316
            ]
        },
        {
            "positions": [
                2.1804154245095306,
                -1.6611996099633357,
                -1.8988743245602666,
                -0.6367529626584995,
                -0.5029580339200651,
                -1.6972838562900465
            ]
        },
        {
            "positions": [
                2.262215267555068,
                -1.7234541621280552,
                -1.9002744679906325,
                -0.7473812465974724,
                -0.4855518845863977,
                -1.792155594009152
            ]
        },
        {
            "positions": [
                2.3440151106006057,
                -1.7857087142927748,
                -1.9016746114209986,
                -0.8580095305364454,
                -0.4681457352527303,
                -1.8870273317282575
            ]
        },
        {
            "positions": [
                2.4258149536461433,
                -1.8479632664574943,
                -1.9030747548513645,
                -0.9686378144754184,
                -0.45073958591906294,
                -1.9818990694473628
            ]
        },
        {
            "positions": [
                2.507614796691681,
                -1.9102178186222138,
                -1.9044748982817303,
                -1.0792660984143914,
                -0.4333334365853955,
                -2.0767708071664686
            ]
        },
        {
            "positions": [
                2.589414639737219,
                -1.9724723707869334,
                -1.9058750417120962,
                -1.1898943823533643,
                -0.4159272872517281,
                -2.171642544885574
            ]
        },
        {
            "positions": [
                2.6712144827827564,
                -2.034726922951653,
                -1.9072751851424623,
                -1.3005226662923373,
                -0.3985211379180607,
                -2.266514282604679
            ]
        },
        {
            "positions": [
                2.753014325828294,
                -2.0969814751163725,
                -1.9086753285728282,
                -1.4111509502313102,
                -0.3811149885843933,
                -2.361386020323785
            ]
        },
        {
            "positions": [
                2.737710625422737,
                -2.112062447838001,
                -1.8652208907153343,
                -1.5855817672242642,
                -0.3950066659800832,
                -2.488314132309081
            ]
        },
        {
            "positions": [
                2.72240692501718,
                -2.1271434205596287,
                -1.8217664528578403,
                -1.7600125842172183,
                -0.40889834337577313,
                -2.6152422442943775
            ]
        },
        {
            "positions": [
                2.7071032246116227,
                -2.142224393281257,
                -1.7783120150003464,
                -1.9344434012101723,
                -0.422790020771463,
                -2.7421703562796735
            ]
        },
        {
            "positions": [
                2.6917995242060657,
                -2.1573053660028854,
                -1.7348575771428527,
                -2.1088742182031264,
                -0.4366816981671529,
                -2.8690984682649696
            ]
        },
        {
            "positions": [
                2.6764958238005088,
                -2.1723863387245133,
                -1.6914031392853588,
                -2.28330503519608,
                -0.4505733755628428,
                -2.996026580250266
            ]
        },
        {
            "positions": [
                2.661192123394952,
                -2.1874673114461416,
                -1.6479487014278649,
                -2.4577358521890345,
                -0.46446505295853274,
                -3.122954692235562
            ]
        }
    ]
}