{
    "goal": {
        "global_pose": {
            "orientation": {
                "w": 0.5084816217422485,
                "x": -0.49083608388900757,
                "y": 0.5182115435600281,
                "z": -0.4816462993621826
            },
            "position": {
                "x": 0.5540239810943604,
                "y": 0.030875300988554955,
                "z": 0.16403168439865112
            }
        },
        "name": "move_to_storage_A"
    },
    "id": "RRTConnect_move_to_storage_A_39",
    "joint_names": [
        "shoulder_pan_joint",
        "shoulder_lift_joint",
        "elbow_joint",
        "wrist_1_joint",
        "wrist_2_joint",
        "wrist_3_joint"
    ],
    "metrics": {
        "cart_traj_len": 0.3538698420792391,
        "distance_elbow_joint": 0.4505368778417309,
        "distance_shoulder_lift_joint": 0.23466331507532612,
        "distance_shoulder_pan_joint": 0.45973898025232357,
        "distance_wrist_1_joint": 0.24200996600697489,
        "distance_wrist_2_joint": 1.113689056757592,
        "distance_wrist_3_joint": 0.0892413455919221,
        "smoothness": 2.2204460668324854e-16,
        "time": 0.056646397,
        "traj_len": 1.6093102688810101,
        "weighted_distance": 2.0307784850825756
    },
    "planner": "RRTConnect",
    "start": {
        "state": {
            "elbow_joint": 1.9715463870305268,
            "shoulder_lift_joint": -1.1394903361783484,
            "shoulder_pan_joint": 0.12281147578464417,
            "wrist_1_joint": -0.7804599489681411,
            "wrist_2_joint": 0.12958660307563738,
            "wrist_3_joint": -3.1924946282119055
        }
    },
    "waypoints": [
        {
            "positions": [
                0.12281147578464417,
                -1.1394903361783484,
                1.9715463870305268,
                -0.7804599489681411,
                0.12958660307563738,
                -3.1924946282119055
            ]
        },
        {
            "positions": [
                0.05713447860574081,
                -1.173013666903395,
                2.035908798150774,
                -0.8150328012548518,
                0.28868503975529336,
                -3.1797458645559167
            ]
        },
        {
            "positions": [
                -0.008542518573162558,
                -1.2065369976284415,
                2.100271209271021,
                -0.8496056535415625,
                0.4477834764349494,
                -3.166997100899928
            ]
        },
        {
            "positions": [
                -0.07421951575206591,
                -1.2400603283534881,
                2.1646336203912684,
                -0.8841785058282732,
                0.6068819131146054,
                -3.154248337243939
            ]
        },
        {
            "positions": [
                -0.13989651293096927,
                -1.2735836590785348,
                2.2289960315115156,
                -0.9187513581149839,
                0.7659803497942614,
                -3.14149957358795
            ]
        },
        {
            "positions": [
                -0.20557351010987268,
                -1.3071069898035814,
                2.2933584426317632,
                -0.9533242104016946,
                0.9250787864739175,
                -3.128750809931961
            ]
        },
        {
            "positions": [
                -0.271250507288776,
                -1.3406303205286279,
                2.3577208537520105,
                -0.9878970626884053,
                1.0841772231535733,
                -3.1160020462759723
            ]
        },
        {
            "positions": [
                -0.3369275044676794,
                -1.3741536512536745,
                2.4220832648722577,
                -1.022469914975116,
                1.2432756598332295,
                -3.1032532826199835
            ]
        }
    ]
}