{
    "goal": {
        "global_pose": {
            "orientation": {
                "w": 0.5084816217422485,
                "x": -0.49083608388900757,
                "y": 0.5182115435600281,
                "z": -0.4816462993621826
            },
            "position": {
                "x": 0.5540239810943604,
                "y": 0.030875300988554955,
                "z": 0.16403168439865112
            }
        },
        "name": "move_to_storage_A"
    },
    "id": "RRTConnect_move_to_storage_A_52",
    "joint_names": [
        "shoulder_pan_joint",
        "shoulder_lift_joint",
        "elbow_joint",
        "wrist_1_joint",
        "wrist_2_joint",
        "wrist_3_joint"
    ],
    "metrics": {
        "cart_traj_len": 0.3526899967902268,
        "distance_elbow_joint": 0.44851857833495856,
        "distance_shoulder_lift_joint": 0.23375324082468052,
        "distance_shoulder_pan_joint": 0.4614070625995062,
        "distance_wrist_1_joint": 0.23912649209364367,
        "distance_wrist_2_joint": 1.096550433591674,
        "distance_wrist_3_joint": 0.10107127543881678,
        "smoothness": 6.661338165333112e-16,
        "time": 0.064171456,
        "traj_len": 1.6063707800141533,
        "weighted_distance": 2.0293463379734447
    },
    "planner": "RRTConnect",
    "start": {
        "state": {
            "elbow_joint": 1.9715463870305268,
            "shoulder_lift_joint": -1.1394903361783484,
            "shoulder_pan_joint": 0.12281147578464417,
            "wrist_1_joint": -0.7804599489681411,
            "wrist_2_joint": 0.12958660307563738,
            "wrist_3_joint": -3.1924946282119055
        }
    },
    "waypoints": [
        {
            "positions": [
                0.12281147578464417,
                -1.1394903361783484,
                1.9715463870305268,
                -0.7804599489681411,
                0.12958660307563738,
                -3.1924946282119055
            ]
        },
        {
            "positions": [
                0.05689618112757186,
                -1.17288365629616,
                2.0356204696498064,
                -0.8146208764100902,
                0.2862366650173051,
                -3.178055874577789
            ]
        },
        {
            "positions": [
                -0.009019113529500453,
                -1.2062769764139714,
                2.0996945522690864,
                -0.8487818038520393,
                0.4428867269589728,
                -3.1636171209436723
            ]
        },
        {
            "positions": [
                -0.07493440818657275,
                -1.239670296531783,
                2.163768634888366,
                -0.8829427312939884,
                0.5995367889006405,
                -3.1491783673095557
            ]
        },
        {
            "positions": [
                -0.14084970284364506,
                -1.2730636166495943,
                2.227842717507646,
                -0.9171036587359375,
                0.7561868508423083,
                -3.1347396136754386
            ]
        },
        {
            "positions": [
                -0.20676499750071742,
                -1.306456936767406,
                2.2919168001269257,
                -0.9512645861778866,
                0.912836912783976,
                -3.120300860041322
            ]
        },
        {
            "positions": [
                -0.27268029215778966,
                -1.3398502568852173,
                2.3559908827462053,
                -0.9854255136198357,
                1.0694869747256437,
                -3.1058621064072054
            ]
        },
        {
            "positions": [
                -0.338595586814862,
                -1.373243577003029,
                2.4200649653654853,
                -1.0195864410617848,
                1.2261370366673114,
                -3.0914233527730888
            ]
        }
    ]
}