{
    "goal": {
        "global_pose": {
            "orientation": {
                "w": 0.7031023502349854,
                "x": -0.7110244035720825,
                "y": 0.007748599164187908,
                "z": 0.005598929710686207
            },
            "position": {
                "x": 0.11585023208521307,
                "y": 0.44412534475326537,
                "z": 0.3711530566215515
            }
        },
        "name": "move_to_auspresseinheit_A"
    },
    "id": "RRTConnect_move_to_auspresseinheit_A_86",
    "joint_names": [
        "shoulder_pan_joint",
        "shoulder_lift_joint",
        "elbow_joint",
        "wrist_1_joint",
        "wrist_2_joint",
        "wrist_3_joint"
    ],
    "metrics": {
        "cart_traj_len": 0.8292326137285214,
        "distance_elbow_joint": 0.22762252533340321,
        "distance_shoulder_lift_joint": 0.5339682052207233,
        "distance_shoulder_pan_joint": 1.04598593540803,
        "distance_wrist_1_joint": 3.1732737372232687,
        "distance_wrist_2_joint": 1.7485038647620073,
        "distance_wrist_3_joint": 0.7027847215201612,
        "smoothness": 1.2961064353666731,
        "time": 0.073087241,
        "traj_len": 2.726194965417476,
        "weighted_distance": 3.709378119643937
    },
    "planner": "RRTConnect",
    "start": {
        "state": {
            "elbow_joint": 2.422574709923281,
            "shoulder_lift_joint": -1.3736533754116391,
            "shoulder_pan_joint": -0.33786336945926293,
            "wrist_1_joint": -1.0288603412921917,
            "wrist_2_joint": 1.2330224858903978,
            "wrist_3_joint": -3.094022268022082
        }
    },
    "waypoints": [
        {
            "positions": [
                -0.33786336945926293,
                -1.3736533754116391,
                2.422574709923281,
                -1.0288603412921917,
                1.2330224858903978,
                -3.094022268022082
            ]
        },
        {
            "positions": [
                -0.2891971448341759,
                -1.4180761285881913,
                2.4117616053136675,
                -0.8727355661112218,
                1.138496400209308,
                -3.0667653571578595
            ]
        },
        {
            "positions": [
                -0.24053092020908895,
                -1.4624988817647435,
                2.400948500704054,
                -0.7166107909302519,
                1.0439703145282186,
                -3.0395084462936373
            ]
        },
        {
            "positions": [
                -0.19186469558400193,
                -1.5069216349412957,
                2.3901353960944407,
                -0.5604860157492819,
                0.949444228847129,
                -3.0122515354294146
            ]
        },
        {
            "positions": [
                -0.14319847095891494,
                -1.551344388117848,
                2.379322291484827,
                -0.40436124056831213,
                0.8549181431660394,
                -2.984994624565192
            ]
        },
        {
            "positions": [
                -0.09453224633382792,
                -1.5957671412944001,
                2.3685091868752135,
                -0.24823646538734212,
                0.7603920574849498,
                -2.9577377137009693
            ]
        },
        {
            "positions": [
                -0.045866021708740934,
                -1.6401898944709523,
                2.3576960822656003,
                -0.09211169020637222,
                0.6658659718038602,
                -2.9304808028367466
            ]
        },
        {
            "positions": [
                0.002800202916346084,
                -1.6846126476475045,
                2.3468829776559867,
                0.06401308497459768,
                0.5713398861227705,
                -2.9032238919725244
            ]
        },
        {
            "positions": [
                0.051466427541433046,
                -1.7290354008240567,
                2.336069873046373,
                0.22013786015556747,
                0.4768138004416811,
                -2.8759669811083017
            ]
        },
        {
            "positions": [
                0.10013265216652006,
                -1.773458154000609,
                2.3252567684367595,
                0.3762626353365375,
                0.3822877147605914,
                -2.848710070244079
            ]
        },
        {
            "positions": [
                0.14879887679160708,
                -1.817880907177161,
                2.314443663827146,
                0.5323874105175075,
                0.28776162907950176,
                -2.821453159379857
            ]
        },
        {
            "positions": [
                0.197465101416694,
                -1.8623036603537133,
                2.303630559217533,
                0.6885121856984773,
                0.1932355433984123,
                -2.794196248515634
            ]
        },
        {
            "positions": [
                0.2461313260417811,
                -1.9067264135302655,
                2.292817454607919,
                0.8446369608794473,
                0.09870945771732256,
                -2.7669393376514115
            ]
        },
        {
            "positions": [
                0.3038802310301543,
                -1.9066145176425033,
                2.3050506133601742,
                0.6821649064979936,
                0.1754833122909391,
                -2.813902061545098
            ]
        },
        {
            "positions": [
                0.3616291360185276,
                -1.9065026217547412,
                2.3172837721124298,
                0.5196928521165398,
                0.2522571668645557,
                -2.860864785438784
            ]
        },
        {
            "positions": [
                0.4193780410069008,
                -1.9063907258669792,
                2.329516930864685,
                0.3572207977350861,
                0.3290310214381722,
                -2.9078275093324706
            ]
        },
        {
            "positions": [
                0.47712694599527405,
                -1.906278829979217,
                2.34175008961694,
                0.19474874335363235,
                0.40580487601178883,
                -2.9547902332261566
            ]
        },
        {
            "positions": [
                0.5348758509836473,
                -1.9061669340914549,
                2.353983248369195,
                0.03227668897217861,
                0.48257873058540535,
                -3.001752957119843
            ]
        },
        {
            "positions": [
                0.5926247559720206,
                -1.906055038203693,
                2.36621640712145,
                -0.13019536540927512,
                0.5593525851590219,
                -3.0487156810135296
            ]
        },
        {
            "positions": [
                0.6503736609603938,
                -1.9059431423159308,
                2.3784495658737055,
                -0.29266741979072886,
                0.6361264397326385,
                -3.0956784049072157
            ]
        },
        {
            "positions": [
                0.7081225659487671,
                -1.9058312464281686,
                2.3906827246259605,
                -0.45513947417218253,
                0.712900294306255,
                -3.142641128800902
            ]
        }
    ]
}