{
    "goal": {
        "global_pose": {
            "orientation": {
                "w": -0.00223480608172531,
                "x": 0.0024358444001904467,
                "y": 0.7094548369677653,
                "z": -0.704743149386269
            },
            "position": {
                "x": 0.6205249238014221,
                "y": -0.6371506643295288,
                "z": 0.19426114857196808
            }
        },
        "name": "move_to_magneteinheit_B"
    },
    "id": "RRTConnect_move_to_magneteinheit_B_64",
    "joint_names": [
        "shoulder_pan_joint",
        "shoulder_lift_joint",
        "elbow_joint",
        "wrist_1_joint",
        "wrist_2_joint",
        "wrist_3_joint"
    ],
    "metrics": {
        "cart_traj_len": 3.815738863127302,
        "distance_elbow_joint": 4.133322727190093,
        "distance_shoulder_lift_joint": 1.2573625188832578,
        "distance_shoulder_pan_joint": 2.425281276927373,
        "distance_wrist_1_joint": 1.987501051079383,
        "distance_wrist_2_joint": 3.610932297830289,
        "distance_wrist_3_joint": 3.9068321973818643,
        "smoothness": 0.4797783013363771,
        "time": 0.263094519,
        "traj_len": 4.1618784303836005,
        "weighted_distance": 5.543764949289037
    },
    "planner": "RRTConnect",
    "start": {
        "state": {
            "elbow_joint": 2.39358713078474,
            "shoulder_lift_joint": -1.908514104345545,
            "shoulder_pan_joint": 0.7066247066606129,
            "wrist_1_joint": -0.4678290933515497,
            "wrist_2_joint": 0.7096259083745334,
            "wrist_3_joint": -3.1358149277392293
        }
    },
    "waypoints": [
        {
            "positions": [
                0.7066247066606129,
                -1.908514104345545,
                2.39358713078474,
                -0.4678290933515497,
                0.7096259083745334,
                -3.1358149277392293
            ]
        },
        {
            "positions": [
                0.6248580282578357,
                -1.923786465727901,
                2.397240869774066,
                -0.5097760062166509,
                0.7553244318403105,
                -3.0605432124060767
            ]
        },
        {
            "positions": [
                0.5430913498550584,
                -1.939058827110257,
                2.4008946087633927,
                -0.551722919081752,
                0.8010229553060877,
                -2.9852714970729246
            ]
        },
        {
            "positions": [
                0.5965678385010198,
                -1.918756012120648,
                2.2333085269674076,
                -0.5814147340425045,
                0.8479104694917713,
                -2.9099149054919273
            ]
        },
        {
            "positions": [
                0.6500443271469811,
                -1.8984531971310388,
                2.065722445171423,
                -0.611106549003257,
                0.8947979836774549,
                -2.83455831391093
            ]
        },
        {
            "positions": [
                0.7035208157929425,
                -1.8781503821414298,
                1.8981363633754378,
                -0.6407983639640096,
                0.9416854978631386,
                -2.7592017223299328
            ]
        },
        {
            "positions": [
                0.7569973044389039,
                -1.8578475671518209,
                1.730550281579453,
                -0.6704901789247621,
                0.9885730120488222,
                -2.683845130748935
            ]
        },
        {
            "positions": [
                0.8104737930848653,
                -1.8375447521622117,
                1.5629641997834678,
                -0.7001819938855146,
                1.0354605262345058,
                -2.6084885391679378
            ]
        },
        {
            "positions": [
                0.8639502817308267,
                -1.8172419371726027,
                1.395378117987483,
                -0.7298738088462672,
                1.0823480404201895,
                -2.5331319475869405
            ]
        },
        {
            "positions": [
                0.917426770376788,
                -1.7969391221829938,
                1.2277920361914978,
                -0.7595656238070196,
                1.1292355546058732,
                -2.457775356005943
            ]
        },
        {
            "positions": [
                0.9709032590227494,
                -1.7766363071933846,
                1.0602059543955131,
                -0.7892574387677722,
                1.1761230687915567,
                -2.382418764424946
            ]
        },
        {
            "positions": [
                1.0243797476687109,
                -1.7563334922037757,
                0.892619872599528,
                -0.8189492537285248,
                1.2230105829772402,
                -2.3070621728439487
            ]
        },
        {
            "positions": [
                1.0778562363146722,
                -1.7360306772141667,
                0.7250337908035429,
                -0.8486410686892774,
                1.269898097162924,
                -2.2317055812629514
            ]
        },
        {
            "positions": [
                1.1313327249606335,
                -1.7157278622245575,
                0.5574477090075582,
                -0.8783328836500298,
                1.3167856113486076,
                -2.156348989681954
            ]
        },
        {
            "positions": [
                1.184809213606595,
                -1.6954250472349486,
                0.38986162721157314,
                -0.9080246986107823,
                1.3636731255342913,
                -2.080992398100957
            ]
        },
        {
            "positions": [
                1.2382857022525564,
                -1.6751222322453396,
                0.22227554541558847,
                -0.9377165135715348,
                1.4105606397199748,
                -2.005635806519959
            ]
        },
        {
            "positions": [
                1.2917621908985177,
                -1.6548194172557305,
                0.05468946361960292,
                -0.9674083285322874,
                1.4574481539056585,
                -1.9302792149389618
            ]
        },
        {
            "positions": [
                1.345238679544479,
                -1.6345166022661215,
                -0.11289661817638175,
                -0.99710014349304,
                1.504335668091342,
                -1.8549226233579645
            ]
        },
        {
            "positions": [
                1.3987151681904404,
                -1.6142137872765125,
                -0.2804826999723664,
                -1.0267919584537926,
                1.5512231822770257,
                -1.7795660317769673
            ]
        },
        {
            "positions": [
                1.452191656836402,
                -1.5939109722869034,
                -0.44806878176835196,
                -1.056483773414545,
                1.5981106964627094,
                -1.7042094401959698
            ]
        },
        {
            "positions": [
                1.5056681454823633,
                -1.5736081572972944,
                -0.6156548635643366,
                -1.0861755883752975,
                1.644998210648393,
                -1.6288528486149727
            ]
        },
        {
            "positions": [
                1.5591446341283248,
                -1.5533053423076855,
                -0.7832409453603213,
                -1.11586740333605,
                1.6918857248340764,
                -1.5534962570339754
            ]
        },
        {
            "positions": [
                1.6126211227742862,
                -1.5330025273180763,
                -0.9508270271563068,
                -1.1455592182968026,
                1.73877323901976,
                -1.478139665452978
            ]
        },
        {
            "positions": [
                1.6660976114202475,
                -1.5126997123284673,
                -1.1184131089522915,
                -1.1752510332575552,
                1.7856607532054438,
                -1.4027830738719806
            ]
        },
        {
            "positions": [
                1.7195741000662088,
                -1.4923968973388584,
                -1.2859991907482762,
                -1.2049428482183075,
                1.8325482673911275,
                -1.3274264822909834
            ]
        },
        {
            "positions": [
                1.7730505887121701,
                -1.4720940823492492,
                -1.4535852725442617,
                -1.2346346631790603,
                1.8794357815768112,
                -1.2520698907099859
            ]
        },
        {
            "positions": [
                1.8265270773581315,
                -1.4517912673596403,
                -1.6211713543402466,
                -1.2643264781398127,
                1.9263232957624947,
                -1.1767132991289886
            ]
        },
        {
            "positions": [
                1.886971557505571,
                -1.5009162891176155,
                -1.6256410771700405,
                -1.3089438399777942,
                1.7877075660825354,
                -1.268684140721025
            ]
        },
        {
            "positions": [
                1.9474160376530105,
                -1.550041310875591,
                -1.6301107999998343,
                -1.3535612018157757,
                1.6490918364025762,
                -1.3606549823130616
            ]
        },
        {
            "positions": [
                2.00786051780045,
                -1.5991663326335663,
                -1.6345805228296282,
                -1.3981785636537571,
                1.510476106722617,
                -1.452625823905098
            ]
        },
        {
            "positions": [
                2.06830499794789,
                -1.6482913543915418,
                -1.6390502456594218,
                -1.4427959254917386,
                1.3718603770426578,
                -1.5445966654971346
            ]
        },
        {
            "positions": [
                2.1287494780953296,
                -1.6974163761495171,
                -1.6435199684892157,
                -1.4874132873297203,
                1.2332446473626986,
                -1.636567507089171
            ]
        },
        {
            "positions": [
                2.189193958242769,
                -1.7465413979074926,
                -1.6479896913190095,
                -1.5320306491677018,
                1.0946289176827393,
                -1.7285383486812074
            ]
        },
        {
            "positions": [
                2.2496384383902086,
                -1.795666419665468,
                -1.6524594141488034,
                -1.5766480110056833,
                0.95601318800278,
                -1.820509190273244
            ]
        },
        {
            "positions": [
                2.310082918537648,
                -1.8447914414234434,
                -1.6569291369785972,
                -1.6212653728436648,
                0.8173974583228207,
                -1.9124800318652804
            ]
        },
        {
            "positions": [
                2.3705273986850877,
                -1.8939164631814187,
                -1.661398859808391,
                -1.6658827346816463,
                0.6787817286428615,
                -2.004450873457317
            ]
        },
        {
            "positions": [
                2.430971878832527,
                -1.943041484939394,
                -1.665868582638185,
                -1.7105000965196278,
                0.5401659989629024,
                -2.0964217150493534
            ]
        },
        {
            "positions": [
                2.4914163589799667,
                -1.9921665066973695,
                -1.6703383054679788,
                -1.7551174583576092,
                0.40155026928294313,
                -2.1883925566413898
            ]
        },
        {
            "positions": [
                2.5518608391274067,
                -2.041291528455345,
                -1.6748080282977724,
                -1.799734820195591,
                0.26293453960298363,
                -2.280363398233426
            ]
        },
        {
            "positions": [
                2.612305319274846,
                -2.0904165502133205,
                -1.6792777511275663,
                -1.8443521820335724,
                0.12431880992302435,
                -2.372334239825463
            ]
        },
        {
            "positions": [
                2.6727497994222857,
                -2.1395415719712956,
                -1.6837474739573601,
                -1.888969543871554,
                -0.0142969197569347,
                -2.4643050814174994
            ]
        },
        {
            "positions": [
                2.7331942795697253,
                -2.188666593729271,
                -1.688217196787154,
                -1.9335869057095354,
                -0.15291264943689414,
                -2.5562759230095358
            ]
        },
        {
            "positions": [
                2.7152830319679375,
                -2.1879978662296966,
                -1.6789913358719302,
                -2.0640227153898847,
                -0.23166239074762884,
                -2.698317909232305
            ]
        },
        {
            "positions": [
                2.6973717843661493,
                -2.1873291387301217,
                -1.6697654749567064,
                -2.194458525070234,
                -0.3104121320583635,
                -2.840359895455074
            ]
        },
        {
            "positions": [
                2.6794605367643616,
                -2.186660411230547,
                -1.6605396140414825,
                -2.3248943347505833,
                -0.3891618733690982,
                -2.9824018816778435
            ]
        },
        {
            "positions": [
                2.661549289162574,
                -2.1859916837309727,
                -1.6513137531262587,
                -2.4553301444309326,
                -0.4679116146798329,
                -3.1244438679006126
            ]
        }
    ]
}