{
    "goal": {
        "global_pose": {
            "orientation": {
                "w": 0.7031023502349854,
                "x": -0.7110244035720825,
                "y": 0.007748599164187908,
                "z": 0.005598929710686207
            },
            "position": {
                "x": 0.11585023208521307,
                "y": 0.44412534475326537,
                "z": 0.3711530566215515
            }
        },
        "name": "move_to_auspresseinheit_A"
    },
    "id": "RRTConnect_move_to_auspresseinheit_A_83",
    "joint_names": [
        "shoulder_pan_joint",
        "shoulder_lift_joint",
        "elbow_joint",
        "wrist_1_joint",
        "wrist_2_joint",
        "wrist_3_joint"
    ],
    "metrics": {
        "cart_traj_len": 0.7084411824866864,
        "distance_elbow_joint": 0.37288955610270413,
        "distance_shoulder_lift_joint": 1.2735867056086525,
        "distance_shoulder_pan_joint": 1.0436478096375286,
        "distance_wrist_1_joint": 0.968940274968485,
        "distance_wrist_2_joint": 2.700116417312813,
        "distance_wrist_3_joint": 4.9565114467014,
        "smoothness": 0.9047816559675269,
        "time": 0.095805633,
        "traj_len": 3.363880528546099,
        "weighted_distance": 4.989766707574181
    },
    "planner": "RRTConnect",
    "start": {
        "state": {
            "elbow_joint": 2.422574709923281,
            "shoulder_lift_joint": -1.3736533754116391,
            "shoulder_pan_joint": -0.33786336945926293,
            "wrist_1_joint": -1.0288603412921917,
            "wrist_2_joint": 1.2330224858903978,
            "wrist_3_joint": -3.094022268022082
        }
    },
    "waypoints": [
        {
            "positions": [
                -0.33786336945926293,
                -1.3736533754116391,
                2.422574709923281,
                -1.0288603412921917,
                1.2330224858903978,
                -3.094022268022082
            ]
        },
        {
            "positions": [
                -0.3195301862644101,
                -1.433914024641453,
                2.434112688373923,
                -1.0427973251670641,
                1.1254348250836839,
                -2.929881488788201
            ]
        },
        {
            "positions": [
                -0.3011970030695572,
                -1.4941746738712671,
                2.4456506668245646,
                -1.0567343090419365,
                1.01784716427697,
                -2.7657407095543203
            ]
        },
        {
            "positions": [
                -0.2828638198747043,
                -1.554435323101081,
                2.4571886452752065,
                -1.070671292916809,
                0.9102595034702559,
                -2.601599930320439
            ]
        },
        {
            "positions": [
                -0.2645306366798515,
                -1.6146959723308951,
                2.468726623725848,
                -1.0846082767916816,
                0.802671842663542,
                -2.4374591510865584
            ]
        },
        {
            "positions": [
                -0.24619745348499866,
                -1.674956621560709,
                2.48026460217649,
                -1.098545260666554,
                0.6950841818568281,
                -2.2733183718526773
            ]
        },
        {
            "positions": [
                -0.22786427029014578,
                -1.735217270790523,
                2.491802580627132,
                -1.1124822445414264,
                0.587496521050114,
                -2.1091775926187966
            ]
        },
        {
            "positions": [
                -0.20953108709529292,
                -1.795477920020337,
                2.5033405590777735,
                -1.1264192284162988,
                0.47990886024340007,
                -1.9450368133849154
            ]
        },
        {
            "positions": [
                -0.19119790390044009,
                -1.855738569250151,
                2.5148785375284155,
                -1.1403562122911712,
                0.3723211994366862,
                -1.7808960341510347
            ]
        },
        {
            "positions": [
                -0.17286472070558723,
                -1.915999218479965,
                2.526416515979057,
                -1.1542931961660436,
                0.2647335386299723,
                -1.6167552549171538
            ]
        },
        {
            "positions": [
                -0.15453153751073437,
                -1.976259867709779,
                2.537954494429699,
                -1.168230180040916,
                0.1571458778232584,
                -1.4526144756832728
            ]
        },
        {
            "positions": [
                -0.1361983543158815,
                -2.036520516939593,
                2.549492472880341,
                -1.1821671639157885,
                0.04955821701654428,
                -1.288473696449392
            ]
        },
        {
            "positions": [
                -0.11786517112102862,
                -2.096781166169407,
                2.5610304513309825,
                -1.196104147790661,
                -0.05802944379016983,
                -1.1243329172155108
            ]
        },
        {
            "positions": [
                -0.09953198792617579,
                -2.157041815399221,
                2.5725684297816245,
                -1.2100411316655335,
                -0.16561710459688372,
                -0.9601921379816298
            ]
        },
        {
            "positions": [
                -0.0811988047313229,
                -2.217302464629035,
                2.584106408232266,
                -1.223978115540406,
                -0.2732047654035976,
                -0.7960513587477487
            ]
        },
        {
            "positions": [
                -0.06286562153647007,
                -2.277563113858849,
                2.595644386682908,
                -1.2379150994152783,
                -0.38079242621031156,
                -0.6319105795138682
            ]
        },
        {
            "positions": [
                -0.009475934771379708,
                -2.252009150292199,
                2.581769272860423,
                -1.1850827237689237,
                -0.305559183933245,
                -0.8048534031154795
            ]
        },
        {
            "positions": [
                0.043913751993710656,
                -2.226455186725549,
                2.5678941590379387,
                -1.1322503481225688,
                -0.23032594165617837,
                -0.9777962267170909
            ]
        },
        {
            "positions": [
                0.09730343875880101,
                -2.200901223158899,
                2.554019045215454,
                -1.079417972476214,
                -0.15509269937911174,
                -1.1507390503187023
            ]
        },
        {
            "positions": [
                0.15069312552389139,
                -2.175347259592249,
                2.5401439313929695,
                -1.0265855968298592,
                -0.07985945710204517,
                -1.3236818739203136
            ]
        },
        {
            "positions": [
                0.20408281228898173,
                -2.149793296025599,
                2.5262688175704846,
                -0.9737532211835045,
                -0.004626214824978547,
                -1.4966246975219248
            ]
        },
        {
            "positions": [
                0.2574724990540721,
                -2.1242393324589486,
                2.512393703748,
                -0.9209208455371497,
                0.07060702745208808,
                -1.6695675211235361
            ]
        },
        {
            "positions": [
                0.3108621858191625,
                -2.0986853688922986,
                2.4985185899255153,
                -0.868088469890795,
                0.1458402697291546,
                -1.8425103447251474
            ]
        },
        {
            "positions": [
                0.36425187258425284,
                -2.0731314053256487,
                2.484643476103031,
                -0.8152560942444402,
                0.22107351200622122,
                -2.0154531683267587
            ]
        },
        {
            "positions": [
                0.41764155934934316,
                -2.0475774417589987,
                2.470768362280546,
                -0.7624237185980854,
                0.29630675428328784,
                -2.18839599192837
            ]
        },
        {
            "positions": [
                0.47103124611443353,
                -2.0220234781923487,
                2.4568932484580617,
                -0.7095913429517307,
                0.37153999656035447,
                -2.3613388155299813
            ]
        },
        {
            "positions": [
                0.524420932879524,
                -1.9964695146256988,
                2.443018134635577,
                -0.656758967305376,
                0.446773238837421,
                -2.534281639131593
            ]
        },
        {
            "positions": [
                0.5778106196446142,
                -1.9709155510590488,
                2.4291430208130924,
                -0.6039265916590211,
                0.5220064811144878,
                -2.707224462733204
            ]
        },
        {
            "positions": [
                0.6312003064097047,
                -1.9453615874923988,
                2.4152679069906076,
                -0.5510942160126664,
                0.5972397233915543,
                -2.8801672863348156
            ]
        },
        {
            "positions": [
                0.6684923732939851,
                -1.9266238670949023,
                2.4055462071652194,
                -0.5145618992912732,
                0.6513744011966728,
                -3.0032388120209355
            ]
        },
        {
            "positions": [
                0.7057844401782657,
                -1.907886146697406,
                2.3958245073398308,
                -0.47802958256987993,
                0.7055090790017913,
                -3.1263103377070554
            ]
        }
    ]
}