{
    "goal": {
        "global_pose": {
            "orientation": {
                "w": 0.5084816217422485,
                "x": -0.49083608388900757,
                "y": 0.5182115435600281,
                "z": -0.4816462993621826
            },
            "position": {
                "x": 0.5540239810943604,
                "y": 0.030875300988554955,
                "z": 0.16403168439865112
            }
        },
        "name": "move_to_storage_A"
    },
    "id": "RRTConnect_move_to_storage_A_11",
    "joint_names": [
        "shoulder_pan_joint",
        "shoulder_lift_joint",
        "elbow_joint",
        "wrist_1_joint",
        "wrist_2_joint",
        "wrist_3_joint"
    ],
    "metrics": {
        "cart_traj_len": 0.35342766328007436,
        "distance_elbow_joint": 0.4502454333721264,
        "distance_shoulder_lift_joint": 0.23180525827752518,
        "distance_shoulder_pan_joint": 0.4589203860468797,
        "distance_wrist_1_joint": 0.25181681612218976,
        "distance_wrist_2_joint": 1.1118008439936333,
        "distance_wrist_3_joint": 0.10866623487586713,
        "smoothness": 4.440892098500626e-16,
        "time": 0.054395061999999994,
        "traj_len": 1.6165565170102225,
        "weighted_distance": 2.0479758549738274
    },
    "planner": "RRTConnect",
    "start": {
        "state": {
            "elbow_joint": 1.9715463870305268,
            "shoulder_lift_joint": -1.1394903361783484,
            "shoulder_pan_joint": 0.12281147578464417,
            "wrist_1_joint": -0.7804599489681411,
            "wrist_2_joint": 0.12958660307563738,
            "wrist_3_joint": -3.1924946282119055
        }
    },
    "waypoints": [
        {
            "positions": [
                0.12281147578464417,
                -1.1394903361783484,
                1.9715463870305268,
                -0.7804599489681411,
                0.12958660307563738,
                -3.1924946282119055
            ]
        },
        {
            "positions": [
                0.057251420635089936,
                -1.1726053730751378,
                2.035867163226545,
                -0.8164337798427396,
                0.28841529507472785,
                -3.176970880372496
            ]
        },
        {
            "positions": [
                -0.0083086345144643,
                -1.205720409971927,
                2.100187939422563,
                -0.8524076107173382,
                0.4472439870738183,
                -3.161447132533086
            ]
        },
        {
            "positions": [
                -0.07386868966401854,
                -1.2388354468687164,
                2.164508715618581,
                -0.8883814415919367,
                0.6060726790729087,
                -3.1459233846936767
            ]
        },
        {
            "positions": [
                -0.13942874481357276,
                -1.2719504837655056,
                2.228829491814599,
                -0.9243552724665353,
                0.7649013710719993,
                -3.1303996368542673
            ]
        },
        {
            "positions": [
                -0.20498879996312702,
                -1.305065520662295,
                2.293150268010617,
                -0.9603291033411337,
                0.9237300630710898,
                -3.114875889014858
            ]
        },
        {
            "positions": [
                -0.27054885511268123,
                -1.3381805575590842,
                2.357471044206635,
                -0.9963029342157323,
                1.08255875507018,
                -3.099352141175448
            ]
        },
        {
            "positions": [
                -0.3361089102622355,
                -1.3712955944558736,
                2.421791820402653,
                -1.0322767650903308,
                1.2413874470692707,
                -3.0838283933360384
            ]
        }
    ]
}