{
    "goal": {
        "global_pose": {
            "orientation": {
                "w": 0.5084816217422485,
                "x": -0.49083608388900757,
                "y": 0.5182115435600281,
                "z": -0.4816462993621826
            },
            "position": {
                "x": 0.5540239810943604,
                "y": 0.030875300988554955,
                "z": 0.16403168439865112
            }
        },
        "name": "move_to_storage_A"
    },
    "id": "RRTConnect_move_to_storage_A_1",
    "joint_names": [
        "shoulder_pan_joint",
        "shoulder_lift_joint",
        "elbow_joint",
        "wrist_1_joint",
        "wrist_2_joint",
        "wrist_3_joint"
    ],
    "metrics": {
        "cart_traj_len": 0.35318228319497436,
        "distance_elbow_joint": 0.45458605782102035,
        "distance_shoulder_lift_joint": 0.2354014960284765,
        "distance_shoulder_pan_joint": 0.463203542121447,
        "distance_wrist_1_joint": 0.2606325916389599,
        "distance_wrist_2_joint": 1.0940817773118483,
        "distance_wrist_3_joint": 0.09861301144743484,
        "smoothness": 4.440892133664971e-16,
        "time": 0.053816591999999996,
        "traj_len": 1.6144715780617467,
        "weighted_distance": 2.039229969428378
    },
    "planner": "RRTConnect",
    "start": {
        "state": {
            "elbow_joint": 1.9715463870305268,
            "shoulder_lift_joint": -1.1394903361783484,
            "shoulder_pan_joint": 0.12281147578464417,
            "wrist_1_joint": -0.7804599489681411,
            "wrist_2_joint": 0.12958660307563738,
            "wrist_3_joint": -3.1924946282119055
        }
    },
    "waypoints": [
        {
            "positions": [
                0.12281147578464417,
                -1.1394903361783484,
                1.9715463870305268,
                -0.7804599489681411,
                0.12958660307563738,
                -3.1924946282119055
            ]
        },
        {
            "positions": [
                0.05663954119586603,
                -1.1731191213252736,
                2.03648725243353,
                -0.8176931763451354,
                0.2858839998344729,
                -3.178407055147986
            ]
        },
        {
            "positions": [
                -0.009532393392912106,
                -1.2067479064721989,
                2.1014281178365324,
                -0.8549264037221296,
                0.44218139659330835,
                -3.164319482084067
            ]
        },
        {
            "positions": [
                -0.07570432798169023,
                -1.2403766916191241,
                2.1663689832395354,
                -0.8921596310991239,
                0.5984787933521438,
                -3.150231909020148
            ]
        },
        {
            "positions": [
                -0.14187626257046837,
                -1.2740054767660491,
                2.2313098486425385,
                -0.9293928584761182,
                0.7547761901109793,
                -3.1361443359562284
            ]
        },
        {
            "positions": [
                -0.20804819715924655,
                -1.3076342619129744,
                2.2962507140455415,
                -0.9666260858531124,
                0.9110735868698148,
                -3.122056762892309
            ]
        },
        {
            "positions": [
                -0.2742201317480246,
                -1.3412630470598996,
                2.361191579448544,
                -1.0038593132301068,
                1.0673709836286502,
                -3.10796918982839
            ]
        },
        {
            "positions": [
                -0.3403920663368028,
                -1.3748918322068249,
                2.426132444851547,
                -1.041092540607101,
                1.2236683803874857,
                -3.0938816167644707
            ]
        }
    ]
}