{
    "goal": {
        "global_pose": {
            "orientation": {
                "w": 0.7031023502349854,
                "x": -0.7110244035720825,
                "y": 0.007748599164187908,
                "z": 0.005598929710686207
            },
            "position": {
                "x": 0.11585023208521307,
                "y": 0.44412534475326537,
                "z": 0.3711530566215515
            }
        },
        "name": "move_to_auspresseinheit_A"
    },
    "id": "RRTConnect_move_to_auspresseinheit_A_40",
    "joint_names": [
        "shoulder_pan_joint",
        "shoulder_lift_joint",
        "elbow_joint",
        "wrist_1_joint",
        "wrist_2_joint",
        "wrist_3_joint"
    ],
    "metrics": {
        "cart_traj_len": 1.1374459789154865,
        "distance_elbow_joint": 0.17532074293091693,
        "distance_shoulder_lift_joint": 0.5310958034203936,
        "distance_shoulder_pan_joint": 2.827675661888442,
        "distance_wrist_1_joint": 3.581196071884001,
        "distance_wrist_2_joint": 0.848699665169132,
        "distance_wrist_3_joint": 3.1396001025855633,
        "smoothness": 0.924613052511458,
        "time": 0.062799994,
        "traj_len": 3.332204682770621,
        "weighted_distance": 4.670405120554609
    },
    "planner": "RRTConnect",
    "start": {
        "state": {
            "elbow_joint": 2.422574709923281,
            "shoulder_lift_joint": -1.3736533754116391,
            "shoulder_pan_joint": -0.33786336945926293,
            "wrist_1_joint": -1.0288603412921917,
            "wrist_2_joint": 1.2330224858903978,
            "wrist_3_joint": -3.094022268022082
        }
    },
    "waypoints": [
        {
            "positions": [
                -0.33786336945926293,
                -1.3736533754116391,
                2.422574709923281,
                -1.0288603412921917,
                1.2330224858903978,
                -3.094022268022082
            ]
        },
        {
            "positions": [
                -0.3972880802715364,
                -1.391250199102079,
                2.415583021627103,
                -0.8902267849003476,
                1.187309541273547,
                -2.991149544319634
            ]
        },
        {
            "positions": [
                -0.4567127910838098,
                -1.4088470227925187,
                2.408591333330925,
                -0.7515932285085035,
                1.1415965966566965,
                -2.888276820617186
            ]
        },
        {
            "positions": [
                -0.5161375018960833,
                -1.4264438464829585,
                2.401599645034747,
                -0.6129596721166595,
                1.0958836520398458,
                -2.785404096914738
            ]
        },
        {
            "positions": [
                -0.5755622127083567,
                -1.4440406701733983,
                2.394607956738569,
                -0.4743261157248153,
                1.0501707074229953,
                -2.68253137321229
            ]
        },
        {
            "positions": [
                -0.6349869235206302,
                -1.4616374938638381,
                2.387616268442391,
                -0.33569255933297126,
                1.0044577628061446,
                -2.5796586495098417
            ]
        },
        {
            "positions": [
                -0.6944116343329036,
                -1.479234317554278,
                2.380624580146213,
                -0.1970590029411271,
                0.9587448181892939,
                -2.476785925807394
            ]
        },
        {
            "positions": [
                -0.7538363451451771,
                -1.496831141244718,
                2.373632891850035,
                -0.058425446549283055,
                0.9130318735724434,
                -2.3739132021049456
            ]
        },
        {
            "positions": [
                -0.8132610559574505,
                -1.5144279649351575,
                2.3666412035538564,
                0.0802081098425611,
                0.8673189289555927,
                -2.271040478402498
            ]
        },
        {
            "positions": [
                -0.8726857667697239,
                -1.5320247886255975,
                2.3596495152576784,
                0.21884166623440504,
                0.8216059843387422,
                -2.1681677547000495
            ]
        },
        {
            "positions": [
                -0.9321104775819975,
                -1.5496216123160373,
                2.3526578269615004,
                0.3574752226262492,
                0.7758930397218915,
                -2.0652950309976017
            ]
        },
        {
            "positions": [
                -0.9915351883942709,
                -1.5672184360064771,
                2.3456661386653224,
                0.49610877901809336,
                0.7301800951050409,
                -1.9624223072951537
            ]
        },
        {
            "positions": [
                -1.0509598992065443,
                -1.584815259696917,
                2.3386744503691443,
                0.6347423354099375,
                0.6844671504881902,
                -1.8595495835927054
            ]
        },
        {
            "positions": [
                -1.1103846100188177,
                -1.6024120833873567,
                2.3316827620729663,
                0.7733758918017817,
                0.6387542058713396,
                -1.7566768598902573
            ]
        },
        {
            "positions": [
                -1.1698093208310913,
                -1.6200089070777965,
                2.3246910737767883,
                0.9120094481936256,
                0.593041261254489,
                -1.6538041361878093
            ]
        },
        {
            "positions": [
                -1.2292340316433648,
                -1.6376057307682363,
                2.3176993854806103,
                1.05064300458547,
                0.5473283166376384,
                -1.5509314124853613
            ]
        },
        {
            "positions": [
                -1.0909265316644834,
                -1.656687405629936,
                2.3227312010869134,
                0.94337923844216,
                0.5589715663459507,
                -1.6649677872745643
            ]
        },
        {
            "positions": [
                -0.952619031685602,
                -1.6757690804916359,
                2.327763016693217,
                0.8361154722988501,
                0.570614816054263,
                -1.7790041620637673
            ]
        },
        {
            "positions": [
                -0.8143115317067205,
                -1.6948507553533356,
                2.3327948322995202,
                0.7288517061555401,
                0.5822580657625753,
                -1.8930405368529704
            ]
        },
        {
            "positions": [
                -0.6760040317278392,
                -1.7139324302150354,
                2.3378266479058234,
                0.6215879400122302,
                0.5939013154708876,
                -2.0070769116421734
            ]
        },
        {
            "positions": [
                -0.5376965317489577,
                -1.7330141050767351,
                2.3428584635121266,
                0.51432417386892,
                0.6055445651792,
                -2.1211132864313766
            ]
        },
        {
            "positions": [
                -0.39938903177007634,
                -1.752095779938435,
                2.34789027911843,
                0.40706040772561014,
                0.6171878148875123,
                -2.2351496612205795
            ]
        },
        {
            "positions": [
                -0.26108153179119487,
                -1.7711774548001347,
                2.3529220947247333,
                0.2997966415823001,
                0.6288310645958246,
                -2.3491860360097823
            ]
        },
        {
            "positions": [
                -0.12277403181231361,
                -1.7902591296618342,
                2.3579539103310365,
                0.19253287543899023,
                0.6404743143041369,
                -2.4632224107989855
            ]
        },
        {
            "positions": [
                0.015533468166567976,
                -1.809340804523534,
                2.36298572593734,
                0.0852691092956801,
                0.6521175640124494,
                -2.5772587855881888
            ]
        },
        {
            "positions": [
                0.15384096814544934,
                -1.8284224793852337,
                2.3680175415436433,
                -0.021994656847629912,
                0.6637608137207617,
                -2.6912951603773916
            ]
        },
        {
            "positions": [
                0.2921484681243307,
                -1.8475041542469335,
                2.3730493571499465,
                -0.1292584229909397,
                0.675404063429074,
                -2.8053315351665944
            ]
        },
        {
            "positions": [
                0.43045596810321207,
                -1.8665858291086332,
                2.3780811727562496,
                -0.23652218913424972,
                0.6870473131373863,
                -2.9193679099557976
            ]
        },
        {
            "positions": [
                0.5687634680820937,
                -1.885667503970333,
                2.3831129883625533,
                -0.34378595527755973,
                0.6986905628456986,
                -3.033404284745001
            ]
        },
        {
            "positions": [
                0.707070968060975,
                -1.9047491788320328,
                2.3881448039688564,
                -0.4510497214208697,
                0.710333812554011,
                -3.1474406595342037
            ]
        }
    ]
}