{
    "goal": {
        "global_pose": {
            "orientation": {
                "w": 0.7047431468963623,
                "x": -0.7094548344612122,
                "y": 0.0024358443915843964,
                "z": -0.0022348060738295317
            },
            "position": {
                "x": 0.6094750761985779,
                "y": 0.3671506643295288,
                "z": 0.19426114857196808
            }
        },
        "name": "move_to_magneteinheit_A"
    },
    "id": "RRTConnect_move_to_magneteinheit_A_2",
    "joint_names": [
        "shoulder_pan_joint",
        "shoulder_lift_joint",
        "elbow_joint",
        "wrist_1_joint",
        "wrist_2_joint",
        "wrist_3_joint"
    ],
    "metrics": {
        "cart_traj_len": 1.9565381629571161,
        "distance_elbow_joint": 3.943927098029103,
        "distance_shoulder_lift_joint": 1.82562217704527,
        "distance_shoulder_pan_joint": 1.2422318232701552,
        "distance_wrist_1_joint": 1.1940989773006547,
        "distance_wrist_2_joint": 1.43854889155882,
        "distance_wrist_3_joint": 4.316153966749418,
        "smoothness": 0.12338539828635128,
        "time": 0.12349301800000001,
        "traj_len": 3.7363863469873433,
        "weighted_distance": 5.022503234076782
    },
    "planner": "RRTConnect",
    "start": {
        "state": {
            "elbow_joint": -1.919643507792019,
            "shoulder_lift_joint": -0.07675430207160344,
            "shoulder_pan_joint": -1.1188671864651873,
            "wrist_1_joint": 0.42560062535961957,
            "wrist_2_joint": 1.5706038300724876,
            "wrist_3_joint": 1.1188968870953055
        }
    },
    "waypoints": [
        {
            "positions": [
                -1.1188671864651873,
                -0.07675430207160344,
                -1.919643507792019,
                0.42560062535961957,
                1.5706038300724876,
                1.1188968870953055
            ]
        },
        {
            "positions": [
                -1.0999743449440285,
                -0.12485408460601838,
                -1.7890915794042312,
                0.40333111555103535,
                1.5291965102211507,
                0.9952731015989723
            ]
        },
        {
            "positions": [
                -1.0810815034228698,
                -0.17295386714043331,
                -1.6585396510164434,
                0.3810616057424511,
                1.4877891903698137,
                0.871649316102639
            ]
        },
        {
            "positions": [
                -1.062188661901711,
                -0.22105364967484822,
                -1.5279877226286556,
                0.3587920959338669,
                1.4463818705184768,
                0.7480255306063057
            ]
        },
        {
            "positions": [
                -1.0432958203805522,
                -0.26915343220926313,
                -1.3974357942408677,
                0.3365225861252827,
                1.4049745506671398,
                0.6244017451099724
            ]
        },
        {
            "positions": [
                -1.0244029788593934,
                -0.31725321474367807,
                -1.2668838658530799,
                0.31425307631669847,
                1.3635672308158029,
                0.5007779596136392
            ]
        },
        {
            "positions": [
                -1.0055101373382347,
                -0.365352997278093,
                -1.1363319374652918,
                0.29198356650811425,
                1.322159910964466,
                0.3771541741173059
            ]
        },
        {
            "positions": [
                -0.9866172958170758,
                -0.41345277981250794,
                -1.0057800090775042,
                0.26971405669953,
                1.280752591113129,
                0.25353038862097266
            ]
        },
        {
            "positions": [
                -0.9677244542959171,
                -0.4615525623469229,
                -0.8752280806897164,
                0.2474445468909458,
                1.239345271261792,
                0.1299066031246393
            ]
        },
        {
            "positions": [
                -0.9488316127747582,
                -0.5096523448813378,
                -0.7446761523019285,
                0.22517503708236158,
                1.1979379514104551,
                0.00628281762830607
            ]
        },
        {
            "positions": [
                -0.9299387712535996,
                -0.5577521274157526,
                -0.6141242239141407,
                0.20290552727377736,
                1.1565306315591182,
                -0.11734096786802706
            ]
        },
        {
            "positions": [
                -0.9110459297324407,
                -0.6058519099501676,
                -0.48357229552635284,
                0.18063601746519317,
                1.1151233117077812,
                -0.2409647533643604
            ]
        },
        {
            "positions": [
                -0.8921530882112819,
                -0.6539516924845825,
                -0.3530203671385648,
                0.15836650765660892,
                1.0737159918564443,
                -0.36458853886069376
            ]
        },
        {
            "positions": [
                -0.8732602466901231,
                -0.7020514750189975,
                -0.22246843875077693,
                0.1360969978480247,
                1.0323086720051073,
                -0.4882123243570271
            ]
        },
        {
            "positions": [
                -0.8543674051689644,
                -0.7501512575534124,
                -0.09191651036298909,
                0.11382748803944048,
                0.9909013521537704,
                -0.6118361098533602
            ]
        },
        {
            "positions": [
                -0.8354745636478056,
                -0.7982510400878273,
                0.03863541802479875,
                0.09155797823085626,
                0.9494940323024335,
                -0.7354598953496936
            ]
        },
        {
            "positions": [
                -0.8165817221266468,
                -0.8463508226222423,
                0.16918734641258637,
                0.06928846842227204,
                0.9080867124510965,
                -0.8590836808460269
            ]
        },
        {
            "positions": [
                -0.797688880605488,
                -0.8944506051566572,
                0.29973927480037443,
                0.04701895861368782,
                0.8666793925997596,
                -0.9827074663423603
            ]
        },
        {
            "positions": [
                -0.7787960390843293,
                -0.9425503876910721,
                0.43029120318816205,
                0.024749448805103602,
                0.8252720727484226,
                -1.1063312518386934
            ]
        },
        {
            "positions": [
                -0.7599031975631705,
                -0.9906501702254871,
                0.5608431315759501,
                0.002479938996519382,
                0.7838647528970857,
                -1.2299550373350265
            ]
        },
        {
            "positions": [
                -0.7410103560420117,
                -1.038749952759902,
                0.6913950599637377,
                -0.01978957081206484,
                0.7424574330457487,
                -1.3535788228313597
            ]
        },
        {
            "positions": [
                -0.7221175145208529,
                -1.086849735294317,
                0.8219469883515258,
                -0.042059080620649,
                0.7010501131944118,
                -1.4772026083276932
            ]
        },
        {
            "positions": [
                -0.7032246729996942,
                -1.1349495178287319,
                0.9524989167393134,
                -0.06432859042923322,
                0.659642793343075,
                -1.6008263938240264
            ]
        },
        {
            "positions": [
                -0.6843318314785353,
                -1.183049300363147,
                1.083050845127102,
                -0.0865981002378175,
                0.6182354734917378,
                -1.72445017932036
            ]
        },
        {
            "positions": [
                -0.6654389899573765,
                -1.2311490828975618,
                1.2136027735148895,
                -0.10886761004640172,
                0.576828153640401,
                -1.848073964816693
            ]
        },
        {
            "positions": [
                -0.6465461484362177,
                -1.2792488654319767,
                1.3441547019026776,
                -0.13113711985498594,
                0.535420833789064,
                -1.9716977503130266
            ]
        },
        {
            "positions": [
                -0.6276533069150589,
                -1.3273486479663916,
                1.4747066302904652,
                -0.15340662966357016,
                0.4940135139377271,
                -2.0953215358093598
            ]
        },
        {
            "positions": [
                -0.6087604653939002,
                -1.3754484305008066,
                1.6052585586782533,
                -0.17567613947215438,
                0.45260619408639013,
                -2.218945321305693
            ]
        },
        {
            "positions": [
                -0.5898676238727414,
                -1.4235482130352215,
                1.735810487066041,
                -0.1979456492807386,
                0.4111988742350532,
                -2.342569106802026
            ]
        },
        {
            "positions": [
                -0.5709747823515826,
                -1.4716479955696364,
                1.866362415453829,
                -0.22021515908932282,
                0.36979155438371625,
                -2.4661928922983596
            ]
        },
        {
            "positions": [
                -0.5520819408304238,
                -1.5197477781040514,
                1.9969143438416164,
                -0.24248466889790699,
                0.3283842345323793,
                -2.5898166777946927
            ]
        },
        {
            "positions": [
                -0.45558957259679644,
                -1.4650865351022195,
                1.9930044514994067,
                -0.317629480761211,
                0.30033719224399197,
                -2.676593878060324
            ]
        },
        {
            "positions": [
                -0.35909720436316905,
                -1.410425292100388,
                1.9890945591571974,
                -0.392774292624515,
                0.27229014995560463,
                -2.7633710783259557
            ]
        },
        {
            "positions": [
                -0.26260483612954166,
                -1.355764049098556,
                1.9851846668149877,
                -0.46791910448781904,
                0.24424310766721732,
                -2.850148278591587
            ]
        },
        {
            "positions": [
                -0.16611246789591427,
                -1.3011028060967245,
                1.9812747744727783,
                -0.543063916351123,
                0.21619606537883002,
                -2.9369254788572183
            ]
        },
        {
            "positions": [
                -0.06962009966228688,
                -1.2464415630948926,
                1.9773648821305687,
                -0.6182087282144271,
                0.18814902309044265,
                -3.0237026791228496
            ]
        },
        {
            "positions": [
                0.026872268571340507,
                -1.191780320093061,
                1.9734549897883593,
                -0.6933535400777311,
                0.16010198080205534,
                -3.1104798793884814
            ]
        },
        {
            "positions": [
                0.12336463680496788,
                -1.1371190770912292,
                1.9695450974461497,
                -0.7684983519410351,
                0.132054938513668,
                -3.1972570796541127
            ]
        }
    ]
}