{
    "goal": {
        "global_pose": {
            "orientation": {
                "w": -0.00223480608172531,
                "x": 0.0024358444001904467,
                "y": 0.7094548369677653,
                "z": -0.704743149386269
            },
            "position": {
                "x": 0.6205249238014221,
                "y": -0.6371506643295288,
                "z": 0.19426114857196808
            }
        },
        "name": "move_to_magneteinheit_B"
    },
    "id": "RRTConnect_move_to_magneteinheit_B_126",
    "joint_names": [
        "shoulder_pan_joint",
        "shoulder_lift_joint",
        "elbow_joint",
        "wrist_1_joint",
        "wrist_2_joint",
        "wrist_3_joint"
    ],
    "metrics": {
        "cart_traj_len": 1.4517387054668889,
        "distance_elbow_joint": 0.7265492855489062,
        "distance_shoulder_lift_joint": 1.2468573426283016,
        "distance_shoulder_pan_joint": 1.6218004860035171,
        "distance_wrist_1_joint": 2.606877873970091,
        "distance_wrist_2_joint": 2.934666794019519,
        "distance_wrist_3_joint": 3.1299198270045543,
        "smoothness": 3.608224835116546e-16,
        "time": 0.08356369999999999,
        "traj_len": 3.5023808486763532,
        "weighted_distance": 4.905920497844784
    },
    "planner": "RRTConnect",
    "start": {
        "state": {
            "elbow_joint": 2.39358713078474,
            "shoulder_lift_joint": -1.908514104345545,
            "shoulder_pan_joint": 0.7066247066606129,
            "wrist_1_joint": -0.4678290933515497,
            "wrist_2_joint": 0.7096259083745334,
            "wrist_3_joint": -3.1358149277392293
        }
    },
    "waypoints": [
        {
            "positions": [
                0.7066247066606129,
                -1.908514104345545,
                2.39358713078474,
                -0.4678290933515497,
                0.7096259083745334,
                -3.1358149277392293
            ]
        },
        {
            "positions": [
                0.6543085619508221,
                -1.868292899744632,
                2.370150057057356,
                -0.38373625870735323,
                0.6149592375997103,
                -3.034849772029405
            ]
        },
        {
            "positions": [
                0.6019924172410311,
                -1.828071695143719,
                2.346712983329972,
                -0.29964342406315675,
                0.520292566824887,
                -2.9338846163195806
            ]
        },
        {
            "positions": [
                0.5496762725312403,
                -1.787850490542806,
                2.3232759096025877,
                -0.21555058941896027,
                0.42562589605006385,
                -2.8329194606097565
            ]
        },
        {
            "positions": [
                0.49736012782144945,
                -1.7476292859418932,
                2.299838835875204,
                -0.1314577547747638,
                0.3309592252752407,
                -2.731954304899932
            ]
        },
        {
            "positions": [
                0.4450439831116586,
                -1.7074080813409802,
                2.27640176214782,
                -0.04736492013056731,
                0.23629255450041747,
                -2.630989149190108
            ]
        },
        {
            "positions": [
                0.3927278384018677,
                -1.6671868767400673,
                2.2529646884204357,
                0.03672791451362917,
                0.14162588372559426,
                -2.5300239934802833
            ]
        },
        {
            "positions": [
                0.34041169369207686,
                -1.6269656721391543,
                2.2295276146930516,
                0.12082074915782565,
                0.0469592129507711,
                -2.429058837770459
            ]
        },
        {
            "positions": [
                0.28809554898228595,
                -1.5867444675382414,
                2.2060905409656675,
                0.20491358380202213,
                -0.04770745782405206,
                -2.3280936820606346
            ]
        },
        {
            "positions": [
                0.23577940427249505,
                -1.5465232629373282,
                2.1826534672382834,
                0.2890064184462186,
                -0.14237412859887533,
                -2.2271285263508105
            ]
        },
        {
            "positions": [
                0.18346325956270426,
                -1.5063020583364155,
                2.1592163935108992,
                0.3730992530904151,
                -0.23704079937369849,
                -2.126163370640986
            ]
        },
        {
            "positions": [
                0.1311471148529133,
                -1.4660808537355023,
                2.135779319783515,
                0.45719208773461156,
                -0.33170747014852175,
                -2.0251982149311614
            ]
        },
        {
            "positions": [
                0.07883097014312246,
                -1.4258596491345894,
                2.1123422460561314,
                0.5412849223788081,
                -0.4263741409233449,
                -1.9242330592213375
            ]
        },
        {
            "positions": [
                0.0265148254333315,
                -1.3856384445336765,
                2.0889051723287473,
                0.6253777570230046,
                -0.5210408116981681,
                -1.823267903511513
            ]
        },
        {
            "positions": [
                -0.025801319276459234,
                -1.3454172399327635,
                2.065468098601363,
                0.7094705916672011,
                -0.6157074824729912,
                -1.7223027478016888
            ]
        },
        {
            "positions": [
                -0.07811746398625019,
                -1.3051960353318506,
                2.042031024873979,
                0.7935634263113975,
                -0.7103741532478146,
                -1.6213375920918642
            ]
        },
        {
            "positions": [
                -0.13043360869604104,
                -1.2649748307309376,
                2.018593951146595,
                0.877656260955594,
                -0.8050408240226375,
                -1.5203724363820401
            ]
        },
        {
            "positions": [
                -0.18274975340583188,
                -1.2247536261300247,
                1.9951568774192108,
                0.9617490955997903,
                -0.8997074947974607,
                -1.4194072806722158
            ]
        },
        {
            "positions": [
                -0.23506589811562284,
                -1.1845324215291115,
                1.9717198036918266,
                1.045841930243987,
                -0.9943741655722841,
                -1.3184421249623912
            ]
        },
        {
            "positions": [
                -0.2873820428254137,
                -1.1443112169281986,
                1.9482827299644427,
                1.1299347648881835,
                -1.0890408363471074,
                -1.2174769692525669
            ]
        },
        {
            "positions": [
                -0.3396981875352044,
                -1.1040900123272859,
                1.9248456562370586,
                1.21402759953238,
                -1.1837075071219303,
                -1.1165118135427425
            ]
        },
        {
            "positions": [
                -0.39201433224499527,
                -1.063868807726373,
                1.9014085825096747,
                1.2981204341765762,
                -1.2783741778967537,
                -1.0155466578329184
            ]
        },
        {
            "positions": [
                -0.44433047695478634,
                -1.0236476031254598,
                1.8779715087822906,
                1.3822132688207729,
                -1.373040848671577,
                -0.9145815021230939
            ]
        },
        {
            "positions": [
                -0.4966466216645772,
                -0.9834263985245469,
                1.8545344350549064,
                1.4663061034649694,
                -1.4677075194464,
                -0.8136163464132697
            ]
        },
        {
            "positions": [
                -0.548962766374368,
                -0.943205193923634,
                1.8310973613275223,
                1.5503989381091658,
                -1.5623741902212234,
                -0.7126511907034456
            ]
        },
        {
            "positions": [
                -0.6012789110841589,
                -0.9029839893227212,
                1.8076602876001382,
                1.6344917727533623,
                -1.6570408609960463,
                -0.6116860349936211
            ]
        },
        {
            "positions": [
                -0.6535950557939499,
                -0.862762784721808,
                1.784223213872754,
                1.7185846073975588,
                -1.7517075317708697,
                -0.5107208792837965
            ]
        },
        {
            "positions": [
                -0.7059112005037408,
                -0.8225415801208951,
                1.7607861401453702,
                1.8026774420417553,
                -1.846374202545693,
                -0.4097557235739724
            ]
        },
        {
            "positions": [
                -0.7582273452135314,
                -0.7823203755199821,
                1.7373490664179863,
                1.8867702766859518,
                -1.941040873320516,
                -0.30879056786414827
            ]
        },
        {
            "positions": [
                -0.8105434899233223,
                -0.7420991709190692,
                1.7139119926906021,
                1.9708631113301482,
                -2.035707544095339,
                -0.2078254121543237
            ]
        },
        {
            "positions": [
                -0.8628596346331133,
                -0.7018779663181562,
                1.690474918963218,
                2.0549559459743447,
                -2.1303742148701628,
                -0.10686025644449915
            ]
        },
        {
            "positions": [
                -0.9151757793429042,
                -0.6616567617172432,
                1.6670378452358339,
                2.139048780618541,
                -2.2250408856449857,
                -0.0058951007346751145
            ]
        }
    ]
}