{
    "goal": {
        "global_pose": {
            "orientation": {
                "w": -0.00223480608172531,
                "x": 0.0024358444001904467,
                "y": 0.7094548369677653,
                "z": -0.704743149386269
            },
            "position": {
                "x": 0.6205249238014221,
                "y": -0.6371506643295288,
                "z": 0.19426114857196808
            }
        },
        "name": "move_to_magneteinheit_B"
    },
    "id": "RRTConnect_move_to_magneteinheit_B_131",
    "joint_names": [
        "shoulder_pan_joint",
        "shoulder_lift_joint",
        "elbow_joint",
        "wrist_1_joint",
        "wrist_2_joint",
        "wrist_3_joint"
    ],
    "metrics": {
        "cart_traj_len": 3.4485589703818547,
        "distance_elbow_joint": 4.309361335768633,
        "distance_shoulder_lift_joint": 1.237401858242881,
        "distance_shoulder_pan_joint": 2.1382845077823998,
        "distance_wrist_1_joint": 4.260494334372835,
        "distance_wrist_2_joint": 1.2153010917897722,
        "distance_wrist_3_joint": 6.2675162351294365,
        "smoothness": 0.27405535187443636,
        "time": 0.42433107600000003,
        "traj_len": 4.407761264302543,
        "weighted_distance": 6.118757002815802
    },
    "planner": "RRTConnect",
    "start": {
        "state": {
            "elbow_joint": 2.39358713078474,
            "shoulder_lift_joint": -1.908514104345545,
            "shoulder_pan_joint": 0.7066247066606129,
            "wrist_1_joint": -0.4678290933515497,
            "wrist_2_joint": 0.7096259083745334,
            "wrist_3_joint": -3.1358149277392293
        }
    },
    "waypoints": [
        {
            "positions": [
                0.7066247066606129,
                -1.908514104345545,
                2.39358713078474,
                -0.4678290933515497,
                0.7096259083745334,
                -3.1358149277392293
            ]
        },
        {
            "positions": [
                0.711425225794263,
                -1.9159890398952797,
                2.356392122967336,
                -0.3963619185198055,
                0.6730668777195763,
                -2.9201494969967174
            ]
        },
        {
            "positions": [
                0.7162257449279131,
                -1.9234639754450145,
                2.319197115149932,
                -0.3248947436880613,
                0.6365078470646192,
                -2.7044840662542056
            ]
        },
        {
            "positions": [
                0.7210262640615632,
                -1.9309389109947492,
                2.282002107332528,
                -0.2534275688563171,
                0.599948816409662,
                -2.4888186355116937
            ]
        },
        {
            "positions": [
                0.7258267831952133,
                -1.938413846544484,
                2.244807099515124,
                -0.18196039402457292,
                0.5633897857547049,
                -2.273153204769182
            ]
        },
        {
            "positions": [
                0.7306273023288634,
                -1.945888782094219,
                2.20761209169772,
                -0.11049321919282873,
                0.5268307550997477,
                -2.0574877740266695
            ]
        },
        {
            "positions": [
                0.7354278214625135,
                -1.9533637176439538,
                2.170417083880316,
                -0.03902604436108453,
                0.49027172444479056,
                -1.8418223432841578
            ]
        },
        {
            "positions": [
                0.7402283405961636,
                -1.9608386531936886,
                2.133222076062912,
                0.03244113047065972,
                0.4537126937898334,
                -1.626156912541646
            ]
        },
        {
            "positions": [
                0.7450288597298136,
                -1.9683135887434233,
                2.096027068245508,
                0.10390830530240386,
                0.4171536631348763,
                -1.410491481799134
            ]
        },
        {
            "positions": [
                0.7498293788634637,
                -1.975788524293158,
                2.058832060428104,
                0.175375480134148,
                0.38059463247991915,
                -1.1948260510566222
            ]
        },
        {
            "positions": [
                0.7546298979971138,
                -1.9832634598428929,
                2.0216370526107,
                0.24684265496589225,
                0.344035601824962,
                -0.9791606203141101
            ]
        },
        {
            "positions": [
                0.7594304171307639,
                -1.9907383953926276,
                1.984442044793296,
                0.3183098297976365,
                0.3074765711700049,
                -0.7634951895715982
            ]
        },
        {
            "positions": [
                0.764230936264414,
                -1.9982133309423626,
                1.947247036975892,
                0.38977700462938064,
                0.2709175405150477,
                -0.5478297588290864
            ]
        },
        {
            "positions": [
                0.7690314553980641,
                -2.0056882664920974,
                1.910052029158488,
                0.4612441794611248,
                0.23435850986009055,
                -0.3321643280865745
            ]
        },
        {
            "positions": [
                0.7738319745317142,
                -2.013163202041832,
                1.872857021341084,
                0.5327113542928692,
                0.1977994792051334,
                -0.1164988973440626
            ]
        },
        {
            "positions": [
                0.7786324936653642,
                -2.020638137591567,
                1.83566201352368,
                0.6041785291246133,
                0.16124044855017627,
                0.09916653339844927
            ]
        },
        {
            "positions": [
                0.7834330127990143,
                -2.0281130731413017,
                1.798467005706276,
                0.6756457039563575,
                0.12468141789521911,
                0.314831964140961
            ]
        },
        {
            "positions": [
                0.8329471792076449,
                -2.0089263137677293,
                1.6720720415915233,
                0.5725045620053069,
                0.11446615361858334,
                0.40221937790703527
            ]
        },
        {
            "positions": [
                0.8824613456162755,
                -1.9897395543941565,
                1.5456770774767707,
                0.46936342005425624,
                0.10425088934194757,
                0.48960679167310955
            ]
        },
        {
            "positions": [
                0.9319755120249061,
                -1.970552795020584,
                1.4192821133620184,
                0.3662222781032057,
                0.09403562506531181,
                0.5769942054391839
            ]
        },
        {
            "positions": [
                0.9814896784335367,
                -1.9513660356470113,
                1.2928871492472656,
                0.263081136152155,
                0.08382036078867604,
                0.6643816192052581
            ]
        },
        {
            "positions": [
                1.0310038448421674,
                -1.9321792762734387,
                1.1664921851325132,
                0.15993999420110439,
                0.07360509651204028,
                0.7517690329713325
            ]
        },
        {
            "positions": [
                1.080518011250798,
                -1.912992516899866,
                1.0400972210177606,
                0.05679885225005388,
                0.06338983223540451,
                0.8391564467374066
            ]
        },
        {
            "positions": [
                1.1300321776594286,
                -1.8938057575262937,
                0.9137022569030079,
                -0.04634228970099685,
                0.05317456795876874,
                0.926543860503481
            ]
        },
        {
            "positions": [
                1.1795463440680591,
                -1.874618998152721,
                0.7873072927882554,
                -0.14948343165204747,
                0.042959303682132965,
                1.0139312742695552
            ]
        },
        {
            "positions": [
                1.2290605104766898,
                -1.8554322387791484,
                0.6609123286735028,
                -0.252624573603098,
                0.03274403940549721,
                1.1013186880356296
            ]
        },
        {
            "positions": [
                1.2785746768853203,
                -1.8362454794055758,
                0.5345173645587502,
                -0.3557657155541487,
                0.022528775128861436,
                1.188706101801704
            ]
        },
        {
            "positions": [
                1.3280888432939508,
                -1.8170587200320032,
                0.4081224004439976,
                -0.45890685750519933,
                0.012313510852225665,
                1.2760935155677782
            ]
        },
        {
            "positions": [
                1.3776030097025815,
                -1.7978719606584306,
                0.28172743632924524,
                -0.5620479994562497,
                0.002098246575589907,
                1.3634809293338523
            ]
        },
        {
            "positions": [
                1.4271171761112122,
                -1.778685201284858,
                0.15533247221449242,
                -0.6651891414073006,
                -0.008117017701045864,
                1.4508683430999267
            ]
        },
        {
            "positions": [
                1.476631342519843,
                -1.7594984419112853,
                0.028937508099739828,
                -0.7683302833583512,
                -0.018332281977681636,
                1.5382557568660011
            ]
        },
        {
            "positions": [
                1.5261455089284732,
                -1.7403116825377127,
                -0.09745745601501254,
                -0.8714714253094016,
                -0.02854754625431738,
                1.6256431706320753
            ]
        },
        {
            "positions": [
                1.575659675337104,
                -1.7211249231641401,
                -0.22385242012976514,
                -0.9746125672604524,
                -0.03876281053095318,
                1.7130305843981495
            ]
        },
        {
            "positions": [
                1.6251738417457346,
                -1.7019381637905675,
                -0.35024738424451796,
                -1.077753709211503,
                -0.04897807480758895,
                1.8004179981642239
            ]
        },
        {
            "positions": [
                1.6746880081543651,
                -1.6827514044169951,
                -0.47664234835927033,
                -1.1808948511625534,
                -0.059193339084224694,
                1.887805411930298
            ]
        },
        {
            "positions": [
                1.7242021745629958,
                -1.6635646450434223,
                -0.6030373124740227,
                -1.284035993113604,
                -0.06940860336086047,
                1.9751928256963724
            ]
        },
        {
            "positions": [
                1.7737163409716263,
                -1.6443778856698499,
                -0.7294322765887755,
                -1.387177135064655,
                -0.07962386763749624,
                2.062580239462447
            ]
        },
        {
            "positions": [
                1.823230507380257,
                -1.6251911262962773,
                -0.8558272407035279,
                -1.4903182770157053,
                -0.08983913191413198,
                2.1499676532285212
            ]
        },
        {
            "positions": [
                1.8727446737888875,
                -1.6060043669227047,
                -0.9822222048182807,
                -1.5934594189667561,
                -0.10005439619076778,
                2.237355066994595
            ]
        },
        {
            "positions": [
                1.9222588401975182,
                -1.586817607549132,
                -1.108617168933033,
                -1.6966005609178065,
                -0.11026966046740355,
                2.32474248076067
            ]
        },
        {
            "positions": [
                1.9717730066061487,
                -1.5676308481755594,
                -1.2350121330477855,
                -1.799741702868857,
                -0.1204849247440393,
                2.412129894526744
            ]
        },
        {
            "positions": [
                2.0212871730147794,
                -1.5484440888019868,
                -1.3614070971625383,
                -1.9028828448199078,
                -0.1307001890206751,
                2.4995173082928184
            ]
        },
        {
            "positions": [
                2.143163872993783,
                -1.6188031651160295,
                -1.431862309682943,
                -1.9842400538665526,
                -0.12795795945700764,
                2.5389962525130816
            ]
        },
        {
            "positions": [
                2.265040572972786,
                -1.689162241430072,
                -1.502317522203348,
                -2.0655972629131973,
                -0.1252157298933402,
                2.578475196733345
            ]
        },
        {
            "positions": [
                2.3869172729517896,
                -1.7595213177441145,
                -1.5727727347237528,
                -2.146954471959842,
                -0.12247350032967275,
                2.617954140953608
            ]
        },
        {
            "positions": [
                2.508793972930793,
                -1.8298803940581572,
                -1.6432279472441575,
                -2.228311681006487,
                -0.1197312707660053,
                2.657433085173871
            ]
        },
        {
            "positions": [
                2.6306706729097966,
                -1.9002394703721999,
                -1.7136831597645625,
                -2.309668890053132,
                -0.11698904120233784,
                2.696912029394134
            ]
        },
        {
            "positions": [
                2.7525473728887997,
                -1.9705985466862423,
                -1.7841383722849673,
                -2.3910260990997765,
                -0.1142468116386704,
                2.736390973614397
            ]
        },
        {
            "positions": [
                2.7294569125002464,
                -2.0245934084921307,
                -1.7512294141102354,
                -2.403613032601975,
                -0.20387721589181015,
                2.835218557058349
            ]
        },
        {
            "positions": [
                2.706366452111693,
                -2.0785882702980194,
                -1.7183204559355034,
                -2.4161999661041733,
                -0.2935076201449499,
                2.934046140502301
            ]
        },
        {
            "positions": [
                2.6832759917231397,
                -2.1325831321039077,
                -1.6854114977607715,
                -2.4287868996063713,
                -0.3831380243980897,
                3.0328737239462527
            ]
        },
        {
            "positions": [
                2.6601855313345864,
                -2.186577993909796,
                -1.6525025395860395,
                -2.4413738331085697,
                -0.4727684286512294,
                3.1317013073902045
            ]
        }
    ]
}