{
    "goal": {
        "global_pose": {
            "orientation": {
                "w": 0.7031023502349854,
                "x": -0.7110244035720825,
                "y": 0.007748599164187908,
                "z": 0.005598929710686207
            },
            "position": {
                "x": 0.11585023208521307,
                "y": 0.44412534475326537,
                "z": 0.3711530566215515
            }
        },
        "name": "move_to_auspresseinheit_A"
    },
    "id": "RRTConnect_move_to_auspresseinheit_A_4",
    "joint_names": [
        "shoulder_pan_joint",
        "shoulder_lift_joint",
        "elbow_joint",
        "wrist_1_joint",
        "wrist_2_joint",
        "wrist_3_joint"
    ],
    "metrics": {
        "cart_traj_len": 0.6535060934652458,
        "distance_elbow_joint": 0.06492435217445358,
        "distance_shoulder_lift_joint": 0.5309653760132287,
        "distance_shoulder_pan_joint": 1.0459398832793143,
        "distance_wrist_1_joint": 1.2139644909730314,
        "distance_wrist_2_joint": 0.5201081515657772,
        "distance_wrist_3_joint": 4.11432638836067,
        "smoothness": 1.0199779058077179,
        "time": 0.053648588999999997,
        "traj_len": 2.7368282084132494,
        "weighted_distance": 4.17767328325548
    },
    "planner": "RRTConnect",
    "start": {
        "state": {
            "elbow_joint": 2.422574709923281,
            "shoulder_lift_joint": -1.3736533754116391,
            "shoulder_pan_joint": -0.33786336945926293,
            "wrist_1_joint": -1.0288603412921917,
            "wrist_2_joint": 1.2330224858903978,
            "wrist_3_joint": -3.094022268022082
        }
    },
    "waypoints": [
        {
            "positions": [
                -0.33786336945926293,
                -1.3736533754116391,
                2.422574709923281,
                -1.0288603412921917,
                1.2330224858903978,
                -3.094022268022082
            ]
        },
        {
            "positions": [
                -0.29392034604188827,
                -1.4180132574144575,
                2.4239870465212228,
                -0.9475512700500028,
                1.1972482926695238,
                -2.909158455543645
            ]
        },
        {
            "positions": [
                -0.2499773226245136,
                -1.4623731394172759,
                2.425399383119165,
                -0.866242198807814,
                1.1614740994486499,
                -2.7242946430652086
            ]
        },
        {
            "positions": [
                -0.20603429920713895,
                -1.5067330214200942,
                2.4268117197171066,
                -0.784933127565625,
                1.125699906227776,
                -2.5394308305867717
            ]
        },
        {
            "positions": [
                -0.1620912757897643,
                -1.5510929034229128,
                2.4282240563150483,
                -0.703624056323436,
                1.089925713006902,
                -2.3545670181083347
            ]
        },
        {
            "positions": [
                -0.11814825237238963,
                -1.5954527854257312,
                2.4296363929129905,
                -0.6223149850812472,
                1.054151519786028,
                -2.169703205629898
            ]
        },
        {
            "positions": [
                -0.07420522895501497,
                -1.6398126674285496,
                2.431048729510932,
                -0.5410059138390583,
                1.0183773265651541,
                -1.9848393931514614
            ]
        },
        {
            "positions": [
                -0.030262205537640308,
                -1.684172549431368,
                2.4324610661088744,
                -0.4596968425968694,
                0.9826031333442801,
                -1.7999755806730244
            ]
        },
        {
            "positions": [
                0.013680817879734353,
                -1.7285324314341866,
                2.433873402706816,
                -0.3783877713546804,
                0.946828940123406,
                -1.6151117681945877
            ]
        },
        {
            "positions": [
                0.05762384129710901,
                -1.772892313437005,
                2.435285739304758,
                -0.2970787001124915,
                0.9110547469025321,
                -1.4302479557161507
            ]
        },
        {
            "positions": [
                0.10156686471448367,
                -1.8172521954398233,
                2.4366980759027,
                -0.2157696288703026,
                0.8752805536816581,
                -1.2453841432377142
            ]
        },
        {
            "positions": [
                0.14550988813185833,
                -1.8616120774426417,
                2.4381104125006416,
                -0.13446055762811368,
                0.8395063604607842,
                -1.0605203307592772
            ]
        },
        {
            "positions": [
                0.208017290986102,
                -1.8663905967740002,
                2.432622784767631,
                -0.16996774732910844,
                0.8254405797789882,
                -1.2917230475479289
            ]
        },
        {
            "positions": [
                0.2705246938403456,
                -1.8711691161053585,
                2.427135157034621,
                -0.2054749370301032,
                0.8113747990971922,
                -1.5229257643365806
            ]
        },
        {
            "positions": [
                0.33303209669458933,
                -1.875947635436717,
                2.4216475293016106,
                -0.24098212673109795,
                0.7973090184153964,
                -1.7541284811252322
            ]
        },
        {
            "positions": [
                0.39553949954883294,
                -1.8807261547680756,
                2.4161599015686,
                -0.27648931643209274,
                0.7832432377336004,
                -1.985331197913884
            ]
        },
        {
            "positions": [
                0.45804690240307666,
                -1.885504674099434,
                2.41067227383559,
                -0.3119965061330875,
                0.7691774570518044,
                -2.2165339147025356
            ]
        },
        {
            "positions": [
                0.5205543052573203,
                -1.8902831934307924,
                2.4051846461025796,
                -0.34750369583408225,
                0.7551116763700084,
                -2.4477366314911873
            ]
        },
        {
            "positions": [
                0.5830617081115639,
                -1.895061712762151,
                2.399697018369569,
                -0.383010885535077,
                0.7410458956882124,
                -2.678939348279839
            ]
        },
        {
            "positions": [
                0.6455691109658075,
                -1.8998402320935093,
                2.394209390636559,
                -0.41851807523607176,
                0.7269801150064166,
                -2.9101420650684906
            ]
        },
        {
            "positions": [
                0.7080765138200513,
                -1.9046187514248678,
                2.3887217629035487,
                -0.4540252649370665,
                0.7129143343246206,
                -3.1413447818571423
            ]
        }
    ]
}