{
    "goal": {
        "global_pose": {
            "orientation": {
                "w": 0.7031023502349854,
                "x": -0.7110244035720825,
                "y": 0.007748599164187908,
                "z": 0.005598929710686207
            },
            "position": {
                "x": 0.11585023208521307,
                "y": 0.44412534475326537,
                "z": 0.3711530566215515
            }
        },
        "name": "move_to_auspresseinheit_A"
    },
    "id": "RRTConnect_move_to_auspresseinheit_A_92",
    "joint_names": [
        "shoulder_pan_joint",
        "shoulder_lift_joint",
        "elbow_joint",
        "wrist_1_joint",
        "wrist_2_joint",
        "wrist_3_joint"
    ],
    "metrics": {
        "cart_traj_len": 0.66128974177849,
        "distance_elbow_joint": 0.1006751302131832,
        "distance_shoulder_lift_joint": 0.5395407312981553,
        "distance_shoulder_pan_joint": 1.0445008042668555,
        "distance_wrist_1_joint": 0.8179341238744425,
        "distance_wrist_2_joint": 0.5751356418906612,
        "distance_wrist_3_joint": 1.6664724983632313,
        "smoothness": 0.972644460027415,
        "time": 0.071821946,
        "traj_len": 2.178131981746407,
        "weighted_distance": 3.0773809794040936
    },
    "planner": "RRTConnect",
    "start": {
        "state": {
            "elbow_joint": 2.422574709923281,
            "shoulder_lift_joint": -1.3736533754116391,
            "shoulder_pan_joint": -0.33786336945926293,
            "wrist_1_joint": -1.0288603412921917,
            "wrist_2_joint": 1.2330224858903978,
            "wrist_3_joint": -3.094022268022082
        }
    },
    "waypoints": [
        {
            "positions": [
                -0.33786336945926293,
                -1.3736533754116391,
                2.422574709923281,
                -1.0288603412921917,
                1.2330224858903978,
                -3.094022268022082
            ]
        },
        {
            "positions": [
                -0.2598298362235015,
                -1.4272091127968876,
                2.4272478965601962,
                -0.943463603769514,
                1.1646160859676309,
                -2.991753523008522
            ]
        },
        {
            "positions": [
                -0.18179630298774002,
                -1.480764850182136,
                2.4319210831971114,
                -0.8580668662468363,
                1.0962096860448642,
                -2.889484777994962
            ]
        },
        {
            "positions": [
                -0.10376276975197857,
                -1.5343205875673842,
                2.436594269834027,
                -0.7726701287241585,
                1.0278032861220974,
                -2.787216032981402
            ]
        },
        {
            "positions": [
                -0.025729236516217113,
                -1.5878763249526326,
                2.4412674564709422,
                -0.6872733912014808,
                0.9593968861993307,
                -2.6849472879678418
            ]
        },
        {
            "positions": [
                0.05230429671954434,
                -1.641432062337881,
                2.4459406431078574,
                -0.601876653678803,
                0.8909904862765639,
                -2.582678542954282
            ]
        },
        {
            "positions": [
                0.1303378299553058,
                -1.6949877997231293,
                2.450613829744773,
                -0.5164799161561253,
                0.8225840863537971,
                -2.480409797940722
            ]
        },
        {
            "positions": [
                0.20837136319106725,
                -1.7485435371083777,
                2.4552870163816882,
                -0.4310831786334476,
                0.7541776864310303,
                -2.3781410529271616
            ]
        },
        {
            "positions": [
                0.28640489642682876,
                -1.8020992744936262,
                2.4599602030186034,
                -0.3456864411107698,
                0.6857712865082636,
                -2.275872307913602
            ]
        },
        {
            "positions": [
                0.37045140410298155,
                -1.82431824093686,
                2.4473022755950313,
                -0.3726384858493739,
                0.691348175009969,
                -2.445536815564552
            ]
        },
        {
            "positions": [
                0.45449791177913434,
                -1.8465372073800934,
                2.4346443481714592,
                -0.3995905305879781,
                0.6969250635116744,
                -2.6152013232155022
            ]
        },
        {
            "positions": [
                0.5385444194552871,
                -1.8687561738233271,
                2.4219864207478867,
                -0.42654257532658224,
                0.7025019520133798,
                -2.7848658308664525
            ]
        },
        {
            "positions": [
                0.6225909271314399,
                -1.8909751402665607,
                2.4093284933243146,
                -0.4534946200651864,
                0.7080788405150852,
                -2.9545303385174027
            ]
        },
        {
            "positions": [
                0.7066374348075927,
                -1.9131941067097944,
                2.3966705659007426,
                -0.48044666480379056,
                0.7136557290167906,
                -3.124194846168353
            ]
        }
    ]
}