{
    "goal": {
        "global_pose": {
            "orientation": {
                "w": -0.00223480608172531,
                "x": 0.0024358444001904467,
                "y": 0.7094548369677653,
                "z": -0.704743149386269
            },
            "position": {
                "x": 0.6205249238014221,
                "y": -0.6371506643295288,
                "z": 0.19426114857196808
            }
        },
        "name": "move_to_magneteinheit_B"
    },
    "id": "RRTConnect_move_to_magneteinheit_B_25",
    "joint_names": [
        "shoulder_pan_joint",
        "shoulder_lift_joint",
        "elbow_joint",
        "wrist_1_joint",
        "wrist_2_joint",
        "wrist_3_joint"
    ],
    "metrics": {
        "cart_traj_len": 1.453469100575087,
        "distance_elbow_joint": 0.7302363381742187,
        "distance_shoulder_lift_joint": 1.2479559703206569,
        "distance_shoulder_pan_joint": 1.6212301483049134,
        "distance_wrist_1_joint": 2.6090654971715415,
        "distance_wrist_2_joint": 2.945849974391726,
        "distance_wrist_3_joint": 3.1276120019328717,
        "smoothness": 2.960594733002109e-16,
        "time": 0.074069598,
        "traj_len": 3.504561303543701,
        "weighted_distance": 4.90836932246596
    },
    "planner": "RRTConnect",
    "start": {
        "state": {
            "elbow_joint": 2.39358713078474,
            "shoulder_lift_joint": -1.908514104345545,
            "shoulder_pan_joint": 0.7066247066606129,
            "wrist_1_joint": -0.4678290933515497,
            "wrist_2_joint": 0.7096259083745334,
            "wrist_3_joint": -3.1358149277392293
        }
    },
    "waypoints": [
        {
            "positions": [
                0.7066247066606129,
                -1.908514104345545,
                2.39358713078474,
                -0.4678290933515497,
                0.7096259083745334,
                -3.1358149277392293
            ]
        },
        {
            "positions": [
                0.6559612645260844,
                -1.8695154802730243,
                2.3707672452167956,
                -0.38629579656493906,
                0.617568096674792,
                -3.038077052678827
            ]
        },
        {
            "positions": [
                0.6052978223915558,
                -1.8305168562005039,
                2.3479473596488516,
                -0.30476249977832837,
                0.5255102849750506,
                -2.9403391776184247
            ]
        },
        {
            "positions": [
                0.5546343802570273,
                -1.7915182321279834,
                2.325127474080907,
                -0.2232292029917177,
                0.4334524732753091,
                -2.8426013025580223
            ]
        },
        {
            "positions": [
                0.5039709381224988,
                -1.7525196080554628,
                2.3023075885129627,
                -0.14169590620510703,
                0.3413946615755677,
                -2.7448634274976205
            ]
        },
        {
            "positions": [
                0.4533074959879702,
                -1.7135209839829422,
                2.2794877029450182,
                -0.06016260941849633,
                0.24933684987582627,
                -2.647125552437218
            ]
        },
        {
            "positions": [
                0.4026440538534417,
                -1.6745223599104218,
                2.2566678173770742,
                0.021370687368114316,
                0.1572790381760848,
                -2.549387677376816
            ]
        },
        {
            "positions": [
                0.35198061171891315,
                -1.6355237358379013,
                2.2338479318091298,
                0.10290398415472496,
                0.06522122647634343,
                -2.4516498023164135
            ]
        },
        {
            "positions": [
                0.3013171695843846,
                -1.5965251117653807,
                2.2110280462411853,
                0.18443728094133566,
                -0.026836585223398046,
                -2.3539119272560116
            ]
        },
        {
            "positions": [
                0.25065372744985603,
                -1.55752648769286,
                2.188208160673241,
                0.26597057772794636,
                -0.11889439692313952,
                -2.2561740521956093
            ]
        },
        {
            "positions": [
                0.19999028531532748,
                -1.5185278636203396,
                2.165388275105297,
                0.34750387451455705,
                -0.2109522086228809,
                -2.158436177135207
            ]
        },
        {
            "positions": [
                0.14932684318079892,
                -1.4795292395478192,
                2.1425683895373524,
                0.42903717130116764,
                -0.30301002032262236,
                -2.0606983020748046
            ]
        },
        {
            "positions": [
                0.09866340104627047,
                -1.4405306154752986,
                2.119748503969408,
                0.5105704680877783,
                -0.39506783202236384,
                -1.9629604270144023
            ]
        },
        {
            "positions": [
                0.04799995891174191,
                -1.401531991402778,
                2.0969286184014635,
                0.592103764874389,
                -0.4871256437221053,
                -1.8652225519540002
            ]
        },
        {
            "positions": [
                -0.0026634832227866445,
                -1.3625333673302575,
                2.0741087328335195,
                0.6736370616609997,
                -0.5791834554218466,
                -1.767484676893598
            ]
        },
        {
            "positions": [
                -0.0533269253573152,
                -1.3235347432577371,
                2.051288847265575,
                0.7551703584476104,
                -0.671241267121588,
                -1.6697468018331958
            ]
        },
        {
            "positions": [
                -0.10399036749184376,
                -1.2845361191852165,
                2.0284689616976306,
                0.8367036552342211,
                -0.7632990788213295,
                -1.5720089267727935
            ]
        },
        {
            "positions": [
                -0.15465380962637232,
                -1.2455374951126958,
                2.0056490761296866,
                0.9182369520208318,
                -0.855356890521071,
                -1.4742710517123911
            ]
        },
        {
            "positions": [
                -0.20531725176090088,
                -1.2065388710401754,
                1.9828291905617421,
                0.9997702488074425,
                -0.9474147022208125,
                -1.376533176651989
            ]
        },
        {
            "positions": [
                -0.25598069389542943,
                -1.167540246967655,
                1.9600093049937977,
                1.0813035455940532,
                -1.0394725139205536,
                -1.2787953015915867
            ]
        },
        {
            "positions": [
                -0.306644136029958,
                -1.1285416228951344,
                1.9371894194258532,
                1.1628368423806639,
                -1.1315303256202953,
                -1.1810574265311846
            ]
        },
        {
            "positions": [
                -0.35730757816448644,
                -1.0895429988226137,
                1.914369533857909,
                1.2443701391672743,
                -1.2235881373200366,
                -1.0833195514707823
            ]
        },
        {
            "positions": [
                -0.4079710202990151,
                -1.0505443747500933,
                1.8915496482899647,
                1.325903435953885,
                -1.3156459490197783,
                -0.98558167641038
            ]
        },
        {
            "positions": [
                -0.45863446243354355,
                -1.011545750677573,
                1.8687297627220203,
                1.4074367327404957,
                -1.4077037607195195,
                -0.8878438013499776
            ]
        },
        {
            "positions": [
                -0.509297904568072,
                -0.9725471266050523,
                1.845909877154076,
                1.4889700295271064,
                -1.4997615724192612,
                -0.7901059262895753
            ]
        },
        {
            "positions": [
                -0.5599613467026007,
                -0.9335485025325317,
                1.8230899915861318,
                1.570503326313717,
                -1.5918193841190025,
                -0.6923680512291734
            ]
        },
        {
            "positions": [
                -0.6106247888371291,
                -0.8945498784600112,
                1.8002701060181874,
                1.6520366231003276,
                -1.6838771958187442,
                -0.5946301761687711
            ]
        },
        {
            "positions": [
                -0.6612882309716578,
                -0.8555512543874908,
                1.777450220450243,
                1.7335699198869383,
                -1.7759350075184854,
                -0.4968923011083688
            ]
        },
        {
            "positions": [
                -0.7119516731061862,
                -0.8165526303149702,
                1.7546303348822987,
                1.815103216673549,
                -1.8679928192182267,
                -0.39915442604796647
            ]
        },
        {
            "positions": [
                -0.7626151152407149,
                -0.7775540062424495,
                1.7318104493143545,
                1.8966365134601597,
                -1.9600506309179684,
                -0.30141655098756415
            ]
        },
        {
            "positions": [
                -0.8132785573752433,
                -0.7385553821699291,
                1.70899056374641,
                1.9781698102467704,
                -2.0521084426177096,
                -0.20367867592716227
            ]
        },
        {
            "positions": [
                -0.863941999509772,
                -0.6995567580974087,
                1.6861706781784656,
                2.059703107033381,
                -2.1441662543174513,
                -0.10594080086675994
            ]
        },
        {
            "positions": [
                -0.9146054416443005,
                -0.660558134024888,
                1.6633507926105213,
                2.141236403819992,
                -2.2362240660171926,
                -0.00820292580635742
            ]
        }
    ]
}