{
    "goal": {
        "global_pose": {
            "orientation": {
                "w": -0.00223480608172531,
                "x": 0.0024358444001904467,
                "y": 0.7094548369677653,
                "z": -0.704743149386269
            },
            "position": {
                "x": 0.6205249238014221,
                "y": -0.6371506643295288,
                "z": 0.19426114857196808
            }
        },
        "name": "move_to_magneteinheit_B"
    },
    "id": "RRTConnect_move_to_magneteinheit_B_70",
    "joint_names": [
        "shoulder_pan_joint",
        "shoulder_lift_joint",
        "elbow_joint",
        "wrist_1_joint",
        "wrist_2_joint",
        "wrist_3_joint"
    ],
    "metrics": {
        "cart_traj_len": 4.646170814690026,
        "distance_elbow_joint": 4.514516498357536,
        "distance_shoulder_lift_joint": 1.0957430473005472,
        "distance_shoulder_pan_joint": 4.314055550123577,
        "distance_wrist_1_joint": 1.9597957508835382,
        "distance_wrist_2_joint": 1.8996094848882359,
        "distance_wrist_3_joint": 4.019368655869264,
        "smoothness": 0.5198490078558546,
        "time": 0.26708251699999996,
        "traj_len": 4.2193706861832725,
        "weighted_distance": 5.449883625815601
    },
    "planner": "RRTConnect",
    "start": {
        "state": {
            "elbow_joint": 2.39358713078474,
            "shoulder_lift_joint": -1.908514104345545,
            "shoulder_pan_joint": 0.7066247066606129,
            "wrist_1_joint": -0.4678290933515497,
            "wrist_2_joint": 0.7096259083745334,
            "wrist_3_joint": -3.1358149277392293
        }
    },
    "waypoints": [
        {
            "positions": [
                0.7066247066606129,
                -1.908514104345545,
                2.39358713078474,
                -0.4678290933515497,
                0.7096259083745334,
                -3.1358149277392293
            ]
        },
        {
            "positions": [
                0.597485161136413,
                -1.8884943864579284,
                2.3660764513551436,
                -0.39047854920980274,
                0.7275672879041974,
                -3.022551939145372
            ]
        },
        {
            "positions": [
                0.48834561561221324,
                -1.8684746685703117,
                2.338565771925547,
                -0.3131280050680557,
                0.7455086674338615,
                -2.9092889505515145
            ]
        },
        {
            "positions": [
                0.3792060700880134,
                -1.8484549506826953,
                2.31105509249595,
                -0.23577746092630877,
                0.7634500469635255,
                -2.7960259619576573
            ]
        },
        {
            "positions": [
                0.27006652456381347,
                -1.8284352327950786,
                2.2835444130663536,
                -0.15842691678456178,
                0.7813914264931895,
                -2.6827629733637997
            ]
        },
        {
            "positions": [
                0.16092697903961367,
                -1.808415514907462,
                2.256033733636757,
                -0.08107637264281481,
                0.7993328060228535,
                -2.5694999847699425
            ]
        },
        {
            "positions": [
                0.14540251774816587,
                -1.7902197688752344,
                2.169370366178465,
                -0.10620564104301661,
                0.7724377047874473,
                -2.4876390789292033
            ]
        },
        {
            "positions": [
                0.12987805645671807,
                -1.7720240228430066,
                2.0827069987201727,
                -0.1313349094432184,
                0.745542603552041,
                -2.405778173088464
            ]
        },
        {
            "positions": [
                0.11530438308842388,
                -1.7463587873002082,
                1.961336468855968,
                -0.17347144931009797,
                0.7015431016325852,
                -2.2934542582607667
            ]
        },
        {
            "positions": [
                0.10073070972012968,
                -1.72069355175741,
                1.8399659389917633,
                -0.21560798917697754,
                0.6575435997131291,
                -2.181130343433069
            ]
        },
        {
            "positions": [
                0.0861570363518355,
                -1.6950283162146116,
                1.7185954091275586,
                -0.2577445290438571,
                0.6135440977936732,
                -2.068806428605372
            ]
        },
        {
            "positions": [
                0.07158336298354129,
                -1.6693630806718134,
                1.5972248792633539,
                -0.2998810689107367,
                0.5695445958742172,
                -1.9564825137776745
            ]
        },
        {
            "positions": [
                0.05700968961524711,
                -1.643697845129015,
                1.4758543493991492,
                -0.3420176087776162,
                0.5255450939547613,
                -1.844158598949977
            ]
        },
        {
            "positions": [
                0.17309336379914028,
                -1.656309535274114,
                1.3509393085233057,
                -0.3187674435604831,
                0.49611533007648617,
                -1.758980075572671
            ]
        },
        {
            "positions": [
                0.28917703798303346,
                -1.6689212254192127,
                1.2260242676474622,
                -0.29551727834334995,
                0.46668556619821105,
                -1.673801552195365
            ]
        },
        {
            "positions": [
                0.4052607121669266,
                -1.6815329155643117,
                1.1011092267716185,
                -0.2722671131262168,
                0.4372558023199359,
                -1.5886230288180592
            ]
        },
        {
            "positions": [
                0.5213443863508198,
                -1.6941446057094107,
                0.976194185895775,
                -0.24901694790908369,
                0.40782603844166077,
                -1.5034445054407535
            ]
        },
        {
            "positions": [
                0.6374280605347129,
                -1.7067562958545097,
                0.8512791450199315,
                -0.22576678269195055,
                0.3783962745633856,
                -1.4182659820634476
            ]
        },
        {
            "positions": [
                0.7535117347186061,
                -1.7193679859996085,
                0.7263641041440879,
                -0.20251661747481742,
                0.3489665106851104,
                -1.3330874586861416
            ]
        },
        {
            "positions": [
                0.8695954089024992,
                -1.7319796761447075,
                0.6014490632682444,
                -0.17926645225768428,
                0.3195367468068353,
                -1.2479089353088357
            ]
        },
        {
            "positions": [
                0.9856790830863924,
                -1.7445913662898065,
                0.47653402239240084,
                -0.15601628704055115,
                0.29010698292856013,
                -1.16273041193153
            ]
        },
        {
            "positions": [
                1.1017627572702857,
                -1.7572030564349055,
                0.35161898151655735,
                -0.13276612182341802,
                0.26067721905028496,
                -1.0775518885542241
            ]
        },
        {
            "positions": [
                1.2178464314541788,
                -1.7698147465800043,
                0.22670394064071386,
                -0.10951595660628488,
                0.23124745517200984,
                -0.9923733651769181
            ]
        },
        {
            "positions": [
                1.333930105638072,
                -1.7824264367251033,
                0.10178889976487016,
                -0.08626579138915175,
                0.20181769129373467,
                -0.9071948417996123
            ]
        },
        {
            "positions": [
                1.4500137798219652,
                -1.7950381268702023,
                -0.02312614111097333,
                -0.06301562617201861,
                0.1723879274154595,
                -0.8220163184223064
            ]
        },
        {
            "positions": [
                1.5660974540058583,
                -1.8076498170153013,
                -0.14804118198681682,
                -0.03976546095488548,
                0.14295816353718438,
                -0.7368377950450005
            ]
        },
        {
            "positions": [
                1.6821811281897514,
                -1.8202615071604,
                -0.2729562228626603,
                -0.016515295737752345,
                0.11352839965890921,
                -0.6516592716676946
            ]
        },
        {
            "positions": [
                1.7982648023736447,
                -1.832873197305499,
                -0.397871263738504,
                0.006734869479380845,
                0.08409863578063403,
                -0.5664807482903886
            ]
        },
        {
            "positions": [
                1.9143484765575378,
                -1.845484887450598,
                -0.5227863046143475,
                0.029985034696513924,
                0.05466887190235892,
                -0.48130222491308294
            ]
        },
        {
            "positions": [
                2.030432150741431,
                -1.858096577595697,
                -0.6477013454901912,
                0.05323519991364711,
                0.02523910802408369,
                -0.3961237015357768
            ]
        },
        {
            "positions": [
                2.146515824925324,
                -1.8707082677407958,
                -0.7726163863660345,
                0.07648536513078019,
                -0.004190655854191427,
                -0.3109451781584711
            ]
        },
        {
            "positions": [
                2.2625994991092173,
                -1.8833199578858948,
                -0.8975314272418782,
                0.09973553034791338,
                -0.033620419732466544,
                -0.2257666547811652
            ]
        },
        {
            "positions": [
                2.37868317329311,
                -1.8959316480309938,
                -1.0224464681177214,
                0.12298569556504646,
                -0.06305018361074166,
                -0.14058813140385928
            ]
        },
        {
            "positions": [
                2.4947668474770035,
                -1.9085433381760928,
                -1.1473615089935651,
                0.14623586078217965,
                -0.09247994748901689,
                -0.05540960802655337
            ]
        },
        {
            "positions": [
                2.6108505216608964,
                -1.9211550283211916,
                -1.2722765498694089,
                0.16948602599931273,
                -0.121909711367292,
                0.029768915350752323
            ]
        },
        {
            "positions": [
                2.7269341958447897,
                -1.9337667184662906,
                -1.3971915907452526,
                0.19273619121644592,
                -0.15133947524556723,
                0.11494743872805846
            ]
        },
        {
            "positions": [
                2.843017870028683,
                -1.9463784086113896,
                -1.5221066316210958,
                0.215986356433579,
                -0.18076923912384235,
                0.20012596210536415
            ]
        },
        {
            "positions": [
                2.9591015442125763,
                -1.9589900987564883,
                -1.6470216724969395,
                0.23923652165071219,
                -0.21019900300211747,
                0.28530448548267007
            ]
        },
        {
            "positions": [
                3.075185218396469,
                -1.9716017889015873,
                -1.7719367133727828,
                0.26248668686784526,
                -0.23962876688039259,
                0.370483008859976
            ]
        },
        {
            "positions": [
                3.1912688925803625,
                -1.9842134790466863,
                -1.8968517542486265,
                0.2857368520849785,
                -0.2690585307586678,
                0.4556615322372818
            ]
        },
        {
            "positions": [
                3.1249962263162256,
                -2.0455148733174795,
                -1.8688420525831053,
                0.3712802687321545,
                -0.1763696244513686,
                0.40217500775068754
            ]
        },
        {
            "positions": [
                3.058723560052089,
                -2.1068162675882727,
                -1.8408323509175841,
                0.45682368537933044,
                -0.08368071814406941,
                0.3486884832640933
            ]
        },
        {
            "positions": [
                2.9924508937879524,
                -2.168117661859066,
                -1.812822649252063,
                0.5423671020265064,
                0.009008188163229791,
                0.295201958777499
            ]
        },
        {
            "positions": [
                2.9261782275238155,
                -2.229419056129859,
                -1.7848129475865417,
                0.6279105186736824,
                0.10169709447052899,
                0.24171543429090478
            ]
        },
        {
            "positions": [
                2.8599055612596787,
                -2.2907204504006526,
                -1.7568032459210206,
                0.7134539353208583,
                0.1943860007778282,
                0.1882289098043105
            ]
        },
        {
            "positions": [
                2.7936328949955422,
                -2.352021844671446,
                -1.7287935442554994,
                0.7989973519680342,
                0.2870749070851274,
                0.13474238531771626
            ]
        },
        {
            "positions": [
                2.7273602287314054,
                -2.413323238942239,
                -1.7007838425899782,
                0.8845407686152102,
                0.3797638133924266,
                0.08125586083112202
            ]
        },
        {
            "positions": [
                2.6610875624672685,
                -2.474624633213032,
                -1.672774140924457,
                0.9700841852623862,
                0.47245271969972574,
                0.02776933634452777
            ]
        }
    ]
}