{
    "goal": {
        "global_pose": {
            "orientation": {
                "w": 0.5084816217422485,
                "x": -0.49083608388900757,
                "y": 0.5182115435600281,
                "z": -0.4816462993621826
            },
            "position": {
                "x": 0.5540239810943604,
                "y": 0.030875300988554955,
                "z": 0.16403168439865112
            }
        },
        "name": "move_to_storage_A"
    },
    "id": "RRTConnect_move_to_storage_A_127",
    "joint_names": [
        "shoulder_pan_joint",
        "shoulder_lift_joint",
        "elbow_joint",
        "wrist_1_joint",
        "wrist_2_joint",
        "wrist_3_joint"
    ],
    "metrics": {
        "cart_traj_len": 0.3530903285656083,
        "distance_elbow_joint": 0.4541975431251055,
        "distance_shoulder_lift_joint": 0.23515955488670337,
        "distance_shoulder_pan_joint": 0.46291711318842604,
        "distance_wrist_1_joint": 0.26023216723659714,
        "distance_wrist_2_joint": 1.0943802802137856,
        "distance_wrist_3_joint": 0.10854129542139601,
        "smoothness": 8.881784232165597e-16,
        "time": 0.039566882,
        "traj_len": 1.6172284792421923,
        "weighted_distance": 2.0462460732681174
    },
    "planner": "RRTConnect",
    "start": {
        "state": {
            "elbow_joint": 1.9715463870305268,
            "shoulder_lift_joint": -1.1394903361783484,
            "shoulder_pan_joint": 0.12281147578464417,
            "wrist_1_joint": -0.7804599489681411,
            "wrist_2_joint": 0.12958660307563738,
            "wrist_3_joint": -3.1924946282119055
        }
    },
    "waypoints": [
        {
            "positions": [
                0.12281147578464417,
                -1.1394903361783484,
                1.9715463870305268,
                -0.7804599489681411,
                0.12958660307563738,
                -3.1924946282119055
            ]
        },
        {
            "positions": [
                0.05668045961486903,
                -1.1730845583050202,
                2.0364317503341134,
                -0.8176359728590835,
                0.2859266431061782,
                -3.1769887288659917
            ]
        },
        {
            "positions": [
                -0.009450556554906106,
                -1.2066787804316923,
                2.1013171136376996,
                -0.854811996750026,
                0.442266683136719,
                -3.1614828295200783
            ]
        },
        {
            "positions": [
                -0.07558157272468126,
                -1.2402730025583641,
                2.166202476941286,
                -0.8919880206409684,
                0.5986067231672598,
                -3.1459769301741645
            ]
        },
        {
            "positions": [
                -0.14171258889445637,
                -1.273867224685036,
                2.231087840244873,
                -0.9291640445319109,
                0.7549467631978006,
                -3.1304710308282506
            ]
        },
        {
            "positions": [
                -0.20784360506423155,
                -1.307461446811708,
                2.2959732035484595,
                -0.9663400684228534,
                0.9112868032283414,
                -3.114965131482337
            ]
        },
        {
            "positions": [
                -0.2739746212340067,
                -1.34105566893838,
                2.3608585668520456,
                -1.0035160923137958,
                1.0676268432588822,
                -3.0994592321364234
            ]
        },
        {
            "positions": [
                -0.34010563740378186,
                -1.3746498910650518,
                2.4257439301556323,
                -1.0406921162047382,
                1.223966883289423,
                -3.0839533327905095
            ]
        }
    ]
}