{
    "goal": {
        "global_pose": {
            "orientation": {
                "w": 0.7031023502349854,
                "x": -0.7110244035720825,
                "y": 0.007748599164187908,
                "z": 0.005598929710686207
            },
            "position": {
                "x": 0.11585023208521307,
                "y": 0.44412534475326537,
                "z": 0.3711530566215515
            }
        },
        "name": "move_to_auspresseinheit_A"
    },
    "id": "RRTConnect_move_to_auspresseinheit_A_138",
    "joint_names": [
        "shoulder_pan_joint",
        "shoulder_lift_joint",
        "elbow_joint",
        "wrist_1_joint",
        "wrist_2_joint",
        "wrist_3_joint"
    ],
    "metrics": {
        "cart_traj_len": 1.257737322920516,
        "distance_elbow_joint": 0.6094107366533681,
        "distance_shoulder_lift_joint": 0.5321847349577642,
        "distance_shoulder_pan_joint": 1.5946162395927814,
        "distance_wrist_1_joint": 0.9682087078556009,
        "distance_wrist_2_joint": 0.5552814079646299,
        "distance_wrist_3_joint": 0.15247596727097745,
        "smoothness": 1.5809379220495687,
        "time": 0.073563712,
        "traj_len": 2.1005184584514183,
        "weighted_distance": 2.4981232645042373
    },
    "planner": "RRTConnect",
    "start": {
        "state": {
            "elbow_joint": 2.422574709923281,
            "shoulder_lift_joint": -1.3736533754116391,
            "shoulder_pan_joint": -0.33786336945926293,
            "wrist_1_joint": -1.0288603412921917,
            "wrist_2_joint": 1.2330224858903978,
            "wrist_3_joint": -3.094022268022082
        }
    },
    "waypoints": [
        {
            "positions": [
                -0.33786336945926293,
                -1.3736533754116391,
                2.422574709923281,
                -1.0288603412921917,
                1.2330224858903978,
                -3.094022268022082
            ]
        },
        {
            "positions": [
                -0.42949825917545476,
                -1.4130095944780965,
                2.315939305249788,
                -0.9929769712483691,
                1.1806211777806073,
                -3.0746565432396413
            ]
        },
        {
            "positions": [
                -0.5211331488916466,
                -1.452365813544554,
                2.2093039005762947,
                -0.9570936012045465,
                1.128219869670817,
                -3.055290818457201
            ]
        },
        {
            "positions": [
                -0.6127680386078385,
                -1.4917220326110114,
                2.1026684959028015,
                -0.9212102311607239,
                1.0758185615610265,
                -3.03592509367476
            ]
        },
        {
            "positions": [
                -0.46346823245115054,
                -1.5499919303138627,
                2.1282671975468532,
                -0.8272255593210348,
                1.020757761890943,
                -3.0389161906751574
            ]
        },
        {
            "positions": [
                -0.31416842629446257,
                -1.6082618280167138,
                2.153865899190905,
                -0.7332408874813456,
                0.9656969622208593,
                -3.041907287675555
            ]
        },
        {
            "positions": [
                -0.16486862013777465,
                -1.666531725719565,
                2.1794646008349567,
                -0.6392562156416566,
                0.9106361625507757,
                -3.0448983846759523
            ]
        },
        {
            "positions": [
                -0.015568813981086671,
                -1.7248016234224164,
                2.2050633024790085,
                -0.5452715438019675,
                0.8555753628806921,
                -3.0478894816763495
            ]
        },
        {
            "positions": [
                0.13373099217560136,
                -1.7830715211252675,
                2.2306620041230603,
                -0.4512868719622784,
                0.8005145632106085,
                -3.050880578676747
            ]
        },
        {
            "positions": [
                0.28303079833228917,
                -1.8413414188281187,
                2.256260705767112,
                -0.3573022001225894,
                0.745453763540525,
                -3.0538716756771445
            ]
        },
        {
            "positions": [
                0.43233060448897714,
                -1.89961131653097,
                2.2818594074111638,
                -0.2633175282829002,
                0.6903929638704414,
                -3.0568627726775417
            ]
        },
        {
            "positions": [
                0.5696370681626723,
                -1.9027247134501866,
                2.3370162129734267,
                -0.3646504757060549,
                0.6967189068427782,
                -3.093583329637979
            ]
        },
        {
            "positions": [
                0.7069435318363676,
                -1.9058381103694033,
                2.39217301853569,
                -0.4659834231292096,
                0.7030448498151148,
                -3.1303038865984156
            ]
        }
    ]
}