{
    "goal": {
        "global_pose": {
            "orientation": {
                "w": 0.5084816217422485,
                "x": -0.49083608388900757,
                "y": 0.5182115435600281,
                "z": -0.4816462993621826
            },
            "position": {
                "x": 0.5540239810943604,
                "y": 0.030875300988554955,
                "z": 0.16403168439865112
            }
        },
        "name": "move_to_storage_A"
    },
    "id": "RRTConnect_move_to_storage_A_91",
    "joint_names": [
        "shoulder_pan_joint",
        "shoulder_lift_joint",
        "elbow_joint",
        "wrist_1_joint",
        "wrist_2_joint",
        "wrist_3_joint"
    ],
    "metrics": {
        "cart_traj_len": 0.35370443393568884,
        "distance_elbow_joint": 0.45429739870337604,
        "distance_shoulder_lift_joint": 0.23375999708446593,
        "distance_shoulder_pan_joint": 0.46101644621396776,
        "distance_wrist_1_joint": 0.2605632772617189,
        "distance_wrist_2_joint": 1.1067502874079012,
        "distance_wrist_3_joint": 0.09569769076880119,
        "smoothness": 1.3322676295501878e-15,
        "time": 0.042363251,
        "traj_len": 1.6161946347640903,
        "weighted_distance": 2.04225219883526
    },
    "planner": "RRTConnect",
    "start": {
        "state": {
            "elbow_joint": 1.9715463870305268,
            "shoulder_lift_joint": -1.1394903361783484,
            "shoulder_pan_joint": 0.12281147578464417,
            "wrist_1_joint": -0.7804599489681411,
            "wrist_2_joint": 0.12958660307563738,
            "wrist_3_joint": -3.1924946282119055
        }
    },
    "waypoints": [
        {
            "positions": [
                0.12281147578464417,
                -1.1394903361783484,
                1.9715463870305268,
                -0.7804599489681411,
                0.12958660307563738,
                -3.1924946282119055
            ]
        },
        {
            "positions": [
                0.05695198346836307,
                -1.1728846214761293,
                2.036446015416723,
                -0.8176832742912438,
                0.28769378699105186,
                -3.178823529530648
            ]
        },
        {
            "positions": [
                -0.008907508847918036,
                -1.2062789067739101,
                2.10134564380292,
                -0.8549065996143465,
                0.4458009709064663,
                -3.165152430849391
            ]
        },
        {
            "positions": [
                -0.07476700116419914,
                -1.239673192071691,
                2.1662452721891166,
                -0.8921299249374491,
                0.6039081548218808,
                -3.1514813321681334
            ]
        },
        {
            "positions": [
                -0.14062649348048023,
                -1.2730674773694717,
                2.231144900575313,
                -0.9293532502605519,
                0.7620153387372952,
                -3.1378102334868765
            ]
        },
        {
            "positions": [
                -0.20648598579676136,
                -1.3064617626672526,
                2.2960445289615095,
                -0.9665765755836546,
                0.9201225226527097,
                -3.124139134805619
            ]
        },
        {
            "positions": [
                -0.27234547811304244,
                -1.3398560479650334,
                2.3609441573477064,
                -1.0037999009067573,
                1.0782297065681241,
                -3.1104680361243617
            ]
        },
        {
            "positions": [
                -0.33820497042932357,
                -1.3732503332628143,
                2.425843785733903,
                -1.04102322622986,
                1.2363368904835386,
                -3.0967969374431044
            ]
        }
    ]
}