{
    "goal": {
        "global_pose": {
            "orientation": {
                "w": 0.5084816217422485,
                "x": -0.49083608388900757,
                "y": 0.5182115435600281,
                "z": -0.4816462993621826
            },
            "position": {
                "x": 0.5540239810943604,
                "y": 0.030875300988554955,
                "z": 0.16403168439865112
            }
        },
        "name": "move_to_storage_A"
    },
    "id": "RRTConnect_move_to_storage_A_24",
    "joint_names": [
        "shoulder_pan_joint",
        "shoulder_lift_joint",
        "elbow_joint",
        "wrist_1_joint",
        "wrist_2_joint",
        "wrist_3_joint"
    ],
    "metrics": {
        "cart_traj_len": 0.3528171379264629,
        "distance_elbow_joint": 0.4518962839024354,
        "distance_shoulder_lift_joint": 0.23307355771206306,
        "distance_shoulder_pan_joint": 0.4622197589792899,
        "distance_wrist_1_joint": 0.2515480821131256,
        "distance_wrist_2_joint": 1.094283036045714,
        "distance_wrist_3_joint": 0.09018513980424192,
        "smoothness": 4.440892133664971e-16,
        "time": 0.036880975999999996,
        "traj_len": 1.607235470787299,
        "weighted_distance": 2.027167298553376
    },
    "planner": "RRTConnect",
    "start": {
        "state": {
            "elbow_joint": 1.9715463870305268,
            "shoulder_lift_joint": -1.1394903361783484,
            "shoulder_pan_joint": 0.12281147578464417,
            "wrist_1_joint": -0.7804599489681411,
            "wrist_2_joint": 0.12958660307563738,
            "wrist_3_joint": -3.1924946282119055
        }
    },
    "waypoints": [
        {
            "positions": [
                0.12281147578464417,
                -1.1394903361783484,
                1.9715463870305268,
                -0.7804599489681411,
                0.12958660307563738,
                -3.1924946282119055
            ]
        },
        {
            "positions": [
                0.056780081644745614,
                -1.172786558708643,
                2.036102999016589,
                -0.8163953892700162,
                0.28591275108216796,
                -3.1796110368112998
            ]
        },
        {
            "positions": [
                -0.009251312495152944,
                -1.2060827812389379,
                2.100659611002651,
                -0.8523308295718912,
                0.4422388990886985,
                -3.1667274454106935
            ]
        },
        {
            "positions": [
                -0.0752827066350515,
                -1.2393790037692325,
                2.1652162229887133,
                -0.8882662698737663,
                0.5985650470952291,
                -3.1538438540100877
            ]
        },
        {
            "positions": [
                -0.14131410077495005,
                -1.2726752262995273,
                2.2297728349747756,
                -0.9242017101756415,
                0.7548911951017597,
                -3.1409602626094815
            ]
        },
        {
            "positions": [
                -0.2073454949148486,
                -1.305971448829822,
                2.294329446960838,
                -0.9601371504775165,
                0.9112173431082904,
                -3.1280766712088757
            ]
        },
        {
            "positions": [
                -0.27337688905474716,
                -1.3392676713601168,
                2.3588860589469,
                -0.9960725907793916,
                1.0675434911148207,
                -3.1151930798082694
            ]
        },
        {
            "positions": [
                -0.3394082831946457,
                -1.3725638938904114,
                2.423442670932962,
                -1.0320080310812667,
                1.2238696391213515,
                -3.1023094884076636
            ]
        }
    ]
}