{
    "goal": {
        "global_pose": {
            "orientation": {
                "w": 0.5084816217422485,
                "x": -0.49083608388900757,
                "y": 0.5182115435600281,
                "z": -0.4816462993621826
            },
            "position": {
                "x": 0.5540239810943604,
                "y": 0.030875300988554955,
                "z": 0.16403168439865112
            }
        },
        "name": "move_to_storage_A"
    },
    "id": "RRTConnect_move_to_storage_A_66",
    "joint_names": [
        "shoulder_pan_joint",
        "shoulder_lift_joint",
        "elbow_joint",
        "wrist_1_joint",
        "wrist_2_joint",
        "wrist_3_joint"
    ],
    "metrics": {
        "cart_traj_len": 0.35261188840265845,
        "distance_elbow_joint": 0.44889179314158545,
        "distance_shoulder_lift_joint": 0.2330410962758409,
        "distance_shoulder_pan_joint": 0.46250597106763186,
        "distance_wrist_1_joint": 0.2373786919115829,
        "distance_wrist_2_joint": 1.0913250175271456,
        "distance_wrist_3_joint": 0.09789797337183481,
        "smoothness": 4.440892133664971e-16,
        "time": 0.035610736000000004,
        "traj_len": 1.603446457882402,
        "weighted_distance": 2.0237441042478714
    },
    "planner": "RRTConnect",
    "start": {
        "state": {
            "elbow_joint": 1.9715463870305268,
            "shoulder_lift_joint": -1.1394903361783484,
            "shoulder_pan_joint": 0.12281147578464417,
            "wrist_1_joint": -0.7804599489681411,
            "wrist_2_joint": 0.12958660307563738,
            "wrist_3_joint": -3.1924946282119055
        }
    },
    "waypoints": [
        {
            "positions": [
                0.12281147578464417,
                -1.1394903361783484,
                1.9715463870305268,
                -0.7804599489681411,
                0.12958660307563738,
                -3.1924946282119055
            ]
        },
        {
            "positions": [
                0.056739194203553917,
                -1.1727819213606114,
                2.0356737860507534,
                -0.8143711906697958,
                0.28549017700808677,
                -3.1785092034445004
            ]
        },
        {
            "positions": [
                -0.00933308737753634,
                -1.2060735065428743,
                2.0998011850709797,
                -0.8482824323714505,
                0.4413937509405361,
                -3.1645237786770957
            ]
        },
        {
            "positions": [
                -0.07540536895862661,
                -1.2393650917251373,
                2.1639285840912064,
                -0.8821936740731051,
                0.5972973248729855,
                -3.1505383539096905
            ]
        },
        {
            "positions": [
                -0.14147765053971684,
                -1.2726566769074004,
                2.2280559831114326,
                -0.9161049157747598,
                0.7532008988054348,
                -3.136552929142286
            ]
        },
        {
            "positions": [
                -0.20754993212080713,
                -1.3059482620896634,
                2.2921833821316593,
                -0.9500161574764145,
                0.9091044727378843,
                -3.1225675043748806
            ]
        },
        {
            "positions": [
                -0.2736222137018974,
                -1.3392398472719262,
                2.3563107811518855,
                -0.9839273991780693,
                1.0650080466703336,
                -3.108582079607476
            ]
        },
        {
            "positions": [
                -0.3396944952829877,
                -1.3725314324541893,
                2.420438180172112,
                -1.017838640879724,
                1.220911620602783,
                -3.0945966548400707
            ]
        }
    ]
}