{
    "goal": {
        "global_pose": {
            "orientation": {
                "w": 0.7047431468963623,
                "x": -0.7094548344612122,
                "y": 0.0024358443915843964,
                "z": -0.0022348060738295317
            },
            "position": {
                "x": 0.6094750761985779,
                "y": 0.3671506643295288,
                "z": 0.19426114857196808
            }
        },
        "name": "move_to_magneteinheit_A"
    },
    "id": "RRTConnect_move_to_magneteinheit_A_45",
    "joint_names": [
        "shoulder_pan_joint",
        "shoulder_lift_joint",
        "elbow_joint",
        "wrist_1_joint",
        "wrist_2_joint",
        "wrist_3_joint"
    ],
    "metrics": {
        "cart_traj_len": 2.0719003473540476,
        "distance_elbow_joint": 3.9058760518798126,
        "distance_shoulder_lift_joint": 1.0701152597687278,
        "distance_shoulder_pan_joint": 1.2423150654736153,
        "distance_wrist_1_joint": 1.2851473600916878,
        "distance_wrist_2_joint": 1.4486361290609677,
        "distance_wrist_3_joint": 2.0368784319174624,
        "smoothness": 1.0719394732306253e-15,
        "time": 0.051511106,
        "traj_len": 3.314961281552512,
        "weighted_distance": 4.218590837137427
    },
    "planner": "RRTConnect",
    "start": {
        "state": {
            "elbow_joint": -1.919643507792019,
            "shoulder_lift_joint": -0.07675430207160344,
            "shoulder_pan_joint": -1.1188671864651873,
            "wrist_1_joint": 0.42560062535961957,
            "wrist_2_joint": 1.5706038300724876,
            "wrist_3_joint": 1.1188968870953055
        }
    },
    "waypoints": [
        {
            "positions": [
                -1.1188671864651873,
                -0.07675430207160344,
                -1.919643507792019,
                0.42560062535961957,
                1.5706038300724876,
                1.1188968870953055
            ]
        },
        {
            "positions": [
                -1.074498791269701,
                -0.11497270420620087,
                -1.7801479345105973,
                0.37970250535634503,
                1.5188668254631674,
                1.1916425453780721
            ]
        },
        {
            "positions": [
                -1.0301303960742147,
                -0.1531911063407983,
                -1.6406523612291752,
                0.33380438535307044,
                1.467129820853847,
                1.2643882036608385
            ]
        },
        {
            "positions": [
                -0.9857620008787286,
                -0.1914095084753957,
                -1.5011567879477534,
                0.2879062653497959,
                1.4153928162445268,
                1.337133861943605
            ]
        },
        {
            "positions": [
                -0.9413936056832424,
                -0.22962791060999313,
                -1.3616612146663316,
                0.24200814534652135,
                1.3636558116352064,
                1.4098795202263716
            ]
        },
        {
            "positions": [
                -0.8970252104877561,
                -0.2678463127445906,
                -1.2221656413849096,
                0.19611002534324679,
                1.3119188070258863,
                1.4826251785091382
            ]
        },
        {
            "positions": [
                -0.8526568152922698,
                -0.30606471487918796,
                -1.082670068103488,
                0.15021190533997225,
                1.2601818024165659,
                1.5553708367919046
            ]
        },
        {
            "positions": [
                -0.8082884200967835,
                -0.3442831170137854,
                -0.943174494822066,
                0.10431378533669766,
                1.2084447978072457,
                1.6281164950746712
            ]
        },
        {
            "positions": [
                -0.7639200249012973,
                -0.3825015191483828,
                -0.8036789215406441,
                0.05841566533342313,
                1.1567077931979255,
                1.7008621533574377
            ]
        },
        {
            "positions": [
                -0.719551629705811,
                -0.42071992128298025,
                -0.6641833482592221,
                0.012517545330148538,
                1.104970788588605,
                1.773607811640204
            ]
        },
        {
            "positions": [
                -0.6751832345103248,
                -0.4589383234175777,
                -0.5246877749778003,
                -0.033380574673125996,
                1.0532337839792847,
                1.8463534699229707
            ]
        },
        {
            "positions": [
                -0.6308148393148385,
                -0.49715672555217505,
                -0.38519220169637847,
                -0.07927869467640053,
                1.0014967793699645,
                1.9190991282057372
            ]
        },
        {
            "positions": [
                -0.5864464441193523,
                -0.5353751276867724,
                -0.24569662841495665,
                -0.12517681467967506,
                0.9497597747606443,
                1.9918447864885036
            ]
        },
        {
            "positions": [
                -0.5420780489238659,
                -0.5735935298213699,
                -0.10620105513353462,
                -0.1710749346829497,
                0.898022770151324,
                2.0645904447712704
            ]
        },
        {
            "positions": [
                -0.4977096537283797,
                -0.6118119319559674,
                0.0332945181478872,
                -0.21697305468622424,
                0.8462857655420037,
                2.1373361030540368
            ]
        },
        {
            "positions": [
                -0.45334125853289353,
                -0.6500303340905647,
                0.17279009142930923,
                -0.2628711746894988,
                0.7945487609326835,
                2.210081761336803
            ]
        },
        {
            "positions": [
                -0.40897286333740723,
                -0.6882487362251621,
                0.3122856647107308,
                -0.3087692946927733,
                0.7428117563233633,
                2.2828274196195695
            ]
        },
        {
            "positions": [
                -0.36460446814192105,
                -0.7264671383597596,
                0.45178123799215286,
                -0.35466741469604784,
                0.691074751714043,
                2.3555730779023363
            ]
        },
        {
            "positions": [
                -0.32023607294643464,
                -0.7646855404943571,
                0.5912768112735749,
                -0.4005655346993225,
                0.6393377471047226,
                2.428318736185103
            ]
        },
        {
            "positions": [
                -0.27586767775094834,
                -0.8029039426289544,
                0.7307723845549965,
                -0.446463654702597,
                0.5876007424954023,
                2.5010643944678694
            ]
        },
        {
            "positions": [
                -0.23149928255546215,
                -0.8411223447635519,
                0.8702679578364185,
                -0.49236177470587156,
                0.535863737886082,
                2.573810052750636
            ]
        },
        {
            "positions": [
                -0.18713088735997596,
                -0.8793407468981493,
                1.0097635311178406,
                -0.5382598947091461,
                0.4841267332767618,
                2.646555711033402
            ]
        },
        {
            "positions": [
                -0.14276249216448966,
                -0.9175591490327466,
                1.1492591043992622,
                -0.5841580147124206,
                0.43238972866744163,
                2.719301369316169
            ]
        },
        {
            "positions": [
                -0.09839409696900336,
                -0.9557775511673441,
                1.2887546776806842,
                -0.6300561347156952,
                0.38065272405812123,
                2.7920470275989353
            ]
        },
        {
            "positions": [
                -0.05402570177351729,
                -0.9939959533019416,
                1.4282502509621058,
                -0.6759542547189696,
                0.32891571944880105,
                2.864792685881702
            ]
        },
        {
            "positions": [
                -0.009657306578030767,
                -1.032214355436539,
                1.5677458242435278,
                -0.7218523747222443,
                0.27717871483948064,
                2.9375383441644685
            ]
        },
        {
            "positions": [
                0.03471108861745553,
                -1.0704327575711363,
                1.7072413975249499,
                -0.7677504947255189,
                0.22544171023016046,
                3.010284002447235
            ]
        },
        {
            "positions": [
                0.07907948381294161,
                -1.1086511597057338,
                1.8467369708063714,
                -0.8136486147287934,
                0.17370470562084006,
                3.083029660730001
            ]
        },
        {
            "positions": [
                0.12344787900842785,
                -1.1468695618403313,
                1.9862325440877937,
                -0.8595467347320681,
                0.12196770101151985,
                3.155775319012768
            ]
        }
    ]
}