{
    "goal": {
        "global_pose": {
            "orientation": {
                "w": -0.00223480608172531,
                "x": 0.0024358444001904467,
                "y": 0.7094548369677653,
                "z": -0.704743149386269
            },
            "position": {
                "x": 0.6205249238014221,
                "y": -0.6371506643295288,
                "z": 0.19426114857196808
            }
        },
        "name": "move_to_magneteinheit_B"
    },
    "id": "RRTConnect_move_to_magneteinheit_B_47",
    "joint_names": [
        "shoulder_pan_joint",
        "shoulder_lift_joint",
        "elbow_joint",
        "wrist_1_joint",
        "wrist_2_joint",
        "wrist_3_joint"
    ],
    "metrics": {
        "cart_traj_len": 3.478707197898987,
        "distance_elbow_joint": 4.042706468831216,
        "distance_shoulder_lift_joint": 2.861302892678367,
        "distance_shoulder_pan_joint": 2.939424476566495,
        "distance_wrist_1_joint": 3.7650787010481435,
        "distance_wrist_2_joint": 2.8825950220919205,
        "distance_wrist_3_joint": 6.2803414141891345,
        "smoothness": 0.29320637698956525,
        "time": 0.605085852,
        "traj_len": 4.7719439409327995,
        "weighted_distance": 6.47918247365542
    },
    "planner": "RRTConnect",
    "start": {
        "state": {
            "elbow_joint": 2.39358713078474,
            "shoulder_lift_joint": -1.908514104345545,
            "shoulder_pan_joint": 0.7066247066606129,
            "wrist_1_joint": -0.4678290933515497,
            "wrist_2_joint": 0.7096259083745334,
            "wrist_3_joint": -3.1358149277392293
        }
    },
    "waypoints": [
        {
            "positions": [
                0.7066247066606129,
                -1.908514104345545,
                2.39358713078474,
                -0.4678290933515497,
                0.7096259083745334,
                -3.1358149277392293
            ]
        },
        {
            "positions": [
                0.7197612907431945,
                -1.9610020857620776,
                2.389612341492628,
                -0.3995853699001881,
                0.7248476224805607,
                -2.9187361311409576
            ]
        },
        {
            "positions": [
                0.7328978748257761,
                -2.0134900671786102,
                2.3856375522005155,
                -0.3313416464488266,
                0.7400693365865878,
                -2.7016573345426864
            ]
        },
        {
            "positions": [
                0.7460344589083576,
                -2.065978048595143,
                2.3816627629084035,
                -0.26309792299746504,
                0.755291050692615,
                -2.4845785379444147
            ]
        },
        {
            "positions": [
                0.7591710429909392,
                -2.1184660300116755,
                2.377687973616291,
                -0.19485419954610345,
                0.7705127647986422,
                -2.2674997413461435
            ]
        },
        {
            "positions": [
                0.7723076270735207,
                -2.170954011428208,
                2.373713184324179,
                -0.1266104760947419,
                0.7857344789046694,
                -2.050420944747872
            ]
        },
        {
            "positions": [
                0.7854442111561023,
                -2.223441992844741,
                2.3697383950320665,
                -0.05836675264338037,
                0.8009561930106965,
                -1.8333421481496004
            ]
        },
        {
            "positions": [
                0.7985807952386839,
                -2.275929974261273,
                2.3657636057399545,
                0.009876970807981167,
                0.8161779071167238,
                -1.6162633515513292
            ]
        },
        {
            "positions": [
                0.8117173793212654,
                -2.3284179556778057,
                2.361788816447842,
                0.07812069425934282,
                0.8313996212227509,
                -1.3991845549530575
            ]
        },
        {
            "positions": [
                0.824853963403847,
                -2.3809059370943384,
                2.35781402715573,
                0.14636441771070424,
                0.8466213353287781,
                -1.1821057583547863
            ]
        },
        {
            "positions": [
                0.8379905474864285,
                -2.433393918510871,
                2.3538392378636175,
                0.2146081411620659,
                0.8618430494348053,
                -0.9650269617565144
            ]
        },
        {
            "positions": [
                0.8511271315690101,
                -2.4858818999274037,
                2.3498644485715054,
                0.28285186461342743,
                0.8770647635408325,
                -0.7479481651582431
            ]
        },
        {
            "positions": [
                0.8642637156515917,
                -2.5383698813439364,
                2.345889659279393,
                0.35109558806478897,
                0.8922864776468598,
                -0.5308693685599715
            ]
        },
        {
            "positions": [
                0.8774002997341732,
                -2.590857862760469,
                2.341914869987281,
                0.41933931151615056,
                0.9075081917528869,
                -0.31379057196170024
            ]
        },
        {
            "positions": [
                0.9586995472116553,
                -2.5447255845006365,
                2.216945569776062,
                0.3601897429999725,
                0.9308473922577905,
                -0.2575398902500722
            ]
        },
        {
            "positions": [
                1.0399987946891374,
                -2.498593306240804,
                2.0919762695648427,
                0.3010401744837944,
                0.9541865927626941,
                -0.20128920853844412
            ]
        },
        {
            "positions": [
                1.1212980421666194,
                -2.4524610279809713,
                1.9670069693536236,
                0.24189060596761627,
                0.9775257932675977,
                -0.14503852682681603
            ]
        },
        {
            "positions": [
                1.2025972896441013,
                -2.4063287497211387,
                1.8420376691424043,
                0.1827410374514382,
                1.0008649937725014,
                -0.08878784511518797
            ]
        },
        {
            "positions": [
                1.2838965371215834,
                -2.360196471461306,
                1.7170683689311852,
                0.12359146893526007,
                1.024204194277405,
                -0.03253716340355989
            ]
        },
        {
            "positions": [
                1.3651957845990654,
                -2.3140641932014736,
                1.592099068719966,
                0.06444190041908199,
                1.0475433947823085,
                0.02371351830806817
            ]
        },
        {
            "positions": [
                1.4464950320765475,
                -2.267931914941641,
                1.4671297685087468,
                0.005292331902903902,
                1.070882595287212,
                0.07996420001969623
            ]
        },
        {
            "positions": [
                1.5277942795540294,
                -2.2217996366818085,
                1.3421604682975277,
                -0.053857236613274184,
                1.0942217957921156,
                0.1362148817313243
            ]
        },
        {
            "positions": [
                1.6090935270315117,
                -2.175667358421976,
                1.2171911680863086,
                -0.11300680512945227,
                1.1175609962970192,
                0.1924655634429524
            ]
        },
        {
            "positions": [
                1.6903927745089935,
                -2.1295350801621433,
                1.0922218678750895,
                -0.1721563736456304,
                1.140900196801923,
                0.24871624515458046
            ]
        },
        {
            "positions": [
                1.7716920219864756,
                -2.0834028019023108,
                0.9672525676638704,
                -0.23130594216180844,
                1.1642393973068264,
                0.3049669268662085
            ]
        },
        {
            "positions": [
                1.8529912694639576,
                -2.037270523642478,
                0.8422832674526513,
                -0.2904555106779866,
                1.1875785978117301,
                0.3612176085778366
            ]
        },
        {
            "positions": [
                1.9342905169414397,
                -1.9911382453826456,
                0.7173139672414319,
                -0.3496050791941647,
                1.2109177983166337,
                0.41746829028946464
            ]
        },
        {
            "positions": [
                2.015589764418922,
                -1.945005967122813,
                0.5923446670302128,
                -0.40875464771034276,
                1.2342569988215373,
                0.4737189720010927
            ]
        },
        {
            "positions": [
                2.096889011896404,
                -1.8988736888629805,
                0.4673753668189937,
                -0.4679042162265208,
                1.2575961993264408,
                0.5299696537127208
            ]
        },
        {
            "positions": [
                2.1781882593738855,
                -1.8527414106031481,
                0.3424060666077746,
                -0.5270537847426989,
                1.2809353998313444,
                0.5862203354243488
            ]
        },
        {
            "positions": [
                2.259487506851368,
                -1.8066091323433155,
                0.21743676639655574,
                -0.5862033532588771,
                1.304274600336248,
                0.6424710171359769
            ]
        },
        {
            "positions": [
                2.34078675432885,
                -1.7604768540834828,
                0.09246746618533619,
                -0.6453529217750551,
                1.3276138008411518,
                0.698721698847605
            ]
        },
        {
            "positions": [
                2.422086001806332,
                -1.7143445758236502,
                -0.032501834025882914,
                -0.7045024902912334,
                1.3509530013460553,
                0.754972380559233
            ]
        },
        {
            "positions": [
                2.503385249283814,
                -1.6682122975638176,
                -0.15747113423710202,
                -0.7636520588074114,
                1.374292201850959,
                0.8112230622708612
            ]
        },
        {
            "positions": [
                2.5846844967612963,
                -1.6220800193039853,
                -0.2824404344483211,
                -0.8228016273235894,
                1.3976314023558625,
                0.8674737439824891
            ]
        },
        {
            "positions": [
                2.665983744238778,
                -1.5759477410441527,
                -0.4074097346595402,
                -0.8819511958397674,
                1.420970602860766,
                0.9237244256941173
            ]
        },
        {
            "positions": [
                2.74728299171626,
                -1.5298154627843201,
                -0.5323790348707593,
                -0.9411007643559455,
                1.4443098033656696,
                0.9799751074057452
            ]
        },
        {
            "positions": [
                2.828582239193742,
                -1.4836831845244876,
                -0.6573483350819784,
                -1.0002503328721237,
                1.4676490038705734,
                1.0362257891173734
            ]
        },
        {
            "positions": [
                2.909881486671224,
                -1.437550906264655,
                -0.782317635293198,
                -1.0593999013883018,
                1.4909882043754767,
                1.0924764708290016
            ]
        },
        {
            "positions": [
                2.9911807341487062,
                -1.3914186280048224,
                -0.9072869355044171,
                -1.11854946990448,
                1.5143274048803805,
                1.1487271525406295
            ]
        },
        {
            "positions": [
                3.0724799816261883,
                -1.3452863497449898,
                -1.0322562357156362,
                -1.177699038420658,
                1.537666605385284,
                1.2049778342522577
            ]
        },
        {
            "positions": [
                3.1537792291036704,
                -1.2991540714851573,
                -1.1572255359268553,
                -1.236848606936836,
                1.5610058058901877,
                1.2612285159638856
            ]
        },
        {
            "positions": [
                3.1264308983190348,
                -1.3484460349844978,
                -1.1845529693779453,
                -1.3047220723661392,
                1.4481605211915063,
                1.3658561809908867
            ]
        },
        {
            "positions": [
                3.0990825675343996,
                -1.3977379984838385,
                -1.2118804028290355,
                -1.3725955377954424,
                1.335315236492825,
                1.4704838460178875
            ]
        },
        {
            "positions": [
                3.071734236749764,
                -1.447029961983179,
                -1.2392078362801255,
                -1.4404690032247456,
                1.2224699517941435,
                1.5751115110448886
            ]
        },
        {
            "positions": [
                3.044385905965129,
                -1.4963219254825195,
                -1.2665352697312158,
                -1.5083424686540488,
                1.1096246670954621,
                1.6797391760718894
            ]
        },
        {
            "positions": [
                3.017037575180493,
                -1.5456138889818603,
                -1.2938627031823058,
                -1.576215934083352,
                0.9967793823967808,
                1.7843668410988904
            ]
        },
        {
            "positions": [
                2.989689244395858,
                -1.5949058524812008,
                -1.3211901366333958,
                -1.644089399512655,
                0.8839340976980994,
                1.8889945061258913
            ]
        },
        {
            "positions": [
                2.9623409136112224,
                -1.6441978159805415,
                -1.348517570084486,
                -1.7119628649419585,
                0.771088812999418,
                1.9936221711528925
            ]
        },
        {
            "positions": [
                2.9349925828265873,
                -1.693489779479882,
                -1.375845003535576,
                -1.7798363303712617,
                0.6582435283007366,
                2.0982498361798934
            ]
        },
        {
            "positions": [
                2.9076442520419516,
                -1.7427817429792225,
                -1.403172436986666,
                -1.8477097958005648,
                0.5453982436020552,
                2.202877501206894
            ]
        },
        {
            "positions": [
                2.880295921257316,
                -1.7920737064785632,
                -1.4304998704377563,
                -1.915583261229868,
                0.43255295890337386,
                2.307505166233895
            ]
        },
        {
            "positions": [
                2.852947590472681,
                -1.841365669977904,
                -1.4578273038888465,
                -1.9834567266591714,
                0.3197076742046925,
                2.4121328312608963
            ]
        },
        {
            "positions": [
                2.8255992596880453,
                -1.8906576334772445,
                -1.4851547373399363,
                -2.051330192088474,
                0.2068623895060111,
                2.516760496287897
            ]
        },
        {
            "positions": [
                2.79825092890341,
                -1.939949596976585,
                -1.5124821707910265,
                -2.1192036575177777,
                0.09401710480732972,
                2.621388161314898
            ]
        },
        {
            "positions": [
                2.7709025981187745,
                -1.9892415604759255,
                -1.5398096042421168,
                -2.187077122947081,
                -0.01882817989135166,
                2.726015826341899
            ]
        },
        {
            "positions": [
                2.7435542673341393,
                -2.038533523975266,
                -1.5671370376932068,
                -2.254950588376384,
                -0.13167346459003304,
                2.8306434913689
            ]
        },
        {
            "positions": [
                2.7162059365495037,
                -2.087825487474607,
                -1.5944644711442968,
                -2.3228240538056872,
                -0.24451874928871442,
                2.935271156395901
            ]
        },
        {
            "positions": [
                2.6888576057648685,
                -2.1371174509739475,
                -1.621791904595387,
                -2.3906975192349904,
                -0.3573640339873958,
                3.039898821422902
            ]
        },
        {
            "positions": [
                2.661509274980233,
                -2.186409414473288,
                -1.649119338046477,
                -2.4585709846642936,
                -0.47020931868607724,
                3.144526486449903
            ]
        }
    ]
}