{
    "goal": {
        "global_pose": {
            "orientation": {
                "w": 0.7047431468963623,
                "x": -0.7094548344612122,
                "y": 0.0024358443915843964,
                "z": -0.0022348060738295317
            },
            "position": {
                "x": 0.6094750761985779,
                "y": 0.3671506643295288,
                "z": 0.19426114857196808
            }
        },
        "name": "move_to_magneteinheit_A"
    },
    "id": "RRTConnect_move_to_magneteinheit_A_116",
    "joint_names": [
        "shoulder_pan_joint",
        "shoulder_lift_joint",
        "elbow_joint",
        "wrist_1_joint",
        "wrist_2_joint",
        "wrist_3_joint"
    ],
    "metrics": {
        "cart_traj_len": 2.0711245905053133,
        "distance_elbow_joint": 3.902762349249042,
        "distance_shoulder_lift_joint": 1.0686287271306958,
        "distance_shoulder_pan_joint": 1.2423291844582744,
        "distance_wrist_1_joint": 1.2488668701465317,
        "distance_wrist_2_joint": 1.4341995042418465,
        "distance_wrist_3_joint": 2.0016336863771356,
        "smoothness": 5.206563148000324e-16,
        "time": 0.092780685,
        "traj_len": 3.30127555978042,
        "weighted_distance": 4.193417945870192
    },
    "planner": "RRTConnect",
    "start": {
        "state": {
            "elbow_joint": -1.919643507792019,
            "shoulder_lift_joint": -0.07675430207160344,
            "shoulder_pan_joint": -1.1188671864651873,
            "wrist_1_joint": 0.42560062535961957,
            "wrist_2_joint": 1.5706038300724876,
            "wrist_3_joint": 1.1188968870953055
        }
    },
    "waypoints": [
        {
            "positions": [
                -1.1188671864651873,
                -0.07675430207160344,
                -1.919643507792019,
                0.42560062535961957,
                1.5706038300724876,
                1.1188968870953055
            ]
        },
        {
            "positions": [
                -1.074498287020249,
                -0.11491961375484258,
                -1.7802591381759818,
                0.3809982371401006,
                1.5193824192067074,
                1.1903838044659176
            ]
        },
        {
            "positions": [
                -1.0301293875753106,
                -0.15308492543808172,
                -1.6408747685599447,
                0.3363958489205816,
                1.468161008340927,
                1.2618707218365295
            ]
        },
        {
            "positions": [
                -0.9857604881303722,
                -0.19125023712132083,
                -1.5014903989439075,
                0.2917934607010626,
                1.4169395974751469,
                1.3333576392071416
            ]
        },
        {
            "positions": [
                -0.9413915886854338,
                -0.22941554880455997,
                -1.3621060293278702,
                0.24719107248154365,
                1.3657181866093666,
                1.4048445565777534
            ]
        },
        {
            "positions": [
                -0.8970226892404954,
                -0.2675808604877991,
                -1.222721659711833,
                0.20258868426202464,
                1.3144967757435864,
                1.4763314739483655
            ]
        },
        {
            "positions": [
                -0.8526537897955571,
                -0.3057461721710383,
                -1.0833372900957958,
                0.1579862960425057,
                1.2632753648778063,
                1.5478183913189774
            ]
        },
        {
            "positions": [
                -0.8082848903506188,
                -0.3439114838542774,
                -0.9439529204797585,
                0.11338390782298668,
                1.2120539540120259,
                1.6193053086895894
            ]
        },
        {
            "positions": [
                -0.7639159909056803,
                -0.3820767955375165,
                -0.8045685508637215,
                0.06878151960346773,
                1.1608325431462458,
                1.6907922260602013
            ]
        },
        {
            "positions": [
                -0.719547091460742,
                -0.42024210722075567,
                -0.665184181247684,
                0.02417913138394867,
                1.1096111322804654,
                1.7622791434308134
            ]
        },
        {
            "positions": [
                -0.6751781920158035,
                -0.4584074189039948,
                -0.5257998116316469,
                -0.02042325683557028,
                1.0583897214146853,
                1.8337660608014255
            ]
        },
        {
            "positions": [
                -0.6308092925708653,
                -0.49657273058723395,
                -0.3864154420156096,
                -0.06502564505508923,
                1.007168310548905,
                1.9052529781720373
            ]
        },
        {
            "positions": [
                -0.5864403931259269,
                -0.5347380422704731,
                -0.24703107239957256,
                -0.10962803327460818,
                0.9559468996831249,
                1.9767398955426492
            ]
        },
        {
            "positions": [
                -0.5420714936809885,
                -0.5729033539537123,
                -0.10764670278353505,
                -0.1542304214941272,
                0.9047254888173446,
                2.0482268129132613
            ]
        },
        {
            "positions": [
                -0.4977025942360501,
                -0.6110686656369513,
                0.03173766683250201,
                -0.1988328097136462,
                0.8535040779515644,
                2.1197137302838733
            ]
        },
        {
            "positions": [
                -0.45333369479111174,
                -0.6492339773201905,
                0.17112203644853907,
                -0.2434351979331652,
                0.8022826670857841,
                2.191200647654485
            ]
        },
        {
            "positions": [
                -0.40896479534617336,
                -0.6873992890034295,
                0.31050640606457613,
                -0.2880375861526841,
                0.751061256220004,
                2.2626875650250975
            ]
        },
        {
            "positions": [
                -0.3645958959012351,
                -0.7255646006866687,
                0.44989077568061364,
                -0.3326399743722031,
                0.6998398453542237,
                2.334174482395709
            ]
        },
        {
            "positions": [
                -0.3202269964562966,
                -0.763729912369908,
                0.5892751452966511,
                -0.3772423625917222,
                0.6486184344884434,
                2.4056613997663217
            ]
        },
        {
            "positions": [
                -0.2758580970113582,
                -0.801895224053147,
                0.7286595149126882,
                -0.4218447508112411,
                0.5973970236226631,
                2.4771483171369333
            ]
        },
        {
            "positions": [
                -0.23148919756641984,
                -0.8400605357363862,
                0.8680438845287253,
                -0.4664471390307601,
                0.5461756127568829,
                2.5486352345075454
            ]
        },
        {
            "positions": [
                -0.18712029812148145,
                -0.8782258474196254,
                1.0074282541447628,
                -0.5110495272502791,
                0.4949542018911026,
                2.6201221518781574
            ]
        },
        {
            "positions": [
                -0.14275139867654318,
                -0.9163911591028644,
                1.1468126237607998,
                -0.5556519154697981,
                0.4437327910253226,
                2.691609069248769
            ]
        },
        {
            "positions": [
                -0.09838249923160469,
                -0.9545564707861036,
                1.286196993376837,
                -0.6002543036893169,
                0.39251138015954234,
                2.763095986619381
            ]
        },
        {
            "positions": [
                -0.05401359978666642,
                -0.9927217824693426,
                1.425581362992874,
                -0.6448566919088359,
                0.3412899692937621,
                2.8345829039899932
            ]
        },
        {
            "positions": [
                -0.00964470034172793,
                -1.0308870941525818,
                1.5649657326089115,
                -0.6894590801283551,
                0.2900685584279816,
                2.9060698213606053
            ]
        },
        {
            "positions": [
                0.03472419910321034,
                -1.069052405835821,
                1.704350102224949,
                -0.7340614683478739,
                0.2388471475622016,
                2.9775567387312174
            ]
        },
        {
            "positions": [
                0.07909309854814883,
                -1.10721771751906,
                1.843734471840986,
                -0.7786638565673929,
                0.18762573669642135,
                3.049043656101829
            ]
        },
        {
            "positions": [
                0.12346199799308716,
                -1.1453830292022993,
                1.9831188414570229,
                -0.823266244786912,
                0.13640432583064105,
                3.120530573472441
            ]
        }
    ]
}