{
    "goal": {
        "global_pose": {
            "orientation": {
                "w": 0.5084816217422485,
                "x": -0.49083608388900757,
                "y": 0.5182115435600281,
                "z": -0.4816462993621826
            },
            "position": {
                "x": 0.5540239810943604,
                "y": 0.030875300988554955,
                "z": 0.16403168439865112
            }
        },
        "name": "move_to_storage_A"
    },
    "id": "RRTConnect_move_to_storage_A_90",
    "joint_names": [
        "shoulder_pan_joint",
        "shoulder_lift_joint",
        "elbow_joint",
        "wrist_1_joint",
        "wrist_2_joint",
        "wrist_3_joint"
    ],
    "metrics": {
        "cart_traj_len": 0.35244713367449904,
        "distance_elbow_joint": 0.4482656146893462,
        "distance_shoulder_lift_joint": 0.23589810467236605,
        "distance_shoulder_pan_joint": 0.4589522775017874,
        "distance_wrist_1_joint": 0.2350703769760013,
        "distance_wrist_2_joint": 1.1063359650225453,
        "distance_wrist_3_joint": 0.10500598791981686,
        "smoothness": 1.3322676295501878e-15,
        "time": 0.061227356999999996,
        "traj_len": 1.6092011455321127,
        "weighted_distance": 2.03493160686546
    },
    "planner": "RRTConnect",
    "start": {
        "state": {
            "elbow_joint": 1.9715463870305268,
            "shoulder_lift_joint": -1.1394903361783484,
            "shoulder_pan_joint": 0.12281147578464417,
            "wrist_1_joint": -0.7804599489681411,
            "wrist_2_joint": 0.12958660307563738,
            "wrist_3_joint": -3.1924946282119055
        }
    },
    "waypoints": [
        {
            "positions": [
                0.12281147578464417,
                -1.1394903361783484,
                1.9715463870305268,
                -0.7804599489681411,
                0.12958660307563738,
                -3.1924946282119055
            ]
        },
        {
            "positions": [
                0.057246864712960255,
                -1.1731900654172578,
                2.0355843319861475,
                -0.8140414313932841,
                0.28763459807885816,
                -3.1774937727947887
            ]
        },
        {
            "positions": [
                -0.008317746358723663,
                -1.2068897946561672,
                2.0996222769417687,
                -0.8476229138184271,
                0.4456825930820789,
                -3.1624929173776724
            ]
        },
        {
            "positions": [
                -0.07388235743040757,
                -1.2405895238950766,
                2.1636602218973895,
                -0.8812043962435702,
                0.6037305880852997,
                -3.1474920619605555
            ]
        },
        {
            "positions": [
                -0.13944696850209148,
                -1.2742892531339862,
                2.2276981668530103,
                -0.9147858786687133,
                0.7617785830885204,
                -3.1324912065434387
            ]
        },
        {
            "positions": [
                -0.20501157957377542,
                -1.3079889823728956,
                2.291736111808631,
                -0.9483673610938563,
                0.9198265780917412,
                -3.117490351126322
            ]
        },
        {
            "positions": [
                -0.2705761906454593,
                -1.341688711611805,
                2.3557740567642522,
                -0.9819488435189994,
                1.077874573094962,
                -3.1024894957092055
            ]
        },
        {
            "positions": [
                -0.3361408017171432,
                -1.3753884408507144,
                2.419812001719873,
                -1.0155303259441424,
                1.2359225680981827,
                -3.0874886402920887
            ]
        }
    ]
}