{
    "goal": {
        "global_pose": {
            "orientation": {
                "w": -0.00223480608172531,
                "x": 0.0024358444001904467,
                "y": 0.7094548369677653,
                "z": -0.704743149386269
            },
            "position": {
                "x": 0.6205249238014221,
                "y": -0.6371506643295288,
                "z": 0.19426114857196808
            }
        },
        "name": "move_to_magneteinheit_B"
    },
    "id": "RRTConnect_move_to_magneteinheit_B_73",
    "joint_names": [
        "shoulder_pan_joint",
        "shoulder_lift_joint",
        "elbow_joint",
        "wrist_1_joint",
        "wrist_2_joint",
        "wrist_3_joint"
    ],
    "metrics": {
        "cart_traj_len": 1.4529339398702594,
        "distance_elbow_joint": 0.7302636843797616,
        "distance_shoulder_lift_joint": 1.2482944847217265,
        "distance_shoulder_pan_joint": 1.6210191250882264,
        "distance_wrist_1_joint": 2.606527194752467,
        "distance_wrist_2_joint": 2.9394607601976417,
        "distance_wrist_3_joint": 3.1443940477765233,
        "smoothness": 1.3457248813978723e-16,
        "time": 0.092497697,
        "traj_len": 3.5057038233308226,
        "weighted_distance": 4.91169373509989
    },
    "planner": "RRTConnect",
    "start": {
        "state": {
            "elbow_joint": 2.39358713078474,
            "shoulder_lift_joint": -1.908514104345545,
            "shoulder_pan_joint": 0.7066247066606129,
            "wrist_1_joint": -0.4678290933515497,
            "wrist_2_joint": 0.7096259083745334,
            "wrist_3_joint": -3.1358149277392293
        }
    },
    "waypoints": [
        {
            "positions": [
                0.7066247066606129,
                -1.908514104345545,
                2.39358713078474,
                -0.4678290933515497,
                0.7096259083745334,
                -3.1358149277392293
            ]
        },
        {
            "positions": [
                0.6559678590016058,
                -1.869504901697991,
                2.3707663906478724,
                -0.38637511851553513,
                0.6177677596183572,
                -3.0375526137462128
            ]
        },
        {
            "positions": [
                0.6053110113425988,
                -1.830495699050437,
                2.347945650511005,
                -0.3049211436795205,
                0.5259096108621808,
                -2.9392902997531967
            ]
        },
        {
            "positions": [
                0.5546541636835918,
                -1.7914864964028832,
                2.3251249103741376,
                -0.22346716884350593,
                0.43405146210600454,
                -2.84102798576018
            ]
        },
        {
            "positions": [
                0.5039973160245846,
                -1.752477293755329,
                2.30230417023727,
                -0.14201319400749135,
                0.3421933133498282,
                -2.742765671767164
            ]
        },
        {
            "positions": [
                0.45334046836557756,
                -1.713468091107775,
                2.2794834301004023,
                -0.060559219171476775,
                0.2503351645936519,
                -2.6445033577741475
            ]
        },
        {
            "positions": [
                0.4026836207065705,
                -1.6744588884602212,
                2.2566626899635347,
                0.020894755664537856,
                0.15847701583747564,
                -2.546241043781131
            ]
        },
        {
            "positions": [
                0.3520267730475634,
                -1.6354496858126673,
                2.233841949826667,
                0.10234873050055243,
                0.06661886708129927,
                -2.447978729788115
            ]
        },
        {
            "positions": [
                0.30136992538855634,
                -1.5964404831651133,
                2.2110212096897994,
                0.183802705336567,
                -0.02523928167487699,
                -2.3497164157950987
            ]
        },
        {
            "positions": [
                0.25071307772954926,
                -1.5574312805175592,
                2.1882004695529322,
                0.2652566801725816,
                -0.11709743043105325,
                -2.251454101802082
            ]
        },
        {
            "positions": [
                0.20005623007054218,
                -1.5184220778700053,
                2.1653797294160646,
                0.34671065500859616,
                -0.20895557918722962,
                -2.1531917878090656
            ]
        },
        {
            "positions": [
                0.14939938241153505,
                -1.4794128752224514,
                2.142558989279197,
                0.42816462984461073,
                -0.3008137279434059,
                -2.0549294738160495
            ]
        },
        {
            "positions": [
                0.09874253475252803,
                -1.4404036725748974,
                2.1197382491423293,
                0.5096186046806255,
                -0.39267187669958215,
                -1.956667159823033
            ]
        },
        {
            "positions": [
                0.04808568709352101,
                -1.4013944699273435,
                2.096917509005462,
                0.59107257951664,
                -0.4845300254557584,
                -1.8584048458300166
            ]
        },
        {
            "positions": [
                -0.002571160565486119,
                -1.3623852672797896,
                2.0740967688685945,
                0.6725265543526546,
                -0.5763881742119349,
                -1.7601425318370003
            ]
        },
        {
            "positions": [
                -0.05322800822449325,
                -1.3233760646322357,
                2.051276028731727,
                0.7539805291886692,
                -0.6682463229681112,
                -1.661880217843984
            ]
        },
        {
            "positions": [
                -0.10388485588350027,
                -1.2843668619846818,
                2.0284552885948592,
                0.8354345040246838,
                -0.7601044717242874,
                -1.5636179038509677
            ]
        },
        {
            "positions": [
                -0.1545417035425073,
                -1.2453576593371278,
                2.0056345484579916,
                0.9168884788606984,
                -0.8519626204804637,
                -1.4653555898579513
            ]
        },
        {
            "positions": [
                -0.20519855120151442,
                -1.2063484566895737,
                1.9828138083211242,
                0.9983424536967129,
                -0.9438207692366399,
                -1.367093275864935
            ]
        },
        {
            "positions": [
                -0.25585539886052155,
                -1.1673392540420198,
                1.9599930681842566,
                1.0797964285327275,
                -1.0356789179928163,
                -1.2688309618719187
            ]
        },
        {
            "positions": [
                -0.3065122465195286,
                -1.1283300513944658,
                1.9371723280473891,
                1.161250403368742,
                -1.1275370667489928,
                -1.1705686478789024
            ]
        },
        {
            "positions": [
                -0.3571690941785356,
                -1.0893208487469117,
                1.9143515879105215,
                1.2427043782047567,
                -1.2193952155051688,
                -1.0723063338858858
            ]
        },
        {
            "positions": [
                -0.40782594183754284,
                -1.0503116460993578,
                1.8915308477736539,
                1.3241583530407712,
                -1.3112533642613453,
                -0.9740440198928697
            ]
        },
        {
            "positions": [
                -0.45848278949654986,
                -1.0113024434518039,
                1.8687101076367862,
                1.4056123278767858,
                -1.4031115130175218,
                -0.8757817058998532
            ]
        },
        {
            "positions": [
                -0.5091396371555569,
                -0.97229324080425,
                1.8458893674999188,
                1.4870663027128006,
                -1.4949696617736978,
                -0.7775193919068366
            ]
        },
        {
            "positions": [
                -0.5597964848145639,
                -0.933284038156696,
                1.8230686273630514,
                1.568520277548815,
                -1.5868278105298743,
                -0.6792570779138205
            ]
        },
        {
            "positions": [
                -0.6104533324735709,
                -0.8942748355091421,
                1.8002478872261838,
                1.6499742523848298,
                -1.6786859592860504,
                -0.580994763920804
            ]
        },
        {
            "positions": [
                -0.6611101801325782,
                -0.8552656328615882,
                1.7774271470893162,
                1.731428227220844,
                -1.7705441080422268,
                -0.48273244992778785
            ]
        },
        {
            "positions": [
                -0.7117670277915852,
                -0.8162564302140343,
                1.7546064069524485,
                1.812882202056859,
                -1.8624022567984033,
                -0.3844701359347713
            ]
        },
        {
            "positions": [
                -0.7624238754505922,
                -0.7772472275664801,
                1.731785666815581,
                1.8943361768928733,
                -1.9542604055545794,
                -0.2862078219417552
            ]
        },
        {
            "positions": [
                -0.8130807231095994,
                -0.7382380249189262,
                1.7089649266787135,
                1.975790151728888,
                -2.046118554310756,
                -0.18794550794873865
            ]
        },
        {
            "positions": [
                -0.8637375707686065,
                -0.6992288222713723,
                1.686144186541846,
                2.0572441265649024,
                -2.137976703066932,
                -0.08968319395572255
            ]
        },
        {
            "positions": [
                -0.9143944184276135,
                -0.6602196196238184,
                1.6633234464049784,
                2.138698101400917,
                -2.2298348518231084,
                0.008579120037294115
            ]
        }
    ]
}