{
    "goal": {
        "global_pose": {
            "orientation": {
                "w": 0.7031023502349854,
                "x": -0.7110244035720825,
                "y": 0.007748599164187908,
                "z": 0.005598929710686207
            },
            "position": {
                "x": 0.11585023208521307,
                "y": 0.44412534475326537,
                "z": 0.3711530566215515
            }
        },
        "name": "move_to_auspresseinheit_A"
    },
    "id": "RRTConnect_move_to_auspresseinheit_A_137",
    "joint_names": [
        "shoulder_pan_joint",
        "shoulder_lift_joint",
        "elbow_joint",
        "wrist_1_joint",
        "wrist_2_joint",
        "wrist_3_joint"
    ],
    "metrics": {
        "cart_traj_len": 0.7575573636599214,
        "distance_elbow_joint": 0.5789069317288877,
        "distance_shoulder_lift_joint": 0.5340739147997575,
        "distance_shoulder_pan_joint": 1.044817633121707,
        "distance_wrist_1_joint": 2.298660612180032,
        "distance_wrist_2_joint": 0.9570854212012417,
        "distance_wrist_3_joint": 3.073700911161137,
        "smoothness": 1.0204886897082013,
        "time": 0.095385842,
        "traj_len": 2.9132877345351185,
        "weighted_distance": 4.229703687008856
    },
    "planner": "RRTConnect",
    "start": {
        "state": {
            "elbow_joint": 2.422574709923281,
            "shoulder_lift_joint": -1.3736533754116391,
            "shoulder_pan_joint": -0.33786336945926293,
            "wrist_1_joint": -1.0288603412921917,
            "wrist_2_joint": 1.2330224858903978,
            "wrist_3_joint": -3.094022268022082
        }
    },
    "waypoints": [
        {
            "positions": [
                -0.33786336945926293,
                -1.3736533754116391,
                2.422574709923281,
                -1.0288603412921917,
                1.2330224858903978,
                -3.094022268022082
            ]
        },
        {
            "positions": [
                -0.30345906925615207,
                -1.4029009879914056,
                2.3991220941593734,
                -0.918400235831596,
                1.1760098385033002,
                -2.9773900065009915
            ]
        },
        {
            "positions": [
                -0.26905476905304115,
                -1.432148600571172,
                2.375669478395466,
                -0.8079401303710003,
                1.1189971911162027,
                -2.8607577449799004
            ]
        },
        {
            "positions": [
                -0.23465046884993032,
                -1.4613962131509386,
                2.3522168626315585,
                -0.6974800249104046,
                1.0619845437291051,
                -2.74412548345881
            ]
        },
        {
            "positions": [
                -0.20024616864681943,
                -1.490643825730705,
                2.328764246867651,
                -0.5870199194498089,
                1.0049718963420076,
                -2.627493221937719
            ]
        },
        {
            "positions": [
                -0.16584186844370857,
                -1.5198914383104716,
                2.3053116311037436,
                -0.4765598139892132,
                0.94795924895491,
                -2.510860960416628
            ]
        },
        {
            "positions": [
                -0.1314375682405977,
                -1.549139050890238,
                2.281859015339836,
                -0.3660997085286175,
                0.8909466015678125,
                -2.3942286988955375
            ]
        },
        {
            "positions": [
                -0.09703326803748685,
                -1.5783866634700043,
                2.2584063995759283,
                -0.2556396030680219,
                0.8339339541807149,
                -2.277596437374447
            ]
        },
        {
            "positions": [
                -0.06262896783437594,
                -1.607634276049771,
                2.2349537838120206,
                -0.1451794976074261,
                0.7769213067936174,
                -2.1609641758533558
            ]
        },
        {
            "positions": [
                -0.028224667631265132,
                -1.6368818886295373,
                2.2115011680481134,
                -0.03471939214683051,
                0.7199086594065198,
                -2.0443319143322656
            ]
        },
        {
            "positions": [
                0.006179632571845783,
                -1.6661295012093038,
                2.1880485522842057,
                0.0757407133137653,
                0.6628960120194223,
                -1.9276996528111745
            ]
        },
        {
            "positions": [
                0.040583932774956644,
                -1.6953771137890703,
                2.164595936520298,
                0.1862008187743609,
                0.6058833646323247,
                -1.8110673912900837
            ]
        },
        {
            "positions": [
                0.0749882329780675,
                -1.7246247263688368,
                2.141143320756391,
                0.2966609242349567,
                0.5488707172452272,
                -1.6944351297689928
            ]
        },
        {
            "positions": [
                0.10939253318117838,
                -1.7538723389486033,
                2.117690704992483,
                0.4071210296955524,
                0.49185806985812963,
                -1.5778028682479022
            ]
        },
        {
            "positions": [
                0.16914870622930495,
                -1.7692578340748826,
                2.1450929976722923,
                0.32085310557632357,
                0.5134501703750269,
                -1.733551019386598
            ]
        },
        {
            "positions": [
                0.2289048792774315,
                -1.7846433292011619,
                2.172495290352101,
                0.23458518145709473,
                0.5350422708919244,
                -1.8892991705252935
            ]
        },
        {
            "positions": [
                0.28866105232555805,
                -1.8000288243274414,
                2.19989758303191,
                0.14831725733786594,
                0.5566343714088218,
                -2.045047321663989
            ]
        },
        {
            "positions": [
                0.34841722537368464,
                -1.8154143194537207,
                2.227299875711719,
                0.06204933321863704,
                0.5782264719257191,
                -2.200795472802685
            ]
        },
        {
            "positions": [
                0.40817339842181116,
                -1.83079981458,
                2.2547021683915283,
                -0.024218590900591752,
                0.5998185724426164,
                -2.3565436239413806
            ]
        },
        {
            "positions": [
                0.4679295714699377,
                -1.8461853097062793,
                2.282104461071337,
                -0.11048651501982054,
                0.6214106729595138,
                -2.5122917750800764
            ]
        },
        {
            "positions": [
                0.5276857445180643,
                -1.8615708048325585,
                2.309506753751146,
                -0.19675443913904933,
                0.6430027734764112,
                -2.668039926218772
            ]
        },
        {
            "positions": [
                0.5874419175661909,
                -1.876956299958838,
                2.336909046430955,
                -0.28302236325827834,
                0.6645948739933085,
                -2.8237880773574675
            ]
        },
        {
            "positions": [
                0.6471980906143174,
                -1.8923417950851174,
                2.364311339110764,
                -0.36929028737750713,
                0.6861869745102058,
                -2.9795362284961637
            ]
        },
        {
            "positions": [
                0.706954263662444,
                -1.9077272902113966,
                2.391713631790573,
                -0.4555582114967359,
                0.7077790750271032,
                -3.135284379634859
            ]
        }
    ]
}