{
    "goal": {
        "global_pose": {
            "orientation": {
                "w": 0.5084816217422485,
                "x": -0.49083608388900757,
                "y": 0.5182115435600281,
                "z": -0.4816462993621826
            },
            "position": {
                "x": 0.5540239810943604,
                "y": 0.030875300988554955,
                "z": 0.16403168439865112
            }
        },
        "name": "move_to_storage_A"
    },
    "id": "RRTConnect_move_to_storage_A_63",
    "joint_names": [
        "shoulder_pan_joint",
        "shoulder_lift_joint",
        "elbow_joint",
        "wrist_1_joint",
        "wrist_2_joint",
        "wrist_3_joint"
    ],
    "metrics": {
        "cart_traj_len": 0.3526964060223863,
        "distance_elbow_joint": 0.4522104806304097,
        "distance_shoulder_lift_joint": 0.2312839529138353,
        "distance_shoulder_pan_joint": 0.46017304810473225,
        "distance_wrist_1_joint": 0.25996294744243154,
        "distance_wrist_2_joint": 1.1009290929873696,
        "distance_wrist_3_joint": 0.10739597560552516,
        "smoothness": 8.881784197001252e-16,
        "time": 0.037013576,
        "traj_len": 1.6161545401613993,
        "weighted_distance": 2.046372275350982
    },
    "planner": "RRTConnect",
    "start": {
        "state": {
            "elbow_joint": 1.9715463870305268,
            "shoulder_lift_joint": -1.1394903361783484,
            "shoulder_pan_joint": 0.12281147578464417,
            "wrist_1_joint": -0.7804599489681411,
            "wrist_2_joint": 0.12958660307563738,
            "wrist_3_joint": -3.1924946282119055
        }
    },
    "waypoints": [
        {
            "positions": [
                0.12281147578464417,
                -1.1394903361783484,
                1.9715463870305268,
                -0.7804599489681411,
                0.12958660307563738,
                -3.1924946282119055
            ]
        },
        {
            "positions": [
                0.05707246891253957,
                -1.1725309008803249,
                2.0361478842634426,
                -0.8175975128884885,
                0.2868621877881188,
                -3.177152345982545
            ]
        },
        {
            "positions": [
                -0.008666537959565027,
                -1.2055714655823013,
                2.100749381496358,
                -0.8547350768088358,
                0.44413777250060016,
                -3.161810063753184
            ]
        },
        {
            "positions": [
                -0.07440554483166963,
                -1.2386120302842778,
                2.165350878729274,
                -0.8918726407291832,
                0.6014133572130815,
                -3.1464677815238233
            ]
        },
        {
            "positions": [
                -0.1401445517037742,
                -1.2716525949862543,
                2.2299523759621893,
                -0.9290102046495305,
                0.7586889419255629,
                -3.1311254992944626
            ]
        },
        {
            "positions": [
                -0.20588355857587887,
                -1.3046931596882307,
                2.294553873195105,
                -0.9661477685698778,
                0.9159645266380443,
                -3.115783217065102
            ]
        },
        {
            "positions": [
                -0.2716225654479834,
                -1.3377337243902072,
                2.3591553704280206,
                -1.0032853324902253,
                1.0732401113505257,
                -3.100440934835741
            ]
        },
        {
            "positions": [
                -0.33736157232008807,
                -1.3707742890921837,
                2.4237568676609365,
                -1.0404228964105726,
                1.230515696063007,
                -3.0850986526063804
            ]
        }
    ]
}