{
    "goal": {
        "global_pose": {
            "orientation": {
                "w": 0.7031023502349854,
                "x": -0.7110244035720825,
                "y": 0.007748599164187908,
                "z": 0.005598929710686207
            },
            "position": {
                "x": 0.11585023208521307,
                "y": 0.44412534475326537,
                "z": 0.3711530566215515
            }
        },
        "name": "move_to_auspresseinheit_A"
    },
    "id": "RRTConnect_move_to_auspresseinheit_A_116",
    "joint_names": [
        "shoulder_pan_joint",
        "shoulder_lift_joint",
        "elbow_joint",
        "wrist_1_joint",
        "wrist_2_joint",
        "wrist_3_joint"
    ],
    "metrics": {
        "cart_traj_len": 2.161268535722153,
        "distance_elbow_joint": 0.2521007027050044,
        "distance_shoulder_lift_joint": 0.5375235509108818,
        "distance_shoulder_pan_joint": 5.3605556927979015,
        "distance_wrist_1_joint": 0.5464122678540313,
        "distance_wrist_2_joint": 3.380199014879529,
        "distance_wrist_3_joint": 1.3592392675404956,
        "smoothness": 0.9693318270417807,
        "time": 0.138231506,
        "traj_len": 3.3817200500171274,
        "weighted_distance": 4.252190060957106
    },
    "planner": "RRTConnect",
    "start": {
        "state": {
            "elbow_joint": 2.422574709923281,
            "shoulder_lift_joint": -1.3736533754116391,
            "shoulder_pan_joint": -0.33786336945926293,
            "wrist_1_joint": -1.0288603412921917,
            "wrist_2_joint": 1.2330224858903978,
            "wrist_3_joint": -3.094022268022082
        }
    },
    "waypoints": [
        {
            "positions": [
                -0.33786336945926293,
                -1.3736533754116391,
                2.422574709923281,
                -1.0288603412921917,
                1.2330224858903978,
                -3.094022268022082
            ]
        },
        {
            "positions": [
                -0.5037777602999702,
                -1.393807709933321,
                2.431291610013444,
                -1.028900042098337,
                1.0832735643520657,
                -3.042583190082513
            ]
        },
        {
            "positions": [
                -0.6696921511406775,
                -1.413962044455003,
                2.4400085101036066,
                -1.0289397429044822,
                0.9335246428137335,
                -2.9911441121429436
            ]
        },
        {
            "positions": [
                -0.8356065419813847,
                -1.4341163789766849,
                2.4487254101937697,
                -1.0289794437106274,
                0.7837757212754014,
                -2.9397050342033744
            ]
        },
        {
            "positions": [
                -1.0015209328220922,
                -1.4542707134983666,
                2.4574423102839322,
                -1.0290191445167725,
                0.6340267997370692,
                -2.888265956263805
            ]
        },
        {
            "positions": [
                -1.1674353236627995,
                -1.4744250480200485,
                2.4661592103740952,
                -1.0290588453229177,
                0.48427787819873713,
                -2.836826878324236
            ]
        },
        {
            "positions": [
                -1.3333497145035067,
                -1.4945793825417304,
                2.4748761104642583,
                -1.029098546129063,
                0.33452895666040505,
                -2.7853878003846666
            ]
        },
        {
            "positions": [
                -1.499264105344214,
                -1.5147337170634123,
                2.483593010554421,
                -1.0291382469352082,
                0.18478003512207297,
                -2.7339487224450973
            ]
        },
        {
            "positions": [
                -1.6651784961849214,
                -1.5348880515850942,
                2.492309910644584,
                -1.0291779477413534,
                0.03503111358374067,
                -2.682509644505528
            ]
        },
        {
            "positions": [
                -1.8310928870256284,
                -1.5550423861067761,
                2.501026810734747,
                -1.0292176485474986,
                -0.11471780795459119,
                -2.631070566565959
            ]
        },
        {
            "positions": [
                -1.997007277866336,
                -1.5751967206284578,
                2.5097437108249094,
                -1.0292573493536437,
                -0.2644667294929235,
                -2.5796314886263896
            ]
        },
        {
            "positions": [
                -2.162921668707043,
                -1.5953510551501398,
                2.5184606109150725,
                -1.029297050159789,
                -0.41421565103125557,
                -2.5281924106868203
            ]
        },
        {
            "positions": [
                -2.32883605954775,
                -1.6155053896718217,
                2.527177511005235,
                -1.0293367509659341,
                -0.5639645725695877,
                -2.476753332747251
            ]
        },
        {
            "positions": [
                -2.4947504503884574,
                -1.6356597241935036,
                2.535894411095398,
                -1.0293764517720794,
                -0.7137134941079197,
                -2.425314254807682
            ]
        },
        {
            "positions": [
                -2.2945211621466632,
                -1.652879549326567,
                2.527220598499593,
                -0.9952579419361954,
                -0.6241220544278441,
                -2.468472458203063
            ]
        },
        {
            "positions": [
                -2.094291873904869,
                -1.6700993744596309,
                2.518546785903787,
                -0.9611394321003114,
                -0.5345306147477684,
                -2.511630661598444
            ]
        },
        {
            "positions": [
                -1.8940625856630748,
                -1.6873191995926944,
                2.5098729733079814,
                -0.9270209222644274,
                -0.44493917506769287,
                -2.554788864993825
            ]
        },
        {
            "positions": [
                -1.6938332974212806,
                -1.704539024725758,
                2.501199160712176,
                -0.8929024124285434,
                -0.3553477353876172,
                -2.597947068389206
            ]
        },
        {
            "positions": [
                -1.4936040091794862,
                -1.7217588498588214,
                2.492525348116371,
                -0.8587839025926595,
                -0.26575629570754156,
                -2.6411052717845864
            ]
        },
        {
            "positions": [
                -1.293374720937692,
                -1.738978674991885,
                2.4838515355205653,
                -0.8246653927567755,
                -0.176164856027466,
                -2.6842634751799674
            ]
        },
        {
            "positions": [
                -1.0931454326958978,
                -1.7561985001249487,
                2.4751777229247596,
                -0.7905468829208915,
                -0.08657341634739035,
                -2.7274216785753485
            ]
        },
        {
            "positions": [
                -0.8929161444541036,
                -1.7734183252580122,
                2.4665039103289543,
                -0.7564283730850075,
                0.0030180233326853045,
                -2.7705798819707295
            ]
        },
        {
            "positions": [
                -0.6926868562123094,
                -1.7906381503910758,
                2.457830097733149,
                -0.7223098632491236,
                0.09260946301276096,
                -2.8137380853661105
            ]
        },
        {
            "positions": [
                -0.492457567970515,
                -1.8078579755241395,
                2.4491562851373434,
                -0.6881913534132396,
                0.18220090269283662,
                -2.8568962887614915
            ]
        },
        {
            "positions": [
                -0.2922282797287208,
                -1.825077800657203,
                2.4404824725415377,
                -0.6540728435773556,
                0.27179234237291217,
                -2.9000544921568725
            ]
        },
        {
            "positions": [
                -0.09199899148692658,
                -1.8422976257902666,
                2.4318086599457325,
                -0.6199543337414717,
                0.3613837820529877,
                -2.943212695552253
            ]
        },
        {
            "positions": [
                0.10823029675486762,
                -1.85951745092333,
                2.4231348473499272,
                -0.5858358239055876,
                0.45097522173306337,
                -2.9863708989476345
            ]
        },
        {
            "positions": [
                0.3084595849966618,
                -1.8767372760563936,
                2.4144610347541215,
                -0.5517173140697037,
                0.540566661413139,
                -3.029529102343015
            ]
        },
        {
            "positions": [
                0.508688873238456,
                -1.8939571011894574,
                2.405787222158316,
                -0.5175988042338197,
                0.6301581010932147,
                -3.072687305738396
            ]
        },
        {
            "positions": [
                0.7089181614802501,
                -1.911176926322521,
                2.3971134095625106,
                -0.48348029439793566,
                0.7197495407732905,
                -3.115845509133777
            ]
        }
    ]
}