{
    "goal": {
        "global_pose": {
            "orientation": {
                "w": 0.7047431468963623,
                "x": -0.7094548344612122,
                "y": 0.0024358443915843964,
                "z": -0.0022348060738295317
            },
            "position": {
                "x": 0.6094750761985779,
                "y": 0.3671506643295288,
                "z": 0.19426114857196808
            }
        },
        "name": "move_to_magneteinheit_A"
    },
    "id": "RRTConnect_move_to_magneteinheit_A_92",
    "joint_names": [
        "shoulder_pan_joint",
        "shoulder_lift_joint",
        "elbow_joint",
        "wrist_1_joint",
        "wrist_2_joint",
        "wrist_3_joint"
    ],
    "metrics": {
        "cart_traj_len": 1.7701422590891864,
        "distance_elbow_joint": 3.8888845670751486,
        "distance_shoulder_lift_joint": 1.5050314881538902,
        "distance_shoulder_pan_joint": 1.2422135099000455,
        "distance_wrist_1_joint": 1.195480426796106,
        "distance_wrist_2_joint": 2.7541745534053046,
        "distance_wrist_3_joint": 4.320067867473175,
        "smoothness": 0.12626393914579026,
        "time": 0.080095112,
        "traj_len": 3.8608098130837365,
        "weighted_distance": 5.243628812945423
    },
    "planner": "RRTConnect",
    "start": {
        "state": {
            "elbow_joint": -1.919643507792019,
            "shoulder_lift_joint": -0.07675430207160344,
            "shoulder_pan_joint": -1.1188671864651873,
            "wrist_1_joint": 0.42560062535961957,
            "wrist_2_joint": 1.5706038300724876,
            "wrist_3_joint": 1.1188968870953055
        }
    },
    "waypoints": [
        {
            "positions": [
                -1.1188671864651873,
                -0.07675430207160344,
                -1.919643507792019,
                0.42560062535961957,
                1.5706038300724876,
                1.1188968870953055
            ]
        },
        {
            "positions": [
                -1.093411138420574,
                -0.13021989062952616,
                -1.7926565604952895,
                0.4159424905761671,
                1.483155658679545,
                1.0343690674686525
            ]
        },
        {
            "positions": [
                -1.0679550903759607,
                -0.18368547918744885,
                -1.6656696131985602,
                0.4062843557927147,
                1.395707487286602,
                0.9498412478419994
            ]
        },
        {
            "positions": [
                -1.0424990423313474,
                -0.23715106774537156,
                -1.5386826659018307,
                0.39662622100926226,
                1.3082593158936593,
                0.8653134282153463
            ]
        },
        {
            "positions": [
                -1.017042994286734,
                -0.29061665630329425,
                -1.4116957186051011,
                0.3869680862258098,
                1.2208111445007166,
                0.7807856085886933
            ]
        },
        {
            "positions": [
                -0.9915869462421206,
                -0.34408224486121697,
                -1.2847087713083716,
                0.37730995144235735,
                1.133362973107774,
                0.69625778896204
            ]
        },
        {
            "positions": [
                -0.9661308981975073,
                -0.3975478334191397,
                -1.1577218240116423,
                0.36765181665890495,
                1.0459148017148312,
                0.611729969335387
            ]
        },
        {
            "positions": [
                -0.940674850152894,
                -0.4510134219770624,
                -1.0307348767149127,
                0.3579936818754525,
                0.9584666303218883,
                0.5272021497087339
            ]
        },
        {
            "positions": [
                -0.9152188021082807,
                -0.504479010534985,
                -0.9037479294181834,
                0.3483355470920001,
                0.8710184589289456,
                0.4426743300820809
            ]
        },
        {
            "positions": [
                -0.8897627540636672,
                -0.5579445990929077,
                -0.7767609821214538,
                0.33867741230854764,
                0.7835702875360029,
                0.3581465104554278
            ]
        },
        {
            "positions": [
                -0.8643067060190539,
                -0.6114101876508304,
                -0.6497740348247243,
                0.3290192775250952,
                0.6961221161430601,
                0.27361869082877466
            ]
        },
        {
            "positions": [
                -0.8388506579744406,
                -0.6648757762087532,
                -0.522787087527995,
                0.31936114274164273,
                0.6086739447501174,
                0.18909087120212165
            ]
        },
        {
            "positions": [
                -0.8133946099298273,
                -0.7183413647666759,
                -0.3958001402312654,
                0.3097030079581903,
                0.5212257733571746,
                0.10456305157546852
            ]
        },
        {
            "positions": [
                -0.7879385618852139,
                -0.7718069533245986,
                -0.2688131929345361,
                0.3000448731747379,
                0.4337776019642319,
                0.020035231948815513
            ]
        },
        {
            "positions": [
                -0.7624825138406006,
                -0.8252725418825213,
                -0.14182624563780633,
                0.2903867383912854,
                0.34632943057128895,
                -0.06449258767783772
            ]
        },
        {
            "positions": [
                -0.7370264657959873,
                -0.878738130440444,
                -0.014839298341077,
                0.280728603607833,
                0.25888125917834626,
                -0.14902040730449073
            ]
        },
        {
            "positions": [
                -0.711570417751374,
                -0.9322037189983667,
                0.11214764895565232,
                0.2710704688243806,
                0.17143308778540356,
                -0.23354822693114374
            ]
        },
        {
            "positions": [
                -0.6861143697067605,
                -0.9856693075562895,
                0.23913459625238187,
                0.2614123340409281,
                0.08398491639246064,
                -0.318076046557797
            ]
        },
        {
            "positions": [
                -0.6606583216621472,
                -1.0391348961142122,
                0.3661215435491114,
                0.25175419925747566,
                -0.003463255000481835,
                -0.40260386618445
            ]
        },
        {
            "positions": [
                -0.6352022736175339,
                -1.0926004846721349,
                0.49310849084584096,
                0.24209606447402324,
                -0.09091142639342453,
                -0.487131685811103
            ]
        },
        {
            "positions": [
                -0.6097462255729205,
                -1.1460660732300576,
                0.6200954381425705,
                0.23243792969057078,
                -0.17835959778636745,
                -0.5716595054377562
            ]
        },
        {
            "positions": [
                -0.5842901775283071,
                -1.1995316617879803,
                0.7470823854392996,
                0.22277979490711836,
                -0.26580776917931015,
                -0.6561873250644092
            ]
        },
        {
            "positions": [
                -0.5588341294836939,
                -1.252997250345903,
                0.8740693327360292,
                0.21312166012366593,
                -0.35325594057225285,
                -0.7407151446910623
            ]
        },
        {
            "positions": [
                -0.5333780814390805,
                -1.3064628389038258,
                1.0010562800327587,
                0.20346352534021347,
                -0.44070411196519577,
                -0.8252429643177155
            ]
        },
        {
            "positions": [
                -0.5079220333944672,
                -1.3599284274617485,
                1.128043227329488,
                0.19380539055676105,
                -0.5281522833581384,
                -0.9097707839443687
            ]
        },
        {
            "positions": [
                -0.46583747627251215,
                -1.345137936610832,
                1.1841230827930642,
                0.12955971109054454,
                -0.4844577206931597,
                -1.0625307970399354
            ]
        },
        {
            "positions": [
                -0.42375291915055713,
                -1.3303474457599158,
                1.2402029382566404,
                0.06531403162432806,
                -0.440763158028181,
                -1.2152908101355022
            ]
        },
        {
            "positions": [
                -0.3816683620286021,
                -1.3155569549089994,
                1.2962827937202166,
                0.0010683521581115463,
                -0.39706859536320227,
                -1.3680508232310689
            ]
        },
        {
            "positions": [
                -0.3395838049066471,
                -1.3007664640580832,
                1.3523626491837928,
                -0.06317732730810494,
                -0.3533740326982236,
                -1.5208108363266355
            ]
        },
        {
            "positions": [
                -0.29749924778469206,
                -1.2859759732071667,
                1.4084425046473688,
                -0.1274230067743214,
                -0.3096794700332449,
                -1.6735708494222024
            ]
        },
        {
            "positions": [
                -0.25541469066273703,
                -1.2711854823562503,
                1.4645223601109452,
                -0.19166868624053796,
                -0.26598490736826624,
                -1.8263308625177692
            ]
        },
        {
            "positions": [
                -0.213330133540782,
                -1.256394991505334,
                1.5206022155745211,
                -0.2559143657067544,
                -0.22229034470328757,
                -1.9790908756133359
            ]
        },
        {
            "positions": [
                -0.17124557641882698,
                -1.2416045006544176,
                1.5766820710380975,
                -0.3201600451729709,
                -0.17859578203830884,
                -2.1318508887089025
            ]
        },
        {
            "positions": [
                -0.12916101929687196,
                -1.2268140098035014,
                1.6327619265016735,
                -0.38440572463918743,
                -0.13490121937333016,
                -2.284610901804469
            ]
        },
        {
            "positions": [
                -0.08707646217491694,
                -1.212023518952585,
                1.6888417819652497,
                -0.44865140410540383,
                -0.09120665670835149,
                -2.437370914900036
            ]
        },
        {
            "positions": [
                -0.04499190505296197,
                -1.1972330281016688,
                1.7449216374288259,
                -0.5128970835716203,
                -0.04751209404337281,
                -2.5901309279956024
            ]
        },
        {
            "positions": [
                -0.0029073479310068873,
                -1.1824425372507523,
                1.8010014928924023,
                -0.577142763037837,
                -0.0038175313783941345,
                -2.7428909410911695
            ]
        },
        {
            "positions": [
                0.03917720919094814,
                -1.1676520463998359,
                1.8570813483559783,
                -0.6413884425040535,
                0.0398770312865846,
                -2.8956509541867366
            ]
        },
        {
            "positions": [
                0.08126176631290316,
                -1.1528615555489197,
                1.9131612038195545,
                -0.7056341219702699,
                0.08357159395156322,
                -3.0484109672823028
            ]
        },
        {
            "positions": [
                0.12334632343485818,
                -1.1380710646980032,
                1.9692410592831306,
                -0.7698798014364864,
                0.12726615661654192,
                -3.20117098037787
            ]
        }
    ]
}