{
    "goal": {
        "global_pose": {
            "orientation": {
                "w": 0.5084816217422485,
                "x": -0.49083608388900757,
                "y": 0.5182115435600281,
                "z": -0.4816462993621826
            },
            "position": {
                "x": 0.5540239810943604,
                "y": 0.030875300988554955,
                "z": 0.16403168439865112
            }
        },
        "name": "move_to_storage_A"
    },
    "id": "RRTConnect_move_to_storage_A_76",
    "joint_names": [
        "shoulder_pan_joint",
        "shoulder_lift_joint",
        "elbow_joint",
        "wrist_1_joint",
        "wrist_2_joint",
        "wrist_3_joint"
    ],
    "metrics": {
        "cart_traj_len": 0.35250099238617394,
        "distance_elbow_joint": 0.44880700720990996,
        "distance_shoulder_lift_joint": 0.23378182982263995,
        "distance_shoulder_pan_joint": 0.45802762419660187,
        "distance_wrist_1_joint": 0.240388826692146,
        "distance_wrist_2_joint": 1.1097652510247882,
        "distance_wrist_3_joint": 0.09854950548080987,
        "smoothness": 4.440892133664971e-16,
        "time": 0.051737354,
        "traj_len": 1.6091364281585623,
        "weighted_distance": 2.033856714005549
    },
    "planner": "RRTConnect",
    "start": {
        "state": {
            "elbow_joint": 1.9715463870305268,
            "shoulder_lift_joint": -1.1394903361783484,
            "shoulder_pan_joint": 0.12281147578464417,
            "wrist_1_joint": -0.7804599489681411,
            "wrist_2_joint": 0.12958660307563738,
            "wrist_3_joint": -3.1924946282119055
        }
    },
    "waypoints": [
        {
            "positions": [
                0.12281147578464417,
                -1.1394903361783484,
                1.9715463870305268,
                -0.7804599489681411,
                0.12958660307563738,
                -3.1924946282119055
            ]
        },
        {
            "positions": [
                0.057378958042272485,
                -1.1728877404387255,
                2.0356616737747997,
                -0.8148012099241619,
                0.28812449607917856,
                -3.1784161274289326
            ]
        },
        {
            "positions": [
                -0.008053559700099203,
                -1.2062851446991028,
                2.0997769605190726,
                -0.8491424708801828,
                0.4466623890827197,
                -3.1643376266459597
            ]
        },
        {
            "positions": [
                -0.07348607744247089,
                -1.2396825489594798,
                2.1638922472633455,
                -0.8834837318362037,
                0.6052002820862609,
                -3.150259125862987
            ]
        },
        {
            "positions": [
                -0.13891859518484256,
                -1.273079953219857,
                2.228007534007618,
                -0.9178249927922245,
                0.763738175089802,
                -3.1361806250800144
            ]
        },
        {
            "positions": [
                -0.2043511129272143,
                -1.306477357480234,
                2.292122820751891,
                -0.9521662537482454,
                0.9222760680933433,
                -3.1221021242970415
            ]
        },
        {
            "positions": [
                -0.26978363066958594,
                -1.3398747617406113,
                2.356238107496164,
                -0.9865075147042662,
                1.0808139610968843,
                -3.1080236235140686
            ]
        },
        {
            "positions": [
                -0.3352161484119577,
                -1.3732721660009883,
                2.4203533942404367,
                -1.020848775660287,
                1.2393518541004256,
                -3.0939451227310957
            ]
        }
    ]
}