{
    "goal": {
        "global_pose": {
            "orientation": {
                "w": 0.5084816217422485,
                "x": -0.49083608388900757,
                "y": 0.5182115435600281,
                "z": -0.4816462993621826
            },
            "position": {
                "x": 0.5540239810943604,
                "y": 0.030875300988554955,
                "z": 0.16403168439865112
            }
        },
        "name": "move_to_storage_A"
    },
    "id": "RRTConnect_move_to_storage_A_19",
    "joint_names": [
        "shoulder_pan_joint",
        "shoulder_lift_joint",
        "elbow_joint",
        "wrist_1_joint",
        "wrist_2_joint",
        "wrist_3_joint"
    ],
    "metrics": {
        "cart_traj_len": 0.3525472683711689,
        "distance_elbow_joint": 0.4522084670007991,
        "distance_shoulder_lift_joint": 0.23204901388385424,
        "distance_shoulder_pan_joint": 0.45883473699672045,
        "distance_wrist_1_joint": 0.2599486852208627,
        "distance_wrist_2_joint": 1.1058595798528263,
        "distance_wrist_3_joint": 0.10999264894468164,
        "smoothness": 4.440892098500626e-16,
        "time": 0.048736599,
        "traj_len": 1.6182994568063551,
        "weighted_distance": 2.050533270849999
    },
    "planner": "RRTConnect",
    "start": {
        "state": {
            "elbow_joint": 1.9715463870305268,
            "shoulder_lift_joint": -1.1394903361783484,
            "shoulder_pan_joint": 0.12281147578464417,
            "wrist_1_joint": -0.7804599489681411,
            "wrist_2_joint": 0.12958660307563738,
            "wrist_3_joint": -3.1924946282119055
        }
    },
    "waypoints": [
        {
            "positions": [
                0.12281147578464417,
                -1.1394903361783484,
                1.9715463870305268,
                -0.7804599489681411,
                0.12958660307563738,
                -3.1924946282119055
            ]
        },
        {
            "positions": [
                0.05726365621368411,
                -1.1726401953046133,
                2.0361475966020697,
                -0.8175954754282643,
                0.2875665430546126,
                -3.1767813926483797
            ]
        },
        {
            "positions": [
                -0.008284163357275956,
                -1.2057900544308782,
                2.100748806173612,
                -0.8547310018883876,
                0.4455464830335878,
                -3.161068157084854
            ]
        },
        {
            "positions": [
                -0.07383198292823602,
                -1.238939913557143,
                2.165350015745155,
                -0.8918665283485108,
                0.603526423012563,
                -3.145354921521328
            ]
        },
        {
            "positions": [
                -0.13937980249919607,
                -1.272089772683408,
                2.2299512253166975,
                -0.9290020548086341,
                0.7615063629915382,
                -3.1296416859578016
            ]
        },
        {
            "positions": [
                -0.20492762207015613,
                -1.3052396318096728,
                2.2945524348882405,
                -0.9661375812687573,
                0.9194863029705134,
                -3.1139284503942757
            ]
        },
        {
            "positions": [
                -0.2704754416411162,
                -1.3383894909359377,
                2.359153644459783,
                -1.0032731077288806,
                1.0774662429494886,
                -3.09821521483075
            ]
        },
        {
            "positions": [
                -0.33602326121207626,
                -1.3715393500622026,
                2.423754854031326,
                -1.0404086341890038,
                1.2354461829284638,
                -3.082501979267224
            ]
        }
    ]
}