{
    "goal": {
        "global_pose": {
            "orientation": {
                "w": 0.5084816217422485,
                "x": -0.49083608388900757,
                "y": 0.5182115435600281,
                "z": -0.4816462993621826
            },
            "position": {
                "x": 0.5540239810943604,
                "y": 0.030875300988554955,
                "z": 0.16403168439865112
            }
        },
        "name": "move_to_storage_A"
    },
    "id": "RRTConnect_move_to_storage_A_71",
    "joint_names": [
        "shoulder_pan_joint",
        "shoulder_lift_joint",
        "elbow_joint",
        "wrist_1_joint",
        "wrist_2_joint",
        "wrist_3_joint"
    ],
    "metrics": {
        "cart_traj_len": 0.35312372436563316,
        "distance_elbow_joint": 0.4500720223097008,
        "distance_shoulder_lift_joint": 0.23652031348226,
        "distance_shoulder_pan_joint": 0.4640631601430298,
        "distance_wrist_1_joint": 0.23939496484266287,
        "distance_wrist_2_joint": 1.0900602718125423,
        "distance_wrist_3_joint": 0.09747368941999257,
        "smoothness": 1.5543122378471369e-15,
        "time": 0.057322425999999996,
        "traj_len": 1.6054857277503867,
        "weighted_distance": 2.025336277635242
    },
    "planner": "RRTConnect",
    "start": {
        "state": {
            "elbow_joint": 1.9715463870305268,
            "shoulder_lift_joint": -1.1394903361783484,
            "shoulder_pan_joint": 0.12281147578464417,
            "wrist_1_joint": -0.7804599489681411,
            "wrist_2_joint": 0.12958660307563738,
            "wrist_3_joint": -3.1924946282119055
        }
    },
    "waypoints": [
        {
            "positions": [
                0.12281147578464417,
                -1.1394903361783484,
                1.9715463870305268,
                -0.7804599489681411,
                0.12958660307563738,
                -3.1924946282119055
            ]
        },
        {
            "positions": [
                0.0565167386213542,
                -1.1732789523900997,
                2.035842390217627,
                -0.8146592296599501,
                0.2853094990488577,
                -3.178569815437621
            ]
        },
        {
            "positions": [
                -0.00977799854193577,
                -1.2070675686018513,
                2.100138393404727,
                -0.8488585103517591,
                0.441032395022078,
                -3.1646450026633364
            ]
        },
        {
            "positions": [
                -0.07607273570522573,
                -1.2408561848136026,
                2.164434396591827,
                -0.883057791043568,
                0.5967552909952983,
                -3.150720189889052
            ]
        },
        {
            "positions": [
                -0.1423674728685157,
                -1.2746448010253542,
                2.228730399778927,
                -0.917257071735377,
                0.7524781869685186,
                -3.1367953771147667
            ]
        },
        {
            "positions": [
                -0.20866221003180568,
                -1.3084334172371055,
                2.2930264029660274,
                -0.951456352427186,
                0.9082010829417391,
                -3.122870564340482
            ]
        },
        {
            "positions": [
                -0.2749569471950956,
                -1.342222033448857,
                2.3573224061531275,
                -0.985655633118995,
                1.0639239789149593,
                -3.1089457515661976
            ]
        },
        {
            "positions": [
                -0.3412516843583856,
                -1.3760106496606084,
                2.4216184093402275,
                -1.019854913810804,
                1.2196468748881797,
                -3.095020938791913
            ]
        }
    ]
}