{
    "goal": {
        "global_pose": {
            "orientation": {
                "w": 0.5084816217422485,
                "x": -0.49083608388900757,
                "y": 0.5182115435600281,
                "z": -0.4816462993621826
            },
            "position": {
                "x": 0.5540239810943604,
                "y": 0.030875300988554955,
                "z": 0.16403168439865112
            }
        },
        "name": "move_to_storage_A"
    },
    "id": "RRTConnect_move_to_storage_A_34",
    "joint_names": [
        "shoulder_pan_joint",
        "shoulder_lift_joint",
        "elbow_joint",
        "wrist_1_joint",
        "wrist_2_joint",
        "wrist_3_joint"
    ],
    "metrics": {
        "cart_traj_len": 0.35344017372564285,
        "distance_elbow_joint": 0.4494800286967737,
        "distance_shoulder_lift_joint": 0.23508016814239951,
        "distance_shoulder_pan_joint": 0.46319692590413225,
        "distance_wrist_1_joint": 0.24358631083998994,
        "distance_wrist_2_joint": 1.0949616024999884,
        "distance_wrist_3_joint": 0.10405999596387838,
        "smoothness": 4.440892098500626e-16,
        "time": 0.042226291,
        "traj_len": 1.6094610998862824,
        "weighted_distance": 2.0339697483775168
    },
    "planner": "RRTConnect",
    "start": {
        "state": {
            "elbow_joint": 1.9715463870305268,
            "shoulder_lift_joint": -1.1394903361783484,
            "shoulder_pan_joint": 0.12281147578464417,
            "wrist_1_joint": -0.7804599489681411,
            "wrist_2_joint": 0.12958660307563738,
            "wrist_3_joint": -3.1924946282119055
        }
    },
    "waypoints": [
        {
            "positions": [
                0.12281147578464417,
                -1.1394903361783484,
                1.9715463870305268,
                -0.7804599489681411,
                0.12958660307563738,
                -3.1924946282119055
            ]
        },
        {
            "positions": [
                0.05664048636976814,
                -1.1730732173415483,
                2.0357578197014945,
                -0.815257993373854,
                0.28600968914706426,
                -3.17762891450278
            ]
        },
        {
            "positions": [
                -0.0095305030451079,
                -1.2066560985047483,
                2.0999692523724622,
                -0.8500560377795667,
                0.4424327752184912,
                -3.1627632007936546
            ]
        },
        {
            "positions": [
                -0.07570149245998394,
                -1.2402389796679483,
                2.16418068504343,
                -0.8848540821852796,
                0.5988558612899181,
                -3.147897487084529
            ]
        },
        {
            "positions": [
                -0.14187248187485996,
                -1.273821860831148,
                2.2283921177143973,
                -0.9196521265909925,
                0.755278947361345,
                -3.1330317733754036
            ]
        },
        {
            "positions": [
                -0.208043471289736,
                -1.307404741994348,
                2.292603550385365,
                -0.9544501709967053,
                0.911702033432772,
                -3.118166059666278
            ]
        },
        {
            "positions": [
                -0.27421446070461203,
                -1.340987623157548,
                2.3568149830563327,
                -0.9892482154024181,
                1.0681251195041988,
                -3.1033003459571527
            ]
        },
        {
            "positions": [
                -0.34038545011948806,
                -1.374570504320748,
                2.4210264157273005,
                -1.024046259808131,
                1.2245482055756258,
                -3.088434632248027
            ]
        }
    ]
}