{
    "goal": {
        "global_pose": {
            "orientation": {
                "w": 0.5084816217422485,
                "x": -0.49083608388900757,
                "y": 0.5182115435600281,
                "z": -0.4816462993621826
            },
            "position": {
                "x": 0.5540239810943604,
                "y": 0.030875300988554955,
                "z": 0.16403168439865112
            }
        },
        "name": "move_to_storage_A"
    },
    "id": "RRTConnect_move_to_storage_A_77",
    "joint_names": [
        "shoulder_pan_joint",
        "shoulder_lift_joint",
        "elbow_joint",
        "wrist_1_joint",
        "wrist_2_joint",
        "wrist_3_joint"
    ],
    "metrics": {
        "cart_traj_len": 0.3528587389602938,
        "distance_elbow_joint": 0.449884632580853,
        "distance_shoulder_lift_joint": 0.2347057205292078,
        "distance_shoulder_pan_joint": 0.46341865452439357,
        "distance_wrist_1_joint": 0.2373798381070521,
        "distance_wrist_2_joint": 1.090336816723266,
        "distance_wrist_3_joint": 0.08659378589475075,
        "smoothness": 2.2204460668324854e-16,
        "time": 0.047754051,
        "traj_len": 1.6007246635069765,
        "weighted_distance": 2.0157439507485426
    },
    "planner": "RRTConnect",
    "start": {
        "state": {
            "elbow_joint": 1.9715463870305268,
            "shoulder_lift_joint": -1.1394903361783484,
            "shoulder_pan_joint": 0.12281147578464417,
            "wrist_1_joint": -0.7804599489681411,
            "wrist_2_joint": 0.12958660307563738,
            "wrist_3_joint": -3.1924946282119055
        }
    },
    "waypoints": [
        {
            "positions": [
                0.12281147578464417,
                -1.1394903361783484,
                1.9715463870305268,
                -0.7804599489681411,
                0.12958660307563738,
                -3.1924946282119055
            ]
        },
        {
            "positions": [
                0.056608810852587954,
                -1.173019724825378,
                2.035815620256363,
                -0.8143713544120057,
                0.2853490054646754,
                -3.1801240873697982
            ]
        },
        {
            "positions": [
                -0.009593854079468264,
                -1.2065491134724078,
                2.100084853482199,
                -0.8482827598558702,
                0.4411114078537134,
                -3.167753546527691
            ]
        },
        {
            "positions": [
                -0.0757965190115245,
                -1.2400785021194374,
                2.1643540867080353,
                -0.8821941652997348,
                0.5968738102427514,
                -3.1553830056855836
            ]
        },
        {
            "positions": [
                -0.1419991839435807,
                -1.2736078907664672,
                2.228623319933871,
                -0.9161055707435994,
                0.7526362126317895,
                -3.1430124648434767
            ]
        },
        {
            "positions": [
                -0.20820184887563692,
                -1.3071372794134968,
                2.2928925531597075,
                -0.950016976187464,
                0.9083986150208275,
                -3.1306419240013694
            ]
        },
        {
            "positions": [
                -0.27440451380769315,
                -1.3406666680605266,
                2.3571617863855434,
                -0.9839283816313286,
                1.0641610174098655,
                -3.118271383159262
            ]
        },
        {
            "positions": [
                -0.3406071787397494,
                -1.3741960567075562,
                2.4214310196113797,
                -1.0178397870751932,
                1.2199234197989035,
                -3.105900842317155
            ]
        }
    ]
}