{
    "goal": {
        "global_pose": {
            "orientation": {
                "w": 0.5084816217422485,
                "x": -0.49083608388900757,
                "y": 0.5182115435600281,
                "z": -0.4816462993621826
            },
            "position": {
                "x": 0.5540239810943604,
                "y": 0.030875300988554955,
                "z": 0.16403168439865112
            }
        },
        "name": "move_to_storage_A"
    },
    "id": "RRTConnect_move_to_storage_A_82",
    "joint_names": [
        "shoulder_pan_joint",
        "shoulder_lift_joint",
        "elbow_joint",
        "wrist_1_joint",
        "wrist_2_joint",
        "wrist_3_joint"
    ],
    "metrics": {
        "cart_traj_len": 0.35298925004894705,
        "distance_elbow_joint": 0.4486009870288803,
        "distance_shoulder_lift_joint": 0.23541606756982336,
        "distance_shoulder_pan_joint": 0.4624124145289106,
        "distance_wrist_1_joint": 0.2353139487528707,
        "distance_wrist_2_joint": 1.09545290690046,
        "distance_wrist_3_joint": 0.10234986719349415,
        "smoothness": 2.2204460668324854e-16,
        "time": 0.032655748,
        "traj_len": 1.6060965699404377,
        "weighted_distance": 2.0285494280432896
    },
    "planner": "RRTConnect",
    "start": {
        "state": {
            "elbow_joint": 1.9715463870305268,
            "shoulder_lift_joint": -1.1394903361783484,
            "shoulder_pan_joint": 0.12281147578464417,
            "wrist_1_joint": -0.7804599489681411,
            "wrist_2_joint": 0.12958660307563738,
            "wrist_3_joint": -3.1924946282119055
        }
    },
    "waypoints": [
        {
            "positions": [
                0.12281147578464417,
                -1.1394903361783484,
                1.9715463870305268,
                -0.7804599489681411,
                0.12958660307563738,
                -3.1924946282119055
            ]
        },
        {
            "positions": [
                0.056752559423371235,
                -1.1731212029740374,
                2.035632242320367,
                -0.8140762273614083,
                0.2860798754899888,
                -3.177873218612835
            ]
        },
        {
            "positions": [
                -0.009306356937901702,
                -1.2067520697697265,
                2.099718097610207,
                -0.8476925057546756,
                0.4425731479043402,
                -3.1632518090137642
            ]
        },
        {
            "positions": [
                -0.07536527329917463,
                -1.2403829365654155,
                2.163803952900047,
                -0.8813087841479428,
                0.5990664203186916,
                -3.1486303994146936
            ]
        },
        {
            "positions": [
                -0.14142418966044756,
                -1.2740138033611046,
                2.227889808189887,
                -0.9149250625412101,
                0.755559692733043,
                -3.1340089898156234
            ]
        },
        {
            "positions": [
                -0.20748310602172054,
                -1.3076446701567936,
                2.291975663479727,
                -0.9485413409344773,
                0.9120529651473945,
                -3.1193875802165527
            ]
        },
        {
            "positions": [
                -0.2735420223829934,
                -1.3412755369524827,
                2.356061518769567,
                -0.9821576193277446,
                1.0685462375617458,
                -3.104766170617482
            ]
        },
        {
            "positions": [
                -0.3396009387442664,
                -1.3749064037481717,
                2.420147374059407,
                -1.0157738977210118,
                1.2250395099760973,
                -3.0901447610184114
            ]
        }
    ]
}