{
    "goal": {
        "global_pose": {
            "orientation": {
                "w": 0.5084816217422485,
                "x": -0.49083608388900757,
                "y": 0.5182115435600281,
                "z": -0.4816462993621826
            },
            "position": {
                "x": 0.5540239810943604,
                "y": 0.030875300988554955,
                "z": 0.16403168439865112
            }
        },
        "name": "move_to_storage_A"
    },
    "id": "RRTConnect_move_to_storage_A_31",
    "joint_names": [
        "shoulder_pan_joint",
        "shoulder_lift_joint",
        "elbow_joint",
        "wrist_1_joint",
        "wrist_2_joint",
        "wrist_3_joint"
    ],
    "metrics": {
        "cart_traj_len": 0.3538089876381033,
        "distance_elbow_joint": 0.4492699896281751,
        "distance_shoulder_lift_joint": 0.23473866339276128,
        "distance_shoulder_pan_joint": 0.46203520944353327,
        "distance_wrist_1_joint": 0.2387287335862217,
        "distance_wrist_2_joint": 1.1030311674582176,
        "distance_wrist_3_joint": 0.09137410092927434,
        "smoothness": 6.661338200497456e-16,
        "time": 0.038584986,
        "traj_len": 1.6059819004080287,
        "weighted_distance": 2.0257556534145897
    },
    "planner": "RRTConnect",
    "start": {
        "state": {
            "elbow_joint": 1.9715463870305268,
            "shoulder_lift_joint": -1.1394903361783484,
            "shoulder_pan_joint": 0.12281147578464417,
            "wrist_1_joint": -0.7804599489681411,
            "wrist_2_joint": 0.12958660307563738,
            "wrist_3_joint": -3.1924946282119055
        }
    },
    "waypoints": [
        {
            "positions": [
                0.12281147578464417,
                -1.1394903361783484,
                1.9715463870305268,
                -0.7804599489681411,
                0.12958660307563738,
                -3.1924946282119055
            ]
        },
        {
            "positions": [
                0.056806445864139424,
                -1.1730244309487428,
                2.035727814120266,
                -0.8145640537661728,
                0.287162484141097,
                -3.179441185222009
            ]
        },
        {
            "positions": [
                -0.009198584056365325,
                -1.2065585257191374,
                2.0999092412100056,
                -0.8486681585642044,
                0.44473836520655663,
                -3.166387742232113
            ]
        },
        {
            "positions": [
                -0.07520361397687007,
                -1.2400926204895317,
                2.1640906682997447,
                -0.8827722633622361,
                0.6023142462720164,
                -3.1533342992422164
            ]
        },
        {
            "positions": [
                -0.1412086438973748,
                -1.2736267152599263,
                2.228272095389484,
                -0.9168763681602677,
                0.759890127337476,
                -3.1402808562523203
            ]
        },
        {
            "positions": [
                -0.20721367381787958,
                -1.3071608100303207,
                2.2924535224792235,
                -0.9509804729582995,
                0.9174660084029357,
                -3.127227413262424
            ]
        },
        {
            "positions": [
                -0.2732187037383843,
                -1.3406949048007153,
                2.3566349495689627,
                -0.9850845777563311,
                1.0750418894683953,
                -3.1141739702725277
            ]
        },
        {
            "positions": [
                -0.3392237336588891,
                -1.3742289995711097,
                2.420816376658702,
                -1.0191886825543628,
                1.232617770533855,
                -3.101120527282631
            ]
        }
    ]
}