{
    "goal": {
        "global_pose": {
            "orientation": {
                "w": 0.5084816217422485,
                "x": -0.49083608388900757,
                "y": 0.5182115435600281,
                "z": -0.4816462993621826
            },
            "position": {
                "x": 0.5540239810943604,
                "y": 0.030875300988554955,
                "z": 0.16403168439865112
            }
        },
        "name": "move_to_storage_A"
    },
    "id": "RRTConnect_move_to_storage_A_46",
    "joint_names": [
        "shoulder_pan_joint",
        "shoulder_lift_joint",
        "elbow_joint",
        "wrist_1_joint",
        "wrist_2_joint",
        "wrist_3_joint"
    ],
    "metrics": {
        "cart_traj_len": 0.352791455137681,
        "distance_elbow_joint": 0.45257029864446396,
        "distance_shoulder_lift_joint": 0.23347145822479876,
        "distance_shoulder_pan_joint": 0.4612498863466231,
        "distance_wrist_1_joint": 0.25679101109097,
        "distance_wrist_2_joint": 1.0982524513048488,
        "distance_wrist_3_joint": 0.0988348212301875,
        "smoothness": 6.661338165333112e-16,
        "time": 0.032683609,
        "traj_len": 1.6128142877721205,
        "weighted_distance": 2.038107708561568
    },
    "planner": "RRTConnect",
    "start": {
        "state": {
            "elbow_joint": 1.9715463870305268,
            "shoulder_lift_joint": -1.1394903361783484,
            "shoulder_pan_joint": 0.12281147578464417,
            "wrist_1_joint": -0.7804599489681411,
            "wrist_2_joint": 0.12958660307563738,
            "wrist_3_joint": -3.1924946282119055
        }
    },
    "waypoints": [
        {
            "positions": [
                0.12281147578464417,
                -1.1394903361783484,
                1.9715463870305268,
                -0.7804599489681411,
                0.12958660307563738,
                -3.1924946282119055
            ]
        },
        {
            "positions": [
                0.05691863487798374,
                -1.1728434016390339,
                2.0361992868368786,
                -0.817144379123994,
                0.2864798104049015,
                -3.1783753680361646
            ]
        },
        {
            "positions": [
                -0.008974206028676698,
                -1.2061964670997194,
                2.100852186643231,
                -0.8538288092798468,
                0.4433730177341656,
                -3.164256107860423
            ]
        },
        {
            "positions": [
                -0.07486704693533715,
                -1.239549532560405,
                2.1655050864495826,
                -0.8905132394356996,
                0.6002662250634297,
                -3.1501368476846823
            ]
        },
        {
            "positions": [
                -0.14075988784199756,
                -1.2729025980210906,
                2.230157986255935,
                -0.9271976695915525,
                0.7571594323926939,
                -3.1360175875089413
            ]
        },
        {
            "positions": [
                -0.20665272874865803,
                -1.3062556634817761,
                2.2948108860622867,
                -0.9638820997474054,
                0.914052639721958,
                -3.1218983273332004
            ]
        },
        {
            "positions": [
                -0.27254556965531845,
                -1.3396087289424616,
                2.3594637858686385,
                -1.0005665299032582,
                1.070945847051222,
                -3.107779067157459
            ]
        },
        {
            "positions": [
                -0.33843841056197893,
                -1.3729617944031471,
                2.4241166856749907,
                -1.037250960059111,
                1.2278390543804862,
                -3.093659806981718
            ]
        }
    ]
}