{
    "goal": {
        "global_pose": {
            "orientation": {
                "w": 0.7047431468963623,
                "x": -0.7094548344612122,
                "y": 0.0024358443915843964,
                "z": -0.0022348060738295317
            },
            "position": {
                "x": 0.6094750761985779,
                "y": 0.3671506643295288,
                "z": 0.19426114857196808
            }
        },
        "name": "move_to_magneteinheit_A"
    },
    "id": "RRTConnect_move_to_magneteinheit_A_40",
    "joint_names": [
        "shoulder_pan_joint",
        "shoulder_lift_joint",
        "elbow_joint",
        "wrist_1_joint",
        "wrist_2_joint",
        "wrist_3_joint"
    ],
    "metrics": {
        "cart_traj_len": 2.0371160496220373,
        "distance_elbow_joint": 3.9058236575459633,
        "distance_shoulder_lift_joint": 1.0703647669072875,
        "distance_shoulder_pan_joint": 1.2405929981309924,
        "distance_wrist_1_joint": 2.0303021300346478,
        "distance_wrist_2_joint": 1.6231561074269558,
        "distance_wrist_3_joint": 4.2364515716045945,
        "smoothness": 0.08700092525005608,
        "time": 0.086016723,
        "traj_len": 3.7558875424658873,
        "weighted_distance": 5.1218212202615225
    },
    "planner": "RRTConnect",
    "start": {
        "state": {
            "elbow_joint": -1.919643507792019,
            "shoulder_lift_joint": -0.07675430207160344,
            "shoulder_pan_joint": -1.1188671864651873,
            "wrist_1_joint": 0.42560062535961957,
            "wrist_2_joint": 1.5706038300724876,
            "wrist_3_joint": 1.1188968870953055
        }
    },
    "waypoints": [
        {
            "positions": [
                -1.1188671864651873,
                -0.07675430207160344,
                -1.919643507792019,
                0.42560062535961957,
                1.5706038300724876,
                1.1188968870953055
            ]
        },
        {
            "positions": [
                -1.0999632953714955,
                -0.11019268981174765,
                -1.8258219584604725,
                0.3593884432916945,
                1.5091934781546499,
                1.0089269836428767
            ]
        },
        {
            "positions": [
                -1.0810594042778034,
                -0.14363107755189186,
                -1.732000409128926,
                0.2931762612237695,
                1.447783126236812,
                0.8989570801904478
            ]
        },
        {
            "positions": [
                -1.0621555131841116,
                -0.17706946529203604,
                -1.6381788597973794,
                0.2269640791558445,
                1.3863727743189742,
                0.788987176738019
            ]
        },
        {
            "positions": [
                -1.0432516220904198,
                -0.21050785303218025,
                -1.5443573104658328,
                0.16075189708791943,
                1.3249624224011365,
                0.6790172732855901
            ]
        },
        {
            "positions": [
                -1.024347730996728,
                -0.24394624077232446,
                -1.4505357611342862,
                0.09453971501999442,
                1.2635520704832988,
                0.5690473698331613
            ]
        },
        {
            "positions": [
                -1.0054438399030359,
                -0.2773846285124687,
                -1.3567142118027398,
                0.028327532952069412,
                1.202141718565461,
                0.45907746638073244
            ]
        },
        {
            "positions": [
                -0.986539948809344,
                -0.3108230162526129,
                -1.2628926624711931,
                -0.037884649115855706,
                1.140731366647623,
                0.34910756292830347
            ]
        },
        {
            "positions": [
                -0.9676360577156522,
                -0.34426140399275706,
                -1.1690711131396467,
                -0.10409683118378071,
                1.0793210147297854,
                0.23913765947587473
            ]
        },
        {
            "positions": [
                -0.9487321666219602,
                -0.37769979173290125,
                -1.0752495638081,
                -0.17030901325170572,
                1.0179106628119476,
                0.12916775602344588
            ]
        },
        {
            "positions": [
                -0.9298282755282683,
                -0.4111381794730455,
                -0.9814280144765535,
                -0.23652119531963073,
                0.9565003108941098,
                0.019197852571017027
            ]
        },
        {
            "positions": [
                -0.9109243844345765,
                -0.44457656721318967,
                -0.8876064651450069,
                -0.30273337738755574,
                0.8950899589762721,
                -0.09077205088141183
            ]
        },
        {
            "positions": [
                -0.8920204933408845,
                -0.4780149549533339,
                -0.7937849158134604,
                -0.36894555945548074,
                0.8336796070584342,
                -0.20074195433384068
            ]
        },
        {
            "positions": [
                -0.8731166022471927,
                -0.5114533426934781,
                -0.6999633664819138,
                -0.43515774152340586,
                0.7722692551405965,
                -0.31071185778626953
            ]
        },
        {
            "positions": [
                -0.8542127111535007,
                -0.5448917304336223,
                -0.6061418171503672,
                -0.5013699235913309,
                0.7108589032227587,
                -0.4206817612386986
            ]
        },
        {
            "positions": [
                -0.8353088200598089,
                -0.5783301181737666,
                -0.5123202678188208,
                -0.5675821056592558,
                0.649448551304921,
                -0.5306516646911272
            ]
        },
        {
            "positions": [
                -0.8164049289661169,
                -0.6117685059139106,
                -0.41849871848727416,
                -0.6337942877271809,
                0.5880381993870831,
                -0.6406215681435561
            ]
        },
        {
            "positions": [
                -0.797501037872425,
                -0.6452068936540549,
                -0.32467716915572753,
                -0.7000064697951061,
                0.5266278474692454,
                -0.7505914715959852
            ]
        },
        {
            "positions": [
                -0.7785971467787332,
                -0.678645281394199,
                -0.23085561982418112,
                -0.766218651863031,
                0.4652174955514077,
                -0.8605613750484138
            ]
        },
        {
            "positions": [
                -0.7596932556850413,
                -0.7120836691343433,
                -0.1370340704926345,
                -0.8324308339309558,
                0.40380714363356973,
                -0.9705312785008426
            ]
        },
        {
            "positions": [
                -0.7407893645913493,
                -0.7455220568744876,
                -0.04321252116108787,
                -0.898643015998881,
                0.342396791715732,
                -1.0805011819532715
            ]
        },
        {
            "positions": [
                -0.7218854734976574,
                -0.7789604446146317,
                0.050609028170458537,
                -0.9648551980668059,
                0.2809864397978943,
                -1.1904710854057003
            ]
        },
        {
            "positions": [
                -0.7029815824039656,
                -0.812398832354776,
                0.14443057750200539,
                -1.031067380134731,
                0.21957608788005656,
                -1.3004409888581292
            ]
        },
        {
            "positions": [
                -0.6840776913102736,
                -0.8458372200949202,
                0.238252126833552,
                -1.097279562202656,
                0.1581657359622186,
                -1.410410892310558
            ]
        },
        {
            "positions": [
                -0.6651738002165817,
                -0.8792756078350643,
                0.3320736761650982,
                -1.163491744270581,
                0.09675538404438089,
                -1.520380795762987
            ]
        },
        {
            "positions": [
                -0.6462699091228898,
                -0.9127139955752085,
                0.4258952254966448,
                -1.2297039263385061,
                0.03534503212654316,
                -1.630350699215416
            ]
        },
        {
            "positions": [
                -0.5822702657238319,
                -0.932247751692182,
                0.555918969184753,
                -1.198454128143796,
                0.042669807916627535,
                -1.754284364656572
            ]
        },
        {
            "positions": [
                -0.518270622324774,
                -0.9517815078091556,
                0.6859427128728612,
                -1.1672043299490857,
                0.049994583706711906,
                -1.8782180300977283
            ]
        },
        {
            "positions": [
                -0.4542709789257161,
                -0.9713152639261291,
                0.8159664565609696,
                -1.1359545317543756,
                0.05731935949679628,
                -2.0021516955388843
            ]
        },
        {
            "positions": [
                -0.3902713355266582,
                -0.9908490200431027,
                0.9459902002490778,
                -1.1047047335596654,
                0.06464413528688065,
                -2.1260853609800403
            ]
        },
        {
            "positions": [
                -0.32627169212760027,
                -1.0103827761600763,
                1.076013943937186,
                -1.0734549353649552,
                0.07196891107696501,
                -2.2500190264211968
            ]
        },
        {
            "positions": [
                -0.2622720487285424,
                -1.0299165322770498,
                1.2060376876252943,
                -1.042205137170245,
                0.07929368686704939,
                -2.373952691862353
            ]
        },
        {
            "positions": [
                -0.19827240532948442,
                -1.0494502883940233,
                1.3360614313134027,
                -1.0109553389755348,
                0.08661846265713377,
                -2.497886357303509
            ]
        },
        {
            "positions": [
                -0.1342727619304266,
                -1.0689840445109968,
                1.4660851750015107,
                -0.9797055407808248,
                0.09394323844721814,
                -2.621820022744665
            ]
        },
        {
            "positions": [
                -0.07027311853136864,
                -1.0885178006279703,
                1.596108918689619,
                -0.9484557425861146,
                0.1012680142373025,
                -2.745753688185821
            ]
        },
        {
            "positions": [
                -0.006273475132310691,
                -1.108051556744944,
                1.7261326623777273,
                -0.9172059443914045,
                0.10859279002738688,
                -2.8696873536269774
            ]
        },
        {
            "positions": [
                0.057726168266747147,
                -1.1275853128619175,
                1.8561564060658355,
                -0.8859561461966943,
                0.11591756581747124,
                -2.993621019068133
            ]
        },
        {
            "positions": [
                0.12172581166580505,
                -1.147119068978891,
                1.9861801497539437,
                -0.8547063480019841,
                0.12324234160755562,
                -3.1175546845092894
            ]
        }
    ]
}