{
    "goal": {
        "global_pose": {
            "orientation": {
                "w": 0.7047431468963623,
                "x": -0.7094548344612122,
                "y": 0.0024358443915843964,
                "z": -0.0022348060738295317
            },
            "position": {
                "x": 0.6094750761985779,
                "y": 0.3671506643295288,
                "z": 0.19426114857196808
            }
        },
        "name": "move_to_magneteinheit_A"
    },
    "id": "RRTConnect_move_to_magneteinheit_A_115",
    "joint_names": [
        "shoulder_pan_joint",
        "shoulder_lift_joint",
        "elbow_joint",
        "wrist_1_joint",
        "wrist_2_joint",
        "wrist_3_joint"
    ],
    "metrics": {
        "cart_traj_len": 2.070494422457482,
        "distance_elbow_joint": 3.901542179037986,
        "distance_shoulder_lift_joint": 1.0686178141763731,
        "distance_shoulder_pan_joint": 1.2424440319230914,
        "distance_wrist_1_joint": 1.2520022642925022,
        "distance_wrist_2_joint": 1.4440797190470063,
        "distance_wrist_3_joint": 2.0085421520951483,
        "smoothness": 6.125368426333549e-16,
        "time": 0.053695646,
        "traj_len": 3.3041229033696835,
        "weighted_distance": 4.198856326203829
    },
    "planner": "RRTConnect",
    "start": {
        "state": {
            "elbow_joint": -1.919643507792019,
            "shoulder_lift_joint": -0.07675430207160344,
            "shoulder_pan_joint": -1.1188671864651873,
            "wrist_1_joint": 0.42560062535961957,
            "wrist_2_joint": 1.5706038300724876,
            "wrist_3_joint": 1.1188968870953055
        }
    },
    "waypoints": [
        {
            "positions": [
                -1.1188671864651873,
                -0.07675430207160344,
                -1.919643507792019,
                0.42560062535961957,
                1.5706038300724876,
                1.1188968870953055
            ]
        },
        {
            "positions": [
                -1.074494185325077,
                -0.11491922400647392,
                -1.7803027156835196,
                0.3808862587777445,
                1.5190295543922374,
                1.190630535384418
            ]
        },
        {
            "positions": [
                -1.0301211841849665,
                -0.1530841459413444,
                -1.6409619235750201,
                0.3361718921958694,
                1.4674552787119872,
                1.2623641836735304
            ]
        },
        {
            "positions": [
                -0.9857481830448561,
                -0.19124906787621485,
                -1.5016211314665207,
                0.29145752561399435,
                1.415881003031737,
                1.3340978319626429
            ]
        },
        {
            "positions": [
                -0.9413751819047458,
                -0.22941398981108532,
                -1.3622803393580212,
                0.24674315903211927,
                1.3643067273514866,
                1.4058314802517553
            ]
        },
        {
            "positions": [
                -0.8970021807646353,
                -0.2675789117459558,
                -1.2229395472495215,
                0.2020287924502442,
                1.3127324516712364,
                1.4775651285408677
            ]
        },
        {
            "positions": [
                -0.8526291796245249,
                -0.30574383368082625,
                -1.0835987551410222,
                0.15731442586836913,
                1.2611581759909862,
                1.5492987768299802
            ]
        },
        {
            "positions": [
                -0.8082561784844144,
                -0.3439087556156967,
                -0.9442579630325226,
                0.11260005928649403,
                1.209583900310736,
                1.6210324251190926
            ]
        },
        {
            "positions": [
                -0.7638831773443041,
                -0.3820736775505672,
                -0.8049171709240233,
                0.06788569270461897,
                1.1580096246304858,
                1.692766073408205
            ]
        },
        {
            "positions": [
                -0.7195101762041937,
                -0.4202385994854377,
                -0.6655763788155236,
                0.023171326122743863,
                1.1064353489502357,
                1.7644997216973175
            ]
        },
        {
            "positions": [
                -0.6751371750640833,
                -0.45840352142030816,
                -0.5262355867070241,
                -0.02154304045913119,
                1.0548610732699855,
                1.83623336998643
            ]
        },
        {
            "positions": [
                -0.6307641739239729,
                -0.4965684433551786,
                -0.3868947945985246,
                -0.0662574070410063,
                1.0032867975897353,
                1.9079670182755424
            ]
        },
        {
            "positions": [
                -0.5863911727838625,
                -0.534733365290049,
                -0.24755400249002535,
                -0.1109717736228813,
                0.951712521909485,
                1.9797006665646548
            ]
        },
        {
            "positions": [
                -0.542018171643752,
                -0.5728982872249195,
                -0.10821321038152565,
                -0.1556861402047564,
                0.9001382462292347,
                2.0514343148537675
            ]
        },
        {
            "positions": [
                -0.49764517050364165,
                -0.6110632091597901,
                0.03112758172697383,
                -0.20040050678663152,
                0.8485639705489845,
                2.1231679631428797
            ]
        },
        {
            "positions": [
                -0.4532721693635313,
                -0.6492281310946604,
                0.17046837383547309,
                -0.24511487336850662,
                0.7969896948687343,
                2.194901611431992
            ]
        },
        {
            "positions": [
                -0.4088991682234209,
                -0.6873930530295309,
                0.30980916594397256,
                -0.2898292399503816,
                0.7454154191884841,
                2.2666352597211046
            ]
        },
        {
            "positions": [
                -0.36452616708331054,
                -0.7255579749644014,
                0.44914995805247204,
                -0.33454360653225673,
                0.6938411435082339,
                2.3383689080102172
            ]
        },
        {
            "positions": [
                -0.3201531659432,
                -0.763722896899272,
                0.588490750160972,
                -0.37925797311413184,
                0.6422668678279835,
                2.4101025562993295
            ]
        },
        {
            "positions": [
                -0.27578016480308953,
                -0.8018878188341423,
                0.7278315422694714,
                -0.42397233969600695,
                0.5906925921477333,
                2.4818362045884417
            ]
        },
        {
            "positions": [
                -0.2314071636629792,
                -0.8400527407690128,
                0.8671723343779709,
                -0.46868670627788195,
                0.5391183164674831,
                2.5535698528775543
            ]
        },
        {
            "positions": [
                -0.18703416252286886,
                -0.8782176627038834,
                1.0065131264864704,
                -0.5134010728597571,
                0.4875440407872329,
                2.625303501166667
            ]
        },
        {
            "positions": [
                -0.14266116138275842,
                -0.9163825846387537,
                1.1458539185949699,
                -0.5581154394416321,
                0.4359697651069827,
                2.697037149455779
            ]
        },
        {
            "positions": [
                -0.09828816024264797,
                -0.9545475065736242,
                1.2851947107034694,
                -0.6028298060235071,
                0.3843954894267325,
                2.7687707977448914
            ]
        },
        {
            "positions": [
                -0.053915159102537746,
                -0.9927124285084947,
                1.4245355028119684,
                -0.6475441726053821,
                0.3328212137464823,
                2.840504446034004
            ]
        },
        {
            "positions": [
                -0.009542157962427078,
                -1.0308773504433653,
                1.5638762949204683,
                -0.6922585391872573,
                0.2812469380662319,
                2.9122380943231168
            ]
        },
        {
            "positions": [
                0.03483084317768337,
                -1.0690422723782356,
                1.7032170870289678,
                -0.7369729057691323,
                0.22967266238598172,
                2.983971742612229
            ]
        },
        {
            "positions": [
                0.07920384431779359,
                -1.107207194313106,
                1.8425578791374673,
                -0.7816872723510075,
                0.17809838670573153,
                3.055705390901341
            ]
        },
        {
            "positions": [
                0.12357684545790397,
                -1.1453721162479766,
                1.9818986712459667,
                -0.8264016389328827,
                0.12652411102548142,
                3.127439039190454
            ]
        }
    ]
}