{
    "goal": {
        "global_pose": {
            "orientation": {
                "w": -0.00223480608172531,
                "x": 0.0024358444001904467,
                "y": 0.7094548369677653,
                "z": -0.704743149386269
            },
            "position": {
                "x": 0.6205249238014221,
                "y": -0.6371506643295288,
                "z": 0.19426114857196808
            }
        },
        "name": "move_to_magneteinheit_B"
    },
    "id": "RRTConnect_move_to_magneteinheit_B_59",
    "joint_names": [
        "shoulder_pan_joint",
        "shoulder_lift_joint",
        "elbow_joint",
        "wrist_1_joint",
        "wrist_2_joint",
        "wrist_3_joint"
    ],
    "metrics": {
        "cart_traj_len": 1.4533446759414779,
        "distance_elbow_joint": 0.7314596983269206,
        "distance_shoulder_lift_joint": 1.2492824363537984,
        "distance_shoulder_pan_joint": 1.6217660889202115,
        "distance_wrist_1_joint": 2.6034436146414905,
        "distance_wrist_2_joint": 2.935047687590697,
        "distance_wrist_3_joint": 3.129955545142558,
        "smoothness": 2.4980018173577986e-16,
        "time": 0.125313755,
        "traj_len": 3.5029923024431087,
        "weighted_distance": 4.906053145196552
    },
    "planner": "RRTConnect",
    "start": {
        "state": {
            "elbow_joint": 2.39358713078474,
            "shoulder_lift_joint": -1.908514104345545,
            "shoulder_pan_joint": 0.7066247066606129,
            "wrist_1_joint": -0.4678290933515497,
            "wrist_2_joint": 0.7096259083745334,
            "wrist_3_joint": -3.1358149277392293
        }
    },
    "waypoints": [
        {
            "positions": [
                0.7066247066606129,
                -1.908514104345545,
                2.39358713078474,
                -0.4678290933515497,
                0.7096259083745334,
                -3.1358149277392293
            ]
        },
        {
            "positions": [
                0.6543096715341545,
                -1.8682146709147773,
                2.369991656645162,
                -0.38384704126634034,
                0.6149469507103174,
                -3.034848619831405
            ]
        },
        {
            "positions": [
                0.6019946364076961,
                -1.8279152374840095,
                2.346396182505584,
                -0.29986498918113097,
                0.5202679930461014,
                -2.9338823119235804
            ]
        },
        {
            "positions": [
                0.5496796012812376,
                -1.787615804053242,
                2.322800708366006,
                -0.2158829370959216,
                0.42558903538188536,
                -2.832916004015756
            ]
        },
        {
            "positions": [
                0.4973645661547792,
                -1.7473163706224741,
                2.2992052342264278,
                -0.13190088501071223,
                0.33091007771766934,
                -2.7319496961079315
            ]
        },
        {
            "positions": [
                0.4450495310283208,
                -1.7070169371917066,
                2.2756097600868497,
                -0.04791883292550286,
                0.23623112005345331,
                -2.6309833882001072
            ]
        },
        {
            "positions": [
                0.3927344959018623,
                -1.6667175037609387,
                2.2520142859472716,
                0.036063219159706505,
                0.1415521623892373,
                -2.5300170802922826
            ]
        },
        {
            "positions": [
                0.3404194607754039,
                -1.6264180703301712,
                2.2284188118076935,
                0.12004527124491587,
                0.04687320472502132,
                -2.4290507723844583
            ]
        },
        {
            "positions": [
                0.2881044256489455,
                -1.5861186368994034,
                2.2048233376681154,
                0.20402732333012524,
                -0.04780575293919476,
                -2.3280844644766336
            ]
        },
        {
            "positions": [
                0.23578939052248699,
                -1.5458192034686355,
                2.1812278635285374,
                0.2880093754153347,
                -0.14248471060341084,
                -2.2271181565688094
            ]
        },
        {
            "positions": [
                0.18347435539602863,
                -1.505519770037868,
                2.1576323893889593,
                0.371991427500544,
                -0.2371636682676268,
                -2.1261518486609847
            ]
        },
        {
            "positions": [
                0.1311593202695701,
                -1.4652203366071004,
                2.134036915249381,
                0.45597347958575346,
                -0.3318426259318429,
                -2.02518554075316
            ]
        },
        {
            "positions": [
                0.0788442851431117,
                -1.4249209031763326,
                2.110441441109803,
                0.5399555316709628,
                -0.42652158359605885,
                -1.924219232845336
            ]
        },
        {
            "positions": [
                0.026529250016653294,
                -1.3846214697455648,
                2.086845966970225,
                0.6239375837561723,
                -0.521200541260275,
                -1.8232529249375113
            ]
        },
        {
            "positions": [
                -0.025785785109805115,
                -1.3443220363147974,
                2.063250492830647,
                0.7079196358413815,
                -0.6158794989244908,
                -1.722286617029687
            ]
        },
        {
            "positions": [
                -0.07810082023626364,
                -1.3040226028840296,
                2.039655018691069,
                0.791901687926591,
                -0.710558456588707,
                -1.6213203091218624
            ]
        },
        {
            "positions": [
                -0.13041585536272193,
                -1.2637231694532618,
                2.016059544551491,
                0.8758837400118002,
                -0.805237414252923,
                -1.5203540012140382
            ]
        },
        {
            "positions": [
                -0.18273089048918034,
                -1.2234237360224942,
                1.9924640704119128,
                0.9598657920970095,
                -0.8999163719171389,
                -1.4193876933062137
            ]
        },
        {
            "positions": [
                -0.23504592561563897,
                -1.1831243025917264,
                1.9688685962723345,
                1.0438478441822192,
                -0.9945953295813551,
                -1.318421385398389
            ]
        },
        {
            "positions": [
                -0.28736096074209727,
                -1.1428248691609588,
                1.9452731221327564,
                1.1278298962674285,
                -1.089274287245571,
                -1.2174550774905646
            ]
        },
        {
            "positions": [
                -0.3396759958685557,
                -1.102525435730191,
                1.9216776479931785,
                1.2118119483526377,
                -1.183953244909787,
                -1.1164887695827401
            ]
        },
        {
            "positions": [
                -0.3919910309950142,
                -1.0622260022994234,
                1.8980821738536005,
                1.295794000437847,
                -1.278632202574003,
                -1.0155224616749159
            ]
        },
        {
            "positions": [
                -0.4443060661214727,
                -1.0219265688686556,
                1.8744866997140222,
                1.3797760525230567,
                -1.3733111602382193,
                -0.9145561537670912
            ]
        },
        {
            "positions": [
                -0.496621101247931,
                -0.981627135437888,
                1.850891225574444,
                1.463758104608266,
                -1.4679901179024353,
                -0.813589845859267
            ]
        },
        {
            "positions": [
                -0.5489361363743895,
                -0.9413277020071203,
                1.8272957514348662,
                1.5477401566934752,
                -1.5626690755666512,
                -0.7126235379514427
            ]
        },
        {
            "positions": [
                -0.6012511715008478,
                -0.9010282685763527,
                1.8037002772952881,
                1.6317222087786845,
                -1.6573480332308672,
                -0.611657230043618
            ]
        },
        {
            "positions": [
                -0.6535662066273064,
                -0.8607288351455848,
                1.7801048031557098,
                1.7157042608638942,
                -1.7520269908950836,
                -0.5106909221357934
            ]
        },
        {
            "positions": [
                -0.7058812417537649,
                -0.8204294017148173,
                1.7565093290161318,
                1.7996863129491034,
                -1.8467059485592996,
                -0.40972461422796913
            ]
        },
        {
            "positions": [
                -0.7581962768802232,
                -0.7801299682840497,
                1.7329138548765537,
                1.8836683650343127,
                -1.9413849062235151,
                -0.3087583063201449
            ]
        },
        {
            "positions": [
                -0.8105113120066815,
                -0.7398305348532819,
                1.7093183807369756,
                1.967650417119522,
                -2.036063863887731,
                -0.2077919984123202
            ]
        },
        {
            "positions": [
                -0.8628263471331402,
                -0.6995311014225141,
                1.6857229065973975,
                2.0516324692047316,
                -2.1307428215519475,
                -0.10682569050449553
            ]
        },
        {
            "positions": [
                -0.9151413822595985,
                -0.6592316679917466,
                1.6621274324578195,
                2.135614521289941,
                -2.2254217792161635,
                -0.0058593825966712755
            ]
        }
    ]
}