{
    "goal": {
        "global_pose": {
            "orientation": {
                "w": -0.00223480608172531,
                "x": 0.0024358444001904467,
                "y": 0.7094548369677653,
                "z": -0.704743149386269
            },
            "position": {
                "x": 0.6205249238014221,
                "y": -0.6371506643295288,
                "z": 0.19426114857196808
            }
        },
        "name": "move_to_magneteinheit_B"
    },
    "id": "RRTConnect_move_to_magneteinheit_B_86",
    "joint_names": [
        "shoulder_pan_joint",
        "shoulder_lift_joint",
        "elbow_joint",
        "wrist_1_joint",
        "wrist_2_joint",
        "wrist_3_joint"
    ],
    "metrics": {
        "cart_traj_len": 4.019034774259946,
        "distance_elbow_joint": 5.850485260137729,
        "distance_shoulder_lift_joint": 1.4105903698529367,
        "distance_shoulder_pan_joint": 3.117156708373585,
        "distance_wrist_1_joint": 3.3950550052653337,
        "distance_wrist_2_joint": 3.633175774539731,
        "distance_wrist_3_joint": 3.160388021097356,
        "smoothness": 0.41850481289239827,
        "time": 0.290382292,
        "traj_len": 4.53506903357233,
        "weighted_distance": 5.823732305082922
    },
    "planner": "RRTConnect",
    "start": {
        "state": {
            "elbow_joint": 2.39358713078474,
            "shoulder_lift_joint": -1.908514104345545,
            "shoulder_pan_joint": 0.7066247066606129,
            "wrist_1_joint": -0.4678290933515497,
            "wrist_2_joint": 0.7096259083745334,
            "wrist_3_joint": -3.1358149277392293
        }
    },
    "waypoints": [
        {
            "positions": [
                0.7066247066606129,
                -1.908514104345545,
                2.39358713078474,
                -0.4678290933515497,
                0.7096259083745334,
                -3.1358149277392293
            ]
        },
        {
            "positions": [
                0.5903979673616752,
                -1.9419298104359326,
                2.445321643221224,
                -0.46470391820983875,
                0.5672587799235584,
                -3.116885132472106
            ]
        },
        {
            "positions": [
                0.4741712280627375,
                -1.97534551652632,
                2.4970561556577087,
                -0.4615787430681278,
                0.4248916514725834,
                -3.097955337204983
            ]
        },
        {
            "positions": [
                0.35794448876379975,
                -2.0087612226167075,
                2.5487906680941927,
                -0.45845356792641684,
                0.2825245230216084,
                -3.07902554193786
            ]
        },
        {
            "positions": [
                0.24171774946486196,
                -2.042176928707095,
                2.6005251805306773,
                -0.4553283927847059,
                0.14015739457063336,
                -3.060095746670737
            ]
        },
        {
            "positions": [
                0.1254910101659242,
                -2.075592634797483,
                2.6522596929671614,
                -0.4522032176429949,
                -0.00220973388034168,
                -3.0411659514036136
            ]
        },
        {
            "positions": [
                0.18296996739047014,
                -2.056496652153224,
                2.4592830385750055,
                -0.48424019662955436,
                -0.05073039502414796,
                -3.0096841771172627
            ]
        },
        {
            "positions": [
                0.24044892461501607,
                -2.037400669508965,
                2.2663063841828497,
                -0.5162771756161137,
                -0.09925105616795424,
                -2.978202402830912
            ]
        },
        {
            "positions": [
                0.297927881839562,
                -2.0183046868647065,
                2.073329729790694,
                -0.5483141546026732,
                -0.1477717173117605,
                -2.9467206285445613
            ]
        },
        {
            "positions": [
                0.35540683906410797,
                -1.9992087042204474,
                1.8803530753985376,
                -0.5803511335892326,
                -0.1962923784555668,
                -2.9152388542582104
            ]
        },
        {
            "positions": [
                0.41288579628865385,
                -1.9801127215761887,
                1.6873764210063817,
                -0.6123881125757921,
                -0.24481303959937306,
                -2.88375707997186
            ]
        },
        {
            "positions": [
                0.47036475351319973,
                -1.9610167389319297,
                1.494399766614226,
                -0.6444250915623515,
                -0.2933337007431793,
                -2.852275305685509
            ]
        },
        {
            "positions": [
                0.5278437107377457,
                -1.9419207562876708,
                1.30142311222207,
                -0.6764620705489109,
                -0.3418543618869856,
                -2.820793531399158
            ]
        },
        {
            "positions": [
                0.5853226679622917,
                -1.922824773643412,
                1.108446457829914,
                -0.7084990495354704,
                -0.3903750230307919,
                -2.7893117571128077
            ]
        },
        {
            "positions": [
                0.6428016251868376,
                -1.9037287909991532,
                0.915469803437758,
                -0.7405360285220298,
                -0.4388956841745982,
                -2.7578299828264567
            ]
        },
        {
            "positions": [
                0.7002805824113835,
                -1.8846328083548944,
                0.7224931490456024,
                -0.7725730075085893,
                -0.48741634531840444,
                -2.726348208540106
            ]
        },
        {
            "positions": [
                0.7577595396359295,
                -1.8655368257106355,
                0.5295164946534463,
                -0.8046099864951486,
                -0.5359370064622107,
                -2.694866434253755
            ]
        },
        {
            "positions": [
                0.8152384968604753,
                -1.8464408430663766,
                0.33653984026129047,
                -0.836646965481708,
                -0.5844576676060169,
                -2.6633846599674045
            ]
        },
        {
            "positions": [
                0.8727174540850213,
                -1.8273448604221179,
                0.1435631858691342,
                -0.8686839444682675,
                -0.6329783287498232,
                -2.6319028856810536
            ]
        },
        {
            "positions": [
                0.9301964113095672,
                -1.808248877777859,
                -0.0494134685230212,
                -0.9007209234548269,
                -0.6814989898936294,
                -2.600421111394703
            ]
        },
        {
            "positions": [
                0.9876753685341131,
                -1.7891528951336002,
                -0.24239012291517703,
                -0.9327579024413863,
                -0.7300196510374357,
                -2.568939337108352
            ]
        },
        {
            "positions": [
                1.045154325758659,
                -1.7700569124893413,
                -0.4353667773073333,
                -0.9647948814279459,
                -0.7785403121812422,
                -2.5374575628220013
            ]
        },
        {
            "positions": [
                1.1026332829832048,
                -1.7509609298450823,
                -0.6283434316994891,
                -0.9968318604145052,
                -0.8270609733250482,
                -2.5059757885356504
            ]
        },
        {
            "positions": [
                1.1601122402077508,
                -1.7318649472008234,
                -0.8213200860916454,
                -1.0288688394010648,
                -0.8755816344688547,
                -2.4744940142493
            ]
        },
        {
            "positions": [
                1.2175911974322968,
                -1.7127689645565647,
                -1.0142967404838013,
                -1.060905818387624,
                -0.924102295612661,
                -2.443012239962949
            ]
        },
        {
            "positions": [
                1.2750701546568426,
                -1.6936729819123058,
                -1.2072733948759566,
                -1.0929427973741834,
                -0.9726229567564673,
                -2.4115304656765986
            ]
        },
        {
            "positions": [
                1.3325491118813888,
                -1.674576999268047,
                -1.4002500492681134,
                -1.124979776360743,
                -1.0211436179002735,
                -2.3800486913902477
            ]
        },
        {
            "positions": [
                1.3900280691059346,
                -1.655481016623788,
                -1.5932267036602688,
                -1.1570167553473023,
                -1.0696642790440798,
                -2.3485669171038968
            ]
        },
        {
            "positions": [
                1.4823418840704221,
                -1.6591300108963905,
                -1.7708237959294277,
                -1.2246250030934938,
                -1.1097292360464306,
                -2.337237547992423
            ]
        },
        {
            "positions": [
                1.5746556990349099,
                -1.6627790051689928,
                -1.948420888198587,
                -1.292233250839685,
                -1.1497941930487814,
                -2.3259081788809493
            ]
        },
        {
            "positions": [
                1.6669695139993976,
                -1.666427999441595,
                -2.126017980467746,
                -1.3598414985858764,
                -1.1898591500511322,
                -2.314578809769475
            ]
        },
        {
            "positions": [
                1.7592833289638852,
                -1.6700769937141973,
                -2.303615072736905,
                -1.427449746332068,
                -1.229924107053483,
                -2.3032494406580013
            ]
        },
        {
            "positions": [
                1.8129610756296453,
                -1.7082277523906224,
                -2.2882300145570986,
                -1.3260477827899626,
                -1.1576013409924562,
                -2.199792608954492
            ]
        },
        {
            "positions": [
                1.8666388222954051,
                -1.7463785110670476,
                -2.2728449563772917,
                -1.224645819247857,
                -1.0852785749314293,
                -2.096335777250983
            ]
        },
        {
            "positions": [
                1.9203165689611652,
                -1.7845292697434727,
                -2.257459898197485,
                -1.1232438557057518,
                -1.0129558088704023,
                -1.9928789455474736
            ]
        },
        {
            "positions": [
                1.973994315626925,
                -1.8226800284198978,
                -2.2420748400176786,
                -1.0218418921636463,
                -0.9406330428093754,
                -1.8894221138439642
            ]
        },
        {
            "positions": [
                2.027672062292685,
                -1.860830787096323,
                -2.2266897818378717,
                -0.920439928621541,
                -0.8683102767483486,
                -1.785965282140455
            ]
        },
        {
            "positions": [
                2.081349808958445,
                -1.898981545772748,
                -2.211304723658065,
                -0.8190379650794356,
                -0.7959875106873217,
                -1.6825084504369459
            ]
        },
        {
            "positions": [
                2.1350275556242053,
                -1.937132304449173,
                -2.1959196654782587,
                -0.7176360015373302,
                -0.7236647446262947,
                -1.5790516187334365
            ]
        },
        {
            "positions": [
                2.188705302289965,
                -1.9752830631255982,
                -2.1805346072984517,
                -0.6162340379952249,
                -0.6513419785652679,
                -1.4755947870299273
            ]
        },
        {
            "positions": [
                2.242383048955725,
                -2.0134338218020233,
                -2.165149549118645,
                -0.5148320744531194,
                -0.579019212504241,
                -1.372137955326418
            ]
        },
        {
            "positions": [
                2.296060795621485,
                -2.0515845804784485,
                -2.1497644909388387,
                -0.4134301109110141,
                -0.5066964464432141,
                -1.2686811236229087
            ]
        },
        {
            "positions": [
                2.349738542287245,
                -2.0897353391548736,
                -2.1343794327590317,
                -0.3120281473689088,
                -0.43437368038218727,
                -1.1652242919193996
            ]
        },
        {
            "positions": [
                2.403416288953005,
                -2.127886097831299,
                -2.1189943745792252,
                -0.21062618382680331,
                -0.3620509143211603,
                -1.0617674602158902
            ]
        },
        {
            "positions": [
                2.426879719234079,
                -2.1597947469240073,
                -2.0779655351161743,
                -0.10268445306658144,
                -0.286982499195761,
                -0.9630092280727977
            ]
        },
        {
            "positions": [
                2.4503431495151533,
                -2.191703396016716,
                -2.036936695653123,
                0.0052572776936404275,
                -0.21191408407036172,
                -0.8642509959297052
            ]
        },
        {
            "positions": [
                2.473806579796227,
                -2.2236120451094243,
                -1.995907856190072,
                0.11319900845386227,
                -0.13684566894496245,
                -0.7654927637866127
            ]
        },
        {
            "positions": [
                2.4972700100773015,
                -2.255520694202133,
                -1.954879016727021,
                0.22114073921408417,
                -0.061777253819563116,
                -0.6667345316435203
            ]
        },
        {
            "positions": [
                2.5207334403583754,
                -2.2874293432948414,
                -1.9138501772639698,
                0.329082469974306,
                0.013291161305836185,
                -0.5679762995004278
            ]
        },
        {
            "positions": [
                2.5441968706394498,
                -2.3193379923875495,
                -1.8728213378009186,
                0.43702420073452786,
                0.08835957643123543,
                -0.4692180673573353
            ]
        },
        {
            "positions": [
                2.5676603009205237,
                -2.351246641480258,
                -1.8317924983378675,
                0.5449659314947498,
                0.1634279915566348,
                -0.37045983521424275
            ]
        },
        {
            "positions": [
                2.591123731201598,
                -2.3831552905729665,
                -1.7907636588748166,
                0.6529076622549717,
                0.2384964066820341,
                -0.2717016030711502
            ]
        },
        {
            "positions": [
                2.614587161482672,
                -2.415063939665675,
                -1.7497348194117652,
                0.7608493930151936,
                0.3135648218074334,
                -0.17294337092805778
            ]
        },
        {
            "positions": [
                2.6380505917637462,
                -2.4469725887583835,
                -1.7087059799487143,
                0.8687911237754153,
                0.3886332369328327,
                -0.07418513878496535
            ]
        },
        {
            "positions": [
                2.66151402204482,
                -2.478881237851092,
                -1.6676771404856632,
                0.9767328545356374,
                0.463701652058232,
                0.024573093358127098
            ]
        }
    ]
}