{
    "goal": {
        "global_pose": {
            "orientation": {
                "w": 0.7031023502349854,
                "x": -0.7110244035720825,
                "y": 0.007748599164187908,
                "z": 0.005598929710686207
            },
            "position": {
                "x": 0.11585023208521307,
                "y": 0.44412534475326537,
                "z": 0.3711530566215515
            }
        },
        "name": "move_to_auspresseinheit_A"
    },
    "id": "RRTConnect_move_to_auspresseinheit_A_120",
    "joint_names": [
        "shoulder_pan_joint",
        "shoulder_lift_joint",
        "elbow_joint",
        "wrist_1_joint",
        "wrist_2_joint",
        "wrist_3_joint"
    ],
    "metrics": {
        "cart_traj_len": 0.7420214358424374,
        "distance_elbow_joint": 0.12308764394320493,
        "distance_shoulder_lift_joint": 0.5365438328928942,
        "distance_shoulder_pan_joint": 1.048353221805291,
        "distance_wrist_1_joint": 0.5482434418151547,
        "distance_wrist_2_joint": 0.5118063555578446,
        "distance_wrist_3_joint": 0.3187536399875541,
        "smoothness": 0.4765853167668808,
        "time": 0.050459078000000004,
        "traj_len": 1.756925762803296,
        "weighted_distance": 2.187314612338621
    },
    "planner": "RRTConnect",
    "start": {
        "state": {
            "elbow_joint": 2.422574709923281,
            "shoulder_lift_joint": -1.3736533754116391,
            "shoulder_pan_joint": -0.33786336945926293,
            "wrist_1_joint": -1.0288603412921917,
            "wrist_2_joint": 1.2330224858903978,
            "wrist_3_joint": -3.094022268022082
        }
    },
    "waypoints": [
        {
            "positions": [
                -0.33786336945926293,
                -1.3736533754116391,
                2.422574709923281,
                -1.0288603412921917,
                1.2330224858903978,
                -3.094022268022082
            ]
        },
        {
            "positions": [
                -0.3330546119505123,
                -1.5298366615297911,
                2.438557392878783,
                -1.0149043896361774,
                1.0960230461311442,
                -3.0465168679093355
            ]
        },
        {
            "positions": [
                -0.3282458544417616,
                -1.686019947647943,
                2.4545400758342852,
                -1.000948437980163,
                0.9590236063718907,
                -2.9990114677965884
            ]
        },
        {
            "positions": [
                -0.3234370969330109,
                -1.842203233766095,
                2.4705227587897873,
                -0.9869924863241487,
                0.8220241666126371,
                -2.951506067683842
            ]
        },
        {
            "positions": [
                -0.1166517070772031,
                -1.8558020286737826,
                2.4554948397744476,
                -0.8857173689547264,
                0.8018625593566203,
                -2.9867535556137046
            ]
        },
        {
            "positions": [
                0.09013368277860473,
                -1.8694008235814703,
                2.440466920759108,
                -0.784442251585304,
                0.7817009521006035,
                -3.0220010435435674
            ]
        },
        {
            "positions": [
                0.29691907263441253,
                -1.882999618489158,
                2.425439001743768,
                -0.6831671342158817,
                0.7615393448445867,
                -3.05724853147343
            ]
        },
        {
            "positions": [
                0.5037044624902204,
                -1.8965984133968457,
                2.4104110827284284,
                -0.5818920168464593,
                0.74137773758857,
                -3.092496019403293
            ]
        },
        {
            "positions": [
                0.710489852346028,
                -1.9101972083045333,
                2.3953831637130887,
                -0.480616899477037,
                0.7212161303325532,
                -3.1277435073331556
            ]
        }
    ]
}