{
    "goal": {
        "global_pose": {
            "orientation": {
                "w": 0.7047431468963623,
                "x": -0.7094548344612122,
                "y": 0.0024358443915843964,
                "z": -0.0022348060738295317
            },
            "position": {
                "x": 0.6094750761985779,
                "y": 0.3671506643295288,
                "z": 0.19426114857196808
            }
        },
        "name": "move_to_magneteinheit_A"
    },
    "id": "RRTConnect_move_to_magneteinheit_A_66",
    "joint_names": [
        "shoulder_pan_joint",
        "shoulder_lift_joint",
        "elbow_joint",
        "wrist_1_joint",
        "wrist_2_joint",
        "wrist_3_joint"
    ],
    "metrics": {
        "cart_traj_len": 1.8766304420147442,
        "distance_elbow_joint": 3.916876932033661,
        "distance_shoulder_lift_joint": 0.7008329734466476,
        "distance_shoulder_pan_joint": 1.2411424714988843,
        "distance_wrist_1_joint": 1.5099974720249558,
        "distance_wrist_2_joint": 1.702728903729929,
        "distance_wrist_3_joint": 1.136064925282411,
        "smoothness": 5.592234510853675e-16,
        "time": 0.051700707,
        "traj_len": 3.194940324640898,
        "weighted_distance": 3.961376011480884
    },
    "planner": "RRTConnect",
    "start": {
        "state": {
            "elbow_joint": -1.919643507792019,
            "shoulder_lift_joint": -0.07675430207160344,
            "shoulder_pan_joint": -1.1188671864651873,
            "wrist_1_joint": 0.42560062535961957,
            "wrist_2_joint": 1.5706038300724876,
            "wrist_3_joint": 1.1188968870953055
        }
    },
    "waypoints": [
        {
            "positions": [
                -1.1188671864651873,
                -0.07675430207160344,
                -1.919643507792019,
                0.42560062535961957,
                1.5706038300724876,
                1.1188968870953055
            ]
        },
        {
            "positions": [
                -1.071130937561384,
                -0.10370941643493604,
                -1.7689943950214937,
                0.4836774512067333,
                1.5051142568521056,
                1.0752020822767512
            ]
        },
        {
            "positions": [
                -1.0233946886575809,
                -0.13066453079826865,
                -1.618345282250968,
                0.5417542770538469,
                1.439624683631724,
                1.031507277458197
            ]
        },
        {
            "positions": [
                -0.9756584397537776,
                -0.15761964516160126,
                -1.4676961694804427,
                0.5998311029009606,
                1.374135110411342,
                0.9878124726396427
            ]
        },
        {
            "positions": [
                -0.9279221908499744,
                -0.18457475952493385,
                -1.3170470567099173,
                0.6579079287480744,
                1.30864553719096,
                0.9441176678210884
            ]
        },
        {
            "positions": [
                -0.8801859419461711,
                -0.21152987388826647,
                -1.166397943939392,
                0.7159847545951881,
                1.2431559639705783,
                0.9004228630025342
            ]
        },
        {
            "positions": [
                -0.8324496930423679,
                -0.23848498825159906,
                -1.0157488311688665,
                0.7740615804423017,
                1.1776663907501963,
                0.8567280581839799
            ]
        },
        {
            "positions": [
                -0.7847134441385646,
                -0.26544010261493167,
                -0.8650997183983411,
                0.8321384062894153,
                1.1121768175298143,
                0.8130332533654256
            ]
        },
        {
            "positions": [
                -0.7369771952347614,
                -0.29239521697826426,
                -0.7144506056278155,
                0.8902152321365291,
                1.0466872443094326,
                0.7693384485468713
            ]
        },
        {
            "positions": [
                -0.6892409463309581,
                -0.31935033134159685,
                -0.5638014928572903,
                0.9482920579836427,
                0.9811976710890506,
                0.7256436437283171
            ]
        },
        {
            "positions": [
                -0.6415046974271549,
                -0.3463054457049295,
                -0.4131523800867647,
                1.0063688838307565,
                0.9157080978686688,
                0.6819488389097628
            ]
        },
        {
            "positions": [
                -0.5937684485233516,
                -0.373260560068262,
                -0.2625032673162393,
                1.0644457096778701,
                0.850218524648287,
                0.6382540340912086
            ]
        },
        {
            "positions": [
                -0.5460321996195484,
                -0.40021567443159467,
                -0.1118541545457139,
                1.122522535524984,
                0.784728951427905,
                0.5945592292726543
            ]
        },
        {
            "positions": [
                -0.4982959507157452,
                -0.42717078879492726,
                0.03879495822481149,
                1.1805993613720975,
                0.7192393782075232,
                0.5508644244541
            ]
        },
        {
            "positions": [
                -0.45055970181194194,
                -0.45412590315825985,
                0.1894440709953369,
                1.2386761872192111,
                0.6537498049871413,
                0.5071696196355457
            ]
        },
        {
            "positions": [
                -0.4028234529081387,
                -0.48108101752159244,
                0.3400931837658623,
                1.2967530130663247,
                0.5882602317667595,
                0.4634748148169915
            ]
        },
        {
            "positions": [
                -0.35508720400433536,
                -0.5080361318849251,
                0.4907422965363881,
                1.3548298389134386,
                0.5227706585463774,
                0.4197800099984371
            ]
        },
        {
            "positions": [
                -0.30735095510053223,
                -0.5349912462482577,
                0.6413914093069131,
                1.4129066647605522,
                0.45728108532599565,
                0.37608520517988286
            ]
        },
        {
            "positions": [
                -0.259614706196729,
                -0.5619463606115902,
                0.7920405220774385,
                1.470983490607666,
                0.3917915121056137,
                0.3323904003613286
            ]
        },
        {
            "positions": [
                -0.21187845729292576,
                -0.5889014749749228,
                0.9426896348479639,
                1.5290603164547796,
                0.32630193888523196,
                0.28869559554277446
            ]
        },
        {
            "positions": [
                -0.1641422083891224,
                -0.6158565893382555,
                1.0933387476184897,
                1.5871371423018934,
                0.26081236566485,
                0.24500079072421999
            ]
        },
        {
            "positions": [
                -0.11640595948531929,
                -0.6428117037015881,
                1.243987860389015,
                1.645213968149007,
                0.19532279244446804,
                0.20130598590566584
            ]
        },
        {
            "positions": [
                -0.06866971058151594,
                -0.6697668180649206,
                1.3946369731595405,
                1.7032907939961206,
                0.1298332192240863,
                0.15761118108711158
            ]
        },
        {
            "positions": [
                -0.020933461677712817,
                -0.6967219324282532,
                1.5452860859300654,
                1.7613676198432344,
                0.06434364600370435,
                0.11391637626855733
            ]
        },
        {
            "positions": [
                0.02680278722609053,
                -0.7236770467915858,
                1.6959351987005913,
                1.8194444456903482,
                -0.0011459272166776113,
                0.07022157145000296
            ]
        },
        {
            "positions": [
                0.07453903612989388,
                -0.7506321611549185,
                1.8465843114711167,
                1.8775212715374618,
                -0.06663550043705957,
                0.026526766631448595
            ]
        },
        {
            "positions": [
                0.122275285033697,
                -0.7775872755182511,
                1.9972334242416423,
                1.9355980973845754,
                -0.13212507365744136,
                -0.017168038187105543
            ]
        }
    ]
}