{
    "goal": {
        "global_pose": {
            "orientation": {
                "w": 0.7047431468963623,
                "x": -0.7094548344612122,
                "y": 0.0024358443915843964,
                "z": -0.0022348060738295317
            },
            "position": {
                "x": 0.6094750761985779,
                "y": 0.3671506643295288,
                "z": 0.19426114857196808
            }
        },
        "name": "move_to_magneteinheit_A"
    },
    "id": "RRTConnect_move_to_magneteinheit_A_23",
    "joint_names": [
        "shoulder_pan_joint",
        "shoulder_lift_joint",
        "elbow_joint",
        "wrist_1_joint",
        "wrist_2_joint",
        "wrist_3_joint"
    ],
    "metrics": {
        "cart_traj_len": 2.0642264443428164,
        "distance_elbow_joint": 3.8736952746033166,
        "distance_shoulder_lift_joint": 1.051852628854793,
        "distance_shoulder_pan_joint": 1.242375902571935,
        "distance_wrist_1_joint": 1.1264148880466154,
        "distance_wrist_2_joint": 1.4443413113058947,
        "distance_wrist_3_joint": 1.908818415990317,
        "smoothness": 6.978544746369029e-16,
        "time": 0.052983747,
        "traj_len": 3.263050477907578,
        "weighted_distance": 4.127455808692083
    },
    "planner": "RRTConnect",
    "start": {
        "state": {
            "elbow_joint": -1.919643507792019,
            "shoulder_lift_joint": -0.07675430207160344,
            "shoulder_pan_joint": -1.1188671864651873,
            "wrist_1_joint": 0.42560062535961957,
            "wrist_2_joint": 1.5706038300724876,
            "wrist_3_joint": 1.1188968870953055
        }
    },
    "waypoints": [
        {
            "positions": [
                -1.1188671864651873,
                -0.07675430207160344,
                -1.919643507792019,
                0.42560062535961957,
                1.5706038300724876,
                1.1188968870953055
            ]
        },
        {
            "positions": [
                -1.0728532641477082,
                -0.11571180684400317,
                -1.7761733124363408,
                0.38388155543196717,
                1.5171097074315285,
                1.1895938654653173
            ]
        },
        {
            "positions": [
                -1.0268393418302293,
                -0.1546693116164029,
                -1.6327031170806623,
                0.3421624855043147,
                1.4636155847905694,
                1.260290843835329
            ]
        },
        {
            "positions": [
                -0.9808254195127502,
                -0.19362681638880264,
                -1.489232921724984,
                0.3004434155766623,
                1.4101214621496103,
                1.3309878222053408
            ]
        },
        {
            "positions": [
                -0.934811497195271,
                -0.2325843211612024,
                -1.3457627263693055,
                0.2587243456490099,
                1.3566273395086514,
                1.4016848005753526
            ]
        },
        {
            "positions": [
                -0.888797574877792,
                -0.2715418259336021,
                -1.2022925310136272,
                0.21700527572135747,
                1.3031332168676923,
                1.4723817789453642
            ]
        },
        {
            "positions": [
                -0.842783652560313,
                -0.3104993307060019,
                -1.0588223356579487,
                0.17528620579370507,
                1.2496390942267332,
                1.543078757315376
            ]
        },
        {
            "positions": [
                -0.7967697302428338,
                -0.3494568354784016,
                -0.9153521403022704,
                0.13356713586605262,
                1.1961449715857742,
                1.6137757356853877
            ]
        },
        {
            "positions": [
                -0.7507558079253548,
                -0.38841434025080135,
                -0.7718819449465919,
                0.09184806593840023,
                1.142650848944815,
                1.6844727140553994
            ]
        },
        {
            "positions": [
                -0.7047418856078758,
                -0.4273718450232011,
                -0.6284117495909136,
                0.05012899601074777,
                1.0891567263038562,
                1.7551696924254112
            ]
        },
        {
            "positions": [
                -0.6587279632903966,
                -0.4663293497956008,
                -0.48494155423523533,
                0.008409926083095376,
                1.0356626036628969,
                1.8258666707954228
            ]
        },
        {
            "positions": [
                -0.6127140409729176,
                -0.5052868545680005,
                -0.3414713588795568,
                -0.03330914384455702,
                0.982168481021938,
                1.8965636491654347
            ]
        },
        {
            "positions": [
                -0.5667001186554385,
                -0.5442443593404003,
                -0.19800116352387853,
                -0.07502821377220942,
                0.9286743583809789,
                1.9672606275354463
            ]
        },
        {
            "positions": [
                -0.5206861963379594,
                -0.5832018641128001,
                -0.05453096816820002,
                -0.11674728369986193,
                0.8751802357400198,
                2.0379576059054583
            ]
        },
        {
            "positions": [
                -0.4746722740204804,
                -0.6221593688851998,
                0.08893922718747826,
                -0.15846635362751432,
                0.8216861130990608,
                2.10865458427547
            ]
        },
        {
            "positions": [
                -0.42865835170300126,
                -0.6611168736575996,
                0.23240942254315677,
                -0.20018542355516683,
                0.7681919904581016,
                2.179351562645482
            ]
        },
        {
            "positions": [
                -0.38264442938552223,
                -0.7000743784299992,
                0.3758796178988353,
                -0.24190449348281912,
                0.7146978678171426,
                2.2500485410154933
            ]
        },
        {
            "positions": [
                -0.3366305070680431,
                -0.739031883202399,
                0.5193498132545138,
                -0.2836235634104716,
                0.6612037451761835,
                2.320745519385505
            ]
        },
        {
            "positions": [
                -0.29061658475056407,
                -0.7779893879747988,
                0.6628200086101919,
                -0.325342633338124,
                0.6077096225352245,
                2.391442497755517
            ]
        },
        {
            "positions": [
                -0.24460266243308493,
                -0.8169468927471986,
                0.8062902039658704,
                -0.3670617032657764,
                0.5542154998942654,
                2.462139476125529
            ]
        },
        {
            "positions": [
                -0.1985887401156059,
                -0.8559043975195981,
                0.9497603993215484,
                -0.4087807731934288,
                0.5007213772533063,
                2.5328364544955404
            ]
        },
        {
            "positions": [
                -0.15257481779812676,
                -0.8948619022919979,
                1.0932305946772274,
                -0.4504998431210813,
                0.44722725461234725,
                2.603533432865552
            ]
        },
        {
            "positions": [
                -0.10656089548064784,
                -0.9338194070643977,
                1.2367007900329055,
                -0.4922189130487336,
                0.3937331319713884,
                2.6742304112355635
            ]
        },
        {
            "positions": [
                -0.060546973163168705,
                -0.9727769118367975,
                1.380170985388584,
                -0.5339379829763862,
                0.34023900933042905,
                2.744927389605576
            ]
        },
        {
            "positions": [
                -0.014533050845689566,
                -1.011734416609197,
                1.523641180744262,
                -0.5756570529040383,
                0.2867448866894702,
                2.8156243679755875
            ]
        },
        {
            "positions": [
                0.03148087147178957,
                -1.0506919213815968,
                1.667111376099941,
                -0.617376122831691,
                0.23325076404851108,
                2.886321346345599
            ]
        },
        {
            "positions": [
                0.07749479378926849,
                -1.0896494261539966,
                1.810581571455619,
                -0.6590951927593434,
                0.179756641407552,
                2.9570183247156105
            ]
        },
        {
            "positions": [
                0.12350871610674762,
                -1.1286069309263964,
                1.9540517668112976,
                -0.7008142626869959,
                0.12626251876659295,
                3.0277153030856225
            ]
        }
    ]
}