{
    "goal": {
        "global_pose": {
            "orientation": {
                "w": -0.00223480608172531,
                "x": 0.0024358444001904467,
                "y": 0.7094548369677653,
                "z": -0.704743149386269
            },
            "position": {
                "x": 0.6205249238014221,
                "y": -0.6371506643295288,
                "z": 0.19426114857196808
            }
        },
        "name": "move_to_magneteinheit_B"
    },
    "id": "RRTConnect_move_to_magneteinheit_B_139",
    "joint_names": [
        "shoulder_pan_joint",
        "shoulder_lift_joint",
        "elbow_joint",
        "wrist_1_joint",
        "wrist_2_joint",
        "wrist_3_joint"
    ],
    "metrics": {
        "cart_traj_len": 3.5911635201471026,
        "distance_elbow_joint": 4.06292146691477,
        "distance_shoulder_lift_joint": 0.6359104881389483,
        "distance_shoulder_pan_joint": 2.8634673780198407,
        "distance_wrist_1_joint": 1.6585833993444554,
        "distance_wrist_2_joint": 0.4199251590930672,
        "distance_wrist_3_joint": 3.1461456091507847,
        "smoothness": 0.34615467517524334,
        "time": 0.347055283,
        "traj_len": 3.5758849954468426,
        "weighted_distance": 4.599755784539105
    },
    "planner": "RRTConnect",
    "start": {
        "state": {
            "elbow_joint": 2.39358713078474,
            "shoulder_lift_joint": -1.908514104345545,
            "shoulder_pan_joint": 0.7066247066606129,
            "wrist_1_joint": -0.4678290933515497,
            "wrist_2_joint": 0.7096259083745334,
            "wrist_3_joint": -3.1358149277392293
        }
    },
    "waypoints": [
        {
            "positions": [
                0.7066247066606129,
                -1.908514104345545,
                2.39358713078474,
                -0.4678290933515497,
                0.7096259083745334,
                -3.1358149277392293
            ]
        },
        {
            "positions": [
                0.6845217185432524,
                -1.9076904805335817,
                2.3938419954830326,
                -0.454007504528364,
                0.7049289916986932,
                -3.1174102540207
            ]
        },
        {
            "positions": [
                0.6017648322043675,
                -1.9012233045281097,
                2.3620435984915904,
                -0.38458906381194413,
                0.675423103270634,
                -2.9944886762135736
            ]
        },
        {
            "positions": [
                0.5190079458654827,
                -1.8947561285226375,
                2.3302452015001482,
                -0.31517062309552424,
                0.645917214842575,
                -2.8715670984064476
            ]
        },
        {
            "positions": [
                0.4362510595265978,
                -1.8882889525171656,
                2.2984468045087056,
                -0.24575218237910434,
                0.6164113264145159,
                -2.748645520599321
            ]
        },
        {
            "positions": [
                0.353494173187713,
                -1.8818217765116934,
                2.2666484075172635,
                -0.17633374166268445,
                0.5869054379864569,
                -2.6257239427921952
            ]
        },
        {
            "positions": [
                0.27073728684882814,
                -1.8753546005062214,
                2.2348500105258213,
                -0.10691530094626457,
                0.5573995495583978,
                -2.502802364985069
            ]
        },
        {
            "positions": [
                0.3633874869749372,
                -1.8801522492719955,
                2.0849854211634913,
                -0.06078237612928394,
                0.561129769411437,
                -2.413515188396484
            ]
        },
        {
            "positions": [
                0.4560376871010463,
                -1.8849498980377697,
                1.9351208318011612,
                -0.014649451312303302,
                0.5648599892644763,
                -2.3242280118078997
            ]
        },
        {
            "positions": [
                0.5486878872271554,
                -1.8897475468035438,
                1.7852562424388312,
                0.031483473504677326,
                0.5685902091175156,
                -2.234940835219315
            ]
        },
        {
            "positions": [
                0.6413380873532644,
                -1.894545195569318,
                1.6353916530765011,
                0.07761639832165797,
                0.5723204289705548,
                -2.1456536586307307
            ]
        },
        {
            "positions": [
                0.7339882874793735,
                -1.8993428443350922,
                1.485527063714171,
                0.12374932313863861,
                0.5760506488235941,
                -2.056366482042146
            ]
        },
        {
            "positions": [
                0.8266384876054826,
                -1.9041404931008663,
                1.335662474351841,
                0.16988224795561924,
                0.5797808686766334,
                -1.9670793054535616
            ]
        },
        {
            "positions": [
                0.9192886877315916,
                -1.9089381418666407,
                1.185797884989511,
                0.21601517277259985,
                0.5835110885296726,
                -1.8777921288649768
            ]
        },
        {
            "positions": [
                1.0119388878577007,
                -1.9137357906324148,
                1.035933295627181,
                0.2621480975895805,
                0.5872413083827119,
                -1.7885049522763923
            ]
        },
        {
            "positions": [
                1.1045890879838098,
                -1.918533439398189,
                0.8860687062648509,
                0.30828102240656113,
                0.5909715282357512,
                -1.6992177756878077
            ]
        },
        {
            "positions": [
                1.1972392881099188,
                -1.9233310881639631,
                0.7362041169025209,
                0.3544139472235418,
                0.5947017480887904,
                -1.6099305990992232
            ]
        },
        {
            "positions": [
                1.2898894882360281,
                -1.9281287369297373,
                0.5863395275401908,
                0.4005468720405224,
                0.5984319679418297,
                -1.5206434225106387
            ]
        },
        {
            "positions": [
                1.382539688362137,
                -1.9329263856955115,
                0.43647493817786076,
                0.44667979685750303,
                0.602162187794869,
                -1.4313562459220541
            ]
        },
        {
            "positions": [
                1.475189888488246,
                -1.9377240344612856,
                0.2866103488155307,
                0.49281272167448364,
                0.6058924076479082,
                -1.3420690693334696
            ]
        },
        {
            "positions": [
                1.5678400886143549,
                -1.9425216832270598,
                0.13674575945320067,
                0.5389456464914643,
                0.6096226275009475,
                -1.252781892744885
            ]
        },
        {
            "positions": [
                1.6604902887404642,
                -1.947319331992834,
                -0.013118829909129381,
                0.5850785713084449,
                0.6133528473539868,
                -1.1634947161563005
            ]
        },
        {
            "positions": [
                1.7531404888665731,
                -1.952116980758608,
                -0.16298341927145943,
                0.6312114961254256,
                0.6170830672070261,
                -1.0742075395677158
            ]
        },
        {
            "positions": [
                1.8457906889926825,
                -1.9569146295243822,
                -0.3128480086337895,
                0.6773444209424062,
                0.6208132870600653,
                -0.9849203629791314
            ]
        },
        {
            "positions": [
                1.9384408891187914,
                -1.9617122782901564,
                -0.4627125979961195,
                0.7234773457593868,
                0.6245435069131046,
                -0.8956331863905469
            ]
        },
        {
            "positions": [
                2.0310910892449003,
                -1.9665099270559305,
                -0.6125771873584496,
                0.7696102705763673,
                0.6282737267661438,
                -0.8063460098019624
            ]
        },
        {
            "positions": [
                2.1237412893710097,
                -1.971307575821705,
                -0.7624417767207796,
                0.8157431953933482,
                0.6320039466191831,
                -0.7170588332133776
            ]
        },
        {
            "positions": [
                2.2163914894971186,
                -1.976105224587479,
                -0.9123063660831097,
                0.8618761202103287,
                0.6357341664722224,
                -0.6277716566247931
            ]
        },
        {
            "positions": [
                2.309041689623228,
                -1.9809028733532532,
                -1.0621709554454397,
                0.9080090450273094,
                0.6394643863252617,
                -0.5384844800362085
            ]
        },
        {
            "positions": [
                2.401691889749337,
                -1.9857005221190274,
                -1.2120355448077698,
                0.95414196984429,
                0.6431946061783009,
                -0.4491973034476242
            ]
        },
        {
            "positions": [
                2.4943420898754463,
                -1.9904981708848015,
                -1.3619001341700998,
                1.0002748946612705,
                0.6469248260313402,
                -0.35991012685903945
            ]
        },
        {
            "positions": [
                2.586992290001555,
                -1.9952958196505757,
                -1.5117647235324299,
                1.0464078194782511,
                0.6506550458843795,
                -0.2706229502704547
            ]
        },
        {
            "positions": [
                2.679642490127664,
                -2.00009346841635,
                -1.66162931289476,
                1.0925407442952317,
                0.6543852657374187,
                -0.18133577368187048
            ]
        },
        {
            "positions": [
                2.6734175718179243,
                -2.159430840546182,
                -1.6640277441743216,
                1.059802890396007,
                0.5974809043714485,
                -0.11744695531739517
            ]
        },
        {
            "positions": [
                2.667192653508184,
                -2.318768212676014,
                -1.6664261754538834,
                1.0270650364967824,
                0.5405765430054783,
                -0.05355813695291986
            ]
        },
        {
            "positions": [
                2.660967735198444,
                -2.478105584805846,
                -1.6688246067334451,
                0.9943271825975576,
                0.48367218163950815,
                0.010330681411555478
            ]
        }
    ]
}