{
    "goal": {
        "global_pose": {
            "orientation": {
                "w": -0.00223480608172531,
                "x": 0.0024358444001904467,
                "y": 0.7094548369677653,
                "z": -0.704743149386269
            },
            "position": {
                "x": 0.6205249238014221,
                "y": -0.6371506643295288,
                "z": 0.19426114857196808
            }
        },
        "name": "move_to_magneteinheit_B"
    },
    "id": "RRTConnect_move_to_magneteinheit_B_104",
    "joint_names": [
        "shoulder_pan_joint",
        "shoulder_lift_joint",
        "elbow_joint",
        "wrist_1_joint",
        "wrist_2_joint",
        "wrist_3_joint"
    ],
    "metrics": {
        "cart_traj_len": 4.201624025633697,
        "distance_elbow_joint": 4.329242456989264,
        "distance_shoulder_lift_joint": 0.8211272039815136,
        "distance_shoulder_pan_joint": 3.306115918415658,
        "distance_wrist_1_joint": 2.054303202847159,
        "distance_wrist_2_joint": 1.7553287890980314,
        "distance_wrist_3_joint": 3.495117817708036,
        "smoothness": 0.4162040482887179,
        "time": 0.46732569300000004,
        "traj_len": 3.970042240208491,
        "weighted_distance": 5.153746502923958
    },
    "planner": "RRTConnect",
    "start": {
        "state": {
            "elbow_joint": 2.39358713078474,
            "shoulder_lift_joint": -1.908514104345545,
            "shoulder_pan_joint": 0.7066247066606129,
            "wrist_1_joint": -0.4678290933515497,
            "wrist_2_joint": 0.7096259083745334,
            "wrist_3_joint": -3.1358149277392293
        }
    },
    "waypoints": [
        {
            "positions": [
                0.7066247066606129,
                -1.908514104345545,
                2.39358713078474,
                -0.4678290933515497,
                0.7096259083745334,
                -3.1358149277392293
            ]
        },
        {
            "positions": [
                0.5970130138229177,
                -1.9140797147374926,
                2.413019554418169,
                -0.49950226154090915,
                0.7667490358900164,
                -3.038352177137456
            ]
        },
        {
            "positions": [
                0.4874013209852226,
                -1.91964532512944,
                2.4324519780515983,
                -0.5311754297302687,
                0.8238721634054994,
                -2.940889426535682
            ]
        },
        {
            "positions": [
                0.37778962814752737,
                -1.9252109355213878,
                2.451884401685027,
                -0.562848597919628,
                0.8809952909209824,
                -2.843426675933909
            ]
        },
        {
            "positions": [
                0.2908919336563857,
                -1.9246087993673904,
                2.404974016509554,
                -0.588279972616985,
                0.9096851556217509,
                -2.7314857461298776
            ]
        },
        {
            "positions": [
                0.20399423916524403,
                -1.924006663213393,
                2.3580636313340806,
                -0.6137113473143417,
                0.9383750203225194,
                -2.6195448163258463
            ]
        },
        {
            "positions": [
                0.11709654467410235,
                -1.9234045270593958,
                2.311153246158607,
                -0.6391427220116985,
                0.9670648850232879,
                -2.5076038865218155
            ]
        },
        {
            "positions": [
                0.0301988501829607,
                -1.9228023909053984,
                2.2642428609831335,
                -0.6645740967090554,
                0.9957547497240564,
                -2.3956629567177843
            ]
        },
        {
            "positions": [
                0.11390572080306395,
                -1.9106043510026942,
                2.091976487400565,
                -0.7373275169258231,
                0.9951276873820141,
                -2.349610837298768
            ]
        },
        {
            "positions": [
                0.1976125914231672,
                -1.8984063110999903,
                1.9197101138179966,
                -0.8100809371425907,
                0.9945006250399718,
                -2.3035587178797514
            ]
        },
        {
            "positions": [
                0.2813194620432704,
                -1.886208271197286,
                1.7474437402354281,
                -0.8828343573593583,
                0.9938735626979295,
                -2.257506598460735
            ]
        },
        {
            "positions": [
                0.3650263326633737,
                -1.8740102312945819,
                1.5751773666528597,
                -0.9555877775761259,
                0.9932465003558871,
                -2.2114544790417185
            ]
        },
        {
            "positions": [
                0.44873320328347693,
                -1.861812191391878,
                1.4029109930702912,
                -1.0283411977928936,
                0.9926194380138449,
                -2.165402359622702
            ]
        },
        {
            "positions": [
                0.5324400739035802,
                -1.8496141514891737,
                1.2306446194877227,
                -1.1010946180096612,
                0.9919923756718025,
                -2.1193502402036857
            ]
        },
        {
            "positions": [
                0.6161469445236833,
                -1.8374161115864698,
                1.0583782459051543,
                -1.1738480382264287,
                0.9913653133297602,
                -2.0732981207846692
            ]
        },
        {
            "positions": [
                0.6998538151437868,
                -1.8252180716837656,
                0.8861118723225858,
                -1.2466014584431964,
                0.990738250987718,
                -2.027246001365653
            ]
        },
        {
            "positions": [
                0.7835606857638899,
                -1.8130200317810614,
                0.7138454987400173,
                -1.319354878659964,
                0.9901111886456756,
                -1.9811938819466364
            ]
        },
        {
            "positions": [
                0.8672675563839931,
                -1.8008219918783575,
                0.5415791251574489,
                -1.3921082988767317,
                0.9894841263036332,
                -1.93514176252762
            ]
        },
        {
            "positions": [
                0.9509744270040965,
                -1.7886239519756533,
                0.3693127515748804,
                -1.4648617190934994,
                0.988857063961591,
                -1.8890896431086035
            ]
        },
        {
            "positions": [
                1.0346812976241995,
                -1.776425912072949,
                0.19704637799231195,
                -1.537615139310267,
                0.9882300016195487,
                -1.843037523689587
            ]
        },
        {
            "positions": [
                1.1183881682443029,
                -1.7642278721702451,
                0.024780004409743484,
                -1.6103685595270347,
                0.9876029392775063,
                -1.7969854042705706
            ]
        },
        {
            "positions": [
                1.202095038864406,
                -1.752029832267541,
                -0.14748636917282498,
                -1.6831219797438022,
                0.986975876935464,
                -1.7509332848515542
            ]
        },
        {
            "positions": [
                1.2858019094845092,
                -1.739831792364837,
                -0.31975274275539345,
                -1.7558753999605698,
                0.9863488145934217,
                -1.7048811654325378
            ]
        },
        {
            "positions": [
                1.3695087801046126,
                -1.7276337524621328,
                -0.4920191163379619,
                -1.8286288201773375,
                0.9857217522513794,
                -1.658829046013521
            ]
        },
        {
            "positions": [
                1.4532156507247158,
                -1.7154357125594286,
                -0.6642854899205304,
                -1.9013822403941052,
                0.985094689909337,
                -1.612776926594505
            ]
        },
        {
            "positions": [
                1.5369225213448192,
                -1.7032376726567247,
                -0.8365518635030988,
                -1.9741356606108729,
                0.9844676275672948,
                -1.5667248071754882
            ]
        },
        {
            "positions": [
                1.6206293919649224,
                -1.6910396327540205,
                -1.0088182370856673,
                -2.0468890808276408,
                0.9838405652252524,
                -1.5206726877564718
            ]
        },
        {
            "positions": [
                1.7043362625850256,
                -1.6788415928513163,
                -1.1810846106682358,
                -2.119642501044408,
                0.9832135028832101,
                -1.4746205683374554
            ]
        },
        {
            "positions": [
                1.788043133205129,
                -1.6666435529486123,
                -1.3533509842508042,
                -2.1923959212611757,
                0.9825864405411678,
                -1.428568448918439
            ]
        },
        {
            "positions": [
                1.8717500038252322,
                -1.6544455130459081,
                -1.5256173578333727,
                -2.2651493414779433,
                0.9819593781991255,
                -1.3825163294994225
            ]
        },
        {
            "positions": [
                1.9426085037120493,
                -1.6988290581777183,
                -1.5443804710602254,
                -2.2863774438397524,
                0.8640580651002252,
                -1.4996585180805801
            ]
        },
        {
            "positions": [
                2.0134670035988664,
                -1.7432126033095283,
                -1.563143584287078,
                -2.307605546201561,
                0.7461567520013249,
                -1.616800706661738
            ]
        },
        {
            "positions": [
                2.084325503485684,
                -1.7875961484413385,
                -1.5819066975139306,
                -2.32883364856337,
                0.6282554389024246,
                -1.7339428952428957
            ]
        },
        {
            "positions": [
                2.155184003372501,
                -1.8319796935731485,
                -1.6006698107407833,
                -2.3500617509251787,
                0.5103541258035243,
                -1.8510850838240533
            ]
        },
        {
            "positions": [
                2.2260425032593183,
                -1.8763632387049587,
                -1.619432923967636,
                -2.3712898532869877,
                0.3924528127046242,
                -1.968227272405211
            ]
        },
        {
            "positions": [
                2.2969010031461354,
                -1.9207467838367687,
                -1.6381960371944886,
                -2.3925179556487963,
                0.2745514996057239,
                -2.0853694609863687
            ]
        },
        {
            "positions": [
                2.3677595030329526,
                -1.9651303289685789,
                -1.6569591504213412,
                -2.4137460580106054,
                0.1566501865068236,
                -2.2025116495675263
            ]
        },
        {
            "positions": [
                2.43861800291977,
                -2.009513874100389,
                -1.6757222636481939,
                -2.434974160372414,
                0.03874887340792321,
                -2.3196538381486844
            ]
        },
        {
            "positions": [
                2.5094765028065873,
                -2.0538974192321993,
                -1.6944853768750465,
                -2.456202262734223,
                -0.07915243969097696,
                -2.436796026729842
            ]
        },
        {
            "positions": [
                2.5803350026934044,
                -2.098280964364009,
                -1.7132484901018992,
                -2.4774303650960317,
                -0.19705375278987713,
                -2.5539382153109997
            ]
        },
        {
            "positions": [
                2.6511935025802216,
                -2.142664509495819,
                -1.7320116033287518,
                -2.4986584674578407,
                -0.31495506588877753,
                -2.6710804038921574
            ]
        },
        {
            "positions": [
                2.6555412073505935,
                -2.165387486435959,
                -1.688487012791153,
                -2.4869215530874067,
                -0.39420013195661485,
                -2.8977079764299045
            ]
        },
        {
            "positions": [
                2.6598889121209655,
                -2.1881104633760993,
                -1.6449624222535544,
                -2.4751846387169727,
                -0.4734451980244522,
                -3.1243355489676516
            ]
        }
    ]
}