{
    "goal": {
        "global_pose": {
            "orientation": {
                "w": 0.5084816217422485,
                "x": -0.49083608388900757,
                "y": 0.5182115435600281,
                "z": -0.4816462993621826
            },
            "position": {
                "x": 0.5540239810943604,
                "y": 0.030875300988554955,
                "z": 0.16403168439865112
            }
        },
        "name": "move_to_storage_A"
    },
    "id": "RRTConnect_move_to_storage_A_26",
    "joint_names": [
        "shoulder_pan_joint",
        "shoulder_lift_joint",
        "elbow_joint",
        "wrist_1_joint",
        "wrist_2_joint",
        "wrist_3_joint"
    ],
    "metrics": {
        "cart_traj_len": 0.3524553026946129,
        "distance_elbow_joint": 0.453672940937619,
        "distance_shoulder_lift_joint": 0.235107163169064,
        "distance_shoulder_pan_joint": 0.46101637498610765,
        "distance_wrist_1_joint": 0.25809122947536134,
        "distance_wrist_2_joint": 1.097732681430998,
        "distance_wrist_3_joint": 0.10921553355339464,
        "smoothness": 0.0,
        "time": 0.028859538,
        "traj_len": 1.6170454302685948,
        "weighted_distance": 2.0467268751755063
    },
    "planner": "RRTConnect",
    "start": {
        "state": {
            "elbow_joint": 1.9715463870305268,
            "shoulder_lift_joint": -1.1394903361783484,
            "shoulder_pan_joint": 0.12281147578464417,
            "wrist_1_joint": -0.7804599489681411,
            "wrist_2_joint": 0.12958660307563738,
            "wrist_3_joint": -3.1924946282119055
        }
    },
    "waypoints": [
        {
            "positions": [
                0.12281147578464417,
                -1.1394903361783484,
                1.9715463870305268,
                -0.7804599489681411,
                0.12958660307563738,
                -3.1924946282119055
            ]
        },
        {
            "positions": [
                0.05695199364377165,
                -1.173077073773929,
                2.036356807164472,
                -0.8173301246074784,
                0.28640555756577996,
                -3.176892409132849
            ]
        },
        {
            "positions": [
                -0.008907488497100866,
                -1.2066638113695096,
                2.101167227298418,
                -0.8542003002468157,
                0.4432245120559225,
                -3.161290190053793
            ]
        },
        {
            "positions": [
                -0.07476697063797337,
                -1.2402505489650901,
                2.1659776474323635,
                -0.8910704758861531,
                0.6000434665460651,
                -3.1456879709747363
            ]
        },
        {
            "positions": [
                -0.1406264527788459,
                -1.2738372865606706,
                2.230788067566309,
                -0.9279406515254904,
                0.7568624210362077,
                -3.13008575189568
            ]
        },
        {
            "positions": [
                -0.20648593491971845,
                -1.3074240241562514,
                2.2955984877002544,
                -0.9648108271648277,
                0.9136813755263503,
                -3.1144835328166236
            ]
        },
        {
            "positions": [
                -0.2723454170605909,
                -1.3410107617518319,
                2.3604089078342003,
                -1.0016810028041652,
                1.0705003300164928,
                -3.0988813137375675
            ]
        },
        {
            "positions": [
                -0.33820489920146346,
                -1.3745974993474124,
                2.4252193279681458,
                -1.0385511784435024,
                1.2273192845066354,
                -3.083279094658511
            ]
        }
    ]
}