{
    "goal": {
        "global_pose": {
            "orientation": {
                "w": 0.7031023502349854,
                "x": -0.7110244035720825,
                "y": 0.007748599164187908,
                "z": 0.005598929710686207
            },
            "position": {
                "x": 0.11585023208521307,
                "y": 0.44412534475326537,
                "z": 0.3711530566215515
            }
        },
        "name": "move_to_auspresseinheit_A"
    },
    "id": "RRTConnect_move_to_auspresseinheit_A_3",
    "joint_names": [
        "shoulder_pan_joint",
        "shoulder_lift_joint",
        "elbow_joint",
        "wrist_1_joint",
        "wrist_2_joint",
        "wrist_3_joint"
    ],
    "metrics": {
        "cart_traj_len": 2.7760519178442573,
        "distance_elbow_joint": 2.464767056303465,
        "distance_shoulder_lift_joint": 0.8357326653088275,
        "distance_shoulder_pan_joint": 2.654683615373435,
        "distance_wrist_1_joint": 0.7356231287843789,
        "distance_wrist_2_joint": 1.8558599141731191,
        "distance_wrist_3_joint": 3.050194086204336,
        "smoothness": 0.9183488159151659,
        "time": 0.112772885,
        "traj_len": 3.405416342556011,
        "weighted_distance": 4.504301464324266
    },
    "planner": "RRTConnect",
    "start": {
        "state": {
            "elbow_joint": 2.422574709923281,
            "shoulder_lift_joint": -1.3736533754116391,
            "shoulder_pan_joint": -0.33786336945926293,
            "wrist_1_joint": -1.0288603412921917,
            "wrist_2_joint": 1.2330224858903978,
            "wrist_3_joint": -3.094022268022082
        }
    },
    "waypoints": [
        {
            "positions": [
                -0.33786336945926293,
                -1.3736533754116391,
                2.422574709923281,
                -1.0288603412921917,
                1.2330224858903978,
                -3.094022268022082
            ]
        },
        {
            "positions": [
                -0.22732024339466067,
                -1.4164436585117277,
                2.344533042598438,
                -1.004185233752184,
                1.2746702245610109,
                -2.999989963286114
            ]
        },
        {
            "positions": [
                -0.11677711733005838,
                -1.4592339416118165,
                2.2664913752735947,
                -0.9795101262121759,
                1.3163179632316238,
                -2.9059576585501454
            ]
        },
        {
            "positions": [
                -0.006233991265456096,
                -1.502024224711905,
                2.188449707948751,
                -0.9548350186721681,
                1.3579657019022369,
                -2.8119253538141775
            ]
        },
        {
            "positions": [
                0.10430913479914616,
                -1.544814507811994,
                2.110408040623908,
                -0.9301599111321602,
                1.3996134405728498,
                -2.717893049078209
            ]
        },
        {
            "positions": [
                0.21485226086374848,
                -1.5876047909120825,
                2.0323663732990647,
                -0.9054848035921523,
                1.4412611792434629,
                -2.623860744342241
            ]
        },
        {
            "positions": [
                0.32539538692835074,
                -1.630395074012171,
                1.9543247059742215,
                -0.8808096960521445,
                1.482908917914076,
                -2.5298284396062725
            ]
        },
        {
            "positions": [
                0.435938512992953,
                -1.67318535711226,
                1.8762830386493783,
                -0.8561345885121366,
                1.5245566565846889,
                -2.435796134870304
            ]
        },
        {
            "positions": [
                0.5464816390575553,
                -1.7159756402123485,
                1.7982413713245349,
                -0.8314594809721287,
                1.566204395255302,
                -2.341763830134336
            ]
        },
        {
            "positions": [
                0.6570247651221575,
                -1.758765923312437,
                1.7201997039996915,
                -0.8067843734321208,
                1.607852133925915,
                -2.247731525398368
            ]
        },
        {
            "positions": [
                0.7675678911867598,
                -1.801556206412526,
                1.6421580366748483,
                -0.7821092658921129,
                1.649499872596528,
                -2.1536992206623995
            ]
        },
        {
            "positions": [
                0.878111017251362,
                -1.8443464895126145,
                1.564116369350005,
                -0.7574341583521051,
                1.691147611267141,
                -2.0596669159264316
            ]
        },
        {
            "positions": [
                0.9886541433159644,
                -1.887136772612703,
                1.486074702025162,
                -0.7327590508120972,
                1.7327953499377542,
                -1.965634611190463
            ]
        },
        {
            "positions": [
                1.0991972693805665,
                -1.9299270557127919,
                1.4080330347003185,
                -0.7080839432720893,
                1.774443088608367,
                -1.8716023064544949
            ]
        },
        {
            "positions": [
                1.2097403954451689,
                -1.9727173388128805,
                1.3299913673754753,
                -0.6834088357320816,
                1.8160908272789802,
                -1.7775700017185265
            ]
        },
        {
            "positions": [
                1.320283521509771,
                -2.015507621912969,
                1.2519497000506319,
                -0.6587337281920737,
                1.8577385659495933,
                -1.6835376969825584
            ]
        },
        {
            "positions": [
                1.4308266475743734,
                -2.058297905013058,
                1.1739080327257887,
                -0.6340586206520658,
                1.8993863046202062,
                -1.58950539224659
            ]
        },
        {
            "positions": [
                1.3587356494148788,
                -2.0503655568051062,
                1.2778526855504515,
                -0.6079768174943712,
                1.8211635220651625,
                -1.6878547763280471
            ]
        },
        {
            "positions": [
                1.286644651255384,
                -2.042433208597155,
                1.381797338375114,
                -0.5818950143366765,
                1.7429407395101189,
                -1.786204160409504
            ]
        },
        {
            "positions": [
                1.2145536530958894,
                -2.0345008603892034,
                1.485741991199777,
                -0.5558132111789819,
                1.6647179569550754,
                -1.8845535444909611
            ]
        },
        {
            "positions": [
                1.1424626549363945,
                -2.0265685121812522,
                1.5896866440244395,
                -0.5297314080212872,
                1.5864951744000317,
                -1.9829029285724182
            ]
        },
        {
            "positions": [
                1.0703716567769,
                -2.0186361639733006,
                1.6936312968491023,
                -0.5036496048635926,
                1.508272391844988,
                -2.0812523126538753
            ]
        },
        {
            "positions": [
                0.9982806586174053,
                -2.010703815765349,
                1.797575949673765,
                -0.47756780170589797,
                1.4300496092899444,
                -2.1796016967353324
            ]
        },
        {
            "positions": [
                0.9261896604579106,
                -2.0027714675573978,
                1.9015206024984277,
                -0.45148599854820326,
                1.351826826734901,
                -2.277951080816789
            ]
        },
        {
            "positions": [
                0.8540986622984159,
                -1.9948391193494461,
                2.0054652553230907,
                -0.42540419539050867,
                1.2736040441798573,
                -2.3763004648982466
            ]
        },
        {
            "positions": [
                0.7820076641389213,
                -1.9869067711414947,
                2.1094099081477533,
                -0.39932239223281396,
                1.1953812616248136,
                -2.4746498489797033
            ]
        },
        {
            "positions": [
                0.7099166659794266,
                -1.9789744229335433,
                2.213354560972416,
                -0.37324058907511937,
                1.11715847906977,
                -2.5729992330611604
            ]
        },
        {
            "positions": [
                0.6715755964886567,
                -1.9628398015547355,
                2.2756800942093,
                -0.37719182447148225,
                1.0336647263073022,
                -2.6805151203329913
            ]
        },
        {
            "positions": [
                0.6332345269978867,
                -1.9467051801759276,
                2.338005627446184,
                -0.3811430598678451,
                0.9501709735448346,
                -2.788031007604822
            ]
        },
        {
            "positions": [
                0.6251324745820511,
                -1.9350389544072346,
                2.3722230284876895,
                -0.39332682393932994,
                0.8831969696309032,
                -2.877248236633107
            ]
        },
        {
            "positions": [
                0.6652821872557886,
                -1.921124361856442,
                2.3811157201597255,
                -0.4232853947908779,
                0.7965435894038995,
                -3.0062154196542705
            ]
        },
        {
            "positions": [
                0.7054318999295259,
                -1.9072097693056491,
                2.3900084118317615,
                -0.45324396564242586,
                0.7098902091768957,
                -3.135182602675434
            ]
        }
    ]
}