{
    "goal": {
        "global_pose": {
            "orientation": {
                "w": 0.7031023502349854,
                "x": -0.7110244035720825,
                "y": 0.007748599164187908,
                "z": 0.005598929710686207
            },
            "position": {
                "x": 0.11585023208521307,
                "y": 0.44412534475326537,
                "z": 0.3711530566215515
            }
        },
        "name": "move_to_auspresseinheit_A"
    },
    "id": "RRTConnect_move_to_auspresseinheit_A_93",
    "joint_names": [
        "shoulder_pan_joint",
        "shoulder_lift_joint",
        "elbow_joint",
        "wrist_1_joint",
        "wrist_2_joint",
        "wrist_3_joint"
    ],
    "metrics": {
        "cart_traj_len": 0.7504159965843047,
        "distance_elbow_joint": 0.32100231830599,
        "distance_shoulder_lift_joint": 0.5374266648925936,
        "distance_shoulder_pan_joint": 1.0482561334212495,
        "distance_wrist_1_joint": 1.9121016995739242,
        "distance_wrist_2_joint": 1.2470006454386908,
        "distance_wrist_3_joint": 3.7767552499818446,
        "smoothness": 1.0306546838658928,
        "time": 0.058789603999999995,
        "traj_len": 2.973641321950967,
        "weighted_distance": 4.4221211603246005
    },
    "planner": "RRTConnect",
    "start": {
        "state": {
            "elbow_joint": 2.422574709923281,
            "shoulder_lift_joint": -1.3736533754116391,
            "shoulder_pan_joint": -0.33786336945926293,
            "wrist_1_joint": -1.0288603412921917,
            "wrist_2_joint": 1.2330224858903978,
            "wrist_3_joint": -3.094022268022082
        }
    },
    "waypoints": [
        {
            "positions": [
                -0.33786336945926293,
                -1.3736533754116391,
                2.422574709923281,
                -1.0288603412921917,
                1.2330224858903978,
                -3.094022268022082
            ]
        },
        {
            "positions": [
                -0.32271802637226416,
                -1.4141425694642502,
                2.4067172685544906,
                -0.9166498886623156,
                1.2664669619107547,
                -2.9238392910467548
            ]
        },
        {
            "positions": [
                -0.3075726832852654,
                -1.4546317635168613,
                2.3908598271857007,
                -0.8044394360324395,
                1.2999114379311119,
                -2.753656314071427
            ]
        },
        {
            "positions": [
                -0.29242734019826666,
                -1.4951209575694722,
                2.3750023858169103,
                -0.6922289834025634,
                1.3333559139514688,
                -2.5834733370961
            ]
        },
        {
            "positions": [
                -0.2772819971112679,
                -1.5356101516220833,
                2.35914494444812,
                -0.5800185307726873,
                1.3668003899718257,
                -2.4132903601207722
            ]
        },
        {
            "positions": [
                -0.2621366540242691,
                -1.5760993456746943,
                2.3432875030793294,
                -0.4678080781428111,
                1.4002448659921827,
                -2.243107383145445
            ]
        },
        {
            "positions": [
                -0.24699131093727034,
                -1.6165885397273054,
                2.3274300617105395,
                -0.35559762551293506,
                1.4336893420125398,
                -2.0729244061701175
            ]
        },
        {
            "positions": [
                -0.23184596785027156,
                -1.6570777337799165,
                2.311572620341749,
                -0.2433871728830589,
                1.4671338180328968,
                -1.90274142919479
            ]
        },
        {
            "positions": [
                -0.21670062476327281,
                -1.6975669278325274,
                2.2957151789729586,
                -0.13117672025318272,
                1.5005782940532537,
                -1.7325584522194624
            ]
        },
        {
            "positions": [
                -0.20155528167627404,
                -1.7380561218851387,
                2.279857737604168,
                -0.018966267623306443,
                1.5340227700736109,
                -1.5623754752441348
            ]
        },
        {
            "positions": [
                -0.1864099385892753,
                -1.7785453159377496,
                2.2640002962353782,
                0.0932441850065695,
                1.5674672460939678,
                -1.3921924982688076
            ]
        },
        {
            "positions": [
                -0.17126459550227652,
                -1.8190345099903606,
                2.248142854866588,
                0.20545463763644567,
                1.6009117221143248,
                -1.22200952129348
            ]
        },
        {
            "positions": [
                -0.09779314888025462,
                -1.82670497084985,
                2.2603570601373626,
                0.1489724109160051,
                1.5276524380130945,
                -1.3807380632312503
            ]
        },
        {
            "positions": [
                -0.024321702258232714,
                -1.8343754317093393,
                2.2725712654081374,
                0.09249018419556457,
                1.4543931539118642,
                -1.5394666051690205
            ]
        },
        {
            "positions": [
                0.049149744363789216,
                -1.8420458925688288,
                2.284785470678912,
                0.036007957475124,
                1.381133869810634,
                -1.6981951471067906
            ]
        },
        {
            "positions": [
                0.12262119098581109,
                -1.849716353428318,
                2.296999675949687,
                -0.020474269245316534,
                1.3078745857094036,
                -1.8569236890445606
            ]
        },
        {
            "positions": [
                0.19609263760783308,
                -1.8573868142878074,
                2.3092138812204617,
                -0.0769564959657571,
                1.2346153016081731,
                -2.015652230982331
            ]
        },
        {
            "positions": [
                0.26956408422985495,
                -1.8650572751472967,
                2.3214280864912364,
                -0.13343872268619766,
                1.1613560175069428,
                -2.174380772920101
            ]
        },
        {
            "positions": [
                0.34303553085187694,
                -1.872727736006786,
                2.3336422917620108,
                -0.18992094940663823,
                1.0880967334057123,
                -2.3331093148578717
            ]
        },
        {
            "positions": [
                0.4165069774738987,
                -1.8803981968662753,
                2.3458564970327855,
                -0.24640317612707874,
                1.0148374493044823,
                -2.4918378567956414
            ]
        },
        {
            "positions": [
                0.4899784240959207,
                -1.8880686577257646,
                2.3580707023035603,
                -0.3028854028475193,
                0.9415781652032519,
                -2.6505663987334116
            ]
        },
        {
            "positions": [
                0.5634498707179427,
                -1.8957391185852541,
                2.370284907574335,
                -0.35936762956795987,
                0.8683188811020215,
                -2.809294940671182
            ]
        },
        {
            "positions": [
                0.6369213173399644,
                -1.9034095794447434,
                2.38249911284511,
                -0.41584985628840043,
                0.7950595970007913,
                -2.968023482608952
            ]
        },
        {
            "positions": [
                0.7103927639619865,
                -1.9110800403042327,
                2.3947133181158846,
                -0.472332083008841,
                0.7218003128995609,
                -3.126752024546722
            ]
        }
    ]
}