{
    "goal": {
        "global_pose": {
            "orientation": {
                "w": 0.7047431468963623,
                "x": -0.7094548344612122,
                "y": 0.0024358443915843964,
                "z": -0.0022348060738295317
            },
            "position": {
                "x": 0.6094750761985779,
                "y": 0.3671506643295288,
                "z": 0.19426114857196808
            }
        },
        "name": "move_to_magneteinheit_A"
    },
    "id": "RRTConnect_move_to_magneteinheit_A_42",
    "joint_names": [
        "shoulder_pan_joint",
        "shoulder_lift_joint",
        "elbow_joint",
        "wrist_1_joint",
        "wrist_2_joint",
        "wrist_3_joint"
    ],
    "metrics": {
        "cart_traj_len": 2.0637300212022733,
        "distance_elbow_joint": 3.8790860553747626,
        "distance_shoulder_lift_joint": 1.0559282694721717,
        "distance_shoulder_pan_joint": 1.2404802804939812,
        "distance_wrist_1_joint": 1.1435843310265863,
        "distance_wrist_2_joint": 1.4410578111637666,
        "distance_wrist_3_joint": 1.907967881924478,
        "smoothness": 6.026924996220558e-16,
        "time": 0.080546099,
        "traj_len": 3.266206458486013,
        "weighted_distance": 4.131426210825392
    },
    "planner": "RRTConnect",
    "start": {
        "state": {
            "elbow_joint": -1.919643507792019,
            "shoulder_lift_joint": -0.07675430207160344,
            "shoulder_pan_joint": -1.1188671864651873,
            "wrist_1_joint": 0.42560062535961957,
            "wrist_2_joint": 1.5706038300724876,
            "wrist_3_joint": 1.1188968870953055
        }
    },
    "waypoints": [
        {
            "positions": [
                -1.1188671864651873,
                -0.07675430207160344,
                -1.919643507792019,
                0.42560062535961957,
                1.5706038300724876,
                1.1188968870953055
            ]
        },
        {
            "positions": [
                -1.0729234723728176,
                -0.11586275649649869,
                -1.77597365388925,
                0.38324565013641265,
                1.5172313185479036,
                1.1895623642036195
            ]
        },
        {
            "positions": [
                -1.026979758280448,
                -0.15497121092139393,
                -1.6323037999864811,
                0.3408906749132058,
                1.4638588070233198,
                1.2602278413119334
            ]
        },
        {
            "positions": [
                -0.9810360441880783,
                -0.19407966534628918,
                -1.4886339460837121,
                0.2985356996899989,
                1.4104862954987358,
                1.3308933184202476
            ]
        },
        {
            "positions": [
                -0.9350923300957087,
                -0.23318811977118442,
                -1.3449640921809431,
                0.25618072446679196,
                1.3571137839741518,
                1.4015587955285616
            ]
        },
        {
            "positions": [
                -0.889148616003339,
                -0.27229657419607967,
                -1.2012942382781742,
                0.21382574924358508,
                1.3037412724495678,
                1.4722242726368755
            ]
        },
        {
            "positions": [
                -0.8432049019109693,
                -0.3114050286209749,
                -1.0576243843754052,
                0.1714707740203782,
                1.2503687609249838,
                1.5428897497451897
            ]
        },
        {
            "positions": [
                -0.7972611878185997,
                -0.35051348304587016,
                -0.9139545304726362,
                0.12911579879717128,
                1.1969962494004,
                1.6135552268535036
            ]
        },
        {
            "positions": [
                -0.75131747372623,
                -0.3896219374707654,
                -0.7702846765698672,
                0.08676082357396436,
                1.143623737875816,
                1.6842207039618176
            ]
        },
        {
            "positions": [
                -0.7053737596338603,
                -0.42873039189566065,
                -0.6266148226670982,
                0.044405848350757504,
                1.090251226351232,
                1.7548861810701315
            ]
        },
        {
            "positions": [
                -0.6594300455414907,
                -0.4678388463205559,
                -0.48294496876432924,
                0.00205087312755059,
                1.0368787148266483,
                1.8255516581784454
            ]
        },
        {
            "positions": [
                -0.613486331449121,
                -0.5069473007454511,
                -0.33927511486156026,
                -0.040304102095656325,
                0.9835062033020642,
                1.8962171352867596
            ]
        },
        {
            "positions": [
                -0.5675426173567513,
                -0.5460557551703464,
                -0.19560526095879127,
                -0.08265907731886318,
                0.9301336917774803,
                1.9668826123950736
            ]
        },
        {
            "positions": [
                -0.5215989032643816,
                -0.5851642095952416,
                -0.05193540705602229,
                -0.12501405254207015,
                0.8767611802528963,
                2.0375480895033875
            ]
        },
        {
            "positions": [
                -0.475655189172012,
                -0.6242726640201368,
                0.0917344468467467,
                -0.167369027765277,
                0.8233886687283124,
                2.1082135666117017
            ]
        },
        {
            "positions": [
                -0.42971147507964225,
                -0.6633811184450322,
                0.23540430074951568,
                -0.20972400298848398,
                0.7700161572037283,
                2.1788790437200154
            ]
        },
        {
            "positions": [
                -0.3837677609872726,
                -0.7024895728699274,
                0.37907415465228467,
                -0.25207897821169084,
                0.7166436456791445,
                2.2495445208283296
            ]
        },
        {
            "positions": [
                -0.33782404689490286,
                -0.7415980272948226,
                0.5227440085550537,
                -0.2944339534348978,
                0.6632711341545604,
                2.3202099979366437
            ]
        },
        {
            "positions": [
                -0.2918803328025332,
                -0.7807064817197178,
                0.6664138624578226,
                -0.33678892865810456,
                0.6098986226299765,
                2.3908754750449575
            ]
        },
        {
            "positions": [
                -0.24593661871016348,
                -0.8198149361446132,
                0.8100837163605916,
                -0.37914390388131153,
                0.5565261111053925,
                2.4615409521532716
            ]
        },
        {
            "positions": [
                -0.19999290461779395,
                -0.8589233905695084,
                0.9537535702633606,
                -0.4214988791045184,
                0.5031535995808087,
                2.532206429261586
            ]
        },
        {
            "positions": [
                -0.1540491905254242,
                -0.8980318449944036,
                1.0974234241661296,
                -0.46385385432772536,
                0.44978108805622474,
                2.6028719063698995
            ]
        },
        {
            "positions": [
                -0.10810547643305468,
                -0.9371402994192988,
                1.2410932780688986,
                -0.5062088295509322,
                0.39640857653164074,
                2.6735373834782132
            ]
        },
        {
            "positions": [
                -0.062161762340684934,
                -0.9762487538441942,
                1.3847631319716676,
                -0.5485638047741392,
                0.34303606500705675,
                2.744202860586528
            ]
        },
        {
            "positions": [
                -0.016218048248315187,
                -1.0153572082690894,
                1.5284329858744365,
                -0.5909187799973459,
                0.28966355348247297,
                2.8148683376948416
            ]
        },
        {
            "positions": [
                0.02972566584405456,
                -1.0544656626939846,
                1.6721028397772055,
                -0.633273755220553,
                0.23629104195788897,
                2.8855338148031557
            ]
        },
        {
            "positions": [
                0.07566937993642409,
                -1.0935741171188798,
                1.8157726936799745,
                -0.6756287304437598,
                0.18291853043330497,
                2.9561992919114695
            ]
        },
        {
            "positions": [
                0.1216130940287938,
                -1.1326825715437752,
                1.9594425475827433,
                -0.7179837056669667,
                0.12954601890872092,
                3.0268647690197836
            ]
        }
    ]
}