{
    "goal": {
        "global_pose": {
            "orientation": {
                "w": 0.7031023502349854,
                "x": -0.7110244035720825,
                "y": 0.007748599164187908,
                "z": 0.005598929710686207
            },
            "position": {
                "x": 0.11585023208521307,
                "y": 0.44412534475326537,
                "z": 0.3711530566215515
            }
        },
        "name": "move_to_auspresseinheit_A"
    },
    "id": "RRTConnect_move_to_auspresseinheit_A_122",
    "joint_names": [
        "shoulder_pan_joint",
        "shoulder_lift_joint",
        "elbow_joint",
        "wrist_1_joint",
        "wrist_2_joint",
        "wrist_3_joint"
    ],
    "metrics": {
        "cart_traj_len": 0.8640806212670615,
        "distance_elbow_joint": 0.8502297117642623,
        "distance_shoulder_lift_joint": 0.5333419329383073,
        "distance_shoulder_pan_joint": 1.0482122258702957,
        "distance_wrist_1_joint": 3.1140047789479106,
        "distance_wrist_2_joint": 0.7871854688653717,
        "distance_wrist_3_joint": 2.8230030306688176,
        "smoothness": 1.0362457442736295,
        "time": 0.081089647,
        "traj_len": 3.0258845234170733,
        "weighted_distance": 4.324716575477043
    },
    "planner": "RRTConnect",
    "start": {
        "state": {
            "elbow_joint": 2.422574709923281,
            "shoulder_lift_joint": -1.3736533754116391,
            "shoulder_pan_joint": -0.33786336945926293,
            "wrist_1_joint": -1.0288603412921917,
            "wrist_2_joint": 1.2330224858903978,
            "wrist_3_joint": -3.094022268022082
        }
    },
    "waypoints": [
        {
            "positions": [
                -0.33786336945926293,
                -1.3736533754116391,
                2.422574709923281,
                -1.0288603412921917,
                1.2330224858903978,
                -3.094022268022082
            ]
        },
        {
            "positions": [
                -0.31263145346763327,
                -1.4042941877055815,
                2.3886805079758413,
                -0.8869627461772186,
                1.1830629825474286,
                -2.9871540879589142
            ]
        },
        {
            "positions": [
                -0.2873995374760036,
                -1.434934999999524,
                2.354786306028402,
                -0.7450651510622455,
                1.1331034792044594,
                -2.880285907895747
            ]
        },
        {
            "positions": [
                -0.262167621484374,
                -1.4655758122934663,
                2.3208921040809622,
                -0.6031675559472722,
                1.0831439758614905,
                -2.773417727832579
            ]
        },
        {
            "positions": [
                -0.23693570549274431,
                -1.4962166245874087,
                2.286997902133523,
                -0.4612699608322991,
                1.0331844725185213,
                -2.666549547769411
            ]
        },
        {
            "positions": [
                -0.21170378950111465,
                -1.5268574368813512,
                2.253103700186083,
                -0.31937236571732586,
                0.9832249691755521,
                -2.559681367706243
            ]
        },
        {
            "positions": [
                -0.18647187350948502,
                -1.5574982491752936,
                2.2192094982386434,
                -0.17747477060235273,
                0.9332654658325831,
                -2.452813187643075
            ]
        },
        {
            "positions": [
                -0.16123995751785536,
                -1.588139061469236,
                2.185315296291204,
                -0.03557717548737971,
                0.883305962489614,
                -2.3459450075799078
            ]
        },
        {
            "positions": [
                -0.1360080415262257,
                -1.6187798737631782,
                2.1514210943437644,
                0.10632041962759353,
                0.8333464591466448,
                -2.23907682751674
            ]
        },
        {
            "positions": [
                -0.11077612553459606,
                -1.6494206860571208,
                2.1175268923963246,
                0.24821801474256655,
                0.7833869558036758,
                -2.132208647453572
            ]
        },
        {
            "positions": [
                -0.08554420954296638,
                -1.680061498351063,
                2.0836326904488853,
                0.39011560985754,
                0.7334274524607066,
                -2.0253404673904045
            ]
        },
        {
            "positions": [
                -0.06031229355133677,
                -1.7107023106450054,
                2.0497384885014456,
                0.532013204972513,
                0.6834679491177376,
                -1.9184722873272366
            ]
        },
        {
            "positions": [
                -0.03508037755970711,
                -1.741343122938948,
                2.0158442865540063,
                0.6739108000874863,
                0.6335084457747684,
                -1.8116041072640687
            ]
        },
        {
            "positions": [
                -0.009848461568077463,
                -1.7719839352328903,
                1.9819500846065665,
                0.8158083952024594,
                0.5835489424317993,
                -1.704735927200901
            ]
        },
        {
            "positions": [
                0.05562402188456894,
                -1.78425769642535,
                2.0191869106472526,
                0.7004142095248903,
                0.5960682083778697,
                -1.8350738080961406
            ]
        },
        {
            "positions": [
                0.12109650533721535,
                -1.7965314576178095,
                2.0564237366879388,
                0.5850200238473213,
                0.6085874743239399,
                -1.9654116889913804
            ]
        },
        {
            "positions": [
                0.18656898878986172,
                -1.8088052188102692,
                2.093660562728625,
                0.4696258381697523,
                0.6211067402700102,
                -2.09574956988662
            ]
        },
        {
            "positions": [
                0.25204147224250817,
                -1.821078980002729,
                2.130897388769311,
                0.3542316524921832,
                0.6336260062160806,
                -2.2260874507818595
            ]
        },
        {
            "positions": [
                0.31751395569515456,
                -1.8333527411951887,
                2.168134214809997,
                0.23883746681461415,
                0.6461452721621508,
                -2.3564253316770993
            ]
        },
        {
            "positions": [
                0.38298643914780095,
                -1.8456265023876481,
                2.2053710408506833,
                0.12344328113704517,
                0.6586645381082211,
                -2.486763212572339
            ]
        },
        {
            "positions": [
                0.4484589226004474,
                -1.8579002635801078,
                2.24260786689137,
                0.008049095459476074,
                0.6711838040542915,
                -2.617101093467579
            ]
        },
        {
            "positions": [
                0.5139314060530937,
                -1.8701740247725676,
                2.279844692932056,
                -0.10734509021809302,
                0.6837030700003617,
                -2.7474389743628187
            ]
        },
        {
            "positions": [
                0.5794038895057402,
                -1.8824477859650273,
                2.317081518972742,
                -0.22273927589566223,
                0.696222335946432,
                -2.877776855258058
            ]
        },
        {
            "positions": [
                0.6448763729583865,
                -1.8947215471574868,
                2.354318345013428,
                -0.3381334615732311,
                0.7087416018925022,
                -3.008114736153298
            ]
        },
        {
            "positions": [
                0.710348856411033,
                -1.9069953083499465,
                2.3915551710541143,
                -0.45352764725080025,
                0.7212608678385726,
                -3.1384526170485376
            ]
        }
    ]
}