{
    "goal": {
        "global_pose": {
            "orientation": {
                "w": -0.00223480608172531,
                "x": 0.0024358444001904467,
                "y": 0.7094548369677653,
                "z": -0.704743149386269
            },
            "position": {
                "x": 0.6205249238014221,
                "y": -0.6371506643295288,
                "z": 0.19426114857196808
            }
        },
        "name": "move_to_magneteinheit_B"
    },
    "id": "RRTConnect_move_to_magneteinheit_B_87",
    "joint_names": [
        "shoulder_pan_joint",
        "shoulder_lift_joint",
        "elbow_joint",
        "wrist_1_joint",
        "wrist_2_joint",
        "wrist_3_joint"
    ],
    "metrics": {
        "cart_traj_len": 1.4536378525612128,
        "distance_elbow_joint": 0.7254052172173835,
        "distance_shoulder_lift_joint": 1.244828089303009,
        "distance_shoulder_pan_joint": 1.621814757916313,
        "distance_wrist_1_joint": 2.619924720920905,
        "distance_wrist_2_joint": 2.9380377935118225,
        "distance_wrist_3_joint": 3.1538263652835354,
        "smoothness": 2.6914497627957446e-16,
        "time": 0.050031205,
        "traj_len": 3.5076825603456436,
        "weighted_distance": 4.916243707257887
    },
    "planner": "RRTConnect",
    "start": {
        "state": {
            "elbow_joint": 2.39358713078474,
            "shoulder_lift_joint": -1.908514104345545,
            "shoulder_pan_joint": 0.7066247066606129,
            "wrist_1_joint": -0.4678290933515497,
            "wrist_2_joint": 0.7096259083745334,
            "wrist_3_joint": -3.1358149277392293
        }
    },
    "waypoints": [
        {
            "positions": [
                0.7066247066606129,
                -1.908514104345545,
                2.39358713078474,
                -0.4678290933515497,
                0.7096259083745334,
                -3.1358149277392293
            ]
        },
        {
            "positions": [
                0.6559429954757282,
                -1.869613226554826,
                2.3709182177466968,
                -0.38595644582277144,
                0.617812227327289,
                -3.037257853824119
            ]
        },
        {
            "positions": [
                0.6052612842908434,
                -1.8307123487641068,
                2.3482493047086535,
                -0.3040837982939931,
                0.5259985462800445,
                -2.9387007799090084
            ]
        },
        {
            "positions": [
                0.5545795731059586,
                -1.7918114709733879,
                2.32558039167061,
                -0.22221115076521486,
                0.4341848652328001,
                -2.840143705993898
            ]
        },
        {
            "positions": [
                0.5038978619210739,
                -1.7529105931826687,
                2.3029114786325673,
                -0.1403385032364366,
                0.3423711841855556,
                -2.7415866320787874
            ]
        },
        {
            "positions": [
                0.45321615073618904,
                -1.7140097153919498,
                2.280242565594524,
                -0.05846585570765833,
                0.25055750313831116,
                -2.643029558163677
            ]
        },
        {
            "positions": [
                0.4025344395513043,
                -1.6751088376012306,
                2.2575736525564807,
                0.023406791821119988,
                0.15874382209106674,
                -2.5444724842485664
            ]
        },
        {
            "positions": [
                0.3518527283664195,
                -1.6362079598105117,
                2.2349047395184374,
                0.1052794393498982,
                0.06693014104382222,
                -2.445915410333456
            ]
        },
        {
            "positions": [
                0.3011710171815347,
                -1.5973070820197925,
                2.212235826480394,
                0.18715208687867652,
                -0.02488354000342219,
                -2.3473583364183455
            ]
        },
        {
            "positions": [
                0.2504893059966499,
                -1.5584062042290736,
                2.1895669134423508,
                0.26902473440745484,
                -0.1166972210506666,
                -2.248801262503235
            ]
        },
        {
            "positions": [
                0.19980759481176513,
                -1.5195053264383547,
                2.166898000404308,
                0.35089738193623304,
                -0.20851090209791112,
                -2.1502441885881245
            ]
        },
        {
            "positions": [
                0.1491258836268804,
                -1.4806044486476355,
                2.1442290873662646,
                0.43277002946501136,
                -0.30032458314515564,
                -2.051687114673014
            ]
        },
        {
            "positions": [
                0.09844417244199566,
                -1.4417035708569166,
                2.1215601743282213,
                0.5146426769937897,
                -0.39213826419239994,
                -1.9531300407579035
            ]
        },
        {
            "positions": [
                0.04776246125711081,
                -1.4028026930661976,
                2.098891261290178,
                0.5965153245225681,
                -0.48395194523964447,
                -1.854572966842793
            ]
        },
        {
            "positions": [
                -0.002919249927773926,
                -1.3639018152754785,
                2.0762223482521347,
                0.6783879720513462,
                -0.575765626286889,
                -1.7560158929276826
            ]
        },
        {
            "positions": [
                -0.053600961112658774,
                -1.3250009374847593,
                2.0535534352140914,
                0.7602606195801245,
                -0.6675793073341333,
                -1.657458819012572
            ]
        },
        {
            "positions": [
                -0.10428267229754351,
                -1.2861000596940404,
                2.0308845221760485,
                0.8421332671089028,
                -0.7593929883813778,
                -1.5589017450974616
            ]
        },
        {
            "positions": [
                -0.15496438348242825,
                -1.2471991819033215,
                2.0082156091380052,
                0.9240059146376811,
                -0.8512066694286223,
                -1.4603446711823511
            ]
        },
        {
            "positions": [
                -0.2056460946673131,
                -1.2082983041126023,
                1.985546696099962,
                1.0058785621664594,
                -0.9430203504758666,
                -1.3617875972672406
            ]
        },
        {
            "positions": [
                -0.25632780585219783,
                -1.1693974263218831,
                1.9628777830619186,
                1.0877512096952375,
                -1.0348340315231113,
                -1.2632305233521302
            ]
        },
        {
            "positions": [
                -0.3070095170370827,
                -1.1304965485311642,
                1.9402088700238753,
                1.1696238572240159,
                -1.1266477125703558,
                -1.1646734494370197
            ]
        },
        {
            "positions": [
                -0.3576912282219674,
                -1.0915956707404453,
                1.917539956985832,
                1.2514965047527942,
                -1.2184613936175999,
                -1.0661163755219092
            ]
        },
        {
            "positions": [
                -0.40837293940685215,
                -1.0526947929497261,
                1.894871043947789,
                1.3333691522815725,
                -1.3102750746648448,
                -0.9675593016067987
            ]
        },
        {
            "positions": [
                -0.4590546505917369,
                -1.0137939151590072,
                1.8722021309097456,
                1.4152417998103508,
                -1.402088755712089,
                -0.8690022276916882
            ]
        },
        {
            "positions": [
                -0.5097363617766216,
                -0.9748930373682881,
                1.8495332178717026,
                1.4971144473391291,
                -1.4939024367593334,
                -0.7704451537765777
            ]
        },
        {
            "positions": [
                -0.5604180729615066,
                -0.9359921595775691,
                1.8268643048336592,
                1.5789870948679074,
                -1.585716117806578,
                -0.6718880798614673
            ]
        },
        {
            "positions": [
                -0.6110997841463913,
                -0.8970912817868502,
                1.804195391795616,
                1.6608597423966858,
                -1.6775297988538225,
                -0.5733310059463568
            ]
        },
        {
            "positions": [
                -0.6617814953312761,
                -0.858190403996131,
                1.7815264787575726,
                1.7427323899254636,
                -1.769343479901067,
                -0.4747739320312463
            ]
        },
        {
            "positions": [
                -0.7124632065161608,
                -0.8192895262054121,
                1.7588575657195296,
                1.824605037454242,
                -1.8611571609483115,
                -0.3762168581161358
            ]
        },
        {
            "positions": [
                -0.7631449177010455,
                -0.7803886484146929,
                1.7361886526814863,
                1.9064776849830203,
                -1.9529708419955556,
                -0.27765978420102533
            ]
        },
        {
            "positions": [
                -0.8138266288859305,
                -0.741487770623974,
                1.7135197396434432,
                1.9883503325117986,
                -2.0447845230428,
                -0.17910271028591485
            ]
        },
        {
            "positions": [
                -0.8645083400708152,
                -0.7025868928332548,
                1.6908508266053999,
                2.070222980040577,
                -2.1365982040900446,
                -0.08054563637080436
            ]
        },
        {
            "positions": [
                -0.9151900512556999,
                -0.6636860150425359,
                1.6681819135673566,
                2.1520956275693552,
                -2.228411885137289,
                0.01801143754430616
            ]
        }
    ]
}