{
    "goal": {
        "global_pose": {
            "orientation": {
                "w": 0.7031023502349854,
                "x": -0.7110244035720825,
                "y": 0.007748599164187908,
                "z": 0.005598929710686207
            },
            "position": {
                "x": 0.11585023208521307,
                "y": 0.44412534475326537,
                "z": 0.3711530566215515
            }
        },
        "name": "move_to_auspresseinheit_A"
    },
    "id": "RRTConnect_move_to_auspresseinheit_A_124",
    "joint_names": [
        "shoulder_pan_joint",
        "shoulder_lift_joint",
        "elbow_joint",
        "wrist_1_joint",
        "wrist_2_joint",
        "wrist_3_joint"
    ],
    "metrics": {
        "cart_traj_len": 3.233523917660188,
        "distance_elbow_joint": 1.4749168156449355,
        "distance_shoulder_lift_joint": 2.1182264838630056,
        "distance_shoulder_pan_joint": 5.973637672609791,
        "distance_wrist_1_joint": 5.74104508729149,
        "distance_wrist_2_joint": 6.643708528173114,
        "distance_wrist_3_joint": 4.39941187282361,
        "smoothness": 0.5310950314784315,
        "time": 0.21316771,
        "traj_len": 5.133317295901936,
        "weighted_distance": 6.894528542367331
    },
    "planner": "RRTConnect",
    "start": {
        "state": {
            "elbow_joint": 2.422574709923281,
            "shoulder_lift_joint": -1.3736533754116391,
            "shoulder_pan_joint": -0.33786336945926293,
            "wrist_1_joint": -1.0288603412921917,
            "wrist_2_joint": 1.2330224858903978,
            "wrist_3_joint": -3.094022268022082
        }
    },
    "waypoints": [
        {
            "positions": [
                -0.33786336945926293,
                -1.3736533754116391,
                2.422574709923281,
                -1.0288603412921917,
                1.2330224858903978,
                -3.094022268022082
            ]
        },
        {
            "positions": [
                -0.33930851572096876,
                -1.4243839267372287,
                2.347990053065415,
                -0.9882623983755622,
                1.1312285856545294,
                -2.973279042612145
            ]
        },
        {
            "positions": [
                -0.3407536619826746,
                -1.475114478062818,
                2.2734053962075484,
                -0.9476644554589327,
                1.0294346854186611,
                -2.852535817202208
            ]
        },
        {
            "positions": [
                -0.3421988082443804,
                -1.5258450293884076,
                2.1988207393496824,
                -0.9070665125423032,
                0.9276407851827927,
                -2.7317925917922707
            ]
        },
        {
            "positions": [
                -0.3436439545060863,
                -1.5765755807139972,
                2.1242360824918163,
                -0.8664685696256738,
                0.8258468849469244,
                -2.6110493663823338
            ]
        },
        {
            "positions": [
                -0.34508910076779215,
                -1.6273061320395867,
                2.0496514256339498,
                -0.8258706267090441,
                0.724052984711056,
                -2.4903061409723968
            ]
        },
        {
            "positions": [
                -0.346534247029498,
                -1.678036683365176,
                1.9750667687760837,
                -0.7852726837924147,
                0.6222590844751876,
                -2.36956291556246
            ]
        },
        {
            "positions": [
                -0.23682741068058344,
                -1.7099847778986816,
                1.997662127904046,
                -0.6944968229505885,
                0.5294181859523458,
                -2.3239077726143873
            ]
        },
        {
            "positions": [
                -0.12712057433166887,
                -1.7419328724321872,
                2.0202574870320085,
                -0.6037209621087622,
                0.43657728742950397,
                -2.2782526296663153
            ]
        },
        {
            "positions": [
                -0.017413737982754307,
                -1.7738809669656928,
                2.0428528461599713,
                -0.5129451012669359,
                0.34373638890666214,
                -2.2325974867182428
            ]
        },
        {
            "positions": [
                0.09229309836616023,
                -1.8058290614991983,
                2.0654482052879337,
                -0.4221692404251098,
                0.2508954903838203,
                -2.1869423437701707
            ]
        },
        {
            "positions": [
                0.20199993471507482,
                -1.8377771560327039,
                2.088043564415896,
                -0.3313933795832836,
                0.15805459186097848,
                -2.1412872008220982
            ]
        },
        {
            "positions": [
                0.31170677106398936,
                -1.8697252505662094,
                2.1106389235438585,
                -0.24061751874145731,
                0.06521369333813665,
                -2.0956320578740257
            ]
        },
        {
            "positions": [
                0.4214136074129039,
                -1.9016733450997152,
                2.133234282671821,
                -0.1498416578996311,
                -0.027627205184705184,
                -2.0499769149259537
            ]
        },
        {
            "positions": [
                0.5311204437618184,
                -1.9336214396332205,
                2.1558296417997838,
                -0.0590657970578049,
                -0.12046810370754701,
                -2.004321771977881
            ]
        },
        {
            "positions": [
                0.640827280110733,
                -1.9655695341667263,
                2.178425000927746,
                0.0317100637840213,
                -0.21330900223038884,
                -1.958666629029809
            ]
        },
        {
            "positions": [
                0.7505341164596476,
                -1.9975176287002316,
                2.2010203600557086,
                0.12248592462584751,
                -0.3061499007532307,
                -1.9130114860817367
            ]
        },
        {
            "positions": [
                0.860240952808562,
                -2.0294657232337374,
                2.223615719183671,
                0.21326178546767371,
                -0.3989907992760726,
                -1.8673563431336644
            ]
        },
        {
            "positions": [
                0.9699477891574767,
                -2.0614138177672428,
                2.2462110783116334,
                0.30403764630950003,
                -0.49183169779891434,
                -1.8217012001855921
            ]
        },
        {
            "positions": [
                1.0796546255063912,
                -2.0933619123007485,
                2.268806437439596,
                0.3948135071513261,
                -0.584672596321756,
                -1.7760460572375196
            ]
        },
        {
            "positions": [
                1.189361461855306,
                -2.125310006834254,
                2.2914017965675586,
                0.48558936799315244,
                -0.677513494844598,
                -1.7303909142894476
            ]
        },
        {
            "positions": [
                1.29906829820422,
                -2.1572581013677596,
                2.313997155695521,
                0.5763652288349785,
                -0.7703543933674399,
                -1.684735771341375
            ]
        },
        {
            "positions": [
                1.4087751345531347,
                -2.1892061959012654,
                2.3365925148234834,
                0.6671410896768049,
                -0.8631952918902817,
                -1.6390806283933028
            ]
        },
        {
            "positions": [
                1.5184819709020494,
                -2.2211542904347708,
                2.359187873951446,
                0.7579169505186312,
                -0.9560361904131234,
                -1.5934254854452305
            ]
        },
        {
            "positions": [
                1.628188807250964,
                -2.253102384968276,
                2.381783233079408,
                0.8486928113604573,
                -1.0488770889359653,
                -1.547770342497158
            ]
        },
        {
            "positions": [
                1.7378956435998787,
                -2.285050479501782,
                2.4043785922073706,
                0.9394686722022836,
                -1.1417179874588073,
                -1.502115199549086
            ]
        },
        {
            "positions": [
                1.8476024799487933,
                -2.3169985740352876,
                2.4269739513353334,
                1.0302445330441097,
                -1.234558885981649,
                -1.4564600566010135
            ]
        },
        {
            "positions": [
                1.9573093162977075,
                -2.348946668568793,
                2.449569310463296,
                1.121020393885936,
                -1.3273997845044907,
                -1.4108049136529413
            ]
        },
        {
            "positions": [
                2.067016152646622,
                -2.3808947631022988,
                2.4721646695912582,
                1.211796254727762,
                -1.4202406830273329,
                -1.365149770704869
            ]
        },
        {
            "positions": [
                2.176722988995537,
                -2.412842857635804,
                2.4947600287192206,
                1.3025721155695882,
                -1.5130815815501746,
                -1.3194946277567967
            ]
        },
        {
            "positions": [
                2.2864298253444515,
                -2.44479095216931,
                2.517355387847183,
                1.3933479764114147,
                -1.6059224800730163,
                -1.2738394848087244
            ]
        },
        {
            "positions": [
                2.396136661693366,
                -2.476739046702815,
                2.539950746975146,
                1.4841238372532408,
                -1.698763378595858,
                -1.228184341860652
            ]
        },
        {
            "positions": [
                2.5058434980422803,
                -2.508687141236321,
                2.5625461061031083,
                1.574899698095067,
                -1.7916042771186997,
                -1.1825291989125797
            ]
        },
        {
            "positions": [
                2.615550334391195,
                -2.5406352357698263,
                2.5851414652310707,
                1.6656755589368935,
                -1.884445175641542,
                -1.1368740559645074
            ]
        },
        {
            "positions": [
                2.7252571707401096,
                -2.572583330303332,
                2.607736824359033,
                1.7564514197787195,
                -1.9772860741643836,
                -1.0912189130164351
            ]
        },
        {
            "positions": [
                2.8349640070890243,
                -2.6045314248368374,
                2.6303321834869955,
                1.8472272806205456,
                -2.070126972687225,
                -1.0455637700683629
            ]
        },
        {
            "positions": [
                2.9446708434379385,
                -2.636479519370343,
                2.6529275426149583,
                1.9380031414623717,
                -2.1629678712100677,
                -0.9999086271202904
            ]
        },
        {
            "positions": [
                3.054377679786853,
                -2.668427613903849,
                2.6755229017429207,
                2.0287790023041983,
                -2.2558087697329094,
                -0.9542534841722181
            ]
        },
        {
            "positions": [
                3.164084516135768,
                -2.7003757084373543,
                2.698118260870883,
                2.1195548631460244,
                -2.348649668255751,
                -0.9085983412241458
            ]
        },
        {
            "positions": [
                3.079451825381482,
                -2.673082461856758,
                2.6876231787190576,
                2.030153832702808,
                -2.2430622070824078,
                -0.9849427531560656
            ]
        },
        {
            "positions": [
                2.9948191346271957,
                -2.645789215276162,
                2.677128096567232,
                1.940752802259592,
                -2.137474745909064,
                -1.0612871650879854
            ]
        },
        {
            "positions": [
                2.91018644387291,
                -2.618495968695566,
                2.6666330144154067,
                1.8513517718163757,
                -2.0318872847357206,
                -1.137631577019905
            ]
        },
        {
            "positions": [
                2.825553753118624,
                -2.5912027221149696,
                2.656137932263581,
                1.7619507413731594,
                -1.926299823562377,
                -1.213975988951825
            ]
        },
        {
            "positions": [
                2.740921062364338,
                -2.563909475534373,
                2.6456428501117557,
                1.672549710929943,
                -1.8207123623890333,
                -1.2903204008837446
            ]
        },
        {
            "positions": [
                2.656288371610052,
                -2.536616228953777,
                2.63514776795993,
                1.583148680486727,
                -1.71512490121569,
                -1.3666648128156644
            ]
        },
        {
            "positions": [
                2.5716556808557662,
                -2.5093229823731806,
                2.6246526858081047,
                1.4937476500435105,
                -1.6095374400423461,
                -1.443009224747584
            ]
        },
        {
            "positions": [
                2.4870229901014804,
                -2.4820297357925845,
                2.6141576036562792,
                1.4043466196002943,
                -1.5039499788690027,
                -1.519353636679504
            ]
        },
        {
            "positions": [
                2.4023902993471946,
                -2.4547364892119883,
                2.6036625215044538,
                1.314945589157078,
                -1.3983625176956591,
                -1.5956980486114236
            ]
        },
        {
            "positions": [
                2.3177576085929084,
                -2.427443242631392,
                2.5931674393526283,
                1.2255445587138616,
                -1.2927750565223155,
                -1.6720424605433433
            ]
        },
        {
            "positions": [
                2.2331249178386225,
                -2.400149996050796,
                2.582672357200803,
                1.1361435282706456,
                -1.1871875953489721,
                -1.7483868724752631
            ]
        },
        {
            "positions": [
                2.1484922270843363,
                -2.3728567494701993,
                2.5721772750489773,
                1.0467424978274293,
                -1.0816001341756285,
                -1.824731284407183
            ]
        },
        {
            "positions": [
                2.0638595363300505,
                -2.345563502889603,
                2.561682192897152,
                0.9573414673842131,
                -0.9760126730022849,
                -1.9010756963391027
            ]
        },
        {
            "positions": [
                1.9792268455757647,
                -2.318270256309007,
                2.5511871107453263,
                0.8679404369409967,
                -0.8704252118289413,
                -1.9774201082710223
            ]
        },
        {
            "positions": [
                1.8945941548214786,
                -2.290977009728411,
                2.540692028593501,
                0.7785394064977804,
                -0.7648377506555977,
                -2.053764520202942
            ]
        },
        {
            "positions": [
                1.8099614640671928,
                -2.2636837631478146,
                2.530196946441676,
                0.6891383760545642,
                -0.6592502894822543,
                -2.1301089321348616
            ]
        },
        {
            "positions": [
                1.725328773312907,
                -2.2363905165672184,
                2.5197018642898503,
                0.5997373456113482,
                -0.5536628283089109,
                -2.2064533440667815
            ]
        },
        {
            "positions": [
                1.640696082558621,
                -2.2090972699866223,
                2.509206782138025,
                0.5103363151681317,
                -0.44807536713556706,
                -2.2827977559987014
            ]
        },
        {
            "positions": [
                1.5560633918043352,
                -2.181804023406026,
                2.4987116999861994,
                0.4209352847249155,
                -0.34248790596222367,
                -2.359142167930621
            ]
        },
        {
            "positions": [
                1.471430701050049,
                -2.15451077682543,
                2.488216617834374,
                0.331534254281699,
                -0.23690044478887984,
                -2.435486579862541
            ]
        },
        {
            "positions": [
                1.386798010295763,
                -2.1272175302448337,
                2.4777215356825484,
                0.242133223838483,
                -0.13131298361553645,
                -2.5118309917944606
            ]
        },
        {
            "positions": [
                1.3021653195414773,
                -2.0999242836642376,
                2.467226453530723,
                0.15273219339526678,
                -0.02572552244219306,
                -2.58817540372638
            ]
        },
        {
            "positions": [
                1.2175326287871913,
                -2.072631037083641,
                2.4567313713788974,
                0.06333116295205032,
                0.07986193873115077,
                -2.6645198156583003
            ]
        },
        {
            "positions": [
                1.1328999380329052,
                -2.0453377905030448,
                2.446236289227072,
                -0.026069867491165688,
                0.18544939990449416,
                -2.7408642275902197
            ]
        },
        {
            "positions": [
                1.0482672472786194,
                -2.0180445439224486,
                2.4357412070752464,
                -0.1154708979343817,
                0.29103686107783755,
                -2.8172086395221396
            ]
        },
        {
            "positions": [
                0.9636345565243336,
                -1.9907512973418524,
                2.425246124923421,
                -0.20487192837759816,
                0.3966243222511814,
                -2.8935530514540595
            ]
        },
        {
            "positions": [
                0.8790018657700478,
                -1.9634580507612562,
                2.4147510427715955,
                -0.2942729588208146,
                0.5022117834245248,
                -2.969897463385979
            ]
        },
        {
            "positions": [
                0.7943691750157615,
                -1.9361648041806598,
                2.40425596061977,
                -0.38367398926403107,
                0.6077992445978686,
                -3.046241875317899
            ]
        },
        {
            "positions": [
                0.7097364842614755,
                -1.9088715576000637,
                2.3937608784679445,
                -0.4730750197072469,
                0.7133867057712121,
                -3.1225862872498187
            ]
        }
    ]
}