{
    "goal": {
        "global_pose": {
            "orientation": {
                "w": 0.7031023502349854,
                "x": -0.7110244035720825,
                "y": 0.007748599164187908,
                "z": 0.005598929710686207
            },
            "position": {
                "x": 0.11585023208521307,
                "y": 0.44412534475326537,
                "z": 0.3711530566215515
            }
        },
        "name": "move_to_auspresseinheit_A"
    },
    "id": "RRTConnect_move_to_auspresseinheit_A_81",
    "joint_names": [
        "shoulder_pan_joint",
        "shoulder_lift_joint",
        "elbow_joint",
        "wrist_1_joint",
        "wrist_2_joint",
        "wrist_3_joint"
    ],
    "metrics": {
        "cart_traj_len": 0.671170051423116,
        "distance_elbow_joint": 0.12373323321435459,
        "distance_shoulder_lift_joint": 0.5377439789078657,
        "distance_shoulder_pan_joint": 1.0452527462162111,
        "distance_wrist_1_joint": 0.5462622722760446,
        "distance_wrist_2_joint": 1.0573665854442602,
        "distance_wrist_3_joint": 0.6667728222642211,
        "smoothness": 0.9359567191698807,
        "time": 0.132856652,
        "traj_len": 1.9942747148582507,
        "weighted_distance": 2.6295068245912017
    },
    "planner": "RRTConnect",
    "start": {
        "state": {
            "elbow_joint": 2.422574709923281,
            "shoulder_lift_joint": -1.3736533754116391,
            "shoulder_pan_joint": -0.33786336945926293,
            "wrist_1_joint": -1.0288603412921917,
            "wrist_2_joint": 1.2330224858903978,
            "wrist_3_joint": -3.094022268022082
        }
    },
    "waypoints": [
        {
            "positions": [
                -0.33786336945926293,
                -1.3736533754116391,
                2.422574709923281,
                -1.0288603412921917,
                1.2330224858903978,
                -3.094022268022082
            ]
        },
        {
            "positions": [
                -0.2460209114815826,
                -1.4316731533725362,
                2.429546516794684,
                -0.9751634058657881,
                1.1199748265253626,
                -3.0488573915077057
            ]
        },
        {
            "positions": [
                -0.15417845350390225,
                -1.4896929313334333,
                2.436518323666087,
                -0.9214664704393846,
                1.0069271671603275,
                -3.0036925149933293
            ]
        },
        {
            "positions": [
                -0.06233599552622193,
                -1.5477127092943301,
                2.44349013053749,
                -0.8677695350129809,
                0.8938795077952925,
                -2.958527638478953
            ]
        },
        {
            "positions": [
                0.029506462451458437,
                -1.6057324872552272,
                2.4504619374088925,
                -0.8140725995865773,
                0.7808318484302574,
                -2.913362761964577
            ]
        },
        {
            "positions": [
                0.1213489204291388,
                -1.6637522652161243,
                2.4574337442802956,
                -0.7603756641601738,
                0.6677841890652222,
                -2.8681978854502006
            ]
        },
        {
            "positions": [
                0.21319137840681907,
                -1.7217720431770214,
                2.4644055511516982,
                -0.7066787287337701,
                0.5547365297001872,
                -2.823033008935824
            ]
        },
        {
            "positions": [
                0.3050338363844995,
                -1.7797918211379185,
                2.4713773580231013,
                -0.6529817933073665,
                0.44168887033515203,
                -2.777868132421448
            ]
        },
        {
            "positions": [
                0.40562272147761164,
                -1.812693204433315,
                2.4526447117444676,
                -0.6103858622345616,
                0.5081971128074056,
                -2.8655228040873446
            ]
        },
        {
            "positions": [
                0.5062116065707238,
                -1.8455945877287117,
                2.433912065465834,
                -0.5677899311617568,
                0.5747053552796593,
                -2.9531774757532414
            ]
        },
        {
            "positions": [
                0.606800491663836,
                -1.8784959710241083,
                2.4151794191872007,
                -0.5251940000889519,
                0.641213597751913,
                -3.0408321474191378
            ]
        },
        {
            "positions": [
                0.7073893767569481,
                -1.9113973543195049,
                2.396446772908567,
                -0.48259806901614705,
                0.7077218402241666,
                -3.1284868190850346
            ]
        }
    ]
}