{
    "goal": {
        "global_pose": {
            "orientation": {
                "w": 0.7031023502349854,
                "x": -0.7110244035720825,
                "y": 0.007748599164187908,
                "z": 0.005598929710686207
            },
            "position": {
                "x": 0.11585023208521307,
                "y": 0.44412534475326537,
                "z": 0.3711530566215515
            }
        },
        "name": "move_to_auspresseinheit_A"
    },
    "id": "RRTConnect_move_to_auspresseinheit_A_145",
    "joint_names": [
        "shoulder_pan_joint",
        "shoulder_lift_joint",
        "elbow_joint",
        "wrist_1_joint",
        "wrist_2_joint",
        "wrist_3_joint"
    ],
    "metrics": {
        "cart_traj_len": 3.6235160289926003,
        "distance_elbow_joint": 3.6297999040233573,
        "distance_shoulder_lift_joint": 0.634927300405256,
        "distance_shoulder_pan_joint": 3.5464098457334017,
        "distance_wrist_1_joint": 3.7254669892958754,
        "distance_wrist_2_joint": 0.5122156659781589,
        "distance_wrist_3_joint": 4.0568752309314124,
        "smoothness": 0.6940041151714701,
        "time": 0.129149012,
        "traj_len": 4.013190119638923,
        "weighted_distance": 5.334522289156202
    },
    "planner": "RRTConnect",
    "start": {
        "state": {
            "elbow_joint": 2.422574709923281,
            "shoulder_lift_joint": -1.3736533754116391,
            "shoulder_pan_joint": -0.33786336945926293,
            "wrist_1_joint": -1.0288603412921917,
            "wrist_2_joint": 1.2330224858903978,
            "wrist_3_joint": -3.094022268022082
        }
    },
    "waypoints": [
        {
            "positions": [
                -0.33786336945926293,
                -1.3736533754116391,
                2.422574709923281,
                -1.0288603412921917,
                1.2330224858903978,
                -3.094022268022082
            ]
        },
        {
            "positions": [
                -0.2646711759263384,
                -1.3817950662198166,
                2.303116802394693,
                -1.0561510326097312,
                1.2299275809966836,
                -2.9581174076785297
            ]
        },
        {
            "positions": [
                -0.19147898239341382,
                -1.3899367570279944,
                2.183658894866105,
                -1.0834417239272705,
                1.2268326761029693,
                -2.822212547334977
            ]
        },
        {
            "positions": [
                -0.11828678886048924,
                -1.3980784478361719,
                2.0642009873375167,
                -1.11073241524481,
                1.2237377712092552,
                -2.686307686991424
            ]
        },
        {
            "positions": [
                -0.04509459532756471,
                -1.4062201386443494,
                1.9447430798089287,
                -1.1380231065623494,
                1.220642866315541,
                -2.5504028266478715
            ]
        },
        {
            "positions": [
                0.028097598205359897,
                -1.414361829452527,
                1.8252851722803407,
                -1.1653137978798886,
                1.2175479614218268,
                -2.414497966304319
            ]
        },
        {
            "positions": [
                0.10128979173828447,
                -1.4225035202607046,
                1.7058272647517525,
                -1.1926044891974281,
                1.2144530565281126,
                -2.2785931059607663
            ]
        },
        {
            "positions": [
                0.20881361502720797,
                -1.4355870196334577,
                1.6202581634050537,
                -1.1293942606739742,
                1.1997198725989033,
                -2.186411586570908
            ]
        },
        {
            "positions": [
                0.3163374383161314,
                -1.4486705190062108,
                1.5346890620583546,
                -1.0661840321505205,
                1.1849866886696943,
                -2.0942300671810496
            ]
        },
        {
            "positions": [
                0.4238612616050549,
                -1.4617540183789637,
                1.4491199607116558,
                -1.0029738036270666,
                1.170253504740485,
                -2.0020485477911913
            ]
        },
        {
            "positions": [
                0.5313850848939784,
                -1.4748375177517168,
                1.363550859364957,
                -0.9397635751036129,
                1.1555203208112759,
                -1.9098670284013328
            ]
        },
        {
            "positions": [
                0.6389089081829019,
                -1.48792101712447,
                1.277981758018258,
                -0.8765533465801589,
                1.1407871368820666,
                -1.8176855090114743
            ]
        },
        {
            "positions": [
                0.7464327314718253,
                -1.501004516497223,
                1.192412656671559,
                -0.8133431180567052,
                1.1260539529528573,
                -1.725503989621616
            ]
        },
        {
            "positions": [
                0.8539565547607488,
                -1.5140880158699759,
                1.1068435553248603,
                -0.7501328895332513,
                1.1113207690236482,
                -1.6333224702317577
            ]
        },
        {
            "positions": [
                0.9614803780496723,
                -1.527171515242729,
                1.0212744539781613,
                -0.6869226610097975,
                1.0965875850944389,
                -1.5411409508418994
            ]
        },
        {
            "positions": [
                1.0690042013385959,
                -1.540255014615482,
                0.9357053526314624,
                -0.6237124324863437,
                1.0818544011652298,
                -1.448959431452041
            ]
        },
        {
            "positions": [
                1.1765280246275194,
                -1.5533385139882352,
                0.8501362512847634,
                -0.5605022039628899,
                1.0671212172360205,
                -1.3567779120621823
            ]
        },
        {
            "positions": [
                1.2840518479164427,
                -1.566422013360988,
                0.7645671499380646,
                -0.49729197543943604,
                1.0523880333068112,
                -1.2645963926723243
            ]
        },
        {
            "positions": [
                1.3915756712053662,
                -1.5795055127337412,
                0.6789980485913656,
                -0.4340817469159822,
                1.037654849377602,
                -1.1724148732824657
            ]
        },
        {
            "positions": [
                1.4990994944942897,
                -1.5925890121064943,
                0.5934289472446667,
                -0.37087151839252835,
                1.0229216654483928,
                -1.0802333538926074
            ]
        },
        {
            "positions": [
                1.5374028215667832,
                -1.6231110461750953,
                0.7215326767188932,
                -0.2610302363932566,
                1.0141305768326503,
                -1.1577820824326044
            ]
        },
        {
            "positions": [
                1.575706148639277,
                -1.6536330802436963,
                0.8496364061931199,
                -0.15118895439398483,
                1.005339488216908,
                -1.2353308109726013
            ]
        },
        {
            "positions": [
                1.6140094757117707,
                -1.6841551143122973,
                0.9777401356673465,
                -0.04134767239471304,
                0.9965483996011655,
                -1.3128795395125983
            ]
        },
        {
            "positions": [
                1.6523128027842642,
                -1.7146771483808982,
                1.1058438651415732,
                0.06849360960455869,
                0.987757310985423,
                -1.390428268052595
            ]
        },
        {
            "positions": [
                1.6906161298567577,
                -1.7451991824494992,
                1.2339475946157998,
                0.17833489160383048,
                0.9789662223696806,
                -1.467976996592592
            ]
        },
        {
            "positions": [
                1.7289194569292514,
                -1.7757212165181002,
                1.3620513240900265,
                0.28817617360310227,
                0.9701751337539382,
                -1.545525725132589
            ]
        },
        {
            "positions": [
                1.7672227840017452,
                -1.806243250586701,
                1.4901550535642532,
                0.39801745560237406,
                0.9613840451381956,
                -1.6230744536725858
            ]
        },
        {
            "positions": [
                1.8055261110742387,
                -1.836765284655302,
                1.6182587830384794,
                0.5078587376016457,
                0.9525929565224532,
                -1.7006231822125826
            ]
        },
        {
            "positions": [
                1.8438294381467322,
                -1.867287318723903,
                1.746362512512706,
                0.6177000196009175,
                0.9438018679067107,
                -1.7781719107525795
            ]
        },
        {
            "positions": [
                1.882132765219226,
                -1.897809352792504,
                1.8744662419869331,
                0.7275413016001893,
                0.9350107792909683,
                -1.8557206392925765
            ]
        },
        {
            "positions": [
                1.9204360922917196,
                -1.928331386861105,
                2.0025699714611593,
                0.837382583599461,
                0.9262196906752258,
                -1.9332693678325734
            ]
        },
        {
            "positions": [
                1.9587394193642131,
                -1.958853420929706,
                2.130673700935386,
                0.9472238655987328,
                0.9174286020594834,
                -2.0108180963725704
            ]
        },
        {
            "positions": [
                1.8471269256794112,
                -1.9544447039706672,
                2.1543547629436386,
                0.820330449798206,
                0.8998421521549095,
                -2.1103027283432136
            ]
        },
        {
            "positions": [
                1.7355144319946092,
                -1.9500359870116284,
                2.178035824951891,
                0.6934370339976792,
                0.8822557022503354,
                -2.2097873603138565
            ]
        },
        {
            "positions": [
                1.6239019383098072,
                -1.9456272700525894,
                2.2017168869601442,
                0.5665436181971526,
                0.8646692523457615,
                -2.3092719922844998
            ]
        },
        {
            "positions": [
                1.5122894446250053,
                -1.9412185530935506,
                2.225397948968397,
                0.43965020239662567,
                0.8470828024411876,
                -2.408756624255143
            ]
        },
        {
            "positions": [
                1.4006769509402033,
                -1.9368098361345119,
                2.2490790109766494,
                0.31275678659609896,
                0.8294963525366137,
                -2.5082412562257863
            ]
        },
        {
            "positions": [
                1.2890644572554013,
                -1.932401119175473,
                2.272760072984902,
                0.18586337079557225,
                0.8119099026320397,
                -2.607725888196429
            ]
        },
        {
            "positions": [
                1.1774519635705993,
                -1.9279924022164343,
                2.2964411349931546,
                0.058969954995045426,
                0.7943234527274657,
                -2.7072105201670724
            ]
        },
        {
            "positions": [
                1.0658394698857974,
                -1.9235836852573955,
                2.320122197001407,
                -0.0679234608054815,
                0.7767370028228918,
                -2.8066951521377157
            ]
        },
        {
            "positions": [
                0.9542269762009954,
                -1.9191749682983565,
                2.3438032590096602,
                -0.19481687660600833,
                0.7591505529183178,
                -2.906179784108359
            ]
        },
        {
            "positions": [
                0.8426144825161934,
                -1.9147662513393178,
                2.367484321017913,
                -0.3217102924065349,
                0.7415641030137439,
                -3.005664416079002
            ]
        },
        {
            "positions": [
                0.7310019888313914,
                -1.910357534380279,
                2.3911653830261654,
                -0.44860370820706186,
                0.72397765310917,
                -3.105149048049645
            ]
        },
        {
            "positions": [
                0.7089323624542864,
                -1.9091261660425167,
                2.3940830885894093,
                -0.47467062099574525,
                0.7208068199122388,
                -3.123319670694546
            ]
        }
    ]
}