{
    "goal": {
        "global_pose": {
            "orientation": {
                "w": 0.7047431468963623,
                "x": -0.7094548344612122,
                "y": 0.0024358443915843964,
                "z": -0.0022348060738295317
            },
            "position": {
                "x": 0.6094750761985779,
                "y": 0.3671506643295288,
                "z": 0.19426114857196808
            }
        },
        "name": "move_to_magneteinheit_A"
    },
    "id": "RRTConnect_move_to_magneteinheit_A_73",
    "joint_names": [
        "shoulder_pan_joint",
        "shoulder_lift_joint",
        "elbow_joint",
        "wrist_1_joint",
        "wrist_2_joint",
        "wrist_3_joint"
    ],
    "metrics": {
        "cart_traj_len": 1.8789056800955575,
        "distance_elbow_joint": 3.9078738906801083,
        "distance_shoulder_lift_joint": 0.6993972802171579,
        "distance_shoulder_pan_joint": 1.2409480181590822,
        "distance_wrist_1_joint": 1.4846821059629023,
        "distance_wrist_2_joint": 1.693407343289189,
        "distance_wrist_3_joint": 1.1087567282133928,
        "smoothness": 7.23700933328383e-16,
        "time": 0.072672774,
        "traj_len": 3.1835617422192137,
        "weighted_distance": 3.9408968867759926
    },
    "planner": "RRTConnect",
    "start": {
        "state": {
            "elbow_joint": -1.919643507792019,
            "shoulder_lift_joint": -0.07675430207160344,
            "shoulder_pan_joint": -1.1188671864651873,
            "wrist_1_joint": 0.42560062535961957,
            "wrist_2_joint": 1.5706038300724876,
            "wrist_3_joint": 1.1188968870953055
        }
    },
    "waypoints": [
        {
            "positions": [
                -1.1188671864651873,
                -0.07675430207160344,
                -1.919643507792019,
                0.42560062535961957,
                1.5706038300724876,
                1.1188968870953055
            ]
        },
        {
            "positions": [
                -1.0711384165359918,
                -0.10365419746457105,
                -1.7693406658427842,
                0.48270378328126967,
                1.5054727784075188,
                1.0762523975486367
            ]
        },
        {
            "positions": [
                -1.0234096466067963,
                -0.13055409285753866,
                -1.6190378238935492,
                0.5398069412029197,
                1.44034172674255,
                1.0336079080019676
            ]
        },
        {
            "positions": [
                -0.975680876677601,
                -0.15745398825050627,
                -1.4687349819443143,
                0.5969100991245698,
                1.3752106750775812,
                0.9909634184552987
            ]
        },
        {
            "positions": [
                -0.9279521067484054,
                -0.1843538836434739,
                -1.3184321399950794,
                0.6540132570462199,
                1.3100796234126124,
                0.9483189289086298
            ]
        },
        {
            "positions": [
                -0.8802233368192101,
                -0.21125377903644152,
                -1.1681292980458444,
                0.71111641496787,
                1.2449485717476436,
                0.9056744393619608
            ]
        },
        {
            "positions": [
                -0.8324945668900146,
                -0.23815367442940913,
                -1.0178264560966095,
                0.76821957288952,
                1.1798175200826748,
                0.8630299498152918
            ]
        },
        {
            "positions": [
                -0.784765796960819,
                -0.2650535698223767,
                -0.8675236141473746,
                0.8253227308111701,
                1.114686468417706,
                0.8203854602686229
            ]
        },
        {
            "positions": [
                -0.7370370270316235,
                -0.2919534652153444,
                -0.7172207721981396,
                0.8824258887328202,
                1.049555416752737,
                0.7777409707219539
            ]
        },
        {
            "positions": [
                -0.6893082571024282,
                -0.31885336060831193,
                -0.5669179302489047,
                0.9395290466544703,
                0.9844243650877683,
                0.7350964811752849
            ]
        },
        {
            "positions": [
                -0.6415794871732327,
                -0.3457532560012796,
                -0.41661508829966976,
                0.9966322045761205,
                0.9192933134227995,
                0.692451991628616
            ]
        },
        {
            "positions": [
                -0.5938507172440372,
                -0.3726531513942472,
                -0.2663122463504348,
                1.0537353624977706,
                0.8541622617578307,
                0.6498075020819472
            ]
        },
        {
            "positions": [
                -0.5461219473148416,
                -0.3995530467872148,
                -0.11600940440119989,
                1.1108385204194207,
                0.7890312100928619,
                0.607163012535278
            ]
        },
        {
            "positions": [
                -0.49839317738564626,
                -0.4264529421801824,
                0.034293437548035044,
                1.1679416783410708,
                0.7239001584278931,
                0.5645185229886092
            ]
        },
        {
            "positions": [
                -0.45066440745645087,
                -0.45335283757315004,
                0.18459627949726998,
                1.2250448362627209,
                0.6587691067629243,
                0.5218740334419403
            ]
        },
        {
            "positions": [
                -0.40293563752725536,
                -0.48025273296611765,
                0.3348991214465047,
                1.2821479941843708,
                0.5936380550979556,
                0.4792295438952713
            ]
        },
        {
            "positions": [
                -0.35520686759805986,
                -0.5071526283590853,
                0.48520196339573984,
                1.339251152106021,
                0.5285070034329866,
                0.4365850543486023
            ]
        },
        {
            "positions": [
                -0.30747809766886436,
                -0.5340525237520528,
                0.635504805344975,
                1.396354310027671,
                0.4633759517680178,
                0.3939405648019333
            ]
        },
        {
            "positions": [
                -0.25974932773966897,
                -0.5609524191450205,
                0.7858076472942097,
                1.4534574679493213,
                0.398244900103049,
                0.3512960752552644
            ]
        },
        {
            "positions": [
                -0.21202055781047346,
                -0.5878523145379881,
                0.9361104892434444,
                1.5105606258709712,
                0.33311384843808045,
                0.3086515857085955
            ]
        },
        {
            "positions": [
                -0.16429178788127796,
                -0.6147522099309557,
                1.0864133311926796,
                1.5676637837926215,
                0.26798279677311143,
                0.2660070961619264
            ]
        },
        {
            "positions": [
                -0.11656301795208246,
                -0.6416521053239232,
                1.2367161731419147,
                1.6247669417142714,
                0.20285174510814263,
                0.22336260661525753
            ]
        },
        {
            "positions": [
                -0.06883424802288696,
                -0.668552000716891,
                1.3870190150911494,
                1.6818700996359215,
                0.13772069344317384,
                0.18071811706858865
            ]
        },
        {
            "positions": [
                -0.021105478093691676,
                -0.6954518961098586,
                1.5373218570403842,
                1.7389732575575716,
                0.07258964177820504,
                0.13807362752191965
            ]
        },
        {
            "positions": [
                0.026623291835504048,
                -0.7223517915028261,
                1.6876246989896193,
                1.7960764154792217,
                0.007458590113236241,
                0.09542913797525054
            ]
        },
        {
            "positions": [
                0.07435206176469933,
                -0.7492516868957939,
                1.8379275409388545,
                1.8531795734008718,
                -0.05767246155173256,
                0.05278464842858166
            ]
        },
        {
            "positions": [
                0.1220808316938948,
                -0.7761515822887614,
                1.9882303828880892,
                1.910282731322522,
                -0.12280351321670131,
                0.01014015888191275
            ]
        }
    ]
}