{
    "goal": {
        "global_pose": {
            "orientation": {
                "w": 0.5084816217422485,
                "x": -0.49083608388900757,
                "y": 0.5182115435600281,
                "z": -0.4816462993621826
            },
            "position": {
                "x": 0.5540239810943604,
                "y": 0.030875300988554955,
                "z": 0.16403168439865112
            }
        },
        "name": "move_to_storage_A"
    },
    "id": "RRTConnect_move_to_storage_A_67",
    "joint_names": [
        "shoulder_pan_joint",
        "shoulder_lift_joint",
        "elbow_joint",
        "wrist_1_joint",
        "wrist_2_joint",
        "wrist_3_joint"
    ],
    "metrics": {
        "cart_traj_len": 0.35309875587783823,
        "distance_elbow_joint": 0.45346323559962975,
        "distance_shoulder_lift_joint": 0.23271288542545876,
        "distance_shoulder_pan_joint": 0.45888001476007595,
        "distance_wrist_1_joint": 0.2608127842615061,
        "distance_wrist_2_joint": 1.1105954710005446,
        "distance_wrist_3_joint": 0.10658580604932277,
        "smoothness": 6.661338200497456e-16,
        "time": 0.054402868,
        "traj_len": 1.6195833405837867,
        "weighted_distance": 2.051250853615236
    },
    "planner": "RRTConnect",
    "start": {
        "state": {
            "elbow_joint": 1.9715463870305268,
            "shoulder_lift_joint": -1.1394903361783484,
            "shoulder_pan_joint": 0.12281147578464417,
            "wrist_1_joint": -0.7804599489681411,
            "wrist_2_joint": 0.12958660307563738,
            "wrist_3_joint": -3.1924946282119055
        }
    },
    "waypoints": [
        {
            "positions": [
                0.12281147578464417,
                -1.1394903361783484,
                1.9715463870305268,
                -0.7804599489681411,
                0.12958660307563738,
                -3.1924946282119055
            ]
        },
        {
            "positions": [
                0.05725718796177619,
                -1.172735034096271,
                2.036326849259045,
                -0.8177189181483563,
                0.28824309893285804,
                -3.177268084490574
            ]
        },
        {
            "positions": [
                -0.008297099861091797,
                -1.2059797320141938,
                2.101107311487564,
                -0.8549778873285714,
                0.4468995947900787,
                -3.1620415407692417
            ]
        },
        {
            "positions": [
                -0.07385138768395978,
                -1.2392244299321165,
                2.1658877737160824,
                -0.8922368565087866,
                0.6055560906472993,
                -3.14681499704791
            ]
        },
        {
            "positions": [
                -0.13940567550682775,
                -1.272469127850039,
                2.230668235944601,
                -0.9294958256890017,
                0.76421258650452,
                -3.1315884533265783
            ]
        },
        {
            "positions": [
                -0.2049599633296958,
                -1.305713825767962,
                2.2954486981731197,
                -0.9667547948692169,
                0.9228690823617407,
                -3.1163619096052466
            ]
        },
        {
            "positions": [
                -0.2705142511525637,
                -1.3389585236858845,
                2.360229160401638,
                -1.004013764049432,
                1.0815255782189612,
                -3.1011353658839145
            ]
        },
        {
            "positions": [
                -0.33606853897543176,
                -1.3722032216038071,
                2.4250096226301565,
                -1.0412727332296472,
                1.240182074076182,
                -3.0859088221625828
            ]
        }
    ]
}