{
    "goal": {
        "global_pose": {
            "orientation": {
                "w": 0.7031023502349854,
                "x": -0.7110244035720825,
                "y": 0.007748599164187908,
                "z": 0.005598929710686207
            },
            "position": {
                "x": 0.11585023208521307,
                "y": 0.44412534475326537,
                "z": 0.3711530566215515
            }
        },
        "name": "move_to_auspresseinheit_A"
    },
    "id": "RRTConnect_move_to_auspresseinheit_A_141",
    "joint_names": [
        "shoulder_pan_joint",
        "shoulder_lift_joint",
        "elbow_joint",
        "wrist_1_joint",
        "wrist_2_joint",
        "wrist_3_joint"
    ],
    "metrics": {
        "cart_traj_len": 0.6563297007083116,
        "distance_elbow_joint": 0.0859063110391931,
        "distance_shoulder_lift_joint": 0.5337903358739116,
        "distance_shoulder_pan_joint": 1.0443051981771396,
        "distance_wrist_1_joint": 1.1966204002130552,
        "distance_wrist_2_joint": 0.9122902210866184,
        "distance_wrist_3_joint": 0.049255007545585094,
        "smoothness": 1.0783816339820662,
        "time": 0.063440894,
        "traj_len": 1.9550364380071035,
        "weighted_distance": 2.455521962908568
    },
    "planner": "RRTConnect",
    "start": {
        "state": {
            "elbow_joint": 2.422574709923281,
            "shoulder_lift_joint": -1.3736533754116391,
            "shoulder_pan_joint": -0.33786336945926293,
            "wrist_1_joint": -1.0288603412921917,
            "wrist_2_joint": 1.2330224858903978,
            "wrist_3_joint": -3.094022268022082
        }
    },
    "waypoints": [
        {
            "positions": [
                -0.33786336945926293,
                -1.3736533754116391,
                2.422574709923281,
                -1.0288603412921917,
                1.2330224858903978,
                -3.094022268022082
            ]
        },
        {
            "positions": [
                -0.3117277607157918,
                -1.453174285097592,
                2.4272108335532816,
                -0.8820726152397662,
                1.1138773801901098,
                -3.102005537178658
            ]
        },
        {
            "positions": [
                -0.28559215197232063,
                -1.532695194783545,
                2.4318469571832826,
                -0.7352848891873407,
                0.9947322744898219,
                -3.1099888063352337
            ]
        },
        {
            "positions": [
                -0.2594565432288495,
                -1.6122161044694978,
                2.436483080813283,
                -0.5884971631349151,
                0.8755871687895339,
                -3.117972075491809
            ]
        },
        {
            "positions": [
                -0.2333209344853783,
                -1.6917370141554506,
                2.4411192044432837,
                -0.44170943708248955,
                0.756442063089246,
                -3.125955344648385
            ]
        },
        {
            "positions": [
                -0.20718532574190712,
                -1.7712579238414037,
                2.4457553280732847,
                -0.2949217110300639,
                0.637296957388958,
                -3.133938613804961
            ]
        },
        {
            "positions": [
                -0.18104971699843597,
                -1.8507788335273565,
                2.450391451703285,
                -0.1481339849776384,
                0.5181518516886701,
                -3.1419218829615367
            ]
        },
        {
            "positions": [
                0.04082316943064218,
                -1.8649450529669052,
                2.435869059388488,
                -0.22710749595226393,
                0.5675067484098928,
                -3.1422607311130695
            ]
        },
        {
            "positions": [
                0.26269605585972033,
                -1.8791112724064536,
                2.4213466670736907,
                -0.30608100692688944,
                0.6168616451311154,
                -3.142599579264602
            ]
        },
        {
            "positions": [
                0.48456894228879843,
                -1.893277491846002,
                2.4068242747588933,
                -0.3850545179015149,
                0.666216541852338,
                -3.1429384274161345
            ]
        },
        {
            "positions": [
                0.7064418287178766,
                -1.9074437112855507,
                2.3923018824440963,
                -0.4640280288761404,
                0.7155714385735608,
                -3.1432772755676672
            ]
        }
    ]
}