{
    "goal": {
        "global_pose": {
            "orientation": {
                "w": 0.7031023502349854,
                "x": -0.7110244035720825,
                "y": 0.007748599164187908,
                "z": 0.005598929710686207
            },
            "position": {
                "x": 0.11585023208521307,
                "y": 0.44412534475326537,
                "z": 0.3711530566215515
            }
        },
        "name": "move_to_auspresseinheit_A"
    },
    "id": "RRTConnect_move_to_auspresseinheit_A_104",
    "joint_names": [
        "shoulder_pan_joint",
        "shoulder_lift_joint",
        "elbow_joint",
        "wrist_1_joint",
        "wrist_2_joint",
        "wrist_3_joint"
    ],
    "metrics": {
        "cart_traj_len": 2.166826933579553,
        "distance_elbow_joint": 1.587492352920251,
        "distance_shoulder_lift_joint": 0.883659498316095,
        "distance_shoulder_pan_joint": 2.379222947613808,
        "distance_wrist_1_joint": 0.5613352206590494,
        "distance_wrist_2_joint": 1.7045923130365066,
        "distance_wrist_3_joint": 7.9783105661477745,
        "smoothness": 0.49393213881458753,
        "time": 0.090619281,
        "traj_len": 3.8851786186343467,
        "weighted_distance": 5.772102005741461
    },
    "planner": "RRTConnect",
    "start": {
        "state": {
            "elbow_joint": 2.422574709923281,
            "shoulder_lift_joint": -1.3736533754116391,
            "shoulder_pan_joint": -0.33786336945926293,
            "wrist_1_joint": -1.0288603412921917,
            "wrist_2_joint": 1.2330224858903978,
            "wrist_3_joint": -3.094022268022082
        }
    },
    "waypoints": [
        {
            "positions": [
                -0.33786336945926293,
                -1.3736533754116391,
                2.422574709923281,
                -1.0288603412921917,
                1.2330224858903978,
                -3.094022268022082
            ]
        },
        {
            "positions": [
                -0.2830346354816394,
                -1.3877573632883793,
                2.360787453162283,
                -1.0183562705645823,
                1.2580937794356726,
                -2.8920442230058536
            ]
        },
        {
            "positions": [
                -0.22820590150401587,
                -1.4018613511651197,
                2.2990001964012854,
                -1.007852199836973,
                1.2831650729809472,
                -2.6900661779896256
            ]
        },
        {
            "positions": [
                -0.17337716752639232,
                -1.4159653390418598,
                2.2372129396402873,
                -0.9973481291093635,
                1.308236366526222,
                -2.488088132973397
            ]
        },
        {
            "positions": [
                -0.11854843354876879,
                -1.4300693269186002,
                2.1754256828792897,
                -0.9868440583817543,
                1.3333076600714968,
                -2.286110087957169
            ]
        },
        {
            "positions": [
                -0.06371969957114526,
                -1.4441733147953404,
                2.1136384261182917,
                -0.9763399876541449,
                1.3583789536167714,
                -2.0841320429409405
            ]
        },
        {
            "positions": [
                -0.008890965593521705,
                -1.4582773026720806,
                2.0518511693572936,
                -0.9658359169265355,
                1.3834502471620462,
                -1.8821539979247122
            ]
        },
        {
            "positions": [
                0.04593776838410174,
                -1.472381290548821,
                1.990063912596296,
                -0.9553318461989261,
                1.408521540707321,
                -1.680175952908484
            ]
        },
        {
            "positions": [
                0.10076650236172535,
                -1.486485278425561,
                1.928276655835298,
                -0.9448277754713167,
                1.4335928342525959,
                -1.4781979078922556
            ]
        },
        {
            "positions": [
                0.15559523633934885,
                -1.5005892663023013,
                1.8664893990743001,
                -0.9343237047437073,
                1.4586641277978705,
                -1.2762198628760275
            ]
        },
        {
            "positions": [
                0.2104239703169724,
                -1.5146932541790417,
                1.8047021423133023,
                -0.923819634016098,
                1.4837354213431453,
                -1.0742418178597988
            ]
        },
        {
            "positions": [
                0.26525270429459585,
                -1.5287972420557818,
                1.7429148855523042,
                -0.9133155632884886,
                1.5088067148884199,
                -0.8722637728435707
            ]
        },
        {
            "positions": [
                0.3200814382722195,
                -1.5429012299325222,
                1.6811276287913064,
                -0.9028114925608792,
                1.5338780084336947,
                -0.6702857278273422
            ]
        },
        {
            "positions": [
                0.374910172249843,
                -1.5570052178092624,
                1.6193403720303086,
                -0.8923074218332698,
                1.5589493019789695,
                -0.46830768281111435
            ]
        },
        {
            "positions": [
                0.48592924020340345,
                -1.6091970940932576,
                1.6388601671613499,
                -0.8823242007253731,
                1.5886036578810383,
                -0.3189821284721488
            ]
        },
        {
            "positions": [
                0.5969483081569639,
                -1.6613889703772529,
                1.6583799622923914,
                -0.8723409796174765,
                1.618258013783107,
                -0.1696565741331833
            ]
        },
        {
            "positions": [
                0.7079673761105243,
                -1.7135808466612483,
                1.6778997574234327,
                -0.8623577585095797,
                1.6479123696851758,
                -0.02033101979421781
            ]
        },
        {
            "positions": [
                0.8189864440640847,
                -1.7657727229452436,
                1.6974195525544742,
                -0.8523745374016831,
                1.6775667255872446,
                0.12899453454474774
            ]
        },
        {
            "positions": [
                0.9300055120176451,
                -1.8179645992292388,
                1.7169393476855155,
                -0.8423913162937864,
                1.7072210814893134,
                0.2783200888837133
            ]
        },
        {
            "positions": [
                1.0410245799712055,
                -1.870156475513234,
                1.736459142816557,
                -0.8324080951858898,
                1.7368754373913822,
                0.42764564322267873
            ]
        },
        {
            "positions": [
                1.152043647924766,
                -1.9223483517972295,
                1.7559789379475983,
                -0.822424874077993,
                1.766529793293451,
                0.5769711975616443
            ]
        },
        {
            "positions": [
                1.2630627158783265,
                -1.9745402280812248,
                1.7754987330786398,
                -0.8124416529700964,
                1.7961841491955197,
                0.7262967519006098
            ]
        },
        {
            "positions": [
                1.3740817838318868,
                -2.02673210436522,
                1.795018528209681,
                -0.8024584318621997,
                1.8258385050975885,
                0.8756223062395754
            ]
        },
        {
            "positions": [
                1.35780240351095,
                -2.0314026165747947,
                1.8441418687365279,
                -0.7835938367598133,
                1.767416785778442,
                0.6499875928878797
            ]
        },
        {
            "positions": [
                1.341523023190013,
                -2.03607312878437,
                1.8932652092633748,
                -0.764729241657427,
                1.7089950664592957,
                0.4243528795361839
            ]
        },
        {
            "positions": [
                1.3252436428690761,
                -2.0407436409939446,
                1.9423885497902216,
                -0.7458646465550406,
                1.6505733471401491,
                0.19871816618448812
            ]
        },
        {
            "positions": [
                1.308964262548139,
                -2.0454141532035193,
                1.9915118903170683,
                -0.7270000514526542,
                1.5921516278210028,
                -0.026916547167207594
            ]
        },
        {
            "positions": [
                1.2926848822272021,
                -2.0500846654130944,
                2.040635230843915,
                -0.7081354563502679,
                1.5337299085018563,
                -0.25255126051890353
            ]
        },
        {
            "positions": [
                1.2764055019062652,
                -2.054755177622669,
                2.089758571370762,
                -0.6892708612478815,
                1.47530818918271,
                -0.47818597387059913
            ]
        },
        {
            "positions": [
                1.2601261215853283,
                -2.059425689832244,
                2.138881911897609,
                -0.6704062661454951,
                1.4168864698635635,
                -0.703820687222295
            ]
        },
        {
            "positions": [
                1.2438467412643914,
                -2.064096202041819,
                2.1880052524244555,
                -0.6515416710431088,
                1.358464750544417,
                -0.9294554005739906
            ]
        },
        {
            "positions": [
                1.2275673609434543,
                -2.0687667142513937,
                2.2371285929513025,
                -0.6326770759407224,
                1.3000430312252707,
                -1.1550901139256866
            ]
        },
        {
            "positions": [
                1.2112879806225174,
                -2.0734372264609684,
                2.2862519334781495,
                -0.6138124808383361,
                1.2416213119061241,
                -1.3807248272773824
            ]
        },
        {
            "positions": [
                1.1950086003015805,
                -2.0781077386705435,
                2.335375274004996,
                -0.5949478857359497,
                1.1831995925869778,
                -1.6063595406290778
            ]
        },
        {
            "positions": [
                1.1787292199806436,
                -2.0827782508801183,
                2.384498614531843,
                -0.5760832906335633,
                1.1247778732678313,
                -1.8319942539807736
            ]
        },
        {
            "positions": [
                1.114954774787432,
                -2.059931438324631,
                2.388186064565537,
                -0.5604031728001547,
                1.0680254614812408,
                -2.0173778855355167
            ]
        },
        {
            "positions": [
                1.0511803295942206,
                -2.037084625769144,
                2.391873514599231,
                -0.5447230549667461,
                1.0112730496946503,
                -2.2027615170902592
            ]
        },
        {
            "positions": [
                0.9874058844010091,
                -2.014237813213657,
                2.3955609646329252,
                -0.5290429371333375,
                0.9545206379080597,
                -2.3881451486450023
            ]
        },
        {
            "positions": [
                0.9236314392077976,
                -1.9913910006581699,
                2.3992484146666193,
                -0.5133628192999289,
                0.8977682261214692,
                -2.5735287801997453
            ]
        },
        {
            "positions": [
                0.851355622641608,
                -1.9636752097829473,
                2.39779842386963,
                -0.4980835864110001,
                0.8365328878370704,
                -2.7600337486820115
            ]
        },
        {
            "positions": [
                0.7790798060754185,
                -1.935959418907725,
                2.396348433072641,
                -0.48280435352207124,
                0.7752975495526716,
                -2.946538717164278
            ]
        },
        {
            "positions": [
                0.7068039895092288,
                -1.9082436280325024,
                2.3948984422756516,
                -0.46752512063314244,
                0.7140622112682727,
                -3.1330436856465442
            ]
        }
    ]
}