{
    "goal": {
        "global_pose": {
            "orientation": {
                "w": 0.5084816217422485,
                "x": -0.49083608388900757,
                "y": 0.5182115435600281,
                "z": -0.4816462993621826
            },
            "position": {
                "x": 0.5540239810943604,
                "y": 0.030875300988554955,
                "z": 0.16403168439865112
            }
        },
        "name": "move_to_storage_A"
    },
    "id": "RRTConnect_move_to_storage_A_5",
    "joint_names": [
        "shoulder_pan_joint",
        "shoulder_lift_joint",
        "elbow_joint",
        "wrist_1_joint",
        "wrist_2_joint",
        "wrist_3_joint"
    ],
    "metrics": {
        "cart_traj_len": 0.35289601040999474,
        "distance_elbow_joint": 0.4523418745152945,
        "distance_shoulder_lift_joint": 0.23637234364728243,
        "distance_shoulder_pan_joint": 0.46077975507839547,
        "distance_wrist_1_joint": 0.2500943866016453,
        "distance_wrist_2_joint": 1.1026029222429639,
        "distance_wrist_3_joint": 0.10545035464785757,
        "smoothness": 4.440892098500626e-16,
        "time": 0.058078499000000006,
        "traj_len": 1.614819382077587,
        "weighted_distance": 2.042361293912946
    },
    "planner": "RRTConnect",
    "start": {
        "state": {
            "elbow_joint": 1.9715463870305268,
            "shoulder_lift_joint": -1.1394903361783484,
            "shoulder_pan_joint": 0.12281147578464417,
            "wrist_1_joint": -0.7804599489681411,
            "wrist_2_joint": 0.12958660307563738,
            "wrist_3_joint": -3.1924946282119055
        }
    },
    "waypoints": [
        {
            "positions": [
                0.12281147578464417,
                -1.1394903361783484,
                1.9715463870305268,
                -0.7804599489681411,
                0.12958660307563738,
                -3.1924946282119055
            ]
        },
        {
            "positions": [
                0.05698579648773054,
                -1.1732578138422458,
                2.036166654818426,
                -0.8161877184826618,
                0.2871013062532036,
                -3.17743029183364
            ]
        },
        {
            "positions": [
                -0.008839882809183089,
                -1.2070252915061435,
                2.1007869226063254,
                -0.8519154879971826,
                0.44461600943076984,
                -3.1623659554553747
            ]
        },
        {
            "positions": [
                -0.07466556210609672,
                -1.2407927691700409,
                2.1654071903942245,
                -0.8876432575117034,
                0.6021307126083362,
                -3.1473016190771093
            ]
        },
        {
            "positions": [
                -0.14049124140301034,
                -1.2745602468339383,
                2.2300274581821236,
                -0.9233710270262241,
                0.7596454157859024,
                -3.1322372826988443
            ]
        },
        {
            "positions": [
                -0.20631692069992402,
                -1.3083277244978357,
                2.294647725970023,
                -0.9590987965407449,
                0.9171601189634687,
                -3.117172946320579
            ]
        },
        {
            "positions": [
                -0.2721425999968376,
                -1.3420952021617334,
                2.359267993757922,
                -0.9948265660552655,
                1.074674822141035,
                -3.1021086099423134
            ]
        },
        {
            "positions": [
                -0.3379682792937513,
                -1.3758626798256308,
                2.4238882615458213,
                -1.0305543355697864,
                1.2321895253186013,
                -3.087044273564048
            ]
        }
    ]
}