{
    "goal": {
        "global_pose": {
            "orientation": {
                "w": 0.7031023502349854,
                "x": -0.7110244035720825,
                "y": 0.007748599164187908,
                "z": 0.005598929710686207
            },
            "position": {
                "x": 0.11585023208521307,
                "y": 0.44412534475326537,
                "z": 0.3711530566215515
            }
        },
        "name": "move_to_auspresseinheit_A"
    },
    "id": "RRTConnect_move_to_auspresseinheit_A_118",
    "joint_names": [
        "shoulder_pan_joint",
        "shoulder_lift_joint",
        "elbow_joint",
        "wrist_1_joint",
        "wrist_2_joint",
        "wrist_3_joint"
    ],
    "metrics": {
        "cart_traj_len": 0.6713694474412233,
        "distance_elbow_joint": 0.06309252582935931,
        "distance_shoulder_lift_joint": 0.5362965822530124,
        "distance_shoulder_pan_joint": 1.0432239114690396,
        "distance_wrist_1_joint": 1.3806284346435669,
        "distance_wrist_2_joint": 0.835123069489657,
        "distance_wrist_3_joint": 0.39620965326514,
        "smoothness": 1.499453889551396,
        "time": 0.075728746,
        "traj_len": 2.0626619153292607,
        "weighted_distance": 2.6949480491492372
    },
    "planner": "RRTConnect",
    "start": {
        "state": {
            "elbow_joint": 2.422574709923281,
            "shoulder_lift_joint": -1.3736533754116391,
            "shoulder_pan_joint": -0.33786336945926293,
            "wrist_1_joint": -1.0288603412921917,
            "wrist_2_joint": 1.2330224858903978,
            "wrist_3_joint": -3.094022268022082
        }
    },
    "waypoints": [
        {
            "positions": [
                -0.33786336945926293,
                -1.3736533754116391,
                2.422574709923281,
                -1.0288603412921917,
                1.2330224858903978,
                -3.094022268022082
            ]
        },
        {
            "positions": [
                -0.24794385249939271,
                -1.4399854800427836,
                2.4247213001183106,
                -0.9073530661530762,
                1.1479800786328203,
                -3.071651258091485
            ]
        },
        {
            "positions": [
                -0.15802433553952247,
                -1.506317584673928,
                2.42686789031334,
                -0.7858457910139607,
                1.0629376713752428,
                -3.0492802481608887
            ]
        },
        {
            "positions": [
                -0.06810481857965223,
                -1.5726496893050725,
                2.4290144805083695,
                -0.6643385158748453,
                0.9778952641176653,
                -3.0269092382302922
            ]
        },
        {
            "positions": [
                0.02181469838021799,
                -1.638981793936217,
                2.431161070703399,
                -0.5428312407357297,
                0.8928528568600878,
                -3.0045382282996953
            ]
        },
        {
            "positions": [
                0.1117342153400882,
                -1.7053138985673615,
                2.4333076608984285,
                -0.4213239655966142,
                0.8078104496025102,
                -2.9821672183690984
            ]
        },
        {
            "positions": [
                0.20165373229995848,
                -1.771646003198506,
                2.435454251093458,
                -0.2998166904574988,
                0.7227680423449327,
                -2.959796208438502
            ]
        },
        {
            "positions": [
                0.2915732492598287,
                -1.8379781078296504,
                2.4376008412884875,
                -0.1783094153183833,
                0.6377256350873552,
                -2.9374251985079054
            ]
        },
        {
            "positions": [
                0.3814927662196989,
                -1.904310212460795,
                2.439747431483517,
                -0.056802140179267824,
                0.5526832278297777,
                -2.9150541885773085
            ]
        },
        {
            "positions": [
                0.4894486914830581,
                -1.9061901275287472,
                2.424440830060476,
                -0.19299221802281552,
                0.6042778316394567,
                -2.9874680465174306
            ]
        },
        {
            "positions": [
                0.5974046167464173,
                -1.9080700425966992,
                2.4091342286374346,
                -0.3291822958663632,
                0.6558724354491358,
                -3.0598819044575527
            ]
        },
        {
            "positions": [
                0.7053605420097765,
                -1.9099499576646515,
                2.3938276272143937,
                -0.4653723737099109,
                0.7074670392588147,
                -3.132295762397675
            ]
        }
    ]
}