{
    "goal": {
        "global_pose": {
            "orientation": {
                "w": 0.5084816217422485,
                "x": -0.49083608388900757,
                "y": 0.5182115435600281,
                "z": -0.4816462993621826
            },
            "position": {
                "x": 0.5540239810943604,
                "y": 0.030875300988554955,
                "z": 0.16403168439865112
            }
        },
        "name": "move_to_storage_A"
    },
    "id": "RRTConnect_move_to_storage_A_20",
    "joint_names": [
        "shoulder_pan_joint",
        "shoulder_lift_joint",
        "elbow_joint",
        "wrist_1_joint",
        "wrist_2_joint",
        "wrist_3_joint"
    ],
    "metrics": {
        "cart_traj_len": 0.35317734219114466,
        "distance_elbow_joint": 0.45011424505813435,
        "distance_shoulder_lift_joint": 0.23252159409090667,
        "distance_shoulder_pan_joint": 0.4621198270193605,
        "distance_wrist_1_joint": 0.2441460148551774,
        "distance_wrist_2_joint": 1.0970435391443911,
        "distance_wrist_3_joint": 0.09975455483278317,
        "smoothness": 4.440892098500626e-16,
        "time": 0.04863812,
        "traj_len": 1.6080111240289208,
        "weighted_distance": 2.0313538437864262
    },
    "planner": "RRTConnect",
    "start": {
        "state": {
            "elbow_joint": 1.9715463870305268,
            "shoulder_lift_joint": -1.1394903361783484,
            "shoulder_pan_joint": 0.12281147578464417,
            "wrist_1_joint": -0.7804599489681411,
            "wrist_2_joint": 0.12958660307563738,
            "wrist_3_joint": -3.1924946282119055
        }
    },
    "waypoints": [
        {
            "positions": [
                0.12281147578464417,
                -1.1394903361783484,
                1.9715463870305268,
                -0.7804599489681411,
                0.12958660307563738,
                -3.1924946282119055
            ]
        },
        {
            "positions": [
                0.05679435763902124,
                -1.1727077067627636,
                2.0358484220388315,
                -0.8153379510903093,
                0.28630710866769327,
                -3.178243977521508
            ]
        },
        {
            "positions": [
                -0.009222760506601688,
                -1.2059250773471788,
                2.1001504570471368,
                -0.8502159532124774,
                0.4430276142597491,
                -3.1639933268311102
            ]
        },
        {
            "positions": [
                -0.0752398786522246,
                -1.239142447931594,
                2.1644524920554415,
                -0.8850939553346456,
                0.599748119851805,
                -3.1497426761407126
            ]
        },
        {
            "positions": [
                -0.14125699679784753,
                -1.2723598185160094,
                2.2287545270637463,
                -0.9199719574568139,
                0.7564686254438608,
                -3.1354920254503154
            ]
        },
        {
            "positions": [
                -0.20727411494347048,
                -1.3055771891004246,
                2.293056562072051,
                -0.9548499595789821,
                0.9131891310359168,
                -3.1212413747599177
            ]
        },
        {
            "positions": [
                -0.27329123308909337,
                -1.3387945596848398,
                2.3573585970803563,
                -0.9897279617011503,
                1.0699096366279726,
                -3.10699072406952
            ]
        },
        {
            "positions": [
                -0.3393083512347163,
                -1.372011930269255,
                2.421660632088661,
                -1.0246059638233185,
                1.2266301422200285,
                -3.0927400733791224
            ]
        }
    ]
}