{
    "goal": {
        "global_pose": {
            "orientation": {
                "w": -0.00223480608172531,
                "x": 0.0024358444001904467,
                "y": 0.7094548369677653,
                "z": -0.704743149386269
            },
            "position": {
                "x": 0.6205249238014221,
                "y": -0.6371506643295288,
                "z": 0.19426114857196808
            }
        },
        "name": "move_to_magneteinheit_B"
    },
    "id": "RRTConnect_move_to_magneteinheit_B_103",
    "joint_names": [
        "shoulder_pan_joint",
        "shoulder_lift_joint",
        "elbow_joint",
        "wrist_1_joint",
        "wrist_2_joint",
        "wrist_3_joint"
    ],
    "metrics": {
        "cart_traj_len": 3.922540439185624,
        "distance_elbow_joint": 4.038598886313076,
        "distance_shoulder_lift_joint": 0.5637102589573826,
        "distance_shoulder_pan_joint": 2.7392999927365818,
        "distance_wrist_1_joint": 2.0864939263457174,
        "distance_wrist_2_joint": 3.7430771768346585,
        "distance_wrist_3_joint": 6.299427676604173,
        "smoothness": 0.14981684065333117,
        "time": 0.11602884699999999,
        "traj_len": 4.412551180189483,
        "weighted_distance": 6.1562191622927385
    },
    "planner": "RRTConnect",
    "start": {
        "state": {
            "elbow_joint": 2.39358713078474,
            "shoulder_lift_joint": -1.908514104345545,
            "shoulder_pan_joint": 0.7066247066606129,
            "wrist_1_joint": -0.4678290933515497,
            "wrist_2_joint": 0.7096259083745334,
            "wrist_3_joint": -3.1358149277392293
        }
    },
    "waypoints": [
        {
            "positions": [
                0.7066247066606129,
                -1.908514104345545,
                2.39358713078474,
                -0.4678290933515497,
                0.7096259083745334,
                -3.1358149277392293
            ]
        },
        {
            "positions": [
                0.6266596366006585,
                -1.8832628749441618,
                2.3766539869884395,
                -0.5280717777225079,
                0.5750823539817387,
                -3.0712925409870935
            ]
        },
        {
            "positions": [
                0.5466945665407041,
                -1.8580116455427786,
                2.3597208431921395,
                -0.5883144620934662,
                0.44053879958894393,
                -3.006770154234957
            ]
        },
        {
            "positions": [
                0.46672949648074963,
                -1.8327604161413955,
                2.342787699395839,
                -0.6485571464644244,
                0.3059952451961492,
                -2.9422477674828214
            ]
        },
        {
            "positions": [
                0.40987515833135885,
                -1.8343793714084167,
                2.312794043772004,
                -0.6789913624661874,
                0.18986859605888076,
                -2.860665417275693
            ]
        },
        {
            "positions": [
                0.4125657909837928,
                -1.8482092578960005,
                2.2262176843823576,
                -0.6991268638018839,
                0.1088687353324161,
                -2.6968084125030134
            ]
        },
        {
            "positions": [
                0.4152564236362268,
                -1.8620391443835844,
                2.139641324992711,
                -0.7192623651375804,
                0.027868874605951444,
                -2.5329514077303337
            ]
        },
        {
            "positions": [
                0.4179470562886607,
                -1.8758690308711685,
                2.0530649656030646,
                -0.7393978664732769,
                -0.0531309861205132,
                -2.3690944029576544
            ]
        },
        {
            "positions": [
                0.42063768894109466,
                -1.8896989173587524,
                1.9664886062134181,
                -0.7595333678089733,
                -0.13413084684697787,
                -2.2052373981849747
            ]
        },
        {
            "positions": [
                0.4233283215935286,
                -1.9035288038463363,
                1.8799122468237717,
                -0.7796688691446698,
                -0.21513070757344255,
                -2.041380393412295
            ]
        },
        {
            "positions": [
                0.48872743386727513,
                -1.9133624328731442,
                1.7641438343914981,
                -0.8242523976195831,
                -0.21829590448117736,
                -1.8987468050296235
            ]
        },
        {
            "positions": [
                0.5541265461410216,
                -1.9231960618999522,
                1.6483754219592244,
                -0.8688359260944963,
                -0.22146110138891215,
                -1.756113216646952
            ]
        },
        {
            "positions": [
                0.6195256584147681,
                -1.9330296909267601,
                1.5326070095269508,
                -0.9134194545694097,
                -0.22462629829664696,
                -1.6134796282642805
            ]
        },
        {
            "positions": [
                0.6849247706885147,
                -1.9428633199535679,
                1.416838597094677,
                -0.9580029830443229,
                -0.22779149520438177,
                -1.470846039881609
            ]
        },
        {
            "positions": [
                0.7503238829622613,
                -1.9526969489803758,
                1.3010701846624035,
                -1.0025865115192363,
                -0.23095669211211659,
                -1.3282124514989373
            ]
        },
        {
            "positions": [
                0.8157229952360077,
                -1.9625305780071838,
                1.18530177223013,
                -1.0471700399941495,
                -0.23412188901985137,
                -1.185578863116266
            ]
        },
        {
            "positions": [
                0.8811221075097543,
                -1.9723642070339917,
                1.0695333597978562,
                -1.0917535684690627,
                -0.23728708592758618,
                -1.0429452747335943
            ]
        },
        {
            "positions": [
                0.9714668998463676,
                -1.9710881197274293,
                0.974200101716618,
                -1.1443639434826927,
                -0.1662714844519324,
                -0.9746362212527189
            ]
        },
        {
            "positions": [
                1.0618116921829808,
                -1.969812032420867,
                0.8788668436353796,
                -1.1969743184963226,
                -0.0952558829762786,
                -0.9063271677718434
            ]
        },
        {
            "positions": [
                1.1521564845195942,
                -1.9685359451143045,
                0.7835335855541413,
                -1.2495846935099526,
                -0.024240281500624794,
                -0.838018114290968
            ]
        },
        {
            "positions": [
                1.2425012768562074,
                -1.9672598578077423,
                0.6882003274729029,
                -1.3021950685235826,
                0.046775319975028984,
                -0.7697090608100925
            ]
        },
        {
            "positions": [
                1.3328460691928208,
                -1.9659837705011798,
                0.5928670693916647,
                -1.3548054435372126,
                0.11779092145068287,
                -0.701400007329217
            ]
        },
        {
            "positions": [
                1.423190861529434,
                -1.9647076831946173,
                0.4975338113104264,
                -1.4074158185508425,
                0.1888065229263366,
                -0.6330909538483417
            ]
        },
        {
            "positions": [
                1.5135356538660472,
                -1.963431595888055,
                0.402200553229188,
                -1.4600261935644725,
                0.25982212440199043,
                -0.5647819003674661
            ]
        },
        {
            "positions": [
                1.6038804462026606,
                -1.9621555085814926,
                0.30686729514794975,
                -1.5126365685781025,
                0.33083772587764415,
                -0.49647284688659077
            ]
        },
        {
            "positions": [
                1.694225238539274,
                -1.9608794212749303,
                0.21153403706671137,
                -1.5652469435917324,
                0.40185332735329804,
                -0.4281637934057153
            ]
        },
        {
            "positions": [
                1.7845700308758872,
                -1.9596033339683678,
                0.11620077898547299,
                -1.6178573186053624,
                0.47286892882895193,
                -0.35985473992483985
            ]
        },
        {
            "positions": [
                1.8749148232125006,
                -1.9583272466618054,
                0.020867520904234604,
                -1.6704676936189924,
                0.5438845303046057,
                -0.2915456864439644
            ]
        },
        {
            "positions": [
                1.9652596155491135,
                -1.957051159355243,
                -0.07446573717700344,
                -1.7230780686326224,
                0.6149001317802594,
                -0.22323663296308904
            ]
        },
        {
            "positions": [
                2.055604407885727,
                -1.9557750720486806,
                -0.16979899525824194,
                -1.7756884436462523,
                0.6859157332559133,
                -0.15492757948221358
            ]
        },
        {
            "positions": [
                2.1459492002223404,
                -1.9544989847421181,
                -0.2651322533394802,
                -1.8282988186598823,
                0.756931334731567,
                -0.08661852600133801
            ]
        },
        {
            "positions": [
                2.2362939925589536,
                -1.9532228974355559,
                -0.3604655114207187,
                -1.8809091936735123,
                0.8279469362072209,
                -0.018309472520462666
            ]
        },
        {
            "positions": [
                2.3266387848955667,
                -1.9519468101289934,
                -0.45579876950195675,
                -1.9335195686871423,
                0.8989625376828745,
                0.04999958096041279
            ]
        },
        {
            "positions": [
                2.41698357723218,
                -1.9506707228224311,
                -0.5511320275831952,
                -1.9861299437007722,
                0.9699781391585285,
                0.11830863444128825
            ]
        },
        {
            "positions": [
                2.5073283695687936,
                -1.9493946355158687,
                -0.6464652856644336,
                -2.038740318714402,
                1.0409937406341823,
                0.18661768792216377
            ]
        },
        {
            "positions": [
                2.548305461361117,
                -1.9938647850316091,
                -0.7191003084772105,
                -2.1078344977879895,
                0.9845960184914064,
                0.2344462548395459
            ]
        },
        {
            "positions": [
                2.5892825531534402,
                -2.0383349345473496,
                -0.7917353312899875,
                -2.1769286768615768,
                0.9281982963486306,
                0.28227482175692803
            ]
        },
        {
            "positions": [
                2.6302596449457636,
                -2.0828050840630903,
                -0.8643703541027645,
                -2.246022855935164,
                0.8718005742058548,
                0.33010338867431016
            ]
        },
        {
            "positions": [
                2.671236736738087,
                -2.1272752335788305,
                -0.9370053769155414,
                -2.3151170350087513,
                0.8154028520630789,
                0.3779319555916923
            ]
        },
        {
            "positions": [
                2.6833382678173368,
                -2.1422003571474426,
                -0.9952919869574338,
                -2.3438389978857215,
                0.738451024573477,
                0.5582795676965197
            ]
        },
        {
            "positions": [
                2.6954397988965866,
                -2.1571254807160547,
                -1.0535785969993263,
                -2.372560960762692,
                0.6614991970838751,
                0.738627179801347
            ]
        },
        {
            "positions": [
                2.7075413299758364,
                -2.172050604284667,
                -1.1118652070412187,
                -2.4012829236396622,
                0.5845473695942731,
                0.9189747919061744
            ]
        },
        {
            "positions": [
                2.7196428610550867,
                -2.1869757278532793,
                -1.1701518170831111,
                -2.4300048865166324,
                0.5075955421046712,
                1.0993224040110017
            ]
        },
        {
            "positions": [
                2.7317443921343365,
                -2.2019008514218914,
                -1.2284384271250035,
                -2.4587268493936025,
                0.4306437146150693,
                1.279670016115829
            ]
        },
        {
            "positions": [
                2.7438459232135863,
                -2.2168259749905035,
                -1.2867250371668961,
                -2.487448812270573,
                0.3536918871254674,
                1.4600176282206563
            ]
        },
        {
            "positions": [
                2.755947454292836,
                -2.2317510985591156,
                -1.3450116472087885,
                -2.5161707751475433,
                0.27674005963586545,
                1.6403652403254836
            ]
        },
        {
            "positions": [
                2.744406705861941,
                -2.2266586145266514,
                -1.38143756563117,
                -2.51171939852329,
                0.18562987006834158,
                1.82464717635556
            ]
        },
        {
            "positions": [
                2.7328659574310463,
                -2.2215661304941867,
                -1.4178634840535516,
                -2.5072680218990366,
                0.09451968050081769,
                2.0089291123856365
            ]
        },
        {
            "positions": [
                2.721325209000151,
                -2.216473646461722,
                -1.4542894024759332,
                -2.502816645274783,
                0.0034094909332937906,
                2.193211048415713
            ]
        },
        {
            "positions": [
                2.709784460569256,
                -2.211381162429258,
                -1.4907153208983146,
                -2.49836526865053,
                -0.08770069863423008,
                2.37749298444579
            ]
        },
        {
            "positions": [
                2.6982437121383613,
                -2.2062886783967937,
                -1.527141239320696,
                -2.493913892026277,
                -0.178810888201754,
                2.5617749204758664
            ]
        },
        {
            "positions": [
                2.686702963707466,
                -2.201196194364329,
                -1.5635671577430776,
                -2.4894625154020233,
                -0.2699210777692779,
                2.746056856505943
            ]
        },
        {
            "positions": [
                2.6730861347772263,
                -2.1949602738120886,
                -1.6042894566357078,
                -2.4837405229999217,
                -0.3734053465529329,
                2.9548348026854416
            ]
        },
        {
            "positions": [
                2.659469305846986,
                -2.1887243532598486,
                -1.645011755528338,
                -2.4780185305978195,
                -0.4768896153365879,
                3.163612748864941
            ]
        }
    ]
}