{
    "goal": {
        "global_pose": {
            "orientation": {
                "w": 0.7031023502349854,
                "x": -0.7110244035720825,
                "y": 0.007748599164187908,
                "z": 0.005598929710686207
            },
            "position": {
                "x": 0.11585023208521307,
                "y": 0.44412534475326537,
                "z": 0.3711530566215515
            }
        },
        "name": "move_to_auspresseinheit_A"
    },
    "id": "RRTConnect_move_to_auspresseinheit_A_108",
    "joint_names": [
        "shoulder_pan_joint",
        "shoulder_lift_joint",
        "elbow_joint",
        "wrist_1_joint",
        "wrist_2_joint",
        "wrist_3_joint"
    ],
    "metrics": {
        "cart_traj_len": 0.8233338919091898,
        "distance_elbow_joint": 0.22673728308973162,
        "distance_shoulder_lift_joint": 0.535359287452954,
        "distance_shoulder_pan_joint": 1.1501002106040574,
        "distance_wrist_1_joint": 1.0224265989401957,
        "distance_wrist_2_joint": 1.1302755177572452,
        "distance_wrist_3_joint": 0.9494579266468279,
        "smoothness": 1.4495143232987897,
        "time": 0.055268025,
        "traj_len": 2.2392759598787757,
        "weighted_distance": 3.010975721337206
    },
    "planner": "RRTConnect",
    "start": {
        "state": {
            "elbow_joint": 2.422574709923281,
            "shoulder_lift_joint": -1.3736533754116391,
            "shoulder_pan_joint": -0.33786336945926293,
            "wrist_1_joint": -1.0288603412921917,
            "wrist_2_joint": 1.2330224858903978,
            "wrist_3_joint": -3.094022268022082
        }
    },
    "waypoints": [
        {
            "positions": [
                -0.33786336945926293,
                -1.3736533754116391,
                2.422574709923281,
                -1.0288603412921917,
                1.2330224858903978,
                -3.094022268022082
            ]
        },
        {
            "positions": [
                -0.3509090825368243,
                -1.4556885514184308,
                2.447606402749285,
                -1.0872383745636531,
                1.3097234847940862,
                -2.979762549550729
            ]
        },
        {
            "positions": [
                -0.3639547956143857,
                -1.5377237274252222,
                2.4726380955752894,
                -1.1456164078351148,
                1.3864244836977748,
                -2.8655028310793753
            ]
        },
        {
            "positions": [
                -0.37700050869194707,
                -1.6197589034320137,
                2.4976697884012937,
                -1.2039944411065764,
                1.4631254826014635,
                -2.751243112608022
            ]
        },
        {
            "positions": [
                -0.39004622176950843,
                -1.7017940794388053,
                2.5227014812272976,
                -1.2623724743780378,
                1.539826481505152,
                -2.636983394136669
            ]
        },
        {
            "positions": [
                -0.26805540418130713,
                -1.7248183664861152,
                2.5086336465844403,
                -1.1747153115053324,
                1.4483296457115418,
                -2.6916966222212704
            ]
        },
        {
            "positions": [
                -0.14606458659310584,
                -1.7478426535334248,
                2.494565811941583,
                -1.0870581486326267,
                1.3568328099179316,
                -2.7464098503058723
            ]
        },
        {
            "positions": [
                -0.024073769004904544,
                -1.7708669405807347,
                2.480497977298726,
                -0.9994009857599213,
                1.2653359741243215,
                -2.8011230783904737
            ]
        },
        {
            "positions": [
                0.09791704858329675,
                -1.7938912276280443,
                2.466430142655869,
                -0.9117438228872157,
                1.1738391383307114,
                -2.8558363064750756
            ]
        },
        {
            "positions": [
                0.21990786617149816,
                -1.8169155146753542,
                2.4523623080130115,
                -0.8240866600145103,
                1.0823423025371013,
                -2.910549534559677
            ]
        },
        {
            "positions": [
                0.34189868375969934,
                -1.8399398017226638,
                2.438294473370154,
                -0.7364294971418047,
                0.9908454667434912,
                -2.965262762644279
            ]
        },
        {
            "positions": [
                0.46388950134790075,
                -1.8629640887699737,
                2.4242266387272973,
                -0.6487723342690992,
                0.8993486309498809,
                -3.0199759907288803
            ]
        },
        {
            "positions": [
                0.5858803189361019,
                -1.8859883758172833,
                2.41015880408444,
                -0.5611151713963937,
                0.8078517951562708,
                -3.0746892188134822
            ]
        },
        {
            "positions": [
                0.7078711365243034,
                -1.9090126628645931,
                2.3960909694415826,
                -0.4734580085236882,
                0.7163549593626607,
                -3.1294024468980837
            ]
        }
    ]
}