{
    "goal": {
        "global_pose": {
            "orientation": {
                "w": 0.7047431468963623,
                "x": -0.7094548344612122,
                "y": 0.0024358443915843964,
                "z": -0.0022348060738295317
            },
            "position": {
                "x": 0.6094750761985779,
                "y": 0.3671506643295288,
                "z": 0.19426114857196808
            }
        },
        "name": "move_to_magneteinheit_A"
    },
    "id": "RRTConnect_move_to_magneteinheit_A_107",
    "joint_names": [
        "shoulder_pan_joint",
        "shoulder_lift_joint",
        "elbow_joint",
        "wrist_1_joint",
        "wrist_2_joint",
        "wrist_3_joint"
    ],
    "metrics": {
        "cart_traj_len": 2.0624715131993714,
        "distance_elbow_joint": 3.8709039488587855,
        "distance_shoulder_lift_joint": 1.0509155044736784,
        "distance_shoulder_pan_joint": 1.241507847050704,
        "distance_wrist_1_joint": 1.1226995287748658,
        "distance_wrist_2_joint": 1.4493296978354437,
        "distance_wrist_3_joint": 1.8880462976590735,
        "smoothness": 3.4892723817896226e-16,
        "time": 0.048494361,
        "traj_len": 3.259356197879046,
        "weighted_distance": 4.119651034563608
    },
    "planner": "RRTConnect",
    "start": {
        "state": {
            "elbow_joint": -1.919643507792019,
            "shoulder_lift_joint": -0.07675430207160344,
            "shoulder_pan_joint": -1.1188671864651873,
            "wrist_1_joint": 0.42560062535961957,
            "wrist_2_joint": 1.5706038300724876,
            "wrist_3_joint": 1.1188968870953055
        }
    },
    "waypoints": [
        {
            "positions": [
                -1.1188671864651873,
                -0.07675430207160344,
                -1.919643507792019,
                0.42560062535961957,
                1.5706038300724876,
                1.1188968870953055
            ]
        },
        {
            "positions": [
                -1.0728854143521984,
                -0.11567709853359154,
                -1.7762766948713233,
                0.38401916133092084,
                1.5169249523748787,
                1.1888245277493452
            ]
        },
        {
            "positions": [
                -1.0269036422392093,
                -0.15459989499557963,
                -1.6329098819506276,
                0.3424376973022221,
                1.4632460746772695,
                1.258752168403385
            ]
        },
        {
            "positions": [
                -0.9809218701262202,
                -0.1935226914575677,
                -1.4895430690299318,
                0.3008562332735234,
                1.4095671969796606,
                1.3286798090574248
            ]
        },
        {
            "positions": [
                -0.9349400980132312,
                -0.2324454879195558,
                -1.346176256109236,
                0.2592747692448246,
                1.3558883192820514,
                1.3986074497114647
            ]
        },
        {
            "positions": [
                -0.8889583259002422,
                -0.27136828438154387,
                -1.2028094431885403,
                0.21769330521612593,
                1.3022094415844425,
                1.4685350903655043
            ]
        },
        {
            "positions": [
                -0.8429765537872531,
                -0.31029108084353196,
                -1.0594426302678446,
                0.17611184118742718,
                1.2485305638868334,
                1.538462731019544
            ]
        },
        {
            "positions": [
                -0.7969947816742642,
                -0.34921387730552006,
                -0.9160758173471488,
                0.13453037715872845,
                1.1948516861892244,
                1.608390371673584
            ]
        },
        {
            "positions": [
                -0.751013009561275,
                -0.38813667376750816,
                -0.7727090044264531,
                0.09294891313002973,
                1.1411728084916155,
                1.6783180123276236
            ]
        },
        {
            "positions": [
                -0.7050312374482861,
                -0.42705947022949625,
                -0.6293421915057573,
                0.05136744910133101,
                1.0874939307940064,
                1.7482456529816632
            ]
        },
        {
            "positions": [
                -0.659049465335297,
                -0.4659822666914843,
                -0.48597537858506157,
                0.009785985072632286,
                1.0338150530963972,
                1.8181732936357031
            ]
        },
        {
            "positions": [
                -0.613067693222308,
                -0.5049050631534724,
                -0.3426085656643658,
                -0.03179547895606649,
                0.9801361753987884,
                1.888100934289743
            ]
        },
        {
            "positions": [
                -0.567085921109319,
                -0.5438278596154604,
                -0.19924175274367006,
                -0.07337694298476521,
                0.9264572977011793,
                1.9580285749437825
            ]
        },
        {
            "positions": [
                -0.52110414899633,
                -0.5827506560774487,
                -0.05587493982297431,
                -0.11495840701346388,
                0.8727784200035703,
                2.0279562155978224
            ]
        },
        {
            "positions": [
                -0.4751223768833409,
                -0.6216734525394367,
                0.08749187309772144,
                -0.15653987104216266,
                0.8190995423059613,
                2.0978838562518622
            ]
        },
        {
            "positions": [
                -0.42914060477035176,
                -0.6605962490014248,
                0.23085868601841741,
                -0.19812133507086144,
                0.7654206646083521,
                2.1678114969059017
            ]
        },
        {
            "positions": [
                -0.38315883265736284,
                -0.6995190454634128,
                0.37422549893911294,
                -0.2397027990995601,
                0.7117417869107432,
                2.2377391375599416
            ]
        },
        {
            "positions": [
                -0.3371770605443737,
                -0.7384418419254011,
                0.5175923118598089,
                -0.2812842631282589,
                0.6580629092131342,
                2.3076667782139815
            ]
        },
        {
            "positions": [
                -0.29119528843138476,
                -0.7773646383873891,
                0.6609591247805044,
                -0.32286572715695755,
                0.6043840315155251,
                2.3775944188680214
            ]
        },
        {
            "positions": [
                -0.24521351631839572,
                -0.8162874348493772,
                0.8043259377012004,
                -0.3644471911856563,
                0.550705153817916,
                2.4475220595220613
            ]
        },
        {
            "positions": [
                -0.19923174420540668,
                -0.8552102313113652,
                0.947692750621896,
                -0.406028655214355,
                0.49702627612030703,
                2.5174497001761007
            ]
        },
        {
            "positions": [
                -0.15324997209241764,
                -0.8941330277733532,
                1.091059563542592,
                -0.4476101192430539,
                0.4433473984226981,
                2.5873773408301406
            ]
        },
        {
            "positions": [
                -0.10726819997942871,
                -0.9330558242353413,
                1.2344263764632875,
                -0.48919158327175255,
                0.3896685207250892,
                2.65730498148418
            ]
        },
        {
            "positions": [
                -0.06128642786643956,
                -0.9719786206973295,
                1.3777931893839834,
                -0.5307730473004513,
                0.33598964302748,
                2.72723262213822
            ]
        },
        {
            "positions": [
                -0.015304655753450636,
                -1.0109014171593176,
                1.521160002304679,
                -0.5723545113291499,
                0.2823107653298711,
                2.79716026279226
            ]
        },
        {
            "positions": [
                0.030677116359538514,
                -1.0498242136213056,
                1.664526815225375,
                -0.6139359753578486,
                0.22863188763226194,
                2.8670879034462997
            ]
        },
        {
            "positions": [
                0.07665888847252744,
                -1.0887470100832939,
                1.8078936281460705,
                -0.6555174393865473,
                0.17495300993465301,
                2.937015544100339
            ]
        },
        {
            "positions": [
                0.12264066058551651,
                -1.127669806545282,
                1.9512604410667664,
                -0.6970989034152462,
                0.12127413223704397,
                3.006943184754379
            ]
        }
    ]
}