{
    "goal": {
        "global_pose": {
            "orientation": {
                "w": 0.7031023502349854,
                "x": -0.7110244035720825,
                "y": 0.007748599164187908,
                "z": 0.005598929710686207
            },
            "position": {
                "x": 0.11585023208521307,
                "y": 0.44412534475326537,
                "z": 0.3711530566215515
            }
        },
        "name": "move_to_auspresseinheit_A"
    },
    "id": "RRTConnect_move_to_auspresseinheit_A_79",
    "joint_names": [
        "shoulder_pan_joint",
        "shoulder_lift_joint",
        "elbow_joint",
        "wrist_1_joint",
        "wrist_2_joint",
        "wrist_3_joint"
    ],
    "metrics": {
        "cart_traj_len": 1.9104036330846799,
        "distance_elbow_joint": 0.4951890886355077,
        "distance_shoulder_lift_joint": 3.035529231146296,
        "distance_shoulder_pan_joint": 1.2173694622471638,
        "distance_wrist_1_joint": 5.018186172149042,
        "distance_wrist_2_joint": 4.134333687063688,
        "distance_wrist_3_joint": 5.51345798729435,
        "smoothness": 0.6779297630199116,
        "time": 0.226924349,
        "traj_len": 4.406139538023741,
        "weighted_distance": 6.292336725123464
    },
    "planner": "RRTConnect",
    "start": {
        "state": {
            "elbow_joint": 2.422574709923281,
            "shoulder_lift_joint": -1.3736533754116391,
            "shoulder_pan_joint": -0.33786336945926293,
            "wrist_1_joint": -1.0288603412921917,
            "wrist_2_joint": 1.2330224858903978,
            "wrist_3_joint": -3.094022268022082
        }
    },
    "waypoints": [
        {
            "positions": [
                -0.33786336945926293,
                -1.3736533754116391,
                2.422574709923281,
                -1.0288603412921917,
                1.2330224858903978,
                -3.094022268022082
            ]
        },
        {
            "positions": [
                -0.2974652799202312,
                -1.4374372725836007,
                2.4309525250653516,
                -0.9295296755726895,
                1.149718709451423,
                -2.9961110942602587
            ]
        },
        {
            "positions": [
                -0.2570671903811994,
                -1.501221169755562,
                2.439330340207422,
                -0.8301990098531873,
                1.066414933012448,
                -2.8981999204984357
            ]
        },
        {
            "positions": [
                -0.21666910084216767,
                -1.5650050669275235,
                2.4477081553494924,
                -0.730868344133685,
                0.9831111565734731,
                -2.800288746736612
            ]
        },
        {
            "positions": [
                -0.17627101130313594,
                -1.6287889640994848,
                2.4560859704915625,
                -0.6315376784141827,
                0.8998073801344981,
                -2.7023775729747888
            ]
        },
        {
            "positions": [
                -0.13587292176410418,
                -1.6925728612714463,
                2.464463785633633,
                -0.5322070126946805,
                0.8165036036955233,
                -2.6044663992129657
            ]
        },
        {
            "positions": [
                -0.09547483222507244,
                -1.7563567584434077,
                2.4728416007757033,
                -0.4328763469751783,
                0.7331998272565484,
                -2.5065552254511423
            ]
        },
        {
            "positions": [
                -0.05507674268604068,
                -1.8201406556153692,
                2.481219415917774,
                -0.33354568125567596,
                0.6498960508175735,
                -2.408644051689319
            ]
        },
        {
            "positions": [
                -0.014678653147008947,
                -1.8839245527873305,
                2.4895972310598444,
                -0.23421501553617374,
                0.5665922743785986,
                -2.310732877927496
            ]
        },
        {
            "positions": [
                0.025719436392022843,
                -1.947708449959292,
                2.4979750462019146,
                -0.1348843498166714,
                0.4832884979396237,
                -2.2128217041656724
            ]
        },
        {
            "positions": [
                0.06611752593105458,
                -2.0114923471312536,
                2.506352861343985,
                -0.03555368409716919,
                0.3999847215006488,
                -2.114910530403849
            ]
        },
        {
            "positions": [
                0.10651561547008631,
                -2.0752762443032147,
                2.5147306764860553,
                0.06377698162233303,
                0.316680945061674,
                -2.0169993566420255
            ]
        },
        {
            "positions": [
                0.14691370500911805,
                -2.139060141475176,
                2.523108491628126,
                0.16310764734183514,
                0.23337716862269908,
                -1.9190881828802024
            ]
        },
        {
            "positions": [
                0.1873117945481499,
                -2.2028440386471377,
                2.531486306770196,
                0.2624383130613377,
                0.15007339218372406,
                -1.821177009118379
            ]
        },
        {
            "positions": [
                0.22770988408718157,
                -2.2666279358190993,
                2.5398641219122666,
                0.3617689787808398,
                0.06676961574474927,
                -1.7232658353565558
            ]
        },
        {
            "positions": [
                0.26810797362621325,
                -2.330411832991061,
                2.548241937054337,
                0.4610996445003419,
                -0.01653416069422553,
                -1.6253546615947325
            ]
        },
        {
            "positions": [
                0.30850606316524504,
                -2.3941957301630223,
                2.5566197521964074,
                0.5604303102198442,
                -0.09983793713320055,
                -1.5274434878329093
            ]
        },
        {
            "positions": [
                0.3489041527042767,
                -2.4579796273349834,
                2.564997567338478,
                0.6597609759393464,
                -0.18314171357217535,
                -1.429532314071086
            ]
        },
        {
            "positions": [
                0.3893022422433086,
                -2.5217635245069454,
                2.573375382480548,
                0.7590916416588489,
                -0.26644549001115037,
                -1.3316211403092624
            ]
        },
        {
            "positions": [
                0.4297003317823404,
                -2.5855474216789065,
                2.5817531976226187,
                0.8584223073783512,
                -0.34974926645012516,
                -1.2337099665474391
            ]
        },
        {
            "positions": [
                0.4700984213213721,
                -2.649331318850868,
                2.590131012764689,
                0.9577529730978533,
                -0.4330530428891002,
                -1.135798792785616
            ]
        },
        {
            "positions": [
                0.5104965108604038,
                -2.713115216022829,
                2.5985088279067594,
                1.0570836388173555,
                -0.516356819328075,
                -1.0378876190237927
            ]
        },
        {
            "positions": [
                0.5508946003994355,
                -2.7768991131947907,
                2.60688664304883,
                1.1564143045368578,
                -0.5996605957670498,
                -0.9399764452619692
            ]
        },
        {
            "positions": [
                0.5912926899384672,
                -2.840683010366752,
                2.6152644581909,
                1.2557449702563601,
                -0.6829643722060248,
                -0.8420652715001462
            ]
        },
        {
            "positions": [
                0.6316907794774991,
                -2.9044669075387137,
                2.6236422733329707,
                1.355075635975862,
                -0.7662681486449996,
                -0.7441540977383228
            ]
        },
        {
            "positions": [
                0.6720888690165308,
                -2.9682508047106753,
                2.632020088475041,
                1.4544063016953648,
                -0.8495719250839748,
                -0.6462429239764993
            ]
        },
        {
            "positions": [
                0.7124869585555627,
                -3.032034701882637,
                2.6403979036171115,
                1.553736967414867,
                -0.9328757015229496,
                -0.5483317502146758
            ]
        },
        {
            "positions": [
                0.7528850480945943,
                -3.0958185990545983,
                2.6487757187591816,
                1.653067633134369,
                -1.0161794779619244,
                -0.45042057645285283
            ]
        },
        {
            "positions": [
                0.793283137633626,
                -3.1596024962265594,
                2.657153533901252,
                1.7523982988538713,
                -1.0994832544008992,
                -0.35250940269102937
            ]
        },
        {
            "positions": [
                0.7893639123993408,
                -3.102803400302406,
                2.645307612780455,
                1.6507197746719178,
                -1.017581984093063,
                -0.47850690823481556
            ]
        },
        {
            "positions": [
                0.7854446871650556,
                -3.0460043043782523,
                2.633461691659658,
                1.5490412504899642,
                -0.9356807137852271,
                -0.6045044137786018
            ]
        },
        {
            "positions": [
                0.7815254619307704,
                -2.989205208454099,
                2.621615770538861,
                1.4473627263080107,
                -0.853779443477391,
                -0.730501919322388
            ]
        },
        {
            "positions": [
                0.7776062366964852,
                -2.9324061125299457,
                2.609769849418064,
                1.345684202126057,
                -0.771878173169555,
                -0.8564994248661741
            ]
        },
        {
            "positions": [
                0.7736870114622,
                -2.8756070166057923,
                2.597923928297267,
                1.2440056779441035,
                -0.6899769028617189,
                -0.9824969304099603
            ]
        },
        {
            "positions": [
                0.7697677862279148,
                -2.818807920681639,
                2.5860780071764693,
                1.14232715376215,
                -0.6080756325538828,
                -1.1084944359537465
            ]
        },
        {
            "positions": [
                0.7658485609936296,
                -2.762008824757485,
                2.574232086055672,
                1.0406486295801964,
                -0.5261743622460467,
                -1.2344919414975328
            ]
        },
        {
            "positions": [
                0.7619293357593444,
                -2.705209728833332,
                2.562386164934875,
                0.9389701053982427,
                -0.44427309193821063,
                -1.360489447041319
            ]
        },
        {
            "positions": [
                0.7580101105250592,
                -2.6484106329091786,
                2.550540243814078,
                0.8372915812162891,
                -0.3623718216303745,
                -1.4864869525851052
            ]
        },
        {
            "positions": [
                0.754090885290774,
                -2.5916115369850248,
                2.538694322693281,
                0.7356130570343355,
                -0.2804705513225385,
                -1.6124844581288913
            ]
        },
        {
            "positions": [
                0.7501716600564887,
                -2.5348124410608714,
                2.526848401572484,
                0.633934532852382,
                -0.1985692810147024,
                -1.7384819636726776
            ]
        },
        {
            "positions": [
                0.7462524348222036,
                -2.478013345136718,
                2.515002480451687,
                0.5322560086704284,
                -0.11666801070686639,
                -1.8644794692164637
            ]
        },
        {
            "positions": [
                0.7423332095879184,
                -2.421214249212565,
                2.5031565593308898,
                0.4305774844884749,
                -0.03476674039903016,
                -1.99047697476025
            ]
        },
        {
            "positions": [
                0.7384139843536331,
                -2.3644151532884115,
                2.4913106382100927,
                0.3288989603065213,
                0.04713452990880573,
                -2.1164744803040363
            ]
        },
        {
            "positions": [
                0.7344947591193479,
                -2.3076160573642577,
                2.4794647170892956,
                0.22722043612456777,
                0.12903580021664185,
                -2.242471985847822
            ]
        },
        {
            "positions": [
                0.7305755338850628,
                -2.2508169614401043,
                2.4676187959684985,
                0.125541911942614,
                0.21093707052447797,
                -2.3684694913916085
            ]
        },
        {
            "positions": [
                0.7266563086507776,
                -2.194017865515951,
                2.455772874847701,
                0.02386338776066066,
                0.2928383408323141,
                -2.4944669969353948
            ]
        },
        {
            "positions": [
                0.7227370834164923,
                -2.1372187695917972,
                2.443926953726904,
                -0.07781513642129312,
                0.3747396111401502,
                -2.620464502479181
            ]
        },
        {
            "positions": [
                0.7188178581822071,
                -2.080419673667644,
                2.432081032606107,
                -0.17949366060324667,
                0.4566408814479863,
                -2.7464620080229674
            ]
        },
        {
            "positions": [
                0.714898632947922,
                -2.0236205777434906,
                2.42023511148531,
                -0.28117218478520023,
                0.5385421517558222,
                -2.872459513566753
            ]
        },
        {
            "positions": [
                0.7109794077136368,
                -1.966821481819337,
                2.4083891903645127,
                -0.3828507089671538,
                0.6204434220636585,
                -2.9984570191105395
            ]
        },
        {
            "positions": [
                0.7070601824793515,
                -1.9100223858951837,
                2.3965432692437156,
                -0.48452923314910745,
                0.7023446923714943,
                -3.124454524654326
            ]
        }
    ]
}