{
    "goal": {
        "global_pose": {
            "orientation": {
                "w": 0.7047431468963623,
                "x": -0.7094548344612122,
                "y": 0.0024358443915843964,
                "z": -0.0022348060738295317
            },
            "position": {
                "x": 0.6094750761985779,
                "y": 0.3671506643295288,
                "z": 0.19426114857196808
            }
        },
        "name": "move_to_magneteinheit_A"
    },
    "id": "RRTConnect_move_to_magneteinheit_A_53",
    "joint_names": [
        "shoulder_pan_joint",
        "shoulder_lift_joint",
        "elbow_joint",
        "wrist_1_joint",
        "wrist_2_joint",
        "wrist_3_joint"
    ],
    "metrics": {
        "cart_traj_len": 1.8795799829890754,
        "distance_elbow_joint": 3.9085532363272,
        "distance_shoulder_lift_joint": 0.6982848515161362,
        "distance_shoulder_pan_joint": 1.240406376925045,
        "distance_wrist_1_joint": 1.4796472535976735,
        "distance_wrist_2_joint": 1.700715078281921,
        "distance_wrist_3_joint": 1.0881517906051625,
        "smoothness": 6.908054365195901e-16,
        "time": 0.078928661,
        "traj_len": 3.180528035916857,
        "weighted_distance": 3.9335002860484276
    },
    "planner": "RRTConnect",
    "start": {
        "state": {
            "elbow_joint": -1.919643507792019,
            "shoulder_lift_joint": -0.07675430207160344,
            "shoulder_pan_joint": -1.1188671864651873,
            "wrist_1_joint": 0.42560062535961957,
            "wrist_2_joint": 1.5706038300724876,
            "wrist_3_joint": 1.1188968870953055
        }
    },
    "waypoints": [
        {
            "positions": [
                -1.1188671864651873,
                -0.07675430207160344,
                -1.919643507792019,
                0.42560062535961957,
                1.5706038300724876,
                1.1188968870953055
            ]
        },
        {
            "positions": [
                -1.0711592488911472,
                -0.10361141174530099,
                -1.7693145371640497,
                0.48251013511337626,
                1.505191711677029,
                1.077044895148953
            ]
        },
        {
            "positions": [
                -1.0234513113171069,
                -0.13046852141899853,
                -1.6189855665360806,
                0.5394196448671329,
                1.4397795932815707,
                1.0351929032026008
            ]
        },
        {
            "positions": [
                -0.9757433737430667,
                -0.1573256310926961,
                -1.4686565959081115,
                0.5963291546208895,
                1.374367474886112,
                0.9933409112562483
            ]
        },
        {
            "positions": [
                -0.9280354361690266,
                -0.18418274076639363,
                -1.3183276252801421,
                0.6532386643746463,
                1.3089553564906535,
                0.9514889193098959
            ]
        },
        {
            "positions": [
                -0.8803274985949864,
                -0.2110398504400912,
                -1.1679986546521728,
                0.7101481741284029,
                1.2435432380951952,
                0.9096369273635435
            ]
        },
        {
            "positions": [
                -0.8326195610209461,
                -0.23789696011378872,
                -1.0176696840242037,
                0.7670576838821597,
                1.1781311196997366,
                0.8677849354171912
            ]
        },
        {
            "positions": [
                -0.784911623446906,
                -0.2647540697874863,
                -0.8673407133962345,
                0.8239671936359163,
                1.1127190013042783,
                0.8259329434708387
            ]
        },
        {
            "positions": [
                -0.7372036858728658,
                -0.2916111794611838,
                -0.7170117427682652,
                0.8808767033896729,
                1.0473068829088197,
                0.7840809515244863
            ]
        },
        {
            "positions": [
                -0.6894957482988255,
                -0.31846828913488134,
                -0.566682772140296,
                0.9377862131434296,
                0.9818947645133611,
                0.742228959578134
            ]
        },
        {
            "positions": [
                -0.6417878107247854,
                -0.34532539880857893,
                -0.4163538015123267,
                0.9946957228971862,
                0.9164826461179026,
                0.7003769676317815
            ]
        },
        {
            "positions": [
                -0.5940798731507452,
                -0.3721825084822764,
                -0.2660248308843576,
                1.0516052326509429,
                0.8510705277224442,
                0.6585249756854291
            ]
        },
        {
            "positions": [
                -0.5463719355767049,
                -0.399039618155974,
                -0.11569586025638823,
                1.1085147424046997,
                0.7856584093269856,
                0.6166729837390766
            ]
        },
        {
            "positions": [
                -0.4986639980026648,
                -0.42589672782967153,
                0.0346331103715809,
                1.1654242521584564,
                0.7202462909315271,
                0.5748209917927243
            ]
        },
        {
            "positions": [
                -0.4509560604286247,
                -0.45275383750336906,
                0.18496208099955003,
                1.222333761912213,
                0.6548341725360687,
                0.5329689998463719
            ]
        },
        {
            "positions": [
                -0.40324812285458445,
                -0.4796109471770666,
                0.33529105162751915,
                1.2792432716659696,
                0.5894220541406102,
                0.49111700790001955
            ]
        },
        {
            "positions": [
                -0.3555401852805442,
                -0.5064680568507642,
                0.4856200222554887,
                1.3361527814197263,
                0.5240099357451515,
                0.4492650159536671
            ]
        },
        {
            "positions": [
                -0.30783224770650397,
                -0.5333251665244617,
                0.6359489928834579,
                1.393062291173483,
                0.4585978173496932,
                0.4074130240073146
            ]
        },
        {
            "positions": [
                -0.26012431013246384,
                -0.5601822761981592,
                0.786277963511427,
                1.4499718009272398,
                0.3931856989542346,
                0.36556103206096224
            ]
        },
        {
            "positions": [
                -0.21241637255842372,
                -0.5870393858718568,
                0.9366069341393961,
                1.5068813106809964,
                0.32777358055877626,
                0.3237090401146099
            ]
        },
        {
            "positions": [
                -0.16470843498438337,
                -0.6138964955455544,
                1.0869359047673657,
                1.563790820434753,
                0.2623614621633177,
                0.2818570481682574
            ]
        },
        {
            "positions": [
                -0.11700049741034313,
                -0.640753605219252,
                1.2372648753953348,
                1.6207003301885097,
                0.1969493437678591,
                0.24000505622190504
            ]
        },
        {
            "positions": [
                -0.069292559836303,
                -0.6676107148929493,
                1.387593846023304,
                1.6776098399422663,
                0.13153722537240076,
                0.19815306427555268
            ]
        },
        {
            "positions": [
                -0.021584622262262876,
                -0.6944678245666469,
                1.537922816651273,
                1.734519349696023,
                0.06612510697694218,
                0.1563010723292002
            ]
        },
        {
            "positions": [
                0.026123315311777473,
                -0.7213249342403445,
                1.6882517872792426,
                1.7914288594497798,
                0.000712988581483609,
                0.11444908038284773
            ]
        },
        {
            "positions": [
                0.0738312528858176,
                -0.7481820439140421,
                1.8385807579072118,
                1.8483383692035364,
                -0.06469912981397496,
                0.07259708843649548
            ]
        },
        {
            "positions": [
                0.12153919045985782,
                -0.7750391535877397,
                1.9889097285351809,
                1.905247878957293,
                -0.13011124820943326,
                0.030745096490143
            ]
        }
    ]
}