{
    "goal": {
        "global_pose": {
            "orientation": {
                "w": -0.00223480608172531,
                "x": 0.0024358444001904467,
                "y": 0.7094548369677653,
                "z": -0.704743149386269
            },
            "position": {
                "x": 0.6205249238014221,
                "y": -0.6371506643295288,
                "z": 0.19426114857196808
            }
        },
        "name": "move_to_magneteinheit_B"
    },
    "id": "RRTConnect_move_to_magneteinheit_B_29",
    "joint_names": [
        "shoulder_pan_joint",
        "shoulder_lift_joint",
        "elbow_joint",
        "wrist_1_joint",
        "wrist_2_joint",
        "wrist_3_joint"
    ],
    "metrics": {
        "cart_traj_len": 3.3626533108202588,
        "distance_elbow_joint": 4.156290548362331,
        "distance_shoulder_lift_joint": 1.8981597728972797,
        "distance_shoulder_pan_joint": 3.427874596289756,
        "distance_wrist_1_joint": 2.295085948470172,
        "distance_wrist_2_joint": 1.7803405840175324,
        "distance_wrist_3_joint": 3.1373988867789078,
        "smoothness": 0.29991137878950785,
        "time": 0.39896321,
        "traj_len": 4.085969938315255,
        "weighted_distance": 5.20051676690514
    },
    "planner": "RRTConnect",
    "start": {
        "state": {
            "elbow_joint": 2.39358713078474,
            "shoulder_lift_joint": -1.908514104345545,
            "shoulder_pan_joint": 0.7066247066606129,
            "wrist_1_joint": -0.4678290933515497,
            "wrist_2_joint": 0.7096259083745334,
            "wrist_3_joint": -3.1358149277392293
        }
    },
    "waypoints": [
        {
            "positions": [
                0.7066247066606129,
                -1.908514104345545,
                2.39358713078474,
                -0.4678290933515497,
                0.7096259083745334,
                -3.1358149277392293
            ]
        },
        {
            "positions": [
                0.6456431445781748,
                -1.9316771968501083,
                2.3605184992549564,
                -0.37896682042768925,
                0.6201125296308764,
                -3.0767154774595094
            ]
        },
        {
            "positions": [
                0.5846615824957367,
                -1.9548402893546715,
                2.327449867725173,
                -0.2901045475038288,
                0.5305991508872192,
                -3.017616027179789
            ]
        },
        {
            "positions": [
                0.5236800204132985,
                -1.9780033818592349,
                2.29438123619539,
                -0.20124227457996835,
                0.44108577214356215,
                -2.9585165769000685
            ]
        },
        {
            "positions": [
                0.4626984583308605,
                -2.001166474363798,
                2.2613126046656062,
                -0.1123800016561079,
                0.3515723933999051,
                -2.8994171266203486
            ]
        },
        {
            "positions": [
                0.40171689624842233,
                -2.0243295668683614,
                2.2282439731358226,
                -0.023517728732247445,
                0.2620590146562479,
                -2.8403176763406286
            ]
        },
        {
            "positions": [
                0.3407353341659842,
                -2.047492659372925,
                2.1951753416060393,
                0.065344544191613,
                0.17254563591259087,
                -2.781218226060908
            ]
        },
        {
            "positions": [
                0.29130041785733346,
                -2.020163402024849,
                2.14544490422662,
                0.07805949568705269,
                0.10694792741844401,
                -2.622374691990016
            ]
        },
        {
            "positions": [
                0.2418655015486827,
                -1.9928341446767739,
                2.0957144668472014,
                0.09077444718249236,
                0.04135021892429716,
                -2.4635311579191237
            ]
        },
        {
            "positions": [
                0.1924305852400319,
                -1.9655048873286984,
                2.0459840294677822,
                0.10348939867793205,
                -0.024247489569849706,
                -2.3046876238482317
            ]
        },
        {
            "positions": [
                0.14299566893138113,
                -1.938175629980623,
                1.9962535920883635,
                0.11620435017337175,
                -0.08984519806399655,
                -2.145844089777339
            ]
        },
        {
            "positions": [
                0.09356075262273034,
                -1.9108463726325475,
                1.9465231547089443,
                0.12891930166881144,
                -0.1554429065581434,
                -1.9870005557064472
            ]
        },
        {
            "positions": [
                0.04412583631407957,
                -1.883517115284472,
                1.8967927173295254,
                0.14163425316425113,
                -0.22104061505229028,
                -1.828157021635555
            ]
        },
        {
            "positions": [
                -0.005309079994571225,
                -1.8561878579363966,
                1.8470622799501064,
                0.15434920465969082,
                -0.28663832354643715,
                -1.6693134875646627
            ]
        },
        {
            "positions": [
                0.08244322456195242,
                -1.8337191905668568,
                1.7055264106690784,
                0.21430385752682474,
                -0.2828915132575029,
                -1.6036378444958221
            ]
        },
        {
            "positions": [
                0.17019552911847607,
                -1.8112505231973173,
                1.5639905413880504,
                0.27425851039395865,
                -0.2791447029685686,
                -1.5379622014269818
            ]
        },
        {
            "positions": [
                0.25794783367499974,
                -1.7887818558277775,
                1.4224546721070221,
                0.3342131632610925,
                -0.2753978926796343,
                -1.4722865583581415
            ]
        },
        {
            "positions": [
                0.34570013823152335,
                -1.766313188458238,
                1.2809188028259941,
                0.39416781612822643,
                -0.27165108239070007,
                -1.406610915289301
            ]
        },
        {
            "positions": [
                0.43345244278804695,
                -1.7438445210886981,
                1.1393829335449661,
                0.45412246899536035,
                -0.26790427210176576,
                -1.3409352722204604
            ]
        },
        {
            "positions": [
                0.5212047473445707,
                -1.7213758537191586,
                0.9978470642639381,
                0.5140771218624942,
                -0.2641574618128315,
                -1.27525962915162
            ]
        },
        {
            "positions": [
                0.6089570519010943,
                -1.6989071863496188,
                0.85631119498291,
                0.5740317747296282,
                -0.26041065152389725,
                -1.2095839860827797
            ]
        },
        {
            "positions": [
                0.696709356457618,
                -1.676438518980079,
                0.7147753257018818,
                0.633986427596762,
                -0.25666384123496294,
                -1.1439083430139392
            ]
        },
        {
            "positions": [
                0.7844616610141416,
                -1.6539698516105394,
                0.5732394564208538,
                0.693941080463896,
                -0.2529170309460287,
                -1.0782326999450986
            ]
        },
        {
            "positions": [
                0.8722139655706652,
                -1.6315011842409997,
                0.4317035871398258,
                0.7538957333310299,
                -0.24917022065709443,
                -1.0125570568762583
            ]
        },
        {
            "positions": [
                0.959966270127189,
                -1.60903251687146,
                0.2901677178587976,
                0.8138503861981639,
                -0.24542341036816012,
                -0.9468814138074177
            ]
        },
        {
            "positions": [
                1.0477185746837125,
                -1.5865638495019203,
                0.1486318485777698,
                0.8738050390652977,
                -0.24167660007922587,
                -0.8812057707385774
            ]
        },
        {
            "positions": [
                1.1354708792402364,
                -1.5640951821323807,
                0.00709597929674155,
                0.9337596919324317,
                -0.23792978979029158,
                -0.8155301276697369
            ]
        },
        {
            "positions": [
                1.2232231837967598,
                -1.541626514762841,
                -0.13443988998428646,
                0.9937143447995656,
                -0.23418297950135733,
                -0.7498544846008965
            ]
        },
        {
            "positions": [
                1.3109754883532836,
                -1.5191578473933012,
                -0.2759757592653145,
                1.0536689976666995,
                -0.23043616921242305,
                -0.684178841532056
            ]
        },
        {
            "positions": [
                1.3987277929098072,
                -1.4966891800237616,
                -0.4175116285463427,
                1.1136236505338333,
                -0.2266893589234888,
                -0.6185031984632157
            ]
        },
        {
            "positions": [
                1.4864800974663308,
                -1.4742205126542218,
                -0.559047497827371,
                1.1735783034009672,
                -0.22294254863455448,
                -0.5528275553943751
            ]
        },
        {
            "positions": [
                1.5742324020228544,
                -1.4517518452846823,
                -0.7005833671083987,
                1.2335329562681012,
                -0.21919573834562023,
                -0.4871519123255348
            ]
        },
        {
            "positions": [
                1.6619847065793782,
                -1.4292831779151425,
                -0.842119236389427,
                1.2934876091352352,
                -0.21544892805668597,
                -0.42147626925669424
            ]
        },
        {
            "positions": [
                1.7497370111359016,
                -1.406814510545603,
                -0.9836551056704548,
                1.353442262002369,
                -0.2117021177677517,
                -0.3558006261878539
            ]
        },
        {
            "positions": [
                1.8374893156924255,
                -1.3843458431760631,
                -1.125190974951483,
                1.413396914869503,
                -0.2079553074788174,
                -0.29012498311901347
            ]
        },
        {
            "positions": [
                1.931746028542115,
                -1.479166994870479,
                -1.190570046798246,
                1.3984057171562552,
                -0.1304165092850947,
                -0.2644461478313953
            ]
        },
        {
            "positions": [
                2.0260027413918045,
                -1.5739881465648948,
                -1.2559491186450091,
                1.3834145194430074,
                -0.052877711091372015,
                -0.23876731254377714
            ]
        },
        {
            "positions": [
                2.120259454241494,
                -1.6688092982593108,
                -1.3213281904917722,
                1.3684233217297597,
                0.02466108710235071,
                -0.21308847725615898
            ]
        },
        {
            "positions": [
                2.2145161670911837,
                -1.7636304499537268,
                -1.3867072623385353,
                1.353432124016512,
                0.10219988529607338,
                -0.18740964196854082
            ]
        },
        {
            "positions": [
                2.3087728799408733,
                -1.8584516016481427,
                -1.4520863341852985,
                1.3384409263032644,
                0.17973868348979616,
                -0.16173080668092266
            ]
        },
        {
            "positions": [
                2.4030295927905625,
                -1.9532727533425587,
                -1.5174654060320614,
                1.3234497285900166,
                0.2572774816835188,
                -0.1360519713933045
            ]
        },
        {
            "positions": [
                2.497286305640252,
                -2.0480939050369744,
                -1.5828444778788247,
                1.3084585308767689,
                0.3348162798772415,
                -0.11037313610568633
            ]
        },
        {
            "positions": [
                2.5915430184899417,
                -2.1429150567313906,
                -1.6482235497255877,
                1.2934673331635211,
                0.41235507807096416,
                -0.08469430081806817
            ]
        },
        {
            "positions": [
                2.6857997313396313,
                -2.2377362084258063,
                -1.7136026215723508,
                1.2784761354502734,
                0.48989387626468694,
                -0.05901546553045002
            ]
        },
        {
            "positions": [
                2.673383732189447,
                -2.359058226637454,
                -1.6890522235697312,
                1.139006555035329,
                0.4861218001219677,
                -0.028715753245386888
            ]
        },
        {
            "positions": [
                2.6609677330392625,
                -2.4803802448491012,
                -1.6645018255671116,
                0.9995369746203845,
                0.48234972397924847,
                0.0015839590396762408
            ]
        }
    ]
}