{
    "goal": {
        "global_pose": {
            "orientation": {
                "w": -0.00223480608172531,
                "x": 0.0024358444001904467,
                "y": 0.7094548369677653,
                "z": -0.704743149386269
            },
            "position": {
                "x": 0.6205249238014221,
                "y": -0.6371506643295288,
                "z": 0.19426114857196808
            }
        },
        "name": "move_to_magneteinheit_B"
    },
    "id": "RRTConnect_move_to_magneteinheit_B_68",
    "joint_names": [
        "shoulder_pan_joint",
        "shoulder_lift_joint",
        "elbow_joint",
        "wrist_1_joint",
        "wrist_2_joint",
        "wrist_3_joint"
    ],
    "metrics": {
        "cart_traj_len": 3.5069908453500656,
        "distance_elbow_joint": 4.1068172944172225,
        "distance_shoulder_lift_joint": 1.0894166149221811,
        "distance_shoulder_pan_joint": 2.719330902927366,
        "distance_wrist_1_joint": 1.7339180597802275,
        "distance_wrist_2_joint": 1.7041745894675868,
        "distance_wrist_3_joint": 3.1242139964826374,
        "smoothness": 0.6020351143256681,
        "time": 0.226574276,
        "traj_len": 3.804979823599229,
        "weighted_distance": 4.9157290507319775
    },
    "planner": "RRTConnect",
    "start": {
        "state": {
            "elbow_joint": 2.39358713078474,
            "shoulder_lift_joint": -1.908514104345545,
            "shoulder_pan_joint": 0.7066247066606129,
            "wrist_1_joint": -0.4678290933515497,
            "wrist_2_joint": 0.7096259083745334,
            "wrist_3_joint": -3.1358149277392293
        }
    },
    "waypoints": [
        {
            "positions": [
                0.7066247066606129,
                -1.908514104345545,
                2.39358713078474,
                -0.4678290933515497,
                0.7096259083745334,
                -3.1358149277392293
            ]
        },
        {
            "positions": [
                0.6270264132483097,
                -1.9323303997713712,
                2.394511132639262,
                -0.4873282015637757,
                0.754099758506627,
                -2.9880422046478605
            ]
        },
        {
            "positions": [
                0.5474281198360065,
                -1.9561466951971975,
                2.395435134493784,
                -0.5068273097760017,
                0.7985736086387207,
                -2.8402694815564913
            ]
        },
        {
            "positions": [
                0.4678298264237032,
                -1.9799629906230238,
                2.396359136348306,
                -0.5263264179882277,
                0.8430474587708143,
                -2.692496758465122
            ]
        },
        {
            "positions": [
                0.38823153301139995,
                -2.00377928604885,
                2.3972831382028277,
                -0.5458255262004537,
                0.8875213089029079,
                -2.5447240353737532
            ]
        },
        {
            "positions": [
                0.45705799403443403,
                -1.9939044963365338,
                2.257070513636398,
                -0.49585948040586214,
                0.8500978765131231,
                -2.4605097917027097
            ]
        },
        {
            "positions": [
                0.5258844550574682,
                -1.9840297066242172,
                2.116857889069968,
                -0.4458934346112706,
                0.8126744441233383,
                -2.3762955480316665
            ]
        },
        {
            "positions": [
                0.5947109160805022,
                -1.9741549169119008,
                1.9766452645035382,
                -0.3959273888166791,
                0.7752510117335535,
                -2.292081304360623
            ]
        },
        {
            "positions": [
                0.6635373771035363,
                -1.9642801271995842,
                1.8364326399371083,
                -0.34596134302208753,
                0.7378275793437687,
                -2.20786706068958
            ]
        },
        {
            "positions": [
                0.7323638381265705,
                -1.9544053374872679,
                1.6962200153706783,
                -0.295995297227496,
                0.7004041469539839,
                -2.1236528170185363
            ]
        },
        {
            "positions": [
                0.8011902991496045,
                -1.9445305477749515,
                1.5560073908042484,
                -0.2460292514329045,
                0.662980714564199,
                -2.0394385733474927
            ]
        },
        {
            "positions": [
                0.8700167601726385,
                -1.934655758062635,
                1.4157947662378187,
                -0.19606320563831298,
                0.6255572821744143,
                -1.9552243296764495
            ]
        },
        {
            "positions": [
                0.9388432211956728,
                -1.9247809683503185,
                1.2755821416713888,
                -0.1460971598437214,
                0.5881338497846295,
                -1.871010086005406
            ]
        },
        {
            "positions": [
                1.0076696822187068,
                -1.9149061786380022,
                1.135369517104959,
                -0.09613111404912994,
                0.5507104173948447,
                -1.7867958423343628
            ]
        },
        {
            "positions": [
                1.0764961432417408,
                -1.9050313889256856,
                0.995156892538529,
                -0.046165068254538366,
                0.5132869850050599,
                -1.7025815986633193
            ]
        },
        {
            "positions": [
                1.1453226042647748,
                -1.8951565992133692,
                0.8549442679720993,
                0.003800977540053152,
                0.4758635526152751,
                -1.6183673549922761
            ]
        },
        {
            "positions": [
                1.214149065287809,
                -1.8852818095010526,
                0.7147316434056692,
                0.05376702333464467,
                0.4384401202254903,
                -1.5341531113212326
            ]
        },
        {
            "positions": [
                1.282975526310843,
                -1.8754070197887363,
                0.5745190188392395,
                0.10373306912923619,
                0.4010166878357055,
                -1.4499388676501892
            ]
        },
        {
            "positions": [
                1.3518019873338771,
                -1.8655322300764199,
                0.4343063942728098,
                0.1536991149238277,
                0.3635932554459207,
                -1.3657246239791458
            ]
        },
        {
            "positions": [
                1.4206284483569112,
                -1.8556574403641033,
                0.2940937697063801,
                0.20366516071841922,
                0.32616982305613595,
                -1.2815103803081025
            ]
        },
        {
            "positions": [
                1.4894549093799454,
                -1.845782650651787,
                0.15388114513995,
                0.25363120651301085,
                0.288746390666351,
                -1.197296136637059
            ]
        },
        {
            "positions": [
                1.5582813704029794,
                -1.8359078609394706,
                0.01366852057351986,
                0.30359725230760226,
                0.25132295827656626,
                -1.1130818929660156
            ]
        },
        {
            "positions": [
                1.6271078314260135,
                -1.826033071227154,
                -0.12654410399290983,
                0.3535632981021938,
                0.21389952588678152,
                -1.0288676492949722
            ]
        },
        {
            "positions": [
                1.6959342924490475,
                -1.8161582815148376,
                -0.2667567285593395,
                0.4035293438967853,
                0.17647609349699667,
                -0.9446534056239289
            ]
        },
        {
            "positions": [
                1.7647607534720817,
                -1.806283491802521,
                -0.40696935312576965,
                0.4534953896913769,
                0.13905266110721182,
                -0.8604391619528855
            ]
        },
        {
            "positions": [
                1.8335872144951157,
                -1.7964087020902046,
                -0.5471819776921993,
                0.5034614354859683,
                0.10162922871742708,
                -0.7762249182818421
            ]
        },
        {
            "positions": [
                1.9024136755181498,
                -1.7865339123778883,
                -0.687394602258629,
                0.55342748128056,
                0.06420579632764223,
                -0.6920106746107988
            ]
        },
        {
            "positions": [
                1.9712401365411838,
                -1.7766591226655717,
                -0.8276072268250592,
                0.6033935270751514,
                0.02678236393785749,
                -0.6077964309397554
            ]
        },
        {
            "positions": [
                2.040066597564218,
                -1.7667843329532553,
                -0.9678198513914893,
                0.653359572869743,
                -0.01064106845192736,
                -0.5235821872687119
            ]
        },
        {
            "positions": [
                2.108893058587252,
                -1.7569095432409387,
                -1.108032475957919,
                0.7033256186643346,
                -0.04806450084171221,
                -0.4393679435976683
            ]
        },
        {
            "positions": [
                2.177719519610286,
                -1.7470347535286224,
                -1.2482451005243484,
                0.7532916644589261,
                -0.08548793323149695,
                -0.355153699926625
            ]
        },
        {
            "positions": [
                2.2689699235659466,
                -1.8179138982381342,
                -1.320594353719475,
                0.8039699104059912,
                -0.021748736615830794,
                -0.3257179576430125
            ]
        },
        {
            "positions": [
                2.360220327521607,
                -1.888793042947646,
                -1.3929436069146017,
                0.8546481563530561,
                0.04199045999983536,
                -0.29628221535939997
            ]
        },
        {
            "positions": [
                2.4514707314772677,
                -1.959672187657158,
                -1.4652928601097281,
                0.9053264023001211,
                0.10572965661550152,
                -0.26684647307578746
            ]
        },
        {
            "positions": [
                2.542721135432928,
                -2.0305513323666697,
                -1.5376421133048548,
                0.9560046482471861,
                0.16946885323116767,
                -0.23741073079217492
            ]
        },
        {
            "positions": [
                2.6339715393885887,
                -2.101430477076182,
                -1.6099913664999814,
                1.0066828941942512,
                0.23320804984683385,
                -0.2079749885085624
            ]
        },
        {
            "positions": [
                2.7252219433442493,
                -2.1723096217856934,
                -1.682340619695108,
                1.057361140141316,
                0.2969472464625,
                -0.17853924622494988
            ]
        },
        {
            "positions": [
                2.6932482838715974,
                -2.3283756380064817,
                -1.6705918551445085,
                1.030993659846539,
                0.382364630017905,
                -0.09507008874077166
            ]
        },
        {
            "positions": [
                2.6612746243989456,
                -2.4844416542272705,
                -1.658843090593909,
                1.004626179551762,
                0.46778201357331006,
                -0.011600931256593441
            ]
        }
    ]
}