{
    "goal": {
        "global_pose": {
            "orientation": {
                "w": -0.00223480608172531,
                "x": 0.0024358444001904467,
                "y": 0.7094548369677653,
                "z": -0.704743149386269
            },
            "position": {
                "x": 0.6205249238014221,
                "y": -0.6371506643295288,
                "z": 0.19426114857196808
            }
        },
        "name": "move_to_magneteinheit_B"
    },
    "id": "RRTConnect_move_to_magneteinheit_B_2",
    "joint_names": [
        "shoulder_pan_joint",
        "shoulder_lift_joint",
        "elbow_joint",
        "wrist_1_joint",
        "wrist_2_joint",
        "wrist_3_joint"
    ],
    "metrics": {
        "cart_traj_len": 3.6477242986499543,
        "distance_elbow_joint": 4.355054913126721,
        "distance_shoulder_lift_joint": 0.5069253426717535,
        "distance_shoulder_pan_joint": 1.9545479106973964,
        "distance_wrist_1_joint": 1.9695806668002018,
        "distance_wrist_2_joint": 1.1815553127249205,
        "distance_wrist_3_joint": 6.262234184084436,
        "smoothness": 0.09473735528462518,
        "time": 0.110251914,
        "traj_len": 4.028634797311049,
        "weighted_distance": 5.648495611912913
    },
    "planner": "RRTConnect",
    "start": {
        "state": {
            "elbow_joint": 2.39358713078474,
            "shoulder_lift_joint": -1.908514104345545,
            "shoulder_pan_joint": 0.7066247066606129,
            "wrist_1_joint": -0.4678290933515497,
            "wrist_2_joint": 0.7096259083745334,
            "wrist_3_joint": -3.1358149277392293
        }
    },
    "waypoints": [
        {
            "positions": [
                0.7066247066606129,
                -1.908514104345545,
                2.39358713078474,
                -0.4678290933515497,
                0.7096259083745334,
                -3.1358149277392293
            ]
        },
        {
            "positions": [
                0.7611539101186947,
                -1.937502181664606,
                2.411803635824404,
                -0.5133937809466532,
                0.6352592427993915,
                -3.0283955863271164
            ]
        },
        {
            "positions": [
                0.8156831135767766,
                -1.9664902589836672,
                2.430020140864068,
                -0.5589584685417568,
                0.5608925772242496,
                -2.920976244915004
            ]
        },
        {
            "positions": [
                0.8702123170348584,
                -1.9954783363027284,
                2.448236645903732,
                -0.6045231561368603,
                0.48652591164910763,
                -2.813556903502891
            ]
        },
        {
            "positions": [
                0.9225463876832993,
                -1.9916464819538682,
                2.3123256624763844,
                -0.6547569613723807,
                0.4678455345645859,
                -2.6807698469767454
            ]
        },
        {
            "positions": [
                0.9748804583317403,
                -1.987814627605008,
                2.1764146790490364,
                -0.7049907666079012,
                0.4491651574800641,
                -2.5479827904506003
            ]
        },
        {
            "positions": [
                1.0272145289801813,
                -1.983982773256148,
                2.040503695621689,
                -0.7552245718434217,
                0.4304847803955423,
                -2.415195733924455
            ]
        },
        {
            "positions": [
                1.0795485996286223,
                -1.9801509189072877,
                1.9045927121943413,
                -0.8054583770789422,
                0.41180440331102053,
                -2.2824086773983097
            ]
        },
        {
            "positions": [
                1.1318826702770632,
                -1.9763190645584274,
                1.7686817287669936,
                -0.8556921823144626,
                0.3931240262264988,
                -2.149621620872164
            ]
        },
        {
            "positions": [
                1.1842167409255042,
                -1.9724872102095672,
                1.6327707453396458,
                -0.9059259875499832,
                0.374443649141977,
                -2.016834564346019
            ]
        },
        {
            "positions": [
                1.2365508115739452,
                -1.968655355860707,
                1.4968597619122983,
                -0.9561597927855037,
                0.35576327205745517,
                -1.8840475078198737
            ]
        },
        {
            "positions": [
                1.2888848822223862,
                -1.964823501511847,
                1.3609487784849505,
                -1.0063935980210241,
                0.3370828949729334,
                -1.7512604512937284
            ]
        },
        {
            "positions": [
                1.3412189528708272,
                -1.9609916471629867,
                1.2250377950576028,
                -1.0566274032565446,
                0.3184025178884117,
                -1.6184733947675831
            ]
        },
        {
            "positions": [
                1.3935530235192681,
                -1.9571597928141264,
                1.0891268116302553,
                -1.106861208492065,
                0.2997221408038899,
                -1.4856863382414378
            ]
        },
        {
            "positions": [
                1.445887094167709,
                -1.9533279384652662,
                0.9532158282029075,
                -1.1570950137275857,
                0.2810417637193681,
                -1.3528992817152925
            ]
        },
        {
            "positions": [
                1.49822116481615,
                -1.949496084116406,
                0.8173048447755598,
                -1.2073288189631062,
                0.2623613866348463,
                -1.2201122251891472
            ]
        },
        {
            "positions": [
                1.550555235464591,
                -1.945664229767546,
                0.681393861348212,
                -1.2575626241986266,
                0.24368100955032457,
                -1.0873251686630019
            ]
        },
        {
            "positions": [
                1.602889306113032,
                -1.9418323754186857,
                0.5454828779208645,
                -1.307796429434147,
                0.22500063246580276,
                -0.9545381121368566
            ]
        },
        {
            "positions": [
                1.655223376761473,
                -1.9380005210698255,
                0.4095718944935167,
                -1.3580302346696675,
                0.20632025538128101,
                -0.8217510556107113
            ]
        },
        {
            "positions": [
                1.707557447409914,
                -1.9341686667209652,
                0.2736609110661692,
                -1.408264039905188,
                0.18763987829675927,
                -0.688963999084566
            ]
        },
        {
            "positions": [
                1.759891518058355,
                -1.930336812372105,
                0.1377499276388212,
                -1.4584978451407085,
                0.16895950121223746,
                -0.5561769425584209
            ]
        },
        {
            "positions": [
                1.812225588706796,
                -1.926504958023245,
                0.001838944211473681,
                -1.508731650376229,
                0.1502791241277157,
                -0.42338988603227534
            ]
        },
        {
            "positions": [
                1.864559659355237,
                -1.9226731036743847,
                -0.13407203921587385,
                -1.5589654556117494,
                0.1315987470431939,
                -0.29060282950613026
            ]
        },
        {
            "positions": [
                1.916893730003678,
                -1.9188412493255245,
                -0.2699830226432214,
                -1.6091992608472698,
                0.11291836995867216,
                -0.15781577297998473
            ]
        },
        {
            "positions": [
                1.9692278006521189,
                -1.9150093949766642,
                -0.40589400607056936,
                -1.6594330660827903,
                0.09423799287415041,
                -0.02502871645383964
            ]
        },
        {
            "positions": [
                2.02156187130056,
                -1.911177540627804,
                -0.5418049894979169,
                -1.709666871318311,
                0.07555761578962861,
                0.10775834007230589
            ]
        },
        {
            "positions": [
                2.073895941949001,
                -1.907345686278944,
                -0.6777159729252649,
                -1.7599006765538314,
                0.0568772387051068,
                0.24054539659845142
            ]
        },
        {
            "positions": [
                2.126230012597442,
                -1.9035138319300837,
                -0.8136269563526124,
                -1.810134481789352,
                0.038196861620585,
                0.3733324531245965
            ]
        },
        {
            "positions": [
                2.178564083245883,
                -1.8996819775812235,
                -0.9495379397799604,
                -1.8603682870248726,
                0.01951648453606325,
                0.506119509650742
            ]
        },
        {
            "positions": [
                2.2308981538943238,
                -1.8958501232323632,
                -1.085448923207308,
                -1.910602092260393,
                0.0008361074515415012,
                0.6389065661768871
            ]
        },
        {
            "positions": [
                2.2832322245427648,
                -1.892018268883503,
                -1.2213599066346554,
                -1.9608358974959135,
                -0.017844269632980247,
                0.7716936227030327
            ]
        },
        {
            "positions": [
                2.3355662951912057,
                -1.888186414534643,
                -1.357270890062003,
                -2.011069702731434,
                -0.03652464671750211,
                0.9044806792291777
            ]
        },
        {
            "positions": [
                2.3879003658396467,
                -1.8843545601857827,
                -1.493181873489351,
                -2.0613035079669544,
                -0.055205023802023856,
                1.0372677357553233
            ]
        },
        {
            "positions": [
                2.4402344364880877,
                -1.8805227058369225,
                -1.6290928569166985,
                -2.111537313202475,
                -0.0738854008865456,
                1.1700547922814684
            ]
        },
        {
            "positions": [
                2.4669996560511684,
                -1.912267755398603,
                -1.649688765234051,
                -2.1518915472196443,
                -0.11526582563149229,
                1.400235661277122
            ]
        },
        {
            "positions": [
                2.4937648756142496,
                -1.9440128049602834,
                -1.6702846735514039,
                -2.192245781236814,
                -0.15664625037643898,
                1.6304165302727758
            ]
        },
        {
            "positions": [
                2.520530095177331,
                -1.975757854521964,
                -1.6908805818687564,
                -2.2326000152539835,
                -0.19802667512138566,
                1.8605973992684295
            ]
        },
        {
            "positions": [
                2.5472953147404116,
                -2.0075029040836445,
                -1.711476490186109,
                -2.272954249271153,
                -0.23940709986633235,
                2.090778268264083
            ]
        },
        {
            "positions": [
                2.5740605343034924,
                -2.039247953645325,
                -1.7320723985034618,
                -2.313308483288323,
                -0.28078752461127904,
                2.320959137259737
            ]
        },
        {
            "positions": [
                2.6008257538665736,
                -2.0709930032070054,
                -1.7526683068208144,
                -2.3536627173054923,
                -0.3221679493562257,
                2.5511400062553906
            ]
        },
        {
            "positions": [
                2.6209413750303856,
                -2.109171397499899,
                -1.7195014917264204,
                -2.3815783982542453,
                -0.37208843435427946,
                2.742899756285329
            ]
        },
        {
            "positions": [
                2.641056996194197,
                -2.147349791792793,
                -1.6863346766320266,
                -2.4094940792029984,
                -0.42200891935233315,
                2.934659506315268
            ]
        },
        {
            "positions": [
                2.6611726173580093,
                -2.1855281860856866,
                -1.6531678615376326,
                -2.4374097601517515,
                -0.4719294043503869,
                3.1264192563452062
            ]
        }
    ]
}