{
    "goal": {
        "global_pose": {
            "orientation": {
                "w": 0.5084816217422485,
                "x": -0.49083608388900757,
                "y": 0.5182115435600281,
                "z": -0.4816462993621826
            },
            "position": {
                "x": 0.5540239810943604,
                "y": 0.030875300988554955,
                "z": 0.16403168439865112
            }
        },
        "name": "move_to_storage_A"
    },
    "id": "RRTConnect_move_to_storage_A_25",
    "joint_names": [
        "shoulder_pan_joint",
        "shoulder_lift_joint",
        "elbow_joint",
        "wrist_1_joint",
        "wrist_2_joint",
        "wrist_3_joint"
    ],
    "metrics": {
        "cart_traj_len": 0.35261580151614064,
        "distance_elbow_joint": 0.4488790620680958,
        "distance_shoulder_lift_joint": 0.23454191215570508,
        "distance_shoulder_pan_joint": 0.4597751526766551,
        "distance_wrist_1_joint": 0.23999921181352246,
        "distance_wrist_2_joint": 1.1034206072595198,
        "distance_wrist_3_joint": 0.10355936346199579,
        "smoothness": 6.661338165333112e-16,
        "time": 0.050482472,
        "traj_len": 1.6094021590129344,
        "weighted_distance": 2.0348744077786542
    },
    "planner": "RRTConnect",
    "start": {
        "state": {
            "elbow_joint": 1.9715463870305268,
            "shoulder_lift_joint": -1.1394903361783484,
            "shoulder_pan_joint": 0.12281147578464417,
            "wrist_1_joint": -0.7804599489681411,
            "wrist_2_joint": 0.12958660307563738,
            "wrist_3_joint": -3.1924946282119055
        }
    },
    "waypoints": [
        {
            "positions": [
                0.12281147578464417,
                -1.1394903361783484,
                1.9715463870305268,
                -0.7804599489681411,
                0.12958660307563738,
                -3.1924946282119055
            ]
        },
        {
            "positions": [
                0.05712931111655059,
                -1.1729963236291634,
                2.035671967325969,
                -0.8147455506557871,
                0.2872181183984259,
                -3.1777004334316206
            ]
        },
        {
            "positions": [
                -0.008552853551542991,
                -1.2065023110799784,
                2.0997975476214115,
                -0.8490311523434332,
                0.44484963372121444,
                -3.162906238651335
            ]
        },
        {
            "positions": [
                -0.07423501821963656,
                -1.2400082985307934,
                2.1639231279168536,
                -0.8833167540310792,
                0.602481149044003,
                -3.14811204387105
            ]
        },
        {
            "positions": [
                -0.13991718288773014,
                -1.2735142859816084,
                2.2280487082122957,
                -0.9176023557187254,
                0.7601126643667916,
                -3.133317849090765
            ]
        },
        {
            "positions": [
                -0.20559934755582376,
                -1.3070202734324234,
                2.292174288507738,
                -0.9518879574063714,
                0.9177441796895802,
                -3.11852365431048
            ]
        },
        {
            "positions": [
                -0.2712815122239173,
                -1.3405262608832385,
                2.3562998688031804,
                -0.9861735590940175,
                1.0753756950123685,
                -3.1037294595301947
            ]
        },
        {
            "positions": [
                -0.3369636768920109,
                -1.3740322483340535,
                2.4204254490986226,
                -1.0204591607816635,
                1.2330072103351573,
                -3.0889352647499098
            ]
        }
    ]
}