{
    "goal": {
        "global_pose": {
            "orientation": {
                "w": 0.7047431468963623,
                "x": -0.7094548344612122,
                "y": 0.0024358443915843964,
                "z": -0.0022348060738295317
            },
            "position": {
                "x": 0.6094750761985779,
                "y": 0.3671506643295288,
                "z": 0.19426114857196808
            }
        },
        "name": "move_to_magneteinheit_A"
    },
    "id": "RRTConnect_move_to_magneteinheit_A_29",
    "joint_names": [
        "shoulder_pan_joint",
        "shoulder_lift_joint",
        "elbow_joint",
        "wrist_1_joint",
        "wrist_2_joint",
        "wrist_3_joint"
    ],
    "metrics": {
        "cart_traj_len": 2.062946817103236,
        "distance_elbow_joint": 3.876579727992718,
        "distance_shoulder_lift_joint": 1.0547616427603408,
        "distance_shoulder_pan_joint": 1.2407985640228147,
        "distance_wrist_1_joint": 1.133967346012476,
        "distance_wrist_2_joint": 1.4323639875572505,
        "distance_wrist_3_joint": 1.9101380231660046,
        "smoothness": 7.612957891110951e-16,
        "time": 0.070872698,
        "traj_len": 3.2632206930441594,
        "weighted_distance": 4.127374064876279
    },
    "planner": "RRTConnect",
    "start": {
        "state": {
            "elbow_joint": -1.919643507792019,
            "shoulder_lift_joint": -0.07675430207160344,
            "shoulder_pan_joint": -1.1188671864651873,
            "wrist_1_joint": 0.42560062535961957,
            "wrist_2_joint": 1.5706038300724876,
            "wrist_3_joint": 1.1188968870953055
        }
    },
    "waypoints": [
        {
            "positions": [
                -1.1188671864651873,
                -0.07675430207160344,
                -1.919643507792019,
                0.42560062535961957,
                1.5706038300724876,
                1.1188968870953055
            ]
        },
        {
            "positions": [
                -1.072911684093972,
                -0.11581954809976422,
                -1.7760664808293258,
                0.3836018347665649,
                1.5175533120148117,
                1.1896427398051577
            ]
        },
        {
            "positions": [
                -1.0269561817227566,
                -0.154884794127925,
                -1.6324894538666326,
                0.34160304417351023,
                1.4645027939571358,
                1.2603885925150096
            ]
        },
        {
            "positions": [
                -0.9810006793515413,
                -0.19395004015608575,
                -1.4889124269039393,
                0.2996042535804556,
                1.4114522758994599,
                1.3311344452248617
            ]
        },
        {
            "positions": [
                -0.9350451769803259,
                -0.23301528618424652,
                -1.345335399941246,
                0.25760546298740095,
                1.3584017578417837,
                1.4018802979347136
            ]
        },
        {
            "positions": [
                -0.8890896746091106,
                -0.27208053221240724,
                -1.2017583729785528,
                0.21560667239434625,
                1.3053512397841078,
                1.4726261506445657
            ]
        },
        {
            "positions": [
                -0.8431341722378952,
                -0.31114577824056805,
                -1.0581813460158596,
                0.1736078818012916,
                1.252300721726432,
                1.5433720033544176
            ]
        },
        {
            "positions": [
                -0.7971786698666798,
                -0.3502110242687288,
                -0.9146043190531663,
                0.13160909120823694,
                1.199250203668756,
                1.6141178560642697
            ]
        },
        {
            "positions": [
                -0.7512231674954645,
                -0.3892762702968896,
                -0.771027292090473,
                0.08961030061518227,
                1.14619968561108,
                1.6848637087741216
            ]
        },
        {
            "positions": [
                -0.7052676651242491,
                -0.42834151632505035,
                -0.6274502651277798,
                0.0476115100221276,
                1.0931491675534042,
                1.7556095614839737
            ]
        },
        {
            "positions": [
                -0.6593121627530338,
                -0.4674067623532111,
                -0.48387323816508654,
                0.005612719429072932,
                1.0400986494957283,
                1.8263554141938259
            ]
        },
        {
            "positions": [
                -0.6133566603818184,
                -0.5064720083813719,
                -0.3402962112023933,
                -0.03638607116398174,
                0.9870481314380523,
                1.8971012669036778
            ]
        },
        {
            "positions": [
                -0.5674011580106031,
                -0.5455372544095327,
                -0.19671918423970003,
                -0.07838486175703635,
                0.9339976133803763,
                1.9678471196135296
            ]
        },
        {
            "positions": [
                -0.5214456556393877,
                -0.5846025004376934,
                -0.053142157277006774,
                -0.12038365235009102,
                0.8809470953227003,
                2.0385929723233818
            ]
        },
        {
            "positions": [
                -0.47549015326817234,
                -0.6236677464658542,
                0.09043486968568648,
                -0.1623824429431457,
                0.8278965772650244,
                2.109338825033234
            ]
        },
        {
            "positions": [
                -0.42953465089695686,
                -0.6627329924940151,
                0.23401189664837996,
                -0.20438123353620047,
                0.7748460592073484,
                2.180084677743086
            ]
        },
        {
            "positions": [
                -0.3835791485257416,
                -0.7017982385221757,
                0.377588923611073,
                -0.24638002412925503,
                0.7217955411496726,
                2.250830530452938
            ]
        },
        {
            "positions": [
                -0.3376236461545262,
                -0.7408634845503366,
                0.5211659505737665,
                -0.2883788147223098,
                0.6687450230919966,
                2.32157638316279
            ]
        },
        {
            "positions": [
                -0.29166814378331085,
                -0.7799287305784972,
                0.6647429775364595,
                -0.33037760531536436,
                0.6156945050343207,
                2.392322235872642
            ]
        },
        {
            "positions": [
                -0.24571264141209548,
                -0.8189939766066581,
                0.808320004499153,
                -0.37237639590841903,
                0.5626439869766446,
                2.463068088582494
            ]
        },
        {
            "positions": [
                -0.19975713904088022,
                -0.8580592226348187,
                0.951897031461846,
                -0.4143751865014737,
                0.5095934689189687,
                2.5338139412923457
            ]
        },
        {
            "positions": [
                -0.15380163666966473,
                -0.8971244686629796,
                1.0954740584245395,
                -0.45637397709452837,
                0.4565429508612928,
                2.6045597940021983
            ]
        },
        {
            "positions": [
                -0.10784613429844936,
                -0.9361897146911404,
                1.2390510853872325,
                -0.49837276768758304,
                0.4034924328036169,
                2.67530564671205
            ]
        },
        {
            "positions": [
                -0.0618906319272341,
                -0.9752549607193011,
                1.382628112349926,
                -0.5403715582806377,
                0.350441914745941,
                2.746051499421902
            ]
        },
        {
            "positions": [
                -0.015935129556018834,
                -1.014320206747462,
                1.526205139312619,
                -0.5823703488736922,
                0.2973913966882651,
                2.816797352131754
            ]
        },
        {
            "positions": [
                0.03002037281519665,
                -1.0533854527756228,
                1.6697821662753125,
                -0.624369139466747,
                0.24434087863058895,
                2.887543204841606
            ]
        },
        {
            "positions": [
                0.07597587518641191,
                -1.0924506988037834,
                1.8133591932380055,
                -0.6663679300598015,
                0.19129036057291304,
                2.958289057551458
            ]
        },
        {
            "positions": [
                0.12193137755762745,
                -1.1315159448319443,
                1.956936220200699,
                -0.7083667206528563,
                0.13823984251523713,
                3.02903491026131
            ]
        }
    ]
}