{
    "goal": {
        "global_pose": {
            "orientation": {
                "w": 0.5084816217422485,
                "x": -0.49083608388900757,
                "y": 0.5182115435600281,
                "z": -0.4816462993621826
            },
            "position": {
                "x": 0.5540239810943604,
                "y": 0.030875300988554955,
                "z": 0.16403168439865112
            }
        },
        "name": "move_to_storage_A"
    },
    "id": "RRTConnect_move_to_storage_A_133",
    "joint_names": [
        "shoulder_pan_joint",
        "shoulder_lift_joint",
        "elbow_joint",
        "wrist_1_joint",
        "wrist_2_joint",
        "wrist_3_joint"
    ],
    "metrics": {
        "cart_traj_len": 0.3533400890293474,
        "distance_elbow_joint": 0.4534853054969479,
        "distance_shoulder_lift_joint": 0.23552356998790214,
        "distance_shoulder_pan_joint": 0.46090724919862336,
        "distance_wrist_1_joint": 0.2586465098324823,
        "distance_wrist_2_joint": 1.1048493966853026,
        "distance_wrist_3_joint": 0.10026892563176393,
        "smoothness": 0.0,
        "time": 0.050373344,
        "traj_len": 1.6166882682920112,
        "weighted_distance": 2.043945868807277
    },
    "planner": "RRTConnect",
    "start": {
        "state": {
            "elbow_joint": 1.9715463870305268,
            "shoulder_lift_joint": -1.1394903361783484,
            "shoulder_pan_joint": 0.12281147578464417,
            "wrist_1_joint": -0.7804599489681411,
            "wrist_2_joint": 0.12958660307563738,
            "wrist_3_joint": -3.1924946282119055
        }
    },
    "waypoints": [
        {
            "positions": [
                0.12281147578464417,
                -1.1394903361783484,
                1.9715463870305268,
                -0.7804599489681411,
                0.12958660307563738,
                -3.1924946282119055
            ]
        },
        {
            "positions": [
                0.056967583041983696,
                -1.1731365604623345,
                2.0363300021015194,
                -0.8174094503727815,
                0.2874222311735377,
                -3.1781704959787964
            ]
        },
        {
            "positions": [
                -0.00887630970067678,
                -1.2067827847463204,
                2.101113617172512,
                -0.8543589517774217,
                0.44525785927143813,
                -3.1638463637456873
            ]
        },
        {
            "positions": [
                -0.07472020244333726,
                -1.2404290090303065,
                2.1658972322435046,
                -0.8913084531820621,
                0.6030934873693384,
                -3.149522231512578
            ]
        },
        {
            "positions": [
                -0.14056409518599772,
                -1.2740752333142924,
                2.230680847314497,
                -0.9282579545867023,
                0.7609291154672388,
                -3.135198099279469
            ]
        },
        {
            "positions": [
                -0.20640798792865822,
                -1.3077214575982785,
                2.2954644623854894,
                -0.9652074559913427,
                0.9187647435651393,
                -3.12087396704636
            ]
        },
        {
            "positions": [
                -0.27225188067131867,
                -1.3413676818822644,
                2.360248077456482,
                -1.002156957395983,
                1.0766003716630395,
                -3.1065498348132508
            ]
        },
        {
            "positions": [
                -0.3380957734139792,
                -1.3750139061662505,
                2.4250316925274746,
                -1.0391064588006234,
                1.23443599976094,
                -3.0922257025801416
            ]
        }
    ]
}