{
    "goal": {
        "global_pose": {
            "orientation": {
                "w": -0.00223480608172531,
                "x": 0.0024358444001904467,
                "y": 0.7094548369677653,
                "z": -0.704743149386269
            },
            "position": {
                "x": 0.6205249238014221,
                "y": -0.6371506643295288,
                "z": 0.19426114857196808
            }
        },
        "name": "move_to_magneteinheit_B"
    },
    "id": "RRTConnect_move_to_magneteinheit_B_5",
    "joint_names": [
        "shoulder_pan_joint",
        "shoulder_lift_joint",
        "elbow_joint",
        "wrist_1_joint",
        "wrist_2_joint",
        "wrist_3_joint"
    ],
    "metrics": {
        "cart_traj_len": 1.4537246421782903,
        "distance_elbow_joint": 0.7289040333893961,
        "distance_shoulder_lift_joint": 1.2475316528621798,
        "distance_shoulder_pan_joint": 1.6216279543292367,
        "distance_wrist_1_joint": 2.611664901572612,
        "distance_wrist_2_joint": 2.9350613473879315,
        "distance_wrist_3_joint": 3.1463717583993165,
        "smoothness": 4.037174644193617e-16,
        "time": 0.092687284,
        "traj_len": 3.5058753041060475,
        "weighted_distance": 4.912293905468183
    },
    "planner": "RRTConnect",
    "start": {
        "state": {
            "elbow_joint": 2.39358713078474,
            "shoulder_lift_joint": -1.908514104345545,
            "shoulder_pan_joint": 0.7066247066606129,
            "wrist_1_joint": -0.4678290933515497,
            "wrist_2_joint": 0.7096259083745334,
            "wrist_3_joint": -3.1358149277392293
        }
    },
    "waypoints": [
        {
            "positions": [
                0.7066247066606129,
                -1.908514104345545,
                2.39358713078474,
                -0.4678290933515497,
                0.7096259083745334,
                -3.1358149277392293
            ]
        },
        {
            "positions": [
                0.6559488330878243,
                -1.8695287401936018,
                2.3708088797413214,
                -0.3862145651774056,
                0.6179052412686605,
                -3.037490810289251
            ]
        },
        {
            "positions": [
                0.6052729595150357,
                -1.8305433760416587,
                2.3480306286979027,
                -0.30460003700326144,
                0.5261845741627877,
                -2.939166692839272
            ]
        },
        {
            "positions": [
                0.554597085942247,
                -1.7915580118897156,
                2.325252377654484,
                -0.22298550882911733,
                0.43446390705691484,
                -2.8408425753892934
            ]
        },
        {
            "positions": [
                0.5039212123694583,
                -1.7525726477377725,
                2.3024741266110658,
                -0.14137098065497322,
                0.342743239951042,
                -2.742518457939315
            ]
        },
        {
            "positions": [
                0.45324533879666973,
                -1.7135872835858292,
                2.279695875567647,
                -0.059756452480829114,
                0.25102257284516916,
                -2.644194340489336
            ]
        },
        {
            "positions": [
                0.40256946522388104,
                -1.6746019194338861,
                2.2569176245242284,
                0.02185807569331505,
                0.15930190573929626,
                -2.5458702230393575
            ]
        },
        {
            "positions": [
                0.3518935916510924,
                -1.635616555281943,
                2.2341393734808097,
                0.1034726038674591,
                0.06758123863342347,
                -2.447546105589379
            ]
        },
        {
            "positions": [
                0.3012177180783038,
                -1.59663119113,
                2.211361122437391,
                0.18508713204160326,
                -0.02413942847244943,
                -2.3492219881394
            ]
        },
        {
            "positions": [
                0.25054184450551514,
                -1.5576458269780569,
                2.1885828713939723,
                0.2667016602157474,
                -0.11586009557832233,
                -2.2508978706894216
            ]
        },
        {
            "positions": [
                0.1998659709327265,
                -1.5186604628261138,
                2.1658046203505537,
                0.3483161883898915,
                -0.20758076268419512,
                -2.1525737532394427
            ]
        },
        {
            "positions": [
                0.14919009735993782,
                -1.4796750986741705,
                2.143026369307135,
                0.42993071656403564,
                -0.2993014297900679,
                -2.054249635789464
            ]
        },
        {
            "positions": [
                0.09851422378714914,
                -1.4406897345222274,
                2.1202481182637163,
                0.5115452447381799,
                -0.3910220968959409,
                -1.9559255183394857
            ]
        },
        {
            "positions": [
                0.04783835021436056,
                -1.4017043703702843,
                2.097469867220298,
                0.5931597729123239,
                -0.4827427640018137,
                -1.857601400889507
            ]
        },
        {
            "positions": [
                -0.002837523358428129,
                -1.3627190062183412,
                2.0746916161768794,
                0.674774301086468,
                -0.5744634311076865,
                -1.7592772834395283
            ]
        },
        {
            "positions": [
                -0.053513396931216706,
                -1.323733642066398,
                2.0519133651334607,
                0.7563888292606122,
                -0.6661840982135595,
                -1.6609531659895498
            ]
        },
        {
            "positions": [
                -0.1041892705040054,
                -1.284748277914455,
                2.029135114090042,
                0.8380033574347563,
                -0.7579047653194323,
                -1.562629048539571
            ]
        },
        {
            "positions": [
                -0.15486514407679408,
                -1.245762913762512,
                2.0063568630466233,
                0.9196178856089003,
                -0.8496254324253051,
                -1.4643049310895924
            ]
        },
        {
            "positions": [
                -0.20554101764958266,
                -1.2067775496105688,
                1.9835786120032046,
                1.0012324137830446,
                -0.9413460995311781,
                -1.3659808136396139
            ]
        },
        {
            "positions": [
                -0.25621689122237135,
                -1.1677921854586257,
                1.9608003609597862,
                1.0828469419571887,
                -1.033066766637051,
                -1.2676566961896352
            ]
        },
        {
            "positions": [
                -0.3068927647951599,
                -1.1288068213066826,
                1.9380221099163675,
                1.1644614701313327,
                -1.1247874337429238,
                -1.1693325787396565
            ]
        },
        {
            "positions": [
                -0.3575686383679487,
                -1.0898214571547395,
                1.9152438588729488,
                1.246075998305477,
                -1.2165081008487966,
                -1.071008461289678
            ]
        },
        {
            "positions": [
                -0.4082445119407373,
                -1.0508360930027962,
                1.8924656078295303,
                1.327690526479621,
                -1.3082287679546694,
                -0.972684343839699
            ]
        },
        {
            "positions": [
                -0.4589203855135259,
                -1.0118507288508531,
                1.8696873567861116,
                1.409305054653765,
                -1.3999494350605426,
                -0.8743602263897206
            ]
        },
        {
            "positions": [
                -0.5095962590863147,
                -0.97286536469891,
                1.846909105742693,
                1.4909195828279094,
                -1.4916701021664154,
                -0.7760361089397421
            ]
        },
        {
            "positions": [
                -0.5602721326591033,
                -0.933880000546967,
                1.8241308546992743,
                1.5725341110020534,
                -1.5833907692722882,
                -0.6777119914897631
            ]
        },
        {
            "positions": [
                -0.6109480062318918,
                -0.8948946363950239,
                1.8013526036558556,
                1.6541486391761975,
                -1.675111436378161,
                -0.5793878740397846
            ]
        },
        {
            "positions": [
                -0.6616238798046804,
                -0.8559092722430808,
                1.7785743526124371,
                1.7357631673503415,
                -1.7668321034840337,
                -0.48106375658980616
            ]
        },
        {
            "positions": [
                -0.7122997533774692,
                -0.8169239080911375,
                1.7557961015690184,
                1.8173776955244856,
                -1.8585527705899065,
                -0.3827396391398272
            ]
        },
        {
            "positions": [
                -0.7629756269502578,
                -0.7779385439391944,
                1.7330178505255998,
                1.89899222369863,
                -1.9502734376957798,
                -0.28441552168984874
            ]
        },
        {
            "positions": [
                -0.8136515005230464,
                -0.7389531797872513,
                1.7102395994821813,
                1.9806067518727741,
                -2.0419941048016526,
                -0.18609140423987025
            ]
        },
        {
            "positions": [
                -0.8643273740958352,
                -0.6999678156353082,
                1.6874613484387626,
                2.062221280046918,
                -2.1337147719075253,
                -0.08776728678989132
            ]
        },
        {
            "positions": [
                -0.9150032476686238,
                -0.6609824514833652,
                1.664683097395344,
                2.1438358082210622,
                -2.225435439013398,
                0.010556830660087264
            ]
        }
    ]
}