{
    "goal": {
        "global_pose": {
            "orientation": {
                "w": 0.7047431468963623,
                "x": -0.7094548344612122,
                "y": 0.0024358443915843964,
                "z": -0.0022348060738295317
            },
            "position": {
                "x": 0.6094750761985779,
                "y": 0.3671506643295288,
                "z": 0.19426114857196808
            }
        },
        "name": "move_to_magneteinheit_A"
    },
    "id": "RRTConnect_move_to_magneteinheit_A_114",
    "joint_names": [
        "shoulder_pan_joint",
        "shoulder_lift_joint",
        "elbow_joint",
        "wrist_1_joint",
        "wrist_2_joint",
        "wrist_3_joint"
    ],
    "metrics": {
        "cart_traj_len": 1.8756296329058815,
        "distance_elbow_joint": 3.9162632525051766,
        "distance_shoulder_lift_joint": 0.7030006999017362,
        "distance_shoulder_pan_joint": 1.2409748295544334,
        "distance_wrist_1_joint": 1.5104619613160093,
        "distance_wrist_2_joint": 1.6962954560696564,
        "distance_wrist_3_joint": 1.1336681954359242,
        "smoothness": 8.88178422235616e-16,
        "time": 0.064012181,
        "traj_len": 3.193847897878503,
        "weighted_distance": 3.9591360425022586
    },
    "planner": "RRTConnect",
    "start": {
        "state": {
            "elbow_joint": -1.919643507792019,
            "shoulder_lift_joint": -0.07675430207160344,
            "shoulder_pan_joint": -1.1188671864651873,
            "wrist_1_joint": 0.42560062535961957,
            "wrist_2_joint": 1.5706038300724876,
            "wrist_3_joint": 1.1188968870953055
        }
    },
    "waypoints": [
        {
            "positions": [
                -1.1188671864651873,
                -0.07675430207160344,
                -1.919643507792019,
                0.42560062535961957,
                1.5706038300724876,
                1.1188968870953055
            ]
        },
        {
            "positions": [
                -1.0711373853284785,
                -0.10379279052936252,
                -1.7690179980802816,
                0.4836953161794661,
                1.5053616971467316,
                1.0752942641939238
            ]
        },
        {
            "positions": [
                -1.0234075841917694,
                -0.1308312789871216,
                -1.6183924883685439,
                0.5417900069993126,
                1.4401195642209756,
                1.031691641292542
            ]
        },
        {
            "positions": [
                -0.9756777830550605,
                -0.15786976744488068,
                -1.4677669786568064,
                0.5998846978191591,
                1.3748774312952197,
                0.9880890183911605
            ]
        },
        {
            "positions": [
                -0.9279479819183514,
                -0.1849082559026398,
                -1.317141468945069,
                0.6579793886390056,
                1.3096352983694635,
                0.9444863954897788
            ]
        },
        {
            "positions": [
                -0.8802181807816425,
                -0.21194674436039887,
                -1.1665159592333314,
                0.7160740794588522,
                1.2443931654437075,
                0.900883772588397
            ]
        },
        {
            "positions": [
                -0.8324883796449335,
                -0.23898523281815795,
                -1.0158904495215937,
                0.7741687702786987,
                1.1791510325179515,
                0.8572811496870154
            ]
        },
        {
            "positions": [
                -0.7847585785082245,
                -0.266023721275917,
                -0.8652649398098562,
                0.8322634610985451,
                1.1139088995921955,
                0.8136785267856337
            ]
        },
        {
            "positions": [
                -0.7370287773715155,
                -0.29306220973367614,
                -0.7146394300981185,
                0.8903581519183916,
                1.0486667666664395,
                0.770075903884252
            ]
        },
        {
            "positions": [
                -0.6892989762348065,
                -0.32010069819143516,
                -0.564013920386381,
                0.9484528427382382,
                0.9834246337406835,
                0.7264732809828702
            ]
        },
        {
            "positions": [
                -0.6415691750980976,
                -0.3471391866491943,
                -0.4133884106746435,
                1.0065475335580847,
                0.9181825008149275,
                0.6828706580814885
            ]
        },
        {
            "positions": [
                -0.5938393739613886,
                -0.3741776751069534,
                -0.262762900962906,
                1.0646422243779312,
                0.8529403678891715,
                0.6392680351801068
            ]
        },
        {
            "positions": [
                -0.5461095728246796,
                -0.40121616356471246,
                -0.11213739125116828,
                1.1227369151977777,
                0.7876982349634154,
                0.5956654122787252
            ]
        },
        {
            "positions": [
                -0.49837977168797065,
                -0.42825465202247154,
                0.03848811846056921,
                1.1808316060176243,
                0.7224561020376594,
                0.5520627893773434
            ]
        },
        {
            "positions": [
                -0.45064997055126166,
                -0.4552931404802306,
                0.1891136281723067,
                1.2389262968374706,
                0.6572139691119034,
                0.5084601664759617
            ]
        },
        {
            "positions": [
                -0.4029201694145528,
                -0.4823316289379897,
                0.3397391378840442,
                1.297020987657317,
                0.5919718361861475,
                0.4648575435745801
            ]
        },
        {
            "positions": [
                -0.35519036827784367,
                -0.5093701173957488,
                0.49036464759578213,
                1.3551156784771639,
                0.5267297032603913,
                0.42125492067319825
            ]
        },
        {
            "positions": [
                -0.3074605671411348,
                -0.5364086058535078,
                0.6409901573075196,
                1.4132103692970104,
                0.4614875703346353,
                0.37765229777181664
            ]
        },
        {
            "positions": [
                -0.2597307660044258,
                -0.5634470943112669,
                0.7916156670192571,
                1.4713050601168567,
                0.3962454374088793,
                0.3340496748704349
            ]
        },
        {
            "positions": [
                -0.2120009648677168,
                -0.5904855827690261,
                0.9422411767309946,
                1.5293997509367032,
                0.3310033044831233,
                0.2904470519690533
            ]
        },
        {
            "positions": [
                -0.1642711637310078,
                -0.6175240712267851,
                1.092866686442732,
                1.58749444175655,
                0.26576117155736734,
                0.24684442906767146
            ]
        },
        {
            "positions": [
                -0.11654136259429881,
                -0.6445625596845441,
                1.2434921961544696,
                1.6455891325763965,
                0.20051903863161136,
                0.20324180616628984
            ]
        },
        {
            "positions": [
                -0.06881156145758993,
                -0.6716010481423034,
                1.394117705866207,
                1.7036838233962428,
                0.13527690570585538,
                0.1596391832649081
            ]
        },
        {
            "positions": [
                -0.021081760320880827,
                -0.6986395366000624,
                1.5447432155779446,
                1.7617785142160893,
                0.0700347727800994,
                0.1160365603635265
            ]
        },
        {
            "positions": [
                0.026648040815828056,
                -0.7256780250578214,
                1.6953687252896825,
                1.819873205035936,
                0.004792639854343195,
                0.07243393746214477
            ]
        },
        {
            "positions": [
                0.07437784195253716,
                -0.7527165135155807,
                1.84599423500142,
                1.8779678958557824,
                -0.060449493071412785,
                0.028831314560763044
            ]
        },
        {
            "positions": [
                0.12210764308924604,
                -0.7797550019733397,
                1.9966197447131577,
                1.936062586675629,
                -0.12569162599716882,
                -0.014771308340618726
            ]
        }
    ]
}