{
    "goal": {
        "global_pose": {
            "orientation": {
                "w": 0.7031023502349854,
                "x": -0.7110244035720825,
                "y": 0.007748599164187908,
                "z": 0.005598929710686207
            },
            "position": {
                "x": 0.11585023208521307,
                "y": 0.44412534475326537,
                "z": 0.3711530566215515
            }
        },
        "name": "move_to_auspresseinheit_A"
    },
    "id": "RRTConnect_move_to_auspresseinheit_A_24",
    "joint_names": [
        "shoulder_pan_joint",
        "shoulder_lift_joint",
        "elbow_joint",
        "wrist_1_joint",
        "wrist_2_joint",
        "wrist_3_joint"
    ],
    "metrics": {
        "cart_traj_len": 0.75550711826799,
        "distance_elbow_joint": 0.4900155682551479,
        "distance_shoulder_lift_joint": 0.5356855533331797,
        "distance_shoulder_pan_joint": 1.0420063136951547,
        "distance_wrist_1_joint": 1.5395208744828048,
        "distance_wrist_2_joint": 1.5861388846562647,
        "distance_wrist_3_joint": 1.286681664965343,
        "smoothness": 1.1344967371362518,
        "time": 0.084309678,
        "traj_len": 2.5455940091436213,
        "weighted_distance": 3.489852711570741
    },
    "planner": "RRTConnect",
    "start": {
        "state": {
            "elbow_joint": 2.422574709923281,
            "shoulder_lift_joint": -1.3736533754116391,
            "shoulder_pan_joint": -0.33786336945926293,
            "wrist_1_joint": -1.0288603412921917,
            "wrist_2_joint": 1.2330224858903978,
            "wrist_3_joint": -3.094022268022082
        }
    },
    "waypoints": [
        {
            "positions": [
                -0.33786336945926293,
                -1.3736533754116391,
                2.422574709923281,
                -1.0288603412921917,
                1.2330224858903978,
                -3.094022268022082
            ]
        },
        {
            "positions": [
                -0.3082967441662822,
                -1.4117523825880776,
                2.3966945932682533,
                -0.9240661939474376,
                1.1269899266318388,
                -3.0313241678488207
            ]
        },
        {
            "positions": [
                -0.2787301188733015,
                -1.449851389764516,
                2.3708144766132255,
                -0.8192720466026835,
                1.02095736737328,
                -2.968626067675559
            ]
        },
        {
            "positions": [
                -0.2491634935803208,
                -1.4879503969409542,
                2.3449343599581978,
                -0.7144778992579293,
                0.914924808114721,
                -2.9059279675022975
            ]
        },
        {
            "positions": [
                -0.21959686828734007,
                -1.5260494041173926,
                2.31905424330317,
                -0.6096837519131751,
                0.8088922488561621,
                -2.843229867329036
            ]
        },
        {
            "positions": [
                -0.19003024299435936,
                -1.564148411293831,
                2.2931741266481422,
                -0.504889604568421,
                0.7028596895976033,
                -2.7805317671557743
            ]
        },
        {
            "positions": [
                -0.16046361770137865,
                -1.6022474184702695,
                2.267294009993114,
                -0.4000954572236669,
                0.5968271303390443,
                -2.717833666982513
            ]
        },
        {
            "positions": [
                -0.13089699240839794,
                -1.6403464256467077,
                2.2414138933380863,
                -0.2953013098789128,
                0.4907945710804855,
                -2.6551355668092516
            ]
        },
        {
            "positions": [
                -0.10133036711541721,
                -1.6784454328231462,
                2.2155337766830585,
                -0.19050716253415856,
                0.3847620118219265,
                -2.5924374666359897
            ]
        },
        {
            "positions": [
                -0.0717637418224365,
                -1.7165444399995846,
                2.1896536600280307,
                -0.08571301518940444,
                0.2787294525633677,
                -2.5297393664627283
            ]
        },
        {
            "positions": [
                -0.04219711652945579,
                -1.754643447176023,
                2.163773543373003,
                0.019081132155349734,
                0.1726968933048088,
                -2.467041266289467
            ]
        },
        {
            "positions": [
                0.05109539106621265,
                -1.7739803823721225,
                2.192675343586112,
                -0.04236629297405829,
                0.23842355481364325,
                -2.5495038491935578
            ]
        },
        {
            "positions": [
                0.1443878986618811,
                -1.793317317568222,
                2.2215771437992204,
                -0.10381371810346632,
                0.3041502163224777,
                -2.631966432097649
            ]
        },
        {
            "positions": [
                0.23768040625754955,
                -1.8126542527643215,
                2.250478944012329,
                -0.16526114323287433,
                0.3698768778313121,
                -2.71442901500174
            ]
        },
        {
            "positions": [
                0.330972913853218,
                -1.831991187960421,
                2.279380744225438,
                -0.22670856836228237,
                0.43560353934014656,
                -2.796891597905831
            ]
        },
        {
            "positions": [
                0.4242654214488864,
                -1.8513281231565204,
                2.308282544438547,
                -0.2881559934916904,
                0.5013302008489811,
                -2.879354180809922
            ]
        },
        {
            "positions": [
                0.5175579290445549,
                -1.8706650583526199,
                2.3371843446516554,
                -0.3496034186210984,
                0.5670568623578154,
                -2.9618167637140127
            ]
        },
        {
            "positions": [
                0.6108504366402233,
                -1.8900019935487193,
                2.366086144864764,
                -0.41105084375050643,
                0.6327835238666499,
                -3.0442793466181035
            ]
        },
        {
            "positions": [
                0.7041429442358917,
                -1.9093389287448188,
                2.394987945077873,
                -0.4724982688799145,
                0.6985101853754844,
                -3.1267419295221948
            ]
        }
    ]
}