{
    "goal": {
        "global_pose": {
            "orientation": {
                "w": 0.7047431468963623,
                "x": -0.7094548344612122,
                "y": 0.0024358443915843964,
                "z": -0.0022348060738295317
            },
            "position": {
                "x": 0.6094750761985779,
                "y": 0.3671506643295288,
                "z": 0.19426114857196808
            }
        },
        "name": "move_to_magneteinheit_A"
    },
    "id": "RRTConnect_move_to_magneteinheit_A_28",
    "joint_names": [
        "shoulder_pan_joint",
        "shoulder_lift_joint",
        "elbow_joint",
        "wrist_1_joint",
        "wrist_2_joint",
        "wrist_3_joint"
    ],
    "metrics": {
        "cart_traj_len": 2.0627326150553955,
        "distance_elbow_joint": 3.874937924311271,
        "distance_shoulder_lift_joint": 1.0534648309239794,
        "distance_shoulder_pan_joint": 1.2404962450328423,
        "distance_wrist_1_joint": 1.1303296026227596,
        "distance_wrist_2_joint": 1.4449445307623965,
        "distance_wrist_3_joint": 1.9043123661329577,
        "smoothness": 3.806478953818552e-16,
        "time": 0.047382518,
        "traj_len": 3.263201725267104,
        "weighted_distance": 4.127030938269942
    },
    "planner": "RRTConnect",
    "start": {
        "state": {
            "elbow_joint": -1.919643507792019,
            "shoulder_lift_joint": -0.07675430207160344,
            "shoulder_pan_joint": -1.1188671864651873,
            "wrist_1_joint": 0.42560062535961957,
            "wrist_2_joint": 1.5706038300724876,
            "wrist_3_joint": 1.1188968870953055
        }
    },
    "waypoints": [
        {
            "positions": [
                -1.1188671864651873,
                -0.07675430207160344,
                -1.919643507792019,
                0.42560062535961957,
                1.5706038300724876,
                1.1188968870953055
            ]
        },
        {
            "positions": [
                -1.0729228810936007,
                -0.11577151803175081,
                -1.7761272883730832,
                0.38373656600322104,
                1.5170873659701767,
                1.1894269747298596
            ]
        },
        {
            "positions": [
                -1.0269785757220138,
                -0.1547887339918982,
                -1.632611068954147,
                0.34187250664682256,
                1.4635709018678655,
                1.2599570623644136
            ]
        },
        {
            "positions": [
                -0.9810342703504271,
                -0.1938059499520456,
                -1.4890948495352112,
                0.3000084472904241,
                1.4100544377655546,
                1.3304871499989674
            ]
        },
        {
            "positions": [
                -0.9350899649788403,
                -0.23282316591219296,
                -1.3455786301162753,
                0.25814438793402555,
                1.3565379736632437,
                1.4010172376335215
            ]
        },
        {
            "positions": [
                -0.8891456596072536,
                -0.2718403818723404,
                -1.2020624106973394,
                0.21628032857762705,
                1.3030215095609328,
                1.4715473252680755
            ]
        },
        {
            "positions": [
                -0.8432013542356669,
                -0.31085759783248773,
                -1.0585461912784033,
                0.17441626922122855,
                1.2495050454586218,
                1.5420774129026293
            ]
        },
        {
            "positions": [
                -0.7972570488640801,
                -0.34987481379263513,
                -0.9150299718594674,
                0.13255220986483007,
                1.1959885813563107,
                1.6126075005371834
            ]
        },
        {
            "positions": [
                -0.7513127434924933,
                -0.3888920297527825,
                -0.7715137524405313,
                0.09068815050843154,
                1.1424721172539998,
                1.6831375881717374
            ]
        },
        {
            "positions": [
                -0.7053684381209067,
                -0.4279092457129299,
                -0.6279975330215954,
                0.04882409115203307,
                1.0889556531516889,
                1.7536676758062915
            ]
        },
        {
            "positions": [
                -0.6594241327493199,
                -0.4669264616730773,
                -0.48448131360265956,
                0.006960031795634536,
                1.0354391890493777,
                1.8241977634408455
            ]
        },
        {
            "positions": [
                -0.6134798273777331,
                -0.5059436776332247,
                -0.34096509418372345,
                -0.03490402756076394,
                0.9819227249470669,
                1.8947278510753995
            ]
        },
        {
            "positions": [
                -0.5675355220061463,
                -0.5449608935933721,
                -0.19744887476478756,
                -0.07676808691716247,
                0.9284062608447559,
                1.9652579387099534
            ]
        },
        {
            "positions": [
                -0.5215912166345597,
                -0.5839781095535195,
                -0.05393265534585168,
                -0.11863214627356095,
                0.8748897967424449,
                2.035788026344507
            ]
        },
        {
            "positions": [
                -0.47564691126297287,
                -0.6229953255136669,
                0.08958356407308421,
                -0.16049620562995942,
                0.8213733326401339,
                2.106318113979061
            ]
        },
        {
            "positions": [
                -0.4297026058913861,
                -0.6620125414738143,
                0.23309978349202054,
                -0.202360264986358,
                0.7678568685378229,
                2.1768482016136153
            ]
        },
        {
            "positions": [
                -0.3837583005197994,
                -0.7010297574339615,
                0.3766160029109564,
                -0.24422432434275648,
                0.7143404044355119,
                2.2473782892481693
            ]
        },
        {
            "positions": [
                -0.33781399514821253,
                -0.7400469733941091,
                0.5201322223298923,
                -0.28608838369915507,
                0.6608239403332009,
                2.3179083768827233
            ]
        },
        {
            "positions": [
                -0.29186968977662586,
                -0.7790641893542563,
                0.6636484417488282,
                -0.32795244305555343,
                0.60730747623089,
                2.3884384645172774
            ]
        },
        {
            "positions": [
                -0.24592538440503908,
                -0.8180814053144037,
                0.8071646611677645,
                -0.369816502411952,
                0.553791012128579,
                2.4589685521518314
            ]
        },
        {
            "positions": [
                -0.1999810790334524,
                -0.857098621274551,
                0.9506808805867,
                -0.4116805617683505,
                0.500274548026268,
                2.529498639786385
            ]
        },
        {
            "positions": [
                -0.15403677366186552,
                -0.8961158372346985,
                1.0941971000056363,
                -0.4535446211247491,
                0.4467580839239569,
                2.6000287274209395
            ]
        },
        {
            "positions": [
                -0.10809246829027885,
                -0.9351330531948459,
                1.2377133194245722,
                -0.49540868048114745,
                0.3932416198216462,
                2.670558815055493
            ]
        },
        {
            "positions": [
                -0.06214816291869196,
                -0.9741502691549933,
                1.381229538843508,
                -0.5372727398375461,
                0.33972515571933504,
                2.7410889026900476
            ]
        },
        {
            "positions": [
                -0.016203857547105294,
                -1.0131674851151407,
                1.524745758262444,
                -0.5791367991939445,
                0.2862086916170241,
                2.811618990324601
            ]
        },
        {
            "positions": [
                0.029740447824481375,
                -1.052184701075288,
                1.6682619776813803,
                -0.621000858550343,
                0.23269222751471297,
                2.882149077959155
            ]
        },
        {
            "positions": [
                0.07568475319606804,
                -1.0912019170354355,
                1.8117781971003157,
                -0.6628649179067414,
                0.17917576341240227,
                2.9526791655937092
            ]
        },
        {
            "positions": [
                0.1216290585676549,
                -1.1302191329955829,
                1.955294416519252,
                -0.70472897726314,
                0.1256592993100911,
                3.0232092532282633
            ]
        }
    ]
}