{
    "goal": {
        "global_pose": {
            "orientation": {
                "w": -0.00223480608172531,
                "x": 0.0024358444001904467,
                "y": 0.7094548369677653,
                "z": -0.704743149386269
            },
            "position": {
                "x": 0.6205249238014221,
                "y": -0.6371506643295288,
                "z": 0.19426114857196808
            }
        },
        "name": "move_to_magneteinheit_B"
    },
    "id": "RRTConnect_move_to_magneteinheit_B_140",
    "joint_names": [
        "shoulder_pan_joint",
        "shoulder_lift_joint",
        "elbow_joint",
        "wrist_1_joint",
        "wrist_2_joint",
        "wrist_3_joint"
    ],
    "metrics": {
        "cart_traj_len": 1.4525097887519591,
        "distance_elbow_joint": 0.7289604578566191,
        "distance_shoulder_lift_joint": 1.2484544731292808,
        "distance_shoulder_pan_joint": 1.6205018320138462,
        "distance_wrist_1_joint": 2.6075923821793254,
        "distance_wrist_2_joint": 2.9385778933155025,
        "distance_wrist_3_joint": 3.1435647110725324,
        "smoothness": 2.6914497627957446e-16,
        "time": 0.201441169,
        "traj_len": 3.505374694603575,
        "weighted_distance": 4.911308526982092
    },
    "planner": "RRTConnect",
    "start": {
        "state": {
            "elbow_joint": 2.39358713078474,
            "shoulder_lift_joint": -1.908514104345545,
            "shoulder_pan_joint": 0.7066247066606129,
            "wrist_1_joint": -0.4678290933515497,
            "wrist_2_joint": 0.7096259083745334,
            "wrist_3_joint": -3.1358149277392293
        }
    },
    "waypoints": [
        {
            "positions": [
                0.7066247066606129,
                -1.908514104345545,
                2.39358713078474,
                -0.4678290933515497,
                0.7096259083745334,
                -3.1358149277392293
            ]
        },
        {
            "positions": [
                0.6559840244101802,
                -1.869499902060255,
                2.370807116476721,
                -0.3863418314084458,
                0.6177953492084239,
                -3.037578530518213
            ]
        },
        {
            "positions": [
                0.6053433421597476,
                -1.8304856997749648,
                2.348027102168701,
                -0.30485456946534184,
                0.5259647900423146,
                -2.939342133297196
            ]
        },
        {
            "positions": [
                0.5547026599093149,
                -1.7914714974896748,
                2.325247087860682,
                -0.22336730752223793,
                0.43413423087620506,
                -2.8411057360761793
            ]
        },
        {
            "positions": [
                0.5040619776588822,
                -1.7524572952043849,
                2.3024670735526627,
                -0.14188004557913403,
                0.3423036717100956,
                -2.742869338855163
            ]
        },
        {
            "positions": [
                0.45342129540844944,
                -1.713443092919095,
                2.2796870592446434,
                -0.06039278363603012,
                0.2504731125439862,
                -2.6446329416341463
            ]
        },
        {
            "positions": [
                0.4027806131580168,
                -1.6744288906338047,
                2.256907044936624,
                0.02109447830707384,
                0.1586425533778767,
                -2.5463965444131293
            ]
        },
        {
            "positions": [
                0.3521399309075841,
                -1.6354146883485148,
                2.2341270306286045,
                0.10258174025017769,
                0.06681199421176731,
                -2.448160147192113
            ]
        },
        {
            "positions": [
                0.3014992486571514,
                -1.5964004860632248,
                2.2113470163205853,
                0.18406900219328165,
                -0.025018564954342182,
                -2.3499237499710963
            ]
        },
        {
            "positions": [
                0.25085856640671866,
                -1.5573862837779346,
                2.188567002012566,
                0.2655562641363856,
                -0.11684912412045168,
                -2.2516873527500794
            ]
        },
        {
            "positions": [
                0.20021788415628594,
                -1.5183720814926447,
                2.1657869877045464,
                0.34704352607948946,
                -0.20867968328656106,
                -2.153450955529063
            ]
        },
        {
            "positions": [
                0.14957720190585333,
                -1.4793578792073547,
                2.143006973396527,
                0.4285307880225934,
                -0.30051024245267055,
                -2.0552145583080463
            ]
        },
        {
            "positions": [
                0.09893651965542061,
                -1.4403436769220646,
                2.120226959088508,
                0.5100180499656974,
                -0.39234080161878004,
                -1.9569781610870296
            ]
        },
        {
            "positions": [
                0.048295837404987885,
                -1.4013294746367746,
                2.0974469447804887,
                0.5915053119088014,
                -0.48417136078488954,
                -1.858741763866013
            ]
        },
        {
            "positions": [
                -0.002344844845444727,
                -1.3623152723514846,
                2.0746669304724694,
                0.6729925738519051,
                -0.5760019199509988,
                -1.7605053666449964
            ]
        },
        {
            "positions": [
                -0.05298552709587745,
                -1.3233010700661945,
                2.0518869161644497,
                0.7544798357950091,
                -0.6678324791171083,
                -1.6622689694239798
            ]
        },
        {
            "positions": [
                -0.10362620934631017,
                -1.2842868677809045,
                2.0291069018564305,
                0.8359670977381131,
                -0.7596630382832178,
                -1.564032572202963
            ]
        },
        {
            "positions": [
                -0.1542668915967429,
                -1.2452726654956146,
                2.0063268875484113,
                0.917454359681217,
                -0.8514935974493273,
                -1.4657961749819464
            ]
        },
        {
            "positions": [
                -0.20490757384717562,
                -1.2062584632103244,
                1.9835468732403918,
                0.998941621624321,
                -0.9433241566154368,
                -1.3675597777609299
            ]
        },
        {
            "positions": [
                -0.25554825609760823,
                -1.1672442609250344,
                1.9607668589323723,
                1.0804288835674247,
                -1.035154715781546,
                -1.2693233805399131
            ]
        },
        {
            "positions": [
                -0.30618893834804106,
                -1.1282300586397445,
                1.9379868446243531,
                1.1619161455105287,
                -1.1269852749476557,
                -1.1710869833188966
            ]
        },
        {
            "positions": [
                -0.3568296205984737,
                -1.0892158563544543,
                1.9152068303163339,
                1.2434034074536326,
                -1.218815834113765,
                -1.0728505860978799
            ]
        },
        {
            "positions": [
                -0.4074703028489063,
                -1.0502016540691643,
                1.8924268160083144,
                1.3248906693967366,
                -1.3106463932798746,
                -0.9746141888768634
            ]
        },
        {
            "positions": [
                -0.4581109850993391,
                -1.0111874517838744,
                1.869646801700295,
                1.4063779313398406,
                -1.402476952445984,
                -0.8763777916558468
            ]
        },
        {
            "positions": [
                -0.5087516673497717,
                -0.9721732494985843,
                1.8468667873922757,
                1.4878651932829445,
                -1.4943075116120936,
                -0.7781413944348299
            ]
        },
        {
            "positions": [
                -0.5593923496002043,
                -0.9331590472132942,
                1.8240867730842565,
                1.5693524552260483,
                -1.586138070778203,
                -0.6799049972138134
            ]
        },
        {
            "positions": [
                -0.6100330318506372,
                -0.8941448449280043,
                1.801306758776237,
                1.6508397171691525,
                -1.6779686299443126,
                -0.5816685999927969
            ]
        },
        {
            "positions": [
                -0.6606737141010698,
                -0.8551306426427143,
                1.7785267444682176,
                1.7323269791122562,
                -1.7697991891104219,
                -0.4834322027717799
            ]
        },
        {
            "positions": [
                -0.7113143963515024,
                -0.8161164403574241,
                1.7557467301601983,
                1.81381424105536,
                -1.8616297482765312,
                -0.3851958055507634
            ]
        },
        {
            "positions": [
                -0.7619550786019352,
                -0.7771022380721342,
                1.732966715852179,
                1.8953015029984641,
                -1.9534603074426409,
                -0.28695940832974687
            ]
        },
        {
            "positions": [
                -0.8125957608523678,
                -0.7380880357868442,
                1.7101867015441596,
                1.9767887649415679,
                -2.04529086660875,
                -0.18872301110873035
            ]
        },
        {
            "positions": [
                -0.8632364431028007,
                -0.699073833501554,
                1.6874066872361402,
                2.058276026884672,
                -2.13712142577486,
                -0.0904866138877134
            ]
        },
        {
            "positions": [
                -0.9138771253532332,
                -0.6600596312162641,
                1.664626672928121,
                2.1397632888277758,
                -2.228951984940969,
                0.007749783333303242
            ]
        }
    ]
}