{
    "goal": {
        "global_pose": {
            "orientation": {
                "w": 0.5084816217422485,
                "x": -0.49083608388900757,
                "y": 0.5182115435600281,
                "z": -0.4816462993621826
            },
            "position": {
                "x": 0.5540239810943604,
                "y": 0.030875300988554955,
                "z": 0.16403168439865112
            }
        },
        "name": "move_to_storage_A"
    },
    "id": "RRTConnect_move_to_storage_A_142",
    "joint_names": [
        "shoulder_pan_joint",
        "shoulder_lift_joint",
        "elbow_joint",
        "wrist_1_joint",
        "wrist_2_joint",
        "wrist_3_joint"
    ],
    "metrics": {
        "cart_traj_len": 0.3538858342418992,
        "distance_elbow_joint": 0.4524694803081739,
        "distance_shoulder_lift_joint": 0.23282293669928156,
        "distance_shoulder_pan_joint": 0.46244521561088997,
        "distance_wrist_1_joint": 0.253608417894274,
        "distance_wrist_2_joint": 1.1013653564336954,
        "distance_wrist_3_joint": 0.10806204069875136,
        "smoothness": 4.440892098500626e-16,
        "time": 0.065146491,
        "traj_len": 1.615788800445487,
        "weighted_distance": 2.0449624210167134
    },
    "planner": "RRTConnect",
    "start": {
        "state": {
            "elbow_joint": 1.9715463870305268,
            "shoulder_lift_joint": -1.1394903361783484,
            "shoulder_pan_joint": 0.12281147578464417,
            "wrist_1_joint": -0.7804599489681411,
            "wrist_2_joint": 0.12958660307563738,
            "wrist_3_joint": -3.1924946282119055
        }
    },
    "waypoints": [
        {
            "positions": [
                0.12281147578464417,
                -1.1394903361783484,
                1.9715463870305268,
                -0.7804599489681411,
                0.12958660307563738,
                -3.1924946282119055
            ]
        },
        {
            "positions": [
                0.056747873554517034,
                -1.172750755706817,
                2.0361848842174086,
                -0.8166897229530373,
                0.2869245111375939,
                -3.1770571938263696
            ]
        },
        {
            "positions": [
                -0.009315728675610105,
                -1.206011175235286,
                2.100823381404291,
                -0.8529194969379337,
                0.44426241919955034,
                -3.1616197594408337
            ]
        },
        {
            "positions": [
                -0.07537933090573724,
                -1.2392715947637547,
                2.165461878591173,
                -0.8891492709228299,
                0.6016003272615068,
                -3.146182325055298
            ]
        },
        {
            "positions": [
                -0.14144293313586437,
                -1.2725320142922236,
                2.2301003757780546,
                -0.9253790449077263,
                0.7589382353234633,
                -3.130744890669762
            ]
        },
        {
            "positions": [
                -0.2075065353659915,
                -1.3057924338206923,
                2.2947388729649365,
                -0.9616088188926225,
                0.9162761433854199,
                -3.115307456284226
            ]
        },
        {
            "positions": [
                -0.27357013759611865,
                -1.3390528533491612,
                2.359377370151819,
                -0.9978385928775189,
                1.0736140514473762,
                -3.09987002189869
            ]
        },
        {
            "positions": [
                -0.3396337398262458,
                -1.37231327287763,
                2.4240158673387007,
                -1.034068366862415,
                1.2309519595093328,
                -3.084432587513154
            ]
        }
    ]
}