{
    "goal": {
        "global_pose": {
            "orientation": {
                "w": 0.5084816217422485,
                "x": -0.49083608388900757,
                "y": 0.5182115435600281,
                "z": -0.4816462993621826
            },
            "position": {
                "x": 0.5540239810943604,
                "y": 0.030875300988554955,
                "z": 0.16403168439865112
            }
        },
        "name": "move_to_storage_A"
    },
    "id": "RRTConnect_move_to_storage_A_121",
    "joint_names": [
        "shoulder_pan_joint",
        "shoulder_lift_joint",
        "elbow_joint",
        "wrist_1_joint",
        "wrist_2_joint",
        "wrist_3_joint"
    ],
    "metrics": {
        "cart_traj_len": 0.35392624265995676,
        "distance_elbow_joint": 0.45326556382289995,
        "distance_shoulder_lift_joint": 0.2325537467223331,
        "distance_shoulder_pan_joint": 0.4609292410303867,
        "distance_wrist_1_joint": 0.2623238114975043,
        "distance_wrist_2_joint": 1.1076645395474358,
        "distance_wrist_3_joint": 0.10408344590201635,
        "smoothness": 1.8873791356367994e-15,
        "time": 0.057392897,
        "traj_len": 1.6188947922958354,
        "weighted_distance": 2.0491402078363374
    },
    "planner": "RRTConnect",
    "start": {
        "state": {
            "elbow_joint": 1.9715463870305268,
            "shoulder_lift_joint": -1.1394903361783484,
            "shoulder_pan_joint": 0.12281147578464417,
            "wrist_1_joint": -0.7804599489681411,
            "wrist_2_joint": 0.12958660307563738,
            "wrist_3_joint": -3.1924946282119055
        }
    },
    "waypoints": [
        {
            "positions": [
                0.12281147578464417,
                -1.1394903361783484,
                1.9715463870305268,
                -0.7804599489681411,
                0.12958660307563738,
                -3.1924946282119055
            ]
        },
        {
            "positions": [
                0.05696444135173179,
                -1.1727122999958246,
                2.036298610433798,
                -0.8179347791820702,
                0.28782439443955676,
                -3.1776255645116174
            ]
        },
        {
            "positions": [
                -0.008882593081180598,
                -1.2059342638133006,
                2.1010508338370695,
                -0.8554096093959994,
                0.4460621858034761,
                -3.1627565008113296
            ]
        },
        {
            "positions": [
                -0.07472962751409297,
                -1.2391562276307768,
                2.165803057240341,
                -0.8928844396099286,
                0.6042999771673956,
                -3.1478874371110415
            ]
        },
        {
            "positions": [
                -0.14057666194700535,
                -1.272378191448253,
                2.230555280643612,
                -0.9303592698238579,
                0.7625377685313149,
                -3.1330183734107533
            ]
        },
        {
            "positions": [
                -0.20642369637991775,
                -1.3056001552657293,
                2.295307504046884,
                -0.967834100037787,
                0.9207755598952344,
                -3.118149309710465
            ]
        },
        {
            "positions": [
                -0.2722707308128301,
                -1.3388221190832053,
                2.3600597274501554,
                -1.0053089302517162,
                1.0790133512591538,
                -3.1032802460101774
            ]
        },
        {
            "positions": [
                -0.3381177652457425,
                -1.3720440829006815,
                2.4248119508534267,
                -1.0427837604656454,
                1.2372511426230732,
                -3.088411182309889
            ]
        }
    ]
}