{
    "goal": {
        "global_pose": {
            "orientation": {
                "w": 0.7047431468963623,
                "x": -0.7094548344612122,
                "y": 0.0024358443915843964,
                "z": -0.0022348060738295317
            },
            "position": {
                "x": 0.6094750761985779,
                "y": 0.3671506643295288,
                "z": 0.19426114857196808
            }
        },
        "name": "move_to_magneteinheit_A"
    },
    "id": "RRTConnect_move_to_magneteinheit_A_130",
    "joint_names": [
        "shoulder_pan_joint",
        "shoulder_lift_joint",
        "elbow_joint",
        "wrist_1_joint",
        "wrist_2_joint",
        "wrist_3_joint"
    ],
    "metrics": {
        "cart_traj_len": 1.8731655532476226,
        "distance_elbow_joint": 3.9218874257038436,
        "distance_shoulder_lift_joint": 0.7044481371842973,
        "distance_shoulder_pan_joint": 1.2418755991447552,
        "distance_wrist_1_joint": 1.5372552320767925,
        "distance_wrist_2_joint": 1.696118474314243,
        "distance_wrist_3_joint": 1.1666402116762795,
        "smoothness": 4.2764146379544185e-16,
        "time": 0.059007053000000004,
        "traj_len": 3.2044071339485267,
        "weighted_distance": 3.979306372955443
    },
    "planner": "RRTConnect",
    "start": {
        "state": {
            "elbow_joint": -1.919643507792019,
            "shoulder_lift_joint": -0.07675430207160344,
            "shoulder_pan_joint": -1.1188671864651873,
            "wrist_1_joint": 0.42560062535961957,
            "wrist_2_joint": 1.5706038300724876,
            "wrist_3_joint": 1.1188968870953055
        }
    },
    "waypoints": [
        {
            "positions": [
                -1.1188671864651873,
                -0.07675430207160344,
                -1.919643507792019,
                0.42560062535961957,
                1.5706038300724876,
                1.1188968870953055
            ]
        },
        {
            "positions": [
                -1.0711027403442352,
                -0.10384846119407642,
                -1.7688016837264866,
                0.48472582659334235,
                1.5053685041373244,
                1.074026109723141
            ]
        },
        {
            "positions": [
                -1.0233382942232832,
                -0.1309426203165494,
                -1.6179598596609541,
                0.5438510278270652,
                1.4401331782021611,
                1.0291553323509763
            ]
        },
        {
            "positions": [
                -0.9755738481023309,
                -0.1580367794390224,
                -1.4671180355954216,
                0.602976229060788,
                1.3748978522669981,
                0.9842845549788117
            ]
        },
        {
            "positions": [
                -0.9278094019813788,
                -0.18513093856149537,
                -1.3162762115298894,
                0.6621014302945107,
                1.3096625263318349,
                0.9394137776066471
            ]
        },
        {
            "positions": [
                -0.8800449558604267,
                -0.21222509768396836,
                -1.165434387464357,
                0.7212266315282335,
                1.2444272003966717,
                0.8945430002344825
            ]
        },
        {
            "positions": [
                -0.8322805097394745,
                -0.2393192568064413,
                -1.0145925633988244,
                0.7803518327619563,
                1.1791918744615084,
                0.8496722228623179
            ]
        },
        {
            "positions": [
                -0.7845160636185224,
                -0.2664134159289143,
                -0.8637507393332919,
                0.8394770339956791,
                1.1139565485263452,
                0.8048014454901533
            ]
        },
        {
            "positions": [
                -0.7367516174975703,
                -0.29350757505138725,
                -0.7129089152677595,
                0.8986022352294019,
                1.048721222591182,
                0.7599306681179887
            ]
        },
        {
            "positions": [
                -0.6889871713766182,
                -0.32060173417386023,
                -0.5620670912022272,
                0.9577274364631247,
                0.9834858966560189,
                0.7150598907458242
            ]
        },
        {
            "positions": [
                -0.6412227252556661,
                -0.34769589329633327,
                -0.4112252671366945,
                1.0168526376968474,
                0.9182505707208557,
                0.6701891133736595
            ]
        },
        {
            "positions": [
                -0.593458279134714,
                -0.3747900524188062,
                -0.26038344307116223,
                1.0759778389305703,
                0.8530152447856925,
                0.625318336001495
            ]
        },
        {
            "positions": [
                -0.5456938330137618,
                -0.4018842115412792,
                -0.10954161900562953,
                1.135103040164293,
                0.7877799188505292,
                0.5804475586293304
            ]
        },
        {
            "positions": [
                -0.49792938689280974,
                -0.42897837066375216,
                0.04130020505990273,
                1.1942282413980159,
                0.7225445929153661,
                0.5355767812571658
            ]
        },
        {
            "positions": [
                -0.45016494077185765,
                -0.45607252978622514,
                0.1921420291254352,
                1.2533534426317385,
                0.657309266980203,
                0.4907060038850012
            ]
        },
        {
            "positions": [
                -0.40240049465090555,
                -0.48316668890869807,
                0.34298385319096725,
                1.3124786438654612,
                0.5920739410450399,
                0.4458352265128367
            ]
        },
        {
            "positions": [
                -0.35463604852995334,
                -0.5102608480311711,
                0.4938256772565002,
                1.3716038450991843,
                0.5268386151098765,
                0.400964449140672
            ]
        },
        {
            "positions": [
                -0.30687160240900124,
                -0.5373550071536441,
                0.6446675013220327,
                1.430729046332907,
                0.46160328917471327,
                0.35609367176850737
            ]
        },
        {
            "positions": [
                -0.25910715628804915,
                -0.5644491662761171,
                0.7955093253875647,
                1.4898542475666299,
                0.39636796323955026,
                0.3112228943963429
            ]
        },
        {
            "positions": [
                -0.21134271016709705,
                -0.59154332539859,
                0.9463511494530972,
                1.5489794488003525,
                0.331132637304387,
                0.26635211702417827
            ]
        },
        {
            "positions": [
                -0.16357826404614484,
                -0.6186374845210632,
                1.09719297351863,
                1.6081046500340754,
                0.2658973113692238,
                0.22148133965201355
            ]
        },
        {
            "positions": [
                -0.11581381792519263,
                -0.6457316436435361,
                1.2480347975841626,
                1.667229851267798,
                0.20066198543406055,
                0.17661056227984895
            ]
        },
        {
            "positions": [
                -0.06804937180424075,
                -0.672825802766009,
                1.3988766216496946,
                1.726355052501521,
                0.13542665949889732,
                0.13173978490768445
            ]
        },
        {
            "positions": [
                -0.020284925683288657,
                -0.6999199618884819,
                1.549718445715227,
                1.7854802537352437,
                0.0701913335637343,
                0.08686900753551985
            ]
        },
        {
            "positions": [
                0.027479520437663663,
                -0.7270141210109549,
                1.70056026978076,
                1.8446054549689666,
                0.0049560076285708465,
                0.041998230163355244
            ]
        },
        {
            "positions": [
                0.07524396655861576,
                -0.754108280133428,
                1.851402093846292,
                1.9037306562026894,
                -0.06027931830659217,
                -0.0028725472088093618
            ]
        },
        {
            "positions": [
                0.1230084126795678,
                -0.7812024392559008,
                2.0022439179118248,
                1.962855857436412,
                -0.12551464424175543,
                -0.04774332458097394
            ]
        }
    ]
}