{
    "goal": {
        "global_pose": {
            "orientation": {
                "w": 0.7047431468963623,
                "x": -0.7094548344612122,
                "y": 0.0024358443915843964,
                "z": -0.0022348060738295317
            },
            "position": {
                "x": 0.6094750761985779,
                "y": 0.3671506643295288,
                "z": 0.19426114857196808
            }
        },
        "name": "move_to_magneteinheit_A"
    },
    "id": "RRTConnect_move_to_magneteinheit_A_71",
    "joint_names": [
        "shoulder_pan_joint",
        "shoulder_lift_joint",
        "elbow_joint",
        "wrist_1_joint",
        "wrist_2_joint",
        "wrist_3_joint"
    ],
    "metrics": {
        "cart_traj_len": 2.0651105523218134,
        "distance_elbow_joint": 3.8780031635486516,
        "distance_shoulder_lift_joint": 1.053985344060309,
        "distance_shoulder_pan_joint": 1.24159628772123,
        "distance_wrist_1_joint": 1.146800368909888,
        "distance_wrist_2_joint": 1.442693562609427,
        "distance_wrist_3_joint": 1.9222129758593898,
        "smoothness": 5.075305259828549e-16,
        "time": 0.06936242299999999,
        "traj_len": 3.268836444778003,
        "weighted_distance": 4.137536898439334
    },
    "planner": "RRTConnect",
    "start": {
        "state": {
            "elbow_joint": -1.919643507792019,
            "shoulder_lift_joint": -0.07675430207160344,
            "shoulder_pan_joint": -1.1188671864651873,
            "wrist_1_joint": 0.42560062535961957,
            "wrist_2_joint": 1.5706038300724876,
            "wrist_3_joint": 1.1188968870953055
        }
    },
    "waypoints": [
        {
            "positions": [
                -1.1188671864651873,
                -0.07675430207160344,
                -1.919643507792019,
                0.42560062535961957,
                1.5706038300724876,
                1.1188968870953055
            ]
        },
        {
            "positions": [
                -1.0728821387718084,
                -0.11579079629605933,
                -1.7760137609939208,
                0.3831265376222163,
                1.5171707351610273,
                1.190089960275283
            ]
        },
        {
            "positions": [
                -1.0268970910784296,
                -0.15482729052051522,
                -1.6323840141958228,
                0.340652449884813,
                1.4637376402495672,
                1.2612830334552603
            ]
        },
        {
            "positions": [
                -0.9809120433850507,
                -0.19386378474497112,
                -1.4887542673977245,
                0.2981783621474098,
                1.410304545338107,
                1.3324761066352377
            ]
        },
        {
            "positions": [
                -0.9349269956916718,
                -0.232900278969427,
                -1.3451245205996263,
                0.25570427441000654,
                1.3568714504266466,
                1.403669179815215
            ]
        },
        {
            "positions": [
                -0.888941947998293,
                -0.2719367731938829,
                -1.201494773801528,
                0.21323018667260327,
                1.3034383555151863,
                1.4748622529951925
            ]
        },
        {
            "positions": [
                -0.842956900304914,
                -0.31097326741833875,
                -1.0578650270034298,
                0.1707560989352,
                1.250005260603726,
                1.54605532617517
            ]
        },
        {
            "positions": [
                -0.7969718526115351,
                -0.3500097616427947,
                -0.9142352802053317,
                0.12828201119779675,
                1.1965721656922659,
                1.6172483993551472
            ]
        },
        {
            "positions": [
                -0.7509868049181563,
                -0.38904625586725056,
                -0.7706055334072335,
                0.08580792346039351,
                1.1431390707808056,
                1.6884414725351247
            ]
        },
        {
            "positions": [
                -0.7050017572247773,
                -0.42808275009170643,
                -0.6269757866091352,
                0.043333835722990266,
                1.0897059758693453,
                1.7596345457151021
            ]
        },
        {
            "positions": [
                -0.6590167095313985,
                -0.46711924431616236,
                -0.4833460398110372,
                0.0008597479855869672,
                1.0362728809578852,
                1.8308276188950794
            ]
        },
        {
            "positions": [
                -0.6130316618380196,
                -0.5061557385406182,
                -0.33971629301293893,
                -0.041614339751816276,
                0.9828397860464247,
                1.9020206920750569
            ]
        },
        {
            "positions": [
                -0.5670466141446406,
                -0.5451922327650741,
                -0.19608654621484067,
                -0.08408842748921957,
                0.9294066911349645,
                1.9732137652550343
            ]
        },
        {
            "positions": [
                -0.5210615664512618,
                -0.5842287269895301,
                -0.05245679941674242,
                -0.12656251522662282,
                0.8759735962235042,
                2.0444068384350116
            ]
        },
        {
            "positions": [
                -0.4750765187578829,
                -0.623265221213986,
                0.09117294738135562,
                -0.16903660296402606,
                0.822540501312044,
                2.1155999116149893
            ]
        },
        {
            "positions": [
                -0.42909147106450396,
                -0.6623017154384419,
                0.23480269417945432,
                -0.2115106907014293,
                0.7691074064005836,
                2.1867929847949665
            ]
        },
        {
            "positions": [
                -0.3831064233711251,
                -0.7013382096628977,
                0.37843244097755213,
                -0.25398477843883255,
                0.7156743114891235,
                2.257986057974944
            ]
        },
        {
            "positions": [
                -0.33712137567774614,
                -0.7403747038873536,
                0.5220621877756504,
                -0.2964588661762359,
                0.6622412165776631,
                2.3291791311549215
            ]
        },
        {
            "positions": [
                -0.2911363279843673,
                -0.7794111981118095,
                0.6656919345737486,
                -0.33893295391363903,
                0.6088081216662029,
                2.4003722043348987
            ]
        },
        {
            "positions": [
                -0.24515128029098832,
                -0.8184476923362654,
                0.8093216813718469,
                -0.3814070416510424,
                0.5553750267547426,
                2.471565277514876
            ]
        },
        {
            "positions": [
                -0.19916623259760957,
                -0.8574841865607212,
                0.9529514281699447,
                -0.42388112938844563,
                0.5019419318432825,
                2.5427583506948537
            ]
        },
        {
            "positions": [
                -0.1531811849042306,
                -0.8965206807851771,
                1.0965811749680434,
                -0.4663552171258489,
                0.4485088369318222,
                2.613951423874831
            ]
        },
        {
            "positions": [
                -0.10719613721085186,
                -0.935557175009633,
                1.2402109217661412,
                -0.5088293048632522,
                0.3950757420203619,
                2.685144497054808
            ]
        },
        {
            "positions": [
                -0.061211089517472894,
                -0.9745936692340889,
                1.38384066856424,
                -0.5513033926006554,
                0.3416426471089016,
                2.756337570234786
            ]
        },
        {
            "positions": [
                -0.015226041824093928,
                -1.0136301634585447,
                1.5274704153623377,
                -0.5937774803380587,
                0.2882095521974415,
                2.827530643414763
            ]
        },
        {
            "positions": [
                0.03075900586928504,
                -1.0526666576830008,
                1.671100162160436,
                -0.6362515680754619,
                0.23477645728598118,
                2.8987237165947404
            ]
        },
        {
            "positions": [
                0.07674405356266378,
                -1.0917031519074567,
                1.8147299089585343,
                -0.6787256558128651,
                0.18134336237452087,
                2.969916789774718
            ]
        },
        {
            "positions": [
                0.12272910125604267,
                -1.1307396461319126,
                1.9583596557566327,
                -0.7211997435502684,
                0.12791026746306058,
                3.0411098629546953
            ]
        }
    ]
}