{
    "goal": {
        "global_pose": {
            "orientation": {
                "w": 0.7031023502349854,
                "x": -0.7110244035720825,
                "y": 0.007748599164187908,
                "z": 0.005598929710686207
            },
            "position": {
                "x": 0.11585023208521307,
                "y": 0.44412534475326537,
                "z": 0.3711530566215515
            }
        },
        "name": "move_to_auspresseinheit_A"
    },
    "id": "RRTConnect_move_to_auspresseinheit_A_130",
    "joint_names": [
        "shoulder_pan_joint",
        "shoulder_lift_joint",
        "elbow_joint",
        "wrist_1_joint",
        "wrist_2_joint",
        "wrist_3_joint"
    ],
    "metrics": {
        "cart_traj_len": 0.9412036250507848,
        "distance_elbow_joint": 0.6802647377977822,
        "distance_shoulder_lift_joint": 0.5346922608272391,
        "distance_shoulder_pan_joint": 1.417383695067358,
        "distance_wrist_1_joint": 1.863818714334176,
        "distance_wrist_2_joint": 0.5205581388268137,
        "distance_wrist_3_joint": 2.8347763314234635,
        "smoothness": 0.9620097891318913,
        "time": 0.074337609,
        "traj_len": 2.8020517265526763,
        "weighted_distance": 3.988160402276312
    },
    "planner": "RRTConnect",
    "start": {
        "state": {
            "elbow_joint": 2.422574709923281,
            "shoulder_lift_joint": -1.3736533754116391,
            "shoulder_pan_joint": -0.33786336945926293,
            "wrist_1_joint": -1.0288603412921917,
            "wrist_2_joint": 1.2330224858903978,
            "wrist_3_joint": -3.094022268022082
        }
    },
    "waypoints": [
        {
            "positions": [
                -0.33786336945926293,
                -1.3736533754116391,
                2.422574709923281,
                -1.0288603412921917,
                1.2330224858903978,
                -3.094022268022082
            ]
        },
        {
            "positions": [
                -0.3565099432242197,
                -1.4016210591811586,
                2.3869732512106716,
                -0.907147535563011,
                1.2003008694334114,
                -2.954301772443168
            ]
        },
        {
            "positions": [
                -0.3751565169891765,
                -1.4295887429506784,
                2.3513717924980626,
                -0.7854347298338302,
                1.167579252976425,
                -2.8145812768642537
            ]
        },
        {
            "positions": [
                -0.39380309075413333,
                -1.457556426720198,
                2.315770333785453,
                -0.6637219241046495,
                1.1348576365194385,
                -2.6748607812853398
            ]
        },
        {
            "positions": [
                -0.4124496645190901,
                -1.4855241104897177,
                2.280168875072844,
                -0.5420091183754687,
                1.1021360200624521,
                -2.535140285706426
            ]
        },
        {
            "positions": [
                -0.43109623828404686,
                -1.5134917942592372,
                2.2445674163602347,
                -0.420296312646288,
                1.0694144036054658,
                -2.3954197901275114
            ]
        },
        {
            "positions": [
                -0.4497428120490037,
                -1.5414594780287567,
                2.2089659576476253,
                -0.2985835069171072,
                1.0366927871484795,
                -2.2556992945485974
            ]
        },
        {
            "positions": [
                -0.4683893858139605,
                -1.5694271617982765,
                2.1733644989350163,
                -0.17687070118792647,
                1.003971170691493,
                -2.1159787989696834
            ]
        },
        {
            "positions": [
                -0.48703595957891727,
                -1.597394845567796,
                2.137763040222407,
                -0.05515789545874572,
                0.9712495542345065,
                -1.976258303390769
            ]
        },
        {
            "positions": [
                -0.505682533343874,
                -1.6253625293373157,
                2.102161581509798,
                0.06655491027043503,
                0.9385279377775202,
                -1.836537807811855
            ]
        },
        {
            "positions": [
                -0.5243291071088308,
                -1.6533302131068353,
                2.0665601227971884,
                0.18826771599961573,
                0.9058063213205338,
                -1.6968173122329409
            ]
        },
        {
            "positions": [
                -0.41141652573018295,
                -1.6778214131992761,
                2.098592280363909,
                0.1378395572774437,
                0.8938790222887896,
                -1.8205744130020556
            ]
        },
        {
            "positions": [
                -0.29850394435153504,
                -1.702312613291717,
                2.130624437930629,
                0.08741139855527169,
                0.8819517232570452,
                -1.9443315137711705
            ]
        },
        {
            "positions": [
                -0.18559136297288714,
                -1.726803813384158,
                2.16265659549735,
                0.036983239833099674,
                0.8700244242253009,
                -2.0680886145402853
            ]
        },
        {
            "positions": [
                -0.07267878159423924,
                -1.7512950134765988,
                2.1946887530640704,
                -0.013444918889072344,
                0.8580971251935565,
                -2.1918457153094
            ]
        },
        {
            "positions": [
                0.040233799784408775,
                -1.7757862135690399,
                2.2267209106307906,
                -0.06387307761124439,
                0.8461698261618122,
                -2.315602816078515
            ]
        },
        {
            "positions": [
                0.15314638116305657,
                -1.8002774136614808,
                2.258753068197511,
                -0.11430123633341638,
                0.8342425271300679,
                -2.4393599168476294
            ]
        },
        {
            "positions": [
                0.2660589625417046,
                -1.8247686137539216,
                2.290785225764232,
                -0.16472939505558842,
                0.8223152280983236,
                -2.5631170176167446
            ]
        },
        {
            "positions": [
                0.37897154392035237,
                -1.8492598138463625,
                2.322817383330952,
                -0.2151575537777604,
                0.8103879290665792,
                -2.6868741183858593
            ]
        },
        {
            "positions": [
                0.4918841252990004,
                -1.8737510139388034,
                2.3548495408976726,
                -0.26558571249993246,
                0.7984606300348349,
                -2.810631219154974
            ]
        },
        {
            "positions": [
                0.5634523669689868,
                -1.885282554705495,
                2.366836451754741,
                -0.3298647886808726,
                0.7697952023777513,
                -2.9185503753924036
            ]
        },
        {
            "positions": [
                0.6350206086389732,
                -1.8968140954721866,
                2.3788233626118096,
                -0.39414386486181274,
                0.7411297747206677,
                -3.0264695316298336
            ]
        },
        {
            "positions": [
                0.7065888503089597,
                -1.9083456362388782,
                2.390810273468878,
                -0.45842294104275294,
                0.7124643470635841,
                -3.134388687867263
            ]
        }
    ]
}