{
    "goal": {
        "global_pose": {
            "orientation": {
                "w": -0.00223480608172531,
                "x": 0.0024358444001904467,
                "y": 0.7094548369677653,
                "z": -0.704743149386269
            },
            "position": {
                "x": 0.6205249238014221,
                "y": -0.6371506643295288,
                "z": 0.19426114857196808
            }
        },
        "name": "move_to_magneteinheit_B"
    },
    "id": "RRTConnect_move_to_magneteinheit_B_6",
    "joint_names": [
        "shoulder_pan_joint",
        "shoulder_lift_joint",
        "elbow_joint",
        "wrist_1_joint",
        "wrist_2_joint",
        "wrist_3_joint"
    ],
    "metrics": {
        "cart_traj_len": 5.2724548850070585,
        "distance_elbow_joint": 4.9420382327095655,
        "distance_shoulder_lift_joint": 4.7384567376138875,
        "distance_shoulder_pan_joint": 2.453715325157879,
        "distance_wrist_1_joint": 5.886125916991073,
        "distance_wrist_2_joint": 0.9404851029406636,
        "distance_wrist_3_joint": 5.979473636579203,
        "smoothness": 0.5428525776939378,
        "time": 0.399836336,
        "traj_len": 4.994025926243504,
        "weighted_distance": 6.612552702631744
    },
    "planner": "RRTConnect",
    "start": {
        "state": {
            "elbow_joint": 2.39358713078474,
            "shoulder_lift_joint": -1.908514104345545,
            "shoulder_pan_joint": 0.7066247066606129,
            "wrist_1_joint": -0.4678290933515497,
            "wrist_2_joint": 0.7096259083745334,
            "wrist_3_joint": -3.1358149277392293
        }
    },
    "waypoints": [
        {
            "positions": [
                0.7066247066606129,
                -1.908514104345545,
                2.39358713078474,
                -0.4678290933515497,
                0.7096259083745334,
                -3.1358149277392293
            ]
        },
        {
            "positions": [
                0.7630613628354733,
                -1.929565310608414,
                2.3675608801342967,
                -0.36866754379440003,
                0.7163295034901179,
                -2.9728783419663687
            ]
        },
        {
            "positions": [
                0.8194980190103337,
                -1.9506165168712832,
                2.341534629483853,
                -0.2695059942372503,
                0.7230330986057025,
                -2.809941756193508
            ]
        },
        {
            "positions": [
                0.8759346751851941,
                -1.9716677231341522,
                2.3155083788334094,
                -0.17034444468010063,
                0.729736693721287,
                -2.6470051704206474
            ]
        },
        {
            "positions": [
                0.9323713313600545,
                -1.9927189293970213,
                2.289482128182966,
                -0.07118289512295094,
                0.7364402888368715,
                -2.484068584647787
            ]
        },
        {
            "positions": [
                0.9949786993887373,
                -1.9962069596983487,
                2.1364926506985573,
                -0.023752042447209236,
                0.7349963780311848,
                -2.363179642904731
            ]
        },
        {
            "positions": [
                1.05758606741742,
                -1.9996949899996763,
                1.9835031732141484,
                0.023678810228532465,
                0.7335524672254979,
                -2.2422907011616755
            ]
        },
        {
            "positions": [
                1.1201934354461027,
                -2.0031830203010035,
                1.8305136957297394,
                0.07110966290427416,
                0.7321085564198112,
                -2.1214017594186196
            ]
        },
        {
            "positions": [
                1.1828008034747857,
                -2.006671050602331,
                1.6775242182453307,
                0.11854051558001587,
                0.7306646456141245,
                -2.0005128176755638
            ]
        },
        {
            "positions": [
                1.2454081715034684,
                -2.0101590809036587,
                1.524534740760922,
                0.16597136825575753,
                0.7292207348084376,
                -1.8796238759325081
            ]
        },
        {
            "positions": [
                1.308015539532151,
                -2.013647111204986,
                1.371545263276513,
                0.21340222093149924,
                0.7277768240027509,
                -1.7587349341894525
            ]
        },
        {
            "positions": [
                1.3706229075608338,
                -2.0171351415063135,
                1.2185557857921043,
                0.26083307360724095,
                0.7263329131970642,
                -1.6378459924463966
            ]
        },
        {
            "positions": [
                1.4332302755895165,
                -2.020623171807641,
                1.0655663083076954,
                0.30826392628298266,
                0.7248890023913773,
                -1.516957050703341
            ]
        },
        {
            "positions": [
                1.4958376436181995,
                -2.024111202108968,
                0.9125768308232867,
                0.35569477895872437,
                0.7234450915856906,
                -1.3960681089602853
            ]
        },
        {
            "positions": [
                1.5584450116468822,
                -2.027599232410296,
                0.7595873533388777,
                0.403125631634466,
                0.7220011807800039,
                -1.2751791672172295
            ]
        },
        {
            "positions": [
                1.621052379675565,
                -2.0310872627116234,
                0.606597875854469,
                0.4505564843102078,
                0.720557269974317,
                -1.1542902254741738
            ]
        },
        {
            "positions": [
                1.6836597477042479,
                -2.0345752930129506,
                0.45360839837006006,
                0.49798733698594944,
                0.7191133591686303,
                -1.033401283731118
            ]
        },
        {
            "positions": [
                1.7462671157329304,
                -2.038063323314278,
                0.30061892088565134,
                0.5454181896616911,
                0.7176694483629436,
                -0.9125123419880623
            ]
        },
        {
            "positions": [
                1.8088744837616133,
                -2.041551353615606,
                0.14762944340124262,
                0.5928490423374329,
                0.7162255375572567,
                -0.7916234002450067
            ]
        },
        {
            "positions": [
                1.8714818517902962,
                -2.045039383916933,
                -0.005360034083166543,
                0.6402798950131746,
                0.71478162675157,
                -0.6707344585019508
            ]
        },
        {
            "positions": [
                1.9340892198189787,
                -2.0485274142182606,
                -0.15834951156757526,
                0.6877107476889163,
                0.7133377159458832,
                -0.5498455167588951
            ]
        },
        {
            "positions": [
                1.9966965878476617,
                -2.052015444519588,
                -0.3113389890519844,
                0.735141600364658,
                0.7118938051401964,
                -0.4289565750158393
            ]
        },
        {
            "positions": [
                2.059303955876344,
                -2.0555034748209153,
                -0.4643284665363927,
                0.7825724530403997,
                0.7104498943345097,
                -0.30806763327278386
            ]
        },
        {
            "positions": [
                2.121911323905027,
                -2.058991505122243,
                -0.6173179440208019,
                0.8300033057161414,
                0.7090059835288229,
                -0.187178691529728
            ]
        },
        {
            "positions": [
                2.18451869193371,
                -2.06247953542357,
                -0.7703074215052106,
                0.877434158391883,
                0.7075620727231361,
                -0.06628974978667213
            ]
        },
        {
            "positions": [
                2.247126059962393,
                -2.0659675657248977,
                -0.9232968989896198,
                0.9248650110676248,
                0.7061181619174494,
                0.05459919195638374
            ]
        },
        {
            "positions": [
                2.3097334279910755,
                -2.0694555960262253,
                -1.076286376474028,
                0.9722958637433665,
                0.7046742511117626,
                0.17548813369943916
            ]
        },
        {
            "positions": [
                2.3723407960197584,
                -2.0729436263275525,
                -1.2292758539584372,
                1.0197267164191082,
                0.7032303403060758,
                0.29637707544249503
            ]
        },
        {
            "positions": [
                2.434948164048441,
                -2.07643165662888,
                -1.382265331442846,
                1.0671575690948498,
                0.701786429500389,
                0.4172660171855509
            ]
        },
        {
            "positions": [
                2.497555532077124,
                -2.0799196869302077,
                -1.535254808927255,
                1.1145884217705917,
                0.7003425186947023,
                0.5381549589286068
            ]
        },
        {
            "positions": [
                2.5601629001058064,
                -2.083407717231535,
                -1.6882442864116634,
                1.1620192744463331,
                0.6988986078890155,
                0.6590439006716622
            ]
        },
        {
            "positions": [
                2.6227702681344893,
                -2.0868957475328624,
                -1.841233763896072,
                1.209450127122075,
                0.6974546970833287,
                0.7799328424147183
            ]
        },
        {
            "positions": [
                2.6419446568328744,
                -1.9478275191730248,
                -1.8592762645311958,
                1.3419759352601144,
                0.661158104704687,
                0.8239378306136943
            ]
        },
        {
            "positions": [
                2.661119045531259,
                -1.808759290813187,
                -1.8773187651663195,
                1.4745017433981535,
                0.6248615123260455,
                0.8679428188126703
            ]
        },
        {
            "positions": [
                2.680293434229644,
                -1.6696910624533492,
                -1.8953612658014432,
                1.607027551536193,
                0.5885649199474038,
                0.9119478070116463
            ]
        },
        {
            "positions": [
                2.699467822928029,
                -1.5306228340935115,
                -1.9134037664365668,
                1.739553359674232,
                0.5522683275687621,
                0.9559527952106224
            ]
        },
        {
            "positions": [
                2.7186422116264137,
                -1.3915546057336738,
                -1.9314462670716905,
                1.8720791678122715,
                0.5159717351901205,
                0.9999577834095984
            ]
        },
        {
            "positions": [
                2.737816600324799,
                -1.252486377373836,
                -1.9494887677068142,
                2.004604975950311,
                0.4796751428114788,
                1.0439627716085744
            ]
        },
        {
            "positions": [
                2.756990989023184,
                -1.1134181490139983,
                -1.9675312683419381,
                2.13713078408835,
                0.44337855043283725,
                1.0879677598075506
            ]
        },
        {
            "positions": [
                2.7761653777215685,
                -0.9743499206541606,
                -1.9855737689770616,
                2.269656592226389,
                0.40708195805419556,
                1.1319727480065265
            ]
        },
        {
            "positions": [
                2.7953397664199535,
                -0.8352816922943229,
                -2.0036162696121855,
                2.4021824003644285,
                0.3707853656755539,
                1.1759777362055026
            ]
        },
        {
            "positions": [
                2.8145141551183386,
                -0.6962134639344852,
                -2.021658770247309,
                2.534708208502468,
                0.3344887732969123,
                1.2199827244044785
            ]
        },
        {
            "positions": [
                2.833688543816723,
                -0.5571452355746476,
                -2.039701270882433,
                2.6672340166405073,
                0.29819218091827066,
                1.2639877126034547
            ]
        },
        {
            "positions": [
                2.8528629325151083,
                -0.41807700721480945,
                -2.0577437715175564,
                2.7997598247785467,
                0.26189558853962897,
                1.3079927008024308
            ]
        },
        {
            "positions": [
                2.8720373212134933,
                -0.2790087788549718,
                -2.0757862721526803,
                2.932285632916586,
                0.22559899616098733,
                1.3519976890014067
            ]
        },
        {
            "positions": [
                2.891211709911878,
                -0.1399405504951341,
                -2.0938287727878038,
                3.0648114410546254,
                0.18930240378234575,
                1.3960026772003826
            ]
        },
        {
            "positions": [
                2.910386098610263,
                -0.0008723221352964217,
                -2.1118712734229277,
                3.1973372491926644,
                0.15300581140370406,
                1.4400076653993588
            ]
        },
        {
            "positions": [
                2.8964997689875838,
                -0.13831963708135214,
                -2.0876168385061553,
                3.0739506061678386,
                0.17135226946176838,
                1.3620270518748805
            ]
        },
        {
            "positions": [
                2.882613439364904,
                -0.27576695202740786,
                -2.0633624035893834,
                2.950563963143013,
                0.1896987275198327,
                1.284046438350402
            ]
        },
        {
            "positions": [
                2.868727109742225,
                -0.4132142669734636,
                -2.039107968672611,
                2.8271773201181873,
                0.208045185577897,
                1.2060658248259237
            ]
        },
        {
            "positions": [
                2.8548407801195452,
                -0.5506615819195193,
                -2.0148535337558386,
                2.703790677093362,
                0.22639164363596131,
                1.1280852113014455
            ]
        },
        {
            "positions": [
                2.840954450496866,
                -0.6881088968655751,
                -1.9905990988390665,
                2.580404034068536,
                0.24473810169402563,
                1.050104597776967
            ]
        },
        {
            "positions": [
                2.827068120874187,
                -0.8255562118116307,
                -1.9663446639222941,
                2.4570173910437108,
                0.26308455975208994,
                0.9721239842524887
            ]
        },
        {
            "positions": [
                2.813181791251507,
                -0.9630035267576865,
                -1.942090229005522,
                2.333630748018885,
                0.2814310178101542,
                0.8941433707280103
            ]
        },
        {
            "positions": [
                2.799295461628828,
                -1.1004508417037422,
                -1.9178357940887496,
                2.2102441049940595,
                0.29977747586821857,
                0.816162757203532
            ]
        },
        {
            "positions": [
                2.7854091320061487,
                -1.237898156649798,
                -1.8935813591719775,
                2.0868574619692337,
                0.3181239339262829,
                0.7381821436790537
            ]
        },
        {
            "positions": [
                2.771522802383469,
                -1.3753454715958537,
                -1.8693269242552053,
                1.9634708189444081,
                0.3364703919843472,
                0.6602015301545753
            ]
        },
        {
            "positions": [
                2.75763647276079,
                -1.5127927865419095,
                -1.845072489338433,
                1.8400841759195823,
                0.35481685004241154,
                0.5822209166300969
            ]
        },
        {
            "positions": [
                2.74375014313811,
                -1.650240101487965,
                -1.8208180544216608,
                1.716697532894757,
                0.3731633081004758,
                0.5042403031056186
            ]
        },
        {
            "positions": [
                2.729863813515431,
                -1.7876874164340208,
                -1.7965636195048884,
                1.5933108898699313,
                0.39150976615854016,
                0.42625968958114036
            ]
        },
        {
            "positions": [
                2.7159774838927517,
                -1.9251347313800766,
                -1.7723091845881163,
                1.4699242468451055,
                0.40985622421660445,
                0.34827907605666186
            ]
        },
        {
            "positions": [
                2.702091154270072,
                -2.0625820463261326,
                -1.7480547496713439,
                1.3465376038202799,
                0.4282026822746688,
                0.2702984625321836
            ]
        },
        {
            "positions": [
                2.688204824647393,
                -2.200029361272188,
                -1.7238003147545717,
                1.2231509607954545,
                0.4465491403327331,
                0.19231784900770532
            ]
        },
        {
            "positions": [
                2.674318495024713,
                -2.3374766762182437,
                -1.6995458798377996,
                1.0997643177706289,
                0.46489559839079736,
                0.11433723548322683
            ]
        },
        {
            "positions": [
                2.660432165402034,
                -2.4749239911642995,
                -1.6752914449210272,
                0.9763776747458032,
                0.4832420564488617,
                0.03635662195874856
            ]
        }
    ]
}