{
    "goal": {
        "global_pose": {
            "orientation": {
                "w": 0.5084816217422485,
                "x": -0.49083608388900757,
                "y": 0.5182115435600281,
                "z": -0.4816462993621826
            },
            "position": {
                "x": 0.5540239810943604,
                "y": 0.030875300988554955,
                "z": 0.16403168439865112
            }
        },
        "name": "move_to_storage_A"
    },
    "id": "RRTConnect_move_to_storage_A_99",
    "joint_names": [
        "shoulder_pan_joint",
        "shoulder_lift_joint",
        "elbow_joint",
        "wrist_1_joint",
        "wrist_2_joint",
        "wrist_3_joint"
    ],
    "metrics": {
        "cart_traj_len": 0.3539195939019847,
        "distance_elbow_joint": 0.45002890901189074,
        "distance_shoulder_lift_joint": 0.23514355576666568,
        "distance_shoulder_pan_joint": 0.4635197946955957,
        "distance_wrist_1_joint": 0.24103053216103965,
        "distance_wrist_2_joint": 1.0977565504999032,
        "distance_wrist_3_joint": 0.10442585592559128,
        "smoothness": 4.440892098500626e-16,
        "time": 0.040555025,
        "traj_len": 1.6099395013666464,
        "weighted_distance": 2.0345869341399037
    },
    "planner": "RRTConnect",
    "start": {
        "state": {
            "elbow_joint": 1.9715463870305268,
            "shoulder_lift_joint": -1.1394903361783484,
            "shoulder_pan_joint": 0.12281147578464417,
            "wrist_1_joint": -0.7804599489681411,
            "wrist_2_joint": 0.12958660307563738,
            "wrist_3_joint": -3.1924946282119055
        }
    },
    "waypoints": [
        {
            "positions": [
                0.12281147578464417,
                -1.1394903361783484,
                1.9715463870305268,
                -0.7804599489681411,
                0.12958660307563738,
                -3.1924946282119055
            ]
        },
        {
            "positions": [
                0.05659436225670193,
                -1.1730822727164434,
                2.0358362311750824,
                -0.8148928821340039,
                0.2864089674327664,
                -3.177576648793964
            ]
        },
        {
            "positions": [
                -0.009622751271240307,
                -1.2066742092545386,
                2.1001260753196385,
                -0.8493258152998667,
                0.4432313317898954,
                -3.162658669376022
            ]
        },
        {
            "positions": [
                -0.07583986479918255,
                -1.2402661457926336,
                2.164415919464194,
                -0.8837587484657294,
                0.6000536961470244,
                -3.1477406899580807
            ]
        },
        {
            "positions": [
                -0.14205697832712477,
                -1.2738580823307288,
                2.22870576360875,
                -0.9181916816315923,
                0.7568760605041535,
                -3.132822710540139
            ]
        },
        {
            "positions": [
                -0.208274091855067,
                -1.3074500188688238,
                2.292995607753306,
                -0.9526246147974551,
                0.9136984248612825,
                -3.1179047311221977
            ]
        },
        {
            "positions": [
                -0.27449120538300925,
                -1.341041955406919,
                2.3572854518978614,
                -0.9870575479633179,
                1.0705207892184114,
                -3.1029867517042558
            ]
        },
        {
            "positions": [
                -0.3407083189109515,
                -1.374633891945014,
                2.4215752960424175,
                -1.0214904811291807,
                1.2273431535755406,
                -3.0880687722863143
            ]
        }
    ]
}