{
    "goal": {
        "global_pose": {
            "orientation": {
                "w": 0.7047431468963623,
                "x": -0.7094548344612122,
                "y": 0.0024358443915843964,
                "z": -0.0022348060738295317
            },
            "position": {
                "x": 0.6094750761985779,
                "y": 0.3671506643295288,
                "z": 0.19426114857196808
            }
        },
        "name": "move_to_magneteinheit_A"
    },
    "id": "RRTConnect_move_to_magneteinheit_A_25",
    "joint_names": [
        "shoulder_pan_joint",
        "shoulder_lift_joint",
        "elbow_joint",
        "wrist_1_joint",
        "wrist_2_joint",
        "wrist_3_joint"
    ],
    "metrics": {
        "cart_traj_len": 2.069476771341224,
        "distance_elbow_joint": 3.897428777363058,
        "distance_shoulder_lift_joint": 1.0655168715022099,
        "distance_shoulder_pan_joint": 1.2413154088044005,
        "distance_wrist_1_joint": 1.23757828641637,
        "distance_wrist_2_joint": 1.4482177938732954,
        "distance_wrist_3_joint": 1.9932116357113308,
        "smoothness": 5.20656316527756e-16,
        "time": 0.053734631,
        "traj_len": 3.298979959573969,
        "weighted_distance": 4.189926983299708
    },
    "planner": "RRTConnect",
    "start": {
        "state": {
            "elbow_joint": -1.919643507792019,
            "shoulder_lift_joint": -0.07675430207160344,
            "shoulder_pan_joint": -1.1188671864651873,
            "wrist_1_joint": 0.42560062535961957,
            "wrist_2_joint": 1.5706038300724876,
            "wrist_3_joint": 1.1188968870953055
        }
    },
    "waypoints": [
        {
            "positions": [
                -1.1188671864651873,
                -0.07675430207160344,
                -1.919643507792019,
                0.42560062535961957,
                1.5706038300724876,
                1.1188968870953055
            ]
        },
        {
            "positions": [
                -1.0745344932936016,
                -0.11480847605382521,
                -1.7804496228861957,
                0.3814014008447492,
                1.5188817660055842,
                1.1900830169421388
            ]
        },
        {
            "positions": [
                -1.030201800122016,
                -0.152862650036047,
                -1.641255737980372,
                0.33720217632987887,
                1.4671597019386808,
                1.261269146788972
            ]
        },
        {
            "positions": [
                -0.9858691069504302,
                -0.19091682401826876,
                -1.5020618530745486,
                0.29300295181500846,
                1.4154376378717775,
                1.3324552766358053
            ]
        },
        {
            "positions": [
                -0.9415364137788444,
                -0.22897099800049056,
                -1.3628679681687252,
                0.24880372730013814,
                1.363715573804874,
                1.4036414064826386
            ]
        },
        {
            "positions": [
                -0.8972037206072587,
                -0.26702517198271236,
                -1.2236740832629016,
                0.20460450278526776,
                1.3119935097379707,
                1.4748275363294718
            ]
        },
        {
            "positions": [
                -0.852871027435673,
                -0.30507934596493413,
                -1.084480198357078,
                0.1604052782703974,
                1.260271445671067,
                1.546013666176305
            ]
        },
        {
            "positions": [
                -0.8085383342640873,
                -0.3431335199471559,
                -0.9452863134512546,
                0.11620605375552706,
                1.2085493816041637,
                1.6171997960231383
            ]
        },
        {
            "positions": [
                -0.7642056410925016,
                -0.3811876939293777,
                -0.8060924285454312,
                0.07200682924065671,
                1.1568273175372603,
                1.6883859258699716
            ]
        },
        {
            "positions": [
                -0.7198729479209157,
                -0.4192418679115995,
                -0.6668985436396075,
                0.027807604725786306,
                1.105105253470357,
                1.7595720557168049
            ]
        },
        {
            "positions": [
                -0.67554025474933,
                -0.4572960418938213,
                -0.5277046587337841,
                -0.016391619789084044,
                1.0533831894034535,
                1.8307581855636381
            ]
        },
        {
            "positions": [
                -0.6312075615777444,
                -0.495350215876043,
                -0.3885107738279605,
                -0.06059084430395434,
                1.0016611253365502,
                1.9019443154104712
            ]
        },
        {
            "positions": [
                -0.5868748684061585,
                -0.5334043898582648,
                -0.2493168889221371,
                -0.10479006881882474,
                0.9499390612696468,
                1.9731304452573044
            ]
        },
        {
            "positions": [
                -0.5425421752345728,
                -0.5714585638404865,
                -0.11012300401631347,
                -0.1489892933336951,
                0.8982169972027433,
                2.044316575104138
            ]
        },
        {
            "positions": [
                -0.4982094820629871,
                -0.6095127378227083,
                0.02907088088950993,
                -0.19318851784856544,
                0.8464949331358399,
                2.1155027049509707
            ]
        },
        {
            "positions": [
                -0.4538767888914014,
                -0.6475669118049301,
                0.16826476579533334,
                -0.2373877423634358,
                0.7947728690689365,
                2.1866888347978044
            ]
        },
        {
            "positions": [
                -0.40954409571981565,
                -0.6856210857871519,
                0.30745865070115674,
                -0.28158696687830614,
                0.7430508050020331,
                2.257874964644637
            ]
        },
        {
            "positions": [
                -0.3652114025482299,
                -0.7236752597693736,
                0.44665253560698015,
                -0.3257861913931765,
                0.6913287409351297,
                2.3290610944914705
            ]
        },
        {
            "positions": [
                -0.3208787093766441,
                -0.7617294337515956,
                0.585846420512804,
                -0.36998541590804696,
                0.6396066768682263,
                2.4002472243383037
            ]
        },
        {
            "positions": [
                -0.27654601620505836,
                -0.7997836077338174,
                0.7250403054186274,
                -0.4141846404229173,
                0.5878846128013229,
                2.4714333541851374
            ]
        },
        {
            "positions": [
                -0.23221332303347264,
                -0.8378377817160392,
                0.8642341903244508,
                -0.45838386493778766,
                0.5361625487344195,
                2.5426194840319702
            ]
        },
        {
            "positions": [
                -0.18788062986188692,
                -0.875891955698261,
                1.0034280752302747,
                -0.502583089452658,
                0.4844404846675161,
                2.6138056138788035
            ]
        },
        {
            "positions": [
                -0.1435479366903013,
                -0.9139461296804825,
                1.142621960136098,
                -0.5467823139675283,
                0.4327184206006127,
                2.6849917437256368
            ]
        },
        {
            "positions": [
                -0.09921524351871547,
                -0.9520003036627043,
                1.2818158450419215,
                -0.5909815384823986,
                0.38099635653370933,
                2.75617787357247
            ]
        },
        {
            "positions": [
                -0.054882550347129744,
                -0.990054477644926,
                1.4210097299477449,
                -0.635180762997269,
                0.32927429246680595,
                2.8273640034193033
            ]
        },
        {
            "positions": [
                -0.01054985717554402,
                -1.028108651627148,
                1.5602036148535687,
                -0.6793799875121393,
                0.27755222839990235,
                2.898550133266137
            ]
        },
        {
            "positions": [
                0.033782835996041705,
                -1.0661628256093698,
                1.6993974997593921,
                -0.7235792120270097,
                0.22583016433299896,
                2.96973626311297
            ]
        },
        {
            "positions": [
                0.07811552916762743,
                -1.1042169995915916,
                1.8385913846652155,
                -0.76777843654188,
                0.17410810026609558,
                3.040922392959803
            ]
        },
        {
            "positions": [
                0.12244822233921324,
                -1.1422711735738134,
                1.977785269571039,
                -0.8119776610567504,
                0.12238603619919211,
                3.1121085228066363
            ]
        }
    ]
}