{
    "goal": {
        "global_pose": {
            "orientation": {
                "w": 0.7047431468963623,
                "x": -0.7094548344612122,
                "y": 0.0024358443915843964,
                "z": -0.0022348060738295317
            },
            "position": {
                "x": 0.6094750761985779,
                "y": 0.3671506643295288,
                "z": 0.19426114857196808
            }
        },
        "name": "move_to_magneteinheit_A"
    },
    "id": "RRTConnect_move_to_magneteinheit_A_128",
    "joint_names": [
        "shoulder_pan_joint",
        "shoulder_lift_joint",
        "elbow_joint",
        "wrist_1_joint",
        "wrist_2_joint",
        "wrist_3_joint"
    ],
    "metrics": {
        "cart_traj_len": 2.06101504996048,
        "distance_elbow_joint": 3.868057786007719,
        "distance_shoulder_lift_joint": 1.0493565251719572,
        "distance_shoulder_pan_joint": 1.240513077835403,
        "distance_wrist_1_joint": 1.1101977248783341,
        "distance_wrist_2_joint": 1.4497385254645625,
        "distance_wrist_3_joint": 1.8848185717799444,
        "smoothness": 3.489272363895343e-16,
        "time": 0.062202923,
        "traj_len": 3.2561760104665596,
        "weighted_distance": 4.114882210348275
    },
    "planner": "RRTConnect",
    "start": {
        "state": {
            "elbow_joint": -1.919643507792019,
            "shoulder_lift_joint": -0.07675430207160344,
            "shoulder_pan_joint": -1.1188671864651873,
            "wrist_1_joint": 0.42560062535961957,
            "wrist_2_joint": 1.5706038300724876,
            "wrist_3_joint": 1.1188968870953055
        }
    },
    "waypoints": [
        {
            "positions": [
                -1.1188671864651873,
                -0.07675430207160344,
                -1.919643507792019,
                0.42560062535961957,
                1.5706038300724876,
                1.1188968870953055
            ]
        },
        {
            "positions": [
                -1.0729222576564688,
                -0.11561935855945371,
                -1.7763821083102518,
                0.3844821911048665,
                1.5169098106108372,
                1.1887049823464146
            ]
        },
        {
            "positions": [
                -1.0269773288477502,
                -0.15448441504730398,
                -1.6331207088284843,
                0.34336375685011333,
                1.4632157911491868,
                1.2585130775975237
            ]
        },
        {
            "positions": [
                -0.9810324000390315,
                -0.19334947153515425,
                -1.489859309346717,
                0.30224532259536024,
                1.4095217716875363,
                1.3283211728486326
            ]
        },
        {
            "positions": [
                -0.9350874712303128,
                -0.2322145280230045,
                -1.3465979098649496,
                0.2611268883406071,
                1.3558277522258857,
                1.3981292680997417
            ]
        },
        {
            "positions": [
                -0.8891425424215942,
                -0.2710795845108548,
                -1.2033365103831821,
                0.220008454085854,
                1.3021337327642353,
                1.4679373633508508
            ]
        },
        {
            "positions": [
                -0.8431976136128756,
                -0.309944640998705,
                -1.0600751109014148,
                0.1788900198311009,
                1.2484397133025849,
                1.5377454586019599
            ]
        },
        {
            "positions": [
                -0.797252684804157,
                -0.34880969748655527,
                -0.9168137114196475,
                0.13777158557634778,
                1.1947456938409344,
                1.607553553853069
            ]
        },
        {
            "positions": [
                -0.7513077559954383,
                -0.38767475397440554,
                -0.7735523119378802,
                0.09665315132159463,
                1.141051674379284,
                1.6773616491041778
            ]
        },
        {
            "positions": [
                -0.7053628271867197,
                -0.4265398104622558,
                -0.6302909124561127,
                0.055534717066841544,
                1.0873576549176334,
                1.747169744355287
            ]
        },
        {
            "positions": [
                -0.659417898378001,
                -0.4654048669501061,
                -0.4870295129743454,
                0.014416282812088455,
                1.0336636354559832,
                1.816977839606396
            ]
        },
        {
            "positions": [
                -0.6134729695692824,
                -0.5042699234379564,
                -0.3437681134925781,
                -0.02670215144266469,
                0.9799696159943325,
                1.8867859348575051
            ]
        },
        {
            "positions": [
                -0.5675280407605638,
                -0.5431349799258066,
                -0.20050671401081055,
                -0.06782058569741778,
                0.9262755965326821,
                1.9565940301086142
            ]
        },
        {
            "positions": [
                -0.5215831119518451,
                -0.5820000364136568,
                -0.057245314529043245,
                -0.10893901995217087,
                0.8725815770710317,
                2.026402125359723
            ]
        },
        {
            "positions": [
                -0.47563818314312656,
                -0.6208650929015072,
                0.08601608495272406,
                -0.150057454206924,
                0.8188875576093811,
                2.096210220610832
            ]
        },
        {
            "positions": [
                -0.42969325433440786,
                -0.6597301493893575,
                0.22927748443449159,
                -0.19117588846167716,
                0.7651935381477306,
                2.1660183158619413
            ]
        },
        {
            "positions": [
                -0.38374832552568927,
                -0.6985952058772076,
                0.37253888391625867,
                -0.2322943227164303,
                0.7114995186860803,
                2.2358264111130506
            ]
        },
        {
            "positions": [
                -0.33780339671697057,
                -0.7374602623650579,
                0.5158002833980266,
                -0.27341275697118345,
                0.6578054992244297,
                2.3056345063641595
            ]
        },
        {
            "positions": [
                -0.2918584679082521,
                -0.7763253188529082,
                0.6590616828797937,
                -0.3145311912259365,
                0.6041114797627793,
                2.3754426016152683
            ]
        },
        {
            "positions": [
                -0.2459135390995334,
                -0.8151903753407586,
                0.8023230823615612,
                -0.3556496254806896,
                0.5504174603011287,
                2.4452506968663776
            ]
        },
        {
            "positions": [
                -0.1999686102908148,
                -0.8540554318286087,
                0.9455844818433283,
                -0.39676805973544266,
                0.4967234408394785,
                2.5150587921174865
            ]
        },
        {
            "positions": [
                -0.1540236814820961,
                -0.892920488316459,
                1.0888458813250959,
                -0.4378864939901959,
                0.44302942137782786,
                2.5848668873685954
            ]
        },
        {
            "positions": [
                -0.10807875267337752,
                -0.9317855448043093,
                1.232107280806863,
                -0.47900492824494895,
                0.38933540191617744,
                2.6546749826197047
            ]
        },
        {
            "positions": [
                -0.06213382386465893,
                -0.9706506012921596,
                1.3753686802886305,
                -0.5201233624997021,
                0.335641382454527,
                2.724483077870814
            ]
        },
        {
            "positions": [
                -0.016188895055940344,
                -1.0095156577800097,
                1.518630079770398,
                -0.5612417967544552,
                0.2819473629928766,
                2.7942911731219224
            ]
        },
        {
            "positions": [
                0.029756033752778466,
                -1.04838071426786,
                1.6618914792521655,
                -0.6023602310092082,
                0.22825334353122595,
                2.8640992683730317
            ]
        },
        {
            "positions": [
                0.07570096256149705,
                -1.0872457707557104,
                1.8051528787339326,
                -0.6434786652639612,
                0.17455932406957575,
                2.933907363624141
            ]
        },
        {
            "positions": [
                0.12164589137021571,
                -1.1261108272435607,
                1.9484142782157001,
                -0.6845970995187145,
                0.12086530460792505,
                3.00371545887525
            ]
        }
    ]
}