{
    "goal": {
        "global_pose": {
            "orientation": {
                "w": 0.7031023502349854,
                "x": -0.7110244035720825,
                "y": 0.007748599164187908,
                "z": 0.005598929710686207
            },
            "position": {
                "x": 0.11585023208521307,
                "y": 0.44412534475326537,
                "z": 0.3711530566215515
            }
        },
        "name": "move_to_auspresseinheit_A"
    },
    "id": "RRTConnect_move_to_auspresseinheit_A_73",
    "joint_names": [
        "shoulder_pan_joint",
        "shoulder_lift_joint",
        "elbow_joint",
        "wrist_1_joint",
        "wrist_2_joint",
        "wrist_3_joint"
    ],
    "metrics": {
        "cart_traj_len": 3.9808932437411753,
        "distance_elbow_joint": 3.435498488410249,
        "distance_shoulder_lift_joint": 0.5358581101979834,
        "distance_shoulder_pan_joint": 6.48607840831675,
        "distance_wrist_1_joint": 4.503329949228038,
        "distance_wrist_2_joint": 4.6504009356716445,
        "distance_wrist_3_joint": 1.7702114334469141,
        "smoothness": 0.5918628500016876,
        "time": 0.12454747,
        "traj_len": 4.624000143303586,
        "weighted_distance": 5.837425038239471
    },
    "planner": "RRTConnect",
    "start": {
        "state": {
            "elbow_joint": 2.422574709923281,
            "shoulder_lift_joint": -1.3736533754116391,
            "shoulder_pan_joint": -0.33786336945926293,
            "wrist_1_joint": -1.0288603412921917,
            "wrist_2_joint": 1.2330224858903978,
            "wrist_3_joint": -3.094022268022082
        }
    },
    "waypoints": [
        {
            "positions": [
                -0.33786336945926293,
                -1.3736533754116391,
                2.422574709923281,
                -1.0288603412921917,
                1.2330224858903978,
                -3.094022268022082
            ]
        },
        {
            "positions": [
                -0.43868900027601787,
                -1.3759313695297235,
                2.3584170156891666,
                -0.9350252199432006,
                1.1371705043683662,
                -3.0619090433493716
            ]
        },
        {
            "positions": [
                -0.5395146310927728,
                -1.3782093636478079,
                2.294259321455052,
                -0.8411900985942096,
                1.0413185228463346,
                -3.0297958186766616
            ]
        },
        {
            "positions": [
                -0.6403402619095278,
                -1.380487357765892,
                2.2301016272209377,
                -0.7473549772452186,
                0.9454665413243031,
                -2.997682594003951
            ]
        },
        {
            "positions": [
                -0.7411658927262825,
                -1.3827653518839764,
                2.1659439329868233,
                -0.6535198558962275,
                0.8496145598022715,
                -2.9655693693312406
            ]
        },
        {
            "positions": [
                -0.8419915235430375,
                -1.3850433460020608,
                2.1017862387527093,
                -0.5596847345472364,
                0.75376257828024,
                -2.9334561446585306
            ]
        },
        {
            "positions": [
                -0.9428171543597925,
                -1.3873213401201452,
                2.037628544518595,
                -0.46584961319824536,
                0.6579105967582084,
                -2.90134291998582
            ]
        },
        {
            "positions": [
                -1.0436427851765473,
                -1.3895993342382293,
                1.9734708502844804,
                -0.3720144918492544,
                0.5620586152361768,
                -2.86922969531311
            ]
        },
        {
            "positions": [
                -1.1444684159933023,
                -1.3918773283563137,
                1.909313156050366,
                -0.2781793705002633,
                0.4662066337141453,
                -2.8371164706403995
            ]
        },
        {
            "positions": [
                -1.2452940468100573,
                -1.394155322474398,
                1.8451554618162516,
                -0.18434424915127223,
                0.3703546521921137,
                -2.805003245967689
            ]
        },
        {
            "positions": [
                -1.346119677626812,
                -1.3964333165924825,
                1.7809977675821371,
                -0.09050912780228115,
                0.27450267067008216,
                -2.772890021294979
            ]
        },
        {
            "positions": [
                -1.446945308443567,
                -1.3987113107105669,
                1.7168400733480227,
                0.0033259935467098156,
                0.1786506891480506,
                -2.7407767966222685
            ]
        },
        {
            "positions": [
                -1.547770939260322,
                -1.400989304828651,
                1.6526823791139085,
                0.097161114895701,
                0.08279870762601904,
                -2.7086635719495584
            ]
        },
        {
            "positions": [
                -1.6485965700770768,
                -1.4032672989467354,
                1.588524684879794,
                0.19099623624469197,
                -0.013053273896012518,
                -2.676550347276848
            ]
        },
        {
            "positions": [
                -1.7494222008938318,
                -1.4055452930648198,
                1.5243669906456798,
                0.28483135759368294,
                -0.10890525541804408,
                -2.6444371226041374
            ]
        },
        {
            "positions": [
                -1.8502478317105868,
                -1.4078232871829042,
                1.4602092964115652,
                0.37866647894267413,
                -0.20475723694007586,
                -2.612323897931427
            ]
        },
        {
            "positions": [
                -1.9510734625273416,
                -1.4101012813009883,
                1.396051602177451,
                0.4725016002916651,
                -0.3006092184621072,
                -2.580210673258717
            ]
        },
        {
            "positions": [
                -2.0518990933440966,
                -1.4123792754190727,
                1.3318939079433365,
                0.5663367216406563,
                -0.396461199984139,
                -2.5480974485860064
            ]
        },
        {
            "positions": [
                -2.1527247241608514,
                -1.414657269537157,
                1.267736213709222,
                0.6601718429896473,
                -0.4923131815061703,
                -2.5159842239132963
            ]
        },
        {
            "positions": [
                -2.2535503549776066,
                -1.4169352636552415,
                1.2035785194751076,
                0.7540069643386385,
                -0.5881651630282021,
                -2.483870999240586
            ]
        },
        {
            "positions": [
                -2.354375985794361,
                -1.4192132577733259,
                1.1394208252409934,
                0.8478420856876294,
                -0.6840171445502334,
                -2.4517577745678754
            ]
        },
        {
            "positions": [
                -2.455201616611116,
                -1.42149125189141,
                1.075263131006879,
                0.9416772070366206,
                -0.7798691260722652,
                -2.4196445498951653
            ]
        },
        {
            "positions": [
                -2.556027247427871,
                -1.4237692460094944,
                1.0111054367727645,
                1.0355123283856114,
                -0.8757211075942966,
                -2.387531325222455
            ]
        },
        {
            "positions": [
                -2.656852878244626,
                -1.4260472401275788,
                0.9469477425386501,
                1.1293474497346025,
                -0.9715730891163283,
                -2.3554181005497448
            ]
        },
        {
            "positions": [
                -2.757678509061381,
                -1.4283252342456632,
                0.8827900483045359,
                1.2231825710835937,
                -1.0674250706383597,
                -2.3233048758770343
            ]
        },
        {
            "positions": [
                -2.8585041398781357,
                -1.4306032283637473,
                0.8186323540704215,
                1.317017692432585,
                -1.1632770521603915,
                -2.2911916512043238
            ]
        },
        {
            "positions": [
                -2.9593297706948904,
                -1.4328812224818317,
                0.754474659836307,
                1.4108528137815757,
                -1.2591290336824228,
                -2.2590784265316137
            ]
        },
        {
            "positions": [
                -3.0601554015116457,
                -1.435159216599916,
                0.6903169656021926,
                1.5046879351305669,
                -1.3549810152044544,
                -2.2269652018589032
            ]
        },
        {
            "positions": [
                -2.925734459502204,
                -1.4521003690645484,
                0.7511469921768055,
                1.4343385896732355,
                -1.281323963969569,
                -2.2592207149761796
            ]
        },
        {
            "positions": [
                -2.791313517492762,
                -1.4690415215291808,
                0.8119770187514184,
                1.3639892442159038,
                -1.2076669127346837,
                -2.2914762280934555
            ]
        },
        {
            "positions": [
                -2.6568925754833206,
                -1.4859826739938131,
                0.8728070453260313,
                1.2936398987585724,
                -1.1340098614997984,
                -2.323731741210732
            ]
        },
        {
            "positions": [
                -2.5224716334738786,
                -1.5029238264584455,
                0.933637071900644,
                1.2232905533012408,
                -1.0603528102649131,
                -2.3559872543280083
            ]
        },
        {
            "positions": [
                -2.388050691464437,
                -1.519864978923078,
                0.994467098475257,
                1.1529412078439094,
                -0.9866957590300277,
                -2.3882427674452846
            ]
        },
        {
            "positions": [
                -2.253629749454995,
                -1.5368061313877104,
                1.05529712504987,
                1.082591862386578,
                -0.9130387077951425,
                -2.420498280562561
            ]
        },
        {
            "positions": [
                -2.1192088074455535,
                -1.5537472838523427,
                1.1161271516244828,
                1.0122425169292464,
                -0.8393816565602571,
                -2.452753793679837
            ]
        },
        {
            "positions": [
                -1.9847878654361117,
                -1.570688436316975,
                1.1769571781990955,
                0.941893171471915,
                -0.7657246053253718,
                -2.4850093067971133
            ]
        },
        {
            "positions": [
                -1.8503669234266698,
                -1.5876295887816074,
                1.2377872047737086,
                0.8715438260145835,
                -0.6920675540904864,
                -2.5172648199143897
            ]
        },
        {
            "positions": [
                -1.7159459814172282,
                -1.6045707412462398,
                1.2986172313483215,
                0.801194480557252,
                -0.6184105028556011,
                -2.5495203330316656
            ]
        },
        {
            "positions": [
                -1.5815250394077864,
                -1.6215118937108721,
                1.3594472579229342,
                0.7308451350999204,
                -0.5447534516207159,
                -2.581775846148942
            ]
        },
        {
            "positions": [
                -1.4471040973983447,
                -1.6384530461755045,
                1.420277284497547,
                0.660495789642589,
                -0.47109640038583056,
                -2.6140313592662183
            ]
        },
        {
            "positions": [
                -1.312683155388903,
                -1.6553941986401368,
                1.48110731107216,
                0.5901464441852575,
                -0.39743934915094514,
                -2.6462868723834947
            ]
        },
        {
            "positions": [
                -1.1782622133794611,
                -1.6723353511047692,
                1.5419373376467729,
                0.519797098727926,
                -0.32378229791605984,
                -2.678542385500771
            ]
        },
        {
            "positions": [
                -1.0438412713700194,
                -1.6892765035694017,
                1.6027673642213858,
                0.4494477532705945,
                -0.25012524668117453,
                -2.710797898618047
            ]
        },
        {
            "positions": [
                -0.9094203293605778,
                -1.706217656034034,
                1.6635973907959984,
                0.3790984078132631,
                -0.17646819544628922,
                -2.7430534117353234
            ]
        },
        {
            "positions": [
                -0.7749993873511363,
                -1.7231588084986664,
                1.7244274173706113,
                0.3087490623559317,
                -0.10281114421140392,
                -2.7753089248525997
            ]
        },
        {
            "positions": [
                -0.6405784453416938,
                -1.7400999609632988,
                1.7852574439452245,
                0.23839971689860007,
                -0.029154092976518386,
                -2.8075644379698756
            ]
        },
        {
            "positions": [
                -0.5061575033322523,
                -1.7570411134279311,
                1.8460874705198373,
                0.16805037144126844,
                0.04450295825836692,
                -2.839819951087152
            ]
        },
        {
            "positions": [
                -0.37173656132281074,
                -1.7739822658925635,
                1.9069174970944502,
                0.09770102598393704,
                0.11816000949325223,
                -2.8720754642044284
            ]
        },
        {
            "positions": [
                -0.23731561931336875,
                -1.7909234183571958,
                1.967747523669063,
                0.027351680526605637,
                0.1918170607281373,
                -2.9043309773217048
            ]
        },
        {
            "positions": [
                -0.1028946773039272,
                -1.8078645708218282,
                2.028577550243676,
                -0.04299766493072599,
                0.2654741119630226,
                -2.936586490438981
            ]
        },
        {
            "positions": [
                0.03152626470551434,
                -1.8248057232864605,
                2.0894075768182887,
                -0.11334701038805739,
                0.3391311631979079,
                -2.968842003556257
            ]
        },
        {
            "positions": [
                0.16594720671495633,
                -1.841746875751093,
                2.1502376033929016,
                -0.1836963558453888,
                0.41278821443279323,
                -3.0010975166735334
            ]
        },
        {
            "positions": [
                0.3003681487243983,
                -1.8586880282157254,
                2.2110676299675145,
                -0.2540457013027204,
                0.48644526566767876,
                -3.03335302979081
            ]
        },
        {
            "positions": [
                0.43478909073383987,
                -1.8756291806803578,
                2.2718976565421274,
                -0.3243950467600518,
                0.5601023169025641,
                -3.0656085429080857
            ]
        },
        {
            "positions": [
                0.5692100327432819,
                -1.8925703331449901,
                2.3327276831167403,
                -0.39474439221738344,
                0.6337593681374494,
                -3.097864056025362
            ]
        },
        {
            "positions": [
                0.7036309747527235,
                -1.9095114856096225,
                2.393557709691353,
                -0.46509373767471485,
                0.7074164193723348,
                -3.1301195691426384
            ]
        }
    ]
}