{
    "goal": {
        "global_pose": {
            "orientation": {
                "w": -0.00223480608172531,
                "x": 0.0024358444001904467,
                "y": 0.7094548369677653,
                "z": -0.704743149386269
            },
            "position": {
                "x": 0.6205249238014221,
                "y": -0.6371506643295288,
                "z": 0.19426114857196808
            }
        },
        "name": "move_to_magneteinheit_B"
    },
    "id": "RRTConnect_move_to_magneteinheit_B_82",
    "joint_names": [
        "shoulder_pan_joint",
        "shoulder_lift_joint",
        "elbow_joint",
        "wrist_1_joint",
        "wrist_2_joint",
        "wrist_3_joint"
    ],
    "metrics": {
        "cart_traj_len": 1.4523584408035908,
        "distance_elbow_joint": 0.728347160197355,
        "distance_shoulder_lift_joint": 1.2474635944776513,
        "distance_shoulder_pan_joint": 1.6214498715360364,
        "distance_wrist_1_joint": 2.6070696575679273,
        "distance_wrist_2_joint": 2.9403852524294676,
        "distance_wrist_3_joint": 3.135919532924033,
        "smoothness": 6.1062266530729e-16,
        "time": 0.143627384,
        "traj_len": 3.504373705690144,
        "weighted_distance": 4.90916785667163
    },
    "planner": "RRTConnect",
    "start": {
        "state": {
            "elbow_joint": 2.39358713078474,
            "shoulder_lift_joint": -1.908514104345545,
            "shoulder_pan_joint": 0.7066247066606129,
            "wrist_1_joint": -0.4678290933515497,
            "wrist_2_joint": 0.7096259083745334,
            "wrist_3_joint": -3.1358149277392293
        }
    },
    "waypoints": [
        {
            "positions": [
                0.7066247066606129,
                -1.908514104345545,
                2.39358713078474,
                -0.4678290933515497,
                0.7096259083745334,
                -3.1358149277392293
            ]
        },
        {
            "positions": [
                0.6543198720949344,
                -1.8682733432333627,
                2.3700920611009546,
                -0.3837300721396811,
                0.6147747711993893,
                -3.0346562331287767
            ]
        },
        {
            "positions": [
                0.6020150375292558,
                -1.8280325821211802,
                2.3465969914171687,
                -0.2996310509278125,
                0.5199236340242452,
                -2.933497538518324
            ]
        },
        {
            "positions": [
                0.5497102029635772,
                -1.787791821008998,
                2.3231019217333833,
                -0.21553202971594387,
                0.4250724968491011,
                -2.832338843907871
            ]
        },
        {
            "positions": [
                0.4974053683978986,
                -1.7475510598968158,
                2.2996068520495974,
                -0.13143300850407524,
                0.330221359673957,
                -2.7311801492974186
            ]
        },
        {
            "positions": [
                0.44510053383222,
                -1.7073102987846334,
                2.276111782365812,
                -0.047333987292206614,
                0.23537022249881284,
                -2.630021454686966
            ]
        },
        {
            "positions": [
                0.3927956992665414,
                -1.6670695376724511,
                2.252616712682026,
                0.03676503391966196,
                0.14051908532366875,
                -2.5288627600765134
            ]
        },
        {
            "positions": [
                0.3404908647008628,
                -1.6268287765602687,
                2.2291216429982406,
                0.12086405513153059,
                0.045667948148524595,
                -2.4277040654660604
            ]
        },
        {
            "positions": [
                0.28818603013518423,
                -1.5865880154480865,
                2.205626573314455,
                0.20496307634339922,
                -0.049183189026619445,
                -2.326545370855608
            ]
        },
        {
            "positions": [
                0.2358811955695056,
                -1.5463472543359043,
                2.182131503630669,
                0.28906209755526796,
                -0.1440343262017637,
                -2.2253866762451553
            ]
        },
        {
            "positions": [
                0.18357636100382702,
                -1.5061064932237218,
                2.1586364339468838,
                0.3731611187671365,
                -0.23888546337690775,
                -2.1242279816347027
            ]
        },
        {
            "positions": [
                0.13127152643814843,
                -1.4658657321115396,
                2.135141364263098,
                0.4572601399790052,
                -0.3337366005520518,
                -2.02306928702425
            ]
        },
        {
            "positions": [
                0.07896669187246985,
                -1.4256249709993574,
                2.1116462945793124,
                0.5413591611908737,
                -0.42858773772719594,
                -1.9219105924137974
            ]
        },
        {
            "positions": [
                0.02666185730679127,
                -1.385384209887175,
                2.0881512248955265,
                0.6254581824027425,
                -0.5234388749023401,
                -1.8207518978033446
            ]
        },
        {
            "positions": [
                -0.02564297725888731,
                -1.3451434487749927,
                2.064656155211741,
                0.7095572036146109,
                -0.6182900120774842,
                -1.719593203192892
            ]
        },
        {
            "positions": [
                -0.077947811824566,
                -1.3049026876628105,
                2.041161085527955,
                0.7936562248264798,
                -0.7131411492526284,
                -1.6184345085824392
            ]
        },
        {
            "positions": [
                -0.13025264639024448,
                -1.264661926550628,
                2.0176660158441697,
                0.8777552460383482,
                -0.8079922864277723,
                -1.5172758139719866
            ]
        },
        {
            "positions": [
                -0.18255748095592306,
                -1.2244211654384458,
                1.994170946160384,
                0.9618542672502168,
                -0.9028434236029165,
                -1.416117119361534
            ]
        },
        {
            "positions": [
                -0.23486231552160175,
                -1.1841804043262636,
                1.9706758764765984,
                1.0459532884620857,
                -0.9976945607780608,
                -1.314958424751081
            ]
        },
        {
            "positions": [
                -0.28716715008728033,
                -1.1439396432140811,
                1.947180806792813,
                1.1300523096739543,
                -1.0925456979532049,
                -1.2137997301406285
            ]
        },
        {
            "positions": [
                -0.3394719846529589,
                -1.103698882101899,
                1.9236857371090272,
                1.2141513308858227,
                -1.1873968351283488,
                -1.1126410355301761
            ]
        },
        {
            "positions": [
                -0.3917768192186374,
                -1.0634581209897167,
                1.9001906674252416,
                1.2982503520976914,
                -1.2822479723034927,
                -1.0114823409197236
            ]
        },
        {
            "positions": [
                -0.4440816537843161,
                -1.0232173598775343,
                1.8766955977414557,
                1.3823493733095602,
                -1.3770991094786371,
                -0.9103236463092705
            ]
        },
        {
            "positions": [
                -0.49638648834999477,
                -0.982976598765352,
                1.8532005280576702,
                1.4664483945214286,
                -1.4719502466537815,
                -0.809164951698818
            ]
        },
        {
            "positions": [
                -0.5486913229156732,
                -0.9427358376531697,
                1.8297054583738845,
                1.550547415733297,
                -1.5668013838289254,
                -0.7080062570883654
            ]
        },
        {
            "positions": [
                -0.6009961574813517,
                -0.9024950765409874,
                1.8062103886900989,
                1.6346464369451659,
                -1.6616525210040693,
                -0.6068475624779128
            ]
        },
        {
            "positions": [
                -0.6533009920470304,
                -0.8622543154288052,
                1.7827153190063132,
                1.7187454581570347,
                -1.7565036581792137,
                -0.5056888678674598
            ]
        },
        {
            "positions": [
                -0.7056058266127091,
                -0.8220135543166227,
                1.7592202493225275,
                1.8028444793689031,
                -1.8513547953543577,
                -0.40453017325700724
            ]
        },
        {
            "positions": [
                -0.7579106611783876,
                -0.7817727932044405,
                1.735725179638742,
                1.8869435005807715,
                -1.946205932529502,
                -0.30337147864655467
            ]
        },
        {
            "positions": [
                -0.8102154957440663,
                -0.7415320320922583,
                1.7122301099549564,
                1.9710425217926404,
                -2.041057069704646,
                -0.2022127840361021
            ]
        },
        {
            "positions": [
                -0.862520330309745,
                -0.7012912709800758,
                1.6887350402711707,
                2.0551415430045092,
                -2.1359082068797903,
                -0.10105408942564909
            ]
        },
        {
            "positions": [
                -0.9148251648754233,
                -0.6610505098678935,
                1.665239970587385,
                2.1392405642163776,
                -2.2307593440549343,
                0.0001046051848033951
            ]
        }
    ]
}