{
    "goal": {
        "global_pose": {
            "orientation": {
                "w": 0.7047431468963623,
                "x": -0.7094548344612122,
                "y": 0.0024358443915843964,
                "z": -0.0022348060738295317
            },
            "position": {
                "x": 0.6094750761985779,
                "y": 0.3671506643295288,
                "z": 0.19426114857196808
            }
        },
        "name": "move_to_magneteinheit_A"
    },
    "id": "RRTConnect_move_to_magneteinheit_A_26",
    "joint_names": [
        "shoulder_pan_joint",
        "shoulder_lift_joint",
        "elbow_joint",
        "wrist_1_joint",
        "wrist_2_joint",
        "wrist_3_joint"
    ],
    "metrics": {
        "cart_traj_len": 1.879956344762406,
        "distance_elbow_joint": 3.9083827152189534,
        "distance_shoulder_lift_joint": 0.6988007494701122,
        "distance_shoulder_pan_joint": 1.2422917983270225,
        "distance_wrist_1_joint": 1.4882213161323736,
        "distance_wrist_2_joint": 1.6915844951817922,
        "distance_wrist_3_joint": 1.1121399112142694,
        "smoothness": 5.592234510853675e-16,
        "time": 0.043356556,
        "traj_len": 3.184559778924635,
        "weighted_distance": 3.9427790477386924
    },
    "planner": "RRTConnect",
    "start": {
        "state": {
            "elbow_joint": -1.919643507792019,
            "shoulder_lift_joint": -0.07675430207160344,
            "shoulder_pan_joint": -1.1188671864651873,
            "wrist_1_joint": 0.42560062535961957,
            "wrist_2_joint": 1.5706038300724876,
            "wrist_3_joint": 1.1188968870953055
        }
    },
    "waypoints": [
        {
            "positions": [
                -1.1188671864651873,
                -0.07675430207160344,
                -1.919643507792019,
                0.42560062535961957,
                1.5706038300724876,
                1.1188968870953055
            ]
        },
        {
            "positions": [
                -1.0710867326833788,
                -0.10363125397430006,
                -1.7693210956682133,
                0.48283990674932625,
                1.505542887950111,
                1.076122275125526
            ]
        },
        {
            "positions": [
                -1.02330627890157,
                -0.13050820587699669,
                -1.6189986835444072,
                0.5400791881390329,
                1.4404819458277343,
                1.0333476631557463
            ]
        },
        {
            "positions": [
                -0.9755258251197616,
                -0.1573851577796933,
                -1.4686762714206014,
                0.5973184695287396,
                1.3754210037053578,
                0.9905730511859667
            ]
        },
        {
            "positions": [
                -0.9277453713379531,
                -0.18426210968238996,
                -1.3183538592967956,
                0.6545577509184463,
                1.3103600615829811,
                0.9477984392161871
            ]
        },
        {
            "positions": [
                -0.8799649175561446,
                -0.21113906158508658,
                -1.1680314471729896,
                0.711797032308153,
                1.2452991194606045,
                0.9050238272464076
            ]
        },
        {
            "positions": [
                -0.832184463774336,
                -0.2380160134877832,
                -1.0177090350491835,
                0.7690363136978596,
                1.1802381773382278,
                0.862249215276628
            ]
        },
        {
            "positions": [
                -0.7844040099925275,
                -0.2648929653904798,
                -0.8673866229253779,
                0.8262755950875663,
                1.1151772352158513,
                0.8194746033068484
            ]
        },
        {
            "positions": [
                -0.7366235562107188,
                -0.2917699172931765,
                -0.7170642108015719,
                0.883514876477273,
                1.0501162930934744,
                0.7766999913370688
            ]
        },
        {
            "positions": [
                -0.6888431024289103,
                -0.31864686919587304,
                -0.5667417986777661,
                0.9407541578669796,
                0.985055350971098,
                0.7339253793672893
            ]
        },
        {
            "positions": [
                -0.6410626486471017,
                -0.3455238210985697,
                -0.41641938655396005,
                0.9979934392566865,
                0.9199944088487213,
                0.6911507673975097
            ]
        },
        {
            "positions": [
                -0.5932821948652932,
                -0.37240077300126634,
                -0.26609697443015423,
                1.055232720646393,
                0.8549334667263447,
                0.6483761554277301
            ]
        },
        {
            "positions": [
                -0.5455017410834846,
                -0.39927772490396296,
                -0.1157745623063482,
                1.1124720020360996,
                0.7898725246039681,
                0.6056015434579505
            ]
        },
        {
            "positions": [
                -0.4977212873016761,
                -0.4261546768066596,
                0.03454784981745762,
                1.1697112834258063,
                0.7248115824815915,
                0.5628269314881709
            ]
        },
        {
            "positions": [
                -0.4499408335198676,
                -0.4530316287093562,
                0.18487026194126321,
                1.226950564815513,
                0.6597506403592149,
                0.5200523195183913
            ]
        },
        {
            "positions": [
                -0.40216037973805907,
                -0.4799085806120528,
                0.33519267406506903,
                1.2841898462052197,
                0.5946896982368384,
                0.47727770754861176
            ]
        },
        {
            "positions": [
                -0.35437992595625034,
                -0.5067855325147494,
                0.4855150861888753,
                1.3414291275949264,
                0.5296287561144615,
                0.43450309557883204
            ]
        },
        {
            "positions": [
                -0.30659947217444183,
                -0.533662484417446,
                0.6358374983126811,
                1.398668408984633,
                0.464567813992085,
                0.39172848360905255
            ]
        },
        {
            "positions": [
                -0.2588190183926333,
                -0.5605394363201427,
                0.7861599104364869,
                1.4559076903743398,
                0.39950687186970835,
                0.34895387163927294
            ]
        },
        {
            "positions": [
                -0.21103856461082482,
                -0.5874163882228394,
                0.9364823225602927,
                1.5131469717640464,
                0.3344459297473319,
                0.30617925966949333
            ]
        },
        {
            "positions": [
                -0.1632581108290161,
                -0.6142933401255359,
                1.086804734684099,
                1.5703862531537534,
                0.269384987624955,
                0.2634046476997137
            ]
        },
        {
            "positions": [
                -0.11547765704720758,
                -0.6411702920282325,
                1.2371271468079048,
                1.6276255345434598,
                0.20432404550257854,
                0.22063003572993412
            ]
        },
        {
            "positions": [
                -0.06769720326539908,
                -0.6680472439309293,
                1.3874495589317106,
                1.6848648159331665,
                0.13926310338020187,
                0.1778554237601545
            ]
        },
        {
            "positions": [
                -0.019916749483590568,
                -0.6949241958336259,
                1.5377719710555164,
                1.7421040973228732,
                0.07420216125782542,
                0.135080811790375
            ]
        },
        {
            "positions": [
                0.02786370429821816,
                -0.7218011477363224,
                1.6880943831793227,
                1.7993433787125799,
                0.00914121913544852,
                0.0923061998205954
            ]
        },
        {
            "positions": [
                0.07564415808002667,
                -0.7486780996390192,
                1.8384167953031285,
                1.8565826601022866,
                -0.05591972298692793,
                0.049531587850815795
            ]
        },
        {
            "positions": [
                0.12342461186183515,
                -0.7755550515417157,
                1.9887392074269343,
                1.9138219414919933,
                -0.12098066510930469,
                0.006756975881036249
            ]
        }
    ]
}