{
    "goal": {
        "global_pose": {
            "orientation": {
                "w": 0.7031023502349854,
                "x": -0.7110244035720825,
                "y": 0.007748599164187908,
                "z": 0.005598929710686207
            },
            "position": {
                "x": 0.11585023208521307,
                "y": 0.44412534475326537,
                "z": 0.3711530566215515
            }
        },
        "name": "move_to_auspresseinheit_A"
    },
    "id": "RRTConnect_move_to_auspresseinheit_A_102",
    "joint_names": [
        "shoulder_pan_joint",
        "shoulder_lift_joint",
        "elbow_joint",
        "wrist_1_joint",
        "wrist_2_joint",
        "wrist_3_joint"
    ],
    "metrics": {
        "cart_traj_len": 1.948193029435034,
        "distance_elbow_joint": 1.9709479567162624,
        "distance_shoulder_lift_joint": 1.2566455149744378,
        "distance_shoulder_pan_joint": 1.204746406551536,
        "distance_wrist_1_joint": 1.5270904128639464,
        "distance_wrist_2_joint": 1.4801237956586544,
        "distance_wrist_3_joint": 3.2052033600066743,
        "smoothness": 0.6975219146093632,
        "time": 0.139461111,
        "traj_len": 3.262630449004532,
        "weighted_distance": 4.47910463991493
    },
    "planner": "RRTConnect",
    "start": {
        "state": {
            "elbow_joint": 2.422574709923281,
            "shoulder_lift_joint": -1.3736533754116391,
            "shoulder_pan_joint": -0.33786336945926293,
            "wrist_1_joint": -1.0288603412921917,
            "wrist_2_joint": 1.2330224858903978,
            "wrist_3_joint": -3.094022268022082
        }
    },
    "waypoints": [
        {
            "positions": [
                -0.33786336945926293,
                -1.3736533754116391,
                2.422574709923281,
                -1.0288603412921917,
                1.2330224858903978,
                -3.094022268022082
            ]
        },
        {
            "positions": [
                -0.29001554478268526,
                -1.4270900460189864,
                2.3604274826762355,
                -0.9631267912115935,
                1.1700773199391385,
                -2.9953213730643045
            ]
        },
        {
            "positions": [
                -0.2421677201061076,
                -1.4805267166263338,
                2.29828025542919,
                -0.8973932411309952,
                1.1071321539878793,
                -2.896620478106527
            ]
        },
        {
            "positions": [
                -0.19431989542952993,
                -1.533963387233681,
                2.2361330281821443,
                -0.8316596910503969,
                1.04418698803662,
                -2.797919583148749
            ]
        },
        {
            "positions": [
                -0.14647207075295227,
                -1.5874000578410286,
                2.1739858009350987,
                -0.7659261409697986,
                0.9812418220853607,
                -2.6992186881909714
            ]
        },
        {
            "positions": [
                -0.0986242460763746,
                -1.6408367284483758,
                2.111838573688053,
                -0.7001925908892004,
                0.9182966561341015,
                -2.6005177932331938
            ]
        },
        {
            "positions": [
                -0.050776421399796934,
                -1.694273399055723,
                2.0496913464410076,
                -0.6344590408086022,
                0.8553514901828423,
                -2.5018168982754156
            ]
        },
        {
            "positions": [
                -0.0029285967232192678,
                -1.7477100696630705,
                1.9875441191939618,
                -0.5687254907280039,
                0.7924063242315831,
                -2.4031160033176384
            ]
        },
        {
            "positions": [
                0.0449192279533584,
                -1.8011467402704178,
                1.9253968919469162,
                -0.5029919406474056,
                0.7294611582803238,
                -2.3044151083598603
            ]
        },
        {
            "positions": [
                0.09276705262993606,
                -1.854583410877765,
                1.8632496646998706,
                -0.4372583905668074,
                0.6665159923290646,
                -2.205714213402083
            ]
        },
        {
            "positions": [
                0.14061487730651373,
                -1.9080200814851125,
                1.801102437452825,
                -0.37152484048620904,
                0.6035708263778052,
                -2.107013318444305
            ]
        },
        {
            "positions": [
                0.1884627019830914,
                -1.9614567520924597,
                1.7389552102057793,
                -0.3057912904056108,
                0.540625660426546,
                -2.0083124234865277
            ]
        },
        {
            "positions": [
                0.23631052665966906,
                -2.014893422699807,
                1.6768079829587337,
                -0.2400577403250126,
                0.4776804944752868,
                -1.9096115285287496
            ]
        },
        {
            "positions": [
                0.28415835133624673,
                -2.0683300933071544,
                1.614660755711688,
                -0.17432419024441426,
                0.4147353285240275,
                -1.810910633570972
            ]
        },
        {
            "positions": [
                0.3320061760128244,
                -2.1217667639145015,
                1.5525135284646425,
                -0.10859064016381603,
                0.3517901625727683,
                -1.7122097386131943
            ]
        },
        {
            "positions": [
                0.37985400068940206,
                -2.175203434521849,
                1.490366301217597,
                -0.0428570900832177,
                0.288844996621509,
                -1.6135088436554166
            ]
        },
        {
            "positions": [
                0.4277018253659797,
                -2.2286401051291964,
                1.4282190739705514,
                0.022876459997380624,
                0.2258998306702497,
                -1.514807948697639
            ]
        },
        {
            "positions": [
                0.49562003851241526,
                -2.238676874194205,
                1.5634452542451216,
                -0.013891932326055872,
                0.25991759650384827,
                -1.568249949578564
            ]
        },
        {
            "positions": [
                0.5635382516588507,
                -2.248713643259213,
                1.6986714345196916,
                -0.05066032464949237,
                0.2939353623374468,
                -1.6216919504594889
            ]
        },
        {
            "positions": [
                0.6314564648052863,
                -2.258750412324221,
                1.8338976147942616,
                -0.08742871697292887,
                0.3279531281710454,
                -1.6751339513404138
            ]
        },
        {
            "positions": [
                0.6993746779517218,
                -2.2687871813892295,
                1.9691237950688318,
                -0.12419710929636536,
                0.36197089400464394,
                -1.7285759522213389
            ]
        },
        {
            "positions": [
                0.7164792304455193,
                -2.2397494227864128,
                2.0548426479857564,
                -0.16995668017055465,
                0.4052276418529359,
                -1.8588961466481004
            ]
        },
        {
            "positions": [
                0.7335837829393167,
                -2.210711664183596,
                2.140561500902681,
                -0.2157162510447439,
                0.44848438970122795,
                -1.9892163410748622
            ]
        },
        {
            "positions": [
                0.7506883354331142,
                -2.1816739055807792,
                2.226280353819605,
                -0.26147582191893315,
                0.4917411375495199,
                -2.119536535501624
            ]
        },
        {
            "positions": [
                0.7677928879269116,
                -2.1526361469779625,
                2.31199920673653,
                -0.30723539279312245,
                0.5349978853978119,
                -2.2498567299283856
            ]
        },
        {
            "positions": [
                0.7848974404207091,
                -2.1235983883751457,
                2.3977180596534544,
                -0.3529949636673117,
                0.5782546332461039,
                -2.380176924355147
            ]
        },
        {
            "positions": [
                0.764401041252818,
                -2.069517659379455,
                2.395944725883297,
                -0.3778655106447321,
                0.6084162177117669,
                -2.570331940611328
            ]
        },
        {
            "positions": [
                0.7439046420849269,
                -2.015436930383764,
                2.3941713921131393,
                -0.4027360576221526,
                0.63857780217743,
                -2.7604869568675086
            ]
        },
        {
            "positions": [
                0.7234082429170359,
                -1.961356201388073,
                2.392398058342982,
                -0.427606604599573,
                0.668739386643093,
                -2.9506419731236893
            ]
        },
        {
            "positions": [
                0.7029118437491448,
                -1.9072754723923822,
                2.3906247245728247,
                -0.4524771515769934,
                0.6989009711087559,
                -3.14079698937987
            ]
        }
    ]
}