{
    "goal": {
        "global_pose": {
            "orientation": {
                "w": 0.7031023502349854,
                "x": -0.7110244035720825,
                "y": 0.007748599164187908,
                "z": 0.005598929710686207
            },
            "position": {
                "x": 0.11585023208521307,
                "y": 0.44412534475326537,
                "z": 0.3711530566215515
            }
        },
        "name": "move_to_auspresseinheit_A"
    },
    "id": "RRTConnect_move_to_auspresseinheit_A_64",
    "joint_names": [
        "shoulder_pan_joint",
        "shoulder_lift_joint",
        "elbow_joint",
        "wrist_1_joint",
        "wrist_2_joint",
        "wrist_3_joint"
    ],
    "metrics": {
        "cart_traj_len": 0.6792508821690911,
        "distance_elbow_joint": 0.15842679410060478,
        "distance_shoulder_lift_joint": 0.5337452159549272,
        "distance_shoulder_pan_joint": 1.0431688390043319,
        "distance_wrist_1_joint": 0.9025294323511255,
        "distance_wrist_2_joint": 1.4088374971335893,
        "distance_wrist_3_joint": 0.4903509301787823,
        "smoothness": 1.1765551528533653,
        "time": 0.059955279,
        "traj_len": 2.1300372552430535,
        "weighted_distance": 2.7980578082958973
    },
    "planner": "RRTConnect",
    "start": {
        "state": {
            "elbow_joint": 2.422574709923281,
            "shoulder_lift_joint": -1.3736533754116391,
            "shoulder_pan_joint": -0.33786336945926293,
            "wrist_1_joint": -1.0288603412921917,
            "wrist_2_joint": 1.2330224858903978,
            "wrist_3_joint": -3.094022268022082
        }
    },
    "waypoints": [
        {
            "positions": [
                -0.33786336945926293,
                -1.3736533754116391,
                2.422574709923281,
                -1.0288603412921917,
                1.2330224858903978,
                -3.094022268022082
            ]
        },
        {
            "positions": [
                -0.2973991034795287,
                -1.4225743996852511,
                2.409105742257077,
                -0.9239852579563946,
                1.0944003622652376,
                -3.0615252556160026
            ]
        },
        {
            "positions": [
                -0.25693483749979446,
                -1.4714954239588631,
                2.3956367745908733,
                -0.8191101746205975,
                0.9557782386400777,
                -3.029028243209923
            ]
        },
        {
            "positions": [
                -0.21647057152006022,
                -1.5204164482324751,
                2.3821678069246692,
                -0.7142350912848003,
                0.8171561150149177,
                -2.9965312308038436
            ]
        },
        {
            "positions": [
                -0.17600630554032595,
                -1.5693374725060871,
                2.3686988392584656,
                -0.6093600079490034,
                0.6785339913897577,
                -2.964034218397764
            ]
        },
        {
            "positions": [
                -0.1355420395605917,
                -1.6182584967796991,
                2.3552298715922615,
                -0.5044849246132062,
                0.5399118677645975,
                -2.9315372059916847
            ]
        },
        {
            "positions": [
                -0.09507777358085748,
                -1.6671795210533111,
                2.341760903926058,
                -0.39960984127740906,
                0.40128974413943763,
                -2.899040193585605
            ]
        },
        {
            "positions": [
                -0.05461350760112324,
                -1.7161005453269231,
                2.3282919362598538,
                -0.29473475794161197,
                0.2626676205142775,
                -2.8665431811795257
            ]
        },
        {
            "positions": [
                0.09737028782811519,
                -1.7543601545348517,
                2.3411207403472893,
                -0.32841552774172106,
                0.35036414686577133,
                -2.9191175498467707
            ]
        },
        {
            "positions": [
                0.24935408325735361,
                -1.7926197637427803,
                2.353949544434725,
                -0.3620962975418302,
                0.43806067321726516,
                -2.971691918514016
            ]
        },
        {
            "positions": [
                0.401337878686592,
                -1.8308793729507091,
                2.36677834852216,
                -0.3957770673419393,
                0.5257571995687589,
                -3.0242662871812613
            ]
        },
        {
            "positions": [
                0.5533216741158304,
                -1.8691389821586377,
                2.3796071526095957,
                -0.42945783714204844,
                0.6134537259202528,
                -3.0768406558485064
            ]
        },
        {
            "positions": [
                0.7053054695450688,
                -1.9073985913665663,
                2.3924359566970312,
                -0.4631386069421575,
                0.7011502522717465,
                -3.1294150245157515
            ]
        }
    ]
}