{
    "goal": {
        "global_pose": {
            "orientation": {
                "w": -0.00223480608172531,
                "x": 0.0024358444001904467,
                "y": 0.7094548369677653,
                "z": -0.704743149386269
            },
            "position": {
                "x": 0.6205249238014221,
                "y": -0.6371506643295288,
                "z": 0.19426114857196808
            }
        },
        "name": "move_to_magneteinheit_B"
    },
    "id": "RRTConnect_move_to_magneteinheit_B_56",
    "joint_names": [
        "shoulder_pan_joint",
        "shoulder_lift_joint",
        "elbow_joint",
        "wrist_1_joint",
        "wrist_2_joint",
        "wrist_3_joint"
    ],
    "metrics": {
        "cart_traj_len": 1.4529404624062896,
        "distance_elbow_joint": 0.7332623224618922,
        "distance_shoulder_lift_joint": 1.2504322595231199,
        "distance_shoulder_pan_joint": 1.61947890891375,
        "distance_wrist_1_joint": 2.6030585797459294,
        "distance_wrist_2_joint": 2.951827802533161,
        "distance_wrist_3_joint": 3.1284528977757655,
        "smoothness": 2.153159822383016e-16,
        "time": 0.073657422,
        "traj_len": 3.5052122290887917,
        "weighted_distance": 4.90900243927259
    },
    "planner": "RRTConnect",
    "start": {
        "state": {
            "elbow_joint": 2.39358713078474,
            "shoulder_lift_joint": -1.908514104345545,
            "shoulder_pan_joint": 0.7066247066606129,
            "wrist_1_joint": -0.4678290933515497,
            "wrist_2_joint": 0.7096259083745334,
            "wrist_3_joint": -3.1358149277392293
        }
    },
    "waypoints": [
        {
            "positions": [
                0.7066247066606129,
                -1.908514104345545,
                2.39358713078474,
                -0.4678290933515497,
                0.7096259083745334,
                -3.1358149277392293
            ]
        },
        {
            "positions": [
                0.6560159907570583,
                -1.8694380962354473,
                2.3706726832078058,
                -0.38648351273448944,
                0.6173812895453722,
                -3.038050774683737
            ]
        },
        {
            "positions": [
                0.6054072748535035,
                -1.83036208812535,
                2.347758235630872,
                -0.3051379321174291,
                0.5251366707162108,
                -2.940286621628244
            ]
        },
        {
            "positions": [
                0.5547985589499489,
                -1.7912860800152524,
                2.3248437880539377,
                -0.22379235150036883,
                0.4328920518870496,
                -2.8425224685727515
            ]
        },
        {
            "positions": [
                0.5041898430463942,
                -1.752210071905155,
                2.3019293404770034,
                -0.14244677088330854,
                0.3406474330578883,
                -2.7447583155172586
            ]
        },
        {
            "positions": [
                0.4535811271428395,
                -1.7131340637950574,
                2.2790148929000695,
                -0.06110119026624822,
                0.248402814228727,
                -2.646994162461766
            ]
        },
        {
            "positions": [
                0.40297241123928484,
                -1.67405805568496,
                2.2561004453231353,
                0.020244390350812047,
                0.15615819539956577,
                -2.549230009406273
            ]
        },
        {
            "positions": [
                0.35236369533573014,
                -1.6349820475748624,
                2.233185997746201,
                0.10158997096787231,
                0.06391357657040442,
                -2.4514658563507807
            ]
        },
        {
            "positions": [
                0.30175497943217544,
                -1.595906039464765,
                2.210271550169267,
                0.18293555158493263,
                -0.028331042258756822,
                -2.353701703295288
            ]
        },
        {
            "positions": [
                0.25114626352862074,
                -1.5568300313546675,
                2.187357102592333,
                0.26428113220199295,
                -0.12057566108791806,
                -2.2559375502397954
            ]
        },
        {
            "positions": [
                0.20053754762506604,
                -1.5177540232445699,
                2.1644426550153986,
                0.34562671281905327,
                -0.2128202799170794,
                -2.1581733971843025
            ]
        },
        {
            "positions": [
                0.1499288317215114,
                -1.4786780151344725,
                2.1415282074384647,
                0.4269722934361135,
                -0.30506489874624065,
                -2.06040924412881
            ]
        },
        {
            "positions": [
                0.09932011581795674,
                -1.439602007024375,
                2.1186137598615304,
                0.5083178740531737,
                -0.3973095175754019,
                -1.9626450910733173
            ]
        },
        {
            "positions": [
                0.04871139991440199,
                -1.4005259989142775,
                2.095699312284596,
                0.5896634546702342,
                -0.48955413640456313,
                -1.8648809380178246
            ]
        },
        {
            "positions": [
                -0.0018973159891526592,
                -1.36144999080418,
                2.0727848647076623,
                0.6710090352872944,
                -0.5817987552337246,
                -1.767116784962332
            ]
        },
        {
            "positions": [
                -0.05250603189270742,
                -1.3223739826940824,
                2.049870417130728,
                0.7523546159043548,
                -0.6740433740628858,
                -1.6693526319068392
            ]
        },
        {
            "positions": [
                -0.10311474779626206,
                -1.283297974583985,
                2.0269559695537938,
                0.833700196521415,
                -0.7662879928920471,
                -1.5715884788513466
            ]
        },
        {
            "positions": [
                -0.1537234636998167,
                -1.2442219664738876,
                2.00404152197686,
                0.9150457771384752,
                -0.8585326117212083,
                -1.4738243257958539
            ]
        },
        {
            "positions": [
                -0.20433217960337147,
                -1.20514595836379,
                1.9811270743999256,
                0.9963913577555357,
                -0.9507772305503696,
                -1.3760601727403612
            ]
        },
        {
            "positions": [
                -0.2549408955069261,
                -1.1660699502536924,
                1.9582126268229916,
                1.0777369383725959,
                -1.0430218493795311,
                -1.2782960196848685
            ]
        },
        {
            "positions": [
                -0.30554961141048087,
                -1.126993942143595,
                1.9352981792460575,
                1.1590825189896563,
                -1.1352664682086924,
                -1.1805318666293758
            ]
        },
        {
            "positions": [
                -0.3561583273140355,
                -1.0879179340334975,
                1.9123837316691232,
                1.2404280996067165,
                -1.2275110870378536,
                -1.0827677135738831
            ]
        },
        {
            "positions": [
                -0.40676704321759016,
                -1.0488419259234,
                1.8894692840921892,
                1.3217736802237767,
                -1.3197557058670148,
                -0.9850035605183907
            ]
        },
        {
            "positions": [
                -0.4573757591211448,
                -1.0097659178133025,
                1.8665548365152551,
                1.4031192608408372,
                -1.412000324696176,
                -0.8872394074628978
            ]
        },
        {
            "positions": [
                -0.5079844750246995,
                -0.970689909703205,
                1.8436403889383208,
                1.4844648414578974,
                -1.5042449435253373,
                -0.7894752544074053
            ]
        },
        {
            "positions": [
                -0.5585931909282543,
                -0.9316139015931075,
                1.8207259413613868,
                1.5658104220749576,
                -1.5964895623544986,
                -0.6917111013519124
            ]
        },
        {
            "positions": [
                -0.609201906831809,
                -0.8925378934830099,
                1.7978114937844527,
                1.647156002692018,
                -1.6887341811836598,
                -0.5939469482964199
            ]
        },
        {
            "positions": [
                -0.6598106227353636,
                -0.8534618853729126,
                1.7748970462075184,
                1.7285015833090784,
                -1.7809788000128215,
                -0.496182795240927
            ]
        },
        {
            "positions": [
                -0.7104193386389183,
                -0.814385877262815,
                1.7519825986305844,
                1.8098471639261384,
                -1.8732234188419827,
                -0.39841864218543455
            ]
        },
        {
            "positions": [
                -0.7610280545424729,
                -0.7753098691527176,
                1.7290681510536503,
                1.8911927445431989,
                -1.965468037671144,
                -0.30065448912994164
            ]
        },
        {
            "positions": [
                -0.8116367704460278,
                -0.73623386104262,
                1.706153703476716,
                1.9725383251602593,
                -2.057712656500305,
                -0.20289033607444917
            ]
        },
        {
            "positions": [
                -0.8622454863495824,
                -0.6971578529325226,
                1.6832392558997822,
                2.0538839057773193,
                -2.1499572753294665,
                -0.10512618301895627
            ]
        },
        {
            "positions": [
                -0.912854202253137,
                -0.658081844822425,
                1.660324808322848,
                2.1352294863943797,
                -2.2422018941586277,
                -0.007362029963463659
            ]
        }
    ]
}