{
    "goal": {
        "global_pose": {
            "orientation": {
                "w": 0.7047431468963623,
                "x": -0.7094548344612122,
                "y": 0.0024358443915843964,
                "z": -0.0022348060738295317
            },
            "position": {
                "x": 0.6094750761985779,
                "y": 0.3671506643295288,
                "z": 0.19426114857196808
            }
        },
        "name": "move_to_magneteinheit_A"
    },
    "id": "RRTConnect_move_to_magneteinheit_A_129",
    "joint_names": [
        "shoulder_pan_joint",
        "shoulder_lift_joint",
        "elbow_joint",
        "wrist_1_joint",
        "wrist_2_joint",
        "wrist_3_joint"
    ],
    "metrics": {
        "cart_traj_len": 1.8883441306266597,
        "distance_elbow_joint": 3.887108530263908,
        "distance_shoulder_lift_joint": 1.0611191880922777,
        "distance_shoulder_pan_joint": 1.2408707708921263,
        "distance_wrist_1_joint": 1.199477300893819,
        "distance_wrist_2_joint": 1.810502071796412,
        "distance_wrist_3_joint": 4.319817655907997,
        "smoothness": 0.04214881778713731,
        "time": 0.12048119,
        "traj_len": 3.676805069329422,
        "weighted_distance": 5.016822719844978
    },
    "planner": "RRTConnect",
    "start": {
        "state": {
            "elbow_joint": -1.919643507792019,
            "shoulder_lift_joint": -0.07675430207160344,
            "shoulder_pan_joint": -1.1188671864651873,
            "wrist_1_joint": 0.42560062535961957,
            "wrist_2_joint": 1.5706038300724876,
            "wrist_3_joint": 1.1188968870953055
        }
    },
    "waypoints": [
        {
            "positions": [
                -1.1188671864651873,
                -0.07675430207160344,
                -1.919643507792019,
                0.42560062535961957,
                1.5706038300724876,
                1.1188968870953055
            ]
        },
        {
            "positions": [
                -1.0939518438231977,
                -0.1174342591435428,
                -1.7904010423919083,
                0.41658157459844,
                1.5054077561520158,
                0.9986541891194592
            ]
        },
        {
            "positions": [
                -1.069036501181208,
                -0.15811421621548216,
                -1.6611585769917976,
                0.4075625238372603,
                1.4402116822315443,
                0.878411491143613
            ]
        },
        {
            "positions": [
                -1.044121158539218,
                -0.1987941732874215,
                -1.5319161115916868,
                0.39854347307608073,
                1.3750156083110725,
                0.7581687931677668
            ]
        },
        {
            "positions": [
                -1.0192058158972284,
                -0.23947413035936085,
                -1.4026736461915763,
                0.3895244223149011,
                1.3098195343906007,
                0.6379260951919206
            ]
        },
        {
            "positions": [
                -0.9942904732552387,
                -0.2801540874313002,
                -1.2734311807914653,
                0.38050537155372144,
                1.244623460470129,
                0.5176833972160741
            ]
        },
        {
            "positions": [
                -0.969375130613249,
                -0.32083404450323955,
                -1.1441887153913548,
                0.37148632079254185,
                1.1794273865496574,
                0.39744069924022796
            ]
        },
        {
            "positions": [
                -0.9444597879712592,
                -0.36151400157517893,
                -1.0149462499912438,
                0.36246727003136225,
                1.1142313126291856,
                0.27719800126438165
            ]
        },
        {
            "positions": [
                -0.9195444453292694,
                -0.40219395864711827,
                -0.8857037845911333,
                0.3534482192701826,
                1.0490352387087138,
                0.15695530328853546
            ]
        },
        {
            "positions": [
                -0.8946291026872797,
                -0.4428739157190576,
                -0.7564613191910226,
                0.344429168509003,
                0.9838391647882422,
                0.03671260531268916
            ]
        },
        {
            "positions": [
                -0.86971376004529,
                -0.483553872790997,
                -0.6272188537909118,
                0.33541011774782337,
                0.9186430908677704,
                -0.08353009266315725
            ]
        },
        {
            "positions": [
                -0.8447984174033002,
                -0.5242338298629363,
                -0.49797638839080105,
                0.3263910669866438,
                0.8534470169472987,
                -0.20377279063900344
            ]
        },
        {
            "positions": [
                -0.8198830747613105,
                -0.5649137869348757,
                -0.3687339229906905,
                0.3173720162254641,
                0.7882509430268271,
                -0.32401548861484963
            ]
        },
        {
            "positions": [
                -0.7949677321193207,
                -0.6055937440068151,
                -0.23949145759057955,
                0.30835296546428453,
                0.7230548691063553,
                -0.4442581865906958
            ]
        },
        {
            "positions": [
                -0.770052389477331,
                -0.6462737010787545,
                -0.1102489921904688,
                0.2993339147031049,
                0.6578587951858835,
                -0.5645008845665422
            ]
        },
        {
            "positions": [
                -0.7451370468353413,
                -0.6869536581506936,
                0.01899347320964173,
                0.2903148639419253,
                0.592662721265412,
                -0.6847435825423882
            ]
        },
        {
            "positions": [
                -0.7202217041933515,
                -0.727633615222633,
                0.14823593860975248,
                0.2812958131807457,
                0.5274666473449401,
                -0.8049862805182346
            ]
        },
        {
            "positions": [
                -0.6953063615513617,
                -0.7683135722945724,
                0.27747840400986346,
                0.272276762419566,
                0.4622705734244683,
                -0.925228978494081
            ]
        },
        {
            "positions": [
                -0.670391018909372,
                -0.8089935293665118,
                0.406720869409974,
                0.2632577116583864,
                0.39707449950399676,
                -1.0454716764699272
            ]
        },
        {
            "positions": [
                -0.6454756762673823,
                -0.8496734864384512,
                0.5359633348100845,
                0.2542386608972068,
                0.331878425583525,
                -1.1657143744457734
            ]
        },
        {
            "positions": [
                -0.6205603336253925,
                -0.8903534435103906,
                0.6652058002101955,
                0.24521961013602717,
                0.2666823516630532,
                -1.28595707242162
            ]
        },
        {
            "positions": [
                -0.5956449909834028,
                -0.9310334005823298,
                0.794448265610306,
                0.23620055937484757,
                0.20148627774258165,
                -1.4061997703974658
            ]
        },
        {
            "positions": [
                -0.570729648341413,
                -0.9717133576542691,
                0.923690731010417,
                0.22718150861366795,
                0.13629020382210988,
                -1.5264424683733124
            ]
        },
        {
            "positions": [
                -0.5458143056994234,
                -1.0123933147262085,
                1.0529331964105275,
                0.21816245785248833,
                0.0710941299016381,
                -1.6466851663491586
            ]
        },
        {
            "positions": [
                -0.5208989630574337,
                -1.053073271798148,
                1.182175661810638,
                0.20914340709130871,
                0.00589805598116655,
                -1.7669278643250048
            ]
        },
        {
            "positions": [
                -0.49598362041544386,
                -1.0937532288700873,
                1.3114181272107488,
                0.2001243563301291,
                -0.05929801793930512,
                -1.8871705623008512
            ]
        },
        {
            "positions": [
                -0.4341848999312056,
                -1.0981652549994667,
                1.3770228167368626,
                0.10272425314369622,
                -0.04123799556084314,
                -2.018545582952035
            ]
        },
        {
            "positions": [
                -0.3723861794469674,
                -1.1025772811288461,
                1.4426275062629763,
                0.005324149957263352,
                -0.023177973182381163,
                -2.1499206036032192
            ]
        },
        {
            "positions": [
                -0.31058745896272916,
                -1.1069893072582255,
                1.50823219578909,
                -0.0920759532291695,
                -0.005117950803919184,
                -2.2812956242544034
            ]
        },
        {
            "positions": [
                -0.24878873847849092,
                -1.111401333387605,
                1.5738368853152038,
                -0.1894760564156024,
                0.012942071574542795,
                -2.412670644905587
            ]
        },
        {
            "positions": [
                -0.1869900179942527,
                -1.1158133595169843,
                1.6394415748413176,
                -0.2868761596020352,
                0.031002093953004774,
                -2.544045665556771
            ]
        },
        {
            "positions": [
                -0.12519129751001445,
                -1.1202253856463635,
                1.7050462643674313,
                -0.3842762627884681,
                0.04906211633146675,
                -2.6754206862079553
            ]
        },
        {
            "positions": [
                -0.06339257702577622,
                -1.124637411775743,
                1.770650953893545,
                -0.4816763659749009,
                0.06712213870992872,
                -2.8067957068591394
            ]
        },
        {
            "positions": [
                -0.0015938565415379857,
                -1.1290494379051224,
                1.8362556434196589,
                -0.5790764691613339,
                0.08518216108839072,
                -2.9381707275103235
            ]
        },
        {
            "positions": [
                0.060204863942700304,
                -1.1334614640345018,
                1.9018603329457726,
                -0.6764765723477666,
                0.10324218346685271,
                -3.0695457481615076
            ]
        },
        {
            "positions": [
                0.12200358442693851,
                -1.1378734901638812,
                1.9674650224718864,
                -0.7738766755341995,
                0.12130220584531468,
                -3.2009207688126913
            ]
        }
    ]
}