{
    "goal": {
        "global_pose": {
            "orientation": {
                "w": 0.5084816217422485,
                "x": -0.49083608388900757,
                "y": 0.5182115435600281,
                "z": -0.4816462993621826
            },
            "position": {
                "x": 0.5540239810943604,
                "y": 0.030875300988554955,
                "z": 0.16403168439865112
            }
        },
        "name": "move_to_storage_A"
    },
    "id": "RRTstar_move_to_storage_A_116",
    "joint_names": [
        "shoulder_pan_joint",
        "shoulder_lift_joint",
        "elbow_joint",
        "wrist_1_joint",
        "wrist_2_joint",
        "wrist_3_joint"
    ],
    "metrics": {
        "cart_traj_len": 0.35327158498728123,
        "distance_elbow_joint": 0.44800276304110564,
        "distance_shoulder_lift_joint": 0.2365177064137749,
        "distance_shoulder_pan_joint": 0.4603851449850527,
        "distance_wrist_1_joint": 0.23234892332166523,
        "distance_wrist_2_joint": 1.1066907713862015,
        "distance_wrist_3_joint": 0.09445511675752405,
        "smoothness": 8.881784213138256e-16,
        "time": 5.008723098,
        "traj_len": 1.6057398375531835,
        "weighted_distance": 2.0264131745841563
    },
    "planner": "RRTstar",
    "start": {
        "state": {
            "elbow_joint": 1.9715463870305268,
            "shoulder_lift_joint": -1.1394903361783484,
            "shoulder_pan_joint": 0.12281147578464417,
            "wrist_1_joint": -0.7804599489681411,
            "wrist_2_joint": 0.12958660307563738,
            "wrist_3_joint": -3.1924946282119055
        }
    },
    "waypoints": [
        {
            "positions": [
                0.12281147578464417,
                -1.1394903361783484,
                1.9715463870305268,
                -0.7804599489681411,
                0.12958660307563738,
                -3.1924946282119055
            ]
        },
        {
            "positions": [
                0.05704216935820808,
                -1.173278579951745,
                2.0355467817506847,
                -0.8136526522998075,
                0.2876852847022376,
                -3.179001040103688
            ]
        },
        {
            "positions": [
                -0.008727137068228016,
                -1.2070668237251412,
                2.0995471764708427,
                -0.846845355631474,
                0.44578396632883777,
                -3.1655074519954702
            ]
        },
        {
            "positions": [
                -0.0744964434946641,
                -1.2408550674985377,
                2.1635475711910006,
                -0.8800380589631405,
                0.603882647955438,
                -3.1520138638872526
            ]
        },
        {
            "positions": [
                -0.1402657499211002,
                -1.274643311271934,
                2.2275479659111586,
                -0.9132307622948069,
                0.7619813295820382,
                -3.1385202757790345
            ]
        },
        {
            "positions": [
                -0.20603505634753633,
                -1.3084315550453305,
                2.2915483606313165,
                -0.9464234656264734,
                0.9200800112086385,
                -3.125026687670817
            ]
        },
        {
            "positions": [
                -0.27180436277397235,
                -1.3422197988187268,
                2.3555487553514745,
                -0.9796161689581399,
                1.0781786928352386,
                -3.111533099562599
            ]
        },
        {
            "positions": [
                -0.3375736692004085,
                -1.3760080425921233,
                2.4195491500716324,
                -1.0128088722898063,
                1.236277374461839,
                -3.0980395114543815
            ]
        }
    ]
}