{
    "goal": {
        "global_pose": {
            "orientation": {
                "w": 0.7031023502349854,
                "x": -0.7110244035720825,
                "y": 0.007748599164187908,
                "z": 0.005598929710686207
            },
            "position": {
                "x": 0.11585023208521307,
                "y": 0.44412534475326537,
                "z": 0.3711530566215515
            }
        },
        "name": "move_to_auspresseinheit_A"
    },
    "id": "RRTstar_move_to_auspresseinheit_A_8",
    "joint_names": [
        "shoulder_pan_joint",
        "shoulder_lift_joint",
        "elbow_joint",
        "wrist_1_joint",
        "wrist_2_joint",
        "wrist_3_joint"
    ],
    "metrics": {
        "cart_traj_len": 1.2407876423009834,
        "distance_elbow_joint": 0.16022735961982137,
        "distance_shoulder_lift_joint": 2.217073613041233,
        "distance_shoulder_pan_joint": 5.476875385170448,
        "distance_wrist_1_joint": 3.8731871153707775,
        "distance_wrist_2_joint": 4.446901600885113,
        "distance_wrist_3_joint": 7.271223796141748,
        "smoothness": 0.5531020783495794,
        "time": 5.035763649,
        "traj_len": 4.842054199431183,
        "weighted_distance": 6.805000013135087
    },
    "planner": "RRTstar",
    "start": {
        "state": {
            "elbow_joint": 2.422574709923281,
            "shoulder_lift_joint": -1.3736533754116391,
            "shoulder_pan_joint": -0.33786336945926293,
            "wrist_1_joint": -1.0288603412921917,
            "wrist_2_joint": 1.2330224858903978,
            "wrist_3_joint": -3.094022268022082
        }
    },
    "waypoints": [
        {
            "positions": [
                -0.33786336945926293,
                -1.3736533754116391,
                2.422574709923281,
                -1.0288603412921917,
                1.2330224858903978,
                -3.094022268022082
            ]
        },
        {
            "positions": [
                -0.40936158013307267,
                -1.4180931663617735,
                2.4247220535620593,
                -0.9574240616504973,
                1.1529894155625018,
                -2.977182283904441
            ]
        },
        {
            "positions": [
                -0.48085979080688246,
                -1.4625329573119077,
                2.4268693972008375,
                -0.8859877820088029,
                1.0729563452346058,
                -2.8603422997868
            ]
        },
        {
            "positions": [
                -0.5523580014806921,
                -1.506972748262042,
                2.429016740839616,
                -0.8145515023671085,
                0.99292327490671,
                -2.7435023156691587
            ]
        },
        {
            "positions": [
                -0.6238562121545019,
                -1.5514125392121765,
                2.4311640844783944,
                -0.7431152227254141,
                0.912890204578814,
                -2.6266623315515174
            ]
        },
        {
            "positions": [
                -0.6953544228283117,
                -1.5958523301623107,
                2.4333114281171726,
                -0.6716789430837198,
                0.832857134250918,
                -2.509822347433876
            ]
        },
        {
            "positions": [
                -0.7668526335021215,
                -1.640292121112445,
                2.435458771755951,
                -0.6002426634420253,
                0.7528240639230221,
                -2.392982363316235
            ]
        },
        {
            "positions": [
                -0.8383508441759313,
                -1.6847319120625794,
                2.4376061153947295,
                -0.5288063838003308,
                0.6727909935951261,
                -2.276142379198594
            ]
        },
        {
            "positions": [
                -0.9098490548497409,
                -1.7291717030127136,
                2.4397534590335077,
                -0.45737010415863644,
                0.5927579232672302,
                -2.1593023950809527
            ]
        },
        {
            "positions": [
                -0.9813472655235507,
                -1.773611493962848,
                2.441900802672286,
                -0.385933824516942,
                0.5127248529393341,
                -2.0424624109633114
            ]
        },
        {
            "positions": [
                -1.0528454761973605,
                -1.8180512849129824,
                2.444048146311064,
                -0.3144975448752477,
                0.43269178261143826,
                -1.9256224268456703
            ]
        },
        {
            "positions": [
                -1.1243436868711703,
                -1.8624910758631166,
                2.4461954899498424,
                -0.2430612652335532,
                0.3526587122835423,
                -1.808782442728029
            ]
        },
        {
            "positions": [
                -1.19584189754498,
                -1.906930866813251,
                2.448342833588621,
                -0.1716249855918589,
                0.2726256419556464,
                -1.691942458610388
            ]
        },
        {
            "positions": [
                -1.2673401082187898,
                -1.9513706577633854,
                2.4504901772273993,
                -0.10018870595016438,
                0.19259257162775034,
                -1.5751024744927467
            ]
        },
        {
            "positions": [
                -1.3388383188925996,
                -1.9958104487135198,
                2.4526375208661775,
                -0.02875242630846997,
                0.11255950129985437,
                -1.4582624903751056
            ]
        },
        {
            "positions": [
                -1.4103365295664094,
                -2.040250239663654,
                2.4547848645049557,
                0.04268385333322433,
                0.0325264309719584,
                -1.3414225062574645
            ]
        },
        {
            "positions": [
                -1.481834740240219,
                -2.084690030613788,
                2.4569322081437344,
                0.11412013297491885,
                -0.04750663935593735,
                -1.2245825221398232
            ]
        },
        {
            "positions": [
                -1.5533329509140288,
                -2.1291298215639225,
                2.4590795517825126,
                0.18555641261661315,
                -0.12753970968383332,
                -1.1077425380221821
            ]
        },
        {
            "positions": [
                -1.6248311615878386,
                -2.173569612514057,
                2.461226895421291,
                0.2569926922583077,
                -0.20757278001172952,
                -0.9909025539045406
            ]
        },
        {
            "positions": [
                -1.6963293722616484,
                -2.2180094034641913,
                2.463374239060069,
                0.328428971900002,
                -0.28760585033962527,
                -0.8740625697868998
            ]
        },
        {
            "positions": [
                -1.7678275829354582,
                -2.2624491944143257,
                2.4655215826988477,
                0.3998652515416963,
                -0.36763892066752124,
                -0.7572225856692585
            ]
        },
        {
            "positions": [
                -1.8393257936092677,
                -2.30688898536446,
                2.467668926337626,
                0.4713015311833908,
                -0.447671990995417,
                -0.6403826015516176
            ]
        },
        {
            "positions": [
                -1.9108240042830777,
                -2.3513287763145945,
                2.469816269976404,
                0.5427378108250853,
                -0.5277050613233132,
                -0.5235426174339759
            ]
        },
        {
            "positions": [
                -1.9823222149568873,
                -2.395768567264729,
                2.4719636136151824,
                0.6141740904667796,
                -0.6077381316512092,
                -0.40670263331633505
            ]
        },
        {
            "positions": [
                -2.053820425630697,
                -2.440208358214863,
                2.4741109572539606,
                0.6856103701084739,
                -0.6877712019791049,
                -0.28986264919869376
            ]
        },
        {
            "positions": [
                -2.1253186363045065,
                -2.484648149164997,
                2.4762583008927392,
                0.7570466497501684,
                -0.7678042723070009,
                -0.1730226650810529
            ]
        },
        {
            "positions": [
                -2.1968168469783165,
                -2.5290879401151316,
                2.4784056445315175,
                0.828482929391863,
                -0.8478373426348971,
                -0.05618268096341117
            ]
        },
        {
            "positions": [
                -2.2683150576521265,
                -2.5735277310652656,
                2.4805529881702957,
                0.8999192090335573,
                -0.9278704129627928,
                0.06065730315422968
            ]
        },
        {
            "positions": [
                -2.339813268325936,
                -2.6179675220154,
                2.482700331809074,
                0.9713554886752518,
                -1.007903483290689,
                0.17749728727187097
            ]
        },
        {
            "positions": [
                -2.4113114789997456,
                -2.6624073129655343,
                2.4848476754478526,
                1.0427917683169459,
                -1.0879365536185848,
                0.2943372713895118
            ]
        },
        {
            "positions": [
                -2.4828096896735556,
                -2.7068471039156687,
                2.486995019086631,
                1.1142280479586404,
                -1.167969623946481,
                0.4111772555071531
            ]
        },
        {
            "positions": [
                -2.554307900347365,
                -2.751286894865803,
                2.489142362725409,
                1.185664327600335,
                -1.2480026942743767,
                0.5280172396247944
            ]
        },
        {
            "positions": [
                -2.441879250199698,
                -2.722340684742111,
                2.48591271766273,
                1.1284690708252227,
                -1.1802138521805718,
                0.4021832986422126
            ]
        },
        {
            "positions": [
                -2.3294506000520308,
                -2.6933944746184193,
                2.482683072600051,
                1.0712738140501106,
                -1.112425010086767,
                0.2763493576596307
            ]
        },
        {
            "positions": [
                -2.217021949904364,
                -2.664448264494727,
                2.4794534275373716,
                1.0140785572749986,
                -1.044636167992962,
                0.15051541667704882
            ]
        },
        {
            "positions": [
                -2.1045932997566967,
                -2.635502054371035,
                2.4762237824746927,
                0.9568833004998865,
                -0.9768473258991572,
                0.024681475694466992
            ]
        },
        {
            "positions": [
                -1.9921646496090295,
                -2.606555844247343,
                2.4729941374120137,
                0.8996880437247743,
                -0.9090584838053524,
                -0.10115246528811495
            ]
        },
        {
            "positions": [
                -1.8797359994613623,
                -2.577609634123651,
                2.4697644923493347,
                0.8424927869496622,
                -0.8412696417115475,
                -0.22698640627069677
            ]
        },
        {
            "positions": [
                -1.767307349313695,
                -2.548663423999959,
                2.4665348472866553,
                0.7852975301745501,
                -0.7734807996177426,
                -0.3528203472532787
            ]
        },
        {
            "positions": [
                -1.654878699166028,
                -2.519717213876267,
                2.4633052022239763,
                0.728102273399438,
                -0.7056919575239378,
                -0.4786542882358604
            ]
        },
        {
            "positions": [
                -1.5424500490183608,
                -2.4907710037525748,
                2.4600755571612973,
                0.6709070166243258,
                -0.6379031154301328,
                -0.6044882292184424
            ]
        },
        {
            "positions": [
                -1.4300213988706936,
                -2.4618247936288826,
                2.4568459120986184,
                0.6137117598492137,
                -0.5701142733363279,
                -0.7303221702010243
            ]
        },
        {
            "positions": [
                -1.3175927487230266,
                -2.432878583505191,
                2.453616267035939,
                0.5565165030741017,
                -0.5023254312425232,
                -0.856156111183606
            ]
        },
        {
            "positions": [
                -1.2051640985753593,
                -2.403932373381499,
                2.45038662197326,
                0.49932124629898955,
                -0.4345365891487182,
                -0.981990052166188
            ]
        },
        {
            "positions": [
                -1.092735448427692,
                -2.3749861632578066,
                2.447156976910581,
                0.4421259895238774,
                -0.3667477470549133,
                -1.10782399314877
            ]
        },
        {
            "positions": [
                -0.9803067982800251,
                -2.346039953134115,
                2.443927331847902,
                0.3849307327487652,
                -0.29895890496110844,
                -1.2336579341313518
            ]
        },
        {
            "positions": [
                -0.8678781481323579,
                -2.317093743010423,
                2.4406976867852226,
                0.32773547597365316,
                -0.23117006286730346,
                -1.3594918751139338
            ]
        },
        {
            "positions": [
                -0.7554494979846909,
                -2.2881475328867307,
                2.4374680417225436,
                0.2705402191985411,
                -0.16338122077349881,
                -1.4853258160965153
            ]
        },
        {
            "positions": [
                -0.6430208478370238,
                -2.2592013227630385,
                2.4342383966598646,
                0.21334496242342904,
                -0.09559237867969395,
                -1.611159757079097
            ]
        },
        {
            "positions": [
                -0.5305921976893564,
                -2.2302551126393464,
                2.4310087515971857,
                0.15614970564831676,
                -0.027803536585888855,
                -1.7369936980616791
            ]
        },
        {
            "positions": [
                -0.41816354754168916,
                -2.2013089025156547,
                2.4277791065345062,
                0.09895444887320481,
                0.03998530550791579,
                -1.8628276390442609
            ]
        },
        {
            "positions": [
                -0.30573489739402193,
                -2.1723626923919626,
                2.4245494614718273,
                0.041759192098092424,
                0.10777414760172088,
                -1.988661580026843
            ]
        },
        {
            "positions": [
                -0.19330624724635515,
                -2.143416482268271,
                2.4213198164091483,
                -0.015436064677019523,
                0.17556298969552575,
                -2.1144955210094247
            ]
        },
        {
            "positions": [
                -0.08087759709868791,
                -2.1144702721445787,
                2.4180901713464693,
                -0.07263132145213147,
                0.2433518317893304,
                -2.2403294619920064
            ]
        },
        {
            "positions": [
                0.031551053048979316,
                -2.0855240620208866,
                2.41486052628379,
                -0.12982657822724386,
                0.3111406738831355,
                -2.3661634029745886
            ]
        },
        {
            "positions": [
                0.14397970319664655,
                -2.0565778518971944,
                2.411630881221111,
                -0.1870218350023558,
                0.37892951597694036,
                -2.4919973439571703
            ]
        },
        {
            "positions": [
                0.25640835334431333,
                -2.0276316417735023,
                2.408401236158432,
                -0.24421709177746798,
                0.446718358070745,
                -2.617831284939752
            ]
        },
        {
            "positions": [
                0.368837003491981,
                -1.9986854316498106,
                2.405171591095753,
                -0.30141234855258014,
                0.5145072001645501,
                -2.743665225922334
            ]
        },
        {
            "positions": [
                0.4812656536396478,
                -1.9697392215261185,
                2.401941946033074,
                -0.3586076053276921,
                0.582296042258355,
                -2.869499166904916
            ]
        },
        {
            "positions": [
                0.593694303787315,
                -1.9407930114024263,
                2.3987123009703946,
                -0.4158028621028045,
                0.6500848843521598,
                -2.995333107887498
            ]
        },
        {
            "positions": [
                0.706122953934982,
                -1.9118468012787344,
                2.3954826559077156,
                -0.4729981188779165,
                0.7178737264459647,
                -3.12116704887008
            ]
        }
    ]
}