{
    "goal": {
        "global_pose": {
            "orientation": {
                "w": 0.5084816217422485,
                "x": -0.49083608388900757,
                "y": 0.5182115435600281,
                "z": -0.4816462993621826
            },
            "position": {
                "x": 0.5540239810943604,
                "y": 0.030875300988554955,
                "z": 0.16403168439865112
            }
        },
        "name": "move_to_storage_A"
    },
    "id": "RRTstar_move_to_storage_A_11",
    "joint_names": [
        "shoulder_pan_joint",
        "shoulder_lift_joint",
        "elbow_joint",
        "wrist_1_joint",
        "wrist_2_joint",
        "wrist_3_joint"
    ],
    "metrics": {
        "cart_traj_len": 0.35332356207743076,
        "distance_elbow_joint": 0.4476609716978852,
        "distance_shoulder_lift_joint": 0.2354487001843526,
        "distance_shoulder_pan_joint": 0.4628364597511642,
        "distance_wrist_1_joint": 0.23486354287428746,
        "distance_wrist_2_joint": 1.0956906595873686,
        "distance_wrist_3_joint": 0.10012000550735056,
        "smoothness": 1.1102230244806396e-15,
        "time": 5.001927,
        "traj_len": 1.6051854533362833,
        "weighted_distance": 2.0266757395002206
    },
    "planner": "RRTstar",
    "start": {
        "state": {
            "elbow_joint": 1.9715463870305268,
            "shoulder_lift_joint": -1.1394903361783484,
            "shoulder_pan_joint": 0.12281147578464417,
            "wrist_1_joint": -0.7804599489681411,
            "wrist_2_joint": 0.12958660307563738,
            "wrist_3_joint": -3.1924946282119055
        }
    },
    "waypoints": [
        {
            "positions": [
                0.12281147578464417,
                -1.1394903361783484,
                1.9715463870305268,
                -0.7804599489681411,
                0.12958660307563738,
                -3.1924946282119055
            ]
        },
        {
            "positions": [
                0.05669198153447785,
                -1.1731258647761131,
                2.035497954415939,
                -0.8140118836644679,
                0.28611384015954716,
                -3.178191770282284
            ]
        },
        {
            "positions": [
                -0.009427512715688466,
                -1.2067613933738777,
                2.099449521801351,
                -0.8475638183607946,
                0.4426410772434569,
                -3.1638889123526623
            ]
        },
        {
            "positions": [
                -0.07554700696585477,
                -1.2403969219716424,
                2.163401089186763,
                -0.8811157530571214,
                0.5991683143273667,
                -3.149586054423041
            ]
        },
        {
            "positions": [
                -0.1416665012160211,
                -1.274032450569407,
                2.2273526565721755,
                -0.9146676877534482,
                0.7556955514112765,
                -3.1352831964934196
            ]
        },
        {
            "positions": [
                -0.20778599546618742,
                -1.3076679791671717,
                2.291304223957588,
                -0.948219622449775,
                0.9122227884951863,
                -3.120980338563798
            ]
        },
        {
            "positions": [
                -0.2739054897163537,
                -1.3413035077649362,
                2.3552557913429997,
                -0.9817715571461018,
                1.068750025579096,
                -3.1066774806341764
            ]
        },
        {
            "positions": [
                -0.34002498396652003,
                -1.374939036362701,
                2.419207358728412,
                -1.0153234918424285,
                1.225277262663006,
                -3.092374622704555
            ]
        }
    ]
}