{
    "goal": {
        "global_pose": {
            "orientation": {
                "w": -0.00223480608172531,
                "x": 0.0024358444001904467,
                "y": 0.7094548369677653,
                "z": -0.704743149386269
            },
            "position": {
                "x": 0.6205249238014221,
                "y": -0.6371506643295288,
                "z": 0.19426114857196808
            }
        },
        "name": "move_to_magneteinheit_B"
    },
    "id": "RRTstar_move_to_magneteinheit_B_49",
    "joint_names": [
        "shoulder_pan_joint",
        "shoulder_lift_joint",
        "elbow_joint",
        "wrist_1_joint",
        "wrist_2_joint",
        "wrist_3_joint"
    ],
    "metrics": {
        "cart_traj_len": 3.6909144070913036,
        "distance_elbow_joint": 4.4073793621509765,
        "distance_shoulder_lift_joint": 1.1995164647108005,
        "distance_shoulder_pan_joint": 2.0498465937449732,
        "distance_wrist_1_joint": 2.0274569881734728,
        "distance_wrist_2_joint": 1.1830611151539454,
        "distance_wrist_3_joint": 6.2906911295494,
        "smoothness": 0.07505895809313852,
        "time": 5.045096095,
        "traj_len": 4.142215790308802,
        "weighted_distance": 5.7401961652812705
    },
    "planner": "RRTstar",
    "start": {
        "state": {
            "elbow_joint": 2.39358713078474,
            "shoulder_lift_joint": -1.908514104345545,
            "shoulder_pan_joint": 0.7066247066606129,
            "wrist_1_joint": -0.4678290933515497,
            "wrist_2_joint": 0.7096259083745334,
            "wrist_3_joint": -3.1358149277392293
        }
    },
    "waypoints": [
        {
            "positions": [
                0.7066247066606129,
                -1.908514104345545,
                2.39358713078474,
                -0.4678290933515497,
                0.7096259083745334,
                -3.1358149277392293
            ]
        },
        {
            "positions": [
                0.7082606644227923,
                -1.9369165746430503,
                2.3457251908039933,
                -0.48326003696181125,
                0.7019632046719426,
                -3.1192066752005676
            ]
        },
        {
            "positions": [
                0.7399764689743221,
                -1.9474044714405703,
                2.183523012535898,
                -0.5439978674931322,
                0.6763518213692219,
                -3.0229825682913076
            ]
        },
        {
            "positions": [
                0.771692273525852,
                -1.9578923682380904,
                2.021320834267803,
                -0.6047356980244531,
                0.6507404380665013,
                -2.9267584613820476
            ]
        },
        {
            "positions": [
                0.8034080780773818,
                -1.9683802650356104,
                1.859118655999708,
                -0.6654735285557741,
                0.6251290547637806,
                -2.8305343544727877
            ]
        },
        {
            "positions": [
                0.8351238826289116,
                -1.9788681618331305,
                1.6969164777316128,
                -0.7262113590870951,
                0.5995176714610598,
                -2.7343102475635277
            ]
        },
        {
            "positions": [
                0.8668396871804415,
                -1.9893560586306505,
                1.5347142994635175,
                -0.7869491896184161,
                0.5739062881583392,
                -2.6380861406542677
            ]
        },
        {
            "positions": [
                0.8985554917319714,
                -1.9998439554281706,
                1.3725121211954223,
                -0.8476870201497371,
                0.5482949048556185,
                -2.5418620337450077
            ]
        },
        {
            "positions": [
                0.9302712962835011,
                -2.0103318522256903,
                1.2103099429273272,
                -0.9084248506810579,
                0.5226835215528978,
                -2.445637926835748
            ]
        },
        {
            "positions": [
                0.9619871008350309,
                -2.0208197490232105,
                1.048107764659232,
                -0.9691626812123789,
                0.49707213825017715,
                -2.3494138199264882
            ]
        },
        {
            "positions": [
                0.9937029053865608,
                -2.0313076458207306,
                0.8859055863911367,
                -1.0299005117437,
                0.47146075494745643,
                -2.2531897130172283
            ]
        },
        {
            "positions": [
                1.0254187099380907,
                -2.041795542618251,
                0.7237034081230416,
                -1.090638342275021,
                0.4458493716447357,
                -2.1569656061079683
            ]
        },
        {
            "positions": [
                1.0571345144896205,
                -2.0522834394157705,
                0.5615012298549464,
                -1.1513761728063419,
                0.4202379883420151,
                -2.0607414991987083
            ]
        },
        {
            "positions": [
                1.0888503190411503,
                -2.0627713362132907,
                0.3992990515868512,
                -1.2121140033376627,
                0.39462660503929436,
                -1.9645173922894483
            ]
        },
        {
            "positions": [
                1.14419086388211,
                -2.0367217273697,
                0.2886381827353025,
                -1.263717322095468,
                0.37311114692465175,
                -1.8410954088461617
            ]
        },
        {
            "positions": [
                1.19953140872307,
                -2.0106721185261094,
                0.17797731388375387,
                -1.3153206408532734,
                0.35159568881000913,
                -1.7176734254028752
            ]
        },
        {
            "positions": [
                1.25487195356403,
                -1.984622509682519,
                0.06731644503220519,
                -1.3669239596110785,
                0.3300802306953665,
                -1.5942514419595886
            ]
        },
        {
            "positions": [
                1.3102124984049899,
                -1.9585729008389285,
                -0.04334442381934345,
                -1.4185272783688838,
                0.3085647725807239,
                -1.470829458516302
            ]
        },
        {
            "positions": [
                1.3655530432459497,
                -1.932523291995338,
                -0.15400529267089214,
                -1.4701305971266891,
                0.2870493144660813,
                -1.3474074750730154
            ]
        },
        {
            "positions": [
                1.4208935880869096,
                -1.9064736831517475,
                -0.2646661615224408,
                -1.5217339158844945,
                0.26553385635143867,
                -1.2239854916297288
            ]
        },
        {
            "positions": [
                1.4762341329278694,
                -1.8804240743081568,
                -0.3753270303739894,
                -1.5733372346422998,
                0.24401839823679602,
                -1.1005635081864424
            ]
        },
        {
            "positions": [
                1.5315746777688295,
                -1.8543744654645664,
                -0.4859878992255381,
                -1.624940553400105,
                0.2225029401221534,
                -0.9771415247431557
            ]
        },
        {
            "positions": [
                1.5869152226097891,
                -1.8283248566209758,
                -0.5966487680770868,
                -1.6765438721579105,
                0.2009874820075108,
                -0.853719541299869
            ]
        },
        {
            "positions": [
                1.6422557674507492,
                -1.8022752477773853,
                -0.7073096369286355,
                -1.7281471909157156,
                0.17947202389286818,
                -0.7302975578565825
            ]
        },
        {
            "positions": [
                1.697596312291709,
                -1.7762256389337947,
                -0.8179705057801842,
                -1.7797505096735209,
                0.15795656577822553,
                -0.6068755744132959
            ]
        },
        {
            "positions": [
                1.752936857132669,
                -1.7501760300902043,
                -0.9286313746317328,
                -1.8313538284313262,
                0.13644110766358292,
                -0.4834535909700093
            ]
        },
        {
            "positions": [
                1.8082774019736287,
                -1.7241264212466136,
                -1.0392922434832812,
                -1.8829571471891313,
                0.11492564954894036,
                -0.3600316075267229
            ]
        },
        {
            "positions": [
                1.8636179468145886,
                -1.6980768124030232,
                -1.1499531123348299,
                -1.9345604659469369,
                0.09341019143429768,
                -0.23660962408343633
            ]
        },
        {
            "positions": [
                1.9189584916555487,
                -1.6720272035594326,
                -1.2606139811863786,
                -1.986163784704742,
                0.07189473331965507,
                -0.11318764064014974
            ]
        },
        {
            "positions": [
                1.9742990364965085,
                -1.6459775947158422,
                -1.3712748500379273,
                -2.0377671034625475,
                0.05037927520501245,
                0.010234342803136842
            ]
        },
        {
            "positions": [
                2.0296395813374684,
                -1.6199279858722515,
                -1.481935718889476,
                -2.0893704222203526,
                0.028863817090369854,
                0.1336563262464232
            ]
        },
        {
            "positions": [
                2.0844275670411347,
                -1.6112835517836288,
                -1.5306684339520527,
                -2.1218336294379445,
                0.011894197803770944,
                0.25317344468236314
            ]
        },
        {
            "positions": [
                2.139215552744801,
                -1.602639117695006,
                -1.5794011490146294,
                -2.1542968366555364,
                -0.005075421482827962,
                0.37269056311830306
            ]
        },
        {
            "positions": [
                2.204869082313299,
                -1.6041520362836494,
                -1.6210786630381917,
                -2.1888118196022774,
                -0.02642681334387545,
                0.5253186610372806
            ]
        },
        {
            "positions": [
                2.270522611881796,
                -1.6056649548722925,
                -1.662756177061754,
                -2.2233268025490185,
                -0.04777820520492294,
                0.6779467589562581
            ]
        },
        {
            "positions": [
                2.3361761414502933,
                -1.6071778734609357,
                -1.7044336910853166,
                -2.2578417854957595,
                -0.06912959706597044,
                0.8305748568752356
            ]
        },
        {
            "positions": [
                2.401829671018791,
                -1.608690792049579,
                -1.746111205108879,
                -2.2923567684425006,
                -0.09048098892701792,
                0.9832029547942132
            ]
        },
        {
            "positions": [
                2.4486909570310535,
                -1.640220613012548,
                -1.7600727069353148,
                -2.318244166398551,
                -0.12027597863174129,
                1.169207142798753
            ]
        },
        {
            "positions": [
                2.495552243043316,
                -1.6717504339755171,
                -1.7740342087617509,
                -2.3441315643546012,
                -0.15007096833646466,
                1.3552113308032927
            ]
        },
        {
            "positions": [
                2.5424135290555787,
                -1.7032802549384862,
                -1.787995710588187,
                -2.3700189623106516,
                -0.17986595804118805,
                1.5412155188078325
            ]
        },
        {
            "positions": [
                2.589274815067841,
                -1.7348100759014553,
                -1.8019572124146228,
                -2.395906360266702,
                -0.2096609477459114,
                1.7272197068123725
            ]
        },
        {
            "positions": [
                2.6361361010801034,
                -1.7663398968644244,
                -1.8159187142410587,
                -2.4217937582227522,
                -0.2394559374506348,
                1.9132238948169122
            ]
        },
        {
            "positions": [
                2.682997387092366,
                -1.7978697178273935,
                -1.8298802160674947,
                -2.4476811561788026,
                -0.26925092715535814,
                2.099228082821452
            ]
        },
        {
            "positions": [
                2.6893938357914555,
                -1.869847830059362,
                -1.8010759127606797,
                -2.4566371410573633,
                -0.3089881242780332,
                2.311871383928139
            ]
        },
        {
            "positions": [
                2.6957902844905446,
                -1.9418259422913304,
                -1.7722716094538646,
                -2.465593125935924,
                -0.3487253214007082,
                2.5245146850348257
            ]
        },
        {
            "positions": [
                2.702186733189634,
                -2.013804054523299,
                -1.7434673061470494,
                -2.474549110814485,
                -0.3884625185233833,
                2.7371579861415123
            ]
        },
        {
            "positions": [
                2.7085831818887236,
                -2.0857821667552674,
                -1.7146630028402343,
                -2.4835050956930456,
                -0.42819971564605835,
                2.9498012872481993
            ]
        },
        {
            "positions": [
                2.6846391226302924,
                -2.136774149387522,
                -1.6803156018044947,
                -2.477614602777057,
                -0.45081746121273525,
                3.0523387445291865
            ]
        },
        {
            "positions": [
                2.660695063371861,
                -2.1877661320197763,
                -1.645968200768755,
                -2.4717241098610687,
                -0.4734352067794121,
                3.1548762018101737
            ]
        }
    ]
}