{
    "goal": {
        "global_pose": {
            "orientation": {
                "w": 0.5084816217422485,
                "x": -0.49083608388900757,
                "y": 0.5182115435600281,
                "z": -0.4816462993621826
            },
            "position": {
                "x": 0.5540239810943604,
                "y": 0.030875300988554955,
                "z": 0.16403168439865112
            }
        },
        "name": "move_to_storage_A"
    },
    "id": "RRTstar_move_to_storage_A_22",
    "joint_names": [
        "shoulder_pan_joint",
        "shoulder_lift_joint",
        "elbow_joint",
        "wrist_1_joint",
        "wrist_2_joint",
        "wrist_3_joint"
    ],
    "metrics": {
        "cart_traj_len": 0.3531353461493798,
        "distance_elbow_joint": 0.4501706560522374,
        "distance_shoulder_lift_joint": 0.23711055245067558,
        "distance_shoulder_pan_joint": 0.4641134387186208,
        "distance_wrist_1_joint": 0.2389662717962754,
        "distance_wrist_2_joint": 1.0902242238798405,
        "distance_wrist_3_joint": 0.0929674782994292,
        "smoothness": 6.661338165333112e-16,
        "time": 5.001637674,
        "traj_len": 1.604229603640663,
        "weighted_distance": 2.022047989903319
    },
    "planner": "RRTstar",
    "start": {
        "state": {
            "elbow_joint": 1.9715463870305268,
            "shoulder_lift_joint": -1.1394903361783484,
            "shoulder_pan_joint": 0.12281147578464417,
            "wrist_1_joint": -0.7804599489681411,
            "wrist_2_joint": 0.12958660307563738,
            "wrist_3_joint": -3.1924946282119055
        }
    },
    "waypoints": [
        {
            "positions": [
                0.12281147578464417,
                -1.1394903361783484,
                1.9715463870305268,
                -0.7804599489681411,
                0.12958660307563738,
                -3.1924946282119055
            ]
        },
        {
            "positions": [
                0.05650955596769834,
                -1.1733632722427305,
                2.0358564807522748,
                -0.8145979877961804,
                0.28533292077275746,
                -3.1792135598834155
            ]
        },
        {
            "positions": [
                -0.00979236384924749,
                -1.2072362083071129,
                2.100166574474023,
                -0.8487360266242198,
                0.4410792384698775,
                -3.165932491554926
            ]
        },
        {
            "positions": [
                -0.07609428366619332,
                -1.241109144371495,
                2.1644766681957712,
                -0.8828740654522591,
                0.5968255561669976,
                -3.1526514232264358
            ]
        },
        {
            "positions": [
                -0.14239620348313914,
                -1.2749820804358774,
                2.2287867619175197,
                -0.9170121042802984,
                0.7525718738641177,
                -3.139370354897946
            ]
        },
        {
            "positions": [
                -0.20869812330008497,
                -1.3088550165002595,
                2.2930968556392677,
                -0.9511501431083378,
                0.9083181915612378,
                -3.126089286569456
            ]
        },
        {
            "positions": [
                -0.2750000431170308,
                -1.3427279525646418,
                2.3574069493610157,
                -0.9852881819363771,
                1.0640645092583578,
                -3.1128082182409664
            ]
        },
        {
            "positions": [
                -0.34130196293397663,
                -1.376600888629024,
                2.421717043082764,
                -1.0194262207644165,
                1.219810826955478,
                -3.0995271499124764
            ]
        }
    ]
}