{
    "goal": {
        "global_pose": {
            "orientation": {
                "w": 0.7047431468963623,
                "x": -0.7094548344612122,
                "y": 0.0024358443915843964,
                "z": -0.0022348060738295317
            },
            "position": {
                "x": 0.6094750761985779,
                "y": 0.3671506643295288,
                "z": 0.19426114857196808
            }
        },
        "name": "move_to_magneteinheit_A"
    },
    "id": "RRTstar_move_to_magneteinheit_A_15",
    "joint_names": [
        "shoulder_pan_joint",
        "shoulder_lift_joint",
        "elbow_joint",
        "wrist_1_joint",
        "wrist_2_joint",
        "wrist_3_joint"
    ],
    "metrics": {
        "cart_traj_len": 1.8786196984011814,
        "distance_elbow_joint": 3.9123833443609124,
        "distance_shoulder_lift_joint": 0.6999276833392549,
        "distance_shoulder_pan_joint": 1.24150303464031,
        "distance_wrist_1_joint": 1.4886590450923798,
        "distance_wrist_2_joint": 1.7071104128766617,
        "distance_wrist_3_joint": 1.101486187251671,
        "smoothness": 9.210739184522919e-16,
        "time": 5.010173935,
        "traj_len": 3.1860743411855896,
        "weighted_distance": 3.943324934624787
    },
    "planner": "RRTstar",
    "start": {
        "state": {
            "elbow_joint": -1.919643507792019,
            "shoulder_lift_joint": -0.07675430207160344,
            "shoulder_pan_joint": -1.1188671864651873,
            "wrist_1_joint": 0.42560062535961957,
            "wrist_2_joint": 1.5706038300724876,
            "wrist_3_joint": 1.1188968870953055
        }
    },
    "waypoints": [
        {
            "positions": [
                -1.1188671864651873,
                -0.07675430207160344,
                -1.919643507792019,
                0.42560062535961957,
                1.5706038300724876,
                1.1188968870953055
            ]
        },
        {
            "positions": [
                -1.0711170697482524,
                -0.10367459758465171,
                -1.7691672253165993,
                0.48285674247855725,
                1.5049457372695392,
                1.0765320337394721
            ]
        },
        {
            "positions": [
                -1.0233669530313174,
                -0.13059489309769998,
                -1.6186909428411798,
                0.5401128595974949,
                1.4392876444665905,
                1.0341671803836385
            ]
        },
        {
            "positions": [
                -0.9756168363143823,
                -0.15751518861074826,
                -1.46821466036576,
                0.5973689767164326,
                1.373629551663642,
                0.991802327027805
            ]
        },
        {
            "positions": [
                -0.9278667195974474,
                -0.1844354841237965,
                -1.3177383778903402,
                0.6546250938353704,
                1.3079714588606934,
                0.9494374736719715
            ]
        },
        {
            "positions": [
                -0.8801166028805123,
                -0.2113557796368448,
                -1.1672620954149204,
                0.711881210954308,
                1.242313366057745,
                0.907072620316138
            ]
        },
        {
            "positions": [
                -0.8323664861635773,
                -0.23827607514989305,
                -1.0167858129395007,
                0.7691373280732456,
                1.1766552732547964,
                0.8647077669603045
            ]
        },
        {
            "positions": [
                -0.7846163694466424,
                -0.2651963706629413,
                -0.8663095304640811,
                0.8263934451921833,
                1.110997180451848,
                0.8223429136044711
            ]
        },
        {
            "positions": [
                -0.7368662527297074,
                -0.2921166661759896,
                -0.7158332479886613,
                0.8836495623111211,
                1.0453390876488995,
                0.7799780602486375
            ]
        },
        {
            "positions": [
                -0.6891161360127724,
                -0.31903696168903783,
                -0.5653569655132418,
                0.9409056794300588,
                0.979680994845951,
                0.7376132068928041
            ]
        },
        {
            "positions": [
                -0.6413660192958373,
                -0.34595725720208614,
                -0.414880683037822,
                0.9981617965489964,
                0.9140229020430023,
                0.6952483535369705
            ]
        },
        {
            "positions": [
                -0.5936159025789024,
                -0.37287755271513434,
                -0.2644044005624022,
                1.055417913667934,
                0.8483648092400539,
                0.652883500181137
            ]
        },
        {
            "positions": [
                -0.5458657858619673,
                -0.39979784822818265,
                -0.11392811808698244,
                1.1126740307868719,
                0.7827067164371052,
                0.6105186468253035
            ]
        },
        {
            "positions": [
                -0.49811566914503236,
                -0.4267181437412309,
                0.03654816438843711,
                1.1699301479058095,
                0.7170486236341568,
                0.56815379346947
            ]
        },
        {
            "positions": [
                -0.4503655524280974,
                -0.45363843925427916,
                0.18702444686385689,
                1.2271862650247471,
                0.6513905308312083,
                0.5257889401136365
            ]
        },
        {
            "positions": [
                -0.40261543571116243,
                -0.4805587347673274,
                0.3375007293392762,
                1.2844423821436848,
                0.5857324380282598,
                0.48342408675780313
            ]
        },
        {
            "positions": [
                -0.35486531899422735,
                -0.5074790302803758,
                0.48797701181469644,
                1.3416984992626226,
                0.5200743452253112,
                0.4410592334019695
            ]
        },
        {
            "positions": [
                -0.3071152022772924,
                -0.534399325793424,
                0.6384532942901158,
                1.3989546163815603,
                0.4544162524223627,
                0.398694380046136
            ]
        },
        {
            "positions": [
                -0.2593650855603574,
                -0.5613196213064722,
                0.7889295767655355,
                1.456210733500498,
                0.3887581596194143,
                0.3563295266903026
            ]
        },
        {
            "positions": [
                -0.21161496884342246,
                -0.5882399168195205,
                0.9394058592409553,
                1.5134668506194355,
                0.32310006681646564,
                0.3139646733344691
            ]
        },
        {
            "positions": [
                -0.16386485212648727,
                -0.6151602123325688,
                1.089882141716375,
                1.5707229677383734,
                0.257441974013517,
                0.27159981997863547
            ]
        },
        {
            "positions": [
                -0.11611473540955242,
                -0.6420805078456171,
                1.2403584241917949,
                1.627979084857311,
                0.19178388121056855,
                0.22923496662280196
            ]
        },
        {
            "positions": [
                -0.06836461869261745,
                -0.6690008033586652,
                1.3908347066672146,
                1.6852352019762487,
                0.12612578840762012,
                0.18687011326696856
            ]
        },
        {
            "positions": [
                -0.020614501975682487,
                -0.6959210988717135,
                1.541310989142634,
                1.7424913190951863,
                0.06046769560467169,
                0.14450525991113505
            ]
        },
        {
            "positions": [
                0.0271356147412527,
                -0.7228413943847618,
                1.6917872716180542,
                1.7997474362141241,
                -0.005190397198277186,
                0.10214040655530154
            ]
        },
        {
            "positions": [
                0.07488573145818767,
                -0.7497616898978101,
                1.8422635540934735,
                1.8570035533330618,
                -0.07084849000122562,
                0.05977555319946792
            ]
        },
        {
            "positions": [
                0.12263584817512271,
                -0.7766819854108584,
                1.9927398365688933,
                1.9142596704519994,
                -0.1365065828041741,
                0.017410699843634442
            ]
        }
    ]
}