{
    "goal": {
        "global_pose": {
            "orientation": {
                "w": 0.5084816217422485,
                "x": -0.49083608388900757,
                "y": 0.5182115435600281,
                "z": -0.4816462993621826
            },
            "position": {
                "x": 0.5540239810943604,
                "y": 0.030875300988554955,
                "z": 0.16403168439865112
            }
        },
        "name": "move_to_storage_A"
    },
    "id": "RRTstar_move_to_storage_A_119",
    "joint_names": [
        "shoulder_pan_joint",
        "shoulder_lift_joint",
        "elbow_joint",
        "wrist_1_joint",
        "wrist_2_joint",
        "wrist_3_joint"
    ],
    "metrics": {
        "cart_traj_len": 0.35290718589187875,
        "distance_elbow_joint": 0.45026237981386563,
        "distance_shoulder_lift_joint": 0.23366570743490978,
        "distance_shoulder_pan_joint": 0.4610019459264527,
        "distance_wrist_1_joint": 0.24433741030150846,
        "distance_wrist_2_joint": 1.1002991831702447,
        "distance_wrist_3_joint": 0.08796127026533185,
        "smoothness": 6.661338165333112e-16,
        "time": 5.0074750969999995,
        "traj_len": 1.605468123916608,
        "weighted_distance": 2.024373243973238
    },
    "planner": "RRTstar",
    "start": {
        "state": {
            "elbow_joint": 1.9715463870305268,
            "shoulder_lift_joint": -1.1394903361783484,
            "shoulder_pan_joint": 0.12281147578464417,
            "wrist_1_joint": -0.7804599489681411,
            "wrist_2_joint": 0.12958660307563738,
            "wrist_3_joint": -3.1924946282119055
        }
    },
    "waypoints": [
        {
            "positions": [
                0.12281147578464417,
                -1.1394903361783484,
                1.9715463870305268,
                -0.7804599489681411,
                0.12958660307563738,
                -3.1924946282119055
            ]
        },
        {
            "positions": [
                0.05695405493800808,
                -1.1728711515261927,
                2.035869584146793,
                -0.815365293296928,
                0.28677220067138665,
                -3.1799287324597154
            ]
        },
        {
            "positions": [
                -0.008903365908628016,
                -1.2062519668740368,
                2.10019278126306,
                -0.850270637625715,
                0.4439577982671359,
                -3.167362836707525
            ]
        },
        {
            "positions": [
                -0.07476078675526411,
                -1.2396327822218811,
                2.164515978379326,
                -0.8851759819545019,
                0.6011433958628851,
                -3.1547969409553347
            ]
        },
        {
            "positions": [
                -0.1406182076019002,
                -1.2730135975697254,
                2.228839175495593,
                -0.9200813262832888,
                0.7583289934586344,
                -3.1422310452031446
            ]
        },
        {
            "positions": [
                -0.20647562844853634,
                -1.3063944129175697,
                2.2931623726118593,
                -0.9549866706120758,
                0.9155145910543836,
                -3.1296651494509544
            ]
        },
        {
            "positions": [
                -0.2723330492951724,
                -1.3397752282654138,
                2.3574855697281256,
                -0.9898920149408625,
                1.0727001886501328,
                -3.117099253698764
            ]
        },
        {
            "positions": [
                -0.33819047014180853,
                -1.3731560436132582,
                2.4218087668443924,
                -1.0247973592696495,
                1.229885786245882,
                -3.1045333579465737
            ]
        }
    ]
}