{
    "goal": {
        "global_pose": {
            "orientation": {
                "w": 0.7031023502349854,
                "x": -0.7110244035720825,
                "y": 0.007748599164187908,
                "z": 0.005598929710686207
            },
            "position": {
                "x": 0.11585023208521307,
                "y": 0.44412534475326537,
                "z": 0.3711530566215515
            }
        },
        "name": "move_to_auspresseinheit_A"
    },
    "id": "RRTstar_move_to_auspresseinheit_A_34",
    "joint_names": [
        "shoulder_pan_joint",
        "shoulder_lift_joint",
        "elbow_joint",
        "wrist_1_joint",
        "wrist_2_joint",
        "wrist_3_joint"
    ],
    "metrics": {
        "cart_traj_len": 0.8219619762621438,
        "distance_elbow_joint": 0.28191002166926094,
        "distance_shoulder_lift_joint": 0.5335510243453869,
        "distance_shoulder_pan_joint": 1.1699364594909971,
        "distance_wrist_1_joint": 0.564182364608265,
        "distance_wrist_2_joint": 1.1129334100493553,
        "distance_wrist_3_joint": 0.16334134744840023,
        "smoothness": 0.731205480362572,
        "time": 5.005691738,
        "traj_len": 1.9559791991766335,
        "weighted_distance": 2.414467456224268
    },
    "planner": "RRTstar",
    "start": {
        "state": {
            "elbow_joint": 2.422574709923281,
            "shoulder_lift_joint": -1.3736533754116391,
            "shoulder_pan_joint": -0.33786336945926293,
            "wrist_1_joint": -1.0288603412921917,
            "wrist_2_joint": 1.2330224858903978,
            "wrist_3_joint": -3.094022268022082
        }
    },
    "waypoints": [
        {
            "positions": [
                -0.33786336945926293,
                -1.3736533754116391,
                2.422574709923281,
                -1.0288603412921917,
                1.2330224858903978,
                -3.094022268022082
            ]
        },
        {
            "positions": [
                -0.35071240589458336,
                -1.4411038265884284,
                2.3913078498578164,
                -0.9748064150703643,
                1.0682057296103242,
                -3.115592943214094
            ]
        },
        {
            "positions": [
                -0.36356144232990373,
                -1.5085542777652177,
                2.3600409897923518,
                -0.9207524888485368,
                0.9033889733302505,
                -3.1371636184061056
            ]
        },
        {
            "positions": [
                -0.37641047876522415,
                -1.5760047289420067,
                2.328774129726887,
                -0.8666985626267094,
                0.738572217050177,
                -3.1587342935981173
            ]
        },
        {
            "positions": [
                -0.3892595152005446,
                -1.643455180118796,
                2.2975072696614225,
                -0.8126446364048819,
                0.5737554607701033,
                -3.180304968790129
            ]
        },
        {
            "positions": [
                -0.40210855163586495,
                -1.7109056312955853,
                2.266240409595958,
                -0.7585907101830545,
                0.4089387044900298,
                -3.2018756439821408
            ]
        },
        {
            "positions": [
                -0.2178266720834658,
                -1.7436220927058255,
                2.2871696964862807,
                -0.7096052545998666,
                0.457080309264861,
                -3.1926276487340837
            ]
        },
        {
            "positions": [
                -0.033544792531066625,
                -1.7763385541160654,
                2.308098983376604,
                -0.6606197990166786,
                0.5052219140396922,
                -3.183379653486027
            ]
        },
        {
            "positions": [
                0.15073708702133254,
                -1.8090550155263057,
                2.3290282702669267,
                -0.6116343434334905,
                0.5533635188145234,
                -3.17413165823797
            ]
        },
        {
            "positions": [
                0.3350189665737317,
                -1.8417714769365459,
                2.3499575571572495,
                -0.5626488878503026,
                0.6015051235893546,
                -3.164883662989913
            ]
        },
        {
            "positions": [
                0.5193008461261308,
                -1.8744879383467858,
                2.3708868440475728,
                -0.5136634322671148,
                0.6496467283641858,
                -3.155635667741856
            ]
        },
        {
            "positions": [
                0.70358272567853,
                -1.907204399757026,
                2.3918161309378956,
                -0.46467797668392674,
                0.697788333139017,
                -3.146387672493799
            ]
        }
    ]
}