{
    "goal": {
        "global_pose": {
            "orientation": {
                "w": 0.7031023502349854,
                "x": -0.7110244035720825,
                "y": 0.007748599164187908,
                "z": 0.005598929710686207
            },
            "position": {
                "x": 0.11585023208521307,
                "y": 0.44412534475326537,
                "z": 0.3711530566215515
            }
        },
        "name": "move_to_auspresseinheit_A"
    },
    "id": "RRTstar_move_to_auspresseinheit_A_108",
    "joint_names": [
        "shoulder_pan_joint",
        "shoulder_lift_joint",
        "elbow_joint",
        "wrist_1_joint",
        "wrist_2_joint",
        "wrist_3_joint"
    ],
    "metrics": {
        "cart_traj_len": 0.8487389002478855,
        "distance_elbow_joint": 0.24306120012757892,
        "distance_shoulder_lift_joint": 1.182114883057054,
        "distance_shoulder_pan_joint": 1.3666529990743546,
        "distance_wrist_1_joint": 0.55128341527595,
        "distance_wrist_2_joint": 0.5907739933412732,
        "distance_wrist_3_joint": 0.08191256458016039,
        "smoothness": 1.148828333186682,
        "time": 5.006103918,
        "traj_len": 2.0039458713888387,
        "weighted_distance": 2.3068770216970638
    },
    "planner": "RRTstar",
    "start": {
        "state": {
            "elbow_joint": 2.422574709923281,
            "shoulder_lift_joint": -1.3736533754116391,
            "shoulder_pan_joint": -0.33786336945926293,
            "wrist_1_joint": -1.0288603412921917,
            "wrist_2_joint": 1.2330224858903978,
            "wrist_3_joint": -3.094022268022082
        }
    },
    "waypoints": [
        {
            "positions": [
                -0.33786336945926293,
                -1.3736533754116391,
                2.422574709923281,
                -1.0288603412921917,
                1.2330224858903978,
                -3.094022268022082
            ]
        },
        {
            "positions": [
                -0.1653038826312674,
                -1.4963423878081954,
                2.4379702431458457,
                -0.9788340418268692,
                1.238777811722245,
                -3.090224380829307
            ]
        },
        {
            "positions": [
                0.007255604196728105,
                -1.6190314002047517,
                2.45336577636841,
                -0.9288077423615466,
                1.2445331375540922,
                -3.086426493636531
            ]
        },
        {
            "positions": [
                0.17981509102472365,
                -1.7417204126013077,
                2.4687613095909744,
                -0.8787814428962242,
                1.2502884633859395,
                -3.082628606443756
            ]
        },
        {
            "positions": [
                0.35237457785271914,
                -1.864409424997864,
                2.484156842813539,
                -0.8287551434309016,
                1.2560437892177865,
                -3.0788307192509805
            ]
        },
        {
            "positions": [
                0.5249340646807148,
                -1.9870984373944203,
                2.4995523760361036,
                -0.7787288439655791,
                1.2617991150496337,
                -3.075032832058205
            ]
        },
        {
            "positions": [
                0.6974935515087102,
                -2.1097874497909768,
                2.5149479092586677,
                -0.7287025445002565,
                1.267554440881481,
                -3.0712349448654295
            ]
        },
        {
            "positions": [
                0.8700530383367058,
                -2.232476462187533,
                2.5303434424812323,
                -0.678676245034934,
                1.2733097667133282,
                -3.067437057672654
            ]
        },
        {
            "positions": [
                0.8303688905171094,
                -2.1516535131172425,
                2.4965203255888255,
                -0.6284014152802608,
                1.1356880885837426,
                -3.081268896230337
            ]
        },
        {
            "positions": [
                0.790684742697513,
                -2.0708305640469526,
                2.4626972086964187,
                -0.5781265855255878,
                0.9980664104541568,
                -3.09510073478802
            ]
        },
        {
            "positions": [
                0.7510005948779165,
                -1.9900076149766626,
                2.4288740918040115,
                -0.5278517557709148,
                0.8604447323245711,
                -3.1089325733457036
            ]
        },
        {
            "positions": [
                0.7113164470583201,
                -1.9091846659063725,
                2.3950509749116047,
                -0.4775769260162417,
                0.7228230541949854,
                -3.1227644119033866
            ]
        }
    ]
}