{
    "goal": {
        "global_pose": {
            "orientation": {
                "w": 0.7047431468963623,
                "x": -0.7094548344612122,
                "y": 0.0024358443915843964,
                "z": -0.0022348060738295317
            },
            "position": {
                "x": 0.6094750761985779,
                "y": 0.3671506643295288,
                "z": 0.19426114857196808
            }
        },
        "name": "move_to_magneteinheit_A"
    },
    "id": "RRTstar_move_to_magneteinheit_A_11",
    "joint_names": [
        "shoulder_pan_joint",
        "shoulder_lift_joint",
        "elbow_joint",
        "wrist_1_joint",
        "wrist_2_joint",
        "wrist_3_joint"
    ],
    "metrics": {
        "cart_traj_len": 2.0622577058397673,
        "distance_elbow_joint": 3.8737800968106213,
        "distance_shoulder_lift_joint": 1.053377253606148,
        "distance_shoulder_pan_joint": 1.2409038380645192,
        "distance_wrist_1_joint": 1.1305121269322043,
        "distance_wrist_2_joint": 1.4471789846389609,
        "distance_wrist_3_joint": 1.896903416587615,
        "smoothness": 4.440892097876411e-16,
        "time": 5.006266671,
        "traj_len": 3.2623083417482275,
        "weighted_distance": 4.124821652070119
    },
    "planner": "RRTstar",
    "start": {
        "state": {
            "elbow_joint": -1.919643507792019,
            "shoulder_lift_joint": -0.07675430207160344,
            "shoulder_pan_joint": -1.1188671864651873,
            "wrist_1_joint": 0.42560062535961957,
            "wrist_2_joint": 1.5706038300724876,
            "wrist_3_joint": 1.1188968870953055
        }
    },
    "waypoints": [
        {
            "positions": [
                -1.1188671864651873,
                -0.07675430207160344,
                -1.919643507792019,
                0.42560062535961957,
                1.5706038300724876,
                1.1188968870953055
            ]
        },
        {
            "positions": [
                -1.0729077850553903,
                -0.1157682744273867,
                -1.7761701708731072,
                0.383729805843612,
                1.5170046084191928,
                1.189152569191143
            ]
        },
        {
            "positions": [
                -1.0269483836455933,
                -0.15478224678316996,
                -1.6326968339541952,
                0.3418589863276045,
                1.4634053867658978,
                1.2594082512869806
            ]
        },
        {
            "positions": [
                -0.9809889822357963,
                -0.19379621913895323,
                -1.4892234970352833,
                0.2999881668115969,
                1.409806165112603,
                1.3296639333828184
            ]
        },
        {
            "positions": [
                -0.9350295808259993,
                -0.23281019149473647,
                -1.3457501601163715,
                0.25811734729558933,
                1.3562069434593083,
                1.399919615478656
            ]
        },
        {
            "positions": [
                -0.8890701794162024,
                -0.2718241638505198,
                -1.2022768231974597,
                0.21624652777958175,
                1.3026077218060133,
                1.4701752975744935
            ]
        },
        {
            "positions": [
                -0.8431107780064053,
                -0.310838136206303,
                -1.0588034862785478,
                0.17437570826357418,
                1.2490085001527185,
                1.540430979670331
            ]
        },
        {
            "positions": [
                -0.7971513765966083,
                -0.34985210856208626,
                -0.9153301493596357,
                0.1325048887475666,
                1.1954092784994237,
                1.6106866617661688
            ]
        },
        {
            "positions": [
                -0.7511919751868112,
                -0.3888660809178695,
                -0.7718568124407239,
                0.09063406923155909,
                1.141810056846129,
                1.6809423438620064
            ]
        },
        {
            "positions": [
                -0.7052325737770143,
                -0.4278800532736528,
                -0.6283834755218121,
                0.048763249715551515,
                1.0882108351928341,
                1.751198025957844
            ]
        },
        {
            "positions": [
                -0.6592731723672173,
                -0.46689402562943605,
                -0.4849101386029002,
                0.006892430199543942,
                1.0346116135395391,
                1.8214537080536815
            ]
        },
        {
            "positions": [
                -0.6133137709574203,
                -0.5059079979852192,
                -0.3414368016839884,
                -0.03497838931646363,
                0.9810123918862443,
                1.891709390149519
            ]
        },
        {
            "positions": [
                -0.5673543695476233,
                -0.5449219703410026,
                -0.1979634647650763,
                -0.0768492088324712,
                0.9274131702329494,
                1.9619650722453565
            ]
        },
        {
            "positions": [
                -0.5213949681378263,
                -0.5839359426967858,
                -0.05449012784616447,
                -0.11872002834847878,
                0.8738139485796547,
                2.032220754341194
            ]
        },
        {
            "positions": [
                -0.4754355667280292,
                -0.622949915052569,
                0.0889832090727476,
                -0.16059084786448635,
                0.8202147269263598,
                2.1024764364370316
            ]
        },
        {
            "positions": [
                -0.4294761653182322,
                -0.6619638874083524,
                0.23245654599165966,
                -0.20246166738049393,
                0.7666155052730649,
                2.1727321185328696
            ]
        },
        {
            "positions": [
                -0.38351676390843525,
                -0.7009778597641356,
                0.3759298829105713,
                -0.2443324868965014,
                0.7130162836197701,
                2.2429878006287067
            ]
        },
        {
            "positions": [
                -0.3375573624986382,
                -0.739991832119919,
                0.5194032198294833,
                -0.2862033064125091,
                0.6594170619664752,
                2.3132434827245447
            ]
        },
        {
            "positions": [
                -0.2915979610888413,
                -0.7790058044757022,
                0.662876556748395,
                -0.32807412592851654,
                0.6058178403131804,
                2.3834991648203823
            ]
        },
        {
            "positions": [
                -0.24563855967904413,
                -0.8180197768314854,
                0.806349893667307,
                -0.3699449454445242,
                0.5522186186598854,
                2.45375484691622
            ]
        },
        {
            "positions": [
                -0.1996791582692472,
                -0.8570337491872686,
                0.9498232305862186,
                -0.4118157649605317,
                0.49861939700659064,
                2.5240105290120574
            ]
        },
        {
            "positions": [
                -0.15371975685945016,
                -0.896047721543052,
                1.0932965675051307,
                -0.45368658447653937,
                0.44502017535329585,
                2.594266211107895
            ]
        },
        {
            "positions": [
                -0.10776035544965334,
                -0.9350616938988352,
                1.2367699044240423,
                -0.49555740399254683,
                0.3914209537000011,
                2.664521893203733
            ]
        },
        {
            "positions": [
                -0.06180095403985608,
                -0.9740756662546184,
                1.3802432413429548,
                -0.5374282235085543,
                0.33782173204670607,
                2.73477757529957
            ]
        },
        {
            "positions": [
                -0.015841552630059264,
                -1.0130896386104018,
                1.5237165782618665,
                -0.5792990430245619,
                0.2842225103934113,
                2.805033257395408
            ]
        },
        {
            "positions": [
                0.030117848779737777,
                -1.052103610966185,
                1.6671899151807785,
                -0.6211698625405695,
                0.2306232887401165,
                2.8752889394912455
            ]
        },
        {
            "positions": [
                0.07607725018953482,
                -1.0911175833219682,
                1.8106632520996901,
                -0.6630406820565771,
                0.17702406708682172,
                2.945544621587083
            ]
        },
        {
            "positions": [
                0.12203665159933191,
                -1.1301315556777516,
                1.9541365890186022,
                -0.7049115015725846,
                0.1234248454335267,
                3.0158003036829206
            ]
        }
    ]
}