{
    "goal": {
        "global_pose": {
            "orientation": {
                "w": -0.00223480608172531,
                "x": 0.0024358444001904467,
                "y": 0.7094548369677653,
                "z": -0.704743149386269
            },
            "position": {
                "x": 0.6205249238014221,
                "y": -0.6371506643295288,
                "z": 0.19426114857196808
            }
        },
        "name": "move_to_magneteinheit_B"
    },
    "id": "RRTstar_move_to_magneteinheit_B_125",
    "joint_names": [
        "shoulder_pan_joint",
        "shoulder_lift_joint",
        "elbow_joint",
        "wrist_1_joint",
        "wrist_2_joint",
        "wrist_3_joint"
    ],
    "metrics": {
        "cart_traj_len": 3.0784336357474467,
        "distance_elbow_joint": 4.4674087457623095,
        "distance_shoulder_lift_joint": 1.3207301477375943,
        "distance_shoulder_pan_joint": 3.4885726361084,
        "distance_wrist_1_joint": 3.052467510219707,
        "distance_wrist_2_joint": 1.181580237605492,
        "distance_wrist_3_joint": 3.130095951132878,
        "smoothness": 0.5855731118116236,
        "time": 5.039800808,
        "traj_len": 4.079320437103021,
        "weighted_distance": 5.209135713211678
    },
    "planner": "RRTstar",
    "start": {
        "state": {
            "elbow_joint": 2.39358713078474,
            "shoulder_lift_joint": -1.908514104345545,
            "shoulder_pan_joint": 0.7066247066606129,
            "wrist_1_joint": -0.4678290933515497,
            "wrist_2_joint": 0.7096259083745334,
            "wrist_3_joint": -3.1358149277392293
        }
    },
    "waypoints": [
        {
            "positions": [
                0.7066247066606129,
                -1.908514104345545,
                2.39358713078474,
                -0.4678290933515497,
                0.7096259083745334,
                -3.1358149277392293
            ]
        },
        {
            "positions": [
                0.642993884496371,
                -1.9649916708064852,
                2.4044579172471034,
                -0.34209903969274535,
                0.7355246480888222,
                -3.0370397075785016
            ]
        },
        {
            "positions": [
                0.5793630623321291,
                -2.0214692372674254,
                2.415328703709467,
                -0.21636898603394106,
                0.7614233878031109,
                -2.938264487417774
            ]
        },
        {
            "positions": [
                0.5157322401678871,
                -2.0779468037283655,
                2.4261994901718302,
                -0.0906389323751367,
                0.7873221275173997,
                -2.839489267257046
            ]
        },
        {
            "positions": [
                0.4521014180036452,
                -2.134424370189306,
                2.4370702766341936,
                0.03509112128366759,
                0.8132208672316884,
                -2.7407140470963185
            ]
        },
        {
            "positions": [
                0.3884705958394032,
                -2.190901936650246,
                2.4479410630965575,
                0.160821174942472,
                0.8391196069459772,
                -2.6419388269355903
            ]
        },
        {
            "positions": [
                0.32483977367516126,
                -2.2473795031111865,
                2.458811849558921,
                0.2865512286012763,
                0.8650183466602659,
                -2.543163606774863
            ]
        },
        {
            "positions": [
                0.26120895151091933,
                -2.3038570695721265,
                2.4696826360212842,
                0.4122812822600806,
                0.8909170863745547,
                -2.444388386614135
            ]
        },
        {
            "positions": [
                0.1975781293466774,
                -2.360334636033067,
                2.4805534224836476,
                0.538011335918885,
                0.9168158260888434,
                -2.3456131664534072
            ]
        },
        {
            "positions": [
                0.13394730718243542,
                -2.416812202494007,
                2.491424208946011,
                0.6637413895776892,
                0.9427145658031322,
                -2.2468379462926795
            ]
        },
        {
            "positions": [
                0.2328712815806505,
                -2.3998049399921584,
                2.3866365158321923,
                0.715105503814262,
                0.9172260811441234,
                -2.158115913543628
            ]
        },
        {
            "positions": [
                0.3317952559788656,
                -2.3827976774903097,
                2.2818488227183735,
                0.7664696180508346,
                0.8917375964851146,
                -2.0693938807945758
            ]
        },
        {
            "positions": [
                0.43071923037708065,
                -2.365790414988461,
                2.177061129604555,
                0.8178337322874073,
                0.8662491118261059,
                -1.980671848045524
            ]
        },
        {
            "positions": [
                0.5296432047752957,
                -2.348783152486612,
                2.072273436490736,
                0.86919784652398,
                0.8407606271670971,
                -1.8919498152964722
            ]
        },
        {
            "positions": [
                0.6285671791735108,
                -2.331775889984763,
                1.967485743376917,
                0.9205619607605526,
                0.8152721425080882,
                -1.8032277825474203
            ]
        },
        {
            "positions": [
                0.7274911535717259,
                -2.3147686274829145,
                1.8626980502630983,
                0.9719260749971254,
                0.7897836578490796,
                -1.7145057497983687
            ]
        },
        {
            "positions": [
                0.826415127969941,
                -2.2977613649810658,
                1.7579103571492796,
                1.023290189233698,
                0.7642951731900707,
                -1.6257837170493168
            ]
        },
        {
            "positions": [
                0.9253391023681561,
                -2.280754102479217,
                1.6531226640354606,
                1.074654303470271,
                0.7388066885310619,
                -1.537061684300265
            ]
        },
        {
            "positions": [
                1.0242630767663712,
                -2.2637468399773684,
                1.5483349709216419,
                1.1260184177068435,
                0.7133182038720531,
                -1.448339651551213
            ]
        },
        {
            "positions": [
                1.123187051164586,
                -2.2467395774755197,
                1.443547277807823,
                1.1773825319434161,
                0.6878297192130444,
                -1.3596176188021614
            ]
        },
        {
            "positions": [
                1.2221110255628012,
                -2.2297323149736705,
                1.3387595846940044,
                1.2287466461799887,
                0.6623412345540356,
                -1.2708955860531095
            ]
        },
        {
            "positions": [
                1.3210349999610163,
                -2.212725052471822,
                1.2339718915801856,
                1.2801107604165614,
                0.6368527498950268,
                -1.1821735533040578
            ]
        },
        {
            "positions": [
                1.4199589743592314,
                -2.195717789969973,
                1.1291841984663666,
                1.3314748746531344,
                0.6113642652360181,
                -1.0934515205550057
            ]
        },
        {
            "positions": [
                1.5188829487574464,
                -2.1787105274681244,
                1.0243965053525481,
                1.382838988889707,
                0.5858757805770093,
                -1.004729487805954
            ]
        },
        {
            "positions": [
                1.6178069231556615,
                -2.1617032649662757,
                0.9196088122387294,
                1.4342031031262796,
                0.5603872959180005,
                -0.9160074550569024
            ]
        },
        {
            "positions": [
                1.7167308975538766,
                -2.144696002464427,
                0.8148211191249104,
                1.4855672173628522,
                0.5348988112589916,
                -0.8272854223078503
            ]
        },
        {
            "positions": [
                1.8156548719520917,
                -2.1276887399625783,
                0.7100334260110917,
                1.5369313315994249,
                0.509410326599983,
                -0.7385633895587986
            ]
        },
        {
            "positions": [
                1.9145788463503068,
                -2.110681477460729,
                0.6052457328972727,
                1.588295445835998,
                0.4839218419409741,
                -0.6498413568097465
            ]
        },
        {
            "positions": [
                2.013502820748522,
                -2.0936742149588805,
                0.5004580397834539,
                1.6396595600725705,
                0.4584333572819653,
                -0.5611193240606949
            ]
        },
        {
            "positions": [
                2.112426795146737,
                -2.076666952457032,
                0.3956703466696352,
                1.6910236743091431,
                0.43294487262295656,
                -0.4723972913116432
            ]
        },
        {
            "positions": [
                2.211350769544952,
                -2.059659689955183,
                0.29088265355581644,
                1.7423877885457157,
                0.4074563879639478,
                -0.3836752585625911
            ]
        },
        {
            "positions": [
                2.3102747439431672,
                -2.0426524274533344,
                0.1860949604419977,
                1.7937519027822884,
                0.381967903304939,
                -0.29495322581353944
            ]
        },
        {
            "positions": [
                2.3647337470930214,
                -2.0669239295096764,
                -0.009641107670257165,
                1.7310946668458487,
                0.3673923851253053,
                -0.27474726652178233
            ]
        },
        {
            "positions": [
                2.4191927502428756,
                -2.091195431566019,
                -0.20537717578251202,
                1.668437430909409,
                0.35281686694567155,
                -0.2545413072300252
            ]
        },
        {
            "positions": [
                2.4736517533927302,
                -2.115466933622361,
                -0.4011132438947669,
                1.6057801949729693,
                0.33824134876603784,
                -0.2343353479382681
            ]
        },
        {
            "positions": [
                2.5281107565425844,
                -2.1397384356787033,
                -0.5968493120070217,
                1.5431229590365296,
                0.3236658305864041,
                -0.214129388646511
            ]
        },
        {
            "positions": [
                2.5825697596924386,
                -2.1640099377350452,
                -0.7925853801192766,
                1.48046572310009,
                0.3090903124067704,
                -0.19392342935475387
            ]
        },
        {
            "positions": [
                2.637028762842293,
                -2.1882814397913872,
                -0.9883214482315315,
                1.4178084871636503,
                0.29451479422713667,
                -0.17371747006299676
            ]
        },
        {
            "positions": [
                2.691487765992147,
                -2.2125529418477297,
                -1.1840575163437863,
                1.3551512512272106,
                0.2799392760475029,
                -0.15351151077123965
            ]
        },
        {
            "positions": [
                2.7459467691420016,
                -2.2368244439040716,
                -1.3797935844560412,
                1.292494015290771,
                0.2653637578678692,
                -0.13330555147948253
            ]
        },
        {
            "positions": [
                2.800405772291856,
                -2.261095945960414,
                -1.575529652568296,
                1.2298367793543312,
                0.2507882396882355,
                -0.11309959218772542
            ]
        },
        {
            "positions": [
                2.85486477544171,
                -2.285367448016756,
                -1.7712657206805509,
                1.1671795434178915,
                0.23621272150860173,
                -0.0928936328959683
            ]
        },
        {
            "positions": [
                2.7898721859847275,
                -2.350553199345102,
                -1.7356384746890585,
                1.1124081585107346,
                0.3168759668027226,
                -0.0638354141327621
            ]
        },
        {
            "positions": [
                2.7248795965277446,
                -2.415738950673448,
                -1.700011228697566,
                1.0576367736035774,
                0.3975392120968435,
                -0.03477719536955589
            ]
        },
        {
            "positions": [
                2.659887007070762,
                -2.480924702001794,
                -1.6643839827060736,
                1.0028653886964205,
                0.47820245739096445,
                -0.005718976606349678
            ]
        }
    ]
}