{
    "goal": {
        "global_pose": {
            "orientation": {
                "w": 0.5084816217422485,
                "x": -0.49083608388900757,
                "y": 0.5182115435600281,
                "z": -0.4816462993621826
            },
            "position": {
                "x": 0.5540239810943604,
                "y": 0.030875300988554955,
                "z": 0.16403168439865112
            }
        },
        "name": "move_to_storage_A"
    },
    "id": "RRTstar_move_to_storage_A_16",
    "joint_names": [
        "shoulder_pan_joint",
        "shoulder_lift_joint",
        "elbow_joint",
        "wrist_1_joint",
        "wrist_2_joint",
        "wrist_3_joint"
    ],
    "metrics": {
        "cart_traj_len": 0.35315639148149425,
        "distance_elbow_joint": 0.448511092762236,
        "distance_shoulder_lift_joint": 0.2353770092790386,
        "distance_shoulder_pan_joint": 0.46360956238698325,
        "distance_wrist_1_joint": 0.2350435492489643,
        "distance_wrist_2_joint": 1.0914972854169132,
        "distance_wrist_3_joint": 0.08562318104716837,
        "smoothness": 4.440892133664971e-16,
        "time": 5.0005691830000005,
        "traj_len": 1.5998942715508746,
        "weighted_distance": 2.0143110179169246
    },
    "planner": "RRTstar",
    "start": {
        "state": {
            "elbow_joint": 1.9715463870305268,
            "shoulder_lift_joint": -1.1394903361783484,
            "shoulder_pan_joint": 0.12281147578464417,
            "wrist_1_joint": -0.7804599489681411,
            "wrist_2_joint": 0.12958660307563738,
            "wrist_3_joint": -3.1924946282119055
        }
    },
    "waypoints": [
        {
            "positions": [
                0.12281147578464417,
                -1.1394903361783484,
                1.9715463870305268,
                -0.7804599489681411,
                0.12958660307563738,
                -3.1924946282119055
            ]
        },
        {
            "positions": [
                0.05658153830078942,
                -1.173115623218211,
                2.035619400282275,
                -0.8140375988608503,
                0.285514786706625,
                -3.1802627452051673
            ]
        },
        {
            "positions": [
                -0.009648399183065329,
                -1.2067409102580737,
                2.0996924135340227,
                -0.8476152487535594,
                0.4414429703376126,
                -3.168030862198429
            ]
        },
        {
            "positions": [
                -0.07587833666692008,
                -1.2403661972979363,
                2.163765426785771,
                -0.8811928986462686,
                0.5973711539686002,
                -3.1557989791916907
            ]
        },
        {
            "positions": [
                -0.14210827415077482,
                -1.273991484337799,
                2.2278384400375186,
                -0.9147705485389779,
                0.7532993375995878,
                -3.143567096184952
            ]
        },
        {
            "positions": [
                -0.20833821163462957,
                -1.3076167713776616,
                2.291911453289267,
                -0.948348198431687,
                0.9092275212305754,
                -3.1313352131782137
            ]
        },
        {
            "positions": [
                -0.2745681491184843,
                -1.3412420584175244,
                2.3559844665410146,
                -0.9819258483243962,
                1.065155704861563,
                -3.1191033301714755
            ]
        },
        {
            "positions": [
                -0.34079808660233907,
                -1.374867345457387,
                2.4200574797927628,
                -1.0155034982171054,
                1.2210838884925506,
                -3.106871447164737
            ]
        }
    ]
}