{
    "goal": {
        "global_pose": {
            "orientation": {
                "w": 0.5084816217422485,
                "x": -0.49083608388900757,
                "y": 0.5182115435600281,
                "z": -0.4816462993621826
            },
            "position": {
                "x": 0.5540239810943604,
                "y": 0.030875300988554955,
                "z": 0.16403168439865112
            }
        },
        "name": "move_to_storage_A"
    },
    "id": "RRTstar_move_to_storage_A_86",
    "joint_names": [
        "shoulder_pan_joint",
        "shoulder_lift_joint",
        "elbow_joint",
        "wrist_1_joint",
        "wrist_2_joint",
        "wrist_3_joint"
    ],
    "metrics": {
        "cart_traj_len": 0.353737302858551,
        "distance_elbow_joint": 0.4494174468901737,
        "distance_shoulder_lift_joint": 0.234483462099071,
        "distance_shoulder_pan_joint": 0.46376905337015073,
        "distance_wrist_1_joint": 0.23772994653187285,
        "distance_wrist_2_joint": 1.0950911751982977,
        "distance_wrist_3_joint": 0.0888836312364969,
        "smoothness": 8.881784197001252e-16,
        "time": 5.001449174,
        "traj_len": 1.602926921392882,
        "weighted_distance": 2.019891853424145
    },
    "planner": "RRTstar",
    "start": {
        "state": {
            "elbow_joint": 1.9715463870305268,
            "shoulder_lift_joint": -1.1394903361783484,
            "shoulder_pan_joint": 0.12281147578464417,
            "wrist_1_joint": -0.7804599489681411,
            "wrist_2_joint": 0.12958660307563738,
            "wrist_3_joint": -3.1924946282119055
        }
    },
    "waypoints": [
        {
            "positions": [
                0.12281147578464417,
                -1.1394903361783484,
                1.9715463870305268,
                -0.7804599489681411,
                0.12958660307563738,
                -3.1924946282119055
            ]
        },
        {
            "positions": [
                0.05655875387462264,
                -1.1729879736210729,
                2.0357488794434087,
                -0.8144213699012658,
                0.28602819953253705,
                -3.1797969666066916
            ]
        },
        {
            "positions": [
                -0.00969396803539889,
                -1.2064856110637971,
                2.0999513718562905,
                -0.8483827908343905,
                0.4424697959894367,
                -3.1670993050014777
            ]
        },
        {
            "positions": [
                -0.0759466899454204,
                -1.2399832485065216,
                2.1641538642691724,
                -0.8823442117675151,
                0.5989113924463364,
                -3.154401643396264
            ]
        },
        {
            "positions": [
                -0.14219941185544194,
                -1.2734808859492461,
                2.2283563566820543,
                -0.9163056327006398,
                0.7553529889032361,
                -3.1417039817910504
            ]
        },
        {
            "positions": [
                -0.2084521337654635,
                -1.3069785233919706,
                2.2925588490949367,
                -0.9502670536337645,
                0.9117945853601358,
                -3.1290063201858365
            ]
        },
        {
            "positions": [
                -0.27470485567548497,
                -1.340476160834695,
                2.3567613415078186,
                -0.9842284745668892,
                1.0682361818170354,
                -3.1163086585806226
            ]
        },
        {
            "positions": [
                -0.34095757758550654,
                -1.3739737982774194,
                2.4209638339207005,
                -1.018189895500014,
                1.224677778273935,
                -3.1036109969754087
            ]
        }
    ]
}