{
    "goal": {
        "global_pose": {
            "orientation": {
                "w": 0.7047431468963623,
                "x": -0.7094548344612122,
                "y": 0.0024358443915843964,
                "z": -0.0022348060738295317
            },
            "position": {
                "x": 0.6094750761985779,
                "y": 0.3671506643295288,
                "z": 0.19426114857196808
            }
        },
        "name": "move_to_magneteinheit_A"
    },
    "id": "RRTstar_move_to_magneteinheit_A_142",
    "joint_names": [
        "shoulder_pan_joint",
        "shoulder_lift_joint",
        "elbow_joint",
        "wrist_1_joint",
        "wrist_2_joint",
        "wrist_3_joint"
    ],
    "metrics": {
        "cart_traj_len": 2.0455054114047977,
        "distance_elbow_joint": 3.8764465912238273,
        "distance_shoulder_lift_joint": 1.0544066540039014,
        "distance_shoulder_pan_joint": 1.2419015584196589,
        "distance_wrist_1_joint": 1.1383570721024037,
        "distance_wrist_2_joint": 1.444396389822481,
        "distance_wrist_3_joint": 4.37511108854342,
        "smoothness": 2.791417905431698e-16,
        "time": 5.03081993,
        "traj_len": 3.6236196481026663,
        "weighted_distance": 4.946068640155271
    },
    "planner": "RRTstar",
    "start": {
        "state": {
            "elbow_joint": -1.919643507792019,
            "shoulder_lift_joint": -0.07675430207160344,
            "shoulder_pan_joint": -1.1188671864651873,
            "wrist_1_joint": 0.42560062535961957,
            "wrist_2_joint": 1.5706038300724876,
            "wrist_3_joint": 1.1188968870953055
        }
    },
    "waypoints": [
        {
            "positions": [
                -1.1188671864651873,
                -0.07675430207160344,
                -1.919643507792019,
                0.42560062535961957,
                1.5706038300724876,
                1.1188968870953055
            ]
        },
        {
            "positions": [
                -1.1019617584627512,
                -0.12189360901010104,
                -1.818625478238077,
                0.41164087987472026,
                1.5298303967856848,
                0.9491732996546811
            ]
        },
        {
            "positions": [
                -1.0850563304603151,
                -0.16703291594859865,
                -1.7176074486841353,
                0.39768113438982094,
                1.489056963498882,
                0.7794497122140566
            ]
        },
        {
            "positions": [
                -1.0681509024578792,
                -0.21217222288709628,
                -1.6165894191301933,
                0.38372138890492163,
                1.4482835302120791,
                0.609726124773432
            ]
        },
        {
            "positions": [
                -1.0512454744554431,
                -0.25731152982559385,
                -1.5155713895762515,
                0.3697616434200223,
                1.4075100969252763,
                0.4400025373328076
            ]
        },
        {
            "positions": [
                -1.034340046453007,
                -0.30245083676409146,
                -1.4145533600223095,
                0.35580189793512307,
                1.3667366636384735,
                0.27027894989218315
            ]
        },
        {
            "positions": [
                -1.017434618450571,
                -0.3475901437025891,
                -1.3135353304683677,
                0.3418421524502237,
                1.3259632303516706,
                0.1005553624515585
            ]
        },
        {
            "positions": [
                -1.0005291904481348,
                -0.3927294506410867,
                -1.2125173009144257,
                0.32788240696532445,
                1.2851897970648678,
                -0.06916822498906594
            ]
        },
        {
            "positions": [
                -0.9836237624456988,
                -0.43786875757958427,
                -1.1114992713604839,
                0.31392266148042514,
                1.244416363778065,
                -0.23889181242969038
            ]
        },
        {
            "positions": [
                -0.9667183344432628,
                -0.48300806451808187,
                -1.0104812418065419,
                0.2999629159955258,
                1.2036429304912621,
                -0.4086153998703148
            ]
        },
        {
            "positions": [
                -0.9498129064408267,
                -0.5281473714565794,
                -0.9094632122526001,
                0.2860031705106265,
                1.1628694972044593,
                -0.5783389873109392
            ]
        },
        {
            "positions": [
                -0.9329074784383906,
                -0.5732866783950771,
                -0.8084451826986581,
                0.2720434250257272,
                1.1220960639176565,
                -0.7480625747515637
            ]
        },
        {
            "positions": [
                -0.9160020504359546,
                -0.6184259853335747,
                -0.707427153144716,
                0.2580836795408279,
                1.0813226306308534,
                -0.9177861621921886
            ]
        },
        {
            "positions": [
                -0.8990966224335185,
                -0.6635652922720723,
                -0.6064091235907743,
                0.24412393405592858,
                1.0405491973440508,
                -1.087509749632813
            ]
        },
        {
            "positions": [
                -0.8821911944310825,
                -0.70870459921057,
                -0.5053910940368322,
                0.23016418857102927,
                0.9997757640572479,
                -1.2572333370734374
            ]
        },
        {
            "positions": [
                -0.8652857664286464,
                -0.7538439061490676,
                -0.40437306448289034,
                0.21620444308612996,
                0.959002330770445,
                -1.4269569245140616
            ]
        },
        {
            "positions": [
                -0.8132689170400612,
                -0.773702698250459,
                -0.2801006356452746,
                0.16731176467408185,
                0.9151710207430536,
                -1.5232336233000643
            ]
        },
        {
            "positions": [
                -0.7612520676514761,
                -0.7935614903518504,
                -0.15582820680765888,
                0.11841908626203375,
                0.8713397107156621,
                -1.6195103220860672
            ]
        },
        {
            "positions": [
                -0.7092352182628909,
                -0.8134202824532419,
                -0.031555777970043164,
                0.06952640784998562,
                0.8275084006882705,
                -1.71578702087207
            ]
        },
        {
            "positions": [
                -0.6572183688743058,
                -0.8332790745546333,
                0.09271665086757258,
                0.020633729437937537,
                0.783677090660879,
                -1.8120637196580727
            ]
        },
        {
            "positions": [
                -0.6052015194857207,
                -0.8531378666560248,
                0.21698907970518833,
                -0.028258948974110576,
                0.7398457806334875,
                -1.9083404184440753
            ]
        },
        {
            "positions": [
                -0.5531846700971355,
                -0.8729966587574163,
                0.341261508542804,
                -0.07715162738615872,
                0.696014470606096,
                -2.004617117230078
            ]
        },
        {
            "positions": [
                -0.5011678207085504,
                -0.8928554508588077,
                0.4655339373804198,
                -0.1260443057982068,
                0.6521831605787045,
                -2.100893816016081
            ]
        },
        {
            "positions": [
                -0.4491509713199652,
                -0.9127142429601991,
                0.5898063662180355,
                -0.1749369842102549,
                0.608351850551313,
                -2.1971705148020835
            ]
        },
        {
            "positions": [
                -0.39713412193138004,
                -0.9325730350615905,
                0.7140787950556512,
                -0.22382966262230303,
                0.5645205405239215,
                -2.2934472135880863
            ]
        },
        {
            "positions": [
                -0.3451172725427949,
                -0.9524318271629819,
                0.838351223893267,
                -0.2727223410343511,
                0.52068923049653,
                -2.389723912374089
            ]
        },
        {
            "positions": [
                -0.2931004231542097,
                -0.9722906192643734,
                0.9626236527308828,
                -0.32161501944639925,
                0.47685792046913844,
                -2.486000611160092
            ]
        },
        {
            "positions": [
                -0.24108357376562461,
                -0.9921494113657648,
                1.0868960815684985,
                -0.3705076978584474,
                0.43302661044174695,
                -2.582277309946095
            ]
        },
        {
            "positions": [
                -0.18906672437703942,
                -1.0120082034671563,
                1.2111685104061145,
                -0.41940037627049553,
                0.38919530041435546,
                -2.678554008732098
            ]
        },
        {
            "positions": [
                -0.13704987498845433,
                -1.0318669955685478,
                1.33544093924373,
                -0.46829305468254356,
                0.34536399038696397,
                -2.7748307075181002
            ]
        },
        {
            "positions": [
                -0.08503302559986903,
                -1.0517257876699393,
                1.4597133680813457,
                -0.5171857330945917,
                0.3015326803595725,
                -2.871107406304103
            ]
        },
        {
            "positions": [
                -0.03301617621128394,
                -1.0715845797713306,
                1.5839857969189612,
                -0.5660784115066397,
                0.257701370332181,
                -2.9673841050901055
            ]
        },
        {
            "positions": [
                0.019000673177301253,
                -1.0914433718727221,
                1.7082582257565773,
                -0.614971089918688,
                0.2138700603047894,
                -3.0636608038761084
            ]
        },
        {
            "positions": [
                0.07101752256588634,
                -1.1113021639741134,
                1.8325306545941928,
                -0.663863768330736,
                0.170038750277398,
                -3.1599375026621113
            ]
        },
        {
            "positions": [
                0.1230343719544715,
                -1.131160956075505,
                1.9568030834318089,
                -0.7127564467427842,
                0.12620744025000644,
                -3.256214201448114
            ]
        }
    ]
}