{
    "goal": {
        "global_pose": {
            "orientation": {
                "w": -0.00223480608172531,
                "x": 0.0024358444001904467,
                "y": 0.7094548369677653,
                "z": -0.704743149386269
            },
            "position": {
                "x": 0.6205249238014221,
                "y": -0.6371506643295288,
                "z": 0.19426114857196808
            }
        },
        "name": "move_to_magneteinheit_B"
    },
    "id": "RRTstar_move_to_magneteinheit_B_20",
    "joint_names": [
        "shoulder_pan_joint",
        "shoulder_lift_joint",
        "elbow_joint",
        "wrist_1_joint",
        "wrist_2_joint",
        "wrist_3_joint"
    ],
    "metrics": {
        "cart_traj_len": 5.35923732406184,
        "distance_elbow_joint": 5.048555936212669,
        "distance_shoulder_lift_joint": 0.5779033726088252,
        "distance_shoulder_pan_joint": 4.480130358791309,
        "distance_wrist_1_joint": 2.315707439830412,
        "distance_wrist_2_joint": 1.859556549234635,
        "distance_wrist_3_joint": 6.5126893352450566,
        "smoothness": 0.7265726640784542,
        "time": 5.046391345,
        "traj_len": 4.560103397064905,
        "weighted_distance": 6.16402349537038
    },
    "planner": "RRTstar",
    "start": {
        "state": {
            "elbow_joint": 2.39358713078474,
            "shoulder_lift_joint": -1.908514104345545,
            "shoulder_pan_joint": 0.7066247066606129,
            "wrist_1_joint": -0.4678290933515497,
            "wrist_2_joint": 0.7096259083745334,
            "wrist_3_joint": -3.1358149277392293
        }
    },
    "waypoints": [
        {
            "positions": [
                0.7066247066606129,
                -1.908514104345545,
                2.39358713078474,
                -0.4678290933515497,
                0.7096259083745334,
                -3.1358149277392293
            ]
        },
        {
            "positions": [
                0.5870728522044941,
                -1.9001647881732726,
                2.4122171644209454,
                -0.44772903321114804,
                0.7082490794882237,
                -2.949361179927448
            ]
        },
        {
            "positions": [
                0.46752099774837536,
                -1.8918154720010003,
                2.43084719805715,
                -0.42762897307074643,
                0.7068722506019138,
                -2.762907432115667
            ]
        },
        {
            "positions": [
                0.3479691432922566,
                -1.883466155828728,
                2.449477231693355,
                -0.40752891293034477,
                0.705495421715604,
                -2.5764536843038854
            ]
        },
        {
            "positions": [
                0.22841728883613777,
                -1.8751168396564557,
                2.4681072653295604,
                -0.3874288527899431,
                0.7041185928292942,
                -2.3899999364921043
            ]
        },
        {
            "positions": [
                0.1558558125215306,
                -1.9037158540160968,
                2.3709462354434407,
                -0.4154674270256185,
                0.733022772603261,
                -2.2608538194189993
            ]
        },
        {
            "positions": [
                0.08329433620692345,
                -1.9323148683757378,
                2.2737852055573216,
                -0.4435060012612939,
                0.7619269523772277,
                -2.131707702345894
            ]
        },
        {
            "positions": [
                0.010732859892316288,
                -1.9609138827353791,
                2.176624175671202,
                -0.47154457549696926,
                0.7908311321511945,
                -2.002561585272789
            ]
        },
        {
            "positions": [
                -0.06182861642229087,
                -1.9895128970950202,
                2.0794631457850827,
                -0.49958314973264467,
                0.8197353119251614,
                -1.873415468199684
            ]
        },
        {
            "positions": [
                -0.13439009273689806,
                -2.0181119114546613,
                1.982302115898963,
                -0.5276217239683201,
                0.848639491699128,
                -1.744269351126579
            ]
        },
        {
            "positions": [
                -0.2069515690515052,
                -2.0467109258143026,
                1.8851410860128437,
                -0.5556602982039954,
                0.8775436714730949,
                -1.6151232340534738
            ]
        },
        {
            "positions": [
                -0.2795130453661123,
                -2.0753099401739434,
                1.7879800561267243,
                -0.5836988724396708,
                0.9064478512470616,
                -1.4859771169803686
            ]
        },
        {
            "positions": [
                -0.35207452168071945,
                -2.1039089545335847,
                1.6908190262406049,
                -0.6117374466753462,
                0.9353520310210284,
                -1.3568309999072636
            ]
        },
        {
            "positions": [
                -0.20215189346170376,
                -2.100543955755533,
                1.7225429295354977,
                -0.6359448677888168,
                0.8695253792251745,
                -1.2593029419936483
            ]
        },
        {
            "positions": [
                -0.05222926524268806,
                -2.0971789569774812,
                1.7542668328303905,
                -0.6601522889022873,
                0.8036987274293205,
                -1.1617748840800328
            ]
        },
        {
            "positions": [
                0.09769336297632764,
                -2.093813958199429,
                1.7859907361252834,
                -0.6843597100157578,
                0.7378720756334666,
                -1.0642468261664175
            ]
        },
        {
            "positions": [
                0.24761599119534333,
                -2.0904489594213773,
                1.817714639420176,
                -0.7085671311292282,
                0.6720454238376126,
                -0.966718768252802
            ]
        },
        {
            "positions": [
                0.39753861941435903,
                -2.0870839606433256,
                1.8494385427150688,
                -0.7327745522426987,
                0.6062187720417587,
                -0.8691907103391867
            ]
        },
        {
            "positions": [
                0.5474612476333747,
                -2.083718961865274,
                1.8811624460099616,
                -0.7569819733561692,
                0.5403921202459048,
                -0.7716626524255713
            ]
        },
        {
            "positions": [
                0.6973838758523903,
                -2.0803539630872216,
                1.9128863493048545,
                -0.7811893944696398,
                0.4745654684500508,
                -0.674134594511956
            ]
        },
        {
            "positions": [
                0.8473065040714061,
                -2.07698896430917,
                1.9446102525997473,
                -0.8053968155831103,
                0.40873881665419687,
                -0.5766065365983405
            ]
        },
        {
            "positions": [
                0.9972291322904216,
                -2.073623965531118,
                1.97633415589464,
                -0.8296042366965808,
                0.34291216485834297,
                -0.4790784786847252
            ]
        },
        {
            "positions": [
                1.1471517605094375,
                -2.0702589667530664,
                2.008058059189533,
                -0.8538116578100512,
                0.27708551306248896,
                -0.3815504207711098
            ]
        },
        {
            "positions": [
                1.297074388728453,
                -2.0668939679750142,
                2.0397819624844256,
                -0.8780190789235218,
                0.21125886126663507,
                -0.2840223628574945
            ]
        },
        {
            "positions": [
                1.4469970169474689,
                -2.0635289691969625,
                2.0715058657793186,
                -0.9022265000369922,
                0.14543220947078106,
                -0.18649430494387897
            ]
        },
        {
            "positions": [
                1.5969196451664844,
                -2.0601639704189108,
                2.103229769074211,
                -0.9264339211504627,
                0.07960555767492716,
                -0.08896624703026368
            ]
        },
        {
            "positions": [
                1.645713839282975,
                -2.067753546851154,
                1.9751870308203014,
                -0.9861418909588754,
                0.061005675371371124,
                0.03348837734313169
            ]
        },
        {
            "positions": [
                1.6945080333994658,
                -2.0753431232833965,
                1.8471442925663917,
                -1.0458498607672881,
                0.04240579306781508,
                0.15594300171652706
            ]
        },
        {
            "positions": [
                1.7433022275159566,
                -2.0829326997156397,
                1.719101554312482,
                -1.1055578305757008,
                0.02380591076425903,
                0.2783976260899224
            ]
        },
        {
            "positions": [
                1.7920964216324473,
                -2.0905222761478823,
                1.5910588160585721,
                -1.1652658003841134,
                0.005206028460702991,
                0.4008522504633178
            ]
        },
        {
            "positions": [
                1.840890615748938,
                -2.0981118525801254,
                1.4630160778046624,
                -1.224973770192526,
                -0.013393853842853062,
                0.5233068748367131
            ]
        },
        {
            "positions": [
                1.8896848098654286,
                -2.105701429012368,
                1.3349733395507526,
                -1.2846817400009387,
                -0.0319937361464091,
                0.6457614992101085
            ]
        },
        {
            "positions": [
                1.9384790039819193,
                -2.1132910054446112,
                1.2069306012968433,
                -1.3443897098093514,
                -0.05059361844996513,
                0.7682161235835038
            ]
        },
        {
            "positions": [
                1.98727319809841,
                -2.120880581876854,
                1.0788878630429333,
                -1.404097679617764,
                -0.06919350075352118,
                0.8906707479568993
            ]
        },
        {
            "positions": [
                2.0360673922149006,
                -2.128470158309097,
                0.9508451247890237,
                -1.4638056494261766,
                -0.0877933830570772,
                1.0131253723302944
            ]
        },
        {
            "positions": [
                2.0848615863313915,
                -2.1360597347413397,
                0.8228023865351137,
                -1.5235136192345893,
                -0.10639326536063329,
                1.13557999670369
            ]
        },
        {
            "positions": [
                2.133655780447882,
                -2.143649311173583,
                0.6947596482812042,
                -1.583221589043002,
                -0.12499314766418931,
                1.2580346210770852
            ]
        },
        {
            "positions": [
                2.182449974564373,
                -2.1512388876058255,
                0.5667169100272942,
                -1.6429295588514146,
                -0.14359302996774537,
                1.3804892454504807
            ]
        },
        {
            "positions": [
                2.2312441686808633,
                -2.1588284640380686,
                0.43867417177338464,
                -1.7026375286598272,
                -0.1621929122713014,
                1.502943869823876
            ]
        },
        {
            "positions": [
                2.280038362797354,
                -2.1664180404703117,
                0.3106314335194751,
                -1.7623454984682398,
                -0.18079279457485742,
                1.6253984941972712
            ]
        },
        {
            "positions": [
                2.328832556913845,
                -2.1740076169025544,
                0.18258869526556532,
                -1.8220534682766523,
                -0.19939267687841344,
                1.7478531185706665
            ]
        },
        {
            "positions": [
                2.3776267510303355,
                -2.1815971933347975,
                0.05454595701165532,
                -1.8817614380850651,
                -0.21799255918196953,
                1.8703077429440622
            ]
        },
        {
            "positions": [
                2.4264209451468264,
                -2.18918676976704,
                -0.07349678124225445,
                -1.9414694078934778,
                -0.23659244148552555,
                1.9927623673174575
            ]
        },
        {
            "positions": [
                2.475215139263317,
                -2.1967763461992833,
                -0.20153951949616378,
                -2.0011773777018904,
                -0.2551923237890816,
                2.1152169916908523
            ]
        },
        {
            "positions": [
                2.5240093333798077,
                -2.204365922631526,
                -0.32958225775007355,
                -2.060885347510303,
                -0.2737922060926376,
                2.2376716160642482
            ]
        },
        {
            "positions": [
                2.5728035274962986,
                -2.211955499063769,
                -0.45762499600398376,
                -2.1205933173187157,
                -0.29239208839619374,
                2.3601262404376433
            ]
        },
        {
            "positions": [
                2.621597721612789,
                -2.2195450754960118,
                -0.5856677342578935,
                -2.1803012871271283,
                -0.31099197069974976,
                2.4825808648110392
            ]
        },
        {
            "positions": [
                2.6703919157292795,
                -2.227134651928255,
                -0.7137104725118029,
                -2.240009256935541,
                -0.3295918530033058,
                2.6050354891844343
            ]
        },
        {
            "positions": [
                2.7191861098457704,
                -2.2347242283604976,
                -0.8417532107657126,
                -2.2997172267439536,
                -0.3481917353068618,
                2.7274901135578293
            ]
        },
        {
            "positions": [
                2.7679803039622612,
                -2.2423138047927407,
                -0.9697959490196228,
                -2.3594251965523663,
                -0.3667916176104179,
                2.8499447379312253
            ]
        },
        {
            "positions": [
                2.816774498078752,
                -2.249903381224984,
                -1.0978386872735322,
                -2.419133166360779,
                -0.3853914999139739,
                2.9723993623046203
            ]
        },
        {
            "positions": [
                2.8655686921952426,
                -2.2574929576572265,
                -1.2258814255274422,
                -2.4788411361691916,
                -0.40399138221752995,
                3.0948539866780154
            ]
        },
        {
            "positions": [
                2.8443235814384193,
                -2.2587492453150673,
                -1.3712219101339376,
                -2.4557952399658034,
                -0.4615644432784825,
                3.1548970311266995
            ]
        },
        {
            "positions": [
                2.823078470681596,
                -2.2600055329729085,
                -1.516562394740433,
                -2.4327493437624157,
                -0.5191375043394351,
                3.2149400755753836
            ]
        },
        {
            "positions": [
                2.801833359924773,
                -2.2612618206307493,
                -1.6619028793469284,
                -2.4097034475590275,
                -0.5767105654003876,
                3.2749831200240678
            ]
        },
        {
            "positions": [
                2.7318070677730018,
                -2.225826241272702,
                -1.652300793684855,
                -2.447082061198724,
                -0.5213339658622644,
                3.224037476283188
            ]
        },
        {
            "positions": [
                2.6617807756212306,
                -2.190390661914655,
                -1.6426987080227817,
                -2.48446067483842,
                -0.46595736632414136,
                3.173091832542308
            ]
        }
    ]
}