{
    "goal": {
        "global_pose": {
            "orientation": {
                "w": 0.5084816217422485,
                "x": -0.49083608388900757,
                "y": 0.5182115435600281,
                "z": -0.4816462993621826
            },
            "position": {
                "x": 0.5540239810943604,
                "y": 0.030875300988554955,
                "z": 0.16403168439865112
            }
        },
        "name": "move_to_storage_A"
    },
    "id": "RRTstar_move_to_storage_A_107",
    "joint_names": [
        "shoulder_pan_joint",
        "shoulder_lift_joint",
        "elbow_joint",
        "wrist_1_joint",
        "wrist_2_joint",
        "wrist_3_joint"
    ],
    "metrics": {
        "cart_traj_len": 0.35350293210971206,
        "distance_elbow_joint": 0.44712241388163765,
        "distance_shoulder_lift_joint": 0.233716349955283,
        "distance_shoulder_pan_joint": 0.4613586325154801,
        "distance_wrist_1_joint": 0.2345462568379152,
        "distance_wrist_2_joint": 1.1025912221098424,
        "distance_wrist_3_joint": 0.09126792519059856,
        "smoothness": 1.3322676295501878e-15,
        "time": 5.000122131,
        "traj_len": 1.603309951472502,
        "weighted_distance": 2.02244310916765
    },
    "planner": "RRTstar",
    "start": {
        "state": {
            "elbow_joint": 1.9715463870305268,
            "shoulder_lift_joint": -1.1394903361783484,
            "shoulder_pan_joint": 0.12281147578464417,
            "wrist_1_joint": -0.7804599489681411,
            "wrist_2_joint": 0.12958660307563738,
            "wrist_3_joint": -3.1924946282119055
        }
    },
    "waypoints": [
        {
            "positions": [
                0.12281147578464417,
                -1.1394903361783484,
                1.9715463870305268,
                -0.7804599489681411,
                0.12958660307563738,
                -3.1924946282119055
            ]
        },
        {
            "positions": [
                0.05690309971100416,
                -1.1728783861719603,
                2.0354210175850462,
                -0.8139665570878433,
                0.28709963480561485,
                -3.179456353184677
            ]
        },
        {
            "positions": [
                -0.009005276362635858,
                -1.2062664361655722,
                2.099295648139566,
                -0.8474731652075455,
                0.4446126665355923,
                -3.1664180781574487
            ]
        },
        {
            "positions": [
                -0.07491365243627586,
                -1.239654486159184,
                2.1631702786940856,
                -0.8809797733272475,
                0.6021256982655698,
                -3.1533798031302203
            ]
        },
        {
            "positions": [
                -0.14082202850991588,
                -1.2730425361527957,
                2.2270449092486055,
                -0.9144863814469497,
                0.7596387299955473,
                -3.1403415281029923
            ]
        },
        {
            "positions": [
                -0.2067304045835559,
                -1.3064305861464076,
                2.290919539803125,
                -0.9479929895666519,
                0.9171517617255248,
                -3.127303253075764
            ]
        },
        {
            "positions": [
                -0.2726387806571959,
                -1.3398186361400195,
                2.3547941703576445,
                -0.9814995976863541,
                1.0746647934555023,
                -3.1142649780485354
            ]
        },
        {
            "positions": [
                -0.3385471567308359,
                -1.3732066861336314,
                2.4186688009121644,
                -1.0150062058060563,
                1.2321778251854798,
                -3.101226703021307
            ]
        }
    ]
}