{
    "goal": {
        "global_pose": {
            "orientation": {
                "w": 0.5084816217422485,
                "x": -0.49083608388900757,
                "y": 0.5182115435600281,
                "z": -0.4816462993621826
            },
            "position": {
                "x": 0.5540239810943604,
                "y": 0.030875300988554955,
                "z": 0.16403168439865112
            }
        },
        "name": "move_to_storage_A"
    },
    "id": "RRTstar_move_to_storage_A_94",
    "joint_names": [
        "shoulder_pan_joint",
        "shoulder_lift_joint",
        "elbow_joint",
        "wrist_1_joint",
        "wrist_2_joint",
        "wrist_3_joint"
    ],
    "metrics": {
        "cart_traj_len": 0.3523891089085028,
        "distance_elbow_joint": 0.4473275591894419,
        "distance_shoulder_lift_joint": 0.23361128144373278,
        "distance_shoulder_pan_joint": 0.4602488485902016,
        "distance_wrist_1_joint": 0.23561104428834423,
        "distance_wrist_2_joint": 1.0989756067262684,
        "distance_wrist_3_joint": 0.0964571758988626,
        "smoothness": 0.0,
        "time": 5.000402014,
        "traj_len": 1.6038177939332297,
        "weighted_distance": 2.024779622316757
    },
    "planner": "RRTstar",
    "start": {
        "state": {
            "elbow_joint": 1.9715463870305268,
            "shoulder_lift_joint": -1.1394903361783484,
            "shoulder_pan_joint": 0.12281147578464417,
            "wrist_1_joint": -0.7804599489681411,
            "wrist_2_joint": 0.12958660307563738,
            "wrist_3_joint": -3.1924946282119055
        }
    },
    "waypoints": [
        {
            "positions": [
                0.12281147578464417,
                -1.1394903361783484,
                1.9715463870305268,
                -0.7804599489681411,
                0.12958660307563738,
                -3.1924946282119055
            ]
        },
        {
            "positions": [
                0.05706164027175824,
                -1.172863376384596,
                2.03545032405759,
                -0.8141186695807617,
                0.28658311832224714,
                -3.1787150316549253
            ]
        },
        {
            "positions": [
                -0.008688195241127697,
                -1.2062364165908435,
                2.099354261084653,
                -0.8477773901933823,
                0.4435796335688569,
                -3.1649354350979446
            ]
        },
        {
            "positions": [
                -0.07443803075401363,
                -1.239609456797091,
                2.1632581981117163,
                -0.8814361108060029,
                0.6005761488154666,
                -3.1511558385409644
            ]
        },
        {
            "positions": [
                -0.14018786626689955,
                -1.2729824970033385,
                2.227162135138779,
                -0.9150948314186235,
                0.7575726640620765,
                -3.137376241983984
            ]
        },
        {
            "positions": [
                -0.20593770177978554,
                -1.306355537209586,
                2.2910660721658425,
                -0.9487535520312441,
                0.9145691793086863,
                -3.123596645427004
            ]
        },
        {
            "positions": [
                -0.2716875372926714,
                -1.3397285774158336,
                2.3549700091929053,
                -0.9824122726438647,
                1.0715656945552958,
                -3.109817048870023
            ]
        },
        {
            "positions": [
                -0.3374373728055574,
                -1.3731016176220812,
                2.4188739462199687,
                -1.0160709932564853,
                1.2285622098019058,
                -3.096037452313043
            ]
        }
    ]
}