{
    "goal": {
        "global_pose": {
            "orientation": {
                "w": 0.7031023502349854,
                "x": -0.7110244035720825,
                "y": 0.007748599164187908,
                "z": 0.005598929710686207
            },
            "position": {
                "x": 0.11585023208521307,
                "y": 0.44412534475326537,
                "z": 0.3711530566215515
            }
        },
        "name": "move_to_auspresseinheit_A"
    },
    "id": "RRTstar_move_to_auspresseinheit_A_49",
    "joint_names": [
        "shoulder_pan_joint",
        "shoulder_lift_joint",
        "elbow_joint",
        "wrist_1_joint",
        "wrist_2_joint",
        "wrist_3_joint"
    ],
    "metrics": {
        "cart_traj_len": 0.6889478650555051,
        "distance_elbow_joint": 0.032614418474627094,
        "distance_shoulder_lift_joint": 0.5323361027840476,
        "distance_shoulder_pan_joint": 1.0443423700183834,
        "distance_wrist_1_joint": 0.5753630259252669,
        "distance_wrist_2_joint": 0.5317832600159809,
        "distance_wrist_3_joint": 0.057698868743587095,
        "smoothness": 7.89491931748053e-16,
        "time": 5.001839668000001,
        "traj_len": 1.6655743892008825,
        "weighted_distance": 1.9991703452658343
    },
    "planner": "RRTstar",
    "start": {
        "state": {
            "elbow_joint": 2.422574709923281,
            "shoulder_lift_joint": -1.3736533754116391,
            "shoulder_pan_joint": -0.33786336945926293,
            "wrist_1_joint": -1.0288603412921917,
            "wrist_2_joint": 1.2330224858903978,
            "wrist_3_joint": -3.094022268022082
        }
    },
    "waypoints": [
        {
            "positions": [
                -0.33786336945926293,
                -1.3736533754116391,
                2.422574709923281,
                -1.0288603412921917,
                1.2330224858903978,
                -3.094022268022082
            ]
        },
        {
            "positions": [
                -0.20732057320696504,
                -1.440195388259645,
                2.418497907613953,
                -0.9569399630515334,
                1.1665495783884001,
                -3.1012346266150304
            ]
        },
        {
            "positions": [
                -0.07677777695466714,
                -1.506737401107651,
                2.4144211053046245,
                -0.8850195848108751,
                1.1000766708864025,
                -3.108446985207979
            ]
        },
        {
            "positions": [
                0.05376501929763072,
                -1.573279413955657,
                2.410344302995296,
                -0.8130992065702166,
                1.0336037633844049,
                -3.1156593438009272
            ]
        },
        {
            "positions": [
                0.18430781554992864,
                -1.639821426803663,
                2.4062675006859675,
                -0.7411788283295583,
                0.9671308558824073,
                -3.1228717023938755
            ]
        },
        {
            "positions": [
                0.31485061180222657,
                -1.706363439651669,
                2.4021906983766392,
                -0.6692584500889,
                0.9006579483804097,
                -3.130084060986824
            ]
        },
        {
            "positions": [
                0.4453934080545244,
                -1.7729054524996748,
                2.3981138960673105,
                -0.5973380718482415,
                0.8341850408784122,
                -3.1372964195797723
            ]
        },
        {
            "positions": [
                0.5759362043068224,
                -1.8394474653476807,
                2.3940370937579822,
                -0.5254176936075832,
                0.7677121333764145,
                -3.144508778172721
            ]
        },
        {
            "positions": [
                0.7064790005591203,
                -1.9059894781956868,
                2.389960291448654,
                -0.4534973153669249,
                0.7012392258744169,
                -3.1517211367656692
            ]
        }
    ]
}