{
    "goal": {
        "global_pose": {
            "orientation": {
                "w": 0.7047431468963623,
                "x": -0.7094548344612122,
                "y": 0.0024358443915843964,
                "z": -0.0022348060738295317
            },
            "position": {
                "x": 0.6094750761985779,
                "y": 0.3671506643295288,
                "z": 0.19426114857196808
            }
        },
        "name": "move_to_magneteinheit_A"
    },
    "id": "RRTstar_move_to_magneteinheit_A_125",
    "joint_names": [
        "shoulder_pan_joint",
        "shoulder_lift_joint",
        "elbow_joint",
        "wrist_1_joint",
        "wrist_2_joint",
        "wrist_3_joint"
    ],
    "metrics": {
        "cart_traj_len": 1.9967449892007865,
        "distance_elbow_joint": 3.8751929596865646,
        "distance_shoulder_lift_joint": 1.053563859847917,
        "distance_shoulder_pan_joint": 1.2427956338177544,
        "distance_wrist_1_joint": 1.1333610438931334,
        "distance_wrist_2_joint": 1.431690469302083,
        "distance_wrist_3_joint": 4.369594767429861,
        "smoothness": 4.3140094798014063e-16,
        "time": 5.031826391,
        "traj_len": 3.6202484353946374,
        "weighted_distance": 4.940692237129555
    },
    "planner": "RRTstar",
    "start": {
        "state": {
            "elbow_joint": -1.919643507792019,
            "shoulder_lift_joint": -0.07675430207160344,
            "shoulder_pan_joint": -1.1188671864651873,
            "wrist_1_joint": 0.42560062535961957,
            "wrist_2_joint": 1.5706038300724876,
            "wrist_3_joint": 1.1188968870953055
        }
    },
    "waypoints": [
        {
            "positions": [
                -1.1188671864651873,
                -0.07675430207160344,
                -1.919643507792019,
                0.42560062535961957,
                1.5706038300724876,
                1.1188968870953055
            ]
        },
        {
            "positions": [
                -1.0904435220641515,
                -0.11650349221308395,
                -1.8027471570014324,
                0.38543370402811516,
                1.5286758490033285,
                1.0018967014018718
            ]
        },
        {
            "positions": [
                -1.0620198576631157,
                -0.15625268235456446,
                -1.685850806210846,
                0.3452667826966108,
                1.4867478679341695,
                0.8848965157084382
            ]
        },
        {
            "positions": [
                -1.0335961932620799,
                -0.19600187249604498,
                -1.5689544554202592,
                0.3050998613651064,
                1.4448198868650104,
                0.7678963300150046
            ]
        },
        {
            "positions": [
                -1.005172528861044,
                -0.23575106263752552,
                -1.4520581046296726,
                0.264932940033602,
                1.4028919057958513,
                0.6508961443215708
            ]
        },
        {
            "positions": [
                -0.9767488644600081,
                -0.275500252779006,
                -1.335161753839086,
                0.22476601870209764,
                1.360963924726692,
                0.5338959586281371
            ]
        },
        {
            "positions": [
                -0.9483252000589723,
                -0.3152494429204865,
                -1.2182654030484996,
                0.1845990973705933,
                1.319035943657533,
                0.4168957729347035
            ]
        },
        {
            "positions": [
                -0.9199015356579363,
                -0.35499863306196705,
                -1.1013690522579127,
                0.14443217603908887,
                1.277107962588374,
                0.29989558724126963
            ]
        },
        {
            "positions": [
                -0.8914778712569005,
                -0.3947478232034476,
                -0.9844727014673262,
                0.10426525470758452,
                1.2351799815192148,
                0.182895401547836
            ]
        },
        {
            "positions": [
                -0.8630542068558646,
                -0.4344970133449281,
                -0.8675763506767395,
                0.06409833337608012,
                1.1932520004500557,
                0.06589521585440239
            ]
        },
        {
            "positions": [
                -0.8346305424548288,
                -0.4742462034864086,
                -0.7506799998861529,
                0.023931412044575717,
                1.1513240193808967,
                -0.051104969839031344
            ]
        },
        {
            "positions": [
                -0.806206878053793,
                -0.5139953936278892,
                -0.6337836490955664,
                -0.01623550928692863,
                1.1093960383117376,
                -0.16810515553246508
            ]
        },
        {
            "positions": [
                -0.7777832136527572,
                -0.5537445837693695,
                -0.5168872983049799,
                -0.056402430618432975,
                1.0674680572425785,
                -0.2851053412258986
            ]
        },
        {
            "positions": [
                -0.7493595492517213,
                -0.5934937739108501,
                -0.399990947514393,
                -0.09656935194993738,
                1.0255400761734195,
                -0.40210552691933255
            ]
        },
        {
            "positions": [
                -0.7209358848506854,
                -0.6332429640523307,
                -0.2830945967238063,
                -0.13673627328144183,
                0.9836120951042603,
                -0.5191057126127663
            ]
        },
        {
            "positions": [
                -0.6925122204496496,
                -0.6729921541938111,
                -0.16619824593322008,
                -0.17690319461294618,
                0.9416841140351013,
                -0.6361058983061998
            ]
        },
        {
            "positions": [
                -0.6640885560486136,
                -0.7127413443352917,
                -0.04930189514263339,
                -0.21707011594445053,
                0.8997561329659421,
                -0.7531060839996335
            ]
        },
        {
            "positions": [
                -0.6356648916475778,
                -0.7524905344767723,
                0.06759445564795352,
                -0.257237037275955,
                0.8578281518967831,
                -0.8701062696930673
            ]
        },
        {
            "positions": [
                -0.6072412272465421,
                -0.7922397246182526,
                0.18449080643854,
                -0.29740395860745933,
                0.815900170827624,
                -0.9871064553865008
            ]
        },
        {
            "positions": [
                -0.5788175628455061,
                -0.8319889147597332,
                0.30138715722912646,
                -0.3375708799389637,
                0.7739721897584649,
                -1.1041066410799347
            ]
        },
        {
            "positions": [
                -0.5503938984444703,
                -0.8717381049012138,
                0.41828350801971337,
                -0.37773780127046813,
                0.7320442086893058,
                -1.2211068267733682
            ]
        },
        {
            "positions": [
                -0.5219702340434345,
                -0.9114872950426942,
                0.5351798588102998,
                -0.41790472260197237,
                0.6901162276201468,
                -1.3381070124668017
            ]
        },
        {
            "positions": [
                -0.4935465696423986,
                -0.9512364851841748,
                0.6520762096008863,
                -0.4580716439334768,
                0.6481882465509876,
                -1.4551071981602357
            ]
        },
        {
            "positions": [
                -0.4651229052413627,
                -0.9909856753256554,
                0.7689725603914732,
                -0.4982385652649813,
                0.6062602654818285,
                -1.5721073838536692
            ]
        },
        {
            "positions": [
                -0.43669924084032685,
                -1.0307348654671358,
                0.8858689111820592,
                -0.5384054865964856,
                0.5643322844126695,
                -1.6891075695471027
            ]
        },
        {
            "positions": [
                -0.408275576439291,
                -1.0704840556086164,
                1.0027652619726464,
                -0.5785724079279899,
                0.5224043033435104,
                -1.8061077552405367
            ]
        },
        {
            "positions": [
                -0.3491417960179734,
                -1.0771322896431612,
                1.1086301719639686,
                -0.5929266313286037,
                0.4797941986131653,
                -1.9666177691398723
            ]
        },
        {
            "positions": [
                -0.29000801559665584,
                -1.083780523677706,
                1.2144950819552909,
                -0.6072808547292174,
                0.43718409388282015,
                -2.127127783039208
            ]
        },
        {
            "positions": [
                -0.23087423517533823,
                -1.0904287577122511,
                1.320359991946613,
                -0.6216350781298312,
                0.394573989152475,
                -2.2876377969385433
            ]
        },
        {
            "positions": [
                -0.17174045475402064,
                -1.097076991746796,
                1.4262249019379352,
                -0.635989301530445,
                0.3519638844221299,
                -2.4481478108378787
            ]
        },
        {
            "positions": [
                -0.112606674332703,
                -1.1037252257813408,
                1.5320898119292574,
                -0.6503435249310587,
                0.30935377969178474,
                -2.6086578247372145
            ]
        },
        {
            "positions": [
                -0.05347289391138543,
                -1.1103734598158856,
                1.6379547219205794,
                -0.6646977483316725,
                0.26674367496143964,
                -2.76916783863655
            ]
        },
        {
            "positions": [
                0.005660886509932184,
                -1.1170216938504307,
                1.7438196319119017,
                -0.6790519717322863,
                0.22413357023109448,
                -2.9296778525358853
            ]
        },
        {
            "positions": [
                0.06479466693124974,
                -1.1236699278849756,
                1.849684541903224,
                -0.6934061951329,
                0.18152346550074938,
                -3.0901878664352207
            ]
        },
        {
            "positions": [
                0.1239284473525673,
                -1.1303181619195204,
                1.9555494518945462,
                -0.7077604185335138,
                0.13891336077040423,
                -3.2506978803345565
            ]
        }
    ]
}