{
    "goal": {
        "global_pose": {
            "orientation": {
                "w": 0.7047431468963623,
                "x": -0.7094548344612122,
                "y": 0.0024358443915843964,
                "z": -0.0022348060738295317
            },
            "position": {
                "x": 0.6094750761985779,
                "y": 0.3671506643295288,
                "z": 0.19426114857196808
            }
        },
        "name": "move_to_magneteinheit_A"
    },
    "id": "RRTstar_move_to_magneteinheit_A_82",
    "joint_names": [
        "shoulder_pan_joint",
        "shoulder_lift_joint",
        "elbow_joint",
        "wrist_1_joint",
        "wrist_2_joint",
        "wrist_3_joint"
    ],
    "metrics": {
        "cart_traj_len": 1.8794290190437026,
        "distance_elbow_joint": 3.907066142926727,
        "distance_shoulder_lift_joint": 0.6985534470849949,
        "distance_shoulder_pan_joint": 1.2422968388769444,
        "distance_wrist_1_joint": 1.4794896861544657,
        "distance_wrist_2_joint": 1.7042817147821148,
        "distance_wrist_3_joint": 1.098646704668798,
        "smoothness": 4.934324565125532e-16,
        "time": 5.013608263,
        "traj_len": 3.1828186461836063,
        "weighted_distance": 3.93845138915897
    },
    "planner": "RRTstar",
    "start": {
        "state": {
            "elbow_joint": -1.919643507792019,
            "shoulder_lift_joint": -0.07675430207160344,
            "shoulder_pan_joint": -1.1188671864651873,
            "wrist_1_joint": 0.42560062535961957,
            "wrist_2_joint": 1.5706038300724876,
            "wrist_3_joint": 1.1188968870953055
        }
    },
    "waypoints": [
        {
            "positions": [
                -1.1188671864651873,
                -0.07675430207160344,
                -1.919643507792019,
                0.42560062535961957,
                1.5706038300724876,
                1.1188968870953055
            ]
        },
        {
            "positions": [
                -1.0710865388160742,
                -0.10362174234410325,
                -1.7693717330640681,
                0.482504074827099,
                1.5050545333500986,
                1.076641244608044
            ]
        },
        {
            "positions": [
                -1.0233058911669608,
                -0.13048918261660306,
                -1.619099958336117,
                0.5394075242945785,
                1.4395052366277095,
                1.0343856021207827
            ]
        },
        {
            "positions": [
                -0.9755252435178476,
                -0.15735662288910288,
                -1.468828183608166,
                0.596310973762058,
                1.3739559399053205,
                0.9921299596335211
            ]
        },
        {
            "positions": [
                -0.9277445958687344,
                -0.18422406316160267,
                -1.318556408880215,
                0.6532144232295374,
                1.3084066431829315,
                0.9498743171462597
            ]
        },
        {
            "positions": [
                -0.8799639482196211,
                -0.2110915034341025,
                -1.168284634152264,
                0.7101178726970168,
                1.2428573464605424,
                0.9076186746589983
            ]
        },
        {
            "positions": [
                -0.8321833005705078,
                -0.2379589437066023,
                -1.0180128594243127,
                0.7670213221644964,
                1.1773080497381534,
                0.8653630321717367
            ]
        },
        {
            "positions": [
                -0.7844026529213947,
                -0.2648263839791021,
                -0.867741084696362,
                0.8239247716319757,
                1.1117587530157644,
                0.8231073896844754
            ]
        },
        {
            "positions": [
                -0.7366220052722814,
                -0.29169382425160195,
                -0.7174693099684109,
                0.8808282210994551,
                1.0462094562933753,
                0.7808517471972138
            ]
        },
        {
            "positions": [
                -0.6888413576231681,
                -0.3185612645241017,
                -0.5671975352404599,
                0.9377316705669345,
                0.9806601595709864,
                0.7385961047099524
            ]
        },
        {
            "positions": [
                -0.6410607099740548,
                -0.34542870479660154,
                -0.41692576051250874,
                0.9946351200344141,
                0.9151108628485973,
                0.696340462222691
            ]
        },
        {
            "positions": [
                -0.5932800623249417,
                -0.3722961450691013,
                -0.2666539857845578,
                1.0515385695018935,
                0.8495615661262083,
                0.6540848197354294
            ]
        },
        {
            "positions": [
                -0.5454994146758283,
                -0.3991635853416012,
                -0.11638221105660662,
                1.108442018969373,
                0.7840122694038192,
                0.611829177248168
            ]
        },
        {
            "positions": [
                -0.49771876702671514,
                -0.42603102561410094,
                0.033889563671344325,
                1.1653454684368525,
                0.7184629726814302,
                0.5695735347609066
            ]
        },
        {
            "positions": [
                -0.449938119377602,
                -0.4528984658866007,
                0.18416133839929505,
                1.2222489179043319,
                0.6529136759590413,
                0.5273178922736451
            ]
        },
        {
            "positions": [
                -0.4021574717284887,
                -0.47976590615910053,
                0.3344331131272462,
                1.2791523673718113,
                0.5873643792366523,
                0.4850622497863837
            ]
        },
        {
            "positions": [
                -0.3543768240793753,
                -0.5066333464316004,
                0.4847048878551974,
                1.3360558168392909,
                0.5218150825142631,
                0.44280660729912213
            ]
        },
        {
            "positions": [
                -0.30659617643026216,
                -0.5335007867041002,
                0.6349766625831486,
                1.3929592663067702,
                0.45626578579187416,
                0.4005509648118607
            ]
        },
        {
            "positions": [
                -0.2588155287811489,
                -0.5603682269765999,
                0.7852484373110993,
                1.4498627157742496,
                0.3907164890694852,
                0.35829532232459926
            ]
        },
        {
            "positions": [
                -0.21103488113203572,
                -0.5872356672490997,
                0.9355202120390504,
                1.5067661652417292,
                0.325167192347096,
                0.31603967983733783
            ]
        },
        {
            "positions": [
                -0.16325423348292234,
                -0.6141031075215997,
                1.0857919867670016,
                1.5636696147092086,
                0.25961789562470705,
                0.2737840373500763
            ]
        },
        {
            "positions": [
                -0.11547358583380918,
                -0.6409705477940995,
                1.2360637614949528,
                1.6205730641766882,
                0.19406859890231787,
                0.23152839486281485
            ]
        },
        {
            "positions": [
                -0.06769293818469602,
                -0.6678379880665992,
                1.3863355362229035,
                1.6774765136441676,
                0.1285193021799289,
                0.1892727523755534
            ]
        },
        {
            "positions": [
                -0.019912290535582633,
                -0.694705428339099,
                1.5366073109508547,
                1.734379963111647,
                0.06297000545753995,
                0.14701710988829197
            ]
        },
        {
            "positions": [
                0.02786835711353075,
                -0.721572868611599,
                1.6868790856788058,
                1.7912834125791266,
                -0.002579291264849237,
                0.10476146740103043
            ]
        },
        {
            "positions": [
                0.07564900476264391,
                -0.7484403088840987,
                1.837150860406757,
                1.848186862046606,
                -0.0681285879872382,
                0.06250582491376888
            ]
        },
        {
            "positions": [
                0.12342965241175696,
                -0.7753077491565984,
                1.987422635134708,
                1.9050903115140854,
                -0.13367788470962713,
                0.020250182426507477
            ]
        }
    ]
}