{
    "goal": {
        "global_pose": {
            "orientation": {
                "w": -0.00223480608172531,
                "x": 0.0024358444001904467,
                "y": 0.7094548369677653,
                "z": -0.704743149386269
            },
            "position": {
                "x": 0.6205249238014221,
                "y": -0.6371506643295288,
                "z": 0.19426114857196808
            }
        },
        "name": "move_to_magneteinheit_B"
    },
    "id": "RRTstar_move_to_magneteinheit_B_121",
    "joint_names": [
        "shoulder_pan_joint",
        "shoulder_lift_joint",
        "elbow_joint",
        "wrist_1_joint",
        "wrist_2_joint",
        "wrist_3_joint"
    ],
    "metrics": {
        "cart_traj_len": 1.4530012631979323,
        "distance_elbow_joint": 0.7295233157084873,
        "distance_shoulder_lift_joint": 1.2485307727418284,
        "distance_shoulder_pan_joint": 1.620510242031464,
        "distance_wrist_1_joint": 2.6089803201466206,
        "distance_wrist_2_joint": 2.9384413734438826,
        "distance_wrist_3_joint": 3.129152813525958,
        "smoothness": 1.665334550124364e-16,
        "time": 5.024866502,
        "traj_len": 3.503589421949758,
        "weighted_distance": 4.907225912696567
    },
    "planner": "RRTstar",
    "start": {
        "state": {
            "elbow_joint": 2.39358713078474,
            "shoulder_lift_joint": -1.908514104345545,
            "shoulder_pan_joint": 0.7066247066606129,
            "wrist_1_joint": -0.4678290933515497,
            "wrist_2_joint": 0.7096259083745334,
            "wrist_3_joint": -3.1358149277392293
        }
    },
    "waypoints": [
        {
            "positions": [
                0.7066247066606129,
                -1.908514104345545,
                2.39358713078474,
                -0.4678290933515497,
                0.7096259083745334,
                -3.1358149277392293
            ]
        },
        {
            "positions": [
                0.654350182724114,
                -1.8682389181280665,
                2.3700541206005954,
                -0.383668437862949,
                0.6148374769731179,
                -3.0348745143996823
            ]
        },
        {
            "positions": [
                0.6020756587876153,
                -1.8279637319105881,
                2.3465211104164507,
                -0.2995077823743484,
                0.5200490455717023,
                -2.933934101060135
            ]
        },
        {
            "positions": [
                0.5498011348511165,
                -1.78768854569311,
                2.3229881002323056,
                -0.2153471268857477,
                0.42526061417028677,
                -2.832993687720588
            ]
        },
        {
            "positions": [
                0.4975266109146176,
                -1.7474133594756316,
                2.299455090048161,
                -0.13118647139714706,
                0.3304721827688712,
                -2.732053274381041
            ]
        },
        {
            "positions": [
                0.44525208697811874,
                -1.7071381732581532,
                2.2759220798640163,
                -0.047025815908546376,
                0.23568375136745562,
                -2.631112861041494
            ]
        },
        {
            "positions": [
                0.3929775630416199,
                -1.6668629870406748,
                2.2523890696798716,
                0.03713483958005431,
                0.1408953199660401,
                -2.530172447701947
            ]
        },
        {
            "positions": [
                0.34070303910512106,
                -1.6265878008231964,
                2.228856059495727,
                0.12129549506865495,
                0.046106888564624526,
                -2.4292320343624
            ]
        },
        {
            "positions": [
                0.2884285151686222,
                -1.5863126146057183,
                2.205323049311582,
                0.20545615055725558,
                -0.04868154283679105,
                -2.328291621022853
            ]
        },
        {
            "positions": [
                0.23615399123212333,
                -1.5460374283882399,
                2.181790039127437,
                0.2896168060458563,
                -0.14346997423820673,
                -2.2273512076833057
            ]
        },
        {
            "positions": [
                0.18387946729562454,
                -1.5057622421707615,
                2.1582570289432925,
                0.37377746153445696,
                -0.2382584056396222,
                -2.1264107943437587
            ]
        },
        {
            "positions": [
                0.13160494335912565,
                -1.4654870559532833,
                2.134724018759148,
                0.4579381170230577,
                -0.3330468370410379,
                -2.0254703810042116
            ]
        },
        {
            "positions": [
                0.07933041942262686,
                -1.425211869735805,
                2.111191008575003,
                0.5420987725116584,
                -0.42783526844245323,
                -1.924529967664665
            ]
        },
        {
            "positions": [
                0.027055895486127968,
                -1.3849366835183266,
                2.087657998390858,
                0.6262594280002591,
                -0.522623699843869,
                -1.8235895543251177
            ]
        },
        {
            "positions": [
                -0.025218628450370817,
                -1.3446614973008482,
                2.0641249882067134,
                0.7104200834888597,
                -0.6174121312452844,
                -1.7226491409855709
            ]
        },
        {
            "positions": [
                -0.07749315238686971,
                -1.3043863110833698,
                2.0405919780225688,
                0.7945807389774604,
                -0.7122005626467002,
                -1.6217087276460238
            ]
        },
        {
            "positions": [
                -0.1297676763233685,
                -1.2641111248658916,
                2.017058967838424,
                0.8787413944660609,
                -0.8069889940481155,
                -1.5207683143064767
            ]
        },
        {
            "positions": [
                -0.18204220025986728,
                -1.2238359386484132,
                1.9935259576542794,
                0.9629020499546614,
                -0.9017774254495311,
                -1.41982790096693
            ]
        },
        {
            "positions": [
                -0.2343167241963663,
                -1.1835607524309348,
                1.9699929474701345,
                1.0470627054432624,
                -0.9965658568509469,
                -1.3188874876273826
            ]
        },
        {
            "positions": [
                -0.2865912481328651,
                -1.1432855662134565,
                1.9464599372859896,
                1.131223360931863,
                -1.0913542882523624,
                -1.2179470742878356
            ]
        },
        {
            "positions": [
                -0.33886577206936386,
                -1.103010379995978,
                1.922926927101845,
                1.2153840164204637,
                -1.1861427196537777,
                -1.1170066609482885
            ]
        },
        {
            "positions": [
                -0.39114029600586264,
                -1.0627351937785,
                1.8993939169177003,
                1.2995446719090642,
                -1.2809311510551935,
                -1.0160662476087419
            ]
        },
        {
            "positions": [
                -0.44341481994236165,
                -1.0224600075610215,
                1.8758609067335557,
                1.3837053273976652,
                -1.3757195824566093,
                -0.9151258342691944
            ]
        },
        {
            "positions": [
                -0.49568934387886043,
                -0.9821848213435431,
                1.8523278965494108,
                1.4678659828862657,
                -1.4705080138580247,
                -0.8141854209296473
            ]
        },
        {
            "positions": [
                -0.5479638678153592,
                -0.9419096351260648,
                1.828794886365266,
                1.5520266383748664,
                -1.56529644525944,
                -0.7132450075901007
            ]
        },
        {
            "positions": [
                -0.600238391751858,
                -0.9016344489085866,
                1.8052618761811212,
                1.636187293863467,
                -1.6600848766608558,
                -0.6123045942505536
            ]
        },
        {
            "positions": [
                -0.652512915688357,
                -0.8613592626911082,
                1.7817288659969766,
                1.720347949352068,
                -1.7548733080622716,
                -0.5113641809110061
            ]
        },
        {
            "positions": [
                -0.7047874396248558,
                -0.8210840764736298,
                1.7581958558128319,
                1.8045086048406684,
                -1.849661739463687,
                -0.4104237675714595
            ]
        },
        {
            "positions": [
                -0.7570619635613546,
                -0.7808088902561514,
                1.734662845628687,
                1.888669260329269,
                -1.9444501708651023,
                -0.3094833542319124
            ]
        },
        {
            "positions": [
                -0.8093364874978534,
                -0.7405337040386732,
                1.7111298354445423,
                1.9728299158178695,
                -2.039238602266518,
                -0.20854294089236536
            ]
        },
        {
            "positions": [
                -0.8616110114343524,
                -0.7002585178211949,
                1.6875968252603974,
                2.0569905713064704,
                -2.134027033667934,
                -0.1076025275528183
            ]
        },
        {
            "positions": [
                -0.9138855353708512,
                -0.6599833316037165,
                1.6640638150762528,
                2.141151226795071,
                -2.2288154650693492,
                -0.006662114213271228
            ]
        }
    ]
}