{
    "goal": {
        "global_pose": {
            "orientation": {
                "w": 0.5084816217422485,
                "x": -0.49083608388900757,
                "y": 0.5182115435600281,
                "z": -0.4816462993621826
            },
            "position": {
                "x": 0.5540239810943604,
                "y": 0.030875300988554955,
                "z": 0.16403168439865112
            }
        },
        "name": "move_to_storage_A"
    },
    "id": "RRTstar_move_to_storage_A_51",
    "joint_names": [
        "shoulder_pan_joint",
        "shoulder_lift_joint",
        "elbow_joint",
        "wrist_1_joint",
        "wrist_2_joint",
        "wrist_3_joint"
    ],
    "metrics": {
        "cart_traj_len": 0.3528771050059582,
        "distance_elbow_joint": 0.44913025783660565,
        "distance_shoulder_lift_joint": 0.23541127570362796,
        "distance_shoulder_pan_joint": 0.46066892375075585,
        "distance_wrist_1_joint": 0.2419858048775575,
        "distance_wrist_2_joint": 1.1017490300406139,
        "distance_wrist_3_joint": 0.09979593074849591,
        "smoothness": 1.7763568464331194e-15,
        "time": 5.006523018,
        "traj_len": 1.6089565634154506,
        "weighted_distance": 2.032748857919448
    },
    "planner": "RRTstar",
    "start": {
        "state": {
            "elbow_joint": 1.9715463870305268,
            "shoulder_lift_joint": -1.1394903361783484,
            "shoulder_pan_joint": 0.12281147578464417,
            "wrist_1_joint": -0.7804599489681411,
            "wrist_2_joint": 0.12958660307563738,
            "wrist_3_joint": -3.1924946282119055
        }
    },
    "waypoints": [
        {
            "positions": [
                0.12281147578464417,
                -1.1394903361783484,
                1.9715463870305268,
                -0.7804599489681411,
                0.12958660307563738,
                -3.1924946282119055
            ]
        },
        {
            "positions": [
                0.05700162953453619,
                -1.1731205184217237,
                2.035707852435756,
                -0.815029349664935,
                0.28697932165286794,
                -3.178238066676406
            ]
        },
        {
            "positions": [
                -0.00880821671557179,
                -1.2067507006650993,
                2.0998693178409855,
                -0.8495987503617289,
                0.44437204023009846,
                -3.1639815051409066
            ]
        },
        {
            "positions": [
                -0.07461806296567976,
                -1.2403808829084746,
                2.164030783246215,
                -0.8841681510585229,
                0.601764758807329,
                -3.149724943605407
            ]
        },
        {
            "positions": [
                -0.14042790921578774,
                -1.2740110651518501,
                2.2281922486514443,
                -0.9187375517553168,
                0.7591574773845596,
                -3.135468382069908
            ]
        },
        {
            "positions": [
                -0.20623775546589573,
                -1.3076412473952255,
                2.2923537140566737,
                -0.9533069524521107,
                0.9165501959617902,
                -3.1212118205344086
            ]
        },
        {
            "positions": [
                -0.2720476017160037,
                -1.341271429638601,
                2.356515179461903,
                -0.9878763531489047,
                1.0739429145390207,
                -3.106955258998909
            ]
        },
        {
            "positions": [
                -0.33785744796611167,
                -1.3749016118819763,
                2.4206766448671324,
                -1.0224457538456986,
                1.2313356331162513,
                -3.0926986974634096
            ]
        }
    ]
}