{
    "goal": {
        "global_pose": {
            "orientation": {
                "w": 0.7031023502349854,
                "x": -0.7110244035720825,
                "y": 0.007748599164187908,
                "z": 0.005598929710686207
            },
            "position": {
                "x": 0.11585023208521307,
                "y": 0.44412534475326537,
                "z": 0.3711530566215515
            }
        },
        "name": "move_to_auspresseinheit_A"
    },
    "id": "RRTstar_move_to_auspresseinheit_A_89",
    "joint_names": [
        "shoulder_pan_joint",
        "shoulder_lift_joint",
        "elbow_joint",
        "wrist_1_joint",
        "wrist_2_joint",
        "wrist_3_joint"
    ],
    "metrics": {
        "cart_traj_len": 0.6934794867537852,
        "distance_elbow_joint": 0.10250246112940564,
        "distance_shoulder_lift_joint": 0.5321952571308339,
        "distance_shoulder_pan_joint": 1.3495374292073925,
        "distance_wrist_1_joint": 1.5163700498910635,
        "distance_wrist_2_joint": 0.5360636375830932,
        "distance_wrist_3_joint": 0.43870661934952704,
        "smoothness": 1.0105841507979751,
        "time": 5.012989761,
        "traj_len": 2.1155083205441,
        "weighted_distance": 2.7212538250711797
    },
    "planner": "RRTstar",
    "start": {
        "state": {
            "elbow_joint": 2.422574709923281,
            "shoulder_lift_joint": -1.3736533754116391,
            "shoulder_pan_joint": -0.33786336945926293,
            "wrist_1_joint": -1.0288603412921917,
            "wrist_2_joint": 1.2330224858903978,
            "wrist_3_joint": -3.094022268022082
        }
    },
    "waypoints": [
        {
            "positions": [
                -0.33786336945926293,
                -1.3736533754116391,
                2.422574709923281,
                -1.0288603412921917,
                1.2330224858903978,
                -3.094022268022082
            ]
        },
        {
            "positions": [
                -0.3636311067375286,
                -1.421183841319986,
                2.428524233654915,
                -0.8546616141677834,
                1.1657969833904296,
                -3.061895780479353
            ]
        },
        {
            "positions": [
                -0.3893988440157942,
                -1.468714307228333,
                2.434473757386549,
                -0.6804628870433752,
                1.0985714808904616,
                -3.029769292936624
            ]
        },
        {
            "positions": [
                -0.4151665812940599,
                -1.51624477313668,
                2.440423281118183,
                -0.5062641599189669,
                1.0313459783904935,
                -2.9976428053938946
            ]
        },
        {
            "positions": [
                -0.44093431857232557,
                -1.5637752390450268,
                2.446372804849817,
                -0.3320654327945587,
                0.9641204758905255,
                -2.9655163178511654
            ]
        },
        {
            "positions": [
                -0.4667020558505912,
                -1.6113057049533739,
                2.452322328581451,
                -0.15786670567015026,
                0.8968949733905573,
                -2.9333898303084363
            ]
        },
        {
            "positions": [
                -0.49246979312885686,
                -1.6588361708617207,
                2.458271852313085,
                0.016332021454257835,
                0.8296694708905893,
                -2.901263342765707
            ]
        },
        {
            "positions": [
                -0.2933146255392237,
                -1.7000049144751794,
                2.4471376325231513,
                -0.06219759306984455,
                0.8075510337933751,
                -2.9422546251145656
            ]
        },
        {
            "positions": [
                -0.09415945794959057,
                -1.741173658088638,
                2.4360034127332177,
                -0.14072720759394694,
                0.7854325966961611,
                -2.9832459074634246
            ]
        },
        {
            "positions": [
                0.10499570964004257,
                -1.7823424017020968,
                2.4248691929432837,
                -0.21925682211804934,
                0.763314159598947,
                -3.024237189812283
            ]
        },
        {
            "positions": [
                0.3041508772296757,
                -1.8235111453155557,
                2.41373497315335,
                -0.2977864366421517,
                0.7411957225017328,
                -3.0652284721611416
            ]
        },
        {
            "positions": [
                0.5033060448193089,
                -1.8646798889290144,
                2.4026007533634166,
                -0.3763160511662541,
                0.7190772854045187,
                -3.1062197545100005
            ]
        },
        {
            "positions": [
                0.702461212408942,
                -1.905848632542473,
                2.391466533573483,
                -0.4548456656903565,
                0.6969588483073046,
                -3.147211036858859
            ]
        }
    ]
}