{
    "goal": {
        "global_pose": {
            "orientation": {
                "w": 0.5084816217422485,
                "x": -0.49083608388900757,
                "y": 0.5182115435600281,
                "z": -0.4816462993621826
            },
            "position": {
                "x": 0.5540239810943604,
                "y": 0.030875300988554955,
                "z": 0.16403168439865112
            }
        },
        "name": "move_to_storage_A"
    },
    "id": "RRTstar_move_to_storage_A_60",
    "joint_names": [
        "shoulder_pan_joint",
        "shoulder_lift_joint",
        "elbow_joint",
        "wrist_1_joint",
        "wrist_2_joint",
        "wrist_3_joint"
    ],
    "metrics": {
        "cart_traj_len": 0.35239019197826527,
        "distance_elbow_joint": 0.4476245049138887,
        "distance_shoulder_lift_joint": 0.23501930980205432,
        "distance_shoulder_pan_joint": 0.4617365526158457,
        "distance_wrist_1_joint": 0.23584377565687042,
        "distance_wrist_2_joint": 1.0931539972572692,
        "distance_wrist_3_joint": 0.10068865798410265,
        "smoothness": 0.0,
        "time": 5.000080091,
        "traj_len": 1.6043898523208229,
        "weighted_distance": 2.0259422220567833
    },
    "planner": "RRTstar",
    "start": {
        "state": {
            "elbow_joint": 1.9715463870305268,
            "shoulder_lift_joint": -1.1394903361783484,
            "shoulder_pan_joint": 0.12281147578464417,
            "wrist_1_joint": -0.7804599489681411,
            "wrist_2_joint": 0.12958660307563738,
            "wrist_3_joint": -3.1924946282119055
        }
    },
    "waypoints": [
        {
            "positions": [
                0.12281147578464417,
                -1.1394903361783484,
                1.9715463870305268,
                -0.7804599489681411,
                0.12958660307563738,
                -3.1924946282119055
            ]
        },
        {
            "positions": [
                0.05684911112523765,
                -1.1730645232929275,
                2.035492744875368,
                -0.8141519169191226,
                0.2857514598266758,
                -3.1781105342141767
            ]
        },
        {
            "positions": [
                -0.009113253534168878,
                -1.2066387104075067,
                2.099439102720209,
                -0.8478438848701041,
                0.44191631657771424,
                -3.1637264402164478
            ]
        },
        {
            "positions": [
                -0.0750756181935754,
                -1.2402128975220859,
                2.1633854605650504,
                -0.8815358528210855,
                0.5980811733287528,
                -3.149342346218719
            ]
        },
        {
            "positions": [
                -0.1410379828529819,
                -1.2737870846366652,
                2.227331818409892,
                -0.915227820772067,
                0.7542460300797912,
                -3.1349582522209896
            ]
        },
        {
            "positions": [
                -0.20700034751238844,
                -1.3073612717512444,
                2.291278176254733,
                -0.9489197887230485,
                0.9104108868308297,
                -3.1205741582232607
            ]
        },
        {
            "positions": [
                -0.27296271217179496,
                -1.3409354588658235,
                2.355224534099574,
                -0.98261175667403,
                1.0665757435818681,
                -3.106190064225532
            ]
        },
        {
            "positions": [
                -0.3389250768312015,
                -1.3745096459804027,
                2.4191708919444155,
                -1.0163037246250115,
                1.2227406003329067,
                -3.091805970227803
            ]
        }
    ]
}