{
    "goal": {
        "global_pose": {
            "orientation": {
                "w": 0.7031023502349854,
                "x": -0.7110244035720825,
                "y": 0.007748599164187908,
                "z": 0.005598929710686207
            },
            "position": {
                "x": 0.11585023208521307,
                "y": 0.44412534475326537,
                "z": 0.3711530566215515
            }
        },
        "name": "move_to_auspresseinheit_A"
    },
    "id": "RRTstar_move_to_auspresseinheit_A_79",
    "joint_names": [
        "shoulder_pan_joint",
        "shoulder_lift_joint",
        "elbow_joint",
        "wrist_1_joint",
        "wrist_2_joint",
        "wrist_3_joint"
    ],
    "metrics": {
        "cart_traj_len": 0.7920968768470659,
        "distance_elbow_joint": 0.19471903151732128,
        "distance_shoulder_lift_joint": 0.5363856246152345,
        "distance_shoulder_pan_joint": 1.218846592892921,
        "distance_wrist_1_joint": 0.5442426996901097,
        "distance_wrist_2_joint": 0.5251520320908676,
        "distance_wrist_3_joint": 0.08429936008327354,
        "smoothness": 0.48968120663680803,
        "time": 5.005029888,
        "traj_len": 1.7617165892644955,
        "weighted_distance": 2.083659951344569
    },
    "planner": "RRTstar",
    "start": {
        "state": {
            "elbow_joint": 2.422574709923281,
            "shoulder_lift_joint": -1.3736533754116391,
            "shoulder_pan_joint": -0.33786336945926293,
            "wrist_1_joint": -1.0288603412921917,
            "wrist_2_joint": 1.2330224858903978,
            "wrist_3_joint": -3.094022268022082
        }
    },
    "waypoints": [
        {
            "positions": [
                -0.33786336945926293,
                -1.3736533754116391,
                2.422574709923281,
                -1.0288603412921917,
                1.2330224858903978,
                -3.094022268022082
            ]
        },
        {
            "positions": [
                -0.36698343899163693,
                -1.4324667035810488,
                2.3860083091778654,
                -0.9646802289420239,
                1.0616360075051818,
                -3.112431551286975
            ]
        },
        {
            "positions": [
                -0.3961035085240109,
                -1.4912800317504584,
                2.34944190843245,
                -0.9005001165918561,
                0.8902495291199661,
                -3.1308408345518677
            ]
        },
        {
            "positions": [
                -0.4252235780563849,
                -1.550093359919868,
                2.312875507687034,
                -0.8363200042416883,
                0.7188630507347503,
                -3.1492501178167607
            ]
        },
        {
            "positions": [
                -0.1989263011972251,
                -1.6220824879412692,
                2.329879473543249,
                -0.765979531713767,
                0.7166645313477062,
                -3.143435815759042
            ]
        },
        {
            "positions": [
                0.027370975661934693,
                -1.6940716159626703,
                2.346883439399464,
                -0.6956390591858458,
                0.7144660119606623,
                -3.1376215137013226
            ]
        },
        {
            "positions": [
                0.2536682525210945,
                -1.7660607439840714,
                2.363887405255679,
                -0.6252985866579246,
                0.7122674925736182,
                -3.1318072116436038
            ]
        },
        {
            "positions": [
                0.4799655293802543,
                -1.8380498720054725,
                2.3808913711118938,
                -0.5549581141300033,
                0.7100689731865742,
                -3.1259929095858845
            ]
        },
        {
            "positions": [
                0.7062628062394142,
                -1.9100390000268737,
                2.3978953369681086,
                -0.48461764160208204,
                0.7078704537995302,
                -3.1201786075281657
            ]
        }
    ]
}