{
    "goal": {
        "global_pose": {
            "orientation": {
                "w": 0.7047431468963623,
                "x": -0.7094548344612122,
                "y": 0.0024358443915843964,
                "z": -0.0022348060738295317
            },
            "position": {
                "x": 0.6094750761985779,
                "y": 0.3671506643295288,
                "z": 0.19426114857196808
            }
        },
        "name": "move_to_magneteinheit_A"
    },
    "id": "RRTstar_move_to_magneteinheit_A_138",
    "joint_names": [
        "shoulder_pan_joint",
        "shoulder_lift_joint",
        "elbow_joint",
        "wrist_1_joint",
        "wrist_2_joint",
        "wrist_3_joint"
    ],
    "metrics": {
        "cart_traj_len": 1.8795996429747037,
        "distance_elbow_joint": 3.905642625626783,
        "distance_shoulder_lift_joint": 0.6979500821717768,
        "distance_shoulder_pan_joint": 1.2404422341502426,
        "distance_wrist_1_joint": 1.4777548669504774,
        "distance_wrist_2_joint": 1.6940540364779204,
        "distance_wrist_3_joint": 1.0831074749700593,
        "smoothness": 4.605369582982944e-16,
        "time": 5.0077822119999995,
        "traj_len": 3.177884724206852,
        "weighted_distance": 3.9289916230142024
    },
    "planner": "RRTstar",
    "start": {
        "state": {
            "elbow_joint": -1.919643507792019,
            "shoulder_lift_joint": -0.07675430207160344,
            "shoulder_pan_joint": -1.1188671864651873,
            "wrist_1_joint": 0.42560062535961957,
            "wrist_2_joint": 1.5706038300724876,
            "wrist_3_joint": 1.1188968870953055
        }
    },
    "waypoints": [
        {
            "positions": [
                -1.1188671864651873,
                -0.07675430207160344,
                -1.919643507792019,
                0.42560062535961957,
                1.5706038300724876,
                1.1188968870953055
            ]
        },
        {
            "positions": [
                -1.0711578697671011,
                -0.10359853600128717,
                -1.7694264837294504,
                0.482437351011561,
                1.5054479055925676,
                1.0772389072887647
            ]
        },
        {
            "positions": [
                -1.0234485530690147,
                -0.1304427699309709,
                -1.619209459666882,
                0.5392740766635025,
                1.4402919811126476,
                1.035580927482224
            ]
        },
        {
            "positions": [
                -0.9757392363709285,
                -0.1572870038606546,
                -1.4689924356043134,
                0.5961108023154439,
                1.3751360566327275,
                0.9939229476756833
            ]
        },
        {
            "positions": [
                -0.9280299196728423,
                -0.18413123779033835,
                -1.3187754115417447,
                0.6529475279673853,
                1.3099801321528075,
                0.9522649678691426
            ]
        },
        {
            "positions": [
                -0.8803206029747561,
                -0.21097547172002207,
                -1.1685583874791763,
                0.7097842536193268,
                1.2448242076728875,
                0.9106069880626018
            ]
        },
        {
            "positions": [
                -0.8326112862766698,
                -0.23781970564970578,
                -1.0183413634166074,
                0.7666209792712682,
                1.1796682831929675,
                0.8689490082560611
            ]
        },
        {
            "positions": [
                -0.7849019695785836,
                -0.2646639395793895,
                -0.868124339354039,
                0.8234577049232097,
                1.1145123587130474,
                0.8272910284495203
            ]
        },
        {
            "positions": [
                -0.7371926528804973,
                -0.2915081735090732,
                -0.7179073152914703,
                0.8802944305751511,
                1.0493564342331274,
                0.7856330486429796
            ]
        },
        {
            "positions": [
                -0.6894833361824111,
                -0.3183524074387569,
                -0.5676902912289019,
                0.9371311562270925,
                0.9842005097532075,
                0.7439750688364388
            ]
        },
        {
            "positions": [
                -0.6417740194843248,
                -0.3451966413684407,
                -0.41747326716633326,
                0.9939678818790341,
                0.9190445852732874,
                0.7023170890298981
            ]
        },
        {
            "positions": [
                -0.5940647027862386,
                -0.3720408752981244,
                -0.2672562431037646,
                1.0508046075309754,
                0.8538886607933674,
                0.6606591092233574
            ]
        },
        {
            "positions": [
                -0.5463553860881523,
                -0.3988851092278081,
                -0.11703921904119596,
                1.107641333182917,
                0.7887327363134474,
                0.6190011294168166
            ]
        },
        {
            "positions": [
                -0.49864606939006606,
                -0.42572934315749184,
                0.033177805021372464,
                1.1644780588348582,
                0.7235768118335274,
                0.5773431496102759
            ]
        },
        {
            "positions": [
                -0.45093675269197986,
                -0.45257357708717555,
                0.1833948290839411,
                1.2213147844867998,
                0.6584208873536074,
                0.5356851698037352
            ]
        },
        {
            "positions": [
                -0.40322743599389366,
                -0.47941781101685926,
                0.33361185314650954,
                1.278151510138741,
                0.5932649628736875,
                0.4940271899971944
            ]
        },
        {
            "positions": [
                -0.35551811929580723,
                -0.506262044946543,
                0.4838288772090784,
                1.3349882357906826,
                0.5281090383937672,
                0.45236921019065357
            ]
        },
        {
            "positions": [
                -0.30780880259772103,
                -0.5331062788762267,
                0.6340459012716468,
                1.3918249614426241,
                0.4629531139138474,
                0.41071123038411295
            ]
        },
        {
            "positions": [
                -0.26009948589963483,
                -0.5599505128059105,
                0.7842629253342153,
                1.4486616870945654,
                0.3977971894339274,
                0.3690532505775722
            ]
        },
        {
            "positions": [
                -0.21239016920154863,
                -0.5867947467355941,
                0.9344799493967837,
                1.505498412746507,
                0.33264126495400737,
                0.3273952707710315
            ]
        },
        {
            "positions": [
                -0.1646808525034622,
                -0.613638980665278,
                1.0846969734593526,
                1.5623351383984485,
                0.2674853404740871,
                0.28573729096449063
            ]
        },
        {
            "positions": [
                -0.116971535805376,
                -0.6404832145949617,
                1.234913997521921,
                1.6191718640503898,
                0.20232941599416732,
                0.2440793111579499
            ]
        },
        {
            "positions": [
                -0.0692622191072898,
                -0.6673274485246454,
                1.3851310215844899,
                1.6760085897023314,
                0.1371734915142473,
                0.20242133135140916
            ]
        },
        {
            "positions": [
                -0.0215529024092036,
                -0.6941716824543291,
                1.5353480456470583,
                1.7328453153542727,
                0.07201756703432727,
                0.16076335154486854
            ]
        },
        {
            "positions": [
                0.026156414288882823,
                -0.7210159163840129,
                1.6855650697096272,
                1.7896820410062142,
                0.0068616425544072435,
                0.11910537173832769
            ]
        },
        {
            "positions": [
                0.07386573098696902,
                -0.7478601503136966,
                1.8357820937721956,
                1.8465187666581557,
                -0.05829428192551278,
                0.07744739193178685
            ]
        },
        {
            "positions": [
                0.12157504768505532,
                -0.7747043842433803,
                1.985999117834764,
                1.903355492310097,
                -0.1234502064054329,
                0.03578941212524623
            ]
        }
    ]
}