{
    "goal": {
        "global_pose": {
            "orientation": {
                "w": 0.7047431468963623,
                "x": -0.7094548344612122,
                "y": 0.0024358443915843964,
                "z": -0.0022348060738295317
            },
            "position": {
                "x": 0.6094750761985779,
                "y": 0.3671506643295288,
                "z": 0.19426114857196808
            }
        },
        "name": "move_to_magneteinheit_A"
    },
    "id": "RRTstar_move_to_magneteinheit_A_67",
    "joint_names": [
        "shoulder_pan_joint",
        "shoulder_lift_joint",
        "elbow_joint",
        "wrist_1_joint",
        "wrist_2_joint",
        "wrist_3_joint"
    ],
    "metrics": {
        "cart_traj_len": 1.872969655023062,
        "distance_elbow_joint": 3.926482555243493,
        "distance_shoulder_lift_joint": 0.7064273650875569,
        "distance_shoulder_pan_joint": 1.2417518400838845,
        "distance_wrist_1_joint": 1.54523492615533,
        "distance_wrist_2_joint": 1.694119911965852,
        "distance_wrist_3_joint": 1.1682601601804472,
        "smoothness": 3.6185046922262754e-16,
        "time": 5.009503346,
        "traj_len": 3.2065989394865966,
        "weighted_distance": 3.982229515886627
    },
    "planner": "RRTstar",
    "start": {
        "state": {
            "elbow_joint": -1.919643507792019,
            "shoulder_lift_joint": -0.07675430207160344,
            "shoulder_pan_joint": -1.1188671864651873,
            "wrist_1_joint": 0.42560062535961957,
            "wrist_2_joint": 1.5706038300724876,
            "wrist_3_joint": 1.1188968870953055
        }
    },
    "waypoints": [
        {
            "positions": [
                -1.1188671864651873,
                -0.07675430207160344,
                -1.919643507792019,
                0.42560062535961957,
                1.5706038300724876,
                1.1188968870953055
            ]
        },
        {
            "positions": [
                -1.071107500308115,
                -0.10392458534420179,
                -1.7686249479749616,
                0.4850327379040553,
                1.5054453719199548,
                1.073963804011442
            ]
        },
        {
            "positions": [
                -1.0233478141510424,
                -0.13109486861680014,
                -1.6176063881579044,
                0.5444648504484911,
                1.4402869137674221,
                1.0290307209275789
            ]
        },
        {
            "positions": [
                -0.9755881279939699,
                -0.1582651518893985,
                -1.4665878283408467,
                0.6038969629929269,
                1.3751284556148893,
                0.9840976378437155
            ]
        },
        {
            "positions": [
                -0.9278284418368974,
                -0.18543543516199684,
                -1.3155692685237894,
                0.6633290755373626,
                1.3099699974623564,
                0.9391645547598522
            ]
        },
        {
            "positions": [
                -0.8800687556798249,
                -0.2126057184345952,
                -1.164550708706732,
                0.7227611880817983,
                1.2448115393098238,
                0.8942314716759887
            ]
        },
        {
            "positions": [
                -0.8323090695227524,
                -0.23977600170719351,
                -1.0135321488896745,
                0.7821933006262343,
                1.179653081157291,
                0.8492983885921255
            ]
        },
        {
            "positions": [
                -0.78454938336568,
                -0.2669462849797919,
                -0.8625135890726172,
                0.84162541317067,
                1.114494623004758,
                0.804365305508262
            ]
        },
        {
            "positions": [
                -0.7367896972086074,
                -0.2941165682523902,
                -0.7114950292555597,
                0.9010575257151057,
                1.0493361648522255,
                0.7594322224243987
            ]
        },
        {
            "positions": [
                -0.689030011051535,
                -0.32128685152498854,
                -0.5604764694385023,
                0.9604896382595414,
                0.9841777066996926,
                0.7144991393405353
            ]
        },
        {
            "positions": [
                -0.6412703248944625,
                -0.34845713479758694,
                -0.4094579096214448,
                1.0199217508039773,
                0.9190192485471599,
                0.669566056256672
            ]
        },
        {
            "positions": [
                -0.5935106387373901,
                -0.37562741807018524,
                -0.25843934980438754,
                1.079353863348413,
                0.8538607903946271,
                0.6246329731728086
            ]
        },
        {
            "positions": [
                -0.5457509525803176,
                -0.4027977013427836,
                -0.10742078998732985,
                1.138785975892849,
                0.7887023322420943,
                0.5796998900889453
            ]
        },
        {
            "positions": [
                -0.4979912664232451,
                -0.42996798461538194,
                0.043597769829727406,
                1.1982180884372846,
                0.7235438740895616,
                0.534766807005082
            ]
        },
        {
            "positions": [
                -0.4502315802661726,
                -0.4571382678879803,
                0.19461632964678466,
                1.2576502009817203,
                0.6583854159370288,
                0.4898337239212186
            ]
        },
        {
            "positions": [
                -0.4024718941091002,
                -0.4843085511605786,
                0.3456348894638419,
                1.317082313526156,
                0.5932269577844961,
                0.44490064083735525
            ]
        },
        {
            "positions": [
                -0.3547122079520276,
                -0.511478834433177,
                0.4966534492808996,
                1.376514426070592,
                0.5280684996319631,
                0.3999675577534918
            ]
        },
        {
            "positions": [
                -0.30695252179495514,
                -0.5386491177057753,
                0.6476720090979573,
                1.4359465386150276,
                0.4629100414794305,
                0.35503447466962856
            ]
        },
        {
            "positions": [
                -0.25919283563788276,
                -0.5658194009783737,
                0.7986905689150146,
                1.4953786511594633,
                0.39775158332689764,
                0.3101013915857652
            ]
        },
        {
            "positions": [
                -0.21143314948081027,
                -0.5929896842509719,
                0.9497091287320718,
                1.5548107637038993,
                0.332593125174365,
                0.2651683085019019
            ]
        },
        {
            "positions": [
                -0.16367346332373767,
                -0.6201599675235705,
                1.1007276885491295,
                1.614242876248335,
                0.26743466702183216,
                0.22023522541803842
            ]
        },
        {
            "positions": [
                -0.11591377716666518,
                -0.6473302507961687,
                1.2517462483661868,
                1.6736749887927709,
                0.2022762088692993,
                0.17530214233417507
            ]
        },
        {
            "positions": [
                -0.0681540910095928,
                -0.6745005340687671,
                1.402764808183244,
                1.7331071013372066,
                0.13711775071676668,
                0.13036905925031173
            ]
        },
        {
            "positions": [
                -0.02039440485252042,
                -0.7016708173413653,
                1.5537833680003017,
                1.7925392138816423,
                0.07195929256423383,
                0.08543597616644849
            ]
        },
        {
            "positions": [
                0.02736528130455218,
                -0.7288411006139637,
                1.7048019278173594,
                1.8519713264260782,
                0.0068008344117009845,
                0.040502893082585034
            ]
        },
        {
            "positions": [
                0.07512496746162478,
                -0.7560113838865621,
                1.8558204876344166,
                1.911403438970514,
                -0.058357623740831865,
                -0.004430190001278422
            ]
        },
        {
            "positions": [
                0.12288465361869708,
                -0.7831816671591604,
                2.0068390474514737,
                1.9708355515149496,
                -0.12351608189336456,
                -0.04936327308514164
            ]
        }
    ]
}