{
    "goal": {
        "global_pose": {
            "orientation": {
                "w": 0.5084816217422485,
                "x": -0.49083608388900757,
                "y": 0.5182115435600281,
                "z": -0.4816462993621826
            },
            "position": {
                "x": 0.5540239810943604,
                "y": 0.030875300988554955,
                "z": 0.16403168439865112
            }
        },
        "name": "move_to_storage_A"
    },
    "id": "RRTstar_move_to_storage_A_27",
    "joint_names": [
        "shoulder_pan_joint",
        "shoulder_lift_joint",
        "elbow_joint",
        "wrist_1_joint",
        "wrist_2_joint",
        "wrist_3_joint"
    ],
    "metrics": {
        "cart_traj_len": 0.35284680603653934,
        "distance_elbow_joint": 0.44867343027969175,
        "distance_shoulder_lift_joint": 0.23344712924117106,
        "distance_shoulder_pan_joint": 0.4622310357969408,
        "distance_wrist_1_joint": 0.2371298565020029,
        "distance_wrist_2_joint": 1.0943414853441185,
        "distance_wrist_3_joint": 0.08580816604568353,
        "smoothness": 0.0,
        "time": 5.000388601,
        "traj_len": 1.6005096385869122,
        "weighted_distance": 2.016114772811086
    },
    "planner": "RRTstar",
    "start": {
        "state": {
            "elbow_joint": 1.9715463870305268,
            "shoulder_lift_joint": -1.1394903361783484,
            "shoulder_pan_joint": 0.12281147578464417,
            "wrist_1_joint": -0.7804599489681411,
            "wrist_2_joint": 0.12958660307563738,
            "wrist_3_joint": -3.1924946282119055
        }
    },
    "waypoints": [
        {
            "positions": [
                0.12281147578464417,
                -1.1394903361783484,
                1.9715463870305268,
                -0.7804599489681411,
                0.12958660307563738,
                -3.1924946282119055
            ]
        },
        {
            "positions": [
                0.056778470670795486,
                -1.1728399260699442,
                2.035642591356197,
                -0.8143356427541415,
                0.28592110098194,
                -3.180236318776808
            ]
        },
        {
            "positions": [
                -0.0092545344430532,
                -1.2061895159615401,
                2.0997387956818674,
                -0.8482113365401419,
                0.4422555988882426,
                -3.1679780093417103
            ]
        },
        {
            "positions": [
                -0.07528753955690189,
                -1.239539105853136,
                2.1638350000075377,
                -0.8820870303261423,
                0.5985900967945452,
                -3.1557196999066126
            ]
        },
        {
            "positions": [
                -0.14132054467075056,
                -1.2728886957447318,
                2.2279312043332076,
                -0.9159627241121427,
                0.7549245947008479,
                -3.143461390471515
            ]
        },
        {
            "positions": [
                -0.20735354978459924,
                -1.3062382856363277,
                2.292027408658878,
                -0.9498384178981432,
                0.9112590926071507,
                -3.1312030810364173
            ]
        },
        {
            "positions": [
                -0.27338655489844793,
                -1.3395878755279236,
                2.356123612984548,
                -0.9837141116841436,
                1.067593590513453,
                -3.1189447716013197
            ]
        },
        {
            "positions": [
                -0.3394195600122966,
                -1.3729374654195194,
                2.4202198173102185,
                -1.017589805470144,
                1.2239280884197559,
                -3.106686462166222
            ]
        }
    ]
}