{
    "goal": {
        "global_pose": {
            "orientation": {
                "w": 0.5084816217422485,
                "x": -0.49083608388900757,
                "y": 0.5182115435600281,
                "z": -0.4816462993621826
            },
            "position": {
                "x": 0.5540239810943604,
                "y": 0.030875300988554955,
                "z": 0.16403168439865112
            }
        },
        "name": "move_to_storage_A"
    },
    "id": "RRTstar_move_to_storage_A_145",
    "joint_names": [
        "shoulder_pan_joint",
        "shoulder_lift_joint",
        "elbow_joint",
        "wrist_1_joint",
        "wrist_2_joint",
        "wrist_3_joint"
    ],
    "metrics": {
        "cart_traj_len": 0.35362527152477713,
        "distance_elbow_joint": 0.449906894621908,
        "distance_shoulder_lift_joint": 0.23277707736873832,
        "distance_shoulder_pan_joint": 0.46423858237228194,
        "distance_wrist_1_joint": 0.24405431891968699,
        "distance_wrist_2_joint": 1.0912384725108548,
        "distance_wrist_3_joint": 0.09346651033532094,
        "smoothness": 2.2204460668324854e-16,
        "time": 5.000280193999999,
        "traj_len": 1.6048930980376204,
        "weighted_distance": 2.0243289426943374
    },
    "planner": "RRTstar",
    "start": {
        "state": {
            "elbow_joint": 1.9715463870305268,
            "shoulder_lift_joint": -1.1394903361783484,
            "shoulder_pan_joint": 0.12281147578464417,
            "wrist_1_joint": -0.7804599489681411,
            "wrist_2_joint": 0.12958660307563738,
            "wrist_3_joint": -3.1924946282119055
        }
    },
    "waypoints": [
        {
            "positions": [
                0.12281147578464417,
                -1.1394903361783484,
                1.9715463870305268,
                -0.7804599489681411,
                0.12958660307563738,
                -3.1924946282119055
            ]
        },
        {
            "positions": [
                0.05649167830288962,
                -1.1727442043738825,
                2.035818800547942,
                -0.8153248516709535,
                0.28547781343433093,
                -3.179142269592574
            ]
        },
        {
            "positions": [
                -0.009828119178864933,
                -1.2059980725694164,
                2.100091214065358,
                -0.850189754373766,
                0.44136902379302445,
                -3.1657899109732424
            ]
        },
        {
            "positions": [
                -0.0761479166606195,
                -1.2392519407649505,
                2.164363627582773,
                -0.8850546570765784,
                0.597260234151718,
                -3.152437552353911
            ]
        },
        {
            "positions": [
                -0.14246771414237402,
                -1.2725058089604846,
                2.2286360411001884,
                -0.9199195597793908,
                0.7531514445104116,
                -3.139085193734579
            ]
        },
        {
            "positions": [
                -0.20878751162412862,
                -1.3057596771560187,
                2.2929084546176037,
                -0.9547844624822033,
                0.9090426548691052,
                -3.125732835115248
            ]
        },
        {
            "positions": [
                -0.27510730910588316,
                -1.3390135453515526,
                2.3571808681350195,
                -0.9896493651850156,
                1.0649338652277986,
                -3.112380476495916
            ]
        },
        {
            "positions": [
                -0.34142710658763775,
                -1.3722674135470867,
                2.421453281652435,
                -1.024514267887828,
                1.2208250755864922,
                -3.0990281178765846
            ]
        }
    ]
}