{
    "goal": {
        "global_pose": {
            "orientation": {
                "w": 0.7047431468963623,
                "x": -0.7094548344612122,
                "y": 0.0024358443915843964,
                "z": -0.0022348060738295317
            },
            "position": {
                "x": 0.6094750761985779,
                "y": 0.3671506643295288,
                "z": 0.19426114857196808
            }
        },
        "name": "move_to_magneteinheit_A"
    },
    "id": "RRTstar_move_to_magneteinheit_A_72",
    "joint_names": [
        "shoulder_pan_joint",
        "shoulder_lift_joint",
        "elbow_joint",
        "wrist_1_joint",
        "wrist_2_joint",
        "wrist_3_joint"
    ],
    "metrics": {
        "cart_traj_len": 1.8788336233556788,
        "distance_elbow_joint": 3.9143370052443434,
        "distance_shoulder_lift_joint": 0.7004487869821251,
        "distance_shoulder_pan_joint": 1.242068384108131,
        "distance_wrist_1_joint": 1.4920420569872128,
        "distance_wrist_2_joint": 1.7084011272595925,
        "distance_wrist_3_joint": 1.1038593970720585,
        "smoothness": 3.6185046743786445e-16,
        "time": 5.009591819000001,
        "traj_len": 3.1876569385135323,
        "weighted_distance": 3.945797604546435
    },
    "planner": "RRTstar",
    "start": {
        "state": {
            "elbow_joint": -1.919643507792019,
            "shoulder_lift_joint": -0.07675430207160344,
            "shoulder_pan_joint": -1.1188671864651873,
            "wrist_1_joint": 0.42560062535961957,
            "wrist_2_joint": 1.5706038300724876,
            "wrist_3_joint": 1.1188968870953055
        }
    },
    "waypoints": [
        {
            "positions": [
                -1.1188671864651873,
                -0.07675430207160344,
                -1.919643507792019,
                0.42560062535961957,
                1.5706038300724876,
                1.1188968870953055
            ]
        },
        {
            "positions": [
                -1.0710953255379516,
                -0.1036946400324544,
                -1.7690920845133904,
                0.48298685832066623,
                1.5048960944086571,
                1.076440756438688
            ]
        },
        {
            "positions": [
                -1.0233234646107157,
                -0.13063497799330537,
                -1.618540661234762,
                0.5403730912817128,
                1.4391883587448266,
                1.0339846257820702
            ]
        },
        {
            "positions": [
                -0.9755516036834799,
                -0.15757531595415636,
                -1.4679892379561332,
                0.5977593242427595,
                1.3734806230809962,
                0.9915284951254526
            ]
        },
        {
            "positions": [
                -0.9277797427562441,
                -0.18451565391500732,
                -1.3174378146775045,
                0.6551455572038062,
                1.3077728874171657,
                0.949072364468835
            ]
        },
        {
            "positions": [
                -0.8800078818290082,
                -0.21145599187585828,
                -1.166886391398876,
                0.7125317901648528,
                1.2420651517533352,
                0.9066162338122173
            ]
        },
        {
            "positions": [
                -0.8322360209017725,
                -0.23839632983670928,
                -1.0163349681202476,
                0.7699180231258995,
                1.1763574160895047,
                0.8641601031555997
            ]
        },
        {
            "positions": [
                -0.7844641599745368,
                -0.2653366677975602,
                -0.8657835448416189,
                0.8273042560869461,
                1.1106496804256742,
                0.8217039724989821
            ]
        },
        {
            "positions": [
                -0.7366922990473008,
                -0.2922770057584112,
                -0.7152321215629902,
                0.8846904890479927,
                1.0449419447618438,
                0.7792478418423645
            ]
        },
        {
            "positions": [
                -0.6889204381200651,
                -0.31921734371926214,
                -0.5646806982843617,
                0.9420767220090394,
                0.9792342090980133,
                0.7367917111857468
            ]
        },
        {
            "positions": [
                -0.6411485771928292,
                -0.3461576816801131,
                -0.41412927500573304,
                0.999462954970086,
                0.9135264734341828,
                0.6943355805291291
            ]
        },
        {
            "positions": [
                -0.5933767162655934,
                -0.3730980196409641,
                -0.2635778517271046,
                1.0568491879311326,
                0.8478187377703523,
                0.6518794498725116
            ]
        },
        {
            "positions": [
                -0.5456048553383576,
                -0.4000383576018151,
                -0.11302642844847588,
                1.1142354208921794,
                0.7821110021065218,
                0.6094233192158939
            ]
        },
        {
            "positions": [
                -0.49783299441112183,
                -0.42697869556266604,
                0.03752499483015259,
                1.171621653853226,
                0.7164032664426914,
                0.5669671885592763
            ]
        },
        {
            "positions": [
                -0.4500611334838861,
                -0.453919033523517,
                0.18807641810878128,
                1.2290078868142726,
                0.6506955307788609,
                0.5245110579026587
            ]
        },
        {
            "positions": [
                -0.40228927255665026,
                -0.48085937148436797,
                0.33862784138740953,
                1.2863941197753193,
                0.5849877951150305,
                0.48205492724604104
            ]
        },
        {
            "positions": [
                -0.3545174116294144,
                -0.5077997094452189,
                0.48917926466603867,
                1.3437803527363659,
                0.5192800594511999,
                0.43959879658942336
            ]
        },
        {
            "positions": [
                -0.30674555070217857,
                -0.53474004740607,
                0.6397306879446669,
                1.4011665856974125,
                0.45357232378736945,
                0.3971426659328058
            ]
        },
        {
            "positions": [
                -0.25897368977494284,
                -0.5616803853669209,
                0.7902821112232956,
                1.4585528186584593,
                0.38786458812353897,
                0.3546865352761881
            ]
        },
        {
            "positions": [
                -0.211201828847707,
                -0.5886207233277718,
                0.9408335345019239,
                1.515939051619506,
                0.3221568524597085,
                0.3122304046195705
            ]
        },
        {
            "positions": [
                -0.16342996792047115,
                -0.6155610612886229,
                1.091384957780553,
                1.5733252845805525,
                0.256449116795878,
                0.26977427396295284
            ]
        },
        {
            "positions": [
                -0.11565810699323542,
                -0.6425013992494739,
                1.2419363810591812,
                1.6307115175415992,
                0.19074138113204753,
                0.22731814330633526
            ]
        },
        {
            "positions": [
                -0.06788624606599947,
                -0.6694417372103247,
                1.39248780433781,
                1.6880977505026458,
                0.12503364546821705,
                0.18486201264971758
            ]
        },
        {
            "positions": [
                -0.020114385138763735,
                -0.6963820751711758,
                1.5430392276164382,
                1.7454839834636924,
                0.05932590980438657,
                0.1424058819931
            ]
        },
        {
            "positions": [
                0.02765747578847222,
                -0.7233224131320268,
                1.6935906508950673,
                1.8028702164247392,
                -0.0063818258594439126,
                0.0999497513364822
            ]
        },
        {
            "positions": [
                0.07542933671570795,
                -0.7502627510928777,
                1.8441420741736956,
                1.8602564493857858,
                -0.07208956152327439,
                0.05749362067986463
            ]
        },
        {
            "positions": [
                0.12320119764294359,
                -0.7772030890537286,
                1.9946934974523245,
                1.9176426823468324,
                -0.13779729718710493,
                0.015037490023247108
            ]
        }
    ]
}