{
    "goal": {
        "global_pose": {
            "orientation": {
                "w": 0.7031023502349854,
                "x": -0.7110244035720825,
                "y": 0.007748599164187908,
                "z": 0.005598929710686207
            },
            "position": {
                "x": 0.11585023208521307,
                "y": 0.44412534475326537,
                "z": 0.3711530566215515
            }
        },
        "name": "move_to_auspresseinheit_A"
    },
    "id": "RRTstar_move_to_auspresseinheit_A_111",
    "joint_names": [
        "shoulder_pan_joint",
        "shoulder_lift_joint",
        "elbow_joint",
        "wrist_1_joint",
        "wrist_2_joint",
        "wrist_3_joint"
    ],
    "metrics": {
        "cart_traj_len": 1.3344479894786883,
        "distance_elbow_joint": 1.0845899034957598,
        "distance_shoulder_lift_joint": 0.5337119226058136,
        "distance_shoulder_pan_joint": 1.069356038580668,
        "distance_wrist_1_joint": 0.5591947474833607,
        "distance_wrist_2_joint": 0.550340947282251,
        "distance_wrist_3_joint": 0.07552513353142887,
        "smoothness": 0.718274974344618,
        "time": 5.005995018999999,
        "traj_len": 1.9679224306306593,
        "weighted_distance": 2.2656797335033367
    },
    "planner": "RRTstar",
    "start": {
        "state": {
            "elbow_joint": 2.422574709923281,
            "shoulder_lift_joint": -1.3736533754116391,
            "shoulder_pan_joint": -0.33786336945926293,
            "wrist_1_joint": -1.0288603412921917,
            "wrist_2_joint": 1.2330224858903978,
            "wrist_3_joint": -3.094022268022082
        }
    },
    "waypoints": [
        {
            "positions": [
                -0.33786336945926293,
                -1.3736533754116391,
                2.422574709923281,
                -1.0288603412921917,
                1.2330224858903978,
                -3.094022268022082
            ]
        },
        {
            "positions": [
                -0.3406870490654311,
                -1.4578860752838199,
                2.3111883632718837,
                -0.982725846558317,
                1.128854082666334,
                -3.105306752223303
            ]
        },
        {
            "positions": [
                -0.34351072867159926,
                -1.5421187751560004,
                2.1998020166204864,
                -0.9365913518244422,
                1.0246856794422703,
                -3.116591236424524
            ]
        },
        {
            "positions": [
                -0.34633440827776746,
                -1.6263514750281811,
                2.088415669969089,
                -0.8904568570905675,
                0.9205172762182066,
                -3.127875720625745
            ]
        },
        {
            "positions": [
                -0.3491580878839356,
                -1.7105841749003616,
                1.9770293233176914,
                -0.8443223623566928,
                0.8163488729941427,
                -3.139160204826966
            ]
        },
        {
            "positions": [
                -0.3519817674901038,
                -1.7948168747725424,
                1.865642976666294,
                -0.798187867622818,
                0.712180469770079,
                -3.1504446890281868
            ]
        },
        {
            "positions": [
                -0.18718912614188604,
                -1.8150348377755652,
                1.944608742433246,
                -0.745414559378949,
                0.7067646881968792,
                -3.1478125303273927
            ]
        },
        {
            "positions": [
                -0.022396484793668292,
                -1.8352528007785882,
                2.0235745082001984,
                -0.6926412511350799,
                0.7013489066236795,
                -3.145180371626599
            ]
        },
        {
            "positions": [
                0.14239615655454946,
                -1.8554707637816112,
                2.10254027396715,
                -0.6398679428912109,
                0.6959331250504798,
                -3.1425482129258056
            ]
        },
        {
            "positions": [
                0.30718879790276715,
                -1.875688726784634,
                2.1815060397341024,
                -0.5870946346473418,
                0.69051734347728,
                -3.1399160542250115
            ]
        },
        {
            "positions": [
                0.5052223354812453,
                -1.8915270124010433,
                2.287403593319585,
                -0.5283801142280864,
                0.6944352459118466,
                -3.135629015363937
            ]
        },
        {
            "positions": [
                0.7032558730597234,
                -1.9073652980174527,
                2.393301146905067,
                -0.46966559380883094,
                0.6983531483464133,
                -3.1313419765028625
            ]
        }
    ]
}