{
    "goal": {
        "global_pose": {
            "orientation": {
                "w": 0.7047431468963623,
                "x": -0.7094548344612122,
                "y": 0.0024358443915843964,
                "z": -0.0022348060738295317
            },
            "position": {
                "x": 0.6094750761985779,
                "y": 0.3671506643295288,
                "z": 0.19426114857196808
            }
        },
        "name": "move_to_magneteinheit_A"
    },
    "id": "RRTstar_move_to_magneteinheit_A_100",
    "joint_names": [
        "shoulder_pan_joint",
        "shoulder_lift_joint",
        "elbow_joint",
        "wrist_1_joint",
        "wrist_2_joint",
        "wrist_3_joint"
    ],
    "metrics": {
        "cart_traj_len": 2.0630045880502874,
        "distance_elbow_joint": 3.8704252498981235,
        "distance_shoulder_lift_joint": 1.05007765982406,
        "distance_shoulder_pan_joint": 1.2419633216343313,
        "distance_wrist_1_joint": 1.11868888775709,
        "distance_wrist_2_joint": 1.445438244677049,
        "distance_wrist_3_joint": 1.8871842351070311,
        "smoothness": 1.903239485856416e-16,
        "time": 5.014561378000001,
        "traj_len": 3.257879310057032,
        "weighted_distance": 4.117313833258995
    },
    "planner": "RRTstar",
    "start": {
        "state": {
            "elbow_joint": -1.919643507792019,
            "shoulder_lift_joint": -0.07675430207160344,
            "shoulder_pan_joint": -1.1188671864651873,
            "wrist_1_joint": 0.42560062535961957,
            "wrist_2_joint": 1.5706038300724876,
            "wrist_3_joint": 1.1188968870953055
        }
    },
    "waypoints": [
        {
            "positions": [
                -1.1188671864651873,
                -0.07675430207160344,
                -1.919643507792019,
                0.42560062535961957,
                1.5706038300724876,
                1.1188968870953055
            ]
        },
        {
            "positions": [
                -1.0728685449231752,
                -0.11564606725027232,
                -1.776294424462459,
                0.38416770359083846,
                1.5170690802696338,
                1.188792599506677
            ]
        },
        {
            "positions": [
                -1.0268699033811628,
                -0.1545378324289412,
                -1.632945341132899,
                0.34273478182205735,
                1.4635343304667803,
                1.2586883119180485
            ]
        },
        {
            "positions": [
                -0.9808712618391505,
                -0.19342959760761008,
                -1.4895962578033388,
                0.30130186005327625,
                1.4099995806639267,
                1.32858402432942
            ]
        },
        {
            "positions": [
                -0.9348726202971382,
                -0.232321362786279,
                -1.3462471744737785,
                0.25986893828449514,
                1.356464830861073,
                1.3984797367407915
            ]
        },
        {
            "positions": [
                -0.888873978755126,
                -0.2712131279649479,
                -1.2028980911442186,
                0.21843601651571404,
                1.3029300810582192,
                1.4683754491521632
            ]
        },
        {
            "positions": [
                -0.8428753372131137,
                -0.3101048931436168,
                -1.0595490078146583,
                0.17700309474693293,
                1.2493953312553656,
                1.5382711615635347
            ]
        },
        {
            "positions": [
                -0.7968766956711015,
                -0.34899665832228566,
                -0.9161999244850982,
                0.13557017297815183,
                1.195860581452512,
                1.6081668739749062
            ]
        },
        {
            "positions": [
                -0.7508780541290891,
                -0.38788842350095454,
                -0.7728508411555381,
                0.09413725120937072,
                1.1423258316496583,
                1.6780625863862777
            ]
        },
        {
            "positions": [
                -0.704879412587077,
                -0.4267801886796234,
                -0.6295017578259781,
                0.052704329440589615,
                1.0887910818468045,
                1.7479582987976492
            ]
        },
        {
            "positions": [
                -0.6588807710450646,
                -0.4656719538582923,
                -0.48615267449641797,
                0.011271407671808509,
                1.035256332043951,
                1.817854011209021
            ]
        },
        {
            "positions": [
                -0.6128821295030524,
                -0.5045637190369612,
                -0.34280359116685766,
                -0.030161514096972597,
                0.9817215822410973,
                1.8877497236203924
            ]
        },
        {
            "positions": [
                -0.5668834879610402,
                -0.5434554842156301,
                -0.19945450783729757,
                -0.0715944358657537,
                0.9281868324382436,
                1.9576454360317639
            ]
        },
        {
            "positions": [
                -0.5208848464190279,
                -0.5823472493942989,
                -0.05610542450773748,
                -0.11302735763453481,
                0.87465208263539,
                2.0275411484431354
            ]
        },
        {
            "positions": [
                -0.4748862048770156,
                -0.6212390145729678,
                0.08724365882182261,
                -0.15446027940331591,
                0.8211173328325363,
                2.097436860854507
            ]
        },
        {
            "positions": [
                -0.4288875633350032,
                -0.6601307797516367,
                0.23059274215138292,
                -0.19589320117209713,
                0.7675825830296825,
                2.1673325732658784
            ]
        },
        {
            "positions": [
                -0.38288892179299105,
                -0.6990225449303056,
                0.3739418254809428,
                -0.23732612294087813,
                0.714047833226829,
                2.23722828567725
            ]
        },
        {
            "positions": [
                -0.33689028025097867,
                -0.7379143101089745,
                0.5172909088105031,
                -0.27875904470965934,
                0.6605130834239752,
                2.3071239980886213
            ]
        },
        {
            "positions": [
                -0.2908916387089665,
                -0.7768060752876433,
                0.660639992140063,
                -0.32019196647844034,
                0.6069783336211216,
                2.377019710499993
            ]
        },
        {
            "positions": [
                -0.24489299716695423,
                -0.8156978404663124,
                0.8039890754696233,
                -0.36162488824722155,
                0.5534435838182679,
                2.4469154229113643
            ]
        },
        {
            "positions": [
                -0.19889435562494195,
                -0.8545896056449811,
                0.9473381587991831,
                -0.40305781001600255,
                0.4999088340154143,
                2.516811135322736
            ]
        },
        {
            "positions": [
                -0.15289571408292968,
                -0.8934813708236502,
                1.090687242128744,
                -0.44449073178478377,
                0.44637408421256053,
                2.5867068477341073
            ]
        },
        {
            "positions": [
                -0.10689707254091751,
                -0.9323731360023189,
                1.2340363254583038,
                -0.48592365355356476,
                0.392839334409707,
                2.656602560145479
            ]
        },
        {
            "positions": [
                -0.06089843099890513,
                -0.971264901180988,
                1.377385408787864,
                -0.5273565753223459,
                0.3393045846068532,
                2.7264982725568503
            ]
        },
        {
            "positions": [
                -0.014899789456892965,
                -1.0101566663596566,
                1.520734492117424,
                -0.5687894970911269,
                0.28576983480399964,
                2.796393984968222
            ]
        },
        {
            "positions": [
                0.03109885208511942,
                -1.0490484315383257,
                1.6640835754469843,
                -0.6102224188599081,
                0.23223508500114587,
                2.8662896973795937
            ]
        },
        {
            "positions": [
                0.07709749362713159,
                -1.0879401967169946,
                1.8074326587765441,
                -0.6516553406286891,
                0.17870033519829231,
                2.9361854097909648
            ]
        },
        {
            "positions": [
                0.12309613516914397,
                -1.1268319618956635,
                1.9507817421061047,
                -0.6930882623974703,
                0.12516558539543857,
                3.0060811222023367
            ]
        }
    ]
}