{
    "goal": {
        "global_pose": {
            "orientation": {
                "w": 0.7047431468963623,
                "x": -0.7094548344612122,
                "y": 0.0024358443915843964,
                "z": -0.0022348060738295317
            },
            "position": {
                "x": 0.6094750761985779,
                "y": 0.3671506643295288,
                "z": 0.19426114857196808
            }
        },
        "name": "move_to_magneteinheit_A"
    },
    "id": "RRTstar_move_to_magneteinheit_A_80",
    "joint_names": [
        "shoulder_pan_joint",
        "shoulder_lift_joint",
        "elbow_joint",
        "wrist_1_joint",
        "wrist_2_joint",
        "wrist_3_joint"
    ],
    "metrics": {
        "cart_traj_len": 1.8776818950959666,
        "distance_elbow_joint": 3.9104430479694807,
        "distance_shoulder_lift_joint": 0.699841184136875,
        "distance_shoulder_pan_joint": 1.2411540606774465,
        "distance_wrist_1_joint": 1.492461152562987,
        "distance_wrist_2_joint": 1.700041829805197,
        "distance_wrist_3_joint": 1.1058614089522243,
        "smoothness": 4.276414619397388e-16,
        "time": 5.026806669,
        "traj_len": 3.185875497269818,
        "weighted_distance": 3.943859592376082
    },
    "planner": "RRTstar",
    "start": {
        "state": {
            "elbow_joint": -1.919643507792019,
            "shoulder_lift_joint": -0.07675430207160344,
            "shoulder_pan_joint": -1.1188671864651873,
            "wrist_1_joint": 0.42560062535961957,
            "wrist_2_joint": 1.5706038300724876,
            "wrist_3_joint": 1.1188968870953055
        }
    },
    "waypoints": [
        {
            "positions": [
                -1.1188671864651873,
                -0.07675430207160344,
                -1.919643507792019,
                0.42560062535961957,
                1.5706038300724876,
                1.1188968870953055
            ]
        },
        {
            "positions": [
                -1.0711304918237472,
                -0.10367127069225249,
                -1.7692418521008852,
                0.4830029773812729,
                1.5052176058492108,
                1.0763637559817585
            ]
        },
        {
            "positions": [
                -1.0233937971823068,
                -0.13058823931290153,
                -1.6188401964097512,
                0.5404053294029263,
                1.439831381625934,
                1.0338306248682114
            ]
        },
        {
            "positions": [
                -0.9756571025408666,
                -0.15750520793355055,
                -1.4684385407186173,
                0.5978076814245796,
                1.3744451574026573,
                0.9912974937546642
            ]
        },
        {
            "positions": [
                -0.9279204078994263,
                -0.18442217655419962,
                -1.3180368850274835,
                0.655210033446233,
                1.3090589331793803,
                0.9487643626411172
            ]
        },
        {
            "positions": [
                -0.8801837132579861,
                -0.21133914517484864,
                -1.1676352293363497,
                0.7126123854678863,
                1.2436727089561035,
                0.9062312315275701
            ]
        },
        {
            "positions": [
                -0.8324470186165458,
                -0.2382561137954977,
                -1.0172335736452158,
                0.7700147374895396,
                1.1782864847328267,
                0.863698100414023
            ]
        },
        {
            "positions": [
                -0.7847103239751057,
                -0.2651730824161467,
                -0.866831917954082,
                0.827417089511193,
                1.11290026050955,
                0.8211649693004759
            ]
        },
        {
            "positions": [
                -0.7369736293336653,
                -0.29209005103679575,
                -0.7164302622629479,
                0.8848194415328463,
                1.0475140362862732,
                0.7786318381869288
            ]
        },
        {
            "positions": [
                -0.6892369346922251,
                -0.3190070196574448,
                -0.5660286065718143,
                0.9422217935544996,
                0.9821278120629964,
                0.7360987070733818
            ]
        },
        {
            "positions": [
                -0.6415002400507848,
                -0.34592398827809384,
                -0.41562695088068025,
                0.999624145576153,
                0.9167415878397195,
                0.6935655759598347
            ]
        },
        {
            "positions": [
                -0.5937635454093446,
                -0.37284095689874286,
                -0.2652252951895464,
                1.0570264975978063,
                0.8513553636164428,
                0.6510324448462876
            ]
        },
        {
            "positions": [
                -0.5460268507679044,
                -0.39975792551939193,
                -0.11482363949841257,
                1.1144288496194596,
                0.7859691393931659,
                0.6084993137327405
            ]
        },
        {
            "positions": [
                -0.4982901561264641,
                -0.42667489414004095,
                0.035578016192721273,
                1.171831201641113,
                0.7205829151698891,
                0.5659661826191934
            ]
        },
        {
            "positions": [
                -0.45055346148502384,
                -0.45359186276068997,
                0.1859796718838551,
                1.2292335536627663,
                0.6551966909466124,
                0.5234330515056463
            ]
        },
        {
            "positions": [
                -0.4028167668435837,
                -0.480508831381339,
                0.33638132757498895,
                1.2866359056844197,
                0.5898104667233356,
                0.4808999203920993
            ]
        },
        {
            "positions": [
                -0.3550800722021433,
                -0.5074258000019881,
                0.48678298326612324,
                1.3440382577060732,
                0.5244242425000587,
                0.4383667892785521
            ]
        },
        {
            "positions": [
                -0.30734337756070307,
                -0.5343427686226372,
                0.6371846389572566,
                1.4014406097277263,
                0.4590380182767819,
                0.39583365816500504
            ]
        },
        {
            "positions": [
                -0.2596066829192629,
                -0.5612597372432861,
                0.7875862946483905,
                1.4588429617493799,
                0.39365179405350514,
                0.353300527051458
            ]
        },
        {
            "positions": [
                -0.21186998827782266,
                -0.5881767058639351,
                0.9379879503395243,
                1.516245313771033,
                0.32826556983022837,
                0.3107673959379109
            ]
        },
        {
            "positions": [
                -0.1641332936363823,
                -0.6150936744845843,
                1.0883896060306586,
                1.5736476657926866,
                0.26287934560695136,
                0.26823426482436374
            ]
        },
        {
            "positions": [
                -0.11639659899494204,
                -0.6420106431052333,
                1.2387912617217924,
                1.63105001781434,
                0.19749312138367459,
                0.22570113371081668
            ]
        },
        {
            "positions": [
                -0.06865990435350189,
                -0.6689276117258822,
                1.3891929174129263,
                1.6884523698359932,
                0.13210689716039803,
                0.18316800259726962
            ]
        },
        {
            "positions": [
                -0.02092320971206174,
                -0.6958445803465314,
                1.5395945731040597,
                1.7458547218576466,
                0.06672067293712125,
                0.14063487148372256
            ]
        },
        {
            "positions": [
                0.026813484929378628,
                -0.7227615489671804,
                1.689996228795194,
                1.8032570738793,
                0.0013344487138442496,
                0.09810174037017538
            ]
        },
        {
            "positions": [
                0.074550179570819,
                -0.7496785175878293,
                1.8403978844863278,
                1.8606594259009532,
                -0.06405177550943253,
                0.05556860925662832
            ]
        },
        {
            "positions": [
                0.12228687421225917,
                -0.7765954862084785,
                1.9907995401774616,
                1.9180617779226066,
                -0.12943799973270936,
                0.013035478143081272
            ]
        }
    ]
}