{
    "goal": {
        "global_pose": {
            "orientation": {
                "w": 0.5084816217422485,
                "x": -0.49083608388900757,
                "y": 0.5182115435600281,
                "z": -0.4816462993621826
            },
            "position": {
                "x": 0.5540239810943604,
                "y": 0.030875300988554955,
                "z": 0.16403168439865112
            }
        },
        "name": "move_to_storage_A"
    },
    "id": "RRTstar_move_to_storage_A_26",
    "joint_names": [
        "shoulder_pan_joint",
        "shoulder_lift_joint",
        "elbow_joint",
        "wrist_1_joint",
        "wrist_2_joint",
        "wrist_3_joint"
    ],
    "metrics": {
        "cart_traj_len": 0.3525336803202257,
        "distance_elbow_joint": 0.44787124948190904,
        "distance_shoulder_lift_joint": 0.23276651612274857,
        "distance_shoulder_pan_joint": 0.45809623700119345,
        "distance_wrist_1_joint": 0.23908923995140807,
        "distance_wrist_2_joint": 1.1090118893393195,
        "distance_wrist_3_joint": 0.09362864572168439,
        "smoothness": 4.440892098500626e-16,
        "time": 5.000106383,
        "traj_len": 1.606382201600311,
        "weighted_distance": 2.0287489244242027
    },
    "planner": "RRTstar",
    "start": {
        "state": {
            "elbow_joint": 1.9715463870305268,
            "shoulder_lift_joint": -1.1394903361783484,
            "shoulder_pan_joint": 0.12281147578464417,
            "wrist_1_joint": -0.7804599489681411,
            "wrist_2_joint": 0.12958660307563738,
            "wrist_3_joint": -3.1924946282119055
        }
    },
    "waypoints": [
        {
            "positions": [
                0.12281147578464417,
                -1.1394903361783484,
                1.9715463870305268,
                -0.7804599489681411,
                0.12958660307563738,
                -3.1924946282119055
            ]
        },
        {
            "positions": [
                0.057369156213045114,
                -1.1727426956244553,
                2.035527994099371,
                -0.8146155546754851,
                0.28801687298125445,
                -3.179119107394522
            ]
        },
        {
            "positions": [
                -0.008073163358553945,
                -1.2059950550705623,
                2.099509601168215,
                -0.8487711603828291,
                0.4464471428868715,
                -3.1657435865771384
            ]
        },
        {
            "positions": [
                -0.07351548293015302,
                -1.2392474145166692,
                2.163491208237059,
                -0.8829267660901731,
                0.6048774127924885,
                -3.152368065759755
            ]
        },
        {
            "positions": [
                -0.13895780250175205,
                -1.2724997739627761,
                2.2274728153059034,
                -0.9170823717975172,
                0.7633076826981057,
                -3.1389925449423717
            ]
        },
        {
            "positions": [
                -0.20440012207335112,
                -1.305752133408883,
                2.2914544223747475,
                -0.9512379775048612,
                0.9217379526037228,
                -3.1256170241249883
            ]
        },
        {
            "positions": [
                -0.2698424416449502,
                -1.33900449285499,
                2.3554360294435917,
                -0.9853935832122052,
                1.0801682225093396,
                -3.1122415033076045
            ]
        },
        {
            "positions": [
                -0.33528476121654927,
                -1.372256852301097,
                2.419417636512436,
                -1.0195491889195492,
                1.238598492414957,
                -3.098865982490221
            ]
        }
    ]
}