{
    "goal": {
        "global_pose": {
            "orientation": {
                "w": 0.7031023502349854,
                "x": -0.7110244035720825,
                "y": 0.007748599164187908,
                "z": 0.005598929710686207
            },
            "position": {
                "x": 0.11585023208521307,
                "y": 0.44412534475326537,
                "z": 0.3711530566215515
            }
        },
        "name": "move_to_auspresseinheit_A"
    },
    "id": "RRTstar_move_to_auspresseinheit_A_13",
    "joint_names": [
        "shoulder_pan_joint",
        "shoulder_lift_joint",
        "elbow_joint",
        "wrist_1_joint",
        "wrist_2_joint",
        "wrist_3_joint"
    ],
    "metrics": {
        "cart_traj_len": 0.6884971979161385,
        "distance_elbow_joint": 0.03277680289484186,
        "distance_shoulder_lift_joint": 0.5338872893518998,
        "distance_shoulder_pan_joint": 1.0442074643491157,
        "distance_wrist_1_joint": 0.5781410951420832,
        "distance_wrist_2_joint": 0.5255703192041767,
        "distance_wrist_3_joint": 0.06105375261978496,
        "smoothness": 4.934324553889585e-16,
        "time": 5.0015525080000005,
        "traj_len": 1.6660242265831258,
        "weighted_distance": 2.000363877685191
    },
    "planner": "RRTstar",
    "start": {
        "state": {
            "elbow_joint": 2.422574709923281,
            "shoulder_lift_joint": -1.3736533754116391,
            "shoulder_pan_joint": -0.33786336945926293,
            "wrist_1_joint": -1.0288603412921917,
            "wrist_2_joint": 1.2330224858903978,
            "wrist_3_joint": -3.094022268022082
        }
    },
    "waypoints": [
        {
            "positions": [
                -0.33786336945926293,
                -1.3736533754116391,
                2.422574709923281,
                -1.0288603412921917,
                1.2330224858903978,
                -3.094022268022082
            ]
        },
        {
            "positions": [
                -0.20733743641562347,
                -1.4403892865806265,
                2.418477609561426,
                -0.9565927043994313,
                1.1673261959898757,
                -3.101653987099555
            ]
        },
        {
            "positions": [
                -0.076811503371984,
                -1.507125197749614,
                2.4143805091995705,
                -0.884325067506671,
                1.1016299060893535,
                -3.1092857061770283
            ]
        },
        {
            "positions": [
                0.05371442967165546,
                -1.5738611089186016,
                2.4102834088377154,
                -0.8120574306139106,
                1.0359336161888315,
                -3.1169174252545013
            ]
        },
        {
            "positions": [
                0.18424036271529493,
                -1.640597020087589,
                2.40618630847586,
                -0.7397897937211502,
                0.9702373262883094,
                -3.124549144331975
            ]
        },
        {
            "positions": [
                0.3147662957589344,
                -1.7073329312565764,
                2.402089208114005,
                -0.6675221568283898,
                0.9045410363877873,
                -3.132180863409448
            ]
        },
        {
            "positions": [
                0.44529222880257385,
                -1.774068842425564,
                2.3979921077521498,
                -0.5952545199356293,
                0.8388447464872653,
                -3.139812582486921
            ]
        },
        {
            "positions": [
                0.5758181618462133,
                -1.8408047535945515,
                2.3938950073902943,
                -0.5229868830428689,
                0.7731484565867431,
                -3.147444301564394
            ]
        },
        {
            "positions": [
                0.7063440948898527,
                -1.907540664763539,
                2.389797907028439,
                -0.4507192461501085,
                0.707452166686221,
                -3.155076020641867
            ]
        }
    ]
}