{
    "goal": {
        "global_pose": {
            "orientation": {
                "w": 0.7047431468963623,
                "x": -0.7094548344612122,
                "y": 0.0024358443915843964,
                "z": -0.0022348060738295317
            },
            "position": {
                "x": 0.6094750761985779,
                "y": 0.3671506643295288,
                "z": 0.19426114857196808
            }
        },
        "name": "move_to_magneteinheit_A"
    },
    "id": "RRTstar_move_to_magneteinheit_A_23",
    "joint_names": [
        "shoulder_pan_joint",
        "shoulder_lift_joint",
        "elbow_joint",
        "wrist_1_joint",
        "wrist_2_joint",
        "wrist_3_joint"
    ],
    "metrics": {
        "cart_traj_len": 2.0140298225021485,
        "distance_elbow_joint": 3.8713321363684745,
        "distance_shoulder_lift_joint": 1.1785179946730981,
        "distance_shoulder_pan_joint": 1.2417029838702425,
        "distance_wrist_1_joint": 1.5186677937711082,
        "distance_wrist_2_joint": 1.8452068996199305,
        "distance_wrist_3_joint": 4.390472074727475,
        "smoothness": 0.27338640584236334,
        "time": 5.055308168,
        "traj_len": 3.747785997496432,
        "weighted_distance": 5.117686853049561
    },
    "planner": "RRTstar",
    "start": {
        "state": {
            "elbow_joint": -1.919643507792019,
            "shoulder_lift_joint": -0.07675430207160344,
            "shoulder_pan_joint": -1.1188671864651873,
            "wrist_1_joint": 0.42560062535961957,
            "wrist_2_joint": 1.5706038300724876,
            "wrist_3_joint": 1.1188968870953055
        }
    },
    "waypoints": [
        {
            "positions": [
                -1.1188671864651873,
                -0.07675430207160344,
                -1.919643507792019,
                0.42560062535961957,
                1.5706038300724876,
                1.1188968870953055
            ]
        },
        {
            "positions": [
                -1.0841103123333176,
                -0.11054472129126776,
                -1.8062167725594647,
                0.3855780266124155,
                1.5207801323617585,
                0.996881474313355
            ]
        },
        {
            "positions": [
                -1.0493534382014476,
                -0.14433514051093208,
                -1.6927900373269102,
                0.34555542786521143,
                1.4709564346510293,
                0.8748660615314046
            ]
        },
        {
            "positions": [
                -1.0145965640695778,
                -0.1781255597305964,
                -1.5793633020943556,
                0.3055328291180074,
                1.4211327369403,
                0.752850648749454
            ]
        },
        {
            "positions": [
                -0.9798396899377079,
                -0.2119159789502607,
                -1.4659365668618012,
                0.26551023037080335,
                1.3713090392295708,
                0.6308352359675036
            ]
        },
        {
            "positions": [
                -0.945082815805838,
                -0.24570639816992504,
                -1.3525098316292468,
                0.22548763162359925,
                1.3214853415188417,
                0.508819823185553
            ]
        },
        {
            "positions": [
                -0.9103259416739682,
                -0.2794968173895893,
                -1.2390830963966923,
                0.18546503287639518,
                1.2716616438081125,
                0.38680441040360247
            ]
        },
        {
            "positions": [
                -0.8755690675420983,
                -0.31328723660925367,
                -1.125656361164138,
                0.1454424341291911,
                1.2218379460973834,
                0.264788997621652
            ]
        },
        {
            "positions": [
                -0.8408121934102284,
                -0.347077655828918,
                -1.0122296259315835,
                0.10541983538198707,
                1.1720142483866542,
                0.14277358483970148
            ]
        },
        {
            "positions": [
                -0.8060553192783586,
                -0.3808680750485823,
                -0.8988028906990291,
                0.06539723663478303,
                1.122190550675925,
                0.02075817205775099
            ]
        },
        {
            "positions": [
                -0.7712984451464887,
                -0.41465849426824664,
                -0.7853761554664747,
                0.025374637887578932,
                1.072366852965196,
                -0.10125724072419962
            ]
        },
        {
            "positions": [
                -0.7365415710146189,
                -0.4484489134879109,
                -0.6719494202339202,
                -0.014647960859625109,
                1.0225431552544668,
                -0.22327265350615
            ]
        },
        {
            "positions": [
                -0.701784696882749,
                -0.48223933270757524,
                -0.5585226850013656,
                -0.054670559606829205,
                0.9727194575437375,
                -0.3452880662881006
            ]
        },
        {
            "positions": [
                -0.6670278227508792,
                -0.5160297519272395,
                -0.4450959497688114,
                -0.09469315835403319,
                0.9228957598330083,
                -0.467303479070051
            ]
        },
        {
            "positions": [
                -0.6322709486190092,
                -0.549820171146904,
                -0.33166921453625675,
                -0.13471575710123734,
                0.8730720621222792,
                -0.5893188918520016
            ]
        },
        {
            "positions": [
                -0.5975140744871394,
                -0.5836105903665683,
                -0.21824247930370233,
                -0.17473835584844138,
                0.82324836441155,
                -0.711334304633952
            ]
        },
        {
            "positions": [
                -0.5627572003552695,
                -0.6174010095862326,
                -0.10481574407114791,
                -0.21476095459564543,
                0.7734246667008208,
                -0.8333497174159026
            ]
        },
        {
            "positions": [
                -0.5280003262233998,
                -0.6511914288058969,
                0.008610991161406512,
                -0.25478355334284947,
                0.7236009689900916,
                -0.955365130197853
            ]
        },
        {
            "positions": [
                -0.49324345209152987,
                -0.6849818480255612,
                0.12203772639396093,
                -0.2948061520900535,
                0.6737772712793625,
                -1.0773805429798036
            ]
        },
        {
            "positions": [
                -0.45848657795965997,
                -0.7187722672452255,
                0.2354644616265158,
                -0.33482875083725766,
                0.6239535735686332,
                -1.1993959557617542
            ]
        },
        {
            "positions": [
                -0.42372970382779007,
                -0.7525626864648898,
                0.3488911968590698,
                -0.3748513495844617,
                0.5741298758579041,
                -1.3214113685437048
            ]
        },
        {
            "positions": [
                -0.3889728296959203,
                -0.7863531056845541,
                0.4623179320916242,
                -0.41487394833166574,
                0.524306178147175,
                -1.443426781325655
            ]
        },
        {
            "positions": [
                -0.3542159555640505,
                -0.8201435249042184,
                0.5757446673241786,
                -0.4548965470788698,
                0.4744824804364458,
                -1.5654421941076055
            ]
        },
        {
            "positions": [
                -0.3194590814321805,
                -0.8539339441238827,
                0.6891714025567335,
                -0.49491914582607394,
                0.42465878272571644,
                -1.6874576068895566
            ]
        },
        {
            "positions": [
                -0.2847022073003107,
                -0.887724363343547,
                0.8025981377892879,
                -0.534941744573278,
                0.3748350850149873,
                -1.8094730196715068
            ]
        },
        {
            "positions": [
                -0.2499453331684408,
                -0.9215147825632113,
                0.9160248730218419,
                -0.5749643433204819,
                0.32501138730425816,
                -1.9314884324534574
            ]
        },
        {
            "positions": [
                -0.21518845903657102,
                -0.9553052017828756,
                1.0294516082543963,
                -0.6149869420676859,
                0.275187689593529,
                -2.0535038452354075
            ]
        },
        {
            "positions": [
                -0.18043158490470101,
                -0.9890956210025401,
                1.1428783434869512,
                -0.6550095408148902,
                0.22536399188279987,
                -2.1755192580173586
            ]
        },
        {
            "positions": [
                -0.14567471077283123,
                -1.0228860402222044,
                1.2563050787195056,
                -0.6950321395620942,
                0.17554029417207073,
                -2.2975346707993087
            ]
        },
        {
            "positions": [
                -0.11091783664096133,
                -1.0566764594418685,
                1.36973181395206,
                -0.7350547383092982,
                0.1257165964613416,
                -2.4195500835812593
            ]
        },
        {
            "positions": [
                -0.07616096250909155,
                -1.090466878661533,
                1.4831585491846144,
                -0.7750773370565023,
                0.07589289875061245,
                -2.5415654963632095
            ]
        },
        {
            "positions": [
                -0.04140408837722154,
                -1.1242572978811973,
                1.5965852844171688,
                -0.8150999358037063,
                0.026069201039883083,
                -2.6635809091451605
            ]
        },
        {
            "positions": [
                -0.006647214245351751,
                -1.1580477171008616,
                1.7100120196497233,
                -0.8551225345509104,
                -0.02375449667084606,
                -2.7855963219271107
            ]
        },
        {
            "positions": [
                0.028109659886518118,
                -1.191838136320526,
                1.8234387548822775,
                -0.8951451332981145,
                -0.07357819438157528,
                -2.9076117347090613
            ]
        },
        {
            "positions": [
                0.059685039059363766,
                -1.170693416179134,
                1.8661887127803367,
                -0.8291711215936566,
                -0.006569902659619362,
                -3.0289328856834308
            ]
        },
        {
            "positions": [
                0.09126041823220941,
                -1.1495486960377421,
                1.908938670678396,
                -0.7631971098891985,
                0.06043838906233656,
                -3.1502540366578002
            ]
        },
        {
            "positions": [
                0.12283579740505507,
                -1.1284039758963502,
                1.9516886285764552,
                -0.6972230981847406,
                0.1274466807842925,
                -3.2715751876321697
            ]
        }
    ]
}