{
    "goal": {
        "global_pose": {
            "orientation": {
                "w": -0.00223480608172531,
                "x": 0.0024358444001904467,
                "y": 0.7094548369677653,
                "z": -0.704743149386269
            },
            "position": {
                "x": 0.6205249238014221,
                "y": -0.6371506643295288,
                "z": 0.19426114857196808
            }
        },
        "name": "move_to_magneteinheit_B"
    },
    "id": "RRTstar_move_to_magneteinheit_B_135",
    "joint_names": [
        "shoulder_pan_joint",
        "shoulder_lift_joint",
        "elbow_joint",
        "wrist_1_joint",
        "wrist_2_joint",
        "wrist_3_joint"
    ],
    "metrics": {
        "cart_traj_len": 3.5809065951631145,
        "distance_elbow_joint": 4.548378276177835,
        "distance_shoulder_lift_joint": 0.7057247779000853,
        "distance_shoulder_pan_joint": 2.2299594345839995,
        "distance_wrist_1_joint": 2.0070116096115136,
        "distance_wrist_2_joint": 2.010558750698216,
        "distance_wrist_3_joint": 6.275950205771019,
        "smoothness": 0.1388043266126305,
        "time": 5.037849122,
        "traj_len": 4.216347122183214,
        "weighted_distance": 5.8606359575215405
    },
    "planner": "RRTstar",
    "start": {
        "state": {
            "elbow_joint": 2.39358713078474,
            "shoulder_lift_joint": -1.908514104345545,
            "shoulder_pan_joint": 0.7066247066606129,
            "wrist_1_joint": -0.4678290933515497,
            "wrist_2_joint": 0.7096259083745334,
            "wrist_3_joint": -3.1358149277392293
        }
    },
    "waypoints": [
        {
            "positions": [
                0.7066247066606129,
                -1.908514104345545,
                2.39358713078474,
                -0.4678290933515497,
                0.7096259083745334,
                -3.1358149277392293
            ]
        },
        {
            "positions": [
                0.6604211118687855,
                -1.8913049844031213,
                2.384229750886421,
                -0.47694903129485616,
                0.5264238182635159,
                -3.069464572271001
            ]
        },
        {
            "positions": [
                0.6142175170769582,
                -1.8740958644606975,
                2.3748723709881014,
                -0.4860689692381626,
                0.3432217281524983,
                -3.0031142168027722
            ]
        },
        {
            "positions": [
                0.5680139222851307,
                -1.856886744518274,
                2.3655149910897824,
                -0.4951889071814691,
                0.16001963804148067,
                -2.9367638613345437
            ]
        },
        {
            "positions": [
                0.6742703982491209,
                -1.8485522898209292,
                2.3144497803573745,
                -0.48947215295813484,
                0.060122501841305076,
                -2.8287879362497854
            ]
        },
        {
            "positions": [
                0.7805268742131111,
                -1.8402178351235845,
                2.2633845696249666,
                -0.48375539873480056,
                -0.03977463435887052,
                -2.7208120111650276
            ]
        },
        {
            "positions": [
                0.8503388362933308,
                -1.8338727749641572,
                2.116174546832533,
                -0.5300326109595711,
                -0.07686948951332667,
                -2.6468438460558454
            ]
        },
        {
            "positions": [
                0.9201507983735506,
                -1.82752771480473,
                1.9689645240400997,
                -0.5763098231843417,
                -0.11396434466778281,
                -2.5728756809466637
            ]
        },
        {
            "positions": [
                0.9899627604537704,
                -1.8211826546453025,
                1.8217545012476664,
                -0.6225870354091123,
                -0.15105919982223895,
                -2.4989075158374816
            ]
        },
        {
            "positions": [
                1.05977472253399,
                -1.8148375944858752,
                1.6745444784552328,
                -0.6688642476338829,
                -0.1881540549766951,
                -2.4249393507283
            ]
        },
        {
            "positions": [
                1.12958668461421,
                -1.808492534326448,
                1.5273344556627995,
                -0.7151414598586534,
                -0.22524891013115125,
                -2.3509711856191178
            ]
        },
        {
            "positions": [
                1.1993986466944295,
                -1.8021474741670207,
                1.3801244328703661,
                -0.761418672083424,
                -0.2623437652856074,
                -2.2770030205099356
            ]
        },
        {
            "positions": [
                1.2692106087746495,
                -1.7958024140075934,
                1.2329144100779326,
                -0.8076958843081945,
                -0.29943862044006353,
                -2.2030348554007535
            ]
        },
        {
            "positions": [
                1.339022570854869,
                -1.7894573538481662,
                1.0857043872854992,
                -0.853973096532965,
                -0.3365334755945197,
                -2.129066690291572
            ]
        },
        {
            "positions": [
                1.408834532935089,
                -1.7831122936887387,
                0.9384943644930657,
                -0.9002503087577356,
                -0.37362833074897583,
                -2.0550985251823897
            ]
        },
        {
            "positions": [
                1.4786464950153086,
                -1.7767672335293114,
                0.7912843417006323,
                -0.9465275209825061,
                -0.410723185903432,
                -1.981130360073208
            ]
        },
        {
            "positions": [
                1.5484584570955284,
                -1.7704221733698842,
                0.6440743189081988,
                -0.9928047332072768,
                -0.44781804105788814,
                -1.9071621949640258
            ]
        },
        {
            "positions": [
                1.6182704191757482,
                -1.764077113210457,
                0.49686429611576566,
                -1.0390819454320472,
                -0.48491289621234424,
                -1.833194029854844
            ]
        },
        {
            "positions": [
                1.6880823812559678,
                -1.7577320530510296,
                0.3496542733233323,
                -1.0853591576568178,
                -0.5220077513668004,
                -1.759225864745662
            ]
        },
        {
            "positions": [
                1.7578943433361878,
                -1.7513869928916024,
                0.20244425053089854,
                -1.1316363698815886,
                -0.5591026065212565,
                -1.6852576996364799
            ]
        },
        {
            "positions": [
                1.8277063054164076,
                -1.745041932732175,
                0.05523422773846498,
                -1.177913582106359,
                -0.5961974616757127,
                -1.611289534527298
            ]
        },
        {
            "positions": [
                1.897518267496627,
                -1.7386968725727476,
                -0.09197579505396813,
                -1.2241907943311297,
                -0.6332923168301688,
                -1.537321369418116
            ]
        },
        {
            "positions": [
                1.967330229576847,
                -1.7323518124133204,
                -0.23918581784640125,
                -1.2704680065559,
                -0.6703871719846249,
                -1.4633532043089341
            ]
        },
        {
            "positions": [
                2.037142191657067,
                -1.726006752253893,
                -0.38639584063883525,
                -1.3167452187806707,
                -0.7074820271390811,
                -1.389385039199752
            ]
        },
        {
            "positions": [
                2.1069541537372865,
                -1.7196616920944658,
                -0.5336058634312684,
                -1.3630224310054413,
                -0.7445768822935372,
                -1.31541687409057
            ]
        },
        {
            "positions": [
                2.1767661158175065,
                -1.7133166319350384,
                -0.6808158862237019,
                -1.4092996432302118,
                -0.7816717374479935,
                -1.2414487089813881
            ]
        },
        {
            "positions": [
                2.246578077897726,
                -1.706971571775611,
                -0.828025909016135,
                -1.4555768554549824,
                -0.8187665926024495,
                -1.1674805438722062
            ]
        },
        {
            "positions": [
                2.3163900399779456,
                -1.7006265116161838,
                -0.975235931808569,
                -1.5018540676797532,
                -0.8558614477569058,
                -1.093512378763024
            ]
        },
        {
            "positions": [
                2.3862020020581656,
                -1.6942814514567566,
                -1.1224459546010022,
                -1.5481312799045235,
                -0.8929563029113619,
                -1.0195442136538422
            ]
        },
        {
            "positions": [
                2.414123478109061,
                -1.708828994077151,
                -1.2216214339563176,
                -1.610072394867504,
                -0.8849296211156136,
                -0.8504734660276213
            ]
        },
        {
            "positions": [
                2.4420449541599565,
                -1.7233765366975453,
                -1.320796913311633,
                -1.6720135098304842,
                -0.8769029393198653,
                -0.6814027184014004
            ]
        },
        {
            "positions": [
                2.4699664302108517,
                -1.7379240793179398,
                -1.4199723926669485,
                -1.7339546247934647,
                -0.868876257524117,
                -0.5123319707751797
            ]
        },
        {
            "positions": [
                2.4978879062617474,
                -1.752471621938334,
                -1.519147872022264,
                -1.7958957397564452,
                -0.8608495757283686,
                -0.3432612231489588
            ]
        },
        {
            "positions": [
                2.5258093823126426,
                -1.7670191645587285,
                -1.6183233513775797,
                -1.8578368547194257,
                -0.8528228939326203,
                -0.17419047552273792
            ]
        },
        {
            "positions": [
                2.5537308583635383,
                -1.7815667071791228,
                -1.7174988307328949,
                -1.919777969682406,
                -0.8447962121368721,
                -0.005119727896517157
            ]
        },
        {
            "positions": [
                2.5816523344144335,
                -1.7961142497995173,
                -1.8166743100882106,
                -1.9817190846453865,
                -0.8367695303411238,
                0.16395101972970377
            ]
        },
        {
            "positions": [
                2.5890425497168463,
                -1.8229804828784806,
                -1.838552327371598,
                -2.029589586993221,
                -0.8137070130195556,
                0.3849312745259479
            ]
        },
        {
            "positions": [
                2.5964327650192596,
                -1.8498467159574439,
                -1.8604303446549855,
                -2.077460089341055,
                -0.7906444956979874,
                0.6059115293221919
            ]
        },
        {
            "positions": [
                2.6038229803216724,
                -1.8767129490364072,
                -1.882308361938373,
                -2.125330591688889,
                -0.7675819783764193,
                0.8268917841184362
            ]
        },
        {
            "positions": [
                2.611213195624085,
                -1.9035791821153705,
                -1.9041863792217604,
                -2.173201094036723,
                -0.7445194610548511,
                1.0478720389146803
            ]
        },
        {
            "positions": [
                2.61722836328302,
                -1.9310971819961413,
                -1.9012616280486652,
                -2.210418245261146,
                -0.7199852485991047,
                1.262145448118458
            ]
        },
        {
            "positions": [
                2.623243530941955,
                -1.9586151818769122,
                -1.89833687687557,
                -2.2476353964855686,
                -0.6954510361433583,
                1.4764188573222357
            ]
        },
        {
            "positions": [
                2.628403394020768,
                -1.9910663811042182,
                -1.8633718391862637,
                -2.276826580711877,
                -0.6653837114798845,
                1.7140926317093146
            ]
        },
        {
            "positions": [
                2.6335632570995813,
                -2.023517580331524,
                -1.8284068014969574,
                -2.306017764938185,
                -0.6353163868164106,
                1.9517664060963935
            ]
        },
        {
            "positions": [
                2.6387231201783945,
                -2.05596877955883,
                -1.7934417638076512,
                -2.3352089491644934,
                -0.6052490621529367,
                2.1894401804834724
            ]
        },
        {
            "positions": [
                2.643882983257208,
                -2.0884199787861357,
                -1.7584767261183452,
                -2.3644001333908014,
                -0.5751817374894628,
                2.4271139548705514
            ]
        },
        {
            "positions": [
                2.6490428463360214,
                -2.1208711780134415,
                -1.723511688429039,
                -2.3935913176171097,
                -0.5451144128259889,
                2.6647877292576303
            ]
        },
        {
            "positions": [
                2.6542027094148346,
                -2.1533223772407477,
                -1.6885466507397326,
                -2.4227825018434177,
                -0.5150470881625151,
                2.9024615036447092
            ]
        },
        {
            "positions": [
                2.659362572493648,
                -2.1857735764680535,
                -1.6535816130504264,
                -2.451973686069726,
                -0.48497976349904115,
                3.140135278031788
            ]
        }
    ]
}