{
    "goal": {
        "global_pose": {
            "orientation": {
                "w": 0.5084816217422485,
                "x": -0.49083608388900757,
                "y": 0.5182115435600281,
                "z": -0.4816462993621826
            },
            "position": {
                "x": 0.5540239810943604,
                "y": 0.030875300988554955,
                "z": 0.16403168439865112
            }
        },
        "name": "move_to_storage_A"
    },
    "id": "RRTstar_move_to_storage_A_80",
    "joint_names": [
        "shoulder_pan_joint",
        "shoulder_lift_joint",
        "elbow_joint",
        "wrist_1_joint",
        "wrist_2_joint",
        "wrist_3_joint"
    ],
    "metrics": {
        "cart_traj_len": 0.3530494759731453,
        "distance_elbow_joint": 0.44913246176921495,
        "distance_shoulder_lift_joint": 0.2356527483536086,
        "distance_shoulder_pan_joint": 0.4595195440000191,
        "distance_wrist_1_joint": 0.23499324188752702,
        "distance_wrist_2_joint": 1.1087843163291644,
        "distance_wrist_3_joint": 0.08596603722239804,
        "smoothness": 0.0,
        "time": 5.000638188,
        "traj_len": 1.6043841028762196,
        "weighted_distance": 2.0223150056861616
    },
    "planner": "RRTstar",
    "start": {
        "state": {
            "elbow_joint": 1.9715463870305268,
            "shoulder_lift_joint": -1.1394903361783484,
            "shoulder_pan_joint": 0.12281147578464417,
            "wrist_1_joint": -0.7804599489681411,
            "wrist_2_joint": 0.12958660307563738,
            "wrist_3_joint": -3.1924946282119055
        }
    },
    "waypoints": [
        {
            "positions": [
                0.12281147578464417,
                -1.1394903361783484,
                1.9715463870305268,
                -0.7804599489681411,
                0.12958660307563738,
                -3.1924946282119055
            ]
        },
        {
            "positions": [
                0.05716582664178431,
                -1.1731550145145782,
                2.0357081672832718,
                -0.8140304120949307,
                0.2879843625512323,
                -3.180213765751563
            ]
        },
        {
            "positions": [
                -0.008479822501075554,
                -1.206819692850808,
                2.0998699475360167,
                -0.8476008752217202,
                0.44638212202682714,
                -3.1679329032912205
            ]
        },
        {
            "positions": [
                -0.07412547164393542,
                -1.2404843711870377,
                2.1640317277887617,
                -0.8811713383485098,
                0.6047798815024221,
                -3.1556520408308777
            ]
        },
        {
            "positions": [
                -0.13977112078679527,
                -1.2741490495232677,
                2.2281935080415067,
                -0.9147418014752994,
                0.763177640978017,
                -3.1433711783705354
            ]
        },
        {
            "positions": [
                -0.20541676992965519,
                -1.3078137278594975,
                2.2923552882942517,
                -0.948312264602089,
                0.921575400453612,
                -3.1310903159101926
            ]
        },
        {
            "positions": [
                -0.271062419072515,
                -1.3414784061957272,
                2.3565170685469967,
                -0.9818827277288785,
                1.0799731599292068,
                -3.1188094534498503
            ]
        },
        {
            "positions": [
                -0.3367080682153749,
                -1.375143084531957,
                2.4206788487997417,
                -1.015453190855668,
                1.2383709194048018,
                -3.1065285909895075
            ]
        }
    ]
}