{
    "goal": {
        "global_pose": {
            "orientation": {
                "w": -0.00223480608172531,
                "x": 0.0024358444001904467,
                "y": 0.7094548369677653,
                "z": -0.704743149386269
            },
            "position": {
                "x": 0.6205249238014221,
                "y": -0.6371506643295288,
                "z": 0.19426114857196808
            }
        },
        "name": "move_to_magneteinheit_B"
    },
    "id": "RRTstar_move_to_magneteinheit_B_36",
    "joint_names": [
        "shoulder_pan_joint",
        "shoulder_lift_joint",
        "elbow_joint",
        "wrist_1_joint",
        "wrist_2_joint",
        "wrist_3_joint"
    ],
    "metrics": {
        "cart_traj_len": 3.8546885786217358,
        "distance_elbow_joint": 4.178537380948734,
        "distance_shoulder_lift_joint": 0.9838434777187555,
        "distance_shoulder_pan_joint": 2.7958088905956155,
        "distance_wrist_1_joint": 2.122692625745505,
        "distance_wrist_2_joint": 1.1894366627843054,
        "distance_wrist_3_joint": 0.5286043624078043,
        "smoothness": 0.4963389902686258,
        "time": 5.032709186,
        "traj_len": 3.4349560987297525,
        "weighted_distance": 4.020977668869367
    },
    "planner": "RRTstar",
    "start": {
        "state": {
            "elbow_joint": 2.39358713078474,
            "shoulder_lift_joint": -1.908514104345545,
            "shoulder_pan_joint": 0.7066247066606129,
            "wrist_1_joint": -0.4678290933515497,
            "wrist_2_joint": 0.7096259083745334,
            "wrist_3_joint": -3.1358149277392293
        }
    },
    "waypoints": [
        {
            "positions": [
                0.7066247066606129,
                -1.908514104345545,
                2.39358713078474,
                -0.4678290933515497,
                0.7096259083745334,
                -3.1358149277392293
            ]
        },
        {
            "positions": [
                0.593467583152034,
                -1.9707636773477364,
                2.409472804478762,
                -0.43295511030730005,
                0.6678078034272837,
                -3.159745310888584
            ]
        },
        {
            "positions": [
                0.480310459643455,
                -2.033013250349928,
                2.4253584781727837,
                -0.39808112726305045,
                0.625989698480034,
                -3.1836756940379383
            ]
        },
        {
            "positions": [
                0.4291024188569454,
                -2.0600734622171597,
                2.3484563482862297,
                -0.3943595621254761,
                0.5893241176505307,
                -3.1931586701534003
            ]
        },
        {
            "positions": [
                0.3778943780704358,
                -2.087133674084391,
                2.2715542183996753,
                -0.3906379969879018,
                0.5526585368210274,
                -3.2026416462688623
            ]
        },
        {
            "positions": [
                0.4514541941219704,
                -2.069931256985413,
                2.089387670402714,
                -0.4495107932775575,
                0.5184280723755861,
                -3.1910695838107044
            ]
        },
        {
            "positions": [
                0.525014010173505,
                -2.0527288398864343,
                1.9072211224057534,
                -0.5083835895672132,
                0.4841976079301449,
                -3.179497521352546
            ]
        },
        {
            "positions": [
                0.5985738262250396,
                -2.0355264227874557,
                1.7250545744087922,
                -0.5672563858568689,
                0.44996714348470357,
                -3.167925458894388
            ]
        },
        {
            "positions": [
                0.6721336422765742,
                -2.0183240056884775,
                1.5428880264118314,
                -0.6261291821465245,
                0.4157366790392623,
                -3.15635339643623
            ]
        },
        {
            "positions": [
                0.745693458328109,
                -2.0011215885894993,
                1.3607214784148702,
                -0.6850019784361803,
                0.38150621459382106,
                -3.144781333978072
            ]
        },
        {
            "positions": [
                0.8192532743796435,
                -1.9839191714905207,
                1.1785549304179093,
                -0.7438747747258359,
                0.34727575014837975,
                -3.1332092715199136
            ]
        },
        {
            "positions": [
                0.8928130904311782,
                -1.9667167543915423,
                0.9963883824209483,
                -0.8027475710154917,
                0.3130452857029385,
                -3.1216372090617557
            ]
        },
        {
            "positions": [
                0.9663729064827128,
                -1.9495143372925638,
                0.8142218344239873,
                -0.8616203673051472,
                0.27881482125749724,
                -3.110065146603598
            ]
        },
        {
            "positions": [
                1.0399327225342474,
                -1.9323119201935854,
                0.6320552864270261,
                -0.920493163594803,
                0.24458435681205593,
                -3.0984930841454394
            ]
        },
        {
            "positions": [
                1.1134925385857821,
                -1.915109503094607,
                0.44988873843006516,
                -0.9793659598844586,
                0.21035389236661467,
                -3.0869210216872816
            ]
        },
        {
            "positions": [
                1.1870523546373166,
                -1.8979070859956286,
                0.2677221904331044,
                -1.0382387561741142,
                0.17612342792117341,
                -3.075348959229123
            ]
        },
        {
            "positions": [
                1.2606121706888511,
                -1.8807046688966502,
                0.08555564243614322,
                -1.09711155246377,
                0.14189296347573216,
                -3.0637768967709653
            ]
        },
        {
            "positions": [
                1.3341719867403858,
                -1.8635022517976718,
                -0.09661090556081797,
                -1.1559843487534258,
                0.10766249903029085,
                -3.052204834312807
            ]
        },
        {
            "positions": [
                1.4077318027919206,
                -1.8462998346986934,
                -0.2787774535577787,
                -1.2148571450430814,
                0.07343203458484956,
                -3.040632771854649
            ]
        },
        {
            "positions": [
                1.5300010474594332,
                -1.8359703483763508,
                -0.4069709084790126,
                -1.3004866128777526,
                0.045374399452766584,
                -3.031680753904847
            ]
        },
        {
            "positions": [
                1.6522702921269456,
                -1.825640862054008,
                -0.5351643634002465,
                -1.3861160807124238,
                0.017316764320683603,
                -3.022728735955045
            ]
        },
        {
            "positions": [
                1.7745395367944583,
                -1.8153113757316655,
                -0.6633578183214804,
                -1.471745548547095,
                -0.010740870811399378,
                -3.0137767180052433
            ]
        },
        {
            "positions": [
                1.8968087814619707,
                -1.8049818894093228,
                -0.7915512732427143,
                -1.5573750163817661,
                -0.03879850594348236,
                -3.0048247000554413
            ]
        },
        {
            "positions": [
                2.0190780261294834,
                -1.7946524030869802,
                -0.9197447281639483,
                -1.6430044842164375,
                -0.06685614107556534,
                -2.9958726821056394
            ]
        },
        {
            "positions": [
                2.141347270796996,
                -1.7843229167646377,
                -1.0479381830851822,
                -1.7286339520511085,
                -0.09491377620764832,
                -2.986920664155837
            ]
        },
        {
            "positions": [
                2.2636165154645087,
                -1.773993430442295,
                -1.1761316380064162,
                -1.8142634198857799,
                -0.1229714113397313,
                -2.977968646206035
            ]
        },
        {
            "positions": [
                2.3858857601320214,
                -1.7636639441199524,
                -1.30432509292765,
                -1.899892887720451,
                -0.15102904647181428,
                -2.969016628256233
            ]
        },
        {
            "positions": [
                2.5081550047995336,
                -1.7533344577976098,
                -1.432518547848884,
                -1.9855223555551222,
                -0.17908668160389726,
                -2.960064610306431
            ]
        },
        {
            "positions": [
                2.6304242494670462,
                -1.7430049714752671,
                -1.5607120027701178,
                -2.071151823389793,
                -0.20714431673598024,
                -2.9511125923566293
            ]
        },
        {
            "positions": [
                2.752693494134559,
                -1.7326754851529245,
                -1.6889054576913518,
                -2.1567812912244646,
                -0.23520195186806322,
                -2.9421605744068273
            ]
        },
        {
            "positions": [
                2.7286865510287024,
                -1.8713811314729365,
                -1.6827492553681576,
                -2.245933954770562,
                -0.3115870904655519,
                -3.003924536784052
            ]
        },
        {
            "positions": [
                2.704679607922846,
                -2.0100867777929485,
                -1.6765930530449635,
                -2.3350866183166596,
                -0.3879722290630406,
                -3.065688499161276
            ]
        },
        {
            "positions": [
                2.6806726648169894,
                -2.1487924241129606,
                -1.6704368507217693,
                -2.424239281862757,
                -0.46435736766052926,
                -3.1274524615385006
            ]
        },
        {
            "positions": [
                2.6604140481932435,
                -2.183441204201367,
                -1.656403359994799,
                -2.436139526369759,
                -0.4798107544097724,
                -3.1434571464229637
            ]
        }
    ]
}