{
    "goal": {
        "global_pose": {
            "orientation": {
                "w": -0.00223480608172531,
                "x": 0.0024358444001904467,
                "y": 0.7094548369677653,
                "z": -0.704743149386269
            },
            "position": {
                "x": 0.6205249238014221,
                "y": -0.6371506643295288,
                "z": 0.19426114857196808
            }
        },
        "name": "move_to_magneteinheit_B"
    },
    "id": "RRTstar_move_to_magneteinheit_B_67",
    "joint_names": [
        "shoulder_pan_joint",
        "shoulder_lift_joint",
        "elbow_joint",
        "wrist_1_joint",
        "wrist_2_joint",
        "wrist_3_joint"
    ],
    "metrics": {
        "cart_traj_len": 1.4533719286402915,
        "distance_elbow_joint": 0.73201806247677,
        "distance_shoulder_lift_joint": 1.2502316196882743,
        "distance_shoulder_pan_joint": 1.619718076327027,
        "distance_wrist_1_joint": 2.6065652081384267,
        "distance_wrist_2_joint": 2.9513566455809985,
        "distance_wrist_3_joint": 3.127491442804536,
        "smoothness": 2.4223047925893806e-16,
        "time": 5.025897847,
        "traj_len": 3.5053360830334137,
        "weighted_distance": 4.909204191551267
    },
    "planner": "RRTstar",
    "start": {
        "state": {
            "elbow_joint": 2.39358713078474,
            "shoulder_lift_joint": -1.908514104345545,
            "shoulder_pan_joint": 0.7066247066606129,
            "wrist_1_joint": -0.4678290933515497,
            "wrist_2_joint": 0.7096259083745334,
            "wrist_3_joint": -3.1358149277392293
        }
    },
    "waypoints": [
        {
            "positions": [
                0.7066247066606129,
                -1.908514104345545,
                2.39358713078474,
                -0.4678290933515497,
                0.7096259083745334,
                -3.1358149277392293
            ]
        },
        {
            "positions": [
                0.6560085167753934,
                -1.8694443662302864,
                2.370711566332341,
                -0.38637393059722386,
                0.6173960132001273,
                -3.0380808201515874
            ]
        },
        {
            "positions": [
                0.6053923268901737,
                -1.8303746281150277,
                2.347836001879942,
                -0.30491876784289806,
                0.525166118025721,
                -2.940346712563946
            ]
        },
        {
            "positions": [
                0.5547761370049542,
                -1.7913048899997692,
                2.324960437427543,
                -0.22346360508857221,
                0.43293622285131483,
                -2.842612604976304
            ]
        },
        {
            "positions": [
                0.5041599471197346,
                -1.7522351518845105,
                2.302084872975144,
                -0.14200844233424637,
                0.3407063276769086,
                -2.744878497388662
            ]
        },
        {
            "positions": [
                0.453543757234515,
                -1.713165413769252,
                2.279209308522745,
                -0.060553279579920516,
                0.2484764325025024,
                -2.6471443898010207
            ]
        },
        {
            "positions": [
                0.4029275673492954,
                -1.6740956756539935,
                2.2563337440703455,
                0.020901883174405278,
                0.15624653732809624,
                -2.549410282213379
            ]
        },
        {
            "positions": [
                0.3523113774640758,
                -1.6350259375387348,
                2.2334581796179465,
                0.10235704592873113,
                0.06401664215368996,
                -2.451676174625737
            ]
        },
        {
            "positions": [
                0.3016951875788562,
                -1.5959561994234763,
                2.2105826151655474,
                0.18381220868305698,
                -0.0282132530207162,
                -2.353942067038095
            ]
        },
        {
            "positions": [
                0.2510789976936366,
                -1.5568864613082178,
                2.1877070507131484,
                0.2652673714373828,
                -0.12044314819512236,
                -2.2562079594504536
            ]
        },
        {
            "positions": [
                0.20046280780841708,
                -1.5178167231929591,
                2.1648314862607494,
                0.3467225341917087,
                -0.21267304336952864,
                -2.1584738518628117
            ]
        },
        {
            "positions": [
                0.14984661792319742,
                -1.4787469850777006,
                2.1419559218083504,
                0.4281776969460345,
                -0.3049029385439349,
                -2.0607397442751703
            ]
        },
        {
            "positions": [
                0.09923042803797788,
                -1.4396772469624421,
                2.1190803573559513,
                0.5096328597003603,
                -0.39713283371834096,
                -1.9630056366875284
            ]
        },
        {
            "positions": [
                0.04861423815275823,
                -1.4006075088471834,
                2.0962047929035523,
                0.5910880224546862,
                -0.48936272889274723,
                -1.8652715290998865
            ]
        },
        {
            "positions": [
                -0.0020019517324613156,
                -1.361537770731925,
                2.0733292284511533,
                0.672543185209012,
                -0.5815926240671535,
                -1.7675374215122448
            ]
        },
        {
            "positions": [
                -0.05261814161768097,
                -1.3224680326166665,
                2.0504536639987543,
                0.7539983479633379,
                -0.6738225192415596,
                -1.669803313924603
            ]
        },
        {
            "positions": [
                -0.10323433150290051,
                -1.2833982945014077,
                2.0275780995463553,
                0.8354535107176637,
                -0.7660524144159658,
                -1.5720692063369612
            ]
        },
        {
            "positions": [
                -0.15385052138812005,
                -1.244328556386149,
                2.004702535093956,
                0.9169086734719896,
                -0.8582823095903721,
                -1.4743350987493196
            ]
        },
        {
            "positions": [
                -0.2044667112733397,
                -1.2052588182708905,
                1.9818269706415568,
                0.9983638362263154,
                -0.9505122047647782,
                -1.3766009911616777
            ]
        },
        {
            "positions": [
                -0.25508290115855925,
                -1.166189080155632,
                1.9589514061891578,
                1.0798189989806413,
                -1.0427420999391845,
                -1.278866883574036
            ]
        },
        {
            "positions": [
                -0.3056990910437788,
                -1.1271193420403733,
                1.9360758417367587,
                1.1612741617349671,
                -1.1349719951135908,
                -1.181132775986394
            ]
        },
        {
            "positions": [
                -0.35631528092899856,
                -1.0880496039251148,
                1.9132002772843597,
                1.242729324489293,
                -1.2272018902879966,
                -1.0833986683987527
            ]
        },
        {
            "positions": [
                -0.4069314708142181,
                -1.0489798658098564,
                1.8903247128319607,
                1.3241844872436188,
                -1.3194317854624034,
                -0.9856645608111108
            ]
        },
        {
            "positions": [
                -0.45754766069943764,
                -1.0099101276945976,
                1.8674491483795617,
                1.4056396499979447,
                -1.4116616806368092,
                -0.8879304532234689
            ]
        },
        {
            "positions": [
                -0.5081638505846572,
                -0.9708403895793392,
                1.8445735839271626,
                1.4870948127522703,
                -1.5038915758112155,
                -0.7901963456358274
            ]
        },
        {
            "positions": [
                -0.5587800404698767,
                -0.9317706514640806,
                1.8216980194747636,
                1.5685499755065964,
                -1.5961214709856217,
                -0.6924622380481855
            ]
        },
        {
            "positions": [
                -0.6093962303550965,
                -0.892700913348822,
                1.7988224550223644,
                1.650005138260922,
                -1.688351366160028,
                -0.5947281304605436
            ]
        },
        {
            "positions": [
                -0.660012420240316,
                -0.8536311752335635,
                1.7759468905699654,
                1.731460301015248,
                -1.7805812613344343,
                -0.49699402287290173
            ]
        },
        {
            "positions": [
                -0.7106286101255356,
                -0.814561437118305,
                1.7530713261175663,
                1.8129154637695737,
                -1.8728111565088406,
                -0.3992599152852603
            ]
        },
        {
            "positions": [
                -0.7612448000107551,
                -0.7754916990030463,
                1.730195761665167,
                1.8943706265238998,
                -1.9650410516832464,
                -0.3015258076976184
            ]
        },
        {
            "positions": [
                -0.8118609898959749,
                -0.7364219608877878,
                1.707320197212768,
                1.9758257892782254,
                -2.0572709468576527,
                -0.2037917001099765
            ]
        },
        {
            "positions": [
                -0.8624771797811944,
                -0.6973522227725291,
                1.684444632760369,
                2.0572809520325515,
                -2.149500842032059,
                -0.10605759252233504
            ]
        },
        {
            "positions": [
                -0.913093369666414,
                -0.6582824846572705,
                1.66156906830797,
                2.138736114786877,
                -2.241730737206465,
                -0.008323484934692944
            ]
        }
    ]
}