{
    "goal": {
        "global_pose": {
            "orientation": {
                "w": 0.5084816217422485,
                "x": -0.49083608388900757,
                "y": 0.5182115435600281,
                "z": -0.4816462993621826
            },
            "position": {
                "x": 0.5540239810943604,
                "y": 0.030875300988554955,
                "z": 0.16403168439865112
            }
        },
        "name": "move_to_storage_A"
    },
    "id": "RRTstar_move_to_storage_A_87",
    "joint_names": [
        "shoulder_pan_joint",
        "shoulder_lift_joint",
        "elbow_joint",
        "wrist_1_joint",
        "wrist_2_joint",
        "wrist_3_joint"
    ],
    "metrics": {
        "cart_traj_len": 0.35291395751456855,
        "distance_elbow_joint": 0.4512978501993228,
        "distance_shoulder_lift_joint": 0.23567441323731586,
        "distance_shoulder_pan_joint": 0.46267599862336367,
        "distance_wrist_1_joint": 0.24272458142679343,
        "distance_wrist_2_joint": 1.0945036425297041,
        "distance_wrist_3_joint": 0.09770009205114505,
        "smoothness": 2.2204460668324854e-16,
        "time": 5.000593367,
        "traj_len": 1.607661835731521,
        "weighted_distance": 2.029089693957966
    },
    "planner": "RRTstar",
    "start": {
        "state": {
            "elbow_joint": 1.9715463870305268,
            "shoulder_lift_joint": -1.1394903361783484,
            "shoulder_pan_joint": 0.12281147578464417,
            "wrist_1_joint": -0.7804599489681411,
            "wrist_2_joint": 0.12958660307563738,
            "wrist_3_joint": -3.1924946282119055
        }
    },
    "waypoints": [
        {
            "positions": [
                0.12281147578464417,
                -1.1394903361783484,
                1.9715463870305268,
                -0.7804599489681411,
                0.12958660307563738,
                -3.1924946282119055
            ]
        },
        {
            "positions": [
                0.056714904552735076,
                -1.1731581094979648,
                2.0360175084875727,
                -0.8151348891719687,
                0.2859442662941665,
                -3.178537472204599
            ]
        },
        {
            "positions": [
                -0.00938166667917402,
                -1.2068258828175815,
                2.100488629944619,
                -0.8498098293757963,
                0.44230192951269565,
                -3.1645803161972927
            ]
        },
        {
            "positions": [
                -0.07547823791108312,
                -1.240493656137198,
                2.164959751401665,
                -0.884484769579624,
                0.5986595927312248,
                -3.150623160189986
            ]
        },
        {
            "positions": [
                -0.1415748091429922,
                -1.2741614294568147,
                2.2294308728587113,
                -0.9191597097834516,
                0.755017255949754,
                -3.13666600418268
            ]
        },
        {
            "positions": [
                -0.2076713803749013,
                -1.307829202776431,
                2.2939019943157573,
                -0.9538346499872792,
                0.9113749191682832,
                -3.1227088481753733
            ]
        },
        {
            "positions": [
                -0.2737679516068104,
                -1.3414969760960478,
                2.358373115772803,
                -0.9885095901911068,
                1.0677325823868122,
                -3.108751692168067
            ]
        },
        {
            "positions": [
                -0.3398645228387195,
                -1.3751647494156642,
                2.4228442372298495,
                -1.0231845303949345,
                1.2240902456053415,
                -3.0947945361607605
            ]
        }
    ]
}