{
    "goal": {
        "global_pose": {
            "orientation": {
                "w": 0.7047431468963623,
                "x": -0.7094548344612122,
                "y": 0.0024358443915843964,
                "z": -0.0022348060738295317
            },
            "position": {
                "x": 0.6094750761985779,
                "y": 0.3671506643295288,
                "z": 0.19426114857196808
            }
        },
        "name": "move_to_magneteinheit_A"
    },
    "id": "RRTstar_move_to_magneteinheit_A_17",
    "joint_names": [
        "shoulder_pan_joint",
        "shoulder_lift_joint",
        "elbow_joint",
        "wrist_1_joint",
        "wrist_2_joint",
        "wrist_3_joint"
    ],
    "metrics": {
        "cart_traj_len": 2.063973353031605,
        "distance_elbow_joint": 3.875706322931964,
        "distance_shoulder_lift_joint": 1.0533039659933618,
        "distance_shoulder_pan_joint": 1.2415172819796716,
        "distance_wrist_1_joint": 1.1442400310946577,
        "distance_wrist_2_joint": 1.4442191794872612,
        "distance_wrist_3_joint": 1.9232581193737541,
        "smoothness": 4.7580986884836835e-16,
        "time": 5.014900456,
        "traj_len": 3.26837037388064,
        "weighted_distance": 4.13729626086773
    },
    "planner": "RRTstar",
    "start": {
        "state": {
            "elbow_joint": -1.919643507792019,
            "shoulder_lift_joint": -0.07675430207160344,
            "shoulder_pan_joint": -1.1188671864651873,
            "wrist_1_joint": 0.42560062535961957,
            "wrist_2_joint": 1.5706038300724876,
            "wrist_3_joint": 1.1188968870953055
        }
    },
    "waypoints": [
        {
            "positions": [
                -1.1188671864651873,
                -0.07675430207160344,
                -1.919643507792019,
                0.42560062535961957,
                1.5706038300724876,
                1.1188968870953055
            ]
        },
        {
            "positions": [
                -1.0728850649103847,
                -0.11576556007135758,
                -1.7760988291649094,
                0.38322136494870634,
                1.5171142308322187,
                1.1901286692943334
            ]
        },
        {
            "positions": [
                -1.026902943355582,
                -0.1547768180711117,
                -1.6325541505377996,
                0.34084210453779307,
                1.4636246315919497,
                1.2613604514933614
            ]
        },
        {
            "positions": [
                -0.9809208218007794,
                -0.19378807607086584,
                -1.4890094719106899,
                0.29846284412687984,
                1.4101350323516808,
                1.3325922336923894
            ]
        },
        {
            "positions": [
                -0.9349387002459768,
                -0.23279933407062,
                -1.34546479328358,
                0.2560835837159666,
                1.356645433111412,
                1.4038240158914173
            ]
        },
        {
            "positions": [
                -0.8889565786911741,
                -0.27181059207037417,
                -1.2019201146564704,
                0.21370432330505335,
                1.303155833871143,
                1.475055798090445
            ]
        },
        {
            "positions": [
                -0.8429744571363714,
                -0.3108218500701283,
                -1.0583754360293605,
                0.17132506289414012,
                1.249666234630874,
                1.546287580289473
            ]
        },
        {
            "positions": [
                -0.7969923355815688,
                -0.34983310806988244,
                -0.9148307574022507,
                0.12894580248322685,
                1.1961766353906051,
                1.6175193624885011
            ]
        },
        {
            "positions": [
                -0.7510102140267662,
                -0.38884436606963657,
                -0.771286078775141,
                0.08656654207231362,
                1.142687036150336,
                1.688751144687529
            ]
        },
        {
            "positions": [
                -0.7050280924719635,
                -0.4278556240693907,
                -0.6277414001480313,
                0.044187281661400346,
                1.0891974369100672,
                1.7599829268865568
            ]
        },
        {
            "positions": [
                -0.6590459709171608,
                -0.46686688206914484,
                -0.4841967215209215,
                0.001808021250487124,
                1.0357078376697983,
                1.8312147090855848
            ]
        },
        {
            "positions": [
                -0.6130638493623582,
                -0.505878140068899,
                -0.34065204289381157,
                -0.0405712391604261,
                0.9822182384295294,
                1.9024464912846129
            ]
        },
        {
            "positions": [
                -0.5670817278075555,
                -0.5448893980686531,
                -0.19710736426670183,
                -0.08295049957133932,
                0.9287286391892604,
                1.9736782734836407
            ]
        },
        {
            "positions": [
                -0.5210996062527529,
                -0.5839006560684072,
                -0.0535626856395921,
                -0.12532975998225265,
                0.8752390399489915,
                2.0449100556826685
            ]
        },
        {
            "positions": [
                -0.47511748469795023,
                -0.6229119140681614,
                0.08998199298751763,
                -0.16770902039316588,
                0.8217494407087226,
                2.1161418378816963
            ]
        },
        {
            "positions": [
                -0.4291353631431476,
                -0.6619231720679155,
                0.2335266716146276,
                -0.2100882808040792,
                0.7682598414684536,
                2.1873736200807246
            ]
        },
        {
            "positions": [
                -0.38315324158834496,
                -0.7009344300676696,
                0.3770713502417371,
                -0.2524675412149923,
                0.7147702422281847,
                2.2586054022797524
            ]
        },
        {
            "positions": [
                -0.3371711200335422,
                -0.7399456880674238,
                0.5206160288688471,
                -0.29484680162590565,
                0.6612806429879157,
                2.32983718447878
            ]
        },
        {
            "positions": [
                -0.2911889984787397,
                -0.7789569460671779,
                0.6641607074959566,
                -0.3372260620368189,
                0.6077910437476468,
                2.4010689666778084
            ]
        },
        {
            "positions": [
                -0.24520687692393695,
                -0.8179682040669323,
                0.8077053861230665,
                -0.3796053224477321,
                0.554301444507378,
                2.4723007488768363
            ]
        },
        {
            "positions": [
                -0.1992247553691343,
                -0.8569794620666862,
                0.951250064750176,
                -0.4219845828586453,
                0.5008118452671091,
                2.543532531075864
            ]
        },
        {
            "positions": [
                -0.15324263381433167,
                -0.8959907200664405,
                1.0947947433772864,
                -0.46436384326955865,
                0.44732224602684,
                2.6147643132748923
            ]
        },
        {
            "positions": [
                -0.10726051225952915,
                -0.9350019780661945,
                1.238339422004396,
                -0.5067431036804717,
                0.39383264678657115,
                2.6859960954739197
            ]
        },
        {
            "positions": [
                -0.06127839070472629,
                -0.9740132360659488,
                1.381884100631506,
                -0.5491223640913852,
                0.34034304754630207,
                2.757227877672948
            ]
        },
        {
            "positions": [
                -0.015296269149923658,
                -1.0130244940657027,
                1.5254287792586154,
                -0.5915016245022982,
                0.2868534483060332,
                2.828459659871976
            ]
        },
        {
            "positions": [
                0.030685852404878977,
                -1.052035752065457,
                1.6689734578857254,
                -0.6338808849132116,
                0.23336384906576435,
                2.8996914420710036
            ]
        },
        {
            "positions": [
                0.07666797395968161,
                -1.0910470100652112,
                1.8125181365128349,
                -0.6762601453241248,
                0.1798742498254955,
                2.970923224270032
            ]
        },
        {
            "positions": [
                0.12265009551448433,
                -1.1300582680649653,
                1.956062815139945,
                -0.718639405735038,
                0.12638465058522647,
                3.0421550064690597
            ]
        }
    ]
}