{
    "goal": {
        "global_pose": {
            "orientation": {
                "w": 0.5084816217422485,
                "x": -0.49083608388900757,
                "y": 0.5182115435600281,
                "z": -0.4816462993621826
            },
            "position": {
                "x": 0.5540239810943604,
                "y": 0.030875300988554955,
                "z": 0.16403168439865112
            }
        },
        "name": "move_to_storage_A"
    },
    "id": "RRTstar_move_to_storage_A_106",
    "joint_names": [
        "shoulder_pan_joint",
        "shoulder_lift_joint",
        "elbow_joint",
        "wrist_1_joint",
        "wrist_2_joint",
        "wrist_3_joint"
    ],
    "metrics": {
        "cart_traj_len": 0.3532502751720115,
        "distance_elbow_joint": 0.44798981021283746,
        "distance_shoulder_lift_joint": 0.23568804558523415,
        "distance_shoulder_pan_joint": 0.46108697020779155,
        "distance_wrist_1_joint": 0.23550687377832336,
        "distance_wrist_2_joint": 1.1028967733867754,
        "distance_wrist_3_joint": 0.08752569472870997,
        "smoothness": 1.4432899238840027e-15,
        "time": 5.00019034,
        "traj_len": 1.60333844458981,
        "weighted_distance": 2.0209278078452457
    },
    "planner": "RRTstar",
    "start": {
        "state": {
            "elbow_joint": 1.9715463870305268,
            "shoulder_lift_joint": -1.1394903361783484,
            "shoulder_pan_joint": 0.12281147578464417,
            "wrist_1_joint": -0.7804599489681411,
            "wrist_2_joint": 0.12958660307563738,
            "wrist_3_joint": -3.1924946282119055
        }
    },
    "waypoints": [
        {
            "positions": [
                0.12281147578464417,
                -1.1394903361783484,
                1.9715463870305268,
                -0.7804599489681411,
                0.12958660307563738,
                -3.1924946282119055
            ]
        },
        {
            "positions": [
                0.05694190861210252,
                -1.173160056976239,
                2.0355449313466463,
                -0.8141037880793301,
                0.2871432849880339,
                -3.1799909575363756
            ]
        },
        {
            "positions": [
                -0.00892765856043913,
                -1.2068297777741295,
                2.0995434756627662,
                -0.8477476271905192,
                0.44469996690043034,
                -3.1674872868608457
            ]
        },
        {
            "positions": [
                -0.07479722573298077,
                -1.2404994985720201,
                2.1635420199788857,
                -0.8813914663017082,
                0.6022566488128268,
                -3.1549836161853158
            ]
        },
        {
            "positions": [
                -0.14066679290552242,
                -1.2741692193699108,
                2.2275405642950052,
                -0.9150353054128972,
                0.7598133307252233,
                -3.1424799455097854
            ]
        },
        {
            "positions": [
                -0.20653636007806409,
                -1.3078389401678014,
                2.2915391086111248,
                -0.9486791445240863,
                0.9173700126376199,
                -3.1299762748342554
            ]
        },
        {
            "positions": [
                -0.2724059272506057,
                -1.3415086609656919,
                2.3555376529272447,
                -0.9823229836352754,
                1.0749266945500162,
                -3.1174726041587255
            ]
        },
        {
            "positions": [
                -0.33827549442314736,
                -1.3751783817635825,
                2.419536197243364,
                -1.0159668227464644,
                1.2324833764624128,
                -3.1049689334831956
            ]
        }
    ]
}