{
    "goal": {
        "global_pose": {
            "orientation": {
                "w": 0.7031023502349854,
                "x": -0.7110244035720825,
                "y": 0.007748599164187908,
                "z": 0.005598929710686207
            },
            "position": {
                "x": 0.11585023208521307,
                "y": 0.44412534475326537,
                "z": 0.3711530566215515
            }
        },
        "name": "move_to_auspresseinheit_A"
    },
    "id": "RRTstar_move_to_auspresseinheit_A_88",
    "joint_names": [
        "shoulder_pan_joint",
        "shoulder_lift_joint",
        "elbow_joint",
        "wrist_1_joint",
        "wrist_2_joint",
        "wrist_3_joint"
    ],
    "metrics": {
        "cart_traj_len": 1.0205366183823865,
        "distance_elbow_joint": 0.22001297614720228,
        "distance_shoulder_lift_joint": 1.2070505122488497,
        "distance_shoulder_pan_joint": 1.1285061683900592,
        "distance_wrist_1_joint": 0.5459517341155924,
        "distance_wrist_2_joint": 0.5267560218587465,
        "distance_wrist_3_joint": 0.15761449276577988,
        "smoothness": 1.2770161828229851,
        "time": 5.008713082,
        "traj_len": 1.9457368541316757,
        "weighted_distance": 2.2746051628869854
    },
    "planner": "RRTstar",
    "start": {
        "state": {
            "elbow_joint": 2.422574709923281,
            "shoulder_lift_joint": -1.3736533754116391,
            "shoulder_pan_joint": -0.33786336945926293,
            "wrist_1_joint": -1.0288603412921917,
            "wrist_2_joint": 1.2330224858903978,
            "wrist_3_joint": -3.094022268022082
        }
    },
    "waypoints": [
        {
            "positions": [
                -0.33786336945926293,
                -1.3736533754116391,
                2.422574709923281,
                -1.0288603412921917,
                1.2330224858903978,
                -3.094022268022082
            ]
        },
        {
            "positions": [
                -0.20200217608739848,
                -1.4825853158873863,
                2.4071858482306148,
                -0.9764907493360553,
                1.196809340063743,
                -3.0858499458668502
            ]
        },
        {
            "positions": [
                -0.06614098271553404,
                -1.5915172563631335,
                2.391796986537948,
                -0.9241211573799187,
                1.1605961942370882,
                -3.077677623711618
            ]
        },
        {
            "positions": [
                0.06972021065633044,
                -1.7004491968388804,
                2.3764081248452817,
                -0.8717515654237822,
                1.1243830484104336,
                -3.0695053015563856
            ]
        },
        {
            "positions": [
                0.20558140402819486,
                -1.8093811373146276,
                2.361019263152615,
                -0.8193819734676457,
                1.0881699025837788,
                -3.0613329794011537
            ]
        },
        {
            "positions": [
                0.3414425974000593,
                -1.9183130777903747,
                2.3456304014599487,
                -0.7670123815115093,
                1.051956756757124,
                -3.053160657245922
            ]
        },
        {
            "positions": [
                0.4773037907719238,
                -2.0272450182661217,
                2.3302415397672824,
                -0.7146427895553727,
                1.0157436109304692,
                -3.0449883350906894
            ]
        },
        {
            "positions": [
                0.6131649841437883,
                -2.136176958741869,
                2.3148526780746157,
                -0.6622731975992362,
                0.9795304651038144,
                -3.036816012935457
            ]
        },
        {
            "positions": [
                0.7490261775156526,
                -2.245108899217616,
                2.2994638163819494,
                -0.6099036056430998,
                0.9433173192771597,
                -3.028643690780225
            ]
        },
        {
            "positions": [
                0.7351539703772714,
                -2.133243903069992,
                2.3317645105839064,
                -0.5675719394875997,
                0.8643003675286569,
                -3.0593889959548664
            ]
        },
        {
            "positions": [
                0.7212817632388902,
                -2.0213789069223673,
                2.364065204785863,
                -0.5252402733320995,
                0.785283415780154,
                -3.090134301129507
            ]
        },
        {
            "positions": [
                0.7074095561005089,
                -1.9095139107747432,
                2.39636589898782,
                -0.4829086071765994,
                0.7062664640316513,
                -3.120879606304148
            ]
        }
    ]
}