{
    "goal": {
        "global_pose": {
            "orientation": {
                "w": 0.7047431468963623,
                "x": -0.7094548344612122,
                "y": 0.0024358443915843964,
                "z": -0.0022348060738295317
            },
            "position": {
                "x": 0.6094750761985779,
                "y": 0.3671506643295288,
                "z": 0.19426114857196808
            }
        },
        "name": "move_to_magneteinheit_A"
    },
    "id": "RRTstar_move_to_magneteinheit_A_41",
    "joint_names": [
        "shoulder_pan_joint",
        "shoulder_lift_joint",
        "elbow_joint",
        "wrist_1_joint",
        "wrist_2_joint",
        "wrist_3_joint"
    ],
    "metrics": {
        "cart_traj_len": 2.123048687056334,
        "distance_elbow_joint": 3.8782660254048604,
        "distance_shoulder_lift_joint": 1.0565859641387936,
        "distance_shoulder_pan_joint": 1.2426084427577027,
        "distance_wrist_1_joint": 1.133939205771623,
        "distance_wrist_2_joint": 1.4301434709715024,
        "distance_wrist_3_joint": 4.376032989088604,
        "smoothness": 5.674473250487586e-16,
        "time": 5.029554111,
        "traj_len": 3.621819445821822,
        "weighted_distance": 4.943048123683748
    },
    "planner": "RRTstar",
    "start": {
        "state": {
            "elbow_joint": -1.919643507792019,
            "shoulder_lift_joint": -0.07675430207160344,
            "shoulder_pan_joint": -1.1188671864651873,
            "wrist_1_joint": 0.42560062535961957,
            "wrist_2_joint": 1.5706038300724876,
            "wrist_3_joint": 1.1188968870953055
        }
    },
    "waypoints": [
        {
            "positions": [
                -1.1188671864651873,
                -0.07675430207160344,
                -1.919643507792019,
                0.42560062535961957,
                1.5706038300724876,
                1.1188968870953055
            ]
        },
        {
            "positions": [
                -1.0825996570232674,
                -0.10495492110508434,
                -1.8073939417415108,
                0.39030262675845634,
                1.5283865258041358,
                0.987972039504371
            ]
        },
        {
            "positions": [
                -1.0463321275813473,
                -0.13315554013856523,
                -1.6951443756910025,
                0.3550046281572931,
                1.4861692215357838,
                0.8570471919134364
            ]
        },
        {
            "positions": [
                -1.0100645981394274,
                -0.16135615917204615,
                -1.5828948096404942,
                0.31970662955612983,
                1.443951917267432,
                0.7261223443225018
            ]
        },
        {
            "positions": [
                -0.9737970686975075,
                -0.18955677820552705,
                -1.4706452435899862,
                0.2844086309549666,
                1.40173461299908,
                0.5951974967315672
            ]
        },
        {
            "positions": [
                -0.9375295392555875,
                -0.21775739723900794,
                -1.3583956775394777,
                0.2491106323538034,
                1.3595173087307282,
                0.4642726491406326
            ]
        },
        {
            "positions": [
                -0.9012620098136674,
                -0.24595801627248887,
                -1.2461461114889696,
                0.21381263375264015,
                1.3173000044623762,
                0.333347801549698
            ]
        },
        {
            "positions": [
                -0.8649944803717475,
                -0.27415863530596973,
                -1.1338965454384613,
                0.17851463515147692,
                1.2750827001940244,
                0.20242295395876342
            ]
        },
        {
            "positions": [
                -0.8287269509298275,
                -0.30235925433945066,
                -1.021646979387953,
                0.1432166365503137,
                1.2328653959256726,
                0.07149810636782883
            ]
        },
        {
            "positions": [
                -0.7924594214879075,
                -0.3305598733729316,
                -0.9093974133374447,
                0.10791863794915046,
                1.1906480916573206,
                -0.05942674122310576
            ]
        },
        {
            "positions": [
                -0.7561918920459876,
                -0.35876049240641245,
                -0.7971478472869364,
                0.07262063934798724,
                1.1484307873889685,
                -0.19035158881404035
            ]
        },
        {
            "positions": [
                -0.7199243626040676,
                -0.38696111143989337,
                -0.6848982812364282,
                0.03732264074682401,
                1.1062134831206167,
                -0.32127643640497494
            ]
        },
        {
            "positions": [
                -0.6836568331621475,
                -0.4151617304733743,
                -0.5726487151859201,
                0.0020246421456607266,
                1.063996178852265,
                -0.45220128399590953
            ]
        },
        {
            "positions": [
                -0.6473893037202276,
                -0.44336234950685516,
                -0.4603991491354118,
                -0.0332733564555025,
                1.0217788745839131,
                -0.5831261315868441
            ]
        },
        {
            "positions": [
                -0.6111217742783076,
                -0.4715629685403361,
                -0.3481495830849035,
                -0.06857135505666573,
                0.9795615703155611,
                -0.7140509791777787
            ]
        },
        {
            "positions": [
                -0.5748542448363877,
                -0.49976358757381695,
                -0.23590001703439523,
                -0.10386935365782896,
                0.9373442660472092,
                -0.8449758267687133
            ]
        },
        {
            "positions": [
                -0.5385867153944677,
                -0.5279642066072978,
                -0.12365045098388694,
                -0.13916735225899218,
                0.8951269617788573,
                -0.9759006743596479
            ]
        },
        {
            "positions": [
                -0.5023191859525477,
                -0.5561648256407787,
                -0.011400884933378652,
                -0.1744653508601554,
                0.8529096575105054,
                -1.1068255219505825
            ]
        },
        {
            "positions": [
                -0.46605165651062774,
                -0.5843654446742597,
                0.10084868111712963,
                -0.20976334946131864,
                0.8106923532421535,
                -1.237750369541517
            ]
        },
        {
            "positions": [
                -0.4297841270687077,
                -0.6125660637077406,
                0.2130982471676377,
                -0.24506134806248187,
                0.7684750489738016,
                -1.3686752171324517
            ]
        },
        {
            "positions": [
                -0.3935165976267878,
                -0.6407666827412215,
                0.3253478132181462,
                -0.2803593466636451,
                0.7262577447054497,
                -1.4996000647233863
            ]
        },
        {
            "positions": [
                -0.3572490681848678,
                -0.6689673017747024,
                0.4375973792686543,
                -0.3156573452648083,
                0.6840404404370979,
                -1.6305249123143208
            ]
        },
        {
            "positions": [
                -0.32098153874294777,
                -0.6971679208081834,
                0.5498469453191628,
                -0.35095534386597155,
                0.641823136168746,
                -1.7614497599052554
            ]
        },
        {
            "positions": [
                -0.28471400930102786,
                -0.7253685398416643,
                0.6620965113696708,
                -0.3862533424671348,
                0.5996058319003941,
                -1.89237460749619
            ]
        },
        {
            "positions": [
                -0.24844647985910784,
                -0.7535691588751452,
                0.7743460774201789,
                -0.4215513410682981,
                0.5573885276320423,
                -2.0232994550871246
            ]
        },
        {
            "positions": [
                -0.21217895041718782,
                -0.7817697779086259,
                0.8865956434706874,
                -0.45684933966946134,
                0.5151712233636903,
                -2.154224302678059
            ]
        },
        {
            "positions": [
                -0.1759114209752679,
                -0.8099703969421068,
                0.9988452095211955,
                -0.49214733827062457,
                0.47295391909533846,
                -2.285149150268994
            ]
        },
        {
            "positions": [
                -0.13964389153334789,
                -0.8381710159755877,
                1.111094775571704,
                -0.5274453368717877,
                0.43073661482698644,
                -2.4160739978599284
            ]
        },
        {
            "positions": [
                -0.10337636209142786,
                -0.8663716350090687,
                1.223344341622212,
                -0.562743335472951,
                0.38851931055863465,
                -2.546998845450863
            ]
        },
        {
            "positions": [
                -0.06710883264950795,
                -0.8945722540425496,
                1.3355939076727206,
                -0.5980413340741142,
                0.3463020062902826,
                -2.6779236930417976
            ]
        },
        {
            "positions": [
                -0.030841303207588044,
                -0.9227728730760305,
                1.4478434737232286,
                -0.6333393326752774,
                0.30408470202193083,
                -2.808848540632732
            ]
        },
        {
            "positions": [
                0.005426226234332088,
                -0.9509734921095114,
                1.5600930397737371,
                -0.6686373312764406,
                0.2618673977535788,
                -2.9397733882236667
            ]
        },
        {
            "positions": [
                0.041693755676251915,
                -0.9791741111429922,
                1.6723426058242454,
                -0.7039353298776039,
                0.21965009348522702,
                -3.0706982358146018
            ]
        },
        {
            "positions": [
                0.06904292254833967,
                -1.0305628294987939,
                1.7677692430871108,
                -0.705403080055737,
                0.19325351535714633,
                -3.132844191207501
            ]
        },
        {
            "positions": [
                0.09639208942042743,
                -1.0819515478545956,
                1.8631958803499764,
                -0.7068708302338702,
                0.16685693722906564,
                -3.1949901466004005
            ]
        },
        {
            "positions": [
                0.12374125629251519,
                -1.133340266210397,
                1.9586225176128418,
                -0.7083385804120034,
                0.14046035910098495,
                -3.2571361019932996
            ]
        }
    ]
}