{
    "goal": {
        "global_pose": {
            "orientation": {
                "w": 0.5084816217422485,
                "x": -0.49083608388900757,
                "y": 0.5182115435600281,
                "z": -0.4816462993621826
            },
            "position": {
                "x": 0.5540239810943604,
                "y": 0.030875300988554955,
                "z": 0.16403168439865112
            }
        },
        "name": "move_to_storage_A"
    },
    "id": "RRTstar_move_to_storage_A_3",
    "joint_names": [
        "shoulder_pan_joint",
        "shoulder_lift_joint",
        "elbow_joint",
        "wrist_1_joint",
        "wrist_2_joint",
        "wrist_3_joint"
    ],
    "metrics": {
        "cart_traj_len": 0.35364271591943214,
        "distance_elbow_joint": 0.4481939478421859,
        "distance_shoulder_lift_joint": 0.2350410523678783,
        "distance_shoulder_pan_joint": 0.46114684872055045,
        "distance_wrist_1_joint": 0.234445045916169,
        "distance_wrist_2_joint": 1.1055847964474566,
        "distance_wrist_3_joint": 0.0926531736553855,
        "smoothness": 2.6645352591003757e-15,
        "time": 5.0102938880000005,
        "traj_len": 1.6053239127819736,
        "weighted_distance": 2.0254384845321822
    },
    "planner": "RRTstar",
    "start": {
        "state": {
            "elbow_joint": 1.9715463870305268,
            "shoulder_lift_joint": -1.1394903361783484,
            "shoulder_pan_joint": 0.12281147578464417,
            "wrist_1_joint": -0.7804599489681411,
            "wrist_2_joint": 0.12958660307563738,
            "wrist_3_joint": -3.1924946282119055
        }
    },
    "waypoints": [
        {
            "positions": [
                0.12281147578464417,
                -1.1394903361783484,
                1.9715463870305268,
                -0.7804599489681411,
                0.12958660307563738,
                -3.1924946282119055
            ]
        },
        {
            "positions": [
                0.05693335453885126,
                -1.1730676293737596,
                2.0355740938651246,
                -0.8139520983847367,
                0.2875272882824169,
                -3.1792584605468504
            ]
        },
        {
            "positions": [
                -0.008944766706941651,
                -1.2066449225691707,
                2.099601800699723,
                -0.8474442478013322,
                0.4454679734891964,
                -3.1660222928817956
            ]
        },
        {
            "positions": [
                -0.07482288795273458,
                -1.240222215764582,
                2.1636295075343206,
                -0.8809363972179278,
                0.6034086586959759,
                -3.1527861252167404
            ]
        },
        {
            "positions": [
                -0.14070100919852746,
                -1.2737995089599932,
                2.227657214368919,
                -0.9144285466345233,
                0.7613493439027554,
                -3.139549957551685
            ]
        },
        {
            "positions": [
                -0.2065791304443204,
                -1.3073768021554044,
                2.2916849212035166,
                -0.947920696051119,
                0.919290029109535,
                -3.12631378988663
            ]
        },
        {
            "positions": [
                -0.2724572516901133,
                -1.3409540953508154,
                2.3557126280381144,
                -0.9814128454677145,
                1.0772307143163145,
                -3.1130776222215752
            ]
        },
        {
            "positions": [
                -0.33833537293590626,
                -1.3745313885462267,
                2.4197403348727127,
                -1.01490499488431,
                1.235171399523094,
                -3.09984145455652
            ]
        }
    ]
}