{
    "goal": {
        "global_pose": {
            "orientation": {
                "w": 0.7047431468963623,
                "x": -0.7094548344612122,
                "y": 0.0024358443915843964,
                "z": -0.0022348060738295317
            },
            "position": {
                "x": 0.6094750761985779,
                "y": 0.3671506643295288,
                "z": 0.19426114857196808
            }
        },
        "name": "move_to_magneteinheit_A"
    },
    "id": "RRTstar_move_to_magneteinheit_A_119",
    "joint_names": [
        "shoulder_pan_joint",
        "shoulder_lift_joint",
        "elbow_joint",
        "wrist_1_joint",
        "wrist_2_joint",
        "wrist_3_joint"
    ],
    "metrics": {
        "cart_traj_len": 2.0633983888338197,
        "distance_elbow_joint": 3.8736731399169284,
        "distance_shoulder_lift_joint": 1.0520572509769097,
        "distance_shoulder_pan_joint": 1.2414278942559656,
        "distance_wrist_1_joint": 1.13093994166696,
        "distance_wrist_2_joint": 1.4395532838312315,
        "distance_wrist_3_joint": 1.9064911846697097,
        "smoothness": 5.392511849751758e-16,
        "time": 5.006457994,
        "traj_len": 3.2625362366290593,
        "weighted_distance": 4.126453476068198
    },
    "planner": "RRTstar",
    "start": {
        "state": {
            "elbow_joint": -1.919643507792019,
            "shoulder_lift_joint": -0.07675430207160344,
            "shoulder_pan_joint": -1.1188671864651873,
            "wrist_1_joint": 0.42560062535961957,
            "wrist_2_joint": 1.5706038300724876,
            "wrist_3_joint": 1.1188968870953055
        }
    },
    "waypoints": [
        {
            "positions": [
                -1.1188671864651873,
                -0.07675430207160344,
                -1.919643507792019,
                0.42560062535961957,
                1.5706038300724876,
                1.1188968870953055
            ]
        },
        {
            "positions": [
                -1.0728883755668182,
                -0.11571938544111862,
                -1.7761741322395403,
                0.38371396085343584,
                1.517287041782442,
                1.1895076717127022
            ]
        },
        {
            "positions": [
                -1.0269095646684492,
                -0.1546844688106338,
                -1.6327047566870614,
                0.3418272963472522,
                1.4639702534923964,
                1.260118456330099
            ]
        },
        {
            "positions": [
                -0.9809307537700801,
                -0.19364955218014895,
                -1.4892353811345826,
                0.29994063184106845,
                1.4106534652023508,
                1.3307292409474956
            ]
        },
        {
            "positions": [
                -0.934951942871711,
                -0.23261463554966413,
                -1.345766005582104,
                0.2580539673348847,
                1.3573366769123052,
                1.4013400255648922
            ]
        },
        {
            "positions": [
                -0.8889731319733418,
                -0.2715797189191793,
                -1.202296630029625,
                0.21616730282870103,
                1.3040198886222596,
                1.471950810182289
            ]
        },
        {
            "positions": [
                -0.8429943210749729,
                -0.31054480228869447,
                -1.0588272544771462,
                0.17428063832251733,
                1.250703100332214,
                1.5425615947996856
            ]
        },
        {
            "positions": [
                -0.7970155101766037,
                -0.3495098856582097,
                -0.9153578789246672,
                0.1323939738163336,
                1.1973863120421684,
                1.613172379417082
            ]
        },
        {
            "positions": [
                -0.7510366992782347,
                -0.3884749690277248,
                -0.7718885033721885,
                0.09050730931014994,
                1.1440695237521228,
                1.683783164034479
            ]
        },
        {
            "positions": [
                -0.7050578883798655,
                -0.42744005239724,
                -0.6284191278197098,
                0.04862064480396622,
                1.0907527354620772,
                1.7543939486518754
            ]
        },
        {
            "positions": [
                -0.6590790774814964,
                -0.4664051357667552,
                -0.4849497522672308,
                0.006733980297782494,
                1.0374359471720316,
                1.825004733269272
            ]
        },
        {
            "positions": [
                -0.6131002665831273,
                -0.5053702191362703,
                -0.34148037671475207,
                -0.035152684208401175,
                0.9841191588819859,
                1.8956155178866687
            ]
        },
        {
            "positions": [
                -0.5671214556847582,
                -0.5443353025057855,
                -0.19801100116227333,
                -0.0770393487145849,
                0.9308023705919403,
                1.9662263025040654
            ]
        },
        {
            "positions": [
                -0.5211426447863892,
                -0.5833003858753008,
                -0.054541625609794364,
                -0.11892601322076862,
                0.8774855823018947,
                2.0368370871214623
            ]
        },
        {
            "positions": [
                -0.4751638338880201,
                -0.622265469244816,
                0.0889277499426846,
                -0.16081267772695235,
                0.8241687940118491,
                2.1074478717388585
            ]
        },
        {
            "positions": [
                -0.4291850229896509,
                -0.6612305526143312,
                0.23239712549516356,
                -0.20269934223313607,
                0.7708520057218035,
                2.1780586563562556
            ]
        },
        {
            "positions": [
                -0.3832062120912819,
                -0.7001956359838462,
                0.3758665010476421,
                -0.24458600673931968,
                0.7175352174317579,
                2.248669440973652
            ]
        },
        {
            "positions": [
                -0.3372274011929127,
                -0.7391607193533614,
                0.519335876600121,
                -0.2864726712455035,
                0.6642184291417121,
                2.319280225591049
            ]
        },
        {
            "positions": [
                -0.29124859029454364,
                -0.7781258027228766,
                0.6628052521525996,
                -0.32835933575168713,
                0.6109016408516666,
                2.389891010208445
            ]
        },
        {
            "positions": [
                -0.24526977939617456,
                -0.8170908860923918,
                0.806274627705079,
                -0.37024600025787086,
                0.5575848525616209,
                2.4605017948258423
            ]
        },
        {
            "positions": [
                -0.19929096849780548,
                -0.856055969461907,
                0.9497440032575575,
                -0.4121326647640546,
                0.5042680642715756,
                2.5311125794432385
            ]
        },
        {
            "positions": [
                -0.1533121575994364,
                -0.8950210528314222,
                1.0932133788100364,
                -0.4540193292702383,
                0.45095127598152973,
                2.6017233640606356
            ]
        },
        {
            "positions": [
                -0.10733334670106731,
                -0.9339861362009372,
                1.236682754362515,
                -0.4959059937764219,
                0.39763448769148413,
                2.672334148678032
            ]
        },
        {
            "positions": [
                -0.06135453580269812,
                -0.9729512195704524,
                1.380152129914994,
                -0.5377926582826058,
                0.3443176994014385,
                2.7429449332954285
            ]
        },
        {
            "positions": [
                -0.015375724904329147,
                -1.0119163029399676,
                1.5236215054674724,
                -0.5796793227887893,
                0.2910009111113929,
                2.813555717912825
            ]
        },
        {
            "positions": [
                0.030603085994040047,
                -1.0508813863094828,
                1.6670908810199518,
                -0.621565987294973,
                0.23768412282134732,
                2.884166502530222
            ]
        },
        {
            "positions": [
                0.07658189689240902,
                -1.089846469678998,
                1.8105602565724304,
                -0.6634526518011568,
                0.18436733453130172,
                2.9547772871476186
            ]
        },
        {
            "positions": [
                0.12256070779077817,
                -1.1288115530485132,
                1.9540296321249093,
                -0.7053393163073405,
                0.131050546241256,
                3.0253880717650152
            ]
        }
    ]
}