{
    "goal": {
        "global_pose": {
            "orientation": {
                "w": 0.7047431468963623,
                "x": -0.7094548344612122,
                "y": 0.0024358443915843964,
                "z": -0.0022348060738295317
            },
            "position": {
                "x": 0.6094750761985779,
                "y": 0.3671506643295288,
                "z": 0.19426114857196808
            }
        },
        "name": "move_to_magneteinheit_A"
    },
    "id": "RRTstar_move_to_magneteinheit_A_69",
    "joint_names": [
        "shoulder_pan_joint",
        "shoulder_lift_joint",
        "elbow_joint",
        "wrist_1_joint",
        "wrist_2_joint",
        "wrist_3_joint"
    ],
    "metrics": {
        "cart_traj_len": 2.064078440545541,
        "distance_elbow_joint": 3.877409034298026,
        "distance_shoulder_lift_joint": 1.0544557662454528,
        "distance_shoulder_pan_joint": 1.2411961342811817,
        "distance_wrist_1_joint": 1.146596764702612,
        "distance_wrist_2_joint": 1.4417472198528531,
        "distance_wrist_3_joint": 1.9259356822250089,
        "smoothness": 9.833403948996295e-16,
        "time": 5.008322631,
        "traj_len": 3.2691498285647804,
        "weighted_distance": 4.138545149036147
    },
    "planner": "RRTstar",
    "start": {
        "state": {
            "elbow_joint": -1.919643507792019,
            "shoulder_lift_joint": -0.07675430207160344,
            "shoulder_pan_joint": -1.1188671864651873,
            "wrist_1_joint": 0.42560062535961957,
            "wrist_2_joint": 1.5706038300724876,
            "wrist_3_joint": 1.1188968870953055
        }
    },
    "waypoints": [
        {
            "positions": [
                -1.1188671864651873,
                -0.07675430207160344,
                -1.919643507792019,
                0.42560062535961957,
                1.5706038300724876,
                1.1188968870953055
            ]
        },
        {
            "positions": [
                -1.072896959269588,
                -0.11580821933995354,
                -1.776035765780981,
                0.38313407851878206,
                1.5172057848927523,
                1.1902278382888243
            ]
        },
        {
            "positions": [
                -1.0269267320739888,
                -0.15486213660830364,
                -1.6324280237699431,
                0.3406675316779446,
                1.463807739713017,
                1.2615587894823432
            ]
        },
        {
            "positions": [
                -0.9809565048783894,
                -0.19391605387665373,
                -1.4888202817589051,
                0.2982009848371071,
                1.4104096945332818,
                1.3328897406758622
            ]
        },
        {
            "positions": [
                -0.9349862776827901,
                -0.23296997114500384,
                -1.3452125397478671,
                0.2557344379962696,
                1.3570116493535465,
                1.404220691869381
            ]
        },
        {
            "positions": [
                -0.8890160504871908,
                -0.27202388841335395,
                -1.2016047977368292,
                0.21326789115543215,
                1.3036136041738111,
                1.4755516430628997
            ]
        },
        {
            "positions": [
                -0.8430458232915914,
                -0.31107780568170407,
                -1.0579970557257912,
                0.17080134431459465,
                1.2502155589940758,
                1.5468825942564186
            ]
        },
        {
            "positions": [
                -0.7970755960959921,
                -0.3501317229500541,
                -0.9143893137147532,
                0.1283347974737572,
                1.1968175138143406,
                1.6182135454499376
            ]
        },
        {
            "positions": [
                -0.7511053689003928,
                -0.38918564021840424,
                -0.7707815717037152,
                0.0858682506329197,
                1.143419468634605,
                1.6895444966434563
            ]
        },
        {
            "positions": [
                -0.7051351417047935,
                -0.42823955748675435,
                -0.6271738296926772,
                0.04340170379208225,
                1.09002142345487,
                1.760875447836975
            ]
        },
        {
            "positions": [
                -0.6591649145091942,
                -0.46729347475510447,
                -0.4835660876816392,
                0.0009351569512447422,
                1.0366233782751346,
                1.832206399030494
            ]
        },
        {
            "positions": [
                -0.6131946873135948,
                -0.5063473920234546,
                -0.33995834567060124,
                -0.04153138988959271,
                0.9832253330953993,
                1.903537350224013
            ]
        },
        {
            "positions": [
                -0.5672244601179955,
                -0.5454013092918046,
                -0.19635060365956325,
                -0.08399793673043027,
                0.929827287915664,
                1.9748683014175317
            ]
        },
        {
            "positions": [
                -0.5212542329223961,
                -0.5844552265601548,
                -0.05274286164852526,
                -0.12646448357126766,
                0.8764292427359287,
                2.0461992526110504
            ]
        },
        {
            "positions": [
                -0.47528400572679685,
                -0.6235091438285048,
                0.09086488036251272,
                -0.16893103041210517,
                0.8230311975561935,
                2.117530203804569
            ]
        },
        {
            "positions": [
                -0.42931377853119745,
                -0.6625630610968549,
                0.23447262237355093,
                -0.21139757725294267,
                0.769633152376458,
                2.1888611549980883
            ]
        },
        {
            "positions": [
                -0.3833435513355983,
                -0.7016169783652051,
                0.3780803643845887,
                -0.2538641240937802,
                0.7162351071967228,
                2.260192106191607
            ]
        },
        {
            "positions": [
                -0.3373733241399989,
                -0.7406708956335553,
                0.5216881063956269,
                -0.2963306709346177,
                0.6628370620169874,
                2.3315230573851258
            ]
        },
        {
            "positions": [
                -0.2914030969443996,
                -0.7797248129019052,
                0.6652958484066647,
                -0.3387972177754551,
                0.6094390168372522,
                2.402854008578645
            ]
        },
        {
            "positions": [
                -0.2454328697488002,
                -0.8187787301702554,
                0.8089035904177029,
                -0.3812637646162927,
                0.5560409716575168,
                2.4741849597721637
            ]
        },
        {
            "positions": [
                -0.199462642553201,
                -0.8578326474386055,
                0.9525113324287406,
                -0.4237303114571301,
                0.5026429264777816,
                2.5455159109656824
            ]
        },
        {
            "positions": [
                -0.1534924153576016,
                -0.8968865647069557,
                1.0961190744397789,
                -0.4661968582979676,
                0.4492448812980463,
                2.6168468621592016
            ]
        },
        {
            "positions": [
                -0.10752218816200232,
                -0.9359404819753057,
                1.2397268164508166,
                -0.508663405138805,
                0.39584683611831095,
                2.68817781335272
            ]
        },
        {
            "positions": [
                -0.06155196096640303,
                -0.9749943992436558,
                1.3833345584618548,
                -0.5511299519796427,
                0.3424487909385756,
                2.759508764546239
            ]
        },
        {
            "positions": [
                -0.01558173377080374,
                -1.0140483165120058,
                1.5269423004728926,
                -0.59359649882048,
                0.2890507457588405,
                2.830839715739758
            ]
        },
        {
            "positions": [
                0.03038849342479577,
                -1.053102233780356,
                1.6705500424839308,
                -0.6360630456613174,
                0.23565270057910515,
                2.9021706669332765
            ]
        },
        {
            "positions": [
                0.07635872062039506,
                -1.0921561510487061,
                1.8141577844949686,
                -0.6785295925021548,
                0.1822546553993698,
                2.9735016181267957
            ]
        },
        {
            "positions": [
                0.12232894781599432,
                -1.1312100683170563,
                1.9577655265060068,
                -0.7209961393429926,
                0.12885661021963452,
                3.0448325693203144
            ]
        }
    ]
}