{
    "goal": {
        "global_pose": {
            "orientation": {
                "w": 0.5084816217422485,
                "x": -0.49083608388900757,
                "y": 0.5182115435600281,
                "z": -0.4816462993621826
            },
            "position": {
                "x": 0.5540239810943604,
                "y": 0.030875300988554955,
                "z": 0.16403168439865112
            }
        },
        "name": "move_to_storage_A"
    },
    "id": "RRTstar_move_to_storage_A_47",
    "joint_names": [
        "shoulder_pan_joint",
        "shoulder_lift_joint",
        "elbow_joint",
        "wrist_1_joint",
        "wrist_2_joint",
        "wrist_3_joint"
    ],
    "metrics": {
        "cart_traj_len": 0.35377972811490155,
        "distance_elbow_joint": 0.4505568261647679,
        "distance_shoulder_lift_joint": 0.23618500288130884,
        "distance_shoulder_pan_joint": 0.4646668352121995,
        "distance_wrist_1_joint": 0.23898300112579574,
        "distance_wrist_2_joint": 1.092587067646559,
        "distance_wrist_3_joint": 0.10535394800663989,
        "smoothness": 8.881784197001252e-16,
        "time": 5.001175057,
        "traj_len": 1.6088295997517172,
        "weighted_distance": 2.0323903773199934
    },
    "planner": "RRTstar",
    "start": {
        "state": {
            "elbow_joint": 1.9715463870305268,
            "shoulder_lift_joint": -1.1394903361783484,
            "shoulder_pan_joint": 0.12281147578464417,
            "wrist_1_joint": -0.7804599489681411,
            "wrist_2_joint": 0.12958660307563738,
            "wrist_3_joint": -3.1924946282119055
        }
    },
    "waypoints": [
        {
            "positions": [
                0.12281147578464417,
                -1.1394903361783484,
                1.9715463870305268,
                -0.7804599489681411,
                0.12958660307563738,
                -3.1924946282119055
            ]
        },
        {
            "positions": [
                0.05643049932575854,
                -1.1732310508756782,
                2.035911647911208,
                -0.8146003777003976,
                0.28567046988228867,
                -3.177444064210957
            ]
        },
        {
            "positions": [
                -0.009950477133127092,
                -1.2069717655730081,
                2.100276908791889,
                -0.8487408064326541,
                0.44175433668893993,
                -3.1623935002100083
            ]
        },
        {
            "positions": [
                -0.07633145359201272,
                -1.240712480270338,
                2.16464216967257,
                -0.8828812351649107,
                0.5978382034955912,
                -3.1473429362090597
            ]
        },
        {
            "positions": [
                -0.14271243005089834,
                -1.2744531949676676,
                2.229007430553251,
                -0.9170216638971672,
                0.7539220703022426,
                -3.1322923722081115
            ]
        },
        {
            "positions": [
                -0.20909340650978403,
                -1.3081939096649975,
                2.2933726914339325,
                -0.9511620926294237,
                0.9100059371088939,
                -3.117241808207163
            ]
        },
        {
            "positions": [
                -0.2754743829686696,
                -1.3419346243623274,
                2.3577379523146136,
                -0.9853025213616803,
                1.066089803915545,
                -3.1021912442062143
            ]
        },
        {
            "positions": [
                -0.3418553594275553,
                -1.3756753390596572,
                2.4221032131952946,
                -1.0194429500939368,
                1.2221736707221964,
                -3.0871406802052657
            ]
        }
    ]
}