{
    "goal": {
        "global_pose": {
            "orientation": {
                "w": 0.7031023502349854,
                "x": -0.7110244035720825,
                "y": 0.007748599164187908,
                "z": 0.005598929710686207
            },
            "position": {
                "x": 0.11585023208521307,
                "y": 0.44412534475326537,
                "z": 0.3711530566215515
            }
        },
        "name": "move_to_auspresseinheit_A"
    },
    "id": "RRTstar_move_to_auspresseinheit_A_74",
    "joint_names": [
        "shoulder_pan_joint",
        "shoulder_lift_joint",
        "elbow_joint",
        "wrist_1_joint",
        "wrist_2_joint",
        "wrist_3_joint"
    ],
    "metrics": {
        "cart_traj_len": 0.7324370008664904,
        "distance_elbow_joint": 0.4267703606951301,
        "distance_shoulder_lift_joint": 1.417926637888538,
        "distance_shoulder_pan_joint": 1.0439917926499858,
        "distance_wrist_1_joint": 0.5478794127846023,
        "distance_wrist_2_joint": 0.8274765913360101,
        "distance_wrist_3_joint": 0.10405978116517556,
        "smoothness": 1.3363312739320548,
        "time": 5.0088279600000005,
        "traj_len": 2.090001094860824,
        "weighted_distance": 2.4395860597589922
    },
    "planner": "RRTstar",
    "start": {
        "state": {
            "elbow_joint": 2.422574709923281,
            "shoulder_lift_joint": -1.3736533754116391,
            "shoulder_pan_joint": -0.33786336945926293,
            "wrist_1_joint": -1.0288603412921917,
            "wrist_2_joint": 1.2330224858903978,
            "wrist_3_joint": -3.094022268022082
        }
    },
    "waypoints": [
        {
            "positions": [
                -0.33786336945926293,
                -1.3736533754116391,
                2.422574709923281,
                -1.0288603412921917,
                1.2330224858903978,
                -3.094022268022082
            ]
        },
        {
            "positions": [
                -0.248680104268342,
                -1.4958449141866703,
                2.447627126590919,
                -0.998434729954542,
                1.1484440365969495,
                -3.102473188672068
            ]
        },
        {
            "positions": [
                -0.15949683907742107,
                -1.6180364529617015,
                2.472679543258556,
                -0.9680091186168921,
                1.063865587303501,
                -3.1109241093220543
            ]
        },
        {
            "positions": [
                -0.07031357388650011,
                -1.7402279917367325,
                2.497731959926194,
                -0.9375835072792422,
                0.9792871380100526,
                -3.1193750299720406
            ]
        },
        {
            "positions": [
                0.018869691304420788,
                -1.8624195305117637,
                2.5227843765938314,
                -0.9071578959415925,
                0.8947086887166043,
                -3.1278259506220265
            ]
        },
        {
            "positions": [
                0.10805295649534169,
                -1.9846110692867949,
                2.547836793261469,
                -0.8767322846039427,
                0.8101302394231559,
                -3.1362768712720124
            ]
        },
        {
            "positions": [
                0.1972362216862627,
                -2.106802608061826,
                2.572889209929107,
                -0.8463066732662928,
                0.7255517901297075,
                -3.1447277919219987
            ]
        },
        {
            "positions": [
                0.2864194868771836,
                -2.228994146836857,
                2.5979416265967443,
                -0.815881061928643,
                0.6409733408362591,
                -3.153178712571985
            ]
        },
        {
            "positions": [
                0.37560275206810456,
                -2.3511856856118882,
                2.622994043264382,
                -0.7854554505909932,
                0.5563948915428107,
                -3.161629633221971
            ]
        },
        {
            "positions": [
                0.4582341698487592,
                -2.241087103689816,
                2.5664062864258748,
                -0.7093368200701422,
                0.5941071407899166,
                -3.152516529230649
            ]
        },
        {
            "positions": [
                0.5408655876294137,
                -2.130988521767744,
                2.509818529587368,
                -0.6332181895492913,
                0.6318193900370224,
                -3.1434034252393275
            ]
        },
        {
            "positions": [
                0.6234970054100684,
                -2.0208899398456714,
                2.4532307727488605,
                -0.5570995590284404,
                0.6695316392841281,
                -3.134290321248006
            ]
        },
        {
            "positions": [
                0.706128423190723,
                -1.9107913579235993,
                2.396643015910353,
                -0.48098092850758944,
                0.7072438885312339,
                -3.125177217256684
            ]
        }
    ]
}