{
    "goal": {
        "global_pose": {
            "orientation": {
                "w": 0.5084816217422485,
                "x": -0.49083608388900757,
                "y": 0.5182115435600281,
                "z": -0.4816462993621826
            },
            "position": {
                "x": 0.5540239810943604,
                "y": 0.030875300988554955,
                "z": 0.16403168439865112
            }
        },
        "name": "move_to_storage_A"
    },
    "id": "RRTstar_move_to_storage_A_123",
    "joint_names": [
        "shoulder_pan_joint",
        "shoulder_lift_joint",
        "elbow_joint",
        "wrist_1_joint",
        "wrist_2_joint",
        "wrist_3_joint"
    ],
    "metrics": {
        "cart_traj_len": 0.3523017110481186,
        "distance_elbow_joint": 0.4486456170285025,
        "distance_shoulder_lift_joint": 0.23348091908774782,
        "distance_shoulder_pan_joint": 0.46081180840913516,
        "distance_wrist_1_joint": 0.24070725247192148,
        "distance_wrist_2_joint": 1.096014609140359,
        "distance_wrist_3_joint": 0.0956202313976835,
        "smoothness": 4.440892133664971e-16,
        "time": 5.000900559000001,
        "traj_len": 1.6047680323135023,
        "weighted_distance": 2.025646257850318
    },
    "planner": "RRTstar",
    "start": {
        "state": {
            "elbow_joint": 1.9715463870305268,
            "shoulder_lift_joint": -1.1394903361783484,
            "shoulder_pan_joint": 0.12281147578464417,
            "wrist_1_joint": -0.7804599489681411,
            "wrist_2_joint": 0.12958660307563738,
            "wrist_3_joint": -3.1924946282119055
        }
    },
    "waypoints": [
        {
            "positions": [
                0.12281147578464417,
                -1.1394903361783484,
                1.9715463870305268,
                -0.7804599489681411,
                0.12958660307563738,
                -3.1924946282119055
            ]
        },
        {
            "positions": [
                0.05698121744048201,
                -1.1728447531908839,
                2.0356386180345987,
                -0.8148466993212727,
                0.2861601186671172,
                -3.178834595155094
            ]
        },
        {
            "positions": [
                -0.008849040903680147,
                -1.2061991702034192,
                2.09973084903867,
                -0.8492334496744044,
                0.44273363425859713,
                -3.1651745620982816
            ]
        },
        {
            "positions": [
                -0.07467929924784232,
                -1.2395535872159547,
                2.163823080042742,
                -0.8836202000275359,
                0.5993071498500769,
                -3.15151452904147
            ]
        },
        {
            "positions": [
                -0.14050955759200445,
                -1.27290800422849,
                2.227915311046814,
                -0.9180069503806676,
                0.7558806654415569,
                -3.1378544959846577
            ]
        },
        {
            "positions": [
                -0.20633981593616663,
                -1.3062624212410254,
                2.292007542050886,
                -0.9523937007337993,
                0.9124541810330368,
                -3.124194462927846
            ]
        },
        {
            "positions": [
                -0.2721700742803288,
                -1.3396168382535607,
                2.3560997730549573,
                -0.9867804510869309,
                1.0690276966245165,
                -3.110534429871034
            ]
        },
        {
            "positions": [
                -0.338000332624491,
                -1.3729712552660962,
                2.4201920040590292,
                -1.0211672014400626,
                1.2256012122159965,
                -3.096874396814222
            ]
        }
    ]
}