{
    "goal": {
        "global_pose": {
            "orientation": {
                "w": 0.5084816217422485,
                "x": -0.49083608388900757,
                "y": 0.5182115435600281,
                "z": -0.4816462993621826
            },
            "position": {
                "x": 0.5540239810943604,
                "y": 0.030875300988554955,
                "z": 0.16403168439865112
            }
        },
        "name": "move_to_storage_A"
    },
    "id": "RRTstar_move_to_storage_A_36",
    "joint_names": [
        "shoulder_pan_joint",
        "shoulder_lift_joint",
        "elbow_joint",
        "wrist_1_joint",
        "wrist_2_joint",
        "wrist_3_joint"
    ],
    "metrics": {
        "cart_traj_len": 0.3535899347725823,
        "distance_elbow_joint": 0.44888734132998964,
        "distance_shoulder_lift_joint": 0.2345944383064389,
        "distance_shoulder_pan_joint": 0.4645501640138577,
        "distance_wrist_1_joint": 0.23668390694043218,
        "distance_wrist_2_joint": 1.0904605888768641,
        "distance_wrist_3_joint": 0.0877034259935483,
        "smoothness": 1.3322676295501878e-15,
        "time": 5.007467297,
        "traj_len": 1.600899704997515,
        "weighted_distance": 2.016291450476722
    },
    "planner": "RRTstar",
    "start": {
        "state": {
            "elbow_joint": 1.9715463870305268,
            "shoulder_lift_joint": -1.1394903361783484,
            "shoulder_pan_joint": 0.12281147578464417,
            "wrist_1_joint": -0.7804599489681411,
            "wrist_2_joint": 0.12958660307563738,
            "wrist_3_joint": -3.1924946282119055
        }
    },
    "waypoints": [
        {
            "positions": [
                0.12281147578464417,
                -1.1394903361783484,
                1.9715463870305268,
                -0.7804599489681411,
                0.12958660307563738,
                -3.1924946282119055
            ]
        },
        {
            "positions": [
                0.05644716663980737,
                -1.1730038273649825,
                2.035673150077668,
                -0.8142719356739171,
                0.2853666872009037,
                -3.1799655673556844
            ]
        },
        {
            "positions": [
                -0.009917142505029439,
                -1.2065173185516167,
                2.0997999131248095,
                -0.8480839223796931,
                0.44114677132617,
                -3.167436506499463
            ]
        },
        {
            "positions": [
                -0.07628145164986626,
                -1.2400308097382509,
                2.163926676171951,
                -0.8818959090854691,
                0.5969268554514363,
                -3.154907445643242
            ]
        },
        {
            "positions": [
                -0.14264576079470304,
                -1.2735443009248848,
                2.2280534392190923,
                -0.9157078957912452,
                0.7527069395767026,
                -3.142378384787021
            ]
        },
        {
            "positions": [
                -0.20901006993953986,
                -1.307057792111519,
                2.2921802022662336,
                -0.9495198824970212,
                0.908487023701969,
                -3.1298493239307996
            ]
        },
        {
            "positions": [
                -0.2753743790843767,
                -1.3405712832981531,
                2.356306965313375,
                -0.9833318692027972,
                1.0642671078272352,
                -3.1173202630745784
            ]
        },
        {
            "positions": [
                -0.3417386882292135,
                -1.3740847744847873,
                2.4204337283605164,
                -1.0171438559085733,
                1.2200471919525016,
                -3.1047912022183572
            ]
        }
    ]
}