{
    "goal": {
        "global_pose": {
            "orientation": {
                "w": 0.5084816217422485,
                "x": -0.49083608388900757,
                "y": 0.5182115435600281,
                "z": -0.4816462993621826
            },
            "position": {
                "x": 0.5540239810943604,
                "y": 0.030875300988554955,
                "z": 0.16403168439865112
            }
        },
        "name": "move_to_storage_A"
    },
    "id": "RRTstar_move_to_storage_A_131",
    "joint_names": [
        "shoulder_pan_joint",
        "shoulder_lift_joint",
        "elbow_joint",
        "wrist_1_joint",
        "wrist_2_joint",
        "wrist_3_joint"
    ],
    "metrics": {
        "cart_traj_len": 0.3523842508263329,
        "distance_elbow_joint": 0.4492005142511353,
        "distance_shoulder_lift_joint": 0.23272837249090705,
        "distance_shoulder_pan_joint": 0.4615897974243152,
        "distance_wrist_1_joint": 0.24251751326587556,
        "distance_wrist_2_joint": 1.093114985365564,
        "distance_wrist_3_joint": 0.09718648939119046,
        "smoothness": 2.2204460668324854e-16,
        "time": 5.000594628,
        "traj_len": 1.6050974027108098,
        "weighted_distance": 2.0264113969287694
    },
    "planner": "RRTstar",
    "start": {
        "state": {
            "elbow_joint": 1.9715463870305268,
            "shoulder_lift_joint": -1.1394903361783484,
            "shoulder_pan_joint": 0.12281147578464417,
            "wrist_1_joint": -0.7804599489681411,
            "wrist_2_joint": 0.12958660307563738,
            "wrist_3_joint": -3.1924946282119055
        }
    },
    "waypoints": [
        {
            "positions": [
                0.12281147578464417,
                -1.1394903361783484,
                1.9715463870305268,
                -0.7804599489681411,
                0.12958660307563738,
                -3.1924946282119055
            ]
        },
        {
            "positions": [
                0.05687007615259915,
                -1.1727372465341923,
                2.035717889066403,
                -0.8151053080061234,
                0.28574588669928935,
                -3.178610844013164
            ]
        },
        {
            "positions": [
                -0.009071323479445878,
                -1.205984156890036,
                2.0998893911022796,
                -0.8497506670441055,
                0.4419051703229413,
                -3.1647270598144224
            ]
        },
        {
            "positions": [
                -0.07501272311149092,
                -1.23923106724588,
                2.164060893138156,
                -0.8843960260820878,
                0.5980644539465934,
                -3.150843275615681
            ]
        },
        {
            "positions": [
                -0.14095412274353591,
                -1.2724779776017239,
                2.2282323951740324,
                -0.9190413851200699,
                0.7542237375702453,
                -3.1369594914169396
            ]
        },
        {
            "positions": [
                -0.20689552237558095,
                -1.3057248879575678,
                2.2924038972099092,
                -0.9536867441580522,
                0.9103830211938974,
                -3.1230757072181983
            ]
        },
        {
            "positions": [
                -0.272836922007626,
                -1.3389717983134115,
                2.3565753992457856,
                -0.9883321031960344,
                1.0665423048175493,
                -3.1091919230194565
            ]
        },
        {
            "positions": [
                -0.33877832163967103,
                -1.3722187086692554,
                2.420746901281662,
                -1.0229774622340166,
                1.2227015884412014,
                -3.095308138820715
            ]
        }
    ]
}