{
    "goal": {
        "global_pose": {
            "orientation": {
                "w": 0.5084816217422485,
                "x": -0.49083608388900757,
                "y": 0.5182115435600281,
                "z": -0.4816462993621826
            },
            "position": {
                "x": 0.5540239810943604,
                "y": 0.030875300988554955,
                "z": 0.16403168439865112
            }
        },
        "name": "move_to_storage_A"
    },
    "id": "RRTstar_move_to_storage_A_144",
    "joint_names": [
        "shoulder_pan_joint",
        "shoulder_lift_joint",
        "elbow_joint",
        "wrist_1_joint",
        "wrist_2_joint",
        "wrist_3_joint"
    ],
    "metrics": {
        "cart_traj_len": 0.3528465041655609,
        "distance_elbow_joint": 0.44922847593925885,
        "distance_shoulder_lift_joint": 0.2323186441025975,
        "distance_shoulder_pan_joint": 0.4621743258026156,
        "distance_wrist_1_joint": 0.24196353401495896,
        "distance_wrist_2_joint": 1.093996498920759,
        "distance_wrist_3_joint": 0.10299837274031054,
        "smoothness": 8.881784232165597e-16,
        "time": 5.005589788,
        "traj_len": 1.6070718252525307,
        "weighted_distance": 2.030920143663172
    },
    "planner": "RRTstar",
    "start": {
        "state": {
            "elbow_joint": 1.9715463870305268,
            "shoulder_lift_joint": -1.1394903361783484,
            "shoulder_pan_joint": 0.12281147578464417,
            "wrist_1_joint": -0.7804599489681411,
            "wrist_2_joint": 0.12958660307563738,
            "wrist_3_joint": -3.1924946282119055
        }
    },
    "waypoints": [
        {
            "positions": [
                0.12281147578464417,
                -1.1394903361783484,
                1.9715463870305268,
                -0.7804599489681411,
                0.12958660307563738,
                -3.1924946282119055
            ]
        },
        {
            "positions": [
                0.05678657209855624,
                -1.172678713907291,
                2.035721883593278,
                -0.8150261681131352,
                0.28587181720717436,
                -3.1777805749632897
            ]
        },
        {
            "positions": [
                -0.009238331587531692,
                -1.2058670916362333,
                2.0998973801560292,
                -0.8495923872581294,
                0.4421570313387113,
                -3.163066521714674
            ]
        },
        {
            "positions": [
                -0.07526323527361962,
                -1.2390554693651759,
                2.1640728767187807,
                -0.8841586064031235,
                0.5984422454702483,
                -3.148352468466058
            ]
        },
        {
            "positions": [
                -0.14128813895970754,
                -1.2722438470941184,
                2.2282483732815317,
                -0.9187248255481176,
                0.7547274596017853,
                -3.1336384152174426
            ]
        },
        {
            "positions": [
                -0.20731304264579553,
                -1.305432224823061,
                2.292423869844283,
                -0.9532910446931118,
                0.9110126737333224,
                -3.1189243619688267
            ]
        },
        {
            "positions": [
                -0.2733379463318834,
                -1.3386206025520033,
                2.356599366407034,
                -0.9878572638381059,
                1.0672978878648591,
                -3.104210308720211
            ]
        },
        {
            "positions": [
                -0.3393628500179714,
                -1.3718089802809459,
                2.4207748629697856,
                -1.0224234829831,
                1.2235831019963963,
                -3.089496255471595
            ]
        }
    ]
}