{
    "goal": {
        "global_pose": {
            "orientation": {
                "w": 0.7031023502349854,
                "x": -0.7110244035720825,
                "y": 0.007748599164187908,
                "z": 0.005598929710686207
            },
            "position": {
                "x": 0.11585023208521307,
                "y": 0.44412534475326537,
                "z": 0.3711530566215515
            }
        },
        "name": "move_to_auspresseinheit_A"
    },
    "id": "RRTstar_move_to_auspresseinheit_A_105",
    "joint_names": [
        "shoulder_pan_joint",
        "shoulder_lift_joint",
        "elbow_joint",
        "wrist_1_joint",
        "wrist_2_joint",
        "wrist_3_joint"
    ],
    "metrics": {
        "cart_traj_len": 0.8774915682761408,
        "distance_elbow_joint": 0.24127076430218963,
        "distance_shoulder_lift_joint": 0.24641680275846078,
        "distance_shoulder_pan_joint": 1.0679981962080856,
        "distance_wrist_1_joint": 2.985659213854574,
        "distance_wrist_2_joint": 1.9888783073566254,
        "distance_wrist_3_joint": 3.1087665479505175,
        "smoothness": 0.2824106532438153,
        "time": 5.030943485,
        "traj_len": 3.1046722584566724,
        "weighted_distance": 4.564105657140585
    },
    "planner": "RRTstar",
    "start": {
        "state": {
            "elbow_joint": 2.422574709923281,
            "shoulder_lift_joint": -1.3736533754116391,
            "shoulder_pan_joint": -0.33786336945926293,
            "wrist_1_joint": -1.0288603412921917,
            "wrist_2_joint": 1.2330224858903978,
            "wrist_3_joint": -3.094022268022082
        }
    },
    "waypoints": [
        {
            "positions": [
                -0.33786336945926293,
                -1.3736533754116391,
                2.422574709923281,
                -1.0288603412921917,
                1.2330224858903978,
                -3.094022268022082
            ]
        },
        {
            "positions": [
                -0.34943246521186694,
                -1.3811201355770424,
                2.401800627021213,
                -1.0351428677413703,
                1.1734383936745738,
                -3.098483754967451
            ]
        },
        {
            "positions": [
                -0.32836809104839604,
                -1.3886593732346642,
                2.4130649249391256,
                -0.9000810233038596,
                1.0673795193471254,
                -2.9899477771989913
            ]
        },
        {
            "positions": [
                -0.30730371688492514,
                -1.3961986108922861,
                2.424329222857038,
                -0.7650191788663491,
                0.961320645019677,
                -2.8814117994305315
            ]
        },
        {
            "positions": [
                -0.28623934272145424,
                -1.403737848549908,
                2.4355935207749506,
                -0.6299573344288385,
                0.8552617706922285,
                -2.7728758216620717
            ]
        },
        {
            "positions": [
                -0.26517496855798334,
                -1.41127708620753,
                2.4468578186928633,
                -0.4948954899913278,
                0.7492028963647801,
                -2.6643398438936114
            ]
        },
        {
            "positions": [
                -0.24411059439451244,
                -1.4188163238651517,
                2.458122116610776,
                -0.35983364555381714,
                0.6431440220373317,
                -2.5558038661251516
            ]
        },
        {
            "positions": [
                -0.22304622023104154,
                -1.4263555615227737,
                2.4693864145286883,
                -0.22477180111630657,
                0.5370851477098832,
                -2.447267888356692
            ]
        },
        {
            "positions": [
                -0.20198184606757064,
                -1.4338947991803954,
                2.480650712446601,
                -0.08970995667879589,
                0.4310262733824348,
                -2.3387319105882316
            ]
        },
        {
            "positions": [
                -0.18091747190409974,
                -1.4414340368380174,
                2.491915010364514,
                0.04535188775871468,
                0.3249673990549864,
                -2.230195932819772
            ]
        },
        {
            "positions": [
                -0.15985309774062884,
                -1.4489732744956392,
                2.5031793082824265,
                0.18041373219622536,
                0.21890852472753797,
                -2.121659955051312
            ]
        },
        {
            "positions": [
                -0.13878872357715794,
                -1.456512512153261,
                2.514443606200339,
                0.31547557663373604,
                0.11284965040008954,
                -2.013123977282852
            ]
        },
        {
            "positions": [
                -0.11772434941368701,
                -1.464051749810883,
                2.5257079041182515,
                0.4505374210712467,
                0.006790776072641114,
                -1.9045879995143922
            ]
        },
        {
            "positions": [
                -0.09665997525021613,
                -1.4715909874685047,
                2.5369722020361642,
                0.5855992655087572,
                -0.09926809825480731,
                -1.7960520217459326
            ]
        },
        {
            "positions": [
                -0.07559560108674523,
                -1.4791302251261267,
                2.5482364999540765,
                0.7206611099462679,
                -0.20532697258225574,
                -1.6875160439774726
            ]
        },
        {
            "positions": [
                -0.054531226923274334,
                -1.4866694627837485,
                2.5595007978719893,
                0.8557229543837785,
                -0.31138584690970417,
                -1.5789800662090125
            ]
        },
        {
            "positions": [
                -0.033466852759803434,
                -1.4942087004413704,
                2.570765095789902,
                0.9907847988212892,
                -0.4174447212371526,
                -1.4704440884405527
            ]
        },
        {
            "positions": [
                -0.012402478596332533,
                -1.5017479380989922,
                2.5820293937078147,
                1.1258466432587997,
                -0.523503595564601,
                -1.361908110672093
            ]
        },
        {
            "positions": [
                0.008661895567138367,
                -1.5092871757566142,
                2.593293691625727,
                1.2609084876963101,
                -0.6295624698920494,
                -1.2533721329036331
            ]
        },
        {
            "positions": [
                0.029726269730609288,
                -1.516826413414236,
                2.6045579895436397,
                1.395970332133821,
                -0.7356213442194979,
                -1.1448361551351731
            ]
        },
        {
            "positions": [
                0.12647917908961004,
                -1.5020773041633984,
                2.607092177954739,
                1.474293687495279,
                -0.7327307046128222,
                -0.980456517824763
            ]
        },
        {
            "positions": [
                0.22323208844861078,
                -1.4873281949125605,
                2.609626366365838,
                1.5526170428567367,
                -0.7298400650061466,
                -0.8160768805143528
            ]
        },
        {
            "positions": [
                0.31998499780761147,
                -1.472579085661723,
                2.6121605547769375,
                1.6309403982181947,
                -0.7269494253994709,
                -0.6516972432039427
            ]
        },
        {
            "positions": [
                0.41673790716661224,
                -1.457829976410885,
                2.6146947431880365,
                1.7092637535796524,
                -0.7240587857927953,
                -0.48731760589353257
            ]
        },
        {
            "positions": [
                0.513490816525613,
                -1.4430808671600475,
                2.617228931599136,
                1.7875871089411104,
                -0.7211681461861196,
                -0.3229379685831224
            ]
        },
        {
            "positions": [
                0.6102437258846137,
                -1.4283317579092096,
                2.619763120010235,
                1.8659104643025681,
                -0.718277506579444,
                -0.15855833127271224
            ]
        },
        {
            "positions": [
                0.7069966352436146,
                -1.413582648658372,
                2.6222973084213343,
                1.944233819664026,
                -0.7153868669727683,
                0.005821306037698008
            ]
        }
    ]
}