{
    "goal": {
        "global_pose": {
            "orientation": {
                "w": 0.5084816217422485,
                "x": -0.49083608388900757,
                "y": 0.5182115435600281,
                "z": -0.4816462993621826
            },
            "position": {
                "x": 0.5540239810943604,
                "y": 0.030875300988554955,
                "z": 0.16403168439865112
            }
        },
        "name": "move_to_storage_A"
    },
    "id": "RRTstar_move_to_storage_A_134",
    "joint_names": [
        "shoulder_pan_joint",
        "shoulder_lift_joint",
        "elbow_joint",
        "wrist_1_joint",
        "wrist_2_joint",
        "wrist_3_joint"
    ],
    "metrics": {
        "cart_traj_len": 0.35330446011119443,
        "distance_elbow_joint": 0.44764224742035763,
        "distance_shoulder_lift_joint": 0.23343894818581523,
        "distance_shoulder_pan_joint": 0.4600430012455775,
        "distance_wrist_1_joint": 0.23969985905623592,
        "distance_wrist_2_joint": 1.1064430292848646,
        "distance_wrist_3_joint": 0.09223195506413617,
        "smoothness": 1.3322676295501878e-15,
        "time": 5.003914023,
        "traj_len": 1.6060818908937946,
        "weighted_distance": 2.0273395963001266
    },
    "planner": "RRTstar",
    "start": {
        "state": {
            "elbow_joint": 1.9715463870305268,
            "shoulder_lift_joint": -1.1394903361783484,
            "shoulder_pan_joint": 0.12281147578464417,
            "wrist_1_joint": -0.7804599489681411,
            "wrist_2_joint": 0.12958660307563738,
            "wrist_3_joint": -3.1924946282119055
        }
    },
    "waypoints": [
        {
            "positions": [
                0.12281147578464417,
                -1.1394903361783484,
                1.9715463870305268,
                -0.7804599489681411,
                0.12958660307563738,
                -3.1924946282119055
            ]
        },
        {
            "positions": [
                0.057091047035275955,
                -1.1728387573477506,
                2.035495279519149,
                -0.8147027859761747,
                0.2876498929734752,
                -3.1793186346313145
            ]
        },
        {
            "positions": [
                -0.008629381714092263,
                -1.2061871785171527,
                2.0994441720077717,
                -0.8489456229842085,
                0.445713182871313,
                -3.166142641050724
            ]
        },
        {
            "positions": [
                -0.07434981046346047,
                -1.239535599686555,
                2.163393064496394,
                -0.8831884599922422,
                0.6037764727691508,
                -3.1529666474701328
            ]
        },
        {
            "positions": [
                -0.14007023921282868,
                -1.272884020855957,
                2.2273419569850166,
                -0.9174312970002759,
                0.7618397626669886,
                -3.139790653889542
            ]
        },
        {
            "positions": [
                -0.20579066796219692,
                -1.3062324420253593,
                2.2912908494736395,
                -0.9516741340083096,
                0.9199030525648264,
                -3.126614660308951
            ]
        },
        {
            "positions": [
                -0.2715110967115651,
                -1.3395808631947614,
                2.355239741962262,
                -0.9859169710163433,
                1.0779663424626642,
                -3.1134386667283604
            ]
        },
        {
            "positions": [
                -0.3372315254609333,
                -1.3729292843641636,
                2.4191886344508844,
                -1.020159808024377,
                1.236029632360502,
                -3.1002626731477694
            ]
        }
    ]
}