{
    "goal": {
        "global_pose": {
            "orientation": {
                "w": -0.00223480608172531,
                "x": 0.0024358444001904467,
                "y": 0.7094548369677653,
                "z": -0.704743149386269
            },
            "position": {
                "x": 0.6205249238014221,
                "y": -0.6371506643295288,
                "z": 0.19426114857196808
            }
        },
        "name": "move_to_magneteinheit_B"
    },
    "id": "RRTstar_move_to_magneteinheit_B_60",
    "joint_names": [
        "shoulder_pan_joint",
        "shoulder_lift_joint",
        "elbow_joint",
        "wrist_1_joint",
        "wrist_2_joint",
        "wrist_3_joint"
    ],
    "metrics": {
        "cart_traj_len": 3.2955520281611532,
        "distance_elbow_joint": 4.078941558489886,
        "distance_shoulder_lift_joint": 0.740021374735758,
        "distance_shoulder_pan_joint": 1.9552449629646078,
        "distance_wrist_1_joint": 1.4616319964011448,
        "distance_wrist_2_joint": 2.2730890984742604,
        "distance_wrist_3_joint": 4.27010977224801,
        "smoothness": 0.3070299156390203,
        "time": 5.040320254999999,
        "traj_len": 3.844351540027742,
        "weighted_distance": 5.201343999649041
    },
    "planner": "RRTstar",
    "start": {
        "state": {
            "elbow_joint": 2.39358713078474,
            "shoulder_lift_joint": -1.908514104345545,
            "shoulder_pan_joint": 0.7066247066606129,
            "wrist_1_joint": -0.4678290933515497,
            "wrist_2_joint": 0.7096259083745334,
            "wrist_3_joint": -3.1358149277392293
        }
    },
    "waypoints": [
        {
            "positions": [
                0.7066247066606129,
                -1.908514104345545,
                2.39358713078474,
                -0.4678290933515497,
                0.7096259083745334,
                -3.1358149277392293
            ]
        },
        {
            "positions": [
                0.8836849099588084,
                -1.9177565599260702,
                2.3952509112711837,
                -0.33911671367476176,
                0.7016799418557044,
                -3.1599354284279064
            ]
        },
        {
            "positions": [
                1.060745113257004,
                -1.9269990155065955,
                2.3969146917576274,
                -0.2104043339979738,
                0.6937339753368753,
                -3.1840559291165835
            ]
        },
        {
            "positions": [
                1.0743912676899086,
                -1.960927491049925,
                2.3022723791172903,
                -0.2113150526383103,
                0.6376624756460678,
                -3.003749052099084
            ]
        },
        {
            "positions": [
                1.0880374221228128,
                -1.9948559665932546,
                2.2076300664769537,
                -0.21222577127864678,
                0.5815909759552604,
                -2.823442175081585
            ]
        },
        {
            "positions": [
                1.1016835765557174,
                -2.028784442136584,
                2.1129877538366166,
                -0.2131364899189833,
                0.5255194762644531,
                -2.6431352980640854
            ]
        },
        {
            "positions": [
                1.1153297309886216,
                -2.0627129176799137,
                2.01834544119628,
                -0.21404720855931977,
                0.46944797657364556,
                -2.4628284210465856
            ]
        },
        {
            "positions": [
                1.1289758854215262,
                -2.0966413932232433,
                1.923703128555943,
                -0.21495792719965626,
                0.41337647688283813,
                -2.2825215440290862
            ]
        },
        {
            "positions": [
                1.1426220398544307,
                -2.1305698687665733,
                1.8290608159156063,
                -0.21586864583999274,
                0.3573049771920307,
                -2.102214667011587
            ]
        },
        {
            "positions": [
                1.156268194287335,
                -2.164498344309903,
                1.7344185032752693,
                -0.21677936448032922,
                0.30123347750122326,
                -1.9219077899940875
            ]
        },
        {
            "positions": [
                1.1699143487202395,
                -2.1984268198532324,
                1.6397761906349324,
                -0.21769008312066573,
                0.24516197781041582,
                -1.7416009129765877
            ]
        },
        {
            "positions": [
                1.1835605031531438,
                -2.232355295396562,
                1.5451338779945956,
                -0.21860080176100222,
                0.18909047811960833,
                -1.5612940359590883
            ]
        },
        {
            "positions": [
                1.1972066575860483,
                -2.2662837709398915,
                1.4504915653542587,
                -0.2195115204013387,
                0.13301897842880095,
                -1.380987158941589
            ]
        },
        {
            "positions": [
                1.3025096467357193,
                -2.2597087825130284,
                1.2921411674324115,
                -0.18810665473676097,
                0.08537086808727937,
                -1.420060472004175
            ]
        },
        {
            "positions": [
                1.4078126358853904,
                -2.2531337940861653,
                1.1337907695105642,
                -0.1567017890721832,
                0.0377227577457578,
                -1.459133785066761
            ]
        },
        {
            "positions": [
                1.5131156250350615,
                -2.246558805659302,
                0.975440371588717,
                -0.12529692340760545,
                -0.009925352595763798,
                -1.498207098129347
            ]
        },
        {
            "positions": [
                1.6184186141847328,
                -2.2399838172324396,
                0.8170899736668696,
                -0.09389205774302772,
                -0.05757346293728535,
                -1.5372804111919327
            ]
        },
        {
            "positions": [
                1.7237216033344038,
                -2.2334088288055765,
                0.6587395757450224,
                -0.062487192078449966,
                -0.10522157327880693,
                -1.5763537242545187
            ]
        },
        {
            "positions": [
                1.829024592484075,
                -2.2268338403787133,
                0.5003891778231752,
                -0.031082326413872235,
                -0.15286968362032854,
                -1.6154270373171047
            ]
        },
        {
            "positions": [
                1.934327581633746,
                -2.2202588519518502,
                0.342038779901328,
                0.0003225392507054947,
                -0.20051779396185004,
                -1.6545003503796907
            ]
        },
        {
            "positions": [
                2.0396305707834173,
                -2.213683863524987,
                0.18368838197948056,
                0.03172740491528325,
                -0.24816590430337165,
                -1.6935736634422767
            ]
        },
        {
            "positions": [
                2.1449335599330883,
                -2.207108875098124,
                0.025337984057633323,
                0.06313227057986098,
                -0.2958140146448932,
                -1.7326469765048627
            ]
        },
        {
            "positions": [
                2.2502365490827594,
                -2.2005338866712614,
                -0.13301241386421392,
                0.09453713624443877,
                -0.3434621249864148,
                -1.7717202895674484
            ]
        },
        {
            "positions": [
                2.3555395382324305,
                -2.1939588982443983,
                -0.29136281178606116,
                0.12594200190901644,
                -0.39111023532793643,
                -1.8107936026300344
            ]
        },
        {
            "positions": [
                2.4608425273821015,
                -2.187383909817535,
                -0.4497132097079084,
                0.15734686757359423,
                -0.43875834566945804,
                -1.8498669156926204
            ]
        },
        {
            "positions": [
                2.5661455165317726,
                -2.180808921390672,
                -0.6080636076297556,
                0.18875173323817196,
                -0.4864064560109796,
                -1.8889402287552064
            ]
        },
        {
            "positions": [
                2.581910247966409,
                -2.198523406091364,
                -0.8025187189882206,
                0.19730831815137434,
                -0.5066791690001252,
                -1.8097178598670938
            ]
        },
        {
            "positions": [
                2.5976749794010456,
                -2.2162378907920557,
                -0.9969738303466856,
                0.2058649030645767,
                -0.5269518819892709,
                -1.730495490978981
            ]
        },
        {
            "positions": [
                2.613439710835682,
                -2.2339523754927475,
                -1.1914289417051507,
                0.21442148797777907,
                -0.5472245949784165,
                -1.6512731220908683
            ]
        },
        {
            "positions": [
                2.619506852373149,
                -2.2552780375689214,
                -1.2749620681081066,
                0.26865637606026116,
                -0.48182848522465904,
                -1.516638156823049
            ]
        },
        {
            "positions": [
                2.6255739939106157,
                -2.2766036996450953,
                -1.3584951945110628,
                0.3228912641427433,
                -0.4164323754709016,
                -1.3820031915552298
            ]
        },
        {
            "positions": [
                2.6316411354480826,
                -2.2979293617212697,
                -1.4420283209140186,
                0.37712615222522533,
                -0.3510362657171442,
                -1.2473682262874104
            ]
        },
        {
            "positions": [
                2.6377082769855495,
                -2.3192550237974436,
                -1.5255614473169747,
                0.43136104030770744,
                -0.2856401559633867,
                -1.1127332610195912
            ]
        },
        {
            "positions": [
                2.6437754185230165,
                -2.3405806858736176,
                -1.6090945737199307,
                0.48559592839018956,
                -0.22024404620962929,
                -0.9780982957517719
            ]
        },
        {
            "positions": [
                2.64665113524006,
                -2.3615967236590594,
                -1.6220964248639442,
                0.559640424888184,
                -0.11657747049590349,
                -0.8257952089276623
            ]
        },
        {
            "positions": [
                2.6495268519571034,
                -2.382612761444501,
                -1.6350982760079578,
                0.6336849213861784,
                -0.01291089478217769,
                -0.6734921221035528
            ]
        },
        {
            "positions": [
                2.652402568674147,
                -2.4036287992299434,
                -1.6481001271519715,
                0.7077294178841728,
                0.09075568093154807,
                -0.5211890352794435
            ]
        },
        {
            "positions": [
                2.6552782853911903,
                -2.4246448370153852,
                -1.661101978295985,
                0.7817739143821673,
                0.1944222566452739,
                -0.36888594845533385
            ]
        },
        {
            "positions": [
                2.6581540021082337,
                -2.445660874800827,
                -1.6741038294399986,
                0.8558184108801616,
                0.2980888323589997,
                -0.21658286163122445
            ]
        },
        {
            "positions": [
                2.6600118358667273,
                -2.4616233273918455,
                -1.671806091280312,
                0.9157034705615134,
                0.3835514162509468,
                -0.09733807975219287
            ]
        },
        {
            "positions": [
                2.661869669625221,
                -2.477585779982864,
                -1.6695083531206256,
                0.9755885302428651,
                0.46901400014289396,
                0.021906702126838713
            ]
        }
    ]
}