{
    "goal": {
        "global_pose": {
            "orientation": {
                "w": -0.00223480608172531,
                "x": 0.0024358444001904467,
                "y": 0.7094548369677653,
                "z": -0.704743149386269
            },
            "position": {
                "x": 0.6205249238014221,
                "y": -0.6371506643295288,
                "z": 0.19426114857196808
            }
        },
        "name": "move_to_magneteinheit_B"
    },
    "id": "RRTstar_move_to_magneteinheit_B_137",
    "joint_names": [
        "shoulder_pan_joint",
        "shoulder_lift_joint",
        "elbow_joint",
        "wrist_1_joint",
        "wrist_2_joint",
        "wrist_3_joint"
    ],
    "metrics": {
        "cart_traj_len": 1.4530275143737614,
        "distance_elbow_joint": 0.7228149017602687,
        "distance_shoulder_lift_joint": 1.2433290211211339,
        "distance_shoulder_pan_joint": 1.6214983478951206,
        "distance_wrist_1_joint": 2.6239457857884756,
        "distance_wrist_2_joint": 2.938105803451397,
        "distance_wrist_3_joint": 3.138610725848493,
        "smoothness": 5.382899525591488e-16,
        "time": 5.011113502,
        "traj_len": 3.505467812698454,
        "weighted_distance": 4.911983064588248
    },
    "planner": "RRTstar",
    "start": {
        "state": {
            "elbow_joint": 2.39358713078474,
            "shoulder_lift_joint": -1.908514104345545,
            "shoulder_pan_joint": 0.7066247066606129,
            "wrist_1_joint": -0.4678290933515497,
            "wrist_2_joint": 0.7096259083745334,
            "wrist_3_joint": -3.1358149277392293
        }
    },
    "waypoints": [
        {
            "positions": [
                0.7066247066606129,
                -1.908514104345545,
                2.39358713078474,
                -0.4678290933515497,
                0.7096259083745334,
                -3.1358149277392293
            ]
        },
        {
            "positions": [
                0.6559528832888905,
                -1.8696600724355095,
                2.3709991651047315,
                -0.38583078754565986,
                0.6178101020166773,
                -3.037733342556464
            ]
        },
        {
            "positions": [
                0.6052810599171679,
                -1.830806040525474,
                2.3484111994247234,
                -0.30383248173976996,
                0.525994295658821,
                -2.9396517573736984
            ]
        },
        {
            "positions": [
                0.5546092365454454,
                -1.7919520086154386,
                2.325823233744715,
                -0.2218341759338801,
                0.4341784893009649,
                -2.841570172190933
            ]
        },
        {
            "positions": [
                0.5039374131737229,
                -1.7530979767054031,
                2.3032352680647064,
                -0.13983587012799026,
                0.3423626829431088,
                -2.7434885870081676
            ]
        },
        {
            "positions": [
                0.4532655898020004,
                -1.7142439447953677,
                2.2806473023846983,
                -0.05783756432210041,
                0.25054687658525265,
                -2.645407001825402
            ]
        },
        {
            "positions": [
                0.40259376643027783,
                -1.6753899128853322,
                2.2580593367046897,
                0.024160741483789494,
                0.1587310702273964,
                -2.5473254166426367
            ]
        },
        {
            "positions": [
                0.3519219430585553,
                -1.636535880975297,
                2.235471371024681,
                0.10615904728967934,
                0.06691526386954028,
                -2.4492438314598717
            ]
        },
        {
            "positions": [
                0.3012501196868328,
                -1.5976818490652613,
                2.212883405344673,
                0.1881573530955692,
                -0.024900542488315858,
                -2.351162246277106
            ]
        },
        {
            "positions": [
                0.2505782963151103,
                -1.5588278171552261,
                2.1902954396646646,
                0.27015565890145904,
                -0.11671634884617199,
                -2.253080661094341
            ]
        },
        {
            "positions": [
                0.19990647294338781,
                -1.5199737852451904,
                2.167707473984656,
                0.3521539647073489,
                -0.20853215520402812,
                -2.154999075911575
            ]
        },
        {
            "positions": [
                0.1492346495716652,
                -1.4811197533351552,
                2.1451195083046475,
                0.43415227051323874,
                -0.30034796156188437,
                -2.05691749072881
            ]
        },
        {
            "positions": [
                0.09856282619994272,
                -1.4422657214251198,
                2.1225315426246394,
                0.5161505763191288,
                -0.3921637679197406,
                -1.9588359055460445
            ]
        },
        {
            "positions": [
                0.04789100282822023,
                -1.4034116895150843,
                2.099943576944631,
                0.5981488821250185,
                -0.48397957427759664,
                -1.860754320363279
            ]
        },
        {
            "positions": [
                -0.0027808205435023714,
                -1.3645576576050489,
                2.0773556112646223,
                0.6801471879309084,
                -0.5757953806354529,
                -1.7626727351805136
            ]
        },
        {
            "positions": [
                -0.05345264391522486,
                -1.3257036256950134,
                2.0547676455846142,
                0.7621454937367982,
                -0.6676111869933089,
                -1.6645911499977482
            ]
        },
        {
            "positions": [
                -0.10412446728694735,
                -1.286849593784978,
                2.0321796799046057,
                0.8441437995426881,
                -0.7594269933511651,
                -1.5665095648149827
            ]
        },
        {
            "positions": [
                -0.15479629065866984,
                -1.2479955618749425,
                2.009591714224597,
                0.9261421053485781,
                -0.8512427997090214,
                -1.4684279796322173
            ]
        },
        {
            "positions": [
                -0.20546811403039233,
                -1.209141529964907,
                1.9870037485445888,
                1.0081404111544678,
                -0.9430586060668774,
                -1.3703463944494518
            ]
        },
        {
            "positions": [
                -0.25613993740211494,
                -1.1702874980548716,
                1.9644157828645805,
                1.0901387169603578,
                -1.0348744124247338,
                -1.2722648092666864
            ]
        },
        {
            "positions": [
                -0.3068117607738373,
                -1.1314334661448362,
                1.941827817184572,
                1.1721370227662475,
                -1.1266902187825898,
                -1.174183224083921
            ]
        },
        {
            "positions": [
                -0.35748358414556003,
                -1.0925794342348008,
                1.9192398515045637,
                1.2541353285721375,
                -1.2185060251404458,
                -1.0761016389011555
            ]
        },
        {
            "positions": [
                -0.4081554075172825,
                -1.0537254023247655,
                1.8966518858245554,
                1.3361336343780272,
                -1.3103218314983023,
                -0.9780200537183901
            ]
        },
        {
            "positions": [
                -0.458827230889005,
                -1.0148713704147299,
                1.8740639201445468,
                1.4181319401839172,
                -1.4021376378561583,
                -0.8799384685356246
            ]
        },
        {
            "positions": [
                -0.5094990542607275,
                -0.9760173385046945,
                1.8514759544645385,
                1.5001302459898072,
                -1.4939534442140148,
                -0.7818568833528596
            ]
        },
        {
            "positions": [
                -0.56017087763245,
                -0.9371633065946591,
                1.8288879887845302,
                1.5821285517956971,
                -1.5857692505718708,
                -0.6837752981700942
            ]
        },
        {
            "positions": [
                -0.6108427010041725,
                -0.8983092746846237,
                1.8063000231045216,
                1.6641268576015866,
                -1.6775850569297268,
                -0.5856937129873288
            ]
        },
        {
            "positions": [
                -0.661514524375895,
                -0.8594552427745883,
                1.7837120574245133,
                1.7461251634074766,
                -1.7694008632875828,
                -0.4876121278045633
            ]
        },
        {
            "positions": [
                -0.7121863477476177,
                -0.8206012108645528,
                1.761124091744505,
                1.8281234692133665,
                -1.8612166696454393,
                -0.38953054262179787
            ]
        },
        {
            "positions": [
                -0.7628581711193402,
                -0.7817471789545174,
                1.7385361260644965,
                1.9101217750192565,
                -1.9530324760032953,
                -0.29144895743903243
            ]
        },
        {
            "positions": [
                -0.8135299944910627,
                -0.742893147044482,
                1.7159481603844882,
                1.992120080825146,
                -2.0448482823611513,
                -0.193367372256267
            ]
        },
        {
            "positions": [
                -0.8642018178627852,
                -0.7040391151344465,
                1.6933601947044798,
                2.074118386631036,
                -2.136664088719008,
                -0.09528578707350155
            ]
        },
        {
            "positions": [
                -0.9148736412345075,
                -0.6651850832244111,
                1.6707722290244713,
                2.156116692436926,
                -2.228479895076864,
                0.002795798109263783
            ]
        }
    ]
}