{
    "goal": {
        "global_pose": {
            "orientation": {
                "w": 0.7031023502349854,
                "x": -0.7110244035720825,
                "y": 0.007748599164187908,
                "z": 0.005598929710686207
            },
            "position": {
                "x": 0.11585023208521307,
                "y": 0.44412534475326537,
                "z": 0.3711530566215515
            }
        },
        "name": "move_to_auspresseinheit_A"
    },
    "id": "RRTstar_move_to_auspresseinheit_A_52",
    "joint_names": [
        "shoulder_pan_joint",
        "shoulder_lift_joint",
        "elbow_joint",
        "wrist_1_joint",
        "wrist_2_joint",
        "wrist_3_joint"
    ],
    "metrics": {
        "cart_traj_len": 0.793014521586055,
        "distance_elbow_joint": 0.44593726359481245,
        "distance_shoulder_lift_joint": 0.8720374605279433,
        "distance_shoulder_pan_joint": 1.0974568523584747,
        "distance_wrist_1_joint": 0.5460511873212597,
        "distance_wrist_2_joint": 0.5106396663014938,
        "distance_wrist_3_joint": 0.22311400164325912,
        "smoothness": 0.9656403513662251,
        "time": 5.008660044,
        "traj_len": 1.922299776764083,
        "weighted_distance": 2.2799463346001185
    },
    "planner": "RRTstar",
    "start": {
        "state": {
            "elbow_joint": 2.422574709923281,
            "shoulder_lift_joint": -1.3736533754116391,
            "shoulder_pan_joint": -0.33786336945926293,
            "wrist_1_joint": -1.0288603412921917,
            "wrist_2_joint": 1.2330224858903978,
            "wrist_3_joint": -3.094022268022082
        }
    },
    "waypoints": [
        {
            "positions": [
                -0.33786336945926293,
                -1.3736533754116391,
                2.422574709923281,
                -1.0288603412921917,
                1.2330224858903978,
                -3.094022268022082
            ]
        },
        {
            "positions": [
                -0.18467615312678934,
                -1.4743338314548857,
                2.4527029866714285,
                -0.9809797587645944,
                1.1835112443914282,
                -3.0797939246307107
            ]
        },
        {
            "positions": [
                -0.03148893679431575,
                -1.575014287498132,
                2.482831263419576,
                -0.9330991762369971,
                1.1340000028924584,
                -3.0655655812393396
            ]
        },
        {
            "positions": [
                0.12169827953815787,
                -1.6756947435413787,
                2.5129595401677234,
                -0.8852185937093997,
                1.0844887613934888,
                -3.051337237847968
            ]
        },
        {
            "positions": [
                0.27488549587063144,
                -1.776375199584625,
                2.543087816915871,
                -0.8373380111818024,
                1.0349775198945192,
                -3.037108894456597
            ]
        },
        {
            "positions": [
                0.4280727122031051,
                -1.8770556556278717,
                2.5732160936640183,
                -0.7894574286542051,
                0.9854662783955495,
                -3.0228805510652257
            ]
        },
        {
            "positions": [
                0.5812599285355786,
                -1.9777361116711183,
                2.6033443704121657,
                -0.7415768461266077,
                0.9359550368965799,
                -3.0086522076738547
            ]
        },
        {
            "positions": [
                0.7344471448680523,
                -2.0784165677143647,
                2.633472647160313,
                -0.6936962635990104,
                0.8864437953976102,
                -2.994423864282483
            ]
        },
        {
            "positions": [
                0.726065032190999,
                -2.0226584783059587,
                2.555126205041053,
                -0.623400560389651,
                0.8317568034613748,
                -3.0355957302503698
            ]
        },
        {
            "positions": [
                0.7176829195139458,
                -1.966900388897553,
                2.476779762921793,
                -0.5531048571802916,
                0.7770698115251393,
                -3.076767596218257
            ]
        },
        {
            "positions": [
                0.7093008068368926,
                -1.911142299489147,
                2.398433320802533,
                -0.4828091539709321,
                0.7223828195889039,
                -3.1179394621861434
            ]
        }
    ]
}