{
    "goal": {
        "global_pose": {
            "orientation": {
                "w": 0.5084816217422485,
                "x": -0.49083608388900757,
                "y": 0.5182115435600281,
                "z": -0.4816462993621826
            },
            "position": {
                "x": 0.5540239810943604,
                "y": 0.030875300988554955,
                "z": 0.16403168439865112
            }
        },
        "name": "move_to_storage_A"
    },
    "id": "RRTstar_move_to_storage_A_100",
    "joint_names": [
        "shoulder_pan_joint",
        "shoulder_lift_joint",
        "elbow_joint",
        "wrist_1_joint",
        "wrist_2_joint",
        "wrist_3_joint"
    ],
    "metrics": {
        "cart_traj_len": 0.3537176463750993,
        "distance_elbow_joint": 0.44871314256098493,
        "distance_shoulder_lift_joint": 0.23360892309670733,
        "distance_shoulder_pan_joint": 0.4636467616921901,
        "distance_wrist_1_joint": 0.24043164305506248,
        "distance_wrist_2_joint": 1.0945172056879053,
        "distance_wrist_3_joint": 0.09693830530173608,
        "smoothness": 0.0,
        "time": 5.000089712,
        "traj_len": 1.605570297867579,
        "weighted_distance": 2.0264948657080346
    },
    "planner": "RRTstar",
    "start": {
        "state": {
            "elbow_joint": 1.9715463870305268,
            "shoulder_lift_joint": -1.1394903361783484,
            "shoulder_pan_joint": 0.12281147578464417,
            "wrist_1_joint": -0.7804599489681411,
            "wrist_2_joint": 0.12958660307563738,
            "wrist_3_joint": -3.1924946282119055
        }
    },
    "waypoints": [
        {
            "positions": [
                0.12281147578464417,
                -1.1394903361783484,
                1.9715463870305268,
                -0.7804599489681411,
                0.12958660307563738,
                -3.1924946282119055
            ]
        },
        {
            "positions": [
                0.0565762241143313,
                -1.172863039477878,
                2.035648264539239,
                -0.8148073265474357,
                0.28594620388819525,
                -3.178646298883086
            ]
        },
        {
            "positions": [
                -0.009659027555981567,
                -1.2062357427774075,
                2.099750142047951,
                -0.8491547041267303,
                0.4423058047007532,
                -3.1647979695542667
            ]
        },
        {
            "positions": [
                -0.07589427922629442,
                -1.2396084460769372,
                2.1638520195566633,
                -0.883502081706025,
                0.598665405513311,
                -3.150949640225447
            ]
        },
        {
            "positions": [
                -0.1421295308966073,
                -1.272981149376467,
                2.227953897065375,
                -0.9178494592853197,
                0.755025006325869,
                -3.137101310896628
            ]
        },
        {
            "positions": [
                -0.2083647825669202,
                -1.3063538526759966,
                2.2920557745740875,
                -0.9521968368646143,
                0.911384607138427,
                -3.1232529815678083
            ]
        },
        {
            "positions": [
                -0.274600034237233,
                -1.339726555975526,
                2.3561576520827994,
                -0.9865442144439089,
                1.0677442079509847,
                -3.109404652238989
            ]
        },
        {
            "positions": [
                -0.3408352859075459,
                -1.3730992592750557,
                2.4202595295915117,
                -1.0208915920232036,
                1.2241038087635427,
                -3.0955563229101695
            ]
        }
    ]
}