{
    "goal": {
        "global_pose": {
            "orientation": {
                "w": 0.7031023502349854,
                "x": -0.7110244035720825,
                "y": 0.007748599164187908,
                "z": 0.005598929710686207
            },
            "position": {
                "x": 0.11585023208521307,
                "y": 0.44412534475326537,
                "z": 0.3711530566215515
            }
        },
        "name": "move_to_auspresseinheit_A"
    },
    "id": "RRTstar_move_to_auspresseinheit_A_110",
    "joint_names": [
        "shoulder_pan_joint",
        "shoulder_lift_joint",
        "elbow_joint",
        "wrist_1_joint",
        "wrist_2_joint",
        "wrist_3_joint"
    ],
    "metrics": {
        "cart_traj_len": 0.8233620392322081,
        "distance_elbow_joint": 0.11449060926060861,
        "distance_shoulder_lift_joint": 0.7082182946256119,
        "distance_shoulder_pan_joint": 1.338590796252074,
        "distance_wrist_1_joint": 0.5491163837092008,
        "distance_wrist_2_joint": 0.5093077955330556,
        "distance_wrist_3_joint": 0.02715664544553098,
        "smoothness": 1.3654367907185727,
        "time": 5.006648222,
        "traj_len": 1.8019102432768626,
        "weighted_distance": 2.0879698261611446
    },
    "planner": "RRTstar",
    "start": {
        "state": {
            "elbow_joint": 2.422574709923281,
            "shoulder_lift_joint": -1.3736533754116391,
            "shoulder_pan_joint": -0.33786336945926293,
            "wrist_1_joint": -1.0288603412921917,
            "wrist_2_joint": 1.2330224858903978,
            "wrist_3_joint": -3.094022268022082
        }
    },
    "waypoints": [
        {
            "positions": [
                -0.33786336945926293,
                -1.3736533754116391,
                2.422574709923281,
                -1.0288603412921917,
                1.2330224858903978,
                -3.094022268022082
            ]
        },
        {
            "positions": [
                -0.16734236794422544,
                -1.462541970541214,
                2.428902855488163,
                -0.9611162438090102,
                1.1772363411080118,
                -3.0948124831169017
            ]
        },
        {
            "positions": [
                0.0031786335708120506,
                -1.551430565670789,
                2.435231001053045,
                -0.8933721463258286,
                1.1214501963256256,
                -3.0956026982117217
            ]
        },
        {
            "positions": [
                0.17369963508584957,
                -1.6403191608003638,
                2.441559146617927,
                -0.8256280488426471,
                1.0656640515432396,
                -3.0963929133065413
            ]
        },
        {
            "positions": [
                0.34422063660088703,
                -1.7292077559299388,
                2.4478872921828088,
                -0.7578839513594655,
                1.0098779067608536,
                -3.0971831284013613
            ]
        },
        {
            "positions": [
                0.5147416381159247,
                -1.8180963510595136,
                2.4542154377476906,
                -0.690139853876284,
                0.9540917619784675,
                -3.097973343496181
            ]
        },
        {
            "positions": [
                0.685262639630962,
                -1.9069849461890884,
                2.460543583312573,
                -0.6223957563931024,
                0.8983056171960815,
                -3.098763558591001
            ]
        },
        {
            "positions": [
                0.8557836411459997,
                -1.9958735413186635,
                2.4668717288774547,
                -0.5546516589099209,
                0.8425194724136954,
                -3.0995537736858205
            ]
        },
        {
            "positions": [
                0.783311748322594,
                -1.9528744769593698,
                2.4317749337242374,
                -0.5171978082464559,
                0.7831170813855188,
                -3.110366343576717
            ]
        },
        {
            "positions": [
                0.7108398554991884,
                -1.9098754126000759,
                2.3966781385710196,
                -0.479743957582991,
                0.7237146903573421,
                -3.121178913467613
            ]
        }
    ]
}