{
    "goal": {
        "global_pose": {
            "orientation": {
                "w": 0.7047431468963623,
                "x": -0.7094548344612122,
                "y": 0.0024358443915843964,
                "z": -0.0022348060738295317
            },
            "position": {
                "x": 0.6094750761985779,
                "y": 0.3671506643295288,
                "z": 0.19426114857196808
            }
        },
        "name": "move_to_magneteinheit_A"
    },
    "id": "RRTstar_move_to_magneteinheit_A_60",
    "joint_names": [
        "shoulder_pan_joint",
        "shoulder_lift_joint",
        "elbow_joint",
        "wrist_1_joint",
        "wrist_2_joint",
        "wrist_3_joint"
    ],
    "metrics": {
        "cart_traj_len": 1.87833960128032,
        "distance_elbow_joint": 3.9134604249661917,
        "distance_shoulder_lift_joint": 0.7003954544480894,
        "distance_shoulder_pan_joint": 1.24069556059723,
        "distance_wrist_1_joint": 1.4899485767653688,
        "distance_wrist_2_joint": 1.7053947562061282,
        "distance_wrist_3_joint": 1.1115998477788096,
        "smoothness": 2.9605947464981317e-16,
        "time": 5.019961124,
        "traj_len": 3.1877099335983847,
        "weighted_distance": 3.9471556403682553
    },
    "planner": "RRTstar",
    "start": {
        "state": {
            "elbow_joint": -1.919643507792019,
            "shoulder_lift_joint": -0.07675430207160344,
            "shoulder_pan_joint": -1.1188671864651873,
            "wrist_1_joint": 0.42560062535961957,
            "wrist_2_joint": 1.5706038300724876,
            "wrist_3_joint": 1.1188968870953055
        }
    },
    "waypoints": [
        {
            "positions": [
                -1.1188671864651873,
                -0.07675430207160344,
                -1.919643507792019,
                0.42560062535961957,
                1.5706038300724876,
                1.1188968870953055
            ]
        },
        {
            "positions": [
                -1.071148126442217,
                -0.10369258878114535,
                -1.7691257991394733,
                0.4829063398505953,
                1.5050117240645595,
                1.0761430467961206
            ]
        },
        {
            "positions": [
                -1.0234290664192465,
                -0.13063087549068725,
                -1.6186080904869273,
                0.540212054341571,
                1.4394196180566317,
                1.0333892064969357
            ]
        },
        {
            "positions": [
                -0.9757100063962761,
                -0.15756916220022915,
                -1.4680903818343816,
                0.5975177688325468,
                1.3738275120487036,
                0.9906353661977506
            ]
        },
        {
            "positions": [
                -0.9279909463733058,
                -0.18450744890977105,
                -1.3175726731818358,
                0.6548234833235225,
                1.3082354060407755,
                0.9478815258985656
            ]
        },
        {
            "positions": [
                -0.8802718863503354,
                -0.21144573561931296,
                -1.16705496452929,
                0.7121291978144981,
                1.2426433000328476,
                0.9051276855993806
            ]
        },
        {
            "positions": [
                -0.8325528263273649,
                -0.23838402232885486,
                -1.016537255876744,
                0.769434912305474,
                1.1770511940249195,
                0.8623738453001957
            ]
        },
        {
            "positions": [
                -0.7848337663043947,
                -0.26532230903839676,
                -0.8660195472241983,
                0.8267406267964497,
                1.1114590880169914,
                0.8196200050010107
            ]
        },
        {
            "positions": [
                -0.7371147062814243,
                -0.29226059574793867,
                -0.7155018385716523,
                0.8840463412874253,
                1.0458669820090636,
                0.7768661647018257
            ]
        },
        {
            "positions": [
                -0.6893956462584538,
                -0.31919888245748057,
                -0.5649841299191065,
                0.941352055778401,
                0.9802748760011355,
                0.7341123244026406
            ]
        },
        {
            "positions": [
                -0.6416765862354834,
                -0.3461371691670225,
                -0.41446642126656075,
                0.9986577702693769,
                0.9146827699932075,
                0.6913584841034557
            ]
        },
        {
            "positions": [
                -0.5939575262125131,
                -0.3730754558765644,
                -0.263948712614015,
                1.0559634847603525,
                0.8490906639852795,
                0.6486046438042707
            ]
        },
        {
            "positions": [
                -0.5462384661895426,
                -0.4000137425861063,
                -0.11343100396146899,
                1.1132691992513284,
                0.7834985579773515,
                0.6058508035050857
            ]
        },
        {
            "positions": [
                -0.4985194061665723,
                -0.4269520292956482,
                0.03708670469107678,
                1.170574913742304,
                0.7179064519694235,
                0.5630969632059007
            ]
        },
        {
            "positions": [
                -0.450800346143602,
                -0.4538903160051901,
                0.18760441334362254,
                1.2278806282332797,
                0.6523143459614955,
                0.5203431229067158
            ]
        },
        {
            "positions": [
                -0.40308128612063154,
                -0.48082860271473193,
                0.3381221219961683,
                1.2851863427242554,
                0.5867222399535675,
                0.47758928260753086
            ]
        },
        {
            "positions": [
                -0.3553622260976611,
                -0.507766889424274,
                0.4886398306487145,
                1.3424920572152312,
                0.5211301339456393,
                0.4348354423083458
            ]
        },
        {
            "positions": [
                -0.3076431660746908,
                -0.5347051761338157,
                0.6391575393012603,
                1.399797771706207,
                0.4555380279377115,
                0.39208160200916076
            ]
        },
        {
            "positions": [
                -0.25992410605172034,
                -0.5616434628433578,
                0.7896752479538061,
                1.4571034861971826,
                0.3899459219297834,
                0.3493277617099758
            ]
        },
        {
            "positions": [
                -0.21220504602875,
                -0.5885817495528995,
                0.9401929566063518,
                1.5144092006881584,
                0.3243538159218555,
                0.3065739214107909
            ]
        },
        {
            "positions": [
                -0.16448598600577957,
                -0.6155200362624416,
                1.0907106652588976,
                1.571714915179134,
                0.25876170991392744,
                0.2638200811116058
            ]
        },
        {
            "positions": [
                -0.11676692598280924,
                -0.6424583229719834,
                1.2412283739114434,
                1.62902062967011,
                0.19316960390599935,
                0.22106624081242088
            ]
        },
        {
            "positions": [
                -0.0690478659598388,
                -0.6693966096815254,
                1.3917460825639891,
                1.6863263441610856,
                0.1275774978980715,
                0.17831240051323594
            ]
        },
        {
            "positions": [
                -0.021328805936868367,
                -0.6963348963910672,
                1.542263791216535,
                1.7436320586520613,
                0.061985391890143404,
                0.13555856021405088
            ]
        },
        {
            "positions": [
                0.026390254086102072,
                -0.7232731831006092,
                1.692781499869081,
                1.8009377731430372,
                -0.0036067141177846818,
                0.09280471991486583
            ]
        },
        {
            "positions": [
                0.07410931410907229,
                -0.750211469810151,
                1.8432992085216269,
                1.8582434876340128,
                -0.06919882012571277,
                0.05005087961568089
            ]
        },
        {
            "positions": [
                0.12182837413204278,
                -0.7771497565196929,
                1.9938169171741729,
                1.9155492021249885,
                -0.13479092613364063,
                0.007297039316495861
            ]
        }
    ]
}