{
    "goal": {
        "global_pose": {
            "orientation": {
                "w": 0.7047431468963623,
                "x": -0.7094548344612122,
                "y": 0.0024358443915843964,
                "z": -0.0022348060738295317
            },
            "position": {
                "x": 0.6094750761985779,
                "y": 0.3671506643295288,
                "z": 0.19426114857196808
            }
        },
        "name": "move_to_magneteinheit_A"
    },
    "id": "RRTstar_move_to_magneteinheit_A_6",
    "joint_names": [
        "shoulder_pan_joint",
        "shoulder_lift_joint",
        "elbow_joint",
        "wrist_1_joint",
        "wrist_2_joint",
        "wrist_3_joint"
    ],
    "metrics": {
        "cart_traj_len": 2.27228349555284,
        "distance_elbow_joint": 3.8803798909016773,
        "distance_shoulder_lift_joint": 1.0569589427905592,
        "distance_shoulder_pan_joint": 1.242057380645021,
        "distance_wrist_1_joint": 1.1508413798332042,
        "distance_wrist_2_joint": 1.440368354437154,
        "distance_wrist_3_joint": 4.354123170229549,
        "smoothness": 4.821540009363118e-16,
        "time": 5.0656147449999995,
        "traj_len": 3.622806801202235,
        "weighted_distance": 4.942083082422496
    },
    "planner": "RRTstar",
    "start": {
        "state": {
            "elbow_joint": -1.919643507792019,
            "shoulder_lift_joint": -0.07675430207160344,
            "shoulder_pan_joint": -1.1188671864651873,
            "wrist_1_joint": 0.42560062535961957,
            "wrist_2_joint": 1.5706038300724876,
            "wrist_3_joint": 1.1188968870953055
        }
    },
    "waypoints": [
        {
            "positions": [
                -1.1188671864651873,
                -0.07675430207160344,
                -1.919643507792019,
                0.42560062535961957,
                1.5706038300724876,
                1.1188968870953055
            ]
        },
        {
            "positions": [
                -1.0961763074586748,
                -0.12089010679520504,
                -1.9124010746068378,
                0.3599385720806949,
                1.5345672152793688,
                0.9270977360442387
            ]
        },
        {
            "positions": [
                -1.073485428452162,
                -0.16502591151880663,
                -1.9051586414216568,
                0.2942765188017703,
                1.4985306004862498,
                0.735298584993172
            ]
        },
        {
            "positions": [
                -1.0507945494456492,
                -0.20916171624240823,
                -1.8979162082364756,
                0.22861446552284567,
                1.462493985693131,
                0.5434994339421053
            ]
        },
        {
            "positions": [
                -1.0281036704391366,
                -0.2532975209660098,
                -1.8906737750512943,
                0.162952412243921,
                1.4264573709000121,
                0.3517002828910385
            ]
        },
        {
            "positions": [
                -0.989727208285171,
                -0.28264471176254824,
                -1.7622934364459293,
                0.13334597335333748,
                1.3832499743911895,
                0.23213606402352907
            ]
        },
        {
            "positions": [
                -0.9513507461312053,
                -0.3119919025590867,
                -1.633913097840564,
                0.10373953446275397,
                1.3400425778823668,
                0.11257184515601965
            ]
        },
        {
            "positions": [
                -0.9129742839772397,
                -0.3413390933556251,
                -1.505532759235199,
                0.07413309557217043,
                1.2968351813735444,
                -0.006992373711489808
            ]
        },
        {
            "positions": [
                -0.874597821823274,
                -0.37068628415216354,
                -1.3771524206298338,
                0.04452665668158691,
                1.2536277848647217,
                -0.1265565925789992
            ]
        },
        {
            "positions": [
                -0.8362213596693083,
                -0.400033474948702,
                -1.2487720820244688,
                0.014920217791003387,
                1.210420388355899,
                -0.24612081144650855
            ]
        },
        {
            "positions": [
                -0.7978448975153426,
                -0.4293806657452404,
                -1.1203917434191037,
                -0.014686221099580149,
                1.1672129918470764,
                -0.3656850303140181
            ]
        },
        {
            "positions": [
                -0.759468435361377,
                -0.45872785654177883,
                -0.9920114048137386,
                -0.044292659990163685,
                1.1240055953382537,
                -0.48524924918152745
            ]
        },
        {
            "positions": [
                -0.7210919732074113,
                -0.4880750473383173,
                -0.8636310662083735,
                -0.0738990988807472,
                1.080798198829431,
                -0.6048134680490369
            ]
        },
        {
            "positions": [
                -0.6827155110534456,
                -0.5174222381348557,
                -0.7352507276030085,
                -0.10350553777133073,
                1.0375908023206084,
                -0.7243776869165464
            ]
        },
        {
            "positions": [
                -0.64433904889948,
                -0.5467694289313941,
                -0.6068703889976435,
                -0.13311197666191424,
                0.994383405811786,
                -0.8439419057840556
            ]
        },
        {
            "positions": [
                -0.6059625867455143,
                -0.5761166197279326,
                -0.47849005039227843,
                -0.16271841555249775,
                0.9511760093029633,
                -0.963506124651565
            ]
        },
        {
            "positions": [
                -0.5675861245915486,
                -0.605463810524471,
                -0.3501097117869132,
                -0.1923248544430813,
                0.9079686127941407,
                -1.0830703435190747
            ]
        },
        {
            "positions": [
                -0.5292096624375829,
                -0.6348110013210095,
                -0.22172937318154795,
                -0.22193129333366488,
                0.864761216285318,
                -1.2026345623865842
            ]
        },
        {
            "positions": [
                -0.4908332002836172,
                -0.6641581921175479,
                -0.09334903457618293,
                -0.25153773222424836,
                0.8215538197764954,
                -1.3221987812540934
            ]
        },
        {
            "positions": [
                -0.4524567381296516,
                -0.6935053829140863,
                0.035031304029182087,
                -0.2811441711148319,
                0.7783464232676728,
                -1.4417630001216029
            ]
        },
        {
            "positions": [
                -0.414080275975686,
                -0.7228525737106247,
                0.16341164263454733,
                -0.3107506100054154,
                0.7351390267588501,
                -1.5613272189891123
            ]
        },
        {
            "positions": [
                -0.37570381382172024,
                -0.7521997645071632,
                0.29179198123991235,
                -0.34035704889599894,
                0.6919316302500276,
                -1.6808914378566218
            ]
        },
        {
            "positions": [
                -0.3373273516677546,
                -0.7815469553037016,
                0.42017231984527736,
                -0.3699634877865825,
                0.6487242337412049,
                -1.8004556567241312
            ]
        },
        {
            "positions": [
                -0.2989508895137889,
                -0.8108941461002399,
                0.5485526584506424,
                -0.39956992667716595,
                0.6055168372323824,
                -1.9200198755916402
            ]
        },
        {
            "positions": [
                -0.2605744273598233,
                -0.8402413368967785,
                0.6769329970560074,
                -0.4291763655677495,
                0.5623094407235597,
                -2.0395840944591495
            ]
        },
        {
            "positions": [
                -0.22219796520585766,
                -0.8695885276933168,
                0.8053133356613724,
                -0.4587828044583331,
                0.5191020442147372,
                -2.159148313326659
            ]
        },
        {
            "positions": [
                -0.18382150305189193,
                -0.8989357184898552,
                0.9336936742667374,
                -0.48838924334891654,
                0.4758946477059145,
                -2.2787125321941684
            ]
        },
        {
            "positions": [
                -0.1454450408979262,
                -0.9282829092863938,
                1.062074012872103,
                -0.5179956822395002,
                0.4326872511970917,
                -2.3982767510616787
            ]
        },
        {
            "positions": [
                -0.10706857874396047,
                -0.9576301000829321,
                1.190454351477468,
                -0.5476021211300837,
                0.3894798546882692,
                -2.517840969929188
            ]
        },
        {
            "positions": [
                -0.06869211658999486,
                -0.9869772908794707,
                1.318834690082833,
                -0.5772085600206672,
                0.3462724581794465,
                -2.6374051887966976
            ]
        },
        {
            "positions": [
                -0.030315654436029238,
                -1.016324481676009,
                1.4472150286881984,
                -0.6068149989112508,
                0.30306506167062386,
                -2.756969407664207
            ]
        },
        {
            "positions": [
                0.008060807717936491,
                -1.0456716724725474,
                1.5755953672935634,
                -0.6364214378018342,
                0.2598576651618012,
                -2.8765336265317156
            ]
        },
        {
            "positions": [
                0.04643726987190222,
                -1.075018863269086,
                1.7039757058989284,
                -0.6660278766924178,
                0.21665026865297876,
                -2.996097845399225
            ]
        },
        {
            "positions": [
                0.08481373202586773,
                -1.1043660540656244,
                1.8323560445042935,
                -0.6956343155830013,
                0.1734428721441561,
                -3.1156620642667345
            ]
        },
        {
            "positions": [
                0.12319019417983344,
                -1.1337132448621627,
                1.9607363831096585,
                -0.7252407544735848,
                0.1302354756353335,
                -3.2352262831342444
            ]
        }
    ]
}