{
    "goal": {
        "global_pose": {
            "orientation": {
                "w": 0.7047431468963623,
                "x": -0.7094548344612122,
                "y": 0.0024358443915843964,
                "z": -0.0022348060738295317
            },
            "position": {
                "x": 0.6094750761985779,
                "y": 0.3671506643295288,
                "z": 0.19426114857196808
            }
        },
        "name": "move_to_magneteinheit_A"
    },
    "id": "RRTstar_move_to_magneteinheit_A_49",
    "joint_names": [
        "shoulder_pan_joint",
        "shoulder_lift_joint",
        "elbow_joint",
        "wrist_1_joint",
        "wrist_2_joint",
        "wrist_3_joint"
    ],
    "metrics": {
        "cart_traj_len": 1.8804009434897924,
        "distance_elbow_joint": 3.9082232594851902,
        "distance_shoulder_lift_joint": 0.6977271195607707,
        "distance_shoulder_pan_joint": 1.2408945669692353,
        "distance_wrist_1_joint": 1.4837916583076558,
        "distance_wrist_2_joint": 1.6922851720188696,
        "distance_wrist_3_joint": 1.0912931211237866,
        "smoothness": 6.250144456581818e-16,
        "time": 5.027525541,
        "traj_len": 3.1802853484342424,
        "weighted_distance": 3.9335579276323887
    },
    "planner": "RRTstar",
    "start": {
        "state": {
            "elbow_joint": -1.919643507792019,
            "shoulder_lift_joint": -0.07675430207160344,
            "shoulder_pan_joint": -1.1188671864651873,
            "wrist_1_joint": 0.42560062535961957,
            "wrist_2_joint": 1.5706038300724876,
            "wrist_3_joint": 1.1188968870953055
        }
    },
    "waypoints": [
        {
            "positions": [
                -1.1188671864651873,
                -0.07675430207160344,
                -1.919643507792019,
                0.42560062535961957,
                1.5706038300724876,
                1.1188968870953055
            ]
        },
        {
            "positions": [
                -1.071140472350986,
                -0.10358996051624847,
                -1.7693272285810502,
                0.4826695352945294,
                1.5055159388409927,
                1.0769240747443907
            ]
        },
        {
            "positions": [
                -1.0234137582367846,
                -0.1304256189608935,
                -1.6190109493700815,
                0.5397384452294393,
                1.4404280476094977,
                1.0349512623934758
            ]
        },
        {
            "positions": [
                -0.9756870441225833,
                -0.15726127740553852,
                -1.4686946701591124,
                0.5968073551643491,
                1.3753401563780026,
                0.9929784500425609
            ]
        },
        {
            "positions": [
                -0.9279603300083819,
                -0.18409693585018358,
                -1.3183783909481437,
                0.6538762650992589,
                1.3102522651465076,
                0.951005637691646
            ]
        },
        {
            "positions": [
                -0.8802336158941806,
                -0.2109325942948286,
                -1.1680621117371748,
                0.7109451750341688,
                1.2451643739150127,
                0.9090328253407312
            ]
        },
        {
            "positions": [
                -0.8325069017799792,
                -0.23776825273947363,
                -1.0177458325262059,
                0.7680140849690786,
                1.1800764826835177,
                0.8670600129898163
            ]
        },
        {
            "positions": [
                -0.7847801876657778,
                -0.26460391118411863,
                -0.8674295533152372,
                0.8250829949039884,
                1.1149885914520228,
                0.8250872006389014
            ]
        },
        {
            "positions": [
                -0.7370534735515765,
                -0.2914395696287637,
                -0.7171132741042683,
                0.8821519048388984,
                1.0499007002205278,
                0.7831143882879865
            ]
        },
        {
            "positions": [
                -0.6893267594373751,
                -0.3182752280734087,
                -0.5667969948932994,
                0.9392208147738081,
                0.9848128089890328,
                0.7411415759370718
            ]
        },
        {
            "positions": [
                -0.6416000453231738,
                -0.34511088651805377,
                -0.41648071568233047,
                0.9962897247087179,
                0.9197249177575377,
                0.6991687635861568
            ]
        },
        {
            "positions": [
                -0.5938733312089725,
                -0.3719465449626988,
                -0.2661644364713618,
                1.0533586346436279,
                0.8546370265260428,
                0.657195951235242
            ]
        },
        {
            "positions": [
                -0.5461466170947711,
                -0.3987822034073438,
                -0.11584815726039266,
                1.1104275445785377,
                0.7895491352945477,
                0.6152231388843271
            ]
        },
        {
            "positions": [
                -0.4984199029805697,
                -0.42561786185198885,
                0.034468121950576025,
                1.1674964545134474,
                0.7244612440630528,
                0.5732503265334122
            ]
        },
        {
            "positions": [
                -0.45069318886636833,
                -0.4524535202966339,
                0.1847844011615447,
                1.2245653644483572,
                0.6593733528315578,
                0.5312775141824974
            ]
        },
        {
            "positions": [
                -0.40296647475216707,
                -0.4792891787412789,
                0.3351006803725134,
                1.2816342743832672,
                0.5942854616000629,
                0.4893047018315826
            ]
        },
        {
            "positions": [
                -0.3552397606379656,
                -0.5061248371859239,
                0.4854169595834825,
                1.3387031843181771,
                0.5291975703685678,
                0.4473318894806676
            ]
        },
        {
            "positions": [
                -0.3075130465237643,
                -0.5329604956305689,
                0.6357332387944516,
                1.395772094253087,
                0.4641096791370729,
                0.4053590771297527
            ]
        },
        {
            "positions": [
                -0.25978633240956295,
                -0.559796154075214,
                0.7860495180054203,
                1.4528410041879967,
                0.39902178790557796,
                0.36338626477883795
            ]
        },
        {
            "positions": [
                -0.21205961829536157,
                -0.5866318125198591,
                0.936365797216389,
                1.5099099141229064,
                0.333933896674083,
                0.3214134524279231
            ]
        },
        {
            "positions": [
                -0.1643329041811602,
                -0.613467470964504,
                1.0866820764273581,
                1.5669788240578164,
                0.26884600544258785,
                0.2794406400770081
            ]
        },
        {
            "positions": [
                -0.11660619006695883,
                -0.640303129409149,
                1.2369983556383268,
                1.6240477339927262,
                0.2037581142110929,
                0.2374678277260932
            ]
        },
        {
            "positions": [
                -0.06887947595275756,
                -0.6671387878537942,
                1.3873146348492955,
                1.6811166439276362,
                0.13867022297959797,
                0.19549501537517844
            ]
        },
        {
            "positions": [
                -0.021152761838556078,
                -0.6939744462984392,
                1.5376309140602646,
                1.738185553862546,
                0.07358233174810302,
                0.15352220302426356
            ]
        },
        {
            "positions": [
                0.026573952275645185,
                -0.7208101047430842,
                1.6879471932712338,
                1.795254463797456,
                0.00849444051660786,
                0.11154939067334868
            ]
        },
        {
            "positions": [
                0.07430066638984667,
                -0.7476457631877294,
                1.8382634724822025,
                1.8523233737323657,
                -0.056593450714887084,
                0.0695765783224338
            ]
        },
        {
            "positions": [
                0.12202738050404795,
                -0.7744814216323742,
                1.9885797516931711,
                1.9093922836672754,
                -0.1216813419463821,
                0.027603765971519
            ]
        }
    ]
}