{
    "goal": {
        "global_pose": {
            "orientation": {
                "w": 0.7047431468963623,
                "x": -0.7094548344612122,
                "y": 0.0024358443915843964,
                "z": -0.0022348060738295317
            },
            "position": {
                "x": 0.6094750761985779,
                "y": 0.3671506643295288,
                "z": 0.19426114857196808
            }
        },
        "name": "move_to_magneteinheit_A"
    },
    "id": "RRTstar_move_to_magneteinheit_A_36",
    "joint_names": [
        "shoulder_pan_joint",
        "shoulder_lift_joint",
        "elbow_joint",
        "wrist_1_joint",
        "wrist_2_joint",
        "wrist_3_joint"
    ],
    "metrics": {
        "cart_traj_len": 1.8776573825053364,
        "distance_elbow_joint": 3.9158438667096314,
        "distance_shoulder_lift_joint": 0.7019679616764795,
        "distance_shoulder_pan_joint": 1.241945707377937,
        "distance_wrist_1_joint": 1.5043123401807164,
        "distance_wrist_2_joint": 1.6977490210616466,
        "distance_wrist_3_joint": 1.1211190221864282,
        "smoothness": 6.250144457291218e-16,
        "time": 5.012585461,
        "traj_len": 3.191071594181622,
        "weighted_distance": 3.953130066770895
    },
    "planner": "RRTstar",
    "start": {
        "state": {
            "elbow_joint": -1.919643507792019,
            "shoulder_lift_joint": -0.07675430207160344,
            "shoulder_pan_joint": -1.1188671864651873,
            "wrist_1_joint": 0.42560062535961957,
            "wrist_2_joint": 1.5706038300724876,
            "wrist_3_joint": 1.1188968870953055
        }
    },
    "waypoints": [
        {
            "positions": [
                -1.1188671864651873,
                -0.07675430207160344,
                -1.919643507792019,
                0.42560062535961957,
                1.5706038300724876,
                1.1188968870953055
            ]
        },
        {
            "positions": [
                -1.0711000438737281,
                -0.10375306982839112,
                -1.7690341283031872,
                0.4834587922896471,
                1.5053057908008858,
                1.0757769247035198
            ]
        },
        {
            "positions": [
                -1.0233329012822692,
                -0.1307518375851788,
                -1.618424748814355,
                0.5413169592196747,
                1.440007751529284,
                1.032656962311734
            ]
        },
        {
            "positions": [
                -0.97556575869081,
                -0.15775060534196647,
                -1.4678153693255231,
                0.5991751261497023,
                1.3747097122576821,
                0.9895369999199485
            ]
        },
        {
            "positions": [
                -0.9277986160993509,
                -0.18474937309875417,
                -1.3172059898366912,
                0.6570332930797298,
                1.3094116729860805,
                0.9464170375281628
            ]
        },
        {
            "positions": [
                -0.8800314735078918,
                -0.21174814085554183,
                -1.166596610347859,
                0.7148914600097573,
                1.2441136337144787,
                0.903297075136377
            ]
        },
        {
            "positions": [
                -0.8322643309164326,
                -0.2387469086123295,
                -1.0159872308590272,
                0.7727496269397849,
                1.1788155944428769,
                0.8601771127445914
            ]
        },
        {
            "positions": [
                -0.7844971883249736,
                -0.26574567636911717,
                -0.8653778513701953,
                0.8306077938698124,
                1.113517555171275,
                0.8170571503528057
            ]
        },
        {
            "positions": [
                -0.7367300457335144,
                -0.29274444412590483,
                -0.7147684718813632,
                0.88846596079984,
                1.0482195158996732,
                0.77393718796102
            ]
        },
        {
            "positions": [
                -0.6889629031420553,
                -0.3197432118826925,
                -0.5641590923925313,
                0.9463241277298675,
                0.9829214766280715,
                0.7308172255692342
            ]
        },
        {
            "positions": [
                -0.6411957605505962,
                -0.3467419796394802,
                -0.41354971290369935,
                1.004182294659895,
                0.9176234373564697,
                0.6876972631774485
            ]
        },
        {
            "positions": [
                -0.5934286179591372,
                -0.3737407473962679,
                -0.26294033341486744,
                1.0620404615899226,
                0.8523253980848678,
                0.6445773007856628
            ]
        },
        {
            "positions": [
                -0.545661475367678,
                -0.40073951515305556,
                -0.11233095392603532,
                1.1198986285199501,
                0.787027358813266,
                0.6014573383938772
            ]
        },
        {
            "positions": [
                -0.49789433277621886,
                -0.4277382829098432,
                0.03827842556279659,
                1.1777567954499777,
                0.7217293195416643,
                0.5583373760020914
            ]
        },
        {
            "positions": [
                -0.4501271901847598,
                -0.4547370506666309,
                0.1888878050516285,
                1.2356149623800052,
                0.6564312802700626,
                0.5152174136103057
            ]
        },
        {
            "positions": [
                -0.4023600475933007,
                -0.48173581842341856,
                0.3394971845404602,
                1.2934731293100328,
                0.5911332409984608,
                0.4720974512185201
            ]
        },
        {
            "positions": [
                -0.3545929050018415,
                -0.5087345861802063,
                0.49010656402929276,
                1.3513312962400605,
                0.5258352017268588,
                0.42897748882673425
            ]
        },
        {
            "positions": [
                -0.3068257624103824,
                -0.535733353936994,
                0.6407159435181244,
                1.4091894631700879,
                0.4605371624552572,
                0.38585752643494864
            ]
        },
        {
            "positions": [
                -0.2590586198189233,
                -0.5627321216937816,
                0.7913253230069566,
                1.4670476301001156,
                0.3952391231836554,
                0.3427375640431629
            ]
        },
        {
            "positions": [
                -0.21129147722746422,
                -0.5897308894505693,
                0.9419347024957883,
                1.524905797030143,
                0.32994108391205357,
                0.2996176016513773
            ]
        },
        {
            "positions": [
                -0.16352433463600502,
                -0.6167296572073571,
                1.0925440819846204,
                1.5827639639601707,
                0.26464304464045174,
                0.25649763925959146
            ]
        },
        {
            "positions": [
                -0.11575719204454593,
                -0.6437284249641446,
                1.2431534614734525,
                1.6406221308901983,
                0.19934500536884991,
                0.21337767686780584
            ]
        },
        {
            "positions": [
                -0.06799004945308695,
                -0.6707271927209324,
                1.3937628409622842,
                1.6984802978202258,
                0.1340469660972481,
                0.17025771447602012
            ]
        },
        {
            "positions": [
                -0.020222906861627754,
                -0.69772596047772,
                1.5443722204511163,
                1.7563384647502533,
                0.06874892682564648,
                0.1271377520842345
            ]
        },
        {
            "positions": [
                0.027544235729831446,
                -0.7247247282345077,
                1.6949815999399485,
                1.814196631680281,
                0.003450887554044435,
                0.08401778969244877
            ]
        },
        {
            "positions": [
                0.07531137832129065,
                -0.7517234959912953,
                1.8455909794287806,
                1.8720547986103084,
                -0.06184715171755717,
                0.04089782730066305
            ]
        },
        {
            "positions": [
                0.12307852091274965,
                -0.778722263748083,
                1.9962003589176123,
                1.929912965540336,
                -0.12714519098915897,
                -0.002222135091122671
            ]
        }
    ]
}