{
    "goal": {
        "global_pose": {
            "orientation": {
                "w": 0.5084816217422485,
                "x": -0.49083608388900757,
                "y": 0.5182115435600281,
                "z": -0.4816462993621826
            },
            "position": {
                "x": 0.5540239810943604,
                "y": 0.030875300988554955,
                "z": 0.16403168439865112
            }
        },
        "name": "move_to_storage_A"
    },
    "id": "RRTstar_move_to_storage_A_33",
    "joint_names": [
        "shoulder_pan_joint",
        "shoulder_lift_joint",
        "elbow_joint",
        "wrist_1_joint",
        "wrist_2_joint",
        "wrist_3_joint"
    ],
    "metrics": {
        "cart_traj_len": 0.3529632049781511,
        "distance_elbow_joint": 0.4488032556022623,
        "distance_shoulder_lift_joint": 0.23396575196795122,
        "distance_shoulder_pan_joint": 0.4604208159131536,
        "distance_wrist_1_joint": 0.2360485208139943,
        "distance_wrist_2_joint": 1.1033979319709348,
        "distance_wrist_3_joint": 0.09923020995058396,
        "smoothness": 8.881784232165597e-16,
        "time": 5.003339465,
        "traj_len": 1.606818747158148,
        "weighted_distance": 2.029722483223994
    },
    "planner": "RRTstar",
    "start": {
        "state": {
            "elbow_joint": 1.9715463870305268,
            "shoulder_lift_joint": -1.1394903361783484,
            "shoulder_pan_joint": 0.12281147578464417,
            "wrist_1_joint": -0.7804599489681411,
            "wrist_2_joint": 0.12958660307563738,
            "wrist_3_joint": -3.1924946282119055
        }
    },
    "waypoints": [
        {
            "positions": [
                0.12281147578464417,
                -1.1394903361783484,
                1.9715463870305268,
                -0.7804599489681411,
                0.12958660307563738,
                -3.1924946282119055
            ]
        },
        {
            "positions": [
                0.05703707351133652,
                -1.1729140150309127,
                2.03566113783085,
                -0.8141811662272831,
                0.28721487907148524,
                -3.1783188839332506
            ]
        },
        {
            "positions": [
                -0.008737328761971128,
                -1.2063376938834773,
                2.0997758886311733,
                -0.8479023834864252,
                0.4448431550673331,
                -3.164143139654596
            ]
        },
        {
            "positions": [
                -0.07451173103527879,
                -1.2397613727360417,
                2.1638906394314965,
                -0.8816236007455672,
                0.6024714310631809,
                -3.149967395375941
            ]
        },
        {
            "positions": [
                -0.1402861333085864,
                -1.2731850515886063,
                2.2280053902318193,
                -0.9153448180047092,
                0.7600997070590287,
                -3.135791651097286
            ]
        },
        {
            "positions": [
                -0.20606053558189408,
                -1.3066087304411707,
                2.2921201410321426,
                -0.9490660352638514,
                0.9177279830548766,
                -3.121615906818631
            ]
        },
        {
            "positions": [
                -0.27183493785520174,
                -1.3400324092937352,
                2.356234891832466,
                -0.9827872525229933,
                1.0753562590507244,
                -3.1074401625399766
            ]
        },
        {
            "positions": [
                -0.3376093401285094,
                -1.3734560881462996,
                2.420349642632789,
                -1.0165084697821354,
                1.2329845350465722,
                -3.0932644182613216
            ]
        }
    ]
}