{
    "goal": {
        "global_pose": {
            "orientation": {
                "w": 0.7047431468963623,
                "x": -0.7094548344612122,
                "y": 0.0024358443915843964,
                "z": -0.0022348060738295317
            },
            "position": {
                "x": 0.6094750761985779,
                "y": 0.3671506643295288,
                "z": 0.19426114857196808
            }
        },
        "name": "move_to_magneteinheit_A"
    },
    "id": "RRTstar_move_to_magneteinheit_A_96",
    "joint_names": [
        "shoulder_pan_joint",
        "shoulder_lift_joint",
        "elbow_joint",
        "wrist_1_joint",
        "wrist_2_joint",
        "wrist_3_joint"
    ],
    "metrics": {
        "cart_traj_len": 2.066322716539988,
        "distance_elbow_joint": 3.886707883475296,
        "distance_shoulder_lift_joint": 1.060099696577489,
        "distance_shoulder_pan_joint": 1.2413966282513451,
        "distance_wrist_1_joint": 1.1840003757896524,
        "distance_wrist_2_joint": 1.4343444171784994,
        "distance_wrist_3_joint": 1.9461178422880971,
        "smoothness": 3.981489473232051e-16,
        "time": 5.007781203,
        "traj_len": 3.2791259267616395,
        "weighted_distance": 4.154906415444843
    },
    "planner": "RRTstar",
    "start": {
        "state": {
            "elbow_joint": -1.919643507792019,
            "shoulder_lift_joint": -0.07675430207160344,
            "shoulder_pan_joint": -1.1188671864651873,
            "wrist_1_joint": 0.42560062535961957,
            "wrist_2_joint": 1.5706038300724876,
            "wrist_3_joint": 1.1188968870953055
        }
    },
    "waypoints": [
        {
            "positions": [
                -1.1188671864651873,
                -0.07675430207160344,
                -1.919643507792019,
                0.42560062535961957,
                1.5706038300724876,
                1.1188968870953055
            ]
        },
        {
            "positions": [
                -1.074531592599068,
                -0.11461500552079948,
                -1.7808325119536157,
                0.38331489765284626,
                1.519377243744684,
                1.1884010957484519
            ]
        },
        {
            "positions": [
                -1.0301959987329483,
                -0.15247570896999552,
                -1.6420215161152123,
                0.34102916994607296,
                1.4681506574168806,
                1.2579053044015982
            ]
        },
        {
            "positions": [
                -0.9858604048668289,
                -0.19033641241919153,
                -1.503210520276809,
                0.29874344223929966,
                1.416924071089077,
                1.3274095130547445
            ]
        },
        {
            "positions": [
                -0.9415248110007095,
                -0.22819711586838756,
                -1.3643995244384053,
                0.25645771453252636,
                1.3656974847612735,
                1.3969137217078909
            ]
        },
        {
            "positions": [
                -0.89718921713459,
                -0.2660578193175836,
                -1.225588528600002,
                0.21417198682575306,
                1.3144708984334699,
                1.4664179303610372
            ]
        },
        {
            "positions": [
                -0.8528536232684705,
                -0.30391852276677966,
                -1.0867775327615985,
                0.17188625911897976,
                1.2632443121056665,
                1.5359221390141835
            ]
        },
        {
            "positions": [
                -0.8085180294023511,
                -0.3417792262159757,
                -0.9479665369231951,
                0.12960053141220645,
                1.2120177257778628,
                1.6054263476673298
            ]
        },
        {
            "positions": [
                -0.7641824355362317,
                -0.3796399296651717,
                -0.8091555410847917,
                0.08731480370543315,
                1.1607911394500592,
                1.6749305563204762
            ]
        },
        {
            "positions": [
                -0.719846841670112,
                -0.41750063311436775,
                -0.6703445452463881,
                0.045029075998659795,
                1.1095645531222558,
                1.7444347649736225
            ]
        },
        {
            "positions": [
                -0.6755112478039926,
                -0.45536133656356376,
                -0.5315335494079847,
                0.0027433482918865493,
                1.0583379667944521,
                1.8139389736267688
            ]
        },
        {
            "positions": [
                -0.6311756539378732,
                -0.4932220400127598,
                -0.3927225535695815,
                -0.03954237941488675,
                1.0071113804666485,
                1.8834431822799151
            ]
        },
        {
            "positions": [
                -0.5868400600717537,
                -0.5310827434619558,
                -0.25391155773117813,
                -0.08182810712166005,
                0.9558847941388451,
                1.9529473909330615
            ]
        },
        {
            "positions": [
                -0.5425044662056342,
                -0.5689434469111518,
                -0.11510056189277451,
                -0.12411383482843336,
                0.9046582078110414,
                2.0224515995862076
            ]
        },
        {
            "positions": [
                -0.4981688723395148,
                -0.6068041503603478,
                0.023710433945628884,
                -0.16639956253520666,
                0.8534316214832379,
                2.091955808239354
            ]
        },
        {
            "positions": [
                -0.4538332784733954,
                -0.6446648538095439,
                0.16252142978403206,
                -0.20868529024197996,
                0.8022050351554344,
                2.1614600168925007
            ]
        },
        {
            "positions": [
                -0.40949768460727587,
                -0.6825255572587399,
                0.3013324256224357,
                -0.25097101794875326,
                0.7509784488276309,
                2.2309642255456468
            ]
        },
        {
            "positions": [
                -0.36516209074115646,
                -0.7203862607079359,
                0.44014342146083885,
                -0.29325674565552645,
                0.6997518624998273,
                2.300468434198793
            ]
        },
        {
            "positions": [
                -0.32082649687503684,
                -0.7582469641571321,
                0.5789544172992429,
                -0.3355424733623,
                0.6485252761720237,
                2.3699726428519394
            ]
        },
        {
            "positions": [
                -0.27649090300891743,
                -0.7961076676063281,
                0.7177654131376461,
                -0.37782820106907317,
                0.5972986898442202,
                2.439476851505086
            ]
        },
        {
            "positions": [
                -0.23215530914279792,
                -0.8339683710555241,
                0.8565764089760497,
                -0.42011392877584647,
                0.5460721035164167,
                2.508981060158232
            ]
        },
        {
            "positions": [
                -0.1878197152766785,
                -0.8718290745047201,
                0.9953874048144529,
                -0.46239965648261977,
                0.494845517188613,
                2.578485268811378
            ]
        },
        {
            "positions": [
                -0.1434841214105591,
                -0.9096897779539161,
                1.134198400652856,
                -0.504685384189393,
                0.4436189308608096,
                2.6479894774645247
            ]
        },
        {
            "positions": [
                -0.0991485275444397,
                -0.9475504814031122,
                1.2730093964912597,
                -0.5469711118961664,
                0.392392344533006,
                2.7174936861176713
            ]
        },
        {
            "positions": [
                -0.054812933678320075,
                -0.9854111848523082,
                1.4118203923296628,
                -0.5892568396029396,
                0.34116575820520256,
                2.7869978947708174
            ]
        },
        {
            "positions": [
                -0.01047733981220067,
                -1.0232718883015044,
                1.550631388168067,
                -0.631542567309713,
                0.2899391718773989,
                2.8565021034239635
            ]
        },
        {
            "positions": [
                0.03385825405391896,
                -1.0611325917507004,
                1.68944238400647,
                -0.6738282950164862,
                0.2387125855495953,
                2.92600631207711
            ]
        },
        {
            "positions": [
                0.07819384792003836,
                -1.0989932951998964,
                1.8282533798448737,
                -0.7161140227232596,
                0.18748599922179188,
                2.9955105207302566
            ]
        },
        {
            "positions": [
                0.12252944178615775,
                -1.1368539986490924,
                1.9670643756832769,
                -0.7583997504300329,
                0.1362594128939883,
                3.0650147293834027
            ]
        }
    ]
}