{
    "goal": {
        "global_pose": {
            "orientation": {
                "w": 0.7047431468963623,
                "x": -0.7094548344612122,
                "y": 0.0024358443915843964,
                "z": -0.0022348060738295317
            },
            "position": {
                "x": 0.6094750761985779,
                "y": 0.3671506643295288,
                "z": 0.19426114857196808
            }
        },
        "name": "move_to_magneteinheit_A"
    },
    "id": "RRTstar_move_to_magneteinheit_A_53",
    "joint_names": [
        "shoulder_pan_joint",
        "shoulder_lift_joint",
        "elbow_joint",
        "wrist_1_joint",
        "wrist_2_joint",
        "wrist_3_joint"
    ],
    "metrics": {
        "cart_traj_len": 1.9308774044503132,
        "distance_elbow_joint": 4.353882291093816,
        "distance_shoulder_lift_joint": 2.7695952105164476,
        "distance_shoulder_pan_joint": 1.242479441312441,
        "distance_wrist_1_joint": 1.1230037567884446,
        "distance_wrist_2_joint": 1.4416431882902279,
        "distance_wrist_3_joint": 4.377334664896027,
        "smoothness": 0.1810666046525949,
        "time": 5.024502322,
        "traj_len": 3.9125360768812603,
        "weighted_distance": 5.160160349036466
    },
    "planner": "RRTstar",
    "start": {
        "state": {
            "elbow_joint": -1.919643507792019,
            "shoulder_lift_joint": -0.07675430207160344,
            "shoulder_pan_joint": -1.1188671864651873,
            "wrist_1_joint": 0.42560062535961957,
            "wrist_2_joint": 1.5706038300724876,
            "wrist_3_joint": 1.1188968870953055
        }
    },
    "waypoints": [
        {
            "positions": [
                -1.1188671864651873,
                -0.07675430207160344,
                -1.919643507792019,
                0.42560062535961957,
                1.5706038300724876,
                1.1188968870953055
            ]
        },
        {
            "positions": [
                -1.0961302550669305,
                -0.1475044286617936,
                -1.767306551548939,
                0.40726467124761156,
                1.555956588142201,
                1.0090107041316088
            ]
        },
        {
            "positions": [
                -1.0733933236686737,
                -0.21825455525198378,
                -1.6149695953058592,
                0.3889287171356036,
                1.5413093462119145,
                0.8991245211679122
            ]
        },
        {
            "positions": [
                -1.050656392270417,
                -0.289004681842174,
                -1.462632639062779,
                0.3705927630235956,
                1.526662104281628,
                0.7892383382042154
            ]
        },
        {
            "positions": [
                -1.0279194608721602,
                -0.3597548084323641,
                -1.310295682819699,
                0.3522568089115876,
                1.5120148623513414,
                0.6793521552405187
            ]
        },
        {
            "positions": [
                -1.0051825294739034,
                -0.43050493502255427,
                -1.157958726576619,
                0.33392085479957967,
                1.4973676204210546,
                0.569465972276822
            ]
        },
        {
            "positions": [
                -0.9824455980756466,
                -0.5012550616127445,
                -1.0056217703335388,
                0.31558490068757167,
                1.482720378490768,
                0.45957978931312526
            ]
        },
        {
            "positions": [
                -0.9597086666773899,
                -0.5720051882029347,
                -0.853284814090459,
                0.29724894657556367,
                1.4680731365604816,
                0.3496936063494286
            ]
        },
        {
            "positions": [
                -0.936971735279133,
                -0.6427553147931249,
                -0.7009478578473789,
                0.2789129924635557,
                1.453425894630195,
                0.2398074233857319
            ]
        },
        {
            "positions": [
                -0.9142348038808763,
                -0.7135054413833151,
                -0.5486109016042988,
                0.2605770383515478,
                1.4387786526999085,
                0.12992124042203512
            ]
        },
        {
            "positions": [
                -0.8914978724826195,
                -0.784255567973505,
                -0.39627394536121874,
                0.24224108423953977,
                1.424131410769622,
                0.020035057458338557
            ]
        },
        {
            "positions": [
                -0.8687609410843626,
                -0.8550056945636952,
                -0.24393698911813866,
                0.2239051301275318,
                1.4094841688393354,
                -0.08985112550535823
            ]
        },
        {
            "positions": [
                -0.8460240096861058,
                -0.9257558211538854,
                -0.0916000328750588,
                0.2055691760155238,
                1.3948369269090488,
                -0.19973730846905502
            ]
        },
        {
            "positions": [
                -0.8232870782878491,
                -0.9965059477440756,
                0.06073692336802128,
                0.18723322190351582,
                1.3801896849787623,
                -0.3096234914327516
            ]
        },
        {
            "positions": [
                -0.8005501468895924,
                -1.0672560743342658,
                0.21307387961110114,
                0.16889726779150782,
                1.3655424430484757,
                -0.4195096743964484
            ]
        },
        {
            "positions": [
                -0.7778132154913355,
                -1.1380062009244563,
                0.36541083585418144,
                0.15056131367949982,
                1.350895201118189,
                -0.5293958573601452
            ]
        },
        {
            "positions": [
                -0.7550762840930787,
                -1.2087563275146462,
                0.5177477920972613,
                0.13222535956749187,
                1.3362479591879024,
                -0.6392820403238417
            ]
        },
        {
            "positions": [
                -0.7323393526948219,
                -1.2795064541048364,
                0.6700847483403416,
                0.11388940545548387,
                1.3216007172576159,
                -0.7491682232875387
            ]
        },
        {
            "positions": [
                -0.7096024212965651,
                -1.3502565806950266,
                0.8224217045834215,
                0.09555345134347593,
                1.3069534753273293,
                -0.8590544062512353
            ]
        },
        {
            "positions": [
                -0.6868654898983083,
                -1.4210067072852168,
                0.9747586608265018,
                0.07721749723146792,
                1.2923062333970428,
                -0.9689405892149319
            ]
        },
        {
            "positions": [
                -0.6641285585000516,
                -1.4917568338754068,
                1.1270956170695816,
                0.05888154311945998,
                1.2776589914667562,
                -1.0788267721786284
            ]
        },
        {
            "positions": [
                -0.6413916271017948,
                -1.5625069604655972,
                1.279432573312662,
                0.040545589007451976,
                1.2630117495364697,
                -1.1887129551423254
            ]
        },
        {
            "positions": [
                -0.6186546957035379,
                -1.6332570870557872,
                1.4317695295557418,
                0.02220963489544403,
                1.2483645076061831,
                -1.298599138106022
            ]
        },
        {
            "positions": [
                -0.5959177643052811,
                -1.7040072136459776,
                1.5841064857988216,
                0.0038736807834359732,
                1.2337172656758963,
                -1.408485321069719
            ]
        },
        {
            "positions": [
                -0.5731808329070244,
                -1.7747573402361676,
                1.7364434420419015,
                -0.014462273328571973,
                1.2190700237456098,
                -1.5183715040334156
            ]
        },
        {
            "positions": [
                -0.5504439015087675,
                -1.8455074668263578,
                1.8887803982849818,
                -0.032798227440579975,
                1.2044227818153233,
                -1.6282576869971122
            ]
        },
        {
            "positions": [
                -0.5277069701105108,
                -1.916257593416548,
                2.041117354528062,
                -0.05113418155258792,
                1.1897755398850367,
                -1.7381438699608087
            ]
        },
        {
            "positions": [
                -0.504970038712254,
                -1.9870077200067382,
                2.193454310771142,
                -0.06947013566459592,
                1.1751282979547502,
                -1.8480300529245055
            ]
        },
        {
            "positions": [
                -0.45661755459229186,
                -1.9209045051927909,
                2.174932428268784,
                -0.1177726738003059,
                1.0946538628645586,
                -1.9565229548380605
            ]
        },
        {
            "positions": [
                -0.40826507047232974,
                -1.8548012903788436,
                2.156410545766426,
                -0.16607521193601588,
                1.014179427774367,
                -2.0650158567516157
            ]
        },
        {
            "positions": [
                -0.35991258635236756,
                -1.7886980755648962,
                2.137888663264068,
                -0.21437775007172583,
                0.9337049926841754,
                -2.1735087586651707
            ]
        },
        {
            "positions": [
                -0.31156010223240543,
                -1.722594860750949,
                2.11936678076171,
                -0.26268028820743583,
                0.8532305575939838,
                -2.2820016605787257
            ]
        },
        {
            "positions": [
                -0.2632076181124433,
                -1.6564916459370016,
                2.1008448982593517,
                -0.3109828263431458,
                0.7727561225037922,
                -2.3904945624922807
            ]
        },
        {
            "positions": [
                -0.21485513399248113,
                -1.5903884311230543,
                2.0823230157569936,
                -0.35928536447885573,
                0.6922816874136006,
                -2.498987464405836
            ]
        },
        {
            "positions": [
                -0.16650264987251906,
                -1.524285216309107,
                2.063801133254636,
                -0.4075879026145657,
                0.6118072523234092,
                -2.607480366319391
            ]
        },
        {
            "positions": [
                -0.11815016575255688,
                -1.4581820014951596,
                2.045279250752278,
                -0.4558904407502757,
                0.5313328172332176,
                -2.715973268232946
            ]
        },
        {
            "positions": [
                -0.06979768163259475,
                -1.3920787866812123,
                2.02675736824992,
                -0.5041929788859856,
                0.4508583821430261,
                -2.824466170146501
            ]
        },
        {
            "positions": [
                -0.021445197512632574,
                -1.325975571867265,
                2.0082354857475617,
                -0.5524955170216956,
                0.3703839470528344,
                -2.932959072060056
            ]
        },
        {
            "positions": [
                0.02690728660732955,
                -1.2598723570533177,
                1.9897136032452036,
                -0.6007980551574056,
                0.2899095119626429,
                -3.0414519739736114
            ]
        },
        {
            "positions": [
                0.07525977072729173,
                -1.1937691422393704,
                1.9711917207428455,
                -0.6491005932931155,
                0.20943507687245122,
                -3.1499448758871664
            ]
        },
        {
            "positions": [
                0.12361225484725386,
                -1.127665927425423,
                1.9526698382404875,
                -0.6974031314288255,
                0.12896064178225972,
                -3.2584377778007214
            ]
        }
    ]
}