{
    "goal": {
        "global_pose": {
            "orientation": {
                "w": 0.7047431468963623,
                "x": -0.7094548344612122,
                "y": 0.0024358443915843964,
                "z": -0.0022348060738295317
            },
            "position": {
                "x": 0.6094750761985779,
                "y": 0.3671506643295288,
                "z": 0.19426114857196808
            }
        },
        "name": "move_to_magneteinheit_A"
    },
    "id": "RRTstar_move_to_magneteinheit_A_48",
    "joint_names": [
        "shoulder_pan_joint",
        "shoulder_lift_joint",
        "elbow_joint",
        "wrist_1_joint",
        "wrist_2_joint",
        "wrist_3_joint"
    ],
    "metrics": {
        "cart_traj_len": 2.0976005950151513,
        "distance_elbow_joint": 3.8712124539312898,
        "distance_shoulder_lift_joint": 1.0515352715166795,
        "distance_shoulder_pan_joint": 1.2421026890318267,
        "distance_wrist_1_joint": 1.1210688287613872,
        "distance_wrist_2_joint": 1.4417776620553604,
        "distance_wrist_3_joint": 4.390009268987626,
        "smoothness": 2.537652633493131e-16,
        "time": 5.070249984,
        "traj_len": 3.621837403071011,
        "weighted_distance": 4.945762954598224
    },
    "planner": "RRTstar",
    "start": {
        "state": {
            "elbow_joint": -1.919643507792019,
            "shoulder_lift_joint": -0.07675430207160344,
            "shoulder_pan_joint": -1.1188671864651873,
            "wrist_1_joint": 0.42560062535961957,
            "wrist_2_joint": 1.5706038300724876,
            "wrist_3_joint": 1.1188968870953055
        }
    },
    "waypoints": [
        {
            "positions": [
                -1.1188671864651873,
                -0.07675430207160344,
                -1.919643507792019,
                0.42560062535961957,
                1.5706038300724876,
                1.1188968870953055
            ]
        },
        {
            "positions": [
                -1.0873411145934286,
                -0.10577964392575391,
                -1.867921580123698,
                0.3744840047686564,
                1.5244356216517547,
                0.9461050552040909
            ]
        },
        {
            "positions": [
                -1.0558150427216697,
                -0.13480498577990438,
                -1.8161996524553767,
                0.3233673841776933,
                1.4782674132310218,
                0.7733132233128763
            ]
        },
        {
            "positions": [
                -1.024288970849911,
                -0.16383032763405486,
                -1.7644777247870556,
                0.2722507635867301,
                1.432099204810289,
                0.6005213914216617
            ]
        },
        {
            "positions": [
                -0.9927628989781521,
                -0.19285566948820532,
                -1.7127557971187344,
                0.22113414299576697,
                1.385930996389556,
                0.4277295595304471
            ]
        },
        {
            "positions": [
                -0.9612368271063934,
                -0.22188101134235583,
                -1.6610338694504132,
                0.17001752240480378,
                1.339762787968823,
                0.2549377276392324
            ]
        },
        {
            "positions": [
                -0.9297107552346345,
                -0.2509063531965063,
                -1.609311941782092,
                0.11890090181384066,
                1.29359457954809,
                0.0821458957480179
            ]
        },
        {
            "positions": [
                -0.8981846833628757,
                -0.27993169505065674,
                -1.5575900141137708,
                0.0677842812228775,
                1.2474263711273572,
                -0.09064593614319683
            ]
        },
        {
            "positions": [
                -0.8666586114911169,
                -0.30895703690480725,
                -1.5058680864454497,
                0.016667660631914383,
                1.2012581627066243,
                -0.2634377680344113
            ]
        },
        {
            "positions": [
                -0.8351325396193581,
                -0.3379823787589577,
                -1.4541461587771285,
                -0.03444895995904881,
                1.1550899542858915,
                -0.43622959992562593
            ]
        },
        {
            "positions": [
                -0.7967978179319182,
                -0.3695946665521307,
                -1.3179175545804724,
                -0.060889729696757586,
                1.1140394028351408,
                -0.5496249112042937
            ]
        },
        {
            "positions": [
                -0.7584630962444783,
                -0.40120695434530373,
                -1.1816889503838164,
                -0.08733049943446636,
                1.0729888513843904,
                -0.6630202224829614
            ]
        },
        {
            "positions": [
                -0.7201283745570384,
                -0.4328192421384767,
                -1.0454603461871605,
                -0.11377126917217512,
                1.0319382999336397,
                -0.7764155337616292
            ]
        },
        {
            "positions": [
                -0.6817936528695985,
                -0.4644315299316497,
                -0.9092317419905045,
                -0.1402120389098839,
                0.9908877484828893,
                -0.889810845040297
            ]
        },
        {
            "positions": [
                -0.6434589311821586,
                -0.49604381772482276,
                -0.7730031377938484,
                -0.1666528086475927,
                0.9498371970321388,
                -1.0032061563189647
            ]
        },
        {
            "positions": [
                -0.6051242094947187,
                -0.5276561055179958,
                -0.6367745335971926,
                -0.19309357838530145,
                0.9087866455813882,
                -1.1166014675976323
            ]
        },
        {
            "positions": [
                -0.5667894878072788,
                -0.5592683933111688,
                -0.5005459294005364,
                -0.21953434812301026,
                0.8677360941306376,
                -1.2299967788763002
            ]
        },
        {
            "positions": [
                -0.5284547661198389,
                -0.5908806811043418,
                -0.3643173252038805,
                -0.24597511786071902,
                0.8266855426798871,
                -1.343392090154968
            ]
        },
        {
            "positions": [
                -0.490120044432399,
                -0.6224929688975147,
                -0.22808872100722466,
                -0.2724158875984278,
                0.7856349912291366,
                -1.456787401433636
            ]
        },
        {
            "positions": [
                -0.4517853227449591,
                -0.6541052566906878,
                -0.09186011681056838,
                -0.29885665733613653,
                0.7445844397783861,
                -1.5701827127123034
            ]
        },
        {
            "positions": [
                -0.4134506010575192,
                -0.6857175444838608,
                0.04436848738608745,
                -0.3252974270738453,
                0.7035338883276354,
                -1.6835780239909712
            ]
        },
        {
            "positions": [
                -0.3751158793700793,
                -0.7173298322770338,
                0.18059709158274329,
                -0.35173819681155405,
                0.662483336876885,
                -1.796973335269639
            ]
        },
        {
            "positions": [
                -0.3367811576826394,
                -0.7489421200702069,
                0.31682569577939956,
                -0.37817896654926286,
                0.6214327854261343,
                -1.910368646548307
            ]
        },
        {
            "positions": [
                -0.2984464359951995,
                -0.7805544078633799,
                0.4530542999760556,
                -0.4046197362869717,
                0.5803822339753838,
                -2.023763957826975
            ]
        },
        {
            "positions": [
                -0.2601117143077596,
                -0.8121666956565528,
                0.5892829041727112,
                -0.4310605060246804,
                0.5393316825246334,
                -2.1371592691056422
            ]
        },
        {
            "positions": [
                -0.2217769926203197,
                -0.8437789834497258,
                0.7255115083693675,
                -0.4575012757623892,
                0.4982811310738827,
                -2.25055458038431
            ]
        },
        {
            "positions": [
                -0.1834422709328798,
                -0.8753912712428988,
                0.8617401125660233,
                -0.48394204550009795,
                0.4572305796231322,
                -2.363949891662978
            ]
        },
        {
            "positions": [
                -0.1451075492454399,
                -0.9070035590360719,
                0.9979687167626792,
                -0.5103828152378067,
                0.41618002817238176,
                -2.477345202941646
            ]
        },
        {
            "positions": [
                -0.106772827558,
                -0.9386158468292449,
                1.1341973209593355,
                -0.5368235849755155,
                0.3751294767216311,
                -2.5907405142203133
            ]
        },
        {
            "positions": [
                -0.0684381058705601,
                -0.970228134622418,
                1.2704259251559917,
                -0.5632643547132243,
                0.33407892527088057,
                -2.704135825498981
            ]
        },
        {
            "positions": [
                -0.030103384183120196,
                -1.0018404224155908,
                1.4066545293526471,
                -0.589705124450933,
                0.29302837382013003,
                -2.817531136777649
            ]
        },
        {
            "positions": [
                0.008231337504319702,
                -1.0334527102087638,
                1.5428831335493034,
                -0.6161458941886419,
                0.2519778223693795,
                -2.930926448056317
            ]
        },
        {
            "positions": [
                0.0465660591917596,
                -1.0650649980019369,
                1.6791117377459597,
                -0.6425866639263507,
                0.21092727091862895,
                -3.0443217593349847
            ]
        },
        {
            "positions": [
                0.0849007808791995,
                -1.09667728579511,
                1.815340341942615,
                -0.6690274336640594,
                0.1698767194678784,
                -3.157717070613652
            ]
        },
        {
            "positions": [
                0.12323550256663937,
                -1.128289573588283,
                1.9515689461392711,
                -0.6954682034017682,
                0.12882616801712782,
                -3.27111238189232
            ]
        }
    ]
}