{
    "goal": {
        "global_pose": {
            "orientation": {
                "w": 0.5084816217422485,
                "x": -0.49083608388900757,
                "y": 0.5182115435600281,
                "z": -0.4816462993621826
            },
            "position": {
                "x": 0.5540239810943604,
                "y": 0.030875300988554955,
                "z": 0.16403168439865112
            }
        },
        "name": "move_to_storage_A"
    },
    "id": "RRTstar_move_to_storage_A_139",
    "joint_names": [
        "shoulder_pan_joint",
        "shoulder_lift_joint",
        "elbow_joint",
        "wrist_1_joint",
        "wrist_2_joint",
        "wrist_3_joint"
    ],
    "metrics": {
        "cart_traj_len": 0.3533166278321537,
        "distance_elbow_joint": 0.4491742518074857,
        "distance_shoulder_lift_joint": 0.2341296548281635,
        "distance_shoulder_pan_joint": 0.46290334623322343,
        "distance_wrist_1_joint": 0.2380960026925233,
        "distance_wrist_2_joint": 1.0953776186436854,
        "distance_wrist_3_joint": 0.094805652438541,
        "smoothness": 0.0,
        "time": 5.042460173,
        "traj_len": 1.6045206532306222,
        "weighted_distance": 2.0242458973298953
    },
    "planner": "RRTstar",
    "start": {
        "state": {
            "elbow_joint": 1.9715463870305268,
            "shoulder_lift_joint": -1.1394903361783484,
            "shoulder_pan_joint": 0.12281147578464417,
            "wrist_1_joint": -0.7804599489681411,
            "wrist_2_joint": 0.12958660307563738,
            "wrist_3_joint": -3.1924946282119055
        }
    },
    "waypoints": [
        {
            "positions": [
                0.12281147578464417,
                -1.1394903361783484,
                1.9715463870305268,
                -0.7804599489681411,
                0.12958660307563738,
                -3.1924946282119055
            ]
        },
        {
            "positions": [
                0.05668242632275511,
                -1.1729374297252289,
                2.035714137288739,
                -0.8144736636385016,
                0.2860691200247353,
                -3.178950963577828
            ]
        },
        {
            "positions": [
                -0.009446623139133956,
                -1.2063845232721093,
                2.0998818875469514,
                -0.848487378308862,
                0.44255163697383315,
                -3.165407298943751
            ]
        },
        {
            "positions": [
                -0.075575672601023,
                -1.2398316168189898,
                2.1640496378051637,
                -0.8825010929792225,
                0.5990341539229311,
                -3.1518636343096738
            ]
        },
        {
            "positions": [
                -0.14170472206291207,
                -1.2732787103658705,
                2.2282173880633755,
                -0.9165148076495829,
                0.755516670872029,
                -3.1383199696755963
            ]
        },
        {
            "positions": [
                -0.20783377152480115,
                -1.306725803912751,
                2.292385138321588,
                -0.9505285223199434,
                0.911999187821127,
                -3.124776305041519
            ]
        },
        {
            "positions": [
                -0.27396282098669017,
                -1.3401728974596314,
                2.3565528885798,
                -0.9845422369903039,
                1.0684817047702249,
                -3.111232640407442
            ]
        },
        {
            "positions": [
                -0.34009187044857925,
                -1.3736199910065119,
                2.4207206388380125,
                -1.0185559516606644,
                1.2249642217193228,
                -3.0976889757733646
            ]
        }
    ]
}