{
    "goal": {
        "global_pose": {
            "orientation": {
                "w": 0.7031023502349854,
                "x": -0.7110244035720825,
                "y": 0.007748599164187908,
                "z": 0.005598929710686207
            },
            "position": {
                "x": 0.11585023208521307,
                "y": 0.44412534475326537,
                "z": 0.3711530566215515
            }
        },
        "name": "move_to_auspresseinheit_A"
    },
    "id": "RRTstar_move_to_auspresseinheit_A_26",
    "joint_names": [
        "shoulder_pan_joint",
        "shoulder_lift_joint",
        "elbow_joint",
        "wrist_1_joint",
        "wrist_2_joint",
        "wrist_3_joint"
    ],
    "metrics": {
        "cart_traj_len": 0.6559822490377729,
        "distance_elbow_joint": 0.2025027947507012,
        "distance_shoulder_lift_joint": 0.5343906976772235,
        "distance_shoulder_pan_joint": 1.046268354337696,
        "distance_wrist_1_joint": 0.6113423850560158,
        "distance_wrist_2_joint": 0.5147031841988046,
        "distance_wrist_3_joint": 0.042568608485581194,
        "smoothness": 0.21900191315790915,
        "time": 5.047114002,
        "traj_len": 1.7180733466607363,
        "weighted_distance": 2.0403330146650096
    },
    "planner": "RRTstar",
    "start": {
        "state": {
            "elbow_joint": 2.422574709923281,
            "shoulder_lift_joint": -1.3736533754116391,
            "shoulder_pan_joint": -0.33786336945926293,
            "wrist_1_joint": -1.0288603412921917,
            "wrist_2_joint": 1.2330224858903978,
            "wrist_3_joint": -3.094022268022082
        }
    },
    "waypoints": [
        {
            "positions": [
                -0.33786336945926293,
                -1.3736533754116391,
                2.422574709923281,
                -1.0288603412921917,
                1.2330224858903978,
                -3.094022268022082
            ]
        },
        {
            "positions": [
                -0.24311028917394184,
                -1.4508185903225068,
                2.4368765596009303,
                -0.9301553170043011,
                1.1635289393127795,
                -3.0983505553283455
            ]
        },
        {
            "positions": [
                -0.14835720888862075,
                -1.5279838052333743,
                2.451178409278579,
                -0.8314502927164105,
                1.094035392735161,
                -3.1026788426346084
            ]
        },
        {
            "positions": [
                -0.05360412860329966,
                -1.605149020144242,
                2.4654802589562284,
                -0.7327452684285198,
                1.0245418461575424,
                -3.1070071299408717
            ]
        },
        {
            "positions": [
                0.04114895168202143,
                -1.6823142350551095,
                2.4797821086338776,
                -0.6340402441406292,
                0.9550482995799241,
                -3.111335417247135
            ]
        },
        {
            "positions": [
                0.13590203196734252,
                -1.7594794499659772,
                2.4940839583115264,
                -0.5353352198527385,
                0.8855547530023057,
                -3.115663704553398
            ]
        },
        {
            "positions": [
                0.2306551122526636,
                -1.8366446648768449,
                2.5083858079891757,
                -0.43663019556484783,
                0.8160612064246873,
                -3.1199919918596613
            ]
        },
        {
            "positions": [
                0.38990506979458683,
                -1.860444467614184,
                2.4694885757609066,
                -0.4430009420077385,
                0.7834805715136559,
                -3.1255249534089953
            ]
        },
        {
            "positions": [
                0.54915502733651,
                -1.8842442703515234,
                2.430591343532638,
                -0.4493716884506291,
                0.7508999366026246,
                -3.1310579149583293
            ]
        },
        {
            "positions": [
                0.7084049848784333,
                -1.9080440730888626,
                2.391694111304369,
                -0.45574243489351973,
                0.7183193016915932,
                -3.1365908765076633
            ]
        }
    ]
}