{
    "goal": {
        "global_pose": {
            "orientation": {
                "w": 0.7031023502349854,
                "x": -0.7110244035720825,
                "y": 0.007748599164187908,
                "z": 0.005598929710686207
            },
            "position": {
                "x": 0.11585023208521307,
                "y": 0.44412534475326537,
                "z": 0.3711530566215515
            }
        },
        "name": "move_to_auspresseinheit_A"
    },
    "id": "RRTstar_move_to_auspresseinheit_A_19",
    "joint_names": [
        "shoulder_pan_joint",
        "shoulder_lift_joint",
        "elbow_joint",
        "wrist_1_joint",
        "wrist_2_joint",
        "wrist_3_joint"
    ],
    "metrics": {
        "cart_traj_len": 0.6877353701623519,
        "distance_elbow_joint": 0.03365770636852794,
        "distance_shoulder_lift_joint": 0.5314042187295891,
        "distance_shoulder_pan_joint": 1.041369228261853,
        "distance_wrist_1_joint": 0.5755355445277754,
        "distance_wrist_2_joint": 0.5339725717796956,
        "distance_wrist_3_joint": 0.05888431693421614,
        "smoothness": 1.9737298371844314e-16,
        "time": 5.000412453,
        "traj_len": 1.6657801735528182,
        "weighted_distance": 2.0005250152841283
    },
    "planner": "RRTstar",
    "start": {
        "state": {
            "elbow_joint": 2.422574709923281,
            "shoulder_lift_joint": -1.3736533754116391,
            "shoulder_pan_joint": -0.33786336945926293,
            "wrist_1_joint": -1.0288603412921917,
            "wrist_2_joint": 1.2330224858903978,
            "wrist_3_joint": -3.094022268022082
        }
    },
    "waypoints": [
        {
            "positions": [
                -0.33786336945926293,
                -1.3736533754116391,
                2.422574709923281,
                -1.0288603412921917,
                1.2330224858903978,
                -3.094022268022082
            ]
        },
        {
            "positions": [
                -0.20769221592653134,
                -1.4400789027528378,
                2.418367496627215,
                -0.9569183982262198,
                1.1662759144179358,
                -3.101382807638859
            ]
        },
        {
            "positions": [
                -0.07752106239379974,
                -1.5065044300940365,
                2.414160283331149,
                -0.8849764551602479,
                1.0995293429454738,
                -3.1087433472556363
            ]
        },
        {
            "positions": [
                0.052650091138931876,
                -1.5729299574352351,
                2.4099530700350833,
                -0.8130345120942759,
                1.0327827714730118,
                -3.116103886872413
            ]
        },
        {
            "positions": [
                0.18282124467166344,
                -1.6393554847764338,
                2.405745856739017,
                -0.741092569028304,
                0.96603620000055,
                -3.12346442648919
            ]
        },
        {
            "positions": [
                0.312992398204395,
                -1.7057810121176322,
                2.401538643442951,
                -0.6691506259623321,
                0.899289628528088,
                -3.1308249661059673
            ]
        },
        {
            "positions": [
                0.4431635517371267,
                -1.7722065394588309,
                2.397331430146885,
                -0.5972086828963601,
                0.832543057055626,
                -3.138185505722744
            ]
        },
        {
            "positions": [
                0.5733347052698583,
                -1.8386320668000296,
                2.3931242168508193,
                -0.5252667398303882,
                0.765796485583164,
                -3.1455460453395214
            ]
        },
        {
            "positions": [
                0.7035058588025899,
                -1.9050575941412282,
                2.388917003554753,
                -0.45332479676441634,
                0.6990499141107022,
                -3.1529065849562983
            ]
        }
    ]
}