{
    "goal": {
        "global_pose": {
            "orientation": {
                "w": -0.00223480608172531,
                "x": 0.0024358444001904467,
                "y": 0.7094548369677653,
                "z": -0.704743149386269
            },
            "position": {
                "x": 0.6205249238014221,
                "y": -0.6371506643295288,
                "z": 0.19426114857196808
            }
        },
        "name": "move_to_magneteinheit_B"
    },
    "id": "RRTstar_move_to_magneteinheit_B_138",
    "joint_names": [
        "shoulder_pan_joint",
        "shoulder_lift_joint",
        "elbow_joint",
        "wrist_1_joint",
        "wrist_2_joint",
        "wrist_3_joint"
    ],
    "metrics": {
        "cart_traj_len": 3.83435085675986,
        "distance_elbow_joint": 4.137918597809988,
        "distance_shoulder_lift_joint": 0.277469802638044,
        "distance_shoulder_pan_joint": 2.2627046337930374,
        "distance_wrist_1_joint": 1.9982618376479917,
        "distance_wrist_2_joint": 1.1900217717590573,
        "distance_wrist_3_joint": 6.270053178243792,
        "smoothness": 0.03569419938387605,
        "time": 5.036725369,
        "traj_len": 4.01701752820322,
        "weighted_distance": 5.644893248573133
    },
    "planner": "RRTstar",
    "start": {
        "state": {
            "elbow_joint": 2.39358713078474,
            "shoulder_lift_joint": -1.908514104345545,
            "shoulder_pan_joint": 0.7066247066606129,
            "wrist_1_joint": -0.4678290933515497,
            "wrist_2_joint": 0.7096259083745334,
            "wrist_3_joint": -3.1358149277392293
        }
    },
    "waypoints": [
        {
            "positions": [
                0.7066247066606129,
                -1.908514104345545,
                2.39358713078474,
                -0.4678290933515497,
                0.7096259083745334,
                -3.1358149277392293
            ]
        },
        {
            "positions": [
                0.8600740757003635,
                -1.9084164196910658,
                2.4026169485858446,
                -0.4658777664076325,
                0.6527161016953824,
                -2.96712299397941
            ]
        },
        {
            "positions": [
                1.013523444740114,
                -1.9083187350365867,
                2.4116467663869487,
                -0.4639264394637153,
                0.5958062950162315,
                -2.7984310602195914
            ]
        },
        {
            "positions": [
                1.1669728137798645,
                -1.9082210503821078,
                2.4206765841880533,
                -0.4619751125197981,
                0.5388964883370805,
                -2.6297391264597723
            ]
        },
        {
            "positions": [
                1.3204221828196152,
                -1.9081233657276286,
                2.4297064019891574,
                -0.4600237855758809,
                0.4819866816579295,
                -2.4610471926999535
            ]
        },
        {
            "positions": [
                1.4738715518593657,
                -1.9080256810731495,
                2.438736219790262,
                -0.4580724586319637,
                0.42507687497877855,
                -2.2923552589401344
            ]
        },
        {
            "positions": [
                1.563011565301286,
                -1.9141372631102551,
                2.352976115375024,
                -0.4963540186114038,
                0.40940035693906224,
                -2.143302692079677
            ]
        },
        {
            "positions": [
                1.6521515787432062,
                -1.9202488451473605,
                2.2672160109597868,
                -0.534635578590844,
                0.3937238388993459,
                -1.994250125219219
            ]
        },
        {
            "positions": [
                1.7412915921851262,
                -1.926360427184466,
                2.181455906544549,
                -0.572917138570284,
                0.3780473208596296,
                -1.8451975583587616
            ]
        },
        {
            "positions": [
                1.8304316056270464,
                -1.9324720092215717,
                2.095695802129311,
                -0.6111986985497242,
                0.3623708028199133,
                -1.6961449914983038
            ]
        },
        {
            "positions": [
                1.9195716190689667,
                -1.938583591258677,
                2.0099356977140737,
                -0.6494802585291644,
                0.346694284780197,
                -1.5470924246378464
            ]
        },
        {
            "positions": [
                2.0087116325108867,
                -1.9446951732957827,
                1.9241755932988358,
                -0.6877618185086044,
                0.33101776674048067,
                -1.398039857777389
            ]
        },
        {
            "positions": [
                2.097851645952807,
                -1.9508067553328883,
                1.838415488883598,
                -0.7260433784880446,
                0.31534124870076435,
                -1.2489872909169313
            ]
        },
        {
            "positions": [
                2.186991659394727,
                -1.9569183373699939,
                1.7526553844683601,
                -0.7643249384674847,
                0.29966473066104804,
                -1.0999347240564734
            ]
        },
        {
            "positions": [
                2.2761316728366476,
                -1.9630299194070993,
                1.6668952800531227,
                -0.8026064984469248,
                0.2839882126213317,
                -0.950882157196016
            ]
        },
        {
            "positions": [
                2.3652716862785677,
                -1.9691415014442049,
                1.5811351756378849,
                -0.8408880584263649,
                0.2683116945816154,
                -0.8018295903355583
            ]
        },
        {
            "positions": [
                2.391746698800276,
                -1.9768224830019252,
                1.4268725368262674,
                -0.9052888797216438,
                0.2676232311832839,
                -0.6602651489445903
            ]
        },
        {
            "positions": [
                2.4182217113219844,
                -1.9845034645596455,
                1.2726098980146496,
                -0.9696897010169226,
                0.26693476778495234,
                -0.5187007075536223
            ]
        },
        {
            "positions": [
                2.4446967238436925,
                -1.992184446117366,
                1.1183472592030321,
                -1.0340905223122014,
                0.26624630438662084,
                -0.37713626616265433
            ]
        },
        {
            "positions": [
                2.471171736365401,
                -1.9998654276750862,
                0.9640846203914145,
                -1.0984913436074804,
                0.2655578409882893,
                -0.23557182477168637
            ]
        },
        {
            "positions": [
                2.4976467488871092,
                -2.0075464092328064,
                0.8098219815797969,
                -1.1628921649027593,
                0.26486937758995777,
                -0.09400738338071835
            ]
        },
        {
            "positions": [
                2.524121761408818,
                -2.015227390790527,
                0.6555593427681793,
                -1.2272929861980382,
                0.2641809141916262,
                0.047557058010249675
            ]
        },
        {
            "positions": [
                2.550596773930526,
                -2.022908372348247,
                0.5012967039565619,
                -1.291693807493317,
                0.2634924507932947,
                0.18912149940121759
            ]
        },
        {
            "positions": [
                2.5770717864522346,
                -2.0305893539059676,
                0.34703406514494417,
                -1.356094628788596,
                0.26280398739496313,
                0.3306859407921856
            ]
        },
        {
            "positions": [
                2.6035467989739427,
                -2.0382703354636877,
                0.19277142633332667,
                -1.420495450083875,
                0.2621155239966316,
                0.4722503821831536
            ]
        },
        {
            "positions": [
                2.6300218114956513,
                -2.0459513170214083,
                0.03850878752170894,
                -1.4848962713791538,
                0.26142706059830007,
                0.6138148235741216
            ]
        },
        {
            "positions": [
                2.6564968240173594,
                -2.0536322985791284,
                -0.11575385128990856,
                -1.5492970926744325,
                0.26073859719996856,
                0.7553792649650897
            ]
        },
        {
            "positions": [
                2.682971836539068,
                -2.061313280136849,
                -0.2700164901015263,
                -1.6136979139697114,
                0.260050133801637,
                0.8969437063560577
            ]
        },
        {
            "positions": [
                2.709446849060776,
                -2.068994261694569,
                -0.42427912891314357,
                -1.67809873526499,
                0.2593616704033055,
                1.0385081477470255
            ]
        },
        {
            "positions": [
                2.7359218615824847,
                -2.0766752432522897,
                -0.5785417677247611,
                -1.742499556560269,
                0.2586732070049739,
                1.1800725891379935
            ]
        },
        {
            "positions": [
                2.762396874104193,
                -2.08435622481001,
                -0.7328044065363786,
                -1.806900377855548,
                0.2579847436066424,
                1.3216370305289615
            ]
        },
        {
            "positions": [
                2.788871886625901,
                -2.0920372063677304,
                -0.8870670453479965,
                -1.8713011991508268,
                0.25729628020831086,
                1.4632014719199296
            ]
        },
        {
            "positions": [
                2.8153468991476096,
                -2.0997181879254505,
                -1.041329684159614,
                -1.9357020204461057,
                0.25660781680997935,
                1.6047659133108976
            ]
        },
        {
            "positions": [
                2.8080431124449987,
                -2.106483617817842,
                -1.1773140026722682,
                -1.9976074387893188,
                0.23515828429087532,
                1.7403238824373712
            ]
        },
        {
            "positions": [
                2.8007393257423883,
                -2.1132490477102333,
                -1.313298321184922,
                -2.059512857132532,
                0.2137087517717713,
                1.8758818515638451
            ]
        },
        {
            "positions": [
                2.7817620764704603,
                -2.1225716189651127,
                -1.3680150223666447,
                -2.1127456608908752,
                0.12609876431148276,
                2.042814059914705
            ]
        },
        {
            "positions": [
                2.7627848271985322,
                -2.131894190219992,
                -1.4227317235483672,
                -2.1659784646492186,
                0.0384887768511942,
                2.2097462682655653
            ]
        },
        {
            "positions": [
                2.743807577926604,
                -2.1412167614748716,
                -1.4774484247300899,
                -2.2192112684075624,
                -0.04912121060909436,
                2.3766784766164255
            ]
        },
        {
            "positions": [
                2.724830328654676,
                -2.1505393327297515,
                -1.5321651259118125,
                -2.272444072165906,
                -0.1367311980693829,
                2.5436106849672857
            ]
        },
        {
            "positions": [
                2.7058530793827478,
                -2.159861903984631,
                -1.586881827093535,
                -2.325676875924249,
                -0.22434118552967147,
                2.710542893318146
            ]
        },
        {
            "positions": [
                2.6868758301108198,
                -2.1691844752395104,
                -1.6415985282752577,
                -2.3789096796825926,
                -0.31195117298995995,
                2.877475101669006
            ]
        },
        {
            "positions": [
                2.6741201439761944,
                -2.1770957678391545,
                -1.6478159086447317,
                -2.412743670621481,
                -0.3961735181872418,
                3.0058566760867844
            ]
        },
        {
            "positions": [
                2.661364457841569,
                -2.185007060438798,
                -1.6540332890142058,
                -2.4465776615603696,
                -0.48039586338452356,
                3.1342382505045627
            ]
        }
    ]
}