{
    "goal": {
        "global_pose": {
            "orientation": {
                "w": 0.5084816217422485,
                "x": -0.49083608388900757,
                "y": 0.5182115435600281,
                "z": -0.4816462993621826
            },
            "position": {
                "x": 0.5540239810943604,
                "y": 0.030875300988554955,
                "z": 0.16403168439865112
            }
        },
        "name": "move_to_storage_A"
    },
    "id": "RRTstar_move_to_storage_A_150",
    "joint_names": [
        "shoulder_pan_joint",
        "shoulder_lift_joint",
        "elbow_joint",
        "wrist_1_joint",
        "wrist_2_joint",
        "wrist_3_joint"
    ],
    "metrics": {
        "cart_traj_len": 0.3527838051642044,
        "distance_elbow_joint": 0.4510740414240386,
        "distance_shoulder_lift_joint": 0.23317971913396973,
        "distance_shoulder_pan_joint": 0.46030271189806693,
        "distance_wrist_1_joint": 0.2485330018872366,
        "distance_wrist_2_joint": 1.1022281676256487,
        "distance_wrist_3_joint": 0.08948615919588576,
        "smoothness": 4.440892098500626e-16,
        "time": 5.021971472,
        "traj_len": 1.6077325029882448,
        "weighted_distance": 2.0284322244209942
    },
    "planner": "RRTstar",
    "start": {
        "state": {
            "elbow_joint": 1.9715463870305268,
            "shoulder_lift_joint": -1.1394903361783484,
            "shoulder_pan_joint": 0.12281147578464417,
            "wrist_1_joint": -0.7804599489681411,
            "wrist_2_joint": 0.12958660307563738,
            "wrist_3_joint": -3.1924946282119055
        }
    },
    "waypoints": [
        {
            "positions": [
                0.12281147578464417,
                -1.1394903361783484,
                1.9715463870305268,
                -0.7804599489681411,
                0.12958660307563738,
                -3.1924946282119055
            ]
        },
        {
            "positions": [
                0.05705394551349176,
                -1.1728017246260583,
                2.0359855358053895,
                -0.8159646635234606,
                0.2870477698793015,
                -3.179710891183922
            ]
        },
        {
            "positions": [
                -0.008703584757660657,
                -1.2061131130737683,
                2.100424684580252,
                -0.8514693780787801,
                0.44450893668296554,
                -3.166927154155938
            ]
        },
        {
            "positions": [
                -0.07446111502881307,
                -1.2394245015214782,
                2.1648638333551147,
                -0.8869740926340997,
                0.6019701034866296,
                -3.1541434171279543
            ]
        },
        {
            "positions": [
                -0.14021864529996547,
                -1.2727358899691883,
                2.2293029821299775,
                -0.9224788071894191,
                0.7594312702902938,
                -3.141359680099971
            ]
        },
        {
            "positions": [
                -0.20597617557111791,
                -1.3060472784168982,
                2.2937421309048402,
                -0.9579835217447387,
                0.916892437093958,
                -3.1285759430719873
            ]
        },
        {
            "positions": [
                -0.2717337058422703,
                -1.3393586668646082,
                2.3581812796797026,
                -0.9934882363000581,
                1.0743536038976218,
                -3.1157922060440035
            ]
        },
        {
            "positions": [
                -0.33749123611342274,
                -1.3726700553123181,
                2.4226204284545654,
                -1.0289929508553777,
                1.231814770701286,
                -3.10300846901602
            ]
        }
    ]
}