{
    "goal": {
        "global_pose": {
            "orientation": {
                "w": 0.7047431468963623,
                "x": -0.7094548344612122,
                "y": 0.0024358443915843964,
                "z": -0.0022348060738295317
            },
            "position": {
                "x": 0.6094750761985779,
                "y": 0.3671506643295288,
                "z": 0.19426114857196808
            }
        },
        "name": "move_to_magneteinheit_A"
    },
    "id": "RRTstar_move_to_magneteinheit_A_26",
    "joint_names": [
        "shoulder_pan_joint",
        "shoulder_lift_joint",
        "elbow_joint",
        "wrist_1_joint",
        "wrist_2_joint",
        "wrist_3_joint"
    ],
    "metrics": {
        "cart_traj_len": 2.0923048899276546,
        "distance_elbow_joint": 3.8740765595721935,
        "distance_shoulder_lift_joint": 1.0530658264895587,
        "distance_shoulder_pan_joint": 1.240569184788194,
        "distance_wrist_1_joint": 1.127172993700708,
        "distance_wrist_2_joint": 1.43981258515706,
        "distance_wrist_3_joint": 4.382381314112999,
        "smoothness": 6.344131584280077e-16,
        "time": 5.0531426779999995,
        "traj_len": 3.621750745678216,
        "weighted_distance": 4.944575479341423
    },
    "planner": "RRTstar",
    "start": {
        "state": {
            "elbow_joint": -1.919643507792019,
            "shoulder_lift_joint": -0.07675430207160344,
            "shoulder_pan_joint": -1.1188671864651873,
            "wrist_1_joint": 0.42560062535961957,
            "wrist_2_joint": 1.5706038300724876,
            "wrist_3_joint": 1.1188968870953055
        }
    },
    "waypoints": [
        {
            "positions": [
                -1.1188671864651873,
                -0.07675430207160344,
                -1.919643507792019,
                0.42560062535961957,
                1.5706038300724876,
                1.1188968870953055
            ]
        },
        {
            "positions": [
                -1.0958409235365845,
                -0.11362516772646035,
                -1.8485474781030038,
                0.38076523502786036,
                1.540071005434919,
                0.9818570272745095
            ]
        },
        {
            "positions": [
                -1.0728146606079814,
                -0.15049603338131726,
                -1.7774514484139885,
                0.3359298446961011,
                1.5095381807973505,
                0.8448171674537136
            ]
        },
        {
            "positions": [
                -1.0497883976793785,
                -0.18736689903617415,
                -1.7063554187249732,
                0.2910944543643419,
                1.479005356159782,
                0.7077773076329177
            ]
        },
        {
            "positions": [
                -1.0267621347507756,
                -0.22423776469103107,
                -1.635259389035958,
                0.2462590640325827,
                1.4484725315222133,
                0.5707374478121217
            ]
        },
        {
            "positions": [
                -0.9884799969816496,
                -0.2544238434867021,
                -1.515602974342087,
                0.2146646829534603,
                1.4045498219686539,
                0.4429300519844611
            ]
        },
        {
            "positions": [
                -0.9501978592125234,
                -0.28460992228237314,
                -1.395946559648216,
                0.18307030187433793,
                1.3606271124150944,
                0.31512265615680063
            ]
        },
        {
            "positions": [
                -0.9119157214433974,
                -0.3147960010780442,
                -1.2762901449543447,
                0.15147592079521555,
                1.3167044028615347,
                0.18731526032914014
            ]
        },
        {
            "positions": [
                -0.8736335836742712,
                -0.3449820798737152,
                -1.1566337302604737,
                0.1198815397160932,
                1.2727816933079752,
                0.0595078645014796
            ]
        },
        {
            "positions": [
                -0.8353514459051452,
                -0.37516815866938624,
                -1.0369773155666027,
                0.08828715863697084,
                1.2288589837544157,
                -0.06829953132618083
            ]
        },
        {
            "positions": [
                -0.7970693081360192,
                -0.4053542374650573,
                -0.9173209008727315,
                0.056692777557848434,
                1.1849362742008562,
                -0.19610692715384137
            ]
        },
        {
            "positions": [
                -0.758787170366893,
                -0.4355403162607283,
                -0.7976644861788605,
                0.02509839647872608,
                1.1410135646472965,
                -0.3239143229815019
            ]
        },
        {
            "positions": [
                -0.720505032597767,
                -0.46572639505639934,
                -0.6780080714849895,
                -0.0064959846003962984,
                1.097090855093737,
                -0.45172171880916245
            ]
        },
        {
            "positions": [
                -0.6822228948286408,
                -0.4959124738520704,
                -0.5583516567911184,
                -0.03809036567951868,
                1.0531681455401776,
                -0.5795291146368229
            ]
        },
        {
            "positions": [
                -0.6439407570595148,
                -0.5260985526477414,
                -0.4386952420972474,
                -0.069684746758641,
                1.009245435986618,
                -0.7073365104644833
            ]
        },
        {
            "positions": [
                -0.6056586192903888,
                -0.5562846314434124,
                -0.3190388274033764,
                -0.10127912783776338,
                0.9653227264330585,
                -0.8351439062921437
            ]
        },
        {
            "positions": [
                -0.5673764815212626,
                -0.5864707102390836,
                -0.19938241270950519,
                -0.13287350891688582,
                0.9214000168794989,
                -0.9629513021198044
            ]
        },
        {
            "positions": [
                -0.5290943437521365,
                -0.6166567890347545,
                -0.07972599801563418,
                -0.1644678899960082,
                0.8774773073259394,
                -1.090758697947465
            ]
        },
        {
            "positions": [
                -0.49081220598301045,
                -0.6468428678304257,
                0.039930416678236824,
                -0.19606227107513052,
                0.8335545977723798,
                -1.2185660937751255
            ]
        },
        {
            "positions": [
                -0.4525300682138844,
                -0.6770289466260966,
                0.15958683137210783,
                -0.2276566521542529,
                0.7896318882188204,
                -1.346373489602786
            ]
        },
        {
            "positions": [
                -0.4142479304447584,
                -0.7072150254217677,
                0.27924324606597883,
                -0.2592510332333753,
                0.7457091786652609,
                -1.4741808854304466
            ]
        },
        {
            "positions": [
                -0.37596579267563224,
                -0.7374011042174387,
                0.39889966075984984,
                -0.29084541431249766,
                0.7017864691117013,
                -1.6019882812581068
            ]
        },
        {
            "positions": [
                -0.3376836549065062,
                -0.7675871830131097,
                0.5185560754537211,
                -0.32243979539162004,
                0.6578637595581418,
                -1.7297956770857674
            ]
        },
        {
            "positions": [
                -0.29940151713738017,
                -0.7977732618087807,
                0.6382124901475918,
                -0.3540341764707423,
                0.6139410500045822,
                -1.8576030729134276
            ]
        },
        {
            "positions": [
                -0.261119379368254,
                -0.8279593406044518,
                0.7578689048414631,
                -0.3856285575498647,
                0.5700183404510227,
                -1.9854104687410883
            ]
        },
        {
            "positions": [
                -0.222837241599128,
                -0.8581454194001228,
                0.8775253195353339,
                -0.41722293862898707,
                0.5260956308974633,
                -2.1132178645687487
            ]
        },
        {
            "positions": [
                -0.18455510383000195,
                -0.8883314981957938,
                0.9971817342292051,
                -0.44881731970810945,
                0.48217292134390366,
                -2.241025260396409
            ]
        },
        {
            "positions": [
                -0.1462729660608757,
                -0.918517576991465,
                1.1168381489230763,
                -0.48041170078723194,
                0.43825021179034396,
                -2.36883265622407
            ]
        },
        {
            "positions": [
                -0.10799082829174966,
                -0.948703655787136,
                1.2364945636169475,
                -0.5120060818663543,
                0.3943275022367845,
                -2.4966400520517302
            ]
        },
        {
            "positions": [
                -0.06970869052262363,
                -0.978889734582807,
                1.3561509783108183,
                -0.5436004629454767,
                0.350404792683225,
                -2.6244474478793913
            ]
        },
        {
            "positions": [
                -0.03142655275349748,
                -1.009075813378478,
                1.4758073930046895,
                -0.5751948440245991,
                0.3064820831296655,
                -2.7522548437070515
            ]
        },
        {
            "positions": [
                0.006855585015628662,
                -1.039261892174149,
                1.5954638076985603,
                -0.6067892251037214,
                0.26255937357610604,
                -2.8800622395347117
            ]
        },
        {
            "positions": [
                0.0451377227847547,
                -1.0694479709698201,
                1.7151202223924316,
                -0.6383836061828437,
                0.21863666402254633,
                -3.007869635362373
            ]
        },
        {
            "positions": [
                0.08341986055388073,
                -1.0996340497654913,
                1.8347766370863023,
                -0.6699779872619661,
                0.17471395446898685,
                -3.135677031190033
            ]
        },
        {
            "positions": [
                0.12170199832300672,
                -1.1298201285611622,
                1.9544330517801738,
                -0.7015723683410885,
                0.13079124491542732,
                -3.2634844270176933
            ]
        }
    ]
}