{
    "goal": {
        "global_pose": {
            "orientation": {
                "w": 0.7047431468963623,
                "x": -0.7094548344612122,
                "y": 0.0024358443915843964,
                "z": -0.0022348060738295317
            },
            "position": {
                "x": 0.6094750761985779,
                "y": 0.3671506643295288,
                "z": 0.19426114857196808
            }
        },
        "name": "move_to_magneteinheit_A"
    },
    "id": "RRTstar_move_to_magneteinheit_A_116",
    "joint_names": [
        "shoulder_pan_joint",
        "shoulder_lift_joint",
        "elbow_joint",
        "wrist_1_joint",
        "wrist_2_joint",
        "wrist_3_joint"
    ],
    "metrics": {
        "cart_traj_len": 2.3883809638412092,
        "distance_elbow_joint": 3.8776507567345915,
        "distance_shoulder_lift_joint": 1.056046618590581,
        "distance_shoulder_pan_joint": 1.2410399542922705,
        "distance_wrist_1_joint": 1.1399639195982902,
        "distance_wrist_2_joint": 1.4322506440526734,
        "distance_wrist_3_joint": 4.372098661120091,
        "smoothness": 8.628018920677051e-16,
        "time": 5.032265503,
        "traj_len": 3.6220229919740294,
        "weighted_distance": 4.943223891376927
    },
    "planner": "RRTstar",
    "start": {
        "state": {
            "elbow_joint": -1.919643507792019,
            "shoulder_lift_joint": -0.07675430207160344,
            "shoulder_pan_joint": -1.1188671864651873,
            "wrist_1_joint": 0.42560062535961957,
            "wrist_2_joint": 1.5706038300724876,
            "wrist_3_joint": 1.1188968870953055
        }
    },
    "waypoints": [
        {
            "positions": [
                -1.1188671864651873,
                -0.07675430207160344,
                -1.919643507792019,
                0.42560062535961957,
                1.5706038300724876,
                1.1188968870953055
            ]
        },
        {
            "positions": [
                -1.0600042557837166,
                -0.08286792769188181,
                -1.7777864747992858,
                0.3650702902774565,
                1.5600799780550627,
                1.0085286997084
            ]
        },
        {
            "positions": [
                -1.0011413251022458,
                -0.08898155331216018,
                -1.6359294418065524,
                0.30453995519529353,
                1.5495561260376378,
                0.8981605123214946
            ]
        },
        {
            "positions": [
                -0.9422783944207752,
                -0.09509517893243855,
                -1.494072408813819,
                0.24400962011313052,
                1.5390322740202131,
                0.7877923249345891
            ]
        },
        {
            "positions": [
                -0.8834154637393045,
                -0.10120880455271691,
                -1.3522153758210858,
                0.1834792850309675,
                1.5285084220027882,
                0.6774241375476836
            ]
        },
        {
            "positions": [
                -0.8245525330578337,
                -0.10732243017299528,
                -1.2103583428283524,
                0.12294894994880445,
                1.5179845699853634,
                0.567055950160778
            ]
        },
        {
            "positions": [
                -0.7656896023763631,
                -0.11343605579327365,
                -1.068501309835619,
                0.062418614866641464,
                1.5074607179679385,
                0.4566877627738727
            ]
        },
        {
            "positions": [
                -0.7068266716948923,
                -0.11954968141355202,
                -0.9266442768428858,
                0.0018882797844784194,
                1.4969368659505138,
                0.3463195753869671
            ]
        },
        {
            "positions": [
                -0.6479637410134216,
                -0.12566330703383038,
                -0.7847872438501524,
                -0.05864205529768457,
                1.4864130139330889,
                0.23595138800006166
            ]
        },
        {
            "positions": [
                -0.5891008103319508,
                -0.13177693265410875,
                -0.6429302108574191,
                -0.11917239037984767,
                1.475889161915664,
                0.1255832006131561
            ]
        },
        {
            "positions": [
                -0.5302378796504801,
                -0.13789055827438712,
                -0.5010731778646857,
                -0.17970272546201066,
                1.465365309898239,
                0.015215013226250518
            ]
        },
        {
            "positions": [
                -0.47137494896900933,
                -0.1440041838946655,
                -0.3592161448719524,
                -0.24023306054417365,
                1.4548414578808142,
                -0.09515317416065483
            ]
        },
        {
            "positions": [
                -0.4125120182875387,
                -0.15011780951494386,
                -0.21735911187921908,
                -0.30076339562633664,
                1.4443176058633895,
                -0.20552136154756018
            ]
        },
        {
            "positions": [
                -0.35364908760606795,
                -0.15623143513522222,
                -0.07550207888648575,
                -0.36129373070849974,
                1.4337937538459646,
                -0.31588954893446597
            ]
        },
        {
            "positions": [
                -0.2947861569245972,
                -0.1623450607555006,
                0.0663549541062477,
                -0.42182406579066273,
                1.4232699018285397,
                -0.42625773632137137
            ]
        },
        {
            "positions": [
                -0.2739382106870132,
                -0.21086785375083478,
                0.16093756884806393,
                -0.43645102721306317,
                1.3590240660381034,
                -0.5676049382065421
            ]
        },
        {
            "positions": [
                -0.25309026444942917,
                -0.25939064674616896,
                0.25552018358988016,
                -0.45107798863546356,
                1.2947782302476671,
                -0.7089521400917129
            ]
        },
        {
            "positions": [
                -0.23224231821184516,
                -0.3079134397415032,
                0.3501027983316964,
                -0.465704950057864,
                1.2305323944572308,
                -0.8502993419768836
            ]
        },
        {
            "positions": [
                -0.21139437197426114,
                -0.3564362327368374,
                0.44468541307351267,
                -0.4803319114802644,
                1.1662865586667945,
                -0.9916465438620545
            ]
        },
        {
            "positions": [
                -0.19054642573667716,
                -0.4049590257321716,
                0.5392680278153289,
                -0.4949588729026648,
                1.1020407228763585,
                -1.1329937457472252
            ]
        },
        {
            "positions": [
                -0.16969847949909314,
                -0.45348181872750576,
                0.6338506425571451,
                -0.5095858343250652,
                1.0377948870859222,
                -1.274340947632396
            ]
        },
        {
            "positions": [
                -0.14885053326150915,
                -0.5020046117228399,
                0.7284332572989614,
                -0.5242127957474656,
                0.9735490512954859,
                -1.4156881495175666
            ]
        },
        {
            "positions": [
                -0.1280025870239251,
                -0.5505274047181742,
                0.8230158720407776,
                -0.5388397571698661,
                0.9093032155050494,
                -1.5570353514027375
            ]
        },
        {
            "positions": [
                -0.10715464078634113,
                -0.5990501977135083,
                0.9175984867825939,
                -0.5534667185922665,
                0.8450573797146133,
                -1.6983825532879082
            ]
        },
        {
            "positions": [
                -0.08630669454875711,
                -0.6475729907088426,
                1.0121811015244102,
                -0.5680936800146669,
                0.780811543924177,
                -1.839729755173079
            ]
        },
        {
            "positions": [
                -0.0654587483111731,
                -0.6960957837041768,
                1.1067637162662263,
                -0.5827206414370674,
                0.7165657081337407,
                -1.9810769570582498
            ]
        },
        {
            "positions": [
                -0.044610802073589084,
                -0.7446185766995109,
                1.2013463310080423,
                -0.5973476028594678,
                0.6523198723433045,
                -2.1224241589434203
            ]
        },
        {
            "positions": [
                -0.02376285583600507,
                -0.7931413696948452,
                1.2959289457498588,
                -0.6119745642818681,
                0.588074036552868,
                -2.263771360828591
            ]
        },
        {
            "positions": [
                -0.0029149095984211115,
                -0.8416641626901793,
                1.390511560491675,
                -0.6266015257042685,
                0.5238282007624319,
                -2.405118562713762
            ]
        },
        {
            "positions": [
                0.017933036639162903,
                -0.8901869556855135,
                1.4850941752334914,
                -0.6412284871266689,
                0.45958236497199556,
                -2.546465764598933
            ]
        },
        {
            "positions": [
                0.03878098287674697,
                -0.9387097486808478,
                1.5796767899753075,
                -0.6558554485490694,
                0.39533652918155915,
                -2.687812966484104
            ]
        },
        {
            "positions": [
                0.05962892911433093,
                -0.9872325416761819,
                1.6742594047171235,
                -0.6704824099714698,
                0.33109069339112307,
                -2.8291601683692744
            ]
        },
        {
            "positions": [
                0.08047687535191494,
                -1.0357553346715163,
                1.76884201945894,
                -0.6851093713938703,
                0.26684485760068677,
                -2.9705073702544453
            ]
        },
        {
            "positions": [
                0.10132482158949896,
                -1.0842781276668503,
                1.863424634200756,
                -0.6997363328162707,
                0.20259902181025047,
                -3.111854572139616
            ]
        },
        {
            "positions": [
                0.12217276782708295,
                -1.1328009206621845,
                1.9580072489425724,
                -0.7143632942386711,
                0.13835318601981408,
                -3.2532017740247867
            ]
        }
    ]
}