{
    "goal": {
        "global_pose": {
            "orientation": {
                "w": 0.7047431468963623,
                "x": -0.7094548344612122,
                "y": 0.0024358443915843964,
                "z": -0.0022348060738295317
            },
            "position": {
                "x": 0.6094750761985779,
                "y": 0.3671506643295288,
                "z": 0.19426114857196808
            }
        },
        "name": "move_to_magneteinheit_A"
    },
    "id": "RRTstar_move_to_magneteinheit_A_76",
    "joint_names": [
        "shoulder_pan_joint",
        "shoulder_lift_joint",
        "elbow_joint",
        "wrist_1_joint",
        "wrist_2_joint",
        "wrist_3_joint"
    ],
    "metrics": {
        "cart_traj_len": 2.0635542794109036,
        "distance_elbow_joint": 3.8773065787912273,
        "distance_shoulder_lift_joint": 1.054877430884386,
        "distance_shoulder_pan_joint": 1.2408656095582784,
        "distance_wrist_1_joint": 1.138208648788607,
        "distance_wrist_2_joint": 1.44422835051158,
        "distance_wrist_3_joint": 1.90323163440996,
        "smoothness": 6.026925011703896e-16,
        "time": 5.006228298,
        "traj_len": 3.2647692495709464,
        "weighted_distance": 4.128876181367533
    },
    "planner": "RRTstar",
    "start": {
        "state": {
            "elbow_joint": -1.919643507792019,
            "shoulder_lift_joint": -0.07675430207160344,
            "shoulder_pan_joint": -1.1188671864651873,
            "wrist_1_joint": 0.42560062535961957,
            "wrist_2_joint": 1.5706038300724876,
            "wrist_3_joint": 1.1188968870953055
        }
    },
    "waypoints": [
        {
            "positions": [
                -1.1188671864651873,
                -0.07675430207160344,
                -1.919643507792019,
                0.42560062535961957,
                1.5706038300724876,
                1.1188968870953055
            ]
        },
        {
            "positions": [
                -1.072909200925992,
                -0.11582383654880292,
                -1.776039560429381,
                0.38344474947856005,
                1.5171138911646513,
                1.1893869476290078
            ]
        },
        {
            "positions": [
                -1.0269512153867963,
                -0.1548933710260024,
                -1.632435613066743,
                0.34128887359750054,
                1.463623952256815,
                1.25987700816271
            ]
        },
        {
            "positions": [
                -0.9809932298476008,
                -0.1939629055032019,
                -1.488831665704105,
                0.29913299771644103,
                1.4101340133489788,
                1.3303670686964122
            ]
        },
        {
            "positions": [
                -0.9350352443084053,
                -0.23303243998040135,
                -1.345227718341467,
                0.2569771218353815,
                1.3566440744411423,
                1.4008571292301144
            ]
        },
        {
            "positions": [
                -0.8890772587692098,
                -0.27210197445760087,
                -1.2016237709788289,
                0.214821245954322,
                1.303154135533306,
                1.4713471897638166
            ]
        },
        {
            "positions": [
                -0.8431192732300143,
                -0.31117150893480033,
                -1.0580198236161908,
                0.1726653700732625,
                1.2496641966254698,
                1.5418372502975188
            ]
        },
        {
            "positions": [
                -0.797161287690819,
                -0.3502410434119998,
                -0.9144158762535528,
                0.13050949419220298,
                1.1961742577176335,
                1.612327310831221
            ]
        },
        {
            "positions": [
                -0.7512033021516233,
                -0.38931057788919926,
                -0.7708119288909148,
                0.08835361831114347,
                1.1426843188097973,
                1.6828173713649233
            ]
        },
        {
            "positions": [
                -0.705245316612428,
                -0.4283801123663988,
                -0.6272079815282767,
                0.046197742430083955,
                1.089194379901961,
                1.7533074318986255
            ]
        },
        {
            "positions": [
                -0.6592873310732323,
                -0.46744964684359824,
                -0.4836040341656387,
                0.004041866549024442,
                1.0357044409941247,
                1.8237974924323277
            ]
        },
        {
            "positions": [
                -0.613329345534037,
                -0.5065191813207977,
                -0.34000008680300065,
                -0.03811400933203507,
                0.9822145020862884,
                1.89428755296603
            ]
        },
        {
            "positions": [
                -0.5673713599948415,
                -0.5455887157979973,
                -0.1963961394403626,
                -0.08026988521309458,
                0.9287245631784521,
                1.9647776134997321
            ]
        },
        {
            "positions": [
                -0.521413374455646,
                -0.5846582502751967,
                -0.052792192077724565,
                -0.1224257610941541,
                0.8752346242706157,
                2.0352676740334346
            ]
        },
        {
            "positions": [
                -0.47545538891645045,
                -0.6237277847523961,
                0.09081175528491348,
                -0.1645816369752136,
                0.8217446853627794,
                2.1057577345671366
            ]
        },
        {
            "positions": [
                -0.42949740337725484,
                -0.6627973192295957,
                0.23441570264755174,
                -0.20673751285627323,
                0.7682547464549431,
                2.176247795100839
            ]
        },
        {
            "positions": [
                -0.38353941783805945,
                -0.7018668537067951,
                0.37801965001018956,
                -0.24889338873733263,
                0.7147648075471069,
                2.246737855634541
            ]
        },
        {
            "positions": [
                -0.33758143229886384,
                -0.7409363881839948,
                0.5216235973728278,
                -0.29104926461839226,
                0.6612748686392705,
                2.3172279161682434
            ]
        },
        {
            "positions": [
                -0.29162344675966845,
                -0.7800059226611942,
                0.6652275447354656,
                -0.33320514049945166,
                0.6077849297314343,
                2.3877179767019454
            ]
        },
        {
            "positions": [
                -0.24566546122047295,
                -0.8190754571383936,
                0.8088314920981039,
                -0.3753610163805113,
                0.5542949908235979,
                2.458208037235648
            ]
        },
        {
            "positions": [
                -0.19970747568127745,
                -0.858144991615593,
                0.9524354394607417,
                -0.4175168922615707,
                0.5008050519157616,
                2.52869809776935
            ]
        },
        {
            "positions": [
                -0.15374949014208195,
                -0.8972145260927926,
                1.09603938682338,
                -0.4596727681426303,
                0.44731511300792537,
                2.5991881583030523
            ]
        },
        {
            "positions": [
                -0.10779150460288656,
                -0.936284060569992,
                1.2396433341860178,
                -0.5018286440236897,
                0.3938251741000891,
                2.6696782188367543
            ]
        },
        {
            "positions": [
                -0.061833519063690945,
                -0.9753535950471914,
                1.383247281548656,
                -0.5439845199047493,
                0.34033523519225284,
                2.7401682793704567
            ]
        },
        {
            "positions": [
                -0.015875533524495555,
                -1.014423129524391,
                1.5268512289112939,
                -0.5861403957858087,
                0.2868452962844166,
                2.8106583399041587
            ]
        },
        {
            "positions": [
                0.030082452014700056,
                -1.0534926640015905,
                1.6704551762739321,
                -0.6282962716668683,
                0.23335535737658009,
                2.881148400437861
            ]
        },
        {
            "positions": [
                0.07604043755389545,
                -1.0925621984787899,
                1.81405912363657,
                -0.6704521475479277,
                0.17986541846874382,
                2.951638460971563
            ]
        },
        {
            "positions": [
                0.12199842309309106,
                -1.1316317329559895,
                1.9576630709992082,
                -0.7126080234289874,
                0.12637547956090758,
                3.0221285215052656
            ]
        }
    ]
}