{
    "goal": {
        "global_pose": {
            "orientation": {
                "w": 0.7031023502349854,
                "x": -0.7110244035720825,
                "y": 0.007748599164187908,
                "z": 0.005598929710686207
            },
            "position": {
                "x": 0.11585023208521307,
                "y": 0.44412534475326537,
                "z": 0.3711530566215515
            }
        },
        "name": "move_to_auspresseinheit_A"
    },
    "id": "SBL_move_to_auspresseinheit_A_121",
    "joint_names": [
        "shoulder_pan_joint",
        "shoulder_lift_joint",
        "elbow_joint",
        "wrist_1_joint",
        "wrist_2_joint",
        "wrist_3_joint"
    ],
    "metrics": {
        "cart_traj_len": 3.5194608451038096,
        "distance_elbow_joint": 2.4523647476757438,
        "distance_shoulder_lift_joint": 2.267308145448653,
        "distance_shoulder_pan_joint": 3.571619570215432,
        "distance_wrist_1_joint": 4.7335073418513645,
        "distance_wrist_2_joint": 2.5269548085275035,
        "distance_wrist_3_joint": 7.432552730996457,
        "smoothness": 0.508736146348533,
        "time": 0.318337192,
        "traj_len": 4.7941951717379165,
        "weighted_distance": 6.716388535298335
    },
    "planner": "SBL",
    "start": {
        "state": {
            "elbow_joint": 2.422574709923281,
            "shoulder_lift_joint": -1.3736533754116391,
            "shoulder_pan_joint": -0.33786336945926293,
            "wrist_1_joint": -1.0288603412921917,
            "wrist_2_joint": 1.2330224858903978,
            "wrist_3_joint": -3.094022268022082
        }
    },
    "waypoints": [
        {
            "positions": [
                -0.33786336945926293,
                -1.3736533754116391,
                2.422574709923281,
                -1.0288603412921917,
                1.2330224858903978,
                -3.094022268022082
            ]
        },
        {
            "positions": [
                -0.3227225953518474,
                -1.398914783270553,
                2.339900372316432,
                -1.0108644491230983,
                1.1420318023732723,
                -2.933513751814842
            ]
        },
        {
            "positions": [
                -0.30758182124443184,
                -1.4241761911294668,
                2.2572260347095825,
                -0.9928685569540047,
                1.0510411188561468,
                -2.773005235607602
            ]
        },
        {
            "positions": [
                -0.2924410471370163,
                -1.4494375989883808,
                2.1745516971027334,
                -0.9748726647849112,
                0.9600504353390216,
                -2.6124967194003617
            ]
        },
        {
            "positions": [
                -0.27730027302960075,
                -1.4746990068472945,
                2.0918773594958844,
                -0.9568767726158176,
                0.8690597518218961,
                -2.451988203193121
            ]
        },
        {
            "positions": [
                -0.26215949892218526,
                -1.4999604147062084,
                2.009203021889035,
                -0.9388808804467241,
                0.7780690683047707,
                -2.2914796869858813
            ]
        },
        {
            "positions": [
                -0.2470187248147697,
                -1.5252218225651222,
                1.9265286842821858,
                -0.9208849882776307,
                0.6870783847876453,
                -2.1309711707786407
            ]
        },
        {
            "positions": [
                -0.23187795070735417,
                -1.5504832304240361,
                1.8438543466753368,
                -0.9028890961085371,
                0.5960877012705199,
                -1.9704626545714006
            ]
        },
        {
            "positions": [
                -0.21673717659993863,
                -1.5757446382829499,
                1.7611800090684873,
                -0.8848932039394436,
                0.5050970177533944,
                -1.8099541383641604
            ]
        },
        {
            "positions": [
                -0.20159640249252309,
                -1.6010060461418638,
                1.6785056714616382,
                -0.86689731177035,
                0.4141063342362691,
                -1.6494456221569203
            ]
        },
        {
            "positions": [
                -0.18645562838510754,
                -1.6262674540007775,
                1.5958313338547891,
                -0.8489014196012565,
                0.3231156507191437,
                -1.48893710594968
            ]
        },
        {
            "positions": [
                -0.17131485427769202,
                -1.6515288618596915,
                1.5131569962479399,
                -0.8309055274321631,
                0.23212496720201825,
                -1.32842858974244
            ]
        },
        {
            "positions": [
                -0.15617408017027645,
                -1.6767902697186052,
                1.4304826586410906,
                -0.8129096352630695,
                0.14113428368489278,
                -1.1679200735351993
            ]
        },
        {
            "positions": [
                -0.1410333060628609,
                -1.7020516775775192,
                1.3478083210342413,
                -0.794913743093976,
                0.05014360016776731,
                -1.0074115573279592
            ]
        },
        {
            "positions": [
                -0.1258925319554454,
                -1.7273130854364331,
                1.2651339834273923,
                -0.7769178509248824,
                -0.04084708334935794,
                -0.846903041120719
            ]
        },
        {
            "positions": [
                -0.11075175784802985,
                -1.7525744932953469,
                1.182459645820543,
                -0.7589219587557889,
                -0.13183776686648346,
                -0.6863945249134789
            ]
        },
        {
            "positions": [
                -0.016124632564659055,
                -1.7990706085296275,
                1.212137597398743,
                -0.6510781366471231,
                -0.08612025186069203,
                -0.6278126163229848
            ]
        },
        {
            "positions": [
                0.07850249271871174,
                -1.845566723763908,
                1.241815548976943,
                -0.5432343145384573,
                -0.040402736854900576,
                -0.5692307077324907
            ]
        },
        {
            "positions": [
                0.1731296180020825,
                -1.8920628389981886,
                1.271493500555143,
                -0.4353904924297914,
                0.005314778150890848,
                -0.5106487991419968
            ]
        },
        {
            "positions": [
                0.2677567432854533,
                -1.9385589542324693,
                1.301171452133343,
                -0.3275466703211255,
                0.05103229315668231,
                -0.45206689055150273
            ]
        },
        {
            "positions": [
                0.3623838685688241,
                -1.9850550694667497,
                1.330849403711543,
                -0.21970284821245967,
                0.09674980816247375,
                -0.39348498196100873
            ]
        },
        {
            "positions": [
                0.4570109938521949,
                -2.0315511847010304,
                1.360527355289743,
                -0.11185902610379383,
                0.14246732316826516,
                -0.3349030733705147
            ]
        },
        {
            "positions": [
                0.5516381191355657,
                -2.078047299935311,
                1.390205306867943,
                -0.004015203995127892,
                0.18818483817405662,
                -0.27632116478002067
            ]
        },
        {
            "positions": [
                0.6462652444189365,
                -2.1245434151695917,
                1.4198832584461432,
                0.10382861811353794,
                0.2339023531798481,
                -0.2177392561895266
            ]
        },
        {
            "positions": [
                0.7408923697023073,
                -2.171039530403872,
                1.4495612100243431,
                0.21167244022220388,
                0.27961986818563955,
                -0.15915734759903255
            ]
        },
        {
            "positions": [
                0.835519494985678,
                -2.2175356456381525,
                1.479239161602543,
                0.3195162623308696,
                0.32533738319143096,
                -0.1005754390085386
            ]
        },
        {
            "positions": [
                0.9301466202690488,
                -2.264031760872433,
                1.508917113180743,
                0.42736008443953555,
                0.3710548981972224,
                -0.041993530418044545
            ]
        },
        {
            "positions": [
                1.0247737455524195,
                -2.310527876106714,
                1.538595064758943,
                0.5352039065482013,
                0.4167724132030138,
                0.016588378172449403
            ]
        },
        {
            "positions": [
                1.1194008708357903,
                -2.3570239913409945,
                1.5682730163371432,
                0.6430477286568674,
                0.46248992820880536,
                0.07517028676294357
            ]
        },
        {
            "positions": [
                1.2140279961191611,
                -2.403520106575275,
                1.597950967915343,
                0.7508915507655332,
                0.5082074432145967,
                0.13375219535343752
            ]
        },
        {
            "positions": [
                1.3086551214025317,
                -2.4500162218095554,
                1.6276289194935432,
                0.8587353728741989,
                0.5539249582203882,
                0.19233410394393147
            ]
        },
        {
            "positions": [
                1.4032822466859027,
                -2.496512337043836,
                1.6573068710717431,
                0.9665791949828648,
                0.5996424732261796,
                0.25091601253442564
            ]
        },
        {
            "positions": [
                1.4979093719692733,
                -2.5430084522781167,
                1.686984822649943,
                1.0744230170915308,
                0.6453599882319712,
                0.3094979211249196
            ]
        },
        {
            "positions": [
                1.5925364972526443,
                -2.5895045675123973,
                1.7166627742281433,
                1.1822668392001967,
                0.6910775032377625,
                0.36807982971541375
            ]
        },
        {
            "positions": [
                1.687163622536015,
                -2.636000682746678,
                1.746340725806343,
                1.2901106613088626,
                0.7367950182435541,
                0.4266617383059077
            ]
        },
        {
            "positions": [
                1.7817907478193857,
                -2.682496797980958,
                1.7760186773845432,
                1.3979544834175281,
                0.7825125332493454,
                0.48524364689640165
            ]
        },
        {
            "positions": [
                1.8764178731027565,
                -2.728992913215239,
                1.8056966289627432,
                1.505798305526194,
                0.828230048255137,
                0.5438255554868958
            ]
        },
        {
            "positions": [
                1.9710449983861276,
                -2.7754890284495195,
                1.8353745805409432,
                1.61364212763486,
                0.8739475632609284,
                0.6024074640773898
            ]
        },
        {
            "positions": [
                1.913649034642035,
                -2.7361493697035755,
                1.8607988873069707,
                1.5185964515928458,
                0.8668425984589644,
                0.43258369140025416
            ]
        },
        {
            "positions": [
                1.8562530708979421,
                -2.696809710957631,
                1.886223194072998,
                1.4235507755508316,
                0.8597376336570004,
                0.26275991872311855
            ]
        },
        {
            "positions": [
                1.7988571071538493,
                -2.657470052211687,
                1.9116475008390257,
                1.3285050995088175,
                0.8526326688550363,
                0.09293614604598299
            ]
        },
        {
            "positions": [
                1.7414611434097567,
                -2.6181303934657425,
                1.9370718076050533,
                1.233459423466803,
                0.8455277040530723,
                -0.07688762663115267
            ]
        },
        {
            "positions": [
                1.684065179665664,
                -2.5787907347197985,
                1.9624961143710808,
                1.1384137474247888,
                0.8384227392511083,
                -0.24671139930828823
            ]
        },
        {
            "positions": [
                1.6266692159215712,
                -2.5394510759738544,
                1.9879204211371082,
                1.0433680713827747,
                0.8313177744491443,
                -0.4165351719854238
            ]
        },
        {
            "positions": [
                1.5692732521774784,
                -2.50011141722791,
                2.013344727903136,
                0.9483223953407605,
                0.8242128096471802,
                -0.5863589446625594
            ]
        },
        {
            "positions": [
                1.5118772884333858,
                -2.460771758481966,
                2.0387690346691634,
                0.8532767192987462,
                0.8171078448452163,
                -0.7561827173396951
            ]
        },
        {
            "positions": [
                1.4544813246892931,
                -2.4214320997360215,
                2.0641933414351907,
                0.7582310432567319,
                0.8100028800432523,
                -0.9260064900168308
            ]
        },
        {
            "positions": [
                1.3970853609452003,
                -2.3820924409900774,
                2.0896176482012185,
                0.6631853672147178,
                0.8028979152412883,
                -1.0958302626939662
            ]
        },
        {
            "positions": [
                1.3396893972011075,
                -2.3427527822441334,
                2.115041954967246,
                0.5681396911727035,
                0.7957929504393242,
                -1.2656540353711019
            ]
        },
        {
            "positions": [
                1.2822934334570149,
                -2.3034131234981894,
                2.1404662617332733,
                0.47309401513068927,
                0.7886879856373602,
                -1.4354778080482373
            ]
        },
        {
            "positions": [
                1.2248974697129222,
                -2.264073464752245,
                2.165890568499301,
                0.37804833908867486,
                0.7815830208353962,
                -1.605301580725373
            ]
        },
        {
            "positions": [
                1.1675015059688294,
                -2.2247338060063004,
                2.1913148752653284,
                0.2830026630466609,
                0.7744780560334322,
                -1.7751253534025087
            ]
        },
        {
            "positions": [
                1.1101055422247368,
                -2.1853941472603564,
                2.216739182031356,
                0.1879569870046467,
                0.7673730912314682,
                -1.9449491260796443
            ]
        },
        {
            "positions": [
                1.052709578480644,
                -2.1460544885144124,
                2.2421634887973836,
                0.09291131096263228,
                0.7602681264295041,
                -2.11477289875678
            ]
        },
        {
            "positions": [
                0.9953136147365512,
                -2.1067148297684684,
                2.267587795563411,
                -0.002134365079381917,
                0.7531631616275402,
                -2.2845966714339156
            ]
        },
        {
            "positions": [
                0.9379176509924585,
                -2.067375171022524,
                2.2930121023294388,
                -0.09718004112139633,
                0.7460581968255762,
                -2.4544204441110513
            ]
        },
        {
            "positions": [
                0.8805216872483657,
                -2.02803551227658,
                2.318436409095466,
                -0.19222571716341053,
                0.7389532320236122,
                -2.6242442167881865
            ]
        },
        {
            "positions": [
                0.823125723504273,
                -1.9886958535306354,
                2.3438607158614935,
                -0.2872713932054245,
                0.7318482672216482,
                -2.794067989465322
            ]
        },
        {
            "positions": [
                0.7657297597601802,
                -1.9493561947846914,
                2.3692850226275213,
                -0.3823170692474389,
                0.7247433024196841,
                -2.963891762142458
            ]
        },
        {
            "positions": [
                0.7083337960160876,
                -1.910016536038747,
                2.3947093293935486,
                -0.477362745289453,
                0.7176383376177201,
                -3.1337155348195935
            ]
        }
    ]
}