{
    "goal": {
        "global_pose": {
            "orientation": {
                "w": 0.5084816217422485,
                "x": -0.49083608388900757,
                "y": 0.5182115435600281,
                "z": -0.4816462993621826
            },
            "position": {
                "x": 0.5540239810943604,
                "y": 0.030875300988554955,
                "z": 0.16403168439865112
            }
        },
        "name": "move_to_storage_A"
    },
    "id": "SBL_move_to_storage_A_24",
    "joint_names": [
        "shoulder_pan_joint",
        "shoulder_lift_joint",
        "elbow_joint",
        "wrist_1_joint",
        "wrist_2_joint",
        "wrist_3_joint"
    ],
    "metrics": {
        "cart_traj_len": 0.3529810652478476,
        "distance_elbow_joint": 0.453610919249098,
        "distance_shoulder_lift_joint": 0.23349407951752954,
        "distance_shoulder_pan_joint": 0.4616639633510742,
        "distance_wrist_1_joint": 0.2623796573317764,
        "distance_wrist_2_joint": 1.0978834082921833,
        "distance_wrist_3_joint": 0.11115570049513579,
        "smoothness": 4.440892098500626e-16,
        "time": 0.15445218900000002,
        "traj_len": 1.6186993940311454,
        "weighted_distance": 2.0500639489662333
    },
    "planner": "SBL",
    "start": {
        "state": {
            "elbow_joint": 1.9715463870305268,
            "shoulder_lift_joint": -1.1394903361783484,
            "shoulder_pan_joint": 0.12281147578464417,
            "wrist_1_joint": -0.7804599489681411,
            "wrist_2_joint": 0.12958660307563738,
            "wrist_3_joint": -3.1924946282119055
        }
    },
    "waypoints": [
        {
            "positions": [
                0.12281147578464417,
                -1.1394903361783484,
                1.9715463870305268,
                -0.7804599489681411,
                0.12958660307563738,
                -3.1924946282119055
            ]
        },
        {
            "positions": [
                0.05685948102020501,
                -1.1728466332522811,
                2.036347946923255,
                -0.8179427571583948,
                0.2864270899745207,
                -3.176615242426886
            ]
        },
        {
            "positions": [
                -0.009092513744234157,
                -1.206202930326214,
                2.1011495068159833,
                -0.8554255653486487,
                0.443267576873404,
                -3.1607358566418666
            ]
        },
        {
            "positions": [
                -0.07504450850867332,
                -1.2395592274001468,
                2.1659510667087116,
                -0.8929083735389024,
                0.6001080637722873,
                -3.144856470856847
            ]
        },
        {
            "positions": [
                -0.14099650327311247,
                -1.2729155244740795,
                2.23075262660144,
                -0.9303911817291561,
                0.7569485506711707,
                -3.128977085071828
            ]
        },
        {
            "positions": [
                -0.20694849803755166,
                -1.3062718215480125,
                2.295554186494168,
                -0.96787398991941,
                0.9137890375700541,
                -3.1130976992868087
            ]
        },
        {
            "positions": [
                -0.2729004928019908,
                -1.3396281186219452,
                2.3603557463868965,
                -1.0053567981096636,
                1.0706295244689372,
                -3.0972183135017892
            ]
        },
        {
            "positions": [
                -0.33885248756643,
                -1.372984415695878,
                2.425157306279625,
                -1.0428396062999175,
                1.2274700113678207,
                -3.0813389277167698
            ]
        }
    ]
}