{
    "goal": {
        "global_pose": {
            "orientation": {
                "w": 0.7047431468963623,
                "x": -0.7094548344612122,
                "y": 0.0024358443915843964,
                "z": -0.0022348060738295317
            },
            "position": {
                "x": 0.6094750761985779,
                "y": 0.3671506643295288,
                "z": 0.19426114857196808
            }
        },
        "name": "move_to_magneteinheit_A"
    },
    "id": "SBL_move_to_magneteinheit_A_104",
    "joint_names": [
        "shoulder_pan_joint",
        "shoulder_lift_joint",
        "elbow_joint",
        "wrist_1_joint",
        "wrist_2_joint",
        "wrist_3_joint"
    ],
    "metrics": {
        "cart_traj_len": 1.8745512198725285,
        "distance_elbow_joint": 3.9197175658223253,
        "distance_shoulder_lift_joint": 0.7042124054170018,
        "distance_shoulder_pan_joint": 1.2413890589332501,
        "distance_wrist_1_joint": 1.519686668137541,
        "distance_wrist_2_joint": 1.700971266189559,
        "distance_wrist_3_joint": 1.145726962062734,
        "smoothness": 3.9474596565212315e-16,
        "time": 0.215788804,
        "traj_len": 3.1987034758730624,
        "weighted_distance": 3.967847752247429
    },
    "planner": "SBL",
    "start": {
        "state": {
            "elbow_joint": -1.919643507792019,
            "shoulder_lift_joint": -0.07675430207160344,
            "shoulder_pan_joint": -1.1188671864651873,
            "wrist_1_joint": 0.42560062535961957,
            "wrist_2_joint": 1.5706038300724876,
            "wrist_3_joint": 1.1188968870953055
        }
    },
    "waypoints": [
        {
            "positions": [
                -1.1188671864651873,
                -0.07675430207160344,
                -1.919643507792019,
                0.42560062535961957,
                1.5706038300724876,
                1.1188968870953055
            ]
        },
        {
            "positions": [
                -1.0711214534292932,
                -0.10383939458764198,
                -1.768885139875776,
                0.4840501125956788,
                1.5051818582959662,
                1.074830465477508
            ]
        },
        {
            "positions": [
                -1.0233757203933989,
                -0.13092448710368051,
                -1.6181267719595325,
                0.5424995998317381,
                1.4397598865194445,
                1.0307640438597105
            ]
        },
        {
            "positions": [
                -0.9756299873575046,
                -0.15800957961971904,
                -1.4673684040432893,
                0.6009490870677974,
                1.374337914742923,
                0.9866976222419132
            ]
        },
        {
            "positions": [
                -0.9278842543216104,
                -0.1850946721357576,
                -1.316610036127046,
                0.6593985743038566,
                1.3089159429664017,
                0.9426312006241158
            ]
        },
        {
            "positions": [
                -0.8801385212857161,
                -0.2121797646517961,
                -1.1658516682108027,
                0.7178480615399159,
                1.24349397118988,
                0.8985647790063183
            ]
        },
        {
            "positions": [
                -0.8323927882498219,
                -0.23926485716783463,
                -1.0150933002945592,
                0.7762975487759751,
                1.1780719994133586,
                0.8544983573885208
            ]
        },
        {
            "positions": [
                -0.7846470552139277,
                -0.26634994968387316,
                -0.8643349323783163,
                0.8347470360120344,
                1.1126500276368372,
                0.8104319357707234
            ]
        },
        {
            "positions": [
                -0.7369013221780334,
                -0.2934350421999117,
                -0.7135765644620728,
                0.8931965232480937,
                1.0472280558603155,
                0.7663655141529259
            ]
        },
        {
            "positions": [
                -0.6891555891421393,
                -0.3205201347159502,
                -0.5628181965458297,
                0.9516460104841529,
                0.9818060840837941,
                0.7222990925351285
            ]
        },
        {
            "positions": [
                -0.6414098561062449,
                -0.3476052272319888,
                -0.41205982862958623,
                1.0100954977202123,
                0.9163841123072726,
                0.678232670917331
            ]
        },
        {
            "positions": [
                -0.5936641230703508,
                -0.3746903197480273,
                -0.26130146071334304,
                1.0685449849562716,
                0.850962140530751,
                0.6341662492995335
            ]
        },
        {
            "positions": [
                -0.5459183900344565,
                -0.4017754122640658,
                -0.11054309279709962,
                1.1269944721923308,
                0.7855401687542295,
                0.590099827681736
            ]
        },
        {
            "positions": [
                -0.4981726569985623,
                -0.42886050478010435,
                0.04021527511914358,
                1.18544395942839,
                0.7201181969777081,
                0.5460334060639386
            ]
        },
        {
            "positions": [
                -0.45042692396266804,
                -0.45594559729614287,
                0.19097364303538655,
                1.2438934466644493,
                0.6546962252011866,
                0.5019669844461412
            ]
        },
        {
            "positions": [
                -0.4026811909267739,
                -0.4830306898121814,
                0.34173201095162997,
                1.3023429339005086,
                0.5892742534246651,
                0.4579005628283437
            ]
        },
        {
            "positions": [
                -0.35493545789087955,
                -0.51011578232822,
                0.4924903788678734,
                1.3607924211365678,
                0.5238522816481435,
                0.4138341412105462
            ]
        },
        {
            "positions": [
                -0.3071897248549853,
                -0.5372008748442585,
                0.6432487467841168,
                1.419241908372627,
                0.45843030987162203,
                0.3697677195927487
            ]
        },
        {
            "positions": [
                -0.25944399181909117,
                -0.564285967360297,
                0.7940071147003598,
                1.4776913956086863,
                0.3930083380951006,
                0.3257012979749513
            ]
        },
        {
            "positions": [
                -0.21169825878319692,
                -0.5913710598763355,
                0.9447654826166032,
                1.5361408828447456,
                0.3275863663185792,
                0.2816348763571539
            ]
        },
        {
            "positions": [
                -0.16395252574730257,
                -0.6184561523923742,
                1.0955238505328466,
                1.594590370080805,
                0.26216439454205753,
                0.23756845473935628
            ]
        },
        {
            "positions": [
                -0.11620679271140832,
                -0.6455412449084126,
                1.24628221844909,
                1.6530398573168643,
                0.1967424227655361,
                0.1935020331215589
            ]
        },
        {
            "positions": [
                -0.06846105967551419,
                -0.6726263374244512,
                1.397040586365333,
                1.7114893445529236,
                0.13132045098901446,
                0.1494356115037615
            ]
        },
        {
            "positions": [
                -0.020715326639620057,
                -0.6997114299404896,
                1.5477989542815764,
                1.7699388317889828,
                0.06589847921249303,
                0.10536918988596411
            ]
        },
        {
            "positions": [
                0.027030406396274298,
                -0.7267965224565283,
                1.6985573221978199,
                1.828388319025042,
                0.000476507435971385,
                0.061302768268166385
            ]
        },
        {
            "positions": [
                0.07477613943216865,
                -0.7538816149725667,
                1.8493156901140633,
                1.8868378062611013,
                -0.06494546434055004,
                0.017236346650369105
            ]
        },
        {
            "positions": [
                0.12252187246806284,
                -0.7809667074886053,
                2.0000740580303065,
                1.9452872934971606,
                -0.13036743611707147,
                -0.026830074967428296
            ]
        }
    ]
}