{
    "goal": {
        "global_pose": {
            "orientation": {
                "w": 0.7047431468963623,
                "x": -0.7094548344612122,
                "y": 0.0024358443915843964,
                "z": -0.0022348060738295317
            },
            "position": {
                "x": 0.6094750761985779,
                "y": 0.3671506643295288,
                "z": 0.19426114857196808
            }
        },
        "name": "move_to_magneteinheit_A"
    },
    "id": "SBL_move_to_magneteinheit_A_15",
    "joint_names": [
        "shoulder_pan_joint",
        "shoulder_lift_joint",
        "elbow_joint",
        "wrist_1_joint",
        "wrist_2_joint",
        "wrist_3_joint"
    ],
    "metrics": {
        "cart_traj_len": 2.064864667426665,
        "distance_elbow_joint": 3.879961912345866,
        "distance_shoulder_lift_joint": 1.055709401881455,
        "distance_shoulder_pan_joint": 1.2408232237806671,
        "distance_wrist_1_joint": 1.1523860380249138,
        "distance_wrist_2_joint": 1.4464681050360204,
        "distance_wrist_3_joint": 1.9273048440768963,
        "smoothness": 4.28775788760481e-16,
        "time": 0.119477803,
        "traj_len": 3.2714910247692592,
        "weighted_distance": 4.141994369426466
    },
    "planner": "SBL",
    "start": {
        "state": {
            "elbow_joint": -1.919643507792019,
            "shoulder_lift_joint": -0.07675430207160344,
            "shoulder_pan_joint": -1.1188671864651873,
            "wrist_1_joint": 0.42560062535961957,
            "wrist_2_joint": 1.5706038300724876,
            "wrist_3_joint": 1.1188968870953055
        }
    },
    "waypoints": [
        {
            "positions": [
                -1.1188671864651873,
                -0.07675430207160344,
                -1.919643507792019,
                0.42560062535961957,
                1.5706038300724876,
                1.1188968870953055
            ]
        },
        {
            "positions": [
                -1.0745520713301635,
                -0.1144582092816554,
                -1.7810734394939525,
                0.3844439811444441,
                1.5189442548926297,
                1.1877292029551947
            ]
        },
        {
            "positions": [
                -1.0302369561951397,
                -0.15216211649170736,
                -1.6425033711958859,
                0.3432873369292686,
                1.4672846797127719,
                1.2565615188150838
            ]
        },
        {
            "positions": [
                -0.9859218410601158,
                -0.1898660237017593,
                -1.5039333028978192,
                0.3021306927140931,
                1.415625104532914,
                1.325393834674973
            ]
        },
        {
            "positions": [
                -0.9416067259250921,
                -0.2275699309118113,
                -1.3653632345997524,
                0.26097404849891764,
                1.3639655293530561,
                1.394226150534862
            ]
        },
        {
            "positions": [
                -0.8972916107900683,
                -0.2652738381218633,
                -1.2267931663016858,
                0.21981740428374213,
                1.3123059541731983,
                1.4630584663947515
            ]
        },
        {
            "positions": [
                -0.8529764956550444,
                -0.30297774533191524,
                -1.0882230980036192,
                0.17866076006856668,
                1.2606463789933404,
                1.5318907822546404
            ]
        },
        {
            "positions": [
                -0.8086613805200206,
                -0.3406816525419672,
                -0.9496530297055525,
                0.13750411585339117,
                1.2089868038134826,
                1.6007230981145297
            ]
        },
        {
            "positions": [
                -0.7643462653849968,
                -0.37838555975201915,
                -0.8110829614074859,
                0.09634747163821572,
                1.1573272286336247,
                1.6695554139744186
            ]
        },
        {
            "positions": [
                -0.7200311502499729,
                -0.41608946696207116,
                -0.6725128931094191,
                0.055190827423040156,
                1.1056676534537666,
                1.738387729834308
            ]
        },
        {
            "positions": [
                -0.6757160351149492,
                -0.4537933741721231,
                -0.5339428248113525,
                0.014034183207864703,
                1.0540080782739087,
                1.8072200456941971
            ]
        },
        {
            "positions": [
                -0.6314009199799253,
                -0.491497281382175,
                -0.39537275651328607,
                -0.02712246100731075,
                1.0023485030940509,
                1.8760523615540863
            ]
        },
        {
            "positions": [
                -0.5870858048449015,
                -0.529201188592227,
                -0.25680268821521945,
                -0.0682791052224862,
                0.9506889279141931,
                1.9448846774139752
            ]
        },
        {
            "positions": [
                -0.5427706897098776,
                -0.566905095802279,
                -0.11823261991715261,
                -0.10943574943766171,
                0.8990293527343353,
                2.0137169932738646
            ]
        },
        {
            "positions": [
                -0.4984555745748538,
                -0.604609003012331,
                0.020337448380914003,
                -0.15059239365283722,
                0.8473697775544774,
                2.0825493091337535
            ]
        },
        {
            "positions": [
                -0.45414045943982995,
                -0.6423129102223828,
                0.1589075166789804,
                -0.19174903786801273,
                0.7957102023746195,
                2.151381624993643
            ]
        },
        {
            "positions": [
                -0.4098253443048062,
                -0.6800168174324348,
                0.29747758497704724,
                -0.23290568208318813,
                0.7440506271947617,
                2.220213940853532
            ]
        },
        {
            "positions": [
                -0.3655102291697824,
                -0.7177207246424868,
                0.43604765327511363,
                -0.27406232629836363,
                0.6923910520149038,
                2.289046256713421
            ]
        },
        {
            "positions": [
                -0.3211951140347584,
                -0.7554246318525388,
                0.5746177215731809,
                -0.31521897051353925,
                0.6407314768350458,
                2.3578785725733105
            ]
        },
        {
            "positions": [
                -0.2768799988997346,
                -0.7931285390625908,
                0.7131877898712473,
                -0.35637561472871465,
                0.589071901655188,
                2.4267108884332
            ]
        },
        {
            "positions": [
                -0.23256488376471085,
                -0.8308324462726429,
                0.8517578581693142,
                -0.39753225894389016,
                0.5374123264753301,
                2.4955432042930887
            ]
        },
        {
            "positions": [
                -0.188249768629687,
                -0.8685363534826946,
                0.9903279264673805,
                -0.43868890315906556,
                0.48575275129547224,
                2.5643755201529776
            ]
        },
        {
            "positions": [
                -0.14393465349466317,
                -0.9062402606927467,
                1.128897994765447,
                -0.47984554737424107,
                0.4340931761156144,
                2.6332078360128666
            ]
        },
        {
            "positions": [
                -0.09961953835963944,
                -0.9439441679027987,
                1.2674680630635138,
                -0.5210021915894165,
                0.3824336009357565,
                2.702040151872756
            ]
        },
        {
            "positions": [
                -0.055304423224615595,
                -0.9816480751128505,
                1.4060381313615802,
                -0.5621588358045919,
                0.33077402575589865,
                2.7708724677326453
            ]
        },
        {
            "positions": [
                -0.010989308089591754,
                -1.0193519823229027,
                1.5446081996596475,
                -0.6033154800197675,
                0.2791144505760408,
                2.839704783592534
            ]
        },
        {
            "positions": [
                0.03332580704543209,
                -1.0570558895329545,
                1.6831782679577139,
                -0.6444721242349429,
                0.22745487539618292,
                2.9085370994524236
            ]
        },
        {
            "positions": [
                0.07764092218045593,
                -1.0947597967430065,
                1.8217483362557807,
                -0.6856287684501186,
                0.17579530021632506,
                2.977369415312313
            ]
        },
        {
            "positions": [
                0.12195603731547969,
                -1.1324637039530585,
                1.9603184045538473,
                -0.7267854126652941,
                0.1241357250364672,
                3.046201731172202
            ]
        }
    ]
}