{
    "goal": {
        "global_pose": {
            "orientation": {
                "w": 0.7047431468963623,
                "x": -0.7094548344612122,
                "y": 0.0024358443915843964,
                "z": -0.0022348060738295317
            },
            "position": {
                "x": 0.6094750761985779,
                "y": 0.3671506643295288,
                "z": 0.19426114857196808
            }
        },
        "name": "move_to_magneteinheit_A"
    },
    "id": "SBL_move_to_magneteinheit_A_131",
    "joint_names": [
        "shoulder_pan_joint",
        "shoulder_lift_joint",
        "elbow_joint",
        "wrist_1_joint",
        "wrist_2_joint",
        "wrist_3_joint"
    ],
    "metrics": {
        "cart_traj_len": 1.8803708070146985,
        "distance_elbow_joint": 3.9094040473235636,
        "distance_shoulder_lift_joint": 0.6989751625274466,
        "distance_shoulder_pan_joint": 1.2429141332127216,
        "distance_wrist_1_joint": 1.4796557770392142,
        "distance_wrist_2_joint": 1.7068601903593799,
        "distance_wrist_3_joint": 1.0893555084368705,
        "smoothness": 5.263279565825149e-16,
        "time": 0.111262753,
        "traj_len": 3.182320665630539,
        "weighted_distance": 3.936037576443031
    },
    "planner": "SBL",
    "start": {
        "state": {
            "elbow_joint": -1.919643507792019,
            "shoulder_lift_joint": -0.07675430207160344,
            "shoulder_pan_joint": -1.1188671864651873,
            "wrist_1_joint": 0.42560062535961957,
            "wrist_2_joint": 1.5706038300724876,
            "wrist_3_joint": 1.1188968870953055
        }
    },
    "waypoints": [
        {
            "positions": [
                -1.1188671864651873,
                -0.07675430207160344,
                -1.919643507792019,
                0.42560062535961957,
                1.5706038300724876,
                1.1188968870953055
            ]
        },
        {
            "positions": [
                -1.0710627967262365,
                -0.10363796216881294,
                -1.7692818136641897,
                0.4825104629380509,
                1.5049553612125115,
                1.076998598309272
            ]
        },
        {
            "positions": [
                -1.0232584069872857,
                -0.13052162226602243,
                -1.6189201195363603,
                0.5394203005164822,
                1.4393068923525354,
                1.0351003095232385
            ]
        },
        {
            "positions": [
                -0.9754540172483348,
                -0.15740528236323192,
                -1.4685584254085309,
                0.5963301380949135,
                1.373658423492559,
                0.9932020207372051
            ]
        },
        {
            "positions": [
                -0.927649627509384,
                -0.18428894246044142,
                -1.3181967312807017,
                0.6532399756733449,
                1.308009954632583,
                0.9513037319511717
            ]
        },
        {
            "positions": [
                -0.8798452377704332,
                -0.21117260255765088,
                -1.167835037152872,
                0.7101498132517762,
                1.2423614857726069,
                0.9094054431651382
            ]
        },
        {
            "positions": [
                -0.8320408480314824,
                -0.23805626265486038,
                -1.0174733430250429,
                0.7670596508302074,
                1.1767130169126307,
                0.8675071543791046
            ]
        },
        {
            "positions": [
                -0.7842364582925315,
                -0.2649399227520699,
                -0.8671116488972135,
                0.8239694884086388,
                1.1110645480526546,
                0.8256088655930712
            ]
        },
        {
            "positions": [
                -0.7364320685535807,
                -0.29182358284927934,
                -0.7167499547693841,
                0.8808793259870702,
                1.0454160791926785,
                0.7837105768070377
            ]
        },
        {
            "positions": [
                -0.6886276788146299,
                -0.31870724294648883,
                -0.5663882606415549,
                0.9377891635655013,
                0.9797676103327023,
                0.7418122880210043
            ]
        },
        {
            "positions": [
                -0.6408232890756791,
                -0.3455909030436983,
                -0.41602656651372527,
                0.9946990011439327,
                0.9141191414727261,
                0.6999139992349708
            ]
        },
        {
            "positions": [
                -0.5930188993367282,
                -0.3724745631409078,
                -0.2656648723858961,
                1.051608838722364,
                0.84847067261275,
                0.6580157104489373
            ]
        },
        {
            "positions": [
                -0.5452145095977774,
                -0.3993582232381173,
                -0.11530317825806646,
                1.1085186763007955,
                0.7828222037527738,
                0.6161174216629037
            ]
        },
        {
            "positions": [
                -0.49741011985882655,
                -0.4262418833353268,
                0.03505851586976272,
                1.1654285138792266,
                0.7171737348927977,
                0.5742191328768703
            ]
        },
        {
            "positions": [
                -0.4496057301198757,
                -0.4531255434325363,
                0.18542020999759212,
                1.222338351457658,
                0.6515252660328216,
                0.5323208440908369
            ]
        },
        {
            "positions": [
                -0.40180134038092497,
                -0.48000920352974574,
                0.3357819041254213,
                1.2792481890360892,
                0.5858767971728455,
                0.4904225553048034
            ]
        },
        {
            "positions": [
                -0.353996950641974,
                -0.5068928636269553,
                0.48614359825325093,
                1.3361580266145208,
                0.5202283283128692,
                0.44852426651876987
            ]
        },
        {
            "positions": [
                -0.30619256090302327,
                -0.5337765237241647,
                0.6365052923810801,
                1.393067864192952,
                0.45457985945289314,
                0.40662597773273634
            ]
        },
        {
            "positions": [
                -0.2583881711640724,
                -0.5606601838213743,
                0.7868669865089093,
                1.4499777017713833,
                0.38893139059291704,
                0.36472768894670293
            ]
        },
        {
            "positions": [
                -0.21058378142512157,
                -0.5875438439185838,
                0.9372286806367389,
                1.5068875393498147,
                0.32328292173294093,
                0.3228294001606695
            ]
        },
        {
            "positions": [
                -0.16277939168617073,
                -0.6144275040157932,
                1.0875903747645685,
                1.563797376928246,
                0.2576344528729646,
                0.2809311113746359
            ]
        },
        {
            "positions": [
                -0.11497500194721999,
                -0.6413111641130027,
                1.2379520688923977,
                1.6207072145066772,
                0.1919859840129885,
                0.23903282258860248
            ]
        },
        {
            "positions": [
                -0.06717061220826914,
                -0.6681948242102123,
                1.388313763020227,
                1.6776170520851086,
                0.1263375151530124,
                0.19713453380256907
            ]
        },
        {
            "positions": [
                -0.019366222469318295,
                -0.6950784843074216,
                1.538675457148056,
                1.73452688966354,
                0.060689046293036286,
                0.15523624501653555
            ]
        },
        {
            "positions": [
                0.028438167269632553,
                -0.7219621444046311,
                1.6890371512758862,
                1.7914367272419713,
                -0.004959422566940042,
                0.11333795623050191
            ]
        },
        {
            "positions": [
                0.0762425570085834,
                -0.7488458045018407,
                1.8393988454037153,
                1.8483465648204025,
                -0.07060789142691615,
                0.07143966744446861
            ]
        },
        {
            "positions": [
                0.12404694674753433,
                -0.7757294645990501,
                1.9897605395315445,
                1.9052564023988339,
                -0.13625636028689217,
                0.029541378658435074
            ]
        }
    ]
}