{
    "goal": {
        "global_pose": {
            "orientation": {
                "w": 0.5084816217422485,
                "x": -0.49083608388900757,
                "y": 0.5182115435600281,
                "z": -0.4816462993621826
            },
            "position": {
                "x": 0.5540239810943604,
                "y": 0.030875300988554955,
                "z": 0.16403168439865112
            }
        },
        "name": "move_to_storage_A"
    },
    "id": "SBL_move_to_storage_A_56",
    "joint_names": [
        "shoulder_pan_joint",
        "shoulder_lift_joint",
        "elbow_joint",
        "wrist_1_joint",
        "wrist_2_joint",
        "wrist_3_joint"
    ],
    "metrics": {
        "cart_traj_len": 0.3532197486551051,
        "distance_elbow_joint": 0.44730268744558277,
        "distance_shoulder_lift_joint": 0.23365998435117707,
        "distance_shoulder_pan_joint": 0.4631393638128311,
        "distance_wrist_1_joint": 0.2359008950126319,
        "distance_wrist_2_joint": 1.0926874503809427,
        "distance_wrist_3_joint": 0.09068548742535265,
        "smoothness": 0.0,
        "time": 0.20937672499999999,
        "traj_len": 1.6010546113198383,
        "weighted_distance": 2.0182505267366584
    },
    "planner": "SBL",
    "start": {
        "state": {
            "elbow_joint": 1.9715463870305268,
            "shoulder_lift_joint": -1.1394903361783484,
            "shoulder_pan_joint": 0.12281147578464417,
            "wrist_1_joint": -0.7804599489681411,
            "wrist_2_joint": 0.12958660307563738,
            "wrist_3_joint": -3.1924946282119055
        }
    },
    "waypoints": [
        {
            "positions": [
                0.12281147578464417,
                -1.1394903361783484,
                1.9715463870305268,
                -0.7804599489681411,
                0.12958660307563738,
                -3.1924946282119055
            ]
        },
        {
            "positions": [
                0.056648709525668306,
                -1.1728703339428022,
                2.0354467709513244,
                -0.8141600768270885,
                0.2856848102729149,
                -3.1795395585797124
            ]
        },
        {
            "positions": [
                -0.00951405673330756,
                -1.2062503317072562,
                2.0993471548721216,
                -0.847860204686036,
                0.44178301747019244,
                -3.166584488947519
            ]
        },
        {
            "positions": [
                -0.07567682299228344,
                -1.23963032947171,
                2.1632475387929193,
                -0.8815603325449833,
                0.59788122466747,
                -3.153629419315326
            ]
        },
        {
            "positions": [
                -0.14183958925125928,
                -1.273010327236164,
                2.227147922713717,
                -0.9152604604039307,
                0.7539794318647475,
                -3.1406743496831324
            ]
        },
        {
            "positions": [
                -0.20800235551023516,
                -1.3063903250006177,
                2.2910483066345146,
                -0.9489605882628782,
                0.9100776390620251,
                -3.1277192800509392
            ]
        },
        {
            "positions": [
                -0.27416512176921104,
                -1.3397703227650717,
                2.354948690555312,
                -0.9826607161218255,
                1.0661758462593025,
                -3.114764210418746
            ]
        },
        {
            "positions": [
                -0.3403278880281869,
                -1.3731503205295255,
                2.4188490744761095,
                -1.016360843980773,
                1.2222740534565801,
                -3.101809140786553
            ]
        }
    ]
}