{
    "goal": {
        "global_pose": {
            "orientation": {
                "w": 0.7031023502349854,
                "x": -0.7110244035720825,
                "y": 0.007748599164187908,
                "z": 0.005598929710686207
            },
            "position": {
                "x": 0.11585023208521307,
                "y": 0.44412534475326537,
                "z": 0.3711530566215515
            }
        },
        "name": "move_to_auspresseinheit_A"
    },
    "id": "SBL_move_to_auspresseinheit_A_25",
    "joint_names": [
        "shoulder_pan_joint",
        "shoulder_lift_joint",
        "elbow_joint",
        "wrist_1_joint",
        "wrist_2_joint",
        "wrist_3_joint"
    ],
    "metrics": {
        "cart_traj_len": 0.6800409756183006,
        "distance_elbow_joint": 0.2901121742579664,
        "distance_shoulder_lift_joint": 0.5855350816159095,
        "distance_shoulder_pan_joint": 1.0418736817462366,
        "distance_wrist_1_joint": 0.6696390161797032,
        "distance_wrist_2_joint": 1.1945141290230308,
        "distance_wrist_3_joint": 0.8862638177083695,
        "smoothness": 1.1374841591664882,
        "time": 0.420286232,
        "traj_len": 2.160541112900011,
        "weighted_distance": 2.8817735305104546
    },
    "planner": "SBL",
    "start": {
        "state": {
            "elbow_joint": 2.422574709923281,
            "shoulder_lift_joint": -1.3736533754116391,
            "shoulder_pan_joint": -0.33786336945926293,
            "wrist_1_joint": -1.0288603412921917,
            "wrist_2_joint": 1.2330224858903978,
            "wrist_3_joint": -3.094022268022082
        }
    },
    "waypoints": [
        {
            "positions": [
                -0.33786336945926293,
                -1.3736533754116391,
                2.422574709923281,
                -1.0288603412921917,
                1.2330224858903978,
                -3.094022268022082
            ]
        },
        {
            "positions": [
                -0.26551168781528345,
                -1.4358297413939665,
                2.436981424717458,
                -0.9602461238418191,
                1.1370127037497404,
                -3.046722495351672
            ]
        },
        {
            "positions": [
                -0.19316000617130397,
                -1.4980061073762938,
                2.451388139511635,
                -0.8916319063914464,
                1.041002921609083,
                -2.999422722681262
            ]
        },
        {
            "positions": [
                -0.12080832452732448,
                -1.5601824733586214,
                2.465794854305812,
                -0.8230176889410737,
                0.9449931394684259,
                -2.952122950010852
            ]
        },
        {
            "positions": [
                -0.048456642883345,
                -1.6223588393409487,
                2.480201569099989,
                -0.7544034714907011,
                0.8489833573277685,
                -2.904823177340442
            ]
        },
        {
            "positions": [
                0.023895038760634535,
                -1.684535205323276,
                2.494608283894166,
                -0.6857892540403283,
                0.7529735751871112,
                -2.8575234046700317
            ]
        },
        {
            "positions": [
                0.09624672040461396,
                -1.7467115713056034,
                2.5090149986883428,
                -0.6171750365899558,
                0.6569637930464539,
                -2.8102236319996217
            ]
        },
        {
            "positions": [
                0.1685984020485935,
                -1.8088879372879307,
                2.52342171348252,
                -0.548560819139583,
                0.5609540109057966,
                -2.7629238593292116
            ]
        },
        {
            "positions": [
                0.24095008369257293,
                -1.8710643032702583,
                2.537828428276697,
                -0.47994660168921033,
                0.4649442287651393,
                -2.7156240866588015
            ]
        },
        {
            "positions": [
                0.31330176533655246,
                -1.9332406692525856,
                2.552235143070874,
                -0.4113323842388376,
                0.368934446624482,
                -2.6683243139883914
            ]
        },
        {
            "positions": [
                0.41097890207415777,
                -1.926753722308845,
                2.5121222077932805,
                -0.42436014902042496,
                0.4515409690637608,
                -2.7834657799070612
            ]
        },
        {
            "positions": [
                0.5086560388117631,
                -1.9202667753651042,
                2.4720092725156873,
                -0.43738791380201225,
                0.5341474915030396,
                -2.8986072458257306
            ]
        },
        {
            "positions": [
                0.6063331755493684,
                -1.9137798284213634,
                2.4318963372380935,
                -0.45041567858359954,
                0.6167540139423184,
                -3.0137487117444004
            ]
        },
        {
            "positions": [
                0.7040103122869737,
                -1.9072928814776227,
                2.3917834019605,
                -0.4634434433651869,
                0.6993605363815972,
                -3.12889017766307
            ]
        }
    ]
}