{
    "goal": {
        "global_pose": {
            "orientation": {
                "w": 0.7031023502349854,
                "x": -0.7110244035720825,
                "y": 0.007748599164187908,
                "z": 0.005598929710686207
            },
            "position": {
                "x": 0.11585023208521307,
                "y": 0.44412534475326537,
                "z": 0.3711530566215515
            }
        },
        "name": "move_to_auspresseinheit_A"
    },
    "id": "SBL_move_to_auspresseinheit_A_20",
    "joint_names": [
        "shoulder_pan_joint",
        "shoulder_lift_joint",
        "elbow_joint",
        "wrist_1_joint",
        "wrist_2_joint",
        "wrist_3_joint"
    ],
    "metrics": {
        "cart_traj_len": 2.705467898905744,
        "distance_elbow_joint": 3.5954778368609506,
        "distance_shoulder_lift_joint": 0.7446359606523751,
        "distance_shoulder_pan_joint": 1.8853139062956576,
        "distance_wrist_1_joint": 2.372186206898142,
        "distance_wrist_2_joint": 0.960827066724219,
        "distance_wrist_3_joint": 7.228257192767485,
        "smoothness": 0.4265098061448212,
        "time": 0.285625716,
        "traj_len": 4.09715732797739,
        "weighted_distance": 5.8801552555486305
    },
    "planner": "SBL",
    "start": {
        "state": {
            "elbow_joint": 2.422574709923281,
            "shoulder_lift_joint": -1.3736533754116391,
            "shoulder_pan_joint": -0.33786336945926293,
            "wrist_1_joint": -1.0288603412921917,
            "wrist_2_joint": 1.2330224858903978,
            "wrist_3_joint": -3.094022268022082
        }
    },
    "waypoints": [
        {
            "positions": [
                -0.33786336945926293,
                -1.3736533754116391,
                2.422574709923281,
                -1.0288603412921917,
                1.2330224858903978,
                -3.094022268022082
            ]
        },
        {
            "positions": [
                -0.3302152208040032,
                -1.3770874369039396,
                2.3218580570274594,
                -0.9920714514587629,
                1.1916254505416493,
                -2.894316826260301
            ]
        },
        {
            "positions": [
                -0.3225670721487434,
                -1.3805214983962404,
                2.2211414041316377,
                -0.9552825616253341,
                1.1502284151929008,
                -2.6946113844985202
            ]
        },
        {
            "positions": [
                -0.3149189234934836,
                -1.383955559888541,
                2.1204247512358156,
                -0.9184936717919052,
                1.1088313798441523,
                -2.494905942736739
            ]
        },
        {
            "positions": [
                -0.30727077483822385,
                -1.3873896213808417,
                2.019708098339994,
                -0.8817047819584765,
                1.0674343444954038,
                -2.2952005009749583
            ]
        },
        {
            "positions": [
                -0.2996226261829641,
                -1.3908236828731422,
                1.918991445444172,
                -0.8449158921250475,
                1.026037309146655,
                -2.095495059213177
            ]
        },
        {
            "positions": [
                -0.29197447752770433,
                -1.3942577443654427,
                1.8182747925483504,
                -0.8081270022916187,
                0.9846402737979066,
                -1.8957896174513962
            ]
        },
        {
            "positions": [
                -0.2843263288724446,
                -1.3976918058577434,
                1.7175581396525286,
                -0.77133811245819,
                0.9432432384491581,
                -1.696084175689615
            ]
        },
        {
            "positions": [
                -0.2766781802171848,
                -1.401125867350044,
                1.616841486756707,
                -0.7345492226247611,
                0.9018462031004096,
                -1.4963787339278343
            ]
        },
        {
            "positions": [
                -0.269030031561925,
                -1.4045599288423447,
                1.516124833860885,
                -0.6977603327913322,
                0.860449167751661,
                -1.296673292166053
            ]
        },
        {
            "positions": [
                -0.26138188290666525,
                -1.4079939903346452,
                1.4154081809650632,
                -0.6609714429579033,
                0.8190521324029125,
                -1.096967850404272
            ]
        },
        {
            "positions": [
                -0.2537337342514055,
                -1.4114280518269458,
                1.3146915280692413,
                -0.6241825531244745,
                0.777655097054164,
                -0.897262408642491
            ]
        },
        {
            "positions": [
                -0.24608558559614574,
                -1.4148621133192465,
                1.2139748751734198,
                -0.5873936632910457,
                0.7362580617054155,
                -0.6975569668807102
            ]
        },
        {
            "positions": [
                -0.23843743694088596,
                -1.418296174811547,
                1.113258222277598,
                -0.5506047734576169,
                0.694861026356667,
                -0.49785152511892905
            ]
        },
        {
            "positions": [
                -0.23078928828562617,
                -1.4217302363038475,
                1.012541569381776,
                -0.5138158836241881,
                0.6534639910079185,
                -0.2981460833571479
            ]
        },
        {
            "positions": [
                -0.22314113963036641,
                -1.4251642977961483,
                0.9118249164859542,
                -0.4770269937907592,
                0.6120669556591699,
                -0.09844064159536714
            ]
        },
        {
            "positions": [
                -0.21549299097510666,
                -1.4285983592884488,
                0.8111082635901328,
                -0.44023810395733043,
                0.5706699203104215,
                0.1012648001664136
            ]
        },
        {
            "positions": [
                -0.2078448423198469,
                -1.4320324207807495,
                0.7103916106943109,
                -0.40344921412390156,
                0.5292728849616729,
                0.30097024192819477
            ]
        },
        {
            "positions": [
                -0.20019669366458712,
                -1.43546648227305,
                0.609674957798489,
                -0.3666603242904727,
                0.4878758496129244,
                0.500675683689976
            ]
        },
        {
            "positions": [
                -0.09620345214231775,
                -1.4776311349137956,
                0.704928095209335,
                -0.2994162369053891,
                0.49516994900959466,
                0.4366195649120862
            ]
        },
        {
            "positions": [
                0.007789789379951617,
                -1.519795787554541,
                0.8001812326201808,
                -0.23217214952030554,
                0.5024640484062648,
                0.37256344613419645
            ]
        },
        {
            "positions": [
                0.111783030902221,
                -1.5619604401952865,
                0.8954343700310268,
                -0.16492806213522196,
                0.509758147802935,
                0.3085073273563067
            ]
        },
        {
            "positions": [
                0.21577627242449035,
                -1.604125092836032,
                0.9906875074418726,
                -0.0976839747501384,
                0.5170522471996053,
                0.24445120857841696
            ]
        },
        {
            "positions": [
                0.3197695139467598,
                -1.6462897454767773,
                1.0859406448527187,
                -0.03043988736505482,
                0.5243463465962755,
                0.1803950898005272
            ]
        },
        {
            "positions": [
                0.4237627554690291,
                -1.6884543981175228,
                1.1811937822635645,
                0.036804200020028766,
                0.5316404459929458,
                0.11633897102263746
            ]
        },
        {
            "positions": [
                0.5277559969912985,
                -1.7306190507582684,
                1.2764469196744104,
                0.10404828740511235,
                0.5389345453896159,
                0.05228285224474766
            ]
        },
        {
            "positions": [
                0.6317492385135678,
                -1.7727837033990137,
                1.3717000570852562,
                0.17129237479019588,
                0.5462286447862862,
                -0.011773266533142035
            ]
        },
        {
            "positions": [
                0.7357424800358372,
                -1.8149483560397592,
                1.4669531944961023,
                0.23853646217527946,
                0.5535227441829564,
                -0.07582938531103178
            ]
        },
        {
            "positions": [
                0.8397357215581067,
                -1.8571130086805048,
                1.5622063319069484,
                0.30578054956036305,
                0.5608168435796266,
                -0.13988550408892153
            ]
        },
        {
            "positions": [
                0.9437289630803758,
                -1.89927766132125,
                1.657459469317794,
                0.37302463694544663,
                0.5681109429762968,
                -0.20394162286681128
            ]
        },
        {
            "positions": [
                1.0477222046026453,
                -1.9414423139619956,
                1.75271260672864,
                0.4402687243305302,
                0.5754050423729671,
                -0.26799774164470097
            ]
        },
        {
            "positions": [
                1.063572658030197,
                -1.9556085485316375,
                1.8249210373011404,
                0.42085684423699937,
                0.5902221901692055,
                -0.4734226976175987
            ]
        },
        {
            "positions": [
                1.0794231114577486,
                -1.9697747831012793,
                1.8971294678736408,
                0.40144496414346853,
                0.6050393379654438,
                -0.6788476535904965
            ]
        },
        {
            "positions": [
                1.0952735648853005,
                -1.9839410176709213,
                1.9693378984461414,
                0.3820330840499377,
                0.6198564857616823,
                -0.8842726095633942
            ]
        },
        {
            "positions": [
                1.1111240183128521,
                -1.9981072522405632,
                2.0415463290186415,
                0.36262120395640685,
                0.6346736335579206,
                -1.089697565536292
            ]
        },
        {
            "positions": [
                1.1269744717404038,
                -2.012273486810205,
                2.113754759591142,
                0.343209323862876,
                0.649490781354159,
                -1.2951225215091897
            ]
        },
        {
            "positions": [
                1.0802549089519604,
                -2.0004939480042263,
                2.1446990132515316,
                0.2536540193286798,
                0.6554980589881048,
                -1.4993181921598853
            ]
        },
        {
            "positions": [
                1.0335353461635168,
                -1.9887144091982474,
                2.1756432669119214,
                0.1640987147944836,
                0.6615053366220504,
                -1.7035138628105808
            ]
        },
        {
            "positions": [
                0.9868157833750735,
                -1.9769348703922687,
                2.206587520572311,
                0.07454341026028738,
                0.6675126142559961,
                -1.9077095334612766
            ]
        },
        {
            "positions": [
                0.9400962205866301,
                -1.9651553315862897,
                2.2375317742327003,
                -0.01501189427390881,
                0.6735198918899418,
                -2.111905204111972
            ]
        },
        {
            "positions": [
                0.8933766577981865,
                -1.953375792780311,
                2.26847602789309,
                -0.10456719880810506,
                0.6795271695238874,
                -2.316100874762668
            ]
        },
        {
            "positions": [
                0.8466570950097432,
                -1.941596253974332,
                2.2994202815534797,
                -0.19412250334230124,
                0.6855344471578331,
                -2.5202965454133635
            ]
        },
        {
            "positions": [
                0.7999375322212998,
                -1.9298167151683534,
                2.330364535213869,
                -0.2836778078764975,
                0.6915417247917788,
                -2.724492216064059
            ]
        },
        {
            "positions": [
                0.7532179694328563,
                -1.9180371763623745,
                2.361308788874259,
                -0.3732331124106936,
                0.6975490024257244,
                -2.9286878867147546
            ]
        },
        {
            "positions": [
                0.7064984066444129,
                -1.9062576375563958,
                2.3922530425346484,
                -0.4627884169448899,
                0.7035562800596701,
                -3.1328835573654503
            ]
        }
    ]
}