{
    "goal": {
        "global_pose": {
            "orientation": {
                "w": 0.7047431468963623,
                "x": -0.7094548344612122,
                "y": 0.0024358443915843964,
                "z": -0.0022348060738295317
            },
            "position": {
                "x": 0.6094750761985779,
                "y": 0.3671506643295288,
                "z": 0.19426114857196808
            }
        },
        "name": "move_to_magneteinheit_A"
    },
    "id": "SBL_move_to_magneteinheit_A_38",
    "joint_names": [
        "shoulder_pan_joint",
        "shoulder_lift_joint",
        "elbow_joint",
        "wrist_1_joint",
        "wrist_2_joint",
        "wrist_3_joint"
    ],
    "metrics": {
        "cart_traj_len": 1.8751392287468445,
        "distance_elbow_joint": 3.917940202478494,
        "distance_shoulder_lift_joint": 0.7029789042003669,
        "distance_shoulder_pan_joint": 1.241485846198581,
        "distance_wrist_1_joint": 1.5203147631290992,
        "distance_wrist_2_joint": 1.6949243137271424,
        "distance_wrist_3_joint": 1.146804147589995,
        "smoothness": 5.921189492996263e-16,
        "time": 0.23150555899999997,
        "traj_len": 3.197569104385968,
        "weighted_distance": 3.966521845314848
    },
    "planner": "SBL",
    "start": {
        "state": {
            "elbow_joint": -1.919643507792019,
            "shoulder_lift_joint": -0.07675430207160344,
            "shoulder_pan_joint": -1.1188671864651873,
            "wrist_1_joint": 0.42560062535961957,
            "wrist_2_joint": 1.5706038300724876,
            "wrist_3_joint": 1.1188968870953055
        }
    },
    "waypoints": [
        {
            "positions": [
                -1.1188671864651873,
                -0.07675430207160344,
                -1.919643507792019,
                0.42560062535961957,
                1.5706038300724876,
                1.1188968870953055
            ]
        },
        {
            "positions": [
                -1.071117730842165,
                -0.10379195223315602,
                -1.7689535000043848,
                0.48407427009535414,
                1.5054144333906745,
                1.0747890352649212
            ]
        },
        {
            "positions": [
                -1.0233682752191426,
                -0.1308296023947086,
                -1.6182634922167503,
                0.5425479148310888,
                1.4402250367088612,
                1.0306811834345366
            ]
        },
        {
            "positions": [
                -0.9756188195961203,
                -0.15786725255626116,
                -1.467573484429116,
                0.6010215595668233,
                1.375035640027048,
                0.9865733316041523
            ]
        },
        {
            "positions": [
                -0.9278693639730979,
                -0.18490490271781373,
                -1.3168834766414816,
                0.6594952043025579,
                1.309846243345235,
                0.9424654797737678
            ]
        },
        {
            "positions": [
                -0.8801199083500756,
                -0.2119425528793663,
                -1.1661934688538471,
                0.7179688490382925,
                1.2446568466634218,
                0.8983576279433834
            ]
        },
        {
            "positions": [
                -0.8323704527270532,
                -0.23898020304091888,
                -1.0155034610662126,
                0.7764424937740271,
                1.1794674499816087,
                0.854249776112999
            ]
        },
        {
            "positions": [
                -0.784620997104031,
                -0.26601785320247145,
                -0.8648134532785785,
                0.8349161385097617,
                1.1142780532997953,
                0.8101419242826147
            ]
        },
        {
            "positions": [
                -0.7368715414810085,
                -0.29305550336402403,
                -0.714123445490944,
                0.8933897832454962,
                1.0490886566179822,
                0.7660340724522301
            ]
        },
        {
            "positions": [
                -0.6891220858579863,
                -0.3200931535255766,
                -0.5634334377033097,
                0.9518634279812308,
                0.9838992599361691,
                0.7219262206218457
            ]
        },
        {
            "positions": [
                -0.6413726302349638,
                -0.3471308036871292,
                -0.41274342991567514,
                1.0103370727169654,
                0.9187098632543559,
                0.6778183687914613
            ]
        },
        {
            "positions": [
                -0.5936231746119416,
                -0.37416845384868175,
                -0.26205342212804084,
                1.0688107174527,
                0.8535204665725428,
                0.6337105169610768
            ]
        },
        {
            "positions": [
                -0.5458737189889192,
                -0.4012061040102343,
                -0.11136341434040631,
                1.1272843621884345,
                0.7883310698907295,
                0.5896026651306924
            ]
        },
        {
            "positions": [
                -0.4981242633658969,
                -0.4282437541717869,
                0.039326593447228,
                1.185758006924169,
                0.7231416732089164,
                0.545494813300308
            ]
        },
        {
            "positions": [
                -0.45037480774287453,
                -0.45528140433333947,
                0.19001660123486208,
                1.2442316516599037,
                0.6579522765271033,
                0.5013869614699237
            ]
        },
        {
            "positions": [
                -0.4026253521198523,
                -0.482319054494892,
                0.3407066090224966,
                1.3027052963956383,
                0.5927628798452902,
                0.4572791096395392
            ]
        },
        {
            "positions": [
                -0.3548758964968298,
                -0.5093567046564447,
                0.49139661681013114,
                1.361178941131373,
                0.5275734831634769,
                0.41317125780915476
            ]
        },
        {
            "positions": [
                -0.30712644087380747,
                -0.5363943548179972,
                0.6420866245977657,
                1.4196525858671074,
                0.46238408648166374,
                0.3690634059787703
            ]
        },
        {
            "positions": [
                -0.25937698525078523,
                -0.5634320049795498,
                0.7927766323853997,
                1.4781262306028422,
                0.3971946897998506,
                0.32495555414838595
            ]
        },
        {
            "positions": [
                -0.21162752962776288,
                -0.5904696551411024,
                0.9434666401730343,
                1.5365998753385766,
                0.3320052931180375,
                0.2808477023180015
            ]
        },
        {
            "positions": [
                -0.16387807400474041,
                -0.617507305302655,
                1.0941566479606688,
                1.5950735200743114,
                0.26681589643622416,
                0.23673985048761703
            ]
        },
        {
            "positions": [
                -0.11612861838171806,
                -0.6445449554642075,
                1.2448466557483033,
                1.653547164810046,
                0.20162649975441105,
                0.19263199865723257
            ]
        },
        {
            "positions": [
                -0.06837916275869582,
                -0.6715826056257601,
                1.3955366635359374,
                1.7120208095457805,
                0.13643710307259793,
                0.14852414682684822
            ]
        },
        {
            "positions": [
                -0.02062970713567358,
                -0.6986202557873127,
                1.546226671323572,
                1.770494454281515,
                0.07124770639078482,
                0.10441629499646377
            ]
        },
        {
            "positions": [
                0.027119748487348883,
                -0.7256579059488653,
                1.6969166791112065,
                1.8289680990172497,
                0.006058309708971477,
                0.060308443166079195
            ]
        },
        {
            "positions": [
                0.07486920411037135,
                -0.7526955561104178,
                1.847606686898841,
                1.8874417437529842,
                -0.05913108697284164,
                0.016200591335694847
            ]
        },
        {
            "positions": [
                0.12261865973339355,
                -0.7797332062719704,
                1.998296694686475,
                1.9459153884887188,
                -0.12432048365465467,
                -0.027907260494689407
            ]
        }
    ]
}