{
    "goal": {
        "global_pose": {
            "orientation": {
                "w": 0.5084816217422485,
                "x": -0.49083608388900757,
                "y": 0.5182115435600281,
                "z": -0.4816462993621826
            },
            "position": {
                "x": 0.5540239810943604,
                "y": 0.030875300988554955,
                "z": 0.16403168439865112
            }
        },
        "name": "move_to_storage_A"
    },
    "id": "SBL_move_to_storage_A_148",
    "joint_names": [
        "shoulder_pan_joint",
        "shoulder_lift_joint",
        "elbow_joint",
        "wrist_1_joint",
        "wrist_2_joint",
        "wrist_3_joint"
    ],
    "metrics": {
        "cart_traj_len": 0.3526755510880285,
        "distance_elbow_joint": 0.45143980000133466,
        "distance_shoulder_lift_joint": 0.2319129480917388,
        "distance_shoulder_pan_joint": 0.4596094210864553,
        "distance_wrist_1_joint": 0.2588735227131086,
        "distance_wrist_2_joint": 1.1031349754462885,
        "distance_wrist_3_joint": 0.10298148878679525,
        "smoothness": 9.992007236661072e-16,
        "time": 0.28197717099999997,
        "traj_len": 1.6149155260030543,
        "weighted_distance": 2.043507678443785
    },
    "planner": "SBL",
    "start": {
        "state": {
            "elbow_joint": 1.9715463870305268,
            "shoulder_lift_joint": -1.1394903361783484,
            "shoulder_pan_joint": 0.12281147578464417,
            "wrist_1_joint": -0.7804599489681411,
            "wrist_2_joint": 0.12958660307563738,
            "wrist_3_joint": -3.1924946282119055
        }
    },
    "waypoints": [
        {
            "positions": [
                0.12281147578464417,
                -1.1394903361783484,
                1.9715463870305268,
                -0.7804599489681411,
                0.12958660307563738,
                -3.1924946282119055
            ]
        },
        {
            "positions": [
                0.0571529870580077,
                -1.172620757334311,
                2.0360377870307174,
                -0.8174418807842995,
                0.2871773138536786,
                -3.177782986956649
            ]
        },
        {
            "positions": [
                -0.008505501668628776,
                -1.2057511784902737,
                2.100529187030908,
                -0.8544238126004579,
                0.4447680246317198,
                -3.163071345701393
            ]
        },
        {
            "positions": [
                -0.07416399039526524,
                -1.2388815996462363,
                2.1650205870310986,
                -0.8914057444166161,
                0.602358735409761,
                -3.148359704446136
            ]
        },
        {
            "positions": [
                -0.1398224791219017,
                -1.2720120208021992,
                2.229511987031289,
                -0.9283876762327745,
                0.7599494461878022,
                -3.1336480631908796
            ]
        },
        {
            "positions": [
                -0.2054809678485382,
                -1.3051424419581619,
                2.29400338703148,
                -0.9653696080489329,
                0.9175401569658435,
                -3.118936421935623
            ]
        },
        {
            "positions": [
                -0.27113945657517463,
                -1.3382728631141245,
                2.358494787031671,
                -1.0023515398650913,
                1.0751308677438847,
                -3.104224780680367
            ]
        },
        {
            "positions": [
                -0.3367979453018111,
                -1.3714032842700872,
                2.4229861870318614,
                -1.0393334716812497,
                1.2327215785219259,
                -3.0895131394251103
            ]
        }
    ]
}