{
    "goal": {
        "global_pose": {
            "orientation": {
                "w": 0.7047431468963623,
                "x": -0.7094548344612122,
                "y": 0.0024358443915843964,
                "z": -0.0022348060738295317
            },
            "position": {
                "x": 0.6094750761985779,
                "y": 0.3671506643295288,
                "z": 0.19426114857196808
            }
        },
        "name": "move_to_magneteinheit_A"
    },
    "id": "SBL_move_to_magneteinheit_A_40",
    "joint_names": [
        "shoulder_pan_joint",
        "shoulder_lift_joint",
        "elbow_joint",
        "wrist_1_joint",
        "wrist_2_joint",
        "wrist_3_joint"
    ],
    "metrics": {
        "cart_traj_len": 2.04222376246629,
        "distance_elbow_joint": 3.9054545645403973,
        "distance_shoulder_lift_joint": 1.14160416247281,
        "distance_shoulder_pan_joint": 1.2416006528225707,
        "distance_wrist_1_joint": 1.357864483311491,
        "distance_wrist_2_joint": 1.4436346302331895,
        "distance_wrist_3_joint": 4.250291262307563,
        "smoothness": 0.09272835979855618,
        "time": 0.31072453099999997,
        "traj_len": 3.6524580429743505,
        "weighted_distance": 4.964124433759475
    },
    "planner": "SBL",
    "start": {
        "state": {
            "elbow_joint": -1.919643507792019,
            "shoulder_lift_joint": -0.07675430207160344,
            "shoulder_pan_joint": -1.1188671864651873,
            "wrist_1_joint": 0.42560062535961957,
            "wrist_2_joint": 1.5706038300724876,
            "wrist_3_joint": 1.1188968870953055
        }
    },
    "waypoints": [
        {
            "positions": [
                -1.1188671864651873,
                -0.07675430207160344,
                -1.919643507792019,
                0.42560062535961957,
                1.5706038300724876,
                1.1188968870953055
            ]
        },
        {
            "positions": [
                -1.0814395144558813,
                -0.1113347412348749,
                -1.8119348295592133,
                0.38447974529510603,
                1.5276015582955842,
                0.9895678871287805
            ]
        },
        {
            "positions": [
                -1.0440118424465752,
                -0.14591518039814635,
                -1.7042261513264076,
                0.34335886523059256,
                1.4845992865186808,
                0.8602388871622555
            ]
        },
        {
            "positions": [
                -1.0065841704372693,
                -0.1804956195614178,
                -1.596517473093602,
                0.302237985166079,
                1.4415970147417774,
                0.7309098871957305
            ]
        },
        {
            "positions": [
                -0.9691564984279633,
                -0.21507605872468927,
                -1.4888087948607962,
                0.2611171051015655,
                1.3985947429648742,
                0.6015808872292054
            ]
        },
        {
            "positions": [
                -0.9317288264186572,
                -0.24965649788796074,
                -1.3811001166279904,
                0.21999622503705196,
                1.3555924711879708,
                0.4722518872626804
            ]
        },
        {
            "positions": [
                -0.8943011544093511,
                -0.2842369370512322,
                -1.2733914383951848,
                0.17887534497253846,
                1.3125901994110674,
                0.3429228872961554
            ]
        },
        {
            "positions": [
                -0.856873482400045,
                -0.3188173762145036,
                -1.1656827601623792,
                0.13775446490802495,
                1.269587927634164,
                0.21359388732963036
            ]
        },
        {
            "positions": [
                -0.819445810390739,
                -0.3533978153777751,
                -1.0579740819295733,
                0.09663358484351142,
                1.2265856558572605,
                0.08426488736310533
            ]
        },
        {
            "positions": [
                -0.7820181383814331,
                -0.38797825454104656,
                -0.9502654036967676,
                0.05551270477899789,
                1.1835833840803573,
                -0.04506411260341969
            ]
        },
        {
            "positions": [
                -0.744590466372127,
                -0.42255869370431803,
                -0.8425567254639619,
                0.014391824714484358,
                1.140581112303454,
                -0.17439311256994472
            ]
        },
        {
            "positions": [
                -0.7071627943628209,
                -0.45713913286758945,
                -0.734848047231156,
                -0.02672905535002912,
                1.0975788405265505,
                -0.30372211253646975
            ]
        },
        {
            "positions": [
                -0.6697351223535148,
                -0.4917195720308609,
                -0.6271393689983504,
                -0.06784993541454265,
                1.0545765687496471,
                -0.4330511125029948
            ]
        },
        {
            "positions": [
                -0.6323074503442089,
                -0.5263000111941324,
                -0.5194306907655448,
                -0.10897081547905613,
                1.0115742969727437,
                -0.5623801124695198
            ]
        },
        {
            "positions": [
                -0.5948797783349028,
                -0.5608804503574039,
                -0.411722012532739,
                -0.15009169554356966,
                0.9685720251958404,
                -0.6917091124360448
            ]
        },
        {
            "positions": [
                -0.5574521063255968,
                -0.5954608895206752,
                -0.30401333429993316,
                -0.1912125756080832,
                0.9255697534189371,
                -0.8210381124025699
            ]
        },
        {
            "positions": [
                -0.5200244343162908,
                -0.6300413286839468,
                -0.19630465606712755,
                -0.23233345567259672,
                0.8825674816420337,
                -0.9503671123690949
            ]
        },
        {
            "positions": [
                -0.4825967623069847,
                -0.6646217678472182,
                -0.08859597783432194,
                -0.27345433573711025,
                0.8395652098651303,
                -1.0796961123356197
            ]
        },
        {
            "positions": [
                -0.4451690902976787,
                -0.6992022070104897,
                0.019112700398483895,
                -0.3145752158016238,
                0.796562938088227,
                -1.209025112302145
            ]
        },
        {
            "positions": [
                -0.4077414182883726,
                -0.7337826461737611,
                0.12682137863128973,
                -0.3556960958661373,
                0.7535606663113236,
                -1.3383541122686702
            ]
        },
        {
            "positions": [
                -0.37031374627906666,
                -0.7683630853370327,
                0.23453005686409534,
                -0.39681697593065085,
                0.7105583945344203,
                -1.467683112235195
            ]
        },
        {
            "positions": [
                -0.3328860742697606,
                -0.802943524500304,
                0.34223873509690095,
                -0.43793785599516427,
                0.6675561227575169,
                -1.5970121122017198
            ]
        },
        {
            "positions": [
                -0.2954584022604545,
                -0.8375239636635754,
                0.449947413329707,
                -0.4790587360596778,
                0.6245538509806134,
                -1.726341112168245
            ]
        },
        {
            "positions": [
                -0.25803073025114853,
                -0.872104402826847,
                0.5576560915625126,
                -0.5201796161241914,
                0.5815515792037101,
                -1.8556701121347703
            ]
        },
        {
            "positions": [
                -0.22060305824184245,
                -0.9066848419901183,
                0.6653647697953182,
                -0.5613004961887049,
                0.5385493074268066,
                -1.984999112101295
            ]
        },
        {
            "positions": [
                -0.18317538623253637,
                -0.9412652811533899,
                0.7730734480281238,
                -0.6024213762532182,
                0.49554703564990343,
                -2.11432811206782
            ]
        },
        {
            "positions": [
                -0.1457477142232304,
                -0.9758457203166613,
                0.8807821262609294,
                -0.6435422563177318,
                0.452544763873,
                -2.243657112034345
            ]
        },
        {
            "positions": [
                -0.10832004221392433,
                -1.0104261594799329,
                0.9884908044937355,
                -0.6846631363822453,
                0.4095424920960966,
                -2.3729861120008704
            ]
        },
        {
            "positions": [
                -0.07089237020461825,
                -1.0450065986432042,
                1.096199482726541,
                -0.7257840164467588,
                0.3665402203191932,
                -2.502315111967395
            ]
        },
        {
            "positions": [
                -0.03346469819531217,
                -1.0795870378064758,
                1.2039081609593467,
                -0.7669048965112724,
                0.3235379485422898,
                -2.63164411193392
            ]
        },
        {
            "positions": [
                0.0039629738139936865,
                -1.1141674769697472,
                1.3116168391921528,
                -0.8080257765757859,
                0.2805356767653866,
                -2.7609731119004453
            ]
        },
        {
            "positions": [
                0.041390645823299765,
                -1.1487479161330187,
                1.4193255174249584,
                -0.8491466566402994,
                0.2375334049884832,
                -2.8903021118669705
            ]
        },
        {
            "positions": [
                0.07881831783260579,
                -1.18332835529629,
                1.5270341956577638,
                -0.8902675367048131,
                0.1945311332115799,
                -3.0196311118334958
            ]
        },
        {
            "positions": [
                0.1007758920949946,
                -1.1658133006722284,
                1.7564226262030707,
                -0.8692693760812837,
                0.160750166525439,
                -3.0755127435228764
            ]
        },
        {
            "positions": [
                0.12273346635738341,
                -1.1482982460481668,
                1.9858110567483775,
                -0.8482712154577545,
                0.12696919983929808,
                -3.131394375212257
            ]
        }
    ]
}