{
    "goal": {
        "global_pose": {
            "orientation": {
                "w": 0.7047431468963623,
                "x": -0.7094548344612122,
                "y": 0.0024358443915843964,
                "z": -0.0022348060738295317
            },
            "position": {
                "x": 0.6094750761985779,
                "y": 0.3671506643295288,
                "z": 0.19426114857196808
            }
        },
        "name": "move_to_magneteinheit_A"
    },
    "id": "SBL_move_to_magneteinheit_A_65",
    "joint_names": [
        "shoulder_pan_joint",
        "shoulder_lift_joint",
        "elbow_joint",
        "wrist_1_joint",
        "wrist_2_joint",
        "wrist_3_joint"
    ],
    "metrics": {
        "cart_traj_len": 1.9248124498049743,
        "distance_elbow_joint": 3.896813003145321,
        "distance_shoulder_lift_joint": 1.8956002881605036,
        "distance_shoulder_pan_joint": 1.241435540688424,
        "distance_wrist_1_joint": 1.625736735621933,
        "distance_wrist_2_joint": 1.4454156192306205,
        "distance_wrist_3_joint": 4.274039720712658,
        "smoothness": 0.16897378299351548,
        "time": 0.299505214,
        "traj_len": 3.7919705836885726,
        "weighted_distance": 5.09885013545577
    },
    "planner": "SBL",
    "start": {
        "state": {
            "elbow_joint": -1.919643507792019,
            "shoulder_lift_joint": -0.07675430207160344,
            "shoulder_pan_joint": -1.1188671864651873,
            "wrist_1_joint": 0.42560062535961957,
            "wrist_2_joint": 1.5706038300724876,
            "wrist_3_joint": 1.1188968870953055
        }
    },
    "waypoints": [
        {
            "positions": [
                -1.1188671864651873,
                -0.07675430207160344,
                -1.919643507792019,
                0.42560062535961957,
                1.5706038300724876,
                1.1188968870953055
            ]
        },
        {
            "positions": [
                -1.0995675756753196,
                -0.12609839419461027,
                -1.8045879817051003,
                0.3778498685767461,
                1.528963417487009,
                1.0075043622638993
            ]
        },
        {
            "positions": [
                -1.0802679648854516,
                -0.17544248631761708,
                -1.6895324556181812,
                0.3300991117938726,
                1.4873230049015307,
                0.8961118374324928
            ]
        },
        {
            "positions": [
                -1.0609683540955839,
                -0.2247865784406239,
                -1.5744769295312624,
                0.2823483550109991,
                1.4456825923160521,
                0.7847193126010863
            ]
        },
        {
            "positions": [
                -1.0416687433057161,
                -0.2741306705636307,
                -1.4594214034443436,
                0.2345975982281256,
                1.4040421797305738,
                0.67332678776968
            ]
        },
        {
            "positions": [
                -1.0223691325158482,
                -0.32347476268663755,
                -1.3443658773574247,
                0.1868468414452521,
                1.3624017671450952,
                0.5619342629382736
            ]
        },
        {
            "positions": [
                -1.0030695217259804,
                -0.3728188548096444,
                -1.2293103512705057,
                0.13909608466237855,
                1.3207613545596169,
                0.45054173810686715
            ]
        },
        {
            "positions": [
                -0.9837699109361127,
                -0.42216294693265116,
                -1.1142548251835869,
                0.09134532787950506,
                1.2791209419741383,
                0.33914921327546077
            ]
        },
        {
            "positions": [
                -0.9644703001462448,
                -0.471507039055658,
                -0.999199299096668,
                0.04359457109663162,
                1.2374805293886597,
                0.2277566884440545
            ]
        },
        {
            "positions": [
                -0.9451706893563769,
                -0.5208511311786648,
                -0.8841437730097492,
                -0.0041561856862418756,
                1.1958401168031814,
                0.11636416361264801
            ]
        },
        {
            "positions": [
                -0.9258710785665092,
                -0.5701952233016716,
                -0.7690882469228304,
                -0.05190694246911537,
                1.154199704217703,
                0.004971638781241738
            ]
        },
        {
            "positions": [
                -0.9065714677766413,
                -0.6195393154246784,
                -0.6540327208359114,
                -0.09965769925198892,
                1.1125592916322244,
                -0.10642088605016453
            ]
        },
        {
            "positions": [
                -0.8872718569867735,
                -0.6688834075476853,
                -0.5389771947489923,
                -0.14740845603486247,
                1.0709188790467459,
                -0.21781341088157125
            ]
        },
        {
            "positions": [
                -0.8679722461969057,
                -0.7182274996706921,
                -0.4239216686620735,
                -0.1951592128177359,
                1.0292784664612675,
                -0.3292059357129775
            ]
        },
        {
            "positions": [
                -0.8486726354070379,
                -0.7675715917936989,
                -0.30886614257515466,
                -0.24290996960060945,
                0.987638053875789,
                -0.440598460544384
            ]
        },
        {
            "positions": [
                -0.82937302461717,
                -0.8169156839167058,
                -0.19381061648823583,
                -0.2906607263834829,
                0.9459976412903105,
                -0.5519909853757903
            ]
        },
        {
            "positions": [
                -0.8100734138273022,
                -0.8662597760397126,
                -0.07875509040131701,
                -0.33841148316635633,
                0.904357228704832,
                -0.6633835102071965
            ]
        },
        {
            "positions": [
                -0.7907738030374345,
                -0.9156038681627194,
                0.03630043568560182,
                -0.3861622399492299,
                0.8627168161193536,
                -0.774776035038603
            ]
        },
        {
            "positions": [
                -0.7714741922475665,
                -0.964947960285726,
                0.15135596177252064,
                -0.4339129967321033,
                0.8210764035338751,
                -0.8861685598700095
            ]
        },
        {
            "positions": [
                -0.7521745814576988,
                -1.0142920524087329,
                0.26641148785943947,
                -0.48166375351497687,
                0.7794359909483967,
                -0.9975610847014158
            ]
        },
        {
            "positions": [
                -0.732874970667831,
                -1.0636361445317397,
                0.3814670139463583,
                -0.5294145102978502,
                0.7377955783629182,
                -1.108953609532822
            ]
        },
        {
            "positions": [
                -0.7135753598779632,
                -1.1129802366547465,
                0.4965225400332771,
                -0.5771652670807237,
                0.6961551657774397,
                -1.2203461343642283
            ]
        },
        {
            "positions": [
                -0.6942757490880953,
                -1.1623243287777534,
                0.6115780661201964,
                -0.6249160238635973,
                0.6545147531919613,
                -1.3317386591956346
            ]
        },
        {
            "positions": [
                -0.6749761382982274,
                -1.2116684209007604,
                0.7266335922071152,
                -0.6726667806464708,
                0.6128743406064826,
                -1.4431311840270418
            ]
        },
        {
            "positions": [
                -0.6556765275083596,
                -1.2610125130237673,
                0.8416891182940345,
                -0.7204175374293444,
                0.5712339280210041,
                -1.554523708858448
            ]
        },
        {
            "positions": [
                -0.6363769167184918,
                -1.310356605146774,
                0.9567446443809533,
                -0.7681682942122179,
                0.5295935154355258,
                -1.6659162336898543
            ]
        },
        {
            "positions": [
                -0.617077305928624,
                -1.3597006972697807,
                1.0718001704678721,
                -0.8159190509950913,
                0.4879531028500472,
                -1.7773087585212606
            ]
        },
        {
            "positions": [
                -0.5977776951387562,
                -1.4090447893927875,
                1.186855696554791,
                -0.8636698077779648,
                0.4463126902645689,
                -1.8887012833526668
            ]
        },
        {
            "positions": [
                -0.5784780843488884,
                -1.4583888815157944,
                1.3019112226417098,
                -0.9114205645608384,
                0.4046722776790903,
                -2.0000938081840736
            ]
        },
        {
            "positions": [
                -0.5591784735590206,
                -1.5077329736388012,
                1.4169667487286286,
                -0.9591713213437119,
                0.36303186509361196,
                -2.11148633301548
            ]
        },
        {
            "positions": [
                -0.5398788627691528,
                -1.557077065761808,
                1.5320222748155472,
                -1.0069220781265853,
                0.3213914525081334,
                -2.222878857846886
            ]
        },
        {
            "positions": [
                -0.45707296064510405,
                -1.5051673752030206,
                1.5876656773827664,
                -0.9827703241096193,
                0.29686604729985,
                -2.339411854818194
            ]
        },
        {
            "positions": [
                -0.37426705852105535,
                -1.4532576846442333,
                1.6433090799499857,
                -0.9586185700926532,
                0.27234064209156666,
                -2.4559448517895026
            ]
        },
        {
            "positions": [
                -0.2914611563970066,
                -1.4013479940854459,
                1.6989524825172049,
                -0.934466816075687,
                0.2478152368832833,
                -2.572477848760811
            ]
        },
        {
            "positions": [
                -0.2086552542729579,
                -1.3494383035266586,
                1.754595885084424,
                -0.910315062058721,
                0.22328983167499994,
                -2.689010845732119
            ]
        },
        {
            "positions": [
                -0.1258493521489092,
                -1.2975286129678711,
                1.810239287651643,
                -0.886163308041755,
                0.19876442646671658,
                -2.805543842703427
            ]
        },
        {
            "positions": [
                -0.04304345002486043,
                -1.2456189224090837,
                1.8658826902188623,
                -0.8620115540247889,
                0.1742390212584332,
                -2.9220768396747356
            ]
        },
        {
            "positions": [
                0.03976245209918827,
                -1.1937092318502964,
                1.9215260927860816,
                -0.8378598000078228,
                0.14971361605014985,
                -3.038609836646044
            ]
        },
        {
            "positions": [
                0.12256835422323693,
                -1.141799541291509,
                1.9771694953533008,
                -0.8137080459908568,
                0.1251882108418665,
                -3.155142833617352
            ]
        }
    ]
}