{
    "goal": {
        "global_pose": {
            "orientation": {
                "w": 0.5084816217422485,
                "x": -0.49083608388900757,
                "y": 0.5182115435600281,
                "z": -0.4816462993621826
            },
            "position": {
                "x": 0.5540239810943604,
                "y": 0.030875300988554955,
                "z": 0.16403168439865112
            }
        },
        "name": "move_to_storage_A"
    },
    "id": "SBL_move_to_storage_A_135",
    "joint_names": [
        "shoulder_pan_joint",
        "shoulder_lift_joint",
        "elbow_joint",
        "wrist_1_joint",
        "wrist_2_joint",
        "wrist_3_joint"
    ],
    "metrics": {
        "cart_traj_len": 0.352861125345909,
        "distance_elbow_joint": 0.4535312403495242,
        "distance_shoulder_lift_joint": 0.23304516354555993,
        "distance_shoulder_pan_joint": 0.4629584516143675,
        "distance_wrist_1_joint": 0.25618217991988834,
        "distance_wrist_2_joint": 1.0918000402918067,
        "distance_wrist_3_joint": 0.10557961550117012,
        "smoothness": 1.3322676295501878e-15,
        "time": 0.15721568600000002,
        "traj_len": 1.6134115070936852,
        "weighted_distance": 2.040156401464445
    },
    "planner": "SBL",
    "start": {
        "state": {
            "elbow_joint": 1.9715463870305268,
            "shoulder_lift_joint": -1.1394903361783484,
            "shoulder_pan_joint": 0.12281147578464417,
            "wrist_1_joint": -0.7804599489681411,
            "wrist_2_joint": 0.12958660307563738,
            "wrist_3_joint": -3.1924946282119055
        }
    },
    "waypoints": [
        {
            "positions": [
                0.12281147578464417,
                -1.1394903361783484,
                1.9715463870305268,
                -0.7804599489681411,
                0.12958660307563738,
                -3.1924946282119055
            ]
        },
        {
            "positions": [
                0.05667455412544882,
                -1.1727825023991427,
                2.036336564223316,
                -0.8170574032424108,
                0.2855580374030383,
                -3.177411825997453
            ]
        },
        {
            "positions": [
                -0.009462367533746532,
                -1.2060746686199368,
                2.1011267414161052,
                -0.8536548575166806,
                0.4415294717304392,
                -3.1623290237829997
            ]
        },
        {
            "positions": [
                -0.07559928919294188,
                -1.2393668348407312,
                2.1659169186088945,
                -0.8902523117909503,
                0.5975009060578402,
                -3.147246221568547
            ]
        },
        {
            "positions": [
                -0.14173621085213722,
                -1.2726590010615255,
                2.2307070958016832,
                -0.9268497660652202,
                0.7534723403852411,
                -3.132163419354094
            ]
        },
        {
            "positions": [
                -0.2078731325113326,
                -1.3059511672823199,
                2.2954972729944725,
                -0.9634472203394899,
                0.9094437747126422,
                -3.1170806171396412
            ]
        },
        {
            "positions": [
                -0.27401005417052793,
                -1.339243333503114,
                2.3602874501872617,
                -1.0000446746137597,
                1.065415209040043,
                -3.101997814925188
            ]
        },
        {
            "positions": [
                -0.3401469758297233,
                -1.3725354997239083,
                2.425077627380051,
                -1.0366421288880294,
                1.221386643367444,
                -3.0869150127107354
            ]
        }
    ]
}