{
    "goal": {
        "global_pose": {
            "orientation": {
                "w": 0.7031023502349854,
                "x": -0.7110244035720825,
                "y": 0.007748599164187908,
                "z": 0.005598929710686207
            },
            "position": {
                "x": 0.11585023208521307,
                "y": 0.44412534475326537,
                "z": 0.3711530566215515
            }
        },
        "name": "move_to_auspresseinheit_A"
    },
    "id": "SBL_move_to_auspresseinheit_A_12",
    "joint_names": [
        "shoulder_pan_joint",
        "shoulder_lift_joint",
        "elbow_joint",
        "wrist_1_joint",
        "wrist_2_joint",
        "wrist_3_joint"
    ],
    "metrics": {
        "cart_traj_len": 1.0679467389067054,
        "distance_elbow_joint": 0.49800399969514375,
        "distance_shoulder_lift_joint": 1.1530372567184577,
        "distance_shoulder_pan_joint": 1.0422800617263115,
        "distance_wrist_1_joint": 3.201285047750664,
        "distance_wrist_2_joint": 2.139457595929008,
        "distance_wrist_3_joint": 3.3571754018129676,
        "smoothness": 0.9522310567511479,
        "time": 0.342846235,
        "traj_len": 3.3750910156072167,
        "weighted_distance": 4.84214134561747
    },
    "planner": "SBL",
    "start": {
        "state": {
            "elbow_joint": 2.422574709923281,
            "shoulder_lift_joint": -1.3736533754116391,
            "shoulder_pan_joint": -0.33786336945926293,
            "wrist_1_joint": -1.0288603412921917,
            "wrist_2_joint": 1.2330224858903978,
            "wrist_3_joint": -3.094022268022082
        }
    },
    "waypoints": [
        {
            "positions": [
                -0.33786336945926293,
                -1.3736533754116391,
                2.422574709923281,
                -1.0288603412921917,
                1.2330224858903978,
                -3.094022268022082
            ]
        },
        {
            "positions": [
                -0.3105114328879998,
                -1.4232606216478507,
                2.407007235154842,
                -0.9177688407236554,
                1.1546084512758379,
                -2.9967541370892725
            ]
        },
        {
            "positions": [
                -0.2831594963167367,
                -1.4728678678840623,
                2.3914397603864033,
                -0.806677340155119,
                1.0761944166612782,
                -2.8994860061564633
            ]
        },
        {
            "positions": [
                -0.2558075597454736,
                -1.522475114120274,
                2.375872285617964,
                -0.6955858395865828,
                0.9977803820467184,
                -2.8022178752236537
            ]
        },
        {
            "positions": [
                -0.22845562317421048,
                -1.5720823603564855,
                2.3603048108495255,
                -0.5844943390180465,
                0.9193663474321586,
                -2.704949744290844
            ]
        },
        {
            "positions": [
                -0.20110368660294736,
                -1.6216896065926971,
                2.3447373360810864,
                -0.47340283844951014,
                0.8409523128175989,
                -2.6076816133580345
            ]
        },
        {
            "positions": [
                -0.17375175003168425,
                -1.6712968528289087,
                2.3291698613126472,
                -0.3623113378809738,
                0.762538278203039,
                -2.510413482425225
            ]
        },
        {
            "positions": [
                -0.14639981346042116,
                -1.72090409906512,
                2.3136023865442086,
                -0.2512198373124376,
                0.6841242435884792,
                -2.4131453514924157
            ]
        },
        {
            "positions": [
                -0.11904787688915805,
                -1.770511345301332,
                2.2980349117757695,
                -0.14012833674390124,
                0.6057102089739195,
                -2.315877220559606
            ]
        },
        {
            "positions": [
                -0.09169594031789494,
                -1.8201185915375433,
                2.282467437007331,
                -0.02903683617536479,
                0.5272961743593596,
                -2.2186090896267965
            ]
        },
        {
            "positions": [
                -0.0643440037466318,
                -1.8697258377737551,
                2.2668999622388917,
                0.08205466439317144,
                0.44888213974479985,
                -2.1213409586939873
            ]
        },
        {
            "positions": [
                -0.03699206717536868,
                -1.9193330840099665,
                2.251332487470453,
                0.1931461649617079,
                0.37046810513024,
                -2.0240728277611777
            ]
        },
        {
            "positions": [
                -0.009640130604105568,
                -1.9689403302461783,
                2.235765012702014,
                0.3042376655302441,
                0.2920540705156802,
                -1.926804696828368
            ]
        },
        {
            "positions": [
                0.01771180596715749,
                -2.0185475764823897,
                2.2201975379335748,
                0.41532916609878034,
                0.21364003590112057,
                -1.8295365658955587
            ]
        },
        {
            "positions": [
                0.045063742538420604,
                -2.0681548227186015,
                2.204630063165136,
                0.5264206666673166,
                0.1352260012865607,
                -1.7322684349627493
            ]
        },
        {
            "positions": [
                0.07241567910968372,
                -2.117762068954813,
                2.189062588396697,
                0.637512167235853,
                0.056811966672000835,
                -1.6350003040299397
            ]
        },
        {
            "positions": [
                0.09976761568094683,
                -2.1673693151910243,
                2.1734951136282583,
                0.7486036678043893,
                -0.02160206794255881,
                -1.5377321730971303
            ]
        },
        {
            "positions": [
                0.12711955225220994,
                -2.216976561427236,
                2.157927638859819,
                0.8596951683729258,
                -0.10001610255711878,
                -1.4404640421643207
            ]
        },
        {
            "positions": [
                0.17152702456104368,
                -2.1931524021424007,
                2.1758781718314872,
                0.758715973135576,
                -0.03798387121238867,
                -1.571511517237798
            ]
        },
        {
            "positions": [
                0.21593449686987742,
                -2.1693282428575653,
                2.193828704803155,
                0.6577367778982264,
                0.024048360132341434,
                -1.7025589923112756
            ]
        },
        {
            "positions": [
                0.2603419691787111,
                -2.14550408357273,
                2.211779237774823,
                0.5567575826608766,
                0.08608059147707155,
                -1.833606467384753
            ]
        },
        {
            "positions": [
                0.3047494414875449,
                -2.1216799242878945,
                2.2297297707464905,
                0.45577838742352683,
                0.14811282282180166,
                -1.9646539424582303
            ]
        },
        {
            "positions": [
                0.3491569137963786,
                -2.0978557650030587,
                2.2476803037181585,
                0.35479919218617706,
                0.21014505416653173,
                -2.095701417531708
            ]
        },
        {
            "positions": [
                0.3935643861052123,
                -2.0740316057182233,
                2.265630836689826,
                0.2538199969488274,
                0.27217728551126186,
                -2.226748892605185
            ]
        },
        {
            "positions": [
                0.437971858414046,
                -2.050207446433388,
                2.283581369661494,
                0.15284080171147763,
                0.3342095168559919,
                -2.3577963676786626
            ]
        },
        {
            "positions": [
                0.4823793307228798,
                -2.0263832871485525,
                2.3015319026331618,
                0.05186160647412785,
                0.39624174820072205,
                -2.48884384275214
            ]
        },
        {
            "positions": [
                0.5267868030317135,
                -2.002559127863717,
                2.31948243560483,
                -0.04911758876322181,
                0.4582739795454521,
                -2.6198913178256173
            ]
        },
        {
            "positions": [
                0.5711942753405472,
                -1.9787349685788818,
                2.3374329685764974,
                -0.1500967840005717,
                0.5203062108901823,
                -2.750938792899095
            ]
        },
        {
            "positions": [
                0.6156017476493809,
                -1.9549108092940464,
                2.3553835015481654,
                -0.25107597923792124,
                0.5823384422349123,
                -2.8819862679725725
            ]
        },
        {
            "positions": [
                0.6600092199582147,
                -1.9310866500092108,
                2.373334034519833,
                -0.352055174475271,
                0.6443706735796425,
                -3.0130337430460497
            ]
        },
        {
            "positions": [
                0.7044166922670484,
                -1.9072624907243754,
                2.391284567491501,
                -0.45303436971262084,
                0.7064029049243725,
                -3.1440812181195272
            ]
        }
    ]
}