{
    "goal": {
        "global_pose": {
            "orientation": {
                "w": 0.7047431468963623,
                "x": -0.7094548344612122,
                "y": 0.0024358443915843964,
                "z": -0.0022348060738295317
            },
            "position": {
                "x": 0.6094750761985779,
                "y": 0.3671506643295288,
                "z": 0.19426114857196808
            }
        },
        "name": "move_to_magneteinheit_A"
    },
    "id": "SBL_move_to_magneteinheit_A_67",
    "joint_names": [
        "shoulder_pan_joint",
        "shoulder_lift_joint",
        "elbow_joint",
        "wrist_1_joint",
        "wrist_2_joint",
        "wrist_3_joint"
    ],
    "metrics": {
        "cart_traj_len": 1.8939302764345582,
        "distance_elbow_joint": 3.9063821913585492,
        "distance_shoulder_lift_joint": 1.7730597349036479,
        "distance_shoulder_pan_joint": 1.2409583882324169,
        "distance_wrist_1_joint": 2.638721664246905,
        "distance_wrist_2_joint": 3.197263146646064,
        "distance_wrist_3_joint": 4.2388330956790705,
        "smoothness": 0.23058632706440335,
        "time": 0.311091813,
        "traj_len": 4.122525708963701,
        "weighted_distance": 5.595432889716196
    },
    "planner": "SBL",
    "start": {
        "state": {
            "elbow_joint": -1.919643507792019,
            "shoulder_lift_joint": -0.07675430207160344,
            "shoulder_pan_joint": -1.1188671864651873,
            "wrist_1_joint": 0.42560062535961957,
            "wrist_2_joint": 1.5706038300724876,
            "wrist_3_joint": 1.1188968870953055
        }
    },
    "waypoints": [
        {
            "positions": [
                -1.1188671864651873,
                -0.07675430207160344,
                -1.919643507792019,
                0.42560062535961957,
                1.5706038300724876,
                1.1188968870953055
            ]
        },
        {
            "positions": [
                -1.0997146832008156,
                -0.12754168429555102,
                -1.7975740050806406,
                0.3554694225474037,
                1.4876203552026934,
                1.0787636707578754
            ]
        },
        {
            "positions": [
                -1.0805621799364438,
                -0.1783290665194986,
                -1.6755045023692623,
                0.2853382197351878,
                1.4046368803328992,
                1.0386304544204452
            ]
        },
        {
            "positions": [
                -1.061409676672072,
                -0.2291164487434462,
                -1.5534349996578838,
                0.21520701692297195,
                1.3216534054631048,
                0.9984972380830149
            ]
        },
        {
            "positions": [
                -1.0422571734077002,
                -0.2799038309673938,
                -1.4313654969465053,
                0.1450758141107561,
                1.2386699305933107,
                0.9583640217455847
            ]
        },
        {
            "positions": [
                -1.0231046701433284,
                -0.33069121319134137,
                -1.3092959942351268,
                0.07494461129854019,
                1.1556864557235165,
                0.9182308054081545
            ]
        },
        {
            "positions": [
                -1.0039521668789566,
                -0.38147859541528895,
                -1.1872264915237485,
                0.004813408486324333,
                1.0727029808537223,
                0.8780975890707243
            ]
        },
        {
            "positions": [
                -0.9847996636145848,
                -0.4322659776392365,
                -1.06515698881237,
                -0.06531779432589158,
                0.989719505983928,
                0.837964372733294
            ]
        },
        {
            "positions": [
                -0.965647160350213,
                -0.4830533598631841,
                -0.9430874861009916,
                -0.13544899713810737,
                0.9067360311141338,
                0.7978311563958638
            ]
        },
        {
            "positions": [
                -0.9464946570858412,
                -0.5338407420871317,
                -0.821017983389613,
                -0.20558019995032334,
                0.8237525562443395,
                0.7576979400584336
            ]
        },
        {
            "positions": [
                -0.9273421538214695,
                -0.5846281243110794,
                -0.6989484806782347,
                -0.2757114027625392,
                0.7407690813745453,
                0.7175647237210034
            ]
        },
        {
            "positions": [
                -0.9081896505570977,
                -0.6354155065350269,
                -0.5768789779668562,
                -0.34584260557475505,
                0.657785606504751,
                0.6774315073835733
            ]
        },
        {
            "positions": [
                -0.8890371472927259,
                -0.6862028887589744,
                -0.4548094752554779,
                -0.4159738083869709,
                0.5748021316349569,
                0.637298291046143
            ]
        },
        {
            "positions": [
                -0.8698846440283541,
                -0.7369902709829221,
                -0.33273997254409915,
                -0.48610501119918686,
                0.49181865676516257,
                0.5971650747087127
            ]
        },
        {
            "positions": [
                -0.8507321407639823,
                -0.7877776532068697,
                -0.21067046983272086,
                -0.5562362140114028,
                0.4088351818953684,
                0.5570318583712826
            ]
        },
        {
            "positions": [
                -0.8315796374996105,
                -0.8385650354308172,
                -0.08860096712134258,
                -0.6263674168236184,
                0.3258517070255742,
                0.5168986420338524
            ]
        },
        {
            "positions": [
                -0.8124271342352387,
                -0.8893524176547647,
                0.03346853559003593,
                -0.6964986196358343,
                0.24286823215578002,
                0.4767654256964221
            ]
        },
        {
            "positions": [
                -0.7932746309708669,
                -0.9401397998787122,
                0.15553803830141422,
                -0.7666298224480501,
                0.15988475728598583,
                0.43663220935899194
            ]
        },
        {
            "positions": [
                -0.7741221277064951,
                -0.99092718210266,
                0.27760754101279317,
                -0.8367610252602662,
                0.07690128241619143,
                0.39649899302156166
            ]
        },
        {
            "positions": [
                -0.7549696244421233,
                -1.0417145643266075,
                0.3996770437241717,
                -0.906892228072482,
                -0.006082192453602753,
                0.3563657766841315
            ]
        },
        {
            "positions": [
                -0.7358171211777516,
                -1.0925019465505552,
                0.5217465464355497,
                -0.9770234308846979,
                -0.08906566732339694,
                0.3162325603467012
            ]
        },
        {
            "positions": [
                -0.7166646179133798,
                -1.1432893287745027,
                0.6438160491469282,
                -1.0471546336969138,
                -0.17204914219319112,
                0.27609934400927105
            ]
        },
        {
            "positions": [
                -0.697512114649008,
                -1.1940767109984503,
                0.7658855518583068,
                -1.1172858365091296,
                -0.2550326170629855,
                0.2359661276718409
            ]
        },
        {
            "positions": [
                -0.6783596113846362,
                -1.2448640932223978,
                0.8879550545696848,
                -1.1874170393213455,
                -0.3380160919327797,
                0.1958329113344106
            ]
        },
        {
            "positions": [
                -0.6592071081202644,
                -1.2956514754463455,
                1.0100245572810633,
                -1.2575482421335613,
                -0.4209995668025739,
                0.15569969499698044
            ]
        },
        {
            "positions": [
                -0.6400546048558926,
                -1.346438857670293,
                1.1320940599924423,
                -1.3276794449457774,
                -0.5039830416723683,
                0.11556647865955005
            ]
        },
        {
            "positions": [
                -0.6209021015915208,
                -1.3972262398942408,
                1.2541635627038208,
                -1.3978106477579932,
                -0.5869665165421625,
                0.07543326232211989
            ]
        },
        {
            "positions": [
                -0.601749598327149,
                -1.4480136221181883,
                1.3762330654151989,
                -1.467941850570209,
                -0.6699499914119567,
                0.03530004598468972
            ]
        },
        {
            "positions": [
                -0.5825970950627772,
                -1.4988010043421358,
                1.4983025681265774,
                -1.538073053382425,
                -0.7529334662817507,
                -0.004833170352740335
            ]
        },
        {
            "positions": [
                -0.5385540765109018,
                -1.476862689802566,
                1.5288298253415746,
                -1.4958825542883714,
                -0.6983256006385117,
                -0.19952711024217937
            ]
        },
        {
            "positions": [
                -0.49451105795902645,
                -1.4549243752629963,
                1.5593570825565717,
                -1.4536920551943178,
                -0.6437177349952727,
                -0.3942210501316184
            ]
        },
        {
            "positions": [
                -0.4504680394071511,
                -1.4329860607234266,
                1.5898843397715687,
                -1.4115015561002642,
                -0.5891098693520337,
                -0.5889149900210574
            ]
        },
        {
            "positions": [
                -0.40642502085527565,
                -1.4110477461838569,
                1.620411596986566,
                -1.3693110570062106,
                -0.5345020037087946,
                -0.7836089299104965
            ]
        },
        {
            "positions": [
                -0.36238200230340023,
                -1.3891094316442871,
                1.6509388542015633,
                -1.327120557912157,
                -0.47989413806555564,
                -0.9783028697999355
            ]
        },
        {
            "positions": [
                -0.31833898375152486,
                -1.3671711171047174,
                1.6814661114165603,
                -1.2849300588181034,
                -0.42528627242231665,
                -1.1729968096893746
            ]
        },
        {
            "positions": [
                -0.2742959651996495,
                -1.3452328025651479,
                1.7119933686315574,
                -1.2427395597240498,
                -0.3706784067790776,
                -1.3676907495788138
            ]
        },
        {
            "positions": [
                -0.23025294664777407,
                -1.323294488025578,
                1.7425206258465546,
                -1.2005490606299962,
                -0.3160705411358386,
                -1.5623846894682525
            ]
        },
        {
            "positions": [
                -0.18620992809589865,
                -1.3013561734860084,
                1.773047883061552,
                -1.1583585615359426,
                -0.2614626754925996,
                -1.7570786293576917
            ]
        },
        {
            "positions": [
                -0.14216690954402328,
                -1.2794178589464387,
                1.803575140276549,
                -1.116168062441889,
                -0.20685480984936055,
                -1.9517725692471308
            ]
        },
        {
            "positions": [
                -0.09812389099214791,
                -1.257479544406869,
                1.834102397491546,
                -1.0739775633478355,
                -0.1522469442061215,
                -2.14646650913657
            ]
        },
        {
            "positions": [
                -0.05408087244027249,
                -1.2355412298672992,
                1.8646296547065433,
                -1.0317870642537819,
                -0.09763907856288256,
                -2.3411604490260087
            ]
        },
        {
            "positions": [
                -0.010037853888397064,
                -1.2136029153277295,
                1.8951569119215406,
                -0.9895965651597282,
                -0.04303121291964351,
                -2.535854388915448
            ]
        },
        {
            "positions": [
                0.03400516466347825,
                -1.1916646007881597,
                1.9256841691365376,
                -0.9474060660656746,
                0.011576652723595537,
                -2.730548328804887
            ]
        },
        {
            "positions": [
                0.07804818321535367,
                -1.16972628624859,
                1.9562114263515347,
                -0.905215566971621,
                0.06618451836683448,
                -2.925242268694326
            ]
        },
        {
            "positions": [
                0.12209120176722915,
                -1.1477879717090202,
                1.986738683566532,
                -0.8630250678775674,
                0.12079238401007354,
                -3.119936208583765
            ]
        }
    ]
}