{
    "goal": {
        "global_pose": {
            "orientation": {
                "w": 0.7047431468963623,
                "x": -0.7094548344612122,
                "y": 0.0024358443915843964,
                "z": -0.0022348060738295317
            },
            "position": {
                "x": 0.6094750761985779,
                "y": 0.3671506643295288,
                "z": 0.19426114857196808
            }
        },
        "name": "move_to_magneteinheit_A"
    },
    "id": "SBL_move_to_magneteinheit_A_105",
    "joint_names": [
        "shoulder_pan_joint",
        "shoulder_lift_joint",
        "elbow_joint",
        "wrist_1_joint",
        "wrist_2_joint",
        "wrist_3_joint"
    ],
    "metrics": {
        "cart_traj_len": 2.0664502772482445,
        "distance_elbow_joint": 3.8874273861208235,
        "distance_shoulder_lift_joint": 1.0604415587153604,
        "distance_shoulder_pan_joint": 1.241161461172814,
        "distance_wrist_1_joint": 1.1819862484220671,
        "distance_wrist_2_joint": 1.4342464280703169,
        "distance_wrist_3_joint": 1.9455532109634737,
        "smoothness": 8.575515775209619e-16,
        "time": 0.132559374,
        "traj_len": 3.2788437433743094,
        "weighted_distance": 4.1542936092534655
    },
    "planner": "SBL",
    "start": {
        "state": {
            "elbow_joint": -1.919643507792019,
            "shoulder_lift_joint": -0.07675430207160344,
            "shoulder_pan_joint": -1.1188671864651873,
            "wrist_1_joint": 0.42560062535961957,
            "wrist_2_joint": 1.5706038300724876,
            "wrist_3_joint": 1.1188968870953055
        }
    },
    "waypoints": [
        {
            "positions": [
                -1.1188671864651873,
                -0.07675430207160344,
                -1.919643507792019,
                0.42560062535961957,
                1.5706038300724876,
                1.1188968870953055
            ]
        },
        {
            "positions": [
                -1.0745399914233011,
                -0.11462721488286631,
                -1.7808068154305612,
                0.3833868307731172,
                1.5193807433556905,
                1.188380930344001
            ]
        },
        {
            "positions": [
                -1.030212796381415,
                -0.15250012769412918,
                -1.641970123069103,
                0.34117303618661476,
                1.4681576566388936,
                1.2578649735926966
            ]
        },
        {
            "positions": [
                -0.9858856013395287,
                -0.19037304050539205,
                -1.5031334307076452,
                0.2989592416001124,
                1.4169345699220965,
                1.327349016841392
            ]
        },
        {
            "positions": [
                -0.9415584062976425,
                -0.22824595331665493,
                -1.3642967383461873,
                0.25674544701361,
                1.3657114832052994,
                1.3968330600900876
            ]
        },
        {
            "positions": [
                -0.8972312112557563,
                -0.2661188661279178,
                -1.2254600459847291,
                0.2145316524271076,
                1.3144883964885024,
                1.466317103338783
            ]
        },
        {
            "positions": [
                -0.8529040162138701,
                -0.30399177893918067,
                -1.0866233536232712,
                0.17231785784060522,
                1.2632653097717055,
                1.5358011465874783
            ]
        },
        {
            "positions": [
                -0.8085768211719839,
                -0.34186469175044354,
                -0.9477866612618132,
                0.1301040632541028,
                1.2120422230549084,
                1.605285189836174
            ]
        },
        {
            "positions": [
                -0.7642496261300977,
                -0.3797376045617064,
                -0.8089499689003552,
                0.08789026866760041,
                1.1608191363381115,
                1.6747692330848696
            ]
        },
        {
            "positions": [
                -0.7199224310882114,
                -0.4176105173729693,
                -0.6701132765388971,
                0.045676474081097984,
                1.1095960496213144,
                1.744253276333565
            ]
        },
        {
            "positions": [
                -0.6755952360463252,
                -0.45548343018423215,
                -0.5312765841774392,
                0.0034626794945956108,
                1.0583729629045173,
                1.8137373195822604
            ]
        },
        {
            "positions": [
                -0.6312680410044391,
                -0.493356342995495,
                -0.39243989181598127,
                -0.03875111509190682,
                1.0071498761877202,
                1.8832213628309558
            ]
        },
        {
            "positions": [
                -0.5869408459625528,
                -0.531229255806758,
                -0.25360319945452336,
                -0.08096490967840914,
                0.9559267894709232,
                1.9527054060796514
            ]
        },
        {
            "positions": [
                -0.5426136509206666,
                -0.5691021686180208,
                -0.11476650709306524,
                -0.12317870426491156,
                0.9047037027541261,
                2.022189449328347
            ]
        },
        {
            "positions": [
                -0.4982864558787804,
                -0.6069750814292836,
                0.024070185268392663,
                -0.165392498851414,
                0.8534806160373292,
                2.0916734925770424
            ]
        },
        {
            "positions": [
                -0.4539592608368942,
                -0.6448479942405465,
                0.1629068776298508,
                -0.20760629343791642,
                0.8022575293205322,
                2.1611575358257378
            ]
        },
        {
            "positions": [
                -0.409632065795008,
                -0.6827209070518094,
                0.3017435699913087,
                -0.24982008802441874,
                0.7510344426037352,
                2.230641579074433
            ]
        },
        {
            "positions": [
                -0.3653048707531218,
                -0.7205938198630721,
                0.4405802623527666,
                -0.29203388261092117,
                0.6998113558869381,
                2.3001256223231286
            ]
        },
        {
            "positions": [
                -0.3209776757112355,
                -0.7584667326743351,
                0.5794169547142249,
                -0.3342476771974236,
                0.648588269170141,
                2.3696096655718244
            ]
        },
        {
            "positions": [
                -0.2766504806693493,
                -0.796339645485598,
                0.7182536470756828,
                -0.376461471783926,
                0.5973651824533439,
                2.43909370882052
            ]
        },
        {
            "positions": [
                -0.23232328562746307,
                -0.8342125582968609,
                0.8570903394371407,
                -0.41867526637042835,
                0.546142095736547,
                2.5085777520692156
            ]
        },
        {
            "positions": [
                -0.18799609058557687,
                -0.8720854711081238,
                0.9959270317985986,
                -0.4608890609569308,
                0.49491900901974994,
                2.578061795317911
            ]
        },
        {
            "positions": [
                -0.14366889554369078,
                -0.9099583839193865,
                1.1347637241600566,
                -0.5031028555434331,
                0.44369592230295285,
                2.6475458385666064
            ]
        },
        {
            "positions": [
                -0.09934170050180446,
                -0.9478312967306495,
                1.2736004165215145,
                -0.5453166501299356,
                0.392472835586156,
                2.717029881815302
            ]
        },
        {
            "positions": [
                -0.05501450545991826,
                -0.9857042095419124,
                1.4124371088829724,
                -0.5875304447164378,
                0.3412497488693589,
                2.786513925063997
            ]
        },
        {
            "positions": [
                -0.010687310418032059,
                -1.0235771223531753,
                1.5512738012444307,
                -0.6297442393029404,
                0.2900266621525618,
                2.8559979683126926
            ]
        },
        {
            "positions": [
                0.033639884623854144,
                -1.061450035164438,
                1.6901104936058886,
                -0.6719580338894426,
                0.2388035754357647,
                2.925482011561388
            ]
        },
        {
            "positions": [
                0.07796707966574035,
                -1.099322947975701,
                1.8289471859673465,
                -0.7141718284759451,
                0.18758048871896782,
                2.994966054810084
            ]
        },
        {
            "positions": [
                0.1222942747076266,
                -1.1371958607869639,
                1.9677838783288044,
                -0.7563856230624476,
                0.1363574020021708,
                3.064450098058779
            ]
        }
    ]
}