{
    "goal": {
        "global_pose": {
            "orientation": {
                "w": 0.7047431468963623,
                "x": -0.7094548344612122,
                "y": 0.0024358443915843964,
                "z": -0.0022348060738295317
            },
            "position": {
                "x": 0.6094750761985779,
                "y": 0.3671506643295288,
                "z": 0.19426114857196808
            }
        },
        "name": "move_to_magneteinheit_A"
    },
    "id": "SBL_move_to_magneteinheit_A_68",
    "joint_names": [
        "shoulder_pan_joint",
        "shoulder_lift_joint",
        "elbow_joint",
        "wrist_1_joint",
        "wrist_2_joint",
        "wrist_3_joint"
    ],
    "metrics": {
        "cart_traj_len": 1.8727899181403245,
        "distance_elbow_joint": 3.9232536387616994,
        "distance_shoulder_lift_joint": 0.7051432048086856,
        "distance_shoulder_pan_joint": 1.2413152896892632,
        "distance_wrist_1_joint": 1.5380858553536578,
        "distance_wrist_2_joint": 1.6970875998906274,
        "distance_wrist_3_joint": 1.1556882112502955,
        "smoothness": 1.644774855041844e-16,
        "time": 0.216216998,
        "traj_len": 3.203213043141875,
        "weighted_distance": 3.9758173596757564
    },
    "planner": "SBL",
    "start": {
        "state": {
            "elbow_joint": -1.919643507792019,
            "shoulder_lift_joint": -0.07675430207160344,
            "shoulder_pan_joint": -1.1188671864651873,
            "wrist_1_joint": 0.42560062535961957,
            "wrist_2_joint": 1.5706038300724876,
            "wrist_3_joint": 1.1188968870953055
        }
    },
    "waypoints": [
        {
            "positions": [
                -1.1188671864651873,
                -0.07675430207160344,
                -1.919643507792019,
                0.42560062535961957,
                1.5706038300724876,
                1.1188968870953055
            ]
        },
        {
            "positions": [
                -1.071124290707908,
                -0.1038751945642452,
                -1.7687491370704151,
                0.48475777364245254,
                1.5053312300766943,
                1.0744473405087558
            ]
        },
        {
            "positions": [
                -1.0233813949506287,
                -0.13099608705688695,
                -1.6178547663488114,
                0.5439149219252856,
                1.4400586300809008,
                1.0299977939222058
            ]
        },
        {
            "positions": [
                -0.9756384991933493,
                -0.15811697954952872,
                -1.4669603956272077,
                0.6030720702081186,
                1.3747860300851076,
                0.985548247335656
            ]
        },
        {
            "positions": [
                -0.9278956034360699,
                -0.18523787204217046,
                -1.3160660249056038,
                0.6622292184909515,
                1.309513430089314,
                0.9410987007491063
            ]
        },
        {
            "positions": [
                -0.8801527076787905,
                -0.21235876453481223,
                -1.1651716541839998,
                0.7213863667737845,
                1.2442408300935208,
                0.8966491541625564
            ]
        },
        {
            "positions": [
                -0.8324098119215112,
                -0.239479657027454,
                -1.014277283462396,
                0.7805435150566176,
                1.1789682300977273,
                0.8521996075760065
            ]
        },
        {
            "positions": [
                -0.7846669161642319,
                -0.2666005495200957,
                -0.8633829127407924,
                0.8397006633394505,
                1.113695630101934,
                0.8077500609894568
            ]
        },
        {
            "positions": [
                -0.7369240204069525,
                -0.29372144201273753,
                -0.7124885420191884,
                0.8988578116222836,
                1.0484230301061408,
                0.7633005144029069
            ]
        },
        {
            "positions": [
                -0.6891811246496732,
                -0.32084233450537925,
                -0.5615941712975847,
                0.9580149599051164,
                0.9831504301103474,
                0.718850967816357
            ]
        },
        {
            "positions": [
                -0.6414382288923938,
                -0.347963226998021,
                -0.41069980057598077,
                1.0171721081879495,
                0.9178778301145539,
                0.6744014212298073
            ]
        },
        {
            "positions": [
                -0.5936953331351145,
                -0.3750841194906627,
                -0.25980542985437705,
                1.0763292564707825,
                0.8526052301187607,
                0.6299518746432575
            ]
        },
        {
            "positions": [
                -0.545952437377835,
                -0.40220501198330455,
                -0.1089110591327731,
                1.1354864047536155,
                0.7873326301229672,
                0.5855023280567075
            ]
        },
        {
            "positions": [
                -0.49820954162055575,
                -0.42932590447594626,
                0.04198331158883062,
                1.1946435530364485,
                0.7220600301271739,
                0.5410527814701578
            ]
        },
        {
            "positions": [
                -0.45046664586327645,
                -0.456446796968588,
                0.19287768231043434,
                1.2538007013192813,
                0.6567874301313806,
                0.496603234883608
            ]
        },
        {
            "positions": [
                -0.40272375010599715,
                -0.48356768946122974,
                0.34377205303203806,
                1.3129578496021144,
                0.5915148301355873,
                0.45215368829705815
            ]
        },
        {
            "positions": [
                -0.3549808543487176,
                -0.5106885819538716,
                0.4946664237536422,
                1.3721149978849476,
                0.5262422301397938,
                0.4077041417105083
            ]
        },
        {
            "positions": [
                -0.3072379585914383,
                -0.5378094744465133,
                0.645560794475246,
                1.4312721461677804,
                0.4609696301440005,
                0.3632545951239584
            ]
        },
        {
            "positions": [
                -0.259495062834159,
                -0.564930366939155,
                0.7964551651968497,
                1.4904292944506135,
                0.39569703014820723,
                0.31880504853740865
            ]
        },
        {
            "positions": [
                -0.21175216707687972,
                -0.5920512594317968,
                0.9473495359184534,
                1.5495864427334465,
                0.33042443015241374,
                0.2743555019508589
            ]
        },
        {
            "positions": [
                -0.1640092713196002,
                -0.6191721519244386,
                1.0982439066400576,
                1.6087435910162795,
                0.26515183015662025,
                0.2299059553643089
            ]
        },
        {
            "positions": [
                -0.116266375562321,
                -0.6462930444170802,
                1.2491382773616613,
                1.6679007392991125,
                0.19987923016082698,
                0.18545640877775915
            ]
        },
        {
            "positions": [
                -0.06852347980504159,
                -0.6734139369097221,
                1.400032648083265,
                1.7270578875819456,
                0.1346066301650337,
                0.1410068621912094
            ]
        },
        {
            "positions": [
                -0.020780584047762174,
                -0.7005348294023639,
                1.5509270188048687,
                1.7862150358647784,
                0.06933403016924045,
                0.09655731560465952
            ]
        },
        {
            "positions": [
                0.02696231170951724,
                -0.7276557218950057,
                1.7018213895264729,
                1.8453721841476116,
                0.004061430173446734,
                0.05210776901810954
            ]
        },
        {
            "positions": [
                0.07470520746679643,
                -0.7547766143876473,
                1.8527157602480766,
                1.9045293324304444,
                -0.061211169822346534,
                0.00765822243155978
            ]
        },
        {
            "positions": [
                0.12244810322407576,
                -0.7818975068802891,
                2.0036101309696805,
                1.9636864807132774,
                -0.12648376981813983,
                -0.036791324154990084
            ]
        }
    ]
}