{
    "goal": {
        "global_pose": {
            "orientation": {
                "w": 0.5084816217422485,
                "x": -0.49083608388900757,
                "y": 0.5182115435600281,
                "z": -0.4816462993621826
            },
            "position": {
                "x": 0.5540239810943604,
                "y": 0.030875300988554955,
                "z": 0.16403168439865112
            }
        },
        "name": "move_to_storage_A"
    },
    "id": "SBL_move_to_storage_A_31",
    "joint_names": [
        "shoulder_pan_joint",
        "shoulder_lift_joint",
        "elbow_joint",
        "wrist_1_joint",
        "wrist_2_joint",
        "wrist_3_joint"
    ],
    "metrics": {
        "cart_traj_len": 0.35409232208488567,
        "distance_elbow_joint": 0.4522718309528435,
        "distance_shoulder_lift_joint": 0.23467218620148245,
        "distance_shoulder_pan_joint": 0.46126855448439336,
        "distance_wrist_1_joint": 0.24953479375694732,
        "distance_wrist_2_joint": 1.1089301973512504,
        "distance_wrist_3_joint": 0.10038136500235728,
        "smoothness": 2.2204460668324854e-16,
        "time": 0.174532315,
        "traj_len": 1.6146389465602748,
        "weighted_distance": 2.0411483652253666
    },
    "planner": "SBL",
    "start": {
        "state": {
            "elbow_joint": 1.9715463870305268,
            "shoulder_lift_joint": -1.1394903361783484,
            "shoulder_pan_joint": 0.12281147578464417,
            "wrist_1_joint": -0.7804599489681411,
            "wrist_2_joint": 0.12958660307563738,
            "wrist_3_joint": -3.1924946282119055
        }
    },
    "waypoints": [
        {
            "positions": [
                0.12281147578464417,
                -1.1394903361783484,
                1.9715463870305268,
                -0.7804599489681411,
                0.12958660307563738,
                -3.1924946282119055
            ]
        },
        {
            "positions": [
                0.05691596800115942,
                -1.1730149342071317,
                2.0361566485952185,
                -0.816107776647705,
                0.2880052026972446,
                -3.178154433211569
            ]
        },
        {
            "positions": [
                -0.008979539782325338,
                -1.2065395322359147,
                2.1007669101599107,
                -0.8517556043272689,
                0.4464238023188518,
                -3.163814238211232
            ]
        },
        {
            "positions": [
                -0.07487504756581011,
                -1.240064130264698,
                2.1653771717246024,
                -0.8874034320068328,
                0.604842401940459,
                -3.1494740432108954
            ]
        },
        {
            "positions": [
                -0.14077055534929483,
                -1.2735887282934812,
                2.2299874332892946,
                -0.9230512596863967,
                0.7632610015620662,
                -3.1351338482105584
            ]
        },
        {
            "positions": [
                -0.20666606313277963,
                -1.3071133263222645,
                2.2945976948539863,
                -0.9586990873659607,
                0.9216796011836734,
                -3.120793653210222
            ]
        },
        {
            "positions": [
                -0.2725615709162644,
                -1.3406379243510476,
                2.359207956418678,
                -0.9943469150455244,
                1.0800982008052806,
                -3.106453458209885
            ]
        },
        {
            "positions": [
                -0.33845707869974917,
                -1.3741625223798308,
                2.4238182179833703,
                -1.0299947427250884,
                1.2385168004268878,
                -3.0921132632095483
            ]
        }
    ]
}