{
    "goal": {
        "global_pose": {
            "orientation": {
                "w": 0.5084816217422485,
                "x": -0.49083608388900757,
                "y": 0.5182115435600281,
                "z": -0.4816462993621826
            },
            "position": {
                "x": 0.5540239810943604,
                "y": 0.030875300988554955,
                "z": 0.16403168439865112
            }
        },
        "name": "move_to_storage_A"
    },
    "id": "SBL_move_to_storage_A_114",
    "joint_names": [
        "shoulder_pan_joint",
        "shoulder_lift_joint",
        "elbow_joint",
        "wrist_1_joint",
        "wrist_2_joint",
        "wrist_3_joint"
    ],
    "metrics": {
        "cart_traj_len": 0.35408338015191543,
        "distance_elbow_joint": 0.4503181529711804,
        "distance_shoulder_lift_joint": 0.2343180110001637,
        "distance_shoulder_pan_joint": 0.4605496998656608,
        "distance_wrist_1_joint": 0.24192716084867671,
        "distance_wrist_2_joint": 1.111578635289841,
        "distance_wrist_3_joint": 0.09117049624391482,
        "smoothness": 8.881784197001252e-16,
        "time": 0.180462148,
        "traj_len": 1.6093048673944403,
        "weighted_distance": 2.0311841238168893
    },
    "planner": "SBL",
    "start": {
        "state": {
            "elbow_joint": 1.9715463870305268,
            "shoulder_lift_joint": -1.1394903361783484,
            "shoulder_pan_joint": 0.12281147578464417,
            "wrist_1_joint": -0.7804599489681411,
            "wrist_2_joint": 0.12958660307563738,
            "wrist_3_joint": -3.1924946282119055
        }
    },
    "waypoints": [
        {
            "positions": [
                0.12281147578464417,
                -1.1394903361783484,
                1.9715463870305268,
                -0.7804599489681411,
                0.12958660307563738,
                -3.1924946282119055
            ]
        },
        {
            "positions": [
                0.05701866151812121,
                -1.1729643377498002,
                2.0358775517406955,
                -0.8150209719465235,
                0.2883835509741861,
                -3.179470271605632
            ]
        },
        {
            "positions": [
                -0.00877415274840175,
                -1.2064383393212523,
                2.100208716450864,
                -0.8495819949249058,
                0.4471804988727348,
                -3.1664459149993585
            ]
        },
        {
            "positions": [
                -0.07456696701492473,
                -1.2399123408927042,
                2.1645398811610326,
                -0.8841430179032882,
                0.6059774467712835,
                -3.153421558393085
            ]
        },
        {
            "positions": [
                -0.14035978128144766,
                -1.2733863424641563,
                2.2288710458712013,
                -0.9187040408816707,
                0.7647743946698322,
                -3.1403972017868114
            ]
        },
        {
            "positions": [
                -0.20615259554797066,
                -1.3068603440356081,
                2.29320221058137,
                -0.953265063860053,
                0.9235713425683809,
                -3.127372845180538
            ]
        },
        {
            "positions": [
                -0.2719454098144936,
                -1.3403343456070602,
                2.3575333752915384,
                -0.9878260868384354,
                1.0823682904669296,
                -3.1143484885742643
            ]
        },
        {
            "positions": [
                -0.3377382240810166,
                -1.373808347178512,
                2.421864540001707,
                -1.0223871098168178,
                1.2411652383654783,
                -3.1013241319679907
            ]
        }
    ]
}