{
    "goal": {
        "global_pose": {
            "orientation": {
                "w": 0.7031023502349854,
                "x": -0.7110244035720825,
                "y": 0.007748599164187908,
                "z": 0.005598929710686207
            },
            "position": {
                "x": 0.11585023208521307,
                "y": 0.44412534475326537,
                "z": 0.3711530566215515
            }
        },
        "name": "move_to_auspresseinheit_A"
    },
    "id": "SBL_move_to_auspresseinheit_A_102",
    "joint_names": [
        "shoulder_pan_joint",
        "shoulder_lift_joint",
        "elbow_joint",
        "wrist_1_joint",
        "wrist_2_joint",
        "wrist_3_joint"
    ],
    "metrics": {
        "cart_traj_len": 1.6780626044153333,
        "distance_elbow_joint": 0.8144694828790358,
        "distance_shoulder_lift_joint": 1.8892410405290234,
        "distance_shoulder_pan_joint": 3.130488785574559,
        "distance_wrist_1_joint": 6.775169192775958,
        "distance_wrist_2_joint": 7.427582813664726,
        "distance_wrist_3_joint": 8.629819848562386,
        "smoothness": 0.47285489842855255,
        "time": 0.344708899,
        "traj_len": 5.354135893305819,
        "weighted_distance": 7.7542996374625
    },
    "planner": "SBL",
    "start": {
        "state": {
            "elbow_joint": 2.422574709923281,
            "shoulder_lift_joint": -1.3736533754116391,
            "shoulder_pan_joint": -0.33786336945926293,
            "wrist_1_joint": -1.0288603412921917,
            "wrist_2_joint": 1.2330224858903978,
            "wrist_3_joint": -3.094022268022082
        }
    },
    "waypoints": [
        {
            "positions": [
                -0.33786336945926293,
                -1.3736533754116391,
                2.422574709923281,
                -1.0288603412921917,
                1.2330224858903978,
                -3.094022268022082
            ]
        },
        {
            "positions": [
                -0.36602682229391903,
                -1.4064534255777628,
                2.411220593592567,
                -0.9298718300444059,
                1.125651332461819,
                -2.9777998383501885
            ]
        },
        {
            "positions": [
                -0.3941902751285752,
                -1.4392534757438864,
                2.3998664772618525,
                -0.8308833187966201,
                1.01828017903324,
                -2.861577408678295
            ]
        },
        {
            "positions": [
                -0.4223537279632313,
                -1.4720535259100098,
                2.388512360931138,
                -0.7318948075488343,
                0.9109090256046612,
                -2.745354979006401
            ]
        },
        {
            "positions": [
                -0.4505171807978874,
                -1.5048535760761335,
                2.3771582446004236,
                -0.6329062963010486,
                0.8035378721760824,
                -2.6291325493345075
            ]
        },
        {
            "positions": [
                -0.47868063363254354,
                -1.537653626242257,
                2.3658041282697093,
                -0.5339177850532627,
                0.6961667187475036,
                -2.512910119662614
            ]
        },
        {
            "positions": [
                -0.5068440864671997,
                -1.5704536764083805,
                2.354450011938995,
                -0.43492927380547686,
                0.5887955653189247,
                -2.39668768999072
            ]
        },
        {
            "positions": [
                -0.5350075393018557,
                -1.6032537265745042,
                2.343095895608281,
                -0.3359407625576911,
                0.4814244118903459,
                -2.2804652603188265
            ]
        },
        {
            "positions": [
                -0.5631709921365119,
                -1.6360537767406278,
                2.331741779277566,
                -0.23695225130990527,
                0.37405325846176707,
                -2.164242830646933
            ]
        },
        {
            "positions": [
                -0.5913344449711679,
                -1.6688538269067514,
                2.320387662946852,
                -0.13796374006211953,
                0.26668210503318823,
                -2.048020400975039
            ]
        },
        {
            "positions": [
                -0.6194978978058241,
                -1.701653877072875,
                2.3090335466161376,
                -0.038975228814333684,
                0.1593109516046094,
                -1.9317979713031455
            ]
        },
        {
            "positions": [
                -0.6476613506404802,
                -1.7344539272389985,
                2.2976794302854233,
                0.06001328243345205,
                0.05193979817603056,
                -1.8155755416312518
            ]
        },
        {
            "positions": [
                -0.6758248034751364,
                -1.7672539774051221,
                2.286325313954709,
                0.159001793681238,
                -0.055431355252548276,
                -1.6993531119593581
            ]
        },
        {
            "positions": [
                -0.7039882563097926,
                -1.8000540275712456,
                2.2749711976239944,
                0.25799030492902375,
                -0.1628025086811271,
                -1.5831306822874645
            ]
        },
        {
            "positions": [
                -0.7321517091444486,
                -1.8328540777373692,
                2.26361708129328,
                0.3569788161768095,
                -0.27017366210970595,
                -1.4669082526155708
            ]
        },
        {
            "positions": [
                -0.7603151619791048,
                -1.8656541279034928,
                2.252262964962566,
                0.4559673274245952,
                -0.3775448155382848,
                -1.3506858229436771
            ]
        },
        {
            "positions": [
                -0.7884786148137608,
                -1.8984541780696165,
                2.2409088486318516,
                0.5549558386723812,
                -0.4849159689668636,
                -1.2344633932717834
            ]
        },
        {
            "positions": [
                -0.816642067648417,
                -1.9312542282357401,
                2.2295547323011373,
                0.6539443499201669,
                -0.5922871223954425,
                -1.1182409635998898
            ]
        },
        {
            "positions": [
                -0.8448055204830731,
                -1.9640542784018638,
                2.218200615970423,
                0.7529328611679527,
                -0.6996582758240213,
                -1.0020185339279961
            ]
        },
        {
            "positions": [
                -0.8729689733177293,
                -1.996854328567987,
                2.2068464996397084,
                0.8519213724157384,
                -0.8070294292526001,
                -0.8857961042561029
            ]
        },
        {
            "positions": [
                -0.9011324261523854,
                -2.0296543787341106,
                2.195492383308994,
                0.9509098836635244,
                -0.914400582681179,
                -0.7695736745842088
            ]
        },
        {
            "positions": [
                -0.9292958789870414,
                -2.0624544289002342,
                2.18413826697828,
                1.04989839491131,
                -1.0217717361097578,
                -0.6533512449123156
            ]
        },
        {
            "positions": [
                -0.9574593318216975,
                -2.095254479066358,
                2.1727841506475656,
                1.1488869061590958,
                -1.1291428895383366,
                -0.5371288152404214
            ]
        },
        {
            "positions": [
                -0.9856227846563537,
                -2.1280545292324815,
                2.1614300343168513,
                1.2478754174068816,
                -1.2365140429669155,
                -0.4209063855685282
            ]
        },
        {
            "positions": [
                -1.0137862374910098,
                -2.160854579398605,
                2.1500759179861366,
                1.3468639286546678,
                -1.3438851963954943,
                -0.3046839558966341
            ]
        },
        {
            "positions": [
                -1.041949690325666,
                -2.193654629564729,
                2.1387218016554224,
                1.445852439902453,
                -1.4512563498240731,
                -0.18846152622474088
            ]
        },
        {
            "positions": [
                -1.0701131431603221,
                -2.2264546797308524,
                2.127367685324708,
                1.5448409511502392,
                -1.558627503252652,
                -0.07223909655284677
            ]
        },
        {
            "positions": [
                -1.098276595994978,
                -2.2592547298969756,
                2.116013568993994,
                1.643829462398025,
                -1.6659986566812308,
                0.04398333311904645
            ]
        },
        {
            "positions": [
                -1.1264400488296342,
                -2.2920547800630993,
                2.1046594526632796,
                1.7428179736458107,
                -1.7733698101098097,
                0.16020576279094056
            ]
        },
        {
            "positions": [
                -1.1546035016642904,
                -2.324854830229223,
                2.0933053363325653,
                1.8418064848935964,
                -1.8807409635383885,
                0.2764281924628338
            ]
        },
        {
            "positions": [
                -1.1827669544989465,
                -2.3576548803953465,
                2.0819512200018506,
                1.9407949961413822,
                -1.9881121169669673,
                0.3926506221347279
            ]
        },
        {
            "positions": [
                -1.2109304073336027,
                -2.39045493056147,
                2.0705971036711364,
                2.039783507389168,
                -2.095483270395546,
                0.5088730518066211
            ]
        },
        {
            "positions": [
                -1.2390938601682588,
                -2.423254980727594,
                2.059242987340422,
                2.138772018636954,
                -2.202854423824125,
                0.6250954814785152
            ]
        },
        {
            "positions": [
                -1.2672573130029148,
                -2.456055030893717,
                2.047888871009708,
                2.2377605298847394,
                -2.310225577252704,
                0.7413179111504085
            ]
        },
        {
            "positions": [
                -1.295420765837571,
                -2.4888550810598407,
                2.0365347546789936,
                2.3367490411325256,
                -2.4175967306812827,
                0.8575403408223026
            ]
        },
        {
            "positions": [
                -1.323584218672227,
                -2.5216551312259643,
                2.025180638348279,
                2.4357375523803113,
                -2.5249678841098615,
                0.9737627704941958
            ]
        },
        {
            "positions": [
                -1.3517476715068832,
                -2.554455181392088,
                2.0138265220175646,
                2.534726063628097,
                -2.6323390375384403,
                1.08998520016609
            ]
        },
        {
            "positions": [
                -1.3799111243415394,
                -2.5872552315582116,
                2.0024724056868504,
                2.633714574875883,
                -2.739710190967019,
                1.2062076298379831
            ]
        },
        {
            "positions": [
                -1.3218988734889758,
                -2.5684874764364767,
                2.0134270495380338,
                2.5472536227478857,
                -2.643742131611261,
                1.0859412423184742
            ]
        },
        {
            "positions": [
                -1.2638866226364125,
                -2.5497197213147422,
                2.024381693389217,
                2.4607926706198886,
                -2.5477740722555025,
                0.9656748547989655
            ]
        },
        {
            "positions": [
                -1.205874371783849,
                -2.5309519661930073,
                2.035336337240401,
                2.3743317184918915,
                -2.4518060128997443,
                0.8454084672794566
            ]
        },
        {
            "positions": [
                -1.1478621209312856,
                -2.5121842110712724,
                2.0462909810915844,
                2.287870766363895,
                -2.3558379535439857,
                0.7251420797599478
            ]
        },
        {
            "positions": [
                -1.089849870078722,
                -2.493416455949538,
                2.0572456249427677,
                2.2014098142358973,
                -2.2598698941882276,
                0.6048756922404389
            ]
        },
        {
            "positions": [
                -1.0318376192261587,
                -2.474648700827803,
                2.068200268793951,
                2.1149488621079007,
                -2.163901834832469,
                0.4846093047209301
            ]
        },
        {
            "positions": [
                -0.9738253683735951,
                -2.455880945706068,
                2.0791549126451345,
                2.0284879099799036,
                -2.067933775476711,
                0.3643429172014213
            ]
        },
        {
            "positions": [
                -0.9158131175210316,
                -2.4371131905843337,
                2.0901095564963184,
                1.9420269578519065,
                -1.9719657161209525,
                0.2440765296819125
            ]
        },
        {
            "positions": [
                -0.8578008666684681,
                -2.418345435462599,
                2.1010642003475017,
                1.8555660057239094,
                -1.8759976567651941,
                0.1238101421624036
            ]
        },
        {
            "positions": [
                -0.7997886158159047,
                -2.399577680340864,
                2.112018844198685,
                1.7691050535959123,
                -1.7800295974094358,
                0.003543754642894692
            ]
        },
        {
            "positions": [
                -0.7417763649633411,
                -2.3808099252191295,
                2.1229734880498685,
                1.6826441014679152,
                -1.6840615380536774,
                -0.11672263287661422
            ]
        },
        {
            "positions": [
                -0.6837641141107778,
                -2.3620421700973946,
                2.133928131901052,
                1.5961831493399183,
                -1.5880934786979193,
                -0.2369890203961229
            ]
        },
        {
            "positions": [
                -0.6257518632582142,
                -2.3432744149756597,
                2.1448827757522357,
                1.5097221972119212,
                -1.492125419342161,
                -0.3572554079156318
            ]
        },
        {
            "positions": [
                -0.5677396124056507,
                -2.3245066598539252,
                2.155837419603419,
                1.4232612450839242,
                -1.3961573599864023,
                -0.4775217954351405
            ]
        },
        {
            "positions": [
                -0.5097273615530872,
                -2.3057389047321903,
                2.1667920634546025,
                1.336800292955927,
                -1.300189300630644,
                -0.5977881829546494
            ]
        },
        {
            "positions": [
                -0.45171511070052384,
                -2.2869711496104554,
                2.177746707305786,
                1.2503393408279302,
                -1.2042212412748858,
                -0.7180545704741581
            ]
        },
        {
            "positions": [
                -0.3937028598479603,
                -2.268203394488721,
                2.1887013511569693,
                1.163878388699933,
                -1.1082531819191275,
                -0.838320957993667
            ]
        },
        {
            "positions": [
                -0.3356906089953968,
                -2.249435639366986,
                2.199655995008153,
                1.077417436571936,
                -1.012285122563369,
                -0.9585873455131759
            ]
        },
        {
            "positions": [
                -0.27767835814283326,
                -2.230667884245251,
                2.2106106388593365,
                0.9909564844439389,
                -0.9163170632076107,
                -1.0788537330326848
            ]
        },
        {
            "positions": [
                -0.21966610729026992,
                -2.2119001291235167,
                2.22156528271052,
                0.9044955323159418,
                -0.8203490038518524,
                -1.1991201205521937
            ]
        },
        {
            "positions": [
                -0.16165385643770636,
                -2.193132374001782,
                2.2325199265617033,
                0.8180345801879447,
                -0.7243809444960938,
                -1.3193865080717027
            ]
        },
        {
            "positions": [
                -0.1036416055851428,
                -2.174364618880047,
                2.2434745704128867,
                0.7315736280599476,
                -0.6284128851403357,
                -1.4396528955912116
            ]
        },
        {
            "positions": [
                -0.04562935473257945,
                -2.1555968637583125,
                2.25442921426407,
                0.645112675931951,
                -0.5324448257845775,
                -1.55991928311072
            ]
        },
        {
            "positions": [
                0.012382896119983888,
                -2.1368291086365776,
                2.265383858115254,
                0.5586517238039539,
                -0.4364767664288194,
                -1.680185670630229
            ]
        },
        {
            "positions": [
                0.07039514697254745,
                -2.1180613535148427,
                2.2763385019664373,
                0.4721907716759568,
                -0.3405087070730608,
                -1.8004520581497379
            ]
        },
        {
            "positions": [
                0.128407397825111,
                -2.0992935983931083,
                2.2872931458176207,
                0.3857298195479597,
                -0.24454064771730266,
                -1.9207184456692468
            ]
        },
        {
            "positions": [
                0.18641964867767435,
                -2.0805258432713734,
                2.298247789668804,
                0.2992688674199626,
                -0.14857258836154408,
                -2.0409848331887557
            ]
        },
        {
            "positions": [
                0.24443189953023792,
                -2.0617580881496385,
                2.309202433519988,
                0.21280791529196552,
                -0.052604529005785494,
                -2.161251220708264
            ]
        },
        {
            "positions": [
                0.3024441503828015,
                -2.042990333027904,
                2.3201570773711713,
                0.12634696316396843,
                0.043363530349972645,
                -2.281517608227773
            ]
        },
        {
            "positions": [
                0.36045640123536504,
                -2.024222577906169,
                2.3311117212223547,
                0.039886011035971336,
                0.13933158970573123,
                -2.401783995747282
            ]
        },
        {
            "positions": [
                0.4184686520879284,
                -2.005454822784434,
                2.342066365073538,
                -0.04657494109202576,
                0.23529964906148937,
                -2.522050383266791
            ]
        },
        {
            "positions": [
                0.4764809029404917,
                -1.9866870676626998,
                2.3530210089247214,
                -0.1330358932200224,
                0.3312677084172475,
                -2.6423167707862993
            ]
        },
        {
            "positions": [
                0.5344931537930553,
                -1.9679193125409649,
                2.363975652775905,
                -0.2194968453480195,
                0.42723576777300565,
                -2.7625831583058083
            ]
        },
        {
            "positions": [
                0.5925054046456188,
                -1.94915155741923,
                2.3749302966270887,
                -0.3059577974760166,
                0.5232038271287642,
                -2.882849545825317
            ]
        },
        {
            "positions": [
                0.6505176554981824,
                -1.9303838022974955,
                2.385884940478272,
                -0.3924187496040137,
                0.6191718864845224,
                -3.003115933344826
            ]
        },
        {
            "positions": [
                0.7085299063507456,
                -1.9116160471757606,
                2.3968395843294554,
                -0.4788797017320109,
                0.7151399458402808,
                -3.123382320864335
            ]
        }
    ]
}