{
    "goal": {
        "global_pose": {
            "orientation": {
                "w": 0.7031023502349854,
                "x": -0.7110244035720825,
                "y": 0.007748599164187908,
                "z": 0.005598929710686207
            },
            "position": {
                "x": 0.11585023208521307,
                "y": 0.44412534475326537,
                "z": 0.3711530566215515
            }
        },
        "name": "move_to_auspresseinheit_A"
    },
    "id": "SBL_move_to_auspresseinheit_A_92",
    "joint_names": [
        "shoulder_pan_joint",
        "shoulder_lift_joint",
        "elbow_joint",
        "wrist_1_joint",
        "wrist_2_joint",
        "wrist_3_joint"
    ],
    "metrics": {
        "cart_traj_len": 0.9042358954645958,
        "distance_elbow_joint": 0.13616787099299543,
        "distance_shoulder_lift_joint": 1.5702021953207714,
        "distance_shoulder_pan_joint": 1.0451412037858292,
        "distance_wrist_1_joint": 2.7341602791640973,
        "distance_wrist_2_joint": 0.5836857381298906,
        "distance_wrist_3_joint": 0.7641194471543975,
        "smoothness": 1.267637086505244,
        "time": 0.153924441,
        "traj_len": 2.614091952198312,
        "weighted_distance": 3.4175373657285393
    },
    "planner": "SBL",
    "start": {
        "state": {
            "elbow_joint": 2.422574709923281,
            "shoulder_lift_joint": -1.3736533754116391,
            "shoulder_pan_joint": -0.33786336945926293,
            "wrist_1_joint": -1.0288603412921917,
            "wrist_2_joint": 1.2330224858903978,
            "wrist_3_joint": -3.094022268022082
        }
    },
    "waypoints": [
        {
            "positions": [
                -0.33786336945926293,
                -1.3736533754116391,
                2.422574709923281,
                -1.0288603412921917,
                1.2330224858903978,
                -3.094022268022082
            ]
        },
        {
            "positions": [
                -0.2708043619827184,
                -1.4790784639466137,
                2.414460396420536,
                -0.8647006581341021,
                1.2361997140223626,
                -3.133619811927157
            ]
        },
        {
            "positions": [
                -0.2037453545061739,
                -1.5845035524815883,
                2.406346082917791,
                -0.7005409749760125,
                1.2393769421543277,
                -3.1732173558322323
            ]
        },
        {
            "positions": [
                -0.13668634702962937,
                -1.6899286410165628,
                2.3982317694150455,
                -0.5363812918179232,
                1.2425541702862928,
                -3.212814899737307
            ]
        },
        {
            "positions": [
                -0.06962733955308487,
                -1.7953537295515374,
                2.3901174559123004,
                -0.37222160865983345,
                1.2457313984182576,
                -3.252412443642382
            ]
        },
        {
            "positions": [
                -0.002568332076540336,
                -1.900778818086512,
                2.3820031424095554,
                -0.20806192550174396,
                1.2489086265502225,
                -3.2920099875474573
            ]
        },
        {
            "positions": [
                0.0644906754000042,
                -2.0062039066214865,
                2.3738888289068103,
                -0.043902242343654474,
                1.2520858546821876,
                -3.331607531452532
            ]
        },
        {
            "positions": [
                0.13154968287654867,
                -2.111628995156461,
                2.3657745154040652,
                0.12025744081443501,
                1.2552630828141527,
                -3.371205075357607
            ]
        },
        {
            "positions": [
                0.1986086903530932,
                -2.2170540836914356,
                2.3576602019013198,
                0.28441712397252483,
                1.2584403109461175,
                -3.4108026192626824
            ]
        },
        {
            "positions": [
                0.2656676978296378,
                -2.3224791722264104,
                2.3495458883985747,
                0.4485768071306142,
                1.2616175390780824,
                -3.450400163167757
            ]
        },
        {
            "positions": [
                0.3327267053061822,
                -2.4279042607613848,
                2.3414315748958296,
                0.6127364902887038,
                1.2647947672100475,
                -3.489997707072832
            ]
        },
        {
            "positions": [
                0.3795455964337302,
                -2.3634103470150065,
                2.348309666891523,
                0.47616605934080364,
                1.1958055851087674,
                -3.443979706059876
            ]
        },
        {
            "positions": [
                0.4263644875612782,
                -2.2989164332686283,
                2.3551877588872157,
                0.33959562839290347,
                1.1268164030074872,
                -3.39796170504692
            ]
        },
        {
            "positions": [
                0.47318337868882626,
                -2.23442251952225,
                2.3620658508829084,
                0.2030251974450033,
                1.0578272209062072,
                -3.3519437040339644
            ]
        },
        {
            "positions": [
                0.5200022698163742,
                -2.1699286057758718,
                2.3689439428786017,
                0.06645476649710313,
                0.988838038804927,
                -3.3059257030210083
            ]
        },
        {
            "positions": [
                0.5668211609439222,
                -2.1054346920294935,
                2.375822034874295,
                -0.07011566445079698,
                0.9198488567036469,
                -3.2599077020080522
            ]
        },
        {
            "positions": [
                0.6136400520714703,
                -2.0409407782831153,
                2.3827001268699877,
                -0.2066860953986972,
                0.8508596746023669,
                -3.2138897009950966
            ]
        },
        {
            "positions": [
                0.6604589431990183,
                -1.9764468645367372,
                2.3895782188656804,
                -0.3432565263465974,
                0.7818704925010868,
                -3.1678716999821406
            ]
        },
        {
            "positions": [
                0.7072778343265663,
                -1.911952950790359,
                2.3964563108613737,
                -0.47982695729449765,
                0.7128813103998066,
                -3.1218536989691845
            ]
        }
    ]
}