{
    "goal": {
        "global_pose": {
            "orientation": {
                "w": 0.5084816217422485,
                "x": -0.49083608388900757,
                "y": 0.5182115435600281,
                "z": -0.4816462993621826
            },
            "position": {
                "x": 0.5540239810943604,
                "y": 0.030875300988554955,
                "z": 0.16403168439865112
            }
        },
        "name": "move_to_storage_A"
    },
    "id": "SBL_move_to_storage_A_5",
    "joint_names": [
        "shoulder_pan_joint",
        "shoulder_lift_joint",
        "elbow_joint",
        "wrist_1_joint",
        "wrist_2_joint",
        "wrist_3_joint"
    ],
    "metrics": {
        "cart_traj_len": 0.35360183339081735,
        "distance_elbow_joint": 0.44949316020469654,
        "distance_shoulder_lift_joint": 0.23408272771221283,
        "distance_shoulder_pan_joint": 0.46303681477238773,
        "distance_wrist_1_joint": 0.23957559389238126,
        "distance_wrist_2_joint": 1.0969521123596595,
        "distance_wrist_3_joint": 0.10075706843826993,
        "smoothness": 0.0,
        "time": 0.122280032,
        "traj_len": 1.6074506142894742,
        "weighted_distance": 2.0302559741343424
    },
    "planner": "SBL",
    "start": {
        "state": {
            "elbow_joint": 1.9715463870305268,
            "shoulder_lift_joint": -1.1394903361783484,
            "shoulder_pan_joint": 0.12281147578464417,
            "wrist_1_joint": -0.7804599489681411,
            "wrist_2_joint": 0.12958660307563738,
            "wrist_3_joint": -3.1924946282119055
        }
    },
    "waypoints": [
        {
            "positions": [
                0.12281147578464417,
                -1.1394903361783484,
                1.9715463870305268,
                -0.7804599489681411,
                0.12958660307563738,
                -3.1924946282119055
            ]
        },
        {
            "positions": [
                0.05666335938858878,
                -1.1729307258515216,
                2.0357596956311976,
                -0.8146850338099099,
                0.2862940476984459,
                -3.1781007612921526
            ]
        },
        {
            "positions": [
                -0.009484757007466607,
                -1.206371115524695,
                2.0999730042318685,
                -0.8489101186516785,
                0.4430014923212544,
                -3.1637068943724
            ]
        },
        {
            "positions": [
                -0.075632873403522,
                -1.2398115051978682,
                2.1641863128325394,
                -0.8831352034934473,
                0.5997089369440629,
                -3.149313027452647
            ]
        },
        {
            "positions": [
                -0.14178098979957737,
                -1.2732518948710414,
                2.2283996214332102,
                -0.9173602883352161,
                0.7564163815668714,
                -3.134919160532894
            ]
        },
        {
            "positions": [
                -0.20792910619563276,
                -1.3066922845442148,
                2.2926129300338816,
                -0.9515853731769848,
                0.9131238261896799,
                -3.120525293613141
            ]
        },
        {
            "positions": [
                -0.27407722259168815,
                -1.340132674217388,
                2.3568262386345524,
                -0.9858104580187536,
                1.0698312708124884,
                -3.1061314266933886
            ]
        },
        {
            "positions": [
                -0.34022533898774354,
                -1.3735730638905612,
                2.4210395472352233,
                -1.0200355428605223,
                1.226538715435297,
                -3.0917375597736356
            ]
        }
    ]
}