{
    "goal": {
        "global_pose": {
            "orientation": {
                "w": 0.7047431468963623,
                "x": -0.7094548344612122,
                "y": 0.0024358443915843964,
                "z": -0.0022348060738295317
            },
            "position": {
                "x": 0.6094750761985779,
                "y": 0.3671506643295288,
                "z": 0.19426114857196808
            }
        },
        "name": "move_to_magneteinheit_A"
    },
    "id": "SBL_move_to_magneteinheit_A_120",
    "joint_names": [
        "shoulder_pan_joint",
        "shoulder_lift_joint",
        "elbow_joint",
        "wrist_1_joint",
        "wrist_2_joint",
        "wrist_3_joint"
    ],
    "metrics": {
        "cart_traj_len": 2.071337492414588,
        "distance_elbow_joint": 3.903212419452154,
        "distance_shoulder_lift_joint": 1.068335465118155,
        "distance_shoulder_pan_joint": 1.241871547126121,
        "distance_wrist_1_joint": 1.2656351537042037,
        "distance_wrist_2_joint": 1.445323790697313,
        "distance_wrist_3_joint": 2.0150519484336873,
        "smoothness": 7.350442117718582e-16,
        "time": 0.304013398,
        "traj_len": 3.3074809635932354,
        "weighted_distance": 4.204817851679254
    },
    "planner": "SBL",
    "start": {
        "state": {
            "elbow_joint": -1.919643507792019,
            "shoulder_lift_joint": -0.07675430207160344,
            "shoulder_pan_joint": -1.1188671864651873,
            "wrist_1_joint": 0.42560062535961957,
            "wrist_2_joint": 1.5706038300724876,
            "wrist_3_joint": 1.1188968870953055
        }
    },
    "waypoints": [
        {
            "positions": [
                -1.1188671864651873,
                -0.07675430207160344,
                -1.919643507792019,
                0.42560062535961957,
                1.5706038300724876,
                1.1188968870953055
            ]
        },
        {
            "positions": [
                -1.074514631210683,
                -0.11490914011153755,
                -1.7802430642401565,
                0.38039936987018375,
                1.5189851232618692,
                1.1908630281107944
            ]
        },
        {
            "positions": [
                -1.0301620759561787,
                -0.15306397815147166,
                -1.6408426206882938,
                0.33519811438074787,
                1.467366416451251,
                1.2628291691262832
            ]
        },
        {
            "positions": [
                -0.9858095207016744,
                -0.19121881619140574,
                -1.5014421771364312,
                0.28999685889131205,
                1.4157477096406326,
                1.334795310141772
            ]
        },
        {
            "positions": [
                -0.9414569654471701,
                -0.22937365423133985,
                -1.3620417335845687,
                0.2447956034018762,
                1.3641290028300144,
                1.4067614511572608
            ]
        },
        {
            "positions": [
                -0.8971044101926657,
                -0.26752849227127395,
                -1.222641290032706,
                0.19959434791244035,
                1.312510296019396,
                1.4787275921727496
            ]
        },
        {
            "positions": [
                -0.8527518549381614,
                -0.3056833303112081,
                -1.0832408464808432,
                0.15439309242300453,
                1.2608915892087778,
                1.5506937331882384
            ]
        },
        {
            "positions": [
                -0.8083992996836571,
                -0.34383816835114217,
                -0.9438404029289806,
                0.10919183693356865,
                1.2092728823981593,
                1.6226598742037273
            ]
        },
        {
            "positions": [
                -0.7640467444291528,
                -0.38199300639107625,
                -0.8044399593771181,
                0.06399058144413283,
                1.157654175587541,
                1.694626015219216
            ]
        },
        {
            "positions": [
                -0.7196941891746484,
                -0.4201478444310104,
                -0.6650395158252553,
                0.018789325954696956,
                1.1060354687769227,
                1.7665921562347051
            ]
        },
        {
            "positions": [
                -0.6753416339201441,
                -0.45830268247094447,
                -0.5256390722733928,
                -0.026411929534738865,
                1.0544167619663043,
                1.838558297250194
            ]
        },
        {
            "positions": [
                -0.6309890786656398,
                -0.4964575205108786,
                -0.38623862872153003,
                -0.07161318502417474,
                1.002798055155686,
                1.9105244382656825
            ]
        },
        {
            "positions": [
                -0.5866365234111355,
                -0.5346123585508127,
                -0.2468381851696675,
                -0.1168144405136105,
                0.9511793483450678,
                1.9824905792811713
            ]
        },
        {
            "positions": [
                -0.5422839681566312,
                -0.5727671965907468,
                -0.10743774161780473,
                -0.16201569600304638,
                0.8995606415344494,
                2.0544567202966606
            ]
        },
        {
            "positions": [
                -0.49793141290212684,
                -0.610922034630681,
                0.03196270193405781,
                -0.20721695149248226,
                0.8479419347238311,
                2.1264228613121494
            ]
        },
        {
            "positions": [
                -0.4535788576476225,
                -0.6490768726706151,
                0.17136314548592035,
                -0.25241820698191814,
                0.7963232279132128,
                2.1983890023276382
            ]
        },
        {
            "positions": [
                -0.4092263023931182,
                -0.687231710710549,
                0.3107635890377829,
                -0.2976194624713539,
                0.7447045211025944,
                2.270355143343127
            ]
        },
        {
            "positions": [
                -0.364873747138614,
                -0.7253865487504831,
                0.45016403258964544,
                -0.3428207179607898,
                0.6930858142919761,
                2.342321284358616
            ]
        },
        {
            "positions": [
                -0.32052119188410944,
                -0.7635413867904173,
                0.5895644761415084,
                -0.38802197345022565,
                0.6414671074813577,
                2.4142874253741047
            ]
        },
        {
            "positions": [
                -0.2761686366296052,
                -0.8016962248303514,
                0.728964919693371,
                -0.43322322893966153,
                0.5898484006707394,
                2.4862535663895935
            ]
        },
        {
            "positions": [
                -0.2318160813751009,
                -0.8398510628702855,
                0.8683653632452335,
                -0.4784244844290973,
                0.538229693860121,
                2.5582197074050823
            ]
        },
        {
            "positions": [
                -0.18746352612059658,
                -0.8780059009102197,
                1.0077658067970965,
                -0.5236257399185331,
                0.4866109870495028,
                2.630185848420571
            ]
        },
        {
            "positions": [
                -0.14311097086609226,
                -0.9161607389501538,
                1.147166250348959,
                -0.568826995407969,
                0.4349922802388846,
                2.70215198943606
            ]
        },
        {
            "positions": [
                -0.09875841561158794,
                -0.9543155769900877,
                1.2865666939008216,
                -0.6140282508974049,
                0.38337357342826617,
                2.7741181304515488
            ]
        },
        {
            "positions": [
                -0.05440586035708361,
                -0.9924704150300219,
                1.425967137452684,
                -0.6592295063868405,
                0.33175486661764797,
                2.8460842714670376
            ]
        },
        {
            "positions": [
                -0.01005330510257929,
                -1.030625253069956,
                1.565367581004547,
                -0.7044307618762766,
                0.28013615980702933,
                2.9180504124825264
            ]
        },
        {
            "positions": [
                0.03429925015192503,
                -1.0687800911098901,
                1.7047680245564096,
                -0.7496320173657123,
                0.22851745299641113,
                2.990016553498015
            ]
        },
        {
            "positions": [
                0.07865180540642935,
                -1.1069349291498243,
                1.8441684681082722,
                -0.7948332728551482,
                0.1768987461857927,
                3.061982694513504
            ]
        },
        {
            "positions": [
                0.12300436066093356,
                -1.1450897671897584,
                1.9835689116601347,
                -0.8400345283445841,
                0.1252800393751746,
                3.133948835528993
            ]
        }
    ]
}