{
    "goal": {
        "global_pose": {
            "orientation": {
                "w": 0.7047431468963623,
                "x": -0.7094548344612122,
                "y": 0.0024358443915843964,
                "z": -0.0022348060738295317
            },
            "position": {
                "x": 0.6094750761985779,
                "y": 0.3671506643295288,
                "z": 0.19426114857196808
            }
        },
        "name": "move_to_magneteinheit_A"
    },
    "id": "SBL_move_to_magneteinheit_A_19",
    "joint_names": [
        "shoulder_pan_joint",
        "shoulder_lift_joint",
        "elbow_joint",
        "wrist_1_joint",
        "wrist_2_joint",
        "wrist_3_joint"
    ],
    "metrics": {
        "cart_traj_len": 1.8804545876477456,
        "distance_elbow_joint": 3.908327920580543,
        "distance_shoulder_lift_joint": 0.697227643411051,
        "distance_shoulder_pan_joint": 1.2413934778365723,
        "distance_wrist_1_joint": 1.4828884659383712,
        "distance_wrist_2_joint": 1.6982865614854787,
        "distance_wrist_3_joint": 1.108791391113792,
        "smoothness": 6.908054402309962e-16,
        "time": 0.318293897,
        "traj_len": 3.183852298767298,
        "weighted_distance": 3.9415318430804596
    },
    "planner": "SBL",
    "start": {
        "state": {
            "elbow_joint": -1.919643507792019,
            "shoulder_lift_joint": -0.07675430207160344,
            "shoulder_pan_joint": -1.1188671864651873,
            "wrist_1_joint": 0.42560062535961957,
            "wrist_2_joint": 1.5706038300724876,
            "wrist_3_joint": 1.1188968870953055
        }
    },
    "waypoints": [
        {
            "positions": [
                -1.1188671864651873,
                -0.07675430207160344,
                -1.919643507792019,
                0.42560062535961957,
                1.5706038300724876,
                1.1188968870953055
            ]
        },
        {
            "positions": [
                -1.071121283471473,
                -0.10357074989510541,
                -1.7693232031543058,
                0.48263479712648,
                1.5052851161692,
                1.0762510643601597
            ]
        },
        {
            "positions": [
                -1.0233753804777588,
                -0.13038719771860738,
                -1.6190028985165927,
                0.5396689688933405,
                1.4399664022659122,
                1.0336052416250139
            ]
        },
        {
            "positions": [
                -0.9756294774840444,
                -0.15720364554210936,
                -1.4686825938788794,
                0.5967031406602008,
                1.3746476883626246,
                0.990959418889868
            ]
        },
        {
            "positions": [
                -0.9278835744903301,
                -0.18402009336561131,
                -1.3183622892411662,
                0.6537373124270613,
                1.309328974459337,
                0.9483135961547221
            ]
        },
        {
            "positions": [
                -0.8801376714966157,
                -0.2108365411891133,
                -1.168041984603453,
                0.7107714841939217,
                1.2440102605560495,
                0.9056677734195763
            ]
        },
        {
            "positions": [
                -0.8323917685029014,
                -0.23765298901261525,
                -1.01772167996574,
                0.7678056559607822,
                1.1786915466527617,
                0.8630219506844304
            ]
        },
        {
            "positions": [
                -0.7846458655091871,
                -0.26446943683611723,
                -0.8674013753280267,
                0.8248398277276425,
                1.113372832749474,
                0.8203761279492846
            ]
        },
        {
            "positions": [
                -0.7368999625154729,
                -0.2912858846596192,
                -0.7170810706903135,
                0.8818739994945031,
                1.0480541188461863,
                0.7777303052141387
            ]
        },
        {
            "positions": [
                -0.6891540595217585,
                -0.31810233248312114,
                -0.5667607660526004,
                0.9389081712613634,
                0.9827354049428988,
                0.7350844824789928
            ]
        },
        {
            "positions": [
                -0.6414081565280441,
                -0.34491878030662315,
                -0.4164404614148871,
                0.9959423430282239,
                0.9174166910396111,
                0.692438659743847
            ]
        },
        {
            "positions": [
                -0.5936622535343299,
                -0.37173522813012505,
                -0.26612015677717404,
                1.0529765147950843,
                0.8520979771363235,
                0.6497928370087012
            ]
        },
        {
            "positions": [
                -0.5459163505406155,
                -0.39855167595362706,
                -0.11579985213946076,
                1.1100106865619448,
                0.7867792632330358,
                0.6071470142735553
            ]
        },
        {
            "positions": [
                -0.4981704475469012,
                -0.425368123777129,
                0.03452045249825231,
                1.1670448583288051,
                0.7214605493297482,
                0.5645011915384095
            ]
        },
        {
            "positions": [
                -0.4504245445531869,
                -0.45218457160063097,
                0.1848407571359656,
                1.2240790300956657,
                0.6561418354264607,
                0.5218553688032637
            ]
        },
        {
            "positions": [
                -0.40267864155947264,
                -0.4790010194241329,
                0.33516106177367866,
                1.281113201862526,
                0.5908231215231731,
                0.47920954606811783
            ]
        },
        {
            "positions": [
                -0.35493273856575824,
                -0.505817467247635,
                0.48548136641139217,
                1.3381473736293865,
                0.5255044076198851,
                0.4365637233329719
            ]
        },
        {
            "positions": [
                -0.30718683557204396,
                -0.5326339150711369,
                0.6358016710491052,
                1.3951815453962468,
                0.46018569371659757,
                0.39391790059782605
            ]
        },
        {
            "positions": [
                -0.2594409325783297,
                -0.5594503628946388,
                0.7861219756868183,
                1.4522157171631074,
                0.39486697981331,
                0.3512720778626802
            ]
        },
        {
            "positions": [
                -0.2116950295846154,
                -0.5862668107181408,
                0.9364422803245314,
                1.5092498889299677,
                0.3295482659100224,
                0.3086262551275345
            ]
        },
        {
            "positions": [
                -0.16394912659090088,
                -0.6130832585416428,
                1.0867625849622449,
                1.5662840606968282,
                0.2642295520067346,
                0.26598043239238844
            ]
        },
        {
            "positions": [
                -0.1162032235971866,
                -0.6398997063651448,
                1.237082889599958,
                1.6233182324636888,
                0.198910838103447,
                0.22333460965724272
            ]
        },
        {
            "positions": [
                -0.06845732060347243,
                -0.6667161541886466,
                1.387403194237671,
                1.680352404230549,
                0.13359212420015942,
                0.1806887869220969
            ]
        },
        {
            "positions": [
                -0.02071141760975803,
                -0.6935326020121486,
                1.537723498875384,
                1.7373865759974094,
                0.06827341029687184,
                0.13804296418695106
            ]
        },
        {
            "positions": [
                0.027034485383956364,
                -0.7203490498356506,
                1.6880438035130976,
                1.79442074776427,
                0.002954696393584033,
                0.09539714145180511
            ]
        },
        {
            "positions": [
                0.07478038837767054,
                -0.7471654976591526,
                1.8383641081508106,
                1.8514549195311305,
                -0.06236401750970355,
                0.05275131871665928
            ]
        },
        {
            "positions": [
                0.12252629137138484,
                -0.7739819454826545,
                1.9886844127885237,
                1.9084890912979908,
                -0.1276827314129912,
                0.010105495981513479
            ]
        }
    ]
}