{
    "goal": {
        "global_pose": {
            "orientation": {
                "w": 0.5084816217422485,
                "x": -0.49083608388900757,
                "y": 0.5182115435600281,
                "z": -0.4816462993621826
            },
            "position": {
                "x": 0.5540239810943604,
                "y": 0.030875300988554955,
                "z": 0.16403168439865112
            }
        },
        "name": "move_to_storage_A"
    },
    "id": "SBL_move_to_storage_A_93",
    "joint_names": [
        "shoulder_pan_joint",
        "shoulder_lift_joint",
        "elbow_joint",
        "wrist_1_joint",
        "wrist_2_joint",
        "wrist_3_joint"
    ],
    "metrics": {
        "cart_traj_len": 0.35326964614891815,
        "distance_elbow_joint": 0.45043801786094884,
        "distance_shoulder_lift_joint": 0.23512459621826554,
        "distance_shoulder_pan_joint": 0.4605130279041072,
        "distance_wrist_1_joint": 0.2399521414733038,
        "distance_wrist_2_joint": 1.1061594184359969,
        "distance_wrist_3_joint": 0.10401126572695674,
        "smoothness": 4.440892133664971e-16,
        "time": 0.138882761,
        "traj_len": 1.611272313303862,
        "weighted_distance": 2.037236500503266
    },
    "planner": "SBL",
    "start": {
        "state": {
            "elbow_joint": 1.9715463870305268,
            "shoulder_lift_joint": -1.1394903361783484,
            "shoulder_pan_joint": 0.12281147578464417,
            "wrist_1_joint": -0.7804599489681411,
            "wrist_2_joint": 0.12958660307563738,
            "wrist_3_joint": -3.1924946282119055
        }
    },
    "waypoints": [
        {
            "positions": [
                0.12281147578464417,
                -1.1394903361783484,
                1.9715463870305268,
                -0.7804599489681411,
                0.12958660307563738,
                -3.1924946282119055
            ]
        },
        {
            "positions": [
                0.057023900369771716,
                -1.173079564209529,
                2.0358946752963765,
                -0.8147388263214702,
                0.2876093771379227,
                -3.1776358759651973
            ]
        },
        {
            "positions": [
                -0.008763675045100741,
                -1.20666879224071,
                2.1002429635622266,
                -0.8490177036747993,
                0.44563215120020794,
                -3.1627771237184894
            ]
        },
        {
            "positions": [
                -0.0745512504599732,
                -1.2402580202718907,
                2.1645912518280763,
                -0.8832965810281284,
                0.6036549252624932,
                -3.147918371471781
            ]
        },
        {
            "positions": [
                -0.14033882587484564,
                -1.2738472483030716,
                2.228939540093926,
                -0.9175754583814575,
                0.7616776993247785,
                -3.1330596192250733
            ]
        },
        {
            "positions": [
                -0.2061264012897181,
                -1.3074364763342523,
                2.2932878283597757,
                -0.9518543357347866,
                0.9197004733870637,
                -3.118200866978365
            ]
        },
        {
            "positions": [
                -0.27191397670459055,
                -1.3410257043654332,
                2.357636116625626,
                -0.9861332130881157,
                1.077723247449349,
                -3.103342114731657
            ]
        },
        {
            "positions": [
                -0.337701552119463,
                -1.374614932396614,
                2.4219844048914756,
                -1.0204120904414449,
                1.2357460215116343,
                -3.088483362484949
            ]
        }
    ]
}