{
    "goal": {
        "global_pose": {
            "orientation": {
                "w": 0.7047431468963623,
                "x": -0.7094548344612122,
                "y": 0.0024358443915843964,
                "z": -0.0022348060738295317
            },
            "position": {
                "x": 0.6094750761985779,
                "y": 0.3671506643295288,
                "z": 0.19426114857196808
            }
        },
        "name": "move_to_magneteinheit_A"
    },
    "id": "SBL_move_to_magneteinheit_A_149",
    "joint_names": [
        "shoulder_pan_joint",
        "shoulder_lift_joint",
        "elbow_joint",
        "wrist_1_joint",
        "wrist_2_joint",
        "wrist_3_joint"
    ],
    "metrics": {
        "cart_traj_len": 1.8808782413984249,
        "distance_elbow_joint": 3.907548486537979,
        "distance_shoulder_lift_joint": 0.6976147502295299,
        "distance_shoulder_pan_joint": 1.2424732647081425,
        "distance_wrist_1_joint": 1.4778784260772513,
        "distance_wrist_2_joint": 1.7027969796250244,
        "distance_wrist_3_joint": 1.0942262455528782,
        "smoothness": 3.6185046922262754e-16,
        "time": 0.291206094,
        "traj_len": 3.181593649844494,
        "weighted_distance": 3.9359453819303494
    },
    "planner": "SBL",
    "start": {
        "state": {
            "elbow_joint": -1.919643507792019,
            "shoulder_lift_joint": -0.07675430207160344,
            "shoulder_pan_joint": -1.1188671864651873,
            "wrist_1_joint": 0.42560062535961957,
            "wrist_2_joint": 1.5706038300724876,
            "wrist_3_joint": 1.1188968870953055
        }
    },
    "waypoints": [
        {
            "positions": [
                -1.1188671864651873,
                -0.07675430207160344,
                -1.919643507792019,
                0.42560062535961957,
                1.5706038300724876,
                1.1188968870953055
            ]
        },
        {
            "positions": [
                -1.0710797532071819,
                -0.10358563861889306,
                -1.7693531813867123,
                0.4824421032856677,
                1.5051116385484482,
                1.0768112622663486
            ]
        },
        {
            "positions": [
                -1.0232923199491764,
                -0.13041697516618267,
                -1.6190628549814052,
                0.5392835812117158,
                1.4396194470244088,
                1.0347256374373919
            ]
        },
        {
            "positions": [
                -0.9755048866911709,
                -0.1572483117134723,
                -1.4687725285760984,
                0.5961250591377639,
                1.3741272555003694,
                0.9926400126084349
            ]
        },
        {
            "positions": [
                -0.9277174534331654,
                -0.1840796482607619,
                -1.3184822021707916,
                0.652966537063812,
                1.30863506397633,
                0.9505543877794781
            ]
        },
        {
            "positions": [
                -0.87993002017516,
                -0.21091098480805154,
                -1.1681918757654848,
                0.7098080149898602,
                1.2431428724522906,
                0.9084687629505213
            ]
        },
        {
            "positions": [
                -0.8321425869171545,
                -0.23774232135534115,
                -1.0179015493601777,
                0.7666494929159083,
                1.1776506809282512,
                0.8663831381215644
            ]
        },
        {
            "positions": [
                -0.784355153659149,
                -0.26457365790263077,
                -0.8676112229548709,
                0.8234909708419564,
                1.1121584894042118,
                0.8242975132926076
            ]
        },
        {
            "positions": [
                -0.7365677204011435,
                -0.2914049944499204,
                -0.7173208965495639,
                0.8803324487680046,
                1.0466662978801724,
                0.7822118884636506
            ]
        },
        {
            "positions": [
                -0.6887802871431381,
                -0.31823633099720994,
                -0.5670305701442571,
                0.9371739266940526,
                0.981174106356133,
                0.7401262636346939
            ]
        },
        {
            "positions": [
                -0.6409928538851326,
                -0.34506766754449963,
                -0.41674024373895024,
                0.9940154046201009,
                0.9156819148320936,
                0.698040638805737
            ]
        },
        {
            "positions": [
                -0.5932054206271271,
                -0.3718990040917892,
                -0.2664499173336434,
                1.0508568825461488,
                0.8501897233080542,
                0.6559550139767802
            ]
        },
        {
            "positions": [
                -0.5454179873691216,
                -0.39873034063907886,
                -0.11615959092833639,
                1.107698360472197,
                0.7846975317840148,
                0.6138693891478233
            ]
        },
        {
            "positions": [
                -0.4976305541111161,
                -0.42556167718636845,
                0.03413073547697043,
                1.1645398383982453,
                0.7192053402599754,
                0.5717837643188665
            ]
        },
        {
            "positions": [
                -0.4498431208531106,
                -0.45239301373365803,
                0.18442106188227725,
                1.2213813163242933,
                0.653713148735936,
                0.5296981394899096
            ]
        },
        {
            "positions": [
                -0.40205568759510524,
                -0.4792243502809476,
                0.33471138828758407,
                1.2782227942503415,
                0.5882209572118967,
                0.4876125146609528
            ]
        },
        {
            "positions": [
                -0.35426825433709963,
                -0.5060556868282373,
                0.48500171469289133,
                1.3350642721763897,
                0.5227287656878572,
                0.44552688983199584
            ]
        },
        {
            "positions": [
                -0.30648082107909425,
                -0.532887023375527,
                0.6352920410981981,
                1.3919057501024377,
                0.4572365741638178,
                0.403441265003039
            ]
        },
        {
            "positions": [
                -0.25869338782108875,
                -0.5597183599228165,
                0.785582367503505,
                1.4487472280284859,
                0.3917443826397784,
                0.36135564017408217
            ]
        },
        {
            "positions": [
                -0.21090595456308325,
                -0.586549696470106,
                0.9358726939088118,
                1.5055887059545339,
                0.326252191115739,
                0.31927001534512534
            ]
        },
        {
            "positions": [
                -0.16311852130507776,
                -0.6133810330173959,
                1.0861630203141186,
                1.5624301838805823,
                0.2607599995916996,
                0.2771843905161685
            ]
        },
        {
            "positions": [
                -0.11533108804707237,
                -0.6402123695646853,
                1.2364533467194254,
                1.6192716618066303,
                0.1952678080676602,
                0.23509876568721166
            ]
        },
        {
            "positions": [
                -0.06754365478906688,
                -0.6670437061119749,
                1.3867436731247322,
                1.6761131397326783,
                0.1297756165436208,
                0.19301314085825483
            ]
        },
        {
            "positions": [
                -0.01975622153106138,
                -0.6938750426592646,
                1.537033999530039,
                1.7329546176587265,
                0.0642834250195814,
                0.150927516029298
            ]
        },
        {
            "positions": [
                0.028031211726944116,
                -0.7207063792065542,
                1.6873243259353463,
                1.7897960955847747,
                -0.0012087665044580032,
                0.10884189120034105
            ]
        },
        {
            "positions": [
                0.07581864498494961,
                -0.7475377157538439,
                1.8376146523406531,
                1.846637573510823,
                -0.0667009580284974,
                0.0667562663713841
            ]
        },
        {
            "positions": [
                0.12360607824295518,
                -0.7743690523011334,
                1.9879049787459602,
                1.903479051436871,
                -0.13219314955253672,
                0.024670641542427377
            ]
        }
    ]
}