{
    "goal": {
        "global_pose": {
            "orientation": {
                "w": 0.7047431468963623,
                "x": -0.7094548344612122,
                "y": 0.0024358443915843964,
                "z": -0.0022348060738295317
            },
            "position": {
                "x": 0.6094750761985779,
                "y": 0.3671506643295288,
                "z": 0.19426114857196808
            }
        },
        "name": "move_to_magneteinheit_A"
    },
    "id": "SBL_move_to_magneteinheit_A_141",
    "joint_names": [
        "shoulder_pan_joint",
        "shoulder_lift_joint",
        "elbow_joint",
        "wrist_1_joint",
        "wrist_2_joint",
        "wrist_3_joint"
    ],
    "metrics": {
        "cart_traj_len": 1.895691319429668,
        "distance_elbow_joint": 3.8736396742890653,
        "distance_shoulder_lift_joint": 1.325562471520152,
        "distance_shoulder_pan_joint": 1.240210259656012,
        "distance_wrist_1_joint": 1.1269295195320685,
        "distance_wrist_2_joint": 1.516081210518059,
        "distance_wrist_3_joint": 4.380791016229887,
        "smoothness": 0.058037831869005685,
        "time": 0.21663559,
        "traj_len": 3.6692252795031877,
        "weighted_distance": 4.9867631700588255
    },
    "planner": "SBL",
    "start": {
        "state": {
            "elbow_joint": -1.919643507792019,
            "shoulder_lift_joint": -0.07675430207160344,
            "shoulder_pan_joint": -1.1188671864651873,
            "wrist_1_joint": 0.42560062535961957,
            "wrist_2_joint": 1.5706038300724876,
            "wrist_3_joint": 1.1188968870953055
        }
    },
    "waypoints": [
        {
            "positions": [
                -1.1188671864651873,
                -0.07675430207160344,
                -1.919643507792019,
                0.42560062535961957,
                1.5706038300724876,
                1.1188968870953055
            ]
        },
        {
            "positions": [
                -1.0842448526272075,
                -0.11922253224904292,
                -1.7929892767653337,
                0.409807436391742,
                1.5177569883334865,
                1.005049195511582
            ]
        },
        {
            "positions": [
                -1.0496225187892279,
                -0.1616907624264824,
                -1.6663350457386485,
                0.3940142474238645,
                1.4649101465944854,
                0.8912015039278585
            ]
        },
        {
            "positions": [
                -1.015000184951248,
                -0.20415899260392187,
                -1.5396808147119632,
                0.3782210584559869,
                1.4120633048554843,
                0.7773538123441348
            ]
        },
        {
            "positions": [
                -0.9803778511132684,
                -0.24662722278136134,
                -1.4130265836852778,
                0.36242786948810934,
                1.3592164631164831,
                0.6635061207604113
            ]
        },
        {
            "positions": [
                -0.9457555172752885,
                -0.28909545295880085,
                -1.2863723526585926,
                0.34663468052023183,
                1.306369621377482,
                0.5496584291766876
            ]
        },
        {
            "positions": [
                -0.9111331834373089,
                -0.3315636831362403,
                -1.1597181216319075,
                0.33084149155235426,
                1.253522779638481,
                0.4358107375929642
            ]
        },
        {
            "positions": [
                -0.876510849599329,
                -0.3740319133136798,
                -1.0330638906052219,
                0.3150483025844767,
                1.2006759378994798,
                0.32196304600924053
            ]
        },
        {
            "positions": [
                -0.8418885157613494,
                -0.41650014349111925,
                -0.9064096595785367,
                0.2992551136165992,
                1.1478290961604785,
                0.20811535442551699
            ]
        },
        {
            "positions": [
                -0.8072661819233695,
                -0.4589683736685588,
                -0.7797554285518513,
                0.28346192464872155,
                1.0949822544214773,
                0.09426766284179333
            ]
        },
        {
            "positions": [
                -0.7726438480853898,
                -0.5014366038459983,
                -0.6531011975251659,
                0.26766873568084404,
                1.0421354126824762,
                -0.019580028741930322
            ]
        },
        {
            "positions": [
                -0.73802151424741,
                -0.5439048340234377,
                -0.5264469664984808,
                0.25187554671296647,
                0.9892885709434752,
                -0.13342772032565375
            ]
        },
        {
            "positions": [
                -0.7033991804094304,
                -0.5863730642008771,
                -0.3997927354717956,
                0.23608235774508893,
                0.9364417292044741,
                -0.24727541190937719
            ]
        },
        {
            "positions": [
                -0.6687768465714505,
                -0.6288412943783166,
                -0.27313850444511,
                0.22028916877721136,
                0.8835948874654729,
                -0.36112310349310106
            ]
        },
        {
            "positions": [
                -0.6341545127334708,
                -0.6713095245557561,
                -0.14648427341842485,
                0.20449597980933382,
                0.8307480457264718,
                -0.4749707950768245
            ]
        },
        {
            "positions": [
                -0.599532178895491,
                -0.7137777547331956,
                -0.01983004239173969,
                0.18870279084145627,
                0.7779012039874706,
                -0.5888184866605479
            ]
        },
        {
            "positions": [
                -0.5649098450575113,
                -0.7562459849106351,
                0.1068241886349457,
                0.17290960187357873,
                0.7250543622484695,
                -0.7026661782442716
            ]
        },
        {
            "positions": [
                -0.5302875112195315,
                -0.7987142150880746,
                0.23347841966163085,
                0.15711641290570116,
                0.6722075205094684,
                -0.816513869827995
            ]
        },
        {
            "positions": [
                -0.4956651773815517,
                -0.8411824452655141,
                0.36013265068831646,
                0.1413232239378236,
                0.6193606787704672,
                -0.9303615614117189
            ]
        },
        {
            "positions": [
                -0.46104284354357195,
                -0.8836506754429536,
                0.4867868817150016,
                0.12553003496994602,
                0.566513837031466,
                -1.0442092529954423
            ]
        },
        {
            "positions": [
                -0.4264205097055922,
                -0.9261189056203931,
                0.6134411127416872,
                0.10973684600206851,
                0.5136669952924648,
                -1.1580569445791662
            ]
        },
        {
            "positions": [
                -0.39179817586761256,
                -0.9685871357978326,
                0.7400953437683724,
                0.09394365703419094,
                0.46082015355346395,
                -1.2719046361628896
            ]
        },
        {
            "positions": [
                -0.3571758420296328,
                -1.011055365975272,
                0.8667495747950575,
                0.07815046806631337,
                0.40797331181446284,
                -1.385752327746613
            ]
        },
        {
            "positions": [
                -0.32255350819165307,
                -1.0535235961527114,
                0.9934038058217427,
                0.06235727909843586,
                0.3551264700754617,
                -1.4996000193303365
            ]
        },
        {
            "positions": [
                -0.2879311743536733,
                -1.095991826330151,
                1.1200580368484279,
                0.04656409013055829,
                0.3022796283364606,
                -1.61344771091406
            ]
        },
        {
            "positions": [
                -0.25330884051569347,
                -1.1384600565075906,
                1.2467122678751135,
                0.03077090116268072,
                0.24943278659745927,
                -1.7272954024977838
            ]
        },
        {
            "positions": [
                -0.21868650667771372,
                -1.18092828668503,
                1.373366498901799,
                0.01497771219480315,
                0.19658594485845815,
                -1.8411430940815077
            ]
        },
        {
            "positions": [
                -0.18406417283973397,
                -1.2233965168624694,
                1.5000207299284842,
                -0.000815476773074364,
                0.14373910311945703,
                -1.954990785665231
            ]
        },
        {
            "positions": [
                -0.14944183900175426,
                -1.265864747039909,
                1.6266749609551694,
                -0.01660866574095196,
                0.09089226138045603,
                -2.0688384772489545
            ]
        },
        {
            "positions": [
                -0.11075828011710012,
                -1.2463716003896452,
                1.6734351331754376,
                -0.11442584123116581,
                0.09608792449845997,
                -2.239274998946901
            ]
        },
        {
            "positions": [
                -0.072074721232446,
                -1.2268784537393813,
                1.7201953053957058,
                -0.21224301672137966,
                0.10128358761646392,
                -2.409711520644848
            ]
        },
        {
            "positions": [
                -0.03339116234779188,
                -1.2073853070891176,
                1.7669554776159737,
                -0.31006019221159353,
                0.10647925073446786,
                -2.5801480423427945
            ]
        },
        {
            "positions": [
                0.005292396536862254,
                -1.1878921604388537,
                1.813715649836242,
                -0.4078773677018074,
                0.1116749138524718,
                -2.750584564040741
            ]
        },
        {
            "positions": [
                0.04397595542151639,
                -1.16839901378859,
                1.86047582205651,
                -0.5056945431920212,
                0.11687057697047576,
                -2.9210210857386882
            ]
        },
        {
            "positions": [
                0.0826595143061705,
                -1.148905867138326,
                1.9072359942767783,
                -0.6035117186822351,
                0.1220662400884797,
                -3.0914576074366344
            ]
        },
        {
            "positions": [
                0.12134307319082464,
                -1.1294127204880624,
                1.9539961664970464,
                -0.7013288941724489,
                0.12726190320648365,
                -3.2618941291345815
            ]
        }
    ]
}