{
    "goal": {
        "global_pose": {
            "orientation": {
                "w": 0.5084816217422485,
                "x": -0.49083608388900757,
                "y": 0.5182115435600281,
                "z": -0.4816462993621826
            },
            "position": {
                "x": 0.5540239810943604,
                "y": 0.030875300988554955,
                "z": 0.16403168439865112
            }
        },
        "name": "move_to_storage_A"
    },
    "id": "SBL_move_to_storage_A_3",
    "joint_names": [
        "shoulder_pan_joint",
        "shoulder_lift_joint",
        "elbow_joint",
        "wrist_1_joint",
        "wrist_2_joint",
        "wrist_3_joint"
    ],
    "metrics": {
        "cart_traj_len": 0.3525188626307208,
        "distance_elbow_joint": 0.44779552191316974,
        "distance_shoulder_lift_joint": 0.2354829824350393,
        "distance_shoulder_pan_joint": 0.4576047511519943,
        "distance_wrist_1_joint": 0.23338986339524792,
        "distance_wrist_2_joint": 1.1124696777028364,
        "distance_wrist_3_joint": 0.09812135025151258,
        "smoothness": 1.3322676295501878e-15,
        "time": 0.148739344,
        "traj_len": 1.6077512702062469,
        "weighted_distance": 2.031493634853654
    },
    "planner": "SBL",
    "start": {
        "state": {
            "elbow_joint": 1.9715463870305268,
            "shoulder_lift_joint": -1.1394903361783484,
            "shoulder_pan_joint": 0.12281147578464417,
            "wrist_1_joint": -0.7804599489681411,
            "wrist_2_joint": 0.12958660307563738,
            "wrist_3_joint": -3.1924946282119055
        }
    },
    "waypoints": [
        {
            "positions": [
                0.12281147578464417,
                -1.1394903361783484,
                1.9715463870305268,
                -0.7804599489681411,
                0.12958660307563738,
                -3.1924946282119055
            ]
        },
        {
            "positions": [
                0.057439368477216424,
                -1.173130762240497,
                2.0355171758752655,
                -0.8138013580246051,
                0.2885108427474712,
                -3.1784772924616895
            ]
        },
        {
            "positions": [
                -0.007932738830211325,
                -1.2067711883026453,
                2.0994879647200038,
                -0.8471427670810691,
                0.44743508241930496,
                -3.1644599567114735
            ]
        },
        {
            "positions": [
                -0.07330484613763909,
                -1.2404116143647939,
                2.1634587535647425,
                -0.880484176137533,
                0.6063593220911387,
                -3.1504426209612575
            ]
        },
        {
            "positions": [
                -0.1386769534450668,
                -1.2740520404269422,
                2.2274295424094808,
                -0.913825585193997,
                0.7652835617629725,
                -3.136425285211041
            ]
        },
        {
            "positions": [
                -0.20404906075249457,
                -1.3076924664890908,
                2.2914003312542195,
                -0.947166994250461,
                0.9242078014348063,
                -3.122407949460825
            ]
        },
        {
            "positions": [
                -0.26942116805992233,
                -1.341332892551239,
                2.3553711200989578,
                -0.980508403306925,
                1.08313204110664,
                -3.108390613710609
            ]
        },
        {
            "positions": [
                -0.3347932753673501,
                -1.3749733186133877,
                2.4193419089436965,
                -1.013849812363389,
                1.2420562807784739,
                -3.094373277960393
            ]
        }
    ]
}