{
    "goal": {
        "global_pose": {
            "orientation": {
                "w": 0.7047431468963623,
                "x": -0.7094548344612122,
                "y": 0.0024358443915843964,
                "z": -0.0022348060738295317
            },
            "position": {
                "x": 0.6094750761985779,
                "y": 0.3671506643295288,
                "z": 0.19426114857196808
            }
        },
        "name": "move_to_magneteinheit_A"
    },
    "id": "SBL_move_to_magneteinheit_A_117",
    "joint_names": [
        "shoulder_pan_joint",
        "shoulder_lift_joint",
        "elbow_joint",
        "wrist_1_joint",
        "wrist_2_joint",
        "wrist_3_joint"
    ],
    "metrics": {
        "cart_traj_len": 2.063292996755373,
        "distance_elbow_joint": 3.8747907381762188,
        "distance_shoulder_lift_joint": 1.0538795810357315,
        "distance_shoulder_pan_joint": 1.242132245667534,
        "distance_wrist_1_joint": 1.1396721492852835,
        "distance_wrist_2_joint": 1.4437881621081363,
        "distance_wrist_3_joint": 1.9225861141470877,
        "smoothness": 7.295751318397958e-16,
        "time": 0.307065044,
        "traj_len": 3.267544795472587,
        "weighted_distance": 4.13587735917152
    },
    "planner": "SBL",
    "start": {
        "state": {
            "elbow_joint": -1.919643507792019,
            "shoulder_lift_joint": -0.07675430207160344,
            "shoulder_pan_joint": -1.1188671864651873,
            "wrist_1_joint": 0.42560062535961957,
            "wrist_2_joint": 1.5706038300724876,
            "wrist_3_joint": 1.1188968870953055
        }
    },
    "waypoints": [
        {
            "positions": [
                -1.1188671864651873,
                -0.07675430207160344,
                -1.919643507792019,
                0.42560062535961957,
                1.5706038300724876,
                1.1188968870953055
            ]
        },
        {
            "positions": [
                -1.072862288477501,
                -0.1157868791470009,
                -1.7761327397114184,
                0.3833905457564609,
                1.5171301944388529,
                1.1901037802118644
            ]
        },
        {
            "positions": [
                -1.0268573904898144,
                -0.15481945622239837,
                -1.6326219716308177,
                0.3411804661533023,
                1.4636565588052182,
                1.2613106733284232
            ]
        },
        {
            "positions": [
                -0.980852492502128,
                -0.19385203329779582,
                -1.489111203550217,
                0.29897038655014363,
                1.4101829231715837,
                1.332517566444982
            ]
        },
        {
            "positions": [
                -0.9348475945144415,
                -0.2328846103731933,
                -1.3456004354696165,
                0.256760306946985,
                1.356709287537949,
                1.4037244595615408
            ]
        },
        {
            "positions": [
                -0.8888426965267551,
                -0.2719171874485907,
                -1.2020896673890156,
                0.21455022734382634,
                1.3032356519043142,
                1.4749313526780996
            ]
        },
        {
            "positions": [
                -0.8428377985390687,
                -0.3109497645239882,
                -1.058578899308415,
                0.1723401477406677,
                1.2497620162706795,
                1.5461382457946584
            ]
        },
        {
            "positions": [
                -0.7968329005513822,
                -0.3499823415993857,
                -0.9150681312278144,
                0.13013006813750905,
                1.196288380637045,
                1.617345138911217
            ]
        },
        {
            "positions": [
                -0.7508280025636958,
                -0.38901491867478316,
                -0.7715573631472137,
                0.0879199885343504,
                1.14281474500341,
                1.688552032027776
            ]
        },
        {
            "positions": [
                -0.7048231045760094,
                -0.4280474957501806,
                -0.628046595066613,
                0.045709908931191756,
                1.0893411093697756,
                1.7597589251443346
            ]
        },
        {
            "positions": [
                -0.6588182065883229,
                -0.46708007282557806,
                -0.4845358269860123,
                0.0034998293280331105,
                1.0358674737361409,
                1.8309658182608937
            ]
        },
        {
            "positions": [
                -0.6128133086006364,
                -0.5061126499009756,
                -0.34102505890541157,
                -0.038710250275125535,
                0.9823938381025061,
                1.9021727113774523
            ]
        },
        {
            "positions": [
                -0.56680841061295,
                -0.545145226976373,
                -0.19751429082481087,
                -0.08092032987828418,
                0.9289202024688715,
                1.9733796044940113
            ]
        },
        {
            "positions": [
                -0.5208035126252636,
                -0.5841778040517704,
                -0.054003522744210164,
                -0.12313040948144277,
                0.8754465668352368,
                2.04458649761057
            ]
        },
        {
            "positions": [
                -0.4747986146375771,
                -0.6232103811271679,
                0.08950724533639032,
                -0.16534048908460147,
                0.8219729312016022,
                2.115793390727129
            ]
        },
        {
            "positions": [
                -0.42879371664989063,
                -0.6622429582025655,
                0.23301801341699124,
                -0.20755056868776017,
                0.7684992955679674,
                2.1870002838436875
            ]
        },
        {
            "positions": [
                -0.38278881866220427,
                -0.7012755352779629,
                0.3765287814975917,
                -0.24976064829091876,
                0.7150256599343328,
                2.258207176960246
            ]
        },
        {
            "positions": [
                -0.3367839206745177,
                -0.7403081123533604,
                0.5200395495781927,
                -0.29197072789407746,
                0.661552024300698,
                2.3294140700768056
            ]
        },
        {
            "positions": [
                -0.2907790226868313,
                -0.7793406894287578,
                0.6635503176587931,
                -0.33418080749723605,
                0.6080783886670634,
                2.400620963193364
            ]
        },
        {
            "positions": [
                -0.24477412469914483,
                -0.8183732665041552,
                0.8070610857393941,
                -0.37639088710039476,
                0.5546047530334286,
                2.4718278563099227
            ]
        },
        {
            "positions": [
                -0.19876922671145847,
                -0.8574058435795526,
                0.9505718538199945,
                -0.41860096670355335,
                0.5011311173997941,
                2.5430347494264813
            ]
        },
        {
            "positions": [
                -0.15276432872377188,
                -0.8964384206549503,
                1.0940826219005955,
                -0.46081104630671205,
                0.4476574817661594,
                2.6142416425430404
            ]
        },
        {
            "positions": [
                -0.10675943073608551,
                -0.9354709977303477,
                1.237593389981196,
                -0.5030211259098707,
                0.39418384613252466,
                2.6854485356595994
            ]
        },
        {
            "positions": [
                -0.060754532748398926,
                -0.9745035748057451,
                1.3811041580617969,
                -0.5452312055130293,
                0.34071021049888994,
                2.756655428776158
            ]
        },
        {
            "positions": [
                -0.01474963476071256,
                -1.0135361518811425,
                1.5246149261423974,
                -0.5874412851161879,
                0.28723657486525545,
                2.8278623218927166
            ]
        },
        {
            "positions": [
                0.031255263226973806,
                -1.05256872895654,
                1.6681256942229983,
                -0.6296513647193467,
                0.23376293923162073,
                2.8990692150092756
            ]
        },
        {
            "positions": [
                0.07726016121466017,
                -1.0916013060319376,
                1.8116364623035988,
                -0.671861444322505,
                0.180289303597986,
                2.9702761081258346
            ]
        },
        {
            "positions": [
                0.12326505920234669,
                -1.130633883107335,
                1.9551472303841995,
                -0.7140715239256639,
                0.12681566796435134,
                3.0414830012423932
            ]
        }
    ]
}