{
    "goal": {
        "global_pose": {
            "orientation": {
                "w": 0.7031023502349854,
                "x": -0.7110244035720825,
                "y": 0.007748599164187908,
                "z": 0.005598929710686207
            },
            "position": {
                "x": 0.11585023208521307,
                "y": 0.44412534475326537,
                "z": 0.3711530566215515
            }
        },
        "name": "move_to_auspresseinheit_A"
    },
    "id": "SBL_move_to_auspresseinheit_A_55",
    "joint_names": [
        "shoulder_pan_joint",
        "shoulder_lift_joint",
        "elbow_joint",
        "wrist_1_joint",
        "wrist_2_joint",
        "wrist_3_joint"
    ],
    "metrics": {
        "cart_traj_len": 0.8570207592977971,
        "distance_elbow_joint": 0.35288880952020474,
        "distance_shoulder_lift_joint": 0.9244516105800467,
        "distance_shoulder_pan_joint": 1.2929108855106262,
        "distance_wrist_1_joint": 2.656984409017543,
        "distance_wrist_2_joint": 1.6411290661663736,
        "distance_wrist_3_joint": 4.187467297456953,
        "smoothness": 0.9265115152369774,
        "time": 0.257052294,
        "traj_len": 3.3250311394409144,
        "weighted_distance": 4.8712298394090965
    },
    "planner": "SBL",
    "start": {
        "state": {
            "elbow_joint": 2.422574709923281,
            "shoulder_lift_joint": -1.3736533754116391,
            "shoulder_pan_joint": -0.33786336945926293,
            "wrist_1_joint": -1.0288603412921917,
            "wrist_2_joint": 1.2330224858903978,
            "wrist_3_joint": -3.094022268022082
        }
    },
    "waypoints": [
        {
            "positions": [
                -0.33786336945926293,
                -1.3736533754116391,
                2.422574709923281,
                -1.0288603412921917,
                1.2330224858903978,
                -3.094022268022082
            ]
        },
        {
            "positions": [
                -0.3461941184440002,
                -1.4221841370674209,
                2.409699055870745,
                -0.9210881743103261,
                1.1606425411480905,
                -2.9562783411967657
            ]
        },
        {
            "positions": [
                -0.3545248674287375,
                -1.4707148987232026,
                2.3968234018182093,
                -0.8133160073284605,
                1.0882625964057833,
                -2.818534414371449
            ]
        },
        {
            "positions": [
                -0.3628556164134748,
                -1.5192456603789846,
                2.3839477477656734,
                -0.7055438403465949,
                1.015882651663476,
                -2.6807904875461324
            ]
        },
        {
            "positions": [
                -0.3711863653982121,
                -1.5677764220347663,
                2.371072093713137,
                -0.5977716733647294,
                0.9435027069211688,
                -2.543046560720816
            ]
        },
        {
            "positions": [
                -0.3795171143829494,
                -1.616307183690548,
                2.358196439660601,
                -0.4899995063828637,
                0.8711227621788615,
                -2.405302633895499
            ]
        },
        {
            "positions": [
                -0.38784786336768673,
                -1.6648379453463298,
                2.3453207856080653,
                -0.38222733940099807,
                0.7987428174365542,
                -2.267558707070182
            ]
        },
        {
            "positions": [
                -0.396178612352424,
                -1.7133687070021115,
                2.3324451315555295,
                -0.27445517241913253,
                0.7263628726942469,
                -2.1298147802448657
            ]
        },
        {
            "positions": [
                -0.4045093613371613,
                -1.7618994686578935,
                2.3195694775029936,
                -0.16668300543726688,
                0.6539829279519397,
                -1.9920708534195493
            ]
        },
        {
            "positions": [
                -0.4128401103218986,
                -1.8104302303136752,
                2.3066938234504577,
                -0.05891083845540135,
                0.5816029832096324,
                -1.8543269265942326
            ]
        },
        {
            "positions": [
                -0.4211708593066359,
                -1.858960991969457,
                2.293818169397922,
                0.0488613285264643,
                0.5092230384673252,
                -1.716582999768916
            ]
        },
        {
            "positions": [
                -0.4295016082913732,
                -1.9074917536252387,
                2.280942515345386,
                0.15663349550832972,
                0.43684309372501795,
                -1.5788390729435995
            ]
        },
        {
            "positions": [
                -0.4378323572761105,
                -1.9560225152810204,
                2.2680668612928496,
                0.2644056624901956,
                0.3644631489827106,
                -1.4410951461182826
            ]
        },
        {
            "positions": [
                -0.44616310626084776,
                -2.0045532769368024,
                2.2551912072403137,
                0.37217782947206124,
                0.29208320424040335,
                -1.303351219292966
            ]
        },
        {
            "positions": [
                -0.45449385524558505,
                -2.0530840385925844,
                2.242315553187778,
                0.47994999645392666,
                0.2197032594980961,
                -1.1656072924676495
            ]
        },
        {
            "positions": [
                -0.46282460423032235,
                -2.101614800248366,
                2.229439899135242,
                0.5877221634357923,
                0.14732331475578891,
                -1.0278633656423326
            ]
        },
        {
            "positions": [
                -0.37939962917749614,
                -2.087579786980986,
                2.2408508990446823,
                0.5134077417008238,
                0.1869968786866292,
                -1.1793853938621328
            ]
        },
        {
            "positions": [
                -0.29597465412466994,
                -2.073544773713606,
                2.252261898954123,
                0.43909331996585527,
                0.2266704426174695,
                -1.330907422081933
            ]
        },
        {
            "positions": [
                -0.21254967907184374,
                -2.059509760446226,
                2.2636728988635633,
                0.3647788982308867,
                0.2663440065483098,
                -1.4824294503017332
            ]
        },
        {
            "positions": [
                -0.12912470401901754,
                -2.045474747178846,
                2.2750838987730035,
                0.2904644764959182,
                0.3060175704791501,
                -1.6339514785215334
            ]
        },
        {
            "positions": [
                -0.045699728966191344,
                -2.031439733911466,
                2.286494898682444,
                0.21615005476094967,
                0.34569113440999044,
                -1.7854735067413336
            ]
        },
        {
            "positions": [
                0.037725246086634856,
                -2.0174047206440857,
                2.2979058985918845,
                0.14183563302598118,
                0.3853646983408307,
                -1.9369955349611339
            ]
        },
        {
            "positions": [
                0.12115022113946106,
                -2.003369707376706,
                2.309316898501325,
                0.06752121129101263,
                0.425038262271671,
                -2.0885175631809343
            ]
        },
        {
            "positions": [
                0.20457519619228726,
                -1.989334694109326,
                2.320727898410765,
                -0.006793210443955866,
                0.4647118262025113,
                -2.240039591400734
            ]
        },
        {
            "positions": [
                0.28800017124511357,
                -1.975299680841946,
                2.332138898320206,
                -0.08110763217892447,
                0.5043853901333517,
                -2.3915616196205347
            ]
        },
        {
            "positions": [
                0.37142514629793966,
                -1.961264667574566,
                2.343549898229646,
                -0.15542205391389297,
                0.5440589540641919,
                -2.5430836478403345
            ]
        },
        {
            "positions": [
                0.45485012135076586,
                -1.9472296543071859,
                2.3549608981390864,
                -0.22973647564886146,
                0.5837325179950322,
                -2.694605676060135
            ]
        },
        {
            "positions": [
                0.5382750964035921,
                -1.933194641039806,
                2.3663718980485267,
                -0.30405089738382995,
                0.6234060819258724,
                -2.846127704279935
            ]
        },
        {
            "positions": [
                0.6217000714564183,
                -1.919159627772426,
                2.3777828979579674,
                -0.37836531911879856,
                0.6630796458567128,
                -2.9976497324997355
            ]
        },
        {
            "positions": [
                0.7051250465092445,
                -1.905124614505046,
                2.3891938978674077,
                -0.4526797408537671,
                0.7027532097875531,
                -3.1491717607195358
            ]
        }
    ]
}