{
    "goal": {
        "global_pose": {
            "orientation": {
                "w": 0.5084816217422485,
                "x": -0.49083608388900757,
                "y": 0.5182115435600281,
                "z": -0.4816462993621826
            },
            "position": {
                "x": 0.5540239810943604,
                "y": 0.030875300988554955,
                "z": 0.16403168439865112
            }
        },
        "name": "move_to_storage_A"
    },
    "id": "SBL_move_to_storage_A_83",
    "joint_names": [
        "shoulder_pan_joint",
        "shoulder_lift_joint",
        "elbow_joint",
        "wrist_1_joint",
        "wrist_2_joint",
        "wrist_3_joint"
    ],
    "metrics": {
        "cart_traj_len": 0.3526075458197784,
        "distance_elbow_joint": 0.44724845856230866,
        "distance_shoulder_lift_joint": 0.23520742226021452,
        "distance_shoulder_pan_joint": 0.46245677610788744,
        "distance_wrist_1_joint": 0.23458593018930995,
        "distance_wrist_2_joint": 1.0916622965153167,
        "distance_wrist_3_joint": 0.09735635492351369,
        "smoothness": 6.661338165333112e-16,
        "time": 0.153403997,
        "traj_len": 1.602659426877261,
        "weighted_distance": 2.0222458245995227
    },
    "planner": "SBL",
    "start": {
        "state": {
            "elbow_joint": 1.9715463870305268,
            "shoulder_lift_joint": -1.1394903361783484,
            "shoulder_pan_joint": 0.12281147578464417,
            "wrist_1_joint": -0.7804599489681411,
            "wrist_2_joint": 0.12958660307563738,
            "wrist_3_joint": -3.1924946282119055
        }
    },
    "waypoints": [
        {
            "positions": [
                0.12281147578464417,
                -1.1394903361783484,
                1.9715463870305268,
                -0.7804599489681411,
                0.12958660307563738,
                -3.1924946282119055
            ]
        },
        {
            "positions": [
                0.05674622205494598,
                -1.1730913965012362,
                2.0354390239679994,
                -0.8139722247094711,
                0.28553835972068264,
                -3.1785865775085465
            ]
        },
        {
            "positions": [
                -0.009319031674752218,
                -1.206692456824124,
                2.099331660905472,
                -0.847484500450801,
                0.4414901163657279,
                -3.1646785268051874
            ]
        },
        {
            "positions": [
                -0.07538428540445043,
                -1.2402935171470117,
                2.1632242978429446,
                -0.880996776192131,
                0.5974418730107731,
                -3.1507704761018283
            ]
        },
        {
            "positions": [
                -0.1414495391341486,
                -1.2738945774698995,
                2.227116934780417,
                -0.9145090519334611,
                0.7533936296558184,
                -3.136862425398469
            ]
        },
        {
            "positions": [
                -0.20751479286384683,
                -1.3074956377927873,
                2.29100957171789,
                -0.9480213276747911,
                0.9093453863008636,
                -3.12295437469511
            ]
        },
        {
            "positions": [
                -0.273580046593545,
                -1.3410966981156751,
                2.354902208655363,
                -0.9815336034161211,
                1.0652971429459088,
                -3.109046323991751
            ]
        },
        {
            "positions": [
                -0.33964530032324325,
                -1.374697758438563,
                2.4187948455928354,
                -1.015045879157451,
                1.221248899590954,
                -3.095138273288392
            ]
        }
    ]
}