{
    "goal": {
        "global_pose": {
            "orientation": {
                "w": 0.7031023502349854,
                "x": -0.7110244035720825,
                "y": 0.007748599164187908,
                "z": 0.005598929710686207
            },
            "position": {
                "x": 0.11585023208521307,
                "y": 0.44412534475326537,
                "z": 0.3711530566215515
            }
        },
        "name": "move_to_auspresseinheit_A"
    },
    "id": "SBL_move_to_auspresseinheit_A_50",
    "joint_names": [
        "shoulder_pan_joint",
        "shoulder_lift_joint",
        "elbow_joint",
        "wrist_1_joint",
        "wrist_2_joint",
        "wrist_3_joint"
    ],
    "metrics": {
        "cart_traj_len": 0.7832196165410417,
        "distance_elbow_joint": 0.31073765814409704,
        "distance_shoulder_lift_joint": 0.5527412565112324,
        "distance_shoulder_pan_joint": 1.0405999654944995,
        "distance_wrist_1_joint": 0.7925909614410043,
        "distance_wrist_2_joint": 0.5376009011684192,
        "distance_wrist_3_joint": 0.4010272248591318,
        "smoothness": 1.8511020637888846,
        "time": 0.407526156,
        "traj_len": 1.9066457373141934,
        "weighted_distance": 2.4015712106756424
    },
    "planner": "SBL",
    "start": {
        "state": {
            "elbow_joint": 2.422574709923281,
            "shoulder_lift_joint": -1.3736533754116391,
            "shoulder_pan_joint": -0.33786336945926293,
            "wrist_1_joint": -1.0288603412921917,
            "wrist_2_joint": 1.2330224858903978,
            "wrist_3_joint": -3.094022268022082
        }
    },
    "waypoints": [
        {
            "positions": [
                -0.33786336945926293,
                -1.3736533754116391,
                2.422574709923281,
                -1.0288603412921917,
                1.2330224858903978,
                -3.094022268022082
            ]
        },
        {
            "positions": [
                -0.22476154042128826,
                -1.4486466493102987,
                2.398029874683021,
                -0.9570707395391918,
                1.175147898757107,
                -3.118720471597117
            ]
        },
        {
            "positions": [
                -0.1116597113833136,
                -1.5236399232089584,
                2.3734850394427607,
                -0.8852811377861918,
                1.1172733116238158,
                -3.1434186751721525
            ]
        },
        {
            "positions": [
                0.0014421176546610681,
                -1.598633197107618,
                2.3489402042025005,
                -0.8134915360331918,
                1.059398724490525,
                -3.1681168787471874
            ]
        },
        {
            "positions": [
                0.11454394669263573,
                -1.6736264710062776,
                2.3243953689622403,
                -0.7417019342801918,
                1.0015241373572341,
                -3.1928150823222223
            ]
        },
        {
            "positions": [
                0.22764577573061046,
                -1.7486197449049372,
                2.29985053372198,
                -0.6699123325271918,
                0.943649550223943,
                -3.2175132858972573
            ]
        },
        {
            "positions": [
                0.34074760476858507,
                -1.8236130188035968,
                2.27530569848172,
                -0.598122730774192,
                0.8857749630906522,
                -3.2422114894722927
            ]
        },
        {
            "positions": [
                0.45384943380655973,
                -1.8986062927022564,
                2.2507608632414597,
                -0.526333129021192,
                0.8279003759573612,
                -3.2669096930473276
            ]
        },
        {
            "positions": [
                0.5361090936166526,
                -1.9075227057782569,
                2.3008163450803965,
                -0.4354929305290096,
                0.7617437211080311,
                -3.1794709452851286
            ]
        },
        {
            "positions": [
                0.6183687534267456,
                -1.9164391188542573,
                2.3508718269193327,
                -0.3446527320368272,
                0.6955870662587009,
                -3.0920321975229292
            ]
        },
        {
            "positions": [
                0.7027365960352365,
                -1.9064836057856431,
                2.3896846747037355,
                -0.45303608422246705,
                0.6957525477954233,
                -3.145294501832417
            ]
        }
    ]
}