{
    "goal": {
        "global_pose": {
            "orientation": {
                "w": 0.7047431468963623,
                "x": -0.7094548344612122,
                "y": 0.0024358443915843964,
                "z": -0.0022348060738295317
            },
            "position": {
                "x": 0.6094750761985779,
                "y": 0.3671506643295288,
                "z": 0.19426114857196808
            }
        },
        "name": "move_to_magneteinheit_A"
    },
    "id": "SBL_move_to_magneteinheit_A_28",
    "joint_names": [
        "shoulder_pan_joint",
        "shoulder_lift_joint",
        "elbow_joint",
        "wrist_1_joint",
        "wrist_2_joint",
        "wrist_3_joint"
    ],
    "metrics": {
        "cart_traj_len": 1.8655213067652079,
        "distance_elbow_joint": 3.946408745929398,
        "distance_shoulder_lift_joint": 0.7149689373965695,
        "distance_shoulder_pan_joint": 1.2410779032687118,
        "distance_wrist_1_joint": 1.6022263689258083,
        "distance_wrist_2_joint": 1.7084908684364872,
        "distance_wrist_3_joint": 1.2481358637954347,
        "smoothness": 2.5376526305983387e-16,
        "time": 0.218554119,
        "traj_len": 3.234394640076008,
        "weighted_distance": 4.033397780123549
    },
    "planner": "SBL",
    "start": {
        "state": {
            "elbow_joint": -1.919643507792019,
            "shoulder_lift_joint": -0.07675430207160344,
            "shoulder_pan_joint": -1.1188671864651873,
            "wrist_1_joint": 0.42560062535961957,
            "wrist_2_joint": 1.5706038300724876,
            "wrist_3_joint": 1.1188968870953055
        }
    },
    "waypoints": [
        {
            "positions": [
                -1.1188671864651873,
                -0.07675430207160344,
                -1.919643507792019,
                0.42560062535961957,
                1.5706038300724876,
                1.1188968870953055
            ]
        },
        {
            "positions": [
                -1.0729013381959758,
                -0.1032346330862912,
                -1.773480220905745,
                0.48494234272724207,
                1.507326390500766,
                1.0726696328806598
            ]
        },
        {
            "positions": [
                -1.0269354899267642,
                -0.12971496410097896,
                -1.627316934019471,
                0.5442840600948646,
                1.4440489509290442,
                1.0264423786660142
            ]
        },
        {
            "positions": [
                -0.9809696416575527,
                -0.1561952951156667,
                -1.4811536471331972,
                0.6036257774624871,
                1.3807715113573225,
                0.9802151244513684
            ]
        },
        {
            "positions": [
                -0.9350037933883412,
                -0.18267562613035448,
                -1.334990360246923,
                0.6629674948301096,
                1.3174940717856005,
                0.9339878702367226
            ]
        },
        {
            "positions": [
                -0.8890379451191296,
                -0.20915595714504223,
                -1.188827073360649,
                0.7223092121977321,
                1.2542166322138788,
                0.8877606160220769
            ]
        },
        {
            "positions": [
                -0.8430720968499181,
                -0.23563628815973,
                -1.042663786474375,
                0.7816509295653546,
                1.190939192642157,
                0.8415333618074312
            ]
        },
        {
            "positions": [
                -0.7971062485807066,
                -0.26211661917441775,
                -0.8965004995881012,
                0.8409926469329773,
                1.1276617530704354,
                0.7953061075927854
            ]
        },
        {
            "positions": [
                -0.751140400311495,
                -0.28859695018910547,
                -0.7503372127018271,
                0.9003343643005998,
                1.0643843134987137,
                0.7490788533781397
            ]
        },
        {
            "positions": [
                -0.7051745520422834,
                -0.3150772812037933,
                -0.6041739258155532,
                0.9596760816682224,
                1.001106873926992,
                0.702851599163494
            ]
        },
        {
            "positions": [
                -0.6592087037730718,
                -0.341557612218481,
                -0.45801063892927907,
                1.0190177990358449,
                0.9378294343552701,
                0.6566243449488482
            ]
        },
        {
            "positions": [
                -0.6132428555038604,
                -0.3680379432331688,
                -0.3118473520430052,
                1.0783595164034674,
                0.8745519947835484,
                0.6103970907342026
            ]
        },
        {
            "positions": [
                -0.5672770072346488,
                -0.39451827424785657,
                -0.16568406515673106,
                1.13770123377109,
                0.8112745552118267,
                0.5641698365195568
            ]
        },
        {
            "positions": [
                -0.5213111589654372,
                -0.4209986052625443,
                -0.019520778270457173,
                1.1970429511387124,
                0.747997115640105,
                0.5179425823049111
            ]
        },
        {
            "positions": [
                -0.47534531069622565,
                -0.44747893627723206,
                0.12664250861581672,
                1.256384668506335,
                0.6847196760683831,
                0.4717153280902654
            ]
        },
        {
            "positions": [
                -0.4293794624270141,
                -0.47395926729191984,
                0.27280579550209105,
                1.3157263858739576,
                0.6214422364966613,
                0.4254880738756196
            ]
        },
        {
            "positions": [
                -0.3834136141578026,
                -0.5004395983066076,
                0.41896908238836494,
                1.37506810324158,
                0.5581647969249397,
                0.3792608196609739
            ]
        },
        {
            "positions": [
                -0.33744776588859104,
                -0.5269199293212954,
                0.5651323692746393,
                1.4344098206092026,
                0.49488735735321776,
                0.3330335654463281
            ]
        },
        {
            "positions": [
                -0.29148191761937947,
                -0.5534002603359831,
                0.7112956561609127,
                1.4937515379768251,
                0.43160991778149627,
                0.28680631123168243
            ]
        },
        {
            "positions": [
                -0.2455160693501679,
                -0.5798805913506708,
                0.8574589430471871,
                1.5530932553444476,
                0.36833247820977433,
                0.24057905701703663
            ]
        },
        {
            "positions": [
                -0.19955022108095644,
                -0.6063609223653585,
                1.003622229933461,
                1.6124349727120701,
                0.3050550386380526,
                0.19435180280239095
            ]
        },
        {
            "positions": [
                -0.15358437281174486,
                -0.6328412533800465,
                1.1497855168197353,
                1.6717766900796927,
                0.2417775990663309,
                0.14812454858774515
            ]
        },
        {
            "positions": [
                -0.1076185245425334,
                -0.6593215843947342,
                1.2959488037060087,
                1.7311184074473152,
                0.17850015949460918,
                0.10189729437309958
            ]
        },
        {
            "positions": [
                -0.06165267627332183,
                -0.6858019154094219,
                1.442112090592283,
                1.7904601248149379,
                0.11522271992288746,
                0.05567004015845378
            ]
        },
        {
            "positions": [
                -0.015686828004110254,
                -0.7122822464241096,
                1.588275377478557,
                1.8498018421825602,
                0.051945280351165746,
                0.009442785943807985
            ]
        },
        {
            "positions": [
                0.03027902026510132,
                -0.7387625774387974,
                1.7344386643648313,
                1.909143559550183,
                -0.011332159220556193,
                -0.03678446827083781
            ]
        },
        {
            "positions": [
                0.07624486853431289,
                -0.7652429084534851,
                1.8806019512511047,
                1.9684852769178054,
                -0.07460959879227769,
                -0.08301172248548339
            ]
        },
        {
            "positions": [
                0.1222107168035245,
                -0.791723239468173,
                2.026765238137379,
                2.027826994285428,
                -0.13788703836399954,
                -0.12923897670012907
            ]
        }
    ]
}