{
    "goal": {
        "global_pose": {
            "orientation": {
                "w": 0.5084816217422485,
                "x": -0.49083608388900757,
                "y": 0.5182115435600281,
                "z": -0.4816462993621826
            },
            "position": {
                "x": 0.5540239810943604,
                "y": 0.030875300988554955,
                "z": 0.16403168439865112
            }
        },
        "name": "move_to_storage_A"
    },
    "id": "SBL_move_to_storage_A_125",
    "joint_names": [
        "shoulder_pan_joint",
        "shoulder_lift_joint",
        "elbow_joint",
        "wrist_1_joint",
        "wrist_2_joint",
        "wrist_3_joint"
    ],
    "metrics": {
        "cart_traj_len": 0.3527657776524438,
        "distance_elbow_joint": 0.44908875459417663,
        "distance_shoulder_lift_joint": 0.2324837326950524,
        "distance_shoulder_pan_joint": 0.46099739779962806,
        "distance_wrist_1_joint": 0.24463556566341993,
        "distance_wrist_2_joint": 1.0982003383341463,
        "distance_wrist_3_joint": 0.0940231108091436,
        "smoothness": 3.330669057907102e-15,
        "time": 0.193392956,
        "traj_len": 1.6060600548844888,
        "weighted_distance": 2.027390200605552
    },
    "planner": "SBL",
    "start": {
        "state": {
            "elbow_joint": 1.9715463870305268,
            "shoulder_lift_joint": -1.1394903361783484,
            "shoulder_pan_joint": 0.12281147578464417,
            "wrist_1_joint": -0.7804599489681411,
            "wrist_2_joint": 0.12958660307563738,
            "wrist_3_joint": -3.1924946282119055
        }
    },
    "waypoints": [
        {
            "positions": [
                0.12281147578464417,
                -1.1394903361783484,
                1.9715463870305268,
                -0.7804599489681411,
                0.12958660307563738,
                -3.1924946282119055
            ]
        },
        {
            "positions": [
                0.056954704670411596,
                -1.1727022979919273,
                2.0357019234011235,
                -0.8154078869200582,
                0.28647236569480117,
                -3.179062755239171
            ]
        },
        {
            "positions": [
                -0.00890206644382098,
                -1.2059142598055062,
                2.09985745977172,
                -0.8503558248719754,
                0.4433581283139649,
                -3.165630882266436
            ]
        },
        {
            "positions": [
                -0.07475883755805356,
                -1.239126221619085,
                2.1640129961423167,
                -0.8853037628238924,
                0.6002438909331287,
                -3.1521990092937013
            ]
        },
        {
            "positions": [
                -0.14061560867228612,
                -1.2723381834326641,
                2.2281685325129135,
                -0.9202517007758096,
                0.7571296535522924,
                -3.138767136320966
            ]
        },
        {
            "positions": [
                -0.20647237978651872,
                -1.305550145246243,
                2.2923240688835103,
                -0.9551996387277267,
                0.9140154161714562,
                -3.1253352633482314
            ]
        },
        {
            "positions": [
                -0.27232915090075127,
                -1.338762107059822,
                2.3564796052541066,
                -0.9901475766796439,
                1.07090117879062,
                -3.1119033903754967
            ]
        },
        {
            "positions": [
                -0.3381859220149839,
                -1.3719740688734008,
                2.4206351416247034,
                -1.025095514631561,
                1.2277869414097837,
                -3.098471517402762
            ]
        }
    ]
}