{
    "goal": {
        "global_pose": {
            "orientation": {
                "w": 0.7047431468963623,
                "x": -0.7094548344612122,
                "y": 0.0024358443915843964,
                "z": -0.0022348060738295317
            },
            "position": {
                "x": 0.6094750761985779,
                "y": 0.3671506643295288,
                "z": 0.19426114857196808
            }
        },
        "name": "move_to_magneteinheit_A"
    },
    "id": "SBL_move_to_magneteinheit_A_89",
    "joint_names": [
        "shoulder_pan_joint",
        "shoulder_lift_joint",
        "elbow_joint",
        "wrist_1_joint",
        "wrist_2_joint",
        "wrist_3_joint"
    ],
    "metrics": {
        "cart_traj_len": 3.68200634373156,
        "distance_elbow_joint": 4.572351415967483,
        "distance_shoulder_lift_joint": 1.0598144062697903,
        "distance_shoulder_pan_joint": 1.8037188583362076,
        "distance_wrist_1_joint": 4.417859644373319,
        "distance_wrist_2_joint": 1.4519355007249628,
        "distance_wrist_3_joint": 4.319083741942878,
        "smoothness": 0.17139834987456687,
        "time": 0.332113482,
        "traj_len": 4.198185747154912,
        "weighted_distance": 5.668573559247394
    },
    "planner": "SBL",
    "start": {
        "state": {
            "elbow_joint": -1.919643507792019,
            "shoulder_lift_joint": -0.07675430207160344,
            "shoulder_pan_joint": -1.1188671864651873,
            "wrist_1_joint": 0.42560062535961957,
            "wrist_2_joint": 1.5706038300724876,
            "wrist_3_joint": 1.1188968870953055
        }
    },
    "waypoints": [
        {
            "positions": [
                -1.1188671864651873,
                -0.07675430207160344,
                -1.919643507792019,
                0.42560062535961957,
                1.5706038300724876,
                1.1188968870953055
            ]
        },
        {
            "positions": [
                -1.135425986272597,
                -0.11416990084024344,
                -1.9397575588043594,
                0.26038938399911715,
                1.5205018150826857,
                1.0310302500617026
            ]
        },
        {
            "positions": [
                -1.1519847860800065,
                -0.15158549960888343,
                -1.9598716098166995,
                0.09517814263861468,
                1.4703998000928835,
                0.9431636130280995
            ]
        },
        {
            "positions": [
                -1.1685435858874162,
                -0.18900109837752344,
                -1.9799856608290398,
                -0.07003309872188779,
                1.4202977851030814,
                0.8552969759944965
            ]
        },
        {
            "positions": [
                -1.1851023856948257,
                -0.22641669714616341,
                -2.00009971184138,
                -0.2352443400823902,
                1.3701957701132794,
                0.7674303389608934
            ]
        },
        {
            "positions": [
                -1.2016611855022354,
                -0.2638322959148034,
                -2.0202137628537202,
                -0.40045558144289267,
                1.3200937551234775,
                0.6795637019272904
            ]
        },
        {
            "positions": [
                -1.218219985309645,
                -0.3012478946834434,
                -2.0403278138660603,
                -0.5656668228033952,
                1.2699917401336753,
                0.5916970648936875
            ]
        },
        {
            "positions": [
                -1.2347787851170546,
                -0.33866349345208335,
                -2.0604418648784004,
                -0.7308780641638974,
                1.2198897251438734,
                0.5038304278600845
            ]
        },
        {
            "positions": [
                -1.2513375849244641,
                -0.3760790922207234,
                -2.080555915890741,
                -0.8960893055243999,
                1.1697877101540712,
                0.4159637908264814
            ]
        },
        {
            "positions": [
                -1.2678963847318738,
                -0.41349469098936337,
                -2.100669966903081,
                -1.0613005468849024,
                1.1196856951642693,
                0.3280971537928784
            ]
        },
        {
            "positions": [
                -1.2844551845392833,
                -0.4509102897580034,
                -2.120784017915421,
                -1.2265117882454049,
                1.0695836801744671,
                0.24023051675927531
            ]
        },
        {
            "positions": [
                -1.301013984346693,
                -0.4883258885266434,
                -2.1408980689277612,
                -1.3917230296059073,
                1.019481665184665,
                0.15236387972567234
            ]
        },
        {
            "positions": [
                -1.3175727841541025,
                -0.5257414872952834,
                -2.161012119940102,
                -1.5569342709664098,
                0.969379650194863,
                0.06449724269206936
            ]
        },
        {
            "positions": [
                -1.3341315839615122,
                -0.5631570860639232,
                -2.181126170952442,
                -1.722145512326912,
                0.9192776352050611,
                -0.023369394341533622
            ]
        },
        {
            "positions": [
                -1.3506903837689217,
                -0.6005726848325632,
                -2.201240221964782,
                -1.8873567536874145,
                0.8691756202152591,
                -0.1112360313751366
            ]
        },
        {
            "positions": [
                -1.3672491835763314,
                -0.6379882836012034,
                -2.2213542729771225,
                -2.052567995047917,
                0.819073605225457,
                -0.19910266840873958
            ]
        },
        {
            "positions": [
                -1.3838079833837411,
                -0.6754038823698434,
                -2.2414683239894626,
                -2.2177792364084197,
                0.768971590235655,
                -0.2869693054423428
            ]
        },
        {
            "positions": [
                -1.4003667831911506,
                -0.7128194811384834,
                -2.2615823750018027,
                -2.382990477768922,
                0.7188695752458529,
                -0.37483594247594576
            ]
        },
        {
            "positions": [
                -1.34787646382528,
                -0.7274315234558251,
                -2.1157060802170546,
                -2.327498459105309,
                0.6981729805597037,
                -0.47226183600600186
            ]
        },
        {
            "positions": [
                -1.2953861444594095,
                -0.7420435657731669,
                -1.9698297854323061,
                -2.272006440441696,
                0.6774763858735545,
                -0.569687729536058
            ]
        },
        {
            "positions": [
                -1.2428958250935391,
                -0.7566556080905086,
                -1.8239534906475579,
                -2.2165144217780828,
                0.6567797911874053,
                -0.6671136230661141
            ]
        },
        {
            "positions": [
                -1.1904055057276686,
                -0.7712676504078503,
                -1.6780771958628096,
                -2.16102240311447,
                0.6360831965012561,
                -0.7645395165961701
            ]
        },
        {
            "positions": [
                -1.137915186361798,
                -0.7858796927251921,
                -1.5322009010780613,
                -2.105530384450857,
                0.6153866018151068,
                -0.8619654101262264
            ]
        },
        {
            "positions": [
                -1.0854248669959277,
                -0.8004917350425338,
                -1.386324606293313,
                -2.050038365787244,
                0.5946900071289576,
                -0.9593913036562824
            ]
        },
        {
            "positions": [
                -1.0329345476300569,
                -0.8151037773598755,
                -1.2404483115085647,
                -1.9945463471236307,
                0.5739934124428084,
                -1.0568171971863385
            ]
        },
        {
            "positions": [
                -0.9804442282641865,
                -0.8297158196772173,
                -1.0945720167238164,
                -1.9390543284600177,
                0.5532968177566592,
                -1.1542430907163945
            ]
        },
        {
            "positions": [
                -0.927953908898316,
                -0.844327861994559,
                -0.9486957219390681,
                -1.8835623097964045,
                0.53260022307051,
                -1.2516689842464508
            ]
        },
        {
            "positions": [
                -0.8754635895324455,
                -0.8589399043119008,
                -0.8028194271543199,
                -1.8280702911327915,
                0.5119036283843608,
                -1.349094877776507
            ]
        },
        {
            "positions": [
                -0.8229732701665751,
                -0.8735519466292425,
                -0.6569431323695718,
                -1.7725782724691785,
                0.4912070336982116,
                -1.446520771306563
            ]
        },
        {
            "positions": [
                -0.7704829508007045,
                -0.8881639889465842,
                -0.5110668375848235,
                -1.7170862538055656,
                0.47051043901206235,
                -1.5439466648366191
            ]
        },
        {
            "positions": [
                -0.7179926314348339,
                -0.9027760312639259,
                -0.365190542800075,
                -1.6615942351419524,
                0.44981384432591315,
                -1.6413725583666754
            ]
        },
        {
            "positions": [
                -0.6655023120689634,
                -0.9173880735812677,
                -0.21931424801532673,
                -1.6061022164783392,
                0.4291172496397639,
                -1.7387984518967314
            ]
        },
        {
            "positions": [
                -0.6130119927030929,
                -0.9320001158986094,
                -0.07343795323057822,
                -1.5506101978147262,
                0.4084206549536147,
                -1.8362243454267877
            ]
        },
        {
            "positions": [
                -0.5605216733372225,
                -0.9466121582159512,
                0.07243834155416984,
                -1.4951181791511132,
                0.3877240602674655,
                -1.9336502389568435
            ]
        },
        {
            "positions": [
                -0.508031353971352,
                -0.9612242005332929,
                0.2183146363389179,
                -1.4396261604875003,
                0.3670274655813163,
                -2.0310761324868993
            ]
        },
        {
            "positions": [
                -0.45554103460548134,
                -0.9758362428506346,
                0.3641909311236664,
                -1.384134141823887,
                0.34633087089516706,
                -2.128502026016956
            ]
        },
        {
            "positions": [
                -0.4030507152396109,
                -0.9904482851679763,
                0.5100672259084145,
                -1.328642123160274,
                0.32563427620901786,
                -2.225927919547012
            ]
        },
        {
            "positions": [
                -0.35056039587374044,
                -1.0050603274853183,
                0.655943520693163,
                -1.2731501044966609,
                0.3049376815228686,
                -2.323353813077068
            ]
        },
        {
            "positions": [
                -0.2980700765078699,
                -1.01967236980266,
                0.801819815477911,
                -1.217658085833048,
                0.2842410868367194,
                -2.4207797066071244
            ]
        },
        {
            "positions": [
                -0.24557975714199953,
                -1.0342844121200017,
                0.9476961102626591,
                -1.162166067169435,
                0.26354449215057024,
                -2.5182056001371804
            ]
        },
        {
            "positions": [
                -0.19308943777612875,
                -1.0488964544373434,
                1.0935724050474076,
                -1.1066740485058217,
                0.24284789746442098,
                -2.6156314936672365
            ]
        },
        {
            "positions": [
                -0.1405991184102584,
                -1.063508496754685,
                1.2394486998321557,
                -1.0511820298422088,
                0.22215130277827178,
                -2.7130573871972925
            ]
        },
        {
            "positions": [
                -0.08810879904438784,
                -1.0781205390720268,
                1.3853249946169042,
                -0.9956900111785958,
                0.20145470809212263,
                -2.8104832807273485
            ]
        },
        {
            "positions": [
                -0.03561847967851728,
                -1.0927325813893685,
                1.5312012894016527,
                -0.9401979925149826,
                0.18075811340597336,
                -2.907909174257405
            ]
        },
        {
            "positions": [
                0.016871839687353063,
                -1.1073446237067102,
                1.6770775841864007,
                -0.8847059738513696,
                0.1600615187198241,
                -3.0053350677874606
            ]
        },
        {
            "positions": [
                0.06936215905322385,
                -1.121956666024052,
                1.8229538789711492,
                -0.8292139551877564,
                0.13936492403367484,
                -3.102760961317517
            ]
        },
        {
            "positions": [
                0.12185247841909416,
                -1.1365687083413938,
                1.9688301737558973,
                -0.7737219365241434,
                0.11866832934752573,
                -3.200186854847573
            ]
        }
    ]
}