{
    "goal": {
        "global_pose": {
            "orientation": {
                "w": 0.7031023502349854,
                "x": -0.7110244035720825,
                "y": 0.007748599164187908,
                "z": 0.005598929710686207
            },
            "position": {
                "x": 0.11585023208521307,
                "y": 0.44412534475326537,
                "z": 0.3711530566215515
            }
        },
        "name": "move_to_auspresseinheit_A"
    },
    "id": "SBL_move_to_auspresseinheit_A_145",
    "joint_names": [
        "shoulder_pan_joint",
        "shoulder_lift_joint",
        "elbow_joint",
        "wrist_1_joint",
        "wrist_2_joint",
        "wrist_3_joint"
    ],
    "metrics": {
        "cart_traj_len": 0.8854159574353009,
        "distance_elbow_joint": 0.05282745396144595,
        "distance_shoulder_lift_joint": 0.717261480841924,
        "distance_shoulder_pan_joint": 1.3459049559028933,
        "distance_wrist_1_joint": 0.581820344382664,
        "distance_wrist_2_joint": 0.6887234289452487,
        "distance_wrist_3_joint": 0.3678230477945301,
        "smoothness": 1.9033269194419473,
        "time": 0.308383754,
        "traj_len": 1.9376172769225366,
        "weighted_distance": 2.400114701581089
    },
    "planner": "SBL",
    "start": {
        "state": {
            "elbow_joint": 2.422574709923281,
            "shoulder_lift_joint": -1.3736533754116391,
            "shoulder_pan_joint": -0.33786336945926293,
            "wrist_1_joint": -1.0288603412921917,
            "wrist_2_joint": 1.2330224858903978,
            "wrist_3_joint": -3.094022268022082
        }
    },
    "waypoints": [
        {
            "positions": [
                -0.33786336945926293,
                -1.3736533754116391,
                2.422574709923281,
                -1.0288603412921917,
                1.2330224858903978,
                -3.094022268022082
            ]
        },
        {
            "positions": [
                -0.20523584511167192,
                -1.4433568555802978,
                2.418226385228233,
                -0.9661068726529191,
                1.1654484401018879,
                -3.074850713768689
            ]
        },
        {
            "positions": [
                -0.07260832076408091,
                -1.5130603357489565,
                2.413878060533185,
                -0.9033534040136464,
                1.097874394313378,
                -3.055679159515296
            ]
        },
        {
            "positions": [
                0.06001920358351015,
                -1.5827638159176154,
                2.409529735838137,
                -0.8405999353743738,
                1.030300348524868,
                -3.036507605261903
            ]
        },
        {
            "positions": [
                0.1926467279311011,
                -1.652467296086274,
                2.405181411143089,
                -0.777846466735101,
                0.9627263027363581,
                -3.01733605100851
            ]
        },
        {
            "positions": [
                0.3252742522786923,
                -1.7221707762549328,
                2.400833086448041,
                -0.7150929980958285,
                0.8951522569478482,
                -2.998164496755117
            ]
        },
        {
            "positions": [
                0.45790177662628323,
                -1.7918742564235914,
                2.396484761752993,
                -0.6523395294565558,
                0.8275782111593383,
                -2.978992942501724
            ]
        },
        {
            "positions": [
                0.5905293009738743,
                -1.8615777365922503,
                2.392136437057945,
                -0.5895860608172832,
                0.7600041653708283,
                -2.959821388248331
            ]
        },
        {
            "positions": [
                0.7231568253214651,
                -1.931281216760909,
                2.3877881123628972,
                -0.5268325921780105,
                0.6924301195823184,
                -2.940649833994938
            ]
        },
        {
            "positions": [
                0.8557843496690563,
                -2.0009846969295677,
                2.3834397876678493,
                -0.46407912353873787,
                0.6248560737938085,
                -2.921478279741545
            ]
        },
        {
            "positions": [
                0.7796557312817691,
                -1.95601961726757,
                2.3902860535208563,
                -0.4725986868533429,
                0.6651345822181383,
                -3.0191178094985416
            ]
        },
        {
            "positions": [
                0.7035271128944821,
                -1.9110545376055723,
                2.3971323193738634,
                -0.4811182501679479,
                0.7054130906424679,
                -3.116757339255538
            ]
        }
    ]
}