{
    "goal": {
        "global_pose": {
            "orientation": {
                "w": 0.7047431468963623,
                "x": -0.7094548344612122,
                "y": 0.0024358443915843964,
                "z": -0.0022348060738295317
            },
            "position": {
                "x": 0.6094750761985779,
                "y": 0.3671506643295288,
                "z": 0.19426114857196808
            }
        },
        "name": "move_to_magneteinheit_A"
    },
    "id": "SBL_move_to_magneteinheit_A_50",
    "joint_names": [
        "shoulder_pan_joint",
        "shoulder_lift_joint",
        "elbow_joint",
        "wrist_1_joint",
        "wrist_2_joint",
        "wrist_3_joint"
    ],
    "metrics": {
        "cart_traj_len": 1.9908899699444553,
        "distance_elbow_joint": 3.912260097666308,
        "distance_shoulder_lift_joint": 1.1559026479992645,
        "distance_shoulder_pan_joint": 1.241065363855209,
        "distance_wrist_1_joint": 1.9447610263907813,
        "distance_wrist_2_joint": 1.9403602929880672,
        "distance_wrist_3_joint": 4.230212002414639,
        "smoothness": 0.17470693321688535,
        "time": 0.19117889000000002,
        "traj_len": 3.7979680661261845,
        "weighted_distance": 5.173983644690269
    },
    "planner": "SBL",
    "start": {
        "state": {
            "elbow_joint": -1.919643507792019,
            "shoulder_lift_joint": -0.07675430207160344,
            "shoulder_pan_joint": -1.1188671864651873,
            "wrist_1_joint": 0.42560062535961957,
            "wrist_2_joint": 1.5706038300724876,
            "wrist_3_joint": 1.1188968870953055
        }
    },
    "waypoints": [
        {
            "positions": [
                -1.1188671864651873,
                -0.07675430207160344,
                -1.919643507792019,
                0.42560062535961957,
                1.5706038300724876,
                1.1188968870953055
            ]
        },
        {
            "positions": [
                -1.1008958245957354,
                -0.11517468988901289,
                -1.8118776910877552,
                0.3697739536990719,
                1.5124101988211178,
                1.0050282271644566
            ]
        },
        {
            "positions": [
                -1.0829244627262835,
                -0.15359507770642233,
                -1.7041118743834915,
                0.3139472820385243,
                1.454216567569748,
                0.8911595672336079
            ]
        },
        {
            "positions": [
                -1.0649531008568316,
                -0.1920154655238318,
                -1.5963460576792277,
                0.2581206103779766,
                1.3960229363183783,
                0.777290907302759
            ]
        },
        {
            "positions": [
                -1.0469817389873797,
                -0.23043585334124125,
                -1.488580240974964,
                0.20229393871742898,
                1.3378293050670085,
                0.6634222473719101
            ]
        },
        {
            "positions": [
                -1.0290103771179278,
                -0.2688562411586507,
                -1.3808144242707001,
                0.1464672670568813,
                1.2796356738156387,
                0.5495535874410612
            ]
        },
        {
            "positions": [
                -1.0110390152484756,
                -0.3072766289760602,
                -1.2730486075664365,
                0.09064059539633368,
                1.2214420425642691,
                0.4356849275102125
            ]
        },
        {
            "positions": [
                -0.9930676533790238,
                -0.34569701679346965,
                -1.1652827908621726,
                0.03481392373578601,
                1.1632484113128991,
                0.32181626757936355
            ]
        },
        {
            "positions": [
                -0.9750962915095719,
                -0.38411740461087907,
                -1.0575169741579087,
                -0.0210127479247616,
                1.1050547800615296,
                0.20794760764851472
            ]
        },
        {
            "positions": [
                -0.9571249296401199,
                -0.42253779242828854,
                -0.9497511574536449,
                -0.07683941958530932,
                1.0468611488101596,
                0.09407894771766578
            ]
        },
        {
            "positions": [
                -0.9391535677706679,
                -0.460958180245698,
                -0.8419853407493811,
                -0.132666091245857,
                0.9886675175587899,
                -0.019789712213183153
            ]
        },
        {
            "positions": [
                -0.921182205901216,
                -0.49937856806310743,
                -0.7342195240451175,
                -0.18849276290640454,
                0.9304738863074202,
                -0.13365837214403187
            ]
        },
        {
            "positions": [
                -0.9032108440317641,
                -0.537798955880517,
                -0.6264537073408536,
                -0.2443194345669522,
                0.8722802550560504,
                -0.24752703207488058
            ]
        },
        {
            "positions": [
                -0.8852394821623122,
                -0.5762193436979264,
                -0.5186878906365897,
                -0.3001461062274999,
                0.8140866238046807,
                -0.3613956920057295
            ]
        },
        {
            "positions": [
                -0.8672681202928603,
                -0.6146397315153358,
                -0.4109220739323258,
                -0.35597277788804754,
                0.7558929925533109,
                -0.47526435193657846
            ]
        },
        {
            "positions": [
                -0.8492967584234083,
                -0.6530601193327454,
                -0.30315625722806216,
                -0.4117994495485952,
                0.6976993613019411,
                -0.5891330118674274
            ]
        },
        {
            "positions": [
                -0.8313253965539564,
                -0.6914805071501546,
                -0.1953904405237985,
                -0.46762612120914276,
                0.6395057300505713,
                -0.7030016717982761
            ]
        },
        {
            "positions": [
                -0.8133540346845045,
                -0.729900894967564,
                -0.08762462381953484,
                -0.5234527928696904,
                0.5813120987992016,
                -0.8168703317291248
            ]
        },
        {
            "positions": [
                -0.7953826728150525,
                -0.7683212827849737,
                0.020141192884729264,
                -0.5792794645302382,
                0.5231184675478318,
                -0.930738991659974
            ]
        },
        {
            "positions": [
                -0.7774113109456006,
                -0.8067416706023831,
                0.12790700958899293,
                -0.6351061361907857,
                0.464924836296462,
                -1.0446076515908227
            ]
        },
        {
            "positions": [
                -0.7594399490761485,
                -0.8451620584197925,
                0.2356728262932568,
                -0.6909328078513335,
                0.4067312050450922,
                -1.1584763115216719
            ]
        },
        {
            "positions": [
                -0.7414685872066966,
                -0.883582446237202,
                0.3434386429975207,
                -0.746759479511881,
                0.3485375737937224,
                -1.2723449714525206
            ]
        },
        {
            "positions": [
                -0.7234972253372447,
                -0.9220028340546114,
                0.45120445970178413,
                -0.8025861511724286,
                0.29034394254235285,
                -1.3862136313833693
            ]
        },
        {
            "positions": [
                -0.7055258634677928,
                -0.960423221872021,
                0.558970276406048,
                -0.8584128228329764,
                0.23215031129098285,
                -1.500082291314218
            ]
        },
        {
            "positions": [
                -0.6875545015983409,
                -0.9988436096894304,
                0.6667360931103119,
                -0.9142394944935239,
                0.1739566800396133,
                -1.6139509512450667
            ]
        },
        {
            "positions": [
                -0.6695831397288889,
                -1.0372639975068398,
                0.7745019098145753,
                -0.9700661661540715,
                0.1157630487882435,
                -1.7278196111759154
            ]
        },
        {
            "positions": [
                -0.651611777859437,
                -1.0756843853242493,
                0.8822677265188397,
                -1.0258928378146193,
                0.057569417536873724,
                -1.8416882711067646
            ]
        },
        {
            "positions": [
                -0.6336404159899851,
                -1.114104773141659,
                0.9900335432231031,
                -1.0817195094751668,
                -0.000624213714496058,
                -1.9555569310376133
            ]
        },
        {
            "positions": [
                -0.6156690541205331,
                -1.1525251609590683,
                1.0977993599273674,
                -1.1375461811357146,
                -0.05881784496586584,
                -2.0694255909684625
            ]
        },
        {
            "positions": [
                -0.5976976922510812,
                -1.1909455487764777,
                1.205565176631631,
                -1.1933728527962622,
                -0.11701147621723568,
                -2.183294250899311
            ]
        },
        {
            "positions": [
                -0.5077107085459434,
                -1.1857316236146789,
                1.303946603286963,
                -1.1526494092668997,
                -0.08541835287994273,
                -2.299296858951814
            ]
        },
        {
            "positions": [
                -0.41772372484080544,
                -1.1805176984528802,
                1.4023280299422953,
                -1.1119259657375373,
                -0.05382522954264979,
                -2.415299467004317
            ]
        },
        {
            "positions": [
                -0.32773674113566764,
                -1.1753037732910814,
                1.5007094565976273,
                -1.0712025222081747,
                -0.022232106205356844,
                -2.53130207505682
            ]
        },
        {
            "positions": [
                -0.23774975743052978,
                -1.1700898481292827,
                1.5990908832529596,
                -1.0304790786788123,
                0.0093610171319361,
                -2.647304683109323
            ]
        },
        {
            "positions": [
                -0.14776277372539193,
                -1.1648759229674839,
                1.6974723099082916,
                -0.9897556351494499,
                0.040954140469229044,
                -2.7633072911618255
            ]
        },
        {
            "positions": [
                -0.057775790020254125,
                -1.159661997805685,
                1.7958537365636236,
                -0.9490321916200873,
                0.07254726380652199,
                -2.8793098992143284
            ]
        },
        {
            "positions": [
                0.03221119368488379,
                -1.1544480726438864,
                1.8942351632189558,
                -0.9083087480907248,
                0.10414038714381493,
                -2.9953125072668314
            ]
        },
        {
            "positions": [
                0.12219817739002162,
                -1.1492341474820875,
                1.9926165898742878,
                -0.8675853045613624,
                0.13573351048110785,
                -3.1113151153193344
            ]
        }
    ]
}