{
    "goal": {
        "global_pose": {
            "orientation": {
                "w": 0.5084816217422485,
                "x": -0.49083608388900757,
                "y": 0.5182115435600281,
                "z": -0.4816462993621826
            },
            "position": {
                "x": 0.5540239810943604,
                "y": 0.030875300988554955,
                "z": 0.16403168439865112
            }
        },
        "name": "move_to_storage_A"
    },
    "id": "SBL_move_to_storage_A_21",
    "joint_names": [
        "shoulder_pan_joint",
        "shoulder_lift_joint",
        "elbow_joint",
        "wrist_1_joint",
        "wrist_2_joint",
        "wrist_3_joint"
    ],
    "metrics": {
        "cart_traj_len": 0.35393224608604124,
        "distance_elbow_joint": 0.4540249945024213,
        "distance_shoulder_lift_joint": 0.23262812571034863,
        "distance_shoulder_pan_joint": 0.4606017467690172,
        "distance_wrist_1_joint": 0.2615093721354712,
        "distance_wrist_2_joint": 1.1096226057673773,
        "distance_wrist_3_joint": 0.10575308656410076,
        "smoothness": 6.661338200497456e-16,
        "time": 0.36363161099999997,
        "traj_len": 1.6199197299399548,
        "weighted_distance": 2.051043169335981
    },
    "planner": "SBL",
    "start": {
        "state": {
            "elbow_joint": 1.9715463870305268,
            "shoulder_lift_joint": -1.1394903361783484,
            "shoulder_pan_joint": 0.12281147578464417,
            "wrist_1_joint": -0.7804599489681411,
            "wrist_2_joint": 0.12958660307563738,
            "wrist_3_joint": -3.1924946282119055
        }
    },
    "waypoints": [
        {
            "positions": [
                0.12281147578464417,
                -1.1394903361783484,
                1.9715463870305268,
                -0.7804599489681411,
                0.12958660307563738,
                -3.1924946282119055
            ]
        },
        {
            "positions": [
                0.057011226246213145,
                -1.1727229255655411,
                2.0364071005308726,
                -0.8178184307017798,
                0.2881041181852627,
                -3.177387044417034
            ]
        },
        {
            "positions": [
                -0.008789023292217882,
                -1.2059555149527337,
                2.1012678140312184,
                -0.8551769124354186,
                0.446621633294888,
                -3.1622794606221625
            ]
        },
        {
            "positions": [
                -0.07458927283064891,
                -1.2391881043399264,
                2.1661285275315643,
                -0.8925353941690573,
                0.6051391484045133,
                -3.147171876827291
            ]
        },
        {
            "positions": [
                -0.14038952236907992,
                -1.272420693727119,
                2.23098924103191,
                -0.929893875902696,
                0.7636566635141386,
                -3.1320642930324194
            ]
        },
        {
            "positions": [
                -0.20618977190751098,
                -1.3056532831143117,
                2.2958499545322564,
                -0.9672523576363348,
                0.922174178623764,
                -3.116956709237548
            ]
        },
        {
            "positions": [
                -0.271990021445942,
                -1.3388858725015043,
                2.360710668032602,
                -1.0046108393699735,
                1.0806916937333892,
                -3.1018491254426763
            ]
        },
        {
            "positions": [
                -0.33779027098437303,
                -1.372118461888697,
                2.425571381532948,
                -1.0419693211036123,
                1.2392092088430147,
                -3.086741541647805
            ]
        }
    ]
}