{
    "goal": {
        "global_pose": {
            "orientation": {
                "w": 0.5084816217422485,
                "x": -0.49083608388900757,
                "y": 0.5182115435600281,
                "z": -0.4816462993621826
            },
            "position": {
                "x": 0.5540239810943604,
                "y": 0.030875300988554955,
                "z": 0.16403168439865112
            }
        },
        "name": "move_to_storage_A"
    },
    "id": "SBL_move_to_storage_A_88",
    "joint_names": [
        "shoulder_pan_joint",
        "shoulder_lift_joint",
        "elbow_joint",
        "wrist_1_joint",
        "wrist_2_joint",
        "wrist_3_joint"
    ],
    "metrics": {
        "cart_traj_len": 0.35342597689545063,
        "distance_elbow_joint": 0.45407876980929274,
        "distance_shoulder_lift_joint": 0.23458983009779644,
        "distance_shoulder_pan_joint": 0.46002602408956533,
        "distance_wrist_1_joint": 0.25806553634507423,
        "distance_wrist_2_joint": 1.109342114484847,
        "distance_wrist_3_joint": 0.11064684731641483,
        "smoothness": 4.440892098500626e-16,
        "time": 0.14131370999999998,
        "traj_len": 1.6207248755242176,
        "weighted_distance": 2.053156220945143
    },
    "planner": "SBL",
    "start": {
        "state": {
            "elbow_joint": 1.9715463870305268,
            "shoulder_lift_joint": -1.1394903361783484,
            "shoulder_pan_joint": 0.12281147578464417,
            "wrist_1_joint": -0.7804599489681411,
            "wrist_2_joint": 0.12958660307563738,
            "wrist_3_joint": -3.1924946282119055
        }
    },
    "waypoints": [
        {
            "positions": [
                0.12281147578464417,
                -1.1394903361783484,
                1.9715463870305268,
                -0.7804599489681411,
                0.12958660307563738,
                -3.1924946282119055
            ]
        },
        {
            "positions": [
                0.057093472343277704,
                -1.1730031690494622,
                2.0364147827175687,
                -0.8173264541602946,
                0.2880640480020441,
                -3.176687935738132
            ]
        },
        {
            "positions": [
                -0.008624531098088764,
                -1.2065160019205758,
                2.10128317840461,
                -0.854192959352448,
                0.4465414929284508,
                -3.1608812432643583
            ]
        },
        {
            "positions": [
                -0.07434253453945523,
                -1.2400288347916897,
                2.166151574091652,
                -0.8910594645446015,
                0.6050189378548575,
                -3.145074550790585
            ]
        },
        {
            "positions": [
                -0.1400605379808217,
                -1.2735416676628035,
                2.231019969778694,
                -0.9279259697367549,
                0.7634963827812642,
                -3.1292678583168114
            ]
        },
        {
            "positions": [
                -0.2057785414221882,
                -1.3070545005339174,
                2.295888365465736,
                -0.9647924749289084,
                0.921973827707671,
                -3.113461165843038
            ]
        },
        {
            "positions": [
                -0.2714965448635546,
                -1.340567333405031,
                2.3607567611527775,
                -1.0016589801210618,
                1.0804512726340776,
                -3.097654473369264
            ]
        },
        {
            "positions": [
                -0.33721454830492115,
                -1.3740801662761448,
                2.4256251568398195,
                -1.0385254853132153,
                1.2389287175604844,
                -3.0818477808954907
            ]
        }
    ]
}