{
    "goal": {
        "global_pose": {
            "orientation": {
                "w": 0.5084816217422485,
                "x": -0.49083608388900757,
                "y": 0.5182115435600281,
                "z": -0.4816462993621826
            },
            "position": {
                "x": 0.5540239810943604,
                "y": 0.030875300988554955,
                "z": 0.16403168439865112
            }
        },
        "name": "move_to_storage_A"
    },
    "id": "SBL_move_to_storage_A_40",
    "joint_names": [
        "shoulder_pan_joint",
        "shoulder_lift_joint",
        "elbow_joint",
        "wrist_1_joint",
        "wrist_2_joint",
        "wrist_3_joint"
    ],
    "metrics": {
        "cart_traj_len": 0.3527159200086082,
        "distance_elbow_joint": 0.4519529273612375,
        "distance_shoulder_lift_joint": 0.2355405047172765,
        "distance_shoulder_pan_joint": 0.46200265229928733,
        "distance_wrist_1_joint": 0.2535764226994929,
        "distance_wrist_2_joint": 1.09512634785713,
        "distance_wrist_3_joint": 0.10748139950408353,
        "smoothness": 0.0,
        "time": 0.151645713,
        "traj_len": 1.614211960815093,
        "weighted_distance": 2.0418976037018353
    },
    "planner": "SBL",
    "start": {
        "state": {
            "elbow_joint": 1.9715463870305268,
            "shoulder_lift_joint": -1.1394903361783484,
            "shoulder_pan_joint": 0.12281147578464417,
            "wrist_1_joint": -0.7804599489681411,
            "wrist_2_joint": 0.12958660307563738,
            "wrist_3_joint": -3.1924946282119055
        }
    },
    "waypoints": [
        {
            "positions": [
                0.12281147578464417,
                -1.1394903361783484,
                1.9715463870305268,
                -0.7804599489681411,
                0.12958660307563738,
                -3.1924946282119055
            ]
        },
        {
            "positions": [
                0.05681109688474599,
                -1.1731389797093879,
                2.036111090939275,
                -0.8166851522109257,
                0.2860332241980845,
                -3.177140142568465
            ]
        },
        {
            "positions": [
                -0.009189282015152192,
                -1.2067876232404273,
                2.1006757948480232,
                -0.8529103554537105,
                0.44247984532053164,
                -3.1617856569250247
            ]
        },
        {
            "positions": [
                -0.07518966091505037,
                -1.2404362667714668,
                2.1652404987567713,
                -0.8891355586964952,
                0.5989264664429788,
                -3.1464311712815842
            ]
        },
        {
            "positions": [
                -0.14119003981494854,
                -1.2740849103025065,
                2.2298052026655197,
                -0.9253607619392799,
                0.755373087565426,
                -3.1310766856381433
            ]
        },
        {
            "positions": [
                -0.20719041871484678,
                -1.307733553833546,
                2.2943699065742678,
                -0.9615859651820646,
                0.9118197086878732,
                -3.115722199994703
            ]
        },
        {
            "positions": [
                -0.2731907976147449,
                -1.3413821973645854,
                2.358934610483016,
                -0.9978111684248492,
                1.06826632981032,
                -3.1003677143512625
            ]
        },
        {
            "positions": [
                -0.33919117651464314,
                -1.3750308408956249,
                2.4234993143917642,
                -1.034036371667634,
                1.2247129509327674,
                -3.085013228707822
            ]
        }
    ]
}