{
    "goal": {
        "global_pose": {
            "orientation": {
                "w": 0.5084816217422485,
                "x": -0.49083608388900757,
                "y": 0.5182115435600281,
                "z": -0.4816462993621826
            },
            "position": {
                "x": 0.5540239810943604,
                "y": 0.030875300988554955,
                "z": 0.16403168439865112
            }
        },
        "name": "move_to_storage_A"
    },
    "id": "SBL_move_to_storage_A_36",
    "joint_names": [
        "shoulder_pan_joint",
        "shoulder_lift_joint",
        "elbow_joint",
        "wrist_1_joint",
        "wrist_2_joint",
        "wrist_3_joint"
    ],
    "metrics": {
        "cart_traj_len": 0.3533563502413782,
        "distance_elbow_joint": 0.4480325314430007,
        "distance_shoulder_lift_joint": 0.23424586765957556,
        "distance_shoulder_pan_joint": 0.4632093747884485,
        "distance_wrist_1_joint": 0.2376893941226229,
        "distance_wrist_2_joint": 1.0938233431122117,
        "distance_wrist_3_joint": 0.10530100642797624,
        "smoothness": 6.661338165333112e-16,
        "time": 0.20143777400000001,
        "traj_len": 1.6069541118382427,
        "weighted_distance": 2.030865891102764
    },
    "planner": "SBL",
    "start": {
        "state": {
            "elbow_joint": 1.9715463870305268,
            "shoulder_lift_joint": -1.1394903361783484,
            "shoulder_pan_joint": 0.12281147578464417,
            "wrist_1_joint": -0.7804599489681411,
            "wrist_2_joint": 0.12958660307563738,
            "wrist_3_joint": -3.1924946282119055
        }
    },
    "waypoints": [
        {
            "positions": [
                0.12281147578464417,
                -1.1394903361783484,
                1.9715463870305268,
                -0.7804599489681411,
                0.12958660307563738,
                -3.1924946282119055
            ]
        },
        {
            "positions": [
                0.05663870795772297,
                -1.1729540315582878,
                2.0355510343795267,
                -0.8144155766999444,
                0.28584708066309616,
                -3.1774516272936233
            ]
        },
        {
            "positions": [
                -0.009534059869198239,
                -1.206417726938227,
                2.099555681728527,
                -0.8483712044317476,
                0.44210755825055503,
                -3.162408626375341
            ]
        },
        {
            "positions": [
                -0.07570682769611946,
                -1.2398814223181664,
                2.163560329077527,
                -0.8823268321635509,
                0.5983680358380138,
                -3.147365625457059
            ]
        },
        {
            "positions": [
                -0.14187959552304064,
                -1.2733451176981059,
                2.2275649764265273,
                -0.9162824598953542,
                0.7546285134254727,
                -3.132322624538776
            ]
        },
        {
            "positions": [
                -0.20805236334996186,
                -1.3068088130780453,
                2.291569623775527,
                -0.9502380876271574,
                0.9108889910129315,
                -3.117279623620494
            ]
        },
        {
            "positions": [
                -0.2742251311768831,
                -1.3402725084579845,
                2.355574271124527,
                -0.9841937153589607,
                1.0671494686003902,
                -3.1022366227022116
            ]
        },
        {
            "positions": [
                -0.3403978990038043,
                -1.373736203837924,
                2.4195789184735275,
                -1.018149343090764,
                1.2234099461878492,
                -3.0871936217839293
            ]
        }
    ]
}