{
    "goal": {
        "global_pose": {
            "orientation": {
                "w": 0.7031023502349854,
                "x": -0.7110244035720825,
                "y": 0.007748599164187908,
                "z": 0.005598929710686207
            },
            "position": {
                "x": 0.11585023208521307,
                "y": 0.44412534475326537,
                "z": 0.3711530566215515
            }
        },
        "name": "move_to_auspresseinheit_A"
    },
    "id": "SBL_move_to_auspresseinheit_A_138",
    "joint_names": [
        "shoulder_pan_joint",
        "shoulder_lift_joint",
        "elbow_joint",
        "wrist_1_joint",
        "wrist_2_joint",
        "wrist_3_joint"
    ],
    "metrics": {
        "cart_traj_len": 2.205771598933005,
        "distance_elbow_joint": 1.722579179686861,
        "distance_shoulder_lift_joint": 1.4337613916463323,
        "distance_shoulder_pan_joint": 1.7577630009249328,
        "distance_wrist_1_joint": 5.19067770069044,
        "distance_wrist_2_joint": 0.5455036237449136,
        "distance_wrist_3_joint": 6.312339552608789,
        "smoothness": 0.6755269276243934,
        "time": 0.22026395799999998,
        "traj_len": 4.118570680382002,
        "weighted_distance": 5.943356364795502
    },
    "planner": "SBL",
    "start": {
        "state": {
            "elbow_joint": 2.422574709923281,
            "shoulder_lift_joint": -1.3736533754116391,
            "shoulder_pan_joint": -0.33786336945926293,
            "wrist_1_joint": -1.0288603412921917,
            "wrist_2_joint": 1.2330224858903978,
            "wrist_3_joint": -3.094022268022082
        }
    },
    "waypoints": [
        {
            "positions": [
                -0.33786336945926293,
                -1.3736533754116391,
                2.422574709923281,
                -1.0288603412921917,
                1.2330224858903978,
                -3.094022268022082
            ]
        },
        {
            "positions": [
                -0.2818612141495925,
                -1.4129573309786752,
                2.3875216474137004,
                -0.9137652312109716,
                1.2152859582102316,
                -2.968728767441643
            ]
        },
        {
            "positions": [
                -0.22585905883992202,
                -1.452261286545711,
                2.3524685849041203,
                -0.7986701211297516,
                1.1975494305300651,
                -2.8434352668612037
            ]
        },
        {
            "positions": [
                -0.1698569035302516,
                -1.491565242112747,
                2.3174155223945396,
                -0.6835750110485315,
                1.179812902849899,
                -2.7181417662807648
            ]
        },
        {
            "positions": [
                -0.11385474822058111,
                -1.5308691976797828,
                2.282362459884959,
                -0.5684799009673113,
                1.1620763751697325,
                -2.5928482657003253
            ]
        },
        {
            "positions": [
                -0.05785259291091066,
                -1.5701731532468188,
                2.247309397375379,
                -0.4533847908860912,
                1.1443398474895663,
                -2.4675547651198864
            ]
        },
        {
            "positions": [
                -0.0018504376012402624,
                -1.6094771088138549,
                2.212256334865798,
                -0.3382896808048711,
                1.1266033198093999,
                -2.342261264539447
            ]
        },
        {
            "positions": [
                0.05415171770843025,
                -1.6487810643808907,
                2.1772032723562176,
                -0.2231945707236509,
                1.1088667921292337,
                -2.2169677639590075
            ]
        },
        {
            "positions": [
                0.1101538730181007,
                -1.6880850199479267,
                2.142150209846637,
                -0.10809946064243081,
                1.0911302644490672,
                -2.0916742633785685
            ]
        },
        {
            "positions": [
                0.16615602832777104,
                -1.7273889755149625,
                2.1070971473370568,
                0.006995649438789275,
                1.073393736768901,
                -1.9663807627981296
            ]
        },
        {
            "positions": [
                0.2221581836374416,
                -1.7666929310819985,
                2.072044084827476,
                0.12209075952000936,
                1.0556572090887348,
                -1.8410872622176901
            ]
        },
        {
            "positions": [
                0.27816033894711206,
                -1.8059968866490346,
                2.0369910223178955,
                0.23718586960122945,
                1.0379206814085684,
                -1.715793761637251
            ]
        },
        {
            "positions": [
                0.3341624942567824,
                -1.8453008422160704,
                2.0019379598083153,
                0.35228097968244954,
                1.0201841537284022,
                -1.590500261056812
            ]
        },
        {
            "positions": [
                0.39016464956645297,
                -1.8846047977831064,
                1.9668848972987347,
                0.46737608976366984,
                1.0024476260482358,
                -1.4652067604763725
            ]
        },
        {
            "positions": [
                0.4461668048761234,
                -1.9239087533501422,
                1.9318318347891543,
                0.5824711998448899,
                0.9847110983680696,
                -1.3399132598959334
            ]
        },
        {
            "positions": [
                0.5021689601857937,
                -1.9632127089171783,
                1.896778772279574,
                0.69756630992611,
                0.9669745706879033,
                -1.2146197593154944
            ]
        },
        {
            "positions": [
                0.5581711154954643,
                -2.0025166644842143,
                1.8617257097699933,
                0.8126614200073301,
                0.949238043007737,
                -1.089326258735055
            ]
        },
        {
            "positions": [
                0.6141732708051348,
                -2.0418206200512503,
                1.8266726472604127,
                0.9277565300885504,
                0.9315015153275706,
                -0.9640327581546155
            ]
        },
        {
            "positions": [
                0.670175426114805,
                -2.081124575618286,
                1.7916195847508325,
                1.0428516401697703,
                0.9137649876474043,
                -0.838739257574177
            ]
        },
        {
            "positions": [
                0.7261775814244755,
                -2.120428531185322,
                1.7565665222412519,
                1.1579467502509906,
                0.896028459967238,
                -0.7134457569937376
            ]
        },
        {
            "positions": [
                0.7821797367341461,
                -2.159732486752358,
                1.7215134597316712,
                1.2730418603322105,
                0.8782919322870717,
                -0.5881522564132982
            ]
        },
        {
            "positions": [
                0.8381818920438164,
                -2.199036442319394,
                1.686460397222091,
                1.3881369704134308,
                0.8605554046069055,
                -0.4628587558328592
            ]
        },
        {
            "positions": [
                0.894184047353487,
                -2.2383403978864296,
                1.6514073347125104,
                1.5032320804946506,
                0.8428188769267391,
                -0.33756525525241976
            ]
        },
        {
            "positions": [
                0.9501862026631573,
                -2.277644353453466,
                1.6163542722029298,
                1.618327190575871,
                0.8250823492465729,
                -0.21227175467198078
            ]
        },
        {
            "positions": [
                1.0061883579728277,
                -2.3169483090205016,
                1.5813012096933496,
                1.7334223006570908,
                0.8073458215664066,
                -0.0869782540915418
            ]
        },
        {
            "positions": [
                1.0621905132824982,
                -2.3562522645875377,
                1.546248147183769,
                1.8485174107383113,
                0.7896092938862402,
                0.038315246488897725
            ]
        },
        {
            "positions": [
                1.0508514222026972,
                -2.3342552927326063,
                1.5919478680083323,
                1.7310822487600257,
                0.778917117687977,
                -0.1312139029279297
            ]
        },
        {
            "positions": [
                1.0395123311228964,
                -2.312258320877675,
                1.6376475888328954,
                1.61364708678174,
                0.7682249414897138,
                -0.3007430523447571
            ]
        },
        {
            "positions": [
                1.0281732400430954,
                -2.2902613490227433,
                1.6833473096574587,
                1.4962119248034544,
                0.7575327652914505,
                -0.47027220176158446
            ]
        },
        {
            "positions": [
                1.0168341489632946,
                -2.268264377167812,
                1.7290470304820218,
                1.3787767628251688,
                0.7468405890931873,
                -0.639801351178412
            ]
        },
        {
            "positions": [
                1.0054950578834936,
                -2.2462674053128806,
                1.774746751306585,
                1.2613416008468832,
                0.736148412894924,
                -0.8093305005952394
            ]
        },
        {
            "positions": [
                0.9941559668036927,
                -2.2242704334579493,
                1.8204464721311482,
                1.1439064388685973,
                0.7254562366966608,
                -0.9788596500120667
            ]
        },
        {
            "positions": [
                0.9828168757238918,
                -2.2022734616030175,
                1.8661461929557115,
                1.0264712768903117,
                0.7147640604983976,
                -1.1483887994288944
            ]
        },
        {
            "positions": [
                0.9714777846440908,
                -2.180276489748086,
                1.9118459137802746,
                0.9090361149120262,
                0.7040718843001343,
                -1.3179179488457216
            ]
        },
        {
            "positions": [
                0.9601386935642899,
                -2.158279517893155,
                1.9575456346048379,
                0.7916009529337404,
                0.6933797081018711,
                -1.487447098262549
            ]
        },
        {
            "positions": [
                0.9345729637177936,
                -2.1329605423155495,
                2.001041147557466,
                0.6659626038482039,
                0.6939657926975098,
                -1.6528710675971856
            ]
        },
        {
            "positions": [
                0.9090072338712974,
                -2.1076415667379447,
                2.044536660510094,
                0.5403242547626674,
                0.6945518772931485,
                -1.8182950369318223
            ]
        },
        {
            "positions": [
                0.8834415040248011,
                -2.08232259116034,
                2.088032173462722,
                0.414685905677131,
                0.6951379618887872,
                -1.9837190062664587
            ]
        },
        {
            "positions": [
                0.8578757741783049,
                -2.0570036155827345,
                2.13152768641535,
                0.28904755659159453,
                0.6957240464844259,
                -2.1491429756010954
            ]
        },
        {
            "positions": [
                0.8323100443318086,
                -2.031684640005129,
                2.175023199367978,
                0.16340920750605803,
                0.6963101310800646,
                -2.314566944935732
            ]
        },
        {
            "positions": [
                0.8067443144853124,
                -2.0063656644275243,
                2.218518712320606,
                0.037770858420521525,
                0.6968962156757033,
                -2.4799909142703687
            ]
        },
        {
            "positions": [
                0.7811785846388161,
                -1.9810466888499192,
                2.262014225273234,
                -0.08786749066501487,
                0.697482300271342,
                -2.6454148836050053
            ]
        },
        {
            "positions": [
                0.7556128547923198,
                -1.955727713272314,
                2.305509738225862,
                -0.21350583975055137,
                0.6980683848669806,
                -2.810838852939642
            ]
        },
        {
            "positions": [
                0.7300471249458236,
                -1.930408737694709,
                2.34900525117849,
                -0.339144188836088,
                0.6986544694626193,
                -2.9762628222742786
            ]
        },
        {
            "positions": [
                0.7044813950993273,
                -1.905089762117104,
                2.392500764131118,
                -0.4647825379216243,
                0.699240554058258,
                -3.1416867916089153
            ]
        }
    ]
}