{
    "goal": {
        "global_pose": {
            "orientation": {
                "w": 0.7031023502349854,
                "x": -0.7110244035720825,
                "y": 0.007748599164187908,
                "z": 0.005598929710686207
            },
            "position": {
                "x": 0.11585023208521307,
                "y": 0.44412534475326537,
                "z": 0.3711530566215515
            }
        },
        "name": "move_to_auspresseinheit_A"
    },
    "id": "SBL_move_to_auspresseinheit_A_65",
    "joint_names": [
        "shoulder_pan_joint",
        "shoulder_lift_joint",
        "elbow_joint",
        "wrist_1_joint",
        "wrist_2_joint",
        "wrist_3_joint"
    ],
    "metrics": {
        "cart_traj_len": 1.0129478497571025,
        "distance_elbow_joint": 0.4923622342962988,
        "distance_shoulder_lift_joint": 0.898035290958141,
        "distance_shoulder_pan_joint": 1.7180169833298065,
        "distance_wrist_1_joint": 1.7078974294852514,
        "distance_wrist_2_joint": 1.689396126408269,
        "distance_wrist_3_joint": 0.8108508994211729,
        "smoothness": 1.108553652023944,
        "time": 0.22415244,
        "traj_len": 2.7049138551715357,
        "weighted_distance": 3.5122007799433685
    },
    "planner": "SBL",
    "start": {
        "state": {
            "elbow_joint": 2.422574709923281,
            "shoulder_lift_joint": -1.3736533754116391,
            "shoulder_pan_joint": -0.33786336945926293,
            "wrist_1_joint": -1.0288603412921917,
            "wrist_2_joint": 1.2330224858903978,
            "wrist_3_joint": -3.094022268022082
        }
    },
    "waypoints": [
        {
            "positions": [
                -0.33786336945926293,
                -1.3736533754116391,
                2.422574709923281,
                -1.0288603412921917,
                1.2330224858903978,
                -3.094022268022082
            ]
        },
        {
            "positions": [
                -0.22283274401306608,
                -1.433239663946388,
                2.4417333736128994,
                -0.9338012257007747,
                1.2815288966308571,
                -3.0627614186322436
            ]
        },
        {
            "positions": [
                -0.10780211856686922,
                -1.492825952481137,
                2.460892037302518,
                -0.8387421101093577,
                1.3300353073713165,
                -3.0315005692424046
            ]
        },
        {
            "positions": [
                0.007228506879327634,
                -1.5524122410158858,
                2.480050700992136,
                -0.7436829945179406,
                1.3785417181117758,
                -3.000239719852566
            ]
        },
        {
            "positions": [
                0.12225913232552449,
                -1.6119985295506345,
                2.4992093646817546,
                -0.6486238789265236,
                1.4270481288522352,
                -2.9689788704627276
            ]
        },
        {
            "positions": [
                0.2372897577717214,
                -1.6715848180853834,
                2.518368028371373,
                -0.5535647633351065,
                1.4755545395926946,
                -2.937718021072889
            ]
        },
        {
            "positions": [
                0.3523203832179182,
                -1.7311711066201323,
                2.5375266920609914,
                -0.4585056477436895,
                1.524060950333154,
                -2.9064571716830505
            ]
        },
        {
            "positions": [
                0.4673510086641151,
                -1.7907573951548812,
                2.55668535575061,
                -0.3634465321522724,
                1.5725673610736133,
                -2.8751963222932115
            ]
        },
        {
            "positions": [
                0.5823816341103119,
                -1.8503436836896299,
                2.5758440194402286,
                -0.2683874165608555,
                1.6210737718140726,
                -2.843935472903373
            ]
        },
        {
            "positions": [
                0.6974122595565087,
                -1.9099299722243788,
                2.595002683129847,
                -0.1733283009694384,
                1.669580182554532,
                -2.8126746235135345
            ]
        },
        {
            "positions": [
                0.8124428850027057,
                -1.9695162607591277,
                2.6141613468194653,
                -0.0782691853780213,
                1.7180865932949914,
                -2.7814137741236955
            ]
        },
        {
            "positions": [
                0.9274735104489025,
                -2.0291025492938766,
                2.6333200105090837,
                0.016789930213395587,
                1.7665930040354507,
                -2.750152924733857
            ]
        },
        {
            "positions": [
                1.0425041358950993,
                -2.0886888378286255,
                2.652478674198702,
                0.1118490458048127,
                1.81509941477591,
                -2.7188920753440184
            ]
        },
        {
            "positions": [
                1.0002979511481687,
                -2.065813859260981,
                2.619671390446092,
                0.04095054050628186,
                1.6766845150855654,
                -2.773357163686907
            ]
        },
        {
            "positions": [
                0.9580917664012383,
                -2.042938880693337,
                2.5868641066934828,
                -0.029947964792248982,
                1.538269615395221,
                -2.8278222520297955
            ]
        },
        {
            "positions": [
                0.9158855816543077,
                -2.0200639021256923,
                2.554056822940873,
                -0.10084647009077982,
                1.3998547157048762,
                -2.8822873403726845
            ]
        },
        {
            "positions": [
                0.8736793969073772,
                -1.9971889235580482,
                2.521249539188263,
                -0.17174497538931066,
                1.2614398160145317,
                -2.936752428715573
            ]
        },
        {
            "positions": [
                0.8314732121604467,
                -1.9743139449904037,
                2.4884422554356536,
                -0.24264348068784147,
                1.123024916324187,
                -2.9912175170584616
            ]
        },
        {
            "positions": [
                0.7892670274135161,
                -1.9514389664227594,
                2.4556349716830437,
                -0.31354198598637234,
                0.9846100166338423,
                -3.0456826054013506
            ]
        },
        {
            "positions": [
                0.7470608426665856,
                -1.928563987855115,
                2.4228276879304342,
                -0.3844404912849032,
                0.8461951169434977,
                -3.100147693744239
            ]
        },
        {
            "positions": [
                0.7048546579196551,
                -1.9056890092874708,
                2.3900204041778244,
                -0.45533899658343396,
                0.7077802172531531,
                -3.1546127820871277
            ]
        }
    ]
}