{
    "goal": {
        "global_pose": {
            "orientation": {
                "w": 0.7031023502349854,
                "x": -0.7110244035720825,
                "y": 0.007748599164187908,
                "z": 0.005598929710686207
            },
            "position": {
                "x": 0.11585023208521307,
                "y": 0.44412534475326537,
                "z": 0.3711530566215515
            }
        },
        "name": "move_to_auspresseinheit_A"
    },
    "id": "SBL_move_to_auspresseinheit_A_94",
    "joint_names": [
        "shoulder_pan_joint",
        "shoulder_lift_joint",
        "elbow_joint",
        "wrist_1_joint",
        "wrist_2_joint",
        "wrist_3_joint"
    ],
    "metrics": {
        "cart_traj_len": 1.6745482479742666,
        "distance_elbow_joint": 1.373080200352009,
        "distance_shoulder_lift_joint": 1.088663464474441,
        "distance_shoulder_pan_joint": 1.3520595710861838,
        "distance_wrist_1_joint": 3.018944791427578,
        "distance_wrist_2_joint": 0.5117480040020191,
        "distance_wrist_3_joint": 5.664136571519525,
        "smoothness": 0.6767048093876965,
        "time": 0.275287622,
        "traj_len": 3.606748203418386,
        "weighted_distance": 5.278977035499435
    },
    "planner": "SBL",
    "start": {
        "state": {
            "elbow_joint": 2.422574709923281,
            "shoulder_lift_joint": -1.3736533754116391,
            "shoulder_pan_joint": -0.33786336945926293,
            "wrist_1_joint": -1.0288603412921917,
            "wrist_2_joint": 1.2330224858903978,
            "wrist_3_joint": -3.094022268022082
        }
    },
    "waypoints": [
        {
            "positions": [
                -0.33786336945926293,
                -1.3736533754116391,
                2.422574709923281,
                -1.0288603412921917,
                1.2330224858903978,
                -3.094022268022082
            ]
        },
        {
            "positions": [
                -0.30004942283735114,
                -1.4057711095945222,
                2.3694800654600434,
                -0.944648288656157,
                1.2100414283126435,
                -2.9600040492752724
            ]
        },
        {
            "positions": [
                -0.2622354762154393,
                -1.4378888437774053,
                2.316385420996806,
                -0.8604362360201223,
                1.187060370734889,
                -2.8259858305284626
            ]
        },
        {
            "positions": [
                -0.2244215295935275,
                -1.4700065779602887,
                2.2632907765335686,
                -0.7762241833840875,
                1.1640793131571348,
                -2.691967611781653
            ]
        },
        {
            "positions": [
                -0.1866075829716157,
                -1.5021243121431718,
                2.210196132070331,
                -0.6920121307480528,
                1.1410982555793805,
                -2.5579493930348427
            ]
        },
        {
            "positions": [
                -0.1487936363497039,
                -1.5342420463260549,
                2.1571014876070933,
                -0.6078000781120181,
                1.118117198001626,
                -2.423931174288033
            ]
        },
        {
            "positions": [
                -0.1109796897277921,
                -1.566359780508938,
                2.104006843143856,
                -0.5235880254759834,
                1.0951361404238718,
                -2.289912955541223
            ]
        },
        {
            "positions": [
                -0.07316574310588031,
                -1.598477514691821,
                2.0509121986806185,
                -0.43937597283994867,
                1.0721550828461175,
                -2.1558947367944135
            ]
        },
        {
            "positions": [
                -0.03535179648396847,
                -1.6305952488747044,
                1.9978175542173808,
                -0.35516392020391385,
                1.049174025268363,
                -2.0218765180476037
            ]
        },
        {
            "positions": [
                0.0024621501379433752,
                -1.6627129830575875,
                1.9447229097541434,
                -0.27095186756787915,
                1.0261929676906087,
                -1.8878582993007937
            ]
        },
        {
            "positions": [
                0.04027609675985511,
                -1.6948307172404706,
                1.891628265290906,
                -0.18673981493184444,
                1.0032119101128543,
                -1.753840080553984
            ]
        },
        {
            "positions": [
                0.07809004338176694,
                -1.7269484514233537,
                1.8385336208276684,
                -0.10252776229580973,
                0.9802308525351,
                -1.6198218618071742
            ]
        },
        {
            "positions": [
                0.15299246443715026,
                -1.7727919157291234,
                1.8269218787578407,
                -0.016328688808120218,
                0.9727554111686821,
                -1.4857105944860385
            ]
        },
        {
            "positions": [
                0.22789488549253356,
                -1.818635380034893,
                1.8153101366880129,
                0.0698703846795693,
                0.9652799698022643,
                -1.3515993271649025
            ]
        },
        {
            "positions": [
                0.30279730654791687,
                -1.8644788443406624,
                1.8036983946181853,
                0.15606945816725876,
                0.9578045284358464,
                -1.2174880598437667
            ]
        },
        {
            "positions": [
                0.37769972760330023,
                -1.910322308646432,
                1.7920866525483574,
                0.24226853165494833,
                0.9503290870694285,
                -1.083376792522631
            ]
        },
        {
            "positions": [
                0.45260214865868353,
                -1.9561657729522017,
                1.7804749104785298,
                0.3284676051426378,
                0.9428536457030107,
                -0.9492655252014952
            ]
        },
        {
            "positions": [
                0.5275045697140668,
                -2.002009237257971,
                1.7688631684087022,
                0.41466667863032725,
                0.9353782043365928,
                -0.8151542578803594
            ]
        },
        {
            "positions": [
                0.6024069907694501,
                -2.0478527015637407,
                1.7572514263388743,
                0.5008657521180168,
                0.9279027629701749,
                -0.6810429905592237
            ]
        },
        {
            "positions": [
                0.6773094118248335,
                -2.0936961658695106,
                1.7456396842690467,
                0.5870648256057064,
                0.9204273216037571,
                -0.5469317232380877
            ]
        },
        {
            "positions": [
                0.7522118328802169,
                -2.13953963017528,
                1.7340279421992189,
                0.6732638990933958,
                0.9129518802373392,
                -0.41282045591695193
            ]
        },
        {
            "positions": [
                0.8271142539356001,
                -2.1853830944810495,
                1.7224162001293912,
                0.7594629725810853,
                0.9054764388709213,
                -0.2787091885958162
            ]
        },
        {
            "positions": [
                0.8309608561228345,
                -2.170797086116195,
                1.7813940704388116,
                0.6736458022747216,
                0.893030102107949,
                -0.4883573011974295
            ]
        },
        {
            "positions": [
                0.834807458310069,
                -2.15621107775134,
                1.840371940748232,
                0.5878286319683579,
                0.8805837653449765,
                -0.6980054137990427
            ]
        },
        {
            "positions": [
                0.8386540604973035,
                -2.1416250693864853,
                1.8993498110576523,
                0.5020114616619942,
                0.8681374285820042,
                -0.907653526400656
            ]
        },
        {
            "positions": [
                0.8425006626845379,
                -2.1270390610216308,
                1.9583276813670727,
                0.41619429135563046,
                0.8556910918190317,
                -1.1173016390022692
            ]
        },
        {
            "positions": [
                0.8463472648717724,
                -2.1124530526567757,
                2.0173055516764933,
                0.33037712104926675,
                0.8432447550560593,
                -1.3269497516038824
            ]
        },
        {
            "positions": [
                0.8501938670590068,
                -2.097867044291921,
                2.0762834219859134,
                0.24455995074290304,
                0.8307984182930869,
                -1.5365978642054956
            ]
        },
        {
            "positions": [
                0.8540404692462413,
                -2.0832810359270666,
                2.135261292295334,
                0.15874278043653933,
                0.8183520815301145,
                -1.746245976807109
            ]
        },
        {
            "positions": [
                0.8578870714334758,
                -2.0686950275622116,
                2.194239162604754,
                0.07292561013017562,
                0.805905744767142,
                -1.955894089408722
            ]
        },
        {
            "positions": [
                0.8617336736207102,
                -2.054109019197357,
                2.2532170329141747,
                -0.012891560176188033,
                0.7934594080041697,
                -2.1655422020103354
            ]
        },
        {
            "positions": [
                0.8312411680194681,
                -2.0249770851730893,
                2.281641204468842,
                -0.10454494913559342,
                0.7790224227810115,
                -2.3579402977460835
            ]
        },
        {
            "positions": [
                0.8007486624182261,
                -1.9958451511488218,
                2.310065376023509,
                -0.19619833809499881,
                0.7645854375578532,
                -2.5503383934818316
            ]
        },
        {
            "positions": [
                0.7702561568169841,
                -1.966713217124554,
                2.338489547578176,
                -0.28785172705440415,
                0.7501484523346951,
                -2.7427364892175796
            ]
        },
        {
            "positions": [
                0.7397636512157421,
                -1.9375812831002865,
                2.3669137191328433,
                -0.3795051160138096,
                0.7357114671115368,
                -2.9351345849533277
            ]
        },
        {
            "positions": [
                0.7092711456145,
                -1.9084493490760188,
                2.3953378906875105,
                -0.47115850497321493,
                0.7212744818883786,
                -3.1275326806890758
            ]
        }
    ]
}