{
    "goal": {
        "global_pose": {
            "orientation": {
                "w": 0.7047431468963623,
                "x": -0.7094548344612122,
                "y": 0.0024358443915843964,
                "z": -0.0022348060738295317
            },
            "position": {
                "x": 0.6094750761985779,
                "y": 0.3671506643295288,
                "z": 0.19426114857196808
            }
        },
        "name": "move_to_magneteinheit_A"
    },
    "id": "SBL_move_to_magneteinheit_A_7",
    "joint_names": [
        "shoulder_pan_joint",
        "shoulder_lift_joint",
        "elbow_joint",
        "wrist_1_joint",
        "wrist_2_joint",
        "wrist_3_joint"
    ],
    "metrics": {
        "cart_traj_len": 1.8808541140953965,
        "distance_elbow_joint": 3.911252785141444,
        "distance_shoulder_lift_joint": 0.6985575573705188,
        "distance_shoulder_pan_joint": 1.241015603356371,
        "distance_wrist_1_joint": 1.476799333300258,
        "distance_wrist_2_joint": 1.7071409040782202,
        "distance_wrist_3_joint": 1.103024567335781,
        "smoothness": 4.2764146201067877e-16,
        "time": 0.1649497,
        "traj_len": 3.183989753529774,
        "weighted_distance": 3.9405304367093312
    },
    "planner": "SBL",
    "start": {
        "state": {
            "elbow_joint": -1.919643507792019,
            "shoulder_lift_joint": -0.07675430207160344,
            "shoulder_pan_joint": -1.1188671864651873,
            "wrist_1_joint": 0.42560062535961957,
            "wrist_2_joint": 1.5706038300724876,
            "wrist_3_joint": 1.1188968870953055
        }
    },
    "waypoints": [
        {
            "positions": [
                -1.1188671864651873,
                -0.07675430207160344,
                -1.919643507792019,
                0.42560062535961957,
                1.5706038300724876,
                1.1188968870953055
            ]
        },
        {
            "positions": [
                -1.071135817105327,
                -0.10362190043200802,
                -1.769210708363502,
                0.4824005997173218,
                1.5049445645310175,
                1.0764728652746987
            ]
        },
        {
            "positions": [
                -1.0234044477454665,
                -0.1304894987924126,
                -1.618777908934985,
                0.5392005740750241,
                1.4392852989895475,
                1.0340488434540915
            ]
        },
        {
            "positions": [
                -0.975673078385606,
                -0.15735709715281718,
                -1.468345109506468,
                0.5960005484327262,
                1.3736260334480777,
                0.9916248216334846
            ]
        },
        {
            "positions": [
                -0.9279417090257456,
                -0.18422469551322174,
                -1.3179123100779506,
                0.6528005227904286,
                1.3079667679066076,
                0.9492007998128777
            ]
        },
        {
            "positions": [
                -0.8802103396658852,
                -0.21109229387362632,
                -1.1674795106494336,
                0.7096004971481307,
                1.2423075023651375,
                0.9067767779922707
            ]
        },
        {
            "positions": [
                -0.8324789703060248,
                -0.2379598922340309,
                -1.0170467112209165,
                0.766400471505833,
                1.1766482368236675,
                0.8643527561716637
            ]
        },
        {
            "positions": [
                -0.7847476009461644,
                -0.26482749059443544,
                -0.8666139117923997,
                0.8232004458635351,
                1.1109889712821976,
                0.8219287343510568
            ]
        },
        {
            "positions": [
                -0.7370162315863039,
                -0.2916950889548401,
                -0.7161811123638824,
                0.8800004202212375,
                1.0453297057407274,
                0.7795047125304498
            ]
        },
        {
            "positions": [
                -0.6892848622264436,
                -0.3185626873152446,
                -0.5657483129353653,
                0.9368003945789396,
                0.9796704401992575,
                0.7370806907098428
            ]
        },
        {
            "positions": [
                -0.6415534928665831,
                -0.3454302856756492,
                -0.41531551350684826,
                0.9936003689366419,
                0.9140111746577875,
                0.6946566688892359
            ]
        },
        {
            "positions": [
                -0.5938221235067227,
                -0.37229788403605374,
                -0.2648827140783312,
                1.050400343294344,
                0.8483519091163175,
                0.652232647068629
            ]
        },
        {
            "positions": [
                -0.5460907541468623,
                -0.3991654823964584,
                -0.11444991464981413,
                1.1072003176520464,
                0.7826926435748475,
                0.6098086252480219
            ]
        },
        {
            "positions": [
                -0.4983593847870018,
                -0.4260330807568629,
                0.03598288477870293,
                1.1640002920097485,
                0.7170333780333775,
                0.567384603427415
            ]
        },
        {
            "positions": [
                -0.45062801542714137,
                -0.45290067911726745,
                0.18641568420721977,
                1.2208002663674509,
                0.6513741124919076,
                0.5249605816068081
            ]
        },
        {
            "positions": [
                -0.40289664606728104,
                -0.47976827747767203,
                0.33684848363573683,
                1.277600240725153,
                0.5857148469504376,
                0.48253655978620114
            ]
        },
        {
            "positions": [
                -0.3551652767074205,
                -0.5066358758380767,
                0.48728128306425433,
                1.3344002150828553,
                0.5200555814089673,
                0.44011253796559413
            ]
        },
        {
            "positions": [
                -0.30743390734756015,
                -0.5335034741984812,
                0.6377140824927714,
                1.3912001894405575,
                0.4543963158674975,
                0.3976885161449871
            ]
        },
        {
            "positions": [
                -0.2597025379876997,
                -0.5603710725588857,
                0.7881468819212885,
                1.4480001637982598,
                0.38873705032602746,
                0.35526449432438023
            ]
        },
        {
            "positions": [
                -0.21197116862783927,
                -0.5872386709192903,
                0.9385796813498051,
                1.504800138155962,
                0.3230777847845576,
                0.31284047250377334
            ]
        },
        {
            "positions": [
                -0.16423979926797883,
                -0.614106269279695,
                1.0890124807783226,
                1.5616001125136643,
                0.25741851924308734,
                0.2704164506831662
            ]
        },
        {
            "positions": [
                -0.1165084299081185,
                -0.6409738676400996,
                1.2394452802068396,
                1.6184000868713666,
                0.1917592537016175,
                0.22799242886255933
            ]
        },
        {
            "positions": [
                -0.06877706054825805,
                -0.6678414660005041,
                1.3898780796353567,
                1.6752000612290687,
                0.12609998816014745,
                0.18556840704195243
            ]
        },
        {
            "positions": [
                -0.02104569118839761,
                -0.6947090643609086,
                1.5403108790638738,
                1.7320000355867708,
                0.06044072261867761,
                0.14314438522134543
            ]
        },
        {
            "positions": [
                0.026685678171462834,
                -0.7215766627213134,
                1.6907436784923908,
                1.7888000099444732,
                -0.005218542922792668,
                0.10072036340073831
            ]
        },
        {
            "positions": [
                0.07441704753132328,
                -0.7484442610817179,
                1.8411764779209079,
                1.8455999843021755,
                -0.0708778084642625,
                0.05829634158013142
            ]
        },
        {
            "positions": [
                0.12214841689118366,
                -0.7753118594421223,
                1.991609277349425,
                1.9023999586598777,
                -0.13653707400573245,
                0.015872319759524574
            ]
        }
    ]
}