{
    "goal": {
        "global_pose": {
            "orientation": {
                "w": 0.7047431468963623,
                "x": -0.7094548344612122,
                "y": 0.0024358443915843964,
                "z": -0.0022348060738295317
            },
            "position": {
                "x": 0.6094750761985779,
                "y": 0.3671506643295288,
                "z": 0.19426114857196808
            }
        },
        "name": "move_to_magneteinheit_A"
    },
    "id": "SBL_move_to_magneteinheit_A_31",
    "joint_names": [
        "shoulder_pan_joint",
        "shoulder_lift_joint",
        "elbow_joint",
        "wrist_1_joint",
        "wrist_2_joint",
        "wrist_3_joint"
    ],
    "metrics": {
        "cart_traj_len": 1.9134262339242314,
        "distance_elbow_joint": 3.8952411838629457,
        "distance_shoulder_lift_joint": 1.560615852089346,
        "distance_shoulder_pan_joint": 1.2427620412814804,
        "distance_wrist_1_joint": 1.2214807338302447,
        "distance_wrist_2_joint": 1.4445123622314204,
        "distance_wrist_3_joint": 4.294173937927875,
        "smoothness": 0.10407463987169094,
        "time": 0.164141082,
        "traj_len": 3.695779499811009,
        "weighted_distance": 4.9913051482694115
    },
    "planner": "SBL",
    "start": {
        "state": {
            "elbow_joint": -1.919643507792019,
            "shoulder_lift_joint": -0.07675430207160344,
            "shoulder_pan_joint": -1.1188671864651873,
            "wrist_1_joint": 0.42560062535961957,
            "wrist_2_joint": 1.5706038300724876,
            "wrist_3_joint": 1.1188968870953055
        }
    },
    "waypoints": [
        {
            "positions": [
                -1.1188671864651873,
                -0.07675430207160344,
                -1.919643507792019,
                0.42560062535961957,
                1.5706038300724876,
                1.1188968870953055
            ]
        },
        {
            "positions": [
                -1.095977096218762,
                -0.12052473611850835,
                -1.8021416891607867,
                0.3912746175314973,
                1.5226007516979327,
                0.9946080259354468
            ]
        },
        {
            "positions": [
                -1.073087005972337,
                -0.16429517016541326,
                -1.6846398705295544,
                0.35694860970337494,
                1.474597673323378,
                0.8703191647755882
            ]
        },
        {
            "positions": [
                -1.0501969157259117,
                -0.20806560421231815,
                -1.567138051898322,
                0.32262260187525266,
                1.4265945949488232,
                0.7460303036157296
            ]
        },
        {
            "positions": [
                -1.0273068254794864,
                -0.25183603825922307,
                -1.4496362332670896,
                0.2882965940471304,
                1.3785915165742684,
                0.6217414424558709
            ]
        },
        {
            "positions": [
                -1.0044167352330613,
                -0.29560647230612797,
                -1.3321344146358571,
                0.25397058621900803,
                1.3305884381997137,
                0.49745258129601233
            ]
        },
        {
            "positions": [
                -0.981526644986636,
                -0.33937690635303286,
                -1.2146325960046247,
                0.21964457839088575,
                1.2825853598251589,
                0.3731637201361536
            ]
        },
        {
            "positions": [
                -0.9586365547402108,
                -0.38314734039993775,
                -1.0971307773733925,
                0.18531857056276343,
                1.234582281450604,
                0.24887485897629502
            ]
        },
        {
            "positions": [
                -0.9357464644937855,
                -0.4269177744468427,
                -0.97962895874216,
                0.15099256273464112,
                1.1865792030760494,
                0.12458599781643631
            ]
        },
        {
            "positions": [
                -0.9128563742473603,
                -0.4706882084937476,
                -0.8621271401109278,
                0.11666655490651884,
                1.1385761247014945,
                0.0002971366565778233
            ]
        },
        {
            "positions": [
                -0.8899662840009351,
                -0.5144586425406525,
                -0.7446253214796954,
                0.08234054707839655,
                1.0905730463269396,
                -0.12399172450328089
            ]
        },
        {
            "positions": [
                -0.86707619375451,
                -0.5582290765875574,
                -0.627123502848463,
                0.04801453925027427,
                1.042569967952385,
                -0.2482805856631396
            ]
        },
        {
            "positions": [
                -0.8441861035080847,
                -0.6019995106344622,
                -0.5096216842172305,
                0.013688531422151928,
                0.9945668895778301,
                -0.3725694468229983
            ]
        },
        {
            "positions": [
                -0.8212960132616594,
                -0.6457699446813672,
                -0.3921198655859981,
                -0.020637476405970412,
                0.9465638112032753,
                -0.496858307982857
            ]
        },
        {
            "positions": [
                -0.7984059230152343,
                -0.6895403787282721,
                -0.2746180469547659,
                -0.0549634842340927,
                0.8985607328287205,
                -0.6211471691427155
            ]
        },
        {
            "positions": [
                -0.775515832768809,
                -0.7333108127751771,
                -0.15711622832353345,
                -0.08928949206221498,
                0.8505576544541658,
                -0.7454360303025742
            ]
        },
        {
            "positions": [
                -0.7526257425223837,
                -0.777081246822082,
                -0.03961440969230101,
                -0.12361549989033732,
                0.802554576079611,
                -0.8697248914624329
            ]
        },
        {
            "positions": [
                -0.7297356522759586,
                -0.8208516808689867,
                0.0778874089389312,
                -0.15794150771845955,
                0.7545514977050563,
                -0.9940137526222914
            ]
        },
        {
            "positions": [
                -0.7068455620295333,
                -0.8646221149158917,
                0.19538922757016342,
                -0.1922675155465819,
                0.7065484193305014,
                -1.11830261378215
            ]
        },
        {
            "positions": [
                -0.6839554717831081,
                -0.9083925489627966,
                0.31289104620139585,
                -0.22659352337470412,
                0.6585453409559466,
                -1.2425914749420088
            ]
        },
        {
            "positions": [
                -0.6610653815366829,
                -0.9521629830097016,
                0.4303928648326283,
                -0.26091953120282646,
                0.6105422625813919,
                -1.3668803361018673
            ]
        },
        {
            "positions": [
                -0.6381752912902576,
                -0.9959334170566063,
                0.5478946834638607,
                -0.2952455390309488,
                0.562539184206837,
                -1.4911691972617258
            ]
        },
        {
            "positions": [
                -0.6152852010438324,
                -1.0397038511035113,
                0.6653965020950932,
                -0.32957154685907103,
                0.5145361058322824,
                -1.6154580584215847
            ]
        },
        {
            "positions": [
                -0.5923951107974071,
                -1.0834742851504164,
                0.7828983207263256,
                -0.3638975546871935,
                0.4665330274577273,
                -1.7397469195814437
            ]
        },
        {
            "positions": [
                -0.569505020550982,
                -1.1272447191973212,
                0.900400139357558,
                -0.3982235625153157,
                0.41852994908317265,
                -1.8640357807413022
            ]
        },
        {
            "positions": [
                -0.5466149303045567,
                -1.1710151532442261,
                1.0179019579887905,
                -0.43254957034343805,
                0.3705268707086178,
                -1.9883246419011606
            ]
        },
        {
            "positions": [
                -0.5237248400581315,
                -1.214785587291131,
                1.135403776620023,
                -0.4668755781715604,
                0.3225237923340629,
                -2.1126135030610196
            ]
        },
        {
            "positions": [
                -0.5008347498117063,
                -1.258556021338036,
                1.2529055952512553,
                -0.5012015859996826,
                0.2745207139595083,
                -2.236902364220878
            ]
        },
        {
            "positions": [
                -0.4779446595652811,
                -1.3023264553849407,
                1.3704074138824873,
                -0.535527593827805,
                0.22651763558495341,
                -2.3611912253807366
            ]
        },
        {
            "positions": [
                -0.4550545693188558,
                -1.3460968894318457,
                1.4879092325137198,
                -0.5698536016559272,
                0.17851455721039877,
                -2.4854800865405955
            ]
        },
        {
            "positions": [
                -0.4321644790724306,
                -1.3898673234787506,
                1.6054110511449522,
                -0.6041796094840496,
                0.13051147883584394,
                -2.609768947700454
            ]
        },
        {
            "positions": [
                -0.32095261229468586,
                -1.3403667573423108,
                1.679448376130147,
                -0.6425197092813647,
                0.1313954810347992,
                -2.722870568326877
            ]
        },
        {
            "positions": [
                -0.20974074551694113,
                -1.290866191205871,
                1.753485701115342,
                -0.6808598090786798,
                0.1322794832337545,
                -2.8359721889533
            ]
        },
        {
            "positions": [
                -0.09852887873919641,
                -1.2413656250694314,
                1.8275230261005369,
                -0.7191999088759948,
                0.13316348543270976,
                -2.9490738095797226
            ]
        },
        {
            "positions": [
                0.012682988038548337,
                -1.1918650589329916,
                1.9015603510857317,
                -0.75754000867331,
                0.13404748763166505,
                -3.0621754302061457
            ]
        },
        {
            "positions": [
                0.12389485481629299,
                -1.1423644927965517,
                1.9755976760709266,
                -0.7958801084706251,
                0.1349314898306203,
                -3.1752770508325687
            ]
        }
    ]
}