{
    "goal": {
        "global_pose": {
            "orientation": {
                "w": 0.7047431468963623,
                "x": -0.7094548344612122,
                "y": 0.0024358443915843964,
                "z": -0.0022348060738295317
            },
            "position": {
                "x": 0.6094750761985779,
                "y": 0.3671506643295288,
                "z": 0.19426114857196808
            }
        },
        "name": "move_to_magneteinheit_A"
    },
    "id": "SBL_move_to_magneteinheit_A_114",
    "joint_names": [
        "shoulder_pan_joint",
        "shoulder_lift_joint",
        "elbow_joint",
        "wrist_1_joint",
        "wrist_2_joint",
        "wrist_3_joint"
    ],
    "metrics": {
        "cart_traj_len": 1.8703479732904618,
        "distance_elbow_joint": 3.93299040086103,
        "distance_shoulder_lift_joint": 0.7093999370795103,
        "distance_shoulder_pan_joint": 1.2418720529789025,
        "distance_wrist_1_joint": 1.5620257379761058,
        "distance_wrist_2_joint": 1.7038466493859141,
        "distance_wrist_3_joint": 1.1914971937491994,
        "smoothness": 6.026924961836844e-16,
        "time": 0.175669067,
        "traj_len": 3.2158407877304285,
        "weighted_distance": 3.9988121669929786
    },
    "planner": "SBL",
    "start": {
        "state": {
            "elbow_joint": -1.919643507792019,
            "shoulder_lift_joint": -0.07675430207160344,
            "shoulder_pan_joint": -1.1188671864651873,
            "wrist_1_joint": 0.42560062535961957,
            "wrist_2_joint": 1.5706038300724876,
            "wrist_3_joint": 1.1188968870953055
        }
    },
    "waypoints": [
        {
            "positions": [
                -1.1188671864651873,
                -0.07675430207160344,
                -1.919643507792019,
                0.42560062535961957,
                1.5706038300724876,
                1.1188968870953055
            ]
        },
        {
            "positions": [
                -1.0728719252437464,
                -0.10302837381528901,
                -1.7739771966490179,
                0.4834534304698457,
                1.50749839861375,
                1.0747673614008908
            ]
        },
        {
            "positions": [
                -1.0268766640223057,
                -0.12930244555897458,
                -1.6283108855060169,
                0.5413062355800718,
                1.4443929671550124,
                1.030637835706476
            ]
        },
        {
            "positions": [
                -0.9808814028008649,
                -0.15557651730266014,
                -1.4826445743630159,
                0.599159040690298,
                1.3812875356962748,
                0.9865083100120612
            ]
        },
        {
            "positions": [
                -0.9348861415794241,
                -0.1818505890463457,
                -1.3369782632200147,
                0.6570118458005241,
                1.3181821042375375,
                0.9423787843176463
            ]
        },
        {
            "positions": [
                -0.8888908803579831,
                -0.20812466079003128,
                -1.1913119520770135,
                0.7148646509107502,
                1.2550766727787999,
                0.8982492586232316
            ]
        },
        {
            "positions": [
                -0.8428956191365424,
                -0.23439873253371685,
                -1.0456456409340125,
                0.7727174560209764,
                1.1919712413200623,
                0.8541197329288168
            ]
        },
        {
            "positions": [
                -0.7969003579151015,
                -0.2606728042774024,
                -0.8999793297910115,
                0.8305702611312025,
                1.1288658098613247,
                0.8099902072344021
            ]
        },
        {
            "positions": [
                -0.7509050966936608,
                -0.286946876021088,
                -0.7543130186480103,
                0.8884230662414286,
                1.065760378402587,
                0.7658606815399872
            ]
        },
        {
            "positions": [
                -0.7049098354722199,
                -0.31322094776477355,
                -0.6086467075050093,
                0.9462758713516548,
                1.0026549469438497,
                0.7217311558455725
            ]
        },
        {
            "positions": [
                -0.658914574250779,
                -0.3394950195084591,
                -0.46298039636200805,
                1.0041286764618809,
                0.939549515485112,
                0.6776016301511576
            ]
        },
        {
            "positions": [
                -0.6129193130293382,
                -0.3657690912521447,
                -0.31731408521900706,
                1.0619814815721071,
                0.8764440840263745,
                0.6334721044567428
            ]
        },
        {
            "positions": [
                -0.5669240518078974,
                -0.39204316299583025,
                -0.17164777407600584,
                1.1198342866823332,
                0.8133386525676369,
                0.5893425787623281
            ]
        },
        {
            "positions": [
                -0.5209287905864566,
                -0.4183172347395158,
                -0.02598146293300485,
                1.1776870917925593,
                0.7502332211088993,
                0.5452130530679132
            ]
        },
        {
            "positions": [
                -0.47493352936501576,
                -0.4445913064832014,
                0.11968484820999614,
                1.2355398969027855,
                0.6871277896501619,
                0.5010835273734985
            ]
        },
        {
            "positions": [
                -0.42893826814357483,
                -0.47086537822688695,
                0.2653511593529976,
                1.2933927020130116,
                0.6240223581914242,
                0.4569540016790836
            ]
        },
        {
            "positions": [
                -0.3829430069221341,
                -0.4971394499705725,
                0.41101747049599857,
                1.3512455071232377,
                0.5609169267326868,
                0.41282447598466887
            ]
        },
        {
            "positions": [
                -0.3369477457006932,
                -0.5234135217142581,
                0.556683781639,
                1.409098312233464,
                0.49781149527394897,
                0.368694950290254
            ]
        },
        {
            "positions": [
                -0.29095248447925237,
                -0.5496875934579437,
                0.7023500927820006,
                1.46695111734369,
                0.4347060638152116,
                0.32456542459583937
            ]
        },
        {
            "positions": [
                -0.24495722325781155,
                -0.5759616652016293,
                0.848016403925002,
                1.5248039224539163,
                0.371600632356474,
                0.2804358989014245
            ]
        },
        {
            "positions": [
                -0.19896196203637073,
                -0.6022357369453148,
                0.993682715068003,
                1.5826567275641423,
                0.3084952008977364,
                0.23630637320700976
            ]
        },
        {
            "positions": [
                -0.1529667008149299,
                -0.6285098086890004,
                1.1393490262110044,
                1.6405095326743686,
                0.24538976943899882,
                0.1921768475125949
            ]
        },
        {
            "positions": [
                -0.10697143959348909,
                -0.654783880432686,
                1.285015337354005,
                1.6983623377845947,
                0.18228433798026145,
                0.14804732181818014
            ]
        },
        {
            "positions": [
                -0.06097617837204816,
                -0.6810579521763716,
                1.4306816484970064,
                1.756215142894821,
                0.11917890652152363,
                0.1039177961237654
            ]
        },
        {
            "positions": [
                -0.014980917150607453,
                -0.7073320239200571,
                1.5763479596400074,
                1.814067948005047,
                0.05607347506278626,
                0.05978827042935064
            ]
        },
        {
            "positions": [
                0.031014344070833477,
                -0.7336060956637427,
                1.7220142707830088,
                1.871920753115273,
                -0.007031956395951333,
                0.01565874473493567
            ]
        },
        {
            "positions": [
                0.07700960529227419,
                -0.7598801674074283,
                1.8676805819260094,
                1.9297735582254991,
                -0.07013738785468893,
                -0.02847078095947908
            ]
        },
        {
            "positions": [
                0.12300486651371519,
                -0.7861542391511138,
                2.0133468930690106,
                1.9876263633357254,
                -0.13324281931342644,
                -0.07260030665389376
            ]
        }
    ]
}