{
    "goal": {
        "global_pose": {
            "orientation": {
                "w": 0.5084816217422485,
                "x": -0.49083608388900757,
                "y": 0.5182115435600281,
                "z": -0.4816462993621826
            },
            "position": {
                "x": 0.5540239810943604,
                "y": 0.030875300988554955,
                "z": 0.16403168439865112
            }
        },
        "name": "move_to_storage_A"
    },
    "id": "SBL_move_to_storage_A_37",
    "joint_names": [
        "shoulder_pan_joint",
        "shoulder_lift_joint",
        "elbow_joint",
        "wrist_1_joint",
        "wrist_2_joint",
        "wrist_3_joint"
    ],
    "metrics": {
        "cart_traj_len": 0.3536610126070386,
        "distance_elbow_joint": 0.45451136430437566,
        "distance_shoulder_lift_joint": 0.2341696457339859,
        "distance_shoulder_pan_joint": 0.4631089755407708,
        "distance_wrist_1_joint": 0.2594475091229179,
        "distance_wrist_2_joint": 1.0977591051254871,
        "distance_wrist_3_joint": 0.1089504168599782,
        "smoothness": 1.5543122362334363e-15,
        "time": 0.135830711,
        "traj_len": 1.6180071126813738,
        "weighted_distance": 2.0476949149362746
    },
    "planner": "SBL",
    "start": {
        "state": {
            "elbow_joint": 1.9715463870305268,
            "shoulder_lift_joint": -1.1394903361783484,
            "shoulder_pan_joint": 0.12281147578464417,
            "wrist_1_joint": -0.7804599489681411,
            "wrist_2_joint": 0.12958660307563738,
            "wrist_3_joint": -3.1924946282119055
        }
    },
    "waypoints": [
        {
            "positions": [
                0.12281147578464417,
                -1.1394903361783484,
                1.9715463870305268,
                -0.7804599489681411,
                0.12958660307563738,
                -3.1924946282119055
            ]
        },
        {
            "positions": [
                0.05665305070739121,
                -1.172943142711775,
                2.0364765819311517,
                -0.8175238788428436,
                0.2864093323792784,
                -3.1769302829461945
            ]
        },
        {
            "positions": [
                -0.00950537436986175,
                -1.2063959492452014,
                2.101406776831777,
                -0.8545878087175462,
                0.4432320616829194,
                -3.161365937680483
            ]
        },
        {
            "positions": [
                -0.07566379944711472,
                -1.239848755778628,
                2.166336971732402,
                -0.8916517385922488,
                0.6000547909865604,
                -3.145801592414772
            ]
        },
        {
            "positions": [
                -0.14182222452436766,
                -1.2733015623120547,
                2.2312671666330273,
                -0.9287156684669513,
                0.7568775202902015,
                -3.130237247149061
            ]
        },
        {
            "positions": [
                -0.20798064960162066,
                -1.3067543688454812,
                2.296197361533652,
                -0.9657795983416539,
                0.9137002495938426,
                -3.11467290188335
            ]
        },
        {
            "positions": [
                -0.2741390746788736,
                -1.3402071753789078,
                2.361127556434277,
                -1.0028435282163564,
                1.0705229788974835,
                -3.0991085566176384
            ]
        },
        {
            "positions": [
                -0.3402974997561266,
                -1.3736599819123343,
                2.4260577513349024,
                -1.039907458091059,
                1.2273457082011245,
                -3.0835442113519274
            ]
        }
    ]
}