{
    "goal": {
        "global_pose": {
            "orientation": {
                "w": 0.7047431468963623,
                "x": -0.7094548344612122,
                "y": 0.0024358443915843964,
                "z": -0.0022348060738295317
            },
            "position": {
                "x": 0.6094750761985779,
                "y": 0.3671506643295288,
                "z": 0.19426114857196808
            }
        },
        "name": "move_to_magneteinheit_A"
    },
    "id": "SBL_move_to_magneteinheit_A_63",
    "joint_names": [
        "shoulder_pan_joint",
        "shoulder_lift_joint",
        "elbow_joint",
        "wrist_1_joint",
        "wrist_2_joint",
        "wrist_3_joint"
    ],
    "metrics": {
        "cart_traj_len": 1.8677578620566158,
        "distance_elbow_joint": 3.9409665744972298,
        "distance_shoulder_lift_joint": 0.7133375919654424,
        "distance_shoulder_pan_joint": 1.2418316685761626,
        "distance_wrist_1_joint": 1.5821338915289218,
        "distance_wrist_2_joint": 1.708621014922412,
        "distance_wrist_3_joint": 1.2113339918067862,
        "smoothness": 9.516197394177583e-16,
        "time": 0.086451368,
        "traj_len": 3.2246278441545706,
        "weighted_distance": 4.013931691417015
    },
    "planner": "SBL",
    "start": {
        "state": {
            "elbow_joint": -1.919643507792019,
            "shoulder_lift_joint": -0.07675430207160344,
            "shoulder_pan_joint": -1.1188671864651873,
            "wrist_1_joint": 0.42560062535961957,
            "wrist_2_joint": 1.5706038300724876,
            "wrist_3_joint": 1.1188968870953055
        }
    },
    "waypoints": [
        {
            "positions": [
                -1.1188671864651873,
                -0.07675430207160344,
                -1.919643507792019,
                0.42560062535961957,
                1.5706038300724876,
                1.1188968870953055
            ]
        },
        {
            "positions": [
                -1.0728734209623665,
                -0.10317421288513835,
                -1.7736817828106402,
                0.48419817689772776,
                1.5073215702605465,
                1.0740326651765357
            ]
        },
        {
            "positions": [
                -1.0268796554595456,
                -0.12959412369867326,
                -1.6277200578292614,
                0.542795728435836,
                1.4440393104486053,
                1.029168443257766
            ]
        },
        {
            "positions": [
                -0.9808858899567249,
                -0.15601403451220816,
                -1.4817583328478825,
                0.6013932799739442,
                1.380757050636664,
                0.984304221338996
            ]
        },
        {
            "positions": [
                -0.934892124453904,
                -0.18243394532574309,
                -1.3357966078665036,
                0.6599908315120524,
                1.3174747908247229,
                0.939439999420226
            ]
        },
        {
            "positions": [
                -0.8888983589510832,
                -0.20885385613927798,
                -1.1898348828851248,
                0.7185883830501607,
                1.2541925310127817,
                0.8945757775014562
            ]
        },
        {
            "positions": [
                -0.8429045934482624,
                -0.23527376695281288,
                -1.043873157903746,
                0.7771859345882688,
                1.1909102712008406,
                0.8497115555826864
            ]
        },
        {
            "positions": [
                -0.7969108279454415,
                -0.2616936777663478,
                -0.897911432922367,
                0.8357834861263771,
                1.1276280113888992,
                0.8048473336639166
            ]
        },
        {
            "positions": [
                -0.7509170624426207,
                -0.2881135885798827,
                -0.751949707940988,
                0.8943810376644852,
                1.0643457515769583,
                0.7599831117451467
            ]
        },
        {
            "positions": [
                -0.7049232969397998,
                -0.3145334993934176,
                -0.6059879829596093,
                0.9529785892025935,
                1.001063491765017,
                0.7151188898263768
            ]
        },
        {
            "positions": [
                -0.658929531436979,
                -0.3409534102069525,
                -0.4600262579782304,
                1.0115761407407018,
                0.9377812319530758,
                0.6702546679076069
            ]
        },
        {
            "positions": [
                -0.6129357659341582,
                -0.3673733210204874,
                -0.31406453299685144,
                1.0701736922788099,
                0.8744989721411346,
                0.6253904459888371
            ]
        },
        {
            "positions": [
                -0.5669420004313374,
                -0.3937932318340223,
                -0.16810280801547273,
                1.1287712438169182,
                0.8112167123291935,
                0.5805262240700673
            ]
        },
        {
            "positions": [
                -0.5209482349285165,
                -0.42021314264755727,
                -0.02214108303409379,
                1.1873687953550263,
                0.7479344525172523,
                0.5356620021512973
            ]
        },
        {
            "positions": [
                -0.47495446942569564,
                -0.44663305346109217,
                0.12382064194728515,
                1.2459663468931346,
                0.6846521927053111,
                0.4907977802325275
            ]
        },
        {
            "positions": [
                -0.4289607039228748,
                -0.4730529642746271,
                0.2697823669286643,
                1.3045638984312429,
                0.6213699328933698,
                0.4459335583137576
            ]
        },
        {
            "positions": [
                -0.382966938420054,
                -0.49947287508816196,
                0.415744091910043,
                1.363161449969351,
                0.5580876730814288,
                0.40106933639498776
            ]
        },
        {
            "positions": [
                -0.33697317291723317,
                -0.5258927859016969,
                0.5617058168914217,
                1.4217590015074593,
                0.49480541326948746,
                0.35620511447621783
            ]
        },
        {
            "positions": [
                -0.2909794074144123,
                -0.5523126967152319,
                0.7076675418728005,
                1.4803565530455673,
                0.4315231534575463,
                0.3113408925574481
            ]
        },
        {
            "positions": [
                -0.24498564191159145,
                -0.5787326075287667,
                0.8536292668541796,
                1.5389541045836757,
                0.3682408936456052,
                0.2664766706386782
            ]
        },
        {
            "positions": [
                -0.1989918764087707,
                -0.6051525183423017,
                0.9995909918355583,
                1.597551656121784,
                0.30495863383366406,
                0.22161244871990837
            ]
        },
        {
            "positions": [
                -0.15299811090594984,
                -0.6315724291558364,
                1.1455527168169375,
                1.6561492076598923,
                0.2416763740217227,
                0.17674822680113844
            ]
        },
        {
            "positions": [
                -0.10700434540312909,
                -0.6579923399693715,
                1.2915144417983162,
                1.7147467591980003,
                0.17839411420978157,
                0.13188400488236862
            ]
        },
        {
            "positions": [
                -0.061010579900308226,
                -0.6844122507829065,
                1.4374761667796954,
                1.7733443107361087,
                0.11511185439784044,
                0.0870197829635988
            ]
        },
        {
            "positions": [
                -0.015016814397487366,
                -0.7108321615964412,
                1.5834378917610736,
                1.8319418622742167,
                0.05182959458589931,
                0.04215556104482898
            ]
        },
        {
            "positions": [
                0.030976951105333494,
                -0.7372520724099763,
                1.7293996167424528,
                1.890539413812325,
                -0.011452665226042047,
                -0.00270866087394106
            ]
        },
        {
            "positions": [
                0.07697071660815435,
                -0.763671983223511,
                1.8753613417238315,
                1.9491369653504331,
                -0.07473492503798296,
                -0.04757288279271088
            ]
        },
        {
            "positions": [
                0.1229644821109753,
                -0.7900918940370459,
                2.0213230667052104,
                2.0077345168885414,
                -0.13801718484992423,
                -0.09243710471148067
            ]
        }
    ]
}