{
    "goal": {
        "global_pose": {
            "orientation": {
                "w": 0.7047431468963623,
                "x": -0.7094548344612122,
                "y": 0.0024358443915843964,
                "z": -0.0022348060738295317
            },
            "position": {
                "x": 0.6094750761985779,
                "y": 0.3671506643295288,
                "z": 0.19426114857196808
            }
        },
        "name": "move_to_magneteinheit_A"
    },
    "id": "SBL_move_to_magneteinheit_A_83",
    "joint_names": [
        "shoulder_pan_joint",
        "shoulder_lift_joint",
        "elbow_joint",
        "wrist_1_joint",
        "wrist_2_joint",
        "wrist_3_joint"
    ],
    "metrics": {
        "cart_traj_len": 2.127098789621908,
        "distance_elbow_joint": 3.8903584262497146,
        "distance_shoulder_lift_joint": 1.0626572414498627,
        "distance_shoulder_pan_joint": 1.2431301813688422,
        "distance_wrist_1_joint": 1.200457817810069,
        "distance_wrist_2_joint": 1.432951171031844,
        "distance_wrist_3_joint": 4.311981962851577,
        "smoothness": 2.7138785191697065e-16,
        "time": 0.303118869,
        "traj_len": 3.6251257634407543,
        "weighted_distance": 4.939525252016329
    },
    "planner": "SBL",
    "start": {
        "state": {
            "elbow_joint": -1.919643507792019,
            "shoulder_lift_joint": -0.07675430207160344,
            "shoulder_pan_joint": -1.1188671864651873,
            "wrist_1_joint": 0.42560062535961957,
            "wrist_2_joint": 1.5706038300724876,
            "wrist_3_joint": 1.1188968870953055
        }
    },
    "waypoints": [
        {
            "positions": [
                -1.1188671864651873,
                -0.07675430207160344,
                -1.919643507792019,
                0.42560062535961957,
                1.5706038300724876,
                1.1188968870953055
            ]
        },
        {
            "positions": [
                -1.0952337412779842,
                -0.10711482496176317,
                -1.8036445157064,
                0.38772918471730355,
                1.520634415319868,
                0.9940738600188861
            ]
        },
        {
            "positions": [
                -1.071600296090781,
                -0.1374753478519229,
                -1.687645523620781,
                0.34985774407498754,
                1.4706650005672486,
                0.8692508329424667
            ]
        },
        {
            "positions": [
                -1.0479668509035778,
                -0.16783587074208262,
                -1.571646531535162,
                0.31198630343267153,
                1.420695585814629,
                0.7444278058660473
            ]
        },
        {
            "positions": [
                -1.0243334057163747,
                -0.19819639363224237,
                -1.4556475394495427,
                0.2741148627903555,
                1.3707261710620096,
                0.6196047787896279
            ]
        },
        {
            "positions": [
                -1.0006999605291713,
                -0.2285569165224021,
                -1.3396485473639237,
                0.2362434221480395,
                1.32075675630939,
                0.4947817517132085
            ]
        },
        {
            "positions": [
                -0.9770665153419682,
                -0.25891743941256185,
                -1.2236495552783047,
                0.1983719815057235,
                1.2707873415567705,
                0.369958724636789
            ]
        },
        {
            "positions": [
                -0.953433070154765,
                -0.2892779623027215,
                -1.1076505631926856,
                0.16050054086340754,
                1.220817926804151,
                0.2451356975603698
            ]
        },
        {
            "positions": [
                -0.9297996249675617,
                -0.3196384851928813,
                -0.9916515711070665,
                0.12262910022109147,
                1.1708485120515315,
                0.12031267048395022
            ]
        },
        {
            "positions": [
                -0.9061661797803586,
                -0.349999008083041,
                -0.8756525790214476,
                0.08475765957877551,
                1.120879097298912,
                -0.0045103565924691225
            ]
        },
        {
            "positions": [
                -0.8825327345931554,
                -0.38035953097320074,
                -0.7596535869358283,
                0.046886218936459445,
                1.0709096825462925,
                -0.12933338366888858
            ]
        },
        {
            "positions": [
                -0.8588992894059522,
                -0.41072005386336047,
                -0.6436545948502093,
                0.009014778294143488,
                1.020940267793673,
                -0.2541564107453078
            ]
        },
        {
            "positions": [
                -0.835265844218749,
                -0.4410805767535202,
                -0.5276556027645902,
                -0.02885666234817258,
                0.9709708530410535,
                -0.3789794378217275
            ]
        },
        {
            "positions": [
                -0.8116323990315458,
                -0.4714410996436799,
                -0.4116566106789712,
                -0.06672810299048854,
                0.921001438288434,
                -0.5038024648981467
            ]
        },
        {
            "positions": [
                -0.7879989538443426,
                -0.5018016225338396,
                -0.29565761859335216,
                -0.10459954363280449,
                0.8710320235358144,
                -0.628625491974566
            ]
        },
        {
            "positions": [
                -0.7643655086571395,
                -0.5321621454239993,
                -0.17965862650773312,
                -0.14247098427512045,
                0.821062608783195,
                -0.7534485190509854
            ]
        },
        {
            "positions": [
                -0.7407320634699361,
                -0.5625226683141591,
                -0.06365963442211386,
                -0.18034242491743663,
                0.7710931940305754,
                -0.8782715461274051
            ]
        },
        {
            "positions": [
                -0.717098618282733,
                -0.5928831912043189,
                0.05233935766350517,
                -0.21821386555975258,
                0.7211237792779559,
                -1.0030945732038243
            ]
        },
        {
            "positions": [
                -0.6934651730955299,
                -0.6232437140944787,
                0.16833834974912398,
                -0.25608530620206854,
                0.6711543645253364,
                -1.1279176002802438
            ]
        },
        {
            "positions": [
                -0.6698317279083267,
                -0.6536042369846382,
                0.28433734183474324,
                -0.2939567468443845,
                0.6211849497727169,
                -1.2527406273566628
            ]
        },
        {
            "positions": [
                -0.6461982827211235,
                -0.683964759874798,
                0.4003363339203625,
                -0.3318281874867007,
                0.5712155350200974,
                -1.3775636544330827
            ]
        },
        {
            "positions": [
                -0.6225648375339203,
                -0.7143252827649578,
                0.5163353260059813,
                -0.36969962812901663,
                0.5212461202674779,
                -1.5023866815095022
            ]
        },
        {
            "positions": [
                -0.5989313923467171,
                -0.7446858056551175,
                0.6323343180916006,
                -0.4075710687713326,
                0.47127670551485834,
                -1.6272097085859212
            ]
        },
        {
            "positions": [
                -0.5752979471595139,
                -0.7750463285452771,
                0.7483333101772194,
                -0.44544250941364855,
                0.42130729076223883,
                -1.7520327356623406
            ]
        },
        {
            "positions": [
                -0.5516645019723107,
                -0.8054068514354369,
                0.8643323022628386,
                -0.4833139500559647,
                0.3713378760096193,
                -1.8768557627387605
            ]
        },
        {
            "positions": [
                -0.5280310567851075,
                -0.8357673743255967,
                0.9803312943484579,
                -0.5211853906982806,
                0.3213684612569998,
                -2.0016787898151795
            ]
        },
        {
            "positions": [
                -0.5043976115979043,
                -0.8661278972157564,
                1.0963302864340767,
                -0.5590568313405966,
                0.2713990465043804,
                -2.126501816891599
            ]
        },
        {
            "positions": [
                -0.43454643309773106,
                -0.8964927468052798,
                1.193484134436701,
                -0.5830346492416913,
                0.2565383367861874,
                -2.245011067876563
            ]
        },
        {
            "positions": [
                -0.3646952545975578,
                -0.926857596394803,
                1.2906379824393255,
                -0.6070124671427862,
                0.24167762706799448,
                -2.3635203188615264
            ]
        },
        {
            "positions": [
                -0.2948440760973845,
                -0.9572224459843264,
                1.3877918304419499,
                -0.630990285043881,
                0.22681691734980153,
                -2.4820295698464903
            ]
        },
        {
            "positions": [
                -0.22499289759721125,
                -0.9875872955738497,
                1.484945678444574,
                -0.6549681029449759,
                0.21195620763160855,
                -2.6005388208314537
            ]
        },
        {
            "positions": [
                -0.15514171909703794,
                -1.017952145163373,
                1.5820995264471986,
                -0.6789459208460706,
                0.19709549791341557,
                -2.7190480718164176
            ]
        },
        {
            "positions": [
                -0.0852905405968647,
                -1.0483169947528963,
                1.6792533744498228,
                -0.7029237387471654,
                0.18223478819522265,
                -2.837557322801381
            ]
        },
        {
            "positions": [
                -0.015439362096691445,
                -1.0786818443424195,
                1.7764072224524474,
                -0.7269015566482603,
                0.16737407847702968,
                -2.956066573786345
            ]
        },
        {
            "positions": [
                0.054411816403481805,
                -1.109046693931943,
                1.8735610704550716,
                -0.7508793745493552,
                0.1525133687588367,
                -3.0745758247713084
            ]
        },
        {
            "positions": [
                0.1242629949036551,
                -1.1394115435214662,
                1.970714918457696,
                -0.7748571924504499,
                0.13765265904064375,
                -3.1930850757562723
            ]
        }
    ]
}