{
    "goal": {
        "global_pose": {
            "orientation": {
                "w": 0.5084816217422485,
                "x": -0.49083608388900757,
                "y": 0.5182115435600281,
                "z": -0.4816462993621826
            },
            "position": {
                "x": 0.5540239810943604,
                "y": 0.030875300988554955,
                "z": 0.16403168439865112
            }
        },
        "name": "move_to_storage_A"
    },
    "id": "SBL_move_to_storage_A_112",
    "joint_names": [
        "shoulder_pan_joint",
        "shoulder_lift_joint",
        "elbow_joint",
        "wrist_1_joint",
        "wrist_2_joint",
        "wrist_3_joint"
    ],
    "metrics": {
        "cart_traj_len": 0.3520960494031075,
        "distance_elbow_joint": 0.4489325645257356,
        "distance_shoulder_lift_joint": 0.23389486819951721,
        "distance_shoulder_pan_joint": 0.4590754114360927,
        "distance_wrist_1_joint": 0.23981403101299537,
        "distance_wrist_2_joint": 1.1023565553086359,
        "distance_wrist_3_joint": 0.10188525314592356,
        "smoothness": 0.0,
        "time": 0.213599872,
        "traj_len": 1.6080916278710304,
        "weighted_distance": 2.032707498938885
    },
    "planner": "SBL",
    "start": {
        "state": {
            "elbow_joint": 1.9715463870305268,
            "shoulder_lift_joint": -1.1394903361783484,
            "shoulder_pan_joint": 0.12281147578464417,
            "wrist_1_joint": -0.7804599489681411,
            "wrist_2_joint": 0.12958660307563738,
            "wrist_3_joint": -3.1924946282119055
        }
    },
    "waypoints": [
        {
            "positions": [
                0.12281147578464417,
                -1.1394903361783484,
                1.9715463870305268,
                -0.7804599489681411,
                0.12958660307563738,
                -3.1924946282119055
            ]
        },
        {
            "positions": [
                0.05722927415091665,
                -1.1729038887782794,
                2.035679610534203,
                -0.8147190962557118,
                0.28706611097687107,
                -3.1779395920482023
            ]
        },
        {
            "positions": [
                -0.00835292748281087,
                -1.2063174413782105,
                2.0998128340378797,
                -0.8489782435432827,
                0.44454561887810473,
                -3.1633845558844986
            ]
        },
        {
            "positions": [
                -0.07393512911653839,
                -1.2397309939781416,
                2.163946057541556,
                -0.8832373908308534,
                0.6020251267793384,
                -3.1488295197207954
            ]
        },
        {
            "positions": [
                -0.1395173307502659,
                -1.2731445465780724,
                2.2280792810452326,
                -0.9174965381184241,
                0.7595046346805722,
                -3.134274483557092
            ]
        },
        {
            "positions": [
                -0.20509953238399348,
                -1.3065580991780035,
                2.2922125045489095,
                -0.951755685405995,
                0.9169841425818059,
                -3.119719447393389
            ]
        },
        {
            "positions": [
                -0.27068173401772094,
                -1.3399716517779345,
                2.356345728052586,
                -0.9860148326935656,
                1.0744636504830394,
                -3.1051644112296852
            ]
        },
        {
            "positions": [
                -0.3362639356514485,
                -1.3733852043778656,
                2.4204789515562624,
                -1.0202739799811364,
                1.2319431583842733,
                -3.090609375065982
            ]
        }
    ]
}