{
    "goal": {
        "global_pose": {
            "orientation": {
                "w": 0.5084816217422485,
                "x": -0.49083608388900757,
                "y": 0.5182115435600281,
                "z": -0.4816462993621826
            },
            "position": {
                "x": 0.5540239810943604,
                "y": 0.030875300988554955,
                "z": 0.16403168439865112
            }
        },
        "name": "move_to_storage_A"
    },
    "id": "SBL_move_to_storage_A_146",
    "joint_names": [
        "shoulder_pan_joint",
        "shoulder_lift_joint",
        "elbow_joint",
        "wrist_1_joint",
        "wrist_2_joint",
        "wrist_3_joint"
    ],
    "metrics": {
        "cart_traj_len": 0.3531957746894353,
        "distance_elbow_joint": 0.4493051456640096,
        "distance_shoulder_lift_joint": 0.23280551059956878,
        "distance_shoulder_pan_joint": 0.46330356144952256,
        "distance_wrist_1_joint": 0.24186205886958578,
        "distance_wrist_2_joint": 1.0919614649832199,
        "distance_wrist_3_joint": 0.09798265036971854,
        "smoothness": 8.881784232165597e-16,
        "time": 0.347782078,
        "traj_len": 1.6053723530494803,
        "weighted_distance": 2.026575736686855
    },
    "planner": "SBL",
    "start": {
        "state": {
            "elbow_joint": 1.9715463870305268,
            "shoulder_lift_joint": -1.1394903361783484,
            "shoulder_pan_joint": 0.12281147578464417,
            "wrist_1_joint": -0.7804599489681411,
            "wrist_2_joint": 0.12958660307563738,
            "wrist_3_joint": -3.1924946282119055
        }
    },
    "waypoints": [
        {
            "positions": [
                0.12281147578464417,
                -1.1394903361783484,
                1.9715463870305268,
                -0.7804599489681411,
                0.12958660307563738,
                -3.1924946282119055
            ]
        },
        {
            "positions": [
                0.056625252720426664,
                -1.172748266264001,
                2.0357328364110994,
                -0.8150116716637962,
                0.2855810980732402,
                -3.178497106730517
            ]
        },
        {
            "positions": [
                -0.009560970343790845,
                -1.2060061963496538,
                2.0999192857916724,
                -0.8495633943594513,
                0.44157559307084304,
                -3.164499585249129
            ]
        },
        {
            "positions": [
                -0.07574719340800835,
                -1.2392641264353064,
                2.164105735172245,
                -0.8841151170551064,
                0.5975700880684459,
                -3.1505020637677403
            ]
        },
        {
            "positions": [
                -0.14193341647222585,
                -1.2725220565209592,
                2.228292184552818,
                -0.9186668397507616,
                0.7535645830660488,
                -3.1365045422863522
            ]
        },
        {
            "positions": [
                -0.20811963953644336,
                -1.3057799866066118,
                2.2924786339333907,
                -0.9532185624464167,
                0.9095590780636517,
                -3.1225070208049637
            ]
        },
        {
            "positions": [
                -0.27430586260066087,
                -1.3390379166922646,
                2.3566650833139633,
                -0.9877702851420718,
                1.0655535730612544,
                -3.1085094993235756
            ]
        },
        {
            "positions": [
                -0.3404920856648784,
                -1.3722958467779172,
                2.4208515326945363,
                -1.0223220078377269,
                1.2215480680588573,
                -3.094511977842187
            ]
        }
    ]
}