{
    "goal": {
        "global_pose": {
            "orientation": {
                "w": 0.5084816217422485,
                "x": -0.49083608388900757,
                "y": 0.5182115435600281,
                "z": -0.4816462993621826
            },
            "position": {
                "x": 0.5540239810943604,
                "y": 0.030875300988554955,
                "z": 0.16403168439865112
            }
        },
        "name": "move_to_storage_A"
    },
    "id": "SBL_move_to_storage_A_116",
    "joint_names": [
        "shoulder_pan_joint",
        "shoulder_lift_joint",
        "elbow_joint",
        "wrist_1_joint",
        "wrist_2_joint",
        "wrist_3_joint"
    ],
    "metrics": {
        "cart_traj_len": 0.35268953375308654,
        "distance_elbow_joint": 0.4511225391410534,
        "distance_shoulder_lift_joint": 0.2351471703340784,
        "distance_shoulder_pan_joint": 0.46018523898775276,
        "distance_wrist_1_joint": 0.24709290426091057,
        "distance_wrist_2_joint": 1.102869198839258,
        "distance_wrist_3_joint": 0.10772931078837589,
        "smoothness": 8.881784232165597e-16,
        "time": 0.148762233,
        "traj_len": 1.6137367698455127,
        "weighted_distance": 2.0419517837178107
    },
    "planner": "SBL",
    "start": {
        "state": {
            "elbow_joint": 1.9715463870305268,
            "shoulder_lift_joint": -1.1394903361783484,
            "shoulder_pan_joint": 0.12281147578464417,
            "wrist_1_joint": -0.7804599489681411,
            "wrist_2_joint": 0.12958660307563738,
            "wrist_3_joint": -3.1924946282119055
        }
    },
    "waypoints": [
        {
            "positions": [
                0.12281147578464417,
                -1.1394903361783484,
                1.9715463870305268,
                -0.7804599489681411,
                0.12958660307563738,
                -3.1924946282119055
            ]
        },
        {
            "positions": [
                0.05707072735782236,
                -1.1730827890832167,
                2.0359924640506772,
                -0.8157589352911283,
                0.28713934576696,
                -3.177104726670709
            ]
        },
        {
            "positions": [
                -0.008670021068999459,
                -1.206675241988085,
                2.1004385410708277,
                -0.8510579216141155,
                0.44469208845828256,
                -3.1617148251295126
            ]
        },
        {
            "positions": [
                -0.07441076949582127,
                -1.2402676948929534,
                2.164884618090978,
                -0.8863569079371028,
                0.6022448311496051,
                -3.146324923588316
            ]
        },
        {
            "positions": [
                -0.14015151792264308,
                -1.2738601477978218,
                2.2293306951111287,
                -0.92165589426009,
                0.7597975738409277,
                -3.1309350220471193
            ]
        },
        {
            "positions": [
                -0.20589226634946495,
                -1.30745260070269,
                2.293776772131279,
                -0.9569548805830772,
                0.9173503165322503,
                -3.1155451205059226
            ]
        },
        {
            "positions": [
                -0.2716330147762867,
                -1.3410450536075584,
                2.3582228491514297,
                -0.9922538669060644,
                1.0749030592235729,
                -3.1001552189647263
            ]
        },
        {
            "positions": [
                -0.3373737632031086,
                -1.3746375065124268,
                2.42266892617158,
                -1.0275528532290517,
                1.2324558019148955,
                -3.0847653174235297
            ]
        }
    ]
}