{
    "goal": {
        "global_pose": {
            "orientation": {
                "w": 0.7047431468963623,
                "x": -0.7094548344612122,
                "y": 0.0024358443915843964,
                "z": -0.0022348060738295317
            },
            "position": {
                "x": 0.6094750761985779,
                "y": 0.3671506643295288,
                "z": 0.19426114857196808
            }
        },
        "name": "move_to_magneteinheit_A"
    },
    "id": "SBL_move_to_magneteinheit_A_2",
    "joint_names": [
        "shoulder_pan_joint",
        "shoulder_lift_joint",
        "elbow_joint",
        "wrist_1_joint",
        "wrist_2_joint",
        "wrist_3_joint"
    ],
    "metrics": {
        "cart_traj_len": 2.0637272252770265,
        "distance_elbow_joint": 3.876712697175777,
        "distance_shoulder_lift_joint": 1.0554151369605915,
        "distance_shoulder_pan_joint": 1.2425485234806253,
        "distance_wrist_1_joint": 1.1406510317633836,
        "distance_wrist_2_joint": 1.4407506492784994,
        "distance_wrist_3_joint": 1.9157767942938961,
        "smoothness": 5.075305259828549e-16,
        "time": 0.224105948,
        "traj_len": 3.2667804996590717,
        "weighted_distance": 4.133377565935932
    },
    "planner": "SBL",
    "start": {
        "state": {
            "elbow_joint": -1.919643507792019,
            "shoulder_lift_joint": -0.07675430207160344,
            "shoulder_pan_joint": -1.1188671864651873,
            "wrist_1_joint": 0.42560062535961957,
            "wrist_2_joint": 1.5706038300724876,
            "wrist_3_joint": 1.1188968870953055
        }
    },
    "waypoints": [
        {
            "positions": [
                -1.1188671864651873,
                -0.07675430207160344,
                -1.919643507792019,
                0.42560062535961957,
                1.5706038300724876,
                1.1188968870953055
            ]
        },
        {
            "positions": [
                -1.0728468707807197,
                -0.11584375158866239,
                -1.7760615560447681,
                0.3833542908498646,
                1.5172426949140247,
                1.1898515831802647
            ]
        },
        {
            "positions": [
                -1.026826555096252,
                -0.15493320110572134,
                -1.6324796042975172,
                0.3411079563401097,
                1.4638815597555617,
                1.2608062792652237
            ]
        },
        {
            "positions": [
                -0.9808062394117846,
                -0.1940226506227803,
                -1.4888976525502662,
                0.29886162183035475,
                1.4105204245970988,
                1.331760975350183
            ]
        },
        {
            "positions": [
                -0.934785923727317,
                -0.2331121001398392,
                -1.345315700803015,
                0.2566152873205998,
                1.357159289438636,
                1.4027156714351419
            ]
        },
        {
            "positions": [
                -0.8887656080428493,
                -0.27220154965689813,
                -1.201733749055764,
                0.2143689528108449,
                1.3037981542801729,
                1.473670367520101
            ]
        },
        {
            "positions": [
                -0.8427452923583818,
                -0.3112909991739571,
                -1.058151797308513,
                0.17212261830108994,
                1.25043701912171,
                1.5446250636050602
            ]
        },
        {
            "positions": [
                -0.7967249766739142,
                -0.35038044869101603,
                -0.9145698455612621,
                0.12987628379133503,
                1.197075883963247,
                1.6155797596900192
            ]
        },
        {
            "positions": [
                -0.7507046609894465,
                -0.389469898208075,
                -0.7709878938140111,
                0.08762994928158008,
                1.143714748804784,
                1.6865344557749784
            ]
        },
        {
            "positions": [
                -0.7046843453049789,
                -0.42855934772513393,
                -0.6274059420667601,
                0.04538361477182512,
                1.0903536136463212,
                1.7574891518599376
            ]
        },
        {
            "positions": [
                -0.6586640296205113,
                -0.4676487972421929,
                -0.4838239903195092,
                0.003137280262070219,
                1.0369924784878584,
                1.8284438479448966
            ]
        },
        {
            "positions": [
                -0.6126437139360438,
                -0.5067382467592518,
                -0.3402420385722582,
                -0.03910905424768474,
                0.9836313433293953,
                1.8993985440298558
            ]
        },
        {
            "positions": [
                -0.5666233982515761,
                -0.5458276962763108,
                -0.19666008682500724,
                -0.0813553887574397,
                0.9302702081709323,
                1.970353240114815
            ]
        },
        {
            "positions": [
                -0.5206030825671085,
                -0.5849171457933697,
                -0.05307813507775627,
                -0.1236017232671946,
                0.8769090730124695,
                2.041307936199774
            ]
        },
        {
            "positions": [
                -0.4745827668826409,
                -0.6240065953104286,
                0.09050381666949492,
                -0.1658480577769495,
                0.8235479378540065,
                2.1122626322847333
            ]
        },
        {
            "positions": [
                -0.42856245119817327,
                -0.6630960448274876,
                0.2340857684167459,
                -0.2080943922867045,
                0.7701868026955435,
                2.1832173283696923
            ]
        },
        {
            "positions": [
                -0.38254213551370575,
                -0.7021854943445465,
                0.37766772016399686,
                -0.2503407267964594,
                0.7168256675370807,
                2.2541720244546513
            ]
        },
        {
            "positions": [
                -0.3365218198292381,
                -0.7412749438616055,
                0.5212496719112478,
                -0.2925870613062144,
                0.6634645323786176,
                2.3251267205396107
            ]
        },
        {
            "positions": [
                -0.2905015041447705,
                -0.7803643933786644,
                0.6648316236584988,
                -0.3348333958159693,
                0.6101033972201547,
                2.3960814166245696
            ]
        },
        {
            "positions": [
                -0.24448118846030287,
                -0.8194538428957234,
                0.8084135754057502,
                -0.37707973032572434,
                0.5567422620616918,
                2.467036112709529
            ]
        },
        {
            "positions": [
                -0.19846087277583535,
                -0.8585432924127823,
                0.9519955271530007,
                -0.41932606483547913,
                0.5033811269032289,
                2.537990808794488
            ]
        },
        {
            "positions": [
                -0.15244055709136772,
                -0.8976327419298413,
                1.0955774789002521,
                -0.46157239934523414,
                0.4500199917447658,
                2.608945504879447
            ]
        },
        {
            "positions": [
                -0.1064202414069002,
                -0.9367221914469002,
                1.2391594306475027,
                -0.5038187338549891,
                0.39665885658630295,
                2.679900200964406
            ]
        },
        {
            "positions": [
                -0.06039992572243258,
                -0.9758116409639592,
                1.382741382394754,
                -0.5460650683647441,
                0.3432977214278399,
                2.750854897049365
            ]
        },
        {
            "positions": [
                -0.014379610037964952,
                -1.014901090481018,
                1.5263233341420046,
                -0.5883114028744989,
                0.289936586269377,
                2.8218095931343243
            ]
        },
        {
            "positions": [
                0.031640705646502676,
                -1.0539905399980771,
                1.669905285889256,
                -0.6305577373842539,
                0.23657545111091416,
                2.8927642892192837
            ]
        },
        {
            "positions": [
                0.0776610213309703,
                -1.093079989515136,
                1.8134872376365065,
                -0.6728040718940087,
                0.1832143159524513,
                2.9637189853042427
            ]
        },
        {
            "positions": [
                0.12368133701543793,
                -1.132169439032195,
                1.957069189383758,
                -0.7150504064037638,
                0.12985318079398814,
                3.0346736813892017
            ]
        }
    ]
}