{
    "goal": {
        "global_pose": {
            "orientation": {
                "w": 0.7047431468963623,
                "x": -0.7094548344612122,
                "y": 0.0024358443915843964,
                "z": -0.0022348060738295317
            },
            "position": {
                "x": 0.6094750761985779,
                "y": 0.3671506643295288,
                "z": 0.19426114857196808
            }
        },
        "name": "move_to_magneteinheit_A"
    },
    "id": "SBL_move_to_magneteinheit_A_150",
    "joint_names": [
        "shoulder_pan_joint",
        "shoulder_lift_joint",
        "elbow_joint",
        "wrist_1_joint",
        "wrist_2_joint",
        "wrist_3_joint"
    ],
    "metrics": {
        "cart_traj_len": 1.8800251616905723,
        "distance_elbow_joint": 3.908700467735503,
        "distance_shoulder_lift_joint": 0.6994365593706214,
        "distance_shoulder_pan_joint": 1.2408277569118173,
        "distance_wrist_1_joint": 1.480724275527599,
        "distance_wrist_2_joint": 1.6931480193719892,
        "distance_wrist_3_joint": 1.1020439663789023,
        "smoothness": 5.592234511563075e-16,
        "time": 0.150008775,
        "traj_len": 3.1819618233562186,
        "weighted_distance": 3.937364762497097
    },
    "planner": "SBL",
    "start": {
        "state": {
            "elbow_joint": -1.919643507792019,
            "shoulder_lift_joint": -0.07675430207160344,
            "shoulder_pan_joint": -1.1188671864651873,
            "wrist_1_joint": 0.42560062535961957,
            "wrist_2_joint": 1.5706038300724876,
            "wrist_3_joint": 1.1188968870953055
        }
    },
    "waypoints": [
        {
            "positions": [
                -1.1188671864651873,
                -0.07675430207160344,
                -1.919643507792019,
                0.42560062535961957,
                1.5706038300724876,
                1.1188968870953055
            ]
        },
        {
            "positions": [
                -1.071143041968579,
                -0.10365570820124273,
                -1.7693088744175767,
                0.482551559033758,
                1.5054827524043342,
                1.076510580696117
            ]
        },
        {
            "positions": [
                -1.0234188974719707,
                -0.13055711433088202,
                -1.6189742410431343,
                0.5395024927078964,
                1.4403616747361807,
                1.0341242742969285
            ]
        },
        {
            "positions": [
                -0.9756947529753622,
                -0.15745852046052133,
                -1.4686396076686918,
                0.5964534263820349,
                1.3752405970680273,
                0.9917379678977398
            ]
        },
        {
            "positions": [
                -0.9279706084787539,
                -0.1843599265901606,
                -1.3183049742942494,
                0.6534043600561733,
                1.3101195193998738,
                0.9493516614985513
            ]
        },
        {
            "positions": [
                -0.8802464639821456,
                -0.2112613327197999,
                -1.167970340919807,
                0.7103552937303117,
                1.2449984417317204,
                0.9069653550993628
            ]
        },
        {
            "positions": [
                -0.8325223194855371,
                -0.2381627388494392,
                -1.0176357075453646,
                0.7673062274044502,
                1.179877364063567,
                0.8645790487001742
            ]
        },
        {
            "positions": [
                -0.7847981749889288,
                -0.2650641449790785,
                -0.8673010741709222,
                0.8242571610785885,
                1.1147562863954137,
                0.8221927423009857
            ]
        },
        {
            "positions": [
                -0.7370740304923205,
                -0.2919655511087178,
                -0.7169664407964798,
                0.881208094752727,
                1.0496352087272602,
                0.7798064359017971
            ]
        },
        {
            "positions": [
                -0.6893498859957121,
                -0.318866957238357,
                -0.5666318074220373,
                0.9381590284268655,
                0.9845141310591068,
                0.7374201295026086
            ]
        },
        {
            "positions": [
                -0.6416257414991038,
                -0.3457683633679964,
                -0.4162971740475949,
                0.9951099621010038,
                0.9193930533909532,
                0.69503382310342
            ]
        },
        {
            "positions": [
                -0.5939015970024955,
                -0.37266976949763564,
                -0.2659625406731525,
                1.0520608957751423,
                0.8542719757227999,
                0.6526475167042315
            ]
        },
        {
            "positions": [
                -0.546177452505887,
                -0.39957117562727495,
                -0.11562790729871009,
                1.1090118294492808,
                0.7891508980546463,
                0.6102612103050429
            ]
        },
        {
            "positions": [
                -0.4984533080092787,
                -0.4264725817569142,
                0.03470672607573233,
                1.165962763123419,
                0.724029820386493,
                0.5678749039058544
            ]
        },
        {
            "positions": [
                -0.45072916351267034,
                -0.4533739878865535,
                0.18504135945017475,
                1.2229136967975576,
                0.6589087427183397,
                0.5254885975066659
            ]
        },
        {
            "positions": [
                -0.403005019016062,
                -0.48027539401619274,
                0.33537599282461694,
                1.2798646304716959,
                0.5937876650501862,
                0.4831022911074774
            ]
        },
        {
            "positions": [
                -0.35528087451945356,
                -0.5071768001458321,
                0.4857106261990596,
                1.3368155641458344,
                0.5286665873820326,
                0.44071598470828866
            ]
        },
        {
            "positions": [
                -0.3075567300228452,
                -0.5340782062754714,
                0.6360452595735022,
                1.3937664978199729,
                0.4635455097138792,
                0.39832967830910015
            ]
        },
        {
            "positions": [
                -0.2598325855262369,
                -0.5609796124051106,
                0.7863798929479444,
                1.4507174314941114,
                0.398424432045726,
                0.35594337190991165
            ]
        },
        {
            "positions": [
                -0.21210844102962856,
                -0.5878810185347498,
                0.9367145263223866,
                1.5076683651682496,
                0.3333033543775725,
                0.31355706551072315
            ]
        },
        {
            "positions": [
                -0.1643842965330201,
                -0.6147824246643894,
                1.0870491596968292,
                1.5646192988423882,
                0.26818227670941885,
                0.27117075911153443
            ]
        },
        {
            "positions": [
                -0.11666015203641167,
                -0.6416838307940285,
                1.2373837930712719,
                1.6215702325165267,
                0.2030611990412654,
                0.22878445271234593
            ]
        },
        {
            "positions": [
                -0.06893600753980356,
                -0.6685852369236678,
                1.387718426445714,
                1.678521166190665,
                0.13794012137311218,
                0.18639814631315743
            ]
        },
        {
            "positions": [
                -0.021211863043195223,
                -0.6954866430533071,
                1.5380530598201563,
                1.7354720998648034,
                0.07281904370495873,
                0.14401183991396893
            ]
        },
        {
            "positions": [
                0.026512281453413333,
                -0.7223880491829464,
                1.688387693194599,
                1.792423033538942,
                0.0076979660368050595,
                0.10162553351478021
            ]
        },
        {
            "positions": [
                0.07423642595002167,
                -0.7492894553125857,
                1.8387223265690416,
                1.8493739672130804,
                -0.05742311163134817,
                0.05923922711559171
            ]
        },
        {
            "positions": [
                0.12196057044663008,
                -0.7761908614422249,
                1.9890569599434837,
                1.9063249008872187,
                -0.12254418929950152,
                0.0168529207164031
            ]
        }
    ]
}