{
    "goal": {
        "global_pose": {
            "orientation": {
                "w": 0.5084816217422485,
                "x": -0.49083608388900757,
                "y": 0.5182115435600281,
                "z": -0.4816462993621826
            },
            "position": {
                "x": 0.5540239810943604,
                "y": 0.030875300988554955,
                "z": 0.16403168439865112
            }
        },
        "name": "move_to_storage_A"
    },
    "id": "SBL_move_to_storage_A_71",
    "joint_names": [
        "shoulder_pan_joint",
        "shoulder_lift_joint",
        "elbow_joint",
        "wrist_1_joint",
        "wrist_2_joint",
        "wrist_3_joint"
    ],
    "metrics": {
        "cart_traj_len": 0.35330007160370447,
        "distance_elbow_joint": 0.4509381649203159,
        "distance_shoulder_lift_joint": 0.2341240423328912,
        "distance_shoulder_pan_joint": 0.4625772106258973,
        "distance_wrist_1_joint": 0.24799696701475848,
        "distance_wrist_2_joint": 1.0965931023095234,
        "distance_wrist_3_joint": 0.10172778296304408,
        "smoothness": 4.440892098500626e-16,
        "time": 0.142329022,
        "traj_len": 1.61057668869459,
        "weighted_distance": 2.03519112257714
    },
    "planner": "SBL",
    "start": {
        "state": {
            "elbow_joint": 1.9715463870305268,
            "shoulder_lift_joint": -1.1394903361783484,
            "shoulder_pan_joint": 0.12281147578464417,
            "wrist_1_joint": -0.7804599489681411,
            "wrist_2_joint": 0.12958660307563738,
            "wrist_3_joint": -3.1924946282119055
        }
    },
    "waypoints": [
        {
            "positions": [
                0.12281147578464417,
                -1.1394903361783484,
                1.9715463870305268,
                -0.7804599489681411,
                0.12958660307563738,
                -3.1924946282119055
            ]
        },
        {
            "positions": [
                0.05672901712380171,
                -1.17293662794019,
                2.0359661248762864,
                -0.8158880871131066,
                0.28624276054842646,
                -3.1779620877886137
            ]
        },
        {
            "positions": [
                -0.00935344153704075,
                -1.2063829197020315,
                2.1003858627220455,
                -0.851316225258072,
                0.4428989180212155,
                -3.1634295473653213
            ]
        },
        {
            "positions": [
                -0.07543590019788322,
                -1.2398292114638731,
                2.164805600567805,
                -0.8867443634030375,
                0.5995550754940046,
                -3.1488970069420295
            ]
        },
        {
            "positions": [
                -0.14151835885872566,
                -1.2732755032257148,
                2.2292253384135643,
                -0.9221725015480031,
                0.7562112329667936,
                -3.1343644665187376
            ]
        },
        {
            "positions": [
                -0.20760081751956816,
                -1.3067217949875565,
                2.293645076259324,
                -0.9576006396929686,
                0.9128673904395828,
                -3.1198319260954457
            ]
        },
        {
            "positions": [
                -0.2736832761804106,
                -1.340168086749398,
                2.358064814105083,
                -0.9930287778379341,
                1.0695235479123717,
                -3.1052993856721534
            ]
        },
        {
            "positions": [
                -0.3397657348412531,
                -1.3736143785112396,
                2.4224845519508427,
                -1.0284569159828996,
                1.2261797053851609,
                -3.0907668452488615
            ]
        }
    ]
}