{
    "goal": {
        "global_pose": {
            "orientation": {
                "w": 0.5084816217422485,
                "x": -0.49083608388900757,
                "y": 0.5182115435600281,
                "z": -0.4816462993621826
            },
            "position": {
                "x": 0.5540239810943604,
                "y": 0.030875300988554955,
                "z": 0.16403168439865112
            }
        },
        "name": "move_to_storage_A"
    },
    "id": "SBL_move_to_storage_A_28",
    "joint_names": [
        "shoulder_pan_joint",
        "shoulder_lift_joint",
        "elbow_joint",
        "wrist_1_joint",
        "wrist_2_joint",
        "wrist_3_joint"
    ],
    "metrics": {
        "cart_traj_len": 0.35250489684758346,
        "distance_elbow_joint": 0.44920103415556945,
        "distance_shoulder_lift_joint": 0.2358801967287838,
        "distance_shoulder_pan_joint": 0.46091578469208805,
        "distance_wrist_1_joint": 0.23638864950379002,
        "distance_wrist_2_joint": 1.0986381509804006,
        "distance_wrist_3_joint": 0.09223835589610241,
        "smoothness": 4.440892098500626e-16,
        "time": 0.24436137600000002,
        "traj_len": 1.6041390750046378,
        "weighted_distance": 2.0230584974817534
    },
    "planner": "SBL",
    "start": {
        "state": {
            "elbow_joint": 1.9715463870305268,
            "shoulder_lift_joint": -1.1394903361783484,
            "shoulder_pan_joint": 0.12281147578464417,
            "wrist_1_joint": -0.7804599489681411,
            "wrist_2_joint": 0.12958660307563738,
            "wrist_3_joint": -3.1924946282119055
        }
    },
    "waypoints": [
        {
            "positions": [
                0.12281147578464417,
                -1.1394903361783484,
                1.9715463870305268,
                -0.7804599489681411,
                0.12958660307563738,
                -3.1924946282119055
            ]
        },
        {
            "positions": [
                0.05696636368577446,
                -1.1731875071396032,
                2.0357179633384654,
                -0.814229756040111,
                0.2865349103585517,
                -3.179317720226748
            ]
        },
        {
            "positions": [
                -0.008878748413095258,
                -1.206884678100858,
                2.0998895396464037,
                -0.8479995631120811,
                0.44348321764146614,
                -3.1661408122415904
            ]
        },
        {
            "positions": [
                -0.07472386051196499,
                -1.2405818490621128,
                2.1640611159543424,
                -0.8817693701840511,
                0.6004315249243805,
                -3.152963904256433
            ]
        },
        {
            "positions": [
                -0.14056897261083467,
                -1.2742790200233678,
                2.2282326922622806,
                -0.9155391772560211,
                0.7573798322072949,
                -3.1397869962712757
            ]
        },
        {
            "positions": [
                -0.2064140847097044,
                -1.3079761909846226,
                2.2924042685702193,
                -0.9493089843279912,
                0.9143281394902093,
                -3.1266100882861183
            ]
        },
        {
            "positions": [
                -0.27225919680857413,
                -1.3416733619458774,
                2.3565758448781575,
                -0.983078791399961,
                1.0712764467731235,
                -3.1134331803009605
            ]
        },
        {
            "positions": [
                -0.33810430890744386,
                -1.3753705329071322,
                2.420747421186096,
                -1.016848598471931,
                1.228224754056038,
                -3.100256272315803
            ]
        }
    ]
}