{
    "goal": {
        "global_pose": {
            "orientation": {
                "w": 0.7047431468963623,
                "x": -0.7094548344612122,
                "y": 0.0024358443915843964,
                "z": -0.0022348060738295317
            },
            "position": {
                "x": 0.6094750761985779,
                "y": 0.3671506643295288,
                "z": 0.19426114857196808
            }
        },
        "name": "move_to_magneteinheit_A"
    },
    "id": "SBL_move_to_magneteinheit_A_86",
    "joint_names": [
        "shoulder_pan_joint",
        "shoulder_lift_joint",
        "elbow_joint",
        "wrist_1_joint",
        "wrist_2_joint",
        "wrist_3_joint"
    ],
    "metrics": {
        "cart_traj_len": 2.068131521081949,
        "distance_elbow_joint": 3.8886731751840107,
        "distance_shoulder_lift_joint": 1.0604407754808405,
        "distance_shoulder_pan_joint": 1.24250571748553,
        "distance_wrist_1_joint": 1.1982343228433874,
        "distance_wrist_2_joint": 1.441250628075438,
        "distance_wrist_3_joint": 1.9682355830706757,
        "smoothness": 2.7564157984637776e-16,
        "time": 0.214802795,
        "traj_len": 3.2862349584501542,
        "weighted_distance": 4.168368544070936
    },
    "planner": "SBL",
    "start": {
        "state": {
            "elbow_joint": -1.919643507792019,
            "shoulder_lift_joint": -0.07675430207160344,
            "shoulder_pan_joint": -1.1188671864651873,
            "wrist_1_joint": 0.42560062535961957,
            "wrist_2_joint": 1.5706038300724876,
            "wrist_3_joint": 1.1188968870953055
        }
    },
    "waypoints": [
        {
            "positions": [
                -1.1188671864651873,
                -0.07675430207160344,
                -1.919643507792019,
                0.42560062535961957,
                1.5706038300724876,
                1.1188968870953055
            ]
        },
        {
            "positions": [
                -1.0744919822692756,
                -0.11462718691020488,
                -1.7807623229640188,
                0.38280654240092715,
                1.5191305933555077,
                1.1891910150621154
            ]
        },
        {
            "positions": [
                -1.0301167780733638,
                -0.1525000717488063,
                -1.6418811381360183,
                0.34001245944223474,
                1.4676573566385278,
                1.2594851430289253
            ]
        },
        {
            "positions": [
                -0.985741573877452,
                -0.19037295658740777,
                -1.5029999533080178,
                0.2972183764835423,
                1.416184119921548,
                1.329779270995735
            ]
        },
        {
            "positions": [
                -0.9413663696815402,
                -0.2282458414260092,
                -1.3641187684800176,
                0.25442429352484996,
                1.3647108832045678,
                1.400073398962545
            ]
        },
        {
            "positions": [
                -0.8969911654856284,
                -0.26611872626461064,
                -1.2252375836520173,
                0.21163021056615752,
                1.313237646487588,
                1.4703675269293548
            ]
        },
        {
            "positions": [
                -0.8526159612897166,
                -0.3039916111032121,
                -1.0863563988240168,
                0.16883612760746514,
                1.261764409770608,
                1.5406616548961645
            ]
        },
        {
            "positions": [
                -0.8082407570938048,
                -0.34186449594181356,
                -0.9474752139960164,
                0.12604204464877272,
                1.210291173053628,
                1.6109557828629746
            ]
        },
        {
            "positions": [
                -0.763865552897893,
                -0.37973738078041497,
                -0.808594029168016,
                0.08324796169008031,
                1.1588179363366482,
                1.6812499108297843
            ]
        },
        {
            "positions": [
                -0.7194903487019813,
                -0.4176102656190165,
                -0.6697128443400155,
                0.04045387873138789,
                1.1073446996196683,
                1.7515440387965944
            ]
        },
        {
            "positions": [
                -0.6751151445060695,
                -0.4554831504576179,
                -0.5308316595120153,
                -0.002340204227304521,
                1.0558714629026884,
                1.821838166763404
            ]
        },
        {
            "positions": [
                -0.6307399403101577,
                -0.49335603529621935,
                -0.391950474684015,
                -0.04513428718599688,
                1.0043982261857085,
                1.8921322947302137
            ]
        },
        {
            "positions": [
                -0.5863647361142459,
                -0.5312289201348208,
                -0.2530692898560145,
                -0.0879283701446893,
                0.9529249894687285,
                1.9624264226970236
            ]
        },
        {
            "positions": [
                -0.5419895319183341,
                -0.5691018049734222,
                -0.11418810502801402,
                -0.13072245310338176,
                0.9014517527517485,
                2.0327205506638335
            ]
        },
        {
            "positions": [
                -0.4976143277224223,
                -0.6069746898120236,
                0.02469307979998625,
                -0.17351653606207412,
                0.8499785160347686,
                2.103014678630643
            ]
        },
        {
            "positions": [
                -0.4532391235265105,
                -0.644847574650625,
                0.16357426462798652,
                -0.21631061902076648,
                0.7985052793177887,
                2.1733088065974533
            ]
        },
        {
            "positions": [
                -0.40886391933059874,
                -0.6827204594892264,
                0.302455449455987,
                -0.25910470197945895,
                0.7470320426008088,
                2.243602934564263
            ]
        },
        {
            "positions": [
                -0.36448871513468706,
                -0.7205933443278281,
                0.44133663428398706,
                -0.3018987849381513,
                0.6955588058838289,
                2.3138970625310726
            ]
        },
        {
            "positions": [
                -0.32011351093877505,
                -0.7584662291664295,
                0.580217819111988,
                -0.3446928678968438,
                0.6440855691668488,
                2.3841911904978828
            ]
        },
        {
            "positions": [
                -0.27573830674286337,
                -0.7963391140050309,
                0.7190990039399885,
                -0.38748695085553614,
                0.5926123324498689,
                2.454485318464693
            ]
        },
        {
            "positions": [
                -0.23136310254695158,
                -0.8342119988436323,
                0.8579801887679885,
                -0.4302810338142286,
                0.541139095732889,
                2.5247794464315025
            ]
        },
        {
            "positions": [
                -0.1869878983510398,
                -0.8720848836822339,
                0.996861373595989,
                -0.47307511677292097,
                0.4896658590159091,
                2.595073574398312
            ]
        },
        {
            "positions": [
                -0.142612694155128,
                -0.9099577685208353,
                1.135742558423989,
                -0.5158691997316134,
                0.4381926222989292,
                2.6653677023651223
            ]
        },
        {
            "positions": [
                -0.09823748995921622,
                -0.9478306533594367,
                1.2746237432519896,
                -0.5586632826903057,
                0.3867193855819493,
                2.735661830331932
            ]
        },
        {
            "positions": [
                -0.05386228576330443,
                -0.9857035381980381,
                1.41350492807999,
                -0.6014573656489981,
                0.3352461488649694,
                2.8059559582987417
            ]
        },
        {
            "positions": [
                -0.009487081567392641,
                -1.0235764230366395,
                1.5523861129079906,
                -0.6442514486076907,
                0.2837729121479893,
                2.876250086265552
            ]
        },
        {
            "positions": [
                0.03488812262851915,
                -1.0614493078752412,
                1.691267297735991,
                -0.687045531566383,
                0.23229967543100938,
                2.946544214232362
            ]
        },
        {
            "positions": [
                0.07926332682443094,
                -1.0993221927138426,
                1.830148482563991,
                -0.7298396145250754,
                0.18082643871402948,
                3.016838342199171
            ]
        },
        {
            "positions": [
                0.12363853102034271,
                -1.137195077552444,
                1.9690296673919916,
                -0.7726336974837679,
                0.12935320199704958,
                3.0871324701659812
            ]
        }
    ]
}