{
    "goal": {
        "global_pose": {
            "orientation": {
                "w": 0.7047431468963623,
                "x": -0.7094548344612122,
                "y": 0.0024358443915843964,
                "z": -0.0022348060738295317
            },
            "position": {
                "x": 0.6094750761985779,
                "y": 0.3671506643295288,
                "z": 0.19426114857196808
            }
        },
        "name": "move_to_magneteinheit_A"
    },
    "id": "SBL_move_to_magneteinheit_A_23",
    "joint_names": [
        "shoulder_pan_joint",
        "shoulder_lift_joint",
        "elbow_joint",
        "wrist_1_joint",
        "wrist_2_joint",
        "wrist_3_joint"
    ],
    "metrics": {
        "cart_traj_len": 2.7274998130079258,
        "distance_elbow_joint": 3.9047334786659738,
        "distance_shoulder_lift_joint": 1.1587066770202084,
        "distance_shoulder_pan_joint": 2.2184909460530093,
        "distance_wrist_1_joint": 1.2642317476713216,
        "distance_wrist_2_joint": 1.4394253516780027,
        "distance_wrist_3_joint": 4.266923384363487,
        "smoothness": 0.09506627289449067,
        "time": 0.23579605,
        "traj_len": 3.7752498705982367,
        "weighted_distance": 5.048763754972924
    },
    "planner": "SBL",
    "start": {
        "state": {
            "elbow_joint": -1.919643507792019,
            "shoulder_lift_joint": -0.07675430207160344,
            "shoulder_pan_joint": -1.1188671864651873,
            "wrist_1_joint": 0.42560062535961957,
            "wrist_2_joint": 1.5706038300724876,
            "wrist_3_joint": 1.1188968870953055
        }
    },
    "waypoints": [
        {
            "positions": [
                -1.1188671864651873,
                -0.07675430207160344,
                -1.919643507792019,
                0.42560062535961957,
                1.5706038300724876,
                1.1188968870953055
            ]
        },
        {
            "positions": [
                -1.1595708160203881,
                -0.1696736846160403,
                -1.8029446289381004,
                0.3859116232305067,
                1.5133719556289777,
                1.088369169541631
            ]
        },
        {
            "positions": [
                -1.200274445575589,
                -0.26259306716047714,
                -1.6862457500841814,
                0.3462226211013939,
                1.4561400811854681,
                1.0578414519879566
            ]
        },
        {
            "positions": [
                -1.2409780751307897,
                -0.355512449704914,
                -1.5695468712302625,
                0.30653361897228104,
                1.3989082067419583,
                1.0273137344342822
            ]
        },
        {
            "positions": [
                -1.2816817046859905,
                -0.44843183224935085,
                -1.4528479923763438,
                0.2668446168431682,
                1.3416763322984484,
                0.9967860168806079
            ]
        },
        {
            "positions": [
                -1.3223853342411913,
                -0.5413512147937878,
                -1.336149113522425,
                0.22715561471405535,
                1.2844444578549385,
                0.9662582993269334
            ]
        },
        {
            "positions": [
                -1.363088963796392,
                -0.6342705973382246,
                -1.219450234668506,
                0.18746661258494252,
                1.2272125834114287,
                0.9357305817732591
            ]
        },
        {
            "positions": [
                -1.403792593351593,
                -0.7271899798826615,
                -1.1027513558145872,
                0.14777761045582966,
                1.169980708967919,
                0.9052028642195846
            ]
        },
        {
            "positions": [
                -1.4444962229067937,
                -0.8201093624270983,
                -0.9860524769606684,
                0.10808860832671685,
                1.1127488345244092,
                0.8746751466659102
            ]
        },
        {
            "positions": [
                -1.4851998524619945,
                -0.9130287449715353,
                -0.8693535981067495,
                0.06839960619760399,
                1.0555169600808993,
                0.8441474291122357
            ]
        },
        {
            "positions": [
                -1.5259034820171953,
                -1.005948127515972,
                -0.7526547192528308,
                0.02871060406849113,
                0.9982850856373896,
                0.8136197115585613
            ]
        },
        {
            "positions": [
                -1.566607111572396,
                -1.0988675100604088,
                -0.6359558403989121,
                -0.010978398060621675,
                0.9410532111938799,
                0.7830919940048869
            ]
        },
        {
            "positions": [
                -1.6073107411275969,
                -1.1917868926048458,
                -0.5192569615449931,
                -0.050667400189734535,
                0.88382133675037,
                0.7525642764512125
            ]
        },
        {
            "positions": [
                -1.538108845471973,
                -1.1900399291453672,
                -0.4190830842482352,
                -0.08218594907461324,
                0.8537156224161346,
                0.5965406455024368
            ]
        },
        {
            "positions": [
                -1.468906949816349,
                -1.1882929656858885,
                -0.3189092069514773,
                -0.11370449795949196,
                0.8236099080818992,
                0.44051701455366105
            ]
        },
        {
            "positions": [
                -1.3997050541607248,
                -1.1865460022264098,
                -0.21873532965471937,
                -0.14522304684437065,
                0.7935041937476638,
                0.2844933836048853
            ]
        },
        {
            "positions": [
                -1.3305031585051008,
                -1.1847990387669312,
                -0.1185614523579614,
                -0.17674159572924938,
                0.7633984794134283,
                0.1284697526561096
            ]
        },
        {
            "positions": [
                -1.2613012628494769,
                -1.1830520753074527,
                -0.018387575061203476,
                -0.2082601446141281,
                0.7332927650791929,
                -0.0275538782926662
            ]
        },
        {
            "positions": [
                -1.192099367193853,
                -1.181305111847974,
                0.08178630223555439,
                -0.2397786934990068,
                0.7031870507449576,
                -0.1835775092414419
            ]
        },
        {
            "positions": [
                -1.122897471538229,
                -1.1795581483884954,
                0.18196017953231247,
                -0.27129724238388553,
                0.6730813364107221,
                -0.3396011401902178
            ]
        },
        {
            "positions": [
                -1.053695575882605,
                -1.1778111849290167,
                0.28213405682907033,
                -0.30281579126876423,
                0.6429756220764866,
                -0.4956247711389933
            ]
        },
        {
            "positions": [
                -0.9844936802269809,
                -1.176064221469538,
                0.3823079341258282,
                -0.33433434015364294,
                0.6128699077422513,
                -0.651648402087769
            ]
        },
        {
            "positions": [
                -0.9152917845713568,
                -1.1743172580100594,
                0.48248181142258617,
                -0.36585288903852164,
                0.5827641934080159,
                -0.8076720330365449
            ]
        },
        {
            "positions": [
                -0.8460898889157329,
                -1.1725702945505807,
                0.5826556887193441,
                -0.39737143792340035,
                0.5526584790737804,
                -0.9636956639853206
            ]
        },
        {
            "positions": [
                -0.7768879932601088,
                -1.170823331091102,
                0.6828295660161019,
                -0.42888998680827906,
                0.522552764739545,
                -1.1197192949340962
            ]
        },
        {
            "positions": [
                -0.7076860976044849,
                -1.1690763676316236,
                0.7830034433128601,
                -0.46040853569315776,
                0.49244705040530956,
                -1.2757429258828719
            ]
        },
        {
            "positions": [
                -0.6384842019488608,
                -1.167329404172145,
                0.8831773206096181,
                -0.4919270845780365,
                0.46234133607107414,
                -1.431766556831648
            ]
        },
        {
            "positions": [
                -0.5692823062932368,
                -1.1655824407126663,
                0.9833511979063758,
                -0.5234456334629152,
                0.43223562173683877,
                -1.5877901877804232
            ]
        },
        {
            "positions": [
                -0.5000804106376129,
                -1.1638354772531876,
                1.0835250752031338,
                -0.554964182347794,
                0.40212990740260335,
                -1.743813818729199
            ]
        },
        {
            "positions": [
                -0.4308785149819887,
                -1.162088513793709,
                1.1836989524998918,
                -0.5864827312326726,
                0.37202419306836787,
                -1.899837449677975
            ]
        },
        {
            "positions": [
                -0.36167661932636497,
                -1.1603415503342303,
                1.2838728297966495,
                -0.6180012801175514,
                0.3419184787341325,
                -2.0558610806267503
            ]
        },
        {
            "positions": [
                -0.2924747236707408,
                -1.1585945868747516,
                1.3840467070934075,
                -0.64951982900243,
                0.31181276439989714,
                -2.2118847115755265
            ]
        },
        {
            "positions": [
                -0.22327282801511683,
                -1.156847623415273,
                1.4842205843901655,
                -0.6810383778873088,
                0.28170705006566166,
                -2.367908342524302
            ]
        },
        {
            "positions": [
                -0.15407093235949287,
                -1.1551006599557945,
                1.5843944616869232,
                -0.7125569267721874,
                0.2516013357314263,
                -2.5239319734730774
            ]
        },
        {
            "positions": [
                -0.08486903670386892,
                -1.1533536964963158,
                1.6845683389836814,
                -0.7440754756570662,
                0.2214956213971908,
                -2.6799556044218535
            ]
        },
        {
            "positions": [
                -0.015667141048244737,
                -1.1516067330368371,
                1.7847422162804392,
                -0.7755940245419448,
                0.19138990706295544,
                -2.8359792353706292
            ]
        },
        {
            "positions": [
                0.05353475460737922,
                -1.1498597695773585,
                1.884916093577197,
                -0.8071125734268236,
                0.16128419272872008,
                -2.992002866319405
            ]
        },
        {
            "positions": [
                0.12273665026300319,
                -1.1481128061178798,
                1.985089970873955,
                -0.8386311223117022,
                0.1311784783944846,
                -3.1480264972681806
            ]
        }
    ]
}