{
    "goal": {
        "global_pose": {
            "orientation": {
                "w": 0.7031023502349854,
                "x": -0.7110244035720825,
                "y": 0.007748599164187908,
                "z": 0.005598929710686207
            },
            "position": {
                "x": 0.11585023208521307,
                "y": 0.44412534475326537,
                "z": 0.3711530566215515
            }
        },
        "name": "move_to_auspresseinheit_A"
    },
    "id": "SBL_move_to_auspresseinheit_A_46",
    "joint_names": [
        "shoulder_pan_joint",
        "shoulder_lift_joint",
        "elbow_joint",
        "wrist_1_joint",
        "wrist_2_joint",
        "wrist_3_joint"
    ],
    "metrics": {
        "cart_traj_len": 1.3882848945193063,
        "distance_elbow_joint": 1.9081740842798354,
        "distance_shoulder_lift_joint": 0.5343922177952358,
        "distance_shoulder_pan_joint": 1.0413848855881023,
        "distance_wrist_1_joint": 3.220784926211577,
        "distance_wrist_2_joint": 2.7488056295018324,
        "distance_wrist_3_joint": 4.894400185144452,
        "smoothness": 0.7557836119280432,
        "time": 0.359507504,
        "traj_len": 3.7878677284880253,
        "weighted_distance": 5.486923806152527
    },
    "planner": "SBL",
    "start": {
        "state": {
            "elbow_joint": 2.422574709923281,
            "shoulder_lift_joint": -1.3736533754116391,
            "shoulder_pan_joint": -0.33786336945926293,
            "wrist_1_joint": -1.0288603412921917,
            "wrist_2_joint": 1.2330224858903978,
            "wrist_3_joint": -3.094022268022082
        }
    },
    "waypoints": [
        {
            "positions": [
                -0.33786336945926293,
                -1.3736533754116391,
                2.422574709923281,
                -1.0288603412921917,
                1.2330224858903978,
                -3.094022268022082
            ]
        },
        {
            "positions": [
                -0.3174796565302283,
                -1.3861501252377446,
                2.3741637607183144,
                -0.9343920825083407,
                1.1509304163588765,
                -2.9724398037884843
            ]
        },
        {
            "positions": [
                -0.29709594360119373,
                -1.39864687506385,
                2.325752811513348,
                -0.8399238237244896,
                1.0688383468273552,
                -2.850857339554887
            ]
        },
        {
            "positions": [
                -0.2767122306721591,
                -1.4111436248899556,
                2.2773418623083814,
                -0.7454555649406385,
                0.9867462772958342,
                -2.729274875321289
            ]
        },
        {
            "positions": [
                -0.2563285177431245,
                -1.423640374716061,
                2.2289309131034147,
                -0.6509873061567875,
                0.9046542077643129,
                -2.6076924110876916
            ]
        },
        {
            "positions": [
                -0.23594480481408991,
                -1.4361371245421666,
                2.1805199638984485,
                -0.5565190473729364,
                0.8225621382327918,
                -2.4861099468540937
            ]
        },
        {
            "positions": [
                -0.21556109188505532,
                -1.448633874368272,
                2.132109014693482,
                -0.4620507885890853,
                0.7404700687012706,
                -2.3645274826204963
            ]
        },
        {
            "positions": [
                -0.19517737895602072,
                -1.4611306241943776,
                2.083698065488515,
                -0.3675825298052343,
                0.6583779991697495,
                -2.2429450183868984
            ]
        },
        {
            "positions": [
                -0.1747936660269861,
                -1.473627374020483,
                2.0352871162835484,
                -0.2731142710213832,
                0.5762859296382281,
                -2.1213625541533006
            ]
        },
        {
            "positions": [
                -0.1544099530979515,
                -1.4861241238465885,
                1.986876167078582,
                -0.17864601223753207,
                0.49419386010670696,
                -1.9997800899197031
            ]
        },
        {
            "positions": [
                -0.1340262401689169,
                -1.498620873672694,
                1.9384652178736155,
                -0.08417775345368106,
                0.4121017905751858,
                -1.8781976256861055
            ]
        },
        {
            "positions": [
                -0.11364252723988227,
                -1.5111176234987995,
                1.8900542686686488,
                0.010290505330170063,
                0.33000972104366455,
                -1.7566151614525076
            ]
        },
        {
            "positions": [
                -0.0932588143108477,
                -1.523614373324905,
                1.8416433194636825,
                0.10475876411402107,
                0.2479176515121435,
                -1.6350326972189102
            ]
        },
        {
            "positions": [
                -0.07287510138181308,
                -1.5361111231510105,
                1.7932323702587158,
                0.19922702289787209,
                0.16582558198062225,
                -1.5134502329853123
            ]
        },
        {
            "positions": [
                -0.05249138845277851,
                -1.548607872977116,
                1.7448214210537492,
                0.2936952816817231,
                0.08373351244910121,
                -1.391867768751715
            ]
        },
        {
            "positions": [
                -0.032107675523743884,
                -1.5611046228032215,
                1.6964104718487827,
                0.38816354046557433,
                0.0016414429175797274,
                -1.2702853045181173
            ]
        },
        {
            "positions": [
                -0.011723962594709259,
                -1.573601372629327,
                1.6479995226438162,
                0.48263179924942534,
                -0.08045062661394153,
                -1.1487028402845194
            ]
        },
        {
            "positions": [
                0.008659750334325311,
                -1.5860981224554325,
                1.5995885734388495,
                0.5771000580332764,
                -0.16254269614546257,
                -1.027120376050922
            ]
        },
        {
            "positions": [
                0.029043463263359937,
                -1.598594872281538,
                1.5511776242338828,
                0.6715683168171276,
                -0.24463476567698383,
                -0.9055379118173241
            ]
        },
        {
            "positions": [
                0.049427176192394506,
                -1.6110916221076435,
                1.5027666750289166,
                0.7660365756009784,
                -0.3267268352085049,
                -0.7839554475837267
            ]
        },
        {
            "positions": [
                0.06981088912142916,
                -1.623588371933749,
                1.45435572582395,
                0.8605048343848296,
                -0.40881890474002613,
                -0.6623729833501288
            ]
        },
        {
            "positions": [
                0.09406676530193936,
                -1.6412093195412558,
                1.515150418290604,
                0.7882488501404449,
                -0.3469783597286724,
                -0.8016851994090789
            ]
        },
        {
            "positions": [
                0.11832264148244954,
                -1.6588302671487627,
                1.5759451107572582,
                0.7159928658960601,
                -0.2851378147173187,
                -0.940997415468029
            ]
        },
        {
            "positions": [
                0.14257851766295976,
                -1.6764512147562696,
                1.6367398032239122,
                0.6437368816516755,
                -0.22329726970596497,
                -1.0803096315269791
            ]
        },
        {
            "positions": [
                0.16683439384346993,
                -1.6940721623637767,
                1.6975344956905665,
                0.5714808974072907,
                -0.16145672469461123,
                -1.219621847585929
            ]
        },
        {
            "positions": [
                0.19109027002398016,
                -1.7116931099712835,
                1.7583291881572205,
                0.499224913162906,
                -0.09961617968325748,
                -1.3589340636448792
            ]
        },
        {
            "positions": [
                0.21534614620449033,
                -1.7293140575787904,
                1.8191238806238745,
                0.42696892891852134,
                -0.03777563467190381,
                -1.4982462797038294
            ]
        },
        {
            "positions": [
                0.23960202238500053,
                -1.7469350051862973,
                1.8799185730905288,
                0.3547129446741366,
                0.024064910339449963,
                -1.6375584957627796
            ]
        },
        {
            "positions": [
                0.2638578985655107,
                -1.7645559527938042,
                1.9407132655571828,
                0.2824569604297519,
                0.08590545535080368,
                -1.7768707118217295
            ]
        },
        {
            "positions": [
                0.28811377474602096,
                -1.782176900401311,
                2.0015079580238373,
                0.21020097618536715,
                0.14774600036215746,
                -1.91618292788068
            ]
        },
        {
            "positions": [
                0.31236965092653113,
                -1.7997978480088181,
                2.062302650490491,
                0.13794499194098242,
                0.20958654537351118,
                -2.0554951439396296
            ]
        },
        {
            "positions": [
                0.3366255271070413,
                -1.8174187956163248,
                2.1230973429571454,
                0.0656890076965978,
                0.2714270903848649,
                -2.1948073599985802
            ]
        },
        {
            "positions": [
                0.36088140328755147,
                -1.835039743223832,
                2.183892035423799,
                -0.006566976547786929,
                0.3332676353962185,
                -2.33411957605753
            ]
        },
        {
            "positions": [
                0.38513727946806176,
                -1.8526606908313388,
                2.2446867278904534,
                -0.07882296079217166,
                0.39510818040757234,
                -2.4734317921164806
            ]
        },
        {
            "positions": [
                0.4093931556485719,
                -1.8702816384388457,
                2.3054814203571077,
                -0.15107894503655628,
                0.45694872541892606,
                -2.6127440081754303
            ]
        },
        {
            "positions": [
                0.45722584782610026,
                -1.8797055214763811,
                2.3321873138965135,
                -0.21732026840780272,
                0.5095253825377499,
                -2.7230208295805847
            ]
        },
        {
            "positions": [
                0.5050585400036286,
                -1.8891294045139166,
                2.3588932074359192,
                -0.28356159177904916,
                0.5621020396565739,
                -2.8332976509857395
            ]
        },
        {
            "positions": [
                0.5712128653786989,
                -1.8954348007449027,
                2.3706990802920975,
                -0.34601269990260763,
                0.6074498044815098,
                -2.9305730619313684
            ]
        },
        {
            "positions": [
                0.6373671907537691,
                -1.901740196975889,
                2.382504953148276,
                -0.4084638080261661,
                0.6527975693064457,
                -3.0278484728769977
            ]
        },
        {
            "positions": [
                0.7035215161288394,
                -1.908045593206875,
                2.394310826004454,
                -0.47091491614972464,
                0.6981453341313816,
                -3.1251238838226265
            ]
        }
    ]
}