{
    "goal": {
        "global_pose": {
            "orientation": {
                "w": 0.5084816217422485,
                "x": -0.49083608388900757,
                "y": 0.5182115435600281,
                "z": -0.4816462993621826
            },
            "position": {
                "x": 0.5540239810943604,
                "y": 0.030875300988554955,
                "z": 0.16403168439865112
            }
        },
        "name": "move_to_storage_A"
    },
    "id": "SBL_move_to_storage_A_29",
    "joint_names": [
        "shoulder_pan_joint",
        "shoulder_lift_joint",
        "elbow_joint",
        "wrist_1_joint",
        "wrist_2_joint",
        "wrist_3_joint"
    ],
    "metrics": {
        "cart_traj_len": 0.3525650735825383,
        "distance_elbow_joint": 0.45244555357970917,
        "distance_shoulder_lift_joint": 0.2339327357188299,
        "distance_shoulder_pan_joint": 0.46205353780520797,
        "distance_wrist_1_joint": 0.254609103678218,
        "distance_wrist_2_joint": 1.0933802077391626,
        "distance_wrist_3_joint": 0.10098347809432884,
        "smoothness": 2.2204460668324854e-16,
        "time": 0.22163180200000002,
        "traj_len": 1.6116465544949539,
        "weighted_distance": 2.0365070302411175
    },
    "planner": "SBL",
    "start": {
        "state": {
            "elbow_joint": 1.9715463870305268,
            "shoulder_lift_joint": -1.1394903361783484,
            "shoulder_pan_joint": 0.12281147578464417,
            "wrist_1_joint": -0.7804599489681411,
            "wrist_2_joint": 0.12958660307563738,
            "wrist_3_joint": -3.1924946282119055
        }
    },
    "waypoints": [
        {
            "positions": [
                0.12281147578464417,
                -1.1394903361783484,
                1.9715463870305268,
                -0.7804599489681411,
                0.12958660307563738,
                -3.1924946282119055
            ]
        },
        {
            "positions": [
                0.05680382752675732,
                -1.1729092984238956,
                2.036181466113342,
                -0.8168326780650293,
                0.28578377560980345,
                -3.178068417055573
            ]
        },
        {
            "positions": [
                -0.009203820731129533,
                -1.2063282606694425,
                2.100816545196158,
                -0.8532054071619176,
                0.4419809481439695,
                -3.16364220589924
            ]
        },
        {
            "positions": [
                -0.07521146898901639,
                -1.2397472229149897,
                2.1654516242789734,
                -0.8895781362588059,
                0.5981781206781356,
                -3.1492159947429075
            ]
        },
        {
            "positions": [
                -0.14121911724690323,
                -1.273166185160537,
                2.2300867033617893,
                -0.9259508653556943,
                0.7543752932123017,
                -3.134789783586575
            ]
        },
        {
            "positions": [
                -0.20722676550479008,
                -1.3065851474060841,
                2.2947217824446047,
                -0.9623235944525825,
                0.9105724657464678,
                -3.120363572430242
            ]
        },
        {
            "positions": [
                -0.27323441376267693,
                -1.340004109651631,
                2.35935686152742,
                -0.9986963235494708,
                1.0667696382806338,
                -3.1059373612739094
            ]
        },
        {
            "positions": [
                -0.3392420620205638,
                -1.3734230718971783,
                2.423991940610236,
                -1.035069052646359,
                1.2229668108148,
                -3.0915111501175767
            ]
        }
    ]
}