{
    "goal": {
        "global_pose": {
            "orientation": {
                "w": 0.7031023502349854,
                "x": -0.7110244035720825,
                "y": 0.007748599164187908,
                "z": 0.005598929710686207
            },
            "position": {
                "x": 0.11585023208521307,
                "y": 0.44412534475326537,
                "z": 0.3711530566215515
            }
        },
        "name": "move_to_auspresseinheit_A"
    },
    "id": "SBL_move_to_auspresseinheit_A_116",
    "joint_names": [
        "shoulder_pan_joint",
        "shoulder_lift_joint",
        "elbow_joint",
        "wrist_1_joint",
        "wrist_2_joint",
        "wrist_3_joint"
    ],
    "metrics": {
        "cart_traj_len": 0.7609167354762354,
        "distance_elbow_joint": 0.044602758786145724,
        "distance_shoulder_lift_joint": 0.5621817041180834,
        "distance_shoulder_pan_joint": 1.1459038014845366,
        "distance_wrist_1_joint": 0.5753868268417013,
        "distance_wrist_2_joint": 0.5773371369830397,
        "distance_wrist_3_joint": 0.20734027341230998,
        "smoothness": 1.1893794660708004,
        "time": 0.370998611,
        "traj_len": 1.7642994364976192,
        "weighted_distance": 2.163367054448962
    },
    "planner": "SBL",
    "start": {
        "state": {
            "elbow_joint": 2.422574709923281,
            "shoulder_lift_joint": -1.3736533754116391,
            "shoulder_pan_joint": -0.33786336945926293,
            "wrist_1_joint": -1.0288603412921917,
            "wrist_2_joint": 1.2330224858903978,
            "wrist_3_joint": -3.094022268022082
        }
    },
    "waypoints": [
        {
            "positions": [
                -0.33786336945926293,
                -1.3736533754116391,
                2.422574709923281,
                -1.0288603412921917,
                1.2330224858903978,
                -3.094022268022082
            ]
        },
        {
            "positions": [
                -0.3890893618930833,
                -1.3752659325630718,
                2.406187258702981,
                -0.9944915751500711,
                1.2593589655212152,
                -3.0206224269946125
            ]
        },
        {
            "positions": [
                -0.24529633233818768,
                -1.4533068205806075,
                2.403076294364618,
                -0.9246575598887974,
                1.1847575746284609,
                -3.0195623765860824
            ]
        },
        {
            "positions": [
                -0.10150330278329206,
                -1.5313477085981428,
                2.3999653300262556,
                -0.8548235446275236,
                1.1101561837357066,
                -3.018502326177552
            ]
        },
        {
            "positions": [
                0.042289726771603586,
                -1.6093885966156785,
                2.3968543656878927,
                -0.7849895293662499,
                1.035554792842952,
                -3.017442275769022
            ]
        },
        {
            "positions": [
                0.18608275632649918,
                -1.687429484633214,
                2.3937434013495302,
                -0.7151555141049761,
                0.9609534019501977,
                -3.0163822253604917
            ]
        },
        {
            "positions": [
                0.3298757858813949,
                -1.7654703726507495,
                2.3906324370111673,
                -0.6453214988437024,
                0.8863520110574433,
                -3.0153221749519616
            ]
        },
        {
            "positions": [
                0.47366881543629047,
                -1.843511260668285,
                2.387521472672805,
                -0.5754874835824286,
                0.811750620164689,
                -3.014262124543431
            ]
        },
        {
            "positions": [
                0.6174618449911862,
                -1.9215521486858207,
                2.384410508334442,
                -0.5056534683211549,
                0.7371492292719346,
                -3.013202074134901
            ]
        },
        {
            "positions": [
                0.7055884471576329,
                -1.9072692178419188,
                2.3908490655317487,
                -0.4534735144504904,
                0.7083583081689929,
                -3.13972215366003
            ]
        }
    ]
}