{
    "goal": {
        "global_pose": {
            "orientation": {
                "w": 0.7047431468963623,
                "x": -0.7094548344612122,
                "y": 0.0024358443915843964,
                "z": -0.0022348060738295317
            },
            "position": {
                "x": 0.6094750761985779,
                "y": 0.3671506643295288,
                "z": 0.19426114857196808
            }
        },
        "name": "move_to_magneteinheit_A"
    },
    "id": "SBL_move_to_magneteinheit_A_80",
    "joint_names": [
        "shoulder_pan_joint",
        "shoulder_lift_joint",
        "elbow_joint",
        "wrist_1_joint",
        "wrist_2_joint",
        "wrist_3_joint"
    ],
    "metrics": {
        "cart_traj_len": 1.9472705985282392,
        "distance_elbow_joint": 3.9096789693227,
        "distance_shoulder_lift_joint": 1.319641375126432,
        "distance_shoulder_pan_joint": 1.241018164143391,
        "distance_wrist_1_joint": 1.5596493397599414,
        "distance_wrist_2_joint": 2.1812326099484007,
        "distance_wrist_3_joint": 4.231597031235172,
        "smoothness": 0.15582084445984626,
        "time": 0.161731517,
        "traj_len": 3.80037070422558,
        "weighted_distance": 5.162062911444873
    },
    "planner": "SBL",
    "start": {
        "state": {
            "elbow_joint": -1.919643507792019,
            "shoulder_lift_joint": -0.07675430207160344,
            "shoulder_pan_joint": -1.1188671864651873,
            "wrist_1_joint": 0.42560062535961957,
            "wrist_2_joint": 1.5706038300724876,
            "wrist_3_joint": 1.1188968870953055
        }
    },
    "waypoints": [
        {
            "positions": [
                -1.1188671864651873,
                -0.07675430207160344,
                -1.919643507792019,
                0.42560062535961957,
                1.5706038300724876,
                1.1188968870953055
            ]
        },
        {
            "positions": [
                -1.0972919490129458,
                -0.11947452330286196,
                -1.7998161264358026,
                0.3747974446102921,
                1.5060041553380845,
                1.0297638244910232
            ]
        },
        {
            "positions": [
                -1.0757167115607043,
                -0.16219474453412047,
                -1.679988745079586,
                0.3239942638609646,
                1.4414044806036816,
                0.9406307618867407
            ]
        },
        {
            "positions": [
                -1.0541414741084627,
                -0.204914965765379,
                -1.5601613637233696,
                0.2731910831116371,
                1.3768048058692786,
                0.8514976992824583
            ]
        },
        {
            "positions": [
                -1.032566236656221,
                -0.2476351869966375,
                -1.4403339823671533,
                0.22238790236230957,
                1.3122051311348755,
                0.7623646366781758
            ]
        },
        {
            "positions": [
                -1.0109909992039794,
                -0.290355408227896,
                -1.3205066010109365,
                0.17158472161298205,
                1.2476054564004726,
                0.6732315740738934
            ]
        },
        {
            "positions": [
                -0.9894157617517378,
                -0.33307562945915453,
                -1.2006792196547202,
                0.12078154086365456,
                1.1830057816660695,
                0.584098511469611
            ]
        },
        {
            "positions": [
                -0.9678405242994963,
                -0.37579585069041305,
                -1.0808518382985037,
                0.06997836011432707,
                1.1184061069316664,
                0.49496544886532856
            ]
        },
        {
            "positions": [
                -0.9462652868472547,
                -0.41851607192167156,
                -0.9610244569422873,
                0.019175179364999573,
                1.0538064321972636,
                0.4058323862610461
            ]
        },
        {
            "positions": [
                -0.9246900493950131,
                -0.46123629315293013,
                -0.8411970755860707,
                -0.031628001384327975,
                0.9892067574628604,
                0.3166993236567637
            ]
        },
        {
            "positions": [
                -0.9031148119427715,
                -0.5039565143841886,
                -0.7213696942298542,
                -0.08243118213365547,
                0.9246070827284574,
                0.22756626105248123
            ]
        },
        {
            "positions": [
                -0.8815395744905299,
                -0.5466767356154472,
                -0.6015423128736379,
                -0.1332343628829829,
                0.8600074079940544,
                0.1384331984481989
            ]
        },
        {
            "positions": [
                -0.8599643370382883,
                -0.5893969568467057,
                -0.4817149315174214,
                -0.18403754363231045,
                0.7954077332596514,
                0.04930013584391646
            ]
        },
        {
            "positions": [
                -0.8383890995860468,
                -0.6321171780779642,
                -0.3618875501612049,
                -0.234840724381638,
                0.7308080585252483,
                -0.039832926760366094
            ]
        },
        {
            "positions": [
                -0.8168138621338052,
                -0.6748373993092227,
                -0.24206016880498837,
                -0.28564390513096544,
                0.6662083837908453,
                -0.12896598936464843
            ]
        },
        {
            "positions": [
                -0.7952386246815637,
                -0.7175576205404812,
                -0.12223278744877186,
                -0.3364470858802929,
                0.6016087090564424,
                -0.21809905196893076
            ]
        },
        {
            "positions": [
                -0.773663387229322,
                -0.7602778417717397,
                -0.002405406092555573,
                -0.3872502666296204,
                0.5370090343220393,
                -0.3072321145732133
            ]
        },
        {
            "positions": [
                -0.7520881497770805,
                -0.802998063002998,
                0.11742197526366094,
                -0.43805344737894786,
                0.4724093595876364,
                -0.39636517717749564
            ]
        },
        {
            "positions": [
                -0.7305129123248388,
                -0.8457182842342568,
                0.23724935661987767,
                -0.4888566281282755,
                0.4078096848532331,
                -0.4854982397817782
            ]
        },
        {
            "positions": [
                -0.7089376748725973,
                -0.8884385054655153,
                0.35707673797609396,
                -0.539659808877603,
                0.34321001011883023,
                -0.5746313023860605
            ]
        },
        {
            "positions": [
                -0.6873624374203557,
                -0.9311587266967738,
                0.4769041193323107,
                -0.5904629896269304,
                0.27861033538442714,
                -0.6637643649903431
            ]
        },
        {
            "positions": [
                -0.6657871999681141,
                -0.9738789479280323,
                0.596731500688527,
                -0.6412661703762579,
                0.21401066065002428,
                -0.7528974275946254
            ]
        },
        {
            "positions": [
                -0.6442119625158725,
                -1.0165991691592908,
                0.7165588820447433,
                -0.6920693511255853,
                0.14941098591562119,
                -0.8420304901989077
            ]
        },
        {
            "positions": [
                -0.622636725063631,
                -1.0593193903905493,
                0.83638626340096,
                -0.7428725318749128,
                0.08481131118121832,
                -0.9311635528031901
            ]
        },
        {
            "positions": [
                -0.6010614876113894,
                -1.1020396116218079,
                0.9562136447571763,
                -0.7936757126242404,
                0.02021163644681523,
                -1.0202966154074726
            ]
        },
        {
            "positions": [
                -0.5794862501591478,
                -1.1447598328530664,
                1.076041026113393,
                -0.8444788933735679,
                -0.04438803828758786,
                -1.1094296780117552
            ]
        },
        {
            "positions": [
                -0.5579110127069061,
                -1.1874800540843249,
                1.1958684074696093,
                -0.8952820741228955,
                -0.10898771302199095,
                -1.1985627406160377
            ]
        },
        {
            "positions": [
                -0.5363357752546646,
                -1.2302002753155834,
                1.315695788825826,
                -0.946085254872223,
                -0.17358738775639382,
                -1.2876958032203198
            ]
        },
        {
            "positions": [
                -0.514760537802423,
                -1.272920496546842,
                1.4355231701820426,
                -0.9968884356215505,
                -0.2381870624907969,
                -1.3768288658246026
            ]
        },
        {
            "positions": [
                -0.443992591637909,
                -1.2592010320300426,
                1.4971356469985577,
                -0.9816484046461315,
                -0.19680464944800624,
                -1.5697034523040765
            ]
        },
        {
            "positions": [
                -0.37322464547339496,
                -1.2454815675132433,
                1.558748123815073,
                -0.9664083736707125,
                -0.15542223640521557,
                -1.7625780387835501
            ]
        },
        {
            "positions": [
                -0.3024566993088809,
                -1.231762102996444,
                1.6203606006315883,
                -0.9511683426952935,
                -0.11403982336242494,
                -1.9554526252630238
            ]
        },
        {
            "positions": [
                -0.23168875314436688,
                -1.2180426384796448,
                1.6819730774481034,
                -0.9359283117198746,
                -0.07265741031963427,
                -2.1483272117424974
            ]
        },
        {
            "positions": [
                -0.16092080697985278,
                -1.2043231739628455,
                1.7435855542646188,
                -0.9206882807444555,
                -0.0312749972768436,
                -2.3412017982219715
            ]
        },
        {
            "positions": [
                -0.0901528608153388,
                -1.1906037094460462,
                1.805198031081134,
                -0.9054482497690366,
                0.010107415765947037,
                -2.534076384701445
            ]
        },
        {
            "positions": [
                -0.019384914650824703,
                -1.176884244929247,
                1.8668105078976491,
                -0.8902082187936176,
                0.0514898288087377,
                -2.7269509711809192
            ]
        },
        {
            "positions": [
                0.05138303151368928,
                -1.1631647804124476,
                1.9284229847141643,
                -0.8749681878181986,
                0.09287224185152837,
                -2.919825557660393
            ]
        },
        {
            "positions": [
                0.12215097767820339,
                -1.1494453158956484,
                1.9900354615306797,
                -0.8597281568427796,
                0.13425465489431904,
                -3.1127001441398665
            ]
        }
    ]
}