{
    "goal": {
        "global_pose": {
            "orientation": {
                "w": 0.7031023502349854,
                "x": -0.7110244035720825,
                "y": 0.007748599164187908,
                "z": 0.005598929710686207
            },
            "position": {
                "x": 0.11585023208521307,
                "y": 0.44412534475326537,
                "z": 0.3711530566215515
            }
        },
        "name": "move_to_auspresseinheit_A"
    },
    "id": "SBL_move_to_auspresseinheit_A_128",
    "joint_names": [
        "shoulder_pan_joint",
        "shoulder_lift_joint",
        "elbow_joint",
        "wrist_1_joint",
        "wrist_2_joint",
        "wrist_3_joint"
    ],
    "metrics": {
        "cart_traj_len": 1.0051933116550908,
        "distance_elbow_joint": 0.04188665700366778,
        "distance_shoulder_lift_joint": 0.9512914373799348,
        "distance_shoulder_pan_joint": 1.4175259301277707,
        "distance_wrist_1_joint": 0.5713252974952976,
        "distance_wrist_2_joint": 1.1738211590793741,
        "distance_wrist_3_joint": 0.7038168205753137,
        "smoothness": 1.5393418652680328,
        "time": 0.190820593,
        "traj_len": 2.2044653096978775,
        "weighted_distance": 2.8306266796217865
    },
    "planner": "SBL",
    "start": {
        "state": {
            "elbow_joint": 2.422574709923281,
            "shoulder_lift_joint": -1.3736533754116391,
            "shoulder_pan_joint": -0.33786336945926293,
            "wrist_1_joint": -1.0288603412921917,
            "wrist_2_joint": 1.2330224858903978,
            "wrist_3_joint": -3.094022268022082
        }
    },
    "waypoints": [
        {
            "positions": [
                -0.33786336945926293,
                -1.3736533754116391,
                2.422574709923281,
                -1.0288603412921917,
                1.2330224858903978,
                -3.094022268022082
            ]
        },
        {
            "positions": [
                -0.2146053708399409,
                -1.447955204496962,
                2.42313384924536,
                -0.9859046419874513,
                1.148704043077472,
                -3.0607566140608014
            ]
        },
        {
            "positions": [
                -0.0913473722206189,
                -1.522257033582285,
                2.4236929885674385,
                -0.9429489426827109,
                1.0643856002645462,
                -3.02749096009952
            ]
        },
        {
            "positions": [
                0.03191062639870307,
                -1.5965588626676077,
                2.4242521278895173,
                -0.8999932433779705,
                0.9800671574516202,
                -2.9942253061382393
            ]
        },
        {
            "positions": [
                0.15516862501802514,
                -1.6708606917529307,
                2.424811267211596,
                -0.8570375440732301,
                0.8957487146386944,
                -2.960959652176958
            ]
        },
        {
            "positions": [
                0.2784266236373471,
                -1.7451625208382535,
                2.4253704065336747,
                -0.8140818447684897,
                0.8114302718257687,
                -2.9276939982156773
            ]
        },
        {
            "positions": [
                0.40168462225666907,
                -1.8194643499235763,
                2.4259295458557535,
                -0.7711261454637492,
                0.7271118290128428,
                -2.8944283442543965
            ]
        },
        {
            "positions": [
                0.5249426208759911,
                -1.893766179008899,
                2.4264886851778322,
                -0.7281704461590089,
                0.642793386199917,
                -2.8611626902931153
            ]
        },
        {
            "positions": [
                0.6482006194953132,
                -1.9680680080942223,
                2.427047824499911,
                -0.6852147468542684,
                0.5584749433869911,
                -2.8278970363318345
            ]
        },
        {
            "positions": [
                0.771458618114635,
                -2.042369837179545,
                2.4276069638219897,
                -0.6422590475495281,
                0.4741565005740652,
                -2.7946313823705533
            ]
        },
        {
            "positions": [
                0.8947166167339572,
                -2.116671666264868,
                2.4281661031440684,
                -0.5993033482447877,
                0.38983805776113944,
                -2.7613657284092725
            ]
        },
        {
            "positions": [
                0.8484801307503196,
                -2.0646033796331915,
                2.4190922871983482,
                -0.5638612721328142,
                0.47249724049866837,
                -2.8541557986498987
            ]
        },
        {
            "positions": [
                0.8022436447666821,
                -2.0125350930015147,
                2.410018471252628,
                -0.5284191960208409,
                0.5551564232361974,
                -2.9469458688905243
            ]
        },
        {
            "positions": [
                0.7560071587830446,
                -1.9604668063698383,
                2.4009446553069083,
                -0.49297711990886744,
                0.6378156059737263,
                -3.0397359391311505
            ]
        },
        {
            "positions": [
                0.709770672799407,
                -1.9083985197381619,
                2.391870839361188,
                -0.457535043796894,
                0.7204747887112553,
                -3.1325260093717766
            ]
        }
    ]
}