{
    "goal": {
        "global_pose": {
            "orientation": {
                "w": 0.7031023502349854,
                "x": -0.7110244035720825,
                "y": 0.007748599164187908,
                "z": 0.005598929710686207
            },
            "position": {
                "x": 0.11585023208521307,
                "y": 0.44412534475326537,
                "z": 0.3711530566215515
            }
        },
        "name": "move_to_auspresseinheit_A"
    },
    "id": "SBL_move_to_auspresseinheit_A_109",
    "joint_names": [
        "shoulder_pan_joint",
        "shoulder_lift_joint",
        "elbow_joint",
        "wrist_1_joint",
        "wrist_2_joint",
        "wrist_3_joint"
    ],
    "metrics": {
        "cart_traj_len": 2.0827696132130837,
        "distance_elbow_joint": 1.4413227201652505,
        "distance_shoulder_lift_joint": 1.8090447711671873,
        "distance_shoulder_pan_joint": 1.0477910709586777,
        "distance_wrist_1_joint": 6.783643297627233,
        "distance_wrist_2_joint": 2.2268619819829993,
        "distance_wrist_3_joint": 6.202463833982937,
        "smoothness": 0.655958137357877,
        "time": 0.185753689,
        "traj_len": 4.417140214650684,
        "weighted_distance": 6.397387015294635
    },
    "planner": "SBL",
    "start": {
        "state": {
            "elbow_joint": 2.422574709923281,
            "shoulder_lift_joint": -1.3736533754116391,
            "shoulder_pan_joint": -0.33786336945926293,
            "wrist_1_joint": -1.0288603412921917,
            "wrist_2_joint": 1.2330224858903978,
            "wrist_3_joint": -3.094022268022082
        }
    },
    "waypoints": [
        {
            "positions": [
                -0.33786336945926293,
                -1.3736533754116391,
                2.422574709923281,
                -1.0288603412921917,
                1.2330224858903978,
                -3.094022268022082
            ]
        },
        {
            "positions": [
                -0.31846692354417483,
                -1.4171003395382216,
                2.3953698884839456,
                -0.8929882915865823,
                1.1822416285312507,
                -2.979928650951906
            ]
        },
        {
            "positions": [
                -0.29907047762908673,
                -1.460547303664804,
                2.3681650670446106,
                -0.757116241880973,
                1.1314607711721036,
                -2.8658350338817296
            ]
        },
        {
            "positions": [
                -0.2796740317139987,
                -1.5039942677913865,
                2.340960245605275,
                -0.6212441921753638,
                1.0806799138129564,
                -2.7517414168115533
            ]
        },
        {
            "positions": [
                -0.2602775857989106,
                -1.5474412319179687,
                2.3137554241659397,
                -0.48537214246975435,
                1.0298990564538093,
                -2.6376477997413765
            ]
        },
        {
            "positions": [
                -0.24088113988382248,
                -1.5908881960445511,
                2.2865506027266047,
                -0.34950009276414506,
                0.9791181990946622,
                -2.5235541826712002
            ]
        },
        {
            "positions": [
                -0.22148469396873438,
                -1.6343351601711336,
                2.2593457812872693,
                -0.21362804305853567,
                0.9283373417355151,
                -2.409460565601024
            ]
        },
        {
            "positions": [
                -0.2020882480536463,
                -1.677782124297716,
                2.232140959847934,
                -0.07775599335292638,
                0.8775564843763679,
                -2.2953669485308477
            ]
        },
        {
            "positions": [
                -0.1826918021385582,
                -1.7212290884242984,
                2.2049361384085984,
                0.05811605635268302,
                0.8267756270172208,
                -2.1812733314606714
            ]
        },
        {
            "positions": [
                -0.16329535622347013,
                -1.7646760525508807,
                2.1777313169692634,
                0.19398810605829242,
                0.7759947696580738,
                -2.0671797143904946
            ]
        },
        {
            "positions": [
                -0.14389891030838203,
                -1.8081230166774631,
                2.150526495529928,
                0.3298601557639016,
                0.7252139122989266,
                -1.9530860973203186
            ]
        },
        {
            "positions": [
                -0.12450246439329396,
                -1.8515699808040456,
                2.1233216740905925,
                0.465732205469511,
                0.6744330549397796,
                -1.838992480250142
            ]
        },
        {
            "positions": [
                -0.10510601847820586,
                -1.895016944930628,
                2.0961168526512575,
                0.6016042551751204,
                0.6236521975806324,
                -1.7248988631799658
            ]
        },
        {
            "positions": [
                -0.08570957256311779,
                -1.9384639090572104,
                2.068912031211922,
                0.7374763048807298,
                0.5728713402214853,
                -1.6108052461097895
            ]
        },
        {
            "positions": [
                -0.06631312664802969,
                -1.9819108731837929,
                2.0417072097725866,
                0.873348354586339,
                0.5220904828623382,
                -1.496711629039613
            ]
        },
        {
            "positions": [
                -0.046916680732941585,
                -2.0253578373103753,
                2.014502388333251,
                1.0092204042919488,
                0.471309625503191,
                -1.3826180119694365
            ]
        },
        {
            "positions": [
                -0.027520234817853484,
                -2.0688048014369578,
                1.9872975668939161,
                1.1450924539975578,
                0.42052876814404394,
                -1.2685243948992604
            ]
        },
        {
            "positions": [
                -0.008123788902765383,
                -2.11225176556354,
                1.9600927454545807,
                1.2809645037031672,
                0.36974791078489677,
                -1.1544307778290837
            ]
        },
        {
            "positions": [
                0.011272657012322662,
                -2.1556987296901227,
                1.9328879240152455,
                1.4168365534087766,
                0.3189670534257497,
                -1.0403371607589076
            ]
        },
        {
            "positions": [
                0.03066910292741082,
                -2.199145693816705,
                1.90568310257591,
                1.552708603114386,
                0.26818619606660254,
                -0.9262435436887309
            ]
        },
        {
            "positions": [
                0.050065548842498864,
                -2.2425926579432875,
                1.8784782811365748,
                1.688580652819995,
                0.2174053387074555,
                -0.812149926618555
            ]
        },
        {
            "positions": [
                0.06946199475758696,
                -2.28603962206987,
                1.8512734596972393,
                1.8244527025256048,
                0.1666244813483082,
                -0.6980563095483783
            ]
        },
        {
            "positions": [
                0.08885844067267501,
                -2.329486586196452,
                1.824068638257904,
                1.9603247522312137,
                0.11584362398916137,
                -0.583962692478202
            ]
        },
        {
            "positions": [
                0.10825488658776317,
                -2.3729335503230344,
                1.7968638168185689,
                2.0961968019368236,
                0.06506276663001409,
                -0.4698690754080257
            ]
        },
        {
            "positions": [
                0.1276513325028512,
                -2.416380514449617,
                1.7696589953792334,
                2.2320688516424325,
                0.014281909270867033,
                -0.3557754583378494
            ]
        },
        {
            "positions": [
                0.1470477784179393,
                -2.4598274785761993,
                1.7424541739398982,
                2.367940901348042,
                -0.03649894808828025,
                -0.24168184126767267
            ]
        },
        {
            "positions": [
                0.16644422433302736,
                -2.5032744427027818,
                1.715249352500563,
                2.5038129510536513,
                -0.08727980544742708,
                -0.12758822419749682
            ]
        },
        {
            "positions": [
                0.18584067024811546,
                -2.546721406829364,
                1.6880445310612275,
                2.6396850007592607,
                -0.13806066280657436,
                -0.01349460712732009
            ]
        },
        {
            "positions": [
                0.2086270629112154,
                -2.5190702442315613,
                1.7187746415526708,
                2.5042459592124877,
                -0.10085288744631231,
                -0.14923096247898002
            ]
        },
        {
            "positions": [
                0.23141345557431536,
                -2.491419081633759,
                1.7495047520441143,
                2.3688069176657143,
                -0.06364511208605025,
                -0.28496731783063994
            ]
        },
        {
            "positions": [
                0.2541998482374153,
                -2.463767919035956,
                1.7802348625355575,
                2.2333678761189413,
                -0.0264373367257882,
                -0.42070367318229984
            ]
        },
        {
            "positions": [
                0.27698624090051527,
                -2.436116756438153,
                1.810964973027001,
                2.097928834572168,
                0.010770438634473856,
                -0.5564400285339598
            ]
        },
        {
            "positions": [
                0.2997726335636152,
                -2.4084655938403507,
                1.8416950835184442,
                1.9624897930253948,
                0.047978213994735924,
                -0.6921763838856198
            ]
        },
        {
            "positions": [
                0.3225590262267152,
                -2.380814431242548,
                1.8724251940098877,
                1.8270507514786216,
                0.08518598935499797,
                -0.8279127392372796
            ]
        },
        {
            "positions": [
                0.3453454188898151,
                -2.3531632686447455,
                1.903155304501331,
                1.6916117099318484,
                0.12239376471526003,
                -0.9636490945889397
            ]
        },
        {
            "positions": [
                0.3681318115529151,
                -2.3255121060469426,
                1.9338854149927744,
                1.5561726683850752,
                0.15960154007552207,
                -1.0993854499405995
            ]
        },
        {
            "positions": [
                0.39091820421601503,
                -2.2978609434491397,
                1.9646155254842177,
                1.420733626838302,
                0.19680931543578417,
                -1.2351218052922595
            ]
        },
        {
            "positions": [
                0.413704596879115,
                -2.2702097808513373,
                1.995345635975661,
                1.2852945852915287,
                0.2340170907960462,
                -1.3708581606439194
            ]
        },
        {
            "positions": [
                0.43649098954221494,
                -2.2425586182535344,
                2.026075746467104,
                1.1498555437447555,
                0.2712248661563083,
                -1.5065945159955794
            ]
        },
        {
            "positions": [
                0.45927738220531483,
                -2.214907455655732,
                2.056805856958548,
                1.0144165021979825,
                0.3084326415165703,
                -1.642330871347239
            ]
        },
        {
            "positions": [
                0.4820637748684148,
                -2.187256293057929,
                2.087535967449991,
                0.8789774606512093,
                0.34564041687683233,
                -1.778067226698899
            ]
        },
        {
            "positions": [
                0.5048501675315148,
                -2.1596051304601263,
                2.1182660779414344,
                0.7435384191044359,
                0.38284819223709443,
                -1.9138035820505592
            ]
        },
        {
            "positions": [
                0.5276365601946147,
                -2.131953967862324,
                2.1489961884328777,
                0.6080993775576626,
                0.4200559675973565,
                -2.049539937402219
            ]
        },
        {
            "positions": [
                0.5504229528577147,
                -2.104302805264521,
                2.1797262989243213,
                0.47266033601088964,
                0.4572637429576185,
                -2.185276292753879
            ]
        },
        {
            "positions": [
                0.5732093455208146,
                -2.076651642666718,
                2.210456409415764,
                0.33722129446411664,
                0.4944715183178806,
                -2.3210126481055386
            ]
        },
        {
            "positions": [
                0.5959957381839146,
                -2.0490004800689157,
                2.241186519907208,
                0.2017822529173432,
                0.5316792936781427,
                -2.456749003457199
            ]
        },
        {
            "positions": [
                0.6187821308470145,
                -2.021349317471113,
                2.271916630398651,
                0.0663432113705702,
                0.5688870690384047,
                -2.5924853588088586
            ]
        },
        {
            "positions": [
                0.6415685235101145,
                -1.9936981548733101,
                2.3026467408900944,
                -0.06909583017620324,
                0.6060948443986668,
                -2.7282217141605187
            ]
        },
        {
            "positions": [
                0.6643549161732144,
                -1.9660469922755075,
                2.333376851381538,
                -0.20453487172297624,
                0.6433026197589288,
                -2.8639580695121785
            ]
        },
        {
            "positions": [
                0.6871413088363144,
                -1.9383958296777046,
                2.3641069618729813,
                -0.3399739132697497,
                0.680510395119191,
                -2.9996944248638386
            ]
        },
        {
            "positions": [
                0.7099277014994143,
                -1.910744667079902,
                2.3948370723644246,
                -0.47541295481652257,
                0.717718170479453,
                -3.1354307802154984
            ]
        }
    ]
}