{
    "goal": {
        "global_pose": {
            "orientation": {
                "w": 0.7031023502349854,
                "x": -0.7110244035720825,
                "y": 0.007748599164187908,
                "z": 0.005598929710686207
            },
            "position": {
                "x": 0.11585023208521307,
                "y": 0.44412534475326537,
                "z": 0.3711530566215515
            }
        },
        "name": "move_to_auspresseinheit_A"
    },
    "id": "SBL_move_to_auspresseinheit_A_64",
    "joint_names": [
        "shoulder_pan_joint",
        "shoulder_lift_joint",
        "elbow_joint",
        "wrist_1_joint",
        "wrist_2_joint",
        "wrist_3_joint"
    ],
    "metrics": {
        "cart_traj_len": 1.8081356334312986,
        "distance_elbow_joint": 1.9068709834298967,
        "distance_shoulder_lift_joint": 0.8137869432959945,
        "distance_shoulder_pan_joint": 1.043732831420297,
        "distance_wrist_1_joint": 1.4246787303467587,
        "distance_wrist_2_joint": 0.7899649607386963,
        "distance_wrist_3_joint": 0.999395061966184,
        "smoothness": 1.1729075049125002,
        "time": 0.20830626600000002,
        "traj_len": 2.6416717266151424,
        "weighted_distance": 3.345424237105908
    },
    "planner": "SBL",
    "start": {
        "state": {
            "elbow_joint": 2.422574709923281,
            "shoulder_lift_joint": -1.3736533754116391,
            "shoulder_pan_joint": -0.33786336945926293,
            "wrist_1_joint": -1.0288603412921917,
            "wrist_2_joint": 1.2330224858903978,
            "wrist_3_joint": -3.094022268022082
        }
    },
    "waypoints": [
        {
            "positions": [
                -0.33786336945926293,
                -1.3736533754116391,
                2.422574709923281,
                -1.0288603412921917,
                1.2330224858903978,
                -3.094022268022082
            ]
        },
        {
            "positions": [
                -0.25717774819235695,
                -1.4149972601115162,
                2.301488382034182,
                -1.0343261599915499,
                1.1799241542147376,
                -3.0342794704734923
            ]
        },
        {
            "positions": [
                -0.1764921269254509,
                -1.4563411448113932,
                2.180402054145083,
                -1.0397919786909078,
                1.1268258225390775,
                -2.9745366729249025
            ]
        },
        {
            "positions": [
                -0.0958065056585449,
                -1.4976850295112705,
                2.059315726255984,
                -1.045257797390266,
                1.0737274908634173,
                -2.9147938753763127
            ]
        },
        {
            "positions": [
                -0.015120884391638889,
                -1.5390289142111475,
                1.9382293983668852,
                -1.0507236160896238,
                1.0206291591877572,
                -2.8550510778277225
            ]
        },
        {
            "positions": [
                0.06556473687526715,
                -1.5803727989110246,
                1.8171430704777862,
                -1.056189434788982,
                0.9675308275120972,
                -2.7953082802791327
            ]
        },
        {
            "positions": [
                0.14625035814217313,
                -1.6217166836109018,
                1.6960567425886874,
                -1.0616552534883401,
                0.9144324958364372,
                -2.735565482730543
            ]
        },
        {
            "positions": [
                0.2269359794090791,
                -1.6630605683107789,
                1.5749704146995884,
                -1.067121072187698,
                0.861334164160777,
                -2.675822685181953
            ]
        },
        {
            "positions": [
                0.3076216006759851,
                -1.704404453010656,
                1.4538840868104894,
                -1.0725868908870562,
                0.8082358324851169,
                -2.6160798876333633
            ]
        },
        {
            "positions": [
                0.36235978826627785,
                -1.7534768062917556,
                1.525286358004953,
                -0.9305053582511188,
                0.7748650455577994,
                -2.628480806398836
            ]
        },
        {
            "positions": [
                0.41709797585657066,
                -1.8025491595728556,
                1.5966886291994165,
                -0.7884238256151814,
                0.741494258630482,
                -2.640881725164308
            ]
        },
        {
            "positions": [
                0.4718361634468634,
                -1.8516215128539553,
                1.6680909003938802,
                -0.646342292979244,
                0.7081234717031646,
                -2.6532826439297805
            ]
        },
        {
            "positions": [
                0.5265743510371562,
                -1.900693866135055,
                1.7394931715883437,
                -0.5042607603433066,
                0.6747526847758472,
                -2.6656835626952526
            ]
        },
        {
            "positions": [
                0.5813125386274489,
                -1.949766219416155,
                1.8108954427828072,
                -0.3621792277073691,
                0.6413818978485297,
                -2.678084481460725
            ]
        },
        {
            "positions": [
                0.6360507262177417,
                -1.9988385726972546,
                1.882297713977271,
                -0.22009769507143173,
                0.6080111109212123,
                -2.6904854002261973
            ]
        },
        {
            "positions": [
                0.6907889138080345,
                -2.0479109259783543,
                1.9536999851717345,
                -0.07801616243549431,
                0.5746403239938949,
                -2.70288631899167
            ]
        },
        {
            "positions": [
                0.6945590508462843,
                -2.0130285777960344,
                2.0632911006606993,
                -0.17461152551057735,
                0.6075360237044432,
                -2.8115478815464594
            ]
        },
        {
            "positions": [
                0.6983291878845341,
                -1.9781462296137147,
                2.1728822161496644,
                -0.27120688858566033,
                0.6404317234149915,
                -2.920209444101249
            ]
        },
        {
            "positions": [
                0.7020993249227838,
                -1.943263881431395,
                2.2824733316386294,
                -0.3678022516607434,
                0.67332742312554,
                -3.028871006656039
            ]
        },
        {
            "positions": [
                0.7058694619610336,
                -1.908381533249075,
                2.3920644471275945,
                -0.4643976147358264,
                0.7062231228360882,
                -3.1375325692108285
            ]
        }
    ]
}