{
    "goal": {
        "global_pose": {
            "orientation": {
                "w": 0.7031023502349854,
                "x": -0.7110244035720825,
                "y": 0.007748599164187908,
                "z": 0.005598929710686207
            },
            "position": {
                "x": 0.11585023208521307,
                "y": 0.44412534475326537,
                "z": 0.3711530566215515
            }
        },
        "name": "move_to_auspresseinheit_A"
    },
    "id": "SBL_move_to_auspresseinheit_A_57",
    "joint_names": [
        "shoulder_pan_joint",
        "shoulder_lift_joint",
        "elbow_joint",
        "wrist_1_joint",
        "wrist_2_joint",
        "wrist_3_joint"
    ],
    "metrics": {
        "cart_traj_len": 1.471225757084379,
        "distance_elbow_joint": 0.5618088013354257,
        "distance_shoulder_lift_joint": 0.5344621904807125,
        "distance_shoulder_pan_joint": 2.167894228732364,
        "distance_wrist_1_joint": 7.861305570810685,
        "distance_wrist_2_joint": 0.6474080009968224,
        "distance_wrist_3_joint": 1.1147701699349502,
        "smoothness": 0.8670581037306149,
        "time": 0.225121134,
        "traj_len": 3.5899371808279543,
        "weighted_distance": 4.86064840057048
    },
    "planner": "SBL",
    "start": {
        "state": {
            "elbow_joint": 2.422574709923281,
            "shoulder_lift_joint": -1.3736533754116391,
            "shoulder_pan_joint": -0.33786336945926293,
            "wrist_1_joint": -1.0288603412921917,
            "wrist_2_joint": 1.2330224858903978,
            "wrist_3_joint": -3.094022268022082
        }
    },
    "waypoints": [
        {
            "positions": [
                -0.33786336945926293,
                -1.3736533754116391,
                2.422574709923281,
                -1.0288603412921917,
                1.2330224858903978,
                -3.094022268022082
            ]
        },
        {
            "positions": [
                -0.39690696964896194,
                -1.3847178602999481,
                2.3873117377022406,
                -0.9469466605925961,
                1.2058881942212492,
                -2.960358795339815
            ]
        },
        {
            "positions": [
                -0.455950569838661,
                -1.3957823451882572,
                2.3520487654812,
                -0.8650329798930005,
                1.1787539025521008,
                -2.8266953226575486
            ]
        },
        {
            "positions": [
                -0.51499417002836,
                -1.4068468300765662,
                2.3167857932601597,
                -0.783119299193405,
                1.1516196108829524,
                -2.6930318499752817
            ]
        },
        {
            "positions": [
                -0.574037770218059,
                -1.4179113149648752,
                2.281522821039119,
                -0.7012056184938094,
                1.1244853192138038,
                -2.5593683772930147
            ]
        },
        {
            "positions": [
                -0.5957876851296542,
                -1.443100809171956,
                2.299257626452543,
                -0.44228157237472354,
                1.0924545745802396,
                -2.579792360106712
            ]
        },
        {
            "positions": [
                -0.6175376000412494,
                -1.4682903033790367,
                2.3169924318659665,
                -0.18335752625563773,
                1.0604238299466757,
                -2.6002163429204095
            ]
        },
        {
            "positions": [
                -0.6392875149528445,
                -1.4934797975861174,
                2.3347272372793904,
                0.07556651986344809,
                1.0283930853131116,
                -2.6206403257341067
            ]
        },
        {
            "positions": [
                -0.6610374298644397,
                -1.518669291793198,
                2.352462042692814,
                0.3344905659825339,
                0.9963623406795475,
                -2.6410643085478043
            ]
        },
        {
            "positions": [
                -0.6827873447760348,
                -1.543858786000279,
                2.3701968481062377,
                0.5934146121016197,
                0.9643315960459835,
                -2.6614882913615014
            ]
        },
        {
            "positions": [
                -0.7045372596876299,
                -1.5690482802073598,
                2.3879316535196615,
                0.8523386582207055,
                0.9323008514124194,
                -2.681912274175199
            ]
        },
        {
            "positions": [
                -0.7262871745992251,
                -1.5942377744144405,
                2.405666458933085,
                1.1112627043397914,
                0.9002701067788553,
                -2.7023362569888962
            ]
        },
        {
            "positions": [
                -0.7480370895108203,
                -1.6194272686215212,
                2.423401264346509,
                1.3701867504588772,
                0.8682393621452913,
                -2.722760239802594
            ]
        },
        {
            "positions": [
                -0.7697870044224154,
                -1.644616762828602,
                2.4411360697599322,
                1.629110796577963,
                0.8362086175117271,
                -2.743184222616291
            ]
        },
        {
            "positions": [
                -0.7915369193340105,
                -1.6698062570356826,
                2.458870875173356,
                1.8880348426970488,
                0.8041778728781631,
                -2.7636082054299886
            ]
        },
        {
            "positions": [
                -0.8132868342456057,
                -1.6949957512427636,
                2.47660568058678,
                2.1469588888161346,
                0.7721471282445991,
                -2.784032188243686
            ]
        },
        {
            "positions": [
                -0.8350367491572008,
                -1.7201852454498443,
                2.4943404860002034,
                2.4058829349352204,
                0.7401163836110349,
                -2.8044561710573834
            ]
        },
        {
            "positions": [
                -0.856786664068796,
                -1.745374739656925,
                2.5120752914136273,
                2.6648069810543062,
                0.7080856389774708,
                -2.8248801538710806
            ]
        },
        {
            "positions": [
                -0.8785365789803912,
                -1.7705642338640057,
                2.5298100968270507,
                2.923731027173392,
                0.6760548943439069,
                -2.8453041366847778
            ]
        },
        {
            "positions": [
                -0.9002864938919863,
                -1.7957537280710865,
                2.5475449022404746,
                3.182655073292478,
                0.6440241497103427,
                -2.8657281194984754
            ]
        },
        {
            "positions": [
                -0.793255086938677,
                -1.803244517259171,
                2.5372292468238142,
                2.939335729544077,
                0.6479181273647939,
                -2.8839785552985036
            ]
        },
        {
            "positions": [
                -0.6862236799853676,
                -1.810735306447255,
                2.5269135914071534,
                2.6960163857956756,
                0.651812105019245,
                -2.9022289910985317
            ]
        },
        {
            "positions": [
                -0.5791922730320581,
                -1.8182260956353395,
                2.516597935990493,
                2.4526970420472747,
                0.6557060826736962,
                -2.92047942689856
            ]
        },
        {
            "positions": [
                -0.47216086607874874,
                -1.8257168848234238,
                2.5062822805738323,
                2.2093776982988733,
                0.6596000603281473,
                -2.938729862698588
            ]
        },
        {
            "positions": [
                -0.36512945912543937,
                -1.8332076740115082,
                2.495966625157172,
                1.9660583545504724,
                0.6634940379825985,
                -2.956980298498616
            ]
        },
        {
            "positions": [
                -0.2580980521721299,
                -1.8406984631995926,
                2.485650969740511,
                1.722739010802071,
                0.6673880156370496,
                -2.9752307342986444
            ]
        },
        {
            "positions": [
                -0.15106664521882052,
                -1.8481892523876768,
                2.475335314323851,
                1.47941966705367,
                0.6712819932915008,
                -2.9934811700986725
            ]
        },
        {
            "positions": [
                -0.044035238265511145,
                -1.8556800415757613,
                2.46501965890719,
                1.236100323305269,
                0.6751759709459519,
                -3.0117316058987003
            ]
        },
        {
            "positions": [
                0.06299616868779823,
                -1.8631708307638455,
                2.4547040034905296,
                0.9927809795568678,
                0.6790699486004032,
                -3.0299820416987284
            ]
        },
        {
            "positions": [
                0.1700275756411076,
                -1.87066161995193,
                2.444388348073869,
                0.7494616358084669,
                0.6829639262548542,
                -3.0482324774987566
            ]
        },
        {
            "positions": [
                0.27705898259441697,
                -1.8781524091400144,
                2.4340726926572085,
                0.5061422920600656,
                0.6868579039093055,
                -3.0664829132987848
            ]
        },
        {
            "positions": [
                0.38409038954772656,
                -1.8856431983280986,
                2.4237570372405477,
                0.2628229483116642,
                0.6907518815637566,
                -3.084733349098813
            ]
        },
        {
            "positions": [
                0.49112179650103593,
                -1.893133987516183,
                2.4134413818238873,
                0.019503604563263277,
                0.6946458592182078,
                -3.102983784898841
            ]
        },
        {
            "positions": [
                0.5981532034543453,
                -1.9006247767042672,
                2.4031257264072265,
                -0.22381573918513809,
                0.698539836872659,
                -3.1212342206988692
            ]
        },
        {
            "positions": [
                0.7051846104076547,
                -1.9081155658923517,
                2.392810070990566,
                -0.46713508293353884,
                0.7024338145271101,
                -3.1394846564988974
            ]
        }
    ]
}