{
    "goal": {
        "global_pose": {
            "orientation": {
                "w": 0.7047431468963623,
                "x": -0.7094548344612122,
                "y": 0.0024358443915843964,
                "z": -0.0022348060738295317
            },
            "position": {
                "x": 0.6094750761985779,
                "y": 0.3671506643295288,
                "z": 0.19426114857196808
            }
        },
        "name": "move_to_magneteinheit_A"
    },
    "id": "SBL_move_to_magneteinheit_A_60",
    "joint_names": [
        "shoulder_pan_joint",
        "shoulder_lift_joint",
        "elbow_joint",
        "wrist_1_joint",
        "wrist_2_joint",
        "wrist_3_joint"
    ],
    "metrics": {
        "cart_traj_len": 2.064407552730323,
        "distance_elbow_joint": 3.877606639469824,
        "distance_shoulder_lift_joint": 1.054705263473764,
        "distance_shoulder_pan_joint": 1.2419460916326257,
        "distance_wrist_1_joint": 1.1354142733971289,
        "distance_wrist_2_joint": 1.431108389434715,
        "distance_wrist_3_joint": 1.9119603141447121,
        "smoothness": 2.5376526478085547e-16,
        "time": 0.229853171,
        "traj_len": 3.2638536994713423,
        "weighted_distance": 4.128339165169698
    },
    "planner": "SBL",
    "start": {
        "state": {
            "elbow_joint": -1.919643507792019,
            "shoulder_lift_joint": -0.07675430207160344,
            "shoulder_pan_joint": -1.1188671864651873,
            "wrist_1_joint": 0.42560062535961957,
            "wrist_2_joint": 1.5706038300724876,
            "wrist_3_joint": 1.1188968870953055
        }
    },
    "waypoints": [
        {
            "positions": [
                -1.1188671864651873,
                -0.07675430207160344,
                -1.919643507792019,
                0.42560062535961957,
                1.5706038300724876,
                1.1188968870953055
            ]
        },
        {
            "positions": [
                -1.0728691830713863,
                -0.11581745997803913,
                -1.7760284470709145,
                0.3835482448634296,
                1.5175998156489796,
                1.1897102320636281
            ]
        },
        {
            "positions": [
                -1.0268711796775853,
                -0.15488061788447482,
                -1.63241338634981,
                0.34149586436723967,
                1.4645958012254716,
                1.260523577031951
            ]
        },
        {
            "positions": [
                -0.9808731762837846,
                -0.19394377579091054,
                -1.4887983256287054,
                0.2994434838710497,
                1.4115917868019636,
                1.3313369220002735
            ]
        },
        {
            "positions": [
                -0.9348751728899836,
                -0.23300693369734624,
                -1.3451832649076008,
                0.2573911033748597,
                1.3585877723784558,
                1.4021502669685963
            ]
        },
        {
            "positions": [
                -0.8888771694961826,
                -0.2720700916037819,
                -1.2015682041864961,
                0.21533872287866979,
                1.3055837579549479,
                1.472963611936919
            ]
        },
        {
            "positions": [
                -0.8428791661023817,
                -0.31113324951021765,
                -1.0579531434653915,
                0.1732863423824798,
                1.2525797435314399,
                1.5437769569052415
            ]
        },
        {
            "positions": [
                -0.7968811627085808,
                -0.3501964074166533,
                -0.9143380827442871,
                0.13123396188628988,
                1.1995757291079319,
                1.6145903018735641
            ]
        },
        {
            "positions": [
                -0.7508831593147798,
                -0.38925956532308903,
                -0.7707230220231824,
                0.0891815813900999,
                1.1465717146844239,
                1.685403646841887
            ]
        },
        {
            "positions": [
                -0.7048851559209788,
                -0.42832272322952475,
                -0.6271079613020778,
                0.047129200893909984,
                1.093567700260916,
                1.7562169918102095
            ]
        },
        {
            "positions": [
                -0.6588871525271778,
                -0.4673858811359604,
                -0.4834929005809734,
                0.0050768203977200055,
                1.0405636858374079,
                1.8270303367785323
            ]
        },
        {
            "positions": [
                -0.6128891491333769,
                -0.5064490390423961,
                -0.33987783985986875,
                -0.03697556009846992,
                0.9875596714139001,
                1.897843681746855
            ]
        },
        {
            "positions": [
                -0.566891145739576,
                -0.5455121969488319,
                -0.1962627791387641,
                -0.07902794059465995,
                0.9345556569903921,
                1.9686570267151775
            ]
        },
        {
            "positions": [
                -0.520893142345775,
                -0.5845753548552675,
                -0.05264771841765947,
                -0.12108032109084982,
                0.8815516425668841,
                2.0394703716835
            ]
        },
        {
            "positions": [
                -0.4748951389519741,
                -0.6236385127617032,
                0.09096734230344494,
                -0.1631327015870398,
                0.8285476281433762,
                2.110283716651823
            ]
        },
        {
            "positions": [
                -0.428897135558173,
                -0.662701670668139,
                0.23458240302455002,
                -0.20518508208322978,
                0.7755436137198681,
                2.1810970616201457
            ]
        },
        {
            "positions": [
                -0.3828991321643721,
                -0.7017648285745746,
                0.3781974637456542,
                -0.24723746257941975,
                0.7225395992963602,
                2.2519104065884683
            ]
        },
        {
            "positions": [
                -0.3369011287705711,
                -0.7408279864810103,
                0.5218125244667589,
                -0.28928984307560973,
                0.6695355848728523,
                2.322723751556791
            ]
        },
        {
            "positions": [
                -0.2909031253767702,
                -0.7798911443874461,
                0.6654275851878635,
                -0.3313422235717996,
                0.6165315704493444,
                2.3935370965251135
            ]
        },
        {
            "positions": [
                -0.2449051219829692,
                -0.8189543022938817,
                0.8090426459089681,
                -0.3733946040679897,
                0.5635275560258364,
                2.464350441493436
            ]
        },
        {
            "positions": [
                -0.19890711858916832,
                -0.8580174602003174,
                0.9526577066300723,
                -0.41544698456417956,
                0.5105235416023284,
                2.5351637864617587
            ]
        },
        {
            "positions": [
                -0.15290911519536732,
                -0.8970806181067532,
                1.0962727673511774,
                -0.45749936506036953,
                0.4575195271788204,
                2.6059771314300817
            ]
        },
        {
            "positions": [
                -0.10691111180156643,
                -0.9361437760131888,
                1.2398878280722816,
                -0.4995517455565594,
                0.4045155127553126,
                2.6767904763984043
            ]
        },
        {
            "positions": [
                -0.060913108407765426,
                -0.9752069339196245,
                1.3835028887933867,
                -0.5416041260527495,
                0.3515114983318044,
                2.7476038213667273
            ]
        },
        {
            "positions": [
                -0.014915105013964647,
                -1.0142700918260603,
                1.5271179495144909,
                -0.5836565065489394,
                0.2985074839082966,
                2.8184171663350495
            ]
        },
        {
            "positions": [
                0.031082898379836355,
                -1.0533332497324959,
                1.6707330102355955,
                -0.6257088870451293,
                0.24550346948478863,
                2.8892305113033725
            ]
        },
        {
            "positions": [
                0.07708090177363736,
                -1.0923964076389316,
                1.8143480709567001,
                -0.6677612675413191,
                0.19249945506128063,
                2.960043856271695
            ]
        },
        {
            "positions": [
                0.12307890516743827,
                -1.1314595655453674,
                1.957963131677805,
                -0.7098136480375092,
                0.13949544063777258,
                3.0308572012400177
            ]
        }
    ]
}