{
    "goal": {
        "global_pose": {
            "orientation": {
                "w": 0.7031023502349854,
                "x": -0.7110244035720825,
                "y": 0.007748599164187908,
                "z": 0.005598929710686207
            },
            "position": {
                "x": 0.11585023208521307,
                "y": 0.44412534475326537,
                "z": 0.3711530566215515
            }
        },
        "name": "move_to_auspresseinheit_A"
    },
    "id": "SBL_move_to_auspresseinheit_A_78",
    "joint_names": [
        "shoulder_pan_joint",
        "shoulder_lift_joint",
        "elbow_joint",
        "wrist_1_joint",
        "wrist_2_joint",
        "wrist_3_joint"
    ],
    "metrics": {
        "cart_traj_len": 0.734781377155227,
        "distance_elbow_joint": 0.21513325105054504,
        "distance_shoulder_lift_joint": 0.648340162656365,
        "distance_shoulder_pan_joint": 1.0441941388958318,
        "distance_wrist_1_joint": 1.2251042929942078,
        "distance_wrist_2_joint": 1.26834522751287,
        "distance_wrist_3_joint": 0.3954423757770824,
        "smoothness": 1.6216760993557515,
        "time": 0.498476592,
        "traj_len": 2.1901048944940746,
        "weighted_distance": 2.8426912813297442
    },
    "planner": "SBL",
    "start": {
        "state": {
            "elbow_joint": 2.422574709923281,
            "shoulder_lift_joint": -1.3736533754116391,
            "shoulder_pan_joint": -0.33786336945926293,
            "wrist_1_joint": -1.0288603412921917,
            "wrist_2_joint": 1.2330224858903978,
            "wrist_3_joint": -3.094022268022082
        }
    },
    "waypoints": [
        {
            "positions": [
                -0.33786336945926293,
                -1.3736533754116391,
                2.422574709923281,
                -1.0288603412921917,
                1.2330224858903978,
                -3.094022268022082
            ]
        },
        {
            "positions": [
                -0.2510704458219158,
                -1.4393676169953316,
                2.4089523081179527,
                -0.9297286633156296,
                1.1330226271497879,
                -3.0737741270728316
            ]
        },
        {
            "positions": [
                -0.16427752218456868,
                -1.5050818585790242,
                2.3953299063126243,
                -0.8305969853390676,
                1.033022768409178,
                -3.053525986123581
            ]
        },
        {
            "positions": [
                -0.07748459854722156,
                -1.5707961001627166,
                2.3817075045072955,
                -0.7314653073625055,
                0.9330229096685678,
                -3.0332778451743305
            ]
        },
        {
            "positions": [
                0.00930832509012558,
                -1.636510341746409,
                2.368085102701967,
                -0.6323336293859434,
                0.8330230509279579,
                -3.01302970422508
            ]
        },
        {
            "positions": [
                0.09610124872747272,
                -1.7022245833301017,
                2.354462700896639,
                -0.5332019514093813,
                0.7330231921873479,
                -2.9927815632758294
            ]
        },
        {
            "positions": [
                0.1828941723648198,
                -1.7679388249137942,
                2.3408402990913104,
                -0.43407027343281923,
                0.633023333446738,
                -2.972533422326579
            ]
        },
        {
            "positions": [
                0.26968709600216695,
                -1.8336530664974866,
                2.3272178972859816,
                -0.33493859545625715,
                0.533023474706128,
                -2.9522852813773284
            ]
        },
        {
            "positions": [
                0.3564800196395141,
                -1.899367308081179,
                2.3135954954806532,
                -0.23580691747969507,
                0.4330236159655181,
                -2.932037140428078
            ]
        },
        {
            "positions": [
                0.4432729432768612,
                -1.9650815496648717,
                2.299973093675325,
                -0.13667523950313293,
                0.33302375722490807,
                -2.9117889994788273
            ]
        },
        {
            "positions": [
                0.5090373998167881,
                -1.9508535525640887,
                2.323106002375972,
                -0.21990503730442013,
                0.4251103819367532,
                -2.9650912762872843
            ]
        },
        {
            "positions": [
                0.574801856356715,
                -1.9366255554633054,
                2.346238911076619,
                -0.3031348351057073,
                0.5171970066485984,
                -3.0183935530957413
            ]
        },
        {
            "positions": [
                0.6405663128966419,
                -1.9223975583625224,
                2.3693718197772666,
                -0.3863646329069945,
                0.6092836313604435,
                -3.071695829904198
            ]
        },
        {
            "positions": [
                0.7063307694365688,
                -1.9081695612617393,
                2.3925047284779137,
                -0.4695944307082817,
                0.7013702560722886,
                -3.124998106712655
            ]
        }
    ]
}