{
    "goal": {
        "global_pose": {
            "orientation": {
                "w": 0.5084816217422485,
                "x": -0.49083608388900757,
                "y": 0.5182115435600281,
                "z": -0.4816462993621826
            },
            "position": {
                "x": 0.5540239810943604,
                "y": 0.030875300988554955,
                "z": 0.16403168439865112
            }
        },
        "name": "move_to_storage_A"
    },
    "id": "SBL_move_to_storage_A_137",
    "joint_names": [
        "shoulder_pan_joint",
        "shoulder_lift_joint",
        "elbow_joint",
        "wrist_1_joint",
        "wrist_2_joint",
        "wrist_3_joint"
    ],
    "metrics": {
        "cart_traj_len": 0.3523918813792025,
        "distance_elbow_joint": 0.45277509159048535,
        "distance_shoulder_lift_joint": 0.23470196673956578,
        "distance_shoulder_pan_joint": 0.46216060934734754,
        "distance_wrist_1_joint": 0.25323344703709394,
        "distance_wrist_2_joint": 1.0921833958927114,
        "distance_wrist_3_joint": 0.10452682939206737,
        "smoothness": 0.0,
        "time": 0.13785392200000002,
        "traj_len": 1.612321723478063,
        "weighted_distance": 2.038149121559365
    },
    "planner": "SBL",
    "start": {
        "state": {
            "elbow_joint": 1.9715463870305268,
            "shoulder_lift_joint": -1.1394903361783484,
            "shoulder_pan_joint": 0.12281147578464417,
            "wrist_1_joint": -0.7804599489681411,
            "wrist_2_joint": 0.12958660307563738,
            "wrist_3_joint": -3.1924946282119055
        }
    },
    "waypoints": [
        {
            "positions": [
                0.12281147578464417,
                -1.1394903361783484,
                1.9715463870305268,
                -0.7804599489681411,
                0.12958660307563738,
                -3.1924946282119055
            ]
        },
        {
            "positions": [
                0.05678853159216596,
                -1.173019188569715,
                2.0362285429720246,
                -0.816636155687726,
                0.2856128024888819,
                -3.177562224013039
            ]
        },
        {
            "positions": [
                -0.009234412600312256,
                -1.2065480409610814,
                2.1009106989135224,
                -0.8528123624073107,
                0.44163900190212635,
                -3.162629819814172
            ]
        },
        {
            "positions": [
                -0.07525735679279048,
                -1.240076893352448,
                2.1655928548550203,
                -0.8889885691268956,
                0.5976652013153708,
                -3.1476974156153052
            ]
        },
        {
            "positions": [
                -0.14128030098526867,
                -1.2736057457438146,
                2.230275010796518,
                -0.9251647758464805,
                0.7536914007286153,
                -3.1327650114164385
            ]
        },
        {
            "positions": [
                -0.2073032451777469,
                -1.3071345981351812,
                2.2949571667380164,
                -0.9613409825660653,
                0.9097176001418599,
                -3.1178326072175717
            ]
        },
        {
            "positions": [
                -0.2733261893702251,
                -1.3406634505265476,
                2.3596393226795143,
                -0.9975171892856501,
                1.0657437995551042,
                -3.102900203018705
            ]
        },
        {
            "positions": [
                -0.33934913356270335,
                -1.3741923029179142,
                2.424321478621012,
                -1.033693396005235,
                1.2217699989683488,
                -3.087967798819838
            ]
        }
    ]
}