{
    "goal": {
        "global_pose": {
            "orientation": {
                "w": 0.7031023502349854,
                "x": -0.7110244035720825,
                "y": 0.007748599164187908,
                "z": 0.005598929710686207
            },
            "position": {
                "x": 0.11585023208521307,
                "y": 0.44412534475326537,
                "z": 0.3711530566215515
            }
        },
        "name": "move_to_auspresseinheit_A"
    },
    "id": "SBL_move_to_auspresseinheit_A_135",
    "joint_names": [
        "shoulder_pan_joint",
        "shoulder_lift_joint",
        "elbow_joint",
        "wrist_1_joint",
        "wrist_2_joint",
        "wrist_3_joint"
    ],
    "metrics": {
        "cart_traj_len": 0.7666199996491299,
        "distance_elbow_joint": 0.5160119985587177,
        "distance_shoulder_lift_joint": 0.5329000551470395,
        "distance_shoulder_pan_joint": 1.0436083036343746,
        "distance_wrist_1_joint": 1.7073850460267916,
        "distance_wrist_2_joint": 1.0626018182153025,
        "distance_wrist_3_joint": 2.850237783261342,
        "smoothness": 1.098812344066768,
        "time": 0.40626971300000003,
        "traj_len": 2.777182926067991,
        "weighted_distance": 4.022835745541737
    },
    "planner": "SBL",
    "start": {
        "state": {
            "elbow_joint": 2.422574709923281,
            "shoulder_lift_joint": -1.3736533754116391,
            "shoulder_pan_joint": -0.33786336945926293,
            "wrist_1_joint": -1.0288603412921917,
            "wrist_2_joint": 1.2330224858903978,
            "wrist_3_joint": -3.094022268022082
        }
    },
    "waypoints": [
        {
            "positions": [
                -0.33786336945926293,
                -1.3736533754116391,
                2.422574709923281,
                -1.0288603412921917,
                1.2330224858903978,
                -3.094022268022082
            ]
        },
        {
            "positions": [
                -0.31112656748121414,
                -1.411845061088906,
                2.3977355936899096,
                -0.9252402121349463,
                1.1610252522991054,
                -2.966488500927305
            ]
        },
        {
            "positions": [
                -0.28438976550316536,
                -1.450036746766173,
                2.3728964774565386,
                -0.8216200829777008,
                1.089028018707813,
                -2.8389547338325283
            ]
        },
        {
            "positions": [
                -0.25765296352511663,
                -1.4882284324434398,
                2.348057361223167,
                -0.7179999538204554,
                1.0170307851165206,
                -2.711420966737751
            ]
        },
        {
            "positions": [
                -0.23091616154706784,
                -1.5264201181207067,
                2.3232182449897962,
                -0.61437982466321,
                0.9450335515252282,
                -2.5838871996429744
            ]
        },
        {
            "positions": [
                -0.20417935956901906,
                -1.5646118037979735,
                2.298379128756425,
                -0.5107596955059646,
                0.8730363179339359,
                -2.4563534325481973
            ]
        },
        {
            "positions": [
                -0.1774425575909703,
                -1.6028034894752405,
                2.273540012523054,
                -0.4071395663487192,
                0.8010390843426436,
                -2.3288196654534206
            ]
        },
        {
            "positions": [
                -0.15070575561292152,
                -1.6409951751525074,
                2.2487008962896824,
                -0.3035194371914738,
                0.7290418507513511,
                -2.2012858983586434
            ]
        },
        {
            "positions": [
                -0.12396895363487273,
                -1.6791868608297742,
                2.2238617800563114,
                -0.19989930803422828,
                0.6570446171600587,
                -2.0737521312638663
            ]
        },
        {
            "positions": [
                -0.09723215165682395,
                -1.717378546507041,
                2.19902266382294,
                -0.09627917887698278,
                0.5850473835687663,
                -1.9462183641690896
            ]
        },
        {
            "positions": [
                -0.07049534967877519,
                -1.755570232184308,
                2.174183547589569,
                0.007340950280262604,
                0.513050149977474,
                -1.8186845970743126
            ]
        },
        {
            "positions": [
                -0.0437585477007264,
                -1.793761917861575,
                2.1493444313561976,
                0.11096107943750803,
                0.4410529163861816,
                -1.6911508299795357
            ]
        },
        {
            "positions": [
                0.03951961695214448,
                -1.806294308161253,
                2.1763201780219346,
                0.04789845440449779,
                0.47112316624296896,
                -1.8519693127816241
            ]
        },
        {
            "positions": [
                0.12279778160501537,
                -1.8188266984609314,
                2.203295924687672,
                -0.015164170628512455,
                0.5011934160997563,
                -2.0127877955837126
            ]
        },
        {
            "positions": [
                0.20607594625788628,
                -1.8313590887606095,
                2.230271671353409,
                -0.0782267956615227,
                0.5312636659565437,
                -2.173606278385801
            ]
        },
        {
            "positions": [
                0.28935411091075713,
                -1.8438914790602876,
                2.257247418019146,
                -0.14128942069453293,
                0.5613339158133311,
                -2.334424761187889
            ]
        },
        {
            "positions": [
                0.3726322755636281,
                -1.856423869359966,
                2.2842231646848834,
                -0.20435204572754323,
                0.5914041656701186,
                -2.495243243989978
            ]
        },
        {
            "positions": [
                0.45591044021649896,
                -1.868956259659644,
                2.3111989113506204,
                -0.2674146707605534,
                0.6214744155269059,
                -2.656061726792066
            ]
        },
        {
            "positions": [
                0.5391886048693698,
                -1.8814886499593222,
                2.3381746580163574,
                -0.3304772957935637,
                0.6515446653836933,
                -2.8168802095941547
            ]
        },
        {
            "positions": [
                0.6224667695222407,
                -1.8940210402590005,
                2.365150404682095,
                -0.3935399208265739,
                0.6816149152404806,
                -2.9776986923962427
            ]
        },
        {
            "positions": [
                0.7057449341751116,
                -1.9065534305586787,
                2.392126151347832,
                -0.4566025458595842,
                0.711685165097268,
                -3.138517175198331
            ]
        }
    ]
}