{
    "goal": {
        "global_pose": {
            "orientation": {
                "w": 0.5084816217422485,
                "x": -0.49083608388900757,
                "y": 0.5182115435600281,
                "z": -0.4816462993621826
            },
            "position": {
                "x": 0.5540239810943604,
                "y": 0.030875300988554955,
                "z": 0.16403168439865112
            }
        },
        "name": "move_to_storage_A"
    },
    "id": "SBL_move_to_storage_A_78",
    "joint_names": [
        "shoulder_pan_joint",
        "shoulder_lift_joint",
        "elbow_joint",
        "wrist_1_joint",
        "wrist_2_joint",
        "wrist_3_joint"
    ],
    "metrics": {
        "cart_traj_len": 0.3530422297921687,
        "distance_elbow_joint": 0.4500529027793485,
        "distance_shoulder_lift_joint": 0.2364984055985746,
        "distance_shoulder_pan_joint": 0.46171567925750573,
        "distance_wrist_1_joint": 0.23737351737556633,
        "distance_wrist_2_joint": 1.0997836718214347,
        "distance_wrist_3_joint": 0.10153031611151953,
        "smoothness": 1.3322676295501878e-15,
        "time": 0.14195184500000002,
        "traj_len": 1.608401222625732,
        "weighted_distance": 2.0315443175978194
    },
    "planner": "SBL",
    "start": {
        "state": {
            "elbow_joint": 1.9715463870305268,
            "shoulder_lift_joint": -1.1394903361783484,
            "shoulder_pan_joint": 0.12281147578464417,
            "wrist_1_joint": -0.7804599489681411,
            "wrist_2_joint": 0.12958660307563738,
            "wrist_3_joint": -3.1924946282119055
        }
    },
    "waypoints": [
        {
            "positions": [
                0.12281147578464417,
                -1.1394903361783484,
                1.9715463870305268,
                -0.7804599489681411,
                0.12958660307563738,
                -3.1924946282119055
            ]
        },
        {
            "positions": [
                0.05685209303357193,
                -1.1732758226924305,
                2.035839658856148,
                -0.8143704514503648,
                0.2866985561929852,
                -3.177990297338831
            ]
        },
        {
            "positions": [
                -0.009107289717500314,
                -1.2070613092065126,
                2.1001329306817693,
                -0.8482809539325886,
                0.44381050931033295,
                -3.1634859664657573
            ]
        },
        {
            "positions": [
                -0.07506667246857256,
                -1.2408467957205946,
                2.1644262025073906,
                -0.8821914564148123,
                0.6009224624276808,
                -3.148981635592683
            ]
        },
        {
            "positions": [
                -0.14102605521964479,
                -1.2746322822346767,
                2.2287194743330114,
                -0.9161019588970362,
                0.7580344155450286,
                -3.1344773047196086
            ]
        },
        {
            "positions": [
                -0.20698543797071706,
                -1.3084177687487588,
                2.2930127461586327,
                -0.9500124613792599,
                0.9151463686623764,
                -3.1199729738465343
            ]
        },
        {
            "positions": [
                -0.27294482072178927,
                -1.342203255262841,
                2.357306017984254,
                -0.9839229638614837,
                1.0722583217797241,
                -3.1054686429734604
            ]
        },
        {
            "positions": [
                -0.33890420347286154,
                -1.375988741776923,
                2.4215992898098753,
                -1.0178334663437074,
                1.229370274897072,
                -3.090964312100386
            ]
        }
    ]
}