{
    "goal": {
        "global_pose": {
            "orientation": {
                "w": 0.7031023502349854,
                "x": -0.7110244035720825,
                "y": 0.007748599164187908,
                "z": 0.005598929710686207
            },
            "position": {
                "x": 0.11585023208521307,
                "y": 0.44412534475326537,
                "z": 0.3711530566215515
            }
        },
        "name": "move_to_auspresseinheit_A"
    },
    "id": "SBL_move_to_auspresseinheit_A_62",
    "joint_names": [
        "shoulder_pan_joint",
        "shoulder_lift_joint",
        "elbow_joint",
        "wrist_1_joint",
        "wrist_2_joint",
        "wrist_3_joint"
    ],
    "metrics": {
        "cart_traj_len": 0.8881981708770474,
        "distance_elbow_joint": 0.30234506733305855,
        "distance_shoulder_lift_joint": 0.9746009783535132,
        "distance_shoulder_pan_joint": 1.044198144473906,
        "distance_wrist_1_joint": 1.709911429891816,
        "distance_wrist_2_joint": 0.5937165123977027,
        "distance_wrist_3_joint": 1.714222069057283,
        "smoothness": 1.2888817596531446,
        "time": 0.244509726,
        "traj_len": 2.517735927675355,
        "weighted_distance": 3.4743440074223164
    },
    "planner": "SBL",
    "start": {
        "state": {
            "elbow_joint": 2.422574709923281,
            "shoulder_lift_joint": -1.3736533754116391,
            "shoulder_pan_joint": -0.33786336945926293,
            "wrist_1_joint": -1.0288603412921917,
            "wrist_2_joint": 1.2330224858903978,
            "wrist_3_joint": -3.094022268022082
        }
    },
    "waypoints": [
        {
            "positions": [
                -0.33786336945926293,
                -1.3736533754116391,
                2.422574709923281,
                -1.0288603412921917,
                1.2330224858903978,
                -3.094022268022082
            ]
        },
        {
            "positions": [
                -0.3328834549767562,
                -1.3707046742685527,
                2.405434693815393,
                -1.0263259590739846,
                1.2318013233456244,
                -3.075766852497099
            ]
        },
        {
            "positions": [
                -0.24836514371061996,
                -1.4393386453727461,
                2.3919197257641494,
                -0.9236027059752123,
                1.1808012491291382,
                -3.001027153104201
            ]
        },
        {
            "positions": [
                -0.16384683244448375,
                -1.5079726164769396,
                2.378404757712906,
                -0.8208794528764402,
                1.129801174912652,
                -2.9262874537113035
            ]
        },
        {
            "positions": [
                -0.07932852117834754,
                -1.576606587581133,
                2.364889789661662,
                -0.718156199777668,
                1.078801100696166,
                -2.8515477543184056
            ]
        },
        {
            "positions": [
                0.005189790087788693,
                -1.6452405586853267,
                2.351374821610418,
                -0.6154329466788957,
                1.0278010264796797,
                -2.7768080549255076
            ]
        },
        {
            "positions": [
                0.08970810135392487,
                -1.7138745297895202,
                2.337859853559175,
                -0.5127096935801235,
                0.9768009522631935,
                -2.70206835553261
            ]
        },
        {
            "positions": [
                0.1742264126200611,
                -1.7825085008937136,
                2.324344885507931,
                -0.40998644048135136,
                0.9258008780467073,
                -2.6273286561397122
            ]
        },
        {
            "positions": [
                0.2587447238861973,
                -1.851142471997907,
                2.3108299174566875,
                -0.3072631873825791,
                0.8748008038302211,
                -2.5525889567468143
            ]
        },
        {
            "positions": [
                0.3432630351523336,
                -1.9197764431021005,
                2.2973149494054437,
                -0.2045399342838068,
                0.823800729613735,
                -2.477849257353917
            ]
        },
        {
            "positions": [
                0.4277813464184699,
                -1.9884104142062942,
                2.2837999813542,
                -0.10181668118503451,
                0.7728006553972487,
                -2.403109557961019
            ]
        },
        {
            "positions": [
                0.512299657684606,
                -2.0570443853104874,
                2.2702850133029564,
                0.0009065719137375527,
                0.7218005811807626,
                -2.3283698585681214
            ]
        },
        {
            "positions": [
                0.5968179689507422,
                -2.125678356414681,
                2.2567700452517125,
                0.10362982501250978,
                0.6708005069642764,
                -2.2536301591752235
            ]
        },
        {
            "positions": [
                0.6187213301635225,
                -2.0823426374018212,
                2.2840781257840104,
                -0.011854427704913087,
                0.6770994136585927,
                -2.4283961512173082
            ]
        },
        {
            "positions": [
                0.6406246913763026,
                -2.039006918388962,
                2.3113862063163086,
                -0.12733868042233595,
                0.6833983203529089,
                -2.603162143259393
            ]
        },
        {
            "positions": [
                0.6625280525890829,
                -1.995671199376102,
                2.3386942868486065,
                -0.24282293313975878,
                0.6896972270472252,
                -2.7779281353014778
            ]
        },
        {
            "positions": [
                0.684431413801863,
                -1.9523354803632422,
                2.3660023673809047,
                -0.3583071858571817,
                0.6959961337415415,
                -2.952694127343563
            ]
        },
        {
            "positions": [
                0.7063347750146433,
                -1.9089997613503826,
                2.3933104479132026,
                -0.4737914385746046,
                0.7022950404358578,
                -3.1274601193856477
            ]
        }
    ]
}