{
    "goal": {
        "global_pose": {
            "orientation": {
                "w": 0.7031023502349854,
                "x": -0.7110244035720825,
                "y": 0.007748599164187908,
                "z": 0.005598929710686207
            },
            "position": {
                "x": 0.11585023208521307,
                "y": 0.44412534475326537,
                "z": 0.3711530566215515
            }
        },
        "name": "move_to_auspresseinheit_A"
    },
    "id": "SBL_move_to_auspresseinheit_A_24",
    "joint_names": [
        "shoulder_pan_joint",
        "shoulder_lift_joint",
        "elbow_joint",
        "wrist_1_joint",
        "wrist_2_joint",
        "wrist_3_joint"
    ],
    "metrics": {
        "cart_traj_len": 2.290313955314946,
        "distance_elbow_joint": 3.1814715319162956,
        "distance_shoulder_lift_joint": 0.5779967054106883,
        "distance_shoulder_pan_joint": 1.0397854120521302,
        "distance_wrist_1_joint": 1.0688061269791893,
        "distance_wrist_2_joint": 1.856333447562819,
        "distance_wrist_3_joint": 4.379085910064733,
        "smoothness": 0.8243041750979839,
        "time": 0.108952654,
        "traj_len": 3.479005480591523,
        "weighted_distance": 4.877170340336426
    },
    "planner": "SBL",
    "start": {
        "state": {
            "elbow_joint": 2.422574709923281,
            "shoulder_lift_joint": -1.3736533754116391,
            "shoulder_pan_joint": -0.33786336945926293,
            "wrist_1_joint": -1.0288603412921917,
            "wrist_2_joint": 1.2330224858903978,
            "wrist_3_joint": -3.094022268022082
        }
    },
    "waypoints": [
        {
            "positions": [
                -0.33786336945926293,
                -1.3736533754116391,
                2.422574709923281,
                -1.0288603412921917,
                1.2330224858903978,
                -3.094022268022082
            ]
        },
        {
            "positions": [
                -0.31065212957283245,
                -1.3964464845047158,
                2.3223667863260258,
                -0.991320698061017,
                1.1677143444674025,
                -2.9584081546371386
            ]
        },
        {
            "positions": [
                -0.283440889686402,
                -1.4192395935977926,
                2.222158862728771,
                -0.9537810548298423,
                1.1024062030444073,
                -2.8227940412521946
            ]
        },
        {
            "positions": [
                -0.25622964979997154,
                -1.4420327026908693,
                2.1219509391315157,
                -0.9162414115986676,
                1.037098061621412,
                -2.687179927867251
            ]
        },
        {
            "positions": [
                -0.22901840991354108,
                -1.464825811783946,
                2.021743015534261,
                -0.8787017683674928,
                0.9717899201984168,
                -2.5515658144823075
            ]
        },
        {
            "positions": [
                -0.20180717002711063,
                -1.4876189208770227,
                1.9215350919370056,
                -0.8411621251363182,
                0.9064817787754216,
                -2.415951701097364
            ]
        },
        {
            "positions": [
                -0.17459593014068014,
                -1.5104120299700994,
                1.8213271683397505,
                -0.8036224819051434,
                0.8411736373524263,
                -2.2803375877124203
            ]
        },
        {
            "positions": [
                -0.1473846902542497,
                -1.5332051390631762,
                1.7211192447424954,
                -0.7660828386739686,
                0.7758654959294311,
                -2.1447234743274763
            ]
        },
        {
            "positions": [
                -0.12017345036781923,
                -1.5559982481562529,
                1.6209113211452402,
                -0.7285431954427939,
                0.7105573545064359,
                -2.009109360942533
            ]
        },
        {
            "positions": [
                -0.09296221048138878,
                -1.5787913572493295,
                1.5207033975479853,
                -0.6910035522116192,
                0.6452492130834406,
                -1.8734952475575892
            ]
        },
        {
            "positions": [
                -0.06575097059495832,
                -1.6015844663424064,
                1.42049547395073,
                -0.6534639089804445,
                0.5799410716604454,
                -1.7378811341726454
            ]
        },
        {
            "positions": [
                -0.03853973070852784,
                -1.624377575435483,
                1.320287550353475,
                -0.6159242657492698,
                0.5146329302374502,
                -1.6022670207877017
            ]
        },
        {
            "positions": [
                -0.011328490822097359,
                -1.6471706845285596,
                1.22007962675622,
                -0.5783846225180951,
                0.4493247888144549,
                -1.466652907402758
            ]
        },
        {
            "positions": [
                0.015882749064333068,
                -1.6699637936216365,
                1.119871703158965,
                -0.5408449792869203,
                0.3840166473914597,
                -1.3310387940178146
            ]
        },
        {
            "positions": [
                0.04309398895076355,
                -1.6927569027147131,
                1.0196637795617096,
                -0.5033053360557456,
                0.31870850596846445,
                -1.1954246806328708
            ]
        },
        {
            "positions": [
                0.07030522883719398,
                -1.7155500118077898,
                0.9194558559644546,
                -0.4657656928245709,
                0.2534003645454692,
                -1.059810567247927
            ]
        },
        {
            "positions": [
                0.09751646872362443,
                -1.7383431209008666,
                0.8192479323671995,
                -0.42822604959339616,
                0.1880922231224741,
                -0.9241964538629837
            ]
        },
        {
            "positions": [
                0.13005829201359306,
                -1.7576315124914903,
                0.9559027265420593,
                -0.45444467799262034,
                0.1728950347624828,
                -1.0562887061389916
            ]
        },
        {
            "positions": [
                0.16260011530356167,
                -1.7769199040821138,
                1.0925575207169191,
                -0.4806633063918445,
                0.15769784640249151,
                -1.1883809584149998
            ]
        },
        {
            "positions": [
                0.1951419385935303,
                -1.7962082956727374,
                1.2292123148917788,
                -0.5068819347910687,
                0.14250065804250023,
                -1.3204732106910078
            ]
        },
        {
            "positions": [
                0.22768376188349893,
                -1.8154966872633609,
                1.3658671090666386,
                -0.5331005631902929,
                0.1273034696825089,
                -1.4525654629670157
            ]
        },
        {
            "positions": [
                0.2602255851734675,
                -1.8347850788539846,
                1.5025219032414983,
                -0.559319191589517,
                0.11210628132251763,
                -1.584657715243024
            ]
        },
        {
            "positions": [
                0.29276740846343613,
                -1.8540734704446082,
                1.639176697416358,
                -0.5855378199887411,
                0.09690909296252634,
                -1.7167499675190316
            ]
        },
        {
            "positions": [
                0.32530923175340476,
                -1.8733618620352317,
                1.775831491591218,
                -0.6117564483879653,
                0.08171190460253505,
                -1.8488422197950398
            ]
        },
        {
            "positions": [
                0.35785105504337344,
                -1.8926502536258554,
                1.9124862857660778,
                -0.6379750767871895,
                0.06651471624254374,
                -1.980934472071048
            ]
        },
        {
            "positions": [
                0.390392878333342,
                -1.9119386452164788,
                2.0491410799409375,
                -0.6641937051864136,
                0.05131752788255245,
                -2.1130267243470557
            ]
        },
        {
            "positions": [
                0.4229347016233106,
                -1.9312270368071025,
                2.1857958741157972,
                -0.6904123335856378,
                0.03612033952256116,
                -2.245118976623064
            ]
        },
        {
            "positions": [
                0.46075401562810914,
                -1.9244668252935975,
                2.2372336487897346,
                -0.6849945171698727,
                0.10229925456674377,
                -2.36485269587294
            ]
        },
        {
            "positions": [
                0.4985733296329077,
                -1.9177066137800922,
                2.2886714234636725,
                -0.6795767007541077,
                0.16847816961092638,
                -2.4845864151228167
            ]
        },
        {
            "positions": [
                0.5363926436377062,
                -1.9109464022665872,
                2.34010919813761,
                -0.6741588843383426,
                0.23465708465510898,
                -2.604320134372693
            ]
        },
        {
            "positions": [
                0.5777749933764965,
                -1.9109107998979098,
                2.3544300702850607,
                -0.6267258588281284,
                0.34988072367071776,
                -2.736604238221674
            ]
        },
        {
            "positions": [
                0.6191573431152868,
                -1.9108751975292324,
                2.3687509424325115,
                -0.5792928333179141,
                0.4651043626863265,
                -2.868888342070655
            ]
        },
        {
            "positions": [
                0.6605396928540771,
                -1.910839595160555,
                2.3830718145799623,
                -0.5318598078076999,
                0.5803280017019352,
                -3.001172445919636
            ]
        },
        {
            "positions": [
                0.7019220425928674,
                -1.9108039927918776,
                2.397392686727413,
                -0.48442678229748565,
                0.695551640717544,
                -3.133456549768617
            ]
        }
    ]
}