{
    "goal": {
        "global_pose": {
            "orientation": {
                "w": 0.5084816217422485,
                "x": -0.49083608388900757,
                "y": 0.5182115435600281,
                "z": -0.4816462993621826
            },
            "position": {
                "x": 0.5540239810943604,
                "y": 0.030875300988554955,
                "z": 0.16403168439865112
            }
        },
        "name": "move_to_storage_A"
    },
    "id": "SBL_move_to_storage_A_109",
    "joint_names": [
        "shoulder_pan_joint",
        "shoulder_lift_joint",
        "elbow_joint",
        "wrist_1_joint",
        "wrist_2_joint",
        "wrist_3_joint"
    ],
    "metrics": {
        "cart_traj_len": 0.3533585897891676,
        "distance_elbow_joint": 0.4537207262203786,
        "distance_shoulder_lift_joint": 0.2346135545213941,
        "distance_shoulder_pan_joint": 0.45969311141331487,
        "distance_wrist_1_joint": 0.2558121629941904,
        "distance_wrist_2_joint": 1.1103139394773387,
        "distance_wrist_3_joint": 0.1096676097990339,
        "smoothness": 4.440892133664971e-16,
        "time": 0.32437219,
        "traj_len": 1.6198213186724177,
        "weighted_distance": 2.0516535834529295
    },
    "planner": "SBL",
    "start": {
        "state": {
            "elbow_joint": 1.9715463870305268,
            "shoulder_lift_joint": -1.1394903361783484,
            "shoulder_pan_joint": 0.12281147578464417,
            "wrist_1_joint": -0.7804599489681411,
            "wrist_2_joint": 0.12958660307563738,
            "wrist_3_joint": -3.1924946282119055
        }
    },
    "waypoints": [
        {
            "positions": [
                0.12281147578464417,
                -1.1394903361783484,
                1.9715463870305268,
                -0.7804599489681411,
                0.12958660307563738,
                -3.1924946282119055
            ]
        },
        {
            "positions": [
                0.05714103129702777,
                -1.1730065582528333,
                2.036363633633438,
                -0.8170045436815968,
                0.2882028801438286,
                -3.1768278268120436
            ]
        },
        {
            "positions": [
                -0.008529413190588628,
                -1.2065227803273182,
                2.1011808802363494,
                -0.8535491383950526,
                0.4468191572120198,
                -3.1611610254121816
            ]
        },
        {
            "positions": [
                -0.07419985767820504,
                -1.240039002401803,
                2.1659981268392605,
                -0.8900937331085084,
                0.6054354342802111,
                -3.1454942240123196
            ]
        },
        {
            "positions": [
                -0.13987030216582141,
                -1.2735552244762878,
                2.2308153734421716,
                -0.9266383278219642,
                0.7640517113484023,
                -3.1298274226124576
            ]
        },
        {
            "positions": [
                -0.20554074665343786,
                -1.3070714465507727,
                2.295632620045083,
                -0.9631829225354199,
                0.9226679884165936,
                -3.1141606212125956
            ]
        },
        {
            "positions": [
                -0.27121119114105424,
                -1.3405876686252576,
                2.3604498666479943,
                -0.9997275172488758,
                1.0812842654847847,
                -3.0984938198127336
            ]
        },
        {
            "positions": [
                -0.3368816356286707,
                -1.3741038906997425,
                2.4252671132509054,
                -1.0362721119623315,
                1.239900542552976,
                -3.0828270184128717
            ]
        }
    ]
}