{
    "goal": {
        "global_pose": {
            "orientation": {
                "w": 0.7031023502349854,
                "x": -0.7110244035720825,
                "y": 0.007748599164187908,
                "z": 0.005598929710686207
            },
            "position": {
                "x": 0.11585023208521307,
                "y": 0.44412534475326537,
                "z": 0.3711530566215515
            }
        },
        "name": "move_to_auspresseinheit_A"
    },
    "id": "SBL_move_to_auspresseinheit_A_75",
    "joint_names": [
        "shoulder_pan_joint",
        "shoulder_lift_joint",
        "elbow_joint",
        "wrist_1_joint",
        "wrist_2_joint",
        "wrist_3_joint"
    ],
    "metrics": {
        "cart_traj_len": 0.8523870745624872,
        "distance_elbow_joint": 0.7935454588380031,
        "distance_shoulder_lift_joint": 0.5334428063879333,
        "distance_shoulder_pan_joint": 1.040215209361007,
        "distance_wrist_1_joint": 1.5761620142816688,
        "distance_wrist_2_joint": 1.6549707981747424,
        "distance_wrist_3_joint": 2.577213437785751,
        "smoothness": 1.0414979922696794,
        "time": 0.370917752,
        "traj_len": 2.859291822257586,
        "weighted_distance": 4.069534299260423
    },
    "planner": "SBL",
    "start": {
        "state": {
            "elbow_joint": 2.422574709923281,
            "shoulder_lift_joint": -1.3736533754116391,
            "shoulder_pan_joint": -0.33786336945926293,
            "wrist_1_joint": -1.0288603412921917,
            "wrist_2_joint": 1.2330224858903978,
            "wrist_3_joint": -3.094022268022082
        }
    },
    "waypoints": [
        {
            "positions": [
                -0.33786336945926293,
                -1.3736533754116391,
                2.422574709923281,
                -1.0288603412921917,
                1.2330224858903978,
                -3.094022268022082
            ]
        },
        {
            "positions": [
                -0.3032547033071921,
                -1.4036949012975228,
                2.3881307652604917,
                -0.9391214248039781,
                1.1417283968610739,
                -2.9887126678463325
            ]
        },
        {
            "positions": [
                -0.2686460371551213,
                -1.4337364271834068,
                2.3536868205977024,
                -0.8493825083157643,
                1.05043430783175,
                -2.8834030676705824
            ]
        },
        {
            "positions": [
                -0.2340373710030505,
                -1.4637779530692905,
                2.319242875934913,
                -0.7596435918275506,
                0.9591402188024261,
                -2.7780934674948328
            ]
        },
        {
            "positions": [
                -0.1994287048509797,
                -1.4938194789551742,
                2.2847989312721237,
                -0.669904675339337,
                0.8678461297731022,
                -2.672783867319083
            ]
        },
        {
            "positions": [
                -0.16482003869890888,
                -1.5238610048410581,
                2.2503549866093344,
                -0.5801657588511233,
                0.7765520407437781,
                -2.567474267143333
            ]
        },
        {
            "positions": [
                -0.13021137254683807,
                -1.5539025307269418,
                2.215911041946545,
                -0.49042684236290957,
                0.6852579517144542,
                -2.4621646669675834
            ]
        },
        {
            "positions": [
                -0.09560270639476723,
                -1.5839440566128256,
                2.1814670972837558,
                -0.4006879258746958,
                0.5939638626851302,
                -2.3568550667918338
            ]
        },
        {
            "positions": [
                -0.060994040242696446,
                -1.6139855824987095,
                2.1470231526209664,
                -0.3109490093864822,
                0.5026697736558065,
                -2.2515454666160837
            ]
        },
        {
            "positions": [
                -0.026385374090625635,
                -1.6440271083845932,
                2.112579207958177,
                -0.22121009289826854,
                0.41137568462648244,
                -2.146235866440334
            ]
        },
        {
            "positions": [
                0.008223292061445175,
                -1.6740686342704771,
                2.078135263295388,
                -0.1314711764100548,
                0.32008159559715854,
                -2.0409262662645844
            ]
        },
        {
            "positions": [
                0.042831958213515986,
                -1.7041101601563606,
                2.0436913186325985,
                -0.04173225992184115,
                0.22878750656783464,
                -1.9356166660888345
            ]
        },
        {
            "positions": [
                0.07744062436558682,
                -1.7341516860422446,
                2.009247373969809,
                0.048006656566372596,
                0.1374934175385107,
                -1.8303070659130847
            ]
        },
        {
            "positions": [
                0.14207433879034329,
                -1.7525284859277668,
                2.055424986016446,
                -0.0037071589510820763,
                0.19731272645687234,
                -1.9661498717052495
            ]
        },
        {
            "positions": [
                0.20670805321509975,
                -1.770905285813289,
                2.1016025980630837,
                -0.05542097446853675,
                0.257132035375234,
                -2.1019926774974143
            ]
        },
        {
            "positions": [
                0.2713417676398562,
                -1.7892820856988112,
                2.1477802101097208,
                -0.10713478998599144,
                0.3169513442935956,
                -2.2378354832895786
            ]
        },
        {
            "positions": [
                0.3359754820646127,
                -1.8076588855843334,
                2.193957822156358,
                -0.1588486055034461,
                0.37677065321195724,
                -2.3736782890817434
            ]
        },
        {
            "positions": [
                0.4006091964893692,
                -1.8260356854698556,
                2.240135434202995,
                -0.21056242102090078,
                0.4365899621303189,
                -2.509521094873908
            ]
        },
        {
            "positions": [
                0.4652429109141256,
                -1.8444124853553778,
                2.2863130462496324,
                -0.26227623653835547,
                0.49640927104868054,
                -2.645363900666073
            ]
        },
        {
            "positions": [
                0.5298766253388821,
                -1.8627892852409,
                2.3324906582962694,
                -0.31399005205581015,
                0.5562285799670422,
                -2.7812067064582378
            ]
        },
        {
            "positions": [
                0.5873683635265028,
                -1.8775582507604576,
                2.3514822711489596,
                -0.3597561546561175,
                0.6031307690984835,
                -2.902072904835438
            ]
        },
        {
            "positions": [
                0.6448601017141234,
                -1.8923272162800149,
                2.37047388400165,
                -0.4055222572564248,
                0.6500329582299249,
                -3.022939103212638
            ]
        },
        {
            "positions": [
                0.7023518399017441,
                -1.9070961817995724,
                2.3894654968543403,
                -0.45128835985673216,
                0.6969351473613662,
                -3.1438053015898384
            ]
        }
    ]
}