{
    "goal": {
        "global_pose": {
            "orientation": {
                "w": 0.7031023502349854,
                "x": -0.7110244035720825,
                "y": 0.007748599164187908,
                "z": 0.005598929710686207
            },
            "position": {
                "x": 0.11585023208521307,
                "y": 0.44412534475326537,
                "z": 0.3711530566215515
            }
        },
        "name": "move_to_auspresseinheit_A"
    },
    "id": "SBL_move_to_auspresseinheit_A_147",
    "joint_names": [
        "shoulder_pan_joint",
        "shoulder_lift_joint",
        "elbow_joint",
        "wrist_1_joint",
        "wrist_2_joint",
        "wrist_3_joint"
    ],
    "metrics": {
        "cart_traj_len": 0.7276581879468733,
        "distance_elbow_joint": 0.34587564381895497,
        "distance_shoulder_lift_joint": 0.5362170678900815,
        "distance_shoulder_pan_joint": 1.041689681615713,
        "distance_wrist_1_joint": 1.4410066997213127,
        "distance_wrist_2_joint": 1.4405751112532061,
        "distance_wrist_3_joint": 0.8876617913973908,
        "smoothness": 1.3005572154012783,
        "time": 0.24161172400000003,
        "traj_len": 2.3860062857621855,
        "weighted_distance": 3.217130925135929
    },
    "planner": "SBL",
    "start": {
        "state": {
            "elbow_joint": 2.422574709923281,
            "shoulder_lift_joint": -1.3736533754116391,
            "shoulder_pan_joint": -0.33786336945926293,
            "wrist_1_joint": -1.0288603412921917,
            "wrist_2_joint": 1.2330224858903978,
            "wrist_3_joint": -3.094022268022082
        }
    },
    "waypoints": [
        {
            "positions": [
                -0.33786336945926293,
                -1.3736533754116391,
                2.422574709923281,
                -1.0288603412921917,
                1.2330224858903978,
                -3.094022268022082
            ]
        },
        {
            "positions": [
                -0.28074381715651336,
                -1.421375450219187,
                2.403905130762896,
                -0.9292790859799074,
                1.1342854451918831,
                -3.0510838410698384
            ]
        },
        {
            "positions": [
                -0.22362426485376377,
                -1.469097525026735,
                2.385235551602511,
                -0.829697830667623,
                1.0355484044933687,
                -3.008145414117595
            ]
        },
        {
            "positions": [
                -0.1665047125510142,
                -1.5168195998342828,
                2.366565972442126,
                -0.7301165753553387,
                0.9368113637948543,
                -2.9652069871653515
            ]
        },
        {
            "positions": [
                -0.10938516024826461,
                -1.5645416746418308,
                2.347896393281741,
                -0.6305353200430543,
                0.8380743230963397,
                -2.922268560213108
            ]
        },
        {
            "positions": [
                -0.05226560794551505,
                -1.6122637494493788,
                2.329226814121356,
                -0.53095406473077,
                0.7393372823978253,
                -2.8793301332608645
            ]
        },
        {
            "positions": [
                0.004853944357234519,
                -1.6599858242569268,
                2.310557234960971,
                -0.43137280941848566,
                0.6406002416993107,
                -2.836391706308621
            ]
        },
        {
            "positions": [
                0.061973496659984084,
                -1.7077078990644745,
                2.291887655800586,
                -0.3317915541062013,
                0.5418632010007962,
                -2.7934532793563775
            ]
        },
        {
            "positions": [
                0.1190930489627337,
                -1.7554299738720225,
                2.273218076640201,
                -0.23221029879391686,
                0.4431261603022816,
                -2.750514852404134
            ]
        },
        {
            "positions": [
                0.17621260126548327,
                -1.8031520486795705,
                2.254548497479816,
                -0.1326290434816325,
                0.34438911960376717,
                -2.7075764254518906
            ]
        },
        {
            "positions": [
                0.2333321535682328,
                -1.8508741234871184,
                2.2358789183194308,
                -0.03304778816934814,
                0.24565207890525265,
                -2.664637998499647
            ]
        },
        {
            "positions": [
                0.3220555967874117,
                -1.8621015055723238,
                2.2675396423306955,
                -0.11624996775716216,
                0.3319731919741426,
                -2.751779551083771
            ]
        },
        {
            "positions": [
                0.4107790400065906,
                -1.8733288876575291,
                2.2992003663419607,
                -0.19945214734497618,
                0.41829430504303255,
                -2.838921103667895
            ]
        },
        {
            "positions": [
                0.4995024832257695,
                -1.8845562697427343,
                2.3308610903532254,
                -0.2826543269327902,
                0.5046154181119225,
                -2.9260626562520198
            ]
        },
        {
            "positions": [
                0.5882259264449484,
                -1.8957836518279396,
                2.3625218143644906,
                -0.3658565065206042,
                0.5909365311808126,
                -3.013204208836144
            ]
        },
        {
            "positions": [
                0.6769493696641273,
                -1.907011033913145,
                2.3941825383757553,
                -0.44905868610841826,
                0.6772576442497025,
                -3.100345761420268
            ]
        },
        {
            "positions": [
                0.7038263121564501,
                -1.9098704433017206,
                2.3950587705345354,
                -0.47824193476781723,
                0.6988567831733136,
                -3.1229155203746024
            ]
        }
    ]
}