{
    "goal": {
        "global_pose": {
            "orientation": {
                "w": 0.7047431468963623,
                "x": -0.7094548344612122,
                "y": 0.0024358443915843964,
                "z": -0.0022348060738295317
            },
            "position": {
                "x": 0.6094750761985779,
                "y": 0.3671506643295288,
                "z": 0.19426114857196808
            }
        },
        "name": "move_to_magneteinheit_A"
    },
    "id": "SBL_move_to_magneteinheit_A_55",
    "joint_names": [
        "shoulder_pan_joint",
        "shoulder_lift_joint",
        "elbow_joint",
        "wrist_1_joint",
        "wrist_2_joint",
        "wrist_3_joint"
    ],
    "metrics": {
        "cart_traj_len": 1.8741413450689677,
        "distance_elbow_joint": 3.924606468240028,
        "distance_shoulder_lift_joint": 0.7051573627121746,
        "distance_shoulder_pan_joint": 1.2415758079051658,
        "distance_wrist_1_joint": 1.5363899223532784,
        "distance_wrist_2_joint": 1.6955777341629952,
        "distance_wrist_3_joint": 1.1523719660442238,
        "smoothness": 5.921189492996263e-16,
        "time": 0.22439284199999998,
        "traj_len": 3.2024489475115545,
        "weighted_distance": 3.973964122890717
    },
    "planner": "SBL",
    "start": {
        "state": {
            "elbow_joint": -1.919643507792019,
            "shoulder_lift_joint": -0.07675430207160344,
            "shoulder_pan_joint": -1.1188671864651873,
            "wrist_1_joint": 0.42560062535961957,
            "wrist_2_joint": 1.5706038300724876,
            "wrist_3_joint": 1.1188968870953055
        }
    },
    "waypoints": [
        {
            "positions": [
                -1.1188671864651873,
                -0.07675430207160344,
                -1.919643507792019,
                0.42560062535961957,
                1.5706038300724876,
                1.1188968870953055
            ]
        },
        {
            "positions": [
                -1.071114270776527,
                -0.10387573909899478,
                -1.7686971051674025,
                0.4846925454501303,
                1.5053893018354494,
                1.074574888401297
            ]
        },
        {
            "positions": [
                -1.0233613550878669,
                -0.13099717612638612,
                -1.6177507025427862,
                0.543784465540641,
                1.440174773598411,
                1.0302528897072882
            ]
        },
        {
            "positions": [
                -0.9756084393992066,
                -0.15811861315377743,
                -1.4668042999181696,
                0.6028763856311516,
                1.3749602453613727,
                0.9859308910132797
            ]
        },
        {
            "positions": [
                -0.9278555237105465,
                -0.18524005018116876,
                -1.315857897293553,
                0.6619683057216624,
                1.3097457171243345,
                0.9416088923192711
            ]
        },
        {
            "positions": [
                -0.8801026080218862,
                -0.2123614872085601,
                -1.1649114946689367,
                0.7210602258121731,
                1.2445311888872963,
                0.8972868936252625
            ]
        },
        {
            "positions": [
                -0.832349692333226,
                -0.2394829242359514,
                -1.0139650920443204,
                0.7801521459026839,
                1.1793166606502579,
                0.8529648949312538
            ]
        },
        {
            "positions": [
                -0.7845967766445658,
                -0.26660436126334275,
                -0.8630186894197038,
                0.8392440659931946,
                1.1141021324132196,
                0.8086428962372454
            ]
        },
        {
            "positions": [
                -0.7368438609559056,
                -0.2937257982907341,
                -0.7120722867950873,
                0.8983359860837052,
                1.0488876041761812,
                0.7643208975432367
            ]
        },
        {
            "positions": [
                -0.6890909452672453,
                -0.3208472353181254,
                -0.5611258841704709,
                0.9574279061742159,
                0.9836730759391431,
                0.7199988988492281
            ]
        },
        {
            "positions": [
                -0.6413380295785851,
                -0.34796867234551676,
                -0.4101794815458544,
                1.0165198262647266,
                0.9184585477021048,
                0.6756769001552194
            ]
        },
        {
            "positions": [
                -0.593585113889925,
                -0.37509010937290804,
                -0.25923307892123804,
                1.0756117463552373,
                0.8532440194650666,
                0.6313549014612109
            ]
        },
        {
            "positions": [
                -0.5458321982012646,
                -0.4022115464002994,
                -0.10828667629662148,
                1.1347036664457482,
                0.7880294912280282,
                0.5870329027672022
            ]
        },
        {
            "positions": [
                -0.49807928251260447,
                -0.4293329834276907,
                0.04265972632799486,
                1.1937955865362588,
                0.72281496299099,
                0.5427109040731937
            ]
        },
        {
            "positions": [
                -0.45032636682394434,
                -0.45645442045508205,
                0.19360612895261142,
                1.2528875066267695,
                0.6576004347539518,
                0.4983889053791851
            ]
        },
        {
            "positions": [
                -0.4025734511352841,
                -0.48357585748247334,
                0.34455253157722754,
                1.3119794267172802,
                0.5923859065169136,
                0.45406690668517646
            ]
        },
        {
            "positions": [
                -0.35482053544662373,
                -0.5106972945098647,
                0.49549893420184454,
                1.3710713468077909,
                0.527171378279875,
                0.4097449079911678
            ]
        },
        {
            "positions": [
                -0.3070676197579636,
                -0.537818731537256,
                0.6464453368264607,
                1.4301632668983018,
                0.4619568500428368,
                0.36542290929715926
            ]
        },
        {
            "positions": [
                -0.25931470406930335,
                -0.5649401685646473,
                0.7973917394510772,
                1.4892551869888124,
                0.3967423218057986,
                0.3211009106031506
            ]
        },
        {
            "positions": [
                -0.2115617883806432,
                -0.5920616055920387,
                0.9483381420756933,
                1.548347107079323,
                0.3315277935687604,
                0.27677891190914206
            ]
        },
        {
            "positions": [
                -0.16380887269198285,
                -0.61918304261943,
                1.0992845447003103,
                1.6074390271698338,
                0.26631326533172195,
                0.2324569132151334
            ]
        },
        {
            "positions": [
                -0.11605595700332261,
                -0.6463044796468214,
                1.2502309473249265,
                1.6665309472603445,
                0.20109873709468373,
                0.18813491452112485
            ]
        },
        {
            "positions": [
                -0.06830304131466258,
                -0.6734259166742127,
                1.401177349949543,
                1.7256228673508551,
                0.13588420885764552,
                0.1438129158271162
            ]
        },
        {
            "positions": [
                -0.020550125626002336,
                -0.700547353701604,
                1.5521237525741591,
                1.7847147874413658,
                0.0706696806206073,
                0.09949091713310754
            ]
        },
        {
            "positions": [
                0.027202790062658133,
                -0.7276687907289954,
                1.7030701551987761,
                1.8438067075318767,
                0.005455152383568862,
                0.05516891843909888
            ]
        },
        {
            "positions": [
                0.07495570575131816,
                -0.7547902277563867,
                1.8540165578233923,
                1.9028986276223874,
                -0.059759375853469354,
                0.010846919745090444
            ]
        },
        {
            "positions": [
                0.12270862143997847,
                -0.781911664783778,
                2.0049629604480086,
                1.961990547712898,
                -0.1249739040905075,
                -0.03347507894891814
            ]
        }
    ]
}