{
    "goal": {
        "global_pose": {
            "orientation": {
                "w": 0.7047431468963623,
                "x": -0.7094548344612122,
                "y": 0.0024358443915843964,
                "z": -0.0022348060738295317
            },
            "position": {
                "x": 0.6094750761985779,
                "y": 0.3671506643295288,
                "z": 0.19426114857196808
            }
        },
        "name": "move_to_magneteinheit_A"
    },
    "id": "SBL_move_to_magneteinheit_A_52",
    "joint_names": [
        "shoulder_pan_joint",
        "shoulder_lift_joint",
        "elbow_joint",
        "wrist_1_joint",
        "wrist_2_joint",
        "wrist_3_joint"
    ],
    "metrics": {
        "cart_traj_len": 1.9545330431599692,
        "distance_elbow_joint": 3.902535374843737,
        "distance_shoulder_lift_joint": 1.8372474685422027,
        "distance_shoulder_pan_joint": 1.240930683675099,
        "distance_wrist_1_joint": 1.7480686158714367,
        "distance_wrist_2_joint": 1.4329170013295434,
        "distance_wrist_3_joint": 4.264708032872793,
        "smoothness": 0.18781486536608744,
        "time": 0.158654498,
        "traj_len": 3.798211049577789,
        "weighted_distance": 5.1124171250086174
    },
    "planner": "SBL",
    "start": {
        "state": {
            "elbow_joint": -1.919643507792019,
            "shoulder_lift_joint": -0.07675430207160344,
            "shoulder_pan_joint": -1.1188671864651873,
            "wrist_1_joint": 0.42560062535961957,
            "wrist_2_joint": 1.5706038300724876,
            "wrist_3_joint": 1.1188968870953055
        }
    },
    "waypoints": [
        {
            "positions": [
                -1.1188671864651873,
                -0.07675430207160344,
                -1.919643507792019,
                0.42560062535961957,
                1.5706038300724876,
                1.1188968870953055
            ]
        },
        {
            "positions": [
                -1.097180722298663,
                -0.12519648069073472,
                -1.7980208100050525,
                0.3756319664482558,
                1.5406076597290652,
                1.0013945615401756
            ]
        },
        {
            "positions": [
                -1.0754942581321387,
                -0.173638659309866,
                -1.6763981122180858,
                0.32566330753689204,
                1.5106114893856428,
                0.8838922359850456
            ]
        },
        {
            "positions": [
                -1.0538077939656143,
                -0.2220808379289973,
                -1.5547754144311192,
                0.2756946486255283,
                1.4806153190422204,
                0.7663899104299157
            ]
        },
        {
            "positions": [
                -1.03212132979909,
                -0.2705230165481286,
                -1.4331527166441527,
                0.22572598971416455,
                1.450619148698798,
                0.6488875848747857
            ]
        },
        {
            "positions": [
                -1.0104348656325657,
                -0.31896519516725985,
                -1.311530018857186,
                0.1757573308028008,
                1.4206229783553757,
                0.5313852593196557
            ]
        },
        {
            "positions": [
                -0.9887484014660414,
                -0.36740737378639116,
                -1.1899073210702193,
                0.125788671891437,
                1.390626808011953,
                0.4138829337645258
            ]
        },
        {
            "positions": [
                -0.9670619372995171,
                -0.41584955240552246,
                -1.0682846232832528,
                0.07582001298007324,
                1.3606306376685307,
                0.2963806082093958
            ]
        },
        {
            "positions": [
                -0.9453754731329927,
                -0.4642917310246537,
                -0.9466619254962861,
                0.02585135406870953,
                1.3306344673251083,
                0.17887828265426586
            ]
        },
        {
            "positions": [
                -0.9236890089664684,
                -0.5127339096437851,
                -0.8250392277093195,
                -0.02411730484265423,
                1.3006382969816859,
                0.0613759570991359
            ]
        },
        {
            "positions": [
                -0.9020025447999441,
                -0.5611760882629162,
                -0.7034165299223529,
                -0.07408596375401799,
                1.2706421266382635,
                -0.05612636845599406
            ]
        },
        {
            "positions": [
                -0.8803160806334198,
                -0.6096182668820476,
                -0.5817938321353864,
                -0.12405462266538175,
                1.240645956294841,
                -0.17362869401112402
            ]
        },
        {
            "positions": [
                -0.8586296164668954,
                -0.6580604455011789,
                -0.4601711343484196,
                -0.17402328157674557,
                1.2106497859514187,
                -0.291131019566254
            ]
        },
        {
            "positions": [
                -0.8369431523003711,
                -0.7065026241203103,
                -0.33854843656145284,
                -0.22399194048810928,
                1.1806536156079963,
                -0.40863334512138394
            ]
        },
        {
            "positions": [
                -0.8152566881338468,
                -0.7549448027394414,
                -0.2169257387744863,
                -0.2739605993994731,
                1.150657445264574,
                -0.5261356706765139
            ]
        },
        {
            "positions": [
                -0.7935702239673225,
                -0.8033869813585728,
                -0.09530304098751974,
                -0.3239292583108368,
                1.1206612749211513,
                -0.6436379962316439
            ]
        },
        {
            "positions": [
                -0.7718837598007982,
                -0.8518291599777039,
                0.02631965679944681,
                -0.3738979172222005,
                1.0906651045777291,
                -0.7611403217867738
            ]
        },
        {
            "positions": [
                -0.7501972956342738,
                -0.9002713385968353,
                0.14794235458641336,
                -0.4238665761335643,
                1.0606689342343065,
                -0.8786426473419038
            ]
        },
        {
            "positions": [
                -0.7285108314677495,
                -0.9487135172159666,
                0.26956505237338013,
                -0.473835235044928,
                1.0306727638908844,
                -0.9961449728970337
            ]
        },
        {
            "positions": [
                -0.7068243673012251,
                -0.9971556958350978,
                0.39118775016034646,
                -0.5238038939562917,
                1.0006765935474617,
                -1.1136472984521637
            ]
        },
        {
            "positions": [
                -0.6851379031347009,
                -1.0455978744542291,
                0.5128104479473132,
                -0.5737725528676556,
                0.9706804232040394,
                -1.2311496240072937
            ]
        },
        {
            "positions": [
                -0.6634514389681765,
                -1.0940400530733605,
                0.63443314573428,
                -0.6237412117790193,
                0.940684252860617,
                -1.3486519495624236
            ]
        },
        {
            "positions": [
                -0.6417649748016523,
                -1.1424822316924916,
                0.7560558435212463,
                -0.673709870690383,
                0.9106880825171946,
                -1.4661542751175536
            ]
        },
        {
            "positions": [
                -0.6200785106351279,
                -1.1909244103116232,
                0.8776785413082135,
                -0.723678529601747,
                0.8806919121737721,
                -1.5836566006726835
            ]
        },
        {
            "positions": [
                -0.5983920464686036,
                -1.2393665889307544,
                0.9993012390951799,
                -0.7736471885131107,
                0.8506957418303497,
                -1.7011589262278135
            ]
        },
        {
            "positions": [
                -0.5767055823020791,
                -1.2878087675498857,
                1.1209239368821466,
                -0.8236158474244744,
                0.8206995714869273,
                -1.8186612517829435
            ]
        },
        {
            "positions": [
                -0.5550191181355548,
                -1.336250946169017,
                1.2425466346691134,
                -0.8735845063358381,
                0.7907034011435049,
                -1.9361635773380734
            ]
        },
        {
            "positions": [
                -0.5333326539690305,
                -1.3846931247881482,
                1.3641693324560797,
                -0.9235531652472018,
                0.7607072308000824,
                -2.0536659028932034
            ]
        },
        {
            "positions": [
                -0.5116461898025062,
                -1.4331353034072796,
                1.4857920302430465,
                -0.9735218241585657,
                0.73071106045666,
                -2.1711682284483333
            ]
        },
        {
            "positions": [
                -0.4899597256359819,
                -1.4815774820264107,
                1.6074147280300128,
                -1.0234904830699294,
                0.7007148901132376,
                -2.2886705540034633
            ]
        },
        {
            "positions": [
                -0.4682732614694575,
                -1.530019660645542,
                1.7290374258169798,
                -1.073459141981293,
                0.6707187197698152,
                -2.4061728795585933
            ]
        },
        {
            "positions": [
                -0.38393943880097614,
                -1.4751650735072186,
                1.7653023459933708,
                -1.0378864493340754,
                0.5945713067659765,
                -2.511835489018435
            ]
        },
        {
            "positions": [
                -0.2996056161324948,
                -1.4203104863688951,
                1.801567266169762,
                -1.0023137566868576,
                0.5184238937621378,
                -2.6174980984782774
            ]
        },
        {
            "positions": [
                -0.21527179346401343,
                -1.3654558992305716,
                1.8378321863461529,
                -0.96674106403964,
                0.44227648075829906,
                -2.7231607079381193
            ]
        },
        {
            "positions": [
                -0.13093797079553204,
                -1.3106013120922484,
                1.874097106522544,
                -0.9311683713924224,
                0.36612906775446036,
                -2.8288233173979616
            ]
        },
        {
            "positions": [
                -0.04660414812705066,
                -1.255746724953925,
                1.910362026698935,
                -0.8955956787452046,
                0.2899816547506216,
                -2.9344859268578034
            ]
        },
        {
            "positions": [
                0.03772967454143067,
                -1.2008921378156014,
                1.946626946875326,
                -0.860022986097987,
                0.2138342417467829,
                -3.0401485363176457
            ]
        },
        {
            "positions": [
                0.12206349720991208,
                -1.146037550677278,
                1.982891867051717,
                -0.8244502934507693,
                0.13768682874294413,
                -3.1458111457774875
            ]
        }
    ]
}