{
    "goal": {
        "global_pose": {
            "orientation": {
                "w": 0.5084816217422485,
                "x": -0.49083608388900757,
                "y": 0.5182115435600281,
                "z": -0.4816462993621826
            },
            "position": {
                "x": 0.5540239810943604,
                "y": 0.030875300988554955,
                "z": 0.16403168439865112
            }
        },
        "name": "move_to_storage_A"
    },
    "id": "SBL_move_to_storage_A_121",
    "joint_names": [
        "shoulder_pan_joint",
        "shoulder_lift_joint",
        "elbow_joint",
        "wrist_1_joint",
        "wrist_2_joint",
        "wrist_3_joint"
    ],
    "metrics": {
        "cart_traj_len": 0.35350474621589656,
        "distance_elbow_joint": 0.4496390993520789,
        "distance_shoulder_lift_joint": 0.23330520779505437,
        "distance_shoulder_pan_joint": 0.4613788028488674,
        "distance_wrist_1_joint": 0.2453129127382404,
        "distance_wrist_2_joint": 1.1026178236381279,
        "distance_wrist_3_joint": 0.10592815685315937,
        "smoothness": 4.440892098500626e-16,
        "time": 0.240524613,
        "traj_len": 1.6118877142113617,
        "weighted_distance": 2.0391098678855477
    },
    "planner": "SBL",
    "start": {
        "state": {
            "elbow_joint": 1.9715463870305268,
            "shoulder_lift_joint": -1.1394903361783484,
            "shoulder_pan_joint": 0.12281147578464417,
            "wrist_1_joint": -0.7804599489681411,
            "wrist_2_joint": 0.12958660307563738,
            "wrist_3_joint": -3.1924946282119055
        }
    },
    "waypoints": [
        {
            "positions": [
                0.12281147578464417,
                -1.1394903361783484,
                1.9715463870305268,
                -0.7804599489681411,
                0.12958660307563738,
                -3.1924946282119055
            ]
        },
        {
            "positions": [
                0.05690021823480598,
                -1.172819651577642,
                2.035780544080824,
                -0.8155046507878897,
                0.28710343502394137,
                -3.17736203437574
            ]
        },
        {
            "positions": [
                -0.009011039315032207,
                -1.2061489669769354,
                2.1000147011311205,
                -0.8505493526076383,
                0.4446202669722453,
                -3.162229440539574
            ]
        },
        {
            "positions": [
                -0.07492229686487041,
                -1.239478282376229,
                2.1642488581814177,
                -0.8855940544273869,
                0.6021370989205493,
                -3.1470968467034086
            ]
        },
        {
            "positions": [
                -0.14083355441470857,
                -1.2728075977755222,
                2.2284830152317148,
                -0.9206387562471356,
                0.7596539308688534,
                -3.131964252867243
            ]
        },
        {
            "positions": [
                -0.2067448119645468,
                -1.3061369131748157,
                2.292717172282012,
                -0.9556834580668843,
                0.9171707628171574,
                -3.1168316590310776
            ]
        },
        {
            "positions": [
                -0.272656069514385,
                -1.3394662285741092,
                2.3569513293323086,
                -0.9907281598866329,
                1.0746875947654613,
                -3.1016990651949117
            ]
        },
        {
            "positions": [
                -0.3385673270642232,
                -1.3727955439734028,
                2.4211854863826057,
                -1.0257728617063815,
                1.2322044267137653,
                -3.086566471358746
            ]
        }
    ]
}