{
    "goal": {
        "global_pose": {
            "orientation": {
                "w": 0.7047431468963623,
                "x": -0.7094548344612122,
                "y": 0.0024358443915843964,
                "z": -0.0022348060738295317
            },
            "position": {
                "x": 0.6094750761985779,
                "y": 0.3671506643295288,
                "z": 0.19426114857196808
            }
        },
        "name": "move_to_magneteinheit_A"
    },
    "id": "SBL_move_to_magneteinheit_A_78",
    "joint_names": [
        "shoulder_pan_joint",
        "shoulder_lift_joint",
        "elbow_joint",
        "wrist_1_joint",
        "wrist_2_joint",
        "wrist_3_joint"
    ],
    "metrics": {
        "cart_traj_len": 2.064460445110891,
        "distance_elbow_joint": 3.8836810064945766,
        "distance_shoulder_lift_joint": 1.059946179560728,
        "distance_shoulder_pan_joint": 1.241358228121963,
        "distance_wrist_1_joint": 1.1648619072075208,
        "distance_wrist_2_joint": 1.4365225557847527,
        "distance_wrist_3_joint": 1.9259239472239416,
        "smoothness": 5.206563182554795e-16,
        "time": 0.284312887,
        "traj_len": 3.272964073190154,
        "weighted_distance": 4.143129998181766
    },
    "planner": "SBL",
    "start": {
        "state": {
            "elbow_joint": -1.919643507792019,
            "shoulder_lift_joint": -0.07675430207160344,
            "shoulder_pan_joint": -1.1188671864651873,
            "wrist_1_joint": 0.42560062535961957,
            "wrist_2_joint": 1.5706038300724876,
            "wrist_3_joint": 1.1188968870953055
        }
    },
    "waypoints": [
        {
            "positions": [
                -1.1188671864651873,
                -0.07675430207160344,
                -1.919643507792019,
                0.42560062535961957,
                1.5706038300724876,
                1.1188968870953055
            ]
        },
        {
            "positions": [
                -1.07453296403226,
                -0.11460952277020087,
                -1.780940614702927,
                0.38399841438792237,
                1.519299453080175,
                1.1876798852104464
            ]
        },
        {
            "positions": [
                -1.0301987415993328,
                -0.1524647434687983,
                -1.642237721613835,
                0.34239620341622523,
                1.4679950760878624,
                1.256462883325587
            ]
        },
        {
            "positions": [
                -0.9858645191664056,
                -0.19031996416739572,
                -1.5035348285247432,
                0.3007939924445281,
                1.41669069909555,
                1.3252458814407277
            ]
        },
        {
            "positions": [
                -0.9415302967334783,
                -0.22817518486599314,
                -1.364831935435651,
                0.2591917814728309,
                1.3653863221032372,
                1.3940288795558686
            ]
        },
        {
            "positions": [
                -0.8971960743005511,
                -0.26603040556459057,
                -1.226129042346559,
                0.2175895705011337,
                1.3140819451109247,
                1.4628118776710095
            ]
        },
        {
            "positions": [
                -0.8528618518676239,
                -0.303885626263188,
                -1.087426149257467,
                0.17598735952943656,
                1.262777568118612,
                1.5315948757861502
            ]
        },
        {
            "positions": [
                -0.8085276294346966,
                -0.3417408469617854,
                -0.9487232561683749,
                0.13438514855773936,
                1.2114731911262995,
                1.6003778739012908
            ]
        },
        {
            "positions": [
                -0.7641934070017693,
                -0.37959606766038284,
                -0.810020363079283,
                0.09278293758604222,
                1.160168814133987,
                1.6691608720164317
            ]
        },
        {
            "positions": [
                -0.719859184568842,
                -0.41745128835898027,
                -0.6713174699901907,
                0.051180726614344974,
                1.1088644371416743,
                1.7379438701315726
            ]
        },
        {
            "positions": [
                -0.6755249621359148,
                -0.4553065090575777,
                -0.5326145769010988,
                0.009578515642647834,
                1.0575600601493615,
                1.8067268682467132
            ]
        },
        {
            "positions": [
                -0.6311907397029876,
                -0.4931617297561751,
                -0.3939116838120069,
                -0.032023695329049306,
                1.006255683157049,
                1.875509866361854
            ]
        },
        {
            "positions": [
                -0.5868565172700604,
                -0.5310169504547726,
                -0.255208790722915,
                -0.07362590630074645,
                0.9549513061647364,
                1.9442928644769948
            ]
        },
        {
            "positions": [
                -0.5425222948371331,
                -0.56887217115337,
                -0.11650589763382269,
                -0.1152281172724437,
                0.9036469291724238,
                2.0130758625921357
            ]
        },
        {
            "positions": [
                -0.4981880724042058,
                -0.6067273918519673,
                0.02219699545526921,
                -0.15683032824414084,
                0.8523425521801112,
                2.0818588607072765
            ]
        },
        {
            "positions": [
                -0.45385384997127853,
                -0.6445826125505647,
                0.1608998885443611,
                -0.19843253921583798,
                0.8010381751877986,
                2.150641858822417
            ]
        },
        {
            "positions": [
                -0.40951962753835136,
                -0.6824378332491623,
                0.299602781633453,
                -0.24003475018753512,
                0.7497337981954861,
                2.219424856937558
            ]
        },
        {
            "positions": [
                -0.3651854051054241,
                -0.7202930539477597,
                0.4383056747225449,
                -0.28163696115923226,
                0.6984294212031735,
                2.2882078550526987
            ]
        },
        {
            "positions": [
                -0.3208511826724968,
                -0.758148274646357,
                0.5770085678116377,
                -0.3232391721309296,
                0.6471250442108608,
                2.356990853167839
            ]
        },
        {
            "positions": [
                -0.2765169602395695,
                -0.7960034953449546,
                0.7157114609007296,
                -0.36484138310262676,
                0.5958206672185482,
                2.4257738512829805
            ]
        },
        {
            "positions": [
                -0.23218273780664234,
                -0.833858716043552,
                0.8544143539898215,
                -0.4064435940743239,
                0.5445162902262357,
                2.494556849398121
            ]
        },
        {
            "positions": [
                -0.18784851537371505,
                -0.8717139367421494,
                0.9931172470789134,
                -0.44804580504602104,
                0.493211913233923,
                2.563339847513262
            ]
        },
        {
            "positions": [
                -0.14351429294078777,
                -0.9095691574407467,
                1.1318201401680053,
                -0.4896480160177182,
                0.4419075362416105,
                2.6321228456284027
            ]
        },
        {
            "positions": [
                -0.09918007050786048,
                -0.9474243781393441,
                1.2705230332570971,
                -0.5312502269894153,
                0.390603159249298,
                2.700905843743543
            ]
        },
        {
            "positions": [
                -0.05484584807493342,
                -0.9852795988379417,
                1.409225926346189,
                -0.5728524379611124,
                0.3392987822569853,
                2.769688841858684
            ]
        },
        {
            "positions": [
                -0.010511625642005917,
                -1.023134819536539,
                1.5479288194352818,
                -0.6144546489328098,
                0.28799440526467257,
                2.838471839973825
            ]
        },
        {
            "positions": [
                0.033822596790921144,
                -1.0609900402351364,
                1.6866317125243737,
                -0.6560568599045069,
                0.23669002827236008,
                2.9072548380889653
            ]
        },
        {
            "positions": [
                0.07815681922384843,
                -1.098845260933734,
                1.8253346056134656,
                -0.697659070876204,
                0.18538565128004736,
                2.9760378362041067
            ]
        },
        {
            "positions": [
                0.12249104165677564,
                -1.1367004816323314,
                1.9640374987025573,
                -0.7392612818479012,
                0.1340812742877348,
                3.044820834319247
            ]
        }
    ]
}