{
    "goal": {
        "global_pose": {
            "orientation": {
                "w": 0.5084816217422485,
                "x": -0.49083608388900757,
                "y": 0.5182115435600281,
                "z": -0.4816462993621826
            },
            "position": {
                "x": 0.5540239810943604,
                "y": 0.030875300988554955,
                "z": 0.16403168439865112
            }
        },
        "name": "move_to_storage_A"
    },
    "id": "SBL_move_to_storage_A_60",
    "joint_names": [
        "shoulder_pan_joint",
        "shoulder_lift_joint",
        "elbow_joint",
        "wrist_1_joint",
        "wrist_2_joint",
        "wrist_3_joint"
    ],
    "metrics": {
        "cart_traj_len": 0.3523983491177199,
        "distance_elbow_joint": 0.4526463989368006,
        "distance_shoulder_lift_joint": 0.23251536340364298,
        "distance_shoulder_pan_joint": 0.45967139780552585,
        "distance_wrist_1_joint": 0.2588559572892767,
        "distance_wrist_2_joint": 1.1016199859635087,
        "distance_wrist_3_joint": 0.09493711798414806,
        "smoothness": 6.661338200497456e-16,
        "time": 0.152261989,
        "traj_len": 1.6125278978618953,
        "weighted_distance": 2.0373012542586784
    },
    "planner": "SBL",
    "start": {
        "state": {
            "elbow_joint": 1.9715463870305268,
            "shoulder_lift_joint": -1.1394903361783484,
            "shoulder_pan_joint": 0.12281147578464417,
            "wrist_1_joint": -0.7804599489681411,
            "wrist_2_joint": 0.12958660307563738,
            "wrist_3_joint": -3.1924946282119055
        }
    },
    "waypoints": [
        {
            "positions": [
                0.12281147578464417,
                -1.1394903361783484,
                1.9715463870305268,
                -0.7804599489681411,
                0.12958660307563738,
                -3.1924946282119055
            ]
        },
        {
            "positions": [
                0.057144133240997624,
                -1.172706816664583,
                2.0362101583072127,
                -0.8174393714380378,
                0.28696088678471005,
                -3.1789321827855987
            ]
        },
        {
            "positions": [
                -0.008523209302648924,
                -1.2059232971508178,
                2.1008739295838983,
                -0.8544187939079344,
                0.4443351704937827,
                -3.165369737359292
            ]
        },
        {
            "positions": [
                -0.07419055184629546,
                -1.2391397776370525,
                2.1655377008605843,
                -0.8913982163778311,
                0.6017094542028554,
                -3.151807291932985
            ]
        },
        {
            "positions": [
                -0.139857894389942,
                -1.2723562581232872,
                2.23020147213727,
                -0.9283776388477277,
                0.7590837379119281,
                -3.138244846506678
            ]
        },
        {
            "positions": [
                -0.2055252369335886,
                -1.305572738609522,
                2.294865243413956,
                -0.9653570613176244,
                0.9164580216210008,
                -3.124682401080371
            ]
        },
        {
            "positions": [
                -0.2711925794772351,
                -1.3387892190957567,
                2.3595290146906414,
                -1.002336483787521,
                1.0738323053300733,
                -3.1111199556540643
            ]
        },
        {
            "positions": [
                -0.33685992202088166,
                -1.3720056995819914,
                2.4241927859673273,
                -1.0393159062574178,
                1.2312065890391461,
                -3.0975575102277575
            ]
        }
    ]
}