{
    "goal": {
        "global_pose": {
            "orientation": {
                "w": 0.7047431468963623,
                "x": -0.7094548344612122,
                "y": 0.0024358443915843964,
                "z": -0.0022348060738295317
            },
            "position": {
                "x": 0.6094750761985779,
                "y": 0.3671506643295288,
                "z": 0.19426114857196808
            }
        },
        "name": "move_to_magneteinheit_A"
    },
    "id": "SBL_move_to_magneteinheit_A_91",
    "joint_names": [
        "shoulder_pan_joint",
        "shoulder_lift_joint",
        "elbow_joint",
        "wrist_1_joint",
        "wrist_2_joint",
        "wrist_3_joint"
    ],
    "metrics": {
        "cart_traj_len": 2.06961379226174,
        "distance_elbow_joint": 3.8980485120893813,
        "distance_shoulder_lift_joint": 1.066210749657465,
        "distance_shoulder_pan_joint": 1.2418676839974223,
        "distance_wrist_1_joint": 1.2400394713793128,
        "distance_wrist_2_joint": 1.4434883471776296,
        "distance_wrist_3_joint": 1.9975535935948918,
        "smoothness": 5.819100011960789e-16,
        "time": 0.173751897,
        "traj_len": 3.2995769968127893,
        "weighted_distance": 4.191162531284468
    },
    "planner": "SBL",
    "start": {
        "state": {
            "elbow_joint": -1.919643507792019,
            "shoulder_lift_joint": -0.07675430207160344,
            "shoulder_pan_joint": -1.1188671864651873,
            "wrist_1_joint": 0.42560062535961957,
            "wrist_2_joint": 1.5706038300724876,
            "wrist_3_joint": 1.1188968870953055
        }
    },
    "waypoints": [
        {
            "positions": [
                -1.1188671864651873,
                -0.07675430207160344,
                -1.919643507792019,
                0.42560062535961957,
                1.5706038300724876,
                1.1188968870953055
            ]
        },
        {
            "positions": [
                -1.0745147691795651,
                -0.1148332574165129,
                -1.7804274895031127,
                0.381313501381787,
                1.5190506748161436,
                1.1902380868665516
            ]
        },
        {
            "positions": [
                -1.030162351893943,
                -0.15291221276142236,
                -1.641211471214206,
                0.33702637740395436,
                1.4674975195597997,
                1.2615792866377977
            ]
        },
        {
            "positions": [
                -0.9858099346083207,
                -0.19099116810633182,
                -1.5019954529252997,
                0.2927392534261218,
                1.415944364303456,
                1.332920486409044
            ]
        },
        {
            "positions": [
                -0.9414575173226984,
                -0.2290701234512413,
                -1.3627794346363933,
                0.24845212944828918,
                1.364391209047112,
                1.4042616861802901
            ]
        },
        {
            "positions": [
                -0.8971051000370762,
                -0.2671490787961508,
                -1.2235634163474867,
                0.20416500547045657,
                1.312838053790768,
                1.4756028859515362
            ]
        },
        {
            "positions": [
                -0.852752682751454,
                -0.30522803414106026,
                -1.0843473980585803,
                0.159877881492624,
                1.261284898534424,
                1.5469440857227823
            ]
        },
        {
            "positions": [
                -0.8084002654658318,
                -0.3433069894859697,
                -0.9451313797696738,
                0.11559075751479136,
                1.20973174327808,
                1.6182852854940286
            ]
        },
        {
            "positions": [
                -0.7640478481802095,
                -0.3813859448308792,
                -0.8059153614807673,
                0.07130363353695879,
                1.1581785880217363,
                1.6896264852652747
            ]
        },
        {
            "positions": [
                -0.7196954308945873,
                -0.4194649001757887,
                -0.6666993431918606,
                0.027016509559126156,
                1.1066254327653924,
                1.7609676850365208
            ]
        },
        {
            "positions": [
                -0.6753430136089651,
                -0.45754385552069815,
                -0.5274833249029542,
                -0.01727061441870642,
                1.0550722775090484,
                1.8323088848077669
            ]
        },
        {
            "positions": [
                -0.6309905963233429,
                -0.49562281086560755,
                -0.38826730661404785,
                -0.06155773839653905,
                1.0035191222527047,
                1.903650084579013
            ]
        },
        {
            "positions": [
                -0.5866381790377206,
                -0.533701766210517,
                -0.24905128832514145,
                -0.10584486237437157,
                0.9519659669963606,
                1.974991284350259
            ]
        },
        {
            "positions": [
                -0.5422857617520984,
                -0.5717807215554265,
                -0.10983527003623483,
                -0.1501319863522042,
                0.9004128117400166,
                2.046332484121505
            ]
        },
        {
            "positions": [
                -0.4979333444664762,
                -0.6098596769003359,
                0.029380748252671562,
                -0.19441911033003684,
                0.8488596564836728,
                2.1176736838927512
            ]
        },
        {
            "positions": [
                -0.45358092718085397,
                -0.6479386322452454,
                0.16859676654157796,
                -0.23870623430786947,
                0.7973065012273289,
                2.1890148836639973
            ]
        },
        {
            "positions": [
                -0.40922850989523174,
                -0.6860175875901549,
                0.3078127848304846,
                -0.282993358285702,
                0.745753345970985,
                2.2603560834352434
            ]
        },
        {
            "positions": [
                -0.3648760926096096,
                -0.7240965429350643,
                0.44702880311939075,
                -0.3272804822635346,
                0.6942001907146411,
                2.3316972832064895
            ]
        },
        {
            "positions": [
                -0.3205236753239872,
                -0.762175498279974,
                0.5862448214082978,
                -0.37156760624136725,
                0.642647035458297,
                2.403038482977736
            ]
        },
        {
            "positions": [
                -0.27617125803836506,
                -0.8002544536248835,
                0.725460839697204,
                -0.4158547302191999,
                0.5910938802019532,
                2.474379682748982
            ]
        },
        {
            "positions": [
                -0.23181884075274284,
                -0.8383334089697929,
                0.8646768579861106,
                -0.4601418541970324,
                0.5395407249456092,
                2.545720882520228
            ]
        },
        {
            "positions": [
                -0.1874664234671206,
                -0.8764123643147024,
                1.0038928762750168,
                -0.504428978174865,
                0.48798756968926527,
                2.6170620822914743
            ]
        },
        {
            "positions": [
                -0.1431140061814984,
                -0.9144913196596116,
                1.1431088945639234,
                -0.5487161021526976,
                0.4364344144329215,
                2.688403282062721
            ]
        },
        {
            "positions": [
                -0.09876158889587616,
                -0.9525702750045211,
                1.2823249128528296,
                -0.5930032261305302,
                0.38488125917657756,
                2.759744481833967
            ]
        },
        {
            "positions": [
                -0.05440917161025394,
                -0.9906492303494305,
                1.4215409311417362,
                -0.6372903501083627,
                0.3333281039202336,
                2.831085681605213
            ]
        },
        {
            "positions": [
                -0.010056754324631711,
                -1.0287281856943402,
                1.5607569494306428,
                -0.6815774740861955,
                0.28177494866388964,
                2.902426881376459
            ]
        },
        {
            "positions": [
                0.034295662960990514,
                -1.0668071410392497,
                1.6999729677195494,
                -0.7258645980640279,
                0.23022179340754567,
                2.973768081147705
            ]
        },
        {
            "positions": [
                0.07864808024661274,
                -1.1048860963841591,
                1.8391889860084556,
                -0.7701517220418606,
                0.17866863815120193,
                3.0451092809189513
            ]
        },
        {
            "positions": [
                0.12300049753223495,
                -1.1429650517290686,
                1.9784050042973622,
                -0.8144388460196933,
                0.12711548289485794,
                3.1164504806901974
            ]
        }
    ]
}