{
    "goal": {
        "global_pose": {
            "orientation": {
                "w": 0.5084816217422485,
                "x": -0.49083608388900757,
                "y": 0.5182115435600281,
                "z": -0.4816462993621826
            },
            "position": {
                "x": 0.5540239810943604,
                "y": 0.030875300988554955,
                "z": 0.16403168439865112
            }
        },
        "name": "move_to_storage_A"
    },
    "id": "SBL_move_to_storage_A_2",
    "joint_names": [
        "shoulder_pan_joint",
        "shoulder_lift_joint",
        "elbow_joint",
        "wrist_1_joint",
        "wrist_2_joint",
        "wrist_3_joint"
    ],
    "metrics": {
        "cart_traj_len": 0.35371056908428894,
        "distance_elbow_joint": 0.44797760588461877,
        "distance_shoulder_lift_joint": 0.23501660886442832,
        "distance_shoulder_pan_joint": 0.4615772536297461,
        "distance_wrist_1_joint": 0.2353420448838156,
        "distance_wrist_2_joint": 1.1040230122823291,
        "distance_wrist_3_joint": 0.0976822546177818,
        "smoothness": 1.1102230263833737e-15,
        "time": 0.180656182,
        "traj_len": 1.606741665658397,
        "weighted_distance": 2.028878593352601
    },
    "planner": "SBL",
    "start": {
        "state": {
            "elbow_joint": 1.9715463870305268,
            "shoulder_lift_joint": -1.1394903361783484,
            "shoulder_pan_joint": 0.12281147578464417,
            "wrist_1_joint": -0.7804599489681411,
            "wrist_2_joint": 0.12958660307563738,
            "wrist_3_joint": -3.1924946282119055
        }
    },
    "waypoints": [
        {
            "positions": [
                0.12281147578464417,
                -1.1394903361783484,
                1.9715463870305268,
                -0.7804599489681411,
                0.12958660307563738,
                -3.1924946282119055
            ]
        },
        {
            "positions": [
                0.05687186812325187,
                -1.1730641374446953,
                2.0355431878711867,
                -0.8140802410944005,
                0.28730417625882726,
                -3.1785400204093652
            ]
        },
        {
            "positions": [
                -0.009067739538140426,
                -1.2066379387110422,
                2.099539988711846,
                -0.8477005332206599,
                0.4450217494420171,
                -3.164585412606825
            ]
        },
        {
            "positions": [
                -0.07500734719953271,
                -1.240211739977389,
                2.163536789552506,
                -0.8813208253469191,
                0.602739322625207,
                -3.1506308048042846
            ]
        },
        {
            "positions": [
                -0.140946954860925,
                -1.273785541243736,
                2.227533590393166,
                -0.9149411174731785,
                0.7604568958083969,
                -3.1366761970017447
            ]
        },
        {
            "positions": [
                -0.20688656252231735,
                -1.307359342510083,
                2.291530391233826,
                -0.9485614095994379,
                0.9181744689915868,
                -3.1227215891992044
            ]
        },
        {
            "positions": [
                -0.2728261701837096,
                -1.3409331437764298,
                2.3555271920744856,
                -0.9821817017256973,
                1.0758920421747766,
                -3.108766981396664
            ]
        },
        {
            "positions": [
                -0.3387657778451019,
                -1.3745069450427767,
                2.4195239929151455,
                -1.0158019938519567,
                1.2336096153579665,
                -3.0948123735941238
            ]
        }
    ]
}