{
    "goal": {
        "global_pose": {
            "orientation": {
                "w": 0.7047431468963623,
                "x": -0.7094548344612122,
                "y": 0.0024358443915843964,
                "z": -0.0022348060738295317
            },
            "position": {
                "x": 0.6094750761985779,
                "y": 0.3671506643295288,
                "z": 0.19426114857196808
            }
        },
        "name": "move_to_magneteinheit_A"
    },
    "id": "SBL_move_to_magneteinheit_A_5",
    "joint_names": [
        "shoulder_pan_joint",
        "shoulder_lift_joint",
        "elbow_joint",
        "wrist_1_joint",
        "wrist_2_joint",
        "wrist_3_joint"
    ],
    "metrics": {
        "cart_traj_len": 1.8707413539408415,
        "distance_elbow_joint": 3.9310913196655184,
        "distance_shoulder_lift_joint": 0.7083828655877507,
        "distance_shoulder_pan_joint": 1.2416508663642587,
        "distance_wrist_1_joint": 1.5608095195872291,
        "distance_wrist_2_joint": 1.6986026888956614,
        "distance_wrist_3_joint": 1.193751554180471,
        "smoothness": 4.75809868779962e-16,
        "time": 0.154827368,
        "traj_len": 3.214698868367127,
        "weighted_distance": 3.9976498259758473
    },
    "planner": "SBL",
    "start": {
        "state": {
            "elbow_joint": -1.919643507792019,
            "shoulder_lift_joint": -0.07675430207160344,
            "shoulder_pan_joint": -1.1188671864651873,
            "wrist_1_joint": 0.42560062535961957,
            "wrist_2_joint": 1.5706038300724876,
            "wrist_3_joint": 1.1188968870953055
        }
    },
    "waypoints": [
        {
            "positions": [
                -1.1188671864651873,
                -0.07675430207160344,
                -1.919643507792019,
                0.42560062535961957,
                1.5706038300724876,
                1.1188968870953055
            ]
        },
        {
            "positions": [
                -1.072880117340585,
                -0.10299070450077939,
                -1.7740475329895924,
                0.4834083853443317,
                1.5076926193726483,
                1.0746838665701028
            ]
        },
        {
            "positions": [
                -1.026893048215983,
                -0.12922710692995534,
                -1.628451558187166,
                0.5412161453290439,
                1.444781408672809,
                1.0304708460449004
            ]
        },
        {
            "positions": [
                -0.9809059790913808,
                -0.15546350935913128,
                -1.4828555833847392,
                0.5990239053137562,
                1.3818701979729697,
                0.9862578255196977
            ]
        },
        {
            "positions": [
                -0.9349189099667786,
                -0.18169991178830724,
                -1.3372596085823127,
                0.6568316652984683,
                1.3189589872731304,
                0.942044804994495
            ]
        },
        {
            "positions": [
                -0.8889318408421765,
                -0.20793631421748318,
                -1.191663633779886,
                0.7146394252831805,
                1.2560477765732911,
                0.8978317844692925
            ]
        },
        {
            "positions": [
                -0.8429447717175743,
                -0.23417271664665915,
                -1.0460676589774596,
                0.7724471852678927,
                1.1931365658734518,
                0.8536187639440898
            ]
        },
        {
            "positions": [
                -0.7969577025929722,
                -0.2604091190758351,
                -0.9004716841750329,
                0.8302549452526049,
                1.1302253551736126,
                0.8094057434188872
            ]
        },
        {
            "positions": [
                -0.7509706334683699,
                -0.286645521505011,
                -0.7548757093726064,
                0.8880627052373171,
                1.067314144473773,
                0.7651927228936846
            ]
        },
        {
            "positions": [
                -0.7049835643437679,
                -0.312881923934187,
                -0.6092797345701797,
                0.9458704652220293,
                1.004402933773934,
                0.7209797023684819
            ]
        },
        {
            "positions": [
                -0.6589964952191656,
                -0.3391183263633629,
                -0.463683759767753,
                1.0036782252067413,
                0.9414917230740946,
                0.6767666818432793
            ]
        },
        {
            "positions": [
                -0.6130094260945634,
                -0.3653547287925389,
                -0.3180877849653265,
                1.0614859851914535,
                0.8785805123742553,
                0.6325536613180767
            ]
        },
        {
            "positions": [
                -0.5670223569699613,
                -0.39159113122171485,
                -0.17249181016289983,
                1.1192937451761658,
                0.815669301674416,
                0.588340640792874
            ]
        },
        {
            "positions": [
                -0.5210352878453591,
                -0.41782753365089076,
                -0.026895835360473352,
                1.177101505160878,
                0.7527580909745766,
                0.5441276202676714
            ]
        },
        {
            "positions": [
                -0.475048218720757,
                -0.4440639360800667,
                0.11870013944195335,
                1.2349092651455902,
                0.6898468802747373,
                0.49991459974246877
            ]
        },
        {
            "positions": [
                -0.4290611495961547,
                -0.4703003385092427,
                0.26429611424438026,
                1.2927170251303024,
                0.6269356695748979,
                0.45570157921726606
            ]
        },
        {
            "positions": [
                -0.38307408047155256,
                -0.4965367409384186,
                0.4098920890468063,
                1.3505247851150146,
                0.5640244588750587,
                0.41148855869206347
            ]
        },
        {
            "positions": [
                -0.3370870113469504,
                -0.5227731433675946,
                0.5554880638492332,
                1.4083325450997268,
                0.5011132481752194,
                0.36727553816686076
            ]
        },
        {
            "positions": [
                -0.29109994222234825,
                -0.5490095457967705,
                0.7010840386516597,
                1.466140305084439,
                0.4382020374753801,
                0.32306251764165816
            ]
        },
        {
            "positions": [
                -0.245112873097746,
                -0.5752459482259464,
                0.8466800134540866,
                1.5239480650691513,
                0.3752908267755406,
                0.27884949711645546
            ]
        },
        {
            "positions": [
                -0.19912580397314394,
                -0.6014823506551223,
                0.9922759882565131,
                1.5817558250538633,
                0.3123796160757015,
                0.23463647659125297
            ]
        },
        {
            "positions": [
                -0.15313873484854168,
                -0.6277187530842985,
                1.1378719630589396,
                1.6395635850385757,
                0.249468405375862,
                0.19042345606605027
            ]
        },
        {
            "positions": [
                -0.10715166572393953,
                -0.6539551555134744,
                1.283467937861366,
                1.6973713450232877,
                0.18655719467602294,
                0.14621043554084767
            ]
        },
        {
            "positions": [
                -0.06116459659933726,
                -0.6801915579426503,
                1.429063912663793,
                1.7551791050080001,
                0.12364598397618343,
                0.10199741501564508
            ]
        },
        {
            "positions": [
                -0.01517752747473522,
                -0.7064279603718262,
                1.5746598874662194,
                1.812986864992712,
                0.060734773276344356,
                0.05778439449044237
            ]
        },
        {
            "positions": [
                0.030809541649867045,
                -0.7326643628010021,
                1.720255862268646,
                1.8707946249774243,
                -0.002176437423495159,
                0.013571373965239664
            ]
        },
        {
            "positions": [
                0.07679661077446909,
                -0.758900765230178,
                1.8658518370710724,
                1.9286023849621365,
                -0.06508764812333445,
                -0.03064164655996282
            ]
        },
        {
            "positions": [
                0.12278367989907131,
                -0.7851371676593542,
                2.0114478118734995,
                1.9864101449468488,
                -0.1279988588231737,
                -0.07485466708516553
            ]
        }
    ]
}