{
    "goal": {
        "global_pose": {
            "orientation": {
                "w": 0.7047431468963623,
                "x": -0.7094548344612122,
                "y": 0.0024358443915843964,
                "z": -0.0022348060738295317
            },
            "position": {
                "x": 0.6094750761985779,
                "y": 0.3671506643295288,
                "z": 0.19426114857196808
            }
        },
        "name": "move_to_magneteinheit_A"
    },
    "id": "SPARS_move_to_magneteinheit_A_118",
    "joint_names": [
        "shoulder_pan_joint",
        "shoulder_lift_joint",
        "elbow_joint",
        "wrist_1_joint",
        "wrist_2_joint",
        "wrist_3_joint"
    ],
    "metrics": {
        "cart_traj_len": 2.7653546199981407,
        "distance_elbow_joint": 3.9071706347004493,
        "distance_shoulder_lift_joint": 1.0724873322867028,
        "distance_shoulder_pan_joint": 1.668934789292588,
        "distance_wrist_1_joint": 1.2769763937364011,
        "distance_wrist_2_joint": 1.43513700844942,
        "distance_wrist_3_joint": 4.2435292195857315,
        "smoothness": 0.04529316357224626,
        "time": 5.047401368,
        "traj_len": 3.688391977278349,
        "weighted_distance": 4.980301920507287
    },
    "planner": "SPARS",
    "start": {
        "state": {
            "elbow_joint": -1.919643507792019,
            "shoulder_lift_joint": -0.07675430207160344,
            "shoulder_pan_joint": -1.1188671864651873,
            "wrist_1_joint": 0.42560062535961957,
            "wrist_2_joint": 1.5706038300724876,
            "wrist_3_joint": 1.1188968870953055
        }
    },
    "waypoints": [
        {
            "positions": [
                -1.1188671864651873,
                -0.07675430207160344,
                -1.919643507792019,
                0.42560062535961957,
                1.5706038300724876,
                1.1188968870953055
            ]
        },
        {
            "positions": [
                -1.1382724015499395,
                -0.15669822873035164,
                -1.8151745659682454,
                0.3347906517992627,
                1.5584320408705126,
                1.0527289384394127
            ]
        },
        {
            "positions": [
                -1.1576776166346916,
                -0.23664215538909983,
                -1.710705624144472,
                0.24398067823890585,
                1.5462602516685373,
                0.9865609897835197
            ]
        },
        {
            "positions": [
                -1.1770828317194437,
                -0.316586082047848,
                -1.6062366823206984,
                0.15317070467854904,
                1.5340884624665623,
                0.9203930411276269
            ]
        },
        {
            "positions": [
                -1.1964880468041958,
                -0.3965300087065962,
                -1.5017677404969247,
                0.062360731118192125,
                1.521916673264587,
                0.8542250924717338
            ]
        },
        {
            "positions": [
                -1.215893261888948,
                -0.4764739353653444,
                -1.3972987986731513,
                -0.02844924244216468,
                1.509744884062612,
                0.788057143815841
            ]
        },
        {
            "positions": [
                -1.2352984769737,
                -0.5564178620240926,
                -1.2928298568493777,
                -0.11925921600252148,
                1.4975730948606367,
                0.7218891951599481
            ]
        },
        {
            "positions": [
                -1.2547036920584522,
                -0.6363617886828408,
                -1.188360915025604,
                -0.2100691895628784,
                1.4854013056586617,
                0.6557212465040552
            ]
        },
        {
            "positions": [
                -1.2741089071432044,
                -0.716305715341589,
                -1.0838919732018304,
                -0.3008791631232353,
                1.4732295164566864,
                0.5895532978481622
            ]
        },
        {
            "positions": [
                -1.2935141222279565,
                -0.7962496420003373,
                -0.9794230313780568,
                -0.39168913668359223,
                1.4610577272547114,
                0.5233853491922692
            ]
        },
        {
            "positions": [
                -1.3129193373127086,
                -0.8761935686590854,
                -0.8749540895542833,
                -0.4824991102439489,
                1.4488859380527361,
                0.4572174005363764
            ]
        },
        {
            "positions": [
                -1.3323245523974607,
                -0.9561374953178337,
                -0.7704851477305097,
                -0.5733090838043059,
                1.436714148850761,
                0.3910494518804835
            ]
        },
        {
            "positions": [
                -1.2716796597574476,
                -0.9641835011111867,
                -0.6555679696205539,
                -0.5848951956614924,
                1.382495510216274,
                0.24456271086502904
            ]
        },
        {
            "positions": [
                -1.2110347671174344,
                -0.9722295069045397,
                -0.540650791510598,
                -0.5964813075186788,
                1.3282768715817865,
                0.09807596984957456
            ]
        },
        {
            "positions": [
                -1.1503898744774212,
                -0.9802755126978927,
                -0.4257336134006422,
                -0.6080674193758653,
                1.2740582329472994,
                -0.04841077116587994
            ]
        },
        {
            "positions": [
                -1.0897449818374083,
                -0.9883215184912457,
                -0.31081643529068637,
                -0.6196535312330518,
                1.2198395943128122,
                -0.1948975121813344
            ]
        },
        {
            "positions": [
                -1.0291000891973952,
                -0.9963675242845987,
                -0.19589925718073053,
                -0.6312396430902382,
                1.165620955678325,
                -0.34138425319678894
            ]
        },
        {
            "positions": [
                -0.968455196557382,
                -1.0044135300779518,
                -0.0809820790707747,
                -0.6428257549474247,
                1.1114023170438376,
                -0.4878709942122434
            ]
        },
        {
            "positions": [
                -0.9078103039173688,
                -1.0124595358713049,
                0.03393509903918113,
                -0.6544118668046112,
                1.0571836784093505,
                -0.6343577352276979
            ]
        },
        {
            "positions": [
                -0.8471654112773558,
                -1.0205055416646578,
                0.14885227714913696,
                -0.6659979786617976,
                1.0029650397748633,
                -0.7808444762431523
            ]
        },
        {
            "positions": [
                -0.7865205186373426,
                -1.028551547458011,
                0.2637694552590928,
                -0.677584090518984,
                0.948746401140376,
                -0.9273312172586068
            ]
        },
        {
            "positions": [
                -0.7258756259973295,
                -1.0365975532513638,
                0.3786866333690486,
                -0.6891702023761705,
                0.8945277625058887,
                -1.0738179582740615
            ]
        },
        {
            "positions": [
                -0.6652307333573164,
                -1.044643559044717,
                0.49360381147900445,
                -0.7007563142333569,
                0.8403091238714016,
                -1.220304699289516
            ]
        },
        {
            "positions": [
                -0.6045858407173033,
                -1.05268956483807,
                0.6085209895889603,
                -0.7123424260905434,
                0.7860904852369143,
                -1.3667914403049704
            ]
        },
        {
            "positions": [
                -0.5439409480772902,
                -1.060735570631423,
                0.7234381676989161,
                -0.7239285379477298,
                0.7318718466024271,
                -1.5132781813204248
            ]
        },
        {
            "positions": [
                -0.48329605543727694,
                -1.0687815764247761,
                0.8383553458088719,
                -0.7355146498049163,
                0.6776532079679397,
                -1.6597649223358792
            ]
        },
        {
            "positions": [
                -0.4226511627972639,
                -1.076827582218129,
                0.9532725239188278,
                -0.7471007616621028,
                0.6234345693334525,
                -1.806251663351334
            ]
        },
        {
            "positions": [
                -0.36200627015725084,
                -1.0848735880114821,
                1.0681897020287836,
                -0.7586868735192893,
                0.5692159306989654,
                -1.9527384043667881
            ]
        },
        {
            "positions": [
                -0.3013613775172377,
                -1.092919593804835,
                1.1831068801387394,
                -0.7702729853764758,
                0.5149972920644781,
                -2.099225145382243
            ]
        },
        {
            "positions": [
                -0.24071648487722452,
                -1.1009655995981882,
                1.2980240582486953,
                -0.7818590972336622,
                0.4607786534299909,
                -2.245711886397697
            ]
        },
        {
            "positions": [
                -0.18007159223721136,
                -1.109011605391541,
                1.412941236358651,
                -0.7934452090908486,
                0.40656001479550374,
                -2.3921986274131517
            ]
        },
        {
            "positions": [
                -0.1194266995971982,
                -1.1170576111848942,
                1.527858414468607,
                -0.8050313209480351,
                0.35234137616101635,
                -2.5386853684286064
            ]
        },
        {
            "positions": [
                -0.058781806957185045,
                -1.1251036169782471,
                1.6427755925785628,
                -0.8166174328052216,
                0.2981227375265292,
                -2.6851721094440606
            ]
        },
        {
            "positions": [
                0.0018630856828278919,
                -1.1331496227716003,
                1.7576927706885186,
                -0.8282035446624081,
                0.243904098892042,
                -2.8316588504595153
            ]
        },
        {
            "positions": [
                0.06250797832284105,
                -1.1411956285649532,
                1.8726099487984744,
                -0.8397896565195946,
                0.18968546025755462,
                -2.97814559147497
            ]
        },
        {
            "positions": [
                0.12315287096285411,
                -1.1492416343583063,
                1.9875271269084303,
                -0.851375768376781,
                0.13546682162306745,
                -3.124632332490424
            ]
        }
    ]
}