{
    "goal": {
        "global_pose": {
            "orientation": {
                "w": 0.7031023502349854,
                "x": -0.7110244035720825,
                "y": 0.007748599164187908,
                "z": 0.005598929710686207
            },
            "position": {
                "x": 0.11585023208521307,
                "y": 0.44412534475326537,
                "z": 0.3711530566215515
            }
        },
        "name": "move_to_auspresseinheit_A"
    },
    "id": "SPARS_move_to_auspresseinheit_A_30",
    "joint_names": [
        "shoulder_pan_joint",
        "shoulder_lift_joint",
        "elbow_joint",
        "wrist_1_joint",
        "wrist_2_joint",
        "wrist_3_joint"
    ],
    "metrics": {
        "cart_traj_len": 1.9681123407123358,
        "distance_elbow_joint": 1.8082241968098147,
        "distance_shoulder_lift_joint": 0.8353573300946298,
        "distance_shoulder_pan_joint": 1.3824129149593993,
        "distance_wrist_1_joint": 0.5467925662499374,
        "distance_wrist_2_joint": 0.5174665307376926,
        "distance_wrist_3_joint": 0.9943720454347678,
        "smoothness": 1.1607089177814611,
        "time": 5.045413944,
        "traj_len": 2.466703383928891,
        "weighted_distance": 3.022851099896157
    },
    "planner": "SPARS",
    "start": {
        "state": {
            "elbow_joint": 2.422574709923281,
            "shoulder_lift_joint": -1.3736533754116391,
            "shoulder_pan_joint": -0.33786336945926293,
            "wrist_1_joint": -1.0288603412921917,
            "wrist_2_joint": 1.2330224858903978,
            "wrist_3_joint": -3.094022268022082
        }
    },
    "waypoints": [
        {
            "positions": [
                -0.33786336945926293,
                -1.3736533754116391,
                2.422574709923281,
                -1.0288603412921917,
                1.2330224858903978,
                -3.094022268022082
            ]
        },
        {
            "positions": [
                -0.35900381085486555,
                -1.4595724826523302,
                2.307976762306747,
                -0.990542322441581,
                1.1872809680703726,
                -3.0342466155162464
            ]
        },
        {
            "positions": [
                -0.3801442522504682,
                -1.5454915898930213,
                2.1933788146902127,
                -0.9522243035909702,
                1.1415394502503475,
                -2.9744709630104103
            ]
        },
        {
            "positions": [
                -0.40128469364607083,
                -1.6314106971337121,
                2.0787808670736787,
                -0.9139062847403595,
                1.0957979324303222,
                -2.914695310504574
            ]
        },
        {
            "positions": [
                -0.42242513504167345,
                -1.7173298043744032,
                1.9641829194571445,
                -0.8755882658897487,
                1.050056414610297,
                -2.8549196579987384
            ]
        },
        {
            "positions": [
                -0.4435655764372761,
                -1.8032489116150943,
                1.8495849718406103,
                -0.837270247039138,
                1.004314896790272,
                -2.7951440054929027
            ]
        },
        {
            "positions": [
                -0.46470601783287874,
                -1.8891680188557851,
                1.7349870242240764,
                -0.7989522281885273,
                0.9585733789702467,
                -2.7353683529870665
            ]
        },
        {
            "positions": [
                -0.48584645922848135,
                -1.9750871260964762,
                1.6203890766075422,
                -0.7606342093379166,
                0.9128318611502215,
                -2.6755927004812303
            ]
        },
        {
            "positions": [
                -0.506986900624084,
                -2.0610062333371673,
                1.505791128991008,
                -0.7223161904873058,
                0.8670903433301964,
                -2.6158170479753946
            ]
        },
        {
            "positions": [
                -0.3553257276497617,
                -2.0425056743160295,
                1.6172212059757007,
                -0.6922851385566744,
                0.84814854480801,
                -2.6803379011489046
            ]
        },
        {
            "positions": [
                -0.20366455467543942,
                -2.0240051152948917,
                1.7286512829603935,
                -0.6622540866260429,
                0.8292067462858236,
                -2.7448587543224146
            ]
        },
        {
            "positions": [
                -0.052003381701117124,
                -2.0055045562737543,
                1.840081359945086,
                -0.6322230346954114,
                0.8102649477636372,
                -2.8093796074959245
            ]
        },
        {
            "positions": [
                0.09965779127320518,
                -1.9870039972526166,
                1.9515114369297788,
                -0.60219198276478,
                0.7913231492414508,
                -2.873900460669435
            ]
        },
        {
            "positions": [
                0.2513189642475274,
                -1.9685034382314788,
                2.0629415139144713,
                -0.5721609308341487,
                0.7723813507192644,
                -2.938421313842945
            ]
        },
        {
            "positions": [
                0.4029801372218498,
                -1.950002879210341,
                2.174371590899164,
                -0.5421298789035172,
                0.753439552197078,
                -3.002942167016455
            ]
        },
        {
            "positions": [
                0.5546413101961721,
                -1.9315023201892034,
                2.285801667883857,
                -0.5120988269728857,
                0.7344977536748916,
                -3.067463020189965
            ]
        },
        {
            "positions": [
                0.7063024831704943,
                -1.9130017611680656,
                2.3972317448685496,
                -0.4820677750422543,
                0.7155559551527052,
                -3.131983873363475
            ]
        }
    ]
}