{
    "goal": {
        "global_pose": {
            "orientation": {
                "w": 0.7047431468963623,
                "x": -0.7094548344612122,
                "y": 0.0024358443915843964,
                "z": -0.0022348060738295317
            },
            "position": {
                "x": 0.6094750761985779,
                "y": 0.3671506643295288,
                "z": 0.19426114857196808
            }
        },
        "name": "move_to_magneteinheit_A"
    },
    "id": "SPARS_move_to_magneteinheit_A_54",
    "joint_names": [
        "shoulder_pan_joint",
        "shoulder_lift_joint",
        "elbow_joint",
        "wrist_1_joint",
        "wrist_2_joint",
        "wrist_3_joint"
    ],
    "metrics": {
        "cart_traj_len": 1.8763523891092426,
        "distance_elbow_joint": 3.914467876041469,
        "distance_shoulder_lift_joint": 0.701114978305643,
        "distance_shoulder_pan_joint": 1.2405135163227745,
        "distance_wrist_1_joint": 1.5059359917857327,
        "distance_wrist_2_joint": 1.69699643359922,
        "distance_wrist_3_joint": 1.1164708942338986,
        "smoothness": 2.3026848014793875e-16,
        "time": 5.021647649,
        "traj_len": 3.189905906181049,
        "weighted_distance": 3.9511231193347407
    },
    "planner": "SPARS",
    "start": {
        "state": {
            "elbow_joint": -1.919643507792019,
            "shoulder_lift_joint": -0.07675430207160344,
            "shoulder_pan_joint": -1.1188671864651873,
            "wrist_1_joint": 0.42560062535961957,
            "wrist_2_joint": 1.5706038300724876,
            "wrist_3_joint": 1.1188968870953055
        }
    },
    "waypoints": [
        {
            "positions": [
                -1.1188671864651873,
                -0.07675430207160344,
                -1.919643507792019,
                0.42560062535961957,
                1.5706038300724876,
                1.1188968870953055
            ]
        },
        {
            "positions": [
                -1.0711551281450806,
                -0.10372026277566664,
                -1.7690870510211933,
                0.4835212404283016,
                1.5053347364725176,
                1.0759556988555403
            ]
        },
        {
            "positions": [
                -1.023443069824974,
                -0.13068622347972983,
                -1.6185305942503676,
                0.5414418554969836,
                1.4400656428725476,
                1.0330145106157749
            ]
        },
        {
            "positions": [
                -0.9757310115048672,
                -0.157652184183793,
                -1.4679741374795419,
                0.5993624705656657,
                1.3747965492725776,
                0.9900733223760095
            ]
        },
        {
            "positions": [
                -0.9280189531847605,
                -0.18461814488785622,
                -1.3174176807087161,
                0.6572830856343477,
                1.3095274556726075,
                0.9471321341362442
            ]
        },
        {
            "positions": [
                -0.8803068948646537,
                -0.2115841055919194,
                -1.1668612239378904,
                0.7152037007030296,
                1.2442583620726375,
                0.9041909458964789
            ]
        },
        {
            "positions": [
                -0.832594836544547,
                -0.2385500662959826,
                -1.0163047671670646,
                0.7731243157717118,
                1.1789892684726675,
                0.8612497576567135
            ]
        },
        {
            "positions": [
                -0.7848827782244403,
                -0.26551602700004573,
                -0.8657483103962391,
                0.8310449308403938,
                1.1137201748726977,
                0.8183085694169483
            ]
        },
        {
            "positions": [
                -0.7371707199043336,
                -0.292481987704109,
                -0.7151918536254132,
                0.8889655459090757,
                1.0484510812727277,
                0.7753673811771828
            ]
        },
        {
            "positions": [
                -0.689458661584227,
                -0.31944794840817214,
                -0.5646353968545876,
                0.9468861609777577,
                0.9831819876727577,
                0.7324261929374176
            ]
        },
        {
            "positions": [
                -0.6417466032641201,
                -0.34641390911223535,
                -0.41407894008376167,
                1.0048067760464399,
                0.9179128940727875,
                0.6894850046976522
            ]
        },
        {
            "positions": [
                -0.5940345449440135,
                -0.37337986981629856,
                -0.26352248331293615,
                1.0627273911151218,
                0.8526438004728176,
                0.6465438164578869
            ]
        },
        {
            "positions": [
                -0.5463224866239068,
                -0.40034583052036177,
                -0.11296602654211019,
                1.120648006183804,
                0.7873747068728475,
                0.6036026282181216
            ]
        },
        {
            "positions": [
                -0.4986104283038001,
                -0.4273117912244249,
                0.03759043022871533,
                1.178568621252486,
                0.7221056132728776,
                0.5606614399783563
            ]
        },
        {
            "positions": [
                -0.45089836998369337,
                -0.45427775192848807,
                0.18814688699954085,
                1.236489236321168,
                0.6568365196729077,
                0.5177202517385909
            ]
        },
        {
            "positions": [
                -0.40318631166358676,
                -0.4812437126325513,
                0.33870334377036637,
                1.2944098513898499,
                0.5915674260729377,
                0.4747790634988257
            ]
        },
        {
            "positions": [
                -0.35547425334347993,
                -0.5082096733366146,
                0.4892598005411928,
                1.352330466458532,
                0.5262983324729675,
                0.43183787525906026
            ]
        },
        {
            "positions": [
                -0.3077621950233732,
                -0.5351756340406777,
                0.6398162573120183,
                1.410251081527214,
                0.4610292388729975,
                0.3888966870192949
            ]
        },
        {
            "positions": [
                -0.2600501367032666,
                -0.5621415947447408,
                0.7903727140828438,
                1.468171696595896,
                0.3957601452730277,
                0.3459554987795297
            ]
        },
        {
            "positions": [
                -0.21233807838315988,
                -0.5891075554488041,
                0.9409291708536693,
                1.5260923116645781,
                0.3304910516730577,
                0.30301431053976435
            ]
        },
        {
            "positions": [
                -0.16462602006305305,
                -0.6160735161528672,
                1.0914856276244957,
                1.58401292673326,
                0.26522195807308746,
                0.2600731222999989
            ]
        },
        {
            "positions": [
                -0.11691396174294644,
                -0.6430394768569305,
                1.2420420843953213,
                1.6419335418019423,
                0.19995286447311744,
                0.21713193406023357
            ]
        },
        {
            "positions": [
                -0.06920190342283972,
                -0.6700054375609936,
                1.3925985411661468,
                1.6998541568706242,
                0.13468377087314765,
                0.17419074582046834
            ]
        },
        {
            "positions": [
                -0.021489845102732996,
                -0.6969713982650567,
                1.5431549979369723,
                1.7577747719393062,
                0.06941467727317763,
                0.131249557580703
            ]
        },
        {
            "positions": [
                0.026222213217373724,
                -0.72393735896912,
                1.6937114547077987,
                1.8156953870079884,
                0.004145583673207387,
                0.08830836934093766
            ]
        },
        {
            "positions": [
                0.07393427153748044,
                -0.7509033196731831,
                1.8442679114786242,
                1.8736160020766703,
                -0.06112350992676241,
                0.045367181101172216
            ]
        },
        {
            "positions": [
                0.12164632985758707,
                -0.7778692803772465,
                1.9948243682494495,
                1.9315366171453523,
                -0.12639260352673237,
                0.002425992861406997
            ]
        }
    ]
}