{
    "goal": {
        "global_pose": {
            "orientation": {
                "w": 0.7047431468963623,
                "x": -0.7094548344612122,
                "y": 0.0024358443915843964,
                "z": -0.0022348060738295317
            },
            "position": {
                "x": 0.6094750761985779,
                "y": 0.3671506643295288,
                "z": 0.19426114857196808
            }
        },
        "name": "move_to_magneteinheit_A"
    },
    "id": "SPARS_move_to_magneteinheit_A_28",
    "joint_names": [
        "shoulder_pan_joint",
        "shoulder_lift_joint",
        "elbow_joint",
        "wrist_1_joint",
        "wrist_2_joint",
        "wrist_3_joint"
    ],
    "metrics": {
        "cart_traj_len": 2.586980831882958,
        "distance_elbow_joint": 3.868793962677682,
        "distance_shoulder_lift_joint": 1.1253533839651886,
        "distance_shoulder_pan_joint": 2.1806784788684874,
        "distance_wrist_1_joint": 1.1170293224691823,
        "distance_wrist_2_joint": 1.450278498747887,
        "distance_wrist_3_joint": 4.383782939504789,
        "smoothness": 0.05072297607698565,
        "time": 5.058850584,
        "traj_len": 3.758446033433661,
        "weighted_distance": 5.045868635473963
    },
    "planner": "SPARS",
    "start": {
        "state": {
            "elbow_joint": -1.919643507792019,
            "shoulder_lift_joint": -0.07675430207160344,
            "shoulder_pan_joint": -1.1188671864651873,
            "wrist_1_joint": 0.42560062535961957,
            "wrist_2_joint": 1.5706038300724876,
            "wrist_3_joint": 1.1188968870953055
        }
    },
    "waypoints": [
        {
            "positions": [
                -1.1188671864651873,
                -0.07675430207160344,
                -1.919643507792019,
                0.42560062535961957,
                1.5706038300724876,
                1.1188968870953055
            ]
        },
        {
            "positions": [
                -1.138440302590024,
                -0.12204667574499806,
                -1.816092405894118,
                0.4041768259700421,
                1.5345277482662745,
                0.9517105045362699
            ]
        },
        {
            "positions": [
                -1.1580134187148607,
                -0.16733904941839267,
                -1.7125413039962167,
                0.3827530265804647,
                1.4984516664600616,
                0.7845241219772342
            ]
        },
        {
            "positions": [
                -1.1775865348396974,
                -0.21263142309178729,
                -1.6089902020983158,
                0.3613292271908872,
                1.4623755846538484,
                0.6173377394181985
            ]
        },
        {
            "positions": [
                -1.197159650964534,
                -0.2579237967651819,
                -1.5054391002004146,
                0.33990542780130983,
                1.4262995028476355,
                0.45015135685916285
            ]
        },
        {
            "positions": [
                -1.2167327670893706,
                -0.3032161704385765,
                -1.4018879983025134,
                0.31848162841173233,
                1.3902234210414224,
                0.282964974300127
            ]
        },
        {
            "positions": [
                -1.2363058832142073,
                -0.34850854411197113,
                -1.2983368964046123,
                0.29705782902215494,
                1.3541473392352095,
                0.1157785917410914
            ]
        },
        {
            "positions": [
                -1.255878999339044,
                -0.39380091778536574,
                -1.194785794506711,
                0.27563402963257744,
                1.3180712574289963,
                -0.05140779081794444
            ]
        },
        {
            "positions": [
                -1.2754521154638807,
                -0.43909329145876036,
                -1.09123469260881,
                0.25421023024300005,
                1.2819951756227832,
                -0.21859417337697984
            ]
        },
        {
            "positions": [
                -1.2950252315887174,
                -0.484385665132155,
                -0.9876835907109088,
                0.2327864308534226,
                1.2459190938165703,
                -0.3857805559360157
            ]
        },
        {
            "positions": [
                -1.314598347713554,
                -0.5296780388055495,
                -0.8841324888130075,
                0.21136263146384512,
                1.2098430120103572,
                -0.5529669384950515
            ]
        },
        {
            "positions": [
                -1.3341714638383908,
                -0.5749704124789442,
                -0.7805813869151066,
                0.1899388320742677,
                1.1737669302041442,
                -0.7201533210540869
            ]
        },
        {
            "positions": [
                -1.3537445799632275,
                -0.6202627861523389,
                -0.6770302850172054,
                0.16851503268469026,
                1.137690848397931,
                -0.8873397036131228
            ]
        },
        {
            "positions": [
                -1.373317696088064,
                -0.6655551598257334,
                -0.5734791831193045,
                0.1470912332951128,
                1.1016147665917182,
                -1.0545260861721584
            ]
        },
        {
            "positions": [
                -1.3928908122129007,
                -0.710847533499128,
                -0.46992808122140306,
                0.12566743390553536,
                1.0655386847855048,
                -1.2217124687311944
            ]
        },
        {
            "positions": [
                -1.4124639283377374,
                -0.7561399071725228,
                -0.3663769793235019,
                0.10424363451595792,
                1.029462602979292,
                -1.38889885129023
            ]
        },
        {
            "positions": [
                -1.432037044462574,
                -0.8014322808459173,
                -0.26282587742560093,
                0.08281983512638053,
                0.993386521173079,
                -1.5560852338492652
            ]
        },
        {
            "positions": [
                -1.4516101605874108,
                -0.8467246545193119,
                -0.15927477552769953,
                0.06139603573680302,
                0.9573104393668659,
                -1.7232716164083013
            ]
        },
        {
            "positions": [
                -1.4711832767122475,
                -0.8920170281927065,
                -0.055723673629798576,
                0.03997223634722563,
                0.9212343575606529,
                -1.890457998967337
            ]
        },
        {
            "positions": [
                -1.490756392837084,
                -0.937309401866101,
                0.04782742826810238,
                0.018548436957648184,
                0.8851582757544398,
                -2.0576443815263725
            ]
        },
        {
            "positions": [
                -1.5103295089619206,
                -0.9826017755394958,
                0.151378530166004,
                -0.002875362431929318,
                0.8490821939482267,
                -2.2248307640854086
            ]
        },
        {
            "positions": [
                -1.5299026250867573,
                -1.0278941492128904,
                0.25492963206390473,
                -0.02429916182150671,
                0.8130061121420138,
                -2.3920171466444438
            ]
        },
        {
            "positions": [
                -1.549475741211594,
                -1.073186522886285,
                0.3584807339618059,
                -0.04572296121108416,
                0.7769300303358008,
                -2.5592035292034794
            ]
        },
        {
            "positions": [
                -1.5690488573364307,
                -1.1184788965596797,
                0.4620318358597071,
                -0.0671467606006616,
                0.7408539485295876,
                -2.7263899117625154
            ]
        },
        {
            "positions": [
                -1.5886219734612674,
                -1.1637712702330743,
                0.565582937757608,
                -0.08857055999023901,
                0.7047778667233746,
                -2.893576294321551
            ]
        },
        {
            "positions": [
                -1.4460449991385669,
                -1.1605765689160978,
                0.6808802308516125,
                -0.13880873808351596,
                0.6560734887734768,
                -2.924518774162212
            ]
        },
        {
            "positions": [
                -1.3034680248158663,
                -1.1573818675991212,
                0.796177523945617,
                -0.18904691617679292,
                0.607369110823579,
                -2.9554612540028735
            ]
        },
        {
            "positions": [
                -1.1608910504931655,
                -1.1541871662821448,
                0.9114748170396216,
                -0.2392850942700699,
                0.5586647328736812,
                -2.9864037338435345
            ]
        },
        {
            "positions": [
                -1.018314076170465,
                -1.1509924649651684,
                1.026772110133626,
                -0.2895232723633468,
                0.5099603549237834,
                -3.0173462136841955
            ]
        },
        {
            "positions": [
                -0.8757371018477643,
                -1.1477977636481917,
                1.1420694032276306,
                -0.33976145045662376,
                0.4612559769738856,
                -3.048288693524857
            ]
        },
        {
            "positions": [
                -0.7331601275250638,
                -1.1446030623312153,
                1.2573666963216352,
                -0.3899996285499007,
                0.4125515990239878,
                -3.079231173365518
            ]
        },
        {
            "positions": [
                -0.5905831532023631,
                -1.141408361014239,
                1.3726639894156398,
                -0.4402378066431777,
                0.36384722107408995,
                -3.110173653206179
            ]
        },
        {
            "positions": [
                -0.44800617887966254,
                -1.1382136596972623,
                1.487961282509644,
                -0.4904759847364546,
                0.3151428431241922,
                -3.1411161330468405
            ]
        },
        {
            "positions": [
                -0.305429204556962,
                -1.1350189583802859,
                1.6032585756036486,
                -0.5407141628297316,
                0.26643846517429437,
                -3.1720586128875015
            ]
        },
        {
            "positions": [
                -0.1628522302342612,
                -1.1318242570633095,
                1.7185558686976532,
                -0.5909523409230085,
                0.21773408722439658,
                -3.2030010927281625
            ]
        },
        {
            "positions": [
                -0.020275255911560874,
                -1.1286295557463328,
                1.8338531617916576,
                -0.6411905190162854,
                0.16902970927449879,
                -3.233943572568824
            ]
        },
        {
            "positions": [
                0.12230171841113988,
                -1.1254348544293564,
                1.9491504548856622,
                -0.6914286971095625,
                0.12032533132460099,
                -3.264886052409485
            ]
        }
    ]
}