{
    "goal": {
        "global_pose": {
            "orientation": {
                "w": 0.7047431468963623,
                "x": -0.7094548344612122,
                "y": 0.0024358443915843964,
                "z": -0.0022348060738295317
            },
            "position": {
                "x": 0.6094750761985779,
                "y": 0.3671506643295288,
                "z": 0.19426114857196808
            }
        },
        "name": "move_to_magneteinheit_A"
    },
    "id": "SPARS_move_to_magneteinheit_A_141",
    "joint_names": [
        "shoulder_pan_joint",
        "shoulder_lift_joint",
        "elbow_joint",
        "wrist_1_joint",
        "wrist_2_joint",
        "wrist_3_joint"
    ],
    "metrics": {
        "cart_traj_len": 1.8803312774690901,
        "distance_elbow_joint": 3.911393713066009,
        "distance_shoulder_lift_joint": 0.6982867810216464,
        "distance_shoulder_pan_joint": 1.2418249172521085,
        "distance_wrist_1_joint": 1.4820675239859369,
        "distance_wrist_2_joint": 1.70912072238163,
        "distance_wrist_3_joint": 1.0971206339567023,
        "smoothness": 3.6185046922262754e-16,
        "time": 5.023378653,
        "traj_len": 3.1843075058266646,
        "weighted_distance": 3.9402085992933173
    },
    "planner": "SPARS",
    "start": {
        "state": {
            "elbow_joint": -1.919643507792019,
            "shoulder_lift_joint": -0.07675430207160344,
            "shoulder_pan_joint": -1.1188671864651873,
            "wrist_1_joint": 0.42560062535961957,
            "wrist_2_joint": 1.5706038300724876,
            "wrist_3_joint": 1.1188968870953055
        }
    },
    "waypoints": [
        {
            "positions": [
                -1.1188671864651873,
                -0.07675430207160344,
                -1.919643507792019,
                0.42560062535961957,
                1.5706038300724876,
                1.1188968870953055
            ]
        },
        {
            "positions": [
                -1.0711046896477985,
                -0.10361148595705139,
                -1.769205288058711,
                0.48260322243600173,
                1.5048684176731941,
                1.0766999396354324
            ]
        },
        {
            "positions": [
                -1.0233421928304098,
                -0.13046866984249933,
                -1.618767068325403,
                0.539605819512384,
                1.4391330052739006,
                1.0345029921755593
            ]
        },
        {
            "positions": [
                -0.975579696013021,
                -0.15732585372794727,
                -1.468328848592095,
                0.5966084165887662,
                1.3733975928746072,
                0.9923060447156861
            ]
        },
        {
            "positions": [
                -0.9278171991956322,
                -0.18418303761339522,
                -1.317890628858787,
                0.6536110136651483,
                1.3076621804753137,
                0.9501090972558128
            ]
        },
        {
            "positions": [
                -0.8800547023782433,
                -0.21104022149884313,
                -1.1674524091254788,
                0.7106136107415305,
                1.2419267680760202,
                0.9079121497959397
            ]
        },
        {
            "positions": [
                -0.8322922055608546,
                -0.23789740538429108,
                -1.017014189392171,
                0.7676162078179127,
                1.1761913556767267,
                0.8657152023360666
            ]
        },
        {
            "positions": [
                -0.7845297087434658,
                -0.26475458926973905,
                -0.8665759696588629,
                0.8246188048942948,
                1.1104559432774335,
                0.8235182548761935
            ]
        },
        {
            "positions": [
                -0.7367672119260771,
                -0.29161177315518694,
                -0.7161377499255548,
                0.8816214019706772,
                1.04472053087814,
                0.7813213074163202
            ]
        },
        {
            "positions": [
                -0.6890047151086882,
                -0.3184689570406349,
                -0.565699530192247,
                0.9386239990470593,
                0.9789851184788465,
                0.739124359956447
            ]
        },
        {
            "positions": [
                -0.6412422182912993,
                -0.3453261409260828,
                -0.41526131045893866,
                0.9956265961234414,
                0.9132497060795529,
                0.6969274124965739
            ]
        },
        {
            "positions": [
                -0.5934797214739107,
                -0.37218332481153077,
                -0.2648230907256308,
                1.0526291931998237,
                0.8475142936802595,
                0.6547304650367007
            ]
        },
        {
            "positions": [
                -0.5457172246565218,
                -0.3990405086969787,
                -0.11438487099232253,
                1.1096317902762058,
                0.781778881280966,
                0.6125335175768275
            ]
        },
        {
            "positions": [
                -0.4979547278391331,
                -0.42589769258242666,
                0.036053348740985314,
                1.166634387352588,
                0.7160434688816726,
                0.5703365701169544
            ]
        },
        {
            "positions": [
                -0.4501922310217443,
                -0.4527548764678746,
                0.18649156847429338,
                1.22363698442897,
                0.6503080564823792,
                0.5281396226570813
            ]
        },
        {
            "positions": [
                -0.40242973420435557,
                -0.4796120603533225,
                0.3369297882076012,
                1.2806395815053524,
                0.5845726440830857,
                0.48594267519720813
            ]
        },
        {
            "positions": [
                -0.3546672373869667,
                -0.5064692442387705,
                0.4873680079409095,
                1.3376421785817347,
                0.5188372316837921,
                0.4437457277373349
            ]
        },
        {
            "positions": [
                -0.30690474056957795,
                -0.5333264281242185,
                0.6378062276742174,
                1.3946447756581168,
                0.45310181928449866,
                0.40154878027746166
            ]
        },
        {
            "positions": [
                -0.2591422437521892,
                -0.5601836120096664,
                0.7882444474075252,
                1.451647372734499,
                0.3873664068852054,
                0.35935183281758853
            ]
        },
        {
            "positions": [
                -0.21137974693480044,
                -0.5870407958951143,
                0.9386826671408335,
                1.508649969810881,
                0.3216309944859119,
                0.3171548853577154
            ]
        },
        {
            "positions": [
                -0.16361725011741146,
                -0.6138979797805622,
                1.0891208868741418,
                1.5656525668872634,
                0.2558955820866182,
                0.2749579378978422
            ]
        },
        {
            "positions": [
                -0.1158547533000227,
                -0.6407551636660103,
                1.2395591066074496,
                1.6226551639636455,
                0.19016016968732474,
                0.23276099043796905
            ]
        },
        {
            "positions": [
                -0.06809225648263406,
                -0.6676123475514582,
                1.3899973263407575,
                1.6796577610400278,
                0.12442475728803148,
                0.19056404297809593
            ]
        },
        {
            "positions": [
                -0.020329759665245195,
                -0.694469531436906,
                1.5404355460740653,
                1.73666035811641,
                0.058689344888738004,
                0.1483670955182227
            ]
        },
        {
            "positions": [
                0.02743273715214367,
                -0.7213267153223539,
                1.690873765807374,
                1.7936629551927923,
                -0.007046067510555698,
                0.10617014805834946
            ]
        },
        {
            "positions": [
                0.07519523396953232,
                -0.748183899207802,
                1.8413119855406819,
                1.8506655522691744,
                -0.07278147990984896,
                0.06397320059847633
            ]
        },
        {
            "positions": [
                0.1229577307869211,
                -0.7750410830932499,
                1.9917502052739897,
                1.9076681493455565,
                -0.1385168923091425,
                0.021776253138603284
            ]
        }
    ]
}