{
    "goal": {
        "global_pose": {
            "orientation": {
                "w": 0.7047431468963623,
                "x": -0.7094548344612122,
                "y": 0.0024358443915843964,
                "z": -0.0022348060738295317
            },
            "position": {
                "x": 0.6094750761985779,
                "y": 0.3671506643295288,
                "z": 0.19426114857196808
            }
        },
        "name": "move_to_magneteinheit_A"
    },
    "id": "SPARS_move_to_magneteinheit_A_136",
    "joint_names": [
        "shoulder_pan_joint",
        "shoulder_lift_joint",
        "elbow_joint",
        "wrist_1_joint",
        "wrist_2_joint",
        "wrist_3_joint"
    ],
    "metrics": {
        "cart_traj_len": 2.064538620698624,
        "distance_elbow_joint": 3.8765681597641586,
        "distance_shoulder_lift_joint": 1.053783972212329,
        "distance_shoulder_pan_joint": 1.2420657653617706,
        "distance_wrist_1_joint": 1.133197469697861,
        "distance_wrist_2_joint": 1.4385130634940038,
        "distance_wrist_3_joint": 1.9077091731648288,
        "smoothness": 6.344131619521387e-17,
        "time": 5.014092878,
        "traj_len": 3.2637153067776845,
        "weighted_distance": 4.127828301082359
    },
    "planner": "SPARS",
    "start": {
        "state": {
            "elbow_joint": -1.919643507792019,
            "shoulder_lift_joint": -0.07675430207160344,
            "shoulder_pan_joint": -1.1188671864651873,
            "wrist_1_joint": 0.42560062535961957,
            "wrist_2_joint": 1.5706038300724876,
            "wrist_3_joint": 1.1188968870953055
        }
    },
    "waypoints": [
        {
            "positions": [
                -1.1188671864651873,
                -0.07675430207160344,
                -1.919643507792019,
                0.42560062535961957,
                1.5706038300724876,
                1.1188968870953055
            ]
        },
        {
            "positions": [
                -1.0728647507110476,
                -0.11578333807946747,
                -1.7760669092822354,
                0.38363034870414325,
                1.5173255684615985,
                1.1895527823977066
            ]
        },
        {
            "positions": [
                -1.026862314956908,
                -0.1548123740873315,
                -1.6324903107724518,
                0.3416600720486669,
                1.4640473068507096,
                1.2602086777001076
            ]
        },
        {
            "positions": [
                -0.9808598792027684,
                -0.19384141009519557,
                -1.488913712262668,
                0.29968979539319057,
                1.4107690452398205,
                1.3308645730025088
            ]
        },
        {
            "positions": [
                -0.9348574434486288,
                -0.23287044610305957,
                -1.3453371137528847,
                0.25771951873771426,
                1.3574907836289314,
                1.4015204683049098
            ]
        },
        {
            "positions": [
                -0.8888550076944891,
                -0.27189948211092363,
                -1.2017605152431008,
                0.2157492420822379,
                1.3042125220180425,
                1.4721763636073109
            ]
        },
        {
            "positions": [
                -0.8428525719403495,
                -0.31092851811878763,
                -1.0581839167333174,
                0.17377896542676158,
                1.2509342604071534,
                1.5428322589097119
            ]
        },
        {
            "positions": [
                -0.7968501361862098,
                -0.3499575541266517,
                -0.9146073182235337,
                0.1318086887712852,
                1.1976559987962645,
                1.6134881542121131
            ]
        },
        {
            "positions": [
                -0.7508477004320702,
                -0.3889865901345157,
                -0.77103071971375,
                0.0898384121158089,
                1.1443777371853754,
                1.6841440495145141
            ]
        },
        {
            "positions": [
                -0.7048452646779305,
                -0.42801562614237976,
                -0.6274541212039664,
                0.047868135460332584,
                1.0910994755744863,
                1.7547999448169151
            ]
        },
        {
            "positions": [
                -0.6588428289237909,
                -0.4670446621502438,
                -0.4838775226941827,
                0.005897858804856215,
                1.0378212139635974,
                1.8254558401193162
            ]
        },
        {
            "positions": [
                -0.6128403931696512,
                -0.5060736981581078,
                -0.34030092418439906,
                -0.0360724178506201,
                0.9845429523527083,
                1.8961117354217172
            ]
        },
        {
            "positions": [
                -0.5668379574155116,
                -0.5451027341659719,
                -0.1967243256746154,
                -0.07804269450609641,
                0.9312646907418193,
                1.9667676307241182
            ]
        },
        {
            "positions": [
                -0.5208355216613719,
                -0.584131770173836,
                -0.05314772716483174,
                -0.12001297116157278,
                0.8779864291309303,
                2.037423526026519
            ]
        },
        {
            "positions": [
                -0.4748330859072323,
                -0.6231608061817,
                0.0904288713449517,
                -0.16198324781704915,
                0.8247081675200413,
                2.1080794213289202
            ]
        },
        {
            "positions": [
                -0.4288306501530925,
                -0.662189842189564,
                0.23400546985473558,
                -0.20395352447252552,
                0.7714299059091522,
                2.1787353166313217
            ]
        },
        {
            "positions": [
                -0.382828214398953,
                -0.701218878197428,
                0.377582068364519,
                -0.24592380112800177,
                0.7181516442982632,
                2.2493912119337223
            ]
        },
        {
            "positions": [
                -0.3368257786448132,
                -0.740247914205292,
                0.5211586668743029,
                -0.28789407778347814,
                0.6648733826873741,
                2.3200471072361237
            ]
        },
        {
            "positions": [
                -0.2908233428906737,
                -0.779276950213156,
                0.6647352653840863,
                -0.3298643544389544,
                0.6115951210764852,
                2.3907030025385247
            ]
        },
        {
            "positions": [
                -0.24482090713653393,
                -0.8183059862210202,
                0.8083118638938702,
                -0.3718346310944309,
                0.5583168594655961,
                2.4613588978409258
            ]
        },
        {
            "positions": [
                -0.1988184713823944,
                -0.8573350222288842,
                0.9518884624036537,
                -0.41380490774990714,
                0.5050385978547072,
                2.532014793143327
            ]
        },
        {
            "positions": [
                -0.15281603562825463,
                -0.8963640582367483,
                1.0954650609134375,
                -0.4557751844053835,
                0.45176033624381806,
                2.602670688445728
            ]
        },
        {
            "positions": [
                -0.1068135998741151,
                -0.9353930942446123,
                1.239041659423221,
                -0.49774546106085976,
                0.39848207463292895,
                2.6733265837481293
            ]
        },
        {
            "positions": [
                -0.060811164119975336,
                -0.9744221302524763,
                1.3826182579330049,
                -0.5397157377163362,
                0.34520381302203984,
                2.74398247905053
            ]
        },
        {
            "positions": [
                -0.0148087283658358,
                -1.0134511662603403,
                1.5261948564427883,
                -0.5816860143718123,
                0.29192555141115095,
                2.8146383743529313
            ]
        },
        {
            "positions": [
                0.03119370738830396,
                -1.0524802022682043,
                1.6697714549525722,
                -0.6236562910272887,
                0.23864728980026184,
                2.8852942696553323
            ]
        },
        {
            "positions": [
                0.0771961431424435,
                -1.0915092382760685,
                1.8133480534623556,
                -0.6656265676827651,
                0.18536902818937295,
                2.9559501649577333
            ]
        },
        {
            "positions": [
                0.12319857889658328,
                -1.1305382742839325,
                1.9569246519721395,
                -0.7075968443382414,
                0.13209076657848373,
                3.0266060602601343
            ]
        }
    ]
}