{
    "goal": {
        "global_pose": {
            "orientation": {
                "w": 0.7031023502349854,
                "x": -0.7110244035720825,
                "y": 0.007748599164187908,
                "z": 0.005598929710686207
            },
            "position": {
                "x": 0.11585023208521307,
                "y": 0.44412534475326537,
                "z": 0.3711530566215515
            }
        },
        "name": "move_to_auspresseinheit_A"
    },
    "id": "SPARS_move_to_auspresseinheit_A_60",
    "joint_names": [
        "shoulder_pan_joint",
        "shoulder_lift_joint",
        "elbow_joint",
        "wrist_1_joint",
        "wrist_2_joint",
        "wrist_3_joint"
    ],
    "metrics": {
        "cart_traj_len": 1.9196740059320052,
        "distance_elbow_joint": 0.9232009913189807,
        "distance_shoulder_lift_joint": 0.5376016141891444,
        "distance_shoulder_pan_joint": 3.4009802127027267,
        "distance_wrist_1_joint": 1.7478785762492621,
        "distance_wrist_2_joint": 1.8362032336115268,
        "distance_wrist_3_joint": 0.06963184168514935,
        "smoothness": 1.0214376551984345,
        "time": 5.01999309,
        "traj_len": 2.9181323598762257,
        "weighted_distance": 3.4984056315681684
    },
    "planner": "SPARS",
    "start": {
        "state": {
            "elbow_joint": 2.422574709923281,
            "shoulder_lift_joint": -1.3736533754116391,
            "shoulder_pan_joint": -0.33786336945926293,
            "wrist_1_joint": -1.0288603412921917,
            "wrist_2_joint": 1.2330224858903978,
            "wrist_3_joint": -3.094022268022082
        }
    },
    "waypoints": [
        {
            "positions": [
                -0.33786336945926293,
                -1.3736533754116391,
                2.422574709923281,
                -1.0288603412921917,
                1.2330224858903978,
                -3.094022268022082
            ]
        },
        {
            "positions": [
                -0.44508949409550486,
                -1.3734083203982026,
                2.3791337508069215,
                -0.9232552387086009,
                1.1256373075890216,
                -3.0930699135982165
            ]
        },
        {
            "positions": [
                -0.5523156187317468,
                -1.373163265384766,
                2.3356927916905623,
                -0.8176501361250103,
                1.0182521292876456,
                -3.092117559174351
            ]
        },
        {
            "positions": [
                -0.6595417433679887,
                -1.3729182103713298,
                2.2922518325742027,
                -0.7120450335414195,
                0.9108669509862695,
                -3.0911652047504847
            ]
        },
        {
            "positions": [
                -0.7667678680042307,
                -1.3726731553578932,
                2.248810873457843,
                -0.6064399309578288,
                0.8034817726848934,
                -3.090212850326619
            ]
        },
        {
            "positions": [
                -0.8739939926404725,
                -1.3724281003444567,
                2.2053699143414836,
                -0.500834828374238,
                0.6960965943835173,
                -3.0892604959027534
            ]
        },
        {
            "positions": [
                -0.9812201172767145,
                -1.3721830453310202,
                2.1619289552251244,
                -0.3952297257906473,
                0.5887114160821413,
                -3.0883081414788878
            ]
        },
        {
            "positions": [
                -1.0884462419129566,
                -1.3719379903175837,
                2.118487996108765,
                -0.2896246232070565,
                0.4813262377807651,
                -3.087355787055022
            ]
        },
        {
            "positions": [
                -1.1956723665491984,
                -1.3716929353041472,
                2.0750470369924052,
                -0.18401952062346572,
                0.37394105947938905,
                -3.0864034326311565
            ]
        },
        {
            "positions": [
                -1.3028984911854404,
                -1.3714478802907109,
                2.0316060778760456,
                -0.07841441803987503,
                0.2665558811780129,
                -3.0854510782072904
            ]
        },
        {
            "positions": [
                -1.4101246158216822,
                -1.3712028252772743,
                1.9881651187596865,
                0.02719068454371576,
                0.15917070287663693,
                -3.0844987237834247
            ]
        },
        {
            "positions": [
                -1.5173507404579243,
                -1.3709577702638378,
                1.944724159643327,
                0.13279578712730652,
                0.05178552457526073,
                -3.083546369359559
            ]
        },
        {
            "positions": [
                -1.3322263369825855,
                -1.415533271017283,
                1.981836696396579,
                0.0839439164748262,
                0.1063660472666266,
                -3.088476031278111
            ]
        },
        {
            "positions": [
                -1.1471019335072468,
                -1.4601087717707284,
                2.018949233149831,
                0.035092045822345874,
                0.1609465699579925,
                -3.0934056931966634
            ]
        },
        {
            "positions": [
                -0.9619775300319081,
                -1.5046842725241736,
                2.0560617699030836,
                -0.013759824830134465,
                0.21552709264935838,
                -3.0983353551152155
            ]
        },
        {
            "positions": [
                -0.7768531265565695,
                -1.5492597732776188,
                2.0931743066563357,
                -0.06261169548261478,
                0.27010761534072425,
                -3.1032650170337677
            ]
        },
        {
            "positions": [
                -0.5917287230812306,
                -1.5938352740310642,
                2.130286843409588,
                -0.11146356613509514,
                0.3246881380320902,
                -3.10819467895232
            ]
        },
        {
            "positions": [
                -0.40660431960589194,
                -1.6384107747845094,
                2.1673993801628404,
                -0.16031543678757545,
                0.379268660723456,
                -3.113124340870872
            ]
        },
        {
            "positions": [
                -0.22147991613055318,
                -1.6829862755379548,
                2.2045119169160925,
                -0.20916730744005582,
                0.4338491834148219,
                -3.1180540027894246
            ]
        },
        {
            "positions": [
                -0.03635551265521464,
                -1.7275617762913997,
                2.2416244536693446,
                -0.25801917809253605,
                0.48842970610618774,
                -3.1229836647079767
            ]
        },
        {
            "positions": [
                0.14876889082012434,
                -1.7721372770448451,
                2.2787369904225967,
                -0.3068710487450165,
                0.5430102287975537,
                -3.127913326626529
            ]
        },
        {
            "positions": [
                0.3338932942954631,
                -1.8167127777982905,
                2.315849527175849,
                -0.3557229193974968,
                0.5975907514889196,
                -3.132842988545081
            ]
        },
        {
            "positions": [
                0.5190176977708014,
                -1.8612882785517355,
                2.3529620639291013,
                -0.4045747900499771,
                0.6521712741802854,
                -3.137772650463633
            ]
        },
        {
            "positions": [
                0.7041421012461404,
                -1.905863779305181,
                2.3900746006823534,
                -0.4534266607024574,
                0.7067517968716513,
                -3.1427023123821853
            ]
        }
    ]
}