{
    "goal": {
        "global_pose": {
            "orientation": {
                "w": 0.5084816217422485,
                "x": -0.49083608388900757,
                "y": 0.5182115435600281,
                "z": -0.4816462993621826
            },
            "position": {
                "x": 0.5540239810943604,
                "y": 0.030875300988554955,
                "z": 0.16403168439865112
            }
        },
        "name": "move_to_storage_A"
    },
    "id": "SPARS_move_to_storage_A_56",
    "joint_names": [
        "shoulder_pan_joint",
        "shoulder_lift_joint",
        "elbow_joint",
        "wrist_1_joint",
        "wrist_2_joint",
        "wrist_3_joint"
    ],
    "metrics": {
        "cart_traj_len": 0.3533594371908916,
        "distance_elbow_joint": 0.4522544888493294,
        "distance_shoulder_lift_joint": 0.23508226327707193,
        "distance_shoulder_pan_joint": 0.46167691879154976,
        "distance_wrist_1_joint": 0.25516627255131386,
        "distance_wrist_2_joint": 1.1012261713154188,
        "distance_wrist_3_joint": 0.10588054226477439,
        "smoothness": 0.0,
        "time": 5.020448879,
        "traj_len": 1.6159476034356617,
        "weighted_distance": 2.0443679183174783
    },
    "planner": "SPARS",
    "start": {
        "state": {
            "elbow_joint": 1.9715463870305268,
            "shoulder_lift_joint": -1.1394903361783484,
            "shoulder_pan_joint": 0.12281147578464417,
            "wrist_1_joint": -0.7804599489681411,
            "wrist_2_joint": 0.12958660307563738,
            "wrist_3_joint": -3.1924946282119055
        }
    },
    "waypoints": [
        {
            "positions": [
                0.12281147578464417,
                -1.1394903361783484,
                1.9715463870305268,
                -0.7804599489681411,
                0.12958660307563738,
                -3.1924946282119055
            ]
        },
        {
            "positions": [
                0.056857630242994214,
                -1.1730735166465016,
                2.0361541711518596,
                -0.8169122736183287,
                0.2869046275492686,
                -3.1773688364597947
            ]
        },
        {
            "positions": [
                -0.009096215298655744,
                -1.2066566971146546,
                2.1007619552731924,
                -0.8533645982685165,
                0.4442226520228999,
                -3.1622430447076844
            ]
        },
        {
            "positions": [
                -0.0750500608403057,
                -1.2402398775828078,
                2.1653697393945253,
                -0.8898169229187042,
                0.6015406764965311,
                -3.1471172529555735
            ]
        },
        {
            "positions": [
                -0.14100390638195565,
                -1.2738230580509609,
                2.2299775235158577,
                -0.9262692475688918,
                0.7588587009701624,
                -3.131991461203463
            ]
        },
        {
            "positions": [
                -0.20695775192360566,
                -1.307406238519114,
                2.2945853076371905,
                -0.9627215722190796,
                0.9161767254437937,
                -3.1168656694513523
            ]
        },
        {
            "positions": [
                -0.27291159746525556,
                -1.340989418987267,
                2.3591930917585233,
                -0.9991738968692672,
                1.0734947499174248,
                -3.101739877699242
            ]
        },
        {
            "positions": [
                -0.3388654430069056,
                -1.3745725994554203,
                2.423800875879856,
                -1.035626221519455,
                1.2308127743910562,
                -3.086614085947131
            ]
        }
    ]
}