{
    "goal": {
        "global_pose": {
            "orientation": {
                "w": 0.7031023502349854,
                "x": -0.7110244035720825,
                "y": 0.007748599164187908,
                "z": 0.005598929710686207
            },
            "position": {
                "x": 0.11585023208521307,
                "y": 0.44412534475326537,
                "z": 0.3711530566215515
            }
        },
        "name": "move_to_auspresseinheit_A"
    },
    "id": "SPARS_move_to_auspresseinheit_A_138",
    "joint_names": [
        "shoulder_pan_joint",
        "shoulder_lift_joint",
        "elbow_joint",
        "wrist_1_joint",
        "wrist_2_joint",
        "wrist_3_joint"
    ],
    "metrics": {
        "cart_traj_len": 0.6903338278173875,
        "distance_elbow_joint": 0.10458430901135074,
        "distance_shoulder_lift_joint": 0.5357209571452042,
        "distance_shoulder_pan_joint": 1.0407769095084713,
        "distance_wrist_1_joint": 0.577555777429224,
        "distance_wrist_2_joint": 2.8632166023257395,
        "distance_wrist_3_joint": 0.15535465803653237,
        "smoothness": 0.8978605092156602,
        "time": 5.023039474,
        "traj_len": 2.2972177113753327,
        "weighted_distance": 3.004778013312223
    },
    "planner": "SPARS",
    "start": {
        "state": {
            "elbow_joint": 2.422574709923281,
            "shoulder_lift_joint": -1.3736533754116391,
            "shoulder_pan_joint": -0.33786336945926293,
            "wrist_1_joint": -1.0288603412921917,
            "wrist_2_joint": 1.2330224858903978,
            "wrist_3_joint": -3.094022268022082
        }
    },
    "waypoints": [
        {
            "positions": [
                -0.33786336945926293,
                -1.3736533754116391,
                2.422574709923281,
                -1.0288603412921917,
                1.2330224858903978,
                -3.094022268022082
            ]
        },
        {
            "positions": [
                -0.31754820522257565,
                -1.3966640144334597,
                2.411755148969777,
                -1.0313733973775863,
                0.9498832393016827,
                -3.0832585475974046
            ]
        },
        {
            "positions": [
                -0.29723304098588843,
                -1.4196746534552804,
                2.4009355880162726,
                -1.0338864534629808,
                0.6667439927129678,
                -3.072494827172727
            ]
        },
        {
            "positions": [
                -0.2769178767492012,
                -1.442685292477101,
                2.3901160270627684,
                -1.0363995095483753,
                0.38360474612425277,
                -3.0617311067480495
            ]
        },
        {
            "positions": [
                -0.25660271251251393,
                -1.4656959314989215,
                2.379296466109264,
                -1.0389125656337699,
                0.10046549953553785,
                -3.0509673863233715
            ]
        },
        {
            "positions": [
                -0.23628754827582668,
                -1.4887065705207423,
                2.36847690515576,
                -1.0414256217191644,
                -0.18267374705317718,
                -3.040203665898694
            ]
        },
        {
            "positions": [
                -0.21597238403913943,
                -1.5117172095425628,
                2.3576573442022557,
                -1.043938677804559,
                -0.4658129936418922,
                -3.0294399454740164
            ]
        },
        {
            "positions": [
                -0.11387394802932302,
                -1.5559013343219272,
                2.3620647823456253,
                -0.9814411843693527,
                -0.33643731333150895,
                -3.0395257605282904
            ]
        },
        {
            "positions": [
                -0.011775512019506607,
                -1.6000854591012919,
                2.3664722204889945,
                -0.9189436909341463,
                -0.20706163302112573,
                -3.0496115755825643
            ]
        },
        {
            "positions": [
                0.09032292399030983,
                -1.6442695838806562,
                2.370879658632364,
                -0.85644619749894,
                -0.07768595271074247,
                -3.0596973906368388
            ]
        },
        {
            "positions": [
                0.19242136000012622,
                -1.6884537086600209,
                2.375287096775734,
                -0.7939487040637337,
                0.051689727599640745,
                -3.0697832056911127
            ]
        },
        {
            "positions": [
                0.2945197960099427,
                -1.7326378334393853,
                2.379694534919103,
                -0.7314512106285274,
                0.18106540791002412,
                -3.0798690207453867
            ]
        },
        {
            "positions": [
                0.3966182320197591,
                -1.7768219582187497,
                2.3841019730624726,
                -0.6689537171933211,
                0.3104410882204073,
                -3.0899548357996607
            ]
        },
        {
            "positions": [
                0.4987166680295755,
                -1.8210060829981143,
                2.3885094112058423,
                -0.6064562237581148,
                0.43981676853079055,
                -3.100040650853935
            ]
        },
        {
            "positions": [
                0.6008151040393919,
                -1.865190207777479,
                2.3929168493492115,
                -0.5439587303229085,
                0.5691924488411737,
                -3.110126465908209
            ]
        },
        {
            "positions": [
                0.7029135400492084,
                -1.9093743325568433,
                2.397324287492581,
                -0.48146123688770215,
                0.6985681291515572,
                -3.120212280962483
            ]
        }
    ]
}