{
    "goal": {
        "global_pose": {
            "orientation": {
                "w": 0.7047431468963623,
                "x": -0.7094548344612122,
                "y": 0.0024358443915843964,
                "z": -0.0022348060738295317
            },
            "position": {
                "x": 0.6094750761985779,
                "y": 0.3671506643295288,
                "z": 0.19426114857196808
            }
        },
        "name": "move_to_magneteinheit_A"
    },
    "id": "SPARS_move_to_magneteinheit_A_36",
    "joint_names": [
        "shoulder_pan_joint",
        "shoulder_lift_joint",
        "elbow_joint",
        "wrist_1_joint",
        "wrist_2_joint",
        "wrist_3_joint"
    ],
    "metrics": {
        "cart_traj_len": 2.2043279783238208,
        "distance_elbow_joint": 3.8739063011223753,
        "distance_shoulder_lift_joint": 1.0538842423974772,
        "distance_shoulder_pan_joint": 1.3060473108956263,
        "distance_wrist_1_joint": 1.129612700428969,
        "distance_wrist_2_joint": 1.4487270479291157,
        "distance_wrist_3_joint": 4.371748172980104,
        "smoothness": 0.02071027279744439,
        "time": 5.083524888,
        "traj_len": 3.630967608744764,
        "weighted_distance": 4.950329470860699
    },
    "planner": "SPARS",
    "start": {
        "state": {
            "elbow_joint": -1.919643507792019,
            "shoulder_lift_joint": -0.07675430207160344,
            "shoulder_pan_joint": -1.1188671864651873,
            "wrist_1_joint": 0.42560062535961957,
            "wrist_2_joint": 1.5706038300724876,
            "wrist_3_joint": 1.1188968870953055
        }
    },
    "waypoints": [
        {
            "positions": [
                -1.1188671864651873,
                -0.07675430207160344,
                -1.919643507792019,
                0.42560062535961957,
                1.5706038300724876,
                1.1188968870953055
            ]
        },
        {
            "positions": [
                -1.077789037159961,
                -0.10487000751962527,
                -1.8031174157104437,
                0.390145290432304,
                1.5357897670323017,
                0.9914569629836426
            ]
        },
        {
            "positions": [
                -1.0367108878547346,
                -0.1329857129676471,
                -1.6865913236288683,
                0.3546899555049884,
                1.5009757039921159,
                0.8640170388719797
            ]
        },
        {
            "positions": [
                -0.9956327385495082,
                -0.16110141841566894,
                -1.570065231547293,
                0.3192346205776728,
                1.46616164095193,
                0.7365771147603166
            ]
        },
        {
            "positions": [
                -0.9545545892442818,
                -0.18921712386369077,
                -1.4535391394657178,
                0.28377928565035726,
                1.4313475779117442,
                0.6091371906486537
            ]
        },
        {
            "positions": [
                -0.9134764399390555,
                -0.2173328293117126,
                -1.3370130473841424,
                0.24832395072304167,
                1.3965335148715583,
                0.48169726653699074
            ]
        },
        {
            "positions": [
                -0.872398290633829,
                -0.2454485347597344,
                -1.220486955302567,
                0.21286861579572608,
                1.3617194518313724,
                0.3542573424253278
            ]
        },
        {
            "positions": [
                -0.8313201413286027,
                -0.27356424020775627,
                -1.1039608632209916,
                0.17741328086841052,
                1.3269053887911868,
                0.22681741831366486
            ]
        },
        {
            "positions": [
                -0.7902419920233763,
                -0.30167994565577805,
                -0.9874347711394164,
                0.14195794594109495,
                1.292091325751001,
                0.09937749420200181
            ]
        },
        {
            "positions": [
                -0.74916384271815,
                -0.32979565110379994,
                -0.8709086790578409,
                0.10650261101377934,
                1.257277262710815,
                -0.028062429909661235
            ]
        },
        {
            "positions": [
                -0.7080856934129236,
                -0.35791135655182177,
                -0.7543825869762657,
                0.07104727608646377,
                1.2224631996706292,
                -0.15550235402132406
            ]
        },
        {
            "positions": [
                -0.6670075441076971,
                -0.3860270619998436,
                -0.6378564948946901,
                0.035591941159148155,
                1.1876491366304434,
                -0.2829422781329871
            ]
        },
        {
            "positions": [
                -0.6259293948024708,
                -0.4141427674478654,
                -0.5213304028131149,
                0.00013660623183259224,
                1.1528350735902575,
                -0.41038220224464994
            ]
        },
        {
            "positions": [
                -0.5848512454972443,
                -0.44225847289588727,
                -0.40480431073153955,
                -0.035318728695483026,
                1.1180210105500716,
                -0.537822126356313
            ]
        },
        {
            "positions": [
                -0.5437730961920181,
                -0.47037417834390904,
                -0.28827821864996417,
                -0.07077406362279853,
                1.0832069475098858,
                -0.6652620504679758
            ]
        },
        {
            "positions": [
                -0.5026949468867916,
                -0.49848988379193093,
                -0.17175212656838879,
                -0.1062293985501142,
                1.0483928844697,
                -0.7927019745796389
            ]
        },
        {
            "positions": [
                -0.46161679758156526,
                -0.5266055892399527,
                -0.055226034486813624,
                -0.14168473347742966,
                1.013578821429514,
                -0.9201418986913019
            ]
        },
        {
            "positions": [
                -0.4205386482763389,
                -0.5547212946879745,
                0.06130005759476176,
                -0.17714006840474522,
                0.9787647583893283,
                -1.0475818228029645
            ]
        },
        {
            "positions": [
                -0.37946049897111245,
                -0.5828370001359964,
                0.17782614967633736,
                -0.2125954033320609,
                0.9439506953491423,
                -1.175021746914628
            ]
        },
        {
            "positions": [
                -0.3383823496658861,
                -0.6109527055840183,
                0.2943522417579125,
                -0.24805073825937646,
                0.9091366323089565,
                -1.3024616710262906
            ]
        },
        {
            "positions": [
                -0.29730420036065974,
                -0.6390684110320402,
                0.4108783338394877,
                -0.283506073186692,
                0.8743225692687707,
                -1.4299015951379537
            ]
        },
        {
            "positions": [
                -0.2562260510554334,
                -0.6671841164800618,
                0.5274044259210628,
                -0.3189614081140076,
                0.8395085062285849,
                -1.5573415192496167
            ]
        },
        {
            "positions": [
                -0.21514790175020693,
                -0.6952998219280837,
                0.6439305180026389,
                -0.35441674304132326,
                0.8046944431883989,
                -1.6847814433612798
            ]
        },
        {
            "positions": [
                -0.17406975244498057,
                -0.7234155273761056,
                0.7604566100842141,
                -0.3898720779686388,
                0.7698803801482131,
                -1.8122213674729428
            ]
        },
        {
            "positions": [
                -0.13299160313975422,
                -0.7515312328241273,
                0.8769827021657892,
                -0.4253274128959544,
                0.7350663171080273,
                -1.9396612915846054
            ]
        },
        {
            "positions": [
                -0.09191345383452787,
                -0.7796469382721491,
                0.9935087942473644,
                -0.46078274782326994,
                0.7002522540678415,
                -2.0671012156962685
            ]
        },
        {
            "positions": [
                -0.050835304529301295,
                -0.807762643720171,
                1.11003488632894,
                -0.4962380827505856,
                0.6654381910276556,
                -2.1945411398079315
            ]
        },
        {
            "positions": [
                -0.009757155224074943,
                -0.8358783491681929,
                1.2265609784105151,
                -0.5316934176779011,
                0.6306241279874697,
                -2.3219810639195946
            ]
        },
        {
            "positions": [
                0.03132099408115119,
                -0.8639940546162146,
                1.3430870704920908,
                -0.5671487526052166,
                0.595810064947284,
                -2.449420988031257
            ]
        },
        {
            "positions": [
                0.07239914338637754,
                -0.8921097600642365,
                1.459613162573666,
                -0.6026040875325323,
                0.5609960019070981,
                -2.5768609121429202
            ]
        },
        {
            "positions": [
                0.11347729269160411,
                -0.9202254655122584,
                1.5761392546552415,
                -0.6380594224598479,
                0.5261819388669122,
                -2.7043008362545833
            ]
        },
        {
            "positions": [
                0.15455544199683038,
                -0.9483411709602803,
                1.6926653467368165,
                -0.6735147573871634,
                0.49136787582672636,
                -2.8317407603662463
            ]
        },
        {
            "positions": [
                0.1463992713884283,
                -0.9939155143374804,
                1.7580647083852012,
                -0.6811390868077098,
                0.3989951024058878,
                -2.9370183917458847
            ]
        },
        {
            "positions": [
                0.1382431007800262,
                -1.0394898577146805,
                1.823464070033586,
                -0.6887634162282563,
                0.30662232898504926,
                -3.0422960231255227
            ]
        },
        {
            "positions": [
                0.1300869301716241,
                -1.0850642010918805,
                1.888863431681971,
                -0.6963877456488029,
                0.21424955556421066,
                -3.1475736545051607
            ]
        },
        {
            "positions": [
                0.12193075956322201,
                -1.1306385444690807,
                1.9542627933303558,
                -0.7040120750693494,
                0.12187678214337211,
                -3.252851285884799
            ]
        }
    ]
}