{
    "goal": {
        "global_pose": {
            "orientation": {
                "w": 0.5084816217422485,
                "x": -0.49083608388900757,
                "y": 0.5182115435600281,
                "z": -0.4816462993621826
            },
            "position": {
                "x": 0.5540239810943604,
                "y": 0.030875300988554955,
                "z": 0.16403168439865112
            }
        },
        "name": "move_to_storage_A"
    },
    "id": "SPARS_move_to_storage_A_104",
    "joint_names": [
        "shoulder_pan_joint",
        "shoulder_lift_joint",
        "elbow_joint",
        "wrist_1_joint",
        "wrist_2_joint",
        "wrist_3_joint"
    ],
    "metrics": {
        "cart_traj_len": 0.3535895141892539,
        "distance_elbow_joint": 0.4490378097199019,
        "distance_shoulder_lift_joint": 0.23488733797057226,
        "distance_shoulder_pan_joint": 0.4630366389210539,
        "distance_wrist_1_joint": 0.23611937839014374,
        "distance_wrist_2_joint": 1.097245504789424,
        "distance_wrist_3_joint": 0.10166007837684043,
        "smoothness": 4.440892098500626e-16,
        "time": 5.027916265,
        "traj_len": 1.6068561690978869,
        "weighted_distance": 2.029451105126996
    },
    "planner": "SPARS",
    "start": {
        "state": {
            "elbow_joint": 1.9715463870305268,
            "shoulder_lift_joint": -1.1394903361783484,
            "shoulder_pan_joint": 0.12281147578464417,
            "wrist_1_joint": -0.7804599489681411,
            "wrist_2_joint": 0.12958660307563738,
            "wrist_3_joint": -3.1924946282119055
        }
    },
    "waypoints": [
        {
            "positions": [
                0.12281147578464417,
                -1.1394903361783484,
                1.9715463870305268,
                -0.7804599489681411,
                0.12958660307563738,
                -3.1924946282119055
            ]
        },
        {
            "positions": [
                0.0566633845102079,
                -1.1730456701741445,
                2.035694645561941,
                -0.8141912887381616,
                0.286335960902698,
                -3.177971759872357
            ]
        },
        {
            "positions": [
                -0.00948470676422837,
                -1.2066010041699404,
                2.099842904093356,
                -0.8479226285081821,
                0.44308531872975854,
                -3.1634488915328083
            ]
        },
        {
            "positions": [
                -0.07563279803866464,
                -1.2401563381657366,
                2.1639911626247703,
                -0.8816539682782026,
                0.5998346765568191,
                -3.1489260231932596
            ]
        },
        {
            "positions": [
                -0.1417808893131009,
                -1.2737116721615325,
                2.228139421156185,
                -0.9153853080482233,
                0.7565840343838797,
                -3.134403154853711
            ]
        },
        {
            "positions": [
                -0.20792898058753717,
                -1.3072670061573286,
                2.2922876796875995,
                -0.9491166478182438,
                0.9133333922109403,
                -3.1198802865141624
            ]
        },
        {
            "positions": [
                -0.27407707186197344,
                -1.3408223401531245,
                2.356435938219014,
                -0.9828479875882643,
                1.0700827500380008,
                -3.1053574181746137
            ]
        },
        {
            "positions": [
                -0.3402251631364097,
                -1.3743776741489206,
                2.4205841967504287,
                -1.0165793273582848,
                1.2268321078650615,
                -3.090834549835065
            ]
        }
    ]
}