{
    "goal": {
        "global_pose": {
            "orientation": {
                "w": 0.5084816217422485,
                "x": -0.49083608388900757,
                "y": 0.5182115435600281,
                "z": -0.4816462993621826
            },
            "position": {
                "x": 0.5540239810943604,
                "y": 0.030875300988554955,
                "z": 0.16403168439865112
            }
        },
        "name": "move_to_storage_A"
    },
    "id": "SPARS_move_to_storage_A_7",
    "joint_names": [
        "shoulder_pan_joint",
        "shoulder_lift_joint",
        "elbow_joint",
        "wrist_1_joint",
        "wrist_2_joint",
        "wrist_3_joint"
    ],
    "metrics": {
        "cart_traj_len": 0.3537218535105903,
        "distance_elbow_joint": 0.44898465638851626,
        "distance_shoulder_lift_joint": 0.23551151654224944,
        "distance_shoulder_pan_joint": 0.4622283336547302,
        "distance_wrist_1_joint": 0.23818152055264685,
        "distance_wrist_2_joint": 1.1017081144090286,
        "distance_wrist_3_joint": 0.08683686840497096,
        "smoothness": 1.3322676295501878e-15,
        "time": 5.037901846,
        "traj_len": 1.6041979335331855,
        "weighted_distance": 2.021636560246119
    },
    "planner": "SPARS",
    "start": {
        "state": {
            "elbow_joint": 1.9715463870305268,
            "shoulder_lift_joint": -1.1394903361783484,
            "shoulder_pan_joint": 0.12281147578464417,
            "wrist_1_joint": -0.7804599489681411,
            "wrist_2_joint": 0.12958660307563738,
            "wrist_3_joint": -3.1924946282119055
        }
    },
    "waypoints": [
        {
            "positions": [
                0.12281147578464417,
                -1.1394903361783484,
                1.9715463870305268,
                -0.7804599489681411,
                0.12958660307563738,
                -3.1924946282119055
            ]
        },
        {
            "positions": [
                0.056778856691111296,
                -1.1731348385415268,
                2.0356870522288864,
                -0.8144858804756621,
                0.2869734765626415,
                -3.18008936129691
            ]
        },
        {
            "positions": [
                -0.009253762402421581,
                -1.2067793409047054,
                2.0998277174272455,
                -0.848511811983183,
                0.4443603500496456,
                -3.167684094381914
            ]
        },
        {
            "positions": [
                -0.07528638149595447,
                -1.2404238432678838,
                2.163968382625605,
                -0.882537743490704,
                0.6017472235366497,
                -3.155278827466918
            ]
        },
        {
            "positions": [
                -0.14131900058948732,
                -1.2740683456310624,
                2.2281090478239647,
                -0.916563674998225,
                0.7591340970236538,
                -3.142873560551922
            ]
        },
        {
            "positions": [
                -0.20735161968302024,
                -1.3077128479942408,
                2.2922497130223243,
                -0.950589606505746,
                0.9165209705106578,
                -3.1304682936369264
            ]
        },
        {
            "positions": [
                -0.2733842387765531,
                -1.3413573503574194,
                2.3563903782206834,
                -0.984615538013267,
                1.073907843997662,
                -3.1180630267219303
            ]
        },
        {
            "positions": [
                -0.339416857870086,
                -1.3750018527205978,
                2.420531043419043,
                -1.018641469520788,
                1.231294717484666,
                -3.1056577598069346
            ]
        }
    ]
}