{
    "goal": {
        "global_pose": {
            "orientation": {
                "w": 0.7047431468963623,
                "x": -0.7094548344612122,
                "y": 0.0024358443915843964,
                "z": -0.0022348060738295317
            },
            "position": {
                "x": 0.6094750761985779,
                "y": 0.3671506643295288,
                "z": 0.19426114857196808
            }
        },
        "name": "move_to_magneteinheit_A"
    },
    "id": "SPARS_move_to_magneteinheit_A_57",
    "joint_names": [
        "shoulder_pan_joint",
        "shoulder_lift_joint",
        "elbow_joint",
        "wrist_1_joint",
        "wrist_2_joint",
        "wrist_3_joint"
    ],
    "metrics": {
        "cart_traj_len": 2.005217880127277,
        "distance_elbow_joint": 3.8826668191153466,
        "distance_shoulder_lift_joint": 1.5113391512954777,
        "distance_shoulder_pan_joint": 1.8303748933070318,
        "distance_wrist_1_joint": 3.14874930745977,
        "distance_wrist_2_joint": 1.4318299807168235,
        "distance_wrist_3_joint": 4.359528471107265,
        "smoothness": 0.12910164473333408,
        "time": 5.087171324,
        "traj_len": 4.020508503038106,
        "weighted_distance": 5.428086665980272
    },
    "planner": "SPARS",
    "start": {
        "state": {
            "elbow_joint": -1.919643507792019,
            "shoulder_lift_joint": -0.07675430207160344,
            "shoulder_pan_joint": -1.1188671864651873,
            "wrist_1_joint": 0.42560062535961957,
            "wrist_2_joint": 1.5706038300724876,
            "wrist_3_joint": 1.1188968870953055
        }
    },
    "waypoints": [
        {
            "positions": [
                -1.1188671864651873,
                -0.07675430207160344,
                -1.919643507792019,
                0.42560062535961957,
                1.5706038300724876,
                1.1188968870953055
            ]
        },
        {
            "positions": [
                -1.130650647864252,
                -0.12812308017096788,
                -1.820162201891519,
                0.4654491298405275,
                1.5337725657907209,
                0.9769364170876554
            ]
        },
        {
            "positions": [
                -1.1424341092633166,
                -0.17949185827033232,
                -1.7206808959910187,
                0.5052976343214354,
                1.4969413015089539,
                0.8349759470800053
            ]
        },
        {
            "positions": [
                -1.1542175706623812,
                -0.23086063636969673,
                -1.6211995900905185,
                0.5451461388023433,
                1.4601100372271871,
                0.6930154770723552
            ]
        },
        {
            "positions": [
                -1.1660010320614458,
                -0.2822294144690612,
                -1.5217182841900185,
                0.5849946432832512,
                1.4232787729454204,
                0.5510550070647051
            ]
        },
        {
            "positions": [
                -1.1777844934605102,
                -0.3335981925684256,
                -1.4222369782895181,
                0.6248431477641592,
                1.3864475086636534,
                0.4090945370570549
            ]
        },
        {
            "positions": [
                -1.1895679548595748,
                -0.38496697066779,
                -1.3227556723890181,
                0.6646916522450671,
                1.3496162443818867,
                0.2671340670494049
            ]
        },
        {
            "positions": [
                -1.2013514162586394,
                -0.43633574876715453,
                -1.2232743664885177,
                0.704540156725975,
                1.31278498010012,
                0.12517359704175468
            ]
        },
        {
            "positions": [
                -1.213134877657704,
                -0.48770452686651894,
                -1.1237930605880178,
                0.7443886612068829,
                1.275953715818353,
                -0.016786872965895316
            ]
        },
        {
            "positions": [
                -1.2249183390567686,
                -0.5390733049658833,
                -1.0243117546875176,
                0.7842371656877909,
                1.2391224515365862,
                -0.1587473429735453
            ]
        },
        {
            "positions": [
                -1.2367018004558332,
                -0.5904420830652477,
                -0.9248304487870174,
                0.8240856701686987,
                1.2022911872548194,
                -0.30070781298119575
            ]
        },
        {
            "positions": [
                -1.2484852618548978,
                -0.6418108611646123,
                -0.8253491428865172,
                0.8639341746496066,
                1.1654599229730525,
                -0.44266828298884575
            ]
        },
        {
            "positions": [
                -1.2602687232539624,
                -0.6931796392639766,
                -0.7258678369860172,
                0.9037826791305146,
                1.1286286586912857,
                -0.5846287529964957
            ]
        },
        {
            "positions": [
                -1.272052184653027,
                -0.7445484173633412,
                -0.6263865310855168,
                0.9436311836114226,
                1.091797394409519,
                -0.726589223004146
            ]
        },
        {
            "positions": [
                -1.2838356460520914,
                -0.7959171954627056,
                -0.5269052251850166,
                0.9834796880923304,
                1.054966130127752,
                -0.8685496930117962
            ]
        },
        {
            "positions": [
                -1.295619107451156,
                -0.8472859735620699,
                -0.4274239192845166,
                1.0233281925732383,
                1.0181348658459854,
                -1.010510163019446
            ]
        },
        {
            "positions": [
                -1.3074025688502207,
                -0.8986547516614345,
                -0.3279426133840164,
                1.0631766970541463,
                0.9813036015642185,
                -1.1524706330270962
            ]
        },
        {
            "positions": [
                -1.3191860302492853,
                -0.9500235297607988,
                -0.228461307483516,
                1.1030252015350541,
                0.9444723372824516,
                -1.2944311030347464
            ]
        },
        {
            "positions": [
                -1.3309694916483499,
                -1.0013923078601632,
                -0.12898000158301604,
                1.1428737060159622,
                0.9076410730006849,
                -1.4363915730423962
            ]
        },
        {
            "positions": [
                -1.3427529530474145,
                -1.0527610859595278,
                -0.02949869568251584,
                1.18272221049687,
                0.870809808718918,
                -1.5783520430500468
            ]
        },
        {
            "positions": [
                -1.354536414446479,
                -1.1041298640588921,
                0.06998261021798435,
                1.222570714977778,
                0.8339785444371511,
                -1.720312513057697
            ]
        },
        {
            "positions": [
                -1.3663198758455435,
                -1.1554986421582565,
                0.16946391611848433,
                1.2624192194586858,
                0.7971472801553844,
                -1.8622729830653468
            ]
        },
        {
            "positions": [
                -1.378103337244608,
                -1.206867420257621,
                0.26894522201898474,
                1.3022677239395937,
                0.7603160158736175,
                -2.004233453072997
            ]
        },
        {
            "positions": [
                -1.3898867986436727,
                -1.2582361983569856,
                0.3684265279194847,
                1.3421162284205017,
                0.7234847515918507,
                -2.1461939230806473
            ]
        },
        {
            "positions": [
                -1.4016702600427373,
                -1.3096049764563498,
                0.4679078338199847,
                1.3819647329014095,
                0.6866534873100839,
                -2.288154393088297
            ]
        },
        {
            "positions": [
                -1.413453721441802,
                -1.3609737545557143,
                0.5673891397204853,
                1.4218132373823176,
                0.649822223028317,
                -2.4301148630959473
            ]
        },
        {
            "positions": [
                -1.3231132297753068,
                -1.3476137722726929,
                0.6494852674618289,
                1.2951934317683722,
                0.6197605539887493,
                -2.477792317267477
            ]
        },
        {
            "positions": [
                -1.2327727381088116,
                -1.3342537899896711,
                0.7315813952031726,
                1.1685736261544266,
                0.5896988849491815,
                -2.5254697714390075
            ]
        },
        {
            "positions": [
                -1.1424322464423167,
                -1.3208938077066497,
                0.8136775229445161,
                1.0419538205404812,
                0.5596372159096137,
                -2.5731472256105374
            ]
        },
        {
            "positions": [
                -1.0520917547758215,
                -1.307533825423628,
                0.8957736506858598,
                0.9153340149265358,
                0.5295755468700459,
                -2.620824679782068
            ]
        },
        {
            "positions": [
                -0.9617512631093263,
                -1.2941738431406065,
                0.9778697784272034,
                0.7887142093125903,
                0.4995138778304782,
                -2.6685021339535977
            ]
        },
        {
            "positions": [
                -0.8714107714428312,
                -1.280813860857585,
                1.059965906168547,
                0.6620944036986448,
                0.4694522087909104,
                -2.716179588125128
            ]
        },
        {
            "positions": [
                -0.7810702797763361,
                -1.2674538785745633,
                1.1420620339098906,
                0.5354745980846994,
                0.4393905397513426,
                -2.763857042296658
            ]
        },
        {
            "positions": [
                -0.690729788109841,
                -1.2540938962915418,
                1.2241581616512343,
                0.40885479247075396,
                0.4093288707117748,
                -2.8115344964681883
            ]
        },
        {
            "positions": [
                -0.6003892964433458,
                -1.24073391400852,
                1.306254289392578,
                0.28223498685680837,
                0.37926720167220707,
                -2.8592119506397182
            ]
        },
        {
            "positions": [
                -0.5100488047768507,
                -1.2273739317254986,
                1.3883504171339214,
                0.155615181242863,
                0.34920553263263926,
                -2.9068894048112486
            ]
        },
        {
            "positions": [
                -0.4197083131103555,
                -1.2140139494424769,
                1.470446544875265,
                0.028995375628917408,
                0.3191438635930715,
                -2.9545668589827785
            ]
        },
        {
            "positions": [
                -0.32936782144386045,
                -1.2006539671594554,
                1.5525426726166087,
                -0.09762442998502796,
                0.2890821945535037,
                -3.002244313154309
            ]
        },
        {
            "positions": [
                -0.23902732977736552,
                -1.187293984876434,
                1.6346388003579522,
                -0.22424423559897333,
                0.25902052551393595,
                -3.0499217673258388
            ]
        },
        {
            "positions": [
                -0.14868683811087036,
                -1.1739340025934122,
                1.7167349280992958,
                -0.3508640412129187,
                0.2289588564743682,
                -3.0975992214973687
            ]
        },
        {
            "positions": [
                -0.0583463464443752,
                -1.1605740203103907,
                1.7988310558406393,
                -0.4774838468268643,
                0.1988971874348004,
                -3.145276675668899
            ]
        },
        {
            "positions": [
                0.03199414522211996,
                -1.147214038027369,
                1.880927183581983,
                -0.6041036524408097,
                0.16883551839523264,
                -3.1929541298404294
            ]
        },
        {
            "positions": [
                0.12233463688861501,
                -1.1338540557443475,
                1.9630233113233266,
                -0.730723458054755,
                0.13877384935566484,
                -3.2406315840119593
            ]
        }
    ]
}