{
    "goal": {
        "global_pose": {
            "orientation": {
                "w": 0.7031023502349854,
                "x": -0.7110244035720825,
                "y": 0.007748599164187908,
                "z": 0.005598929710686207
            },
            "position": {
                "x": 0.11585023208521307,
                "y": 0.44412534475326537,
                "z": 0.3711530566215515
            }
        },
        "name": "move_to_auspresseinheit_A"
    },
    "id": "SPARS_move_to_auspresseinheit_A_26",
    "joint_names": [
        "shoulder_pan_joint",
        "shoulder_lift_joint",
        "elbow_joint",
        "wrist_1_joint",
        "wrist_2_joint",
        "wrist_3_joint"
    ],
    "metrics": {
        "cart_traj_len": 0.7362070531964755,
        "distance_elbow_joint": 0.20130242599630543,
        "distance_shoulder_lift_joint": 0.5343582003715825,
        "distance_shoulder_pan_joint": 1.1194708205189268,
        "distance_wrist_1_joint": 2.9513053856457847,
        "distance_wrist_2_joint": 0.6342435038427537,
        "distance_wrist_3_joint": 2.969149219853469,
        "smoothness": 1.0689649123151679,
        "time": 5.04031658,
        "traj_len": 2.899970612994004,
        "weighted_distance": 4.2348172198365654
    },
    "planner": "SPARS",
    "start": {
        "state": {
            "elbow_joint": 2.422574709923281,
            "shoulder_lift_joint": -1.3736533754116391,
            "shoulder_pan_joint": -0.33786336945926293,
            "wrist_1_joint": -1.0288603412921917,
            "wrist_2_joint": 1.2330224858903978,
            "wrist_3_joint": -3.094022268022082
        }
    },
    "waypoints": [
        {
            "positions": [
                -0.33786336945926293,
                -1.3736533754116391,
                2.422574709923281,
                -1.0288603412921917,
                1.2330224858903978,
                -3.094022268022082
            ]
        },
        {
            "positions": [
                -0.340979206603639,
                -1.4149535199664791,
                2.412856419028516,
                -0.8820078688717634,
                1.1849843085097271,
                -2.9721175974000364
            ]
        },
        {
            "positions": [
                -0.34409504374801514,
                -1.456253664521319,
                2.403138128133751,
                -0.7351553964513352,
                1.1369461311290565,
                -2.8502129267779903
            ]
        },
        {
            "positions": [
                -0.3472108808923912,
                -1.497553809076159,
                2.393419837238986,
                -0.5883029240309069,
                1.088907953748386,
                -2.7283082561559446
            ]
        },
        {
            "positions": [
                -0.3503267180367673,
                -1.538853953630999,
                2.383701546344221,
                -0.4414504516104787,
                1.0408697763677155,
                -2.606403585533899
            ]
        },
        {
            "positions": [
                -0.35344255518114337,
                -1.5801540981858393,
                2.3739832554494558,
                -0.29459797919005026,
                0.9928315989870449,
                -2.4844989149118533
            ]
        },
        {
            "positions": [
                -0.35655839232551945,
                -1.621454242740679,
                2.3642649645546907,
                -0.14774550676962206,
                0.9447934216063743,
                -2.362594244289807
            ]
        },
        {
            "positions": [
                -0.3596742294698956,
                -1.6627543872955193,
                2.354546673659926,
                -0.0008930343491937442,
                0.8967552442257036,
                -2.2406895736677614
            ]
        },
        {
            "positions": [
                -0.36279006661427166,
                -1.704054531850359,
                2.344828382765161,
                0.14595943807123435,
                0.8487170668450331,
                -2.1187849030457158
            ]
        },
        {
            "positions": [
                -0.36590590375864773,
                -1.7453546764051993,
                2.335110091870396,
                0.2928119104916629,
                0.8006788894643625,
                -1.9968802324236699
            ]
        },
        {
            "positions": [
                -0.36902174090302386,
                -1.7866548209600392,
                2.325391800975631,
                0.4396643829120912,
                0.7526407120836919,
                -1.874975561801624
            ]
        },
        {
            "positions": [
                -0.37213757804739994,
                -1.8279549655148792,
                2.315673510080866,
                0.5865168553325193,
                0.7046025347030214,
                -1.7530708911795783
            ]
        },
        {
            "positions": [
                -0.375253415191776,
                -1.8692551100697192,
                2.305955219186101,
                0.7333693277529476,
                0.6565643573223507,
                -1.6311662205575324
            ]
        },
        {
            "positions": [
                -0.26704533771313466,
                -1.8731307566410695,
                2.3144235127120134,
                0.6144617560928831,
                0.6623428948498215,
                -1.7817955377964243
            ]
        },
        {
            "positions": [
                -0.1588372602344933,
                -1.8770064032124196,
                2.322891806237926,
                0.4955541844328185,
                0.668121432377292,
                -1.9324248550353162
            ]
        },
        {
            "positions": [
                -0.05062918275585193,
                -1.88088204978377,
                2.331360099763838,
                0.376646612772754,
                0.6738999699047628,
                -2.083054172274208
            ]
        },
        {
            "positions": [
                0.05757889472278943,
                -1.8847576963551202,
                2.339828393289751,
                0.2577390411126894,
                0.6796785074322335,
                -2.2336834895131004
            ]
        },
        {
            "positions": [
                0.1657869722014308,
                -1.8886333429264703,
                2.3482966868156634,
                0.13883146945262492,
                0.6854570449597042,
                -2.384312806751992
            ]
        },
        {
            "positions": [
                0.27399504968007216,
                -1.8925089894978206,
                2.356764980341576,
                0.01992389779256043,
                0.6912355824871748,
                -2.534942123990884
            ]
        },
        {
            "positions": [
                0.3822031271587135,
                -1.896384636069171,
                2.3652332738674886,
                -0.09898367386750406,
                0.6970141200146455,
                -2.6855714412297758
            ]
        },
        {
            "positions": [
                0.4904112046373549,
                -1.9002602826405213,
                2.3737015673934008,
                -0.21789124552756878,
                0.7027926575421162,
                -2.836200758468668
            ]
        },
        {
            "positions": [
                0.5986192821159962,
                -1.9041359292118714,
                2.3821698609193134,
                -0.33679881718763327,
                0.7085711950695868,
                -2.9868300757075597
            ]
        },
        {
            "positions": [
                0.7068273595946376,
                -1.9080115757832217,
                2.390638154445226,
                -0.4557063888476978,
                0.7143497325970575,
                -3.1374593929464516
            ]
        }
    ]
}