{
    "goal": {
        "global_pose": {
            "orientation": {
                "w": 0.7031023502349854,
                "x": -0.7110244035720825,
                "y": 0.007748599164187908,
                "z": 0.005598929710686207
            },
            "position": {
                "x": 0.11585023208521307,
                "y": 0.44412534475326537,
                "z": 0.3711530566215515
            }
        },
        "name": "move_to_auspresseinheit_A"
    },
    "id": "SPARS_move_to_auspresseinheit_A_13",
    "joint_names": [
        "shoulder_pan_joint",
        "shoulder_lift_joint",
        "elbow_joint",
        "wrist_1_joint",
        "wrist_2_joint",
        "wrist_3_joint"
    ],
    "metrics": {
        "cart_traj_len": 2.071058385572175,
        "distance_elbow_joint": 1.2744048127936694,
        "distance_shoulder_lift_joint": 0.9663890182172961,
        "distance_shoulder_pan_joint": 3.038545223052669,
        "distance_wrist_1_joint": 4.698034618379923,
        "distance_wrist_2_joint": 3.7299577101913592,
        "distance_wrist_3_joint": 7.754356758500624,
        "smoothness": 0.5884285681696089,
        "time": 5.124809245,
        "traj_len": 4.632676131690575,
        "weighted_distance": 6.737833033454309
    },
    "planner": "SPARS",
    "start": {
        "state": {
            "elbow_joint": 2.422574709923281,
            "shoulder_lift_joint": -1.3736533754116391,
            "shoulder_pan_joint": -0.33786336945926293,
            "wrist_1_joint": -1.0288603412921917,
            "wrist_2_joint": 1.2330224858903978,
            "wrist_3_joint": -3.094022268022082
        }
    },
    "waypoints": [
        {
            "positions": [
                -0.33786336945926293,
                -1.3736533754116391,
                2.422574709923281,
                -1.0288603412921917,
                1.2330224858903978,
                -3.094022268022082
            ]
        },
        {
            "positions": [
                -0.3748643665465737,
                -1.365662370744375,
                2.3984390127418855,
                -0.9315126450980323,
                1.1540598109102245,
                -2.9511208852620734
            ]
        },
        {
            "positions": [
                -0.41186536363388443,
                -1.357671366077111,
                2.37430331556049,
                -0.8341649489038729,
                1.0750971359300512,
                -2.8082195025020646
            ]
        },
        {
            "positions": [
                -0.4488663607211952,
                -1.3496803614098467,
                2.3501676183790945,
                -0.7368172527097135,
                0.9961344609498779,
                -2.665318119742056
            ]
        },
        {
            "positions": [
                -0.48586735780850593,
                -1.3416893567425827,
                2.3260319211976985,
                -0.6394695565155541,
                0.9171717859697046,
                -2.522416736982047
            ]
        },
        {
            "positions": [
                -0.5228683548958166,
                -1.3336983520753185,
                2.301896224016303,
                -0.5421218603213948,
                0.8382091109895313,
                -2.3795153542220384
            ]
        },
        {
            "positions": [
                -0.5598693519831275,
                -1.3257073474080545,
                2.2777605268349075,
                -0.44477416412723536,
                0.759246436009358,
                -2.2366139714620297
            ]
        },
        {
            "positions": [
                -0.5968703490704381,
                -1.3177163427407903,
                2.253624829653512,
                -0.34742646793307597,
                0.6802837610291846,
                -2.093712588702021
            ]
        },
        {
            "positions": [
                -0.633871346157749,
                -1.3097253380735263,
                2.2294891324721164,
                -0.25007877173891657,
                0.6013210860490114,
                -1.9508112059420122
            ]
        },
        {
            "positions": [
                -0.6708723432450596,
                -1.301734333406262,
                2.205353435290721,
                -0.15273107554475718,
                0.5223584110688381,
                -1.8079098231820034
            ]
        },
        {
            "positions": [
                -0.7078733403323705,
                -1.293743328738998,
                2.1812177381093254,
                -0.05538337935059778,
                0.4433957360886648,
                -1.6650084404219947
            ]
        },
        {
            "positions": [
                -0.7448743374196811,
                -1.285752324071734,
                2.1570820409279294,
                0.0419643168435615,
                0.3644330611084915,
                -1.522107057661986
            ]
        },
        {
            "positions": [
                -0.781875334506992,
                -1.27776131940447,
                2.132946343746534,
                0.139312013037721,
                0.2854703861283182,
                -1.3792056749019772
            ]
        },
        {
            "positions": [
                -0.8188763315943026,
                -1.2697703147372057,
                2.1088106465651384,
                0.2366597092318803,
                0.2065077111481448,
                -1.2363042921419685
            ]
        },
        {
            "positions": [
                -0.8558773286816135,
                -1.2617793100699417,
                2.084674949383743,
                0.3340074054260398,
                0.12754503616797153,
                -1.0934029093819597
            ]
        },
        {
            "positions": [
                -0.8928783257689243,
                -1.2537883054026775,
                2.0605392522023473,
                0.4313551016201993,
                0.04858236118779824,
                -0.950501526621951
            ]
        },
        {
            "positions": [
                -0.929879322856235,
                -1.2457973007354135,
                2.036403555020952,
                0.5287027978143586,
                -0.030380313792375047,
                -0.8076001438619422
            ]
        },
        {
            "positions": [
                -0.9668803199435458,
                -1.2378062960681493,
                2.0122678578395563,
                0.6260504940085181,
                -0.10934298877254833,
                -0.6646987611019335
            ]
        },
        {
            "positions": [
                -1.0038813170308565,
                -1.2298152914008853,
                1.9881321606581606,
                0.7233981902026774,
                -0.18830566375272162,
                -0.5217973783419247
            ]
        },
        {
            "positions": [
                -1.0408823141181673,
                -1.221824286733621,
                1.9639964634767648,
                0.8207458863968369,
                -0.2672683387328951,
                -0.378895995581916
            ]
        },
        {
            "positions": [
                -1.077883311205478,
                -1.213833282066357,
                1.9398607662953693,
                0.9180935825909962,
                -0.3462310137130682,
                -0.23599461282190726
            ]
        },
        {
            "positions": [
                -1.1148843082927888,
                -1.2058422773990929,
                1.9157250691139738,
                1.0154412787851559,
                -0.4251936886932417,
                -0.09309323006189851
            ]
        },
        {
            "positions": [
                -1.1518853053800995,
                -1.197851272731829,
                1.8915893719325783,
                1.1127889749793147,
                -0.5041563636734148,
                0.04980815269811023
            ]
        },
        {
            "positions": [
                -1.1888863024674103,
                -1.1898602680645647,
                1.8674536747511825,
                1.2101366711734745,
                -0.5831190386535883,
                0.19270953545811897
            ]
        },
        {
            "positions": [
                -1.225887299554721,
                -1.1818692633973007,
                1.843317977569787,
                1.3074843673676337,
                -0.6620817136337613,
                0.3356109182181277
            ]
        },
        {
            "positions": [
                -1.2628882966420318,
                -1.1738782587300365,
                1.8191822803883912,
                1.4048320635617935,
                -0.7410443886139348,
                0.47851230097813646
            ]
        },
        {
            "positions": [
                -1.2998892937293425,
                -1.1658872540627725,
                1.7950465832069957,
                1.5021797597559523,
                -0.8200070635941081,
                0.6214136837381452
            ]
        },
        {
            "positions": [
                -1.3368902908166533,
                -1.1578962493955083,
                1.7709108860256002,
                1.599527455950112,
                -0.8989697385742814,
                0.764315066498154
            ]
        },
        {
            "positions": [
                -1.2640503514703934,
                -1.1847045312598357,
                1.7931516356290285,
                1.52561149805234,
                -0.8418995426554715,
                0.6251715156417115
            ]
        },
        {
            "positions": [
                -1.1912104121241334,
                -1.211512813124163,
                1.8153923852324565,
                1.451695540154568,
                -0.7848293467366615,
                0.486027964785269
            ]
        },
        {
            "positions": [
                -1.1183704727778734,
                -1.2383210949884902,
                1.8376331348358848,
                1.377779582256796,
                -0.7277591508178516,
                0.3468844139288265
            ]
        },
        {
            "positions": [
                -1.0455305334316134,
                -1.2651293768528176,
                1.8598738844393128,
                1.303863624359024,
                -0.6706889548990416,
                0.20774086307238404
            ]
        },
        {
            "positions": [
                -0.9726905940853534,
                -1.291937658717145,
                1.882114634042741,
                1.2299476664612519,
                -0.6136187589802317,
                0.06859731221594145
            ]
        },
        {
            "positions": [
                -0.8998506547390935,
                -1.3187459405814723,
                1.904355383646169,
                1.15603170856348,
                -0.5565485630614218,
                -0.07054623864050091
            ]
        },
        {
            "positions": [
                -0.8270107153928336,
                -1.3455542224457995,
                1.9265961332495973,
                1.0821157506657078,
                -0.49947836714261173,
                -0.2096897894969435
            ]
        },
        {
            "positions": [
                -0.7541707760465736,
                -1.3723625043101269,
                1.9488368828530254,
                1.008199792767936,
                -0.4424081712238018,
                -0.34883334035338587
            ]
        },
        {
            "positions": [
                -0.6813308367003136,
                -1.3991707861744542,
                1.9710776324564536,
                0.9342838348701638,
                -0.3853379753049918,
                -0.48797689120982857
            ]
        },
        {
            "positions": [
                -0.6084908973540536,
                -1.4259790680387816,
                1.9933183820598819,
                0.8603678769723918,
                -0.3282677793861819,
                -0.627120442066271
            ]
        },
        {
            "positions": [
                -0.5356509580077937,
                -1.452787349903109,
                2.01555913166331,
                0.7864519190746198,
                -0.2711975834673719,
                -0.7662639929227135
            ]
        },
        {
            "positions": [
                -0.46281101866153374,
                -1.4795956317674361,
                2.037799881266738,
                0.7125359611768478,
                -0.21412738754856198,
                -0.9054075437791558
            ]
        },
        {
            "positions": [
                -0.38997107931527375,
                -1.5064039136317635,
                2.060040630870166,
                0.6386200032790756,
                -0.15705719162975196,
                -1.0445510946355985
            ]
        },
        {
            "positions": [
                -0.31713113996901376,
                -1.533212195496091,
                2.0822813804735945,
                0.5647040453813037,
                -0.09998699571094205,
                -1.183694645492041
            ]
        },
        {
            "positions": [
                -0.24429120062275378,
                -1.5600204773604183,
                2.1045221300770227,
                0.49078808748353175,
                -0.04291679979213214,
                -1.3228381963484832
            ]
        },
        {
            "positions": [
                -0.1714512612764938,
                -1.5868287592247454,
                2.1267628796804505,
                0.4168721295857598,
                0.014153396126677764,
                -1.4619817472049257
            ]
        },
        {
            "positions": [
                -0.09861132193023403,
                -1.6136370410890728,
                2.149003629283879,
                0.34295617168798764,
                0.07122359204548778,
                -1.6011252980613682
            ]
        },
        {
            "positions": [
                -0.025771382583973823,
                -1.6404453229534002,
                2.171244378887307,
                0.2690402137902155,
                0.1282937879642978,
                -1.740268848917811
            ]
        },
        {
            "positions": [
                0.04706855676228616,
                -1.6672536048177276,
                2.1934851284907353,
                0.19512425589244353,
                0.18536398388310782,
                -1.8794123997742536
            ]
        },
        {
            "positions": [
                0.11990849610854615,
                -1.694061886682055,
                2.2157258780941635,
                0.12120829799467159,
                0.24243417980191762,
                -2.018555950630696
            ]
        },
        {
            "positions": [
                0.1927484354548059,
                -1.7208701685463823,
                2.237966627697592,
                0.04729234009689964,
                0.29950437572072763,
                -2.1576995014871385
            ]
        },
        {
            "positions": [
                0.2655883748010659,
                -1.7476784504107095,
                2.2602073773010196,
                -0.026623617800872523,
                0.35657457163953765,
                -2.296843052343581
            ]
        },
        {
            "positions": [
                0.3384283141473259,
                -1.7744867322750368,
                2.282448126904448,
                -0.10053957569864447,
                0.41364476755834745,
                -2.4359866032000235
            ]
        },
        {
            "positions": [
                0.41126825349358587,
                -1.801295014139364,
                2.304688876507876,
                -0.1744555335964164,
                0.47071496347715747,
                -2.5751301540564655
            ]
        },
        {
            "positions": [
                0.4841081928398461,
                -1.8281032960036916,
                2.3269296261113044,
                -0.24837149149418858,
                0.5277851593959675,
                -2.7142737049129084
            ]
        },
        {
            "positions": [
                0.5569481321861058,
                -1.8549115778680187,
                2.349170375714732,
                -0.32228744939196075,
                0.5848553553147775,
                -2.853417255769351
            ]
        },
        {
            "positions": [
                0.6297880715323658,
                -1.8817198597323461,
                2.3714111253181605,
                -0.3962034072897327,
                0.6419255512335873,
                -2.9925608066257934
            ]
        },
        {
            "positions": [
                0.7026280108786258,
                -1.9085281415966735,
                2.3936518749215887,
                -0.4701193651875046,
                0.6989957471523974,
                -3.131704357482236
            ]
        }
    ]
}