{
    "goal": {
        "global_pose": {
            "orientation": {
                "w": 0.5084816217422485,
                "x": -0.49083608388900757,
                "y": 0.5182115435600281,
                "z": -0.4816462993621826
            },
            "position": {
                "x": 0.5540239810943604,
                "y": 0.030875300988554955,
                "z": 0.16403168439865112
            }
        },
        "name": "move_to_storage_A"
    },
    "id": "SPARS_move_to_storage_A_51",
    "joint_names": [
        "shoulder_pan_joint",
        "shoulder_lift_joint",
        "elbow_joint",
        "wrist_1_joint",
        "wrist_2_joint",
        "wrist_3_joint"
    ],
    "metrics": {
        "cart_traj_len": 0.353091752757419,
        "distance_elbow_joint": 0.4493842829950454,
        "distance_shoulder_lift_joint": 0.23312068357603621,
        "distance_shoulder_pan_joint": 0.4621310151005948,
        "distance_wrist_1_joint": 0.2382647548109974,
        "distance_wrist_2_joint": 1.0967637933781622,
        "distance_wrist_3_joint": 0.10337518612983176,
        "smoothness": 2.2204460668324854e-16,
        "time": 5.020046423,
        "traj_len": 1.607183784136297,
        "weighted_distance": 2.0309649520460686
    },
    "planner": "SPARS",
    "start": {
        "state": {
            "elbow_joint": 1.9715463870305268,
            "shoulder_lift_joint": -1.1394903361783484,
            "shoulder_pan_joint": 0.12281147578464417,
            "wrist_1_joint": -0.7804599489681411,
            "wrist_2_joint": 0.12958660307563738,
            "wrist_3_joint": -3.1924946282119055
        }
    },
    "waypoints": [
        {
            "positions": [
                0.12281147578464417,
                -1.1394903361783484,
                1.9715463870305268,
                -0.7804599489681411,
                0.12958660307563738,
                -3.1924946282119055
            ]
        },
        {
            "positions": [
                0.05679275934170207,
                -1.172793290974925,
                2.0357441417441047,
                -0.8144977710839979,
                0.2862671449868034,
                -3.1777267444790724
            ]
        },
        {
            "positions": [
                -0.009225957101240037,
                -1.2060962457715017,
                2.0999418964576826,
                -0.8485355931998546,
                0.4429476868979694,
                -3.1629588607462393
            ]
        },
        {
            "positions": [
                -0.07524467354418214,
                -1.2393992005680783,
                2.1641396511712605,
                -0.8825734153157114,
                0.5996282288091355,
                -3.1481909770134062
            ]
        },
        {
            "positions": [
                -0.14126338998712423,
                -1.2727021553646547,
                2.2283374058848384,
                -0.9166112374315681,
                0.7563087707203014,
                -3.133423093280573
            ]
        },
        {
            "positions": [
                -0.2072821064300664,
                -1.3060051101612313,
                2.2925351605984163,
                -0.950649059547425,
                0.9129893126314675,
                -3.11865520954774
            ]
        },
        {
            "positions": [
                -0.27330082287300844,
                -1.339308064957808,
                2.3567329153119942,
                -0.9846868816632817,
                1.0696698545426335,
                -3.103887325814907
            ]
        },
        {
            "positions": [
                -0.3393195393159506,
                -1.3726110197543846,
                2.420930670025572,
                -1.0187247037791385,
                1.2263503964537996,
                -3.089119442082074
            ]
        }
    ]
}