{
    "goal": {
        "global_pose": {
            "orientation": {
                "w": 0.7047431468963623,
                "x": -0.7094548344612122,
                "y": 0.0024358443915843964,
                "z": -0.0022348060738295317
            },
            "position": {
                "x": 0.6094750761985779,
                "y": 0.3671506643295288,
                "z": 0.19426114857196808
            }
        },
        "name": "move_to_magneteinheit_A"
    },
    "id": "SPARS_move_to_magneteinheit_A_91",
    "joint_names": [
        "shoulder_pan_joint",
        "shoulder_lift_joint",
        "elbow_joint",
        "wrist_1_joint",
        "wrist_2_joint",
        "wrist_3_joint"
    ],
    "metrics": {
        "cart_traj_len": 1.8787015549307056,
        "distance_elbow_joint": 3.9138895328501,
        "distance_shoulder_lift_joint": 0.7014630329195676,
        "distance_shoulder_pan_joint": 1.2425048374361478,
        "distance_wrist_1_joint": 1.4920281361704255,
        "distance_wrist_2_joint": 1.705143876801064,
        "distance_wrist_3_joint": 1.1149771249516915,
        "smoothness": 4.605369582982944e-16,
        "time": 5.009757958,
        "traj_len": 3.1890447693829884,
        "weighted_distance": 3.949320549664698
    },
    "planner": "SPARS",
    "start": {
        "state": {
            "elbow_joint": -1.919643507792019,
            "shoulder_lift_joint": -0.07675430207160344,
            "shoulder_pan_joint": -1.1188671864651873,
            "wrist_1_joint": 0.42560062535961957,
            "wrist_2_joint": 1.5706038300724876,
            "wrist_3_joint": 1.1188968870953055
        }
    },
    "waypoints": [
        {
            "positions": [
                -1.1188671864651873,
                -0.07675430207160344,
                -1.919643507792019,
                0.42560062535961957,
                1.5706038300724876,
                1.1188968870953055
            ]
        },
        {
            "positions": [
                -1.0710785388714894,
                -0.10373364949158681,
                -1.7691092949900922,
                0.48298632290463595,
                1.5050213732724467,
                1.0760131515202405
            ]
        },
        {
            "positions": [
                -1.0232898912777912,
                -0.13071299691157018,
                -1.6185750821881653,
                0.5403720204496523,
                1.4394389164724057,
                1.0331294159451754
            ]
        },
        {
            "positions": [
                -0.9755012436840933,
                -0.15769234433155355,
                -1.4680408693862383,
                0.5977577179946687,
                1.3738564596723648,
                0.9902456803701104
            ]
        },
        {
            "positions": [
                -0.9277125960903954,
                -0.18467169175153694,
                -1.3175066565843112,
                0.655143415539685,
                1.3082740028723239,
                0.9473619447950453
            ]
        },
        {
            "positions": [
                -0.8799239484966974,
                -0.2116510391715203,
                -1.1669724437823845,
                0.7125291130847013,
                1.242691546072283,
                0.9044782092199802
            ]
        },
        {
            "positions": [
                -0.8321353009029994,
                -0.23863038659150368,
                -1.0164382309804574,
                0.7699148106297178,
                1.177109089272242,
                0.8615944736449153
            ]
        },
        {
            "positions": [
                -0.7843466533093014,
                -0.265609734011487,
                -0.8659040181785307,
                0.8273005081747341,
                1.111526632472201,
                0.8187107380698502
            ]
        },
        {
            "positions": [
                -0.7365580057156034,
                -0.29258908143147044,
                -0.7153698053766036,
                0.8846862057197505,
                1.0459441756721601,
                0.7758270024947851
            ]
        },
        {
            "positions": [
                -0.6887693581219054,
                -0.31956842885145376,
                -0.5648355925746766,
                0.9420719032647669,
                0.9803617188721193,
                0.73294326691972
            ]
        },
        {
            "positions": [
                -0.6409807105282074,
                -0.3465477762714372,
                -0.4143013797727497,
                0.9994576008097833,
                0.9147792620720783,
                0.6900595313446549
            ]
        },
        {
            "positions": [
                -0.5931920629345094,
                -0.37352712369142055,
                -0.2637671669708228,
                1.0568432983547995,
                0.8491968052720374,
                0.6471757957695898
            ]
        },
        {
            "positions": [
                -0.5454034153408114,
                -0.4005064711114039,
                -0.1132329541688959,
                1.114228995899816,
                0.7836143484719965,
                0.6042920601945249
            ]
        },
        {
            "positions": [
                -0.49761476774711344,
                -0.4274858185313873,
                0.03730125863303102,
                1.1716146934448324,
                0.7180318916719556,
                0.5614083246194598
            ]
        },
        {
            "positions": [
                -0.4498261201534155,
                -0.45446516595137065,
                0.1878354714349577,
                1.2290003909898486,
                0.6524494348719146,
                0.5185245890443947
            ]
        },
        {
            "positions": [
                -0.40203747255971756,
                -0.481444513371354,
                0.33836968423688485,
                1.286386088534865,
                0.5868669780718738,
                0.4756408534693297
            ]
        },
        {
            "positions": [
                -0.3542488249660194,
                -0.5084238607913374,
                0.488903897038812,
                1.3437717860798815,
                0.5212845212718327,
                0.4327571178942645
            ]
        },
        {
            "positions": [
                -0.30646017737232145,
                -0.5354032082113207,
                0.6394381098407387,
                1.401157483624898,
                0.45570206447179196,
                0.38987338231919955
            ]
        },
        {
            "positions": [
                -0.2586715297786235,
                -0.5623825556313041,
                0.7899723226426658,
                1.458543181169914,
                0.390119607671751,
                0.34698964674413446
            ]
        },
        {
            "positions": [
                -0.21088288218492557,
                -0.5893619030512876,
                0.9405065354445925,
                1.5159288787149305,
                0.3245371508717101,
                0.3041059111690695
            ]
        },
        {
            "positions": [
                -0.1630942345912274,
                -0.6163412504712709,
                1.0910407482465196,
                1.573314576259947,
                0.25895469407166893,
                0.2612221755940043
            ]
        },
        {
            "positions": [
                -0.11530558699752946,
                -0.6433205978912542,
                1.2415749610484463,
                1.6307002738049634,
                0.19337223727162822,
                0.21833844001893932
            ]
        },
        {
            "positions": [
                -0.06751693940383152,
                -0.6702999453112377,
                1.3921091738503735,
                1.6880859713499796,
                0.1277897804715873,
                0.17545470444387423
            ]
        },
        {
            "positions": [
                -0.01972829181013358,
                -0.697279292731221,
                1.5426433866523002,
                1.745471668894996,
                0.062207323671546355,
                0.13257096886880926
            ]
        },
        {
            "positions": [
                0.028060355783564583,
                -0.7242586401512043,
                1.6931775994542273,
                1.8028573664400125,
                -0.0033751331284945785,
                0.08968723329374417
            ]
        },
        {
            "positions": [
                0.07584900337726252,
                -0.7512379875711879,
                1.8437118122561544,
                1.8602430639850287,
                -0.06895758992853551,
                0.04680349771867909
            ]
        },
        {
            "positions": [
                0.12363765097096045,
                -0.7782173349911711,
                1.9942460250580811,
                1.9176287615300451,
                -0.13454004672857636,
                0.003919762143614068
            ]
        }
    ]
}