{
    "goal": {
        "global_pose": {
            "orientation": {
                "w": 0.5084816217422485,
                "x": -0.49083608388900757,
                "y": 0.5182115435600281,
                "z": -0.4816462993621826
            },
            "position": {
                "x": 0.5540239810943604,
                "y": 0.030875300988554955,
                "z": 0.16403168439865112
            }
        },
        "name": "move_to_storage_A"
    },
    "id": "SPARS_move_to_storage_A_144",
    "joint_names": [
        "shoulder_pan_joint",
        "shoulder_lift_joint",
        "elbow_joint",
        "wrist_1_joint",
        "wrist_2_joint",
        "wrist_3_joint"
    ],
    "metrics": {
        "cart_traj_len": 0.3525561200545182,
        "distance_elbow_joint": 0.44971028378171773,
        "distance_shoulder_lift_joint": 0.23283976730956613,
        "distance_shoulder_pan_joint": 0.45985850826147584,
        "distance_wrist_1_joint": 0.2455214656134116,
        "distance_wrist_2_joint": 1.101908549917548,
        "distance_wrist_3_joint": 0.1065401070748142,
        "smoothness": 1.3322676295501878e-15,
        "time": 5.01925418,
        "traj_len": 1.611328235325917,
        "weighted_distance": 2.038844994510157
    },
    "planner": "SPARS",
    "start": {
        "state": {
            "elbow_joint": 1.9715463870305268,
            "shoulder_lift_joint": -1.1394903361783484,
            "shoulder_pan_joint": 0.12281147578464417,
            "wrist_1_joint": -0.7804599489681411,
            "wrist_2_joint": 0.12958660307563738,
            "wrist_3_joint": -3.1924946282119055
        }
    },
    "waypoints": [
        {
            "positions": [
                0.12281147578464417,
                -1.1394903361783484,
                1.9715463870305268,
                -0.7804599489681411,
                0.12958660307563738,
                -3.1924946282119055
            ]
        },
        {
            "positions": [
                0.05711740317586192,
                -1.172753160079715,
                2.0357907132850577,
                -0.8155344440557714,
                0.2870021102067157,
                -3.1772746129155034
            ]
        },
        {
            "positions": [
                -0.008576669432920334,
                -1.2060159839810816,
                2.100035039539589,
                -0.8506089391434015,
                0.44441761733779395,
                -3.1620545976191017
            ]
        },
        {
            "positions": [
                -0.0742707420417026,
                -1.2392788078824482,
                2.16427936579412,
                -0.8856834342310318,
                0.6018331244688723,
                -3.1468345823226995
            ]
        },
        {
            "positions": [
                -0.13996481465048483,
                -1.2725416317838147,
                2.2285236920486513,
                -0.920757929318662,
                0.7592486315999506,
                -3.1316145670262974
            ]
        },
        {
            "positions": [
                -0.20565888725926712,
                -1.3058044556851813,
                2.292768018303182,
                -0.9558324244062922,
                0.9166641387310289,
                -3.116394551729895
            ]
        },
        {
            "positions": [
                -0.27135295986804936,
                -1.339067279586548,
                2.357012344557713,
                -0.9909069194939224,
                1.0740796458621071,
                -3.1011745364334935
            ]
        },
        {
            "positions": [
                -0.33704703247683165,
                -1.3723301034879145,
                2.4212566708122445,
                -1.0259814145815527,
                1.2314951529931855,
                -3.0859545211370913
            ]
        }
    ]
}