{
    "goal": {
        "global_pose": {
            "orientation": {
                "w": 0.5084816217422485,
                "x": -0.49083608388900757,
                "y": 0.5182115435600281,
                "z": -0.4816462993621826
            },
            "position": {
                "x": 0.5540239810943604,
                "y": 0.030875300988554955,
                "z": 0.16403168439865112
            }
        },
        "name": "move_to_storage_A"
    },
    "id": "SPARS_move_to_storage_A_102",
    "joint_names": [
        "shoulder_pan_joint",
        "shoulder_lift_joint",
        "elbow_joint",
        "wrist_1_joint",
        "wrist_2_joint",
        "wrist_3_joint"
    ],
    "metrics": {
        "cart_traj_len": 0.3528235729580057,
        "distance_elbow_joint": 0.44880358865966574,
        "distance_shoulder_lift_joint": 0.23296021470428419,
        "distance_shoulder_pan_joint": 0.4620885669470136,
        "distance_wrist_1_joint": 0.24091395290016615,
        "distance_wrist_2_joint": 1.0943016116519289,
        "distance_wrist_3_joint": 0.10342949633725773,
        "smoothness": 4.440892133664971e-16,
        "time": 5.030569997,
        "traj_len": 1.6070150687533444,
        "weighted_distance": 2.03090422926019
    },
    "planner": "SPARS",
    "start": {
        "state": {
            "elbow_joint": 1.9715463870305268,
            "shoulder_lift_joint": -1.1394903361783484,
            "shoulder_pan_joint": 0.12281147578464417,
            "wrist_1_joint": -0.7804599489681411,
            "wrist_2_joint": 0.12958660307563738,
            "wrist_3_joint": -3.1924946282119055
        }
    },
    "waypoints": [
        {
            "positions": [
                0.12281147578464417,
                -1.1394903361783484,
                1.9715463870305268,
                -0.7804599489681411,
                0.12958660307563738,
                -3.1924946282119055
            ]
        },
        {
            "positions": [
                0.056798823363642226,
                -1.172770366850389,
                2.035661185410479,
                -0.8148762279538792,
                0.2859154047401986,
                -3.1777189858780117
            ]
        },
        {
            "positions": [
                -0.009213829057359721,
                -1.2060503975224295,
                2.099775983790431,
                -0.8492925069396171,
                0.4422442064047599,
                -3.1629433435441174
            ]
        },
        {
            "positions": [
                -0.07522648147836165,
                -1.2393304281944701,
                2.1638907821703834,
                -0.8837087859253552,
                0.5985730080693211,
                -3.1481677012102236
            ]
        },
        {
            "positions": [
                -0.1412391338993636,
                -1.2726104588665108,
                2.228005580550336,
                -0.9181250649110931,
                0.7549018097338824,
                -3.1333920588763298
            ]
        },
        {
            "positions": [
                -0.20725178632036556,
                -1.3058904895385515,
                2.292120378930288,
                -0.9525413438968312,
                0.9112306113984437,
                -3.118616416542436
            ]
        },
        {
            "positions": [
                -0.27326443874136747,
                -1.339170520210592,
                2.35623517731024,
                -0.9869576228825692,
                1.0675594130630048,
                -3.1038407742085417
            ]
        },
        {
            "positions": [
                -0.3392770911623694,
                -1.3724505508826326,
                2.4203499756901925,
                -1.0213739018683072,
                1.2238882147275663,
                -3.089065131874648
            ]
        }
    ]
}