{
    "goal": {
        "global_pose": {
            "orientation": {
                "w": 0.7031023502349854,
                "x": -0.7110244035720825,
                "y": 0.007748599164187908,
                "z": 0.005598929710686207
            },
            "position": {
                "x": 0.11585023208521307,
                "y": 0.44412534475326537,
                "z": 0.3711530566215515
            }
        },
        "name": "move_to_auspresseinheit_A"
    },
    "id": "SPARS_move_to_auspresseinheit_A_114",
    "joint_names": [
        "shoulder_pan_joint",
        "shoulder_lift_joint",
        "elbow_joint",
        "wrist_1_joint",
        "wrist_2_joint",
        "wrist_3_joint"
    ],
    "metrics": {
        "cart_traj_len": 0.6876162203711761,
        "distance_elbow_joint": 0.03233977035593405,
        "distance_shoulder_lift_joint": 0.5332312625688289,
        "distance_shoulder_pan_joint": 1.0399480955372953,
        "distance_wrist_1_joint": 0.5780153825297295,
        "distance_wrist_2_joint": 0.5377933681154079,
        "distance_wrist_3_joint": 0.05761982735273996,
        "smoothness": 0.0,
        "time": 5.027525646000001,
        "traj_len": 1.6670176083233001,
        "weighted_distance": 2.002497468615267
    },
    "planner": "SPARS",
    "start": {
        "state": {
            "elbow_joint": 2.422574709923281,
            "shoulder_lift_joint": -1.3736533754116391,
            "shoulder_pan_joint": -0.33786336945926293,
            "wrist_1_joint": -1.0288603412921917,
            "wrist_2_joint": 1.2330224858903978,
            "wrist_3_joint": -3.094022268022082
        }
    },
    "waypoints": [
        {
            "positions": [
                -0.33786336945926293,
                -1.3736533754116391,
                2.422574709923281,
                -1.0288603412921917,
                1.2330224858903978,
                -3.094022268022082
            ]
        },
        {
            "positions": [
                -0.20786985751710102,
                -1.4403072832327428,
                2.4185322386287895,
                -0.9566084184759756,
                1.1657983148759719,
                -3.101224746441175
            ]
        },
        {
            "positions": [
                -0.07787634557493911,
                -1.5069611910538463,
                2.4144897673342975,
                -0.8843564956597594,
                1.0985741438615457,
                -3.108427224860267
            ]
        },
        {
            "positions": [
                0.0521171663672228,
                -1.57361509887495,
                2.4104472960398056,
                -0.8121045728435432,
                1.0313499728471198,
                -3.1156297032793594
            ]
        },
        {
            "positions": [
                0.1821106783093847,
                -1.6402690066960535,
                2.406404824745314,
                -0.739852650027327,
                0.9641258018326938,
                -3.122832181698452
            ]
        },
        {
            "positions": [
                0.3121041902515466,
                -1.7069229145171572,
                2.4023623534508225,
                -0.6676007272111109,
                0.8969016308182678,
                -3.130034660117545
            ]
        },
        {
            "positions": [
                0.44209770219370853,
                -1.7735768223382609,
                2.3983198821563305,
                -0.5953488043948946,
                0.8296774598038419,
                -3.137237138536637
            ]
        },
        {
            "positions": [
                0.5720912141358705,
                -1.8402307301593646,
                2.3942774108618385,
                -0.5230968815786784,
                0.7624532887894159,
                -3.1444396169557294
            ]
        },
        {
            "positions": [
                0.7020847260780323,
                -1.906884637980468,
                2.390234939567347,
                -0.4508449587624622,
                0.6952291177749899,
                -3.151642095374822
            ]
        }
    ]
}