{
    "goal": {
        "global_pose": {
            "orientation": {
                "w": 0.7031023502349854,
                "x": -0.7110244035720825,
                "y": 0.007748599164187908,
                "z": 0.005598929710686207
            },
            "position": {
                "x": 0.11585023208521307,
                "y": 0.44412534475326537,
                "z": 0.3711530566215515
            }
        },
        "name": "move_to_auspresseinheit_A"
    },
    "id": "SPARS_move_to_auspresseinheit_A_37",
    "joint_names": [
        "shoulder_pan_joint",
        "shoulder_lift_joint",
        "elbow_joint",
        "wrist_1_joint",
        "wrist_2_joint",
        "wrist_3_joint"
    ],
    "metrics": {
        "cart_traj_len": 0.7434757006772449,
        "distance_elbow_joint": 0.02705513425345396,
        "distance_shoulder_lift_joint": 0.5344138908371674,
        "distance_shoulder_pan_joint": 1.119703411787897,
        "distance_wrist_1_joint": 0.5530006768075533,
        "distance_wrist_2_joint": 0.533311195632756,
        "distance_wrist_3_joint": 0.3586313254959528,
        "smoothness": 0.611911554989538,
        "time": 5.062786512,
        "traj_len": 1.7680824739855265,
        "weighted_distance": 2.220290557167461
    },
    "planner": "SPARS",
    "start": {
        "state": {
            "elbow_joint": 2.422574709923281,
            "shoulder_lift_joint": -1.3736533754116391,
            "shoulder_pan_joint": -0.33786336945926293,
            "wrist_1_joint": -1.0288603412921917,
            "wrist_2_joint": 1.2330224858903978,
            "wrist_3_joint": -3.094022268022082
        }
    },
    "waypoints": [
        {
            "positions": [
                -0.33786336945926293,
                -1.3736533754116391,
                2.422574709923281,
                -1.0288603412921917,
                1.2330224858903978,
                -3.094022268022082
            ]
        },
        {
            "positions": [
                -0.37590365607493414,
                -1.4157897236247396,
                2.396704723222575,
                -1.019376188702073,
                1.1720133769389833,
                -2.936695619759888
            ]
        },
        {
            "positions": [
                -0.24069576542840593,
                -1.477324416452748,
                2.3965565797784816,
                -0.9514366231748936,
                1.1129756161038156,
                -2.961858704414108
            ]
        },
        {
            "positions": [
                -0.10548787478187771,
                -1.5388591092807564,
                2.396408436334388,
                -0.8834970576477144,
                1.053937855268648,
                -2.987021789068328
            ]
        },
        {
            "positions": [
                0.029720015864650506,
                -1.6003938021087647,
                2.3962602928902945,
                -0.815557492120535,
                0.9949000944334803,
                -3.0121848737225476
            ]
        },
        {
            "positions": [
                0.16492790651117872,
                -1.661928494936773,
                2.3961121494462008,
                -0.7476179265933557,
                0.9358623335983125,
                -3.0373479583767677
            ]
        },
        {
            "positions": [
                0.3001357971577069,
                -1.7234631877647815,
                2.3959640060021075,
                -0.6796783610661764,
                0.8768245727631448,
                -3.0625110430309874
            ]
        },
        {
            "positions": [
                0.43534368780423516,
                -1.7849978805927897,
                2.395815862558014,
                -0.611738795538997,
                0.8177868119279772,
                -3.087674127685207
            ]
        },
        {
            "positions": [
                0.5705515784507634,
                -1.8465325734207982,
                2.3956677191139204,
                -0.5437992300118177,
                0.7587490510928094,
                -3.1128372123394272
            ]
        },
        {
            "positions": [
                0.7057594690972915,
                -1.9080672662488065,
                2.395519575669827,
                -0.47585966448463846,
                0.6997112902576418,
                -3.138000296993647
            ]
        }
    ]
}