{
    "goal": {
        "global_pose": {
            "orientation": {
                "w": 0.7031023502349854,
                "x": -0.7110244035720825,
                "y": 0.007748599164187908,
                "z": 0.005598929710686207
            },
            "position": {
                "x": 0.11585023208521307,
                "y": 0.44412534475326537,
                "z": 0.3711530566215515
            }
        },
        "name": "move_to_auspresseinheit_A"
    },
    "id": "SPARS_move_to_auspresseinheit_A_110",
    "joint_names": [
        "shoulder_pan_joint",
        "shoulder_lift_joint",
        "elbow_joint",
        "wrist_1_joint",
        "wrist_2_joint",
        "wrist_3_joint"
    ],
    "metrics": {
        "cart_traj_len": 1.6761782427359315,
        "distance_elbow_joint": 0.43051207771601785,
        "distance_shoulder_lift_joint": 0.5391767365014217,
        "distance_shoulder_pan_joint": 2.7049537759744,
        "distance_wrist_1_joint": 0.5509185345117344,
        "distance_wrist_2_joint": 0.7277092315123603,
        "distance_wrist_3_joint": 0.19531318112677942,
        "smoothness": 1.271252696253018,
        "time": 5.020352248,
        "traj_len": 2.2690490381088533,
        "weighted_distance": 2.61109893830555
    },
    "planner": "SPARS",
    "start": {
        "state": {
            "elbow_joint": 2.422574709923281,
            "shoulder_lift_joint": -1.3736533754116391,
            "shoulder_pan_joint": -0.33786336945926293,
            "wrist_1_joint": -1.0288603412921917,
            "wrist_2_joint": 1.2330224858903978,
            "wrist_3_joint": -3.094022268022082
        }
    },
    "waypoints": [
        {
            "positions": [
                -0.33786336945926293,
                -1.3736533754116391,
                2.422574709923281,
                -1.0288603412921917,
                1.2330224858903978,
                -3.094022268022082
            ]
        },
        {
            "positions": [
                -0.47619009929477085,
                -1.4354504763729123,
                2.384589450527811,
                -0.9587351769847194,
                1.250876241917418,
                -3.08063608229899
            ]
        },
        {
            "positions": [
                -0.6145168291302787,
                -1.4972475773341858,
                2.346604191132341,
                -0.8886100126772472,
                1.268729997944438,
                -3.0672498965758974
            ]
        },
        {
            "positions": [
                -0.7528435589657867,
                -1.559044678295459,
                2.308618931736871,
                -0.8184848483697748,
                1.2865837539714582,
                -3.053863710852805
            ]
        },
        {
            "positions": [
                -0.8911702888012947,
                -1.6208417792567322,
                2.270633672341401,
                -0.7483596840623025,
                1.3044375099984784,
                -3.0404775251297127
            ]
        },
        {
            "positions": [
                -1.0294970186368027,
                -1.6826388802180057,
                2.232648412945931,
                -0.6782345197548301,
                1.3222912660254984,
                -3.0270913394066206
            ]
        },
        {
            "positions": [
                -1.1678237484723106,
                -1.744435981179279,
                2.194663153550461,
                -0.6081093554473578,
                1.3401450220525186,
                -3.013705153683528
            ]
        },
        {
            "positions": [
                -0.9334495738521416,
                -1.7654852475210017,
                2.2199882187183606,
                -0.5918384118639952,
                1.2625716851337387,
                -3.0280796620320563
            ]
        },
        {
            "positions": [
                -0.6990753992319725,
                -1.7865345138627244,
                2.2453132838862606,
                -0.5755674682806327,
                1.1849983482149589,
                -3.0424541703805845
            ]
        },
        {
            "positions": [
                -0.4647012246118034,
                -1.8075837802044472,
                2.27063834905416,
                -0.5592965246972701,
                1.1074250112961788,
                -3.0568286787291123
            ]
        },
        {
            "positions": [
                -0.23032704999163434,
                -1.82863304654617,
                2.2959634142220597,
                -0.5430255811139075,
                1.0298516743773989,
                -3.0712031870776406
            ]
        },
        {
            "positions": [
                0.004047124628534737,
                -1.8496823128878925,
                2.3212884793899597,
                -0.526754637530545,
                0.952278337458619,
                -3.085577695426169
            ]
        },
        {
            "positions": [
                0.2384212992487038,
                -1.8707315792296153,
                2.3466135445578593,
                -0.5104836939471824,
                0.874705000539839,
                -3.0999522037746967
            ]
        },
        {
            "positions": [
                0.4727954738688729,
                -1.891780845571338,
                2.3719386097257593,
                -0.4942127503638198,
                0.797131663621059,
                -3.114326712123225
            ]
        },
        {
            "positions": [
                0.707169648489042,
                -1.9128301119130608,
                2.397263674893659,
                -0.4779418067804572,
                0.7195583267022791,
                -3.1287012204717533
            ]
        }
    ]
}