{
    "goal": {
        "global_pose": {
            "orientation": {
                "w": 0.7031023502349854,
                "x": -0.7110244035720825,
                "y": 0.007748599164187908,
                "z": 0.005598929710686207
            },
            "position": {
                "x": 0.11585023208521307,
                "y": 0.44412534475326537,
                "z": 0.3711530566215515
            }
        },
        "name": "move_to_auspresseinheit_A"
    },
    "id": "SPARS_move_to_auspresseinheit_A_106",
    "joint_names": [
        "shoulder_pan_joint",
        "shoulder_lift_joint",
        "elbow_joint",
        "wrist_1_joint",
        "wrist_2_joint",
        "wrist_3_joint"
    ],
    "metrics": {
        "cart_traj_len": 0.9330273186103559,
        "distance_elbow_joint": 0.032700154820072935,
        "distance_shoulder_lift_joint": 0.5321870925631909,
        "distance_shoulder_pan_joint": 1.6936226178492055,
        "distance_wrist_1_joint": 0.5698943366206586,
        "distance_wrist_2_joint": 0.5331442027989287,
        "distance_wrist_3_joint": 0.19617703348110815,
        "smoothness": 1.1354618529454379,
        "time": 5.035637855,
        "traj_len": 1.8861933724125861,
        "weighted_distance": 2.2479141541693646
    },
    "planner": "SPARS",
    "start": {
        "state": {
            "elbow_joint": 2.422574709923281,
            "shoulder_lift_joint": -1.3736533754116391,
            "shoulder_pan_joint": -0.33786336945926293,
            "wrist_1_joint": -1.0288603412921917,
            "wrist_2_joint": 1.2330224858903978,
            "wrist_3_joint": -3.094022268022082
        }
    },
    "waypoints": [
        {
            "positions": [
                -0.33786336945926293,
                -1.3736533754116391,
                2.422574709923281,
                -1.0288603412921917,
                1.2330224858903978,
                -3.094022268022082
            ]
        },
        {
            "positions": [
                -0.4462454385449465,
                -1.3948440792172407,
                2.4166632904049394,
                -0.9144633829959009,
                1.179649062971838,
                -3.070720051421659
            ]
        },
        {
            "positions": [
                -0.5546275076306302,
                -1.4160347830228421,
                2.410751870886598,
                -0.8000664246996102,
                1.126275640053278,
                -3.0474178348212355
            ]
        },
        {
            "positions": [
                -0.6630095767163138,
                -1.4372254868284438,
                2.404840451368256,
                -0.6856694664033194,
                1.0729022171347182,
                -3.0241156182208124
            ]
        },
        {
            "positions": [
                -0.46751294663172027,
                -1.5041704841350703,
                2.402702466187535,
                -0.6532832575844928,
                1.0196130836999684,
                -3.0421542444607894
            ]
        },
        {
            "positions": [
                -0.2720163165471267,
                -1.571115481441697,
                2.400564481006814,
                -0.6208970487656662,
                0.9663239502652184,
                -3.0601928707007664
            ]
        },
        {
            "positions": [
                -0.07651968646253315,
                -1.6380604787483235,
                2.398426495826093,
                -0.5885108399468395,
                0.9130348168304686,
                -3.0782314969407434
            ]
        },
        {
            "positions": [
                0.11897694362206035,
                -1.7050054760549502,
                2.3962885106453715,
                -0.5561246311280129,
                0.8597456833957187,
                -3.09627012318072
            ]
        },
        {
            "positions": [
                0.31447357370665396,
                -1.7719504733615767,
                2.3941505254646502,
                -0.5237384223091863,
                0.8064565499609688,
                -3.114308749420697
            ]
        },
        {
            "positions": [
                0.5099702037912475,
                -1.8388954706682035,
                2.3920125402839294,
                -0.49135221349035973,
                0.753167416526219,
                -3.132347375660674
            ]
        },
        {
            "positions": [
                0.705466833875841,
                -1.90584046797483,
                2.389874555103208,
                -0.4589660046715331,
                0.699878283091469,
                -3.150386001900651
            ]
        }
    ]
}