{
    "goal": {
        "global_pose": {
            "orientation": {
                "w": 0.7047431468963623,
                "x": -0.7094548344612122,
                "y": 0.0024358443915843964,
                "z": -0.0022348060738295317
            },
            "position": {
                "x": 0.6094750761985779,
                "y": 0.3671506643295288,
                "z": 0.19426114857196808
            }
        },
        "name": "move_to_magneteinheit_A"
    },
    "id": "SPARS_move_to_magneteinheit_A_64",
    "joint_names": [
        "shoulder_pan_joint",
        "shoulder_lift_joint",
        "elbow_joint",
        "wrist_1_joint",
        "wrist_2_joint",
        "wrist_3_joint"
    ],
    "metrics": {
        "cart_traj_len": 1.8764946643419327,
        "distance_elbow_joint": 3.9189291117335605,
        "distance_shoulder_lift_joint": 0.70258478467498,
        "distance_shoulder_pan_joint": 1.2404335743699666,
        "distance_wrist_1_joint": 1.5097900417985148,
        "distance_wrist_2_joint": 1.7002709512593852,
        "distance_wrist_3_joint": 1.1279996749107042,
        "smoothness": 2.3026848007699876e-16,
        "time": 5.037526486,
        "traj_len": 3.193745158704293,
        "weighted_distance": 3.9580384638892054
    },
    "planner": "SPARS",
    "start": {
        "state": {
            "elbow_joint": -1.919643507792019,
            "shoulder_lift_joint": -0.07675430207160344,
            "shoulder_pan_joint": -1.1188671864651873,
            "wrist_1_joint": 0.42560062535961957,
            "wrist_2_joint": 1.5706038300724876,
            "wrist_3_joint": 1.1188968870953055
        }
    },
    "waypoints": [
        {
            "positions": [
                -1.1188671864651873,
                -0.07675430207160344,
                -1.919643507792019,
                0.42560062535961957,
                1.5706038300724876,
                1.1188968870953055
            ]
        },
        {
            "positions": [
                -1.0711582028355733,
                -0.1037767937898719,
                -1.7689154650330359,
                0.4836694731211009,
                1.5052087934855882,
                1.0755122842141247
            ]
        },
        {
            "positions": [
                -1.0234492192059592,
                -0.13079928550814035,
                -1.6181874222740529,
                0.5417383208825822,
                1.4398137568986886,
                1.0321276813329436
            ]
        },
        {
            "positions": [
                -0.975740235576345,
                -0.15782177722640883,
                -1.4674593795150699,
                0.5998071686440636,
                1.3744187203117892,
                0.9887430784517628
            ]
        },
        {
            "positions": [
                -0.928031251946731,
                -0.1848442689446773,
                -1.3167313367560867,
                0.6578760164055449,
                1.3090236837248899,
                0.9453584755705818
            ]
        },
        {
            "positions": [
                -0.8803222683171168,
                -0.21186676066294574,
                -1.1660032939971035,
                0.7159448641670263,
                1.2436286471379905,
                0.9019738726894009
            ]
        },
        {
            "positions": [
                -0.8326132846875027,
                -0.23888925238121422,
                -1.0152752512381205,
                0.7740137119285077,
                1.178233610551091,
                0.85858926980822
            ]
        },
        {
            "positions": [
                -0.7849043010578887,
                -0.26591174409948265,
                -0.8645472084791375,
                0.8320825596899889,
                1.1128385739641917,
                0.815204666927039
            ]
        },
        {
            "positions": [
                -0.7371953174282746,
                -0.29293423581775113,
                -0.7138191657201542,
                0.8901514074514703,
                1.0474435373772921,
                0.7718200640458581
            ]
        },
        {
            "positions": [
                -0.6894863337986605,
                -0.31995672753601956,
                -0.5630911229611713,
                0.9482202552129515,
                0.9820485007903927,
                0.7284354611646772
            ]
        },
        {
            "positions": [
                -0.6417773501690462,
                -0.34697921925428804,
                -0.41236308020218804,
                1.006289102974433,
                0.9166534642034933,
                0.6850508582834962
            ]
        },
        {
            "positions": [
                -0.5940683665394323,
                -0.3740017109725565,
                -0.26163503744320504,
                1.0643579507359142,
                0.8512584276165939,
                0.6416662554023154
            ]
        },
        {
            "positions": [
                -0.5463593829098181,
                -0.401024202690825,
                -0.11090699468422183,
                1.1224267984973957,
                0.7858633910296944,
                0.5982816525211344
            ]
        },
        {
            "positions": [
                -0.49865039928020405,
                -0.42804669440909343,
                0.03982104807476117,
                1.180495646258877,
                0.720468354442795,
                0.5548970496399535
            ]
        },
        {
            "positions": [
                -0.45094141565059,
                -0.45506918612736186,
                0.19054909083374416,
                1.2385644940203582,
                0.6550733178558956,
                0.5115124467587725
            ]
        },
        {
            "positions": [
                -0.4032324320209759,
                -0.48209167784563034,
                0.34127713359272716,
                1.2966333417818396,
                0.5896782812689962,
                0.46812784387759165
            ]
        },
        {
            "positions": [
                -0.35552344839136174,
                -0.5091141695638988,
                0.4920051763517106,
                1.3547021895433211,
                0.5242832446820966,
                0.4247432409964106
            ]
        },
        {
            "positions": [
                -0.3078144647617477,
                -0.5361366612821673,
                0.6427332191106936,
                1.4127710373048024,
                0.45888820809519726,
                0.38135863811522974
            ]
        },
        {
            "positions": [
                -0.2601054811321336,
                -0.5631591530004357,
                0.7934612618696766,
                1.4708398850662836,
                0.3934931715082979,
                0.3379740352340488
            ]
        },
        {
            "positions": [
                -0.21239649750251954,
                -0.5901816447187043,
                0.9441893046286596,
                1.528908732827765,
                0.3280981349213985,
                0.29458943235286794
            ]
        },
        {
            "positions": [
                -0.16468751387290526,
                -0.6172041364369727,
                1.094917347387643,
                1.5869775805892465,
                0.2627030983344989,
                0.2512048294716869
            ]
        },
        {
            "positions": [
                -0.1169785302432913,
                -0.6442266281552411,
                1.245645390146626,
                1.6450464283507278,
                0.19730806174759952,
                0.20782022659050603
            ]
        },
        {
            "positions": [
                -0.06926954661367724,
                -0.6712491198735095,
                1.396373432905609,
                1.703115276112209,
                0.13191302516070014,
                0.16443562370932507
            ]
        },
        {
            "positions": [
                -0.02156056298406317,
                -0.698271611591778,
                1.547101475664592,
                1.7611841238736903,
                0.06651798857380076,
                0.12105102082814423
            ]
        },
        {
            "positions": [
                0.026148420645551118,
                -0.7252941033100466,
                1.6978295184235754,
                1.819252971635172,
                0.001122951986901155,
                0.07766641794696327
            ]
        },
        {
            "positions": [
                0.07385740427516518,
                -0.752316595028315,
                1.8485575611825584,
                1.8773218193966532,
                -0.06427208459999822,
                0.034281815065782206
            ]
        },
        {
            "positions": [
                0.12156638790477926,
                -0.7793390867465835,
                1.9992856039415414,
                1.9353906671581345,
                -0.1296671211868975,
                -0.009102787815398548
            ]
        }
    ]
}