{
    "goal": {
        "global_pose": {
            "orientation": {
                "w": 0.5084816217422485,
                "x": -0.49083608388900757,
                "y": 0.5182115435600281,
                "z": -0.4816462993621826
            },
            "position": {
                "x": 0.5540239810943604,
                "y": 0.030875300988554955,
                "z": 0.16403168439865112
            }
        },
        "name": "move_to_storage_A"
    },
    "id": "SPARS_move_to_storage_A_35",
    "joint_names": [
        "shoulder_pan_joint",
        "shoulder_lift_joint",
        "elbow_joint",
        "wrist_1_joint",
        "wrist_2_joint",
        "wrist_3_joint"
    ],
    "metrics": {
        "cart_traj_len": 0.35331646926781834,
        "distance_elbow_joint": 0.45399735180222267,
        "distance_shoulder_lift_joint": 0.23494094081587735,
        "distance_shoulder_pan_joint": 0.46404895169946464,
        "distance_wrist_1_joint": 0.25885745473139943,
        "distance_wrist_2_joint": 1.091148594832187,
        "distance_wrist_3_joint": 0.09396325240296122,
        "smoothness": 4.440892098500626e-16,
        "time": 5.0493539940000005,
        "traj_len": 1.6115075383888566,
        "weighted_distance": 2.03344267208437
    },
    "planner": "SPARS",
    "start": {
        "state": {
            "elbow_joint": 1.9715463870305268,
            "shoulder_lift_joint": -1.1394903361783484,
            "shoulder_pan_joint": 0.12281147578464417,
            "wrist_1_joint": -0.7804599489681411,
            "wrist_2_joint": 0.12958660307563738,
            "wrist_3_joint": -3.1924946282119055
        }
    },
    "waypoints": [
        {
            "positions": [
                0.12281147578464417,
                -1.1394903361783484,
                1.9715463870305268,
                -0.7804599489681411,
                0.12958660307563738,
                -3.1924946282119055
            ]
        },
        {
            "positions": [
                0.05651876839900637,
                -1.1730533277234738,
                2.0364031515737016,
                -0.817439585358341,
                0.2854649737659498,
                -3.1790713064400538
            ]
        },
        {
            "positions": [
                -0.009773938986631439,
                -1.206616319268599,
                2.101259916116876,
                -0.8544192217485409,
                0.4413433444562622,
                -3.1656479846682024
            ]
        },
        {
            "positions": [
                -0.07606664637226924,
                -1.2401793108137245,
                2.1661166806600507,
                -0.8913988581387409,
                0.5972217151465746,
                -3.1522246628963506
            ]
        },
        {
            "positions": [
                -0.14235935375790704,
                -1.2737423023588497,
                2.2309734452032255,
                -0.9283784945289407,
                0.7531000858368871,
                -3.1388013411244993
            ]
        },
        {
            "positions": [
                -0.20865206114354484,
                -1.307305293903975,
                2.2958302097464003,
                -0.9653581309191407,
                0.9089784565271997,
                -3.1253780193526475
            ]
        },
        {
            "positions": [
                -0.27494476852918265,
                -1.3408682854491003,
                2.3606869742895746,
                -1.0023377673093405,
                1.0648568272175118,
                -3.111954697580796
            ]
        },
        {
            "positions": [
                -0.34123747591482045,
                -1.3744312769942257,
                2.4255437388327494,
                -1.0393174036995405,
                1.2207351979078245,
                -3.0985313758089443
            ]
        }
    ]
}