{
    "goal": {
        "global_pose": {
            "orientation": {
                "w": 0.7047431468963623,
                "x": -0.7094548344612122,
                "y": 0.0024358443915843964,
                "z": -0.0022348060738295317
            },
            "position": {
                "x": 0.6094750761985779,
                "y": 0.3671506643295288,
                "z": 0.19426114857196808
            }
        },
        "name": "move_to_magneteinheit_A"
    },
    "id": "SPARS_move_to_magneteinheit_A_123",
    "joint_names": [
        "shoulder_pan_joint",
        "shoulder_lift_joint",
        "elbow_joint",
        "wrist_1_joint",
        "wrist_2_joint",
        "wrist_3_joint"
    ],
    "metrics": {
        "cart_traj_len": 2.0701894897855655,
        "distance_elbow_joint": 3.900767207919401,
        "distance_shoulder_lift_joint": 1.0667621074501903,
        "distance_shoulder_pan_joint": 1.240521381656817,
        "distance_wrist_1_joint": 1.2515883313164586,
        "distance_wrist_2_joint": 1.4465765305472027,
        "distance_wrist_3_joint": 2.0029215155485423,
        "smoothness": 7.350442087355974e-16,
        "time": 5.0295842959999995,
        "traj_len": 3.3028982839982537,
        "weighted_distance": 4.196801754598298
    },
    "planner": "SPARS",
    "start": {
        "state": {
            "elbow_joint": -1.919643507792019,
            "shoulder_lift_joint": -0.07675430207160344,
            "shoulder_pan_joint": -1.1188671864651873,
            "wrist_1_joint": 0.42560062535961957,
            "wrist_2_joint": 1.5706038300724876,
            "wrist_3_joint": 1.1188968870953055
        }
    },
    "waypoints": [
        {
            "positions": [
                -1.1188671864651873,
                -0.07675430207160344,
                -1.919643507792019,
                0.42560062535961957,
                1.5706038300724876,
                1.1188968870953055
            ]
        },
        {
            "positions": [
                -1.0745628514060153,
                -0.1148529487662531,
                -1.780330393223469,
                0.3809010420983175,
                1.5189403825529446,
                1.1904297983648964
            ]
        },
        {
            "positions": [
                -1.0302585163468432,
                -0.15295159546090276,
                -1.641017278654919,
                0.3362014588370154,
                1.4672769350334016,
                1.2619627096344872
            ]
        },
        {
            "positions": [
                -0.9859541812876712,
                -0.19105024215555239,
                -1.501704164086369,
                0.2915018755757133,
                1.4156134875138588,
                1.333495620904078
            ]
        },
        {
            "positions": [
                -0.9416498462284992,
                -0.22914888885020204,
                -1.3623910495178189,
                0.24680229231441123,
                1.3639500399943159,
                1.4050285321736686
            ]
        },
        {
            "positions": [
                -0.8973455111693271,
                -0.2672475355448517,
                -1.2230779349492689,
                0.20210270905310912,
                1.3122865924747729,
                1.4765614434432595
            ]
        },
        {
            "positions": [
                -0.8530411761101551,
                -0.3053461822395014,
                -1.0837648203807189,
                0.15740312579180704,
                1.2606231449552299,
                1.5480943547128503
            ]
        },
        {
            "positions": [
                -0.8087368410509831,
                -0.343444828934151,
                -0.9444517058121689,
                0.11270354253050496,
                1.2089596974356869,
                1.6196272659824411
            ]
        },
        {
            "positions": [
                -0.7644325059918111,
                -0.38154347562880064,
                -0.8051385912436189,
                0.06800395926920288,
                1.1572962499161439,
                1.6911601772520317
            ]
        },
        {
            "positions": [
                -0.720128170932639,
                -0.41964212232345033,
                -0.6658254766750686,
                0.02330437600790075,
                1.1056328023966011,
                1.7626930885216228
            ]
        },
        {
            "positions": [
                -0.675823835873467,
                -0.45774076901809996,
                -0.5265123621065186,
                -0.021395207253401327,
                1.053969354877058,
                1.8342259997912134
            ]
        },
        {
            "positions": [
                -0.631519500814295,
                -0.49583941571274964,
                -0.38719924753796886,
                -0.06609479051470335,
                1.0023059073575151,
                1.9057589110608042
            ]
        },
        {
            "positions": [
                -0.5872151657551229,
                -0.5339380624073993,
                -0.24788613296941886,
                -0.11079437377600548,
                0.9506424598379722,
                1.977291822330395
            ]
        },
        {
            "positions": [
                -0.5429108306959508,
                -0.572036709102049,
                -0.10857301840086864,
                -0.15549395703730756,
                0.8989790123184291,
                2.048824733599986
            ]
        },
        {
            "positions": [
                -0.49860649563677883,
                -0.6101353557966986,
                0.030740096167681363,
                -0.20019354029860964,
                0.8473155647988863,
                2.1203576448695767
            ]
        },
        {
            "positions": [
                -0.45430216057760686,
                -0.6482340024913482,
                0.17005321073623114,
                -0.24489312355991172,
                0.7956521172793434,
                2.1918905561391675
            ]
        },
        {
            "positions": [
                -0.4099978255184348,
                -0.6863326491859978,
                0.30936632530478136,
                -0.2895927068212138,
                0.7439886697598004,
                2.2634234674087583
            ]
        },
        {
            "positions": [
                -0.3656934904592628,
                -0.7244312958806476,
                0.44867943987333114,
                -0.3342922900825159,
                0.6923252222402575,
                2.334956378678349
            ]
        },
        {
            "positions": [
                -0.3213891554000906,
                -0.7625299425752972,
                0.5879925544418818,
                -0.37899187334381806,
                0.6406617747207144,
                2.40648928994794
            ]
        },
        {
            "positions": [
                -0.27708482034091864,
                -0.800628589269947,
                0.7273056690104316,
                -0.42369145660512014,
                0.5889983272011714,
                2.478022201217531
            ]
        },
        {
            "positions": [
                -0.23278048528174655,
                -0.8387272359645965,
                0.8666187835789818,
                -0.4683910398664222,
                0.5373348796816284,
                2.5495551124871216
            ]
        },
        {
            "positions": [
                -0.18847615022257458,
                -0.8768258826592461,
                1.0059318981475316,
                -0.5130906231277241,
                0.48567143216208564,
                2.6210880237567125
            ]
        },
        {
            "positions": [
                -0.1441718151634026,
                -0.9149245293538959,
                1.1452450127160814,
                -0.5577902063890263,
                0.43400798464254264,
                2.6926209350263033
            ]
        },
        {
            "positions": [
                -0.09986748010423052,
                -0.9530231760485455,
                1.2845581272846316,
                -0.6024897896503283,
                0.38234453712299965,
                2.7641538462958937
            ]
        },
        {
            "positions": [
                -0.05556314504505844,
                -0.991121822743195,
                1.4238712418531814,
                -0.6471893729116305,
                0.3306810896034569,
                2.8356867575654845
            ]
        },
        {
            "positions": [
                -0.011258809985886353,
                -1.0292204694378448,
                1.563184356421732,
                -0.6918889561729327,
                0.27901764208391366,
                2.9072196688350758
            ]
        },
        {
            "positions": [
                0.03304552507328573,
                -1.0673191161324944,
                1.7024974709902818,
                -0.7365885394342346,
                0.22735419456437067,
                2.9787525801046666
            ]
        },
        {
            "positions": [
                0.07734986013245759,
                -1.1054177628271442,
                1.841810585558832,
                -0.7812881226955368,
                0.1756907470448279,
                3.050285491374257
            ]
        },
        {
            "positions": [
                0.12165419519162966,
                -1.1435164095217938,
                1.9811237001273816,
                -0.8259877059568389,
                0.12402729952528488,
                3.121818402643848
            ]
        }
    ]
}