{
    "goal": {
        "global_pose": {
            "orientation": {
                "w": 0.5084816217422485,
                "x": -0.49083608388900757,
                "y": 0.5182115435600281,
                "z": -0.4816462993621826
            },
            "position": {
                "x": 0.5540239810943604,
                "y": 0.030875300988554955,
                "z": 0.16403168439865112
            }
        },
        "name": "move_to_storage_A"
    },
    "id": "SPARS_move_to_storage_A_91",
    "joint_names": [
        "shoulder_pan_joint",
        "shoulder_lift_joint",
        "elbow_joint",
        "wrist_1_joint",
        "wrist_2_joint",
        "wrist_3_joint"
    ],
    "metrics": {
        "cart_traj_len": 0.35312183516503914,
        "distance_elbow_joint": 0.44764191182356106,
        "distance_shoulder_lift_joint": 0.23542923127419635,
        "distance_shoulder_pan_joint": 0.4591659457917414,
        "distance_wrist_1_joint": 0.23404493775460666,
        "distance_wrist_2_joint": 1.1101024918978861,
        "distance_wrist_3_joint": 0.09565600854661716,
        "smoothness": 0.0,
        "time": 5.010143696999999,
        "traj_len": 1.6068729032156241,
        "weighted_distance": 2.0291623823228973
    },
    "planner": "SPARS",
    "start": {
        "state": {
            "elbow_joint": 1.9715463870305268,
            "shoulder_lift_joint": -1.1394903361783484,
            "shoulder_pan_joint": 0.12281147578464417,
            "wrist_1_joint": -0.7804599489681411,
            "wrist_2_joint": 0.12958660307563738,
            "wrist_3_joint": -3.1924946282119055
        }
    },
    "waypoints": [
        {
            "positions": [
                0.12281147578464417,
                -1.1394903361783484,
                1.9715463870305268,
                -0.7804599489681411,
                0.12958660307563738,
                -3.1924946282119055
            ]
        },
        {
            "positions": [
                0.05721634067153826,
                -1.1731230835032336,
                2.03549523157675,
                -0.813894940075942,
                0.288172673346764,
                -3.1788294841338174
            ]
        },
        {
            "positions": [
                -0.008378794441567652,
                -1.2067558308281188,
                2.099444076122973,
                -0.847329931183743,
                0.4467587436178906,
                -3.165164340055729
            ]
        },
        {
            "positions": [
                -0.07397392955467356,
                -1.240388578153004,
                2.163392920669196,
                -0.8807649222915439,
                0.6053448138890172,
                -3.151499195977641
            ]
        },
        {
            "positions": [
                -0.13956906466777946,
                -1.2740213254778892,
                2.2273417652154186,
                -0.9141999133993449,
                0.7639308841601438,
                -3.137834051899553
            ]
        },
        {
            "positions": [
                -0.2051641997808854,
                -1.3076540728027743,
                2.2912906097616417,
                -0.9476349045071458,
                0.9225169544312704,
                -3.1241689078214647
            ]
        },
        {
            "positions": [
                -0.2707593348939913,
                -1.3412868201276595,
                2.3552394543078647,
                -0.9810698956149468,
                1.081103024702397,
                -3.1105037637433766
            ]
        },
        {
            "positions": [
                -0.33635447000709723,
                -1.3749195674525447,
                2.419188298854088,
                -1.0145048867227477,
                1.2396890949735235,
                -3.0968386196652884
            ]
        }
    ]
}