{
    "goal": {
        "global_pose": {
            "orientation": {
                "w": 0.7047431468963623,
                "x": -0.7094548344612122,
                "y": 0.0024358443915843964,
                "z": -0.0022348060738295317
            },
            "position": {
                "x": 0.6094750761985779,
                "y": 0.3671506643295288,
                "z": 0.19426114857196808
            }
        },
        "name": "move_to_magneteinheit_A"
    },
    "id": "SPARS_move_to_magneteinheit_A_84",
    "joint_names": [
        "shoulder_pan_joint",
        "shoulder_lift_joint",
        "elbow_joint",
        "wrist_1_joint",
        "wrist_2_joint",
        "wrist_3_joint"
    ],
    "metrics": {
        "cart_traj_len": 2.2129583410163645,
        "distance_elbow_joint": 3.905581528330497,
        "distance_shoulder_lift_joint": 1.0705536872410475,
        "distance_shoulder_pan_joint": 1.6131237347203138,
        "distance_wrist_1_joint": 1.2708616692665684,
        "distance_wrist_2_joint": 2.333857565994772,
        "distance_wrist_3_joint": 4.24533355361072,
        "smoothness": 0.07142056136324267,
        "time": 5.047204615,
        "traj_len": 3.7999094382845398,
        "weighted_distance": 5.151184143635977
    },
    "planner": "SPARS",
    "start": {
        "state": {
            "elbow_joint": -1.919643507792019,
            "shoulder_lift_joint": -0.07675430207160344,
            "shoulder_pan_joint": -1.1188671864651873,
            "wrist_1_joint": 0.42560062535961957,
            "wrist_2_joint": 1.5706038300724876,
            "wrist_3_joint": 1.1188968870953055
        }
    },
    "waypoints": [
        {
            "positions": [
                -1.1188671864651873,
                -0.07675430207160344,
                -1.919643507792019,
                0.42560062535961957,
                1.5706038300724876,
                1.1188968870953055
            ]
        },
        {
            "positions": [
                -1.1312166398861678,
                -0.1212410649070842,
                -1.8504059682436942,
                0.3642945753686168,
                1.4448001560027735,
                1.0398362560563748
            ]
        },
        {
            "positions": [
                -1.143566093307148,
                -0.16572782774256495,
                -1.7811684286953693,
                0.3029885253776141,
                1.3189964819330593,
                0.960775625017444
            ]
        },
        {
            "positions": [
                -1.1559155467281286,
                -0.2102145905780457,
                -1.7119308891470444,
                0.24168247538661133,
                1.1931928078633451,
                0.8817149939785132
            ]
        },
        {
            "positions": [
                -1.1682650001491088,
                -0.2547013534135264,
                -1.6426933495987195,
                0.1803764253956086,
                1.0673891337936312,
                0.8026543629395824
            ]
        },
        {
            "positions": [
                -1.1806144535700893,
                -0.2991881162490072,
                -1.5734558100503948,
                0.11907037540460591,
                0.9415854597239169,
                0.7235937319006516
            ]
        },
        {
            "positions": [
                -1.1929639069910698,
                -0.34367487908448796,
                -1.5042182705020697,
                0.0577643254136031,
                0.8157817856542027,
                0.6445331008617207
            ]
        },
        {
            "positions": [
                -1.20531336041205,
                -0.3881616419199687,
                -1.434980730953745,
                -0.0035417245773995965,
                0.6899781115844886,
                0.5654724698227899
            ]
        },
        {
            "positions": [
                -1.2176628138330305,
                -0.4326484047554494,
                -1.36574319140542,
                -0.06484777456840235,
                0.5641744375147746,
                0.4864118387838591
            ]
        },
        {
            "positions": [
                -1.2300122672540108,
                -0.47713516759093016,
                -1.2965056518570952,
                -0.1261538245594051,
                0.43837076344506043,
                0.4073512077449283
            ]
        },
        {
            "positions": [
                -1.2423617206749913,
                -0.5216219304264109,
                -1.2272681123087703,
                -0.18745987455040775,
                0.3125670893753463,
                0.3282905767059975
            ]
        },
        {
            "positions": [
                -1.2547111740959718,
                -0.5661086932618917,
                -1.1580305727604454,
                -0.2487659245414105,
                0.18676341530563212,
                0.2492299456670667
            ]
        },
        {
            "positions": [
                -1.267060627516952,
                -0.6105954560973725,
                -1.0887930332121205,
                -0.31007197453241336,
                0.06095974123591774,
                0.17016931462813578
            ]
        },
        {
            "positions": [
                -1.2794100809379325,
                -0.6550822189328531,
                -1.0195554936637956,
                -0.3713780245234161,
                -0.06484393283379619,
                0.09110868358920499
            ]
        },
        {
            "positions": [
                -1.2917595343589128,
                -0.6995689817683339,
                -0.9503179541154707,
                -0.43268407451441876,
                -0.19064760690351035,
                0.01204805255027419
            ]
        },
        {
            "positions": [
                -1.3041089877798933,
                -0.7440557446038147,
                -0.8810804145671458,
                -0.4939901245054215,
                -0.31645128097322445,
                -0.06701257848865652
            ]
        },
        {
            "positions": [
                -1.2392052635341837,
                -0.76238539209058,
                -0.7507613947896175,
                -0.5099569844782182,
                -0.2961420784755399,
                -0.20607730976260005
            ]
        },
        {
            "positions": [
                -1.1743015392884744,
                -0.7807150395773453,
                -0.6204423750120891,
                -0.525923844451015,
                -0.2758328759778554,
                -0.34514204103654356
            ]
        },
        {
            "positions": [
                -1.1093978150427648,
                -0.7990446870641106,
                -0.49012335523456085,
                -0.5418907044238117,
                -0.25552367348017085,
                -0.48420677231048714
            ]
        },
        {
            "positions": [
                -1.0444940907970555,
                -0.8173743345508759,
                -0.3598043354570325,
                -0.5578575643966085,
                -0.2352144709824863,
                -0.6232715035844306
            ]
        },
        {
            "positions": [
                -0.9795903665513459,
                -0.8357039820376412,
                -0.22948531567950414,
                -0.5738244243694052,
                -0.21490526848480176,
                -0.7623362348583742
            ]
        },
        {
            "positions": [
                -0.9146866423056366,
                -0.8540336295244064,
                -0.0991662959019759,
                -0.589791284342202,
                -0.19459606598711723,
                -0.9014009661323177
            ]
        },
        {
            "positions": [
                -0.849782918059927,
                -0.8723632770111718,
                0.031152723875552568,
                -0.6057581443149986,
                -0.1742868634894327,
                -1.0404656974062614
            ]
        },
        {
            "positions": [
                -0.7848791938142176,
                -0.890692924497937,
                0.1614717436530808,
                -0.6217250042877954,
                -0.15397766099174814,
                -1.1795304286802049
            ]
        },
        {
            "positions": [
                -0.7199754695685081,
                -0.9090225719847023,
                0.2917907634306094,
                -0.6376918642605921,
                -0.1336684584940636,
                -1.3185951599541486
            ]
        },
        {
            "positions": [
                -0.6550717453227987,
                -0.9273522194714676,
                0.4221097832081375,
                -0.6536587242333889,
                -0.11335925599637908,
                -1.457659891228092
            ]
        },
        {
            "positions": [
                -0.5901680210770892,
                -0.9456818669582329,
                0.5524288029856659,
                -0.6696255842061856,
                -0.09305005349869455,
                -1.5967246225020355
            ]
        },
        {
            "positions": [
                -0.5252642968313798,
                -0.9640115144449981,
                0.682747822763194,
                -0.6855924441789824,
                -0.07274085100101002,
                -1.735789353775979
            ]
        },
        {
            "positions": [
                -0.4603605725856702,
                -0.9823411619317635,
                0.8130668425407226,
                -0.7015593041517791,
                -0.05243164850332549,
                -1.8748540850499227
            ]
        },
        {
            "positions": [
                -0.39545684833996086,
                -1.0006708094185286,
                0.943385862318251,
                -0.7175261641245758,
                -0.03212244600564096,
                -2.013918816323866
            ]
        },
        {
            "positions": [
                -0.3305531240942514,
                -1.019000456905294,
                1.073704882095779,
                -0.7334930240973725,
                -0.011813243507956428,
                -2.1529835475978096
            ]
        },
        {
            "positions": [
                -0.26564939984854186,
                -1.0373301043920593,
                1.2040239018733074,
                -0.7494598840701693,
                0.008495958989728158,
                -2.292048278871753
            ]
        },
        {
            "positions": [
                -0.20074567560283252,
                -1.0556597518788244,
                1.334342921650836,
                -0.7654267440429661,
                0.028805161487412634,
                -2.4311130101456966
            ]
        },
        {
            "positions": [
                -0.13584195135712296,
                -1.0739893993655898,
                1.4646619414283646,
                -0.7813936040157627,
                0.04911436398509722,
                -2.5701777414196405
            ]
        },
        {
            "positions": [
                -0.07093822711141362,
                -1.0923190468523551,
                1.5949809612058927,
                -0.7973604639885594,
                0.06942356648278175,
                -2.709242472693584
            ]
        },
        {
            "positions": [
                -0.006034502865704061,
                -1.1106486943391203,
                1.7252999809834209,
                -0.8133273239613562,
                0.08973276898046628,
                -2.8483072039675275
            ]
        },
        {
            "positions": [
                0.0588692213800055,
                -1.1289783418258859,
                1.8556190007609494,
                -0.829294183934153,
                0.11004197147815081,
                -2.987371935241471
            ]
        },
        {
            "positions": [
                0.1237729456257149,
                -1.147307989312651,
                1.9859380205384776,
                -0.8452610439069497,
                0.13035117397583537,
                -3.1264366665154144
            ]
        }
    ]
}