{
    "goal": {
        "global_pose": {
            "orientation": {
                "w": 0.5084816217422485,
                "x": -0.49083608388900757,
                "y": 0.5182115435600281,
                "z": -0.4816462993621826
            },
            "position": {
                "x": 0.5540239810943604,
                "y": 0.030875300988554955,
                "z": 0.16403168439865112
            }
        },
        "name": "move_to_storage_A"
    },
    "id": "SPARS_move_to_storage_A_133",
    "joint_names": [
        "shoulder_pan_joint",
        "shoulder_lift_joint",
        "elbow_joint",
        "wrist_1_joint",
        "wrist_2_joint",
        "wrist_3_joint"
    ],
    "metrics": {
        "cart_traj_len": 0.35320180831411696,
        "distance_elbow_joint": 0.45493592959379425,
        "distance_shoulder_lift_joint": 0.23268031504360964,
        "distance_shoulder_pan_joint": 0.45910865078168284,
        "distance_wrist_1_joint": 0.26323872175706275,
        "distance_wrist_2_joint": 1.110882720977285,
        "distance_wrist_3_joint": 0.09559788445352035,
        "smoothness": 6.661338165333112e-16,
        "time": 5.0153488280000005,
        "traj_len": 1.6175426493935035,
        "weighted_distance": 2.0449355574805637
    },
    "planner": "SPARS",
    "start": {
        "state": {
            "elbow_joint": 1.9715463870305268,
            "shoulder_lift_joint": -1.1394903361783484,
            "shoulder_pan_joint": 0.12281147578464417,
            "wrist_1_joint": -0.7804599489681411,
            "wrist_2_joint": 0.12958660307563738,
            "wrist_3_joint": -3.1924946282119055
        }
    },
    "waypoints": [
        {
            "positions": [
                0.12281147578464417,
                -1.1394903361783484,
                1.9715463870305268,
                -0.7804599489681411,
                0.12958660307563738,
                -3.1924946282119055
            ]
        },
        {
            "positions": [
                0.0572245256729752,
                -1.1727303811845784,
                2.0365372341153547,
                -0.8180654806477214,
                0.28828413464382097,
                -3.1788377875756884
            ]
        },
        {
            "positions": [
                -0.008362424438693769,
                -1.2059704261908082,
                2.101528081200182,
                -0.8556710123273019,
                0.4469816662120045,
                -3.165180946939471
            ]
        },
        {
            "positions": [
                -0.07394937455036275,
                -1.2392104711970382,
                2.16651892828501,
                -0.8932765440068823,
                0.6056791977801881,
                -3.151524106303254
            ]
        },
        {
            "positions": [
                -0.1395363246620317,
                -1.2724505162032682,
                2.2315097753698376,
                -0.9308820756864626,
                0.7643767293483716,
                -3.1378672656670368
            ]
        },
        {
            "positions": [
                -0.20512327477370068,
                -1.3056905612094982,
                2.2965006224546656,
                -0.9684876073660431,
                0.9230742609165552,
                -3.1242104250308196
            ]
        },
        {
            "positions": [
                -0.27071022488536967,
                -1.338930606215728,
                2.361491469539493,
                -1.0060931390456234,
                1.0817717924847388,
                -3.1105535843946024
            ]
        },
        {
            "positions": [
                -0.33629717499703865,
                -1.372170651221958,
                2.426482316624321,
                -1.0436986707252038,
                1.2404693240529223,
                -3.096896743758385
            ]
        }
    ]
}