{
    "goal": {
        "global_pose": {
            "orientation": {
                "w": 0.5084816217422485,
                "x": -0.49083608388900757,
                "y": 0.5182115435600281,
                "z": -0.4816462993621826
            },
            "position": {
                "x": 0.5540239810943604,
                "y": 0.030875300988554955,
                "z": 0.16403168439865112
            }
        },
        "name": "move_to_storage_A"
    },
    "id": "SPARS_move_to_storage_A_111",
    "joint_names": [
        "shoulder_pan_joint",
        "shoulder_lift_joint",
        "elbow_joint",
        "wrist_1_joint",
        "wrist_2_joint",
        "wrist_3_joint"
    ],
    "metrics": {
        "cart_traj_len": 0.3523887850769055,
        "distance_elbow_joint": 0.4478374085243533,
        "distance_shoulder_lift_joint": 0.23542812773839095,
        "distance_shoulder_pan_joint": 0.4606956746533975,
        "distance_wrist_1_joint": 0.23379284370784015,
        "distance_wrist_2_joint": 1.098110313380843,
        "distance_wrist_3_joint": 0.10335628996482304,
        "smoothness": 1.5543122359444028e-15,
        "time": 5.007848397,
        "traj_len": 1.6059952235201846,
        "weighted_distance": 2.02924527718755
    },
    "planner": "SPARS",
    "start": {
        "state": {
            "elbow_joint": 1.9715463870305268,
            "shoulder_lift_joint": -1.1394903361783484,
            "shoulder_pan_joint": 0.12281147578464417,
            "wrist_1_joint": -0.7804599489681411,
            "wrist_2_joint": 0.12958660307563738,
            "wrist_3_joint": -3.1924946282119055
        }
    },
    "waypoints": [
        {
            "positions": [
                0.12281147578464417,
                -1.1394903361783484,
                1.9715463870305268,
                -0.7804599489681411,
                0.12958660307563738,
                -3.1924946282119055
            ]
        },
        {
            "positions": [
                0.056997807977015966,
                -1.1731229258552613,
                2.035523159676863,
                -0.8138589266406897,
                0.28645950498718636,
                -3.1777294439312165
            ]
        },
        {
            "positions": [
                -0.008815859830612241,
                -1.2067555155321743,
                2.0994999323231993,
                -0.8472579043132382,
                0.4433324068987353,
                -3.1629642596505274
            ]
        },
        {
            "positions": [
                -0.07462952763824045,
                -1.2403881052090873,
                2.1634767049695354,
                -0.8806568819857868,
                0.6002053088102843,
                -3.1481990753698383
            ]
        },
        {
            "positions": [
                -0.14044319544586864,
                -1.2740206948860004,
                2.2274534776158714,
                -0.9140558596583355,
                0.7570782107218333,
                -3.1334338910891497
            ]
        },
        {
            "positions": [
                -0.2062568632534969,
                -1.3076532845629134,
                2.2914302502622075,
                -0.947454837330884,
                0.9139511126333824,
                -3.1186687068084606
            ]
        },
        {
            "positions": [
                -0.27207053106112505,
                -1.3412858742398264,
                2.355407022908544,
                -0.9808538150034326,
                1.0708240145449313,
                -3.1039035225277716
            ]
        },
        {
            "positions": [
                -0.3378841988687533,
                -1.3749184639167393,
                2.41938379555488,
                -1.0142527926759812,
                1.2276969164564804,
                -3.0891383382470825
            ]
        }
    ]
}