{
    "goal": {
        "global_pose": {
            "orientation": {
                "w": 0.7047431468963623,
                "x": -0.7094548344612122,
                "y": 0.0024358443915843964,
                "z": -0.0022348060738295317
            },
            "position": {
                "x": 0.6094750761985779,
                "y": 0.3671506643295288,
                "z": 0.19426114857196808
            }
        },
        "name": "move_to_magneteinheit_A"
    },
    "id": "SPARS_move_to_magneteinheit_A_46",
    "joint_names": [
        "shoulder_pan_joint",
        "shoulder_lift_joint",
        "elbow_joint",
        "wrist_1_joint",
        "wrist_2_joint",
        "wrist_3_joint"
    ],
    "metrics": {
        "cart_traj_len": 2.064205739081082,
        "distance_elbow_joint": 3.875795156272673,
        "distance_shoulder_lift_joint": 1.0537379851597217,
        "distance_shoulder_pan_joint": 1.242417460745477,
        "distance_wrist_1_joint": 1.1322260689955983,
        "distance_wrist_2_joint": 1.4351895758784197,
        "distance_wrist_3_joint": 1.897904541662692,
        "smoothness": 1.903239467962136e-16,
        "time": 5.09907476,
        "traj_len": 3.261482912528377,
        "weighted_distance": 4.123165715432013
    },
    "planner": "SPARS",
    "start": {
        "state": {
            "elbow_joint": -1.919643507792019,
            "shoulder_lift_joint": -0.07675430207160344,
            "shoulder_pan_joint": -1.1188671864651873,
            "wrist_1_joint": 0.42560062535961957,
            "wrist_2_joint": 1.5706038300724876,
            "wrist_3_joint": 1.1188968870953055
        }
    },
    "waypoints": [
        {
            "positions": [
                -1.1188671864651873,
                -0.07675430207160344,
                -1.919643507792019,
                0.42560062535961957,
                1.5706038300724876,
                1.1188968870953055
            ]
        },
        {
            "positions": [
                -1.0728517249560956,
                -0.11578163485529683,
                -1.7760955390411794,
                0.38366632650793075,
                1.517448660595509,
                1.1891896478976274
            ]
        },
        {
            "positions": [
                -1.0268362634470038,
                -0.1548089676389902,
                -1.6325475702903396,
                0.3417320276562419,
                1.4642934911185306,
                1.2594824086999494
            ]
        },
        {
            "positions": [
                -0.9808208019379121,
                -0.19383630042268363,
                -1.4889996015395,
                0.29979772880455313,
                1.411138321641552,
                1.3297751695022713
            ]
        },
        {
            "positions": [
                -0.9348053404288204,
                -0.232863633206377,
                -1.34545163278866,
                0.25786342995286426,
                1.3579831521645735,
                1.4000679303045933
            ]
        },
        {
            "positions": [
                -0.8887898789197286,
                -0.27189096599007045,
                -1.2019036640378205,
                0.21592913110117545,
                1.304827982687595,
                1.4703606911069151
            ]
        },
        {
            "positions": [
                -0.8427744174106369,
                -0.3109182987737638,
                -1.0583556952869806,
                0.17399483224948664,
                1.2516728132106165,
                1.540653451909237
            ]
        },
        {
            "positions": [
                -0.7967589559015451,
                -0.3499456315574572,
                -0.914807726536141,
                0.13206053339779777,
                1.198517643733638,
                1.610946212711559
            ]
        },
        {
            "positions": [
                -0.7507434943924535,
                -0.3889729643411506,
                -0.7712597577853011,
                0.09012623454610896,
                1.1453624742566597,
                1.681238973513881
            ]
        },
        {
            "positions": [
                -0.7047280328833617,
                -0.428000297124844,
                -0.6277117890344615,
                0.04819193569442015,
                1.0922073047796812,
                1.751531734316203
            ]
        },
        {
            "positions": [
                -0.65871257137427,
                -0.4670276299085374,
                -0.4841638202836218,
                0.00625763684273134,
                1.0390521353027027,
                1.8218244951185247
            ]
        },
        {
            "positions": [
                -0.6126971098651782,
                -0.5060549626922308,
                -0.34061585153278195,
                -0.03567666200895747,
                0.9858969658257241,
                1.8921172559208466
            ]
        },
        {
            "positions": [
                -0.5666816483560865,
                -0.5450822954759242,
                -0.19706788278194232,
                -0.07761096086064628,
                0.9327417963487455,
                1.9624100167231686
            ]
        },
        {
            "positions": [
                -0.5206661868469947,
                -0.5841096282596177,
                -0.053519914031102456,
                -0.11954525971233515,
                0.879586626871767,
                2.0327027775254907
            ]
        },
        {
            "positions": [
                -0.474650725337903,
                -0.6231369610433111,
                0.09002805471973718,
                -0.16147955856402402,
                0.8264314573947885,
                2.1029955383278125
            ]
        },
        {
            "positions": [
                -0.42863526382881123,
                -0.6621642938270045,
                0.23357602347057704,
                -0.20341385741571288,
                0.77327628791781,
                2.1732882991301343
            ]
        },
        {
            "positions": [
                -0.3826198023197196,
                -0.7011916266106977,
                0.3771239922214169,
                -0.24534815626740164,
                0.7201211184408316,
                2.243581059932456
            ]
        },
        {
            "positions": [
                -0.33660434081062773,
                -0.7402189593943913,
                0.5206719609722568,
                -0.2872824551190905,
                0.666965948963853,
                2.3138738207347784
            ]
        },
        {
            "positions": [
                -0.2905888793015361,
                -0.7792462921780845,
                0.6642199297230962,
                -0.32921675397077926,
                0.6138107794868746,
                2.3841665815371003
            ]
        },
        {
            "positions": [
                -0.24457341779244424,
                -0.8182736249617779,
                0.807767898473936,
                -0.37115105282246813,
                0.560655610009896,
                2.4544593423394225
            ]
        },
        {
            "positions": [
                -0.1985579562833526,
                -0.8573009577454713,
                0.9513158672247755,
                -0.4130853516741569,
                0.5075004405329175,
                2.5247521031417444
            ]
        },
        {
            "positions": [
                -0.15254249477426074,
                -0.8963282905291647,
                1.0948638359756158,
                -0.45501965052584575,
                0.454345271055939,
                2.595044863944066
            ]
        },
        {
            "positions": [
                -0.1065270332651691,
                -0.9353556233128582,
                1.2384118047264552,
                -0.4969539493775345,
                0.4011901015789605,
                2.665337624746388
            ]
        },
        {
            "positions": [
                -0.060511571756077354,
                -0.9743829560965516,
                1.381959773477295,
                -0.5388882482292234,
                0.348034932101982,
                2.73563038554871
            ]
        },
        {
            "positions": [
                -0.014496110246985605,
                -1.013410288880245,
                1.5255077422281345,
                -0.5808225470809121,
                0.2948797626250035,
                2.8059231463510317
            ]
        },
        {
            "positions": [
                0.03151935126210614,
                -1.0524376216639384,
                1.6690557109789748,
                -0.6227568459326009,
                0.24172459314802497,
                2.8762159071533535
            ]
        },
        {
            "positions": [
                0.07753481277119789,
                -1.0914649544476318,
                1.8126036797298142,
                -0.6646911447842898,
                0.18856942367104645,
                2.9465086679556753
            ]
        },
        {
            "positions": [
                0.1235502742802896,
                -1.1304922872313252,
                1.956151648480654,
                -0.7066254436359787,
                0.13541425419406786,
                3.0168014287579976
            ]
        }
    ]
}