{
    "goal": {
        "global_pose": {
            "orientation": {
                "w": 0.5084816217422485,
                "x": -0.49083608388900757,
                "y": 0.5182115435600281,
                "z": -0.4816462993621826
            },
            "position": {
                "x": 0.5540239810943604,
                "y": 0.030875300988554955,
                "z": 0.16403168439865112
            }
        },
        "name": "move_to_storage_A"
    },
    "id": "SPARS_move_to_storage_A_14",
    "joint_names": [
        "shoulder_pan_joint",
        "shoulder_lift_joint",
        "elbow_joint",
        "wrist_1_joint",
        "wrist_2_joint",
        "wrist_3_joint"
    ],
    "metrics": {
        "cart_traj_len": 0.35370762094218017,
        "distance_elbow_joint": 0.44967312426399575,
        "distance_shoulder_lift_joint": 0.23520345092450645,
        "distance_shoulder_pan_joint": 0.4633479287935689,
        "distance_wrist_1_joint": 0.23610885602278475,
        "distance_wrist_2_joint": 1.0972338718212085,
        "distance_wrist_3_joint": 0.09795887762083977,
        "smoothness": 0.0,
        "time": 5.051403562,
        "traj_len": 1.6060903179606383,
        "weighted_distance": 2.0270142062976713
    },
    "planner": "SPARS",
    "start": {
        "state": {
            "elbow_joint": 1.9715463870305268,
            "shoulder_lift_joint": -1.1394903361783484,
            "shoulder_pan_joint": 0.12281147578464417,
            "wrist_1_joint": -0.7804599489681411,
            "wrist_2_joint": 0.12958660307563738,
            "wrist_3_joint": -3.1924946282119055
        }
    },
    "waypoints": [
        {
            "positions": [
                0.12281147578464417,
                -1.1394903361783484,
                1.9715463870305268,
                -0.7804599489681411,
                0.12958660307563738,
                -3.1924946282119055
            ]
        },
        {
            "positions": [
                0.05661891452842005,
                -1.1730908291675637,
                2.0357854047825263,
                -0.8141897855428246,
                0.2863342990500957,
                -3.1785005028374997
            ]
        },
        {
            "positions": [
                -0.009573646727804072,
                -1.2066913221567788,
                2.1000244225345255,
                -0.8479196221175082,
                0.44308199502455403,
                -3.1645063774630944
            ]
        },
        {
            "positions": [
                -0.07576620798402821,
                -1.240291815145994,
                2.164263440286525,
                -0.8816494586921917,
                0.5998296909990124,
                -3.1505122520886886
            ]
        },
        {
            "positions": [
                -0.1419587692402523,
                -1.2738923081352092,
                2.228502458038524,
                -0.9153792952668752,
                0.7565773869734708,
                -3.1365181267142828
            ]
        },
        {
            "positions": [
                -0.20815133049647644,
                -1.3074928011244245,
                2.292741475790524,
                -0.9491091318415588,
                0.9133250829479291,
                -3.122524001339877
            ]
        },
        {
            "positions": [
                -0.2743438917527006,
                -1.3410932941136395,
                2.356980493542523,
                -0.9828389684162423,
                1.0700727789223874,
                -3.1085298759654716
            ]
        },
        {
            "positions": [
                -0.3405364530089247,
                -1.3746937871028548,
                2.4212195112945225,
                -1.0165688049909258,
                1.2268204748968459,
                -3.094535750591066
            ]
        }
    ]
}