{
    "goal": {
        "global_pose": {
            "orientation": {
                "w": 0.7047431468963623,
                "x": -0.7094548344612122,
                "y": 0.0024358443915843964,
                "z": -0.0022348060738295317
            },
            "position": {
                "x": 0.6094750761985779,
                "y": 0.3671506643295288,
                "z": 0.19426114857196808
            }
        },
        "name": "move_to_magneteinheit_A"
    },
    "id": "SPARS_move_to_magneteinheit_A_14",
    "joint_names": [
        "shoulder_pan_joint",
        "shoulder_lift_joint",
        "elbow_joint",
        "wrist_1_joint",
        "wrist_2_joint",
        "wrist_3_joint"
    ],
    "metrics": {
        "cart_traj_len": 1.8795405272219685,
        "distance_elbow_joint": 3.911829024825847,
        "distance_shoulder_lift_joint": 0.7005029961265299,
        "distance_shoulder_pan_joint": 1.2424961740801117,
        "distance_wrist_1_joint": 1.4834815689501033,
        "distance_wrist_2_joint": 1.7076829874355612,
        "distance_wrist_3_joint": 1.0934142072775779,
        "smoothness": 1.3158198914562875e-16,
        "time": 5.028795782,
        "traj_len": 3.184243545757098,
        "weighted_distance": 3.939213110462107
    },
    "planner": "SPARS",
    "start": {
        "state": {
            "elbow_joint": -1.919643507792019,
            "shoulder_lift_joint": -0.07675430207160344,
            "shoulder_pan_joint": -1.1188671864651873,
            "wrist_1_joint": 0.42560062535961957,
            "wrist_2_joint": 1.5706038300724876,
            "wrist_3_joint": 1.1188968870953055
        }
    },
    "waypoints": [
        {
            "positions": [
                -1.1188671864651873,
                -0.07675430207160344,
                -1.919643507792019,
                0.42560062535961957,
                1.5706038300724876,
                1.1188968870953055
            ]
        },
        {
            "positions": [
                -1.0710788720774906,
                -0.10369672499954691,
                -1.7691885452987173,
                0.4826576087807774,
                1.50492371517112,
                1.0768424945077064
            ]
        },
        {
            "positions": [
                -1.0232905576897942,
                -0.13063914792749037,
                -1.6187335828054155,
                0.5397145922019352,
                1.4392436002697522,
                1.0347881019201073
            ]
        },
        {
            "positions": [
                -0.9755022433020976,
                -0.1575815708554338,
                -1.4682786203121136,
                0.596771575623093,
                1.3735634853683845,
                0.9927337093325082
            ]
        },
        {
            "positions": [
                -0.927713928914401,
                -0.18452399378337728,
                -1.3178236578188118,
                0.6538285590442509,
                1.3078833704670165,
                0.9506793167449089
            ]
        },
        {
            "positions": [
                -0.8799256145267043,
                -0.21146641671132074,
                -1.16736869532551,
                0.7108855424654087,
                1.2422032555656488,
                0.9086249241573098
            ]
        },
        {
            "positions": [
                -0.8321373001390078,
                -0.23840883963926418,
                -1.0169137328322082,
                0.7679425258865664,
                1.176523140664281,
                0.8665705315697106
            ]
        },
        {
            "positions": [
                -0.7843489857513111,
                -0.26535126256720765,
                -0.8664587703389064,
                0.8249995093077243,
                1.1108430257629134,
                0.8245161389821115
            ]
        },
        {
            "positions": [
                -0.7365606713636145,
                -0.2922936854951511,
                -0.7160038078456046,
                0.8820564927288821,
                1.0451629108615457,
                0.7824617463945123
            ]
        },
        {
            "positions": [
                -0.6887723569759179,
                -0.3192361084230946,
                -0.5655488453523028,
                0.9391134761500399,
                0.979482795960178,
                0.7404073538069131
            ]
        },
        {
            "positions": [
                -0.6409840425882213,
                -0.34617853135103804,
                -0.41509388285900095,
                0.9961704595711978,
                0.9138026810588101,
                0.698352961219314
            ]
        },
        {
            "positions": [
                -0.5931957282005247,
                -0.37312095427898145,
                -0.26463892036569914,
                1.0532274429923556,
                0.8481225661574425,
                0.6562985686317149
            ]
        },
        {
            "positions": [
                -0.5454074138128281,
                -0.4000633772069249,
                -0.11418395787239732,
                1.1102844264135134,
                0.7824424512560747,
                0.6142441760441157
            ]
        },
        {
            "positions": [
                -0.4976190994251315,
                -0.4270058001348684,
                0.03627100462090449,
                1.1673414098346713,
                0.716762336354707,
                0.5721897834565166
            ]
        },
        {
            "positions": [
                -0.4498307850374349,
                -0.45394822306281185,
                0.1867259671142063,
                1.224398393255829,
                0.6510822214533393,
                0.5301353908689175
            ]
        },
        {
            "positions": [
                -0.4020424706497383,
                -0.48089064599075526,
                0.3371809296075081,
                1.2814553766769867,
                0.5854021065519716,
                0.48808099828131835
            ]
        },
        {
            "positions": [
                -0.3542541562620416,
                -0.5078330689186987,
                0.48763589210080993,
                1.3385123600981448,
                0.5197219916506037,
                0.4460266056937191
            ]
        },
        {
            "positions": [
                -0.3064658418743451,
                -0.5347754918466422,
                0.6380908545941117,
                1.3955693435193024,
                0.454041876749236,
                0.40397221310611997
            ]
        },
        {
            "positions": [
                -0.2586775274866485,
                -0.5617179147745857,
                0.7885458170874136,
                1.4526263269404605,
                0.3883617618478683,
                0.36191782051852084
            ]
        },
        {
            "positions": [
                -0.21088921309895192,
                -0.588660337702529,
                0.9390007795807154,
                1.509683310361618,
                0.3226816469465006,
                0.3198634279309217
            ]
        },
        {
            "positions": [
                -0.16310089871125522,
                -0.6156027606304726,
                1.0894557420740172,
                1.5667402937827761,
                0.25700153204513265,
                0.2778090353433226
            ]
        },
        {
            "positions": [
                -0.11531258432355873,
                -0.6425451835584159,
                1.239910704567319,
                1.6237972772039337,
                0.19132141714376494,
                0.23575464275572344
            ]
        },
        {
            "positions": [
                -0.06752426993586202,
                -0.6694876064863595,
                1.3903656670606208,
                1.6808542606250916,
                0.12564130224239745,
                0.1937002501681243
            ]
        },
        {
            "positions": [
                -0.01973595554816554,
                -0.6964300294143029,
                1.5408206295539226,
                1.7379112440462494,
                0.05996118734102973,
                0.15164585758052518
            ]
        },
        {
            "positions": [
                0.028052358839531166,
                -0.7233724523422465,
                1.6912755920472244,
                1.7949682274674073,
                -0.005718927560338205,
                0.10959146499292594
            ]
        },
        {
            "positions": [
                0.07584067322722787,
                -0.7503148752701898,
                1.8417305545405263,
                1.852025210888565,
                -0.07139904246170592,
                0.0675370724053268
            ]
        },
        {
            "positions": [
                0.12362898761492427,
                -0.7772572981981334,
                1.9921855170338283,
                1.909082194309723,
                -0.1370791573630736,
                0.025482679817727765
            ]
        }
    ]
}