{
    "goal": {
        "global_pose": {
            "orientation": {
                "w": 0.7031023502349854,
                "x": -0.7110244035720825,
                "y": 0.007748599164187908,
                "z": 0.005598929710686207
            },
            "position": {
                "x": 0.11585023208521307,
                "y": 0.44412534475326537,
                "z": 0.3711530566215515
            }
        },
        "name": "move_to_auspresseinheit_A"
    },
    "id": "SPARS_move_to_auspresseinheit_A_16",
    "joint_names": [
        "shoulder_pan_joint",
        "shoulder_lift_joint",
        "elbow_joint",
        "wrist_1_joint",
        "wrist_2_joint",
        "wrist_3_joint"
    ],
    "metrics": {
        "cart_traj_len": 1.8002022923124326,
        "distance_elbow_joint": 0.841606044167146,
        "distance_shoulder_lift_joint": 0.6539248589392797,
        "distance_shoulder_pan_joint": 3.617011119105708,
        "distance_wrist_1_joint": 1.556736490030217,
        "distance_wrist_2_joint": 1.6736712076705509,
        "distance_wrist_3_joint": 0.7564303159370307,
        "smoothness": 1.014250878658306,
        "time": 5.074057532,
        "traj_len": 3.016517865992166,
        "weighted_distance": 3.7205709730395893
    },
    "planner": "SPARS",
    "start": {
        "state": {
            "elbow_joint": 2.422574709923281,
            "shoulder_lift_joint": -1.3736533754116391,
            "shoulder_pan_joint": -0.33786336945926293,
            "wrist_1_joint": -1.0288603412921917,
            "wrist_2_joint": 1.2330224858903978,
            "wrist_3_joint": -3.094022268022082
        }
    },
    "waypoints": [
        {
            "positions": [
                -0.33786336945926293,
                -1.3736533754116391,
                2.422574709923281,
                -1.0288603412921917,
                1.2330224858903978,
                -3.094022268022082
            ]
        },
        {
            "positions": [
                -0.4369373384782824,
                -1.4193595295594665,
                2.3890906053818965,
                -0.947571555089897,
                1.1481556108711244,
                -3.066317444481483
            ]
        },
        {
            "positions": [
                -0.5360113074973019,
                -1.4650656837072937,
                2.3556065008405116,
                -0.8662827688876023,
                1.063288735851851,
                -3.0386126209408837
            ]
        },
        {
            "positions": [
                -0.6350852765163213,
                -1.5107718378551211,
                2.322122396299127,
                -0.7849939826853074,
                0.9784218608325778,
                -3.0109077974002845
            ]
        },
        {
            "positions": [
                -0.7341592455353407,
                -1.5564779920029486,
                2.288638291757742,
                -0.7037051964830127,
                0.8935549858133044,
                -2.9832029738596852
            ]
        },
        {
            "positions": [
                -0.8332332145543602,
                -1.6021841461507758,
                2.2551541872163576,
                -0.6224164102807179,
                0.8086881107940311,
                -2.955498150319086
            ]
        },
        {
            "positions": [
                -0.9323071835733796,
                -1.6478903002986032,
                2.221670082674973,
                -0.5411276240784231,
                0.7238212357747578,
                -2.927793326778487
            ]
        },
        {
            "positions": [
                -1.031381152592399,
                -1.6935964544464306,
                2.188185978133588,
                -0.45983883787612845,
                0.6389543607554844,
                -2.900088503237888
            ]
        },
        {
            "positions": [
                -1.1304551216114187,
                -1.739302608594258,
                2.1547018735922037,
                -0.3785500516738336,
                0.554087485736211,
                -2.872383679697289
            ]
        },
        {
            "positions": [
                -1.229529090630438,
                -1.7850087627420852,
                2.121217769050819,
                -0.29726126547153886,
                0.46922061071693777,
                -2.8446788561566896
            ]
        },
        {
            "positions": [
                -1.3286030596494576,
                -1.8307149168899126,
                2.087733664509434,
                -0.215972479269244,
                0.3843537356976644,
                -2.8169740326160904
            ]
        },
        {
            "positions": [
                -1.427677028668477,
                -1.8764210710377398,
                2.0542495599680497,
                -0.13468369306694938,
                0.29948686067839103,
                -2.789269209075491
            ]
        },
        {
            "positions": [
                -1.5267509976874964,
                -1.9221272251855672,
                2.0207654554266647,
                -0.053394906864654534,
                0.21461998565911777,
                -2.761564385534892
            ]
        },
        {
            "positions": [
                -1.6258249667065159,
                -1.9678333793333946,
                1.9872813508852802,
                0.02789387933764017,
                0.12975311063984443,
                -2.7338595619942927
            ]
        },
        {
            "positions": [
                -1.414093191992111,
                -1.9624020288772561,
                2.0242188677152027,
                -0.017559054244212953,
                0.181607822678026,
                -2.76988389016786
            ]
        },
        {
            "positions": [
                -1.2023614172777057,
                -1.9569706784211176,
                2.0611563845451246,
                -0.06301198782606607,
                0.23346253471620756,
                -2.8059082183414277
            ]
        },
        {
            "positions": [
                -0.9906296425633008,
                -1.9515393279649789,
                2.098093901375047,
                -0.10846492140791916,
                0.2853172467543891,
                -2.841932546514995
            ]
        },
        {
            "positions": [
                -0.7788978678488957,
                -1.9461079775088403,
                2.1350314182049694,
                -0.1539178549897723,
                0.33717195879257067,
                -2.877956874688562
            ]
        },
        {
            "positions": [
                -0.5671660931344906,
                -1.9406766270527018,
                2.171968935034892,
                -0.1993707885716254,
                0.38902667083075226,
                -2.9139812028621295
            ]
        },
        {
            "positions": [
                -0.35543431842008566,
                -1.9352452765965633,
                2.208906451864814,
                -0.2448237221534785,
                0.44088138286893375,
                -2.950005531035697
            ]
        },
        {
            "positions": [
                -0.1437025437056807,
                -1.9298139261404248,
                2.2458439686947362,
                -0.2902766557353317,
                0.49273609490711534,
                -2.9860298592092644
            ]
        },
        {
            "positions": [
                0.06802923100872449,
                -1.9243825756842863,
                2.2827814855246586,
                -0.33572958931718483,
                0.5445908069452969,
                -3.0220541873828317
            ]
        },
        {
            "positions": [
                0.2797610057231297,
                -1.9189512252281475,
                2.319719002354581,
                -0.381182522899038,
                0.5964455189834785,
                -3.0580785155563994
            ]
        },
        {
            "positions": [
                0.49149278043753464,
                -1.913519874772009,
                2.356656519184503,
                -0.426635456480891,
                0.64830023102166,
                -3.0941028437299667
            ]
        },
        {
            "positions": [
                0.7032245551519395,
                -1.9080885243158705,
                2.3935940360144254,
                -0.47208839006274417,
                0.7001549430598416,
                -3.130127171903534
            ]
        }
    ]
}