{
    "goal": {
        "global_pose": {
            "orientation": {
                "w": 0.5084816217422485,
                "x": -0.49083608388900757,
                "y": 0.5182115435600281,
                "z": -0.4816462993621826
            },
            "position": {
                "x": 0.5540239810943604,
                "y": 0.030875300988554955,
                "z": 0.16403168439865112
            }
        },
        "name": "move_to_storage_A"
    },
    "id": "SPARS_move_to_storage_A_60",
    "joint_names": [
        "shoulder_pan_joint",
        "shoulder_lift_joint",
        "elbow_joint",
        "wrist_1_joint",
        "wrist_2_joint",
        "wrist_3_joint"
    ],
    "metrics": {
        "cart_traj_len": 0.3538737919687648,
        "distance_elbow_joint": 0.4494399362655299,
        "distance_shoulder_lift_joint": 0.23446078085587962,
        "distance_shoulder_pan_joint": 0.46009226144378906,
        "distance_wrist_1_joint": 0.24118755243572088,
        "distance_wrist_2_joint": 1.1116450836592577,
        "distance_wrist_3_joint": 0.10451678143111343,
        "smoothness": 8.881784232165597e-16,
        "time": 5.064651828,
        "traj_len": 1.6128677553014974,
        "weighted_distance": 2.0403942254006937
    },
    "planner": "SPARS",
    "start": {
        "state": {
            "elbow_joint": 1.9715463870305268,
            "shoulder_lift_joint": -1.1394903361783484,
            "shoulder_pan_joint": 0.12281147578464417,
            "wrist_1_joint": -0.7804599489681411,
            "wrist_2_joint": 0.12958660307563738,
            "wrist_3_joint": -3.1924946282119055
        }
    },
    "waypoints": [
        {
            "positions": [
                0.12281147578464417,
                -1.1394903361783484,
                1.9715463870305268,
                -0.7804599489681411,
                0.12958660307563738,
                -3.1924946282119055
            ]
        },
        {
            "positions": [
                0.05708400986410288,
                -1.172984733443474,
                2.035752092211317,
                -0.8149153136018155,
                0.28839304359838847,
                -3.177563659436032
            ]
        },
        {
            "positions": [
                -0.008643456056438417,
                -1.2064791307085998,
                2.099957797392107,
                -0.84937067823549,
                0.4471994841211395,
                -3.1626326906601587
            ]
        },
        {
            "positions": [
                -0.07437092197697971,
                -1.2399735279737254,
                2.164163502572897,
                -0.8838260428691643,
                0.6060059246438907,
                -3.1477017218842853
            ]
        },
        {
            "positions": [
                -0.140098387897521,
                -1.273467925238851,
                2.2283692077536865,
                -0.9182814075028387,
                0.7648123651666417,
                -3.1327707531084124
            ]
        },
        {
            "positions": [
                -0.2058258538180623,
                -1.3069623225039768,
                2.2925749129344766,
                -0.9527367721365132,
                0.9236188056893929,
                -3.117839784332539
            ]
        },
        {
            "positions": [
                -0.2715533197386036,
                -1.3404567197691024,
                2.3567806181152666,
                -0.9871921367701875,
                1.082425246212144,
                -3.1029088155566655
            ]
        },
        {
            "positions": [
                -0.3372807856591449,
                -1.373951117034228,
                2.4209863232960567,
                -1.021647501403862,
                1.2412316867348951,
                -3.087977846780792
            ]
        }
    ]
}