{
    "goal": {
        "global_pose": {
            "orientation": {
                "w": 0.7031023502349854,
                "x": -0.7110244035720825,
                "y": 0.007748599164187908,
                "z": 0.005598929710686207
            },
            "position": {
                "x": 0.11585023208521307,
                "y": 0.44412534475326537,
                "z": 0.3711530566215515
            }
        },
        "name": "move_to_auspresseinheit_A"
    },
    "id": "SPARS_move_to_auspresseinheit_A_41",
    "joint_names": [
        "shoulder_pan_joint",
        "shoulder_lift_joint",
        "elbow_joint",
        "wrist_1_joint",
        "wrist_2_joint",
        "wrist_3_joint"
    ],
    "metrics": {
        "cart_traj_len": 1.2694782223695737,
        "distance_elbow_joint": 0.8035389046782608,
        "distance_shoulder_lift_joint": 0.9672208987623259,
        "distance_shoulder_pan_joint": 1.1421934539437477,
        "distance_wrist_1_joint": 3.1713410242739077,
        "distance_wrist_2_joint": 2.1268511871358164,
        "distance_wrist_3_joint": 0.2717268725925468,
        "smoothness": 1.2062444021052396,
        "time": 5.037764406,
        "traj_len": 2.9125370969974966,
        "weighted_distance": 3.7847745372718604
    },
    "planner": "SPARS",
    "start": {
        "state": {
            "elbow_joint": 2.422574709923281,
            "shoulder_lift_joint": -1.3736533754116391,
            "shoulder_pan_joint": -0.33786336945926293,
            "wrist_1_joint": -1.0288603412921917,
            "wrist_2_joint": 1.2330224858903978,
            "wrist_3_joint": -3.094022268022082
        }
    },
    "waypoints": [
        {
            "positions": [
                -0.33786336945926293,
                -1.3736533754116391,
                2.422574709923281,
                -1.0288603412921917,
                1.2330224858903978,
                -3.094022268022082
            ]
        },
        {
            "positions": [
                -0.2795656920780464,
                -1.427204347606084,
                2.3926989131953693,
                -0.8950307365548079,
                1.1381935397168985,
                -3.0860380031006143
            ]
        },
        {
            "positions": [
                -0.22126801469682983,
                -1.4807553198005288,
                2.3628231164674576,
                -0.7612011318174241,
                1.0433645935433995,
                -3.0780537381791464
            ]
        },
        {
            "positions": [
                -0.16297033731561325,
                -1.5343062919949737,
                2.332947319739546,
                -0.6273715270800404,
                0.9485356473699003,
                -3.0700694732576785
            ]
        },
        {
            "positions": [
                -0.1046726599343967,
                -1.5878572641894184,
                2.3030715230116336,
                -0.4935419223426566,
                0.853706701196401,
                -3.0620852083362107
            ]
        },
        {
            "positions": [
                -0.04637498255318012,
                -1.6414082363838634,
                2.273195726283722,
                -0.3597123176052728,
                0.7588777550229019,
                -3.054100943414743
            ]
        },
        {
            "positions": [
                0.011922694828036429,
                -1.694959208578308,
                2.24331992955581,
                -0.22588271286788908,
                0.6640488088494028,
                -3.046116678493275
            ]
        },
        {
            "positions": [
                0.07022037220925298,
                -1.748510180772753,
                2.2134441328278984,
                -0.09205310813050527,
                0.5692198626759035,
                -3.038132413571807
            ]
        },
        {
            "positions": [
                0.12851804959046953,
                -1.8020611529671977,
                2.1835683360999867,
                0.041776496606878544,
                0.4743909165024044,
                -3.0301481486503388
            ]
        },
        {
            "positions": [
                0.18681572697168608,
                -1.8556121251616426,
                2.153692539372075,
                0.17560610134426247,
                0.37956197032890515,
                -3.022163883728871
            ]
        },
        {
            "positions": [
                0.2451134043529027,
                -1.9091630973560876,
                2.1238167426441628,
                0.30943570608164617,
                0.284733024155406,
                -3.014179618807403
            ]
        },
        {
            "positions": [
                0.3034110817341192,
                -1.9627140695505323,
                2.093940945916251,
                0.44326531081902987,
                0.18990407798190678,
                -3.006195353885935
            ]
        },
        {
            "positions": [
                0.3617087591153358,
                -2.016265041744977,
                2.0640651491883393,
                0.5770949155564136,
                0.09507513180840776,
                -2.9982110889644673
            ]
        },
        {
            "positions": [
                0.4200064364965524,
                -2.069816013939422,
                2.0341893524604275,
                0.7109245202937975,
                0.0002461856349085245,
                -2.9902268240429994
            ]
        },
        {
            "positions": [
                0.47830411387776883,
                -2.123366986133867,
                2.004313555732516,
                0.8447541250311812,
                -0.09458276053859083,
                -2.9822425591215316
            ]
        },
        {
            "positions": [
                0.5177687888643755,
                -2.105963441814219,
                2.047300664178142,
                0.7061736267109939,
                -0.011555026056860762,
                -3.0009153961446136
            ]
        },
        {
            "positions": [
                0.5572334638509822,
                -2.0885598974945716,
                2.090287772623768,
                0.5675931283908067,
                0.0714727084248693,
                -3.019588233167696
            ]
        },
        {
            "positions": [
                0.5966981388375887,
                -2.0711563531749237,
                2.1332748810693944,
                0.42901263007061935,
                0.15450044290659937,
                -3.038261070190778
            ]
        },
        {
            "positions": [
                0.6361628138241954,
                -2.053752808855276,
                2.1762619895150204,
                0.29043213175043203,
                0.23752817738832943,
                -3.0569339072138604
            ]
        },
        {
            "positions": [
                0.675627488810802,
                -2.036349264535628,
                2.2192490979606467,
                0.15185163343024466,
                0.3205559118700595,
                -3.0756067442369424
            ]
        },
        {
            "positions": [
                0.7150921637974087,
                -2.0189457202159806,
                2.2622362064062727,
                0.013271135110057508,
                0.40358364635178956,
                -3.094279581260025
            ]
        },
        {
            "positions": [
                0.7545568387840154,
                -2.0015421758963328,
                2.305223314851899,
                -0.12530936321012992,
                0.4866113808335196,
                -3.1129524182831068
            ]
        },
        {
            "positions": [
                0.7379657568838589,
                -1.9696480166288115,
                2.33334597864127,
                -0.2345303864465378,
                0.5592953139450921,
                -3.122698186459914
            ]
        },
        {
            "positions": [
                0.7213746749837026,
                -1.93775385736129,
                2.3614686424306406,
                -0.34375140968294565,
                0.6319792470566646,
                -3.1324439546367207
            ]
        },
        {
            "positions": [
                0.7047835930835461,
                -1.9058596980937688,
                2.3895913062200114,
                -0.4529724329193535,
                0.7046631801682371,
                -3.142189722813528
            ]
        }
    ]
}