{
    "goal": {
        "global_pose": {
            "orientation": {
                "w": 0.7047431468963623,
                "x": -0.7094548344612122,
                "y": 0.0024358443915843964,
                "z": -0.0022348060738295317
            },
            "position": {
                "x": 0.6094750761985779,
                "y": 0.3671506643295288,
                "z": 0.19426114857196808
            }
        },
        "name": "move_to_magneteinheit_A"
    },
    "id": "SPARS_move_to_magneteinheit_A_126",
    "joint_names": [
        "shoulder_pan_joint",
        "shoulder_lift_joint",
        "elbow_joint",
        "wrist_1_joint",
        "wrist_2_joint",
        "wrist_3_joint"
    ],
    "metrics": {
        "cart_traj_len": 2.064574422234186,
        "distance_elbow_joint": 3.878733405779019,
        "distance_shoulder_lift_joint": 1.0550762457030454,
        "distance_shoulder_pan_joint": 1.2410519019187392,
        "distance_wrist_1_joint": 1.1592882374720954,
        "distance_wrist_2_joint": 1.4468438427854005,
        "distance_wrist_3_joint": 1.9205340121306227,
        "smoothness": 1.5313421064182686e-16,
        "time": 5.015288419,
        "traj_len": 3.2713189458976513,
        "weighted_distance": 4.141102238572198
    },
    "planner": "SPARS",
    "start": {
        "state": {
            "elbow_joint": -1.919643507792019,
            "shoulder_lift_joint": -0.07675430207160344,
            "shoulder_pan_joint": -1.1188671864651873,
            "wrist_1_joint": 0.42560062535961957,
            "wrist_2_joint": 1.5706038300724876,
            "wrist_3_joint": 1.1188968870953055
        }
    },
    "waypoints": [
        {
            "positions": [
                -1.1188671864651873,
                -0.07675430207160344,
                -1.919643507792019,
                0.42560062535961957,
                1.5706038300724876,
                1.1188968870953055
            ]
        },
        {
            "positions": [
                -1.0745439042538039,
                -0.11443559656099792,
                -1.7811173147284827,
                0.3841974740213304,
                1.5189308356872948,
                1.187487387528542
            ]
        },
        {
            "positions": [
                -1.0302206220424202,
                -0.1521168910503924,
                -1.6425911216649463,
                0.34279432268304133,
                1.4672578413021018,
                1.2560778879617787
            ]
        },
        {
            "positions": [
                -0.9858973398310367,
                -0.18979818553978686,
                -1.50406492860141,
                0.30139117134475224,
                1.415584846916909,
                1.3246683883950152
            ]
        },
        {
            "positions": [
                -0.9415740576196532,
                -0.22747948002918134,
                -1.3655387355378736,
                0.2599880200064631,
                1.3639118525317162,
                1.3932588888282516
            ]
        },
        {
            "positions": [
                -0.8972507754082697,
                -0.26516077451857584,
                -1.2270125424743372,
                0.21858486866817395,
                1.3122388581465232,
                1.461849389261488
            ]
        },
        {
            "positions": [
                -0.8529274931968861,
                -0.3028420690079703,
                -1.0884863494108008,
                0.17718171732988486,
                1.2605658637613304,
                1.5304398896947247
            ]
        },
        {
            "positions": [
                -0.8086042109855025,
                -0.3405233634973648,
                -0.9499601563472644,
                0.1357785659915957,
                1.2088928693761374,
                1.5990303901279612
            ]
        },
        {
            "positions": [
                -0.764280928774119,
                -0.37820465798675923,
                -0.811433963283728,
                0.09437541465330662,
                1.1572198749909446,
                1.6676208905611976
            ]
        },
        {
            "positions": [
                -0.7199576465627354,
                -0.4158859524761538,
                -0.6729077702201915,
                0.05297226331501742,
                1.1055468806057518,
                1.7362113909944343
            ]
        },
        {
            "positions": [
                -0.6756343643513519,
                -0.45356724696554823,
                -0.5343815771566551,
                0.01156911197672833,
                1.053873886220559,
                1.8048018914276707
            ]
        },
        {
            "positions": [
                -0.6313110821399683,
                -0.4912485414549427,
                -0.39585538409311893,
                -0.02983403936156076,
                1.002200891835366,
                1.8733923918609072
            ]
        },
        {
            "positions": [
                -0.5869877999285849,
                -0.5289298359443371,
                -0.2573291910295825,
                -0.07123719069984985,
                0.9505278974501732,
                1.9419828922941438
            ]
        },
        {
            "positions": [
                -0.5426645177172013,
                -0.5666111304337317,
                -0.1188029979660461,
                -0.11264034203813905,
                0.8988549030649803,
                2.0105733927273803
            ]
        },
        {
            "positions": [
                -0.49834123550581777,
                -0.6042924249231261,
                0.01972319509749032,
                -0.15404349337642814,
                0.8471819086797874,
                2.079163893160617
            ]
        },
        {
            "positions": [
                -0.4540179532944343,
                -0.6419737194125206,
                0.15824938816102674,
                -0.19544664471471723,
                0.7955089142945945,
                2.1477543935938535
            ]
        },
        {
            "positions": [
                -0.4096946710830507,
                -0.6796550139019151,
                0.29677558122456316,
                -0.23684979605300632,
                0.7438359199094017,
                2.21634489402709
            ]
        },
        {
            "positions": [
                -0.3653713888716672,
                -0.7173363083913096,
                0.43530177428809913,
                -0.2782529473912954,
                0.6921629255242088,
                2.2849353944603266
            ]
        },
        {
            "positions": [
                -0.3210481066602835,
                -0.7550176028807041,
                0.573827967351636,
                -0.3196560987295847,
                0.6404899311390159,
                2.353525894893563
            ]
        },
        {
            "positions": [
                -0.2767248244489,
                -0.7926988973700986,
                0.7123541604151724,
                -0.3610592500678738,
                0.588816936753823,
                2.4221163953267997
            ]
        },
        {
            "positions": [
                -0.23240154223751652,
                -0.8303801918594931,
                0.8508803534787088,
                -0.4024624014061629,
                0.5371439423686302,
                2.4907068957600362
            ]
        },
        {
            "positions": [
                -0.18807826002613304,
                -0.8680614863488876,
                0.9894065465422448,
                -0.443865552744452,
                0.48547094798343715,
                2.559297396193273
            ]
        },
        {
            "positions": [
                -0.14375497781474944,
                -0.9057427808382819,
                1.1279327396057812,
                -0.4852687040827411,
                0.43379795359824436,
                2.6278878966265093
            ]
        },
        {
            "positions": [
                -0.09943169560336584,
                -0.9434240753276764,
                1.2664589326693176,
                -0.5266718554210301,
                0.38212495921305156,
                2.6964783970597455
            ]
        },
        {
            "positions": [
                -0.05510841339198236,
                -0.9811053698170709,
                1.404985125732854,
                -0.5680750067593192,
                0.33045196482785877,
                2.765068897492982
            ]
        },
        {
            "positions": [
                -0.01078513118059865,
                -1.0187866643064654,
                1.543511318796391,
                -0.6094781580976085,
                0.27877897044266575,
                2.833659397926219
            ]
        },
        {
            "positions": [
                0.033538151030784835,
                -1.0564679587958599,
                1.682037511859927,
                -0.6508813094358976,
                0.22710597605747296,
                2.9022498983594556
            ]
        },
        {
            "positions": [
                0.07786143324216832,
                -1.0941492532852544,
                1.8205637049234633,
                -0.6922844607741867,
                0.17543298167227994,
                2.9708403987926917
            ]
        },
        {
            "positions": [
                0.12218471545355183,
                -1.1318305477746489,
                1.959089897987,
                -0.7336876121124759,
                0.12375998728708715,
                3.0394308992259282
            ]
        }
    ]
}