{
    "goal": {
        "global_pose": {
            "orientation": {
                "w": 0.5084816217422485,
                "x": -0.49083608388900757,
                "y": 0.5182115435600281,
                "z": -0.4816462993621826
            },
            "position": {
                "x": 0.5540239810943604,
                "y": 0.030875300988554955,
                "z": 0.16403168439865112
            }
        },
        "name": "move_to_storage_A"
    },
    "id": "SPARS_move_to_storage_A_47",
    "joint_names": [
        "shoulder_pan_joint",
        "shoulder_lift_joint",
        "elbow_joint",
        "wrist_1_joint",
        "wrist_2_joint",
        "wrist_3_joint"
    ],
    "metrics": {
        "cart_traj_len": 0.35271282174833596,
        "distance_elbow_joint": 0.450894102654376,
        "distance_shoulder_lift_joint": 0.23481323008763733,
        "distance_shoulder_pan_joint": 0.46083788231701844,
        "distance_wrist_1_joint": 0.24290793647814224,
        "distance_wrist_2_joint": 1.100406541292148,
        "distance_wrist_3_joint": 0.08739704925279623,
        "smoothness": 0.0,
        "time": 5.0165138339999995,
        "traj_len": 1.6053836744162182,
        "weighted_distance": 2.023700896466175
    },
    "planner": "SPARS",
    "start": {
        "state": {
            "elbow_joint": 1.9715463870305268,
            "shoulder_lift_joint": -1.1394903361783484,
            "shoulder_pan_joint": 0.12281147578464417,
            "wrist_1_joint": -0.7804599489681411,
            "wrist_2_joint": 0.12958660307563738,
            "wrist_3_joint": -3.1924946282119055
        }
    },
    "waypoints": [
        {
            "positions": [
                0.12281147578464417,
                -1.1394903361783484,
                1.9715463870305268,
                -0.7804599489681411,
                0.12958660307563738,
                -3.1924946282119055
            ]
        },
        {
            "positions": [
                0.05697749259649869,
                -1.173035083333725,
                2.035959830266866,
                -0.8151610827507328,
                0.2867875375459442,
                -3.180009335461506
            ]
        },
        {
            "positions": [
                -0.008856490591646796,
                -1.206579830489102,
                2.1003732735032057,
                -0.8498622165333246,
                0.443988472016251,
                -3.1675240427111064
            ]
        },
        {
            "positions": [
                -0.07469047377979228,
                -1.2401245776444787,
                2.164786716739545,
                -0.8845633503159163,
                0.6011894064865579,
                -3.155038749960707
            ]
        },
        {
            "positions": [
                -0.14052445696793775,
                -1.2736693247998554,
                2.2292001599758846,
                -0.919264484098508,
                0.7583903409568648,
                -3.1425534572103078
            ]
        },
        {
            "positions": [
                -0.2063584401560833,
                -1.307214071955232,
                2.293613603212224,
                -0.9539656178810998,
                0.9155912754271717,
                -3.1300681644599084
            ]
        },
        {
            "positions": [
                -0.2721924233442287,
                -1.340758819110609,
                2.358027046448563,
                -0.9886667516636916,
                1.0727922098974785,
                -3.1175828717095087
            ]
        },
        {
            "positions": [
                -0.33802640653237426,
                -1.3743035662659857,
                2.4224404896849028,
                -1.0233678854462833,
                1.2299931443677854,
                -3.1050975789591093
            ]
        }
    ]
}