{
    "goal": {
        "global_pose": {
            "orientation": {
                "w": 0.5084816217422485,
                "x": -0.49083608388900757,
                "y": 0.5182115435600281,
                "z": -0.4816462993621826
            },
            "position": {
                "x": 0.5540239810943604,
                "y": 0.030875300988554955,
                "z": 0.16403168439865112
            }
        },
        "name": "move_to_storage_A"
    },
    "id": "SPARS_move_to_storage_A_80",
    "joint_names": [
        "shoulder_pan_joint",
        "shoulder_lift_joint",
        "elbow_joint",
        "wrist_1_joint",
        "wrist_2_joint",
        "wrist_3_joint"
    ],
    "metrics": {
        "cart_traj_len": 0.3529216015021625,
        "distance_elbow_joint": 0.44755883429361587,
        "distance_shoulder_lift_joint": 0.2330655262281358,
        "distance_shoulder_pan_joint": 0.4620382595292886,
        "distance_wrist_1_joint": 0.2382919461904257,
        "distance_wrist_2_joint": 1.0948995030279134,
        "distance_wrist_3_joint": 0.1044881423458226,
        "smoothness": 4.440892133664971e-16,
        "time": 5.006542542,
        "traj_len": 1.6063443627115581,
        "weighted_distance": 2.030396499584548
    },
    "planner": "SPARS",
    "start": {
        "state": {
            "elbow_joint": 1.9715463870305268,
            "shoulder_lift_joint": -1.1394903361783484,
            "shoulder_pan_joint": 0.12281147578464417,
            "wrist_1_joint": -0.7804599489681411,
            "wrist_2_joint": 0.12958660307563738,
            "wrist_3_joint": -3.1924946282119055
        }
    },
    "waypoints": [
        {
            "positions": [
                0.12281147578464417,
                -1.1394903361783484,
                1.9715463870305268,
                -0.7804599489681411,
                0.12958660307563738,
                -3.1924946282119055
            ]
        },
        {
            "positions": [
                0.05680601013760295,
                -1.1727854113537963,
                2.0354833633581864,
                -0.8145016555667733,
                0.28600081779391073,
                -3.177567750733931
            ]
        },
        {
            "positions": [
                -0.009199455509438278,
                -1.2060804865292443,
                2.0994203396858455,
                -0.8485433621654056,
                0.44241503251218406,
                -3.162640873255956
            ]
        },
        {
            "positions": [
                -0.07520492115647952,
                -1.2393755617046922,
                2.163357316013505,
                -0.8825850687640378,
                0.5988292472304574,
                -3.1477139957779814
            ]
        },
        {
            "positions": [
                -0.14121038680352072,
                -1.2726706368801404,
                2.2272942923411643,
                -0.91662677536267,
                0.7552434619487307,
                -3.132787118300007
            ]
        },
        {
            "positions": [
                -0.20721585245056195,
                -1.3059657120555883,
                2.291231268668824,
                -0.9506684819613023,
                0.9116576766670041,
                -3.1178602408220324
            ]
        },
        {
            "positions": [
                -0.2732213180976032,
                -1.3392607872310363,
                2.355168244996483,
                -0.9847101885599345,
                1.0680718913852774,
                -3.1029333633440577
            ]
        },
        {
            "positions": [
                -0.33922678374464443,
                -1.3725558624064842,
                2.4191052213241426,
                -1.0187518951585668,
                1.2244861061035508,
                -3.088006485866083
            ]
        }
    ]
}