{
    "goal": {
        "global_pose": {
            "orientation": {
                "w": 0.7031023502349854,
                "x": -0.7110244035720825,
                "y": 0.007748599164187908,
                "z": 0.005598929710686207
            },
            "position": {
                "x": 0.11585023208521307,
                "y": 0.44412534475326537,
                "z": 0.3711530566215515
            }
        },
        "name": "move_to_auspresseinheit_A"
    },
    "id": "SPARS_move_to_auspresseinheit_A_64",
    "joint_names": [
        "shoulder_pan_joint",
        "shoulder_lift_joint",
        "elbow_joint",
        "wrist_1_joint",
        "wrist_2_joint",
        "wrist_3_joint"
    ],
    "metrics": {
        "cart_traj_len": 1.5435752923995674,
        "distance_elbow_joint": 0.7930328727193361,
        "distance_shoulder_lift_joint": 1.3607890312333695,
        "distance_shoulder_pan_joint": 2.4186747915587636,
        "distance_wrist_1_joint": 3.922384437214597,
        "distance_wrist_2_joint": 1.296680531877253,
        "distance_wrist_3_joint": 6.156195440260362,
        "smoothness": 0.951845445814247,
        "time": 5.069125025999999,
        "traj_len": 3.9934642986839988,
        "weighted_distance": 5.786122445513597
    },
    "planner": "SPARS",
    "start": {
        "state": {
            "elbow_joint": 2.422574709923281,
            "shoulder_lift_joint": -1.3736533754116391,
            "shoulder_pan_joint": -0.33786336945926293,
            "wrist_1_joint": -1.0288603412921917,
            "wrist_2_joint": 1.2330224858903978,
            "wrist_3_joint": -3.094022268022082
        }
    },
    "waypoints": [
        {
            "positions": [
                -0.33786336945926293,
                -1.3736533754116391,
                2.422574709923281,
                -1.0288603412921917,
                1.2330224858903978,
                -3.094022268022082
            ]
        },
        {
            "positions": [
                -0.2736250932182294,
                -1.4293776958892292,
                2.4353956117105264,
                -1.0831292656910856,
                1.2561375032778264,
                -2.9141030862789847
            ]
        },
        {
            "positions": [
                -0.20938681697719594,
                -1.4851020163668194,
                2.448216513497772,
                -1.1373981900899794,
                1.279252520665255,
                -2.7341839045358873
            ]
        },
        {
            "positions": [
                -0.14514854073616246,
                -1.5408263368444095,
                2.461037415285017,
                -1.1916671144888733,
                1.3023675380526836,
                -2.55426472279279
            ]
        },
        {
            "positions": [
                -0.08091026449512895,
                -1.5965506573219996,
                2.4738583170722626,
                -1.2459360388877672,
                1.3254825554401122,
                -2.374345541049693
            ]
        },
        {
            "positions": [
                -0.016671988254095493,
                -1.6522749777995898,
                2.486679218859508,
                -1.300204963286661,
                1.3485975728275408,
                -2.194426359306595
            ]
        },
        {
            "positions": [
                0.047566287986938016,
                -1.70799929827718,
                2.4995001206467533,
                -1.3544738876855549,
                1.3717125902149694,
                -2.014507177563498
            ]
        },
        {
            "positions": [
                0.11180456422797147,
                -1.76372361875477,
                2.5123210224339987,
                -1.4087428120844487,
                1.394827607602398,
                -1.8345879958204008
            ]
        },
        {
            "positions": [
                0.17604284046900504,
                -1.8194479392323601,
                2.525141924221244,
                -1.4630117364833426,
                1.4179426249898266,
                -1.6546688140773034
            ]
        },
        {
            "positions": [
                0.24028111671003843,
                -1.8751722597099505,
                2.5379628260084894,
                -1.5172806608822365,
                1.4410576423772552,
                -1.474749632334206
            ]
        },
        {
            "positions": [
                0.30451939295107194,
                -1.9308965801875404,
                2.550783727795735,
                -1.5715495852811303,
                1.464172659764684,
                -1.2948304505911086
            ]
        },
        {
            "positions": [
                0.36875766919210545,
                -1.9866209006651308,
                2.56360462958298,
                -1.6258185096800242,
                1.4872876771521126,
                -1.1149112688480112
            ]
        },
        {
            "positions": [
                0.43299594543313896,
                -2.042345221142721,
                2.5764255313702256,
                -1.680087434078918,
                1.5104026945395412,
                -0.9349920871049138
            ]
        },
        {
            "positions": [
                0.49723422167417236,
                -2.098069541620311,
                2.589246433157471,
                -1.7343563584778119,
                1.5335177119269698,
                -0.7550729053618168
            ]
        },
        {
            "positions": [
                0.5614724979152059,
                -2.153793862097901,
                2.6020673349447163,
                -1.7886252828767057,
                1.5566327293143984,
                -0.5751537236187194
            ]
        },
        {
            "positions": [
                0.6257107741562393,
                -2.2095181825754913,
                2.6148882367319617,
                -1.8428942072755996,
                1.579747746701827,
                -0.395234541875622
            ]
        },
        {
            "positions": [
                0.689949050397273,
                -2.2652425030530816,
                2.627709138519207,
                -1.8971631316744935,
                1.6028627640892557,
                -0.2153153601325246
            ]
        },
        {
            "positions": [
                0.7541873266383063,
                -2.3209668235306715,
                2.6405300403064524,
                -1.9514320560733873,
                1.6259777814766843,
                -0.035396178389427324
            ]
        },
        {
            "positions": [
                0.7898110807181574,
                -2.3073985455880113,
                2.6177102199044606,
                -1.8270044792661306,
                1.578757882188973,
                -0.1839024998130138
            ]
        },
        {
            "positions": [
                0.8254348347980084,
                -2.2938302676453515,
                2.5948903995024684,
                -1.7025769024588742,
                1.5315379829012614,
                -0.33240882123660026
            ]
        },
        {
            "positions": [
                0.8610585888778595,
                -2.2802619897026912,
                2.5720705791004765,
                -1.5781493256516175,
                1.48431808361355,
                -0.4809151426601867
            ]
        },
        {
            "positions": [
                0.8966823429577104,
                -2.2666937117600314,
                2.5492507586984847,
                -1.453721748844361,
                1.4370981843258386,
                -0.6294214640837732
            ]
        },
        {
            "positions": [
                0.9323060970375616,
                -2.253125433817371,
                2.5264309382964925,
                -1.329294172037104,
                1.3898782850381273,
                -0.7779277855073596
            ]
        },
        {
            "positions": [
                0.9679298511174126,
                -2.2395571558747114,
                2.5036111178945006,
                -1.2048665952298476,
                1.3426583857504157,
                -0.9264341069309461
            ]
        },
        {
            "positions": [
                1.0035536051972636,
                -2.225988877932051,
                2.480791297492509,
                -1.0804390184225912,
                1.2954384864627044,
                -1.0749404283545325
            ]
        },
        {
            "positions": [
                1.0391773592771147,
                -2.2124205999893913,
                2.4579714770905166,
                -0.9560114416153345,
                1.248218587174993,
                -1.2234467497781192
            ]
        },
        {
            "positions": [
                1.0748011133569657,
                -2.198852322046731,
                2.4351516566885247,
                -0.8315838648080778,
                1.2009986878872816,
                -1.3719530712017054
            ]
        },
        {
            "positions": [
                1.1104248674368167,
                -2.185284044104071,
                2.412331836286533,
                -0.7071562880008211,
                1.15377878859957,
                -1.520459392625292
            ]
        },
        {
            "positions": [
                1.1460486215166679,
                -2.171715766161411,
                2.3895120158845407,
                -0.5827287111935644,
                1.1065588893118585,
                -1.6689657140488787
            ]
        },
        {
            "positions": [
                1.1816723755965188,
                -2.158147488218751,
                2.366692195482549,
                -0.45830113438630793,
                1.0593389900241474,
                -1.817472035472465
            ]
        },
        {
            "positions": [
                1.2172961296763698,
                -2.144579210276091,
                2.343872375080557,
                -0.33387355757905124,
                1.012119090736436,
                -1.9659783568960512
            ]
        },
        {
            "positions": [
                1.252919883756221,
                -2.1310109323334308,
                2.3210525546785647,
                -0.20944598077179477,
                0.9648991914487245,
                -2.114484678319638
            ]
        },
        {
            "positions": [
                1.288543637836072,
                -2.117442654390771,
                2.298232734276573,
                -0.08501840396453808,
                0.9176792921610131,
                -2.2629909997432245
            ]
        },
        {
            "positions": [
                1.324167391915923,
                -2.1038743764481107,
                2.275412913874581,
                0.03940917284271839,
                0.8704593928733017,
                -2.4114973211668107
            ]
        },
        {
            "positions": [
                1.359791145995774,
                -2.090306098505451,
                2.252593093472589,
                0.1638367496499753,
                0.8232394935855902,
                -2.560003642590397
            ]
        },
        {
            "positions": [
                1.395414900075625,
                -2.0767378205627907,
                2.229773273070597,
                0.28826432645723155,
                0.7760195942978788,
                -2.7085099640139836
            ]
        },
        {
            "positions": [
                1.281182146404979,
                -2.0485300572050478,
                2.2571600689206486,
                0.16157826980676798,
                0.7670584194458521,
                -2.7792525581811756
            ]
        },
        {
            "positions": [
                1.166949392734333,
                -2.0203222938473053,
                2.2845468647707,
                0.03489221315630442,
                0.7580972445938254,
                -2.8499951523483675
            ]
        },
        {
            "positions": [
                1.052716639063687,
                -1.9921145304895624,
                2.3119336606207517,
                -0.09179384349415914,
                0.7491360697417988,
                -2.9207377465155595
            ]
        },
        {
            "positions": [
                0.9384838853930413,
                -1.9639067671318198,
                2.3393204564708032,
                -0.2184799001446227,
                0.7401748948897721,
                -2.991480340682751
            ]
        },
        {
            "positions": [
                0.8242511317223952,
                -1.935699003774077,
                2.3667072523208548,
                -0.3451659567950863,
                0.7312137200377453,
                -3.062222934849943
            ]
        },
        {
            "positions": [
                0.7100183780517493,
                -1.9074912404163344,
                2.3940940481709063,
                -0.47185201344554983,
                0.7222525451857187,
                -3.132965529017135
            ]
        }
    ]
}