{
    "goal": {
        "global_pose": {
            "orientation": {
                "w": 0.5084816217422485,
                "x": -0.49083608388900757,
                "y": 0.5182115435600281,
                "z": -0.4816462993621826
            },
            "position": {
                "x": 0.5540239810943604,
                "y": 0.030875300988554955,
                "z": 0.16403168439865112
            }
        },
        "name": "move_to_storage_A"
    },
    "id": "SPARS_move_to_storage_A_39",
    "joint_names": [
        "shoulder_pan_joint",
        "shoulder_lift_joint",
        "elbow_joint",
        "wrist_1_joint",
        "wrist_2_joint",
        "wrist_3_joint"
    ],
    "metrics": {
        "cart_traj_len": 0.3528985806815387,
        "distance_elbow_joint": 0.4500635151215717,
        "distance_shoulder_lift_joint": 0.23615103076963062,
        "distance_shoulder_pan_joint": 0.4606871201838211,
        "distance_wrist_1_joint": 0.2377915396000837,
        "distance_wrist_2_joint": 1.1029879528682398,
        "distance_wrist_3_joint": 0.08690601051549773,
        "smoothness": 1.3322676295501878e-15,
        "time": 5.004470207000001,
        "traj_len": 1.6045520150680204,
        "weighted_distance": 2.0221717737517166
    },
    "planner": "SPARS",
    "start": {
        "state": {
            "elbow_joint": 1.9715463870305268,
            "shoulder_lift_joint": -1.1394903361783484,
            "shoulder_pan_joint": 0.12281147578464417,
            "wrist_1_joint": -0.7804599489681411,
            "wrist_2_joint": 0.12958660307563738,
            "wrist_3_joint": -3.1924946282119055
        }
    },
    "waypoints": [
        {
            "positions": [
                0.12281147578464417,
                -1.1394903361783484,
                1.9715463870305268,
                -0.7804599489681411,
                0.12958660307563738,
                -3.1924946282119055
            ]
        },
        {
            "positions": [
                0.056999030044098314,
                -1.173226197716867,
                2.035841174905037,
                -0.8144301689110102,
                0.2871563106282431,
                -3.180079483852549
            ]
        },
        {
            "positions": [
                -0.008813415696447544,
                -1.2069620592553858,
                2.100135962779547,
                -0.8484003888538793,
                0.4447260181808488,
                -3.167664339493192
            ]
        },
        {
            "positions": [
                -0.07462586143699342,
                -1.2406979207939044,
                2.1644307506540574,
                -0.8823706087967483,
                0.6022957257334545,
                -3.1552491951338353
            ]
        },
        {
            "positions": [
                -0.14043830717753925,
                -1.274433782332423,
                2.228725538528568,
                -0.9163408287396175,
                0.7598654332860602,
                -3.142834050774478
            ]
        },
        {
            "positions": [
                -0.20625075291808515,
                -1.3081696438709418,
                2.293020326403078,
                -0.9503110486824866,
                0.9174351408386658,
                -3.1304189064151213
            ]
        },
        {
            "positions": [
                -0.272063198658631,
                -1.3419055054094604,
                2.357315114277588,
                -0.9842812686253557,
                1.0750048483912715,
                -3.1180037620557646
            ]
        },
        {
            "positions": [
                -0.3378756443991769,
                -1.375641366947979,
                2.4216099021520985,
                -1.0182514885682248,
                1.2325745559438772,
                -3.105588617696408
            ]
        }
    ]
}