{
    "goal": {
        "global_pose": {
            "orientation": {
                "w": 0.7047431468963623,
                "x": -0.7094548344612122,
                "y": 0.0024358443915843964,
                "z": -0.0022348060738295317
            },
            "position": {
                "x": 0.6094750761985779,
                "y": 0.3671506643295288,
                "z": 0.19426114857196808
            }
        },
        "name": "move_to_magneteinheit_A"
    },
    "id": "SPARS_move_to_magneteinheit_A_96",
    "joint_names": [
        "shoulder_pan_joint",
        "shoulder_lift_joint",
        "elbow_joint",
        "wrist_1_joint",
        "wrist_2_joint",
        "wrist_3_joint"
    ],
    "metrics": {
        "cart_traj_len": 1.8775991978849116,
        "distance_elbow_joint": 3.912059213921557,
        "distance_shoulder_lift_joint": 0.6997443235373255,
        "distance_shoulder_pan_joint": 1.2421918151537832,
        "distance_wrist_1_joint": 1.506968970379343,
        "distance_wrist_2_joint": 1.6913889187642805,
        "distance_wrist_3_joint": 1.1343977041129005,
        "smoothness": 4.276414619397388e-16,
        "time": 5.0519963709999995,
        "traj_len": 3.19166899064881,
        "weighted_distance": 3.9565015156370924
    },
    "planner": "SPARS",
    "start": {
        "state": {
            "elbow_joint": -1.919643507792019,
            "shoulder_lift_joint": -0.07675430207160344,
            "shoulder_pan_joint": -1.1188671864651873,
            "wrist_1_joint": 0.42560062535961957,
            "wrist_2_joint": 1.5706038300724876,
            "wrist_3_joint": 1.1188968870953055
        }
    },
    "waypoints": [
        {
            "positions": [
                -1.1188671864651873,
                -0.07675430207160344,
                -1.919643507792019,
                0.42560062535961957,
                1.5706038300724876,
                1.1188968870953055
            ]
        },
        {
            "positions": [
                -1.071090578190042,
                -0.1036675452845775,
                -1.7691796918719591,
                0.4835609703742097,
                1.5055504101200152,
                1.0752662061678864
            ]
        },
        {
            "positions": [
                -1.0233139699148963,
                -0.13058078849755156,
                -1.6187158759518994,
                0.5415213153887998,
                1.4404969901675428,
                1.031635525240467
            ]
        },
        {
            "positions": [
                -0.9755373616397508,
                -0.15749403171052562,
                -1.4682520600318394,
                0.5994816604033899,
                1.3754435702150707,
                0.9880048443130478
            ]
        },
        {
            "positions": [
                -0.9277607533646053,
                -0.18440727492349968,
                -1.3177882441117794,
                0.65744200541798,
                1.3103901502625983,
                0.9443741633856285
            ]
        },
        {
            "positions": [
                -0.8799841450894598,
                -0.21132051813647373,
                -1.1673244281917197,
                0.7154023504325702,
                1.245336730310126,
                0.9007434824582092
            ]
        },
        {
            "positions": [
                -0.8322075368143143,
                -0.2382337613494478,
                -1.0168606122716597,
                0.7733626954471603,
                1.1802833103576535,
                0.8571128015307901
            ]
        },
        {
            "positions": [
                -0.7844309285391688,
                -0.26514700456242185,
                -0.8663967963515999,
                0.8313230404617503,
                1.1152298904051814,
                0.8134821206033709
            ]
        },
        {
            "positions": [
                -0.7366543202640232,
                -0.2920602477753959,
                -0.71593298043154,
                0.8892833854763404,
                1.0501764704527088,
                0.7698514396759515
            ]
        },
        {
            "positions": [
                -0.6888777119888778,
                -0.31897349098836997,
                -0.5654691645114802,
                0.9472437304909305,
                0.9851230505002366,
                0.7262207587485323
            ]
        },
        {
            "positions": [
                -0.6411011037137322,
                -0.345886734201344,
                -0.41500534859142,
                1.0052040755055207,
                0.9200696305477643,
                0.682590077821113
            ]
        },
        {
            "positions": [
                -0.5933244954385868,
                -0.3727999774143181,
                -0.26454153267136027,
                1.0631644205201107,
                0.855016210595292,
                0.6389593968936937
            ]
        },
        {
            "positions": [
                -0.5455478871634413,
                -0.39971322062729214,
                -0.1140777167513003,
                1.121124765534701,
                0.7899627906428196,
                0.5953287159662745
            ]
        },
        {
            "positions": [
                -0.49777127888829575,
                -0.4266264638402662,
                0.036386099168759456,
                1.179085110549291,
                0.7249093706903473,
                0.5516980350388553
            ]
        },
        {
            "positions": [
                -0.44999467061315024,
                -0.45353970705324026,
                0.1868499150888192,
                1.237045455563881,
                0.6598559507378751,
                0.5080673541114361
            ]
        },
        {
            "positions": [
                -0.40221806233800483,
                -0.48045295026621426,
                0.33731373100887896,
                1.2950058005784713,
                0.5948025307854028,
                0.4644366731840168
            ]
        },
        {
            "positions": [
                -0.3544414540628592,
                -0.5073661934791884,
                0.48777754692893915,
                1.3529661455930615,
                0.5297491108329302,
                0.42080599225659754
            ]
        },
        {
            "positions": [
                -0.3066648457877137,
                -0.5342794366921624,
                0.6382413628489989,
                1.4109264906076515,
                0.46469569088045803,
                0.37717531132917825
            ]
        },
        {
            "positions": [
                -0.2588882375125683,
                -0.5611926799051365,
                0.7887051787690587,
                1.4688868356222415,
                0.39964227092798565,
                0.3335446304017591
            ]
        },
        {
            "positions": [
                -0.21111162923742277,
                -0.5881059231181105,
                0.9391689946891184,
                1.5268471806368318,
                0.3345888509755135,
                0.2899139494743398
            ]
        },
        {
            "positions": [
                -0.16333502096227714,
                -0.6150191663310847,
                1.089632810609179,
                1.584807525651422,
                0.2695354310230409,
                0.2462832685469205
            ]
        },
        {
            "positions": [
                -0.11555841268713163,
                -0.6419324095440586,
                1.2400966265292388,
                1.642767870666012,
                0.20448201107056874,
                0.20265258761950122
            ]
        },
        {
            "positions": [
                -0.06778180441198622,
                -0.6688456527570328,
                1.3905604424492986,
                1.700728215680602,
                0.13942859111809636,
                0.15902190669208205
            ]
        },
        {
            "positions": [
                -0.02000519613684082,
                -0.6957588959700067,
                1.5410242583693583,
                1.758688560695192,
                0.0743751711656242,
                0.11539122576466276
            ]
        },
        {
            "positions": [
                0.027771412138304807,
                -0.7226721391829809,
                1.6914880742894185,
                1.8166489057097825,
                0.009321751213151597,
                0.07176054483724337
            ]
        },
        {
            "positions": [
                0.07554802041345043,
                -0.7495853823959548,
                1.8419518902094782,
                1.8746092507243726,
                -0.05573166873932056,
                0.028129863909824193
            ]
        },
        {
            "positions": [
                0.12332462868859592,
                -0.776498625608929,
                1.992415706129538,
                1.9325695957389626,
                -0.12078508869179297,
                -0.015500817017594917
            ]
        }
    ]
}