{
    "goal": {
        "global_pose": {
            "orientation": {
                "w": 0.7047431468963623,
                "x": -0.7094548344612122,
                "y": 0.0024358443915843964,
                "z": -0.0022348060738295317
            },
            "position": {
                "x": 0.6094750761985779,
                "y": 0.3671506643295288,
                "z": 0.19426114857196808
            }
        },
        "name": "move_to_magneteinheit_A"
    },
    "id": "SPARS_move_to_magneteinheit_A_129",
    "joint_names": [
        "shoulder_pan_joint",
        "shoulder_lift_joint",
        "elbow_joint",
        "wrist_1_joint",
        "wrist_2_joint",
        "wrist_3_joint"
    ],
    "metrics": {
        "cart_traj_len": 1.8789707053403757,
        "distance_elbow_joint": 3.9121810963485992,
        "distance_shoulder_lift_joint": 0.7003016798611846,
        "distance_shoulder_pan_joint": 1.2420208787334939,
        "distance_wrist_1_joint": 1.4853310652927487,
        "distance_wrist_2_joint": 1.709246656186902,
        "distance_wrist_3_joint": 1.0990498215691338,
        "smoothness": 5.921189441827542e-16,
        "time": 5.031192299,
        "traj_len": 3.1856131588741383,
        "weighted_distance": 3.9421832228614107
    },
    "planner": "SPARS",
    "start": {
        "state": {
            "elbow_joint": -1.919643507792019,
            "shoulder_lift_joint": -0.07675430207160344,
            "shoulder_pan_joint": -1.1188671864651873,
            "wrist_1_joint": 0.42560062535961957,
            "wrist_2_joint": 1.5706038300724876,
            "wrist_3_joint": 1.1188968870953055
        }
    },
    "waypoints": [
        {
            "positions": [
                -1.1188671864651873,
                -0.07675430207160344,
                -1.919643507792019,
                0.42560062535961957,
                1.5706038300724876,
                1.1188968870953055
            ]
        },
        {
            "positions": [
                -1.0710971526677453,
                -0.1036889820662644,
                -1.7691750040863037,
                0.48272874325549453,
                1.5048635740652991,
                1.0766257401118773
            ]
        },
        {
            "positions": [
                -1.0233271188703033,
                -0.13062366206092535,
                -1.6187065003805885,
                0.5398568611513694,
                1.4391233180581104,
                1.034354593128449
            ]
        },
        {
            "positions": [
                -0.9755570850728611,
                -0.1575583420555863,
                -1.468237996674873,
                0.5969849790472445,
                1.373383062050922,
                0.9920834461450209
            ]
        },
        {
            "positions": [
                -0.927787051275419,
                -0.18449302205024726,
                -1.3177694929691577,
                0.6541130969431194,
                1.3076428060437335,
                0.9498122991615927
            ]
        },
        {
            "positions": [
                -0.880017017477977,
                -0.2114277020449082,
                -1.1673009892634423,
                0.7112412148389944,
                1.2419025500365448,
                0.9075411521781644
            ]
        },
        {
            "positions": [
                -0.8322469836805348,
                -0.23836238203956917,
                -1.0168324855577269,
                0.7683693327348693,
                1.1761622940293563,
                0.8652700051947362
            ]
        },
        {
            "positions": [
                -0.7844769498830928,
                -0.2652970620342301,
                -0.8663639818520117,
                0.8254974506307442,
                1.1104220380221679,
                0.822998858211308
            ]
        },
        {
            "positions": [
                -0.7367069160856508,
                -0.2922317420288911,
                -0.7158954781462963,
                0.8826255685266192,
                1.0446817820149792,
                0.7807277112278798
            ]
        },
        {
            "positions": [
                -0.6889368822882087,
                -0.319166422023552,
                -0.5654269744405809,
                0.939753686422494,
                0.9789415260077908,
                0.7384565642444516
            ]
        },
        {
            "positions": [
                -0.6411668484907667,
                -0.346101102018213,
                -0.41495847073486547,
                0.9968818043183691,
                0.9132012700006022,
                0.6961854172610233
            ]
        },
        {
            "positions": [
                -0.5933968146933246,
                -0.3730357820128739,
                -0.2644899670291503,
                1.054009922214244,
                0.8474610139934137,
                0.6539142702775951
            ]
        },
        {
            "positions": [
                -0.5456267808958825,
                -0.3999704620075349,
                -0.11402146332343466,
                1.111138040110119,
                0.7817207579862251,
                0.6116431232941668
            ]
        },
        {
            "positions": [
                -0.4978567470984404,
                -0.4269051420021958,
                0.03644704038228053,
                1.1682661580059939,
                0.7159805019790366,
                0.5693719763107387
            ]
        },
        {
            "positions": [
                -0.45008671330099836,
                -0.45383982199685674,
                0.1869155440879957,
                1.2253942759018688,
                0.6502402459718482,
                0.5271008293273105
            ]
        },
        {
            "positions": [
                -0.4023166795035563,
                -0.48077450199151767,
                0.3373840477937111,
                1.2825223937977437,
                0.5844999899646597,
                0.48482968234388224
            ]
        },
        {
            "positions": [
                -0.35454664570611416,
                -0.5077091819861788,
                0.4878525514994265,
                1.3396505116936188,
                0.518759733957471,
                0.442558535360454
            ]
        },
        {
            "positions": [
                -0.3067766119086721,
                -0.5346438619808396,
                0.6383210552051419,
                1.3967786295894937,
                0.4530194779502825,
                0.4002873883770257
            ]
        },
        {
            "positions": [
                -0.25900657811123007,
                -0.5615785419755006,
                0.7887895589108573,
                1.4539067474853686,
                0.38727922194309405,
                0.35801624139359756
            ]
        },
        {
            "positions": [
                -0.21123654431378802,
                -0.5885132219701614,
                0.9392580626165723,
                1.5110348653812435,
                0.32153896593590536,
                0.3157450944101694
            ]
        },
        {
            "positions": [
                -0.16346651051634586,
                -0.6154479019648225,
                1.0897265663222881,
                1.5681629832771187,
                0.2557987099287169,
                0.273473947426741
            ]
        },
        {
            "positions": [
                -0.1156964767189037,
                -0.6423825819594835,
                1.2401950700280036,
                1.6252911011729936,
                0.1900584539215282,
                0.23120280044331287
            ]
        },
        {
            "positions": [
                -0.06792644292146188,
                -0.6693172619541443,
                1.3906635737337185,
                1.6824192190688685,
                0.12431819791433973,
                0.18893165345988472
            ]
        },
        {
            "positions": [
                -0.020156409124019836,
                -0.6962519419488054,
                1.541132077439434,
                1.7395473369647434,
                0.058577941907151265,
                0.14666050647645645
            ]
        },
        {
            "positions": [
                0.027613624673422432,
                -0.7231866219434664,
                1.6916005811451498,
                1.7966754548606185,
                -0.007162314100037426,
                0.10438935949302808
            ]
        },
        {
            "positions": [
                0.07538365847086448,
                -0.7501213019381272,
                1.8420690848508647,
                1.8538035727564934,
                -0.0729025701072259,
                0.062118212509600035
            ]
        },
        {
            "positions": [
                0.12315369226830647,
                -0.7770559819327881,
                1.9925375885565801,
                1.9109316906523683,
                -0.13864282611441447,
                0.019847065526171825
            ]
        }
    ]
}