{
    "goal": {
        "global_pose": {
            "orientation": {
                "w": 0.7047431468963623,
                "x": -0.7094548344612122,
                "y": 0.0024358443915843964,
                "z": -0.0022348060738295317
            },
            "position": {
                "x": 0.6094750761985779,
                "y": 0.3671506643295288,
                "z": 0.19426114857196808
            }
        },
        "name": "move_to_magneteinheit_A"
    },
    "id": "SPARS_move_to_magneteinheit_A_70",
    "joint_names": [
        "shoulder_pan_joint",
        "shoulder_lift_joint",
        "elbow_joint",
        "wrist_1_joint",
        "wrist_2_joint",
        "wrist_3_joint"
    ],
    "metrics": {
        "cart_traj_len": 1.8791018345512094,
        "distance_elbow_joint": 3.9100967594255884,
        "distance_shoulder_lift_joint": 0.6991251907445974,
        "distance_shoulder_pan_joint": 1.241228697359469,
        "distance_wrist_1_joint": 1.4809390801106215,
        "distance_wrist_2_joint": 1.7082872358787187,
        "distance_wrist_3_joint": 1.0932066638473505,
        "smoothness": 3.9474596558118316e-16,
        "time": 5.060398672,
        "traj_len": 3.1832190668199933,
        "weighted_distance": 3.938086244745078
    },
    "planner": "SPARS",
    "start": {
        "state": {
            "elbow_joint": -1.919643507792019,
            "shoulder_lift_joint": -0.07675430207160344,
            "shoulder_pan_joint": -1.1188671864651873,
            "wrist_1_joint": 0.42560062535961957,
            "wrist_2_joint": 1.5706038300724876,
            "wrist_3_joint": 1.1188968870953055
        }
    },
    "waypoints": [
        {
            "positions": [
                -1.1188671864651873,
                -0.07675430207160344,
                -1.919643507792019,
                0.42560062535961957,
                1.5706038300724876,
                1.1188968870953055
            ]
        },
        {
            "positions": [
                -1.0711276211821308,
                -0.1036437324848572,
                -1.769255170891035,
                0.48255982074848963,
                1.504900474846383,
                1.0768504769473306
            ]
        },
        {
            "positions": [
                -1.0233880558990744,
                -0.13053316289811095,
                -1.6188668339900507,
                0.5395190161373596,
                1.4391971196202784,
                1.0348040667993554
            ]
        },
        {
            "positions": [
                -0.9756484906160179,
                -0.15742259331136468,
                -1.4684784970890665,
                0.5964782115262297,
                1.3734937643941738,
                0.9927576566513805
            ]
        },
        {
            "positions": [
                -0.9279089253329613,
                -0.18431202372461844,
                -1.3180901601880823,
                0.6534374069150998,
                1.3077904091680694,
                0.9507112465034054
            ]
        },
        {
            "positions": [
                -0.8801693600499048,
                -0.2112014541378722,
                -1.1677018232870982,
                0.7103966023039698,
                1.2420870539419648,
                0.9086648363554304
            ]
        },
        {
            "positions": [
                -0.8324297947668483,
                -0.23809088455112593,
                -1.017313486386114,
                0.7673557976928399,
                1.1763836987158602,
                0.8666184262074554
            ]
        },
        {
            "positions": [
                -0.7846902294837919,
                -0.2649803149643797,
                -0.86692514948513,
                0.82431499308171,
                1.1106803434897556,
                0.8245720160594805
            ]
        },
        {
            "positions": [
                -0.7369506642007353,
                -0.29186974537763344,
                -0.7165368125841456,
                0.88127418847058,
                1.044976988263651,
                0.7825256059115053
            ]
        },
        {
            "positions": [
                -0.6892110989176788,
                -0.3187591757908872,
                -0.5661484756831616,
                0.9382333838594501,
                0.9792736330375466,
                0.7404791957635304
            ]
        },
        {
            "positions": [
                -0.6414715336346223,
                -0.34564860620414095,
                -0.4157601387821772,
                0.9951925792483203,
                0.913570277811442,
                0.6984327856155553
            ]
        },
        {
            "positions": [
                -0.5937319683515658,
                -0.37253803661739465,
                -0.26537180188119325,
                1.0521517746371902,
                0.8478669225853374,
                0.6563863754675803
            ]
        },
        {
            "positions": [
                -0.5459924030685093,
                -0.3994274670306484,
                -0.11498346498020884,
                1.1091109700260602,
                0.7821635673592328,
                0.6143399653196052
            ]
        },
        {
            "positions": [
                -0.4982528377854528,
                -0.42631689744390217,
                0.03540487192077513,
                1.1660701654149304,
                0.7164602121331283,
                0.5722935551716303
            ]
        },
        {
            "positions": [
                -0.45051327250239637,
                -0.4532063278571559,
                0.1857932088217591,
                1.2230293608038003,
                0.6507568569070238,
                0.5302471450236553
            ]
        },
        {
            "positions": [
                -0.4027737072193399,
                -0.4800957582704096,
                0.33618154572274306,
                1.2799885561926703,
                0.5850535016809192,
                0.4882007348756803
            ]
        },
        {
            "positions": [
                -0.35503414193628324,
                -0.5069851886836634,
                0.4865698826237279,
                1.3369477515815404,
                0.5193501464548145,
                0.4461543247277052
            ]
        },
        {
            "positions": [
                -0.3072945766532268,
                -0.5338746190969171,
                0.6369582195247119,
                1.3939069469704106,
                0.4536467912287101,
                0.40410791457973017
            ]
        },
        {
            "positions": [
                -0.25955501137017034,
                -0.5607640495101709,
                0.7873465564256958,
                1.4508661423592806,
                0.3879434360026055,
                0.3620615044317552
            ]
        },
        {
            "positions": [
                -0.2118154460871139,
                -0.5876534799234245,
                0.9377348933266798,
                1.5078253377481505,
                0.3222400807765009,
                0.32001509428378017
            ]
        },
        {
            "positions": [
                -0.16407588080405722,
                -0.6145429103366784,
                1.0881232302276647,
                1.564784533137021,
                0.2565367255503963,
                0.2779686841358051
            ]
        },
        {
            "positions": [
                -0.11633631552100088,
                -0.641432340749932,
                1.2385115671286486,
                1.6217437285258909,
                0.1908333703242917,
                0.23592227398783006
            ]
        },
        {
            "positions": [
                -0.06859675023794432,
                -0.6683217711631859,
                1.3888999040296326,
                1.6787029239147608,
                0.1251300150981871,
                0.1938758638398551
            ]
        },
        {
            "positions": [
                -0.020857184954887753,
                -0.6952112015764396,
                1.5392882409306166,
                1.7356621193036308,
                0.05942665987208273,
                0.15182945369188006
            ]
        },
        {
            "positions": [
                0.02688238032816881,
                -0.7221006319896934,
                1.6896765778316014,
                1.792621314692501,
                -0.006276695354022088,
                0.10978304354390489
            ]
        },
        {
            "positions": [
                0.07462194561122515,
                -0.7489900624029471,
                1.8400649147325854,
                1.8495805100813711,
                -0.07198005058012646,
                0.06773663339592995
            ]
        },
        {
            "positions": [
                0.12236151089428178,
                -0.7758794928162009,
                1.9904532516335693,
                1.906539705470241,
                -0.13768340580623106,
                0.02569022324795502
            ]
        }
    ]
}