{
    "goal": {
        "global_pose": {
            "orientation": {
                "w": 0.7031023502349854,
                "x": -0.7110244035720825,
                "y": 0.007748599164187908,
                "z": 0.005598929710686207
            },
            "position": {
                "x": 0.11585023208521307,
                "y": 0.44412534475326537,
                "z": 0.3711530566215515
            }
        },
        "name": "move_to_auspresseinheit_A"
    },
    "id": "SPARS_move_to_auspresseinheit_A_117",
    "joint_names": [
        "shoulder_pan_joint",
        "shoulder_lift_joint",
        "elbow_joint",
        "wrist_1_joint",
        "wrist_2_joint",
        "wrist_3_joint"
    ],
    "metrics": {
        "cart_traj_len": 1.6803157168055476,
        "distance_elbow_joint": 1.7537574965281122,
        "distance_shoulder_lift_joint": 0.5322125390177823,
        "distance_shoulder_pan_joint": 1.0475963909700363,
        "distance_wrist_1_joint": 0.5657168569250939,
        "distance_wrist_2_joint": 0.5112757659586064,
        "distance_wrist_3_joint": 0.2614665443738424,
        "smoothness": 0.9959368487399116,
        "time": 5.02616256,
        "traj_len": 2.1614868941942427,
        "weighted_distance": 2.5043864129572455
    },
    "planner": "SPARS",
    "start": {
        "state": {
            "elbow_joint": 2.422574709923281,
            "shoulder_lift_joint": -1.3736533754116391,
            "shoulder_pan_joint": -0.33786336945926293,
            "wrist_1_joint": -1.0288603412921917,
            "wrist_2_joint": 1.2330224858903978,
            "wrist_3_joint": -3.094022268022082
        }
    },
    "waypoints": [
        {
            "positions": [
                -0.33786336945926293,
                -1.3736533754116391,
                2.422574709923281,
                -1.0288603412921917,
                1.2330224858903978,
                -3.094022268022082
            ]
        },
        {
            "positions": [
                -0.31528419955417825,
                -1.4406899124890136,
                2.29516045302037,
                -0.9623059718500614,
                1.1898053596100033,
                -3.1156976805142524
            ]
        },
        {
            "positions": [
                -0.2927050296490935,
                -1.507726449566388,
                2.167746196117459,
                -0.8957516024079311,
                1.1465882333296087,
                -3.137373093006423
            ]
        },
        {
            "positions": [
                -0.2701258597440088,
                -1.5747629866437627,
                2.040331939214548,
                -0.8291972329658007,
                1.1033711070492143,
                -3.1590485054985935
            ]
        },
        {
            "positions": [
                -0.24754668983892414,
                -1.6417995237211371,
                1.9129176823116372,
                -0.7626428635236704,
                1.0601539807688198,
                -3.1807239179907643
            ]
        },
        {
            "positions": [
                -0.22496751993383943,
                -1.7088360607985118,
                1.7855034254087259,
                -0.6960884940815399,
                1.0169368544884252,
                -3.2023993304829346
            ]
        },
        {
            "positions": [
                -0.20238835002875474,
                -1.7758725978758862,
                1.658089168505815,
                -0.6295341246394097,
                0.9737197282080308,
                -3.2240747429751053
            ]
        },
        {
            "positions": [
                -0.17980918012367003,
                -1.8429091349532607,
                1.530674911602904,
                -0.5629797551972793,
                0.9305026019276362,
                -3.2457501554672756
            ]
        },
        {
            "positions": [
                -0.03155214651792948,
                -1.853401931532621,
                1.6743178613041931,
                -0.5463403767255823,
                0.8957099549283287,
                -3.2274603793125007
            ]
        },
        {
            "positions": [
                0.11670488708781107,
                -1.8638947281119809,
                1.8179608110054821,
                -0.5297009982538855,
                0.8609173079290213,
                -3.209170603157726
            ]
        },
        {
            "positions": [
                0.2649619206935517,
                -1.874387524691341,
                1.9616037607067716,
                -0.5130616197821886,
                0.8261246609297138,
                -3.1908808270029514
            ]
        },
        {
            "positions": [
                0.4132189542992922,
                -1.8848803212707013,
                2.1052467104080606,
                -0.4964222413104917,
                0.7913320139304063,
                -3.1725910508481765
            ]
        },
        {
            "positions": [
                0.5614759879050328,
                -1.8953731178500612,
                2.24888966010935,
                -0.47978286283879473,
                0.7565393669310989,
                -3.1543012746934016
            ]
        },
        {
            "positions": [
                0.7097330215107734,
                -1.9058659144294214,
                2.392532609810639,
                -0.46314348436709785,
                0.7217467199317914,
                -3.1360114985386267
            ]
        }
    ]
}