{
    "goal": {
        "global_pose": {
            "orientation": {
                "w": 0.7047431468963623,
                "x": -0.7094548344612122,
                "y": 0.0024358443915843964,
                "z": -0.0022348060738295317
            },
            "position": {
                "x": 0.6094750761985779,
                "y": 0.3671506643295288,
                "z": 0.19426114857196808
            }
        },
        "name": "move_to_magneteinheit_A"
    },
    "id": "SPARS_move_to_magneteinheit_A_93",
    "joint_names": [
        "shoulder_pan_joint",
        "shoulder_lift_joint",
        "elbow_joint",
        "wrist_1_joint",
        "wrist_2_joint",
        "wrist_3_joint"
    ],
    "metrics": {
        "cart_traj_len": 1.8686253899010747,
        "distance_elbow_joint": 3.934965515485456,
        "distance_shoulder_lift_joint": 0.7098683932436909,
        "distance_shoulder_pan_joint": 1.2404629405297094,
        "distance_wrist_1_joint": 1.5786145286780198,
        "distance_wrist_2_joint": 1.6919288370821388,
        "distance_wrist_3_joint": 1.2098953714460967,
        "smoothness": 3.806478953818552e-16,
        "time": 5.027940056,
        "traj_len": 3.2195862446073895,
        "weighted_distance": 4.007002582369702
    },
    "planner": "SPARS",
    "start": {
        "state": {
            "elbow_joint": -1.919643507792019,
            "shoulder_lift_joint": -0.07675430207160344,
            "shoulder_pan_joint": -1.1188671864651873,
            "wrist_1_joint": 0.42560062535961957,
            "wrist_2_joint": 1.5706038300724876,
            "wrist_3_joint": 1.1188968870953055
        }
    },
    "waypoints": [
        {
            "positions": [
                -1.1188671864651873,
                -0.07675430207160344,
                -1.919643507792019,
                0.42560062535961957,
                1.5706038300724876,
                1.1188968870953055
            ]
        },
        {
            "positions": [
                -1.0729241145937167,
                -0.103045724043592,
                -1.7739040442555207,
                0.48406783012547216,
                1.5079397990694454,
                1.0740859474121167
            ]
        },
        {
            "positions": [
                -1.0269810427222459,
                -0.12933714601558055,
                -1.6281645807190224,
                0.5425350348913247,
                1.4452757680664032,
                1.029275007728928
            ]
        },
        {
            "positions": [
                -0.9810379708507753,
                -0.15562856798756908,
                -1.482425117182524,
                0.6010022396571773,
                1.382611737063361,
                0.9844640680457393
            ]
        },
        {
            "positions": [
                -0.9350948989793044,
                -0.18191998995955766,
                -1.3366856536460257,
                0.6594694444230299,
                1.3199477060603189,
                0.9396531283625504
            ]
        },
        {
            "positions": [
                -0.8891518271078338,
                -0.2082114119315462,
                -1.1909461901095273,
                0.7179366491888824,
                1.2572836750572767,
                0.8948421886793617
            ]
        },
        {
            "positions": [
                -0.8432087552363631,
                -0.23450283390353474,
                -1.045206726573029,
                0.7764038539547351,
                1.1946196440542345,
                0.850031248996173
            ]
        },
        {
            "positions": [
                -0.7972656833648923,
                -0.2607942558755233,
                -0.8994672630365306,
                0.8348710587205876,
                1.1319556130511923,
                0.8052203093129842
            ]
        },
        {
            "positions": [
                -0.7513226114934216,
                -0.2870856778475118,
                -0.7537277995000322,
                0.8933382634864402,
                1.0692915820481503,
                0.7604093696297954
            ]
        },
        {
            "positions": [
                -0.7053795396219509,
                -0.3133770998195004,
                -0.6079883359635339,
                0.9518054682522927,
                1.0066275510451081,
                0.7155984299466067
            ]
        },
        {
            "positions": [
                -0.6594364677504803,
                -0.33966852179148893,
                -0.4622488724270355,
                1.0102726730181453,
                0.9439635200420659,
                0.6707874902634179
            ]
        },
        {
            "positions": [
                -0.6134933958790094,
                -0.3659599437634775,
                -0.31650940889053714,
                1.068739877783998,
                0.8812994890390237,
                0.6259765505802292
            ]
        },
        {
            "positions": [
                -0.5675503240075388,
                -0.39225136573546604,
                -0.17076994535403878,
                1.1272070825498506,
                0.8186354580359815,
                0.5811656108970403
            ]
        },
        {
            "positions": [
                -0.5216072521360681,
                -0.41854278770745457,
                -0.025030481817540418,
                1.1856742873157031,
                0.7559714270329393,
                0.5363546712138516
            ]
        },
        {
            "positions": [
                -0.47566418026459734,
                -0.44483420967944315,
                0.12070898171895794,
                1.2441414920815557,
                0.6933073960298971,
                0.4915437315306629
            ]
        },
        {
            "positions": [
                -0.4297211083931265,
                -0.47112563165143173,
                0.26644844525545675,
                1.3026086968474084,
                0.6306433650268549,
                0.44673279184747405
            ]
        },
        {
            "positions": [
                -0.3837780365216559,
                -0.49741705362342026,
                0.41218790879195466,
                1.3610759016132608,
                0.5679793340238128,
                0.40192185216428533
            ]
        },
        {
            "positions": [
                -0.33783496465018514,
                -0.5237084755954089,
                0.5579273723284535,
                1.4195431063791135,
                0.5053153030207704,
                0.3571109124810965
            ]
        },
        {
            "positions": [
                -0.2918918927787144,
                -0.5499998975673974,
                0.7036668358649514,
                1.478010311144966,
                0.44265127201772847,
                0.3122999727979078
            ]
        },
        {
            "positions": [
                -0.24594882090724368,
                -0.576291319539386,
                0.8494062994014502,
                1.5364775159108188,
                0.3799872410146863,
                0.26748903311471894
            ]
        },
        {
            "positions": [
                -0.20000574903577306,
                -0.6025827415113745,
                0.9951457629379481,
                1.5949447206766711,
                0.3173232100116441,
                0.22267809343153022
            ]
        },
        {
            "positions": [
                -0.15406267716430222,
                -0.628874163483363,
                1.140885226474447,
                1.653411925442524,
                0.2546591790086019,
                0.1778671537483414
            ]
        },
        {
            "positions": [
                -0.10811960529283149,
                -0.6551655854553515,
                1.2866246900109448,
                1.7118791302083765,
                0.19199514800555972,
                0.13305621406515278
            ]
        },
        {
            "positions": [
                -0.06217653342136087,
                -0.6814570074273401,
                1.4323641535474436,
                1.770346334974229,
                0.12933111700251754,
                0.08824527438196395
            ]
        },
        {
            "positions": [
                -0.01623346154989025,
                -0.7077484293993286,
                1.5781036170839415,
                1.8288135397400815,
                0.06666708599947535,
                0.04343433469877511
            ]
        },
        {
            "positions": [
                0.029709610321580593,
                -0.7340398513713173,
                1.7238430806204403,
                1.8872807445059343,
                0.004003054996433164,
                -0.0013766049844137207
            ]
        },
        {
            "positions": [
                0.07565268219305121,
                -0.7603312733433056,
                1.8695825441569383,
                1.9457479492717866,
                -0.05866097600660902,
                -0.04618754466760233
            ]
        },
        {
            "positions": [
                0.12159575406452211,
                -0.7866226953152944,
                2.0153220076934373,
                2.0042151540376394,
                -0.12132500700965124,
                -0.09099848435079114
            ]
        }
    ]
}