{
    "goal": {
        "global_pose": {
            "orientation": {
                "w": 0.5084816217422485,
                "x": -0.49083608388900757,
                "y": 0.5182115435600281,
                "z": -0.4816462993621826
            },
            "position": {
                "x": 0.5540239810943604,
                "y": 0.030875300988554955,
                "z": 0.16403168439865112
            }
        },
        "name": "move_to_storage_A"
    },
    "id": "SPARS_move_to_storage_A_40",
    "joint_names": [
        "shoulder_pan_joint",
        "shoulder_lift_joint",
        "elbow_joint",
        "wrist_1_joint",
        "wrist_2_joint",
        "wrist_3_joint"
    ],
    "metrics": {
        "cart_traj_len": 0.353654481690623,
        "distance_elbow_joint": 0.44922644721343463,
        "distance_shoulder_lift_joint": 0.23359995807954004,
        "distance_shoulder_pan_joint": 0.4616598523559991,
        "distance_wrist_1_joint": 0.24232063550586658,
        "distance_wrist_2_joint": 1.1027149463129733,
        "distance_wrist_3_joint": 0.10248244919381522,
        "smoothness": 1.998401446083499e-15,
        "time": 5.008625478,
        "traj_len": 1.609970275707483,
        "weighted_distance": 2.0351915803845344
    },
    "planner": "SPARS",
    "start": {
        "state": {
            "elbow_joint": 1.9715463870305268,
            "shoulder_lift_joint": -1.1394903361783484,
            "shoulder_pan_joint": 0.12281147578464417,
            "wrist_1_joint": -0.7804599489681411,
            "wrist_2_joint": 0.12958660307563738,
            "wrist_3_joint": -3.1924946282119055
        }
    },
    "waypoints": [
        {
            "positions": [
                0.12281147578464417,
                -1.1394903361783484,
                1.9715463870305268,
                -0.7804599489681411,
                0.12958660307563738,
                -3.1924946282119055
            ]
        },
        {
            "positions": [
                0.05686006830521573,
                -1.1728617587611398,
                2.0357215937753033,
                -0.8150771826118363,
                0.2871173096917764,
                -3.1778542783270747
            ]
        },
        {
            "positions": [
                -0.009091339174212718,
                -1.2062331813439313,
                2.0998968005200793,
                -0.8496944162555315,
                0.4446480163079154,
                -3.1632139284422442
            ]
        },
        {
            "positions": [
                -0.07504274665364115,
                -1.2396046039267228,
                2.164072007264856,
                -0.8843116498992267,
                0.6021787229240545,
                -3.1485735785574134
            ]
        },
        {
            "positions": [
                -0.1409941541330696,
                -1.272976026509514,
                2.2282472140096323,
                -0.918928883542922,
                0.7597094295401935,
                -3.1339332286725825
            ]
        },
        {
            "positions": [
                -0.20694556161249805,
                -1.3063474490923055,
                2.292422420754409,
                -0.9535461171866172,
                0.9172401361563326,
                -3.1192928787877516
            ]
        },
        {
            "positions": [
                -0.27289696909192646,
                -1.339718871675097,
                2.356597627499185,
                -0.9881633508303125,
                1.0747708427724716,
                -3.104652528902921
            ]
        },
        {
            "positions": [
                -0.3388483765713549,
                -1.3730902942578884,
                2.4207728342439614,
                -1.0227805844740077,
                1.2323015493886107,
                -3.0900121790180903
            ]
        }
    ]
}