{
    "goal": {
        "global_pose": {
            "orientation": {
                "w": 0.5084816217422485,
                "x": -0.49083608388900757,
                "y": 0.5182115435600281,
                "z": -0.4816462993621826
            },
            "position": {
                "x": 0.5540239810943604,
                "y": 0.030875300988554955,
                "z": 0.16403168439865112
            }
        },
        "name": "move_to_storage_A"
    },
    "id": "SPARS_move_to_storage_A_108",
    "joint_names": [
        "shoulder_pan_joint",
        "shoulder_lift_joint",
        "elbow_joint",
        "wrist_1_joint",
        "wrist_2_joint",
        "wrist_3_joint"
    ],
    "metrics": {
        "cart_traj_len": 0.352765265381656,
        "distance_elbow_joint": 0.45084311142941624,
        "distance_shoulder_lift_joint": 0.23593180296227256,
        "distance_shoulder_pan_joint": 0.4602164486426555,
        "distance_wrist_1_joint": 0.24029420185535477,
        "distance_wrist_2_joint": 1.104093801953508,
        "distance_wrist_3_joint": 0.08784005768255332,
        "smoothness": 6.661338165333112e-16,
        "time": 5.006810779,
        "traj_len": 1.6059948395078236,
        "weighted_distance": 2.0246697369447024
    },
    "planner": "SPARS",
    "start": {
        "state": {
            "elbow_joint": 1.9715463870305268,
            "shoulder_lift_joint": -1.1394903361783484,
            "shoulder_pan_joint": 0.12281147578464417,
            "wrist_1_joint": -0.7804599489681411,
            "wrist_2_joint": 0.12958660307563738,
            "wrist_3_joint": -3.1924946282119055
        }
    },
    "waypoints": [
        {
            "positions": [
                0.12281147578464417,
                -1.1394903361783484,
                1.9715463870305268,
                -0.7804599489681411,
                0.12958660307563738,
                -3.1924946282119055
            ]
        },
        {
            "positions": [
                0.05706626883569339,
                -1.173194879458673,
                2.0359525458061576,
                -0.8147876920903346,
                0.2873142890689957,
                -3.1799460485429694
            ]
        },
        {
            "positions": [
                -0.008678938113257387,
                -1.2068994227389978,
                2.1003587045817884,
                -0.8491154352125282,
                0.445041975062354,
                -3.167397468874033
            ]
        },
        {
            "positions": [
                -0.07442414506220817,
                -1.2406039660193224,
                2.1647648633574192,
                -0.8834431783347216,
                0.6027696610557123,
                -3.154848889205097
            ]
        },
        {
            "positions": [
                -0.14016935201115893,
                -1.274308509299647,
                2.22917102213305,
                -0.9177709214569152,
                0.7604973470490706,
                -3.142300309536161
            ]
        },
        {
            "positions": [
                -0.20591455896010974,
                -1.3080130525799716,
                2.2935771809086813,
                -0.9520986645791087,
                0.9182250330424289,
                -3.1297517298672246
            ]
        },
        {
            "positions": [
                -0.2716597659090605,
                -1.3417175958602963,
                2.357983339684312,
                -0.9864264077013023,
                1.0759527190357872,
                -3.1172031501982884
            ]
        },
        {
            "positions": [
                -0.3374049728580113,
                -1.375422139140621,
                2.422389498459943,
                -1.0207541508234959,
                1.2336804050291454,
                -3.1046545705293522
            ]
        }
    ]
}