{
    "goal": {
        "global_pose": {
            "orientation": {
                "w": 0.7031023502349854,
                "x": -0.7110244035720825,
                "y": 0.007748599164187908,
                "z": 0.005598929710686207
            },
            "position": {
                "x": 0.11585023208521307,
                "y": 0.44412534475326537,
                "z": 0.3711530566215515
            }
        },
        "name": "move_to_auspresseinheit_A"
    },
    "id": "SPARS_move_to_auspresseinheit_A_147",
    "joint_names": [
        "shoulder_pan_joint",
        "shoulder_lift_joint",
        "elbow_joint",
        "wrist_1_joint",
        "wrist_2_joint",
        "wrist_3_joint"
    ],
    "metrics": {
        "cart_traj_len": 0.6900894794371097,
        "distance_elbow_joint": 0.13748771473231036,
        "distance_shoulder_lift_joint": 0.5400108441959846,
        "distance_shoulder_pan_joint": 1.0443036065176443,
        "distance_wrist_1_joint": 1.1577884164035894,
        "distance_wrist_2_joint": 1.641149098962043,
        "distance_wrist_3_joint": 0.7010978843444633,
        "smoothness": 1.1263904575531565,
        "time": 5.054208871,
        "traj_len": 2.2851340365842954,
        "weighted_distance": 3.069685789980889
    },
    "planner": "SPARS",
    "start": {
        "state": {
            "elbow_joint": 2.422574709923281,
            "shoulder_lift_joint": -1.3736533754116391,
            "shoulder_pan_joint": -0.33786336945926293,
            "wrist_1_joint": -1.0288603412921917,
            "wrist_2_joint": 1.2330224858903978,
            "wrist_3_joint": -3.094022268022082
        }
    },
    "waypoints": [
        {
            "positions": [
                -0.33786336945926293,
                -1.3736533754116391,
                2.422574709923281,
                -1.0288603412921917,
                1.2330224858903978,
                -3.094022268022082
            ]
        },
        {
            "positions": [
                -0.26502862561832913,
                -1.4262652779243936,
                2.4306276643478593,
                -1.0722683852604422,
                1.0787960158070111,
                -3.0455844170324333
            ]
        },
        {
            "positions": [
                -0.19219388177739535,
                -1.4788771804371479,
                2.438680618772438,
                -1.1156764292286927,
                0.9245695457236244,
                -2.997146566042785
            ]
        },
        {
            "positions": [
                -0.11935913793646158,
                -1.5314890829499024,
                2.446733573197016,
                -1.159084473196943,
                0.7703430756402376,
                -2.948708715053136
            ]
        },
        {
            "positions": [
                -0.04652439409552778,
                -1.5841009854626569,
                2.4547865276215948,
                -1.2024925171651935,
                0.616116605556851,
                -2.9002708640634873
            ]
        },
        {
            "positions": [
                0.026310349745406025,
                -1.6367128879754111,
                2.462839482046173,
                -1.245900561133444,
                0.46189013547346425,
                -2.8518330130738385
            ]
        },
        {
            "positions": [
                0.09914509358633977,
                -1.6893247904881656,
                2.4708924364707516,
                -1.2893086051016944,
                0.3076636653900776,
                -2.80339516208419
            ]
        },
        {
            "positions": [
                0.17197983742727357,
                -1.7419366930009201,
                2.47894539089533,
                -1.332716649069945,
                0.1534371953066908,
                -2.7549573110945413
            ]
        },
        {
            "positions": [
                0.2483313230888604,
                -1.7664691968018778,
                2.4673572432152926,
                -1.2107263478376826,
                0.23366059650359594,
                -2.80667630072553
            ]
        },
        {
            "positions": [
                0.32468280875044725,
                -1.7910017006028354,
                2.455769095535255,
                -1.0887360466054203,
                0.313883997700501,
                -2.858395290356519
            ]
        },
        {
            "positions": [
                0.4010342944120341,
                -1.815534204403793,
                2.4441809478552177,
                -0.966745745373158,
                0.3941073988974062,
                -2.910114279987508
            ]
        },
        {
            "positions": [
                0.4773857800736209,
                -1.8400667082047508,
                2.4325928001751804,
                -0.8447554441408957,
                0.4743308000943113,
                -2.9618332696184972
            ]
        },
        {
            "positions": [
                0.5537372657352078,
                -1.8645992120057084,
                2.421004652495143,
                -0.7227651429086333,
                0.5545542012912164,
                -3.013552259249486
            ]
        },
        {
            "positions": [
                0.6300887513967945,
                -1.889131715806666,
                2.4094165048151055,
                -0.6007748416763711,
                0.6347776024881215,
                -3.065271248880475
            ]
        },
        {
            "positions": [
                0.7064402370583814,
                -1.9136642196076237,
                2.3978283571350683,
                -0.4787845404441086,
                0.7150010036850267,
                -3.116990238511464
            ]
        }
    ]
}