{
    "goal": {
        "global_pose": {
            "orientation": {
                "w": 0.5084816217422485,
                "x": -0.49083608388900757,
                "y": 0.5182115435600281,
                "z": -0.4816462993621826
            },
            "position": {
                "x": 0.5540239810943604,
                "y": 0.030875300988554955,
                "z": 0.16403168439865112
            }
        },
        "name": "move_to_storage_A"
    },
    "id": "SPARS_move_to_storage_A_10",
    "joint_names": [
        "shoulder_pan_joint",
        "shoulder_lift_joint",
        "elbow_joint",
        "wrist_1_joint",
        "wrist_2_joint",
        "wrist_3_joint"
    ],
    "metrics": {
        "cart_traj_len": 0.3535281473973005,
        "distance_elbow_joint": 0.4479106724350901,
        "distance_shoulder_lift_joint": 0.23474964894503292,
        "distance_shoulder_pan_joint": 0.4610726550165096,
        "distance_wrist_1_joint": 0.23528142487710368,
        "distance_wrist_2_joint": 1.1047119015332119,
        "distance_wrist_3_joint": 0.10485065402096883,
        "smoothness": 8.881784197001252e-16,
        "time": 5.002708232,
        "traj_len": 1.6089055151959413,
        "weighted_distance": 2.0342742173267028
    },
    "planner": "SPARS",
    "start": {
        "state": {
            "elbow_joint": 1.9715463870305268,
            "shoulder_lift_joint": -1.1394903361783484,
            "shoulder_pan_joint": 0.12281147578464417,
            "wrist_1_joint": -0.7804599489681411,
            "wrist_2_joint": 0.12958660307563738,
            "wrist_3_joint": -3.1924946282119055
        }
    },
    "waypoints": [
        {
            "positions": [
                0.12281147578464417,
                -1.1394903361783484,
                1.9715463870305268,
                -0.7804599489681411,
                0.12958660307563738,
                -3.1924946282119055
            ]
        },
        {
            "positions": [
                0.056943953639428516,
                -1.173026000313353,
                2.0355336259498253,
                -0.8140715810934416,
                0.2874025890089533,
                -3.1775159633517673
            ]
        },
        {
            "positions": [
                -0.008923568505787141,
                -1.2065616644483579,
                2.099520864869124,
                -0.8476832132187422,
                0.44521857494226935,
                -3.1625372984916287
            ]
        },
        {
            "positions": [
                -0.0747910906510028,
                -1.2400973285833625,
                2.1635081037884225,
                -0.8812948453440427,
                0.6030345608755853,
                -3.1475586336314905
            ]
        },
        {
            "positions": [
                -0.14065861279621844,
                -1.2736329927183672,
                2.227495342707721,
                -0.9149064774693432,
                0.7608505468089013,
                -3.132579968771352
            ]
        },
        {
            "positions": [
                -0.20652613494143413,
                -1.307168656853372,
                2.2914825816270197,
                -0.9485181095946438,
                0.9186665327422173,
                -3.1176013039112136
            ]
        },
        {
            "positions": [
                -0.27239365708664975,
                -1.3407043209883767,
                2.3554698205463183,
                -0.9821297417199442,
                1.0764825186755331,
                -3.102622639051075
            ]
        },
        {
            "positions": [
                -0.33826117923186544,
                -1.3742399851233813,
                2.419457059465617,
                -1.0157413738452448,
                1.2342985046088493,
                -3.0876439741909367
            ]
        }
    ]
}