{
    "goal": {
        "global_pose": {
            "orientation": {
                "w": 0.7031023502349854,
                "x": -0.7110244035720825,
                "y": 0.007748599164187908,
                "z": 0.005598929710686207
            },
            "position": {
                "x": 0.11585023208521307,
                "y": 0.44412534475326537,
                "z": 0.3711530566215515
            }
        },
        "name": "move_to_auspresseinheit_A"
    },
    "id": "SPARS_move_to_auspresseinheit_A_89",
    "joint_names": [
        "shoulder_pan_joint",
        "shoulder_lift_joint",
        "elbow_joint",
        "wrist_1_joint",
        "wrist_2_joint",
        "wrist_3_joint"
    ],
    "metrics": {
        "cart_traj_len": 1.5146074792855275,
        "distance_elbow_joint": 0.030328286249411196,
        "distance_shoulder_lift_joint": 0.6214025057292072,
        "distance_shoulder_pan_joint": 3.2232232346369143,
        "distance_wrist_1_joint": 1.0491318558564715,
        "distance_wrist_2_joint": 1.9141859142667297,
        "distance_wrist_3_joint": 0.041247630364461774,
        "smoothness": 1.1022060864911971,
        "time": 5.016982919,
        "traj_len": 2.622883799771388,
        "weighted_distance": 3.1504495644201826
    },
    "planner": "SPARS",
    "start": {
        "state": {
            "elbow_joint": 2.422574709923281,
            "shoulder_lift_joint": -1.3736533754116391,
            "shoulder_pan_joint": -0.33786336945926293,
            "wrist_1_joint": -1.0288603412921917,
            "wrist_2_joint": 1.2330224858903978,
            "wrist_3_joint": -3.094022268022082
        }
    },
    "waypoints": [
        {
            "positions": [
                -0.33786336945926293,
                -1.3736533754116391,
                2.422574709923281,
                -1.0288603412921917,
                1.2330224858903978,
                -3.094022268022082
            ]
        },
        {
            "positions": [
                -0.4590222100068286,
                -1.4377433547061464,
                2.419213005919061,
                -1.0558257378378468,
                1.0970469329208865,
                -3.0961561562894913
            ]
        },
        {
            "positions": [
                -0.5801810505543943,
                -1.5018333340006536,
                2.415851301914841,
                -1.0827911343835022,
                0.961071379951375,
                -3.098290044556901
            ]
        },
        {
            "positions": [
                -0.7013398911019599,
                -1.5659233132951609,
                2.412489597910621,
                -1.1097565309291573,
                0.8250958269818638,
                -3.10042393282431
            ]
        },
        {
            "positions": [
                -0.8224987316495256,
                -1.630013292589668,
                2.409127893906401,
                -1.1367219274748126,
                0.6891202740123524,
                -3.1025578210917195
            ]
        },
        {
            "positions": [
                -0.9436575721970912,
                -1.6941032718841753,
                2.405766189902181,
                -1.1636873240204677,
                0.553144721042841,
                -3.1046917093591286
            ]
        },
        {
            "positions": [
                -1.0648164127446569,
                -1.7581932511786824,
                2.402404485897961,
                -1.190652720566123,
                0.4171691680733297,
                -3.106825597626538
            ]
        },
        {
            "positions": [
                -1.1859752532922228,
                -1.8222832304731897,
                2.399042781893741,
                -1.2176181171117781,
                0.28119361510381835,
                -3.1089594858939473
            ]
        },
        {
            "positions": [
                -1.3071340938397882,
                -1.8863732097676968,
                2.3956810778895212,
                -1.2445835136574335,
                0.1452180621343071,
                -3.111093374161357
            ]
        },
        {
            "positions": [
                -1.428292934387354,
                -1.9504631890622042,
                2.392319373885301,
                -1.2715489102030886,
                0.009242509164795687,
                -3.113227262428766
            ]
        },
        {
            "positions": [
                -1.2150135674164717,
                -1.94600391985434,
                2.392312078864158,
                -1.190904581508531,
                0.0782831029189084,
                -3.115431526024544
            ]
        },
        {
            "positions": [
                -1.0017342004455894,
                -1.9415446506464757,
                2.3923047838430147,
                -1.1102602528139736,
                0.14732369667302112,
                -3.1176357896203215
            ]
        },
        {
            "positions": [
                -0.7884548334747071,
                -1.9370853814386115,
                2.3922974888218715,
                -1.0296159241194163,
                0.21636429042713382,
                -3.1198400532160995
            ]
        },
        {
            "positions": [
                -0.5751754665038248,
                -1.9326261122307473,
                2.3922901938007284,
                -0.9489715954248588,
                0.28540488418124654,
                -3.122044316811877
            ]
        },
        {
            "positions": [
                -0.36189609953294255,
                -1.928166843022883,
                2.3922828987795857,
                -0.8683272667303013,
                0.35444547793535924,
                -3.124248580407655
            ]
        },
        {
            "positions": [
                -0.1486167325620602,
                -1.923707573815019,
                2.3922756037584425,
                -0.7876829380357437,
                0.42348607168947194,
                -3.126452844003433
            ]
        },
        {
            "positions": [
                0.06466263440882192,
                -1.9192483046071547,
                2.3922683087372993,
                -0.7070386093411863,
                0.49252666544358464,
                -3.1286571075992105
            ]
        },
        {
            "positions": [
                0.2779420013797045,
                -1.9147890353992905,
                2.392261013716156,
                -0.6263942806466288,
                0.5615672591976975,
                -3.1308613711949884
            ]
        },
        {
            "positions": [
                0.4912213683505866,
                -1.9103297661914262,
                2.392253718695013,
                -0.5457499519520713,
                0.6306078529518102,
                -3.133065634790766
            ]
        },
        {
            "positions": [
                0.7045007353214691,
                -1.905870496983562,
                2.39224642367387,
                -0.465105623257514,
                0.6996484467059229,
                -3.135269898386544
            ]
        }
    ]
}