{
    "goal": {
        "global_pose": {
            "orientation": {
                "w": 0.5084816217422485,
                "x": -0.49083608388900757,
                "y": 0.5182115435600281,
                "z": -0.4816462993621826
            },
            "position": {
                "x": 0.5540239810943604,
                "y": 0.030875300988554955,
                "z": 0.16403168439865112
            }
        },
        "name": "move_to_storage_A"
    },
    "id": "SPARS_move_to_storage_A_58",
    "joint_names": [
        "shoulder_pan_joint",
        "shoulder_lift_joint",
        "elbow_joint",
        "wrist_1_joint",
        "wrist_2_joint",
        "wrist_3_joint"
    ],
    "metrics": {
        "cart_traj_len": 0.35346850758724313,
        "distance_elbow_joint": 0.4492181484178168,
        "distance_shoulder_lift_joint": 0.23280696769355713,
        "distance_shoulder_pan_joint": 0.46417841884386596,
        "distance_wrist_1_joint": 0.24151951736349797,
        "distance_wrist_2_joint": 1.0902170828076199,
        "distance_wrist_3_joint": 0.08696474101274188,
        "smoothness": 0.0,
        "time": 5.077085223,
        "traj_len": 1.6015320403098714,
        "weighted_distance": 2.017565601990602
    },
    "planner": "SPARS",
    "start": {
        "state": {
            "elbow_joint": 1.9715463870305268,
            "shoulder_lift_joint": -1.1394903361783484,
            "shoulder_pan_joint": 0.12281147578464417,
            "wrist_1_joint": -0.7804599489681411,
            "wrist_2_joint": 0.12958660307563738,
            "wrist_3_joint": -3.1924946282119055
        }
    },
    "waypoints": [
        {
            "positions": [
                0.12281147578464417,
                -1.1394903361783484,
                1.9715463870305268,
                -0.7804599489681411,
                0.12958660307563738,
                -3.1924946282119055
            ]
        },
        {
            "positions": [
                0.056500273092663325,
                -1.1727484744202852,
                2.035720408233072,
                -0.8149627371629266,
                0.2853319006195831,
                -3.180071093781514
            ]
        },
        {
            "positions": [
                -0.009810929599317522,
                -1.2060066126622218,
                2.099894429435617,
                -0.8494655253577119,
                0.44107719816352875,
                -3.167647559351122
            ]
        },
        {
            "positions": [
                -0.07612213229129837,
                -1.2392647509041586,
                2.1640684506381627,
                -0.8839683135524974,
                0.5968224957074745,
                -3.1552240249207304
            ]
        },
        {
            "positions": [
                -0.1424333349832792,
                -1.2725228891460953,
                2.2282424718407077,
                -0.9184711017472827,
                0.7525677932514202,
                -3.142800490490339
            ]
        },
        {
            "positions": [
                -0.20874453767526008,
                -1.3057810273880321,
                2.292416493043253,
                -0.9529738899420682,
                0.9083130907953659,
                -3.1303769560599473
            ]
        },
        {
            "positions": [
                -0.2750557403672409,
                -1.3390391656299687,
                2.356590514245798,
                -0.9874766781368536,
                1.0640583883393115,
                -3.1179534216295552
            ]
        },
        {
            "positions": [
                -0.3413669430592218,
                -1.3722973038719055,
                2.4207645354483436,
                -1.021979466331639,
                1.2198036858832573,
                -3.1055298871991637
            ]
        }
    ]
}