{
    "goal": {
        "global_pose": {
            "orientation": {
                "w": 0.7031023502349854,
                "x": -0.7110244035720825,
                "y": 0.007748599164187908,
                "z": 0.005598929710686207
            },
            "position": {
                "x": 0.11585023208521307,
                "y": 0.44412534475326537,
                "z": 0.3711530566215515
            }
        },
        "name": "move_to_auspresseinheit_A"
    },
    "id": "SPARS_move_to_auspresseinheit_A_96",
    "joint_names": [
        "shoulder_pan_joint",
        "shoulder_lift_joint",
        "elbow_joint",
        "wrist_1_joint",
        "wrist_2_joint",
        "wrist_3_joint"
    ],
    "metrics": {
        "cart_traj_len": 2.3878010080073584,
        "distance_elbow_joint": 2.5070518304046003,
        "distance_shoulder_lift_joint": 1.0328307857290115,
        "distance_shoulder_pan_joint": 1.6868008143796793,
        "distance_wrist_1_joint": 2.4245648024891007,
        "distance_wrist_2_joint": 0.6953966359003827,
        "distance_wrist_3_joint": 5.021017133301548,
        "smoothness": 0.6933705831577158,
        "time": 5.075023134,
        "traj_len": 3.6561813415371405,
        "weighted_distance": 5.150694876149906
    },
    "planner": "SPARS",
    "start": {
        "state": {
            "elbow_joint": 2.422574709923281,
            "shoulder_lift_joint": -1.3736533754116391,
            "shoulder_pan_joint": -0.33786336945926293,
            "wrist_1_joint": -1.0288603412921917,
            "wrist_2_joint": 1.2330224858903978,
            "wrist_3_joint": -3.094022268022082
        }
    },
    "waypoints": [
        {
            "positions": [
                -0.33786336945926293,
                -1.3736533754116391,
                2.422574709923281,
                -1.0288603412921917,
                1.2330224858903978,
                -3.094022268022082
            ]
        },
        {
            "positions": [
                -0.25769533252953164,
                -1.3777289675456434,
                2.3156048442902564,
                -1.0452075070981488,
                1.201101003181456,
                -2.9696211520237847
            ]
        },
        {
            "positions": [
                -0.17752729559980032,
                -1.381804559679648,
                2.2086349786572317,
                -1.0615546729041057,
                1.169179520472514,
                -2.845220036025488
            ]
        },
        {
            "positions": [
                -0.09735925867006903,
                -1.3858801518136523,
                2.101665113024207,
                -1.0779018387100627,
                1.1372580377635721,
                -2.7208189200271904
            ]
        },
        {
            "positions": [
                -0.017191221740337714,
                -1.3899557439476569,
                1.9946952473911825,
                -1.0942490045160196,
                1.1053365550546301,
                -2.596417804028893
            ]
        },
        {
            "positions": [
                0.06297681518939359,
                -1.3940313360816612,
                1.8877253817581578,
                -1.1105961703219767,
                1.0734150723456883,
                -2.472016688030596
            ]
        },
        {
            "positions": [
                0.12130885731410801,
                -1.432794117085149,
                1.8352783030724873,
                -1.0345522450961961,
                1.0411734992316566,
                -2.3387810759048913
            ]
        },
        {
            "positions": [
                0.17964089943882242,
                -1.4715568980886369,
                1.782831224386817,
                -0.9585083198704156,
                1.0089319261176248,
                -2.2055454637791865
            ]
        },
        {
            "positions": [
                0.23797294156353682,
                -1.5103196790921247,
                1.7303841457011464,
                -0.882464394644635,
                0.9766903530035933,
                -2.0723098516534817
            ]
        },
        {
            "positions": [
                0.29630498368825126,
                -1.5490824600956123,
                1.677937067015476,
                -0.8064204694188545,
                0.9444487798895616,
                -1.9390742395277774
            ]
        },
        {
            "positions": [
                0.3546370258129657,
                -1.5878452410991002,
                1.6254899883298055,
                -0.7303765441930739,
                0.9122072067755298,
                -1.8058386274020726
            ]
        },
        {
            "positions": [
                0.41296906793768007,
                -1.626608022102588,
                1.5730429096441352,
                -0.6543326189672933,
                0.8799656336614982,
                -1.6726030152763678
            ]
        },
        {
            "positions": [
                0.4713011100623945,
                -1.6653708031060759,
                1.5205958309584646,
                -0.5782886937415128,
                0.8477240605474665,
                -1.539367403150663
            ]
        },
        {
            "positions": [
                0.5296331521871089,
                -1.7041335841095637,
                1.468148752272794,
                -0.5022447685157323,
                0.8154824874334348,
                -1.4061317910249584
            ]
        },
        {
            "positions": [
                0.5879651943118234,
                -1.7428963651130516,
                1.4157016735871237,
                -0.42620084328995167,
                0.783240914319403,
                -1.2728961788992534
            ]
        },
        {
            "positions": [
                0.6462972364365378,
                -1.7816591461165392,
                1.3632545949014532,
                -0.35015691806417115,
                0.7509993412053714,
                -1.1396605667735489
            ]
        },
        {
            "positions": [
                0.7046292785612521,
                -1.820421927120027,
                1.3108075162157828,
                -0.27411299283839063,
                0.7187577680913397,
                -1.006424954647844
            ]
        },
        {
            "positions": [
                0.7629613206859666,
                -1.8591847081235149,
                1.2583604375301123,
                -0.19806906761261012,
                0.686516194977308,
                -0.8731893425221395
            ]
        },
        {
            "positions": [
                0.821293362810681,
                -1.8979474891270027,
                1.205913358844442,
                -0.12202514238682949,
                0.6542746218632762,
                -0.7399537303964345
            ]
        },
        {
            "positions": [
                0.8796254049353954,
                -1.9367102701304906,
                1.1534662801587714,
                -0.045981217161048873,
                0.6220330487492446,
                -0.60671811827073
            ]
        },
        {
            "positions": [
                0.847058390477467,
                -1.9650948067387657,
                1.2755115353754811,
                0.012334767924907529,
                0.6280170955455068,
                -0.74702739063743
            ]
        },
        {
            "positions": [
                0.8144913760195386,
                -1.9934793433470406,
                1.397556790592191,
                0.07065075301086393,
                0.634001142341769,
                -0.8873366630041299
            ]
        },
        {
            "positions": [
                0.7819243615616102,
                -2.021863879955316,
                1.5196020458089008,
                0.12896673809682035,
                0.6399851891380312,
                -1.02764593537083
            ]
        },
        {
            "positions": [
                0.7493573471036816,
                -2.0502484165635906,
                1.6416473010256105,
                0.18728272318277672,
                0.6459692359342932,
                -1.16795520773753
            ]
        },
        {
            "positions": [
                0.7167903326457532,
                -2.0786329531718657,
                1.7636925562423205,
                0.2455987082687332,
                0.6519532827305554,
                -1.30826448010423
            ]
        },
        {
            "positions": [
                0.6842233181878248,
                -2.107017489780141,
                1.88573781145903,
                0.30391469335468957,
                0.6579373295268176,
                -1.4485737524709301
            ]
        },
        {
            "positions": [
                0.6516563037298964,
                -2.135402026388416,
                2.00778306667574,
                0.362230678440646,
                0.6639213763230798,
                -1.5888830248376302
            ]
        },
        {
            "positions": [
                0.6206116784453077,
                -2.14256565183857,
                2.1050523368402336,
                0.3708657318814641,
                0.6745852191971348,
                -1.7354918948631228
            ]
        },
        {
            "positions": [
                0.5895670531607191,
                -2.149729277288724,
                2.2023216070047273,
                0.3795007853222822,
                0.6852490620711896,
                -1.8821007648886154
            ]
        },
        {
            "positions": [
                0.5585224278761305,
                -2.1568929027388783,
                2.299590877169221,
                0.3881358387631003,
                0.6959129049452446,
                -2.028709634914108
            ]
        },
        {
            "positions": [
                0.5796951511512385,
                -2.1212370086814825,
                2.3127078491163124,
                0.26755055813820916,
                0.697416811025706,
                -2.1875269873293677
            ]
        },
        {
            "positions": [
                0.6008678744263464,
                -2.085581114624086,
                2.3258248210634043,
                0.14696527751331798,
                0.6989207171061673,
                -2.3463443397446273
            ]
        },
        {
            "positions": [
                0.6220405977014544,
                -2.0499252205666902,
                2.3389417930104957,
                0.02637999688842685,
                0.7004246231866287,
                -2.505161692159887
            ]
        },
        {
            "positions": [
                0.6432133209765623,
                -2.0142693265092944,
                2.3520587649575875,
                -0.09420528373646436,
                0.70192852926709,
                -2.6639790445751466
            ]
        },
        {
            "positions": [
                0.6643860442516702,
                -1.978613432451898,
                2.365175736904679,
                -0.21479056436135557,
                0.7034324353475514,
                -2.8227963969904066
            ]
        },
        {
            "positions": [
                0.6855587675267781,
                -1.9429575383945021,
                2.3782927088517707,
                -0.3353758449862466,
                0.7049363414280128,
                -2.9816137494056663
            ]
        },
        {
            "positions": [
                0.7067314908018861,
                -1.907301644337106,
                2.391409680798862,
                -0.45596112561113794,
                0.7064402475084741,
                -3.140431101820926
            ]
        }
    ]
}