{
    "goal": {
        "global_pose": {
            "orientation": {
                "w": 0.7031023502349854,
                "x": -0.7110244035720825,
                "y": 0.007748599164187908,
                "z": 0.005598929710686207
            },
            "position": {
                "x": 0.11585023208521307,
                "y": 0.44412534475326537,
                "z": 0.3711530566215515
            }
        },
        "name": "move_to_auspresseinheit_A"
    },
    "id": "SPARS_move_to_auspresseinheit_A_150",
    "joint_names": [
        "shoulder_pan_joint",
        "shoulder_lift_joint",
        "elbow_joint",
        "wrist_1_joint",
        "wrist_2_joint",
        "wrist_3_joint"
    ],
    "metrics": {
        "cart_traj_len": 1.5744003708643757,
        "distance_elbow_joint": 0.4368877184965094,
        "distance_shoulder_lift_joint": 1.9527600523706383,
        "distance_shoulder_pan_joint": 2.595466353305905,
        "distance_wrist_1_joint": 1.8483815010255134,
        "distance_wrist_2_joint": 0.5323598404248742,
        "distance_wrist_3_joint": 0.15616854831465066,
        "smoothness": 1.5267278756034943,
        "time": 5.089207812,
        "traj_len": 2.742630856301681,
        "weighted_distance": 3.1961073905639936
    },
    "planner": "SPARS",
    "start": {
        "state": {
            "elbow_joint": 2.422574709923281,
            "shoulder_lift_joint": -1.3736533754116391,
            "shoulder_pan_joint": -0.33786336945926293,
            "wrist_1_joint": -1.0288603412921917,
            "wrist_2_joint": 1.2330224858903978,
            "wrist_3_joint": -3.094022268022082
        }
    },
    "waypoints": [
        {
            "positions": [
                -0.33786336945926293,
                -1.3736533754116391,
                2.422574709923281,
                -1.0288603412921917,
                1.2330224858903978,
                -3.094022268022082
            ]
        },
        {
            "positions": [
                -0.19792215880002628,
                -1.4693671501010634,
                2.4382595899091832,
                -0.9362181833898151,
                1.20812614760214,
                -3.0895064946786146
            ]
        },
        {
            "positions": [
                -0.057980948140789634,
                -1.5650809247904878,
                2.4539444698950854,
                -0.8435760254874385,
                1.1832298093138824,
                -3.084990721335147
            ]
        },
        {
            "positions": [
                0.08196026251844696,
                -1.660794699479912,
                2.4696293498809876,
                -0.7509338675850619,
                1.158333471025625,
                -3.0804749479916795
            ]
        },
        {
            "positions": [
                0.22190147317768366,
                -1.7565084741693364,
                2.4853142298668898,
                -0.6582917096826851,
                1.1334371327373673,
                -3.075959174648212
            ]
        },
        {
            "positions": [
                0.36184268383692025,
                -1.852222248858761,
                2.500999109852792,
                -0.5656495517803085,
                1.1085407944491097,
                -3.0714434013047445
            ]
        },
        {
            "positions": [
                0.5017838944961568,
                -1.947936023548185,
                2.516683989838694,
                -0.4730073938779319,
                1.083644456160852,
                -3.066927627961277
            ]
        },
        {
            "positions": [
                0.6417251051553934,
                -2.0436497982376096,
                2.5323688698245963,
                -0.38036523597555527,
                1.0587481178725944,
                -3.0624118546178094
            ]
        },
        {
            "positions": [
                0.7816663158146302,
                -2.139363572927034,
                2.5480537498104985,
                -0.28772307807317854,
                1.033851779584337,
                -3.057896081274342
            ]
        },
        {
            "positions": [
                0.9216075264738666,
                -2.2350773476164583,
                2.5637386297964007,
                -0.19508092017080203,
                1.0089554412960793,
                -3.0533803079308743
            ]
        },
        {
            "positions": [
                1.0615487371331034,
                -2.3307911223058824,
                2.579423509782303,
                -0.1024387622684253,
                0.9840591030078216,
                -3.048864534587407
            ]
        },
        {
            "positions": [
                1.20148994779234,
                -2.426504896995307,
                2.595108389768205,
                -0.009796604366048678,
                0.959162764719564,
                -3.0443487612439393
            ]
        },
        {
            "positions": [
                1.3414311584515766,
                -2.5222186716847315,
                2.610793269754107,
                0.08284555353632794,
                0.9342664264313063,
                -3.0398329879004717
            ]
        },
        {
            "positions": [
                1.4813723691108132,
                -2.6179324463741556,
                2.6264781497400094,
                0.17548771143870456,
                0.9093700881430488,
                -3.035317214557004
            ]
        },
        {
            "positions": [
                1.370482281291409,
                -2.516720877601567,
                2.5931946813571836,
                0.0834829331109021,
                0.8795547391891166,
                -3.049240570964086
            ]
        },
        {
            "positions": [
                1.2595921934720051,
                -2.415509308828978,
                2.5599112129743578,
                -0.008521845216900359,
                0.8497393902351844,
                -3.0631639273711677
            ]
        },
        {
            "positions": [
                1.148702105652601,
                -2.314297740056389,
                2.526627744591532,
                -0.10052662354470282,
                0.8199240412812523,
                -3.0770872837782495
            ]
        },
        {
            "positions": [
                1.0378120178331969,
                -2.2130861712838,
                2.4933442762087057,
                -0.19253140187250528,
                0.7901086923273201,
                -3.0910106401853317
            ]
        },
        {
            "positions": [
                0.9269219300137929,
                -2.1118746025112114,
                2.46006080782588,
                -0.2845361802003078,
                0.7602933433733879,
                -3.1049339965924134
            ]
        },
        {
            "positions": [
                0.8160318421943888,
                -2.0106630337386227,
                2.426777339443054,
                -0.3765409585281102,
                0.7304779944194557,
                -3.118857352999495
            ]
        },
        {
            "positions": [
                0.7051417543749847,
                -1.9094514649660337,
                2.3934938710602283,
                -0.4685457368559127,
                0.7006626454655236,
                -3.132780709406577
            ]
        }
    ]
}