{
    "goal": {
        "global_pose": {
            "orientation": {
                "w": 0.7047431468963623,
                "x": -0.7094548344612122,
                "y": 0.0024358443915843964,
                "z": -0.0022348060738295317
            },
            "position": {
                "x": 0.6094750761985779,
                "y": 0.3671506643295288,
                "z": 0.19426114857196808
            }
        },
        "name": "move_to_magneteinheit_A"
    },
    "id": "SPARS_move_to_magneteinheit_A_94",
    "joint_names": [
        "shoulder_pan_joint",
        "shoulder_lift_joint",
        "elbow_joint",
        "wrist_1_joint",
        "wrist_2_joint",
        "wrist_3_joint"
    ],
    "metrics": {
        "cart_traj_len": 2.7160034120185603,
        "distance_elbow_joint": 3.8731322927399496,
        "distance_shoulder_lift_joint": 2.4397923082811284,
        "distance_shoulder_pan_joint": 3.5679521844330213,
        "distance_wrist_1_joint": 1.128483377563286,
        "distance_wrist_2_joint": 4.402874703096613,
        "distance_wrist_3_joint": 4.3725699752299665,
        "smoothness": 0.25561786609225573,
        "time": 5.054553333,
        "traj_len": 4.448011335568285,
        "weighted_distance": 5.836206205444064
    },
    "planner": "SPARS",
    "start": {
        "state": {
            "elbow_joint": -1.919643507792019,
            "shoulder_lift_joint": -0.07675430207160344,
            "shoulder_pan_joint": -1.1188671864651873,
            "wrist_1_joint": 0.42560062535961957,
            "wrist_2_joint": 1.5706038300724876,
            "wrist_3_joint": 1.1188968870953055
        }
    },
    "waypoints": [
        {
            "positions": [
                -1.1188671864651873,
                -0.07675430207160344,
                -1.919643507792019,
                0.42560062535961957,
                1.5706038300724876,
                1.1188968870953055
            ]
        },
        {
            "positions": [
                -1.1552038967090423,
                -0.13132257776335582,
                -1.8116094119023318,
                0.409072407861706,
                1.479234265418012,
                1.0409746250705074
            ]
        },
        {
            "positions": [
                -1.191540606952897,
                -0.18589085345510822,
                -1.7035753160126443,
                0.3925441903637924,
                1.3878647007635363,
                0.9630523630457094
            ]
        },
        {
            "positions": [
                -1.227877317196752,
                -0.24045912914686063,
                -1.595541220122957,
                0.37601597286587884,
                1.2964951361090606,
                0.8851301010209114
            ]
        },
        {
            "positions": [
                -1.2642140274406068,
                -0.295027404838613,
                -1.4875071242332698,
                0.3594877553679653,
                1.2051255714545848,
                0.8072078389961133
            ]
        },
        {
            "positions": [
                -1.3005507376844618,
                -0.3495956805303654,
                -1.3794730283435825,
                0.3429595378700517,
                1.113756006800109,
                0.7292855769713151
            ]
        },
        {
            "positions": [
                -1.3368874479283166,
                -0.4041639562221178,
                -1.2714389324538953,
                0.3264313203721381,
                1.0223864421456335,
                0.6513633149465171
            ]
        },
        {
            "positions": [
                -1.3732241581721716,
                -0.4587322319138702,
                -1.1634048365642078,
                0.3099031028742245,
                0.9310168774911577,
                0.5734410529217191
            ]
        },
        {
            "positions": [
                -1.4095608684160263,
                -0.5133005076056225,
                -1.0553707406745205,
                0.29337488537631096,
                0.839647312836682,
                0.49551879089692097
            ]
        },
        {
            "positions": [
                -1.4458975786598813,
                -0.567868783297375,
                -0.9473366447848333,
                0.2768466678783974,
                0.7482777481822064,
                0.41759652887212284
            ]
        },
        {
            "positions": [
                -1.482234288903736,
                -0.6224370589891273,
                -0.839302548895146,
                0.2603184503804838,
                0.6569081835277306,
                0.3396742668473248
            ]
        },
        {
            "positions": [
                -1.518570999147591,
                -0.6770053346808798,
                -0.7312684530054585,
                0.24379023288257023,
                0.565538618873255,
                0.2617520048225268
            ]
        },
        {
            "positions": [
                -1.554907709391446,
                -0.7315736103726322,
                -0.6232343571157712,
                0.22726201538465665,
                0.4741690542187793,
                0.18382974279772868
            ]
        },
        {
            "positions": [
                -1.5912444196353008,
                -0.7861418860643845,
                -0.515200261226084,
                0.21073379788674307,
                0.38279948956430365,
                0.10590748077293055
            ]
        },
        {
            "positions": [
                -1.6275811298791556,
                -0.840710161756137,
                -0.4071661653363965,
                0.1942055803888295,
                0.2914299249098278,
                0.027985218748132645
            ]
        },
        {
            "positions": [
                -1.6639178401230106,
                -0.8952784374478893,
                -0.2991320694467092,
                0.17767736289091593,
                0.20006036025535212,
                -0.04993704327666548
            ]
        },
        {
            "positions": [
                -1.7002545503668656,
                -0.9498467131396418,
                -0.19109797355702196,
                0.16114914539300235,
                0.10869079560087647,
                -0.1278593053014636
            ]
        },
        {
            "positions": [
                -1.7365912606107203,
                -1.004414988831394,
                -0.0830638776673347,
                0.1446209278950888,
                0.017321230946400812,
                -0.20578156732626174
            ]
        },
        {
            "positions": [
                -1.772927970854575,
                -1.0589832645231465,
                0.02497021822235257,
                0.12809271039717518,
                -0.07404833370807484,
                -0.28370382935105987
            ]
        },
        {
            "positions": [
                -1.80926468109843,
                -1.113551540214899,
                0.13300431411203983,
                0.11156449289926162,
                -0.16541789836255072,
                -0.36162609137585777
            ]
        },
        {
            "positions": [
                -1.845601391342285,
                -1.1681198159066513,
                0.2410384100017271,
                0.09503627540134801,
                -0.2567874630170264,
                -0.4395483534006559
            ]
        },
        {
            "positions": [
                -1.8819381015861398,
                -1.2226880915984037,
                0.3490725058914148,
                0.07850805790343446,
                -0.34815702767150203,
                -0.517470615425454
            ]
        },
        {
            "positions": [
                -1.9182748118299946,
                -1.277256367290156,
                0.4571066017811021,
                0.0619798404055209,
                -0.4395265923259777,
                -0.5953928774502519
            ]
        },
        {
            "positions": [
                -1.9546115220738496,
                -1.3318246429819085,
                0.5651406976707893,
                0.04545162290760729,
                -0.5308961569804536,
                -0.6733151394750501
            ]
        },
        {
            "positions": [
                -1.9909482323177046,
                -1.386392918673661,
                0.6731747935604766,
                0.028923405409693737,
                -0.622265721634929,
                -0.7512374014998482
            ]
        },
        {
            "positions": [
                -2.0272849425615593,
                -1.4409611943654133,
                0.7812088894501639,
                0.012395187911780181,
                -0.7136352862894049,
                -0.8291596635246463
            ]
        },
        {
            "positions": [
                -2.0636216528054145,
                -1.4955294700571657,
                0.8892429853398511,
                -0.00413302958613343,
                -0.8050048509438803,
                -0.9070819255494444
            ]
        },
        {
            "positions": [
                -2.0999583630492693,
                -1.550097745748918,
                0.9972770812295384,
                -0.020661247084046985,
                -0.8963744155983562,
                -0.9850041875742424
            ]
        },
        {
            "positions": [
                -2.136295073293124,
                -1.6046660214406705,
                1.105311177119226,
                -0.03718946458196054,
                -0.987743980252832,
                -1.0629264495990403
            ]
        },
        {
            "positions": [
                -2.172631783536979,
                -1.6592342971324228,
                1.2133452730089134,
                -0.05371768207987415,
                -1.0791135449073075,
                -1.1408487116238386
            ]
        },
        {
            "positions": [
                -2.2089684937808336,
                -1.7138025728241753,
                1.3213793688986006,
                -0.07024589957778771,
                -1.1704831095617834,
                -1.2187709736486365
            ]
        },
        {
            "positions": [
                -2.245305204024689,
                -1.7683708485159275,
                1.429413464788288,
                -0.08677411707570132,
                -1.2618526742162588,
                -1.2966932356734349
            ]
        },
        {
            "positions": [
                -2.2816419142685436,
                -1.82293912420768,
                1.537447560677975,
                -0.10330233457361483,
                -1.3532222388707347,
                -1.374615497698233
            ]
        },
        {
            "positions": [
                -2.1550536270775087,
                -1.7864334670421511,
                1.5593444672184988,
                -0.13485919865940704,
                -1.275377573915293,
                -1.4735132656159398
            ]
        },
        {
            "positions": [
                -2.0284653398864734,
                -1.749927809876622,
                1.581241373759023,
                -0.16641606274519927,
                -1.1975329089598514,
                -1.5724110335336465
            ]
        },
        {
            "positions": [
                -1.9018770526954385,
                -1.713422152711093,
                1.6031382802995469,
                -0.1979729268309915,
                -1.1196882440044098,
                -1.671308801451353
            ]
        },
        {
            "positions": [
                -1.7752887655044036,
                -1.676916495545564,
                1.625035186840071,
                -0.22952979091678372,
                -1.0418435790489684,
                -1.7702065693690598
            ]
        },
        {
            "positions": [
                -1.6487004783133687,
                -1.640410838380035,
                1.6469320933805949,
                -0.26108665500257594,
                -0.9639989140935267,
                -1.8691043372867666
            ]
        },
        {
            "positions": [
                -1.5221121911223336,
                -1.603905181214506,
                1.668828999921119,
                -0.29264351908836816,
                -0.8861542491380852,
                -1.9680021052044734
            ]
        },
        {
            "positions": [
                -1.3955239039312985,
                -1.567399524048977,
                1.690725906461643,
                -0.3242003831741604,
                -0.8083095841826435,
                -2.06689987312218
            ]
        },
        {
            "positions": [
                -1.2689356167402637,
                -1.530893866883448,
                1.712622813002167,
                -0.35575724725995256,
                -0.7304649192272019,
                -2.165797641039887
            ]
        },
        {
            "positions": [
                -1.1423473295492288,
                -1.494388209717919,
                1.734519719542691,
                -0.3873141113457448,
                -0.6526202542717603,
                -2.2646954089575937
            ]
        },
        {
            "positions": [
                -1.0157590423581937,
                -1.45788255255239,
                1.756416626083215,
                -0.418870975431537,
                -0.5747755893163187,
                -2.3635931768753
            ]
        },
        {
            "positions": [
                -0.8891707551671586,
                -1.421376895386861,
                1.778313532623739,
                -0.4504278395173293,
                -0.49693092436087705,
                -2.4624909447930072
            ]
        },
        {
            "positions": [
                -0.7625824679761237,
                -1.384871238221332,
                1.800210439164263,
                -0.48198470360312146,
                -0.41908625940543554,
                -2.5613887127107136
            ]
        },
        {
            "positions": [
                -0.6359941807850886,
                -1.348365581055803,
                1.822107345704787,
                -0.5135415676889138,
                -0.3412415944499938,
                -2.6602864806284208
            ]
        },
        {
            "positions": [
                -0.5094058935940537,
                -1.3118599238902742,
                1.8440042522453108,
                -0.545098431774706,
                -0.2633969294945524,
                -2.759184248546127
            ]
        },
        {
            "positions": [
                -0.38281760640301865,
                -1.275354266724745,
                1.865901158785835,
                -0.5766552958604981,
                -0.18555226453911078,
                -2.8580820164638343
            ]
        },
        {
            "positions": [
                -0.2562293192119838,
                -1.238848609559216,
                1.887798065326359,
                -0.6082121599462903,
                -0.10770759958366916,
                -2.9569797843815406
            ]
        },
        {
            "positions": [
                -0.12964103202094845,
                -1.202342952393687,
                1.909694971866883,
                -0.6397690240320826,
                -0.029862934628227533,
                -3.0558775522992474
            ]
        },
        {
            "positions": [
                -0.0030527448299140225,
                -1.1658372952281582,
                1.9315918784074069,
                -0.6713258881178747,
                0.04798173032721409,
                -3.154775320216954
            ]
        },
        {
            "positions": [
                0.12353554236112113,
                -1.129331638062629,
                1.953488784947931,
                -0.702882752203667,
                0.12582639528265574,
                -3.253673088134661
            ]
        }
    ]
}