{
    "goal": {
        "global_pose": {
            "orientation": {
                "w": 0.5084816217422485,
                "x": -0.49083608388900757,
                "y": 0.5182115435600281,
                "z": -0.4816462993621826
            },
            "position": {
                "x": 0.5540239810943604,
                "y": 0.030875300988554955,
                "z": 0.16403168439865112
            }
        },
        "name": "move_to_storage_A"
    },
    "id": "SPARS_move_to_storage_A_116",
    "joint_names": [
        "shoulder_pan_joint",
        "shoulder_lift_joint",
        "elbow_joint",
        "wrist_1_joint",
        "wrist_2_joint",
        "wrist_3_joint"
    ],
    "metrics": {
        "cart_traj_len": 0.3529256446549291,
        "distance_elbow_joint": 0.45309713422071196,
        "distance_shoulder_lift_joint": 0.23132924086062578,
        "distance_shoulder_pan_joint": 0.46051700933218015,
        "distance_wrist_1_joint": 0.2621783451905434,
        "distance_wrist_2_joint": 1.1014246616510903,
        "distance_wrist_3_joint": 0.09994619286748696,
        "smoothness": 6.661338200497456e-16,
        "time": 5.039318475,
        "traj_len": 1.615082841256955,
        "weighted_distance": 2.042544485855631
    },
    "planner": "SPARS",
    "start": {
        "state": {
            "elbow_joint": 1.9715463870305268,
            "shoulder_lift_joint": -1.1394903361783484,
            "shoulder_pan_joint": 0.12281147578464417,
            "wrist_1_joint": -0.7804599489681411,
            "wrist_2_joint": 0.12958660307563738,
            "wrist_3_joint": -3.1924946282119055
        }
    },
    "waypoints": [
        {
            "positions": [
                0.12281147578464417,
                -1.1394903361783484,
                1.9715463870305268,
                -0.7804599489681411,
                0.12958660307563738,
                -3.1924946282119055
            ]
        },
        {
            "positions": [
                0.05702333159433273,
                -1.1725373705870092,
                2.036274549062057,
                -0.8179139982810758,
                0.2869329833115074,
                -3.1782166006594075
            ]
        },
        {
            "positions": [
                -0.008764812595978708,
                -1.20558440499567,
                2.1010027110935874,
                -0.8553680475940106,
                0.4442793635473774,
                -3.1639385731069094
            ]
        },
        {
            "positions": [
                -0.07455295678629016,
                -1.238631439404331,
                2.1657308731251175,
                -0.8928220969069454,
                0.6016257437832475,
                -3.1496605455544113
            ]
        },
        {
            "positions": [
                -0.14034110097660157,
                -1.2716784738129916,
                2.230459035156648,
                -0.9302761462198802,
                0.7589721240191175,
                -3.135382518001913
            ]
        },
        {
            "positions": [
                -0.20612924516691306,
                -1.3047255082216525,
                2.295187197188178,
                -0.9677301955328149,
                0.9163185042549876,
                -3.1211044904494147
            ]
        },
        {
            "positions": [
                -0.2719173893572245,
                -1.3377725426303133,
                2.359915359219708,
                -1.0051842448457498,
                1.0736648844908576,
                -3.1068264628969167
            ]
        },
        {
            "positions": [
                -0.33770553354753596,
                -1.3708195770389742,
                2.4246435212512387,
                -1.0426382941586845,
                1.2310112647267277,
                -3.0925484353444186
            ]
        }
    ]
}