{
    "goal": {
        "global_pose": {
            "orientation": {
                "w": 0.7031023502349854,
                "x": -0.7110244035720825,
                "y": 0.007748599164187908,
                "z": 0.005598929710686207
            },
            "position": {
                "x": 0.11585023208521307,
                "y": 0.44412534475326537,
                "z": 0.3711530566215515
            }
        },
        "name": "move_to_auspresseinheit_A"
    },
    "id": "SPARS_move_to_auspresseinheit_A_71",
    "joint_names": [
        "shoulder_pan_joint",
        "shoulder_lift_joint",
        "elbow_joint",
        "wrist_1_joint",
        "wrist_2_joint",
        "wrist_3_joint"
    ],
    "metrics": {
        "cart_traj_len": 0.7352929698996773,
        "distance_elbow_joint": 0.5101781649508625,
        "distance_shoulder_lift_joint": 0.5363665247514475,
        "distance_shoulder_pan_joint": 1.039588887700659,
        "distance_wrist_1_joint": 2.380339256253615,
        "distance_wrist_2_joint": 0.7437631411892054,
        "distance_wrist_3_joint": 0.8125151781588031,
        "smoothness": 1.1412558416210272,
        "time": 5.020206974,
        "traj_len": 2.4541294083655396,
        "weighted_distance": 3.282054829944957
    },
    "planner": "SPARS",
    "start": {
        "state": {
            "elbow_joint": 2.422574709923281,
            "shoulder_lift_joint": -1.3736533754116391,
            "shoulder_pan_joint": -0.33786336945926293,
            "wrist_1_joint": -1.0288603412921917,
            "wrist_2_joint": 1.2330224858903978,
            "wrist_3_joint": -3.094022268022082
        }
    },
    "waypoints": [
        {
            "positions": [
                -0.33786336945926293,
                -1.3736533754116391,
                2.422574709923281,
                -1.0288603412921917,
                1.2330224858903978,
                -3.094022268022082
            ]
        },
        {
            "positions": [
                -0.3293476984855836,
                -1.4032298524058038,
                2.3889724342588683,
                -0.8455560744312771,
                1.152930164874297,
                -3.0453614349400615
            ]
        },
        {
            "positions": [
                -0.32083202751190426,
                -1.4328063293999687,
                2.3553701585944555,
                -0.6622518075703625,
                1.0728378438581958,
                -2.9967006018580404
            ]
        },
        {
            "positions": [
                -0.3123163565382249,
                -1.4623828063941333,
                2.3217678829300423,
                -0.4789475407094479,
                0.9927455228420949,
                -2.94803976877602
            ]
        },
        {
            "positions": [
                -0.3038006855645456,
                -1.4919592833882982,
                2.2881656072656296,
                -0.2956432738485333,
                0.912653201825994,
                -2.899378935693999
            ]
        },
        {
            "positions": [
                -0.29528501459086626,
                -1.5215357603824629,
                2.254563331601217,
                -0.11233900698761867,
                0.832560880809893,
                -2.8507181026119786
            ]
        },
        {
            "positions": [
                -0.2867693436171869,
                -1.5511122373766275,
                2.2209610559368036,
                0.07096525987329594,
                0.7524685597937921,
                -2.802057269529958
            ]
        },
        {
            "positions": [
                -0.2782536726435076,
                -1.5806887143707924,
                2.187358780272391,
                0.25426952673421055,
                0.6723762387776911,
                -2.753396436447937
            ]
        },
        {
            "positions": [
                -0.26973800166982825,
                -1.610265191364957,
                2.153756504607978,
                0.43757379359512527,
                0.5922839177615902,
                -2.7047356033659162
            ]
        },
        {
            "positions": [
                -0.14830506168092522,
                -1.6477345299647232,
                2.183926499562423,
                0.323335653424338,
                0.6051619893941399,
                -2.7576391675537457
            ]
        },
        {
            "positions": [
                -0.02687212169202219,
                -1.6852038685644894,
                2.214096494516868,
                0.2090975132535508,
                0.6180400610266896,
                -2.8105427317415757
            ]
        },
        {
            "positions": [
                0.09456081829688084,
                -1.7226732071642556,
                2.244266489471313,
                0.0948593730827636,
                0.6309181326592394,
                -2.863446295929405
            ]
        },
        {
            "positions": [
                0.21599375828578388,
                -1.7601425457640218,
                2.274436484425758,
                -0.019378767088023663,
                0.6437962042917891,
                -2.9163498601172346
            ]
        },
        {
            "positions": [
                0.3374266982746869,
                -1.797611884363788,
                2.304606479380203,
                -0.13361690725881092,
                0.6566742759243388,
                -2.9692534243050646
            ]
        },
        {
            "positions": [
                0.45885963826358994,
                -1.8350812229635542,
                2.3347764743346477,
                -0.24785504742959807,
                0.6695523475568885,
                -3.022156988492894
            ]
        },
        {
            "positions": [
                0.580292578252493,
                -1.8725505615633204,
                2.3649464692890927,
                -0.36209318760038534,
                0.6824304191894383,
                -3.075060552680724
            ]
        },
        {
            "positions": [
                0.701725518241396,
                -1.9100199001630866,
                2.3951164642435376,
                -0.47633132777117265,
                0.695308490821988,
                -3.1279641168685535
            ]
        }
    ]
}