{
    "goal": {
        "global_pose": {
            "orientation": {
                "w": 0.7031023502349854,
                "x": -0.7110244035720825,
                "y": 0.007748599164187908,
                "z": 0.005598929710686207
            },
            "position": {
                "x": 0.11585023208521307,
                "y": 0.44412534475326537,
                "z": 0.3711530566215515
            }
        },
        "name": "move_to_auspresseinheit_A"
    },
    "id": "SPARS_move_to_auspresseinheit_A_83",
    "joint_names": [
        "shoulder_pan_joint",
        "shoulder_lift_joint",
        "elbow_joint",
        "wrist_1_joint",
        "wrist_2_joint",
        "wrist_3_joint"
    ],
    "metrics": {
        "cart_traj_len": 2.797342425050809,
        "distance_elbow_joint": 1.5115171823309024,
        "distance_shoulder_lift_joint": 1.0470132105093155,
        "distance_shoulder_pan_joint": 4.5241825055021,
        "distance_wrist_1_joint": 3.9075523071274056,
        "distance_wrist_2_joint": 1.0728494465149891,
        "distance_wrist_3_joint": 6.106040935718016,
        "smoothness": 0.6686675147684786,
        "time": 5.099353315,
        "traj_len": 4.262529247724023,
        "weighted_distance": 5.946565329060226
    },
    "planner": "SPARS",
    "start": {
        "state": {
            "elbow_joint": 2.422574709923281,
            "shoulder_lift_joint": -1.3736533754116391,
            "shoulder_pan_joint": -0.33786336945926293,
            "wrist_1_joint": -1.0288603412921917,
            "wrist_2_joint": 1.2330224858903978,
            "wrist_3_joint": -3.094022268022082
        }
    },
    "waypoints": [
        {
            "positions": [
                -0.33786336945926293,
                -1.3736533754116391,
                2.422574709923281,
                -1.0288603412921917,
                1.2330224858903978,
                -3.094022268022082
            ]
        },
        {
            "positions": [
                -0.4135391278631364,
                -1.3625477530032033,
                2.3891307513448705,
                -0.9319682633511364,
                1.1983138324298017,
                -2.961989572537403
            ]
        },
        {
            "positions": [
                -0.4892148862670098,
                -1.3514421305947677,
                2.35568679276646,
                -0.8350761854100811,
                1.1636051789692057,
                -2.829956877052724
            ]
        },
        {
            "positions": [
                -0.5648906446708832,
                -1.3403365081863319,
                2.32224283418805,
                -0.7381841074690257,
                1.1288965255086094,
                -2.6979241815680446
            ]
        },
        {
            "positions": [
                -0.6405664030747567,
                -1.3292308857778963,
                2.2887988756096393,
                -0.6412920295279705,
                1.0941878720480134,
                -2.5658914860833653
            ]
        },
        {
            "positions": [
                -0.7162421614786301,
                -1.3181252633694605,
                2.255354917031229,
                -0.5443999515869151,
                1.0594792185874173,
                -2.433858790598686
            ]
        },
        {
            "positions": [
                -0.7919179198825036,
                -1.3070196409610246,
                2.2219109584528183,
                -0.44750787364585976,
                1.024770565126821,
                -2.301826095114007
            ]
        },
        {
            "positions": [
                -0.8675936782863771,
                -1.295914018552589,
                2.1884669998744077,
                -0.3506157957048044,
                0.990061911666225,
                -2.1697933996293277
            ]
        },
        {
            "positions": [
                -0.9432694366902505,
                -1.2848083961441532,
                2.155023041295997,
                -0.25372371776374913,
                0.955353258205629,
                -2.037760704144649
            ]
        },
        {
            "positions": [
                -1.018945195094124,
                -1.2737027737357174,
                2.121579082717587,
                -0.15683163982269377,
                0.9206446047450328,
                -1.9057280086599693
            ]
        },
        {
            "positions": [
                -1.0946209534979974,
                -1.2625971513272818,
                2.0881351241391766,
                -0.059939561881638515,
                0.8859359512844368,
                -1.7736953131752902
            ]
        },
        {
            "positions": [
                -1.1702967119018708,
                -1.251491528918846,
                2.054691165560766,
                0.03695251605941685,
                0.8512272978238407,
                -1.6416626176906108
            ]
        },
        {
            "positions": [
                -1.2459724703057442,
                -1.2403859065104104,
                2.0212472069823555,
                0.13384459400047222,
                0.8165186443632446,
                -1.509629922205932
            ]
        },
        {
            "positions": [
                -1.3216482287096176,
                -1.2292802841019745,
                1.9878032484039452,
                0.23073667194152736,
                0.7818099909026486,
                -1.3775972267212528
            ]
        },
        {
            "positions": [
                -1.3973239871134913,
                -1.2181746616935387,
                1.9543592898255346,
                0.32762874988258295,
                0.7471013374420523,
                -1.2455645312365733
            ]
        },
        {
            "positions": [
                -1.4729997455173647,
                -1.2070690392851031,
                1.920915331247124,
                0.4245208278236381,
                0.7123926839814563,
                -1.1135318357518942
            ]
        },
        {
            "positions": [
                -1.548675503921238,
                -1.1959634168766673,
                1.8874713726687138,
                0.5214129057646935,
                0.6776840305208602,
                -0.9814991402672151
            ]
        },
        {
            "positions": [
                -1.6243512623251115,
                -1.1848577944682317,
                1.8540274140903032,
                0.6183049837057488,
                0.6429753770602641,
                -0.8494664447825362
            ]
        },
        {
            "positions": [
                -1.7000270207289851,
                -1.1737521720597959,
                1.8205834555118927,
                0.7151970616468042,
                0.6082667235996679,
                -0.7174337492978564
            ]
        },
        {
            "positions": [
                -1.7757027791328586,
                -1.16264654965136,
                1.7871394969334822,
                0.8120891395878596,
                0.5735580701390719,
                -0.5854010538131775
            ]
        },
        {
            "positions": [
                -1.8513785375367318,
                -1.1515409272429245,
                1.7536955383550719,
                0.9089812175289147,
                0.5388494166784759,
                -0.4533683583284982
            ]
        },
        {
            "positions": [
                -1.9270542959406052,
                -1.1404353048344886,
                1.7202515797766615,
                1.00587329546997,
                0.5041407632178797,
                -0.3213356628438193
            ]
        },
        {
            "positions": [
                -2.002730054344479,
                -1.129329682426053,
                1.686807621198251,
                1.1027653734110254,
                0.46943210975728356,
                -0.18930296735913954
            ]
        },
        {
            "positions": [
                -2.0784058127483522,
                -1.1182240600176172,
                1.6533636626198405,
                1.1996574513520808,
                0.4347234562966875,
                -0.057270271874460654
            ]
        },
        {
            "positions": [
                -1.9624208101561433,
                -1.1512067223140878,
                1.6842930849126514,
                1.1296976799152836,
                0.4461630570017408,
                -0.18515731102322713
            ]
        },
        {
            "positions": [
                -1.8464358075639347,
                -1.1841893846105584,
                1.7152225072054623,
                1.0597379084784864,
                0.4576026577067941,
                -0.3130443501719936
            ]
        },
        {
            "positions": [
                -1.730450804971726,
                -1.2171720469070288,
                1.7461519294982732,
                0.9897781370416892,
                0.46904225841184743,
                -0.4409313893207601
            ]
        },
        {
            "positions": [
                -1.614465802379517,
                -1.2501547092034995,
                1.7770813517910842,
                0.9198183656048919,
                0.4804818591169007,
                -0.5688184284695266
            ]
        },
        {
            "positions": [
                -1.4984807997873082,
                -1.28313737149997,
                1.808010774083895,
                0.8498585941680946,
                0.491921459821954,
                -0.6967054676182931
            ]
        },
        {
            "positions": [
                -1.3824957971950995,
                -1.3161200337964405,
                1.838940196376706,
                0.7798988227312974,
                0.5033610605270074,
                -0.8245925067670595
            ]
        },
        {
            "positions": [
                -1.2665107946028908,
                -1.3491026960929111,
                1.869869618669517,
                0.7099390512945001,
                0.5148006612320606,
                -0.9524795459158261
            ]
        },
        {
            "positions": [
                -1.150525792010682,
                -1.3820853583893817,
                1.9007990409623277,
                0.639979279857703,
                0.5262402619371139,
                -1.0803665850645925
            ]
        },
        {
            "positions": [
                -1.034540789418473,
                -1.4150680206858524,
                1.9317284632551386,
                0.5700195084209057,
                0.5376798626421673,
                -1.208253624213359
            ]
        },
        {
            "positions": [
                -0.9185557868262644,
                -1.448050682982323,
                1.9626578855479495,
                0.5000597369841084,
                0.5491194633472205,
                -1.3361406633621256
            ]
        },
        {
            "positions": [
                -0.8025707842340557,
                -1.4810333452787934,
                1.9935873078407604,
                0.4300999655473112,
                0.5605590640522738,
                -1.4640277025108919
            ]
        },
        {
            "positions": [
                -0.6865857816418468,
                -1.514016007575264,
                2.0245167301335716,
                0.360140194110514,
                0.5719986647573272,
                -1.5919147416596584
            ]
        },
        {
            "positions": [
                -0.5706007790496381,
                -1.5469986698717344,
                2.055446152426382,
                0.2901804226737168,
                0.5834382654623804,
                -1.7198017808084247
            ]
        },
        {
            "positions": [
                -0.45461577645742923,
                -1.5799813321682052,
                2.0863755747191934,
                0.22022065123691947,
                0.5948778661674338,
                -1.8476888199571915
            ]
        },
        {
            "positions": [
                -0.33863077386522056,
                -1.6129639944646756,
                2.117304997012004,
                0.15026087980012237,
                0.6063174668724871,
                -1.9755758591059578
            ]
        },
        {
            "positions": [
                -0.22264577127301166,
                -1.6459466567611463,
                2.148234419304815,
                0.08030110836332516,
                0.6177570675775403,
                -2.1034628982547243
            ]
        },
        {
            "positions": [
                -0.10666076868080276,
                -1.6789293190576169,
                2.1791638415976258,
                0.010341336926527722,
                0.6291966682825937,
                -2.231349937403491
            ]
        },
        {
            "positions": [
                0.009324233911406132,
                -1.7119119813540875,
                2.2100932638904367,
                -0.05961843451026949,
                0.6406362689876469,
                -2.3592369765522574
            ]
        },
        {
            "positions": [
                0.12530923650361458,
                -1.744894643650558,
                2.2410226861832476,
                -0.12957820594706648,
                0.6520758696927003,
                -2.4871240157010237
            ]
        },
        {
            "positions": [
                0.24129423909582348,
                -1.7778773059470285,
                2.2719521084760586,
                -0.19953797738386392,
                0.6635154703977535,
                -2.6150110548497905
            ]
        },
        {
            "positions": [
                0.3572792416880324,
                -1.8108599682434992,
                2.3028815307688695,
                -0.26949774882066113,
                0.6749550711028068,
                -2.7428980939985568
            ]
        },
        {
            "positions": [
                0.47326424428024083,
                -1.8438426305399696,
                2.3338109530616804,
                -0.33945752025745835,
                0.6863946718078602,
                -2.870785133147323
            ]
        },
        {
            "positions": [
                0.5892492468724497,
                -1.8768252928364402,
                2.3647403753544913,
                -0.40941729169425556,
                0.6978342725129134,
                -2.99867217229609
            ]
        },
        {
            "positions": [
                0.7052342494646587,
                -1.9098079551329108,
                2.3956697976473023,
                -0.4793770631310528,
                0.7092738732179668,
                -3.126559211444856
            ]
        }
    ]
}