{
    "goal": {
        "global_pose": {
            "orientation": {
                "w": 0.7047431468963623,
                "x": -0.7094548344612122,
                "y": 0.0024358443915843964,
                "z": -0.0022348060738295317
            },
            "position": {
                "x": 0.6094750761985779,
                "y": 0.3671506643295288,
                "z": 0.19426114857196808
            }
        },
        "name": "move_to_magneteinheit_A"
    },
    "id": "SPARS_move_to_magneteinheit_A_130",
    "joint_names": [
        "shoulder_pan_joint",
        "shoulder_lift_joint",
        "elbow_joint",
        "wrist_1_joint",
        "wrist_2_joint",
        "wrist_3_joint"
    ],
    "metrics": {
        "cart_traj_len": 2.12040173868528,
        "distance_elbow_joint": 3.910282223724823,
        "distance_shoulder_lift_joint": 1.0727103849275093,
        "distance_shoulder_pan_joint": 1.2422735396122968,
        "distance_wrist_1_joint": 2.337445831163375,
        "distance_wrist_2_joint": 1.441433092980347,
        "distance_wrist_3_joint": 4.242702991903782,
        "smoothness": 0.0968323112274595,
        "time": 5.039664405,
        "traj_len": 3.7744997104665585,
        "weighted_distance": 5.148896286803942
    },
    "planner": "SPARS",
    "start": {
        "state": {
            "elbow_joint": -1.919643507792019,
            "shoulder_lift_joint": -0.07675430207160344,
            "shoulder_pan_joint": -1.1188671864651873,
            "wrist_1_joint": 0.42560062535961957,
            "wrist_2_joint": 1.5706038300724876,
            "wrist_3_joint": 1.1188968870953055
        }
    },
    "waypoints": [
        {
            "positions": [
                -1.1188671864651873,
                -0.07675430207160344,
                -1.919643507792019,
                0.42560062535961957,
                1.5706038300724876,
                1.1188968870953055
            ]
        },
        {
            "positions": [
                -1.0842751246885645,
                -0.10083459810445192,
                -1.8451631345000103,
                0.3530280139683809,
                1.548914365099355,
                0.9639690437453324
            ]
        },
        {
            "positions": [
                -1.0496830629119416,
                -0.12491489413730039,
                -1.7706827612080014,
                0.2804554025771422,
                1.5272249001262228,
                0.8090412003953593
            ]
        },
        {
            "positions": [
                -1.0150910011353187,
                -0.1489951901701489,
                -1.6962023879159926,
                0.20788279118590358,
                1.5055354351530903,
                0.6541133570453862
            ]
        },
        {
            "positions": [
                -0.9804989393586957,
                -0.17307548620299734,
                -1.621722014623984,
                0.13531017979466486,
                1.483845970179958,
                0.4991855136954131
            ]
        },
        {
            "positions": [
                -0.9459068775820727,
                -0.19715578223584584,
                -1.547241641331975,
                0.0627375684034262,
                1.4621565052068255,
                0.34425767034543986
            ]
        },
        {
            "positions": [
                -0.9113148158054498,
                -0.22123607826869432,
                -1.4727612680399662,
                -0.009835042987812403,
                1.440467040233693,
                0.18932982699546685
            ]
        },
        {
            "positions": [
                -0.8767227540288269,
                -0.2453163743015428,
                -1.3982808947479572,
                -0.08240765437905112,
                1.4187775752605607,
                0.03440198364549363
            ]
        },
        {
            "positions": [
                -0.842130692252204,
                -0.2693966703343913,
                -1.3238005214559485,
                -0.15498026577028984,
                1.3970881102874282,
                -0.12052585970447938
            ]
        },
        {
            "positions": [
                -0.8075386304755812,
                -0.29347696636723974,
                -1.2493201481639398,
                -0.22755287716152844,
                1.375398645314296,
                -0.2754537030544524
            ]
        },
        {
            "positions": [
                -0.7729465686989582,
                -0.31755726240008825,
                -1.1748397748719308,
                -0.30012548855276716,
                1.3537091803411634,
                -0.43038154640442583
            ]
        },
        {
            "positions": [
                -0.7383545069223353,
                -0.3416375584329367,
                -1.100359401579922,
                -0.37269809994400577,
                1.3320197153680309,
                -0.5853093897543988
            ]
        },
        {
            "positions": [
                -0.7037624451457124,
                -0.3657178544657852,
                -1.0258790282879133,
                -0.4452707113352444,
                1.3103302503948986,
                -0.7402372331043718
            ]
        },
        {
            "positions": [
                -0.6691703833690894,
                -0.38979815049863364,
                -0.9513986549959044,
                -0.5178433227264831,
                1.288640785421766,
                -0.8951650764543451
            ]
        },
        {
            "positions": [
                -0.6345783215924665,
                -0.41387844653148215,
                -0.8769182817038956,
                -0.5904159341177218,
                1.2669513204486336,
                -1.0500929198043183
            ]
        },
        {
            "positions": [
                -0.5999862598158436,
                -0.4379587425643306,
                -0.8024379084118869,
                -0.6629885455089604,
                1.2452618554755013,
                -1.205020763154291
            ]
        },
        {
            "positions": [
                -0.5653941980392206,
                -0.4620390385971791,
                -0.7279575351198779,
                -0.7355611569001992,
                1.2235723905023688,
                -1.3599486065042643
            ]
        },
        {
            "positions": [
                -0.5308021362625978,
                -0.4861193346300276,
                -0.653477161827869,
                -0.8081337682914378,
                1.2018829255292365,
                -1.5148764498542375
            ]
        },
        {
            "positions": [
                -0.4962100744859749,
                -0.510199630662876,
                -0.5789967885358605,
                -0.8807063796826764,
                1.180193460556104,
                -1.6698042932042103
            ]
        },
        {
            "positions": [
                -0.461618012709352,
                -0.5342799266957245,
                -0.5045164152438515,
                -0.953278991073915,
                1.1585039955829717,
                -1.824732136554184
            ]
        },
        {
            "positions": [
                -0.427025950932729,
                -0.5583602227285731,
                -0.43003604195184253,
                -1.0258516024651538,
                1.1368145306098392,
                -1.9796599799041572
            ]
        },
        {
            "positions": [
                -0.3924338891561061,
                -0.5824405187614214,
                -0.355555668659834,
                -1.0984242138563924,
                1.1151250656367067,
                -2.13458782325413
            ]
        },
        {
            "positions": [
                -0.3578418273794832,
                -0.60652081479427,
                -0.28107529536782505,
                -1.170996825247631,
                1.0934356006635744,
                -2.289515666604103
            ]
        },
        {
            "positions": [
                -0.32324976560286023,
                -0.6306011108271186,
                -0.2065949220758161,
                -1.2435694366388699,
                1.0717461356904419,
                -2.4444435099540764
            ]
        },
        {
            "positions": [
                -0.28865770382623746,
                -0.6546814068599669,
                -0.13211454878380757,
                -1.3161420480301083,
                1.0500566707173093,
                -2.5993713533040492
            ]
        },
        {
            "positions": [
                -0.25406564204961446,
                -0.6787617028928155,
                -0.05763417549179867,
                -1.388714659421347,
                1.028367205744177,
                -2.7542991966540225
            ]
        },
        {
            "positions": [
                -0.2226096424498875,
                -0.7179869515683402,
                0.11305523212691834,
                -1.345120447222813,
                0.9534341666898407,
                -2.7850914390002273
            ]
        },
        {
            "positions": [
                -0.19115364285016054,
                -0.757212200243865,
                0.28374463974563535,
                -1.301526235024279,
                0.8785011276355044,
                -2.8158836813464316
            ]
        },
        {
            "positions": [
                -0.15969764325043356,
                -0.7964374489193897,
                0.4544340473643524,
                -1.2579320228257451,
                0.803568088581168,
                -2.8466759236926364
            ]
        },
        {
            "positions": [
                -0.12824164365070662,
                -0.8356626975949145,
                0.6251234549830693,
                -1.214337810627211,
                0.7286350495268317,
                -2.877468166038841
            ]
        },
        {
            "positions": [
                -0.09678564405097961,
                -0.8748879462704393,
                0.7958128626017864,
                -1.170743598428677,
                0.6537020104724953,
                -2.9082604083850456
            ]
        },
        {
            "positions": [
                -0.06532964445125267,
                -0.9141131949459641,
                0.9665022702205035,
                -1.127149386230143,
                0.578768971418159,
                -2.9390526507312504
            ]
        },
        {
            "positions": [
                -0.03387364485152569,
                -0.9533384436214889,
                1.1371916778392206,
                -1.083555174031609,
                0.5038359323638225,
                -2.969844893077455
            ]
        },
        {
            "positions": [
                -0.0024176452517987723,
                -0.9925636922970136,
                1.3078810854579375,
                -1.039960961833075,
                0.4289028933094863,
                -3.0006371354236596
            ]
        },
        {
            "positions": [
                0.02903835434792823,
                -1.0317889409725385,
                1.4785704930766546,
                -0.9963667496345409,
                0.3539698542551498,
                -3.031429377769864
            ]
        },
        {
            "positions": [
                0.06049435394765523,
                -1.0710141896480632,
                1.6492599006953717,
                -0.9527725374360068,
                0.27903681520081347,
                -3.062221620116069
            ]
        },
        {
            "positions": [
                0.09195035354738212,
                -1.110239438323588,
                1.8199493083140885,
                -0.9091783252374728,
                0.20410377614647712,
                -3.093013862462273
            ]
        },
        {
            "positions": [
                0.1234063531471091,
                -1.1494646869991128,
                1.9906387159328054,
                -0.8655841130389388,
                0.12917073709214075,
                -3.123806104808478
            ]
        }
    ]
}