{
    "goal": {
        "global_pose": {
            "orientation": {
                "w": 0.5084816217422485,
                "x": -0.49083608388900757,
                "y": 0.5182115435600281,
                "z": -0.4816462993621826
            },
            "position": {
                "x": 0.5540239810943604,
                "y": 0.030875300988554955,
                "z": 0.16403168439865112
            }
        },
        "name": "move_to_storage_A"
    },
    "id": "SPARS_move_to_storage_A_42",
    "joint_names": [
        "shoulder_pan_joint",
        "shoulder_lift_joint",
        "elbow_joint",
        "wrist_1_joint",
        "wrist_2_joint",
        "wrist_3_joint"
    ],
    "metrics": {
        "cart_traj_len": 0.3527900134715811,
        "distance_elbow_joint": 0.44768451354325167,
        "distance_shoulder_lift_joint": 0.23402227545939258,
        "distance_shoulder_pan_joint": 0.4581286695544301,
        "distance_wrist_1_joint": 0.24009790770564743,
        "distance_wrist_2_joint": 1.1110301216778669,
        "distance_wrist_3_joint": 0.10034535651711618,
        "smoothness": 0.0,
        "time": 5.045072416,
        "traj_len": 1.6097542807701133,
        "weighted_distance": 2.035467412383566
    },
    "planner": "SPARS",
    "start": {
        "state": {
            "elbow_joint": 1.9715463870305268,
            "shoulder_lift_joint": -1.1394903361783484,
            "shoulder_pan_joint": 0.12281147578464417,
            "wrist_1_joint": -0.7804599489681411,
            "wrist_2_joint": 0.12958660307563738,
            "wrist_3_joint": -3.1924946282119055
        }
    },
    "waypoints": [
        {
            "positions": [
                0.12281147578464417,
                -1.1394903361783484,
                1.9715463870305268,
                -0.7804599489681411,
                0.12958660307563738,
                -3.1924946282119055
            ]
        },
        {
            "positions": [
                0.05736452299115416,
                -1.1729220898154045,
                2.0355013175367054,
                -0.8147596500689479,
                0.2883051918867612,
                -3.178159577280889
            ]
        },
        {
            "positions": [
                -0.008082429802335853,
                -1.2063538434524606,
                2.0994562480428844,
                -0.8490593511697546,
                0.44702378069788506,
                -3.1638245263498725
            ]
        },
        {
            "positions": [
                -0.07352938259582585,
                -1.2397855970895166,
                2.163411178549063,
                -0.8833590522705614,
                0.6057423695090088,
                -3.149489475418856
            ]
        },
        {
            "positions": [
                -0.13897633538931586,
                -1.2732173507265727,
                2.227366109055242,
                -0.9176587533713682,
                0.7644609583201327,
                -3.135154424487839
            ]
        },
        {
            "positions": [
                -0.20442328818280592,
                -1.3066491043636288,
                2.2913210395614207,
                -0.951958454472175,
                0.9231795471312566,
                -3.1208193735568224
            ]
        },
        {
            "positions": [
                -0.26987024097629586,
                -1.3400808580006849,
                2.3552759700675994,
                -0.9862581555729817,
                1.0818981359423803,
                -3.106484322625806
            ]
        },
        {
            "positions": [
                -0.3353171937697859,
                -1.373512611637741,
                2.4192309005737784,
                -1.0205578566737885,
                1.2406167247535043,
                -3.0921492716947894
            ]
        }
    ]
}