{
    "goal": {
        "global_pose": {
            "orientation": {
                "w": 0.5084816217422485,
                "x": -0.49083608388900757,
                "y": 0.5182115435600281,
                "z": -0.4816462993621826
            },
            "position": {
                "x": 0.5540239810943604,
                "y": 0.030875300988554955,
                "z": 0.16403168439865112
            }
        },
        "name": "move_to_storage_A"
    },
    "id": "SPARS_move_to_storage_A_90",
    "joint_names": [
        "shoulder_pan_joint",
        "shoulder_lift_joint",
        "elbow_joint",
        "wrist_1_joint",
        "wrist_2_joint",
        "wrist_3_joint"
    ],
    "metrics": {
        "cart_traj_len": 0.3534230758440702,
        "distance_elbow_joint": 0.4493283683617575,
        "distance_shoulder_lift_joint": 0.23698655689064174,
        "distance_shoulder_pan_joint": 0.46419068575427674,
        "distance_wrist_1_joint": 0.23550754207438274,
        "distance_wrist_2_joint": 1.0919248543207094,
        "distance_wrist_3_joint": 0.09250476853083489,
        "smoothness": 1.3322676330666221e-15,
        "time": 5.038273705,
        "traj_len": 1.6032600462596835,
        "weighted_distance": 2.0206149334767782
    },
    "planner": "SPARS",
    "start": {
        "state": {
            "elbow_joint": 1.9715463870305268,
            "shoulder_lift_joint": -1.1394903361783484,
            "shoulder_pan_joint": 0.12281147578464417,
            "wrist_1_joint": -0.7804599489681411,
            "wrist_2_joint": 0.12958660307563738,
            "wrist_3_joint": -3.1924946282119055
        }
    },
    "waypoints": [
        {
            "positions": [
                0.12281147578464417,
                -1.1394903361783484,
                1.9715463870305268,
                -0.7804599489681411,
                0.12958660307563738,
                -3.1924946282119055
            ]
        },
        {
            "positions": [
                0.05649852067689036,
                -1.1733455585912973,
                2.0357361539393493,
                -0.8141038835501958,
                0.28557586797859585,
                -3.179279661278929
            ]
        },
        {
            "positions": [
                -0.009814434430863453,
                -1.207200781004246,
                2.0999259208481718,
                -0.8477478181322504,
                0.4415651328815543,
                -3.1660646943459527
            ]
        },
        {
            "positions": [
                -0.07612738953861727,
                -1.241056003417195,
                2.1641156877569943,
                -0.8813917527143051,
                0.5975543977845128,
                -3.1528497274129763
            ]
        },
        {
            "positions": [
                -0.14244034464637106,
                -1.2749112258301436,
                2.2283054546658168,
                -0.9150356872963598,
                0.7535436626874713,
                -3.13963476048
            ]
        },
        {
            "positions": [
                -0.20875329975412493,
                -1.3087664482430925,
                2.2924952215746393,
                -0.9486796218784145,
                0.9095329275904298,
                -3.1264197935470235
            ]
        },
        {
            "positions": [
                -0.2750662548618787,
                -1.3426216706560412,
                2.3566849884834618,
                -0.9823235564604691,
                1.0655221924933882,
                -3.113204826614047
            ]
        },
        {
            "positions": [
                -0.34137920996963256,
                -1.3764768930689901,
                2.4208747553922842,
                -1.0159674910425238,
                1.2215114573963468,
                -3.0999898596810707
            ]
        }
    ]
}