{
    "goal": {
        "global_pose": {
            "orientation": {
                "w": 0.5084816217422485,
                "x": -0.49083608388900757,
                "y": 0.5182115435600281,
                "z": -0.4816462993621826
            },
            "position": {
                "x": 0.5540239810943604,
                "y": 0.030875300988554955,
                "z": 0.16403168439865112
            }
        },
        "name": "move_to_storage_A"
    },
    "id": "SPARS_move_to_storage_A_121",
    "joint_names": [
        "shoulder_pan_joint",
        "shoulder_lift_joint",
        "elbow_joint",
        "wrist_1_joint",
        "wrist_2_joint",
        "wrist_3_joint"
    ],
    "metrics": {
        "cart_traj_len": 0.35289808124421773,
        "distance_elbow_joint": 0.44807660827602414,
        "distance_shoulder_lift_joint": 0.2341045429919375,
        "distance_shoulder_pan_joint": 0.4621437114722879,
        "distance_wrist_1_joint": 0.23809273431966915,
        "distance_wrist_2_joint": 1.094919854020198,
        "distance_wrist_3_joint": 0.09230607267978508,
        "smoothness": 6.661338146305771e-16,
        "time": 5.015998239999999,
        "traj_len": 1.6030107684478923,
        "weighted_distance": 2.0216993489288506
    },
    "planner": "SPARS",
    "start": {
        "state": {
            "elbow_joint": 1.9715463870305268,
            "shoulder_lift_joint": -1.1394903361783484,
            "shoulder_pan_joint": 0.12281147578464417,
            "wrist_1_joint": -0.7804599489681411,
            "wrist_2_joint": 0.12958660307563738,
            "wrist_3_joint": -3.1924946282119055
        }
    },
    "waypoints": [
        {
            "positions": [
                0.12281147578464417,
                -1.1394903361783484,
                1.9715463870305268,
                -0.7804599489681411,
                0.12958660307563738,
                -3.1924946282119055
            ]
        },
        {
            "positions": [
                0.05679094557431734,
                -1.1729338423200537,
                2.035557331069959,
                -0.8144731967280938,
                0.2860037250785228,
                -3.1793080464005077
            ]
        },
        {
            "positions": [
                -0.009229584636009494,
                -1.206377348461759,
                2.099568275109391,
                -0.8484864444880466,
                0.4424208470814083,
                -3.16612146458911
            ]
        },
        {
            "positions": [
                -0.07525011484633633,
                -1.2398208546034644,
                2.163579219148823,
                -0.8824996922479993,
                0.5988379690842937,
                -3.152934882777712
            ]
        },
        {
            "positions": [
                -0.14127064505666315,
                -1.27326436074517,
                2.2275901631882546,
                -0.916512940007952,
                0.7552550910871791,
                -3.139748300966314
            ]
        },
        {
            "positions": [
                -0.20729117526699004,
                -1.3067078668868752,
                2.2916011072276867,
                -0.9505261877679048,
                0.9116722130900646,
                -3.126561719154916
            ]
        },
        {
            "positions": [
                -0.2733117054773168,
                -1.3401513730285806,
                2.355612051267119,
                -0.9845394355278575,
                1.06808933509295,
                -3.1133751373435183
            ]
        },
        {
            "positions": [
                -0.3393322356876437,
                -1.3735948791702859,
                2.419622995306551,
                -1.0185526832878102,
                1.2245064570958355,
                -3.1001885555321205
            ]
        }
    ]
}