{
    "goal": {
        "global_pose": {
            "orientation": {
                "w": 0.7031023502349854,
                "x": -0.7110244035720825,
                "y": 0.007748599164187908,
                "z": 0.005598929710686207
            },
            "position": {
                "x": 0.11585023208521307,
                "y": 0.44412534475326537,
                "z": 0.3711530566215515
            }
        },
        "name": "move_to_auspresseinheit_A"
    },
    "id": "SPARS_move_to_auspresseinheit_A_104",
    "joint_names": [
        "shoulder_pan_joint",
        "shoulder_lift_joint",
        "elbow_joint",
        "wrist_1_joint",
        "wrist_2_joint",
        "wrist_3_joint"
    ],
    "metrics": {
        "cart_traj_len": 1.7404094587040875,
        "distance_elbow_joint": 0.7873819563776179,
        "distance_shoulder_lift_joint": 1.7475317089772595,
        "distance_shoulder_pan_joint": 1.6759733282938143,
        "distance_wrist_1_joint": 3.976132498427745,
        "distance_wrist_2_joint": 0.5254487481386921,
        "distance_wrist_3_joint": 5.4668658461167885,
        "smoothness": 0.788740927843245,
        "time": 5.05458511,
        "traj_len": 3.765545655855459,
        "weighted_distance": 5.441934125394383
    },
    "planner": "SPARS",
    "start": {
        "state": {
            "elbow_joint": 2.422574709923281,
            "shoulder_lift_joint": -1.3736533754116391,
            "shoulder_pan_joint": -0.33786336945926293,
            "wrist_1_joint": -1.0288603412921917,
            "wrist_2_joint": 1.2330224858903978,
            "wrist_3_joint": -3.094022268022082
        }
    },
    "waypoints": [
        {
            "positions": [
                -0.33786336945926293,
                -1.3736533754116391,
                2.422574709923281,
                -1.0288603412921917,
                1.2330224858903978,
                -3.094022268022082
            ]
        },
        {
            "positions": [
                -0.27605182180243515,
                -1.4255270971677894,
                2.4039728371569566,
                -0.9254483752379264,
                1.2122969921122535,
                -2.9707046113587
            ]
        },
        {
            "positions": [
                -0.21424027414560742,
                -1.4774008189239398,
                2.385370964390632,
                -0.8220364091836612,
                1.191571498334109,
                -2.8473869546953177
            ]
        },
        {
            "positions": [
                -0.15242872648877967,
                -1.52927454068009,
                2.3667690916243074,
                -0.7186244431293958,
                1.1708460045559648,
                -2.7240692980319356
            ]
        },
        {
            "positions": [
                -0.09061717883195189,
                -1.5811482624362405,
                2.3481672188579825,
                -0.6152124770751305,
                1.1501205107778205,
                -2.600751641368553
            ]
        },
        {
            "positions": [
                -0.028805631175124136,
                -1.6330219841923908,
                2.329565346091658,
                -0.5118005110208652,
                1.1293950169996763,
                -2.477433984705171
            ]
        },
        {
            "positions": [
                0.03300591648170359,
                -1.684895705948541,
                2.3109634733253337,
                -0.40838854496659993,
                1.1086695232215318,
                -2.3541163280417887
            ]
        },
        {
            "positions": [
                0.09481746413853137,
                -1.7367694277046914,
                2.292361600559009,
                -0.30497657891233454,
                1.0879440294433875,
                -2.2307986713784067
            ]
        },
        {
            "positions": [
                0.15662901179535915,
                -1.7886431494608417,
                2.2737597277926844,
                -0.20156461285806926,
                1.0672185356652433,
                -2.1074810147150242
            ]
        },
        {
            "positions": [
                0.21844055945218693,
                -1.840516871216992,
                2.2551578550263596,
                -0.09815264680380387,
                1.046493041887099,
                -1.9841633580516422
            ]
        },
        {
            "positions": [
                0.28025210710901466,
                -1.8923905929731424,
                2.236555982260035,
                0.005259319250461303,
                1.0257675481089545,
                -1.86084570138826
            ]
        },
        {
            "positions": [
                0.3420636547658424,
                -1.9442643147292926,
                2.2179541094937107,
                0.1086712853047267,
                1.0050420543308103,
                -1.7375280447248778
            ]
        },
        {
            "positions": [
                0.4038752024226701,
                -1.9961380364854429,
                2.199352236727386,
                0.21208325135899186,
                0.984316560552666,
                -1.6142103880614957
            ]
        },
        {
            "positions": [
                0.46568675007949795,
                -2.0480117582415933,
                2.1807503639610615,
                0.3154952174132575,
                0.9635910667745217,
                -1.4908927313981133
            ]
        },
        {
            "positions": [
                0.5274982977363256,
                -2.0998854799977433,
                2.1621484911947366,
                0.41890718346752265,
                0.9428655729963773,
                -1.367575074734731
            ]
        },
        {
            "positions": [
                0.5893098453931533,
                -2.151759201753894,
                2.143546618428412,
                0.5223191495217878,
                0.922140079218233,
                -1.244257418071349
            ]
        },
        {
            "positions": [
                0.6511213930499813,
                -2.2036329235100443,
                2.1249447456620874,
                0.6257311155760532,
                0.9014145854400887,
                -1.1209397614079666
            ]
        },
        {
            "positions": [
                0.7129329407068088,
                -2.2555066452661947,
                2.106342872895763,
                0.7291430816303186,
                0.8806890916619444,
                -0.9976221047445843
            ]
        },
        {
            "positions": [
                0.7747444883636367,
                -2.307380367022345,
                2.0877410001294385,
                0.832555047684584,
                0.8599635978838001,
                -0.8743044480812023
            ]
        },
        {
            "positions": [
                0.8365560360204645,
                -2.359254088778495,
                2.0691391273631137,
                0.9359670137388492,
                0.8392381041056558,
                -0.7509867914178199
            ]
        },
        {
            "positions": [
                0.8983675836772922,
                -2.411127810534645,
                2.0505372545967893,
                1.0393789797931143,
                0.8185126103275114,
                -0.6276691347544379
            ]
        },
        {
            "positions": [
                0.9601791313341199,
                -2.4630015322907957,
                2.0319353818304644,
                1.1427909458473797,
                0.7977871165493671,
                -0.5043514780910554
            ]
        },
        {
            "positions": [
                1.0219906789909476,
                -2.514875254046946,
                2.01333350906414,
                1.2462029119016451,
                0.7770616227712228,
                -0.3810338214276734
            ]
        },
        {
            "positions": [
                1.0009160603347074,
                -2.4744545986908157,
                2.038542892765372,
                1.1327982955527178,
                0.772429097103255,
                -0.5646256480624988
            ]
        },
        {
            "positions": [
                0.9798414416784672,
                -2.434033943334686,
                2.0637522764666034,
                1.0193936792037908,
                0.7677965714352872,
                -0.7482174746973242
            ]
        },
        {
            "positions": [
                0.9587668230222269,
                -2.3936132879785554,
                2.0889616601678354,
                0.9059890628548635,
                0.7631640457673193,
                -0.9318093013321497
            ]
        },
        {
            "positions": [
                0.9376922043659868,
                -2.3531926326224255,
                2.1141710438690673,
                0.7925844465059362,
                0.7585315200993515,
                -1.115401127966975
            ]
        },
        {
            "positions": [
                0.9166175857097465,
                -2.312771977266295,
                2.139380427570299,
                0.6791798301570091,
                0.7538989944313838,
                -1.2989929546018004
            ]
        },
        {
            "positions": [
                0.8955429670535063,
                -2.272351321910165,
                2.1645898112715307,
                0.5657752138080818,
                0.749266468763416,
                -1.482584781236626
            ]
        },
        {
            "positions": [
                0.8744683483972661,
                -2.231930666554035,
                2.1897991949727627,
                0.45237059745915464,
                0.7446339430954482,
                -1.6661766078714513
            ]
        },
        {
            "positions": [
                0.8533937297410259,
                -2.191510011197905,
                2.215008578673994,
                0.33896598111022735,
                0.7400014174274803,
                -1.8497684345062766
            ]
        },
        {
            "positions": [
                0.8323191110847856,
                -2.1510893558417745,
                2.240217962375226,
                0.22556136476130018,
                0.7353688917595125,
                -2.0333602611411017
            ]
        },
        {
            "positions": [
                0.8112444924285455,
                -2.1106687004856446,
                2.265427346076458,
                0.11215674841237311,
                0.7307363660915447,
                -2.2169520877759274
            ]
        },
        {
            "positions": [
                0.7901698737723052,
                -2.070248045129514,
                2.2906367297776895,
                -0.0012478679365541812,
                0.7261038404235769,
                -2.4005439144107528
            ]
        },
        {
            "positions": [
                0.769095255116065,
                -2.0298273897733843,
                2.3158461134789214,
                -0.11465248428548147,
                0.7214713147556091,
                -2.5841357410455785
            ]
        },
        {
            "positions": [
                0.7480206364598248,
                -1.989406734417254,
                2.3410554971801534,
                -0.22805710063440876,
                0.7168387890876412,
                -2.767727567680404
            ]
        },
        {
            "positions": [
                0.7269460178035845,
                -1.9489860790611238,
                2.366264880881385,
                -0.34146171698333583,
                0.7122062634196734,
                -2.951319394315229
            ]
        },
        {
            "positions": [
                0.7058713991473443,
                -1.9085654237049936,
                2.391474264582617,
                -0.4548663333322631,
                0.7075737377517056,
                -3.1349112209500545
            ]
        }
    ]
}