{
    "goal": {
        "global_pose": {
            "orientation": {
                "w": 0.7031023502349854,
                "x": -0.7110244035720825,
                "y": 0.007748599164187908,
                "z": 0.005598929710686207
            },
            "position": {
                "x": 0.11585023208521307,
                "y": 0.44412534475326537,
                "z": 0.3711530566215515
            }
        },
        "name": "move_to_auspresseinheit_A"
    },
    "id": "SPARS_move_to_auspresseinheit_A_75",
    "joint_names": [
        "shoulder_pan_joint",
        "shoulder_lift_joint",
        "elbow_joint",
        "wrist_1_joint",
        "wrist_2_joint",
        "wrist_3_joint"
    ],
    "metrics": {
        "cart_traj_len": 1.9652800078512542,
        "distance_elbow_joint": 2.003129523556884,
        "distance_shoulder_lift_joint": 0.6112479415935714,
        "distance_shoulder_pan_joint": 1.6849721618074782,
        "distance_wrist_1_joint": 1.1744308126165048,
        "distance_wrist_2_joint": 1.5769836940967825,
        "distance_wrist_3_joint": 0.6383014201382791,
        "smoothness": 1.0958691847836843,
        "time": 5.019204822,
        "traj_len": 2.7729164346964192,
        "weighted_distance": 3.423022480323398
    },
    "planner": "SPARS",
    "start": {
        "state": {
            "elbow_joint": 2.422574709923281,
            "shoulder_lift_joint": -1.3736533754116391,
            "shoulder_pan_joint": -0.33786336945926293,
            "wrist_1_joint": -1.0288603412921917,
            "wrist_2_joint": 1.2330224858903978,
            "wrist_3_joint": -3.094022268022082
        }
    },
    "waypoints": [
        {
            "positions": [
                -0.33786336945926293,
                -1.3736533754116391,
                2.422574709923281,
                -1.0288603412921917,
                1.2330224858903978,
                -3.094022268022082
            ]
        },
        {
            "positions": [
                -0.37339219243592936,
                -1.4367845982062175,
                2.3094545171879846,
                -0.9337090339364321,
                1.1873375049636798,
                -3.087121073948339
            ]
        },
        {
            "positions": [
                -0.4089210154125958,
                -1.4999158210007961,
                2.1963343244526885,
                -0.8385577265806725,
                1.1416525240369617,
                -3.0802198798745954
            ]
        },
        {
            "positions": [
                -0.4444498383892622,
                -1.5630470437953745,
                2.083214131717392,
                -0.743406419224913,
                1.0959675431102438,
                -3.0733186858008525
            ]
        },
        {
            "positions": [
                -0.47997866136592865,
                -1.626178266589953,
                1.9700939389820957,
                -0.6482551118691533,
                1.050282562183526,
                -3.066417491727109
            ]
        },
        {
            "positions": [
                -0.5155074843425951,
                -1.6893094893845315,
                1.8569737462467992,
                -0.5531038045133938,
                1.004597581256808,
                -3.059516297653366
            ]
        },
        {
            "positions": [
                -0.5510363073192615,
                -1.75244071217911,
                1.743853553511503,
                -0.4579524971576342,
                0.95891260033009,
                -3.0526151035796225
            ]
        },
        {
            "positions": [
                -0.5865651302959279,
                -1.8155719349736883,
                1.6307333607762065,
                -0.3628011898018746,
                0.9132276194033719,
                -3.0457139095058796
            ]
        },
        {
            "positions": [
                -0.6220939532725944,
                -1.8787031577682667,
                1.5176131680409104,
                -0.267649882446115,
                0.867542638476654,
                -3.0388127154321363
            ]
        },
        {
            "positions": [
                -0.6576227762492608,
                -1.9418343805628453,
                1.404492975305614,
                -0.17249857509035538,
                0.821857657549936,
                -3.031911521358393
            ]
        },
        {
            "positions": [
                -0.49601467811049915,
                -1.9422931280749165,
                1.5168169834469225,
                -0.17008931597086668,
                0.7420856604062275,
                -3.0026177295709955
            ]
        },
        {
            "positions": [
                -0.3344065799717375,
                -1.942751875586988,
                1.629140991588231,
                -0.16768005685137802,
                0.6623136632625188,
                -2.9733239377835985
            ]
        },
        {
            "positions": [
                -0.17279848183297586,
                -1.9432106230990591,
                1.7414649997295393,
                -0.16527079773188935,
                0.5825416661188103,
                -2.9440301459962015
            ]
        },
        {
            "positions": [
                -0.011190383694214212,
                -1.9436693706111305,
                1.8537890078708479,
                -0.16286153861240066,
                0.5027696689751018,
                -2.914736354208804
            ]
        },
        {
            "positions": [
                0.15041771444454743,
                -1.9441281181232017,
                1.9661130160121565,
                -0.16045227949291196,
                0.42299767183139325,
                -2.8854425624214066
            ]
        },
        {
            "positions": [
                0.3120258125833091,
                -1.944586865635273,
                2.078437024153465,
                -0.1580430203734233,
                0.34322567468768467,
                -2.8561487706340096
            ]
        },
        {
            "positions": [
                0.4736339107220706,
                -1.9450456131473444,
                2.1907610322947733,
                -0.15563376125393463,
                0.2634536775439761,
                -2.8268549788466126
            ]
        },
        {
            "positions": [
                0.6352420088608325,
                -1.9455043606594156,
                2.303085040436082,
                -0.15322450213444594,
                0.1836816804002675,
                -2.797561187059215
            ]
        },
        {
            "positions": [
                0.6533290013376792,
                -1.935655121572967,
                2.324698971388269,
                -0.22792324549913576,
                0.3155924025519306,
                -2.8830212718530683
            ]
        },
        {
            "positions": [
                0.671415993814526,
                -1.925805882486518,
                2.3463129023404563,
                -0.3026219888638256,
                0.4475031247035937,
                -2.9684813566469215
            ]
        },
        {
            "positions": [
                0.6895029862913727,
                -1.9159566434000692,
                2.3679268332926435,
                -0.37732073222851537,
                0.5794138468552568,
                -3.053941441440774
            ]
        },
        {
            "positions": [
                0.7075899787682195,
                -1.9061074043136206,
                2.3895407642448308,
                -0.4520194755932052,
                0.7113245690069199,
                -3.1394015262346273
            ]
        }
    ]
}