{
    "goal": {
        "global_pose": {
            "orientation": {
                "w": 0.7047431468963623,
                "x": -0.7094548344612122,
                "y": 0.0024358443915843964,
                "z": -0.0022348060738295317
            },
            "position": {
                "x": 0.6094750761985779,
                "y": 0.3671506643295288,
                "z": 0.19426114857196808
            }
        },
        "name": "move_to_magneteinheit_A"
    },
    "id": "SPARS_move_to_magneteinheit_A_47",
    "joint_names": [
        "shoulder_pan_joint",
        "shoulder_lift_joint",
        "elbow_joint",
        "wrist_1_joint",
        "wrist_2_joint",
        "wrist_3_joint"
    ],
    "metrics": {
        "cart_traj_len": 2.062613062952922,
        "distance_elbow_joint": 3.872688967609622,
        "distance_shoulder_lift_joint": 1.0530728658686397,
        "distance_shoulder_pan_joint": 1.2423779767695946,
        "distance_wrist_1_joint": 1.1305047292622468,
        "distance_wrist_2_joint": 1.4456880223147401,
        "distance_wrist_3_joint": 1.9106597397065168,
        "smoothness": 1.903239467962136e-16,
        "time": 5.017736414000001,
        "traj_len": 3.264198569562115,
        "weighted_distance": 4.1294678267933485
    },
    "planner": "SPARS",
    "start": {
        "state": {
            "elbow_joint": -1.919643507792019,
            "shoulder_lift_joint": -0.07675430207160344,
            "shoulder_pan_joint": -1.1188671864651873,
            "wrist_1_joint": 0.42560062535961957,
            "wrist_2_joint": 1.5706038300724876,
            "wrist_3_joint": 1.1188968870953055
        }
    },
    "waypoints": [
        {
            "positions": [
                -1.1188671864651873,
                -0.07675430207160344,
                -1.919643507792019,
                0.42560062535961957,
                1.5706038300724876,
                1.1188968870953055
            ]
        },
        {
            "positions": [
                -1.0728531873255727,
                -0.11575700080747899,
                -1.7762105830657369,
                0.3837300798313882,
                1.5170598292460158,
                1.1896620626399914
            ]
        },
        {
            "positions": [
                -1.0268391881859582,
                -0.15475969954335453,
                -1.6327776583394544,
                0.34185953430315685,
                1.463515828419544,
                1.2604272381846773
            ]
        },
        {
            "positions": [
                -0.9808251890463435,
                -0.19376239827923009,
                -1.4893447336131722,
                0.2999889887749255,
                1.409971827593072,
                1.331192413729363
            ]
        },
        {
            "positions": [
                -0.9348111899067288,
                -0.23276509701510562,
                -1.34591180888689,
                0.25811844324669414,
                1.3564278267666001,
                1.4019575892740488
            ]
        },
        {
            "positions": [
                -0.8887971907671143,
                -0.27176779575098114,
                -1.2024788841606076,
                0.21624789771846276,
                1.3028838259401283,
                1.4727227648187347
            ]
        },
        {
            "positions": [
                -0.8427831916274997,
                -0.3107704944868567,
                -1.0590459594343253,
                0.17437735219023143,
                1.2493398251136565,
                1.5434879403634203
            ]
        },
        {
            "positions": [
                -0.796769192487885,
                -0.34977319322273226,
                -0.9156130347080431,
                0.13250680666200004,
                1.1957958242871847,
                1.6142531159081062
            ]
        },
        {
            "positions": [
                -0.7507551933482705,
                -0.3887758919586078,
                -0.7721801099817609,
                0.09063626113376871,
                1.1422518234607129,
                1.685018291452792
            ]
        },
        {
            "positions": [
                -0.7047411942086559,
                -0.4277785906944833,
                -0.6287471852554785,
                0.04876571560553733,
                1.088707822634241,
                1.7557834669974777
            ]
        },
        {
            "positions": [
                -0.6587271950690412,
                -0.46678128943035885,
                -0.48531426052919624,
                0.0068951700773059454,
                1.0351638218077692,
                1.8265486425421635
            ]
        },
        {
            "positions": [
                -0.6127131959294266,
                -0.5057839881662344,
                -0.341881335802914,
                -0.03497537545092538,
                0.9816198209812972,
                1.8973138180868494
            ]
        },
        {
            "positions": [
                -0.566699196789812,
                -0.54478668690211,
                -0.19844841107663158,
                -0.07684592097915671,
                0.9280758201548254,
                1.968078993631535
            ]
        },
        {
            "positions": [
                -0.5206851976501974,
                -0.5837893856379854,
                -0.05501548635034936,
                -0.11871646650738815,
                0.8745318193283536,
                2.038844169176221
            ]
        },
        {
            "positions": [
                -0.4746711985105828,
                -0.622792084373861,
                0.08841743837593286,
                -0.16058701203561948,
                0.8209878185018816,
                2.1096093447209068
            ]
        },
        {
            "positions": [
                -0.42865719937096813,
                -0.6617947831097366,
                0.2318503631022153,
                -0.20245755756385092,
                0.7674438176754097,
                2.180374520265593
            ]
        },
        {
            "positions": [
                -0.38264320023135356,
                -0.7007974818456122,
                0.3752832878284973,
                -0.24432810309208214,
                0.713899816848938,
                2.2511396958102785
            ]
        },
        {
            "positions": [
                -0.3366292010917389,
                -0.7398001805814878,
                0.5187162125547802,
                -0.2861986486203136,
                0.660355816022466,
                2.321904871354964
            ]
        },
        {
            "positions": [
                -0.2906152019521243,
                -0.7788028793173631,
                0.6621491372810622,
                -0.3280691941485449,
                0.6068118151959943,
                2.3926700468996502
            ]
        },
        {
            "positions": [
                -0.24460120281250963,
                -0.8178055780532387,
                0.8055820620073446,
                -0.36993973967677635,
                0.5532678143695222,
                2.463435222444336
            ]
        },
        {
            "positions": [
                -0.19858720367289506,
                -0.8568082767891143,
                0.9490149867336266,
                -0.4118102852050077,
                0.4997238135430506,
                2.5342003979890215
            ]
        },
        {
            "positions": [
                -0.15257320453328038,
                -0.8958109755249899,
                1.092447911459909,
                -0.453680830733239,
                0.4461798127165786,
                2.6049655735337076
            ]
        },
        {
            "positions": [
                -0.10655920539366592,
                -0.9348136742608653,
                1.235880836186191,
                -0.49555137626147033,
                0.39263581189010677,
                2.6757307490783933
            ]
        },
        {
            "positions": [
                -0.06054520625405124,
                -0.9738163729967411,
                1.3793137609124735,
                -0.5374219217897018,
                0.33909181106363495,
                2.746495924623079
            ]
        },
        {
            "positions": [
                -0.014531207114436562,
                -1.0128190717326164,
                1.522746685638756,
                -0.5792924673179329,
                0.28554781023716314,
                2.817261100167765
            ]
        },
        {
            "positions": [
                0.03148279202517812,
                -1.051821770468492,
                1.6661796103650384,
                -0.6211630128461645,
                0.2320038094106911,
                2.888026275712451
            ]
        },
        {
            "positions": [
                0.07749679116479258,
                -1.0908244692043676,
                1.8096125350913204,
                -0.6630335583743958,
                0.1784598085842195,
                2.9587914512571363
            ]
        },
        {
            "positions": [
                0.12351079030440727,
                -1.1298271679402432,
                1.9530454598176028,
                -0.7049041039026271,
                0.12491580775774751,
                3.0295566268018224
            ]
        }
    ]
}