{
    "goal": {
        "global_pose": {
            "orientation": {
                "w": 0.5084816217422485,
                "x": -0.49083608388900757,
                "y": 0.5182115435600281,
                "z": -0.4816462993621826
            },
            "position": {
                "x": 0.5540239810943604,
                "y": 0.030875300988554955,
                "z": 0.16403168439865112
            }
        },
        "name": "move_to_storage_A"
    },
    "id": "SPARS_move_to_storage_A_43",
    "joint_names": [
        "shoulder_pan_joint",
        "shoulder_lift_joint",
        "elbow_joint",
        "wrist_1_joint",
        "wrist_2_joint",
        "wrist_3_joint"
    ],
    "metrics": {
        "cart_traj_len": 0.35300010541656285,
        "distance_elbow_joint": 0.450946183388683,
        "distance_shoulder_lift_joint": 0.23641236307283142,
        "distance_shoulder_pan_joint": 0.4631334411558208,
        "distance_wrist_1_joint": 0.2460642309065767,
        "distance_wrist_2_joint": 1.0928983222847322,
        "distance_wrist_3_joint": 0.10305061347208655,
        "smoothness": 4.440892098500626e-16,
        "time": 5.01651449,
        "traj_len": 1.6101258193944754,
        "weighted_distance": 2.0341015054358063
    },
    "planner": "SPARS",
    "start": {
        "state": {
            "elbow_joint": 1.9715463870305268,
            "shoulder_lift_joint": -1.1394903361783484,
            "shoulder_pan_joint": 0.12281147578464417,
            "wrist_1_joint": -0.7804599489681411,
            "wrist_2_joint": 0.12958660307563738,
            "wrist_3_joint": -3.1924946282119055
        }
    },
    "waypoints": [
        {
            "positions": [
                0.12281147578464417,
                -1.1394903361783484,
                1.9715463870305268,
                -0.7804599489681411,
                0.12958660307563738,
                -3.1924946282119055
            ]
        },
        {
            "positions": [
                0.05664955561952692,
                -1.1732635309030386,
                2.035967270371767,
                -0.8156119819547949,
                0.2857149348305991,
                -3.1777731120016073
            ]
        },
        {
            "positions": [
                -0.009512364545590332,
                -1.2070367256277288,
                2.100388153713008,
                -0.8507640149414487,
                0.44184326658556083,
                -3.1630515957913095
            ]
        },
        {
            "positions": [
                -0.07567428471070757,
                -1.240809920352419,
                2.164809037054248,
                -0.8859160479281025,
                0.5979715983405226,
                -3.148330079581011
            ]
        },
        {
            "positions": [
                -0.14183620487582482,
                -1.2745831150771092,
                2.2292299203954884,
                -0.9210680809147563,
                0.7540999300954844,
                -3.1336085633707134
            ]
        },
        {
            "positions": [
                -0.20799812504094212,
                -1.3083563098017994,
                2.293650803736729,
                -0.9562201139014102,
                0.9102282618504461,
                -3.118887047160415
            ]
        },
        {
            "positions": [
                -0.2741600452060593,
                -1.3421295045264896,
                2.3580716870779694,
                -0.991372146888064,
                1.0663565936054078,
                -3.1041655309501173
            ]
        },
        {
            "positions": [
                -0.3403219653711766,
                -1.3759026992511798,
                2.4224925704192097,
                -1.0265241798747178,
                1.2224849253603696,
                -3.089444014739819
            ]
        }
    ]
}