{
    "goal": {
        "global_pose": {
            "orientation": {
                "w": 0.7047431468963623,
                "x": -0.7094548344612122,
                "y": 0.0024358443915843964,
                "z": -0.0022348060738295317
            },
            "position": {
                "x": 0.6094750761985779,
                "y": 0.3671506643295288,
                "z": 0.19426114857196808
            }
        },
        "name": "move_to_magneteinheit_A"
    },
    "id": "SPARS_move_to_magneteinheit_A_55",
    "joint_names": [
        "shoulder_pan_joint",
        "shoulder_lift_joint",
        "elbow_joint",
        "wrist_1_joint",
        "wrist_2_joint",
        "wrist_3_joint"
    ],
    "metrics": {
        "cart_traj_len": 1.8775144044884367,
        "distance_elbow_joint": 3.9124303851913815,
        "distance_shoulder_lift_joint": 0.7008928520065343,
        "distance_shoulder_pan_joint": 1.2427358796467127,
        "distance_wrist_1_joint": 1.4992121908827047,
        "distance_wrist_2_joint": 1.7019729458290438,
        "distance_wrist_3_joint": 1.124192426545772,
        "smoothness": 5.921189474439232e-16,
        "time": 5.030697591,
        "traj_len": 3.190836360596098,
        "weighted_distance": 3.953606792525711
    },
    "planner": "SPARS",
    "start": {
        "state": {
            "elbow_joint": -1.919643507792019,
            "shoulder_lift_joint": -0.07675430207160344,
            "shoulder_pan_joint": -1.1188671864651873,
            "wrist_1_joint": 0.42560062535961957,
            "wrist_2_joint": 1.5706038300724876,
            "wrist_3_joint": 1.1188968870953055
        }
    },
    "waypoints": [
        {
            "positions": [
                -1.1188671864651873,
                -0.07675430207160344,
                -1.919643507792019,
                0.42560062535961957,
                1.5706038300724876,
                1.1188968870953055
            ]
        },
        {
            "positions": [
                -1.0710696526326215,
                -0.10371171945647015,
                -1.769165416053889,
                0.4832626327012621,
                1.505143332155986,
                1.0756587168435452
            ]
        },
        {
            "positions": [
                -1.0232721188000555,
                -0.13066913684133685,
                -1.618687324315759,
                0.5409246400429045,
                1.4396828342394843,
                1.0324205465917846
            ]
        },
        {
            "positions": [
                -0.9754745849674897,
                -0.15762655422620356,
                -1.4682092325776288,
                0.598586647384547,
                1.3742223363229826,
                0.9891823763400241
            ]
        },
        {
            "positions": [
                -0.9276770511349238,
                -0.18458397161107026,
                -1.317731140839499,
                0.6562486547261895,
                1.3087618384064807,
                0.9459442060882637
            ]
        },
        {
            "positions": [
                -0.8798795173023579,
                -0.21154138899593697,
                -1.1672530491013688,
                0.713910662067832,
                1.243301340489979,
                0.9027060358365032
            ]
        },
        {
            "positions": [
                -0.8320819834697921,
                -0.23849880638080367,
                -1.0167749573632388,
                0.7715726694094744,
                1.1778408425734774,
                0.8594678655847428
            ]
        },
        {
            "positions": [
                -0.7842844496372263,
                -0.26545622376567035,
                -0.8662968656251087,
                0.829234676751117,
                1.1123803446569758,
                0.8162296953329824
            ]
        },
        {
            "positions": [
                -0.7364869158046603,
                -0.2924136411505371,
                -0.7158187738869786,
                0.8868966840927595,
                1.0469198467404741,
                0.7729915250812218
            ]
        },
        {
            "positions": [
                -0.6886893819720945,
                -0.31937105853540376,
                -0.5653406821488487,
                0.944558691434402,
                0.9814593488239725,
                0.7297533548294615
            ]
        },
        {
            "positions": [
                -0.6408918481395286,
                -0.3463284759202705,
                -0.4148625904107184,
                1.0022206987760445,
                0.9159988509074707,
                0.6865151845777009
            ]
        },
        {
            "positions": [
                -0.5930943143069627,
                -0.3732858933051372,
                -0.2643844986725885,
                1.059882706117687,
                0.8505383529909691,
                0.6432770143259405
            ]
        },
        {
            "positions": [
                -0.5452967804743968,
                -0.4002433106900039,
                -0.1139064069344582,
                1.1175447134593295,
                0.7850778550744674,
                0.6000388440741801
            ]
        },
        {
            "positions": [
                -0.497499246641831,
                -0.4272007280748706,
                0.03657168480367168,
                1.175206720800972,
                0.7196173571579657,
                0.5568006738224196
            ]
        },
        {
            "positions": [
                -0.4497017128092652,
                -0.45415814545973726,
                0.18704977654180177,
                1.2328687281426145,
                0.654156859241464,
                0.5135625035706591
            ]
        },
        {
            "positions": [
                -0.4019041789766993,
                -0.48111556284460394,
                0.3375278682799314,
                1.2905307354842568,
                0.5886963613249624,
                0.4703243333188988
            ]
        },
        {
            "positions": [
                -0.35410664514413337,
                -0.5080729802294708,
                0.48800596001806196,
                1.3481927428258995,
                0.5232358634084606,
                0.4270861630671382
            ]
        },
        {
            "positions": [
                -0.30630911131156746,
                -0.5350303976143373,
                0.638484051756192,
                1.4058547501675418,
                0.45777536549195896,
                0.38384799281537774
            ]
        },
        {
            "positions": [
                -0.25851157747900166,
                -0.5619878149992041,
                0.7889621434943217,
                1.4635167575091845,
                0.3923148675754573,
                0.3406098225636174
            ]
        },
        {
            "positions": [
                -0.21071404364643576,
                -0.5889452323840707,
                0.9394402352324518,
                1.5211787648508268,
                0.32685436965895565,
                0.2973716523118569
            ]
        },
        {
            "positions": [
                -0.16291650981386985,
                -0.6159026497689375,
                1.0899183269705823,
                1.5788407721924695,
                0.26139387174245376,
                0.25413348206009634
            ]
        },
        {
            "positions": [
                -0.11511897598130405,
                -0.6428600671538043,
                1.2403964187087124,
                1.6365027795341118,
                0.1959333738259521,
                0.21089531180833587
            ]
        },
        {
            "positions": [
                -0.06732144214873803,
                -0.6698174845386708,
                1.390874510446842,
                1.6941647868757543,
                0.13047287590945067,
                0.16765714155657552
            ]
        },
        {
            "positions": [
                -0.019523908316172234,
                -0.6967749019235376,
                1.5413526021849722,
                1.7518267942173968,
                0.06501237799294901,
                0.12441897130481505
            ]
        },
        {
            "positions": [
                0.028273625516393786,
                -0.7237323193084044,
                1.6918306939231027,
                1.8094888015590394,
                -0.0004481199235528699,
                0.08118080105305459
            ]
        },
        {
            "positions": [
                0.07607115934895958,
                -0.750689736693271,
                1.8423087856612324,
                1.8671508089006819,
                -0.06590861784005453,
                0.03794263080129401
            ]
        },
        {
            "positions": [
                0.12386869318152544,
                -0.7776471540781378,
                1.9927868773993627,
                1.9248128162423244,
                -0.13136911575655613,
                -0.005295539450466255
            ]
        }
    ]
}