{
    "goal": {
        "global_pose": {
            "orientation": {
                "w": 0.5084816217422485,
                "x": -0.49083608388900757,
                "y": 0.5182115435600281,
                "z": -0.4816462993621826
            },
            "position": {
                "x": 0.5540239810943604,
                "y": 0.030875300988554955,
                "z": 0.16403168439865112
            }
        },
        "name": "move_to_storage_A"
    },
    "id": "SPARS_move_to_storage_A_61",
    "joint_names": [
        "shoulder_pan_joint",
        "shoulder_lift_joint",
        "elbow_joint",
        "wrist_1_joint",
        "wrist_2_joint",
        "wrist_3_joint"
    ],
    "metrics": {
        "cart_traj_len": 0.3526131286630871,
        "distance_elbow_joint": 0.44964275601878745,
        "distance_shoulder_lift_joint": 0.23517341792788815,
        "distance_shoulder_pan_joint": 0.46104352438193164,
        "distance_wrist_1_joint": 0.23862283306553478,
        "distance_wrist_2_joint": 1.0986683770932644,
        "distance_wrist_3_joint": 0.09757802959990647,
        "smoothness": 4.440892133664971e-16,
        "time": 5.035873668,
        "traj_len": 1.6064647329111563,
        "weighted_distance": 2.0280966957830007
    },
    "planner": "SPARS",
    "start": {
        "state": {
            "elbow_joint": 1.9715463870305268,
            "shoulder_lift_joint": -1.1394903361783484,
            "shoulder_pan_joint": 0.12281147578464417,
            "wrist_1_joint": -0.7804599489681411,
            "wrist_2_joint": 0.12958660307563738,
            "wrist_3_joint": -3.1924946282119055
        }
    },
    "waypoints": [
        {
            "positions": [
                0.12281147578464417,
                -1.1394903361783484,
                1.9715463870305268,
                -0.7804599489681411,
                0.12958660307563738,
                -3.1924946282119055
            ]
        },
        {
            "positions": [
                0.056948115158653945,
                -1.1730865387394753,
                2.035781066461782,
                -0.8145489251203604,
                0.28653922837467516,
                -3.1785549096976333
            ]
        },
        {
            "positions": [
                -0.008915245467336283,
                -1.206682741300602,
                2.1000157458930375,
                -0.8486379012725795,
                0.4434918536737129,
                -3.1646151911833607
            ]
        },
        {
            "positions": [
                -0.07477860609332652,
                -1.240278943861729,
                2.1642504253242927,
                -0.8827268774247988,
                0.6004444789727507,
                -3.1506754726690884
            ]
        },
        {
            "positions": [
                -0.14064196671931672,
                -1.273875146422856,
                2.2284851047555483,
                -0.9168158535770181,
                0.7573971042717884,
                -3.136735754154816
            ]
        },
        {
            "positions": [
                -0.20650532734530697,
                -1.3074713489839829,
                2.2927197841868034,
                -0.9509048297292373,
                0.9143497295708263,
                -3.122796035640544
            ]
        },
        {
            "positions": [
                -0.2723686879712972,
                -1.3410675515451096,
                2.3569544636180586,
                -0.9849938058814566,
                1.071302354869864,
                -3.1088563171262713
            ]
        },
        {
            "positions": [
                -0.33823204859728745,
                -1.3746637541062365,
                2.421189143049314,
                -1.0190827820336759,
                1.2282549801689018,
                -3.094916598611999
            ]
        }
    ]
}