{
    "goal": {
        "global_pose": {
            "orientation": {
                "w": 0.7047431468963623,
                "x": -0.7094548344612122,
                "y": 0.0024358443915843964,
                "z": -0.0022348060738295317
            },
            "position": {
                "x": 0.6094750761985779,
                "y": 0.3671506643295288,
                "z": 0.19426114857196808
            }
        },
        "name": "move_to_magneteinheit_A"
    },
    "id": "SPARS_move_to_magneteinheit_A_18",
    "joint_names": [
        "shoulder_pan_joint",
        "shoulder_lift_joint",
        "elbow_joint",
        "wrist_1_joint",
        "wrist_2_joint",
        "wrist_3_joint"
    ],
    "metrics": {
        "cart_traj_len": 1.8660240492994327,
        "distance_elbow_joint": 3.9433112498783025,
        "distance_shoulder_lift_joint": 0.7136796839548372,
        "distance_shoulder_pan_joint": 1.240702034769252,
        "distance_wrist_1_joint": 1.6042840635322662,
        "distance_wrist_2_joint": 1.692604333233822,
        "distance_wrist_3_joint": 1.2432184281601792,
        "smoothness": 8.564577623723891e-16,
        "time": 5.0209125850000005,
        "traj_len": 3.230758392936349,
        "weighted_distance": 4.027545784546106
    },
    "planner": "SPARS",
    "start": {
        "state": {
            "elbow_joint": -1.919643507792019,
            "shoulder_lift_joint": -0.07675430207160344,
            "shoulder_pan_joint": -1.1188671864651873,
            "wrist_1_joint": 0.42560062535961957,
            "wrist_2_joint": 1.5706038300724876,
            "wrist_3_joint": 1.1188968870953055
        }
    },
    "waypoints": [
        {
            "positions": [
                -1.1188671864651873,
                -0.07675430207160344,
                -1.919643507792019,
                0.42560062535961957,
                1.5706038300724876,
                1.1188968870953055
            ]
        },
        {
            "positions": [
                -1.0729152592515114,
                -0.10318688295881963,
                -1.7735949429817115,
                0.48501855363859236,
                1.5079147806934572,
                1.07285176012641
            ]
        },
        {
            "positions": [
                -1.0269633320378353,
                -0.12961946384603582,
                -1.6275463781714041,
                0.5444364819175652,
                1.4452257313144268,
                1.0268066331575145
            ]
        },
        {
            "positions": [
                -0.9810114048241594,
                -0.15605204473325202,
                -1.4814978133610965,
                0.603854410196538,
                1.3825366819353964,
                0.980761506188619
            ]
        },
        {
            "positions": [
                -0.9350594776104834,
                -0.1824846256204682,
                -1.3354492485507892,
                0.6632723384755108,
                1.3198476325563657,
                0.9347163792197235
            ]
        },
        {
            "positions": [
                -0.8891075503968073,
                -0.2089172065076844,
                -1.1894006837404816,
                0.7226902667544837,
                1.2571585831773353,
                0.8886712522508279
            ]
        },
        {
            "positions": [
                -0.8431556231831314,
                -0.2353497873949006,
                -1.0433521189301742,
                0.7821081950334565,
                1.194469533798305,
                0.8426261252819324
            ]
        },
        {
            "positions": [
                -0.7972036959694554,
                -0.26178236828211676,
                -0.8973035541198666,
                0.8415261233124293,
                1.1317804844192745,
                0.7965809983130369
            ]
        },
        {
            "positions": [
                -0.7512517687557794,
                -0.288214949169333,
                -0.7512549893095593,
                0.9009440515914021,
                1.069091435040244,
                0.7505358713441413
            ]
        },
        {
            "positions": [
                -0.7052998415421035,
                -0.31464753005654916,
                -0.6052064244992517,
                0.9603619798703749,
                1.0064023856612136,
                0.7044907443752458
            ]
        },
        {
            "positions": [
                -0.6593479143284274,
                -0.34108011094376534,
                -0.45915785968894407,
                1.0197799081493477,
                0.9437133362821831,
                0.6584456174063502
            ]
        },
        {
            "positions": [
                -0.6133959871147514,
                -0.3675126918309815,
                -0.3131092948786367,
                1.0791978364283206,
                0.8810242869031527,
                0.6124004904374548
            ]
        },
        {
            "positions": [
                -0.5674440599010754,
                -0.39394527271819774,
                -0.1670607300683291,
                1.1386157647072934,
                0.8183352375241223,
                0.5663553634685592
            ]
        },
        {
            "positions": [
                -0.5214921326873995,
                -0.4203778536054139,
                -0.021012165258021742,
                1.1980336929862663,
                0.7556461881450919,
                0.5203102364996637
            ]
        },
        {
            "positions": [
                -0.47554020547372344,
                -0.4468104344926301,
                0.12503639955228585,
                1.257451621265239,
                0.6929571387660614,
                0.47426510953076817
            ]
        },
        {
            "positions": [
                -0.4295882782600474,
                -0.4732430153798463,
                0.27108496436259366,
                1.316869549544212,
                0.6302680893870308,
                0.42821998256187266
            ]
        },
        {
            "positions": [
                -0.3836363510463715,
                -0.4996755962670625,
                0.4171335291729006,
                1.3762874778231846,
                0.5675790400080005,
                0.38217485559297715
            ]
        },
        {
            "positions": [
                -0.33768442383269537,
                -0.5261081771542787,
                0.5631820939832084,
                1.4357054061021577,
                0.5048899906289699,
                0.3361297286240815
            ]
        },
        {
            "positions": [
                -0.29173249661901945,
                -0.5525407580414949,
                0.7092306587935158,
                1.4951233343811303,
                0.4422009412499397,
                0.2900846016551861
            ]
        },
        {
            "positions": [
                -0.24578056940534343,
                -0.5789733389287111,
                0.8552792236038236,
                1.5545412626601032,
                0.37951189187090906,
                0.2440394746862905
            ]
        },
        {
            "positions": [
                -0.19982864219166752,
                -0.6054059198159272,
                1.001327788414131,
                1.613959190939076,
                0.31682284249187864,
                0.197994347717395
            ]
        },
        {
            "positions": [
                -0.15387671497799138,
                -0.6318385007031435,
                1.1473763532244383,
                1.6733771192180489,
                0.2541337931128482,
                0.15194922074849948
            ]
        },
        {
            "positions": [
                -0.10792478776431547,
                -0.6582710815903596,
                1.2934249180347457,
                1.7327950474970215,
                0.1914447437338178,
                0.10590409377960408
            ]
        },
        {
            "positions": [
                -0.06197286055063933,
                -0.6847036624775757,
                1.4394734828450535,
                1.7922129757759946,
                0.1287556943547874,
                0.05985896681070835
            ]
        },
        {
            "positions": [
                -0.016020933336963417,
                -0.7111362433647921,
                1.5855220476553609,
                1.8516309040549672,
                0.06606664497575698,
                0.013813839841812836
            ]
        },
        {
            "positions": [
                0.029930993876712497,
                -0.7375688242520082,
                1.7315706124656682,
                1.91104883233394,
                0.003377595596726346,
                -0.032231287127082675
            ]
        },
        {
            "positions": [
                0.07588292109038841,
                -0.7640014051392243,
                1.8776191772759756,
                1.970466760612913,
                -0.05931145378230385,
                -0.07827641409597819
            ]
        },
        {
            "positions": [
                0.12183484830406445,
                -0.7904339860264407,
                2.0236677420862836,
                2.029884688891886,
                -0.12200050316133455,
                -0.12432154106487375
            ]
        }
    ]
}