{
    "goal": {
        "global_pose": {
            "orientation": {
                "w": 0.5084816217422485,
                "x": -0.49083608388900757,
                "y": 0.5182115435600281,
                "z": -0.4816462993621826
            },
            "position": {
                "x": 0.5540239810943604,
                "y": 0.030875300988554955,
                "z": 0.16403168439865112
            }
        },
        "name": "move_to_storage_A"
    },
    "id": "SPARS_move_to_storage_A_73",
    "joint_names": [
        "shoulder_pan_joint",
        "shoulder_lift_joint",
        "elbow_joint",
        "wrist_1_joint",
        "wrist_2_joint",
        "wrist_3_joint"
    ],
    "metrics": {
        "cart_traj_len": 0.3533972323841528,
        "distance_elbow_joint": 0.4538750507817082,
        "distance_shoulder_lift_joint": 0.2348305797269843,
        "distance_shoulder_pan_joint": 0.46437832085251807,
        "distance_wrist_1_joint": 0.2540650614514389,
        "distance_wrist_2_joint": 1.0907159670200715,
        "distance_wrist_3_joint": 0.09995963247191053,
        "smoothness": 1.1102230298998083e-15,
        "time": 5.035690398,
        "traj_len": 1.61177684941329,
        "weighted_distance": 2.035319362095286
    },
    "planner": "SPARS",
    "start": {
        "state": {
            "elbow_joint": 1.9715463870305268,
            "shoulder_lift_joint": -1.1394903361783484,
            "shoulder_pan_joint": 0.12281147578464417,
            "wrist_1_joint": -0.7804599489681411,
            "wrist_2_joint": 0.12958660307563738,
            "wrist_3_joint": -3.1924946282119055
        }
    },
    "waypoints": [
        {
            "positions": [
                0.12281147578464417,
                -1.1394903361783484,
                1.9715463870305268,
                -0.7804599489681411,
                0.12958660307563738,
                -3.1924946282119055
            ]
        },
        {
            "positions": [
                0.05647171566285589,
                -1.173037561853632,
                2.0363856799993423,
                -0.8167549577469181,
                0.28540316979279046,
                -3.1782146807159184
            ]
        },
        {
            "positions": [
                -0.009868044458932398,
                -1.2065847875289153,
                2.101224972968158,
                -0.8530499665256951,
                0.4412197365099435,
                -3.1639347332199312
            ]
        },
        {
            "positions": [
                -0.0762078045807207,
                -1.2401320132041989,
                2.1660642659369733,
                -0.889344975304472,
                0.5970363032270966,
                -3.149654785723944
            ]
        },
        {
            "positions": [
                -0.14254756470250896,
                -1.2736792388794822,
                2.2309035589057884,
                -0.925639984083249,
                0.7528528699442496,
                -3.1353748382279565
            ]
        },
        {
            "positions": [
                -0.20888732482429728,
                -1.3072264645547658,
                2.295742851874604,
                -0.961934992862026,
                0.9086694366614028,
                -3.1210948907319693
            ]
        },
        {
            "positions": [
                -0.27522708494608555,
                -1.340773690230049,
                2.3605821448434194,
                -0.998230001640803,
                1.0644860033785557,
                -3.106814943235982
            ]
        },
        {
            "positions": [
                -0.3415668450678739,
                -1.3743209159053327,
                2.425421437812235,
                -1.03452501041958,
                1.2203025700957089,
                -3.092534995739995
            ]
        }
    ]
}