{
    "goal": {
        "global_pose": {
            "orientation": {
                "w": 0.7031023502349854,
                "x": -0.7110244035720825,
                "y": 0.007748599164187908,
                "z": 0.005598929710686207
            },
            "position": {
                "x": 0.11585023208521307,
                "y": 0.44412534475326537,
                "z": 0.3711530566215515
            }
        },
        "name": "move_to_auspresseinheit_A"
    },
    "id": "SPARS_move_to_auspresseinheit_A_143",
    "joint_names": [
        "shoulder_pan_joint",
        "shoulder_lift_joint",
        "elbow_joint",
        "wrist_1_joint",
        "wrist_2_joint",
        "wrist_3_joint"
    ],
    "metrics": {
        "cart_traj_len": 0.9376230366732968,
        "distance_elbow_joint": 0.32086798728380606,
        "distance_shoulder_lift_joint": 0.5348149029693239,
        "distance_shoulder_pan_joint": 1.3838696038766312,
        "distance_wrist_1_joint": 0.6905239254659667,
        "distance_wrist_2_joint": 0.683553713788305,
        "distance_wrist_3_joint": 0.40214603862791476,
        "smoothness": 1.0241042071655981,
        "time": 5.032373001,
        "traj_len": 2.003940161784265,
        "weighted_distance": 2.488804108105346
    },
    "planner": "SPARS",
    "start": {
        "state": {
            "elbow_joint": 2.422574709923281,
            "shoulder_lift_joint": -1.3736533754116391,
            "shoulder_pan_joint": -0.33786336945926293,
            "wrist_1_joint": -1.0288603412921917,
            "wrist_2_joint": 1.2330224858903978,
            "wrist_3_joint": -3.094022268022082
        }
    },
    "waypoints": [
        {
            "positions": [
                -0.33786336945926293,
                -1.3736533754116391,
                2.422574709923281,
                -1.0288603412921917,
                1.2330224858903978,
                -3.094022268022082
            ]
        },
        {
            "positions": [
                -0.38069258108164156,
                -1.449731071415406,
                2.378907646766098,
                -0.8722487626739304,
                1.251527303013148,
                -3.0490128402236265
            ]
        },
        {
            "positions": [
                -0.42352179270402024,
                -1.5258087674191727,
                2.3352405836089147,
                -0.7156371840556689,
                1.2700321201358982,
                -3.0040034124251704
            ]
        },
        {
            "positions": [
                -0.46635100432639887,
                -1.6018864634229393,
                2.291573520451731,
                -0.5590256054374074,
                1.2885369372586486,
                -2.958993984626715
            ]
        },
        {
            "positions": [
                -0.5091802159487775,
                -1.677964159426706,
                2.247906457294548,
                -0.4024140268191461,
                1.3070417543813988,
                -2.913984556828259
            ]
        },
        {
            "positions": [
                -0.33737910560484985,
                -1.7108524566153076,
                2.2686987021958562,
                -0.41051408413645546,
                1.2203439352966077,
                -2.9450970783481254
            ]
        },
        {
            "positions": [
                -0.16557799526092215,
                -1.7437407538039094,
                2.2894909470971645,
                -0.4186141414537648,
                1.1336461162118165,
                -2.9762095998679916
            ]
        },
        {
            "positions": [
                0.006223115083005548,
                -1.776629050992511,
                2.3102831919984728,
                -0.42671419877107414,
                1.0469482971270254,
                -3.007322121387858
            ]
        },
        {
            "positions": [
                0.1780242254269332,
                -1.8095173481811127,
                2.3310754368997806,
                -0.43481425608838353,
                0.9602504780422343,
                -3.0384346429077245
            ]
        },
        {
            "positions": [
                0.34982533577086095,
                -1.8424056453697142,
                2.351867681801089,
                -0.44291431340569287,
                0.8735526589574432,
                -3.0695471644275907
            ]
        },
        {
            "positions": [
                0.5216264461147886,
                -1.875293942558316,
                2.372659926702397,
                -0.4510143707230022,
                0.786854839872652,
                -3.100659685947457
            ]
        },
        {
            "positions": [
                0.6934275564587162,
                -1.9081822397469175,
                2.3934521716037054,
                -0.45911442804031155,
                0.7001570207878609,
                -3.131772207467323
            ]
        },
        {
            "positions": [
                0.7033725414383388,
                -1.907896201112872,
                2.394106191949621,
                -0.46649163781206726,
                0.702806732491627,
                -3.136092884262351
            ]
        }
    ]
}