{
    "goal": {
        "global_pose": {
            "orientation": {
                "w": 0.7031023502349854,
                "x": -0.7110244035720825,
                "y": 0.007748599164187908,
                "z": 0.005598929710686207
            },
            "position": {
                "x": 0.11585023208521307,
                "y": 0.44412534475326537,
                "z": 0.3711530566215515
            }
        },
        "name": "move_to_auspresseinheit_A"
    },
    "id": "SPARS_move_to_auspresseinheit_A_29",
    "joint_names": [
        "shoulder_pan_joint",
        "shoulder_lift_joint",
        "elbow_joint",
        "wrist_1_joint",
        "wrist_2_joint",
        "wrist_3_joint"
    ],
    "metrics": {
        "cart_traj_len": 1.0370311089010023,
        "distance_elbow_joint": 0.4414964801033503,
        "distance_shoulder_lift_joint": 0.6547102275383956,
        "distance_shoulder_pan_joint": 1.698116355445169,
        "distance_wrist_1_joint": 1.3028980996895028,
        "distance_wrist_2_joint": 0.5161522489450454,
        "distance_wrist_3_joint": 0.6137689347507114,
        "smoothness": 0.7790022991093387,
        "time": 5.033990376,
        "traj_len": 2.2862944575168296,
        "weighted_distance": 2.8764093179879917
    },
    "planner": "SPARS",
    "start": {
        "state": {
            "elbow_joint": 2.422574709923281,
            "shoulder_lift_joint": -1.3736533754116391,
            "shoulder_pan_joint": -0.33786336945926293,
            "wrist_1_joint": -1.0288603412921917,
            "wrist_2_joint": 1.2330224858903978,
            "wrist_3_joint": -3.094022268022082
        }
    },
    "waypoints": [
        {
            "positions": [
                -0.33786336945926293,
                -1.3736533754116391,
                2.422574709923281,
                -1.0288603412921917,
                1.2330224858903978,
                -3.094022268022082
            ]
        },
        {
            "positions": [
                -0.39215767691984554,
                -1.4161812396163036,
                2.383016289344365,
                -0.8834469773818985,
                1.2130048579218697,
                -3.0468335013108883
            ]
        },
        {
            "positions": [
                -0.44645198438042816,
                -1.4587091038209683,
                2.343457868765449,
                -0.7380336134716053,
                1.192987229953342,
                -2.999644734599694
            ]
        },
        {
            "positions": [
                -0.5007462918410108,
                -1.5012369680256328,
                2.3038994481865327,
                -0.5926202495613122,
                1.172969601984814,
                -2.9524559678884996
            ]
        },
        {
            "positions": [
                -0.5550405993015934,
                -1.5437648322302973,
                2.2643410276076166,
                -0.44720688565101896,
                1.152951974016286,
                -2.9052672011773057
            ]
        },
        {
            "positions": [
                -0.609334906762176,
                -1.586292696434962,
                2.2247826070287005,
                -0.3017935217407257,
                1.1329343460477581,
                -2.858078434466112
            ]
        },
        {
            "positions": [
                -0.6636292142227587,
                -1.6288205606396264,
                2.1852241864497843,
                -0.15638015783043258,
                1.11291671807923,
                -2.8108896677549176
            ]
        },
        {
            "positions": [
                -0.48385513004606656,
                -1.6852455534309847,
                2.2001610640745444,
                -0.14539446718574012,
                1.0476533290923415,
                -2.8414116790170705
            ]
        },
        {
            "positions": [
                -0.30408104586937446,
                -1.7416705462223427,
                2.2150979416993044,
                -0.1344087765410477,
                0.9823899401054532,
                -2.871933690279223
            ]
        },
        {
            "positions": [
                -0.1243069616926823,
                -1.798095539013701,
                2.2300348193240644,
                -0.12342308589635523,
                0.9171265511185647,
                -2.902455701541376
            ]
        },
        {
            "positions": [
                0.055467122484009757,
                -1.8545205318050593,
                2.244971696948825,
                -0.11243739525166278,
                0.8518631621316762,
                -2.932977712803529
            ]
        },
        {
            "positions": [
                0.23524120666070203,
                -1.9109455245964173,
                2.259908574573585,
                -0.10145170460697032,
                0.7865997731447877,
                -2.9634997240656813
            ]
        },
        {
            "positions": [
                0.41501529083739414,
                -1.9673705173877756,
                2.274845452198345,
                -0.09046601396227788,
                0.7213363841578992,
                -2.994021735327834
            ]
        },
        {
            "positions": [
                0.5129172927112341,
                -1.9470394888670226,
                2.313020349158776,
                -0.21196727141547417,
                0.7198476684203836,
                -3.0431898242980444
            ]
        },
        {
            "positions": [
                0.6108192945850741,
                -1.9267084603462694,
                2.351195246119207,
                -0.3334685288686705,
                0.718358952682868,
                -3.092357913268254
            ]
        },
        {
            "positions": [
                0.7087212964589141,
                -1.9063774318255164,
                2.389370143079638,
                -0.4549697863218668,
                0.7168702369453523,
                -3.1415260022384643
            ]
        }
    ]
}