{
    "goal": {
        "global_pose": {
            "orientation": {
                "w": 0.7031023502349854,
                "x": -0.7110244035720825,
                "y": 0.007748599164187908,
                "z": 0.005598929710686207
            },
            "position": {
                "x": 0.11585023208521307,
                "y": 0.44412534475326537,
                "z": 0.3711530566215515
            }
        },
        "name": "move_to_auspresseinheit_A"
    },
    "id": "SPARS_move_to_auspresseinheit_A_109",
    "joint_names": [
        "shoulder_pan_joint",
        "shoulder_lift_joint",
        "elbow_joint",
        "wrist_1_joint",
        "wrist_2_joint",
        "wrist_3_joint"
    ],
    "metrics": {
        "cart_traj_len": 0.717517072165496,
        "distance_elbow_joint": 0.24195356759169284,
        "distance_shoulder_lift_joint": 0.5368270879694705,
        "distance_shoulder_pan_joint": 1.5049946021662532,
        "distance_wrist_1_joint": 0.5991875219052569,
        "distance_wrist_2_joint": 0.5332341894947659,
        "distance_wrist_3_joint": 0.9338198763759529,
        "smoothness": 0.9893292232693915,
        "time": 5.103806809,
        "traj_len": 2.085669399857847,
        "weighted_distance": 2.7111027847824807
    },
    "planner": "SPARS",
    "start": {
        "state": {
            "elbow_joint": 2.422574709923281,
            "shoulder_lift_joint": -1.3736533754116391,
            "shoulder_pan_joint": -0.33786336945926293,
            "wrist_1_joint": -1.0288603412921917,
            "wrist_2_joint": 1.2330224858903978,
            "wrist_3_joint": -3.094022268022082
        }
    },
    "waypoints": [
        {
            "positions": [
                -0.33786336945926293,
                -1.3736533754116391,
                2.422574709923281,
                -1.0288603412921917,
                1.2330224858903978,
                -3.094022268022082
            ]
        },
        {
            "positions": [
                -0.3765858426156244,
                -1.440788913052341,
                2.4404800389767036,
                -0.9330478054378294,
                1.1547807054125325,
                -3.018662692108222
            ]
        },
        {
            "positions": [
                -0.4153083157719858,
                -1.507924450693043,
                2.458385368030126,
                -0.8372352695834672,
                1.0765389249346673,
                -2.9433031161943615
            ]
        },
        {
            "positions": [
                -0.45403078892834725,
                -1.5750599883337448,
                2.4762906970835488,
                -0.7414227337291048,
                0.9982971444568021,
                -2.8679435402805007
            ]
        },
        {
            "positions": [
                -0.4927532620847087,
                -1.6421955259744467,
                2.4941960261369718,
                -0.6456101978747426,
                0.9200553639789368,
                -2.7925839643666404
            ]
        },
        {
            "positions": [
                -0.5314757352410702,
                -1.7093310636151486,
                2.5121013551903943,
                -0.5497976620203802,
                0.8418135835010716,
                -2.71722438845278
            ]
        },
        {
            "positions": [
                -0.5701982083974316,
                -1.7764666012558505,
                2.530006684243817,
                -0.45398512616601794,
                0.7635718030232064,
                -2.6418648125389197
            ]
        },
        {
            "positions": [
                -0.3580882478594176,
                -1.7988022449433938,
                2.507586418698624,
                -0.45803717729586513,
                0.7529412185852773,
                -2.722141882687718
            ]
        },
        {
            "positions": [
                -0.14597828732140355,
                -1.8211378886309368,
                2.4851661531534313,
                -0.4620892284257124,
                0.7423106341473482,
                -2.8024189528365167
            ]
        },
        {
            "positions": [
                0.06613167321661051,
                -1.84347353231848,
                2.4627458876082384,
                -0.46614127955555956,
                0.7316800497094191,
                -2.882696022985315
            ]
        },
        {
            "positions": [
                0.2782416337546245,
                -1.8658091760060234,
                2.4403256220630456,
                -0.47019333068540675,
                0.72104946527149,
                -2.962973093134113
            ]
        },
        {
            "positions": [
                0.49035159429263875,
                -1.8881448196935664,
                2.4179053565178528,
                -0.474245381815254,
                0.710418880833561,
                -3.0432501632829116
            ]
        },
        {
            "positions": [
                0.7024615548306528,
                -1.9104804633811097,
                2.39548509097266,
                -0.4782974329451012,
                0.6997882963956319,
                -3.12352723343171
            ]
        }
    ]
}