{
    "goal": {
        "global_pose": {
            "orientation": {
                "w": 0.7047431468963623,
                "x": -0.7094548344612122,
                "y": 0.0024358443915843964,
                "z": -0.0022348060738295317
            },
            "position": {
                "x": 0.6094750761985779,
                "y": 0.3671506643295288,
                "z": 0.19426114857196808
            }
        },
        "name": "move_to_magneteinheit_A"
    },
    "id": "SPARS_move_to_magneteinheit_A_147",
    "joint_names": [
        "shoulder_pan_joint",
        "shoulder_lift_joint",
        "elbow_joint",
        "wrist_1_joint",
        "wrist_2_joint",
        "wrist_3_joint"
    ],
    "metrics": {
        "cart_traj_len": 1.864166922195973,
        "distance_elbow_joint": 3.945760851345355,
        "distance_shoulder_lift_joint": 0.7165860399090571,
        "distance_shoulder_pan_joint": 1.2416951817205137,
        "distance_wrist_1_joint": 1.6086517786306878,
        "distance_wrist_2_joint": 1.702711005753518,
        "distance_wrist_3_joint": 1.2352278735201012,
        "smoothness": 6.661338155761756e-16,
        "time": 5.099305081,
        "traj_len": 3.2327438393536894,
        "weighted_distance": 4.028951633155161
    },
    "planner": "SPARS",
    "start": {
        "state": {
            "elbow_joint": -1.919643507792019,
            "shoulder_lift_joint": -0.07675430207160344,
            "shoulder_pan_joint": -1.1188671864651873,
            "wrist_1_joint": 0.42560062535961957,
            "wrist_2_joint": 1.5706038300724876,
            "wrist_3_joint": 1.1188968870953055
        }
    },
    "waypoints": [
        {
            "positions": [
                -1.1188671864651873,
                -0.07675430207160344,
                -1.919643507792019,
                0.42560062535961957,
                1.5706038300724876,
                1.1188968870953055
            ]
        },
        {
            "positions": [
                -1.0728784760310943,
                -0.10329452577193889,
                -1.7735042170014503,
                0.48518032086445984,
                1.507540459489024,
                1.0731477065945612
            ]
        },
        {
            "positions": [
                -1.026889765597001,
                -0.12983474947227433,
                -1.6273649262108818,
                0.5447600163693002,
                1.4444770889055603,
                1.0273985260938165
            ]
        },
        {
            "positions": [
                -0.980901055162908,
                -0.1563749731726098,
                -1.481225635420313,
                0.6043397118741405,
                1.3814137183220967,
                0.9816493455930722
            ]
        },
        {
            "positions": [
                -0.934912344728815,
                -0.18291519687294522,
                -1.3350863446297443,
                0.6639194073789807,
                1.3183503477386331,
                0.9359001650923275
            ]
        },
        {
            "positions": [
                -0.8889236342947219,
                -0.20945542057328068,
                -1.1889470538391755,
                0.7234991028838209,
                1.2552869771551696,
                0.8901509845915831
            ]
        },
        {
            "positions": [
                -0.8429349238606287,
                -0.23599564427361613,
                -1.0428077630486068,
                0.7830787983886613,
                1.1922236065717058,
                0.8444018040908386
            ]
        },
        {
            "positions": [
                -0.7969462134265357,
                -0.26253586797395156,
                -0.8966684722580383,
                0.8426584938935016,
                1.1291602359882422,
                0.7986526235900941
            ]
        },
        {
            "positions": [
                -0.7509575029924426,
                -0.28907609167428705,
                -0.7505291814674695,
                0.9022381893983418,
                1.0660968654047787,
                0.7529034430893496
            ]
        },
        {
            "positions": [
                -0.7049687925583494,
                -0.3156163153746225,
                -0.6043898906769007,
                0.9618178849031822,
                1.0030334948213149,
                0.7071542625886051
            ]
        },
        {
            "positions": [
                -0.6589800821242564,
                -0.3421565390749579,
                -0.4582505998863322,
                1.0213975804080224,
                0.9399701242378513,
                0.6614050820878608
            ]
        },
        {
            "positions": [
                -0.6129913716901633,
                -0.36869676277529334,
                -0.31211130909576346,
                1.0809772759128626,
                0.8769067536543877,
                0.6156559015871161
            ]
        },
        {
            "positions": [
                -0.5670026612560701,
                -0.3952369864756288,
                -0.1659720183051947,
                1.140556971417703,
                0.8138433830709241,
                0.5699067210863717
            ]
        },
        {
            "positions": [
                -0.5210139508219771,
                -0.42177721017596426,
                -0.019832727514625947,
                1.2001366669225433,
                0.7507800124874605,
                0.5241575405856272
            ]
        },
        {
            "positions": [
                -0.47502524038788396,
                -0.4483174338762997,
                0.12630656327594258,
                1.2597163624273835,
                0.6877166419039968,
                0.47840836008488274
            ]
        },
        {
            "positions": [
                -0.4290365299537908,
                -0.4748576575766352,
                0.2724458540665118,
                1.319296057932224,
                0.6246532713205332,
                0.43265917958413813
            ]
        },
        {
            "positions": [
                -0.3830478195196978,
                -0.5013978812769706,
                0.4185851448570801,
                1.3788757534370641,
                0.5615899007370697,
                0.38690999908339374
            ]
        },
        {
            "positions": [
                -0.33705910908560455,
                -0.5279381049773061,
                0.5647244356476488,
                1.4384554489419046,
                0.49852653015360593,
                0.34116081858264924
            ]
        },
        {
            "positions": [
                -0.2910703986515115,
                -0.5544783286776416,
                0.7108637264382176,
                1.4980351444467448,
                0.43546315957014237,
                0.29541163808190474
            ]
        },
        {
            "positions": [
                -0.24508168821741838,
                -0.581018552377977,
                0.8570030172287864,
                1.557614839951585,
                0.3723997889866786,
                0.24966245758116024
            ]
        },
        {
            "positions": [
                -0.19909297778332535,
                -0.6075587760783123,
                1.0031423080193547,
                1.6171945354564252,
                0.309336418403215,
                0.20391327708041584
            ]
        },
        {
            "positions": [
                -0.15310426734923221,
                -0.6340989997786479,
                1.1492815988099239,
                1.6767742309612657,
                0.24627304781975146,
                0.15816409657967123
            ]
        },
        {
            "positions": [
                -0.10711555691513919,
                -0.6606392234789833,
                1.2954208896004922,
                1.7363539264661059,
                0.1832096772362879,
                0.11241491607892673
            ]
        },
        {
            "positions": [
                -0.06112684648104594,
                -0.6871794471793187,
                1.4415601803910614,
                1.7959336219709463,
                0.12014630665282411,
                0.06666573557818234
            ]
        },
        {
            "positions": [
                -0.01513813604695291,
                -0.7137196708796543,
                1.5876994711816297,
                1.8555133174757865,
                0.057082936069360546,
                0.02091655507743795
            ]
        },
        {
            "positions": [
                0.030850574387140117,
                -0.7402598945799896,
                1.7338387619721984,
                1.9150930129806267,
                -0.005980434514103017,
                -0.024832625423306665
            ]
        },
        {
            "positions": [
                0.07683928482123314,
                -0.766800118280325,
                1.8799780527627672,
                1.974672708485467,
                -0.06904380509756658,
                -0.07058180592405106
            ]
        },
        {
            "positions": [
                0.12282799525532631,
                -0.7933403419806606,
                2.026117343553336,
                2.0342524039903074,
                -0.13210717568103028,
                -0.11633098642479572
            ]
        }
    ]
}