{
    "goal": {
        "global_pose": {
            "orientation": {
                "w": 0.5084816217422485,
                "x": -0.49083608388900757,
                "y": 0.5182115435600281,
                "z": -0.4816462993621826
            },
            "position": {
                "x": 0.5540239810943604,
                "y": 0.030875300988554955,
                "z": 0.16403168439865112
            }
        },
        "name": "move_to_storage_A"
    },
    "id": "SPARS_move_to_storage_A_117",
    "joint_names": [
        "shoulder_pan_joint",
        "shoulder_lift_joint",
        "elbow_joint",
        "wrist_1_joint",
        "wrist_2_joint",
        "wrist_3_joint"
    ],
    "metrics": {
        "cart_traj_len": 0.3531022565746505,
        "distance_elbow_joint": 0.4526292297536343,
        "distance_shoulder_lift_joint": 0.23630358569918686,
        "distance_shoulder_pan_joint": 0.463860561239961,
        "distance_wrist_1_joint": 0.25169982530543866,
        "distance_wrist_2_joint": 1.0908073673938767,
        "distance_wrist_3_joint": 0.10510512458528432,
        "smoothness": 8.881784232165597e-16,
        "time": 5.010548054,
        "traj_len": 1.6125773451147645,
        "weighted_distance": 2.037921278128099
    },
    "planner": "SPARS",
    "start": {
        "state": {
            "elbow_joint": 1.9715463870305268,
            "shoulder_lift_joint": -1.1394903361783484,
            "shoulder_pan_joint": 0.12281147578464417,
            "wrist_1_joint": -0.7804599489681411,
            "wrist_2_joint": 0.12958660307563738,
            "wrist_3_joint": -3.1924946282119055
        }
    },
    "waypoints": [
        {
            "positions": [
                0.12281147578464417,
                -1.1394903361783484,
                1.9715463870305268,
                -0.7804599489681411,
                0.12958660307563738,
                -3.1924946282119055
            ]
        },
        {
            "positions": [
                0.05654568132179261,
                -1.1732479912782323,
                2.0362077055667602,
                -0.816417066868918,
                0.28541622698904834,
                -3.1774796104140077
            ]
        },
        {
            "positions": [
                -0.009720113141058959,
                -1.207005646378116,
                2.1008690241029937,
                -0.852374184769695,
                0.44124585090245927,
                -3.16246459261611
            ]
        },
        {
            "positions": [
                -0.07598590760391054,
                -1.240763301478,
                2.165530342639227,
                -0.8883313026704719,
                0.5970754748158702,
                -3.147449574818212
            ]
        },
        {
            "positions": [
                -0.14225170206676208,
                -1.2745209565778837,
                2.2301916611754606,
                -0.9242884205712489,
                0.7529050987292812,
                -3.1324345570203147
            ]
        },
        {
            "positions": [
                -0.20851749652961366,
                -1.3082786116777676,
                2.294852979711694,
                -0.9602455384720259,
                0.9087347226426923,
                -3.117419539222417
            ]
        },
        {
            "positions": [
                -0.27478329099246523,
                -1.3420362667776513,
                2.3595142982479276,
                -0.9962026563728028,
                1.064564346556103,
                -3.102404521424519
            ]
        },
        {
            "positions": [
                -0.3410490854553168,
                -1.3757939218775352,
                2.424175616784161,
                -1.0321597742735797,
                1.2203939704695141,
                -3.0873895036266212
            ]
        }
    ]
}