{
    "goal": {
        "global_pose": {
            "orientation": {
                "w": 0.7047431468963623,
                "x": -0.7094548344612122,
                "y": 0.0024358443915843964,
                "z": -0.0022348060738295317
            },
            "position": {
                "x": 0.6094750761985779,
                "y": 0.3671506643295288,
                "z": 0.19426114857196808
            }
        },
        "name": "move_to_magneteinheit_A"
    },
    "id": "SPARS_move_to_magneteinheit_A_142",
    "joint_names": [
        "shoulder_pan_joint",
        "shoulder_lift_joint",
        "elbow_joint",
        "wrist_1_joint",
        "wrist_2_joint",
        "wrist_3_joint"
    ],
    "metrics": {
        "cart_traj_len": 2.013342365536916,
        "distance_elbow_joint": 3.871930796281722,
        "distance_shoulder_lift_joint": 1.0513308322486625,
        "distance_shoulder_pan_joint": 1.5328068919521882,
        "distance_wrist_1_joint": 3.3844911935143935,
        "distance_wrist_2_joint": 1.4437915954048692,
        "distance_wrist_3_joint": 4.381124654303301,
        "smoothness": 0.16552802793035068,
        "time": 5.062624345000001,
        "traj_len": 3.9579636132366276,
        "weighted_distance": 5.408882330133555
    },
    "planner": "SPARS",
    "start": {
        "state": {
            "elbow_joint": -1.919643507792019,
            "shoulder_lift_joint": -0.07675430207160344,
            "shoulder_pan_joint": -1.1188671864651873,
            "wrist_1_joint": 0.42560062535961957,
            "wrist_2_joint": 1.5706038300724876,
            "wrist_3_joint": 1.1188968870953055
        }
    },
    "waypoints": [
        {
            "positions": [
                -1.1188671864651873,
                -0.07675430207160344,
                -1.919643507792019,
                0.42560062535961957,
                1.5706038300724876,
                1.1188968870953055
            ]
        },
        {
            "positions": [
                -1.1279558547305002,
                -0.08482238616202949,
                -1.8833973019021573,
                0.4962226554437226,
                1.5134118143097393,
                0.9262155218863091
            ]
        },
        {
            "positions": [
                -1.1370445229958128,
                -0.09289047025245553,
                -1.8471510960122954,
                0.5668446855278257,
                1.4562197985469907,
                0.7335341566773126
            ]
        },
        {
            "positions": [
                -1.1461331912611257,
                -0.10095855434288156,
                -1.8109048901224334,
                0.6374667156119287,
                1.3990277827842423,
                0.540852791468316
            ]
        },
        {
            "positions": [
                -1.1552218595264385,
                -0.10902663843330761,
                -1.7746586842325716,
                0.7080887456960319,
                1.341835767021494,
                0.3481714262593195
            ]
        },
        {
            "positions": [
                -1.1643105277917511,
                -0.11709472252373365,
                -1.7384124783427097,
                0.7787107757801348,
                1.2846437512587454,
                0.15549006105032304
            ]
        },
        {
            "positions": [
                -1.173399196057064,
                -0.12516280661415968,
                -1.702166272452848,
                0.849332805864238,
                1.227451735495997,
                -0.037191304158673555
            ]
        },
        {
            "positions": [
                -1.1824878643223766,
                -0.1332308907045857,
                -1.665920066562986,
                0.9199548359483409,
                1.1702597197332487,
                -0.22987266936767004
            ]
        },
        {
            "positions": [
                -1.1915765325876895,
                -0.14129897479501177,
                -1.6296738606731243,
                0.9905768660324441,
                1.1130677039705001,
                -0.4225540345766665
            ]
        },
        {
            "positions": [
                -1.2006652008530023,
                -0.14936705888543783,
                -1.5934276547832622,
                1.061198896116547,
                1.0558756882077518,
                -0.615235399785663
            ]
        },
        {
            "positions": [
                -1.209753869118315,
                -0.15743514297586386,
                -1.5571814488934004,
                1.1318209262006502,
                0.9986836724450033,
                -0.8079167649946595
            ]
        },
        {
            "positions": [
                -1.2188425373836278,
                -0.1655032270662899,
                -1.5209352430035386,
                1.2024429562847532,
                0.9414916566822549,
                -1.000598130203656
            ]
        },
        {
            "positions": [
                -1.2279312056489404,
                -0.17357131115671592,
                -1.4846890371136767,
                1.2730649863688563,
                0.8842996409195065,
                -1.1932794954126527
            ]
        },
        {
            "positions": [
                -1.2370198739142533,
                -0.18163939524714198,
                -1.4484428312238147,
                1.3436870164529593,
                0.8271076251567581,
                -1.385960860621649
            ]
        },
        {
            "positions": [
                -1.2461085421795661,
                -0.189707479337568,
                -1.4121966253339528,
                1.4143090465370625,
                0.7699156093940096,
                -1.5786422258306456
            ]
        },
        {
            "positions": [
                -1.2551972104448788,
                -0.19777556342799407,
                -1.375950419444091,
                1.4849310766211656,
                0.7127235936312613,
                -1.7713235910396419
            ]
        },
        {
            "positions": [
                -1.2642858787101916,
                -0.2058436475184201,
                -1.3397042135542292,
                1.5555531067052686,
                0.6555315778685128,
                -1.9640049562486386
            ]
        },
        {
            "positions": [
                -1.2087903507219042,
                -0.24273330699049395,
                -1.2080245534724718,
                1.4653715582185187,
                0.634382804140477,
                -2.015933868687013
            ]
        },
        {
            "positions": [
                -1.1532948227336168,
                -0.2796229664625678,
                -1.0763448933907145,
                1.3751900097317689,
                0.6132340304124413,
                -2.0678627811253874
            ]
        },
        {
            "positions": [
                -1.0977992947453294,
                -0.3165126259346416,
                -0.9446652333089574,
                1.2850084612450192,
                0.5920852566844055,
                -2.1197916935637613
            ]
        },
        {
            "positions": [
                -1.0423037667570423,
                -0.3534022854067155,
                -0.8129855732272,
                1.1948269127582694,
                0.5709364829563698,
                -2.1717206060021357
            ]
        },
        {
            "positions": [
                -0.9868082387687548,
                -0.39029194487878927,
                -0.6813059131454428,
                1.1046453642715195,
                0.549787709228334,
                -2.22364951844051
            ]
        },
        {
            "positions": [
                -0.9313127107804675,
                -0.4271816043508631,
                -0.5496262530636855,
                1.0144638157847696,
                0.5286389355002983,
                -2.2755784308788845
            ]
        },
        {
            "positions": [
                -0.8758171827921801,
                -0.464071263822937,
                -0.41794659298192816,
                0.9242822672980198,
                0.5074901617722625,
                -2.327507343317259
            ]
        },
        {
            "positions": [
                -0.8203216548038927,
                -0.5009609232950107,
                -0.2862669329001708,
                0.83410071881127,
                0.4863413880442268,
                -2.379436255755633
            ]
        },
        {
            "positions": [
                -0.7648261268156054,
                -0.5378505827670846,
                -0.15458727281841367,
                0.7439191703245203,
                0.465192614316191,
                -2.431365168194007
            ]
        },
        {
            "positions": [
                -0.709330598827318,
                -0.5747402422391585,
                -0.022907612736656313,
                0.6537376218377704,
                0.44404384058815527,
                -2.4832940806323816
            ]
        },
        {
            "positions": [
                -0.6538350708390307,
                -0.6116299017112323,
                0.10877204734510104,
                0.5635560733510205,
                0.42289506686011946,
                -2.535222993070756
            ]
        },
        {
            "positions": [
                -0.5983395428507433,
                -0.6485195611833061,
                0.24045170742685817,
                0.4733745248642709,
                0.40174629313208376,
                -2.5871519055091303
            ]
        },
        {
            "positions": [
                -0.5428440148624559,
                -0.68540922065538,
                0.37213136750861553,
                0.3831929763775208,
                0.38059751940404796,
                -2.6390808179475043
            ]
        },
        {
            "positions": [
                -0.48734848687416854,
                -0.7222988801274539,
                0.5038110275903729,
                0.29301142789077095,
                0.3594487456760122,
                -2.6910097303858787
            ]
        },
        {
            "positions": [
                -0.43185295888588127,
                -0.7591885395995276,
                0.63549068767213,
                0.2028298794040213,
                0.3382999719479765,
                -2.742938642824253
            ]
        },
        {
            "positions": [
                -0.3763574308975939,
                -0.7960781990716015,
                0.7671703477538876,
                0.11264833091727144,
                0.3171511982199407,
                -2.7948675552626274
            ]
        },
        {
            "positions": [
                -0.3208619029093064,
                -0.8329678585436754,
                0.898850007835645,
                0.02246678243052158,
                0.29600242449190495,
                -2.846796467701002
            ]
        },
        {
            "positions": [
                -0.2653663749210192,
                -0.8698575180157492,
                1.0305296679174019,
                -0.06771476605622806,
                0.27485365076386925,
                -2.8987253801393758
            ]
        },
        {
            "positions": [
                -0.20987084693273172,
                -0.906747177487823,
                1.1622093279991592,
                -0.15789631454297792,
                0.25370487703583344,
                -2.95065429257775
            ]
        },
        {
            "positions": [
                -0.15437531894444434,
                -0.9436368369598969,
                1.2938889880809166,
                -0.24807786302972779,
                0.2325561033077977,
                -3.0025832050161245
            ]
        },
        {
            "positions": [
                -0.09887979095615718,
                -0.9805264964319707,
                1.4255686481626735,
                -0.3382594115164774,
                0.21140732957976194,
                -3.0545121174544985
            ]
        },
        {
            "positions": [
                -0.04338426296786979,
                -1.0174161559040447,
                1.5572483082444313,
                -0.4284409600032275,
                0.19025855585172619,
                -3.1064410298928733
            ]
        },
        {
            "positions": [
                0.012111265020417594,
                -1.0543058153761184,
                1.6889279683261886,
                -0.5186225084899772,
                0.16910978212369043,
                -3.1583699423312472
            ]
        },
        {
            "positions": [
                0.06760679300870498,
                -1.0911954748481922,
                1.8206076284079455,
                -0.6088040569767268,
                0.14796100839565474,
                -3.2102988547696216
            ]
        },
        {
            "positions": [
                0.12310232099699227,
                -1.128085134320266,
                1.9522872884897027,
                -0.6989856054634767,
                0.12681223466761887,
                -3.262227767207996
            ]
        }
    ]
}