{
    "goal": {
        "global_pose": {
            "orientation": {
                "w": 0.7031023502349854,
                "x": -0.7110244035720825,
                "y": 0.007748599164187908,
                "z": 0.005598929710686207
            },
            "position": {
                "x": 0.11585023208521307,
                "y": 0.44412534475326537,
                "z": 0.3711530566215515
            }
        },
        "name": "move_to_auspresseinheit_A"
    },
    "id": "SPARS_move_to_auspresseinheit_A_98",
    "joint_names": [
        "shoulder_pan_joint",
        "shoulder_lift_joint",
        "elbow_joint",
        "wrist_1_joint",
        "wrist_2_joint",
        "wrist_3_joint"
    ],
    "metrics": {
        "cart_traj_len": 0.6968852168810047,
        "distance_elbow_joint": 0.3039380927037012,
        "distance_shoulder_lift_joint": 1.075992383257373,
        "distance_shoulder_pan_joint": 1.0432381838558604,
        "distance_wrist_1_joint": 0.5448739450683104,
        "distance_wrist_2_joint": 1.606611997173634,
        "distance_wrist_3_joint": 0.911738529111128,
        "smoothness": 1.0732900431963925,
        "time": 5.015709093,
        "traj_len": 2.342305089259298,
        "weighted_distance": 3.075931750158675
    },
    "planner": "SPARS",
    "start": {
        "state": {
            "elbow_joint": 2.422574709923281,
            "shoulder_lift_joint": -1.3736533754116391,
            "shoulder_pan_joint": -0.33786336945926293,
            "wrist_1_joint": -1.0288603412921917,
            "wrist_2_joint": 1.2330224858903978,
            "wrist_3_joint": -3.094022268022082
        }
    },
    "waypoints": [
        {
            "positions": [
                -0.33786336945926293,
                -1.3736533754116391,
                2.422574709923281,
                -1.0288603412921917,
                1.2330224858903978,
                -3.094022268022082
            ]
        },
        {
            "positions": [
                -0.31381426160609466,
                -1.4887810771953862,
                2.442510938791209,
                -1.0247357699944002,
                1.080272057435444,
                -3.0307123663798254
            ]
        },
        {
            "positions": [
                -0.28976515375292633,
                -1.6039087789791335,
                2.4624471676591373,
                -1.0206111986966089,
                0.9275216289804904,
                -2.967402464737569
            ]
        },
        {
            "positions": [
                -0.26571604589975806,
                -1.7190364807628806,
                2.4823833965270654,
                -1.0164866273988173,
                0.7747712005255368,
                -2.9040925630953125
            ]
        },
        {
            "positions": [
                -0.24166693804658976,
                -1.834164182546628,
                2.502319625394994,
                -1.0123620561010258,
                0.6220207720705832,
                -2.8407826614530562
            ]
        },
        {
            "positions": [
                -0.21761783019342146,
                -1.949291884330375,
                2.522255854262922,
                -1.0082374848032343,
                0.46927034361562947,
                -2.7774727598107996
            ]
        },
        {
            "positions": [
                -0.19356872234025316,
                -2.064419586114122,
                2.54219208313085,
                -1.004112913505443,
                0.3165199151606759,
                -2.7141628581685433
            ]
        },
        {
            "positions": [
                -0.16951961448708486,
                -2.1795472878978694,
                2.5621283119987783,
                -0.9999883422076514,
                0.1637694867057222,
                -2.6508529565262866
            ]
        },
        {
            "positions": [
                -0.06015781087662454,
                -2.1457849790514767,
                2.5415802506702527,
                -0.9354880989596801,
                0.23093936145434205,
                -2.709424108728203
            ]
        },
        {
            "positions": [
                0.04920399273383577,
                -2.112022670205084,
                2.521032189341727,
                -0.8709878557117089,
                0.2981092362029619,
                -2.7679952609301197
            ]
        },
        {
            "positions": [
                0.15856579634429607,
                -2.0782603613586907,
                2.500484128013202,
                -0.8064876124637377,
                0.3652791109515817,
                -2.8265664131320363
            ]
        },
        {
            "positions": [
                0.2679275999547564,
                -2.044498052512298,
                2.4799360666846764,
                -0.7419873692157664,
                0.4324489857002016,
                -2.885137565333953
            ]
        },
        {
            "positions": [
                0.3772894035652167,
                -2.0107357436659052,
                2.4593880053561508,
                -0.677487125967795,
                0.4996188604488214,
                -2.9437087175358694
            ]
        },
        {
            "positions": [
                0.486651207175677,
                -1.9769734348195125,
                2.4388399440276256,
                -0.6129868827198238,
                0.5667887351974413,
                -3.002279869737786
            ]
        },
        {
            "positions": [
                0.5960130107861373,
                -1.9432111259731195,
                2.4182918826991,
                -0.5484866394718526,
                0.6339586099460611,
                -3.0608510219397025
            ]
        },
        {
            "positions": [
                0.7053748143965977,
                -1.9094488171267268,
                2.3977438213705744,
                -0.48398639622388134,
                0.701128484694681,
                -3.119422174141619
            ]
        }
    ]
}