{
    "goal": {
        "global_pose": {
            "orientation": {
                "w": 0.7031023502349854,
                "x": -0.7110244035720825,
                "y": 0.007748599164187908,
                "z": 0.005598929710686207
            },
            "position": {
                "x": 0.11585023208521307,
                "y": 0.44412534475326537,
                "z": 0.3711530566215515
            }
        },
        "name": "move_to_auspresseinheit_A"
    },
    "id": "SPARS_move_to_auspresseinheit_A_55",
    "joint_names": [
        "shoulder_pan_joint",
        "shoulder_lift_joint",
        "elbow_joint",
        "wrist_1_joint",
        "wrist_2_joint",
        "wrist_3_joint"
    ],
    "metrics": {
        "cart_traj_len": 1.2555240813215536,
        "distance_elbow_joint": 1.418346915169816,
        "distance_shoulder_lift_joint": 0.5617150436259091,
        "distance_shoulder_pan_joint": 1.04198720926464,
        "distance_wrist_1_joint": 1.919704937754393,
        "distance_wrist_2_joint": 1.2206980691482925,
        "distance_wrist_3_joint": 3.1997361846196437,
        "smoothness": 0.9481353775991672,
        "time": 5.079167323,
        "traj_len": 3.0597693311069536,
        "weighted_distance": 4.3476503695357875
    },
    "planner": "SPARS",
    "start": {
        "state": {
            "elbow_joint": 2.422574709923281,
            "shoulder_lift_joint": -1.3736533754116391,
            "shoulder_pan_joint": -0.33786336945926293,
            "wrist_1_joint": -1.0288603412921917,
            "wrist_2_joint": 1.2330224858903978,
            "wrist_3_joint": -3.094022268022082
        }
    },
    "waypoints": [
        {
            "positions": [
                -0.33786336945926293,
                -1.3736533754116391,
                2.422574709923281,
                -1.0288603412921917,
                1.2330224858903978,
                -3.094022268022082
            ]
        },
        {
            "positions": [
                -0.33750075054564876,
                -1.409141952902851,
                2.3668050866111776,
                -0.9328406785380707,
                1.1658699469688456,
                -2.973014053051533
            ]
        },
        {
            "positions": [
                -0.33713813163203465,
                -1.444630530394063,
                2.311035463299074,
                -0.8368210157839497,
                1.0987174080472932,
                -2.8520058380809834
            ]
        },
        {
            "positions": [
                -0.3367755127184205,
                -1.480119107885275,
                2.2552658399869707,
                -0.7408013530298287,
                1.031564869125741,
                -2.7309976231104343
            ]
        },
        {
            "positions": [
                -0.3364128938048064,
                -1.5156076853764866,
                2.1994962166748673,
                -0.6447816902757078,
                0.9644123302041889,
                -2.609989408139885
            ]
        },
        {
            "positions": [
                -0.3360502748911922,
                -1.5510962628676985,
                2.1437265933627634,
                -0.5487620275215868,
                0.8972597912826367,
                -2.488981193169336
            ]
        },
        {
            "positions": [
                -0.33568765597757805,
                -1.5865848403589105,
                2.08795697005066,
                -0.4527423647674659,
                0.8301072523610844,
                -2.367972978198787
            ]
        },
        {
            "positions": [
                -0.33532503706396394,
                -1.6220734178501224,
                2.0321873467385565,
                -0.3567227020133449,
                0.7629547134395323,
                -2.2469647632282372
            ]
        },
        {
            "positions": [
                -0.33496241815034977,
                -1.6575619953413343,
                1.976417723426453,
                -0.2607030392592239,
                0.69580217451798,
                -2.125956548257688
            ]
        },
        {
            "positions": [
                -0.3345997992367356,
                -1.6930505728325462,
                1.9206481001143496,
                -0.164683376505103,
                0.6286496355964278,
                -2.004948333287139
            ]
        },
        {
            "positions": [
                -0.3342371803231215,
                -1.728539150323758,
                1.8648784768022462,
                -0.0686637137509819,
                0.5614970966748756,
                -1.8839401183165896
            ]
        },
        {
            "positions": [
                -0.33387456140950733,
                -1.7640277278149699,
                1.8091088534901427,
                0.02735594900313898,
                0.4943445577533233,
                -1.7629319033460404
            ]
        },
        {
            "positions": [
                -0.3335119424958932,
                -1.7995163053061818,
                1.753339230178039,
                0.12337561175725997,
                0.42719201883177105,
                -1.641923688375491
            ]
        },
        {
            "positions": [
                -0.33314932358227906,
                -1.8350048827973937,
                1.6975696068659356,
                0.219395274511381,
                0.3600394799102189,
                -1.520915473404942
            ]
        },
        {
            "positions": [
                -0.2430765893832289,
                -1.8445592710107532,
                1.7678833305779946,
                0.1719811655491054,
                0.3865491841953771,
                -1.6535868811530774
            ]
        },
        {
            "positions": [
                -0.15300385518417875,
                -1.8541136592241128,
                1.8381970542900539,
                0.12456705658682979,
                0.41305888848053524,
                -1.7862582889012129
            ]
        },
        {
            "positions": [
                -0.0629311209851286,
                -1.863668047437472,
                1.9085107780021129,
                0.07715294762455419,
                0.4395685927656934,
                -1.918929696649348
            ]
        },
        {
            "positions": [
                0.027141613213921556,
                -1.8732224356508316,
                1.9788245017141721,
                0.029738838662278583,
                0.4660782970508516,
                -2.0516011043974833
            ]
        },
        {
            "positions": [
                0.11721434741297171,
                -1.882776823864191,
                2.049138225426231,
                -0.01767527029999702,
                0.4925880013360098,
                -2.1842725121456192
            ]
        },
        {
            "positions": [
                0.20728708161202186,
                -1.8923312120775506,
                2.1194519491382904,
                -0.06508937926227262,
                0.5190977056211679,
                -2.3169439198937543
            ]
        },
        {
            "positions": [
                0.297359815811072,
                -1.90188560029091,
                2.1897656728503496,
                -0.11250348822454823,
                0.5456074099063262,
                -2.4496153276418897
            ]
        },
        {
            "positions": [
                0.38743255001012217,
                -1.9114399885042694,
                2.2600793965624084,
                -0.15991759718682383,
                0.5721171141914843,
                -2.582286735390025
            ]
        },
        {
            "positions": [
                0.4775052842091724,
                -1.920994376717629,
                2.3303931202744677,
                -0.2073317061490994,
                0.5986268184766425,
                -2.7149581431381606
            ]
        },
        {
            "positions": [
                0.5530448027412407,
                -1.916203029277656,
                2.3505658865091137,
                -0.2889058199125464,
                0.6350027266772058,
                -2.8591537165612557
            ]
        },
        {
            "positions": [
                0.6285843212733089,
                -1.9114116818376827,
                2.37073865274376,
                -0.3704799336759934,
                0.6713786348777693,
                -3.0033492899843504
            ]
        },
        {
            "positions": [
                0.7041238398053772,
                -1.9066203343977097,
                2.390911418978406,
                -0.45205404743944044,
                0.7077545430783326,
                -3.1475448634074454
            ]
        }
    ]
}