{
    "goal": {
        "global_pose": {
            "orientation": {
                "w": 0.7031023502349854,
                "x": -0.7110244035720825,
                "y": 0.007748599164187908,
                "z": 0.005598929710686207
            },
            "position": {
                "x": 0.11585023208521307,
                "y": 0.44412534475326537,
                "z": 0.3711530566215515
            }
        },
        "name": "move_to_auspresseinheit_A"
    },
    "id": "SPARS_move_to_auspresseinheit_A_19",
    "joint_names": [
        "shoulder_pan_joint",
        "shoulder_lift_joint",
        "elbow_joint",
        "wrist_1_joint",
        "wrist_2_joint",
        "wrist_3_joint"
    ],
    "metrics": {
        "cart_traj_len": 0.7135007871063838,
        "distance_elbow_joint": 0.08100552973376507,
        "distance_shoulder_lift_joint": 0.5362858545195641,
        "distance_shoulder_pan_joint": 1.0416873633802122,
        "distance_wrist_1_joint": 0.7902361219385257,
        "distance_wrist_2_joint": 0.7159257927811334,
        "distance_wrist_3_joint": 0.07414214988717704,
        "smoothness": 1.854896095398604,
        "time": 5.082317769,
        "traj_len": 1.7998007701521792,
        "weighted_distance": 2.2121774401558274
    },
    "planner": "SPARS",
    "start": {
        "state": {
            "elbow_joint": 2.422574709923281,
            "shoulder_lift_joint": -1.3736533754116391,
            "shoulder_pan_joint": -0.33786336945926293,
            "wrist_1_joint": -1.0288603412921917,
            "wrist_2_joint": 1.2330224858903978,
            "wrist_3_joint": -3.094022268022082
        }
    },
    "waypoints": [
        {
            "positions": [
                -0.33786336945926293,
                -1.3736533754116391,
                2.422574709923281,
                -1.0288603412921917,
                1.2330224858903978,
                -3.094022268022082
            ]
        },
        {
            "positions": [
                -0.20850160269428356,
                -1.440629551683406,
                2.415643236570294,
                -0.9444527800912077,
                1.1548986660495457,
                -3.092095578041999
            ]
        },
        {
            "positions": [
                -0.07913983592930418,
                -1.507605727955173,
                2.4087117632173065,
                -0.8600452188902237,
                1.0767748462086935,
                -3.0901688880619167
            ]
        },
        {
            "positions": [
                0.05022193083567522,
                -1.5745819042269398,
                2.4017802898643192,
                -0.7756376576892396,
                0.9986510263678414,
                -3.0882421980818338
            ]
        },
        {
            "positions": [
                0.17958369760065457,
                -1.6415580804987067,
                2.394848816511332,
                -0.6912300964882556,
                0.9205272065269892,
                -3.086315508101751
            ]
        },
        {
            "positions": [
                0.3089454643656339,
                -1.7085342567704735,
                2.3879173431583447,
                -0.6068225352872716,
                0.8424033866861371,
                -3.0843888181216683
            ]
        },
        {
            "positions": [
                0.4383072311306134,
                -1.7755104330422404,
                2.3809858698053574,
                -0.5224149740862877,
                0.764279566845285,
                -3.0824621281415854
            ]
        },
        {
            "positions": [
                0.5676689978955927,
                -1.8424866093140073,
                2.37405439645237,
                -0.43800741288530365,
                0.6861557470044328,
                -3.080535438161503
            ]
        },
        {
            "positions": [
                0.6970307646605721,
                -1.9094627855857742,
                2.367122923099383,
                -0.3535998516843196,
                0.6080319271635807,
                -3.07860874818142
            ]
        },
        {
            "positions": [
                0.7038239939209491,
                -1.9089863412403452,
                2.3926766660092498,
                -0.46857548401497323,
                0.698967161217897,
                -3.137337378227935
            ]
        }
    ]
}