{
    "goal": {
        "global_pose": {
            "orientation": {
                "w": 0.7047431468963623,
                "x": -0.7094548344612122,
                "y": 0.0024358443915843964,
                "z": -0.0022348060738295317
            },
            "position": {
                "x": 0.6094750761985779,
                "y": 0.3671506643295288,
                "z": 0.19426114857196808
            }
        },
        "name": "move_to_magneteinheit_A"
    },
    "id": "SPARS_move_to_magneteinheit_A_128",
    "joint_names": [
        "shoulder_pan_joint",
        "shoulder_lift_joint",
        "elbow_joint",
        "wrist_1_joint",
        "wrist_2_joint",
        "wrist_3_joint"
    ],
    "metrics": {
        "cart_traj_len": 2.066696580382842,
        "distance_elbow_joint": 3.883899656645534,
        "distance_shoulder_lift_joint": 1.0581181935921582,
        "distance_shoulder_pan_joint": 1.2425919897212139,
        "distance_wrist_1_joint": 1.1781247212176371,
        "distance_wrist_2_joint": 1.44005777723015,
        "distance_wrist_3_joint": 1.9565007145370115,
        "smoothness": 4.2877579048820457e-16,
        "time": 5.027666974000001,
        "traj_len": 3.2801361332944254,
        "weighted_distance": 4.158181932102721
    },
    "planner": "SPARS",
    "start": {
        "state": {
            "elbow_joint": -1.919643507792019,
            "shoulder_lift_joint": -0.07675430207160344,
            "shoulder_pan_joint": -1.1188671864651873,
            "wrist_1_joint": 0.42560062535961957,
            "wrist_2_joint": 1.5706038300724876,
            "wrist_3_joint": 1.1188968870953055
        }
    },
    "waypoints": [
        {
            "positions": [
                -1.1188671864651873,
                -0.07675430207160344,
                -1.919643507792019,
                0.42560062535961957,
                1.5706038300724876,
                1.1188968870953055
            ]
        },
        {
            "positions": [
                -1.0744889011180012,
                -0.11454423755703766,
                -1.7809328057689644,
                0.38352474245898965,
                1.519173195171411,
                1.1887719126144844
            ]
        },
        {
            "positions": [
                -1.0301106157708149,
                -0.15233417304247188,
                -1.6422221037459095,
                0.3414488595583598,
                1.467742560270334,
                1.2586469381336636
            ]
        },
        {
            "positions": [
                -0.9857323304236287,
                -0.1901241085279061,
                -1.5035114017228548,
                0.2993729766577299,
                1.4163119253692573,
                1.3285219636528425
            ]
        },
        {
            "positions": [
                -0.9413540450764425,
                -0.2279140440133403,
                -1.3648006996998001,
                0.25729709375709997,
                1.3648812904681804,
                1.3983969891720214
            ]
        },
        {
            "positions": [
                -0.8969757597292563,
                -0.26570397949877456,
                -1.2260899976767452,
                0.21522121085647009,
                1.3134506555671037,
                1.4682720146912005
            ]
        },
        {
            "positions": [
                -0.8525974743820701,
                -0.30349391498420875,
                -1.0873792956536903,
                0.1731453279558402,
                1.2620200206660268,
                1.5381470402103794
            ]
        },
        {
            "positions": [
                -0.8082191890348839,
                -0.341283850469643,
                -0.9486685936306356,
                0.1310694450552103,
                1.2105893857649501,
                1.6080220657295583
            ]
        },
        {
            "positions": [
                -0.7638409036876976,
                -0.3790737859550772,
                -0.8099578916075809,
                0.08899356215458043,
                1.1591587508638734,
                1.6778970912487372
            ]
        },
        {
            "positions": [
                -0.7194626183405115,
                -0.4168637214405115,
                -0.671247189584526,
                0.04691767925395046,
                1.1077281159627965,
                1.7477721167679166
            ]
        },
        {
            "positions": [
                -0.6750843329933253,
                -0.45465365692594567,
                -0.5325364875614713,
                0.004841796353320604,
                1.0562974810617196,
                1.8176471422870955
            ]
        },
        {
            "positions": [
                -0.630706047646139,
                -0.49244359241137986,
                -0.3938257855384164,
                -0.03723408654730931,
                1.0048668461606431,
                1.8875221678062744
            ]
        },
        {
            "positions": [
                -0.5863277622989529,
                -0.530233527896814,
                -0.2551150835153617,
                -0.07930996944793917,
                0.9534362112595662,
                1.9573971933254533
            ]
        },
        {
            "positions": [
                -0.5419494769517667,
                -0.5680234633822483,
                -0.11640438149230681,
                -0.12138585234856908,
                0.9020055763584894,
                2.027272218844632
            ]
        },
        {
            "positions": [
                -0.4975711916045804,
                -0.6058133988676826,
                0.02230632053074788,
                -0.163461735249199,
                0.8505749414574126,
                2.0971472443638115
            ]
        },
        {
            "positions": [
                -0.45319290625739417,
                -0.6436033343531167,
                0.1610170225538028,
                -0.2055376181498289,
                0.7991443065563358,
                2.16702226988299
            ]
        },
        {
            "positions": [
                -0.40881462091020804,
                -0.681393269838551,
                0.29972772457685726,
                -0.2476135010504587,
                0.7477136716552591,
                2.2368972954021693
            ]
        },
        {
            "positions": [
                -0.3644363355630218,
                -0.719183205323985,
                0.43843842659991217,
                -0.2896893839510886,
                0.6962830367541823,
                2.306772320921348
            ]
        },
        {
            "positions": [
                -0.32005805021583555,
                -0.7569731408094196,
                0.5771491286229671,
                -0.33176526685171864,
                0.6448524018531054,
                2.376647346440527
            ]
        },
        {
            "positions": [
                -0.2756797648686493,
                -0.7947630762948537,
                0.715859830646022,
                -0.37384114975234856,
                0.5934217669520286,
                2.4465223719597065
            ]
        },
        {
            "positions": [
                -0.23130147952146318,
                -0.832553011780288,
                0.8545705326690765,
                -0.41591703265297836,
                0.5419911320509518,
                2.516397397478885
            ]
        },
        {
            "positions": [
                -0.18692319417427694,
                -0.870342947265722,
                0.9932812346921314,
                -0.45799291555360827,
                0.49056049714987515,
                2.5862724229980643
            ]
        },
        {
            "positions": [
                -0.1425449088270907,
                -0.9081328827511563,
                1.1319919367151863,
                -0.5000687984542382,
                0.43912986224879846,
                2.656147448517243
            ]
        },
        {
            "positions": [
                -0.09816662347990457,
                -0.9459228182365904,
                1.2707026387382407,
                -0.542144681354868,
                0.38769922734772155,
                2.726022474036422
            ]
        },
        {
            "positions": [
                -0.05378833813271844,
                -0.9837127537220247,
                1.4094133407612957,
                -0.5842205642554978,
                0.33626859244664487,
                2.795897499555601
            ]
        },
        {
            "positions": [
                -0.009410052785532086,
                -1.021502689207459,
                1.5481240427843506,
                -0.6262964471561279,
                0.28483795754556795,
                2.86577252507478
            ]
        },
        {
            "positions": [
                0.034968232561654045,
                -1.0592926246928933,
                1.6868347448074055,
                -0.6683723300567577,
                0.23340732264449127,
                2.935647550593959
            ]
        },
        {
            "positions": [
                0.0793465179088404,
                -1.0970825601783274,
                1.82554544683046,
                -0.7104482129573877,
                0.18197668774341436,
                3.005522576113138
            ]
        },
        {
            "positions": [
                0.12372480325602643,
                -1.1348724956637617,
                1.9642561488535146,
                -0.7525240958580175,
                0.13054605284233775,
                3.075397601632317
            ]
        }
    ]
}