{
    "goal": {
        "global_pose": {
            "orientation": {
                "w": 0.7047431468963623,
                "x": -0.7094548344612122,
                "y": 0.0024358443915843964,
                "z": -0.0022348060738295317
            },
            "position": {
                "x": 0.6094750761985779,
                "y": 0.3671506643295288,
                "z": 0.19426114857196808
            }
        },
        "name": "move_to_magneteinheit_A"
    },
    "id": "SPARS_move_to_magneteinheit_A_67",
    "joint_names": [
        "shoulder_pan_joint",
        "shoulder_lift_joint",
        "elbow_joint",
        "wrist_1_joint",
        "wrist_2_joint",
        "wrist_3_joint"
    ],
    "metrics": {
        "cart_traj_len": 2.0649621473621,
        "distance_elbow_joint": 3.8839599503450204,
        "distance_shoulder_lift_joint": 1.0588014622235602,
        "distance_shoulder_pan_joint": 1.2405038291973995,
        "distance_wrist_1_joint": 1.166765747392227,
        "distance_wrist_2_joint": 1.4363271435033296,
        "distance_wrist_3_joint": 1.9399260587717113,
        "smoothness": 3.368952645147008e-16,
        "time": 5.03273687,
        "traj_len": 3.275100638367201,
        "weighted_distance": 4.148400800293076
    },
    "planner": "SPARS",
    "start": {
        "state": {
            "elbow_joint": -1.919643507792019,
            "shoulder_lift_joint": -0.07675430207160344,
            "shoulder_pan_joint": -1.1188671864651873,
            "wrist_1_joint": 0.42560062535961957,
            "wrist_2_joint": 1.5706038300724876,
            "wrist_3_joint": 1.1188968870953055
        }
    },
    "waypoints": [
        {
            "positions": [
                -1.1188671864651873,
                -0.07675430207160344,
                -1.919643507792019,
                0.42560062535961957,
                1.5706038300724876,
                1.1188968870953055
            ]
        },
        {
            "positions": [
                -1.0745634782795659,
                -0.11456864000815917,
                -1.780930652422554,
                0.38393042009561146,
                1.5193064320902259,
                1.1881799606228667
            ]
        },
        {
            "positions": [
                -1.0302597700939444,
                -0.1523829779447149,
                -1.6422177970530891,
                0.34226021483160335,
                1.4680090341079641,
                1.2574630341504278
            ]
        },
        {
            "positions": [
                -0.9859560619083231,
                -0.1901973158812706,
                -1.5035049416836241,
                0.3005900095675953,
                1.4167116361257024,
                1.326746107677989
            ]
        },
        {
            "positions": [
                -0.9416523537227017,
                -0.22801165381782632,
                -1.364792086314159,
                0.2589198043035872,
                1.3654142381434404,
                1.39602918120555
            ]
        },
        {
            "positions": [
                -0.8973486455370803,
                -0.26582599175438204,
                -1.226079230944694,
                0.21724959903957905,
                1.3141168401611787,
                1.4653122547331112
            ]
        },
        {
            "positions": [
                -0.8530449373514588,
                -0.3036403296909378,
                -1.087366375575229,
                0.17557939377557097,
                1.262819442178917,
                1.5345953282606724
            ]
        },
        {
            "positions": [
                -0.8087412291658375,
                -0.3414546676274935,
                -0.948653520205764,
                0.13390918851156286,
                1.2115220441966552,
                1.6038784017882333
            ]
        },
        {
            "positions": [
                -0.7644375209802161,
                -0.3792690055640492,
                -0.809940664836299,
                0.09223898324755475,
                1.1602246462143935,
                1.6731614753157946
            ]
        },
        {
            "positions": [
                -0.7201338127945947,
                -0.41708334350060494,
                -0.6712278094668338,
                0.05056877798354664,
                1.1089272482321317,
                1.7424445488433555
            ]
        },
        {
            "positions": [
                -0.6758301046089732,
                -0.45489768143716064,
                -0.5325149540973688,
                0.008898572719538533,
                1.05762985024987,
                1.811727622370917
            ]
        },
        {
            "positions": [
                -0.6315263964233518,
                -0.4927120193737164,
                -0.39380209872790406,
                -0.03277163254446952,
                1.0063324522676083,
                1.8810106958984778
            ]
        },
        {
            "positions": [
                -0.5872226882377304,
                -0.5305263573102721,
                -0.2550892433584391,
                -0.07444183780847763,
                0.9550350542853464,
                1.950293769426039
            ]
        },
        {
            "positions": [
                -0.5429189800521089,
                -0.5683406952468278,
                -0.11637638798897387,
                -0.11611204307248574,
                0.9037376563030846,
                2.0195768429536
            ]
        },
        {
            "positions": [
                -0.4986152718664876,
                -0.6061550331833836,
                0.02233646738049111,
                -0.15778224833649385,
                0.8524402583208228,
                2.0888599164811614
            ]
        },
        {
            "positions": [
                -0.4543115636808662,
                -0.6439693711199392,
                0.1610493227499561,
                -0.19945245360050196,
                0.8011428603385611,
                2.1581429900087223
            ]
        },
        {
            "positions": [
                -0.41000785549524477,
                -0.6817837090564949,
                0.2997621781194211,
                -0.24112265886451006,
                0.7498454623562993,
                2.2274260635362833
            ]
        },
        {
            "positions": [
                -0.3657041473096234,
                -0.7195980469930507,
                0.43847503348888606,
                -0.28279286412851806,
                0.6985480643740376,
                2.2967091370638446
            ]
        },
        {
            "positions": [
                -0.32140043912400185,
                -0.7574123849296064,
                0.5771878888583515,
                -0.3244630693925263,
                0.6472506663917756,
                2.365992210591406
            ]
        },
        {
            "positions": [
                -0.2770967309383805,
                -0.7952267228661623,
                0.7159007442278165,
                -0.3661332746565344,
                0.5959532684095139,
                2.435275284118967
            ]
        },
        {
            "positions": [
                -0.23279302275275904,
                -0.8330410608027179,
                0.8546135995972814,
                -0.4078034799205425,
                0.5446558704272522,
                2.504558357646528
            ]
        },
        {
            "positions": [
                -0.1884893145671377,
                -0.8708553987392735,
                0.9933264549667464,
                -0.4494736851845505,
                0.4933584724449904,
                2.573841431174089
            ]
        },
        {
            "positions": [
                -0.14418560638151634,
                -0.9086697366758294,
                1.132039310336211,
                -0.4911438904485586,
                0.4420610744627287,
                2.64312450470165
            ]
        },
        {
            "positions": [
                -0.09988189819589488,
                -0.946484074612385,
                1.270752165705676,
                -0.5328140957125667,
                0.39076367648046695,
                2.712407578229211
            ]
        },
        {
            "positions": [
                -0.05557819001027342,
                -0.9842984125489407,
                1.409465021075141,
                -0.5744843009765748,
                0.3394662784982052,
                2.7816906517567723
            ]
        },
        {
            "positions": [
                -0.01127448182465196,
                -1.0221127504854965,
                1.5481778764446064,
                -0.6161545062405829,
                0.28816888051594325,
                2.8509737252843337
            ]
        },
        {
            "positions": [
                0.0330292263609695,
                -1.0599270884220522,
                1.6868907318140713,
                -0.657824711504591,
                0.2368714825336815,
                2.9202567988118946
            ]
        },
        {
            "positions": [
                0.07733293454659074,
                -1.097741426358608,
                1.8256035871835363,
                -0.6994949167685991,
                0.18557408455141977,
                2.9895398723394555
            ]
        },
        {
            "positions": [
                0.12163664273221228,
                -1.1355557642951637,
                1.9643164425530013,
                -0.7411651220326073,
                0.134276686569158,
                3.058822945867017
            ]
        }
    ]
}