{
    "goal": {
        "global_pose": {
            "orientation": {
                "w": 0.7031023502349854,
                "x": -0.7110244035720825,
                "y": 0.007748599164187908,
                "z": 0.005598929710686207
            },
            "position": {
                "x": 0.11585023208521307,
                "y": 0.44412534475326537,
                "z": 0.3711530566215515
            }
        },
        "name": "move_to_auspresseinheit_A"
    },
    "id": "SPARS_move_to_auspresseinheit_A_145",
    "joint_names": [
        "shoulder_pan_joint",
        "shoulder_lift_joint",
        "elbow_joint",
        "wrist_1_joint",
        "wrist_2_joint",
        "wrist_3_joint"
    ],
    "metrics": {
        "cart_traj_len": 0.6876908652115916,
        "distance_elbow_joint": 0.0273020012516203,
        "distance_shoulder_lift_joint": 0.6802490351023807,
        "distance_shoulder_pan_joint": 1.0431620451110661,
        "distance_wrist_1_joint": 1.0958395130218614,
        "distance_wrist_2_joint": 0.5856946981874293,
        "distance_wrist_3_joint": 1.462582614075135,
        "smoothness": 1.1228541477277454,
        "time": 5.038149697,
        "traj_len": 2.2124262488836757,
        "weighted_distance": 3.082455084199777
    },
    "planner": "SPARS",
    "start": {
        "state": {
            "elbow_joint": 2.422574709923281,
            "shoulder_lift_joint": -1.3736533754116391,
            "shoulder_pan_joint": -0.33786336945926293,
            "wrist_1_joint": -1.0288603412921917,
            "wrist_2_joint": 1.2330224858903978,
            "wrist_3_joint": -3.094022268022082
        }
    },
    "waypoints": [
        {
            "positions": [
                -0.33786336945926293,
                -1.3736533754116391,
                2.422574709923281,
                -1.0288603412921917,
                1.2330224858903978,
                -3.094022268022082
            ]
        },
        {
            "positions": [
                -0.25130804278373975,
                -1.4345414947695017,
                2.4199388471081704,
                -0.9462963705798209,
                1.1772839475415033,
                -3.022454834409657
            ]
        },
        {
            "positions": [
                -0.16475271610821662,
                -1.4954296141273644,
                2.4173029842930593,
                -0.86373239986745,
                1.1215454091926087,
                -2.9508874007972317
            ]
        },
        {
            "positions": [
                -0.0781973894326935,
                -1.556317733485227,
                2.4146671214779483,
                -0.7811684291550791,
                1.0658068708437143,
                -2.8793199671848067
            ]
        },
        {
            "positions": [
                0.008357937242829683,
                -1.6172058528430897,
                2.4120312586628376,
                -0.6986044584427081,
                1.0100683324948199,
                -2.8077525335723816
            ]
        },
        {
            "positions": [
                0.09491326391835281,
                -1.6780939722009522,
                2.409395395847727,
                -0.6160404877303373,
                0.9543297941459253,
                -2.7361850999599566
            ]
        },
        {
            "positions": [
                0.18146859059387593,
                -1.7389820915588148,
                2.406759533032616,
                -0.5334765170179664,
                0.8985912557970308,
                -2.664617666347531
            ]
        },
        {
            "positions": [
                0.26802391726939906,
                -1.7998702109166775,
                2.404123670217505,
                -0.4509125463055955,
                0.8428527174481364,
                -2.593050232735106
            ]
        },
        {
            "positions": [
                0.3545792439449223,
                -1.86075833027454,
                2.401487807402394,
                -0.36834857559322454,
                0.7871141790992419,
                -2.5214827991226807
            ]
        },
        {
            "positions": [
                0.4411345706204454,
                -1.9216464496324028,
                2.3988519445872836,
                -0.28578460488085367,
                0.7313756407503473,
                -2.4499153655102557
            ]
        },
        {
            "positions": [
                0.5276898972959686,
                -1.9825345689902654,
                2.3962160817721725,
                -0.20322063416848282,
                0.6756371024014529,
                -2.3783479318978307
            ]
        },
        {
            "positions": [
                0.5720920918849273,
                -1.9646926086093268,
                2.3959802384970446,
                -0.2707705856430209,
                0.682714431076074,
                -2.5650750013855514
            ]
        },
        {
            "positions": [
                0.6164942864738859,
                -1.9468506482283883,
                2.3957443952219166,
                -0.33832053711755905,
                0.6897917597506951,
                -2.751802070873272
            ]
        },
        {
            "positions": [
                0.6608964810628446,
                -1.9290086878474495,
                2.3955085519467887,
                -0.4058704885920971,
                0.6968690884253163,
                -2.9385291403609934
            ]
        },
        {
            "positions": [
                0.7052986756518033,
                -1.911166727466511,
                2.3952727086716608,
                -0.47342044006663525,
                0.7039464170999373,
                -3.125256209848714
            ]
        }
    ]
}