{
    "goal": {
        "global_pose": {
            "orientation": {
                "w": 0.7031023502349854,
                "x": -0.7110244035720825,
                "y": 0.007748599164187908,
                "z": 0.005598929710686207
            },
            "position": {
                "x": 0.11585023208521307,
                "y": 0.44412534475326537,
                "z": 0.3711530566215515
            }
        },
        "name": "move_to_auspresseinheit_A"
    },
    "id": "SPARS_move_to_auspresseinheit_A_53",
    "joint_names": [
        "shoulder_pan_joint",
        "shoulder_lift_joint",
        "elbow_joint",
        "wrist_1_joint",
        "wrist_2_joint",
        "wrist_3_joint"
    ],
    "metrics": {
        "cart_traj_len": 0.6973643819620418,
        "distance_elbow_joint": 0.25762404554311047,
        "distance_shoulder_lift_joint": 0.5322585377775111,
        "distance_shoulder_pan_joint": 1.0446807252569659,
        "distance_wrist_1_joint": 1.8320750162851884,
        "distance_wrist_2_joint": 1.9991886370466052,
        "distance_wrist_3_joint": 0.8756476807836076,
        "smoothness": 1.1816205472583743,
        "time": 5.0454448780000005,
        "traj_len": 2.5576306697201194,
        "weighted_distance": 3.481958307848042
    },
    "planner": "SPARS",
    "start": {
        "state": {
            "elbow_joint": 2.422574709923281,
            "shoulder_lift_joint": -1.3736533754116391,
            "shoulder_pan_joint": -0.33786336945926293,
            "wrist_1_joint": -1.0288603412921917,
            "wrist_2_joint": 1.2330224858903978,
            "wrist_3_joint": -3.094022268022082
        }
    },
    "waypoints": [
        {
            "positions": [
                -0.33786336945926293,
                -1.3736533754116391,
                2.422574709923281,
                -1.0288603412921917,
                1.2330224858903978,
                -3.094022268022082
            ]
        },
        {
            "positions": [
                -0.30834400991982763,
                -1.4036003052214323,
                2.408118719343934,
                -0.90861840583529,
                1.1069546757346873,
                -3.0525410417666756
            ]
        },
        {
            "positions": [
                -0.2788246503803923,
                -1.4335472350312255,
                2.3936627287645873,
                -0.7883764703783883,
                0.980886865578977,
                -3.0110598155112696
            ]
        },
        {
            "positions": [
                -0.24930529084095698,
                -1.4634941648410187,
                2.379206738185241,
                -0.6681345349214867,
                0.8548190554232666,
                -2.969578589255863
            ]
        },
        {
            "positions": [
                -0.2197859313015217,
                -1.4934410946508119,
                2.364750747605894,
                -0.5478925994645849,
                0.7287512452675562,
                -2.9280973630004565
            ]
        },
        {
            "positions": [
                -0.19026657176208636,
                -1.523388024460605,
                2.350294757026547,
                -0.42765066400768326,
                0.6026834351118459,
                -2.88661613674505
            ]
        },
        {
            "positions": [
                -0.16074721222265106,
                -1.5533349542703982,
                2.3358387664472002,
                -0.3074087285507816,
                0.4766156249561355,
                -2.845134910489644
            ]
        },
        {
            "positions": [
                -0.13122785268321574,
                -1.5832818840801914,
                2.3213827758678534,
                -0.18716679309387996,
                0.3505478148004252,
                -2.8036536842342374
            ]
        },
        {
            "positions": [
                -0.10170849314378042,
                -1.6132288138899846,
                2.306926785288507,
                -0.06692485763697809,
                0.22448000464471463,
                -2.762172457978831
            ]
        },
        {
            "positions": [
                -0.07218913360434509,
                -1.6431757436997778,
                2.29247079470916,
                0.05331707781992345,
                0.0984121944890044,
                -2.720691231723425
            ]
        },
        {
            "positions": [
                -0.04266977406490978,
                -1.673122673509571,
                2.278014804129813,
                0.17355901327682513,
                -0.027655615666706115,
                -2.6792100054680184
            ]
        },
        {
            "positions": [
                0.051016117167916805,
                -1.7022213284695185,
                2.2921478215985185,
                0.09485205556230367,
                0.06465820126948152,
                -2.736814432746711
            ]
        },
        {
            "positions": [
                0.14470200840074338,
                -1.731319983429466,
                2.306280839067224,
                0.016145097847782203,
                0.15697201820566914,
                -2.794418860025404
            ]
        },
        {
            "positions": [
                0.23838789963357,
                -1.7604186383894131,
                2.320413856535929,
                -0.06256185986673926,
                0.24928583514185682,
                -2.8520232873040974
            ]
        },
        {
            "positions": [
                0.33207379086639655,
                -1.7895172933493606,
                2.3345468740046345,
                -0.14126881758126072,
                0.34159965207804444,
                -2.9096277145827902
            ]
        },
        {
            "positions": [
                0.4257596820992231,
                -1.818615948309308,
                2.3486798914733398,
                -0.2199757752957822,
                0.43391346901423206,
                -2.967232141861483
            ]
        },
        {
            "positions": [
                0.5194455733320498,
                -1.8477146032692553,
                2.362812908942045,
                -0.2986827330103037,
                0.5262272859504197,
                -3.0248365691401764
            ]
        },
        {
            "positions": [
                0.6131314645648763,
                -1.8768132582292028,
                2.3769459264107504,
                -0.3773896907248252,
                0.6185411028866072,
                -3.0824409964188693
            ]
        },
        {
            "positions": [
                0.7068173557977029,
                -1.9059119131891502,
                2.3910789438794557,
                -0.45609664843934655,
                0.7108549198227949,
                -3.140045423697562
            ]
        }
    ]
}