{
    "goal": {
        "global_pose": {
            "orientation": {
                "w": 0.7047431468963623,
                "x": -0.7094548344612122,
                "y": 0.0024358443915843964,
                "z": -0.0022348060738295317
            },
            "position": {
                "x": 0.6094750761985779,
                "y": 0.3671506643295288,
                "z": 0.19426114857196808
            }
        },
        "name": "move_to_magneteinheit_A"
    },
    "id": "SPARS_move_to_magneteinheit_A_19",
    "joint_names": [
        "shoulder_pan_joint",
        "shoulder_lift_joint",
        "elbow_joint",
        "wrist_1_joint",
        "wrist_2_joint",
        "wrist_3_joint"
    ],
    "metrics": {
        "cart_traj_len": 1.8786925024273018,
        "distance_elbow_joint": 3.908784965213882,
        "distance_shoulder_lift_joint": 0.6993080753566542,
        "distance_shoulder_pan_joint": 1.2427587222522365,
        "distance_wrist_1_joint": 1.4927370727407765,
        "distance_wrist_2_joint": 1.6959923192852606,
        "distance_wrist_3_joint": 1.115885410862788,
        "smoothness": 6.579099438724406e-16,
        "time": 5.040856636,
        "traj_len": 3.1867642783412142,
        "weighted_distance": 3.946639935370747
    },
    "planner": "SPARS",
    "start": {
        "state": {
            "elbow_joint": -1.919643507792019,
            "shoulder_lift_joint": -0.07675430207160344,
            "shoulder_pan_joint": -1.1188671864651873,
            "wrist_1_joint": 0.42560062535961957,
            "wrist_2_joint": 1.5706038300724876,
            "wrist_3_joint": 1.1188968870953055
        }
    },
    "waypoints": [
        {
            "positions": [
                -1.1188671864651873,
                -0.07675430207160344,
                -1.919643507792019,
                0.42560062535961957,
                1.5706038300724876,
                1.1188968870953055
            ]
        },
        {
            "positions": [
                -1.0710687740708706,
                -0.10365076650839784,
                -1.769305624514562,
                0.48301358969580327,
                1.5053733562538238,
                1.0759782174467367
            ]
        },
        {
            "positions": [
                -1.0232703616765537,
                -0.13054723094519224,
                -1.618967741237105,
                0.540426554031987,
                1.4401428824351599,
                1.0330595477981679
            ]
        },
        {
            "positions": [
                -0.975471949282237,
                -0.15744369538198663,
                -1.4686298579596482,
                0.5978395183681707,
                1.3749124086164959,
                0.9901408781495993
            ]
        },
        {
            "positions": [
                -0.9276735368879202,
                -0.18434015981878105,
                -1.318291974682191,
                0.6552524827043544,
                1.3096819347978321,
                0.9472222085010304
            ]
        },
        {
            "positions": [
                -0.8798751244936034,
                -0.21123662425557543,
                -1.167954091404734,
                0.7126654470405381,
                1.2444514609791684,
                0.9043035388524616
            ]
        },
        {
            "positions": [
                -0.8320767120992866,
                -0.23813308869236982,
                -1.017616208127277,
                0.7700784113767218,
                1.1792209871605044,
                0.8613848692038929
            ]
        },
        {
            "positions": [
                -0.7842782997049699,
                -0.2650295531291642,
                -0.8672783248498201,
                0.8274913757129055,
                1.1139905133418404,
                0.8184661995553242
            ]
        },
        {
            "positions": [
                -0.7364798873106531,
                -0.2919260175659586,
                -0.716940441572363,
                0.8849043400490892,
                1.0487600395231766,
                0.7755475299067554
            ]
        },
        {
            "positions": [
                -0.6886814749163362,
                -0.318822482002753,
                -0.5666025582949061,
                0.9423173043852731,
                0.9835295657045128,
                0.7326288602581866
            ]
        },
        {
            "positions": [
                -0.6408830625220194,
                -0.3457189464395474,
                -0.416264675017449,
                0.9997302687214566,
                0.9182990918858489,
                0.6897101906096178
            ]
        },
        {
            "positions": [
                -0.5930846501277027,
                -0.3726154108763418,
                -0.2659267917399921,
                1.0571432330576405,
                0.853068618067185,
                0.6467915209610491
            ]
        },
        {
            "positions": [
                -0.5452862377333858,
                -0.3995118753131362,
                -0.115588908462535,
                1.114556197393824,
                0.7878381442485212,
                0.6038728513124803
            ]
        },
        {
            "positions": [
                -0.4974878253390691,
                -0.4264083397499306,
                0.034748974814921896,
                1.1719691617300079,
                0.7226076704298573,
                0.5609541816639115
            ]
        },
        {
            "positions": [
                -0.4496894129447524,
                -0.453304804186725,
                0.1850868580923788,
                1.2293821260661915,
                0.6573771966111934,
                0.5180355120153428
            ]
        },
        {
            "positions": [
                -0.4018910005504356,
                -0.48020126862351936,
                0.3354247413698357,
                1.286795090402375,
                0.5921467227925297,
                0.4751168423667741
            ]
        },
        {
            "positions": [
                -0.35409258815611866,
                -0.5070977330603138,
                0.48576262464729303,
                1.344208054738559,
                0.5269162489738657,
                0.43219817271820515
            ]
        },
        {
            "positions": [
                -0.30629417576180196,
                -0.5339941974971082,
                0.6361005079247499,
                1.4016210190747427,
                0.4616857751552017,
                0.38927950306963643
            ]
        },
        {
            "positions": [
                -0.25849576336748514,
                -0.5608906619339026,
                0.7864383912022068,
                1.4590339834109265,
                0.39645530133653795,
                0.3463608334210677
            ]
        },
        {
            "positions": [
                -0.21069735097316844,
                -0.5877871263706969,
                0.9367762744796637,
                1.51644694774711,
                0.3312248275178742,
                0.303442163772499
            ]
        },
        {
            "positions": [
                -0.16289893857885152,
                -0.6146835908074915,
                1.087114157757121,
                1.573859912083294,
                0.2659943536992102,
                0.26052349412393006
            ]
        },
        {
            "positions": [
                -0.11510052618453481,
                -0.6415800552442859,
                1.237452041034578,
                1.6312728764194775,
                0.20076387988054623,
                0.21760482447536134
            ]
        },
        {
            "positions": [
                -0.06730211379021811,
                -0.6684765196810802,
                1.3877899243120349,
                1.6886858407556613,
                0.13553340606188247,
                0.17468615482679262
            ]
        },
        {
            "positions": [
                -0.019503701395901185,
                -0.6953729841178746,
                1.5381278075894917,
                1.746098805091845,
                0.07030293224321871,
                0.1317674851782239
            ]
        },
        {
            "positions": [
                0.02829471099841574,
                -0.722269448554669,
                1.688465690866949,
                1.8035117694280287,
                0.005072458424554727,
                0.08884881552965496
            ]
        },
        {
            "positions": [
                0.07609312339273244,
                -0.7491659129914634,
                1.838803574144406,
                1.8609247337642125,
                -0.060158015394109254,
                0.04593014588108635
            ]
        },
        {
            "positions": [
                0.12389153578704915,
                -0.7760623774282577,
                1.989141457421863,
                1.9183376981003961,
                -0.1253884892127731,
                0.0030114762325175485
            ]
        }
    ]
}