{
    "goal": {
        "global_pose": {
            "orientation": {
                "w": 0.7031023502349854,
                "x": -0.7110244035720825,
                "y": 0.007748599164187908,
                "z": 0.005598929710686207
            },
            "position": {
                "x": 0.11585023208521307,
                "y": 0.44412534475326537,
                "z": 0.3711530566215515
            }
        },
        "name": "move_to_auspresseinheit_A"
    },
    "id": "SPARS_move_to_auspresseinheit_A_137",
    "joint_names": [
        "shoulder_pan_joint",
        "shoulder_lift_joint",
        "elbow_joint",
        "wrist_1_joint",
        "wrist_2_joint",
        "wrist_3_joint"
    ],
    "metrics": {
        "cart_traj_len": 0.6880297762629466,
        "distance_elbow_joint": 0.03417118784734985,
        "distance_shoulder_lift_joint": 0.5320027365677051,
        "distance_shoulder_pan_joint": 1.0424012169605084,
        "distance_wrist_1_joint": 0.578608722039496,
        "distance_wrist_2_joint": 0.5304471134201113,
        "distance_wrist_3_joint": 0.056023865850725496,
        "smoothness": 0.0,
        "time": 5.04606583,
        "traj_len": 1.6654293268361453,
        "weighted_distance": 1.9986891728948135
    },
    "planner": "SPARS",
    "start": {
        "state": {
            "elbow_joint": 2.422574709923281,
            "shoulder_lift_joint": -1.3736533754116391,
            "shoulder_pan_joint": -0.33786336945926293,
            "wrist_1_joint": -1.0288603412921917,
            "wrist_2_joint": 1.2330224858903978,
            "wrist_3_joint": -3.094022268022082
        }
    },
    "waypoints": [
        {
            "positions": [
                -0.33786336945926293,
                -1.3736533754116391,
                2.422574709923281,
                -1.0288603412921917,
                1.2330224858903978,
                -3.094022268022082
            ]
        },
        {
            "positions": [
                -0.20756321733919939,
                -1.4401537174826022,
                2.4183033114423624,
                -0.9565342510372548,
                1.1667165967128839,
                -3.101025251253423
            ]
        },
        {
            "positions": [
                -0.07726306521913584,
                -1.5066540595535654,
                2.414031912961444,
                -0.8842081607823178,
                1.10041070753537,
                -3.1080282344847636
            ]
        },
        {
            "positions": [
                0.05303708690092773,
                -1.5731544016245285,
                2.4097605144805248,
                -0.8118820705273807,
                1.034104818357856,
                -3.1150312177161044
            ]
        },
        {
            "positions": [
                0.18333723902099125,
                -1.6396547436954916,
                2.405489115999606,
                -0.7395559802724437,
                0.9677989291803422,
                -3.1220342009474447
            ]
        },
        {
            "positions": [
                0.31363739114105477,
                -1.7061550857664547,
                2.4012177175186875,
                -0.6672298900175068,
                0.9014930400028283,
                -3.1290371841787854
            ]
        },
        {
            "positions": [
                0.4439375432611184,
                -1.772655427837418,
                2.3969463190377684,
                -0.5949037997625697,
                0.8351871508253143,
                -3.136040167410126
            ]
        },
        {
            "positions": [
                0.5742376953811819,
                -1.8391557699083811,
                2.39267492055685,
                -0.5225777095076327,
                0.7688812616478004,
                -3.143043150641467
            ]
        },
        {
            "positions": [
                0.7045378475012454,
                -1.9056561119793443,
                2.388403522075931,
                -0.4502516192526958,
                0.7025753724702865,
                -3.1500461338728076
            ]
        }
    ]
}