{
    "goal": {
        "global_pose": {
            "orientation": {
                "w": 0.5084816217422485,
                "x": -0.49083608388900757,
                "y": 0.5182115435600281,
                "z": -0.4816462993621826
            },
            "position": {
                "x": 0.5540239810943604,
                "y": 0.030875300988554955,
                "z": 0.16403168439865112
            }
        },
        "name": "move_to_storage_A"
    },
    "id": "SPARS_move_to_storage_A_25",
    "joint_names": [
        "shoulder_pan_joint",
        "shoulder_lift_joint",
        "elbow_joint",
        "wrist_1_joint",
        "wrist_2_joint",
        "wrist_3_joint"
    ],
    "metrics": {
        "cart_traj_len": 0.3531687254830822,
        "distance_elbow_joint": 0.44822412987665805,
        "distance_shoulder_lift_joint": 0.23559930986914845,
        "distance_shoulder_pan_joint": 0.4625269018878723,
        "distance_wrist_1_joint": 0.2363286322094692,
        "distance_wrist_2_joint": 1.0960667321320607,
        "distance_wrist_3_joint": 0.10285283203178519,
        "smoothness": 1.3322676330666221e-15,
        "time": 5.093404284,
        "traj_len": 1.6067353665140363,
        "weighted_distance": 2.029704305166665
    },
    "planner": "SPARS",
    "start": {
        "state": {
            "elbow_joint": 1.9715463870305268,
            "shoulder_lift_joint": -1.1394903361783484,
            "shoulder_pan_joint": 0.12281147578464417,
            "wrist_1_joint": -0.7804599489681411,
            "wrist_2_joint": 0.12958660307563738,
            "wrist_3_joint": -3.1924946282119055
        }
    },
    "waypoints": [
        {
            "positions": [
                0.12281147578464417,
                -1.1394903361783484,
                1.9715463870305268,
                -0.7804599489681411,
                0.12958660307563738,
                -3.1924946282119055
            ]
        },
        {
            "positions": [
                0.056736204086376696,
                -1.1731473804453696,
                2.035578405584335,
                -0.8142211821409224,
                0.2861675648087889,
                -3.177801366493079
            ]
        },
        {
            "positions": [
                -0.00933906761189078,
                -1.2068044247123908,
                2.0996104241381435,
                -0.8479824153137037,
                0.4427485265419404,
                -3.1631081047742526
            ]
        },
        {
            "positions": [
                -0.07541433931015824,
                -1.240461468979412,
                2.163642442691952,
                -0.881743648486485,
                0.5993294882750919,
                -3.148414843055426
            ]
        },
        {
            "positions": [
                -0.14148961100842572,
                -1.2741185132464332,
                2.2276744612457597,
                -0.9155048816592664,
                0.7559104500082435,
                -3.1337215813365997
            ]
        },
        {
            "positions": [
                -0.2075648827066932,
                -1.3077755575134544,
                2.291706479799568,
                -0.9492661148320476,
                0.9124914117413951,
                -3.1190283196177733
            ]
        },
        {
            "positions": [
                -0.27364015440496064,
                -1.3414326017804756,
                2.3557384983533765,
                -0.9830273480048289,
                1.0690723734745464,
                -3.104335057898947
            ]
        },
        {
            "positions": [
                -0.33971542610322814,
                -1.3750896460474968,
                2.419770516907185,
                -1.0167885811776103,
                1.2256533352076981,
                -3.0896417961801204
            ]
        }
    ]
}