{
    "goal": {
        "global_pose": {
            "orientation": {
                "w": 0.7047431468963623,
                "x": -0.7094548344612122,
                "y": 0.0024358443915843964,
                "z": -0.0022348060738295317
            },
            "position": {
                "x": 0.6094750761985779,
                "y": 0.3671506643295288,
                "z": 0.19426114857196808
            }
        },
        "name": "move_to_magneteinheit_A"
    },
    "id": "SPARS_move_to_magneteinheit_A_9",
    "joint_names": [
        "shoulder_pan_joint",
        "shoulder_lift_joint",
        "elbow_joint",
        "wrist_1_joint",
        "wrist_2_joint",
        "wrist_3_joint"
    ],
    "metrics": {
        "cart_traj_len": 1.8757500245739573,
        "distance_elbow_joint": 3.9156192120919244,
        "distance_shoulder_lift_joint": 0.7020641668043494,
        "distance_shoulder_pan_joint": 1.2411438014087288,
        "distance_wrist_1_joint": 1.51060308953614,
        "distance_wrist_2_joint": 1.6979233964565927,
        "distance_wrist_3_joint": 1.1206176262550178,
        "smoothness": 4.934324565125532e-16,
        "time": 5.041460659,
        "traj_len": 3.1918601618104687,
        "weighted_distance": 3.9544573624020174
    },
    "planner": "SPARS",
    "start": {
        "state": {
            "elbow_joint": -1.919643507792019,
            "shoulder_lift_joint": -0.07675430207160344,
            "shoulder_pan_joint": -1.1188671864651873,
            "wrist_1_joint": 0.42560062535961957,
            "wrist_2_joint": 1.5706038300724876,
            "wrist_3_joint": 1.1188968870953055
        }
    },
    "waypoints": [
        {
            "positions": [
                -1.1188671864651873,
                -0.07675430207160344,
                -1.919643507792019,
                0.42560062535961957,
                1.5706038300724876,
                1.1188968870953055
            ]
        },
        {
            "positions": [
                -1.0711308864110054,
                -0.10375677002561688,
                -1.7690427688654067,
                0.48370074418793263,
                1.5052990840549263,
                1.0757962091624202
            ]
        },
        {
            "positions": [
                -1.0233945863568237,
                -0.13075923797963032,
                -1.618442029938794,
                0.5418008630162457,
                1.439994338037365,
                1.032695531229535
            ]
        },
        {
            "positions": [
                -0.9756582863026417,
                -0.15776170593364378,
                -1.4678412910121816,
                0.5999009818445589,
                1.374689592019804,
                0.9895948532966496
            ]
        },
        {
            "positions": [
                -0.9279219862484598,
                -0.1847641738876572,
                -1.3172405520855692,
                0.6580011006728719,
                1.3093848460022426,
                0.9464941753637643
            ]
        },
        {
            "positions": [
                -0.880185686194278,
                -0.21176664184167066,
                -1.1666398131589566,
                0.7161012195011849,
                1.2440800999846813,
                0.903393497430879
            ]
        },
        {
            "positions": [
                -0.8324493861400961,
                -0.2387691097956841,
                -1.0160390742323442,
                0.7742013383294981,
                1.17877535396712,
                0.8602928194979937
            ]
        },
        {
            "positions": [
                -0.7847130860859142,
                -0.2657715777496975,
                -0.8654383353057318,
                0.8323014571578111,
                1.1134706079495589,
                0.8171921415651084
            ]
        },
        {
            "positions": [
                -0.7369767860317322,
                -0.292774045703711,
                -0.7148375963791191,
                0.8904015759861241,
                1.0481658619319973,
                0.7740914636322231
            ]
        },
        {
            "positions": [
                -0.6892404859775505,
                -0.3197765136577244,
                -0.5642368574525067,
                0.9485016948144371,
                0.9828611159144363,
                0.7309907856993378
            ]
        },
        {
            "positions": [
                -0.6415041859233686,
                -0.34677898161173787,
                -0.4136361185258943,
                1.0066018136427504,
                0.917556369896875,
                0.6878901077664525
            ]
        },
        {
            "positions": [
                -0.5937678858691867,
                -0.37378144956575127,
                -0.2630353795992819,
                1.0647019324710634,
                0.8522516238793137,
                0.6447894298335672
            ]
        },
        {
            "positions": [
                -0.5460315858150048,
                -0.4007839175197648,
                -0.11243464067266928,
                1.1228020512993766,
                0.7869468778617524,
                0.6016887519006819
            ]
        },
        {
            "positions": [
                -0.49829528576082294,
                -0.4277863854737782,
                0.038166098253943126,
                1.1809021701276896,
                0.7216421318441912,
                0.5585880739677966
            ]
        },
        {
            "positions": [
                -0.4505589857066411,
                -0.4547888534277916,
                0.18876683718055554,
                1.2390022889560026,
                0.65633738582663,
                0.5154873960349113
            ]
        },
        {
            "positions": [
                -0.40282268565245927,
                -0.481791321381805,
                0.3393675761071677,
                1.2971024077843156,
                0.5910326398090688,
                0.47238671810202615
            ]
        },
        {
            "positions": [
                -0.3550863855982772,
                -0.5087937893358185,
                0.4899683150337808,
                1.3552025266126289,
                0.5257278937915073,
                0.42928604016914074
            ]
        },
        {
            "positions": [
                -0.3073500855440954,
                -0.5357962572898319,
                0.640569053960393,
                1.4133026454409419,
                0.4604231477739462,
                0.38618536223625544
            ]
        },
        {
            "positions": [
                -0.25961378548991354,
                -0.5627987252438453,
                0.7911697928870056,
                1.4714027642692549,
                0.3951184017563849,
                0.34308468430337014
            ]
        },
        {
            "positions": [
                -0.2118774854357317,
                -0.5898011931978588,
                0.9417705318136178,
                1.529502883097568,
                0.3298136557388238,
                0.29998400637048483
            ]
        },
        {
            "positions": [
                -0.16414118538154976,
                -0.6168036611518724,
                1.0923712707402304,
                1.587603001925881,
                0.2645089097212623,
                0.25688332843759953
            ]
        },
        {
            "positions": [
                -0.11640488532736781,
                -0.6438061291058856,
                1.242972009666843,
                1.6457031207541943,
                0.1992041637037012,
                0.21378265050471423
            ]
        },
        {
            "positions": [
                -0.06866858527318609,
                -0.6708085970598991,
                1.3935727485934553,
                1.7038032395825073,
                0.1338994176861399,
                0.17068197257182893
            ]
        },
        {
            "positions": [
                -0.020932285219004143,
                -0.6978110650139127,
                1.5441734875200679,
                1.7619033584108204,
                0.0685946716685788,
                0.12758129463894363
            ]
        },
        {
            "positions": [
                0.026804014835177803,
                -0.7248135329679262,
                1.6947742264466805,
                1.8200034772391336,
                0.003289925651017267,
                0.08448061670605833
            ]
        },
        {
            "positions": [
                0.07454031488935953,
                -0.7518160009219395,
                1.8453749653732932,
                1.8781035960674466,
                -0.06201482036654382,
                0.04137993877317303
            ]
        },
        {
            "positions": [
                0.12227661494354143,
                -0.7788184688759529,
                1.9959757042999053,
                1.9362037148957596,
                -0.12731956638410524,
                -0.0017207391597122803
            ]
        }
    ]
}