{
    "goal": {
        "global_pose": {
            "orientation": {
                "w": 0.5084816217422485,
                "x": -0.49083608388900757,
                "y": 0.5182115435600281,
                "z": -0.4816462993621826
            },
            "position": {
                "x": 0.5540239810943604,
                "y": 0.030875300988554955,
                "z": 0.16403168439865112
            }
        },
        "name": "move_to_storage_A"
    },
    "id": "SPARS_move_to_storage_A_93",
    "joint_names": [
        "shoulder_pan_joint",
        "shoulder_lift_joint",
        "elbow_joint",
        "wrist_1_joint",
        "wrist_2_joint",
        "wrist_3_joint"
    ],
    "metrics": {
        "cart_traj_len": 0.35402570271571543,
        "distance_elbow_joint": 0.4494338969194196,
        "distance_shoulder_lift_joint": 0.23541822752820907,
        "distance_shoulder_pan_joint": 0.4600928577994156,
        "distance_wrist_1_joint": 0.23713163092459622,
        "distance_wrist_2_joint": 1.1135049998252375,
        "distance_wrist_3_joint": 0.098920013251234,
        "smoothness": 5.551115138160447e-16,
        "time": 5.03226632,
        "traj_len": 1.6107456739808779,
        "weighted_distance": 2.0354307366010795
    },
    "planner": "SPARS",
    "start": {
        "state": {
            "elbow_joint": 1.9715463870305268,
            "shoulder_lift_joint": -1.1394903361783484,
            "shoulder_pan_joint": 0.12281147578464417,
            "wrist_1_joint": -0.7804599489681411,
            "wrist_2_joint": 0.12958660307563738,
            "wrist_3_joint": -3.1924946282119055
        }
    },
    "waypoints": [
        {
            "positions": [
                0.12281147578464417,
                -1.1394903361783484,
                1.9715463870305268,
                -0.7804599489681411,
                0.12958660307563738,
                -3.1924946282119055
            ]
        },
        {
            "positions": [
                0.057083924670441946,
                -1.173121511539521,
                2.0357512294475866,
                -0.8143358962430834,
                0.28865874590781415,
                -3.1783631977474434
            ]
        },
        {
            "positions": [
                -0.00864362644376028,
                -1.206752686900694,
                2.099956071864647,
                -0.8482118435180257,
                0.4477308887399909,
                -3.1642317672829816
            ]
        },
        {
            "positions": [
                -0.0743711775579625,
                -1.2403838622618666,
                2.1641609142817066,
                -0.8820877907929681,
                0.6068030315721678,
                -3.1501003368185194
            ]
        },
        {
            "positions": [
                -0.14009872867216472,
                -1.2740150376230392,
                2.2283657566987665,
                -0.9159637380679103,
                0.7658751744043445,
                -3.1359689063540577
            ]
        },
        {
            "positions": [
                -0.20582627978636697,
                -1.3076462129842121,
                2.2925705991158267,
                -0.9498396853428527,
                0.9249473172365213,
                -3.1218374758895955
            ]
        },
        {
            "positions": [
                -0.27155383090056917,
                -1.3412773883453848,
                2.3567754415328865,
                -0.9837156326177949,
                1.084019460068698,
                -3.1077060454251337
            ]
        },
        {
            "positions": [
                -0.3372813820147714,
                -1.3749085637065575,
                2.4209802839499464,
                -1.0175915798927373,
                1.243091602900875,
                -3.0935746149606715
            ]
        }
    ]
}