{
    "goal": {
        "global_pose": {
            "orientation": {
                "w": 0.7031023502349854,
                "x": -0.7110244035720825,
                "y": 0.007748599164187908,
                "z": 0.005598929710686207
            },
            "position": {
                "x": 0.11585023208521307,
                "y": 0.44412534475326537,
                "z": 0.3711530566215515
            }
        },
        "name": "move_to_auspresseinheit_A"
    },
    "id": "SPARS_move_to_auspresseinheit_A_122",
    "joint_names": [
        "shoulder_pan_joint",
        "shoulder_lift_joint",
        "elbow_joint",
        "wrist_1_joint",
        "wrist_2_joint",
        "wrist_3_joint"
    ],
    "metrics": {
        "cart_traj_len": 0.8672114377944945,
        "distance_elbow_joint": 0.12386336300674472,
        "distance_shoulder_lift_joint": 0.5336824956306325,
        "distance_shoulder_pan_joint": 1.6820936036180312,
        "distance_wrist_1_joint": 0.5639702753142769,
        "distance_wrist_2_joint": 0.53336431536182,
        "distance_wrist_3_joint": 0.7100582903130879,
        "smoothness": 1.0751707308306973,
        "time": 5.027271986,
        "traj_len": 2.036426365780161,
        "weighted_distance": 2.581566097264772
    },
    "planner": "SPARS",
    "start": {
        "state": {
            "elbow_joint": 2.422574709923281,
            "shoulder_lift_joint": -1.3736533754116391,
            "shoulder_pan_joint": -0.33786336945926293,
            "wrist_1_joint": -1.0288603412921917,
            "wrist_2_joint": 1.2330224858903978,
            "wrist_3_joint": -3.094022268022082
        }
    },
    "waypoints": [
        {
            "positions": [
                -0.33786336945926293,
                -1.3736533754116391,
                2.422574709923281,
                -1.0288603412921917,
                1.2330224858903978,
                -3.094022268022082
            ]
        },
        {
            "positions": [
                -0.41803238542082516,
                -1.3885051311063448,
                2.434395580092452,
                -0.9882366805645754,
                1.1455876462780408,
                -3.010675210256641
            ]
        },
        {
            "positions": [
                -0.49820140138238744,
                -1.4033568868010504,
                2.4462164502616233,
                -0.947613019836959,
                1.0581528066656838,
                -2.9273281524912
            ]
        },
        {
            "positions": [
                -0.5783704173439497,
                -1.418208642495756,
                2.458037320430795,
                -0.9069893591093426,
                0.9707179670533266,
                -2.8439810947257587
            ]
        },
        {
            "positions": [
                -0.6585394333055119,
                -1.4330603981904617,
                2.469858190599966,
                -0.8663656983817263,
                0.8832831274409696,
                -2.7606340369603175
            ]
        },
        {
            "positions": [
                -0.4883622408340391,
                -1.492344832296938,
                2.4602857053087086,
                -0.8161812443312498,
                0.8603300078269206,
                -2.807717794366733
            ]
        },
        {
            "positions": [
                -0.31818504836256634,
                -1.5516292664034141,
                2.450713220017451,
                -0.7659967902807734,
                0.8373768882128716,
                -2.854801551773148
            ]
        },
        {
            "positions": [
                -0.14800785589109355,
                -1.6109137005098904,
                2.4411407347261935,
                -0.715812336230297,
                0.8144237685988226,
                -2.9018853091795638
            ]
        },
        {
            "positions": [
                0.02216933658037923,
                -1.6701981346163666,
                2.431568249434936,
                -0.6656278821798205,
                0.7914706489847736,
                -2.9489690665859793
            ]
        },
        {
            "positions": [
                0.192346529051852,
                -1.729482568722843,
                2.4219957641436785,
                -0.6154434281293442,
                0.7685175293707247,
                -2.9960528239923945
            ]
        },
        {
            "positions": [
                0.3625237215233248,
                -1.7887670028293192,
                2.412423278852421,
                -0.5652589740788677,
                0.7455644097566757,
                -3.04313658139881
            ]
        },
        {
            "positions": [
                0.5327009139947976,
                -1.8480514369357954,
                2.4028507935611634,
                -0.5150745200283913,
                0.7226112901426267,
                -3.090220338805225
            ]
        },
        {
            "positions": [
                0.7028781064662704,
                -1.9073358710422716,
                2.393278308269906,
                -0.4648900659779148,
                0.6996581705285777,
                -3.1373040962116407
            ]
        }
    ]
}