{
    "goal": {
        "global_pose": {
            "orientation": {
                "w": 0.7047431468963623,
                "x": -0.7094548344612122,
                "y": 0.0024358443915843964,
                "z": -0.0022348060738295317
            },
            "position": {
                "x": 0.6094750761985779,
                "y": 0.3671506643295288,
                "z": 0.19426114857196808
            }
        },
        "name": "move_to_magneteinheit_A"
    },
    "id": "SPARS_move_to_magneteinheit_A_148",
    "joint_names": [
        "shoulder_pan_joint",
        "shoulder_lift_joint",
        "elbow_joint",
        "wrist_1_joint",
        "wrist_2_joint",
        "wrist_3_joint"
    ],
    "metrics": {
        "cart_traj_len": 2.052524683876281,
        "distance_elbow_joint": 3.8963712924893708,
        "distance_shoulder_lift_joint": 1.0657199844527356,
        "distance_shoulder_pan_joint": 1.2422379262703964,
        "distance_wrist_1_joint": 1.2192782883858126,
        "distance_wrist_2_joint": 1.434050326702399,
        "distance_wrist_3_joint": 4.303689694623532,
        "smoothness": 7.6129579073045e-16,
        "time": 5.04022988,
        "traj_len": 3.62785715167015,
        "weighted_distance": 4.941867614299227
    },
    "planner": "SPARS",
    "start": {
        "state": {
            "elbow_joint": -1.919643507792019,
            "shoulder_lift_joint": -0.07675430207160344,
            "shoulder_pan_joint": -1.1188671864651873,
            "wrist_1_joint": 0.42560062535961957,
            "wrist_2_joint": 1.5706038300724876,
            "wrist_3_joint": 1.1188968870953055
        }
    },
    "waypoints": [
        {
            "positions": [
                -1.1188671864651873,
                -0.07675430207160344,
                -1.919643507792019,
                0.42560062535961957,
                1.5706038300724876,
                1.1188968870953055
            ]
        },
        {
            "positions": [
                -1.1027784042797086,
                -0.07987353581865876,
                -1.8743697496120786,
                0.3598120914263822,
                1.4753594564543757,
                1.013147410266376
            ]
        },
        {
            "positions": [
                -1.0866896220942297,
                -0.08299276956571408,
                -1.8290959914321379,
                0.2940235574931448,
                1.380115082836264,
                0.9073979334374465
            ]
        },
        {
            "positions": [
                -1.0706008399087508,
                -0.0861120033127694,
                -1.7838222332521974,
                0.22823502355990744,
                1.2848707092181524,
                0.8016484566085169
            ]
        },
        {
            "positions": [
                -1.054512057723272,
                -0.08923123705982472,
                -1.7385484750722568,
                0.16244648962667008,
                1.1896263356000405,
                0.6958989797795874
            ]
        },
        {
            "positions": [
                -1.015249297805656,
                -0.12433933870864186,
                -1.6147059330799365,
                0.1305756845382413,
                1.1545239078590421,
                0.5665425868693269
            ]
        },
        {
            "positions": [
                -0.97598653788804,
                -0.159447440357459,
                -1.4908633910876163,
                0.09870487944981256,
                1.1194214801180438,
                0.4371861939590664
            ]
        },
        {
            "positions": [
                -0.9367237779704239,
                -0.19455554200627617,
                -1.367020849095296,
                0.06683407436138378,
                1.0843190523770454,
                0.30782980104880586
            ]
        },
        {
            "positions": [
                -0.8974610180528079,
                -0.2296636436550933,
                -1.2431783071029756,
                0.03496326927295504,
                1.0492166246360468,
                0.1784734081385454
            ]
        },
        {
            "positions": [
                -0.8581982581351919,
                -0.26477174530391046,
                -1.1193357651106555,
                0.0030924641845262724,
                1.0141141968950484,
                0.04911701522828493
            ]
        },
        {
            "positions": [
                -0.8189354982175758,
                -0.2998798469527276,
                -0.9954932231183351,
                -0.028778340903902522,
                0.9790117691540501,
                -0.08023937768197564
            ]
        },
        {
            "positions": [
                -0.7796727382999598,
                -0.3349879486015448,
                -0.8716506811260148,
                -0.06064914599233126,
                0.9439093414130517,
                -0.2095957705922361
            ]
        },
        {
            "positions": [
                -0.7404099783823437,
                -0.3700960502503619,
                -0.7478081391336945,
                -0.09251995108076,
                0.9088069136720534,
                -0.3389521635024966
            ]
        },
        {
            "positions": [
                -0.7011472184647277,
                -0.405204151899179,
                -0.6239655971413742,
                -0.12439075616918877,
                0.873704485931055,
                -0.4683085564127569
            ]
        },
        {
            "positions": [
                -0.6618844585471118,
                -0.4403122535479962,
                -0.5001230551490541,
                -0.15626156125761753,
                0.8386020581900566,
                -0.5976649493230175
            ]
        },
        {
            "positions": [
                -0.6226216986294957,
                -0.4754203551968133,
                -0.3762805131567337,
                -0.1881323663460463,
                0.8034996304490583,
                -0.7270213422332779
            ]
        },
        {
            "positions": [
                -0.5833589387118796,
                -0.5105284568456305,
                -0.25243797116441336,
                -0.22000317143447512,
                0.7683972027080597,
                -0.8563777351435387
            ]
        },
        {
            "positions": [
                -0.5440961787942635,
                -0.5456365584944476,
                -0.128595429172093,
                -0.25187397652290383,
                0.7332947749670613,
                -0.985734128053799
            ]
        },
        {
            "positions": [
                -0.5048334188766476,
                -0.5807446601432649,
                -0.004752887179772847,
                -0.2837447816113326,
                0.6981923472260629,
                -1.1150905209640596
            ]
        },
        {
            "positions": [
                -0.4655706589590315,
                -0.6158527617920819,
                0.11908965481254752,
                -0.31561558669976136,
                0.6630899194850646,
                -1.24444691387432
            ]
        },
        {
            "positions": [
                -0.4263078990414154,
                -0.6509608634408991,
                0.24293219680486788,
                -0.3474863917881901,
                0.6279874917440662,
                -1.3738033067845805
            ]
        },
        {
            "positions": [
                -0.38704513912379945,
                -0.6860689650897162,
                0.36677473879718825,
                -0.37935719687661884,
                0.5928850640030678,
                -1.5031596996948409
            ]
        },
        {
            "positions": [
                -0.3477823792061834,
                -0.7211770667385333,
                0.4906172807895084,
                -0.4112280019650476,
                0.5577826362620694,
                -1.6325160926051012
            ]
        },
        {
            "positions": [
                -0.3085196192885674,
                -0.7562851683873505,
                0.6144598227818285,
                -0.4430988070534764,
                0.522680208521071,
                -1.7618724855153616
            ]
        },
        {
            "positions": [
                -0.26925685937095134,
                -0.7913932700361677,
                0.7383023647741487,
                -0.47496961214190514,
                0.48757778078007263,
                -1.8912288784256224
            ]
        },
        {
            "positions": [
                -0.22999409945333527,
                -0.8265013716849847,
                0.8621449067664693,
                -0.5068404172303339,
                0.45247535303907427,
                -2.0205852713358827
            ]
        },
        {
            "positions": [
                -0.1907313395357193,
                -0.8616094733338019,
                0.9859874487587894,
                -0.5387112223187627,
                0.4173729252980759,
                -2.149941664246143
            ]
        },
        {
            "positions": [
                -0.15146857961810312,
                -0.8967175749826192,
                1.10982999075111,
                -0.5705820274071915,
                0.3822704975570773,
                -2.279298057156404
            ]
        },
        {
            "positions": [
                -0.11220581970048715,
                -0.9318256766314363,
                1.2336725327434301,
                -0.6024528324956203,
                0.34716806981607895,
                -2.4086544500666647
            ]
        },
        {
            "positions": [
                -0.07294305978287108,
                -0.9669337782802534,
                1.3575150747357507,
                -0.634323637584049,
                0.3120656420750806,
                -2.538010842976925
            ]
        },
        {
            "positions": [
                -0.033680299865255,
                -1.0020418799290707,
                1.4813576167280709,
                -0.6661944426724777,
                0.2769632143340822,
                -2.6673672358871854
            ]
        },
        {
            "positions": [
                0.005582460052361071,
                -1.0371499815778877,
                1.605200158720391,
                -0.6980652477609065,
                0.24186078659308385,
                -2.7967236287974457
            ]
        },
        {
            "positions": [
                0.044845219969976924,
                -1.0722580832267048,
                1.7290427007127112,
                -0.7299360528493353,
                0.20675835885208538,
                -2.9260800217077065
            ]
        },
        {
            "positions": [
                0.084107979887593,
                -1.107366184875522,
                1.8528852427050317,
                -0.761806857937764,
                0.171655931111087,
                -3.055436414617967
            ]
        },
        {
            "positions": [
                0.12337073980520914,
                -1.1424742865243391,
                1.9767277846973519,
                -0.7936776630261928,
                0.13655350337008873,
                -3.1847928075282272
            ]
        }
    ]
}