{
    "goal": {
        "global_pose": {
            "orientation": {
                "w": 0.5084816217422485,
                "x": -0.49083608388900757,
                "y": 0.5182115435600281,
                "z": -0.4816462993621826
            },
            "position": {
                "x": 0.5540239810943604,
                "y": 0.030875300988554955,
                "z": 0.16403168439865112
            }
        },
        "name": "move_to_storage_A"
    },
    "id": "STRIDE_move_to_storage_A_58",
    "joint_names": [
        "shoulder_pan_joint",
        "shoulder_lift_joint",
        "elbow_joint",
        "wrist_1_joint",
        "wrist_2_joint",
        "wrist_3_joint"
    ],
    "metrics": {
        "cart_traj_len": 0.35281186191907143,
        "distance_elbow_joint": 0.4488435394245629,
        "distance_shoulder_lift_joint": 0.2336169565157835,
        "distance_shoulder_pan_joint": 0.4624637665421217,
        "distance_wrist_1_joint": 0.2382570934513205,
        "distance_wrist_2_joint": 1.0931056403466914,
        "distance_wrist_3_joint": 0.09717628367096465,
        "smoothness": 4.440892133664971e-16,
        "time": 0.072707798,
        "traj_len": 1.6042017578694534,
        "weighted_distance": 2.0246428280295232
    },
    "planner": "STRIDE",
    "start": {
        "state": {
            "elbow_joint": 1.9715463870305268,
            "shoulder_lift_joint": -1.1394903361783484,
            "shoulder_pan_joint": 0.12281147578464417,
            "wrist_1_joint": -0.7804599489681411,
            "wrist_2_joint": 0.12958660307563738,
            "wrist_3_joint": -3.1924946282119055
        }
    },
    "waypoints": [
        {
            "positions": [
                0.12281147578464417,
                -1.1394903361783484,
                1.9715463870305268,
                -0.7804599489681411,
                0.12958660307563738,
                -3.1924946282119055
            ]
        },
        {
            "positions": [
                0.05674522342148394,
                -1.1728641871091745,
                2.0356668926626074,
                -0.814496676604044,
                0.2857445516965933,
                -3.1786123019731964
            ]
        },
        {
            "positions": [
                -0.009321028941676288,
                -1.2062380380400008,
                2.0997873982946875,
                -0.8485334042399469,
                0.4419025003175492,
                -3.164729975734487
            ]
        },
        {
            "positions": [
                -0.07538728130483653,
                -1.239611888970827,
                2.163907903926768,
                -0.8825701318758499,
                0.5980604489385051,
                -3.150847649495778
            ]
        },
        {
            "positions": [
                -0.14145353366799673,
                -1.2729857399016533,
                2.2280284095588483,
                -0.9166068595117528,
                0.7542183975594611,
                -3.1369653232570687
            ]
        },
        {
            "positions": [
                -0.207519786031157,
                -1.3063595908324794,
                2.292148915190929,
                -0.9506435871476557,
                0.9103763461804171,
                -3.1230829970183596
            ]
        },
        {
            "positions": [
                -0.2735860383943172,
                -1.3397334417633058,
                2.356269420823009,
                -0.9846803147835587,
                1.0665342948013727,
                -3.10920067077965
            ]
        },
        {
            "positions": [
                -0.3396522907574775,
                -1.373107292694132,
                2.4203899264550897,
                -1.0187170424194616,
                1.2226922434223289,
                -3.095318344540941
            ]
        }
    ]
}