{
    "goal": {
        "global_pose": {
            "orientation": {
                "w": 0.5084816217422485,
                "x": -0.49083608388900757,
                "y": 0.5182115435600281,
                "z": -0.4816462993621826
            },
            "position": {
                "x": 0.5540239810943604,
                "y": 0.030875300988554955,
                "z": 0.16403168439865112
            }
        },
        "name": "move_to_storage_A"
    },
    "id": "STRIDE_move_to_storage_A_89",
    "joint_names": [
        "shoulder_pan_joint",
        "shoulder_lift_joint",
        "elbow_joint",
        "wrist_1_joint",
        "wrist_2_joint",
        "wrist_3_joint"
    ],
    "metrics": {
        "cart_traj_len": 0.3535563937328542,
        "distance_elbow_joint": 0.4487077711577703,
        "distance_shoulder_lift_joint": 0.2342890147973833,
        "distance_shoulder_pan_joint": 0.4623359053125548,
        "distance_wrist_1_joint": 0.2379706294046512,
        "distance_wrist_2_joint": 1.0994581067818177,
        "distance_wrist_3_joint": 0.10201515545700257,
        "smoothness": 0.0,
        "time": 0.173376343,
        "traj_len": 1.6077240381704754,
        "weighted_distance": 2.0313137694634116
    },
    "planner": "STRIDE",
    "start": {
        "state": {
            "elbow_joint": 1.9715463870305268,
            "shoulder_lift_joint": -1.1394903361783484,
            "shoulder_pan_joint": 0.12281147578464417,
            "wrist_1_joint": -0.7804599489681411,
            "wrist_2_joint": 0.12958660307563738,
            "wrist_3_joint": -3.1924946282119055
        }
    },
    "waypoints": [
        {
            "positions": [
                0.12281147578464417,
                -1.1394903361783484,
                1.9715463870305268,
                -0.7804599489681411,
                0.12958660307563738,
                -3.1924946282119055
            ]
        },
        {
            "positions": [
                0.056763489311422055,
                -1.1729601954351174,
                2.0356474971959226,
                -0.8144557531688056,
                0.28665204690161133,
                -3.1779210345751907
            ]
        },
        {
            "positions": [
                -0.009284497161800062,
                -1.2064300546918865,
                2.099748607361318,
                -0.84845155736947,
                0.44371749072758526,
                -3.1633474409384763
            ]
        },
        {
            "positions": [
                -0.07533248363502217,
                -1.2398999139486555,
                2.163849717526714,
                -0.8824473615701345,
                0.6007829345535592,
                -3.1487738473017615
            ]
        },
        {
            "positions": [
                -0.14138047010824428,
                -1.2733697732054245,
                2.22795082769211,
                -0.9164431657707989,
                0.7578483783795332,
                -3.134200253665047
            ]
        },
        {
            "positions": [
                -0.2074284565814664,
                -1.3068396324621936,
                2.2920519378575057,
                -0.9504389699714634,
                0.9149138222055072,
                -3.119626660028332
            ]
        },
        {
            "positions": [
                -0.2734764430546885,
                -1.3403094917189626,
                2.356153048022901,
                -0.9844347741721278,
                1.071979266031481,
                -3.105053066391618
            ]
        },
        {
            "positions": [
                -0.3395244295279106,
                -1.3737793509757317,
                2.420254158188297,
                -1.0184305783727923,
                1.229044709857455,
                -3.090479472754903
            ]
        }
    ]
}