{
    "goal": {
        "global_pose": {
            "orientation": {
                "w": 0.7031023502349854,
                "x": -0.7110244035720825,
                "y": 0.007748599164187908,
                "z": 0.005598929710686207
            },
            "position": {
                "x": 0.11585023208521307,
                "y": 0.44412534475326537,
                "z": 0.3711530566215515
            }
        },
        "name": "move_to_auspresseinheit_A"
    },
    "id": "STRIDE_move_to_auspresseinheit_A_107",
    "joint_names": [
        "shoulder_pan_joint",
        "shoulder_lift_joint",
        "elbow_joint",
        "wrist_1_joint",
        "wrist_2_joint",
        "wrist_3_joint"
    ],
    "metrics": {
        "cart_traj_len": 0.7087897581952243,
        "distance_elbow_joint": 0.4559065777606013,
        "distance_shoulder_lift_joint": 0.7250263377641846,
        "distance_shoulder_pan_joint": 1.0463393945089805,
        "distance_wrist_1_joint": 0.5651280936926921,
        "distance_wrist_2_joint": 0.9433638149721864,
        "distance_wrist_3_joint": 0.8848758915326322,
        "smoothness": 1.024085871416317,
        "time": 1.735454496,
        "traj_len": 2.1495674239788984,
        "weighted_distance": 2.810495294776602
    },
    "planner": "STRIDE",
    "start": {
        "state": {
            "elbow_joint": 2.422574709923281,
            "shoulder_lift_joint": -1.3736533754116391,
            "shoulder_pan_joint": -0.33786336945926293,
            "wrist_1_joint": -1.0288603412921917,
            "wrist_2_joint": 1.2330224858903978,
            "wrist_3_joint": -3.094022268022082
        }
    },
    "waypoints": [
        {
            "positions": [
                -0.33786336945926293,
                -1.3736533754116391,
                2.422574709923281,
                -1.0288603412921917,
                1.2330224858903978,
                -3.094022268022082
            ]
        },
        {
            "positions": [
                -0.2613477549547312,
                -1.4436290558367548,
                2.4461890962011106,
                -0.9703535122213686,
                1.151524814013644,
                -3.046738568011828
            ]
        },
        {
            "positions": [
                -0.18483214045019955,
                -1.5136047362618708,
                2.46980348247894,
                -0.9118466831505455,
                1.07002714213689,
                -2.9994548680015747
            ]
        },
        {
            "positions": [
                -0.10831652594566787,
                -1.5835804166869865,
                2.49341786875677,
                -0.8533398540797223,
                0.9885294702601364,
                -2.9521711679913207
            ]
        },
        {
            "positions": [
                -0.03180091144113617,
                -1.6535560971121024,
                2.5170322550345996,
                -0.7948330250088993,
                0.9070317983833824,
                -2.904887467981067
            ]
        },
        {
            "positions": [
                0.04471470306339553,
                -1.723531777537218,
                2.540646641312429,
                -0.736326195938076,
                0.8255341265066287,
                -2.8576037679708133
            ]
        },
        {
            "positions": [
                0.12123031756792718,
                -1.7935074579623338,
                2.5642610275902586,
                -0.677819366867253,
                0.7440364546298749,
                -2.8103200679605593
            ]
        },
        {
            "positions": [
                0.19774593207245889,
                -1.8634831383874497,
                2.5878754138680886,
                -0.6193125377964299,
                0.6625387827531211,
                -2.7630363679503054
            ]
        },
        {
            "positions": [
                0.2742615465769906,
                -1.9334588188125656,
                2.611489800145918,
                -0.5608057087256068,
                0.5810411108763672,
                -2.715752667940052
            ]
        },
        {
            "positions": [
                0.3507771610815223,
                -2.0034344992376814,
                2.6351041864237477,
                -0.5022988796547836,
                0.49954343899961334,
                -2.668468967929798
            ]
        },
        {
            "positions": [
                0.4402018770735711,
                -1.9796231957531458,
                2.574259911108714,
                -0.4926572216409626,
                0.5520146310199638,
                -2.783299615789885
            ]
        },
        {
            "positions": [
                0.52962659306562,
                -1.9558118922686103,
                2.51341563579368,
                -0.48301556362714154,
                0.6044858230403144,
                -2.898130263649972
            ]
        },
        {
            "positions": [
                0.6190513090576688,
                -1.9320005887840745,
                2.4525713604786468,
                -0.4733739056133205,
                0.656957015060665,
                -3.012960911510059
            ]
        },
        {
            "positions": [
                0.7084760250497176,
                -1.908189285299539,
                2.391727085163613,
                -0.4637322475994995,
                0.7094282070810154,
                -3.127791559370146
            ]
        }
    ]
}