{
    "goal": {
        "global_pose": {
            "orientation": {
                "w": 0.5084816217422485,
                "x": -0.49083608388900757,
                "y": 0.5182115435600281,
                "z": -0.4816462993621826
            },
            "position": {
                "x": 0.5540239810943604,
                "y": 0.030875300988554955,
                "z": 0.16403168439865112
            }
        },
        "name": "move_to_storage_A"
    },
    "id": "STRIDE_move_to_storage_A_78",
    "joint_names": [
        "shoulder_pan_joint",
        "shoulder_lift_joint",
        "elbow_joint",
        "wrist_1_joint",
        "wrist_2_joint",
        "wrist_3_joint"
    ],
    "metrics": {
        "cart_traj_len": 0.35267735814370377,
        "distance_elbow_joint": 0.4515593155584394,
        "distance_shoulder_lift_joint": 0.23476841281972716,
        "distance_shoulder_pan_joint": 0.4620976871064107,
        "distance_wrist_1_joint": 0.2530529496872228,
        "distance_wrist_2_joint": 1.094008537788431,
        "distance_wrist_3_joint": 0.10513442387504401,
        "smoothness": 4.440892133664971e-16,
        "time": 0.022602513999999997,
        "traj_len": 1.6126442034234565,
        "weighted_distance": 2.039105603459766
    },
    "planner": "STRIDE",
    "start": {
        "state": {
            "elbow_joint": 1.9715463870305268,
            "shoulder_lift_joint": -1.1394903361783484,
            "shoulder_pan_joint": 0.12281147578464417,
            "wrist_1_joint": -0.7804599489681411,
            "wrist_2_joint": 0.12958660307563738,
            "wrist_3_joint": -3.1924946282119055
        }
    },
    "waypoints": [
        {
            "positions": [
                0.12281147578464417,
                -1.1394903361783484,
                1.9715463870305268,
                -0.7804599489681411,
                0.12958660307563738,
                -3.1924946282119055
            ]
        },
        {
            "positions": [
                0.05679752048372837,
                -1.1730286808668808,
                2.0360548606817326,
                -0.8166103703520301,
                0.28587353704541324,
                -3.177475424801185
            ]
        },
        {
            "positions": [
                -0.009216434817187438,
                -1.2065670255554133,
                2.100563334332938,
                -0.852760791735919,
                0.44216047101518907,
                -3.1624562213904643
            ]
        },
        {
            "positions": [
                -0.07523039011810324,
                -1.2401053702439457,
                2.165071807984144,
                -0.888911213119808,
                0.598447404984965,
                -3.147437017979744
            ]
        },
        {
            "positions": [
                -0.14124434541901904,
                -1.2736437149324782,
                2.229580281635349,
                -0.9250616345036969,
                0.7547343389547408,
                -3.132417814569023
            ]
        },
        {
            "positions": [
                -0.2072583007199349,
                -1.3071820596210106,
                2.294088755286555,
                -0.961212055887586,
                0.9110212729245167,
                -3.1173986111583027
            ]
        },
        {
            "positions": [
                -0.27327225602085065,
                -1.340720404309543,
                2.3585972289377604,
                -0.9973624772714749,
                1.0673082068942925,
                -3.102379407747582
            ]
        },
        {
            "positions": [
                -0.3392862113217665,
                -1.3742587489980755,
                2.423105702588966,
                -1.0335128986553639,
                1.2235951408640684,
                -3.0873602043368615
            ]
        }
    ]
}