{
    "goal": {
        "global_pose": {
            "orientation": {
                "w": 0.5084816217422485,
                "x": -0.49083608388900757,
                "y": 0.5182115435600281,
                "z": -0.4816462993621826
            },
            "position": {
                "x": 0.5540239810943604,
                "y": 0.030875300988554955,
                "z": 0.16403168439865112
            }
        },
        "name": "move_to_storage_A"
    },
    "id": "STRIDE_move_to_storage_A_74",
    "joint_names": [
        "shoulder_pan_joint",
        "shoulder_lift_joint",
        "elbow_joint",
        "wrist_1_joint",
        "wrist_2_joint",
        "wrist_3_joint"
    ],
    "metrics": {
        "cart_traj_len": 0.35332420519981667,
        "distance_elbow_joint": 0.44829005334730887,
        "distance_shoulder_lift_joint": 0.23569019334137908,
        "distance_shoulder_pan_joint": 0.4640303222495333,
        "distance_wrist_1_joint": 0.2375787623403337,
        "distance_wrist_2_joint": 1.090661151471159,
        "distance_wrist_3_joint": 0.08646251016891204,
        "smoothness": 6.661338165333112e-16,
        "time": 0.061147258999999995,
        "traj_len": 1.6008475857865503,
        "weighted_distance": 2.0159062297309225
    },
    "planner": "STRIDE",
    "start": {
        "state": {
            "elbow_joint": 1.9715463870305268,
            "shoulder_lift_joint": -1.1394903361783484,
            "shoulder_pan_joint": 0.12281147578464417,
            "wrist_1_joint": -0.7804599489681411,
            "wrist_2_joint": 0.12958660307563738,
            "wrist_3_joint": -3.1924946282119055
        }
    },
    "waypoints": [
        {
            "positions": [
                0.12281147578464417,
                -1.1394903361783484,
                1.9715463870305268,
                -0.7804599489681411,
                0.12958660307563738,
                -3.1924946282119055
            ]
        },
        {
            "positions": [
                0.05652142974899657,
                -1.1731603637985455,
                2.0355878232229996,
                -0.8143997721596173,
                0.2853953390000887,
                -3.180142841044918
            ]
        },
        {
            "positions": [
                -0.00976861628665103,
                -1.2068303914187424,
                2.099629259415472,
                -0.8483395953510936,
                0.44120407492453995,
                -3.167791053877931
            ]
        },
        {
            "positions": [
                -0.07605866232229865,
                -1.2405004190389395,
                2.163670695607945,
                -0.8822794185425697,
                0.5970128108489913,
                -3.1554392667109434
            ]
        },
        {
            "positions": [
                -0.14234870835794622,
                -1.2741704466591364,
                2.2277121318004176,
                -0.916219241734046,
                0.7528215467734426,
                -3.1430874795439556
            ]
        },
        {
            "positions": [
                -0.20863875439359386,
                -1.3078404742793335,
                2.2917535679928904,
                -0.9501590649255223,
                0.9086302826978939,
                -3.1307356923769682
            ]
        },
        {
            "positions": [
                -0.27492880042924145,
                -1.3415105018995304,
                2.355795004185363,
                -0.9840988881169985,
                1.0644390186223451,
                -3.118383905209981
            ]
        },
        {
            "positions": [
                -0.3412188464648891,
                -1.3751805295197275,
                2.4198364403778356,
                -1.0180387113084748,
                1.2202477545467965,
                -3.1060321180429935
            ]
        }
    ]
}