{
    "goal": {
        "global_pose": {
            "orientation": {
                "w": 0.7047431468963623,
                "x": -0.7094548344612122,
                "y": 0.0024358443915843964,
                "z": -0.0022348060738295317
            },
            "position": {
                "x": 0.6094750761985779,
                "y": 0.3671506643295288,
                "z": 0.19426114857196808
            }
        },
        "name": "move_to_magneteinheit_A"
    },
    "id": "STRIDE_move_to_magneteinheit_A_62",
    "joint_names": [
        "shoulder_pan_joint",
        "shoulder_lift_joint",
        "elbow_joint",
        "wrist_1_joint",
        "wrist_2_joint",
        "wrist_3_joint"
    ],
    "metrics": {
        "cart_traj_len": 2.047369963088218,
        "distance_elbow_joint": 3.8830126501551767,
        "distance_shoulder_lift_joint": 1.1012553760097403,
        "distance_shoulder_pan_joint": 1.2412402600847097,
        "distance_wrist_1_joint": 1.1771304274993821,
        "distance_wrist_2_joint": 1.445596660700811,
        "distance_wrist_3_joint": 4.330447330547205,
        "smoothness": 0.0759589974792181,
        "time": 0.408524,
        "traj_len": 3.6302455433478635,
        "weighted_distance": 4.945938177362473
    },
    "planner": "STRIDE",
    "start": {
        "state": {
            "elbow_joint": -1.919643507792019,
            "shoulder_lift_joint": -0.07675430207160344,
            "shoulder_pan_joint": -1.1188671864651873,
            "wrist_1_joint": 0.42560062535961957,
            "wrist_2_joint": 1.5706038300724876,
            "wrist_3_joint": 1.1188968870953055
        }
    },
    "waypoints": [
        {
            "positions": [
                -1.1188671864651873,
                -0.07675430207160344,
                -1.919643507792019,
                0.42560062535961957,
                1.5706038300724876,
                1.1188968870953055
            ]
        },
        {
            "positions": [
                -1.0821519009476952,
                -0.1094717624352449,
                -1.8031493769933875,
                0.39085356260691007,
                1.5268016757664284,
                0.9900607690320636
            ]
        },
        {
            "positions": [
                -1.045436615430203,
                -0.14218922279888635,
                -1.6866552461947557,
                0.35610649985420056,
                1.4829995214603693,
                0.8612246509688217
            ]
        },
        {
            "positions": [
                -1.008721329912711,
                -0.17490668316252783,
                -1.5701611153961241,
                0.32135943710149106,
                1.4391973671543101,
                0.7323885329055799
            ]
        },
        {
            "positions": [
                -0.9720060443952186,
                -0.20762414352616929,
                -1.4536669845974923,
                0.28661237434878156,
                1.3953952128482507,
                0.603552414842338
            ]
        },
        {
            "positions": [
                -0.9352907588777264,
                -0.24034160388981077,
                -1.3371728537988607,
                0.25186531159607206,
                1.3515930585421916,
                0.4747162967790962
            ]
        },
        {
            "positions": [
                -0.8985754733602342,
                -0.2730590642534522,
                -1.220678723000229,
                0.21711824884336253,
                1.3077909042361324,
                0.3458801787158543
            ]
        },
        {
            "positions": [
                -0.8618601878427421,
                -0.3057765246170937,
                -1.1041845922015974,
                0.18237118609065303,
                1.2639887499300733,
                0.2170440606526124
            ]
        },
        {
            "positions": [
                -0.82514490232525,
                -0.33849398498073513,
                -0.9876904614029657,
                0.14762412333794356,
                1.220186595624014,
                0.08820794258937048
            ]
        },
        {
            "positions": [
                -0.7884296168077578,
                -0.3712114453443766,
                -0.8711963306043342,
                0.11287706058523406,
                1.176384441317955,
                -0.04062817547387132
            ]
        },
        {
            "positions": [
                -0.7517143312902655,
                -0.4039289057080181,
                -0.7547021998057024,
                0.07812999783252456,
                1.1325822870118958,
                -0.16946429353711312
            ]
        },
        {
            "positions": [
                -0.7149990457727734,
                -0.4366463660716595,
                -0.6382080690070708,
                0.043382935079815055,
                1.0887801327058366,
                -0.2983004116003549
            ]
        },
        {
            "positions": [
                -0.6782837602552811,
                -0.469363826435301,
                -0.521713938208439,
                0.008635872327105498,
                1.0449779783997775,
                -0.42713652966359694
            ]
        },
        {
            "positions": [
                -0.641568474737789,
                -0.5020812867989424,
                -0.40521980740980745,
                -0.026111190425603947,
                1.001175824093718,
                -0.5559726477268387
            ]
        },
        {
            "positions": [
                -0.6048531892202968,
                -0.5347987471625839,
                -0.28872567661117565,
                -0.060858253178313504,
                0.9573736697876589,
                -0.6848087657900808
            ]
        },
        {
            "positions": [
                -0.5681379037028047,
                -0.5675162075262254,
                -0.17223154581254407,
                -0.095605315931023,
                0.9135715154815999,
                -0.8136448838533226
            ]
        },
        {
            "positions": [
                -0.5314226181853124,
                -0.6002336678898668,
                -0.05573741501391227,
                -0.13035237868373245,
                0.8697693611755406,
                -0.9424810019165646
            ]
        },
        {
            "positions": [
                -0.4947073326678203,
                -0.6329511282535083,
                0.060756715784719084,
                -0.165099441436442,
                0.8259672068694814,
                -1.0713171199798062
            ]
        },
        {
            "positions": [
                -0.45799204715032815,
                -0.6656685886171498,
                0.17725084658335066,
                -0.19984650418915145,
                0.7821650525634223,
                -1.2001532380430482
            ]
        },
        {
            "positions": [
                -0.4212767616328359,
                -0.6983860489807914,
                0.2937449773819829,
                -0.234593566941861,
                0.738362898257363,
                -1.3289893561062902
            ]
        },
        {
            "positions": [
                -0.38456147611534375,
                -0.7311035093444327,
                0.41023910818061426,
                -0.26934062969457045,
                0.6945607439513038,
                -1.4578254741695318
            ]
        },
        {
            "positions": [
                -0.3478461905978516,
                -0.7638209697080742,
                0.5267332389792461,
                -0.30408769244728,
                0.6507585896452447,
                -1.5866615922327738
            ]
        },
        {
            "positions": [
                -0.31113090508035945,
                -0.7965384300717155,
                0.6432273697778774,
                -0.33883475519998946,
                0.6069564353391855,
                -1.7154977102960154
            ]
        },
        {
            "positions": [
                -0.2744156195628672,
                -0.8292558904353571,
                0.7597215005765092,
                -0.373581817952699,
                0.5631542810331263,
                -1.8443338283592579
            ]
        },
        {
            "positions": [
                -0.23770033404537505,
                -0.8619733507989986,
                0.876215631375141,
                -0.40832888070540857,
                0.5193521267270671,
                -1.9731699464224994
            ]
        },
        {
            "positions": [
                -0.2009850485278828,
                -0.8946908111626399,
                0.9927097621737724,
                -0.443075943458118,
                0.47554997242100794,
                -2.1020060644857415
            ]
        },
        {
            "positions": [
                -0.16426976301039065,
                -0.9274082715262815,
                1.1092038929724042,
                -0.47782300621082746,
                0.4317478181149488,
                -2.230842182548983
            ]
        },
        {
            "positions": [
                -0.1275544774928984,
                -0.960125731889923,
                1.225698023771036,
                -0.5125700689635371,
                0.3879456638088894,
                -2.359678300612225
            ]
        },
        {
            "positions": [
                -0.09083919197540635,
                -0.9928431922535645,
                1.3421921545696678,
                -0.5473171317162466,
                0.34414350950283024,
                -2.488514418675467
            ]
        },
        {
            "positions": [
                -0.054123906457914206,
                -1.0255606526172059,
                1.4586862853682991,
                -0.582064194468956,
                0.3003413551967713,
                -2.6173505367387087
            ]
        },
        {
            "positions": [
                -0.01740862094042206,
                -1.0582781129808474,
                1.575180416166931,
                -0.6168112572216655,
                0.25653920089071214,
                -2.7461866548019507
            ]
        },
        {
            "positions": [
                0.01930666457707031,
                -1.090995573344489,
                1.6916745469655627,
                -0.6515583199743751,
                0.21273704658465276,
                -2.8750227728651927
            ]
        },
        {
            "positions": [
                0.056021950094562456,
                -1.1237130337081302,
                1.8081686777641945,
                -0.6863053827270844,
                0.1689348922785936,
                -3.0038588909284347
            ]
        },
        {
            "positions": [
                0.09273723561205463,
                -1.1564304940717718,
                1.9246628085628261,
                -0.7210524454797941,
                0.1251327379725345,
                -3.1326950089916767
            ]
        },
        {
            "positions": [
                0.12237307361952231,
                -1.1348513100621997,
                1.9633691423631576,
                -0.7515298021397627,
                0.12500716937167664,
                -3.2115504434519
            ]
        }
    ]
}