{
    "goal": {
        "global_pose": {
            "orientation": {
                "w": 0.7047431468963623,
                "x": -0.7094548344612122,
                "y": 0.0024358443915843964,
                "z": -0.0022348060738295317
            },
            "position": {
                "x": 0.6094750761985779,
                "y": 0.3671506643295288,
                "z": 0.19426114857196808
            }
        },
        "name": "move_to_magneteinheit_A"
    },
    "id": "STRIDE_move_to_magneteinheit_A_48",
    "joint_names": [
        "shoulder_pan_joint",
        "shoulder_lift_joint",
        "elbow_joint",
        "wrist_1_joint",
        "wrist_2_joint",
        "wrist_3_joint"
    ],
    "metrics": {
        "cart_traj_len": 1.8703905015337514,
        "distance_elbow_joint": 3.929421154762691,
        "distance_shoulder_lift_joint": 0.7078466249526045,
        "distance_shoulder_pan_joint": 1.241505673785131,
        "distance_wrist_1_joint": 1.5545212963048674,
        "distance_wrist_2_joint": 1.7056710257744856,
        "distance_wrist_3_joint": 1.1856702714409402,
        "smoothness": 0.0,
        "time": 0.030714804000000002,
        "traj_len": 3.213197169023513,
        "weighted_distance": 3.994517356575378
    },
    "planner": "STRIDE",
    "start": {
        "state": {
            "elbow_joint": -1.919643507792019,
            "shoulder_lift_joint": -0.07675430207160344,
            "shoulder_pan_joint": -1.1188671864651873,
            "wrist_1_joint": 0.42560062535961957,
            "wrist_2_joint": 1.5706038300724876,
            "wrist_3_joint": 1.1188968870953055
        }
    },
    "waypoints": [
        {
            "positions": [
                -1.1188671864651873,
                -0.07675430207160344,
                -1.919643507792019,
                0.42560062535961957,
                1.5706038300724876,
                1.1188968870953055
            ]
        },
        {
            "positions": [
                -1.0728854948435158,
                -0.10297084373651472,
                -1.7741093909489565,
                0.48317548818572575,
                1.507430829117877,
                1.0749831733382338
            ]
        },
        {
            "positions": [
                -1.0269038032218443,
                -0.129187385401426,
                -1.6285752741058939,
                0.540750351011832,
                1.4442578281632665,
                1.0310694595811618
            ]
        },
        {
            "positions": [
                -0.9809221116001727,
                -0.15540392706633727,
                -1.4830411572628313,
                0.5983252138379381,
                1.3810848272086558,
                0.98715574582409
            ]
        },
        {
            "positions": [
                -0.9349404199785013,
                -0.18162046873124854,
                -1.3375070404197684,
                0.6559000766640444,
                1.3179118262540452,
                0.9432420320670181
            ]
        },
        {
            "positions": [
                -0.8889587283568298,
                -0.20783701039615982,
                -1.191972923576706,
                0.7134749394901505,
                1.2547388252994347,
                0.8993283183099463
            ]
        },
        {
            "positions": [
                -0.8429770367351582,
                -0.23405355206107112,
                -1.0464388067336432,
                0.7710498023162567,
                1.1915658243448242,
                0.8554146045528744
            ]
        },
        {
            "positions": [
                -0.7969953451134867,
                -0.2602700937259824,
                -0.9009046898905806,
                0.828624665142363,
                1.1283928233902136,
                0.8115008907958026
            ]
        },
        {
            "positions": [
                -0.7510136534918153,
                -0.2864866353908937,
                -0.755370573047518,
                0.8861995279684691,
                1.065219822435603,
                0.7675871770387307
            ]
        },
        {
            "positions": [
                -0.7050319618701437,
                -0.31270317705580497,
                -0.6098364562044554,
                0.9437743907945753,
                1.0020468214809926,
                0.7236734632816588
            ]
        },
        {
            "positions": [
                -0.6590502702484722,
                -0.3389197187207162,
                -0.46430233936139276,
                1.0013492536206816,
                0.9388738205263819,
                0.6797597495245871
            ]
        },
        {
            "positions": [
                -0.6130685786268006,
                -0.3651362603856275,
                -0.31876822251833015,
                1.0589241164467877,
                0.8757008195717713,
                0.6358460357675151
            ]
        },
        {
            "positions": [
                -0.5670868870051291,
                -0.3913528020505388,
                -0.17323410567526754,
                1.1164989792728939,
                0.8125278186171607,
                0.5919323220104433
            ]
        },
        {
            "positions": [
                -0.5211051953834576,
                -0.41756934371545007,
                -0.027699988832204925,
                1.174073842099,
                0.7493548176625502,
                0.5480186082533715
            ]
        },
        {
            "positions": [
                -0.475123503761786,
                -0.44378588538036134,
                0.11783412801085791,
                1.2316487049251064,
                0.6861818167079395,
                0.5041048944962996
            ]
        },
        {
            "positions": [
                -0.4291418121401145,
                -0.4700024270452726,
                0.26336824485392074,
                1.2892235677512125,
                0.6230088157533289,
                0.4601911807392276
            ]
        },
        {
            "positions": [
                -0.38316012051844306,
                -0.4962189687101839,
                0.40890236169698313,
                1.3467984305773186,
                0.5598358147987184,
                0.41627746698215584
            ]
        },
        {
            "positions": [
                -0.3371784288967714,
                -0.5224355103750953,
                0.554436478540046,
                1.404373293403425,
                0.4966628138441078,
                0.37236375322508397
            ]
        },
        {
            "positions": [
                -0.2911967372751,
                -0.5486520520400064,
                0.6999705953831084,
                1.4619481562295311,
                0.4334898128894973,
                0.3284500394680121
            ]
        },
        {
            "positions": [
                -0.24521504565342844,
                -0.5748685937049178,
                0.8455047122261712,
                1.5195230190556375,
                0.3703168119348865,
                0.28453632571094023
            ]
        },
        {
            "positions": [
                -0.1992333540317569,
                -0.601085135369829,
                0.9910388290692336,
                1.5770978818817436,
                0.3071438109802762,
                0.24062261195386847
            ]
        },
        {
            "positions": [
                -0.15325166241008537,
                -0.6273016770347404,
                1.1365729459122964,
                1.6346727447078497,
                0.24397081002566545,
                0.1967088981967965
            ]
        },
        {
            "positions": [
                -0.10726997078841394,
                -0.6535182186996515,
                1.2821070627553588,
                1.6922476075339559,
                0.18079780907105492,
                0.15279518443972473
            ]
        },
        {
            "positions": [
                -0.0612882791667424,
                -0.6797347603645629,
                1.4276411795984216,
                1.7498224703600622,
                0.11762480811644438,
                0.10888147068265286
            ]
        },
        {
            "positions": [
                -0.01530658754507086,
                -0.7059513020294741,
                1.573175296441484,
                1.8073973331861684,
                0.05445180716183384,
                0.0649677569255811
            ]
        },
        {
            "positions": [
                0.03067510407660068,
                -0.7321678436943855,
                1.7187094132845468,
                1.8649721960122745,
                -0.008721193792776916,
                0.021054043168509118
            ]
        },
        {
            "positions": [
                0.07665679569827222,
                -0.7583843853592966,
                1.8642435301276092,
                1.9225470588383806,
                -0.07189419474738723,
                -0.02285967058856264
            ]
        },
        {
            "positions": [
                0.12263848731994381,
                -0.784600927024208,
                2.009777646970672,
                1.980121921664487,
                -0.13506719570199807,
                -0.06677338434563472
            ]
        }
    ]
}