{
    "goal": {
        "global_pose": {
            "orientation": {
                "w": 0.7047431468963623,
                "x": -0.7094548344612122,
                "y": 0.0024358443915843964,
                "z": -0.0022348060738295317
            },
            "position": {
                "x": 0.6094750761985779,
                "y": 0.3671506643295288,
                "z": 0.19426114857196808
            }
        },
        "name": "move_to_magneteinheit_A"
    },
    "id": "STRIDE_move_to_magneteinheit_A_68",
    "joint_names": [
        "shoulder_pan_joint",
        "shoulder_lift_joint",
        "elbow_joint",
        "wrist_1_joint",
        "wrist_2_joint",
        "wrist_3_joint"
    ],
    "metrics": {
        "cart_traj_len": 2.420224932650278,
        "distance_elbow_joint": 3.9089433409587944,
        "distance_shoulder_lift_joint": 1.0731647857670525,
        "distance_shoulder_pan_joint": 1.241787435851836,
        "distance_wrist_1_joint": 1.490810263112942,
        "distance_wrist_2_joint": 1.4330290858294015,
        "distance_wrist_3_joint": 4.247818535692813,
        "smoothness": 0.022237684034615943,
        "time": 0.23369902199999998,
        "traj_len": 3.6599936403240974,
        "weighted_distance": 4.981468645644656
    },
    "planner": "STRIDE",
    "start": {
        "state": {
            "elbow_joint": -1.919643507792019,
            "shoulder_lift_joint": -0.07675430207160344,
            "shoulder_pan_joint": -1.1188671864651873,
            "wrist_1_joint": 0.42560062535961957,
            "wrist_2_joint": 1.5706038300724876,
            "wrist_3_joint": 1.1188968870953055
        }
    },
    "waypoints": [
        {
            "positions": [
                -1.1188671864651873,
                -0.07675430207160344,
                -1.919643507792019,
                0.42560062535961957,
                1.5706038300724876,
                1.1188968870953055
            ]
        },
        {
            "positions": [
                -1.092131630693235,
                -0.11804149461346386,
                -1.8553154366919329,
                0.36786341870117273,
                1.5301400944870762,
                0.9681734101525592
            ]
        },
        {
            "positions": [
                -1.0653960749212823,
                -0.15932868715532428,
                -1.7909873655918467,
                0.3101262120427259,
                1.4896763589016646,
                0.817449933209813
            ]
        },
        {
            "positions": [
                -1.0386605191493299,
                -0.2006158796971847,
                -1.7266592944917605,
                0.252389005384279,
                1.4492126233162532,
                0.6667264562670666
            ]
        },
        {
            "positions": [
                -1.0119249633773773,
                -0.2419030722390451,
                -1.6623312233916743,
                0.1946517987258322,
                1.4087488877308418,
                0.5160029793243204
            ]
        },
        {
            "positions": [
                -0.9851894076054247,
                -0.28319026478090553,
                -1.598003152291588,
                0.13691459206738532,
                1.3682851521454304,
                0.3652795023815739
            ]
        },
        {
            "positions": [
                -0.9584538518334722,
                -0.32447745732276595,
                -1.5336750811915019,
                0.07917738540893848,
                1.327821416560019,
                0.21455602543882768
            ]
        },
        {
            "positions": [
                -0.9317182960615198,
                -0.36576464986462637,
                -1.4693470100914157,
                0.02144017875049159,
                1.2873576809746075,
                0.06383254849608133
            ]
        },
        {
            "positions": [
                -0.9049827402895673,
                -0.4070518424064868,
                -1.4050189389913295,
                -0.03629702790795519,
                1.246893945389196,
                -0.0868909284466648
            ]
        },
        {
            "positions": [
                -0.8782471845176147,
                -0.4483390349483472,
                -1.3406908678912433,
                -0.09403423456640209,
                1.2064302098037847,
                -0.23761440538941114
            ]
        },
        {
            "positions": [
                -0.8515116287456621,
                -0.4896262274902076,
                -1.276362796791157,
                -0.15177144122484892,
                1.165966474218373,
                -0.3883378823321577
            ]
        },
        {
            "positions": [
                -0.8247760729737097,
                -0.530913420032068,
                -1.2120347256910708,
                -0.20950864788329576,
                1.1255027386329617,
                -0.5390613592749038
            ]
        },
        {
            "positions": [
                -0.7980405172017572,
                -0.5722006125739285,
                -1.1477066545909846,
                -0.2672458545417426,
                1.0850390030475503,
                -0.6897848362176502
            ]
        },
        {
            "positions": [
                -0.7713049614298046,
                -0.6134878051157888,
                -1.0833785834908984,
                -0.32498306120018944,
                1.044575267462139,
                -0.8405083131603963
            ]
        },
        {
            "positions": [
                -0.7445694056578521,
                -0.6547749976576493,
                -1.019050512390812,
                -0.3827202678586364,
                1.0041115318767275,
                -0.9912317901031429
            ]
        },
        {
            "positions": [
                -0.7178338498858996,
                -0.6960621901995097,
                -0.954722441290726,
                -0.4404574745170831,
                0.9636477962913159,
                -1.1419552670458892
            ]
        },
        {
            "positions": [
                -0.6910982941139472,
                -0.7373493827413702,
                -0.8903943701906398,
                -0.49819468117552995,
                0.9231840607059045,
                -1.2926787439886351
            ]
        },
        {
            "positions": [
                -0.6643627383419946,
                -0.7786365752832305,
                -0.8260662990905536,
                -0.555931887833977,
                0.882720325120493,
                -1.443402220931382
            ]
        },
        {
            "positions": [
                -0.6376271825700421,
                -0.819923767825091,
                -0.7617382279904674,
                -0.6136690944924237,
                0.8422565895350816,
                -1.5941256978741278
            ]
        },
        {
            "positions": [
                -0.6108916267980896,
                -0.8612109603669513,
                -0.6974101568903812,
                -0.6714063011508704,
                0.8017928539496703,
                -1.7448491748168742
            ]
        },
        {
            "positions": [
                -0.584156071026137,
                -0.9024981529088119,
                -0.633082085790295,
                -0.7291435078093174,
                0.7613291183642588,
                -1.895572651759621
            ]
        },
        {
            "positions": [
                -0.5574205152541846,
                -0.9437853454506722,
                -0.5687540146902088,
                -0.7868807144677641,
                0.7208653827788474,
                -2.046296128702367
            ]
        },
        {
            "positions": [
                -0.530684959482232,
                -0.9850725379925327,
                -0.5044259435901226,
                -0.844617921126211,
                0.6804016471934359,
                -2.1970196056451132
            ]
        },
        {
            "positions": [
                -0.5039494037102795,
                -1.026359730534393,
                -0.4400978724900364,
                -0.902355127784658,
                0.6399379116080244,
                -2.3477430825878596
            ]
        },
        {
            "positions": [
                -0.47721384793832705,
                -1.0676469230762535,
                -0.3757698013899502,
                -0.9600923344431047,
                0.599474176022613,
                -2.498466559530606
            ]
        },
        {
            "positions": [
                -0.42265620272696564,
                -1.0751262107819264,
                -0.16076347097570234,
                -0.9505362159603576,
                0.5574833185881106,
                -2.555780658536688
            ]
        },
        {
            "positions": [
                -0.36809855751560416,
                -1.0826054984875995,
                0.05424285943854551,
                -0.9409800974776106,
                0.5154924611536081,
                -2.61309475754277
            ]
        },
        {
            "positions": [
                -0.31354091230424275,
                -1.0900847861932723,
                0.26924918985279334,
                -0.9314239789948635,
                0.47350160371910577,
                -2.670408856548852
            ]
        },
        {
            "positions": [
                -0.25898326709288133,
                -1.0975640738989454,
                0.4842555202670412,
                -0.9218678605121164,
                0.4315107462846033,
                -2.727722955554934
            ]
        },
        {
            "positions": [
                -0.20442562188151991,
                -1.1050433616046182,
                0.6992618506812891,
                -0.9123117420293694,
                0.3895198888501009,
                -2.7850370545610157
            ]
        },
        {
            "positions": [
                -0.1498679766701585,
                -1.1125226493102913,
                0.9142681810955369,
                -0.9027556235466223,
                0.3475290314155985,
                -2.842351153567098
            ]
        },
        {
            "positions": [
                -0.09531033145879708,
                -1.1200019370159642,
                1.1292745115097846,
                -0.8931995050638752,
                0.30553817398109606,
                -2.89966525257318
            ]
        },
        {
            "positions": [
                -0.04075268624743561,
                -1.1274812247216373,
                1.3442808419240326,
                -0.8836433865811282,
                0.26354731654659364,
                -2.9569793515792617
            ]
        },
        {
            "positions": [
                0.013804958963925806,
                -1.13496051242731,
                1.5592871723382806,
                -0.8740872680983811,
                0.22155645911209115,
                -3.0142934505853436
            ]
        },
        {
            "positions": [
                0.06836260417528722,
                -1.1424398001329832,
                1.7742935027525284,
                -0.864531149615634,
                0.17956560167758878,
                -3.071607549591426
            ]
        },
        {
            "positions": [
                0.12292024938664863,
                -1.149919087838656,
                1.9892998331667764,
                -0.854975031132887,
                0.13757474424308636,
                -3.1289216485975078
            ]
        }
    ]
}