{
    "goal": {
        "global_pose": {
            "orientation": {
                "w": 0.7047431468963623,
                "x": -0.7094548344612122,
                "y": 0.0024358443915843964,
                "z": -0.0022348060738295317
            },
            "position": {
                "x": 0.6094750761985779,
                "y": 0.3671506643295288,
                "z": 0.19426114857196808
            }
        },
        "name": "move_to_magneteinheit_A"
    },
    "id": "STRIDE_move_to_magneteinheit_A_139",
    "joint_names": [
        "shoulder_pan_joint",
        "shoulder_lift_joint",
        "elbow_joint",
        "wrist_1_joint",
        "wrist_2_joint",
        "wrist_3_joint"
    ],
    "metrics": {
        "cart_traj_len": 1.87859805978188,
        "distance_elbow_joint": 3.913955248928497,
        "distance_shoulder_lift_joint": 0.7001437947255037,
        "distance_shoulder_pan_joint": 1.2407420774172395,
        "distance_wrist_1_joint": 1.5003018393278431,
        "distance_wrist_2_joint": 1.6917968554880682,
        "distance_wrist_3_joint": 1.1140612596611326,
        "smoothness": 5.263279547268118e-16,
        "time": 0.056538906,
        "traj_len": 3.1876325188999246,
        "weighted_distance": 3.9473057000549705
    },
    "planner": "STRIDE",
    "start": {
        "state": {
            "elbow_joint": -1.919643507792019,
            "shoulder_lift_joint": -0.07675430207160344,
            "shoulder_pan_joint": -1.1188671864651873,
            "wrist_1_joint": 0.42560062535961957,
            "wrist_2_joint": 1.5706038300724876,
            "wrist_3_joint": 1.1188968870953055
        }
    },
    "waypoints": [
        {
            "positions": [
                -1.1188671864651873,
                -0.07675430207160344,
                -1.919643507792019,
                0.42560062535961957,
                1.5706038300724876,
                1.1188968870953055
            ]
        },
        {
            "positions": [
                -1.071146337333755,
                -0.1036829095610459,
                -1.7691067674486154,
                0.4833045422568443,
                1.5055347202460234,
                1.076048377108339
            ]
        },
        {
            "positions": [
                -1.0234254882023228,
                -0.13061151705048835,
                -1.6185700271052115,
                0.541008459154069,
                1.4404656104195592,
                1.0331998671213722
            ]
        },
        {
            "positions": [
                -0.9757046390708904,
                -0.15754012453993083,
                -1.4680332867618078,
                0.5987123760512938,
                1.375396500593095,
                0.9903513571344056
            ]
        },
        {
            "positions": [
                -0.9279837899394582,
                -0.18446873202937325,
                -1.317496546418404,
                0.6564162929485186,
                1.310327390766631,
                0.9475028471474389
            ]
        },
        {
            "positions": [
                -0.8802629408080259,
                -0.21139733951881573,
                -1.1669598060750004,
                0.7141202098457433,
                1.2452582809401669,
                0.9046543371604724
            ]
        },
        {
            "positions": [
                -0.8325420916765935,
                -0.23832594700825818,
                -1.0164230657315967,
                0.771824126742968,
                1.1801891711137027,
                0.8618058271735057
            ]
        },
        {
            "positions": [
                -0.7848212425451613,
                -0.26525455449770063,
                -0.865886325388193,
                0.8295280436401926,
                1.1151200612872385,
                0.8189573171865391
            ]
        },
        {
            "positions": [
                -0.737100393413729,
                -0.2921831619871431,
                -0.7153495850447891,
                0.8872319605374175,
                1.0500509514607743,
                0.7761088071995724
            ]
        },
        {
            "positions": [
                -0.6893795442822968,
                -0.3191117694765855,
                -0.5648128447013856,
                0.9449358774346421,
                0.9849818416343101,
                0.7332602972126059
            ]
        },
        {
            "positions": [
                -0.6416586951508645,
                -0.346040376966028,
                -0.4142761043579817,
                1.002639794331867,
                0.9199127318078459,
                0.6904117872256392
            ]
        },
        {
            "positions": [
                -0.5939378460194322,
                -0.37296898445547044,
                -0.263739364014578,
                1.0603437112290917,
                0.8548436219813819,
                0.6475632772386726
            ]
        },
        {
            "positions": [
                -0.5462169968879999,
                -0.3998975919449129,
                -0.11320262367117429,
                1.1180476281263165,
                0.7897745121549176,
                0.6047147672517059
            ]
        },
        {
            "positions": [
                -0.4984961477565676,
                -0.42682619943435535,
                0.03733411667222941,
                1.1757515450235412,
                0.7247054023284535,
                0.5618662572647393
            ]
        },
        {
            "positions": [
                -0.4507752986251353,
                -0.45375480692379777,
                0.1878708570156331,
                1.2334554619207658,
                0.6596362925019894,
                0.5190177472777726
            ]
        },
        {
            "positions": [
                -0.40305444949370306,
                -0.4806834144132402,
                0.3384075973590368,
                1.2911593788179905,
                0.5945671826755252,
                0.47616923729080607
            ]
        },
        {
            "positions": [
                -0.3553336003622707,
                -0.5076120219026827,
                0.48894433770244095,
                1.3488632957152153,
                0.529498072849061,
                0.4333207273038393
            ]
        },
        {
            "positions": [
                -0.3076127512308384,
                -0.5345406293921251,
                0.6394810780458442,
                1.40656721261244,
                0.46442896302259684,
                0.39047221731687276
            ]
        },
        {
            "positions": [
                -0.25989190209940616,
                -0.5614692368815676,
                0.7900178183892479,
                1.4642711295096649,
                0.39935985319613265,
                0.3476237073299061
            ]
        },
        {
            "positions": [
                -0.2121710529679739,
                -0.5883978443710101,
                0.9405545587326516,
                1.5219750464068895,
                0.3342907433696687,
                0.30477519734293945
            ]
        },
        {
            "positions": [
                -0.16445020383654152,
                -0.6153264518604527,
                1.0910912990760557,
                1.5796789633041144,
                0.2692216335432043,
                0.2619266873559728
            ]
        },
        {
            "positions": [
                -0.11672935470510915,
                -0.642255059349895,
                1.2416280394194594,
                1.637382880201339,
                0.2041525237167401,
                0.21907817736900614
            ]
        },
        {
            "positions": [
                -0.0690085055736771,
                -0.6691836668393374,
                1.3921647797628631,
                1.6950867970985637,
                0.13908341389027612,
                0.1762296673820395
            ]
        },
        {
            "positions": [
                -0.02128765644224484,
                -0.6961122743287798,
                1.5427015201062664,
                1.7527907139957886,
                0.07401430406381193,
                0.13338115739507295
            ]
        },
        {
            "positions": [
                0.026433192689187646,
                -0.7230408818182223,
                1.6932382604496705,
                1.8104946308930134,
                0.00894519423734752,
                0.09053264740810629
            ]
        },
        {
            "positions": [
                0.07415404182061991,
                -0.7499694893076647,
                1.8437750007930742,
                1.868198547790238,
                -0.056123915589116447,
                0.04768413742113964
            ]
        },
        {
            "positions": [
                0.12187489095205208,
                -0.7768980967971072,
                1.9943117411364777,
                1.9259024646874627,
                -0.12119302541558066,
                0.004835627434172971
            ]
        }
    ]
}