{
    "goal": {
        "global_pose": {
            "orientation": {
                "w": 0.7031023502349854,
                "x": -0.7110244035720825,
                "y": 0.007748599164187908,
                "z": 0.005598929710686207
            },
            "position": {
                "x": 0.11585023208521307,
                "y": 0.44412534475326537,
                "z": 0.3711530566215515
            }
        },
        "name": "move_to_auspresseinheit_A"
    },
    "id": "STRIDE_move_to_auspresseinheit_A_92",
    "joint_names": [
        "shoulder_pan_joint",
        "shoulder_lift_joint",
        "elbow_joint",
        "wrist_1_joint",
        "wrist_2_joint",
        "wrist_3_joint"
    ],
    "metrics": {
        "cart_traj_len": 2.217772659754976,
        "distance_elbow_joint": 0.7997122253026205,
        "distance_shoulder_lift_joint": 0.8973072473167976,
        "distance_shoulder_pan_joint": 2.831701173533075,
        "distance_wrist_1_joint": 1.6884179477057655,
        "distance_wrist_2_joint": 0.5108582835065358,
        "distance_wrist_3_joint": 1.9947809058199066,
        "smoothness": 1.1693027666238625,
        "time": 0.245805703,
        "traj_len": 2.953434912637267,
        "weighted_distance": 3.8615561404745646
    },
    "planner": "STRIDE",
    "start": {
        "state": {
            "elbow_joint": 2.422574709923281,
            "shoulder_lift_joint": -1.3736533754116391,
            "shoulder_pan_joint": -0.33786336945926293,
            "wrist_1_joint": -1.0288603412921917,
            "wrist_2_joint": 1.2330224858903978,
            "wrist_3_joint": -3.094022268022082
        }
    },
    "waypoints": [
        {
            "positions": [
                -0.33786336945926293,
                -1.3736533754116391,
                2.422574709923281,
                -1.0288603412921917,
                1.2330224858903978,
                -3.094022268022082
            ]
        },
        {
            "positions": [
                -0.4369845445176346,
                -1.3536318675763648,
                2.376627088462987,
                -1.0917663993764948,
                1.2114374161534758,
                -2.98549098494796
            ]
        },
        {
            "positions": [
                -0.5361057195760062,
                -1.3336103597410907,
                2.3306794670026934,
                -1.154672457460798,
                1.189852346416554,
                -2.8769597018738375
            ]
        },
        {
            "positions": [
                -0.6352268946343778,
                -1.3135888519058163,
                2.284731845542399,
                -1.217578515545101,
                1.168267276679632,
                -2.7684284187997155
            ]
        },
        {
            "positions": [
                -0.7343480696927495,
                -1.293567344070542,
                2.238784224082105,
                -1.2804845736294042,
                1.1466822069427103,
                -2.6598971357255934
            ]
        },
        {
            "positions": [
                -0.8334692447511212,
                -1.2735458362352678,
                2.1928366026218113,
                -1.3433906317137074,
                1.1250971372057883,
                -2.551365852651471
            ]
        },
        {
            "positions": [
                -0.9325904198094928,
                -1.2535243283999935,
                2.1468889811615175,
                -1.4062966897980105,
                1.1035120674688665,
                -2.442834569577349
            ]
        },
        {
            "positions": [
                -1.0317115948678643,
                -1.2335028205647192,
                2.100941359701223,
                -1.4692027478823135,
                1.0819269977319446,
                -2.3343032865032267
            ]
        },
        {
            "positions": [
                -1.130832769926236,
                -1.213481312729445,
                2.0549937382409293,
                -1.5321088059666166,
                1.0603419279950228,
                -2.225772003429104
            ]
        },
        {
            "positions": [
                -1.2299539449846077,
                -1.1934598048941707,
                2.0090461167806355,
                -1.5950148640509199,
                1.0387568582581008,
                -2.117240720354982
            ]
        },
        {
            "positions": [
                -1.0914103308411987,
                -1.2446822103798372,
                2.0366306619349195,
                -1.5148531908404173,
                1.0161430971242267,
                -2.18995496022304
            ]
        },
        {
            "positions": [
                -0.9528667166977893,
                -1.2959046158655034,
                2.0642152070892035,
                -1.4346915176299144,
                0.9935293359903524,
                -2.2626692000910973
            ]
        },
        {
            "positions": [
                -0.8143231025543802,
                -1.3471270213511697,
                2.0917997522434875,
                -1.3545298444194118,
                0.9709155748564782,
                -2.335383439959155
            ]
        },
        {
            "positions": [
                -0.675779488410971,
                -1.3983494268368362,
                2.119384297397771,
                -1.2743681712089092,
                0.948301813722604,
                -2.4080976798272125
            ]
        },
        {
            "positions": [
                -0.5372358742675618,
                -1.4495718323225026,
                2.146968842552055,
                -1.1942064979984064,
                0.9256880525887298,
                -2.4808119196952703
            ]
        },
        {
            "positions": [
                -0.3986922601241526,
                -1.500794237808169,
                2.174553387706339,
                -1.114044824787904,
                0.9030742914548556,
                -2.5535261595633276
            ]
        },
        {
            "positions": [
                -0.2601486459807434,
                -1.5520166432938352,
                2.202137932860623,
                -1.0338831515774012,
                0.8804605303209814,
                -2.6262403994313854
            ]
        },
        {
            "positions": [
                -0.12160503183733429,
                -1.6032390487795016,
                2.229722478014907,
                -0.9537214783668986,
                0.8578467691871072,
                -2.6989546392994432
            ]
        },
        {
            "positions": [
                0.016938582306075034,
                -1.654461454265168,
                2.257307023169191,
                -0.8735598051563958,
                0.835233008053233,
                -2.7716688791675006
            ]
        },
        {
            "positions": [
                0.15548219644948413,
                -1.7056838597508344,
                2.284891568323475,
                -0.7933981319458931,
                0.8126192469193587,
                -2.8443831190355584
            ]
        },
        {
            "positions": [
                0.29402581059289346,
                -1.7569062652365006,
                2.3124761134777585,
                -0.7132364587353905,
                0.7900054857854846,
                -2.9170973589036158
            ]
        },
        {
            "positions": [
                0.43256942473630255,
                -1.808128670722167,
                2.3400606586320425,
                -0.6330747855248879,
                0.7673917246516104,
                -2.9898115987716736
            ]
        },
        {
            "positions": [
                0.5711130388797119,
                -1.8593510762078336,
                2.3676452037863265,
                -0.5529131123143851,
                0.7447779635177361,
                -3.062525838639731
            ]
        },
        {
            "positions": [
                0.7096566530231211,
                -1.9105734816934998,
                2.3952297489406105,
                -0.47275143910388256,
                0.7221642023838619,
                -3.1352400785077887
            ]
        }
    ]
}