{
    "goal": {
        "global_pose": {
            "orientation": {
                "w": 0.7047431468963623,
                "x": -0.7094548344612122,
                "y": 0.0024358443915843964,
                "z": -0.0022348060738295317
            },
            "position": {
                "x": 0.6094750761985779,
                "y": 0.3671506643295288,
                "z": 0.19426114857196808
            }
        },
        "name": "move_to_magneteinheit_A"
    },
    "id": "STRIDE_move_to_magneteinheit_A_79",
    "joint_names": [
        "shoulder_pan_joint",
        "shoulder_lift_joint",
        "elbow_joint",
        "wrist_1_joint",
        "wrist_2_joint",
        "wrist_3_joint"
    ],
    "metrics": {
        "cart_traj_len": 1.8648133625264312,
        "distance_elbow_joint": 3.943476768537942,
        "distance_shoulder_lift_joint": 0.7155307662445917,
        "distance_shoulder_pan_joint": 1.241577096616272,
        "distance_wrist_1_joint": 1.5992458963631873,
        "distance_wrist_2_joint": 1.7061112673355963,
        "distance_wrist_3_joint": 1.2384051368920221,
        "smoothness": 1.903239467962136e-16,
        "time": 0.116629092,
        "traj_len": 3.2317714851130197,
        "weighted_distance": 4.028214786909015
    },
    "planner": "STRIDE",
    "start": {
        "state": {
            "elbow_joint": -1.919643507792019,
            "shoulder_lift_joint": -0.07675430207160344,
            "shoulder_pan_joint": -1.1188671864651873,
            "wrist_1_joint": 0.42560062535961957,
            "wrist_2_joint": 1.5706038300724876,
            "wrist_3_joint": 1.1188968870953055
        }
    },
    "waypoints": [
        {
            "positions": [
                -1.1188671864651873,
                -0.07675430207160344,
                -1.919643507792019,
                0.42560062535961957,
                1.5706038300724876,
                1.1188968870953055
            ]
        },
        {
            "positions": [
                -1.0728828495534737,
                -0.10325544156214388,
                -1.7735888126609842,
                0.48483195485455244,
                1.5074145238748728,
                1.0730300301733788
            ]
        },
        {
            "positions": [
                -1.0268985126417598,
                -0.1297565810526843,
                -1.6275341175299494,
                0.5440632843494853,
                1.4442252176772583,
                1.0271631732514521
            ]
        },
        {
            "positions": [
                -0.980914175730046,
                -0.15625772054322473,
                -1.4814794223989145,
                0.6032946138444182,
                1.3810359114796436,
                0.9812963163295253
            ]
        },
        {
            "positions": [
                -0.9349298388183322,
                -0.18275886003376518,
                -1.3354247272678794,
                0.662525943339351,
                1.3178466052820288,
                0.9354294594075986
            ]
        },
        {
            "positions": [
                -0.8889455019066185,
                -0.20925999952430563,
                -1.1893700321368446,
                0.7217572728342838,
                1.2546572990844143,
                0.8895626024856719
            ]
        },
        {
            "positions": [
                -0.8429611649949047,
                -0.23576113901484605,
                -1.0433153370058097,
                0.7809886023292167,
                1.1914679928867995,
                0.843695745563745
            ]
        },
        {
            "positions": [
                -0.7969768280831909,
                -0.2622622785053865,
                -0.8972606418747748,
                0.8402199318241496,
                1.128278686689185,
                0.7978288886418183
            ]
        },
        {
            "positions": [
                -0.7509924911714772,
                -0.2887634179959269,
                -0.75120594674374,
                0.8994512613190824,
                1.0650893804915702,
                0.7519620317198916
            ]
        },
        {
            "positions": [
                -0.7050081542597634,
                -0.31526455748646737,
                -0.6051512516127051,
                0.9586825908140153,
                1.0019000742939554,
                0.7060951747979649
            ]
        },
        {
            "positions": [
                -0.6590238173480496,
                -0.3417656969770078,
                -0.45909655648167025,
                1.0179139203089482,
                0.9387107680963409,
                0.6602283178760382
            ]
        },
        {
            "positions": [
                -0.6130394804363358,
                -0.3682668364675482,
                -0.3130418613506354,
                1.077145249803881,
                0.8755214618987261,
                0.6143614609541114
            ]
        },
        {
            "positions": [
                -0.567055143524622,
                -0.39476797595808866,
                -0.16698716621960052,
                1.1363765792988139,
                0.8123321557011115,
                0.5684946040321847
            ]
        },
        {
            "positions": [
                -0.5210708066129083,
                -0.4212691154486291,
                -0.020932471088565663,
                1.1956079087937468,
                0.7491428495034969,
                0.5226277471102578
            ]
        },
        {
            "positions": [
                -0.4750864697011945,
                -0.44777025493916955,
                0.12512222404246942,
                1.2548392382886795,
                0.6859535433058822,
                0.4767608901883311
            ]
        },
        {
            "positions": [
                -0.4291021327894806,
                -0.47427139442971,
                0.2711769191735043,
                1.3140705677836124,
                0.6227642371082674,
                0.4308940332664043
            ]
        },
        {
            "positions": [
                -0.38311779587776695,
                -0.5007725339202505,
                0.41723161430453914,
                1.3733018972785453,
                0.5595749309106528,
                0.3850271763444777
            ]
        },
        {
            "positions": [
                -0.33713345896605307,
                -0.5272736734107908,
                0.563286309435574,
                1.4325332267734783,
                0.49638562471303804,
                0.33916031942255087
            ]
        },
        {
            "positions": [
                -0.2911491220543394,
                -0.5537748129013313,
                0.7093410045666089,
                1.491764556268411,
                0.4331963185154235,
                0.29329346250062416
            ]
        },
        {
            "positions": [
                -0.24516478514262552,
                -0.5802759523918717,
                0.8553956996976442,
                1.550995885763344,
                0.37000701231780875,
                0.24742660557869733
            ]
        },
        {
            "positions": [
                -0.19918044823091186,
                -0.6067770918824122,
                1.0014503948286786,
                1.6102272152582768,
                0.3068177061201942,
                0.20155974865677073
            ]
        },
        {
            "positions": [
                -0.15319611131919797,
                -0.6332782313729526,
                1.147505089959714,
                1.6694585447532098,
                0.24362839992257945,
                0.1556928917348439
            ]
        },
        {
            "positions": [
                -0.1072117744074843,
                -0.6597793708634929,
                1.2935597850907483,
                1.7286898742481425,
                0.1804390937249647,
                0.1098260348129172
            ]
        },
        {
            "positions": [
                -0.06122743749577042,
                -0.6862805103540335,
                1.4396144802217836,
                1.7879212037430754,
                0.11724978752734994,
                0.06395917789099048
            ]
        },
        {
            "positions": [
                -0.015243100584056757,
                -0.7127816498445738,
                1.585669175352818,
                1.8471525332380083,
                0.0540604813297354,
                0.01809232096906377
            ]
        },
        {
            "positions": [
                0.03074123632765713,
                -0.7392827893351144,
                1.7317238704838533,
                1.9063838627329412,
                -0.00912882486787936,
                -0.027774535952863166
            ]
        },
        {
            "positions": [
                0.07672557323937079,
                -0.7657839288256547,
                1.8777785656148878,
                1.965615192227874,
                -0.0723181310654939,
                -0.07364139287478988
            ]
        },
        {
            "positions": [
                0.12270991015108472,
                -0.7922850683161952,
                2.0238332607459233,
                2.024846521722807,
                -0.13550743726310857,
                -0.11950824979671665
            ]
        }
    ]
}