{
    "goal": {
        "global_pose": {
            "orientation": {
                "w": 0.7031023502349854,
                "x": -0.7110244035720825,
                "y": 0.007748599164187908,
                "z": 0.005598929710686207
            },
            "position": {
                "x": 0.11585023208521307,
                "y": 0.44412534475326537,
                "z": 0.3711530566215515
            }
        },
        "name": "move_to_auspresseinheit_A"
    },
    "id": "STRIDE_move_to_auspresseinheit_A_78",
    "joint_names": [
        "shoulder_pan_joint",
        "shoulder_lift_joint",
        "elbow_joint",
        "wrist_1_joint",
        "wrist_2_joint",
        "wrist_3_joint"
    ],
    "metrics": {
        "cart_traj_len": 0.6873012948931151,
        "distance_elbow_joint": 0.03214870852182239,
        "distance_shoulder_lift_joint": 0.5328578641438786,
        "distance_shoulder_pan_joint": 1.0394570566794825,
        "distance_wrist_1_joint": 0.577526556658374,
        "distance_wrist_2_joint": 0.5379779501931948,
        "distance_wrist_3_joint": 0.06107473198680502,
        "smoothness": 6.908054391074016e-16,
        "time": 0.842956135,
        "traj_len": 1.667645906115431,
        "weighted_distance": 2.0046687604212163
    },
    "planner": "STRIDE",
    "start": {
        "state": {
            "elbow_joint": 2.422574709923281,
            "shoulder_lift_joint": -1.3736533754116391,
            "shoulder_pan_joint": -0.33786336945926293,
            "wrist_1_joint": -1.0288603412921917,
            "wrist_2_joint": 1.2330224858903978,
            "wrist_3_joint": -3.094022268022082
        }
    },
    "waypoints": [
        {
            "positions": [
                -0.33786336945926293,
                -1.3736533754116391,
                2.422574709923281,
                -1.0288603412921917,
                1.2330224858903978,
                -3.094022268022082
            ]
        },
        {
            "positions": [
                -0.20793123737432762,
                -1.440260608429624,
                2.418556121358053,
                -0.9566695217098949,
                1.1657752421162484,
                -3.1016566095204325
            ]
        },
        {
            "positions": [
                -0.0779991052893923,
                -1.5068678414476087,
                2.4145375327928256,
                -0.8844787021275982,
                1.098527998342099,
                -3.1092909510187834
            ]
        },
        {
            "positions": [
                0.051933026795543014,
                -1.5734750744655936,
                2.4105189442275976,
                -0.8122878825453015,
                1.0312807545679497,
                -3.1169252925171342
            ]
        },
        {
            "positions": [
                0.18186515888047833,
                -1.6400823074835784,
                2.40650035566237,
                -0.7400970629630047,
                0.9640335107938003,
                -3.1245596340154846
            ]
        },
        {
            "positions": [
                0.3117972909654137,
                -1.7066895405015632,
                2.402481767097142,
                -0.6679062433807079,
                0.8967862670196509,
                -3.132193975513835
            ]
        },
        {
            "positions": [
                0.44172942305034896,
                -1.7732967735195482,
                2.398463178531914,
                -0.5957154237984112,
                0.8295390232455017,
                -3.139828317012186
            ]
        },
        {
            "positions": [
                0.5716615551352842,
                -1.839904006537533,
                2.3944445899666866,
                -0.5235246042161145,
                0.7622917794713523,
                -3.1474626585105367
            ]
        },
        {
            "positions": [
                0.7015936872202195,
                -1.9065112395555177,
                2.3904260014014587,
                -0.4513337846338177,
                0.6950445356972029,
                -3.155097000008887
            ]
        }
    ]
}