{
    "goal": {
        "global_pose": {
            "orientation": {
                "w": 0.5084816217422485,
                "x": -0.49083608388900757,
                "y": 0.5182115435600281,
                "z": -0.4816462993621826
            },
            "position": {
                "x": 0.5540239810943604,
                "y": 0.030875300988554955,
                "z": 0.16403168439865112
            }
        },
        "name": "move_to_storage_A"
    },
    "id": "STRIDE_move_to_storage_A_141",
    "joint_names": [
        "shoulder_pan_joint",
        "shoulder_lift_joint",
        "elbow_joint",
        "wrist_1_joint",
        "wrist_2_joint",
        "wrist_3_joint"
    ],
    "metrics": {
        "cart_traj_len": 0.35275040557667936,
        "distance_elbow_joint": 0.4506203711438088,
        "distance_shoulder_lift_joint": 0.23321627748306906,
        "distance_shoulder_pan_joint": 0.46103399232508907,
        "distance_wrist_1_joint": 0.24996249736350207,
        "distance_wrist_2_joint": 1.0984505650908056,
        "distance_wrist_3_joint": 0.10637589360354083,
        "smoothness": 6.661338165333112e-16,
        "time": 0.050503221,
        "traj_len": 1.6123459917182215,
        "weighted_distance": 2.039809904542873
    },
    "planner": "STRIDE",
    "start": {
        "state": {
            "elbow_joint": 1.9715463870305268,
            "shoulder_lift_joint": -1.1394903361783484,
            "shoulder_pan_joint": 0.12281147578464417,
            "wrist_1_joint": -0.7804599489681411,
            "wrist_2_joint": 0.12958660307563738,
            "wrist_3_joint": -3.1924946282119055
        }
    },
    "waypoints": [
        {
            "positions": [
                0.12281147578464417,
                -1.1394903361783484,
                1.9715463870305268,
                -0.7804599489681411,
                0.12958660307563738,
                -3.1924946282119055
            ]
        },
        {
            "positions": [
                0.05694947688106003,
                -1.1728069472473583,
                2.0359207257653567,
                -0.8161688771629271,
                0.2865081123743239,
                -3.177298071982828
            ]
        },
        {
            "positions": [
                -0.008912522022524114,
                -1.206123558316368,
                2.1002950645001865,
                -0.8518778053577131,
                0.44342962167301037,
                -3.162101515753751
            ]
        },
        {
            "positions": [
                -0.07477452092610827,
                -1.239440169385378,
                2.1646694032350164,
                -0.8875867335524991,
                0.6003511309716969,
                -3.1469049595246736
            ]
        },
        {
            "positions": [
                -0.14063651982969239,
                -1.2727567804543878,
                2.229043741969846,
                -0.9232956617472852,
                0.7572726402703834,
                -3.1317084032955966
            ]
        },
        {
            "positions": [
                -0.20649851873327657,
                -1.3060733915233977,
                2.293418080704676,
                -0.9590045899420712,
                0.91419414956907,
                -3.116511847066519
            ]
        },
        {
            "positions": [
                -0.2723605176368607,
                -1.3393900025924075,
                2.3577924194395057,
                -0.9947135181368572,
                1.0711156588677564,
                -3.101315290837442
            ]
        },
        {
            "positions": [
                -0.3382225165404449,
                -1.3727066136614174,
                2.4221667581743356,
                -1.0304224463316431,
                1.228037168166443,
                -3.0861187346083647
            ]
        }
    ]
}