{
    "goal": {
        "global_pose": {
            "orientation": {
                "w": 0.5084816217422485,
                "x": -0.49083608388900757,
                "y": 0.5182115435600281,
                "z": -0.4816462993621826
            },
            "position": {
                "x": 0.5540239810943604,
                "y": 0.030875300988554955,
                "z": 0.16403168439865112
            }
        },
        "name": "move_to_storage_A"
    },
    "id": "STRIDE_move_to_storage_A_116",
    "joint_names": [
        "shoulder_pan_joint",
        "shoulder_lift_joint",
        "elbow_joint",
        "wrist_1_joint",
        "wrist_2_joint",
        "wrist_3_joint"
    ],
    "metrics": {
        "cart_traj_len": 0.35270022145756863,
        "distance_elbow_joint": 0.44944261347920866,
        "distance_shoulder_lift_joint": 0.23641481863441793,
        "distance_shoulder_pan_joint": 0.4595401504800219,
        "distance_wrist_1_joint": 0.23747733389854264,
        "distance_wrist_2_joint": 1.1062440327004268,
        "distance_wrist_3_joint": 0.1015938754299337,
        "smoothness": 6.661338165333112e-16,
        "time": 0.048388843,
        "traj_len": 1.6095691425417398,
        "weighted_distance": 2.0341145351433356
    },
    "planner": "STRIDE",
    "start": {
        "state": {
            "elbow_joint": 1.9715463870305268,
            "shoulder_lift_joint": -1.1394903361783484,
            "shoulder_pan_joint": 0.12281147578464417,
            "wrist_1_joint": -0.7804599489681411,
            "wrist_2_joint": 0.12958660307563738,
            "wrist_3_joint": -3.1924946282119055
        }
    },
    "waypoints": [
        {
            "positions": [
                0.12281147578464417,
                -1.1394903361783484,
                1.9715463870305268,
                -0.7804599489681411,
                0.12958660307563738,
                -3.1924946282119055
            ]
        },
        {
            "positions": [
                0.05716288285892676,
                -1.173263881697551,
                2.0357524746704136,
                -0.8143852823822186,
                0.2876214648899841,
                -3.1779812174362005
            ]
        },
        {
            "positions": [
                -0.00848571006679065,
                -1.2070374272167534,
                2.0999585623103005,
                -0.8483106157962961,
                0.44565632670433075,
                -3.163467806660496
            ]
        },
        {
            "positions": [
                -0.07413430299250805,
                -1.240810972735956,
                2.1641646499501874,
                -0.8822359492103736,
                0.6036911885186774,
                -3.148954395884791
            ]
        },
        {
            "positions": [
                -0.13978289591822546,
                -1.2745845182551587,
                2.2283707375900743,
                -0.9161612826244512,
                0.7617260503330241,
                -3.1344409851090864
            ]
        },
        {
            "positions": [
                -0.2054314888439429,
                -1.3083580637743613,
                2.2925768252299616,
                -0.9500866160385286,
                0.9197609121473709,
                -3.1199275743333814
            ]
        },
        {
            "positions": [
                -0.27108008176966025,
                -1.3421316092935638,
                2.3567829128698485,
                -0.9840119494526062,
                1.0777957739617174,
                -3.105414163557677
            ]
        },
        {
            "positions": [
                -0.3367286746953777,
                -1.3759051548127663,
                2.4209890005097354,
                -1.0179372828666837,
                1.2358306357760642,
                -3.090900752781972
            ]
        }
    ]
}