{
    "goal": {
        "global_pose": {
            "orientation": {
                "w": 0.7031023502349854,
                "x": -0.7110244035720825,
                "y": 0.007748599164187908,
                "z": 0.005598929710686207
            },
            "position": {
                "x": 0.11585023208521307,
                "y": 0.44412534475326537,
                "z": 0.3711530566215515
            }
        },
        "name": "move_to_auspresseinheit_A"
    },
    "id": "STRIDE_move_to_auspresseinheit_A_104",
    "joint_names": [
        "shoulder_pan_joint",
        "shoulder_lift_joint",
        "elbow_joint",
        "wrist_1_joint",
        "wrist_2_joint",
        "wrist_3_joint"
    ],
    "metrics": {
        "cart_traj_len": 4.165182797722462,
        "distance_elbow_joint": 6.563705964895679,
        "distance_shoulder_lift_joint": 2.8350150000305647,
        "distance_shoulder_pan_joint": 4.358368409995803,
        "distance_wrist_1_joint": 1.8247427582372175,
        "distance_wrist_2_joint": 1.8920085701970466,
        "distance_wrist_3_joint": 6.6085716364374605,
        "smoothness": 0.7278408202587396,
        "time": 0.126230985,
        "traj_len": 4.907383451473277,
        "weighted_distance": 6.404397469013224
    },
    "planner": "STRIDE",
    "start": {
        "state": {
            "elbow_joint": 2.422574709923281,
            "shoulder_lift_joint": -1.3736533754116391,
            "shoulder_pan_joint": -0.33786336945926293,
            "wrist_1_joint": -1.0288603412921917,
            "wrist_2_joint": 1.2330224858903978,
            "wrist_3_joint": -3.094022268022082
        }
    },
    "waypoints": [
        {
            "positions": [
                -0.33786336945926293,
                -1.3736533754116391,
                2.422574709923281,
                -1.0288603412921917,
                1.2330224858903978,
                -3.094022268022082
            ]
        },
        {
            "positions": [
                -0.33048482726448963,
                -1.41398520804958,
                2.3554479812630347,
                -0.9395619569904344,
                1.1496627197971003,
                -3.0000495714802966
            ]
        },
        {
            "positions": [
                -0.32310628506971634,
                -1.454317040687521,
                2.2883212526027887,
                -0.8502635726886772,
                1.0663029537038031,
                -2.9060768749385106
            ]
        },
        {
            "positions": [
                -0.31572774287494304,
                -1.4946488733254617,
                2.2211945239425424,
                -0.76096518838692,
                0.9829431876105057,
                -2.8121041783967247
            ]
        },
        {
            "positions": [
                -0.30834920068016974,
                -1.5349807059634026,
                2.154067795282296,
                -0.6716668040851628,
                0.8995834215172084,
                -2.718131481854939
            ]
        },
        {
            "positions": [
                -0.3009706584853965,
                -1.5753125386013436,
                2.08694106662205,
                -0.5823684197834055,
                0.8162236554239111,
                -2.6241587853131536
            ]
        },
        {
            "positions": [
                -0.2935921162906232,
                -1.6156443712392845,
                2.0198143379618037,
                -0.4930700354816483,
                0.7328638893306137,
                -2.5301860887713676
            ]
        },
        {
            "positions": [
                -0.2862135740958499,
                -1.6559762038772252,
                1.9526876093015575,
                -0.403771651179891,
                0.6495041232373164,
                -2.4362133922295817
            ]
        },
        {
            "positions": [
                -0.2788350319010766,
                -1.6963080365151662,
                1.8855608806413113,
                -0.3144732668781337,
                0.566144357144019,
                -2.342240695687796
            ]
        },
        {
            "positions": [
                -0.2714564897063033,
                -1.736639869153107,
                1.818434151981065,
                -0.2251748825763764,
                0.4827845910507217,
                -2.2482679991460106
            ]
        },
        {
            "positions": [
                -0.26407794751153,
                -1.776971701791048,
                1.7513074233208188,
                -0.13587649827461923,
                0.3994248249574244,
                -2.1542953026042246
            ]
        },
        {
            "positions": [
                -0.1637202199015537,
                -1.7269691253601764,
                1.6371932700344343,
                -0.1229816903523952,
                0.38602114475833327,
                -2.0521437473740844
            ]
        },
        {
            "positions": [
                -0.06336249229157737,
                -1.6769665489293046,
                1.5230791167480495,
                -0.11008688243017119,
                0.37261746455924216,
                -1.9499921921439443
            ]
        },
        {
            "positions": [
                0.036995235318398934,
                -1.6269639724984328,
                1.408964963461665,
                -0.09719207450794717,
                0.35921378436015106,
                -1.8478406369138043
            ]
        },
        {
            "positions": [
                0.1373529629283753,
                -1.5769613960675612,
                1.2948508101752805,
                -0.08429726658572315,
                0.34581010416105995,
                -1.745689081683664
            ]
        },
        {
            "positions": [
                0.2377106905383516,
                -1.5269588196366897,
                1.1807366568888957,
                -0.07140245866349913,
                0.33240642396196884,
                -1.6435375264535241
            ]
        },
        {
            "positions": [
                0.3380684181483279,
                -1.4769562432058179,
                1.066622503602511,
                -0.058507650741275105,
                0.31900274376287774,
                -1.541385971223384
            ]
        },
        {
            "positions": [
                0.4384261457583043,
                -1.426953666774946,
                0.9525083503161265,
                -0.04561284281905108,
                0.30559906356378663,
                -1.4392344159932438
            ]
        },
        {
            "positions": [
                0.5387838733682806,
                -1.3769510903440745,
                0.8383941970297419,
                -0.032718034896827064,
                0.2921953833646955,
                -1.3370828607631036
            ]
        },
        {
            "positions": [
                0.639141600978257,
                -1.3269485139132027,
                0.7242800437433572,
                -0.019823226974603037,
                0.2787917031656044,
                -1.2349313055329634
            ]
        },
        {
            "positions": [
                0.7394993285882332,
                -1.276945937482331,
                0.6101658904569727,
                -0.006928419052379037,
                0.2653880229665133,
                -1.1327797503028234
            ]
        },
        {
            "positions": [
                0.8398570561982097,
                -1.2269433610514593,
                0.49605173717058815,
                0.005966388869844991,
                0.2519843427674222,
                -1.0306281950726832
            ]
        },
        {
            "positions": [
                0.9402147838081858,
                -1.1769407846205877,
                0.3819375838842034,
                0.018861196792069018,
                0.2385806625683311,
                -0.928476639842543
            ]
        },
        {
            "positions": [
                1.040572511418162,
                -1.1269382081897161,
                0.2678234305978189,
                0.03175600471429302,
                0.22517698236924,
                -0.8263250846124031
            ]
        },
        {
            "positions": [
                1.1409302390281386,
                -1.076935631758844,
                0.15370927731143413,
                0.04465081263651707,
                0.2117733021701489,
                -0.7241735293822626
            ]
        },
        {
            "positions": [
                1.241287966638115,
                -1.0269330553279725,
                0.03959512402504961,
                0.05754562055874107,
                0.19836962197105779,
                -0.6220219741521227
            ]
        },
        {
            "positions": [
                1.3416456942480912,
                -0.9769304788971009,
                -0.07451902926133491,
                0.0704404284809651,
                0.18496594177196668,
                -0.5198704189219825
            ]
        },
        {
            "positions": [
                1.4420034218580675,
                -0.9269279024662292,
                -0.18863318254771944,
                0.0833352364031891,
                0.1715622615728756,
                -0.4177188636918425
            ]
        },
        {
            "positions": [
                1.542361149468044,
                -0.8769253260353574,
                -0.3027473358341044,
                0.09623004432541316,
                0.15815858137378447,
                -0.3155673084617021
            ]
        },
        {
            "positions": [
                1.6427188770780203,
                -0.8269227496044858,
                -0.4168614891204887,
                0.10912485224763716,
                0.14475490117469336,
                -0.21341575323156214
            ]
        },
        {
            "positions": [
                1.7430766046879964,
                -0.7769201731736142,
                -0.5309756424068734,
                0.12201966016986115,
                0.13135122097560226,
                -0.11126419800142218
            ]
        },
        {
            "positions": [
                1.843434332297973,
                -0.7269175967427424,
                -0.6450897956932578,
                0.13491446809208518,
                0.11794754077651115,
                -0.009112642771281987
            ]
        },
        {
            "positions": [
                1.9437920599079495,
                -0.6769150203118706,
                -0.7592039489796425,
                0.1478092760143092,
                0.10454386057742004,
                0.0930389124588582
            ]
        },
        {
            "positions": [
                2.0441497875179255,
                -0.626912443880999,
                -0.873318102266027,
                0.16070408393653324,
                0.09114018037832894,
                0.1951904676889984
            ]
        },
        {
            "positions": [
                1.9805111050824291,
                -0.675738567304594,
                -0.7510200012179877,
                0.14174979358476317,
                0.11772090646301976,
                0.0816395973130116
            ]
        },
        {
            "positions": [
                1.9168724226469327,
                -0.7245646907281892,
                -0.6287219001699484,
                0.12279550323299307,
                0.14430163254771058,
                -0.0319112730629752
            ]
        },
        {
            "positions": [
                1.853233740211436,
                -0.7733908141517842,
                -0.5064237991219092,
                0.103841212881223,
                0.17088235863240142,
                -0.14546214343896202
            ]
        },
        {
            "positions": [
                1.7895950577759396,
                -0.8222169375753794,
                -0.3841256980738699,
                0.08488692252945292,
                0.19746308471709223,
                -0.2590130138149488
            ]
        },
        {
            "positions": [
                1.7259563753404432,
                -0.8710430609989744,
                -0.2618275970258306,
                0.06593263217768283,
                0.22404381080178307,
                -0.37256388419093556
            ]
        },
        {
            "positions": [
                1.6623176929049468,
                -0.9198691844225695,
                -0.1395294959777914,
                0.04697834182591275,
                0.2506245368864739,
                -0.48611475456692244
            ]
        },
        {
            "positions": [
                1.5986790104694504,
                -0.9686953078461646,
                -0.01723139492975212,
                0.02802405147414269,
                0.27720526297116466,
                -0.5996656249429091
            ]
        },
        {
            "positions": [
                1.5350403280339537,
                -1.0175214312697598,
                0.10506670611828717,
                0.009069761122372594,
                0.3037859890558555,
                -0.713216495318896
            ]
        },
        {
            "positions": [
                1.4714016455984575,
                -1.0663475546933547,
                0.22736480716632634,
                -0.009884529229397476,
                0.33036671514054633,
                -0.8267673656948826
            ]
        },
        {
            "positions": [
                1.407762963162961,
                -1.11517367811695,
                0.34966290821436585,
                -0.028838819581167574,
                0.3569474412252372,
                -0.9403182360708695
            ]
        },
        {
            "positions": [
                1.3441242807274647,
                -1.163999801540545,
                0.4719610092624049,
                -0.047793109932937644,
                0.38352816730992795,
                -1.0538691064468564
            ]
        },
        {
            "positions": [
                1.280485598291968,
                -1.21282592496414,
                0.5942591103104442,
                -0.06674740028470774,
                0.4101088933946188,
                -1.1674199768228433
            ]
        },
        {
            "positions": [
                1.2168469158564716,
                -1.2616520483877351,
                0.7165572113584835,
                -0.08570169063647781,
                0.4366896194793096,
                -1.28097084719883
            ]
        },
        {
            "positions": [
                1.1532082334209752,
                -1.3104781718113303,
                0.8388553124065228,
                -0.10465598098824785,
                0.46327034556400043,
                -1.3945217175748166
            ]
        },
        {
            "positions": [
                1.0895695509854788,
                -1.3593042952349252,
                0.9611534134545618,
                -0.12361027134001795,
                0.48985107164869124,
                -1.5080725879508035
            ]
        },
        {
            "positions": [
                1.0259308685499822,
                -1.4081304186585206,
                1.0834515145026014,
                -0.14256456169178805,
                0.5164317977333821,
                -1.6216234583267903
            ]
        },
        {
            "positions": [
                0.9622921861144857,
                -1.4569565420821156,
                1.2057496155506406,
                -0.16151885204355815,
                0.543012523818073,
                -1.7351743287027772
            ]
        },
        {
            "positions": [
                0.8986535036789893,
                -1.5057826655057105,
                1.3280477165986797,
                -0.1804731423953282,
                0.5695932499027637,
                -1.8487251990787636
            ]
        },
        {
            "positions": [
                0.8350148212434929,
                -1.5546087889293057,
                1.4503458176467188,
                -0.1994274327470983,
                0.5961739759874545,
                -1.9622760694547505
            ]
        },
        {
            "positions": [
                0.7713761388079965,
                -1.6034349123529008,
                1.5726439186947587,
                -0.21838172309886839,
                0.6227547020721454,
                -2.0758269398307374
            ]
        },
        {
            "positions": [
                0.7077374563725001,
                -1.652261035776496,
                1.6949420197427978,
                -0.23733601345063848,
                0.6493354281568362,
                -2.1893778102067243
            ]
        },
        {
            "positions": [
                0.6440987739370037,
                -1.701087159200091,
                1.8172401207908369,
                -0.2562903038024085,
                0.675916154241527,
                -2.302928680582711
            ]
        },
        {
            "positions": [
                0.5804600915015072,
                -1.749913282623686,
                1.939538221838876,
                -0.2752445941541786,
                0.7024968803262178,
                -2.4164795509586976
            ]
        },
        {
            "positions": [
                0.5168214090660106,
                -1.7987394060472812,
                2.0618363228869154,
                -0.2941988845059487,
                0.7290776064109087,
                -2.530030421334685
            ]
        },
        {
            "positions": [
                0.4531827266305142,
                -1.8475655294708762,
                2.184134423934955,
                -0.3131531748577188,
                0.7556583324955995,
                -2.6435812917106714
            ]
        },
        {
            "positions": [
                0.38954404419501765,
                -1.8963916528944713,
                2.306432524982994,
                -0.33210746520948886,
                0.7822390585802903,
                -2.7571321620866582
            ]
        },
        {
            "positions": [
                0.4967938807602523,
                -1.90044438847035,
                2.3357867001354444,
                -0.3795630598303126,
                0.7625632630859517,
                -2.879477585736901
            ]
        },
        {
            "positions": [
                0.6040437173254871,
                -1.9044971240462287,
                2.3651408752878944,
                -0.42701865445113624,
                0.742887467591613,
                -3.001823009387143
            ]
        },
        {
            "positions": [
                0.7112935538907218,
                -1.9085498596221073,
                2.394495050440345,
                -0.47447424907195995,
                0.7232116720972743,
                -3.1241684330373856
            ]
        }
    ]
}