{
    "goal": {
        "global_pose": {
            "orientation": {
                "w": 0.5084816217422485,
                "x": -0.49083608388900757,
                "y": 0.5182115435600281,
                "z": -0.4816462993621826
            },
            "position": {
                "x": 0.5540239810943604,
                "y": 0.030875300988554955,
                "z": 0.16403168439865112
            }
        },
        "name": "move_to_storage_A"
    },
    "id": "STRIDE_move_to_storage_A_145",
    "joint_names": [
        "shoulder_pan_joint",
        "shoulder_lift_joint",
        "elbow_joint",
        "wrist_1_joint",
        "wrist_2_joint",
        "wrist_3_joint"
    ],
    "metrics": {
        "cart_traj_len": 0.35310054320212736,
        "distance_elbow_joint": 0.4497209190835214,
        "distance_shoulder_lift_joint": 0.2360431207812419,
        "distance_shoulder_pan_joint": 0.4633371448313028,
        "distance_wrist_1_joint": 0.24302423945643603,
        "distance_wrist_2_joint": 1.0923048321819748,
        "distance_wrist_3_joint": 0.09567080135323502,
        "smoothness": 1.332267640099491e-15,
        "time": 0.092136224,
        "traj_len": 1.6062692979969801,
        "weighted_distance": 2.0265171432861337
    },
    "planner": "STRIDE",
    "start": {
        "state": {
            "elbow_joint": 1.9715463870305268,
            "shoulder_lift_joint": -1.1394903361783484,
            "shoulder_pan_joint": 0.12281147578464417,
            "wrist_1_joint": -0.7804599489681411,
            "wrist_2_joint": 0.12958660307563738,
            "wrist_3_joint": -3.1924946282119055
        }
    },
    "waypoints": [
        {
            "positions": [
                0.12281147578464417,
                -1.1394903361783484,
                1.9715463870305268,
                -0.7804599489681411,
                0.12958660307563738,
                -3.1924946282119055
            ]
        },
        {
            "positions": [
                0.056620455094458066,
                -1.1732107820042401,
                2.035792232613887,
                -0.8151776974619177,
                0.28563015053020524,
                -3.1788273708757293
            ]
        },
        {
            "positions": [
                -0.00957056559572804,
                -1.2069312278301318,
                2.100038078197247,
                -0.8498954459556942,
                0.4416736979847731,
                -3.1651601135395526
            ]
        },
        {
            "positions": [
                -0.07576158628591416,
                -1.2406516736560236,
                2.1642839237806073,
                -0.8846131944494708,
                0.5977172454393409,
                -3.1514928562033764
            ]
        },
        {
            "positions": [
                -0.14195260697610024,
                -1.274372119481915,
                2.2285297693639676,
                -0.9193309429432474,
                0.7537607928939087,
                -3.1378255988671997
            ]
        },
        {
            "positions": [
                -0.20814362766628636,
                -1.3080925653078068,
                2.292775614947328,
                -0.954048691437024,
                0.9098043403484766,
                -3.1241583415310235
            ]
        },
        {
            "positions": [
                -0.2743346483564725,
                -1.3418130111336986,
                2.357021460530688,
                -0.9887664399308005,
                1.0658478878030444,
                -3.1104910841948468
            ]
        },
        {
            "positions": [
                -0.3405256690466586,
                -1.3755334569595903,
                2.421267306114048,
                -1.0234841884245771,
                1.2218914352576122,
                -3.0968238268586705
            ]
        }
    ]
}