{
    "goal": {
        "global_pose": {
            "orientation": {
                "w": 0.7031023502349854,
                "x": -0.7110244035720825,
                "y": 0.007748599164187908,
                "z": 0.005598929710686207
            },
            "position": {
                "x": 0.11585023208521307,
                "y": 0.44412534475326537,
                "z": 0.3711530566215515
            }
        },
        "name": "move_to_auspresseinheit_A"
    },
    "id": "STRIDE_move_to_auspresseinheit_A_141",
    "joint_names": [
        "shoulder_pan_joint",
        "shoulder_lift_joint",
        "elbow_joint",
        "wrist_1_joint",
        "wrist_2_joint",
        "wrist_3_joint"
    ],
    "metrics": {
        "cart_traj_len": 3.34133573609188,
        "distance_elbow_joint": 1.0739083666663056,
        "distance_shoulder_lift_joint": 3.236184874204087,
        "distance_shoulder_pan_joint": 5.575983946444374,
        "distance_wrist_1_joint": 3.3343375728058993,
        "distance_wrist_2_joint": 2.2554753871523516,
        "distance_wrist_3_joint": 10.54148791802247,
        "smoothness": 0.6939865075204845,
        "time": 0.606660514,
        "traj_len": 5.100723288446011,
        "weighted_distance": 7.258799271318824
    },
    "planner": "STRIDE",
    "start": {
        "state": {
            "elbow_joint": 2.422574709923281,
            "shoulder_lift_joint": -1.3736533754116391,
            "shoulder_pan_joint": -0.33786336945926293,
            "wrist_1_joint": -1.0288603412921917,
            "wrist_2_joint": 1.2330224858903978,
            "wrist_3_joint": -3.094022268022082
        }
    },
    "waypoints": [
        {
            "positions": [
                -0.33786336945926293,
                -1.3736533754116391,
                2.422574709923281,
                -1.0288603412921917,
                1.2330224858903978,
                -3.094022268022082
            ]
        },
        {
            "positions": [
                -0.2632474968370062,
                -1.4421302251969248,
                2.381831762123053,
                -0.9918167016859033,
                1.1719062876862365,
                -3.0007112010219106
            ]
        },
        {
            "positions": [
                -0.18863162421474944,
                -1.5106070749822105,
                2.341088814322825,
                -0.9547730620796149,
                1.1107900894820752,
                -2.907400134021739
            ]
        },
        {
            "positions": [
                -0.11401575159249269,
                -1.5790839247674961,
                2.300345866522597,
                -0.9177294224733265,
                1.0496738912779142,
                -2.8140890670215675
            ]
        },
        {
            "positions": [
                -0.039399878970235946,
                -1.6475607745527818,
                2.259602918722369,
                -0.880685782867038,
                0.988557693073753,
                -2.720778000021396
            ]
        },
        {
            "positions": [
                0.03521599365202077,
                -1.7160376243380675,
                2.2188599709221406,
                -0.8436421432607495,
                0.9274414948695917,
                -2.6274669330212244
            ]
        },
        {
            "positions": [
                0.10983186627427755,
                -1.7845144741233532,
                2.1781170231219127,
                -0.8065985036544612,
                0.8663252966654306,
                -2.534155866021053
            ]
        },
        {
            "positions": [
                0.18444773889653426,
                -1.8529913239086389,
                2.1373740753216848,
                -0.7695548640481726,
                0.8052090984612694,
                -2.4408447990208813
            ]
        },
        {
            "positions": [
                0.25906361151879104,
                -1.9214681736939245,
                2.096631127521457,
                -0.7325112244418842,
                0.7440929002571082,
                -2.3475337320207097
            ]
        },
        {
            "positions": [
                0.3336794841410477,
                -1.9899450234792102,
                2.0558881797212285,
                -0.6954675848355958,
                0.682976702052947,
                -2.254222665020538
            ]
        },
        {
            "positions": [
                0.4082953567633045,
                -2.058421873264496,
                2.0151452319210006,
                -0.6584239452293074,
                0.6218605038487858,
                -2.1609115980203666
            ]
        },
        {
            "positions": [
                0.48291122938556125,
                -2.1268987230497816,
                1.9744022841207725,
                -0.6213803056230189,
                0.5607443056446246,
                -2.067600531020195
            ]
        },
        {
            "positions": [
                0.5575271020078181,
                -2.1953755728350672,
                1.9336593363205443,
                -0.5843366660167305,
                0.4996281074404634,
                -1.9742894640200235
            ]
        },
        {
            "positions": [
                0.6321429746300746,
                -2.263852422620353,
                1.8929163885203164,
                -0.5472930264104421,
                0.43851190923630223,
                -1.880978397019852
            ]
        },
        {
            "positions": [
                0.54490420372079,
                -2.211942177568823,
                1.9130903209804035,
                -0.49120664256056823,
                0.41538043062313007,
                -1.7254685900638995
            ]
        },
        {
            "positions": [
                0.4576654328115053,
                -2.160031932517293,
                1.9332642534404907,
                -0.4351202587106943,
                0.3922489520099579,
                -1.5699587831079471
            ]
        },
        {
            "positions": [
                0.3704266619022206,
                -2.108121687465763,
                1.9534381859005778,
                -0.3790338748608204,
                0.36911747339678574,
                -1.4144489761519945
            ]
        },
        {
            "positions": [
                0.28318789099293595,
                -2.0562114424142335,
                1.973612118360665,
                -0.32294749101094655,
                0.3459859947836136,
                -1.258939169196042
            ]
        },
        {
            "positions": [
                0.19594912008365128,
                -2.0043011973627034,
                1.993786050820752,
                -0.26686110716107264,
                0.3228545161704414,
                -1.1034293622400897
            ]
        },
        {
            "positions": [
                0.10871034917436662,
                -1.9523909523111735,
                2.0139599832808392,
                -0.21077472331119879,
                0.29972303755726926,
                -0.9479195552841372
            ]
        },
        {
            "positions": [
                0.02147157826508206,
                -1.9004807072596437,
                2.0341339157409264,
                -0.15468833946132493,
                0.2765915589440971,
                -0.7924097483281849
            ]
        },
        {
            "positions": [
                -0.06576719264420272,
                -1.8485704622081138,
                2.0543078482010135,
                -0.09860195561145102,
                0.25346008033092493,
                -0.6368999413722323
            ]
        },
        {
            "positions": [
                -0.15300596355348728,
                -1.796660217156584,
                2.0744817806611007,
                -0.042515571761577164,
                0.23032860171775277,
                -0.48139013441627987
            ]
        },
        {
            "positions": [
                -0.24024473446277206,
                -1.744749972105054,
                2.094655713121188,
                0.013570812088296802,
                0.2071971231045806,
                -0.32588032746032725
            ]
        },
        {
            "positions": [
                -0.3274835053720566,
                -1.6928397270535243,
                2.114829645581275,
                0.06965719593817055,
                0.18406564449140844,
                -0.17037052050437507
            ]
        },
        {
            "positions": [
                -0.4147222762813414,
                -1.6409294820019942,
                2.135003578041362,
                0.1257435797880445,
                0.16093416587823628,
                -0.014860713548422444
            ]
        },
        {
            "positions": [
                -0.501961047190626,
                -1.5890192369504643,
                2.1551775105014492,
                0.18182996363791837,
                0.13780268726506412,
                0.14064909340752996
            ]
        },
        {
            "positions": [
                -0.5891998180999105,
                -1.5371089918989345,
                2.175351442961536,
                0.23791634748779222,
                0.11467120865189195,
                0.29615890036348214
            ]
        },
        {
            "positions": [
                -0.6764385890091951,
                -1.4851987468474046,
                2.195525375421623,
                0.2940027313376661,
                0.09153973003871985,
                0.45166870731943476
            ]
        },
        {
            "positions": [
                -0.7636773599184801,
                -1.4332885017958747,
                2.21569930788171,
                0.35008911518754005,
                0.06840825142554763,
                0.6071785142753874
            ]
        },
        {
            "positions": [
                -0.8509161308277646,
                -1.3813782567443447,
                2.2358732403417974,
                0.4061754990374139,
                0.045276772812375465,
                0.76268832123134
            ]
        },
        {
            "positions": [
                -0.9381549017370492,
                -1.329468011692815,
                2.2560471728018845,
                0.46226188288728776,
                0.022145294199203303,
                0.9181981281872922
            ]
        },
        {
            "positions": [
                -1.0253936726463337,
                -1.277557766641285,
                2.2762211052619716,
                0.5183482667371615,
                -0.0009861844139688603,
                1.0737079351432444
            ]
        },
        {
            "positions": [
                -1.1126324435556187,
                -1.225647521589755,
                2.2963950377220588,
                0.5744346505870357,
                -0.024117663027141023,
                1.2292177420991974
            ]
        },
        {
            "positions": [
                -1.1998712144649033,
                -1.1737372765382252,
                2.316568970182146,
                0.6305210344369094,
                -0.047249141640313186,
                1.3847275490551496
            ]
        },
        {
            "positions": [
                -1.2871099853741879,
                -1.1218270314866954,
                2.336742902642233,
                0.6866074182867832,
                -0.07038062025348535,
                1.5402373560111018
            ]
        },
        {
            "positions": [
                -1.3743487562834724,
                -1.0699167864351655,
                2.35691683510232,
                0.7426938021366571,
                -0.09351209886665746,
                1.6957471629670544
            ]
        },
        {
            "positions": [
                -1.4615875271927574,
                -1.0180065413836354,
                2.3770907675624073,
                0.7987801859865311,
                -0.11664357747982967,
                1.851256969923007
            ]
        },
        {
            "positions": [
                -1.548826298102042,
                -0.9660962963321056,
                2.3972647000224945,
                0.8548665698364051,
                -0.1397750560930019,
                2.0067667768789597
            ]
        },
        {
            "positions": [
                -1.6360650690113263,
                -0.9141860512805757,
                2.4174386324825816,
                0.9109529536862788,
                -0.162906534706174,
                2.162276583834912
            ]
        },
        {
            "positions": [
                -1.5525732990572678,
                -0.9497688889825613,
                2.4167340681504004,
                0.8611485151924421,
                -0.13220845018632474,
                1.9735198314718592
            ]
        },
        {
            "positions": [
                -1.4690815291032093,
                -0.9853517266845467,
                2.416029503818219,
                0.8113440766986054,
                -0.10151036566647545,
                1.7847630791088065
            ]
        },
        {
            "positions": [
                -1.3855897591491506,
                -1.0209345643865322,
                2.415324939486038,
                0.7615396382047687,
                -0.07081228114662619,
                1.5960063267457536
            ]
        },
        {
            "positions": [
                -1.3020979891950921,
                -1.0565174020885177,
                2.4146203751538566,
                0.711735199710932,
                -0.04011419662677691,
                1.4072495743827012
            ]
        },
        {
            "positions": [
                -1.2186062192410336,
                -1.0921002397905033,
                2.4139158108216754,
                0.6619307612170953,
                -0.009416112106927638,
                1.2184928220196483
            ]
        },
        {
            "positions": [
                -1.135114449286975,
                -1.1276830774924889,
                2.413211246489494,
                0.6121263227232585,
                0.021281972412921624,
                1.0297360696565956
            ]
        },
        {
            "positions": [
                -1.0516226793329164,
                -1.1632659151944744,
                2.4125066821573125,
                0.5623218842294219,
                0.05198005693277091,
                0.8409793172935429
            ]
        },
        {
            "positions": [
                -0.9681309093788579,
                -1.1988487528964598,
                2.411802117825131,
                0.5125174457355852,
                0.08267814145262017,
                0.6522225649304902
            ]
        },
        {
            "positions": [
                -0.8846391394247992,
                -1.2344315905984453,
                2.41109755349295,
                0.4627130072417484,
                0.11337622597246949,
                0.46346581256743735
            ]
        },
        {
            "positions": [
                -0.8011473694707407,
                -1.2700144283004309,
                2.4103929891607687,
                0.4129085687479117,
                0.14407431049231872,
                0.2747090602043847
            ]
        },
        {
            "positions": [
                -0.7176555995166822,
                -1.3055972660024162,
                2.4096884248285875,
                0.36310413025407506,
                0.174772395012168,
                0.08595230784133223
            ]
        },
        {
            "positions": [
                -0.6341638295626237,
                -1.3411801037044018,
                2.4089838604964062,
                0.3132996917602383,
                0.20547047953201725,
                -0.10280444452172066
            ]
        },
        {
            "positions": [
                -0.550672059608565,
                -1.3767629414063873,
                2.408279296164225,
                0.26349525326640155,
                0.2361685640518666,
                -0.29156119688477355
            ]
        },
        {
            "positions": [
                -0.46718028965450653,
                -1.412345779108373,
                2.4075747318320437,
                0.2136908147725649,
                0.2668666485717158,
                -0.480317949247826
            ]
        },
        {
            "positions": [
                -0.38368851970044804,
                -1.4479286168103584,
                2.4068701674998625,
                0.16388637627872826,
                0.29756473309156506,
                -0.6690747016108785
            ]
        },
        {
            "positions": [
                -0.30019674974638955,
                -1.4835114545123438,
                2.4061656031676812,
                0.11408193778489151,
                0.32826281761141435,
                -0.8578314539739313
            ]
        },
        {
            "positions": [
                -0.21670497979233105,
                -1.5190942922143293,
                2.4054610388355,
                0.06427749929105486,
                0.35896090213126364,
                -1.0465882063369838
            ]
        },
        {
            "positions": [
                -0.13321320983827212,
                -1.554677129916315,
                2.4047564745033188,
                0.014473060797217996,
                0.389658986651113,
                -1.2353449587000371
            ]
        },
        {
            "positions": [
                -0.049721439884213625,
                -1.5902599676183005,
                2.4040519101711375,
                -0.03533137769661865,
                0.4203570711709622,
                -1.4241017110630896
            ]
        },
        {
            "positions": [
                0.03377033006984487,
                -1.625842805320286,
                2.4033473458389563,
                -0.0851358161904554,
                0.45105515569081145,
                -1.6128584634261425
            ]
        },
        {
            "positions": [
                0.11726210002390336,
                -1.6614256430222714,
                2.402642781506775,
                -0.13494025468429216,
                0.4817532402106608,
                -1.801615215789195
            ]
        },
        {
            "positions": [
                0.20075386997796185,
                -1.697008480724257,
                2.4019382171745933,
                -0.1847446931781287,
                0.51245132473051,
                -1.9903719681522474
            ]
        },
        {
            "positions": [
                0.28424563993202034,
                -1.7325913184262425,
                2.401233652842412,
                -0.23454913167196545,
                0.5431494092503593,
                -2.1791287205153
            ]
        },
        {
            "positions": [
                0.36773740988607884,
                -1.7681741561282278,
                2.400529088510231,
                -0.2843535701658022,
                0.5738474937702085,
                -2.367885472878353
            ]
        },
        {
            "positions": [
                0.45122917984013755,
                -1.8037569938302136,
                2.3998245241780496,
                -0.33415800865963896,
                0.6045455782900578,
                -2.5566422252414056
            ]
        },
        {
            "positions": [
                0.5347209497941963,
                -1.839339831532199,
                2.3991199598458683,
                -0.3839624471534757,
                0.6352436628099072,
                -2.745398977604459
            ]
        },
        {
            "positions": [
                0.6182127197482545,
                -1.8749226692341847,
                2.398415395513687,
                -0.43376688564731225,
                0.6659417473297564,
                -2.9341557299675114
            ]
        },
        {
            "positions": [
                0.701704489702313,
                -1.91050550693617,
                2.397710831181506,
                -0.4835713241411489,
                0.6966398318496057,
                -3.1229124823305643
            ]
        }
    ]
}