{
    "goal": {
        "global_pose": {
            "orientation": {
                "w": 0.5084816217422485,
                "x": -0.49083608388900757,
                "y": 0.5182115435600281,
                "z": -0.4816462993621826
            },
            "position": {
                "x": 0.5540239810943604,
                "y": 0.030875300988554955,
                "z": 0.16403168439865112
            }
        },
        "name": "move_to_storage_A"
    },
    "id": "STRIDE_move_to_storage_A_123",
    "joint_names": [
        "shoulder_pan_joint",
        "shoulder_lift_joint",
        "elbow_joint",
        "wrist_1_joint",
        "wrist_2_joint",
        "wrist_3_joint"
    ],
    "metrics": {
        "cart_traj_len": 0.3536654137499026,
        "distance_elbow_joint": 0.4500802478140198,
        "distance_shoulder_lift_joint": 0.23286661912427786,
        "distance_shoulder_pan_joint": 0.46354074020868075,
        "distance_wrist_1_joint": 0.24643767183471488,
        "distance_wrist_2_joint": 1.0944437444936108,
        "distance_wrist_3_joint": 0.1003732468239158,
        "smoothness": 1.3322676295501878e-15,
        "time": 0.039899317,
        "traj_len": 1.6086460985248496,
        "weighted_distance": 2.032085180369016
    },
    "planner": "STRIDE",
    "start": {
        "state": {
            "elbow_joint": 1.9715463870305268,
            "shoulder_lift_joint": -1.1394903361783484,
            "shoulder_pan_joint": 0.12281147578464417,
            "wrist_1_joint": -0.7804599489681411,
            "wrist_2_joint": 0.12958660307563738,
            "wrist_3_joint": -3.1924946282119055
        }
    },
    "waypoints": [
        {
            "positions": [
                0.12281147578464417,
                -1.1394903361783484,
                1.9715463870305268,
                -0.7804599489681411,
                0.12958660307563738,
                -3.1924946282119055
            ]
        },
        {
            "positions": [
                0.05659137004054693,
                -1.1727569960532451,
                2.0358435652896723,
                -0.8156653306588146,
                0.2859357094318675,
                -3.178155592951346
            ]
        },
        {
            "positions": [
                -0.009628735703550315,
                -1.206023655928142,
                2.100140743548818,
                -0.8508707123494882,
                0.44228481578809764,
                -3.1638165576907866
            ]
        },
        {
            "positions": [
                -0.07584884144764757,
                -1.2392903158030388,
                2.1644379218079637,
                -0.8860760940401617,
                0.5986339221443278,
                -3.149477522430227
            ]
        },
        {
            "positions": [
                -0.1420689471917448,
                -1.2725569756779358,
                2.2287351000671096,
                -0.9212814757308353,
                0.7549830285005579,
                -3.135138487169668
            ]
        },
        {
            "positions": [
                -0.20828905293584205,
                -1.3058236355528325,
                2.293032278326255,
                -0.9564868574215089,
                0.911332134856788,
                -3.1207994519091087
            ]
        },
        {
            "positions": [
                -0.2745091586799393,
                -1.3390902954277295,
                2.3573294565854006,
                -0.9916922391121824,
                1.067681241213018,
                -3.106460416648549
            ]
        },
        {
            "positions": [
                -0.34072926442403656,
                -1.3723569553026262,
                2.4216266348445465,
                -1.026897620802856,
                1.2240303475692482,
                -3.0921213813879898
            ]
        }
    ]
}