{
    "goal": {
        "global_pose": {
            "orientation": {
                "w": 0.5084816217422485,
                "x": -0.49083608388900757,
                "y": 0.5182115435600281,
                "z": -0.4816462993621826
            },
            "position": {
                "x": 0.5540239810943604,
                "y": 0.030875300988554955,
                "z": 0.16403168439865112
            }
        },
        "name": "move_to_storage_A"
    },
    "id": "STRIDE_move_to_storage_A_84",
    "joint_names": [
        "shoulder_pan_joint",
        "shoulder_lift_joint",
        "elbow_joint",
        "wrist_1_joint",
        "wrist_2_joint",
        "wrist_3_joint"
    ],
    "metrics": {
        "cart_traj_len": 0.3532494959686502,
        "distance_elbow_joint": 0.44841348760979205,
        "distance_shoulder_lift_joint": 0.2332535414728114,
        "distance_shoulder_pan_joint": 0.4615299320753364,
        "distance_wrist_1_joint": 0.23718442930882533,
        "distance_wrist_2_joint": 1.1001992407226961,
        "distance_wrist_3_joint": 0.10230532525925717,
        "smoothness": 4.440892098500626e-16,
        "time": 0.033056394,
        "traj_len": 1.6071359483406245,
        "weighted_distance": 2.0309801271796712
    },
    "planner": "STRIDE",
    "start": {
        "state": {
            "elbow_joint": 1.9715463870305268,
            "shoulder_lift_joint": -1.1394903361783484,
            "shoulder_pan_joint": 0.12281147578464417,
            "wrist_1_joint": -0.7804599489681411,
            "wrist_2_joint": 0.12958660307563738,
            "wrist_3_joint": -3.1924946282119055
        }
    },
    "waypoints": [
        {
            "positions": [
                0.12281147578464417,
                -1.1394903361783484,
                1.9715463870305268,
                -0.7804599489681411,
                0.12958660307563738,
                -3.1924946282119055
            ]
        },
        {
            "positions": [
                0.056878628345310406,
                -1.1728122706744644,
                2.0356054566890687,
                -0.8143434388694019,
                0.2867579231788797,
                -3.1778795817462973
            ]
        },
        {
            "positions": [
                -0.00905421909402336,
                -1.2061342051705801,
                2.09966452634761,
                -0.8482269287706626,
                0.443929243282122,
                -3.1632645352806894
            ]
        },
        {
            "positions": [
                -0.07498706653335711,
                -1.239456139666696,
                2.163723596006152,
                -0.8821104186719233,
                0.6011005633853643,
                -3.148649488815081
            ]
        },
        {
            "positions": [
                -0.14091991397269088,
                -1.272778074162812,
                2.2277826656646935,
                -0.9159939085731841,
                0.7582718834886066,
                -3.134034442349473
            ]
        },
        {
            "positions": [
                -0.2068527614120247,
                -1.306100008658928,
                2.2918417353232354,
                -0.9498773984744449,
                0.9154432035918489,
                -3.1194193958838645
            ]
        },
        {
            "positions": [
                -0.2727856088513584,
                -1.3394219431550438,
                2.355900804981777,
                -0.9837608883757056,
                1.0726145236950912,
                -3.1048043494182567
            ]
        },
        {
            "positions": [
                -0.3387184562906922,
                -1.3727438776511598,
                2.419959874640319,
                -1.0176443782769664,
                1.2297858437983336,
                -3.0901893029526484
            ]
        }
    ]
}