{
    "goal": {
        "global_pose": {
            "orientation": {
                "w": 0.7031023502349854,
                "x": -0.7110244035720825,
                "y": 0.007748599164187908,
                "z": 0.005598929710686207
            },
            "position": {
                "x": 0.11585023208521307,
                "y": 0.44412534475326537,
                "z": 0.3711530566215515
            }
        },
        "name": "move_to_auspresseinheit_A"
    },
    "id": "STRIDE_move_to_auspresseinheit_A_110",
    "joint_names": [
        "shoulder_pan_joint",
        "shoulder_lift_joint",
        "elbow_joint",
        "wrist_1_joint",
        "wrist_2_joint",
        "wrist_3_joint"
    ],
    "metrics": {
        "cart_traj_len": 0.9510914225362558,
        "distance_elbow_joint": 0.33382344541870523,
        "distance_shoulder_lift_joint": 0.7300330560069312,
        "distance_shoulder_pan_joint": 1.654662439885315,
        "distance_wrist_1_joint": 0.5514770057435203,
        "distance_wrist_2_joint": 0.5273783056985918,
        "distance_wrist_3_joint": 0.24381093489184202,
        "smoothness": 0.9901806646492265,
        "time": 0.345967119,
        "traj_len": 2.0102699290505504,
        "weighted_distance": 2.3680503307300507
    },
    "planner": "STRIDE",
    "start": {
        "state": {
            "elbow_joint": 2.422574709923281,
            "shoulder_lift_joint": -1.3736533754116391,
            "shoulder_pan_joint": -0.33786336945926293,
            "wrist_1_joint": -1.0288603412921917,
            "wrist_2_joint": 1.2330224858903978,
            "wrist_3_joint": -3.094022268022082
        }
    },
    "waypoints": [
        {
            "positions": [
                -0.33786336945926293,
                -1.3736533754116391,
                2.422574709923281,
                -1.0288603412921917,
                1.2330224858903978,
                -3.094022268022082
            ]
        },
        {
            "positions": [
                -0.3989690427786113,
                -1.3544248260411795,
                2.3864583011372797,
                -0.9203267661498502,
                1.1294875972646063,
                -3.0725290170387254
            ]
        },
        {
            "positions": [
                -0.46007471609795964,
                -1.33519627667072,
                2.3503418923512784,
                -0.8117931910075087,
                1.025952708638815,
                -3.051035766055369
            ]
        },
        {
            "positions": [
                -0.5211803894173079,
                -1.3159677273002606,
                2.314225483565277,
                -0.7032596158651672,
                0.9224178200130237,
                -3.0295425150720123
            ]
        },
        {
            "positions": [
                -0.5822860627366563,
                -1.296739177929801,
                2.278109074779276,
                -0.5947260407228256,
                0.8188829313872323,
                -3.008049264088656
            ]
        },
        {
            "positions": [
                -0.6433917360560046,
                -1.2775106285593414,
                2.2419926659932745,
                -0.48619246558048423,
                0.7153480427614409,
                -2.9865560131052993
            ]
        },
        {
            "positions": [
                -0.4185360571745758,
                -1.383159013418447,
                2.267532899574724,
                -0.48472427724184874,
                0.7137307323331684,
                -3.0092801264344757
            ]
        },
        {
            "positions": [
                -0.193680378293147,
                -1.4888073982775525,
                2.2930731331561742,
                -0.48325608890321325,
                0.7121134219048959,
                -3.032004239763652
            ]
        },
        {
            "positions": [
                0.031175300588281885,
                -1.5944557831366581,
                2.318613366737624,
                -0.48178790056457776,
                0.7104961114766235,
                -3.0547283530928286
            ]
        },
        {
            "positions": [
                0.25603097946971065,
                -1.7001041679957636,
                2.3441536003190735,
                -0.48031971222594233,
                0.708878801048351,
                -3.0774524664220055
            ]
        },
        {
            "positions": [
                0.48088665835113953,
                -1.8057525528548695,
                2.3696938339005236,
                -0.47885152388730684,
                0.7072614906200785,
                -3.100176579751182
            ]
        },
        {
            "positions": [
                0.7057423372325684,
                -1.911400937713975,
                2.395234067481973,
                -0.47738333554867135,
                0.705644180191806,
                -3.1229006930803584
            ]
        }
    ]
}