{
    "goal": {
        "global_pose": {
            "orientation": {
                "w": 0.7047431468963623,
                "x": -0.7094548344612122,
                "y": 0.0024358443915843964,
                "z": -0.0022348060738295317
            },
            "position": {
                "x": 0.6094750761985779,
                "y": 0.3671506643295288,
                "z": 0.19426114857196808
            }
        },
        "name": "move_to_magneteinheit_A"
    },
    "id": "STRIDE_move_to_magneteinheit_A_63",
    "joint_names": [
        "shoulder_pan_joint",
        "shoulder_lift_joint",
        "elbow_joint",
        "wrist_1_joint",
        "wrist_2_joint",
        "wrist_3_joint"
    ],
    "metrics": {
        "cart_traj_len": 2.062952637815193,
        "distance_elbow_joint": 3.8752482767387253,
        "distance_shoulder_lift_joint": 1.054543271519979,
        "distance_shoulder_pan_joint": 1.2418471721533975,
        "distance_wrist_1_joint": 1.1305957090819194,
        "distance_wrist_2_joint": 1.441801217007152,
        "distance_wrist_3_joint": 1.9112820622891902,
        "smoothness": 6.026925012387961e-16,
        "time": 0.12739629400000002,
        "traj_len": 3.264248414074879,
        "weighted_distance": 4.129198319221034
    },
    "planner": "STRIDE",
    "start": {
        "state": {
            "elbow_joint": -1.919643507792019,
            "shoulder_lift_joint": -0.07675430207160344,
            "shoulder_pan_joint": -1.1188671864651873,
            "wrist_1_joint": 0.42560062535961957,
            "wrist_2_joint": 1.5706038300724876,
            "wrist_3_joint": 1.1188968870953055
        }
    },
    "waypoints": [
        {
            "positions": [
                -1.1188671864651873,
                -0.07675430207160344,
                -1.919643507792019,
                0.42560062535961957,
                1.5706038300724876,
                1.1188968870953055
            ]
        },
        {
            "positions": [
                -1.0728728467558022,
                -0.1158114602760471,
                -1.7761157938387329,
                0.38372671020843735,
                1.5172037849981486,
                1.1896851116245348
            ]
        },
        {
            "positions": [
                -1.0268785070464173,
                -0.15486861848049077,
                -1.6325880798854469,
                0.3418527950572552,
                1.4638037399238097,
                1.2604733361537641
            ]
        },
        {
            "positions": [
                -0.9808841673370321,
                -0.19392577668493444,
                -1.4890603659321608,
                0.29997887990607297,
                1.4104036948494707,
                1.3312615606829934
            ]
        },
        {
            "positions": [
                -0.9348898276276469,
                -0.2329829348893781,
                -1.3455326519788746,
                0.25810496475489075,
                1.3570036497751317,
                1.4020497852122227
            ]
        },
        {
            "positions": [
                -0.8888954879182619,
                -0.27204009309382177,
                -1.2020049380255884,
                0.21623104960370856,
                1.3036036047007928,
                1.472838009741452
            ]
        },
        {
            "positions": [
                -0.8429011482088768,
                -0.31109725129826543,
                -1.0584772240723024,
                0.17435713445252637,
                1.2502035596264538,
                1.5436262342706812
            ]
        },
        {
            "positions": [
                -0.7969068084994917,
                -0.3501544095027091,
                -0.9149495101190164,
                0.13248321930134416,
                1.196803514552115,
                1.6144144587999103
            ]
        },
        {
            "positions": [
                -0.7509124687901066,
                -0.38921156770715276,
                -0.7714217961657301,
                0.090609304150162,
                1.143403469477776,
                1.6852026833291398
            ]
        },
        {
            "positions": [
                -0.7049181290807216,
                -0.4282687259115964,
                -0.6278940822124441,
                0.04873538899897978,
                1.0900034244034371,
                1.7559909078583689
            ]
        },
        {
            "positions": [
                -0.6589237893713364,
                -0.4673258841160401,
                -0.4843663682591579,
                0.006861473847797561,
                1.036603379329098,
                1.8267791323875981
            ]
        },
        {
            "positions": [
                -0.6129294496619514,
                -0.5063830423204838,
                -0.3408386543058719,
                -0.0350124413033846,
                0.983203334254759,
                1.8975673569168274
            ]
        },
        {
            "positions": [
                -0.5669351099525662,
                -0.5454402005249275,
                -0.19731094035258567,
                -0.07688635645456682,
                0.9298032891804201,
                1.9683555814460567
            ]
        },
        {
            "positions": [
                -0.5209407702431812,
                -0.5844973587293711,
                -0.053783226399299666,
                -0.11876027160574903,
                0.8764032441060812,
                2.0391438059752858
            ]
        },
        {
            "positions": [
                -0.47494643053379615,
                -0.6235545169338148,
                0.08974448755398634,
                -0.16063418675693125,
                0.8230031990317422,
                2.109932030504515
            ]
        },
        {
            "positions": [
                -0.428952090824411,
                -0.6626116751382585,
                0.2332722015072728,
                -0.20250810190811347,
                0.7696031539574032,
                2.1807202550337443
            ]
        },
        {
            "positions": [
                -0.38295775111502595,
                -0.7016688333427021,
                0.3767999154605588,
                -0.24438201705929558,
                0.7162031088830643,
                2.2515084795629736
            ]
        },
        {
            "positions": [
                -0.3369634114056408,
                -0.7407259915471458,
                0.5203276294138452,
                -0.2862559322104779,
                0.6628030638087252,
                2.322296704092203
            ]
        },
        {
            "positions": [
                -0.29096907169625574,
                -0.7797831497515895,
                0.6638553433671308,
                -0.32812984736166,
                0.6094030187343864,
                2.393084928621432
            ]
        },
        {
            "positions": [
                -0.2449747319868706,
                -0.8188403079560331,
                0.8073830573204173,
                -0.3700037625128422,
                0.5560029736600474,
                2.4638731531506615
            ]
        },
        {
            "positions": [
                -0.19898039227748554,
                -0.8578974661604768,
                0.9509107712737033,
                -0.41187767766402444,
                0.5026029285857085,
                2.5346613776798907
            ]
        },
        {
            "positions": [
                -0.15298605256810038,
                -0.8969546243649205,
                1.0944384852269897,
                -0.45375159281520666,
                0.4492028835113695,
                2.60544960220912
            ]
        },
        {
            "positions": [
                -0.10699171285871545,
                -0.9360117825693641,
                1.2379661991802753,
                -0.49562550796638877,
                0.39580283843703046,
                2.6762378267383493
            ]
        },
        {
            "positions": [
                -0.06099737314933029,
                -0.9750689407738078,
                1.3814939131335617,
                -0.5374994231175712,
                0.3424027933626914,
                2.7470260512675786
            ]
        },
        {
            "positions": [
                -0.015003033439945135,
                -1.0141260989782515,
                1.5250216270868477,
                -0.5793733382687531,
                0.2890027482883526,
                2.817814275796808
            ]
        },
        {
            "positions": [
                0.030991306269440022,
                -1.0531832571826951,
                1.6685493410401342,
                -0.6212472534199354,
                0.23560270321401355,
                2.888602500326037
            ]
        },
        {
            "positions": [
                0.07698564597882496,
                -1.0922404153871388,
                1.8120770549934198,
                -0.6631211685711176,
                0.18220265813967473,
                2.9593907248552664
            ]
        },
        {
            "positions": [
                0.12297998568821017,
                -1.1312975735915825,
                1.9556047689467062,
                -0.7049950837222998,
                0.12880261306533564,
                3.0301789493844957
            ]
        }
    ]
}