{
    "goal": {
        "global_pose": {
            "orientation": {
                "w": 0.7031023502349854,
                "x": -0.7110244035720825,
                "y": 0.007748599164187908,
                "z": 0.005598929710686207
            },
            "position": {
                "x": 0.11585023208521307,
                "y": 0.44412534475326537,
                "z": 0.3711530566215515
            }
        },
        "name": "move_to_auspresseinheit_A"
    },
    "id": "STRIDE_move_to_auspresseinheit_A_16",
    "joint_names": [
        "shoulder_pan_joint",
        "shoulder_lift_joint",
        "elbow_joint",
        "wrist_1_joint",
        "wrist_2_joint",
        "wrist_3_joint"
    ],
    "metrics": {
        "cart_traj_len": 2.166052951685053,
        "distance_elbow_joint": 1.9544403199072047,
        "distance_shoulder_lift_joint": 0.8184846374961148,
        "distance_shoulder_pan_joint": 1.893433301495433,
        "distance_wrist_1_joint": 2.265739871486998,
        "distance_wrist_2_joint": 1.9437485998863477,
        "distance_wrist_3_joint": 3.496162837326101,
        "smoothness": 0.7285899797814024,
        "time": 0.449657209,
        "traj_len": 3.5173867526330116,
        "weighted_distance": 4.8552882214780775
    },
    "planner": "STRIDE",
    "start": {
        "state": {
            "elbow_joint": 2.422574709923281,
            "shoulder_lift_joint": -1.3736533754116391,
            "shoulder_pan_joint": -0.33786336945926293,
            "wrist_1_joint": -1.0288603412921917,
            "wrist_2_joint": 1.2330224858903978,
            "wrist_3_joint": -3.094022268022082
        }
    },
    "waypoints": [
        {
            "positions": [
                -0.33786336945926293,
                -1.3736533754116391,
                2.422574709923281,
                -1.0288603412921917,
                1.2330224858903978,
                -3.094022268022082
            ]
        },
        {
            "positions": [
                -0.2834493422606231,
                -1.3662493039925787,
                2.332285686272479,
                -1.0754008425461814,
                1.1660002138701415,
                -2.990290546149106
            ]
        },
        {
            "positions": [
                -0.22903531506198335,
                -1.3588452325735185,
                2.241996662621677,
                -1.1219413438001713,
                1.0989779418498853,
                -2.8865588242761295
            ]
        },
        {
            "positions": [
                -0.17462128786334358,
                -1.3514411611544581,
                2.1517076389708754,
                -1.168481845054161,
                1.0319556698296293,
                -2.7828271024031532
            ]
        },
        {
            "positions": [
                -0.12020726066470377,
                -1.3440370897353977,
                2.0614186153200733,
                -1.2150223463081506,
                0.964933397809373,
                -2.679095380530177
            ]
        },
        {
            "positions": [
                -0.06579323346606403,
                -1.3366330183163375,
                1.9711295916692713,
                -1.2615628475621403,
                0.8979111257891168,
                -2.5753636586572006
            ]
        },
        {
            "positions": [
                -0.011379206267424224,
                -1.329228946897277,
                1.8808405680184694,
                -1.3081033488161302,
                0.8308888537688606,
                -2.4716319367842248
            ]
        },
        {
            "positions": [
                0.04303482093121558,
                -1.321824875478217,
                1.7905515443676674,
                -1.35464385007012,
                0.7638665817486043,
                -2.367900214911248
            ]
        },
        {
            "positions": [
                0.09744884812985538,
                -1.3144208040591565,
                1.7002625207168656,
                -1.4011843513241096,
                0.6968443097283482,
                -2.2641684930382717
            ]
        },
        {
            "positions": [
                0.15186287532849518,
                -1.307016732640096,
                1.6099734970660635,
                -1.4477248525780992,
                0.629822037708092,
                -2.1604367711652954
            ]
        },
        {
            "positions": [
                0.20627690252713488,
                -1.299612661221036,
                1.5196844734152615,
                -1.4942653538320891,
                0.5627997656878359,
                -2.0567050492923196
            ]
        },
        {
            "positions": [
                0.2606909297257747,
                -1.2922085898019755,
                1.4293954497644596,
                -1.5408058550860788,
                0.4957774936675796,
                -1.952973327419343
            ]
        },
        {
            "positions": [
                0.3282706098070287,
                -1.3626432515496072,
                1.4412220051921762,
                -1.4416684719576993,
                0.43294001179391306,
                -1.8798556897162246
            ]
        },
        {
            "positions": [
                0.3958502898882828,
                -1.4330779132972389,
                1.4530485606198928,
                -1.3425310888293198,
                0.3701025299202465,
                -1.806738052013106
            ]
        },
        {
            "positions": [
                0.4634299699695369,
                -1.5035125750448706,
                1.4648751160476094,
                -1.2433937057009403,
                0.30726504804658,
                -1.7336204143099876
            ]
        },
        {
            "positions": [
                0.5310096500507909,
                -1.5739472367925025,
                1.4767016714753263,
                -1.1442563225725608,
                0.24442756617291345,
                -1.6605027766068692
            ]
        },
        {
            "positions": [
                0.598589330132045,
                -1.644381898540134,
                1.4885282269030429,
                -1.0451189394441813,
                0.1815900842992469,
                -1.5873851389037505
            ]
        },
        {
            "positions": [
                0.6661690102132991,
                -1.7148165602877659,
                1.5003547823307595,
                -0.9459815563158019,
                0.11875260242558039,
                -1.5142675012006321
            ]
        },
        {
            "positions": [
                0.7337486902945531,
                -1.7852512220353975,
                1.512181337758476,
                -0.8468441731874224,
                0.05591512055191383,
                -1.4411498634975137
            ]
        },
        {
            "positions": [
                0.8013283703758072,
                -1.8556858837830292,
                1.5240078931861927,
                -0.747706790059043,
                -0.006922361321752675,
                -1.368032225794395
            ]
        },
        {
            "positions": [
                0.7553705456679679,
                -1.8715028639781164,
                1.5738538795469157,
                -0.6731970265218017,
                0.038496769824660285,
                -1.4764382216874792
            ]
        },
        {
            "positions": [
                0.7094127209601286,
                -1.8873198441732033,
                1.6236998659076387,
                -0.5986872629845605,
                0.08391590097107324,
                -1.584844217580563
            ]
        },
        {
            "positions": [
                0.6634548962522893,
                -1.9031368243682905,
                1.6735458522683617,
                -0.5241774994473194,
                0.1293350321174862,
                -1.6932502134736471
            ]
        },
        {
            "positions": [
                0.61749707154445,
                -1.9189538045633774,
                1.7233918386290847,
                -0.44966773591007814,
                0.17475416326389917,
                -1.801656209366731
            ]
        },
        {
            "positions": [
                0.5715392468366107,
                -1.9347707847584645,
                1.773237824989808,
                -0.3751579723728369,
                0.22017329441031214,
                -1.910062205259815
            ]
        },
        {
            "positions": [
                0.5255814221287713,
                -1.9505877649535515,
                1.823083811350531,
                -0.30064820883559573,
                0.2655924255567251,
                -2.018468201152899
            ]
        },
        {
            "positions": [
                0.4796235974209321,
                -1.9664047451486386,
                1.872929797711254,
                -0.22613844529835447,
                0.31101155670313807,
                -2.126874197045983
            ]
        },
        {
            "positions": [
                0.4586428284140063,
                -1.9668035051198907,
                1.9501859309723817,
                -0.20516243816761268,
                0.3802093148362391,
                -2.292001739866339
            ]
        },
        {
            "positions": [
                0.4376620594070805,
                -1.9672022650911427,
                2.0274420642335094,
                -0.18418643103687088,
                0.4494070729693401,
                -2.4571292826866946
            ]
        },
        {
            "positions": [
                0.41668129040015467,
                -1.9676010250623945,
                2.1046981974946366,
                -0.16321042390612908,
                0.518604831102441,
                -2.6222568255070504
            ]
        },
        {
            "positions": [
                0.3957005213932288,
                -1.9679997850336466,
                2.1819543307557643,
                -0.14223441677538728,
                0.5878025892355421,
                -2.7873843683274067
            ]
        },
        {
            "positions": [
                0.374719752386303,
                -1.9683985450048986,
                2.259210464016892,
                -0.12125840964464547,
                0.6570003473686431,
                -2.9525119111477625
            ]
        },
        {
            "positions": [
                0.48393073360992234,
                -1.9481152461103892,
                2.3030258125155423,
                -0.23267404706187114,
                0.670294028696577,
                -3.0144096143961114
            ]
        },
        {
            "positions": [
                0.5931417148335416,
                -1.92783194721588,
                2.3468411610141926,
                -0.3440896844790968,
                0.6835877100245107,
                -3.0763073176444604
            ]
        },
        {
            "positions": [
                0.702352696057161,
                -1.9075486483213706,
                2.390656509512843,
                -0.4555053218963225,
                0.6968813913524445,
                -3.1382050208928094
            ]
        }
    ]
}