{
    "goal": {
        "global_pose": {
            "orientation": {
                "w": 0.7047431468963623,
                "x": -0.7094548344612122,
                "y": 0.0024358443915843964,
                "z": -0.0022348060738295317
            },
            "position": {
                "x": 0.6094750761985779,
                "y": 0.3671506643295288,
                "z": 0.19426114857196808
            }
        },
        "name": "move_to_magneteinheit_A"
    },
    "id": "STRIDE_move_to_magneteinheit_A_38",
    "joint_names": [
        "shoulder_pan_joint",
        "shoulder_lift_joint",
        "elbow_joint",
        "wrist_1_joint",
        "wrist_2_joint",
        "wrist_3_joint"
    ],
    "metrics": {
        "cart_traj_len": 2.57603557292615,
        "distance_elbow_joint": 3.8894620676515776,
        "distance_shoulder_lift_joint": 1.061578651910158,
        "distance_shoulder_pan_joint": 3.163731968869977,
        "distance_wrist_1_joint": 3.0445160164759666,
        "distance_wrist_2_joint": 1.4498663500646298,
        "distance_wrist_3_joint": 4.302828816497212,
        "smoothness": 0.21567643083077273,
        "time": 0.10377846800000001,
        "traj_len": 4.112418251037888,
        "weighted_distance": 5.478323089322547
    },
    "planner": "STRIDE",
    "start": {
        "state": {
            "elbow_joint": -1.919643507792019,
            "shoulder_lift_joint": -0.07675430207160344,
            "shoulder_pan_joint": -1.1188671864651873,
            "wrist_1_joint": 0.42560062535961957,
            "wrist_2_joint": 1.5706038300724876,
            "wrist_3_joint": 1.1188968870953055
        }
    },
    "waypoints": [
        {
            "positions": [
                -1.1188671864651873,
                -0.07675430207160344,
                -1.919643507792019,
                0.42560062535961957,
                1.5706038300724876,
                1.1188968870953055
            ]
        },
        {
            "positions": [
                -1.1754272389060132,
                -0.10890294578649644,
                -1.89018985685918,
                0.47967645708262463,
                1.4922311423911043,
                0.9881286213611172
            ]
        },
        {
            "positions": [
                -1.2319872913468388,
                -0.14105158950138943,
                -1.8607362059263408,
                0.5337522888056296,
                1.4138584547097208,
                0.8573603556269289
            ]
        },
        {
            "positions": [
                -1.2885473437876647,
                -0.17320023321628245,
                -1.8312825549935017,
                0.5878281205286346,
                1.3354857670283375,
                0.7265920898927406
            ]
        },
        {
            "positions": [
                -1.3451073962284905,
                -0.20534887693117543,
                -1.8018289040606625,
                0.6419039522516397,
                1.257113079346954,
                0.5958238241585523
            ]
        },
        {
            "positions": [
                -1.4016674486693164,
                -0.23749752064606844,
                -1.7723752531278234,
                0.6959797839746448,
                1.1787403916655705,
                0.46505555842436397
            ]
        },
        {
            "positions": [
                -1.4582275011101422,
                -0.26964616436096145,
                -1.7429216021949843,
                0.7500556156976498,
                1.1003677039841873,
                0.33428729269017565
            ]
        },
        {
            "positions": [
                -1.5147875535509678,
                -0.3017948080758544,
                -1.7134679512621451,
                0.8041314474206548,
                1.021995016302804,
                0.20351902695598745
            ]
        },
        {
            "positions": [
                -1.5713476059917937,
                -0.3339434517907474,
                -1.684014300329306,
                0.8582072791436599,
                0.9436223286214206,
                0.07275076122179902
            ]
        },
        {
            "positions": [
                -1.6279076584326195,
                -0.3660920955056404,
                -1.6545606493964669,
                0.9122831108666649,
                0.8652496409400371,
                -0.058017504512389184
            ]
        },
        {
            "positions": [
                -1.6844677108734452,
                -0.39824073922053344,
                -1.6251069984636277,
                0.9663589425896699,
                0.7868769532586537,
                -0.1887857702465776
            ]
        },
        {
            "positions": [
                -1.7410277633142712,
                -0.43038938293542645,
                -1.5956533475307886,
                1.020434774312675,
                0.7085042655772703,
                -0.31955403598076604
            ]
        },
        {
            "positions": [
                -1.7975878157550969,
                -0.46253802665031946,
                -1.5661996965979494,
                1.07451060603568,
                0.6301315778958869,
                -0.45032230171495424
            ]
        },
        {
            "positions": [
                -1.8541478681959225,
                -0.49468667036521236,
                -1.5367460456651103,
                1.128586437758685,
                0.5517588902145036,
                -0.5810905674491424
            ]
        },
        {
            "positions": [
                -1.9107079206367485,
                -0.5268353140801054,
                -1.5072923947322712,
                1.18266226948169,
                0.47338620253312036,
                -0.7118588331833307
            ]
        },
        {
            "positions": [
                -1.9672679730775742,
                -0.5589839577949984,
                -1.477838743799432,
                1.236738101204695,
                0.39501351485173686,
                -0.8426270989175191
            ]
        },
        {
            "positions": [
                -2.0238280255184,
                -0.5911326015098914,
                -1.448385092866593,
                1.2908139329277002,
                0.3166408271703536,
                -0.9733953646517075
            ]
        },
        {
            "positions": [
                -2.080388077959226,
                -0.6232812452247845,
                -1.4189314419337538,
                1.3448897646507052,
                0.23826813948897,
                -1.1041636303858957
            ]
        },
        {
            "positions": [
                -1.99882470472308,
                -0.6423572344380059,
                -1.2934221826080756,
                1.2661776580883022,
                0.23391515210078057,
                -1.1811920859050071
            ]
        },
        {
            "positions": [
                -1.9172613314869342,
                -0.6614332236512271,
                -1.1679129232823975,
                1.1874655515258992,
                0.22956216471259117,
                -1.2582205414241185
            ]
        },
        {
            "positions": [
                -1.8356979582507882,
                -0.6805092128644485,
                -1.0424036639567191,
                1.1087534449634961,
                0.22520917732440174,
                -1.33524899694323
            ]
        },
        {
            "positions": [
                -1.7541345850146424,
                -0.6995852020776699,
                -0.916894404631041,
                1.0300413384010931,
                0.22085618993621234,
                -1.4122774524623414
            ]
        },
        {
            "positions": [
                -1.6725712117784965,
                -0.7186611912908913,
                -0.7913851453053627,
                0.95132923183869,
                0.2165032025480229,
                -1.4893059079814528
            ]
        },
        {
            "positions": [
                -1.5910078385423505,
                -0.7377371805041126,
                -0.6658758859796845,
                0.872617125276287,
                0.2121502151598335,
                -1.5663343635005642
            ]
        },
        {
            "positions": [
                -1.509444465306205,
                -0.756813169717334,
                -0.5403666266540064,
                0.793905018713884,
                0.20779722777164408,
                -1.6433628190196756
            ]
        },
        {
            "positions": [
                -1.4278810920700589,
                -0.7758891589305554,
                -0.41485736732832823,
                0.715192912151481,
                0.20344424038345468,
                -1.720391274538787
            ]
        },
        {
            "positions": [
                -1.346317718833913,
                -0.7949651481437767,
                -0.2893481080026499,
                0.6364808055890778,
                0.19909125299526526,
                -1.7974197300578985
            ]
        },
        {
            "positions": [
                -1.2647543455977672,
                -0.8140411373569981,
                -0.16383884867697174,
                0.5577686990266748,
                0.19473826560707586,
                -1.8744481855770099
            ]
        },
        {
            "positions": [
                -1.1831909723616212,
                -0.8331171265702195,
                -0.0383295893512936,
                0.4790565924642718,
                0.19038527821888643,
                -1.9514766410961213
            ]
        },
        {
            "positions": [
                -1.1016275991254754,
                -0.8521931157834409,
                0.08717966997438475,
                0.4003444859018688,
                0.18603229083069703,
                -2.0285050966152327
            ]
        },
        {
            "positions": [
                -1.0200642258893295,
                -0.8712691049966623,
                0.2126889293000629,
                0.32163237933946576,
                0.1816793034425076,
                -2.105533552134344
            ]
        },
        {
            "positions": [
                -0.9385008526531837,
                -0.8903450942098836,
                0.338198188625741,
                0.24292027277706274,
                0.1773263160543182,
                -2.1825620076534555
            ]
        },
        {
            "positions": [
                -0.8569374794170377,
                -0.909421083423105,
                0.4637074479514194,
                0.1642081662146595,
                0.17297332866612877,
                -2.259590463172567
            ]
        },
        {
            "positions": [
                -0.7753741061808919,
                -0.9284970726363264,
                0.5892167072770973,
                0.0854960596522567,
                0.16862034127793935,
                -2.3366189186916784
            ]
        },
        {
            "positions": [
                -0.6938107329447458,
                -0.9475730618495477,
                0.7147259666027757,
                0.006783953089853467,
                0.16426735388974995,
                -2.41364737421079
            ]
        },
        {
            "positions": [
                -0.6122473597086002,
                -0.9666490510627691,
                0.840235225928454,
                -0.07192815347254955,
                0.15991436650156055,
                -2.490675829729901
            ]
        },
        {
            "positions": [
                -0.5306839864724542,
                -0.9857250402759905,
                0.9657444852541324,
                -0.15064026003495257,
                0.1555613791133711,
                -2.567704285249013
            ]
        },
        {
            "positions": [
                -0.44912061323630836,
                -1.0048010294892118,
                1.0912537445798103,
                -0.22935236659735558,
                0.1512083917251817,
                -2.644732740768124
            ]
        },
        {
            "positions": [
                -0.3675572400001623,
                -1.0238770187024333,
                1.2167630039054886,
                -0.3080644731597586,
                0.1468554043369923,
                -2.7217611962872357
            ]
        },
        {
            "positions": [
                -0.2859938667640167,
                -1.0429530079156546,
                1.3422722632311666,
                -0.3867765797221616,
                0.1425024169488029,
                -2.798789651806347
            ]
        },
        {
            "positions": [
                -0.20443049352787068,
                -1.062028997128876,
                1.467781522556845,
                -0.46548868628456486,
                0.13814942956061343,
                -2.8758181073254585
            ]
        },
        {
            "positions": [
                -0.12286712029172486,
                -1.0811049863420974,
                1.5932907818825233,
                -0.5442007928469677,
                0.13379644217242403,
                -2.9528465628445697
            ]
        },
        {
            "positions": [
                -0.04130374705557882,
                -1.1001809755553187,
                1.7188000412082016,
                -0.6229128994093709,
                0.12944345478423464,
                -3.0298750183636813
            ]
        },
        {
            "positions": [
                0.04025962618056678,
                -1.1192569647685402,
                1.8443093005338795,
                -0.7016250059717737,
                0.12509046739604524,
                -3.1069034738827925
            ]
        },
        {
            "positions": [
                0.121822999416713,
                -1.1383329539817615,
                1.969818559859558,
                -0.7803371125341769,
                0.1207374800078558,
                -3.183931929401904
            ]
        }
    ]
}