{
    "goal": {
        "global_pose": {
            "orientation": {
                "w": 0.5084816217422485,
                "x": -0.49083608388900757,
                "y": 0.5182115435600281,
                "z": -0.4816462993621826
            },
            "position": {
                "x": 0.5540239810943604,
                "y": 0.030875300988554955,
                "z": 0.16403168439865112
            }
        },
        "name": "move_to_storage_A"
    },
    "id": "STRIDE_move_to_storage_A_150",
    "joint_names": [
        "shoulder_pan_joint",
        "shoulder_lift_joint",
        "elbow_joint",
        "wrist_1_joint",
        "wrist_2_joint",
        "wrist_3_joint"
    ],
    "metrics": {
        "cart_traj_len": 0.3539516685922815,
        "distance_elbow_joint": 0.44864575373331794,
        "distance_shoulder_lift_joint": 0.23473298473944615,
        "distance_shoulder_pan_joint": 0.4635277581163908,
        "distance_wrist_1_joint": 0.23750747265646532,
        "distance_wrist_2_joint": 1.0974447837008887,
        "distance_wrist_3_joint": 0.1056182225095843,
        "smoothness": 6.661338165333112e-16,
        "time": 0.11179909199999999,
        "traj_len": 1.6085636373659866,
        "weighted_distance": 2.033141824082279
    },
    "planner": "STRIDE",
    "start": {
        "state": {
            "elbow_joint": 1.9715463870305268,
            "shoulder_lift_joint": -1.1394903361783484,
            "shoulder_pan_joint": 0.12281147578464417,
            "wrist_1_joint": -0.7804599489681411,
            "wrist_2_joint": 0.12958660307563738,
            "wrist_3_joint": -3.1924946282119055
        }
    },
    "waypoints": [
        {
            "positions": [
                0.12281147578464417,
                -1.1394903361783484,
                1.9715463870305268,
                -0.7804599489681411,
                0.12958660307563738,
                -3.1924946282119055
            ]
        },
        {
            "positions": [
                0.05659322462515978,
                -1.173023619712555,
                2.0356386375638578,
                -0.8143895879190647,
                0.2863644293186215,
                -3.1774063107105364
            ]
        },
        {
            "positions": [
                -0.009625026534324607,
                -1.2065569032467616,
                2.099730888097189,
                -0.8483192268699883,
                0.4431422555616056,
                -3.162317993209167
            ]
        },
        {
            "positions": [
                -0.07584327769380901,
                -1.2400901867809682,
                2.1638231386305202,
                -0.8822488658209119,
                0.5999200818045897,
                -3.147229675707798
            ]
        },
        {
            "positions": [
                -0.14206152885329337,
                -1.2736234703151748,
                2.2279153891638512,
                -0.9161785047718356,
                0.7566979080475738,
                -3.132141358206429
            ]
        },
        {
            "positions": [
                -0.2082797800127778,
                -1.3071567538493813,
                2.2920076396971822,
                -0.9501081437227592,
                0.913475734290558,
                -3.1170530407050596
            ]
        },
        {
            "positions": [
                -0.2744980311722622,
                -1.340690037383588,
                2.3560998902305137,
                -0.9840377826736828,
                1.070253560533542,
                -3.1019647232036904
            ]
        },
        {
            "positions": [
                -0.3407162823317466,
                -1.3742233209177945,
                2.4201921407638447,
                -1.0179674216246064,
                1.2270313867765261,
                -3.0868764057023212
            ]
        }
    ]
}