{
    "goal": {
        "global_pose": {
            "orientation": {
                "w": 0.7047431468963623,
                "x": -0.7094548344612122,
                "y": 0.0024358443915843964,
                "z": -0.0022348060738295317
            },
            "position": {
                "x": 0.6094750761985779,
                "y": 0.3671506643295288,
                "z": 0.19426114857196808
            }
        },
        "name": "move_to_magneteinheit_A"
    },
    "id": "STRIDE_move_to_magneteinheit_A_37",
    "joint_names": [
        "shoulder_pan_joint",
        "shoulder_lift_joint",
        "elbow_joint",
        "wrist_1_joint",
        "wrist_2_joint",
        "wrist_3_joint"
    ],
    "metrics": {
        "cart_traj_len": 2.0665168619493213,
        "distance_elbow_joint": 3.8849659965764656,
        "distance_shoulder_lift_joint": 1.0591060629393794,
        "distance_shoulder_pan_joint": 1.2420777553186324,
        "distance_wrist_1_joint": 1.1792863868996442,
        "distance_wrist_2_joint": 1.4483321239531848,
        "distance_wrist_3_joint": 1.9493142186926988,
        "smoothness": 5.512831596927554e-16,
        "time": 0.068388809,
        "traj_len": 3.280713724844032,
        "weighted_distance": 4.158043950299015
    },
    "planner": "STRIDE",
    "start": {
        "state": {
            "elbow_joint": -1.919643507792019,
            "shoulder_lift_joint": -0.07675430207160344,
            "shoulder_pan_joint": -1.1188671864651873,
            "wrist_1_joint": 0.42560062535961957,
            "wrist_2_joint": 1.5706038300724876,
            "wrist_3_joint": 1.1188968870953055
        }
    },
    "waypoints": [
        {
            "positions": [
                -1.1188671864651873,
                -0.07675430207160344,
                -1.919643507792019,
                0.42560062535961957,
                1.5706038300724876,
                1.1188968870953055
            ]
        },
        {
            "positions": [
                -1.074507266632379,
                -0.1145795186051527,
                -1.7808947222000024,
                0.383483254398918,
                1.5188776827884454,
                1.1885152520486162
            ]
        },
        {
            "positions": [
                -1.0301473467995708,
                -0.15240473513870195,
                -1.6421459366079858,
                0.3413658834382164,
                1.467151535504403,
                1.2581336170019268
            ]
        },
        {
            "positions": [
                -0.9857874269667625,
                -0.1902299516722512,
                -1.5033971510159692,
                0.2992485124775148,
                1.4154253882203607,
                1.3277519819552375
            ]
        },
        {
            "positions": [
                -0.9414275071339542,
                -0.2280551682058005,
                -1.3646483654239527,
                0.25713114151681327,
                1.3636992409363184,
                1.3973703469085481
            ]
        },
        {
            "positions": [
                -0.8970675873011458,
                -0.2658803847393498,
                -1.2258995798319359,
                0.21501377055611168,
                1.311973093652276,
                1.466988711861859
            ]
        },
        {
            "positions": [
                -0.8527076674683376,
                -0.30370560127289903,
                -1.0871507942399194,
                0.17289639959541014,
                1.2602469463682338,
                1.5366070768151696
            ]
        },
        {
            "positions": [
                -0.8083477476355292,
                -0.3415308178064483,
                -0.9484020086479027,
                0.13077902863470853,
                1.2085207990841913,
                1.6062254417684803
            ]
        },
        {
            "positions": [
                -0.763987827802721,
                -0.37935603433999754,
                -0.8096532230558862,
                0.08866165767400697,
                1.156794651800149,
                1.675843806721791
            ]
        },
        {
            "positions": [
                -0.7196279079699126,
                -0.41718125087354685,
                -0.6709044374638693,
                0.04654428671330535,
                1.1050685045161068,
                1.7454621716751015
            ]
        },
        {
            "positions": [
                -0.6752679881371043,
                -0.4550064674070961,
                -0.5321556518718529,
                0.004426915752603788,
                1.0533423572320646,
                1.8150805366284124
            ]
        },
        {
            "positions": [
                -0.630908068304296,
                -0.4928316839406453,
                -0.39340686627983623,
                -0.03769045520809777,
                1.0016162099480221,
                1.8846989015817228
            ]
        },
        {
            "positions": [
                -0.5865481484714877,
                -0.5306569004741946,
                -0.2546580806878196,
                -0.07980782616879928,
                0.9498900626639799,
                1.9543172665350337
            ]
        },
        {
            "positions": [
                -0.5421882286386794,
                -0.5684821170077439,
                -0.11590929509580294,
                -0.12192519712950095,
                0.8981639153799376,
                2.023935631488344
            ]
        },
        {
            "positions": [
                -0.49782830880587114,
                -0.6063073335412932,
                0.0228394904962137,
                -0.1640425680902025,
                0.8464377680958952,
                2.093553996441655
            ]
        },
        {
            "positions": [
                -0.45346838897306285,
                -0.6441325500748423,
                0.16158827608823034,
                -0.20615993905090407,
                0.7947116208118529,
                2.163172361394966
            ]
        },
        {
            "positions": [
                -0.40910846914025456,
                -0.6819577666083916,
                0.30033706168024676,
                -0.24827731001160563,
                0.7429854735278106,
                2.2327907263482762
            ]
        },
        {
            "positions": [
                -0.36474854930744627,
                -0.7197829831419409,
                0.4390858472722632,
                -0.2903946809723072,
                0.6912593262437683,
                2.3024090913015867
            ]
        },
        {
            "positions": [
                -0.32038862947463786,
                -0.7576081996754902,
                0.5778346328642805,
                -0.33251205193300887,
                0.639533178959726,
                2.372027456254898
            ]
        },
        {
            "positions": [
                -0.2760287096418296,
                -0.7954334162090395,
                0.7165834184562969,
                -0.37462942289371043,
                0.5878070316756836,
                2.4416458212082084
            ]
        },
        {
            "positions": [
                -0.23166878980902128,
                -0.8332586327425888,
                0.8553322040483133,
                -0.416746793854412,
                0.5360808843916414,
                2.511264186161519
            ]
        },
        {
            "positions": [
                -0.1873088699762131,
                -0.8710838492761379,
                0.9940809896403302,
                -0.45886416481511355,
                0.4843547371075989,
                2.5808825511148297
            ]
        },
        {
            "positions": [
                -0.1429489501434048,
                -0.9089090658096872,
                1.1328297752323466,
                -0.5009815357758152,
                0.4326285898235567,
                2.6505009160681405
            ]
        },
        {
            "positions": [
                -0.09858903031059651,
                -0.9467342823432365,
                1.271578560824363,
                -0.5430989067365166,
                0.38090244253951444,
                2.720119281021451
            ]
        },
        {
            "positions": [
                -0.05422911047778811,
                -0.9845594988767856,
                1.41032734641638,
                -0.5852162776972181,
                0.3291762952554722,
                2.7897376459747614
            ]
        },
        {
            "positions": [
                -0.009869190644979708,
                -1.0223847154103352,
                1.5490761320083968,
                -0.62733364865792,
                0.27745014797142975,
                2.8593560109280727
            ]
        },
        {
            "positions": [
                0.03449072918782847,
                -1.0602099319438842,
                1.6878249176004132,
                -0.6694510196186214,
                0.22572400068738752,
                2.928974375881383
            ]
        },
        {
            "positions": [
                0.07885064902063688,
                -1.0980351484774336,
                1.82657370319243,
                -0.7115683905793231,
                0.17399785340334506,
                2.9985927408346935
            ]
        },
        {
            "positions": [
                0.123210568853445,
                -1.1358603650109829,
                1.9653224887844465,
                -0.7536857615400246,
                0.12227170611930288,
                3.0682111057880044
            ]
        }
    ]
}