{
    "goal": {
        "global_pose": {
            "orientation": {
                "w": 0.5084816217422485,
                "x": -0.49083608388900757,
                "y": 0.5182115435600281,
                "z": -0.4816462993621826
            },
            "position": {
                "x": 0.5540239810943604,
                "y": 0.030875300988554955,
                "z": 0.16403168439865112
            }
        },
        "name": "move_to_storage_A"
    },
    "id": "STRIDE_move_to_storage_A_61",
    "joint_names": [
        "shoulder_pan_joint",
        "shoulder_lift_joint",
        "elbow_joint",
        "wrist_1_joint",
        "wrist_2_joint",
        "wrist_3_joint"
    ],
    "metrics": {
        "cart_traj_len": 0.35281895538832975,
        "distance_elbow_joint": 0.45122608890452165,
        "distance_shoulder_lift_joint": 0.23256686275212202,
        "distance_shoulder_pan_joint": 0.4621736485838884,
        "distance_wrist_1_joint": 0.2559161444219743,
        "distance_wrist_2_joint": 1.093524475801651,
        "distance_wrist_3_joint": 0.09771838110794384,
        "smoothness": 0.0,
        "time": 0.328274148,
        "traj_len": 1.6103184783054874,
        "weighted_distance": 2.034208195837293
    },
    "planner": "STRIDE",
    "start": {
        "state": {
            "elbow_joint": 1.9715463870305268,
            "shoulder_lift_joint": -1.1394903361783484,
            "shoulder_pan_joint": 0.12281147578464417,
            "wrist_1_joint": -0.7804599489681411,
            "wrist_2_joint": 0.12958660307563738,
            "wrist_3_joint": -3.1924946282119055
        }
    },
    "waypoints": [
        {
            "positions": [
                0.12281147578464417,
                -1.1394903361783484,
                1.9715463870305268,
                -0.7804599489681411,
                0.12958660307563738,
                -3.1924946282119055
            ]
        },
        {
            "positions": [
                0.0567866688440887,
                -1.1727141737143658,
                2.0360072568740297,
                -0.8170193981712802,
                0.2858043853330161,
                -3.178534859482199
            ]
        },
        {
            "positions": [
                -0.009238138096466772,
                -1.2059380112503832,
                2.100468126717533,
                -0.8535788473744195,
                0.4420221675903948,
                -3.164575090752493
            ]
        },
        {
            "positions": [
                -0.07526294503702226,
                -1.2391618487864007,
                2.164928996561036,
                -0.8901382965775586,
                0.5982399498477735,
                -3.150615322022787
            ]
        },
        {
            "positions": [
                -0.1412877519775777,
                -1.272385686322418,
                2.229389866404539,
                -0.9266977457806979,
                0.7544577321051522,
                -3.1366555532930804
            ]
        },
        {
            "positions": [
                -0.20731255891813322,
                -1.3056095238584355,
                2.293850736248042,
                -0.963257194983837,
                0.9106755143625309,
                -3.122695784563374
            ]
        },
        {
            "positions": [
                -0.2733373658586887,
                -1.338833361394453,
                2.3583116060915454,
                -0.9998166441869762,
                1.0668932966199096,
                -3.108736015833668
            ]
        },
        {
            "positions": [
                -0.3393621727992442,
                -1.3720571989304704,
                2.4227724759350484,
                -1.0363760933901154,
                1.2231110788772883,
                -3.0947762471039617
            ]
        }
    ]
}