{
    "goal": {
        "global_pose": {
            "orientation": {
                "w": 0.5084816217422485,
                "x": -0.49083608388900757,
                "y": 0.5182115435600281,
                "z": -0.4816462993621826
            },
            "position": {
                "x": 0.5540239810943604,
                "y": 0.030875300988554955,
                "z": 0.16403168439865112
            }
        },
        "name": "move_to_storage_A"
    },
    "id": "STRIDE_move_to_storage_A_11",
    "joint_names": [
        "shoulder_pan_joint",
        "shoulder_lift_joint",
        "elbow_joint",
        "wrist_1_joint",
        "wrist_2_joint",
        "wrist_3_joint"
    ],
    "metrics": {
        "cart_traj_len": 0.3529243296593567,
        "distance_elbow_joint": 0.4517477128922116,
        "distance_shoulder_lift_joint": 0.23313788120672863,
        "distance_shoulder_pan_joint": 0.4587563750091243,
        "distance_wrist_1_joint": 0.2514308105572881,
        "distance_wrist_2_joint": 1.1100026320192868,
        "distance_wrist_3_joint": 0.10447939641298243,
        "smoothness": 6.661338165333112e-16,
        "time": 0.045294310000000004,
        "traj_len": 1.615411652829588,
        "weighted_distance": 2.0444918790496973
    },
    "planner": "STRIDE",
    "start": {
        "state": {
            "elbow_joint": 1.9715463870305268,
            "shoulder_lift_joint": -1.1394903361783484,
            "shoulder_pan_joint": 0.12281147578464417,
            "wrist_1_joint": -0.7804599489681411,
            "wrist_2_joint": 0.12958660307563738,
            "wrist_3_joint": -3.1924946282119055
        }
    },
    "waypoints": [
        {
            "positions": [
                0.12281147578464417,
                -1.1394903361783484,
                1.9715463870305268,
                -0.7804599489681411,
                0.12958660307563738,
                -3.1924946282119055
            ]
        },
        {
            "positions": [
                0.0572748507833407,
                -1.1727957477793096,
                2.036081774586557,
                -0.8163786361906108,
                0.2881584076498212,
                -3.177569000152908
            ]
        },
        {
            "positions": [
                -0.008261774217962772,
                -1.2061011593802708,
                2.100617162142587,
                -0.8522973234130805,
                0.446730212224005,
                -3.1626433720939104
            ]
        },
        {
            "positions": [
                -0.07379839921926624,
                -1.239406570981232,
                2.1651525496986173,
                -0.8882160106355502,
                0.6053020167981888,
                -3.147717744034913
            ]
        },
        {
            "positions": [
                -0.1393350242205697,
                -1.2727119825821933,
                2.2296879372546474,
                -0.92413469785802,
                0.7638738213723727,
                -3.132792115975916
            ]
        },
        {
            "positions": [
                -0.20487164922187318,
                -1.3060173941831545,
                2.294223324810678,
                -0.9600533850804898,
                0.9224456259465565,
                -3.1178664879169182
            ]
        },
        {
            "positions": [
                -0.27040827422317665,
                -1.3393228057841158,
                2.358758712366708,
                -0.9959720723029595,
                1.0810174305207403,
                -3.1029408598579207
            ]
        },
        {
            "positions": [
                -0.3359448992244801,
                -1.372628217385077,
                2.4232940999227384,
                -1.0318907595254292,
                1.2395892350949242,
                -3.088015231798923
            ]
        }
    ]
}