{
    "goal": {
        "global_pose": {
            "orientation": {
                "w": 0.5084816217422485,
                "x": -0.49083608388900757,
                "y": 0.5182115435600281,
                "z": -0.4816462993621826
            },
            "position": {
                "x": 0.5540239810943604,
                "y": 0.030875300988554955,
                "z": 0.16403168439865112
            }
        },
        "name": "move_to_storage_A"
    },
    "id": "STRIDE_move_to_storage_A_52",
    "joint_names": [
        "shoulder_pan_joint",
        "shoulder_lift_joint",
        "elbow_joint",
        "wrist_1_joint",
        "wrist_2_joint",
        "wrist_3_joint"
    ],
    "metrics": {
        "cart_traj_len": 0.3532982265003368,
        "distance_elbow_joint": 0.4492930365697214,
        "distance_shoulder_lift_joint": 0.23550561992494634,
        "distance_shoulder_pan_joint": 0.46284618351711254,
        "distance_wrist_1_joint": 0.2357839035575252,
        "distance_wrist_2_joint": 1.0962538740666217,
        "distance_wrist_3_joint": 0.08910782554819052,
        "smoothness": 1.3322676330666221e-15,
        "time": 0.054488259,
        "traj_len": 1.6027446593840573,
        "weighted_distance": 2.0196642968336707
    },
    "planner": "STRIDE",
    "start": {
        "state": {
            "elbow_joint": 1.9715463870305268,
            "shoulder_lift_joint": -1.1394903361783484,
            "shoulder_pan_joint": 0.12281147578464417,
            "wrist_1_joint": -0.7804599489681411,
            "wrist_2_joint": 0.12958660307563738,
            "wrist_3_joint": -3.1924946282119055
        }
    },
    "waypoints": [
        {
            "positions": [
                0.12281147578464417,
                -1.1394903361783484,
                1.9715463870305268,
                -0.7804599489681411,
                0.12958660307563738,
                -3.1924946282119055
            ]
        },
        {
            "positions": [
                0.05669059242505667,
                -1.1731339961676264,
                2.035731106540487,
                -0.8141433637620733,
                0.28619429937086904,
                -3.179764938847878
            ]
        },
        {
            "positions": [
                -0.009430290934530836,
                -1.2067776561569046,
                2.0999158260504474,
                -0.8478267785560054,
                0.4428019956661007,
                -3.167035249483851
            ]
        },
        {
            "positions": [
                -0.07555117429411833,
                -1.2404213161461826,
                2.1641005455604074,
                -0.8815101933499376,
                0.5994096919613323,
                -3.1543055601198238
            ]
        },
        {
            "positions": [
                -0.14167205765370583,
                -1.2740649761354605,
                2.2282852650703675,
                -0.9151936081438697,
                0.7560173882565641,
                -3.141575870755797
            ]
        },
        {
            "positions": [
                -0.20779294101329338,
                -1.3077086361247385,
                2.292469984580328,
                -0.948877022937802,
                0.9126250845517958,
                -3.1288461813917694
            ]
        },
        {
            "positions": [
                -0.2739138243728808,
                -1.3413522961140167,
                2.356654704090288,
                -0.9825604377317341,
                1.0692327808470272,
                -3.1161164920277424
            ]
        },
        {
            "positions": [
                -0.34003470773246836,
                -1.3749959561032947,
                2.420839423600248,
                -1.0162438525256663,
                1.225840477142259,
                -3.103386802663715
            ]
        }
    ]
}