{
    "goal": {
        "global_pose": {
            "orientation": {
                "w": 0.5084816217422485,
                "x": -0.49083608388900757,
                "y": 0.5182115435600281,
                "z": -0.4816462993621826
            },
            "position": {
                "x": 0.5540239810943604,
                "y": 0.030875300988554955,
                "z": 0.16403168439865112
            }
        },
        "name": "move_to_storage_A"
    },
    "id": "STRIDE_move_to_storage_A_42",
    "joint_names": [
        "shoulder_pan_joint",
        "shoulder_lift_joint",
        "elbow_joint",
        "wrist_1_joint",
        "wrist_2_joint",
        "wrist_3_joint"
    ],
    "metrics": {
        "cart_traj_len": 0.35289037146775454,
        "distance_elbow_joint": 0.4495147400688464,
        "distance_shoulder_lift_joint": 0.23570323353414957,
        "distance_shoulder_pan_joint": 0.46294768785802703,
        "distance_wrist_1_joint": 0.24337521863141764,
        "distance_wrist_2_joint": 1.092145519437678,
        "distance_wrist_3_joint": 0.10683131610778229,
        "smoothness": 1.1102230298998083e-15,
        "time": 0.033668529,
        "traj_len": 1.609508532328394,
        "weighted_distance": 2.034625539484492
    },
    "planner": "STRIDE",
    "start": {
        "state": {
            "elbow_joint": 1.9715463870305268,
            "shoulder_lift_joint": -1.1394903361783484,
            "shoulder_pan_joint": 0.12281147578464417,
            "wrist_1_joint": -0.7804599489681411,
            "wrist_2_joint": 0.12958660307563738,
            "wrist_3_joint": -3.1924946282119055
        }
    },
    "waypoints": [
        {
            "positions": [
                0.12281147578464417,
                -1.1394903361783484,
                1.9715463870305268,
                -0.7804599489681411,
                0.12958660307563738,
                -3.1924946282119055
            ]
        },
        {
            "positions": [
                0.056676091804926026,
                -1.173162226683227,
                2.0357627784689334,
                -0.8152278373440579,
                0.2856073915667342,
                -3.1772330116250793
            ]
        },
        {
            "positions": [
                -0.00945929217479212,
                -1.2068341171881054,
                2.09997916990734,
                -0.8499957257199747,
                0.441628180057831,
                -3.1619713950382535
            ]
        },
        {
            "positions": [
                -0.07559467615451025,
                -1.240506007692984,
                2.1641955613457466,
                -0.8847636140958914,
                0.5976489685489279,
                -3.1467097784514273
            ]
        },
        {
            "positions": [
                -0.1417300601342284,
                -1.2741778981978624,
                2.2284119527841533,
                -0.9195315024718083,
                0.7536697570400247,
                -3.1314481618646015
            ]
        },
        {
            "positions": [
                -0.20786544411394658,
                -1.307849788702741,
                2.29262834422256,
                -0.9542993908477251,
                0.9096905455311216,
                -3.1161865452777753
            ]
        },
        {
            "positions": [
                -0.27400082809366466,
                -1.3415216792076194,
                2.3568447356609665,
                -0.9890672792236419,
                1.0657113340222184,
                -3.1009249286909495
            ]
        },
        {
            "positions": [
                -0.34013621207338285,
                -1.375193569712498,
                2.421061127099373,
                -1.0238351675995587,
                1.2217321225133153,
                -3.0856633121041233
            ]
        }
    ]
}