{
    "goal": {
        "global_pose": {
            "orientation": {
                "w": 0.7031023502349854,
                "x": -0.7110244035720825,
                "y": 0.007748599164187908,
                "z": 0.005598929710686207
            },
            "position": {
                "x": 0.11585023208521307,
                "y": 0.44412534475326537,
                "z": 0.3711530566215515
            }
        },
        "name": "move_to_auspresseinheit_A"
    },
    "id": "STRIDE_move_to_auspresseinheit_A_76",
    "joint_names": [
        "shoulder_pan_joint",
        "shoulder_lift_joint",
        "elbow_joint",
        "wrist_1_joint",
        "wrist_2_joint",
        "wrist_3_joint"
    ],
    "metrics": {
        "cart_traj_len": 0.7878321952662577,
        "distance_elbow_joint": 0.45960142652373115,
        "distance_shoulder_lift_joint": 0.5296756862763228,
        "distance_shoulder_pan_joint": 1.0436183907973668,
        "distance_wrist_1_joint": 1.104700214455506,
        "distance_wrist_2_joint": 1.1120684596720638,
        "distance_wrist_3_joint": 0.04866446983793793,
        "smoothness": 1.2593173053991231,
        "time": 0.458048556,
        "traj_len": 2.073241097307047,
        "weighted_distance": 2.571463836293712
    },
    "planner": "STRIDE",
    "start": {
        "state": {
            "elbow_joint": 2.422574709923281,
            "shoulder_lift_joint": -1.3736533754116391,
            "shoulder_pan_joint": -0.33786336945926293,
            "wrist_1_joint": -1.0288603412921917,
            "wrist_2_joint": 1.2330224858903978,
            "wrist_3_joint": -3.094022268022082
        }
    },
    "waypoints": [
        {
            "positions": [
                -0.33786336945926293,
                -1.3736533754116391,
                2.422574709923281,
                -1.0288603412921917,
                1.2330224858903978,
                -3.094022268022082
            ]
        },
        {
            "positions": [
                -0.2908837410054764,
                -1.4369801211078594,
                2.3916802707950136,
                -0.9238559457547045,
                1.13018562099625,
                -3.097184095935253
            ]
        },
        {
            "positions": [
                -0.24390411255168992,
                -1.5003068668040798,
                2.360785831666746,
                -0.8188515502172172,
                1.0273487561021022,
                -3.100345923848424
            ]
        },
        {
            "positions": [
                -0.19692448409790342,
                -1.5636336125002999,
                2.3298913925384785,
                -0.71384715467973,
                0.9245118912079542,
                -3.1035077517615948
            ]
        },
        {
            "positions": [
                -0.14994485564411691,
                -1.6269603581965202,
                2.298996953410211,
                -0.6088427591422427,
                0.8216750263138064,
                -3.106669579674765
            ]
        },
        {
            "positions": [
                -0.10296522719033041,
                -1.6902871038927405,
                2.268102514281943,
                -0.5038383636047555,
                0.7188381614196586,
                -3.109831407587936
            ]
        },
        {
            "positions": [
                -0.05598559873654391,
                -1.7536138495889606,
                2.2372080751536756,
                -0.39883396806726834,
                0.6160012965255107,
                -3.112993235501107
            ]
        },
        {
            "positions": [
                -0.009005970282757403,
                -1.816940595285181,
                2.206313636025408,
                -0.29382957252978104,
                0.5131644316313628,
                -3.116155063414278
            ]
        },
        {
            "positions": [
                0.0379736581710291,
                -1.8802673409814012,
                2.1754191968971406,
                -0.18882517699229384,
                0.41032756673721504,
                -3.1193168913274487
            ]
        },
        {
            "positions": [
                0.20491899896279786,
                -1.8860327711580414,
                2.2285306752715384,
                -0.25499143953119585,
                0.4826709518669353,
                -3.1251593529605914
            ]
        },
        {
            "positions": [
                0.3718643397545666,
                -1.8917982013346815,
                2.2816421536459357,
                -0.3211577020700979,
                0.5550143369966556,
                -3.131001814593734
            ]
        },
        {
            "positions": [
                0.5388096805463354,
                -1.8975636315113218,
                2.3347536320203335,
                -0.387323964609,
                0.6273577221263757,
                -3.1368442762268773
            ]
        },
        {
            "positions": [
                0.7057550213381042,
                -1.903329061687962,
                2.3878651103947313,
                -0.453490227147902,
                0.699701107256096,
                -3.14268673786002
            ]
        }
    ]
}