{
    "goal": {
        "global_pose": {
            "orientation": {
                "w": 0.5084816217422485,
                "x": -0.49083608388900757,
                "y": 0.5182115435600281,
                "z": -0.4816462993621826
            },
            "position": {
                "x": 0.5540239810943604,
                "y": 0.030875300988554955,
                "z": 0.16403168439865112
            }
        },
        "name": "move_to_storage_A"
    },
    "id": "STRIDE_move_to_storage_A_121",
    "joint_names": [
        "shoulder_pan_joint",
        "shoulder_lift_joint",
        "elbow_joint",
        "wrist_1_joint",
        "wrist_2_joint",
        "wrist_3_joint"
    ],
    "metrics": {
        "cart_traj_len": 0.35231380280273444,
        "distance_elbow_joint": 0.4516798513154092,
        "distance_shoulder_lift_joint": 0.23522244346362098,
        "distance_shoulder_pan_joint": 0.46049741070639005,
        "distance_wrist_1_joint": 0.24908985599942557,
        "distance_wrist_2_joint": 1.0988077300689716,
        "distance_wrist_3_joint": 0.10820564444924141,
        "smoothness": 6.661338165333112e-16,
        "time": 0.12264471999999998,
        "traj_len": 1.6135373983899657,
        "weighted_distance": 2.0415219349715397
    },
    "planner": "STRIDE",
    "start": {
        "state": {
            "elbow_joint": 1.9715463870305268,
            "shoulder_lift_joint": -1.1394903361783484,
            "shoulder_pan_joint": 0.12281147578464417,
            "wrist_1_joint": -0.7804599489681411,
            "wrist_2_joint": 0.12958660307563738,
            "wrist_3_joint": -3.1924946282119055
        }
    },
    "waypoints": [
        {
            "positions": [
                0.12281147578464417,
                -1.1394903361783484,
                1.9715463870305268,
                -0.7804599489681411,
                0.12958660307563738,
                -3.1924946282119055
            ]
        },
        {
            "positions": [
                0.05702613139801703,
                -1.1730935423874371,
                2.036072080075585,
                -0.8160442141109162,
                0.2865591359426333,
                -3.177036679004871
            ]
        },
        {
            "positions": [
                -0.008759212988610113,
                -1.2066967485965259,
                2.1005977731206436,
                -0.8516284792536912,
                0.44353166880962924,
                -3.1615787297978364
            ]
        },
        {
            "positions": [
                -0.07454455737523726,
                -1.2402999548056146,
                2.165123466165702,
                -0.8872127443964664,
                0.6005042016766252,
                -3.146120780590802
            ]
        },
        {
            "positions": [
                -0.14032990176186438,
                -1.2739031610147031,
                2.2296491592107603,
                -0.9227970095392414,
                0.7574767345436212,
                -3.1306628313837677
            ]
        },
        {
            "positions": [
                -0.20611524614849158,
                -1.3075063672237919,
                2.294174852255819,
                -0.9583812746820165,
                0.9144492674106172,
                -3.1152048821767333
            ]
        },
        {
            "positions": [
                -0.27190059053511867,
                -1.3411095734328806,
                2.3587005453008776,
                -0.9939655398247915,
                1.071421800277613,
                -3.0997469329696985
            ]
        },
        {
            "positions": [
                -0.33768593492174587,
                -1.3747127796419694,
                2.423226238345936,
                -1.0295498049675667,
                1.228394333144609,
                -3.084288983762664
            ]
        }
    ]
}