{
    "goal": {
        "global_pose": {
            "orientation": {
                "w": 0.7047431468963623,
                "x": -0.7094548344612122,
                "y": 0.0024358443915843964,
                "z": -0.0022348060738295317
            },
            "position": {
                "x": 0.6094750761985779,
                "y": 0.3671506643295288,
                "z": 0.19426114857196808
            }
        },
        "name": "move_to_magneteinheit_A"
    },
    "id": "STRIDE_move_to_magneteinheit_A_100",
    "joint_names": [
        "shoulder_pan_joint",
        "shoulder_lift_joint",
        "elbow_joint",
        "wrist_1_joint",
        "wrist_2_joint",
        "wrist_3_joint"
    ],
    "metrics": {
        "cart_traj_len": 2.070350935162163,
        "distance_elbow_joint": 3.9010817228919352,
        "distance_shoulder_lift_joint": 1.0681877290347797,
        "distance_shoulder_pan_joint": 1.2422268652077648,
        "distance_wrist_1_joint": 1.2479662066429176,
        "distance_wrist_2_joint": 1.4409699698656393,
        "distance_wrist_3_joint": 2.006623878906684,
        "smoothness": 5.819100011300313e-16,
        "time": 0.087754243,
        "traj_len": 3.302583287753652,
        "weighted_distance": 4.196336534034377
    },
    "planner": "STRIDE",
    "start": {
        "state": {
            "elbow_joint": -1.919643507792019,
            "shoulder_lift_joint": -0.07675430207160344,
            "shoulder_pan_joint": -1.1188671864651873,
            "wrist_1_joint": 0.42560062535961957,
            "wrist_2_joint": 1.5706038300724876,
            "wrist_3_joint": 1.1188968870953055
        }
    },
    "waypoints": [
        {
            "positions": [
                -1.1188671864651873,
                -0.07675430207160344,
                -1.919643507792019,
                0.42560062535961957,
                1.5706038300724876,
                1.1188968870953055
            ]
        },
        {
            "positions": [
                -1.0745019412791958,
                -0.11490386382284556,
                -1.7803191605458786,
                0.3810304036938011,
                1.5191406168630004,
                1.1905620256276872
            ]
        },
        {
            "positions": [
                -1.0301366960932041,
                -0.1530534255740877,
                -1.640994813299738,
                0.3364601820279826,
                1.4676774036535134,
                1.2622271641600686
            ]
        },
        {
            "positions": [
                -0.9857714509072125,
                -0.1912029873253298,
                -1.5016704660535976,
                0.2918899603621641,
                1.4162141904440262,
                1.3338923026924503
            ]
        },
        {
            "positions": [
                -0.9414062057212209,
                -0.22935254907657196,
                -1.3623461188074568,
                0.24731973869634563,
                1.3647509772345392,
                1.4055574412248317
            ]
        },
        {
            "positions": [
                -0.8970409605352293,
                -0.2675021108278141,
                -1.2230217715613163,
                0.20274951703052713,
                1.313287764025052,
                1.4772225797572134
            ]
        },
        {
            "positions": [
                -0.8526757153492377,
                -0.30565167257905623,
                -1.0836974243151758,
                0.15817929536470865,
                1.261824550815565,
                1.548887718289595
            ]
        },
        {
            "positions": [
                -0.8083104701632462,
                -0.34380123433029836,
                -0.9443730770690353,
                0.11360907369889017,
                1.2103613376060778,
                1.6205528568219765
            ]
        },
        {
            "positions": [
                -0.7639452249772545,
                -0.3819507960815405,
                -0.8050487298228948,
                0.0690388520330717,
                1.1588981243965906,
                1.6922179953543581
            ]
        },
        {
            "positions": [
                -0.719579979791263,
                -0.42010035783278266,
                -0.665724382576754,
                0.024468630367253164,
                1.1074349111871036,
                1.7638831338867398
            ]
        },
        {
            "positions": [
                -0.6752147346052713,
                -0.4582499195840248,
                -0.5264000353306135,
                -0.020101591298565313,
                1.0559716979776164,
                1.8355482724191212
            ]
        },
        {
            "positions": [
                -0.6308494894192798,
                -0.49639948133526685,
                -0.38707568808447324,
                -0.06467181296438373,
                1.0045084847681294,
                1.9072134109515029
            ]
        },
        {
            "positions": [
                -0.5864842442332882,
                -0.534549043086509,
                -0.24775134083833272,
                -0.10924203463020227,
                0.9530452715586423,
                1.9788785494838845
            ]
        },
        {
            "positions": [
                -0.5421189990472965,
                -0.5726986048377511,
                -0.10842699359219199,
                -0.15381225629602074,
                0.9015820583491551,
                2.050543688016266
            ]
        },
        {
            "positions": [
                -0.49775375386130494,
                -0.6108481665889933,
                0.030897353653948523,
                -0.19838247796183922,
                0.850118845139668,
                2.122208826548648
            ]
        },
        {
            "positions": [
                -0.45338850867531333,
                -0.6489977283402353,
                0.17022170090008903,
                -0.2429526996276577,
                0.7986556319301809,
                2.1938739650810293
            ]
        },
        {
            "positions": [
                -0.4090232634893217,
                -0.6871472900914775,
                0.30954604814622955,
                -0.2875229212934762,
                0.7471924187206938,
                2.2655391036134107
            ]
        },
        {
            "positions": [
                -0.3646580183033302,
                -0.7252968518427196,
                0.44887039539237006,
                -0.33209314295929465,
                0.6957292055112066,
                2.337204242145792
            ]
        },
        {
            "positions": [
                -0.3202927731173385,
                -0.7634464135939618,
                0.588194742638511,
                -0.37666336462511324,
                0.6442659923017194,
                2.408869380678174
            ]
        },
        {
            "positions": [
                -0.2759275279313469,
                -0.801595975345204,
                0.7275190898846515,
                -0.4212335862909317,
                0.5928027790922323,
                2.480534519210556
            ]
        },
        {
            "positions": [
                -0.23156228274535529,
                -0.8397455370964462,
                0.866843437130792,
                -0.4658038079567502,
                0.5413395658827451,
                2.5521996577429373
            ]
        },
        {
            "positions": [
                -0.18719703755936368,
                -0.8778950988476881,
                1.0061677843769326,
                -0.5103740296225685,
                0.48987635267325813,
                2.6238647962753188
            ]
        },
        {
            "positions": [
                -0.14283179237337218,
                -0.9160446605989303,
                1.1454921316230726,
                -0.5549442512883871,
                0.43841313946377114,
                2.6955299348077
            ]
        },
        {
            "positions": [
                -0.09846654718738046,
                -0.9541942223501725,
                1.2848164788692131,
                -0.5995144729542055,
                0.3869499262542839,
                2.7671950733400816
            ]
        },
        {
            "positions": [
                -0.05410130200138896,
                -0.9923437841014144,
                1.4241408261153536,
                -0.644084694620024,
                0.33548671304479694,
                2.838860211872463
            ]
        },
        {
            "positions": [
                -0.009736056815397243,
                -1.0304933458526568,
                1.5634651733614946,
                -0.6886549162858426,
                0.2840234998353095,
                2.9105253504048454
            ]
        },
        {
            "positions": [
                0.034629188370594255,
                -1.0686429076038988,
                1.702789520607635,
                -0.733225137951661,
                0.2325602866258225,
                2.982190488937227
            ]
        },
        {
            "positions": [
                0.07899443355658597,
                -1.106792469355141,
                1.8421138678537756,
                -0.7777953596174796,
                0.1810970734163353,
                3.0538556274696083
            ]
        },
        {
            "positions": [
                0.12335967874257739,
                -1.1449420311063832,
                1.9814382150999161,
                -0.822365581283298,
                0.1296338602068484,
                3.1255207660019897
            ]
        }
    ]
}