{
    "goal": {
        "global_pose": {
            "orientation": {
                "w": 0.5084816217422485,
                "x": -0.49083608388900757,
                "y": 0.5182115435600281,
                "z": -0.4816462993621826
            },
            "position": {
                "x": 0.5540239810943604,
                "y": 0.030875300988554955,
                "z": 0.16403168439865112
            }
        },
        "name": "move_to_storage_A"
    },
    "id": "STRIDE_move_to_storage_A_26",
    "joint_names": [
        "shoulder_pan_joint",
        "shoulder_lift_joint",
        "elbow_joint",
        "wrist_1_joint",
        "wrist_2_joint",
        "wrist_3_joint"
    ],
    "metrics": {
        "cart_traj_len": 0.35256889871365316,
        "distance_elbow_joint": 0.4527538164917937,
        "distance_shoulder_lift_joint": 0.23145316366827418,
        "distance_shoulder_pan_joint": 0.4607989298548943,
        "distance_wrist_1_joint": 0.2619448538080339,
        "distance_wrist_2_joint": 1.0974068627158902,
        "distance_wrist_3_joint": 0.1083865851412531,
        "smoothness": 0.0,
        "time": 0.080496807,
        "traj_len": 1.616398531204523,
        "weighted_distance": 2.046672689632265
    },
    "planner": "STRIDE",
    "start": {
        "state": {
            "elbow_joint": 1.9715463870305268,
            "shoulder_lift_joint": -1.1394903361783484,
            "shoulder_pan_joint": 0.12281147578464417,
            "wrist_1_joint": -0.7804599489681411,
            "wrist_2_joint": 0.12958660307563738,
            "wrist_3_joint": -3.1924946282119055
        }
    },
    "waypoints": [
        {
            "positions": [
                0.12281147578464417,
                -1.1394903361783484,
                1.9715463870305268,
                -0.7804599489681411,
                0.12958660307563738,
                -3.1924946282119055
            ]
        },
        {
            "positions": [
                0.05698305723394499,
                -1.1725550738452446,
                2.0362255036722114,
                -0.8178806423692888,
                0.28635901203505026,
                -3.177010830334584
            ]
        },
        {
            "positions": [
                -0.008845361316754188,
                -1.205619811512141,
                2.1009046203138966,
                -0.8553013357704364,
                0.4431314209944631,
                -3.1615270324572617
            ]
        },
        {
            "positions": [
                -0.07467377986745337,
                -1.2386845491790373,
                2.1655837369555813,
                -0.8927220291715842,
                0.599903829953876,
                -3.14604323457994
            ]
        },
        {
            "positions": [
                -0.14050219841815254,
                -1.2717492868459337,
                2.230262853597266,
                -0.9301427225727319,
                0.756676238913289,
                -3.130559436702618
            ]
        },
        {
            "positions": [
                -0.20633061696885174,
                -1.30481402451283,
                2.294941970238951,
                -0.9675634159738795,
                0.9134486478727019,
                -3.1150756388252963
            ]
        },
        {
            "positions": [
                -0.2721590355195509,
                -1.3378787621797263,
                2.3596210868806358,
                -1.0049841093750274,
                1.0702210568321147,
                -3.099591840947974
            ]
        },
        {
            "positions": [
                -0.3379874540702501,
                -1.3709434998466226,
                2.4243002035223205,
                -1.042404802776175,
                1.2269934657915276,
                -3.0841080430706524
            ]
        }
    ]
}