{
    "goal": {
        "global_pose": {
            "orientation": {
                "w": 0.5084816217422485,
                "x": -0.49083608388900757,
                "y": 0.5182115435600281,
                "z": -0.4816462993621826
            },
            "position": {
                "x": 0.5540239810943604,
                "y": 0.030875300988554955,
                "z": 0.16403168439865112
            }
        },
        "name": "move_to_storage_A"
    },
    "id": "STRIDE_move_to_storage_A_148",
    "joint_names": [
        "shoulder_pan_joint",
        "shoulder_lift_joint",
        "elbow_joint",
        "wrist_1_joint",
        "wrist_2_joint",
        "wrist_3_joint"
    ],
    "metrics": {
        "cart_traj_len": 0.3531819771961993,
        "distance_elbow_joint": 0.45231385106220934,
        "distance_shoulder_lift_joint": 0.23301071572857812,
        "distance_shoulder_pan_joint": 0.46319059143586355,
        "distance_wrist_1_joint": 0.2574759409235058,
        "distance_wrist_2_joint": 1.0924317992771853,
        "distance_wrist_3_joint": 0.10719558025243714,
        "smoothness": 4.440892133664971e-16,
        "time": 0.094318896,
        "traj_len": 1.6141928257428786,
        "weighted_distance": 2.042037555821475
    },
    "planner": "STRIDE",
    "start": {
        "state": {
            "elbow_joint": 1.9715463870305268,
            "shoulder_lift_joint": -1.1394903361783484,
            "shoulder_pan_joint": 0.12281147578464417,
            "wrist_1_joint": -0.7804599489681411,
            "wrist_2_joint": 0.12958660307563738,
            "wrist_3_joint": -3.1924946282119055
        }
    },
    "waypoints": [
        {
            "positions": [
                0.12281147578464417,
                -1.1394903361783484,
                1.9715463870305268,
                -0.7804599489681411,
                0.12958660307563738,
                -3.1924946282119055
            ]
        },
        {
            "positions": [
                0.05664139129380652,
                -1.172777581282431,
                2.0361626514679854,
                -0.8172422262429276,
                0.2856482886866638,
                -3.177180973890129
            ]
        },
        {
            "positions": [
                -0.009528693197031132,
                -1.2060648263865135,
                2.1007789159054435,
                -0.8540245035177142,
                0.4417099742976903,
                -3.161867319568352
            ]
        },
        {
            "positions": [
                -0.07569877768786877,
                -1.2393520714905961,
                2.165395180342902,
                -0.8908067807925006,
                0.5977716599087167,
                -3.1465536652465755
            ]
        },
        {
            "positions": [
                -0.14186886217870642,
                -1.2726393165946788,
                2.2300114447803607,
                -0.9275890580672872,
                0.7538333455197432,
                -3.1312400109247984
            ]
        },
        {
            "positions": [
                -0.2080389466695441,
                -1.3059265616987614,
                2.2946277092178193,
                -0.9643713353420738,
                0.9098950311307697,
                -3.1159263566030218
            ]
        },
        {
            "positions": [
                -0.2742090311603817,
                -1.3392138068028439,
                2.3592439736552775,
                -1.0011536126168603,
                1.065956716741796,
                -3.100612702281245
            ]
        },
        {
            "positions": [
                -0.34037911565121937,
                -1.3725010519069265,
                2.423860238092736,
                -1.0379358898916469,
                1.2220184023528227,
                -3.0852990479594684
            ]
        }
    ]
}