{
    "goal": {
        "global_pose": {
            "orientation": {
                "w": 0.7047431468963623,
                "x": -0.7094548344612122,
                "y": 0.0024358443915843964,
                "z": -0.0022348060738295317
            },
            "position": {
                "x": 0.6094750761985779,
                "y": 0.3671506643295288,
                "z": 0.19426114857196808
            }
        },
        "name": "move_to_magneteinheit_A"
    },
    "id": "STRIDE_move_to_magneteinheit_A_74",
    "joint_names": [
        "shoulder_pan_joint",
        "shoulder_lift_joint",
        "elbow_joint",
        "wrist_1_joint",
        "wrist_2_joint",
        "wrist_3_joint"
    ],
    "metrics": {
        "cart_traj_len": 1.869261571318488,
        "distance_elbow_joint": 3.9374673724774247,
        "distance_shoulder_lift_joint": 0.7110569749770017,
        "distance_shoulder_pan_joint": 1.243371821447656,
        "distance_wrist_1_joint": 1.5756160147438394,
        "distance_wrist_2_joint": 1.7108819876442536,
        "distance_wrist_3_joint": 1.2055606285448235,
        "smoothness": 3.806478953818552e-16,
        "time": 0.134375558,
        "traj_len": 3.2224144363869467,
        "weighted_distance": 4.0101837937073075
    },
    "planner": "STRIDE",
    "start": {
        "state": {
            "elbow_joint": -1.919643507792019,
            "shoulder_lift_joint": -0.07675430207160344,
            "shoulder_pan_joint": -1.1188671864651873,
            "wrist_1_joint": 0.42560062535961957,
            "wrist_2_joint": 1.5706038300724876,
            "wrist_3_joint": 1.1188968870953055
        }
    },
    "waypoints": [
        {
            "positions": [
                -1.1188671864651873,
                -0.07675430207160344,
                -1.919643507792019,
                0.42560062535961957,
                1.5706038300724876,
                1.1188968870953055
            ]
        },
        {
            "positions": [
                -1.0728163782634224,
                -0.10308974558927017,
                -1.7738113828854478,
                0.48395677405383586,
                1.5072378305301077,
                1.0742464934454974
            ]
        },
        {
            "positions": [
                -1.0267655700616574,
                -0.1294251891069369,
                -1.6279792579788765,
                0.5423129227480521,
                1.443871830987728,
                1.029596099795689
            ]
        },
        {
            "positions": [
                -0.9807147618598923,
                -0.15576063262460363,
                -1.4821471330723053,
                0.6006690714422684,
                1.3805058314453484,
                0.9849457061458807
            ]
        },
        {
            "positions": [
                -0.9346639536581272,
                -0.18209607614227036,
                -1.336315008165734,
                0.6590252201364847,
                1.3171398319029686,
                0.9402953124960725
            ]
        },
        {
            "positions": [
                -0.8886131454563622,
                -0.2084315196599371,
                -1.1904828832591627,
                0.7173813688307009,
                1.2537738323605887,
                0.8956449188462642
            ]
        },
        {
            "positions": [
                -0.8425623372545972,
                -0.23476696317760382,
                -1.0446507583525915,
                0.7757375175249173,
                1.190407832818209,
                0.8509945251964559
            ]
        },
        {
            "positions": [
                -0.7965115290528322,
                -0.2611024066952705,
                -0.8988186334460202,
                0.8340936662191334,
                1.1270418332758294,
                0.8063441315466476
            ]
        },
        {
            "positions": [
                -0.7504607208510671,
                -0.2874378502129373,
                -0.7529865085394489,
                0.8924498149133497,
                1.0636758337334495,
                0.7616937378968394
            ]
        },
        {
            "positions": [
                -0.7044099126493021,
                -0.31377329373060403,
                -0.6071543836328777,
                0.9508059636075661,
                1.0003098341910697,
                0.7170433442470311
            ]
        },
        {
            "positions": [
                -0.658359104447537,
                -0.34010873724827073,
                -0.4613222587263064,
                1.0091621123017822,
                0.93694383464869,
                0.6723929505972228
            ]
        },
        {
            "positions": [
                -0.612308296245772,
                -0.36644418076593743,
                -0.3154901338197351,
                1.0675182609959986,
                0.8735778351063103,
                0.6277425569474145
            ]
        },
        {
            "positions": [
                -0.566257488044007,
                -0.3927796242836042,
                -0.16965800891316385,
                1.125874409690215,
                0.8102118355639305,
                0.5830921632976063
            ]
        },
        {
            "positions": [
                -0.5202066798422419,
                -0.4191150678012709,
                -0.02382588400659258,
                1.184230558384431,
                0.7468458360215507,
                0.538441769647798
            ]
        },
        {
            "positions": [
                -0.4741558716404769,
                -0.44545051131893765,
                0.12200624089997869,
                1.2425867070786474,
                0.683479836479171,
                0.4937913759979897
            ]
        },
        {
            "positions": [
                -0.4281050634387118,
                -0.4717859548366044,
                0.2678383658065504,
                1.3009428557728637,
                0.6201138369367911,
                0.44914098234818134
            ]
        },
        {
            "positions": [
                -0.3820542552369468,
                -0.4981213983542711,
                0.41367049071312123,
                1.3592990044670799,
                0.5567478373944115,
                0.4044905886983732
            ]
        },
        {
            "positions": [
                -0.3360034470351817,
                -0.5244568418719379,
                0.5595026156196929,
                1.4176551531612962,
                0.4933818378520316,
                0.3598401950485648
            ]
        },
        {
            "positions": [
                -0.2899526388334168,
                -0.5507922853896046,
                0.7053347405262638,
                1.4760113018555125,
                0.43001583830965195,
                0.31518980139875663
            ]
        },
        {
            "positions": [
                -0.24390183063165172,
                -0.5771277289072714,
                0.8511668654328355,
                1.534367450549729,
                0.3666498387672721,
                0.27053940774894825
            ]
        },
        {
            "positions": [
                -0.19785102242988672,
                -0.603463172424938,
                0.9969989903394063,
                1.592723599243945,
                0.30328383922489244,
                0.22588901409914008
            ]
        },
        {
            "positions": [
                -0.15180021422812162,
                -0.6297986159426048,
                1.142831115245978,
                1.6510797479381614,
                0.23991783968251257,
                0.1812386204493317
            ]
        },
        {
            "positions": [
                -0.10574940602635663,
                -0.6561340594602714,
                1.2886632401525489,
                1.7094358966323775,
                0.17655184014013292,
                0.13658822679952354
            ]
        },
        {
            "positions": [
                -0.05969859782459164,
                -0.6824695029779382,
                1.4344953650591206,
                1.7677920453265938,
                0.11318584059775305,
                0.09193783314971515
            ]
        },
        {
            "positions": [
                -0.013647789622826645,
                -0.708804946495605,
                1.5803274899656914,
                1.8261481940208102,
                0.049819841055373404,
                0.04728743949990699
            ]
        },
        {
            "positions": [
                0.03240301857893857,
                -0.7351403900132718,
                1.726159614872263,
                1.8845043427150265,
                -0.013546158487006466,
                0.002637045850098607
            ]
        },
        {
            "positions": [
                0.07845382678070356,
                -0.7614758335309384,
                1.871991739778834,
                1.9428604914092427,
                -0.07691215802938611,
                -0.042013347799709555
            ]
        },
        {
            "positions": [
                0.12450463498246853,
                -0.7878112770486052,
                2.0178238646854054,
                2.001216640103459,
                -0.1402781575717661,
                -0.08666374144951783
            ]
        }
    ]
}