{
    "goal": {
        "global_pose": {
            "orientation": {
                "w": 0.7047431468963623,
                "x": -0.7094548344612122,
                "y": 0.0024358443915843964,
                "z": -0.0022348060738295317
            },
            "position": {
                "x": 0.6094750761985779,
                "y": 0.3671506643295288,
                "z": 0.19426114857196808
            }
        },
        "name": "move_to_magneteinheit_A"
    },
    "id": "STRIDE_move_to_magneteinheit_A_109",
    "joint_names": [
        "shoulder_pan_joint",
        "shoulder_lift_joint",
        "elbow_joint",
        "wrist_1_joint",
        "wrist_2_joint",
        "wrist_3_joint"
    ],
    "metrics": {
        "cart_traj_len": 3.2257098817308445,
        "distance_elbow_joint": 3.900226103247895,
        "distance_shoulder_lift_joint": 1.2458158487932647,
        "distance_shoulder_pan_joint": 1.685396494022443,
        "distance_wrist_1_joint": 1.242603359689113,
        "distance_wrist_2_joint": 1.4390922403755673,
        "distance_wrist_3_joint": 4.28369129994093,
        "smoothness": 0.05083769160469813,
        "time": 0.08995795399999999,
        "traj_len": 3.7144078055686367,
        "weighted_distance": 5.004588249398321
    },
    "planner": "STRIDE",
    "start": {
        "state": {
            "elbow_joint": -1.919643507792019,
            "shoulder_lift_joint": -0.07675430207160344,
            "shoulder_pan_joint": -1.1188671864651873,
            "wrist_1_joint": 0.42560062535961957,
            "wrist_2_joint": 1.5706038300724876,
            "wrist_3_joint": 1.1188968870953055
        }
    },
    "waypoints": [
        {
            "positions": [
                -1.1188671864651873,
                -0.07675430207160344,
                -1.919643507792019,
                0.42560062535961957,
                1.5706038300724876,
                1.1188968870953055
            ]
        },
        {
            "positions": [
                -1.1373158984700666,
                -0.1731314747643196,
                -1.8517027825892478,
                0.36528469955863724,
                1.541918159478048,
                0.9964701810413888
            ]
        },
        {
            "positions": [
                -1.1557646104749457,
                -0.26950864745703573,
                -1.7837620573864763,
                0.30496877375765497,
                1.5132324888836084,
                0.8740434749874723
            ]
        },
        {
            "positions": [
                -1.174213322479825,
                -0.3658858201497519,
                -1.715821332183705,
                0.24465284795667264,
                1.4845468182891688,
                0.7516167689335556
            ]
        },
        {
            "positions": [
                -1.192662034484704,
                -0.462262992842468,
                -1.6478806069809337,
                0.18433692215569034,
                1.455861147694729,
                0.629190062879639
            ]
        },
        {
            "positions": [
                -1.2111107464895834,
                -0.5586401655351843,
                -1.5799398817781625,
                0.12402099635470798,
                1.4271754771002894,
                0.5067633568257222
            ]
        },
        {
            "positions": [
                -1.2295594584944625,
                -0.6550173382279003,
                -1.5119991565753912,
                0.0637050705537257,
                1.3984898065058498,
                0.38433665077180557
            ]
        },
        {
            "positions": [
                -1.2480081704993418,
                -0.7513945109206166,
                -1.4440584313726197,
                0.0033891447527433782,
                1.3698041359114101,
                0.26190994471788887
            ]
        },
        {
            "positions": [
                -1.266456882504221,
                -0.8477716836133327,
                -1.3761177061698484,
                -0.056926781048238895,
                1.3411184653169705,
                0.13948323866397228
            ]
        },
        {
            "positions": [
                -1.2849055945091001,
                -0.944148856306049,
                -1.3081769809670771,
                -0.11724270684922128,
                1.3124327947225307,
                0.017056532610055575
            ]
        },
        {
            "positions": [
                -1.3033543065139794,
                -1.040526028998765,
                -1.2402362557643056,
                -0.1775586326502036,
                1.283747124128091,
                -0.10537017344386124
            ]
        },
        {
            "positions": [
                -1.3218030185188585,
                -1.136903201691481,
                -1.1722955305615343,
                -0.23787455845118582,
                1.2550614535336515,
                -0.2277968794977776
            ]
        },
        {
            "positions": [
                -1.3402517305237378,
                -1.2332803743841974,
                -1.104354805358763,
                -0.2981904842521682,
                1.226375782939212,
                -0.3502235855516945
            ]
        },
        {
            "positions": [
                -1.2765990370470468,
                -1.2293982101893857,
                -0.9702270922798657,
                -0.32074753860335625,
                1.1787729919286776,
                -0.472596230216648
            ]
        },
        {
            "positions": [
                -1.2129463435703558,
                -1.2255160459945738,
                -0.8360993792009683,
                -0.34330459295454435,
                1.131170200918143,
                -0.5949688748816014
            ]
        },
        {
            "positions": [
                -1.1492936500936648,
                -1.221633881799762,
                -0.701971666122071,
                -0.3658616473057324,
                1.0835674099076087,
                -0.7173415195465549
            ]
        },
        {
            "positions": [
                -1.0856409566169738,
                -1.2177517176049502,
                -0.5678439530431736,
                -0.3884187016569205,
                1.0359646188970744,
                -0.8397141642115085
            ]
        },
        {
            "positions": [
                -1.0219882631402828,
                -1.2138695534101385,
                -0.43371623996427633,
                -0.41097575600810854,
                0.9883618278865398,
                -0.9620868088764619
            ]
        },
        {
            "positions": [
                -0.9583355696635919,
                -1.2099873892153268,
                -0.29958852688537896,
                -0.4335328103592966,
                0.9407590368760055,
                -1.0844594535414154
            ]
        },
        {
            "positions": [
                -0.8946828761869009,
                -1.2061052250205149,
                -0.16546081380648148,
                -0.4560898647104847,
                0.893156245865471,
                -1.206832098206369
            ]
        },
        {
            "positions": [
                -0.83103018271021,
                -1.2022230608257032,
                -0.03133310072758411,
                -0.4786469190616728,
                0.8455534548549366,
                -1.3292047428713223
            ]
        },
        {
            "positions": [
                -0.7673774892335189,
                -1.1983408966308913,
                0.10279461235131326,
                -0.5012039734128608,
                0.7979506638444023,
                -1.4515773875362759
            ]
        },
        {
            "positions": [
                -0.703724795756828,
                -1.1944587324360796,
                0.2369223254302104,
                -0.5237610277640489,
                0.7503478728338678,
                -1.5739500322012292
            ]
        },
        {
            "positions": [
                -0.640072102280137,
                -1.190576568241268,
                0.371050038509108,
                -0.5463180821152369,
                0.7027450818233334,
                -1.696322676866183
            ]
        },
        {
            "positions": [
                -0.576419408803446,
                -1.186694404046456,
                0.5051777515880052,
                -0.5688751364664251,
                0.6551422908127991,
                -1.8186953215311363
            ]
        },
        {
            "positions": [
                -0.5127667153267551,
                -1.1828122398516443,
                0.6393054646669025,
                -0.591432190817613,
                0.6075394998022646,
                -1.9410679661960897
            ]
        },
        {
            "positions": [
                -0.449114021850064,
                -1.1789300756568326,
                0.7734331777458001,
                -0.6139892451688012,
                0.5599367087917302,
                -2.0634406108610435
            ]
        },
        {
            "positions": [
                -0.385461328373373,
                -1.1750479114620207,
                0.9075608908246973,
                -0.6365462995199893,
                0.5123339177811957,
                -2.185813255525997
            ]
        },
        {
            "positions": [
                -0.3218086348966822,
                -1.171165747267209,
                1.0416886039035949,
                -0.6591033538711772,
                0.4647311267706614,
                -2.30818590019095
            ]
        },
        {
            "positions": [
                -0.2581559414199912,
                -1.167283583072397,
                1.175816316982492,
                -0.6816604082223654,
                0.4171283357601271,
                -2.4305585448559035
            ]
        },
        {
            "positions": [
                -0.19450324794329998,
                -1.1634014188775854,
                1.3099440300613896,
                -0.7042174625735534,
                0.36952554474959254,
                -2.5529311895208573
            ]
        },
        {
            "positions": [
                -0.1308505544666092,
                -1.1595192546827737,
                1.4440717431402867,
                -0.7267745169247415,
                0.3219227537390582,
                -2.6753038341858106
            ]
        },
        {
            "positions": [
                -0.0671978609899182,
                -1.1556370904879618,
                1.578199456219184,
                -0.7493315712759295,
                0.27431996272852377,
                -2.797676478850764
            ]
        },
        {
            "positions": [
                -0.0035451675132271987,
                -1.1517549262931501,
                1.7123271692980815,
                -0.7718886256271176,
                0.22671717171798944,
                -2.9200491235157173
            ]
        },
        {
            "positions": [
                0.060107525963463804,
                -1.1478727620983382,
                1.846454882376979,
                -0.7944456799783057,
                0.1791143807074549,
                -3.042421768180671
            ]
        },
        {
            "positions": [
                0.12376021944015482,
                -1.1439905979035265,
                1.9805825954558762,
                -0.8170027343294938,
                0.13151158969692064,
                -3.1647944128456245
            ]
        }
    ]
}