{
    "goal": {
        "global_pose": {
            "orientation": {
                "w": 0.7047431468963623,
                "x": -0.7094548344612122,
                "y": 0.0024358443915843964,
                "z": -0.0022348060738295317
            },
            "position": {
                "x": 0.6094750761985779,
                "y": 0.3671506643295288,
                "z": 0.19426114857196808
            }
        },
        "name": "move_to_magneteinheit_A"
    },
    "id": "STRIDE_move_to_magneteinheit_A_82",
    "joint_names": [
        "shoulder_pan_joint",
        "shoulder_lift_joint",
        "elbow_joint",
        "wrist_1_joint",
        "wrist_2_joint",
        "wrist_3_joint"
    ],
    "metrics": {
        "cart_traj_len": 2.002470276486092,
        "distance_elbow_joint": 3.8799955134132578,
        "distance_shoulder_lift_joint": 1.0576495316104255,
        "distance_shoulder_pan_joint": 1.2422871760674241,
        "distance_wrist_1_joint": 1.1575628539231384,
        "distance_wrist_2_joint": 1.978735291423961,
        "distance_wrist_3_joint": 4.346263039584705,
        "smoothness": 0.12444468298513771,
        "time": 0.118890328,
        "traj_len": 3.696281023680818,
        "weighted_distance": 5.048892713312436
    },
    "planner": "STRIDE",
    "start": {
        "state": {
            "elbow_joint": -1.919643507792019,
            "shoulder_lift_joint": -0.07675430207160344,
            "shoulder_pan_joint": -1.1188671864651873,
            "wrist_1_joint": 0.42560062535961957,
            "wrist_2_joint": 1.5706038300724876,
            "wrist_3_joint": 1.1188968870953055
        }
    },
    "waypoints": [
        {
            "positions": [
                -1.1188671864651873,
                -0.07675430207160344,
                -1.919643507792019,
                0.42560062535961957,
                1.5706038300724876,
                1.1188968870953055
            ]
        },
        {
            "positions": [
                -1.0885384090994488,
                -0.10635385365754671,
                -1.8123240798355607,
                0.3931183993698151,
                1.5135975931723296,
                0.9862328392184594
            ]
        },
        {
            "positions": [
                -1.0582096317337102,
                -0.13595340524348998,
                -1.705004651879102,
                0.36063617338001064,
                1.4565913562721715,
                0.8535687913416133
            ]
        },
        {
            "positions": [
                -1.0278808543679716,
                -0.16555295682943327,
                -1.5976852239226433,
                0.32815394739020615,
                1.3995851193720135,
                0.7209047434647672
            ]
        },
        {
            "positions": [
                -0.9975520770022331,
                -0.1951525084153765,
                -1.490365795966185,
                0.29567172140040165,
                1.3425788824718556,
                0.5882406955879211
            ]
        },
        {
            "positions": [
                -0.9672232996364946,
                -0.2247520600013198,
                -1.3830463680097265,
                0.2631894954105972,
                1.2855726455716976,
                0.455576647711075
            ]
        },
        {
            "positions": [
                -0.936894522270756,
                -0.2543516115872631,
                -1.2757269400532678,
                0.23070726942079273,
                1.2285664086715395,
                0.3229125998342288
            ]
        },
        {
            "positions": [
                -0.9065657449050174,
                -0.28395116317320634,
                -1.1684075120968092,
                0.19822504343098826,
                1.1715601717713815,
                0.19024855195738277
            ]
        },
        {
            "positions": [
                -0.8762369675392789,
                -0.31355071475914964,
                -1.061088084140351,
                0.1657428174411838,
                1.1145539348712235,
                0.057584504080536725
            ]
        },
        {
            "positions": [
                -0.8459081901735404,
                -0.3431502663450929,
                -0.9537686561838923,
                0.1332605914513793,
                1.0575476979710654,
                -0.07507954379630943
            ]
        },
        {
            "positions": [
                -0.8155794128078018,
                -0.3727498179310362,
                -0.8464492282274338,
                0.10077836546157487,
                1.0005414610709074,
                -0.2077435916731556
            ]
        },
        {
            "positions": [
                -0.7852506354420632,
                -0.4023493695169794,
                -0.7391298002709752,
                0.06829613947177038,
                0.9435352241707494,
                -0.34040763955000153
            ]
        },
        {
            "positions": [
                -0.7549218580763246,
                -0.43194892110292277,
                -0.6318103723145165,
                0.03581391348196589,
                0.8865289872705914,
                -0.4730716874268479
            ]
        },
        {
            "positions": [
                -0.724593080710586,
                -0.461548472688866,
                -0.5244909443580581,
                0.003331687492161395,
                0.8295227503704333,
                -0.6057357353036941
            ]
        },
        {
            "positions": [
                -0.6942643033448475,
                -0.4911480242748093,
                -0.41717151640159944,
                -0.02915053849764304,
                0.7725165134702754,
                -0.73839978318054
            ]
        },
        {
            "positions": [
                -0.663935525979109,
                -0.5207475758607525,
                -0.309852088445141,
                -0.06163276448744753,
                0.7155102765701173,
                -0.8710638310573862
            ]
        },
        {
            "positions": [
                -0.6336067486133705,
                -0.5503471274466958,
                -0.20253266048868257,
                -0.09411499047725197,
                0.6585040396699593,
                -1.003727878934232
            ]
        },
        {
            "positions": [
                -0.6032779712476319,
                -0.5799466790326391,
                -0.09521323253222391,
                -0.12659721646705652,
                0.6014978027698014,
                -1.1363919268110783
            ]
        },
        {
            "positions": [
                -0.5729491938818934,
                -0.6095462306185824,
                0.012106195424234523,
                -0.15907944245686095,
                0.5444915658696434,
                -1.2690559746879244
            ]
        },
        {
            "positions": [
                -0.5426204165161548,
                -0.6391457822045257,
                0.11942562338069318,
                -0.1915616684466654,
                0.4874853289694854,
                -1.4017200225647706
            ]
        },
        {
            "positions": [
                -0.5122916391504162,
                -0.668745333790469,
                0.2267450513371514,
                -0.22404389443646983,
                0.43047909206932733,
                -1.5343840704416167
            ]
        },
        {
            "positions": [
                -0.48196286178467773,
                -0.698344885376412,
                0.33406447929361005,
                -0.2565261204262744,
                0.3734728551691693,
                -1.667048118318463
            ]
        },
        {
            "positions": [
                -0.45163408441893915,
                -0.7279444369623553,
                0.4413839072500687,
                -0.2890083464160788,
                0.31646661826901124,
                -1.7997121661953086
            ]
        },
        {
            "positions": [
                -0.42130530705320046,
                -0.7575439885482989,
                0.5487033352065274,
                -0.32149057240588336,
                0.2594603813688532,
                -1.9323762140721552
            ]
        },
        {
            "positions": [
                -0.3909765296874619,
                -0.7871435401342421,
                0.656022763162986,
                -0.3539727983956878,
                0.20245414446869514,
                -2.0650402619490014
            ]
        },
        {
            "positions": [
                -0.3606477523217234,
                -0.8167430917201852,
                0.7633421911194447,
                -0.38645502438549234,
                0.1454479075685371,
                -2.1977043098258475
            ]
        },
        {
            "positions": [
                -0.33031897495598483,
                -0.8463426433061285,
                0.8706616190759029,
                -0.4189372503752968,
                0.08844167066837905,
                -2.3303683577026937
            ]
        },
        {
            "positions": [
                -0.29999019759024625,
                -0.8759421948920718,
                0.9779810470323616,
                -0.4514194763651012,
                0.031435433768221,
                -2.4630324055795394
            ]
        },
        {
            "positions": [
                -0.2696614202245077,
                -0.9055417464780151,
                1.0853004749888202,
                -0.48390170235490565,
                -0.025570803131936826,
                -2.5956964534563856
            ]
        },
        {
            "positions": [
                -0.2393326428587692,
                -0.9351412980639584,
                1.1926199029452784,
                -0.5163839283447103,
                -0.08257704003209487,
                -2.7283605013332317
            ]
        },
        {
            "positions": [
                -0.20900386549303068,
                -0.9647408496499017,
                1.2999393309017373,
                -0.5488661543345147,
                -0.13958327693225298,
                -2.861024549210078
            ]
        },
        {
            "positions": [
                -0.14251909447397718,
                -0.9986734464563272,
                1.4320218658456376,
                -0.5854853691803155,
                -0.08587364004840885,
                -2.934292869865942
            ]
        },
        {
            "positions": [
                -0.07603432345492367,
                -1.0326060432627526,
                1.564104400789538,
                -0.6221045840261162,
                -0.03216400316456472,
                -3.0075611905218067
            ]
        },
        {
            "positions": [
                -0.00954955243587019,
                -1.066538640069178,
                1.696186935733438,
                -0.6587237988719171,
                0.021545633719279395,
                -3.080829511177671
            ]
        },
        {
            "positions": [
                0.056935218583183345,
                -1.1004712368756036,
                1.8282694706773386,
                -0.6953430137177179,
                0.07525527060312354,
                -3.1540978318335355
            ]
        },
        {
            "positions": [
                0.12341998960223685,
                -1.134403833682029,
                1.9603520056212387,
                -0.7319622285635187,
                0.12896490748696765,
                -3.2273661524893997
            ]
        }
    ]
}