{
    "goal": {
        "global_pose": {
            "orientation": {
                "w": 0.5084816217422485,
                "x": -0.49083608388900757,
                "y": 0.5182115435600281,
                "z": -0.4816462993621826
            },
            "position": {
                "x": 0.5540239810943604,
                "y": 0.030875300988554955,
                "z": 0.16403168439865112
            }
        },
        "name": "move_to_storage_A"
    },
    "id": "STRIDE_move_to_storage_A_73",
    "joint_names": [
        "shoulder_pan_joint",
        "shoulder_lift_joint",
        "elbow_joint",
        "wrist_1_joint",
        "wrist_2_joint",
        "wrist_3_joint"
    ],
    "metrics": {
        "cart_traj_len": 0.35302901277094817,
        "distance_elbow_joint": 0.4514999002130833,
        "distance_shoulder_lift_joint": 0.2340826052150864,
        "distance_shoulder_pan_joint": 0.4610935154995873,
        "distance_wrist_1_joint": 0.2472463919313711,
        "distance_wrist_2_joint": 1.1013175754881825,
        "distance_wrist_3_joint": 0.09640476217522087,
        "smoothness": 6.661338200497456e-16,
        "time": 0.017646413,
        "traj_len": 1.609858611966446,
        "weighted_distance": 2.0329825976364204
    },
    "planner": "STRIDE",
    "start": {
        "state": {
            "elbow_joint": 1.9715463870305268,
            "shoulder_lift_joint": -1.1394903361783484,
            "shoulder_pan_joint": 0.12281147578464417,
            "wrist_1_joint": -0.7804599489681411,
            "wrist_2_joint": 0.12958660307563738,
            "wrist_3_joint": -3.1924946282119055
        }
    },
    "waypoints": [
        {
            "positions": [
                0.12281147578464417,
                -1.1394903361783484,
                1.9715463870305268,
                -0.7804599489681411,
                0.12958660307563738,
                -3.1924946282119055
            ]
        },
        {
            "positions": [
                0.056940973570417414,
                -1.1729307083519322,
                2.036046372775253,
                -0.815780862101194,
                0.2869176852882349,
                -3.1787225193297313
            ]
        },
        {
            "positions": [
                -0.008929528643809345,
                -1.206371080525516,
                2.100546358519979,
                -0.8511017752342471,
                0.4442487675008324,
                -3.1649504104475565
            ]
        },
        {
            "positions": [
                -0.07480003085803609,
                -1.2398114526990998,
                2.1650463442647054,
                -0.8864226883673001,
                0.6015798497134299,
                -3.1511783015653823
            ]
        },
        {
            "positions": [
                -0.14067053307226285,
                -1.2732518248726834,
                2.2295463300094314,
                -0.9217436015003532,
                0.7589109319260274,
                -3.137406192683208
            ]
        },
        {
            "positions": [
                -0.20654103528648965,
                -1.3066921970462673,
                2.2940463157541577,
                -0.9570645146334061,
                0.9162420141386249,
                -3.1236340838010337
            ]
        },
        {
            "positions": [
                -0.27241153750071634,
                -1.340132569219851,
                2.3585463014988837,
                -0.9923854277664592,
                1.0735730963512224,
                -3.109861974918859
            ]
        },
        {
            "positions": [
                -0.33828203971494314,
                -1.3735729413934348,
                2.42304628724361,
                -1.0277063408995122,
                1.23090417856382,
                -3.0960898660366847
            ]
        }
    ]
}