{
    "goal": {
        "global_pose": {
            "orientation": {
                "w": 0.5084816217422485,
                "x": -0.49083608388900757,
                "y": 0.5182115435600281,
                "z": -0.4816462993621826
            },
            "position": {
                "x": 0.5540239810943604,
                "y": 0.030875300988554955,
                "z": 0.16403168439865112
            }
        },
        "name": "move_to_storage_A"
    },
    "id": "STRIDE_move_to_storage_A_23",
    "joint_names": [
        "shoulder_pan_joint",
        "shoulder_lift_joint",
        "elbow_joint",
        "wrist_1_joint",
        "wrist_2_joint",
        "wrist_3_joint"
    ],
    "metrics": {
        "cart_traj_len": 0.35275418368075356,
        "distance_elbow_joint": 0.44982022443572234,
        "distance_shoulder_lift_joint": 0.23352418941003816,
        "distance_shoulder_pan_joint": 0.45969022683255273,
        "distance_wrist_1_joint": 0.24232689746916936,
        "distance_wrist_2_joint": 1.104733317231692,
        "distance_wrist_3_joint": 0.10331780880619101,
        "smoothness": 6.661338165333112e-16,
        "time": 0.032538534,
        "traj_len": 1.6104076080872711,
        "weighted_distance": 2.0364450634619655
    },
    "planner": "STRIDE",
    "start": {
        "state": {
            "elbow_joint": 1.9715463870305268,
            "shoulder_lift_joint": -1.1394903361783484,
            "shoulder_pan_joint": 0.12281147578464417,
            "wrist_1_joint": -0.7804599489681411,
            "wrist_2_joint": 0.12958660307563738,
            "wrist_3_joint": -3.1924946282119055
        }
    },
    "waypoints": [
        {
            "positions": [
                0.12281147578464417,
                -1.1394903361783484,
                1.9715463870305268,
                -0.7804599489681411,
                0.12958660307563738,
                -3.1924946282119055
            ]
        },
        {
            "positions": [
                0.057141443379993787,
                -1.1728509346654967,
                2.035806419092773,
                -0.8150780771780224,
                0.2874056483944505,
                -3.1777349412395925
            ]
        },
        {
            "positions": [
                -0.0085285890246566,
                -1.206211533152645,
                2.1000664511550187,
                -0.8496962053879038,
                0.4452246937132637,
                -3.1629752542672795
            ]
        },
        {
            "positions": [
                -0.07419862142930699,
                -1.2395721316397934,
                2.164326483217265,
                -0.8843143335977851,
                0.6030437390320768,
                -3.1482155672949665
            ]
        },
        {
            "positions": [
                -0.13986865383395736,
                -1.2729327301269415,
                2.228586515279511,
                -0.9189324618076664,
                0.7608627843508899,
                -3.1334558803226535
            ]
        },
        {
            "positions": [
                -0.20553868623860777,
                -1.3062933286140899,
                2.292846547341757,
                -0.9535505900175478,
                0.9186818296697031,
                -3.1186961933503405
            ]
        },
        {
            "positions": [
                -0.27120871864325813,
                -1.3396539271012382,
                2.357106579404003,
                -0.988168718227429,
                1.076500874988516,
                -3.1039365063780275
            ]
        },
        {
            "positions": [
                -0.33687875104790854,
                -1.3730145255883865,
                2.421366611466249,
                -1.0227868464373104,
                1.2343199203073294,
                -3.0891768194057145
            ]
        }
    ]
}