{
    "goal": {
        "global_pose": {
            "orientation": {
                "w": 0.7047431468963623,
                "x": -0.7094548344612122,
                "y": 0.0024358443915843964,
                "z": -0.0022348060738295317
            },
            "position": {
                "x": 0.6094750761985779,
                "y": 0.3671506643295288,
                "z": 0.19426114857196808
            }
        },
        "name": "move_to_magneteinheit_A"
    },
    "id": "STRIDE_move_to_magneteinheit_A_18",
    "joint_names": [
        "shoulder_pan_joint",
        "shoulder_lift_joint",
        "elbow_joint",
        "wrist_1_joint",
        "wrist_2_joint",
        "wrist_3_joint"
    ],
    "metrics": {
        "cart_traj_len": 2.125623567551164,
        "distance_elbow_joint": 3.9108034234646736,
        "distance_shoulder_lift_joint": 1.0724355997405535,
        "distance_shoulder_pan_joint": 1.2413387289738211,
        "distance_wrist_1_joint": 1.3799316961586134,
        "distance_wrist_2_joint": 1.4407042491756763,
        "distance_wrist_3_joint": 4.3138697771953005,
        "smoothness": 0.1132106672972992,
        "time": 0.183196679,
        "traj_len": 3.6550079992673936,
        "weighted_distance": 4.980708681948135
    },
    "planner": "STRIDE",
    "start": {
        "state": {
            "elbow_joint": -1.919643507792019,
            "shoulder_lift_joint": -0.07675430207160344,
            "shoulder_pan_joint": -1.1188671864651873,
            "wrist_1_joint": 0.42560062535961957,
            "wrist_2_joint": 1.5706038300724876,
            "wrist_3_joint": 1.1188968870953055
        }
    },
    "waypoints": [
        {
            "positions": [
                -1.1188671864651873,
                -0.07675430207160344,
                -1.919643507792019,
                0.42560062535961957,
                1.5706038300724876,
                1.1188968870953055
            ]
        },
        {
            "positions": [
                -1.0822657000117493,
                -0.10606390890331671,
                -1.8077754214078803,
                0.3851110795852557,
                1.5317939191661822,
                0.9894021373502149
            ]
        },
        {
            "positions": [
                -1.0456642135583112,
                -0.13537351573502998,
                -1.6959073350237415,
                0.3446215338108919,
                1.4929840082598769,
                0.8599073876051242
            ]
        },
        {
            "positions": [
                -1.009062727104873,
                -0.16468312256674328,
                -1.5840392486396027,
                0.30413198803652797,
                1.4541740973535715,
                0.7304126378600336
            ]
        },
        {
            "positions": [
                -0.9724612406514351,
                -0.19399272939845652,
                -1.4721711622554638,
                0.26364244226216416,
                1.4153641864472664,
                0.600917888114943
            ]
        },
        {
            "positions": [
                -0.935859754197997,
                -0.22330233623016982,
                -1.360303075871325,
                0.2231528964878003,
                1.376554275540961,
                0.4714231383698524
            ]
        },
        {
            "positions": [
                -0.8992582677445591,
                -0.25261194306188306,
                -1.2484349894871865,
                0.18266335071343642,
                1.3377443646346556,
                0.3419283886247617
            ]
        },
        {
            "positions": [
                -0.862656781291121,
                -0.28192154989359636,
                -1.1365669031030476,
                0.14217380493907256,
                1.2989344537283503,
                0.21243363887967104
            ]
        },
        {
            "positions": [
                -0.8260552948376829,
                -0.31123115672530965,
                -1.0246988167189088,
                0.10168425916470875,
                1.260124542822045,
                0.08293888913458036
            ]
        },
        {
            "positions": [
                -0.7894538083842448,
                -0.3405407635570229,
                -0.91283073033477,
                0.06119471339034488,
                1.2213146319157397,
                -0.04655586061051009
            ]
        },
        {
            "positions": [
                -0.7528523219308068,
                -0.3698503703887362,
                -0.800962643950631,
                0.020705167615981013,
                1.1825047210094342,
                -0.17605061035560077
            ]
        },
        {
            "positions": [
                -0.7162508354773688,
                -0.39915997722044944,
                -0.6890945575664924,
                -0.019784378158382798,
                1.143694810103129,
                -0.30554536010069144
            ]
        },
        {
            "positions": [
                -0.6796493490239307,
                -0.42846958405216273,
                -0.5772264711823536,
                -0.06027392393274672,
                1.1048848991968236,
                -0.4350401098457821
            ]
        },
        {
            "positions": [
                -0.6430478625704927,
                -0.457779190883876,
                -0.4653583847982148,
                -0.10076346970711053,
                1.0660749882905183,
                -0.5645348595908726
            ]
        },
        {
            "positions": [
                -0.6064463761170545,
                -0.4870887977155893,
                -0.353490298414076,
                -0.14125301548147445,
                1.027265077384213,
                -0.6940296093359635
            ]
        },
        {
            "positions": [
                -0.5698448896636166,
                -0.5163984045473025,
                -0.24162221202993717,
                -0.18174256125583826,
                0.9884551664779077,
                -0.8235243590810539
            ]
        },
        {
            "positions": [
                -0.5332434032101785,
                -0.5457080113790158,
                -0.12975412564579836,
                -0.22223210703020208,
                0.9496452555716023,
                -0.9530191088261448
            ]
        },
        {
            "positions": [
                -0.4966419167567404,
                -0.575017618210729,
                -0.017886039261659548,
                -0.262721652804566,
                0.9108353446652969,
                -1.082513858571235
            ]
        },
        {
            "positions": [
                -0.46004043030330244,
                -0.6043272250424423,
                0.09398204712247904,
                -0.3032111985789298,
                0.8720254337589917,
                -1.2120086083163257
            ]
        },
        {
            "positions": [
                -0.42343894384986425,
                -0.6336368318741556,
                0.2058501335066183,
                -0.34370074435329373,
                0.8332155228526862,
                -1.3415033580614169
            ]
        },
        {
            "positions": [
                -0.3868374573964263,
                -0.662946438705869,
                0.3177182198907571,
                -0.38419029012765754,
                0.7944056119463809,
                -1.470998107806507
            ]
        },
        {
            "positions": [
                -0.3502359709429882,
                -0.6922560455375821,
                0.42958630627489547,
                -0.42467983590202135,
                0.7555957010400756,
                -1.6004928575515978
            ]
        },
        {
            "positions": [
                -0.3136344844895502,
                -0.7215656523692955,
                0.5414543926590343,
                -0.46516938167638516,
                0.7167857901337703,
                -1.7299876072966884
            ]
        },
        {
            "positions": [
                -0.27703299803611203,
                -0.7508752592010088,
                0.6533224790431735,
                -0.5056589274507493,
                0.6779758792274648,
                -1.859482357041779
            ]
        },
        {
            "positions": [
                -0.24043151158267406,
                -0.780184866032722,
                0.7651905654273119,
                -0.546148473225113,
                0.6391659683211596,
                -1.9889771067868698
            ]
        },
        {
            "positions": [
                -0.20383002512923598,
                -0.8094944728644353,
                0.8770586518114507,
                -0.5866380189994767,
                0.6003560574148543,
                -2.1184718565319605
            ]
        },
        {
            "positions": [
                -0.167228538675798,
                -0.8388040796961485,
                0.9889267381955895,
                -0.6271275647738406,
                0.561546146508549,
                -2.2479666062770507
            ]
        },
        {
            "positions": [
                -0.13062705222235982,
                -0.8681136865278618,
                1.1007948245797288,
                -0.6676171105482045,
                0.5227362356022436,
                -2.377461356022142
            ]
        },
        {
            "positions": [
                -0.09402556576892174,
                -0.8974232933595752,
                1.2126629109638671,
                -0.7081066563225684,
                0.4839263246959382,
                -2.5069561057672325
            ]
        },
        {
            "positions": [
                -0.05742407931548388,
                -0.9267329001912883,
                1.324530997348006,
                -0.7485962020969321,
                0.44511641378963285,
                -2.6364508555123227
            ]
        },
        {
            "positions": [
                -0.020822592862045797,
                -0.9560425070230016,
                1.4363990837321448,
                -0.789085747871296,
                0.4063065028833277,
                -2.7659456052574134
            ]
        },
        {
            "positions": [
                0.015778893591392507,
                -0.985352113854715,
                1.548267170116284,
                -0.82957529364566,
                0.3674965919770221,
                -2.895440355002504
            ]
        },
        {
            "positions": [
                0.052380380044830366,
                -1.0146617206864281,
                1.6601352565004224,
                -0.8700648394200237,
                0.32868668107071697,
                -3.024935104747595
            ]
        },
        {
            "positions": [
                0.08898186649826853,
                -1.0439713275181415,
                1.7720033428845612,
                -0.9105543851943876,
                0.2898767701644115,
                -3.1544298544926854
            ]
        },
        {
            "positions": [
                0.10572670450345115,
                -1.0965806146651493,
                1.8815816292786078,
                -0.8886660423920846,
                0.20988817553061134,
                -3.1341583366890307
            ]
        },
        {
            "positions": [
                0.12247154250863375,
                -1.149189901812157,
                1.9911599156726545,
                -0.8667776995897816,
                0.12989958089681117,
                -3.1138868188853754
            ]
        }
    ]
}