{
    "goal": {
        "global_pose": {
            "orientation": {
                "w": 0.5084816217422485,
                "x": -0.49083608388900757,
                "y": 0.5182115435600281,
                "z": -0.4816462993621826
            },
            "position": {
                "x": 0.5540239810943604,
                "y": 0.030875300988554955,
                "z": 0.16403168439865112
            }
        },
        "name": "move_to_storage_A"
    },
    "id": "STRIDE_move_to_storage_A_9",
    "joint_names": [
        "shoulder_pan_joint",
        "shoulder_lift_joint",
        "elbow_joint",
        "wrist_1_joint",
        "wrist_2_joint",
        "wrist_3_joint"
    ],
    "metrics": {
        "cart_traj_len": 0.3525387751169735,
        "distance_elbow_joint": 0.45296662328699666,
        "distance_shoulder_lift_joint": 0.2351195747316288,
        "distance_shoulder_pan_joint": 0.46091671966061304,
        "distance_wrist_1_joint": 0.2564522010980942,
        "distance_wrist_2_joint": 1.0985920160174525,
        "distance_wrist_3_joint": 0.10777737661313003,
        "smoothness": 6.661338165333112e-16,
        "time": 0.043025373,
        "traj_len": 1.6161140155966456,
        "weighted_distance": 2.0450974259799266
    },
    "planner": "STRIDE",
    "start": {
        "state": {
            "elbow_joint": 1.9715463870305268,
            "shoulder_lift_joint": -1.1394903361783484,
            "shoulder_pan_joint": 0.12281147578464417,
            "wrist_1_joint": -0.7804599489681411,
            "wrist_2_joint": 0.12958660307563738,
            "wrist_3_joint": -3.1924946282119055
        }
    },
    "waypoints": [
        {
            "positions": [
                0.12281147578464417,
                -1.1394903361783484,
                1.9715463870305268,
                -0.7804599489681411,
                0.12958660307563738,
                -3.1924946282119055
            ]
        },
        {
            "positions": [
                0.05696623011884232,
                -1.1730788468542954,
                2.036255904642955,
                -0.8170959776964403,
                0.28652831964955916,
                -3.1770978601243156
            ]
        },
        {
            "positions": [
                -0.008879015546959537,
                -1.2066673575302422,
                2.100965422255383,
                -0.8537320064247395,
                0.4434700362234809,
                -3.1617010920367257
            ]
        },
        {
            "positions": [
                -0.07472426121276139,
                -1.2402558682061893,
                2.1656749398678112,
                -0.8903680351530385,
                0.6004117527974027,
                -3.1463043239491357
            ]
        },
        {
            "positions": [
                -0.14056950687856323,
                -1.2738443788821363,
                2.230384457480239,
                -0.9270040638813377,
                0.7573534693713245,
                -3.1309075558615453
            ]
        },
        {
            "positions": [
                -0.20641475254436514,
                -1.3074328895580833,
                2.295093975092667,
                -0.9636400926096369,
                0.9142951859452464,
                -3.1155107877739554
            ]
        },
        {
            "positions": [
                -0.27225999821016694,
                -1.3410214002340302,
                2.3598034927050953,
                -1.000276121337936,
                1.071236902519168,
                -3.1001140196863655
            ]
        },
        {
            "positions": [
                -0.33810524387596885,
                -1.3746099109099772,
                2.4245130103175234,
                -1.0369121500662353,
                1.22817861909309,
                -3.0847172515987755
            ]
        }
    ]
}