{
    "goal": {
        "global_pose": {
            "orientation": {
                "w": 0.5084816217422485,
                "x": -0.49083608388900757,
                "y": 0.5182115435600281,
                "z": -0.4816462993621826
            },
            "position": {
                "x": 0.5540239810943604,
                "y": 0.030875300988554955,
                "z": 0.16403168439865112
            }
        },
        "name": "move_to_storage_A"
    },
    "id": "STRIDE_move_to_storage_A_77",
    "joint_names": [
        "shoulder_pan_joint",
        "shoulder_lift_joint",
        "elbow_joint",
        "wrist_1_joint",
        "wrist_2_joint",
        "wrist_3_joint"
    ],
    "metrics": {
        "cart_traj_len": 0.35311933903155873,
        "distance_elbow_joint": 0.45501304255622177,
        "distance_shoulder_lift_joint": 0.23512590344487427,
        "distance_shoulder_pan_joint": 0.4629825328092075,
        "distance_wrist_1_joint": 0.26068389872187014,
        "distance_wrist_2_joint": 1.0946885397112531,
        "distance_wrist_3_joint": 0.10624820071778585,
        "smoothness": 0.0,
        "time": 0.082170119,
        "traj_len": 1.6170164247654422,
        "weighted_distance": 2.045143260955063
    },
    "planner": "STRIDE",
    "start": {
        "state": {
            "elbow_joint": 1.9715463870305268,
            "shoulder_lift_joint": -1.1394903361783484,
            "shoulder_pan_joint": 0.12281147578464417,
            "wrist_1_joint": -0.7804599489681411,
            "wrist_2_joint": 0.12958660307563738,
            "wrist_3_joint": -3.1924946282119055
        }
    },
    "waypoints": [
        {
            "positions": [
                0.12281147578464417,
                -1.1394903361783484,
                1.9715463870305268,
                -0.7804599489681411,
                0.12958660307563738,
                -3.1924946282119055
            ]
        },
        {
            "positions": [
                0.05667111395475739,
                -1.1730797509561877,
                2.036548250252844,
                -0.8177005059284083,
                0.285970680177245,
                -3.1773163138236504
            ]
        },
        {
            "positions": [
                -0.009469247875129386,
                -1.2066691657340267,
                2.1015501134751617,
                -0.8549410628886754,
                0.44235475727885254,
                -3.1621379994353953
            ]
        },
        {
            "positions": [
                -0.07560960970501616,
                -1.240258580511866,
                2.166551976697479,
                -0.8921816198489425,
                0.5987388343804602,
                -3.14695968504714
            ]
        },
        {
            "positions": [
                -0.14174997153490293,
                -1.273847995289705,
                2.2315538399197963,
                -0.9294221768092097,
                0.7551229114820678,
                -3.131781370658885
            ]
        },
        {
            "positions": [
                -0.20789033336478974,
                -1.3074374100675443,
                2.296555703142114,
                -0.9666627337694769,
                0.9115069885836754,
                -3.11660305627063
            ]
        },
        {
            "positions": [
                -0.2740306951946765,
                -1.3410268248453834,
                2.3615575663644313,
                -1.003903290729744,
                1.067891065685283,
                -3.101424741882375
            ]
        },
        {
            "positions": [
                -0.3401710570245633,
                -1.3746162396232227,
                2.4265594295867485,
                -1.0411438476900112,
                1.2242751427868905,
                -3.0862464274941197
            ]
        }
    ]
}