{
    "goal": {
        "global_pose": {
            "orientation": {
                "w": 0.5084816217422485,
                "x": -0.49083608388900757,
                "y": 0.5182115435600281,
                "z": -0.4816462993621826
            },
            "position": {
                "x": 0.5540239810943604,
                "y": 0.030875300988554955,
                "z": 0.16403168439865112
            }
        },
        "name": "move_to_storage_A"
    },
    "id": "STRIDE_move_to_storage_A_33",
    "joint_names": [
        "shoulder_pan_joint",
        "shoulder_lift_joint",
        "elbow_joint",
        "wrist_1_joint",
        "wrist_2_joint",
        "wrist_3_joint"
    ],
    "metrics": {
        "cart_traj_len": 0.35374601574177394,
        "distance_elbow_joint": 0.4497220418191925,
        "distance_shoulder_lift_joint": 0.23330679306677804,
        "distance_shoulder_pan_joint": 0.46312068380453025,
        "distance_wrist_1_joint": 0.2456475483413575,
        "distance_wrist_2_joint": 1.096910125872374,
        "distance_wrist_3_joint": 0.10377464842683137,
        "smoothness": 8.881784197001252e-16,
        "time": 0.049536063,
        "traj_len": 1.6101185798974758,
        "weighted_distance": 2.035335061457562
    },
    "planner": "STRIDE",
    "start": {
        "state": {
            "elbow_joint": 1.9715463870305268,
            "shoulder_lift_joint": -1.1394903361783484,
            "shoulder_pan_joint": 0.12281147578464417,
            "wrist_1_joint": -0.7804599489681411,
            "wrist_2_joint": 0.12958660307563738,
            "wrist_3_joint": -3.1924946282119055
        }
    },
    "waypoints": [
        {
            "positions": [
                0.12281147578464417,
                -1.1394903361783484,
                1.9715463870305268,
                -0.7804599489681411,
                0.12958660307563738,
                -3.1924946282119055
            ]
        },
        {
            "positions": [
                0.05665137809828272,
                -1.172819878045031,
                2.035792393004697,
                -0.8155524558740493,
                0.28628804962883364,
                -3.177669678436644
            ]
        },
        {
            "positions": [
                -0.009508719588078737,
                -1.2061494199117135,
                2.1000383989788673,
                -0.8506449627799575,
                0.4429894961820299,
                -3.162844728661382
            ]
        },
        {
            "positions": [
                -0.0756688172744402,
                -1.2394789617783961,
                2.1642844049530376,
                -0.8857374696858658,
                0.5996909427352262,
                -3.1480197788861206
            ]
        },
        {
            "positions": [
                -0.14182891496080163,
                -1.2728085036450787,
                2.228530410927208,
                -0.9208299765917739,
                0.7563923892884225,
                -3.133194829110859
            ]
        },
        {
            "positions": [
                -0.20798901264716313,
                -1.3061380455117613,
                2.2927764169013787,
                -0.9559224834976822,
                0.9130938358416187,
                -3.1183698793355976
            ]
        },
        {
            "positions": [
                -0.27414911033352457,
                -1.3394675873784438,
                2.357022422875549,
                -0.9910149904035903,
                1.069795282394815,
                -3.1035449295603357
            ]
        },
        {
            "positions": [
                -0.34030920801988607,
                -1.3727971292451264,
                2.4212684288497193,
                -1.0261074973094986,
                1.2264967289480113,
                -3.088719979785074
            ]
        }
    ]
}