{
    "goal": {
        "global_pose": {
            "orientation": {
                "w": 0.7031023502349854,
                "x": -0.7110244035720825,
                "y": 0.007748599164187908,
                "z": 0.005598929710686207
            },
            "position": {
                "x": 0.11585023208521307,
                "y": 0.44412534475326537,
                "z": 0.3711530566215515
            }
        },
        "name": "move_to_auspresseinheit_A"
    },
    "id": "STRIDE_move_to_auspresseinheit_A_46",
    "joint_names": [
        "shoulder_pan_joint",
        "shoulder_lift_joint",
        "elbow_joint",
        "wrist_1_joint",
        "wrist_2_joint",
        "wrist_3_joint"
    ],
    "metrics": {
        "cart_traj_len": 1.9439949032581023,
        "distance_elbow_joint": 0.6107889059005429,
        "distance_shoulder_lift_joint": 2.663654454282952,
        "distance_shoulder_pan_joint": 1.7627994085543044,
        "distance_wrist_1_joint": 2.420447080372659,
        "distance_wrist_2_joint": 0.594273706976388,
        "distance_wrist_3_joint": 0.26947054405399884,
        "smoothness": 1.6655029977506615,
        "time": 0.624872223,
        "traj_len": 2.8846896020440127,
        "weighted_distance": 3.44602611359779
    },
    "planner": "STRIDE",
    "start": {
        "state": {
            "elbow_joint": 2.422574709923281,
            "shoulder_lift_joint": -1.3736533754116391,
            "shoulder_pan_joint": -0.33786336945926293,
            "wrist_1_joint": -1.0288603412921917,
            "wrist_2_joint": 1.2330224858903978,
            "wrist_3_joint": -3.094022268022082
        }
    },
    "waypoints": [
        {
            "positions": [
                -0.33786336945926293,
                -1.3736533754116391,
                2.422574709923281,
                -1.0288603412921917,
                1.2330224858903978,
                -3.094022268022082
            ]
        },
        {
            "positions": [
                -0.24023109524543923,
                -1.4965999808716948,
                2.397905345797755,
                -0.9137921280233047,
                1.2068791774972896,
                -3.0959555080162557
            ]
        },
        {
            "positions": [
                -0.14259882103161553,
                -1.6195465863317504,
                2.3732359816722286,
                -0.7987239147544176,
                1.1807358691041816,
                -3.0978887480104293
            ]
        },
        {
            "positions": [
                -0.04496654681779183,
                -1.742493191791806,
                2.3485666175467026,
                -0.6836557014855307,
                1.1545925607110734,
                -3.099821988004603
            ]
        },
        {
            "positions": [
                0.05266572739603187,
                -1.8654397972518617,
                2.323897253421176,
                -0.5685874882166435,
                1.1284492523179652,
                -3.1017552279987766
            ]
        },
        {
            "positions": [
                0.15029800160985557,
                -1.9883864027119174,
                2.29922788929565,
                -0.45351927494775657,
                1.1023059439248573,
                -3.10368846799295
            ]
        },
        {
            "positions": [
                0.24793027582367927,
                -2.111333008171973,
                2.274558525170124,
                -0.3384510616788695,
                1.076162635531749,
                -3.105621707987124
            ]
        },
        {
            "positions": [
                0.34556255003750286,
                -2.2342796136320286,
                2.2498891610445977,
                -0.22338284840998257,
                1.0500193271386409,
                -3.107554947981297
            ]
        },
        {
            "positions": [
                0.44319482425132667,
                -2.3572262190920843,
                2.2252197969190717,
                -0.1083146351410954,
                1.0238760187455327,
                -3.1094881879754706
            ]
        },
        {
            "positions": [
                0.5408270984651502,
                -2.48017282455214,
                2.2005504327935457,
                0.006753578127791426,
                0.9977327103524247,
                -3.111421427969644
            ]
        },
        {
            "positions": [
                0.638459372678974,
                -2.6031194300121956,
                2.1758810686680192,
                0.12182179139667859,
                0.9715894019593165,
                -3.1133546679638178
            ]
        },
        {
            "positions": [
                0.7360916468927976,
                -2.7260660354722512,
                2.151211704542493,
                0.23689000466556553,
                0.9454460935662085,
                -3.1152879079579914
            ]
        },
        {
            "positions": [
                0.8337239211066214,
                -2.849012640932307,
                2.1265423404169668,
                0.3519582179344527,
                0.9193027851731003,
                -3.117221147952165
            ]
        },
        {
            "positions": [
                0.931356195320445,
                -2.9719592463923625,
                2.1018729762914408,
                0.46702643120333964,
                0.8931594767799922,
                -3.1191543879463386
            ]
        },
        {
            "positions": [
                0.8798116772350854,
                -2.8205132116359435,
                2.1343483976324045,
                0.35956438408780084,
                0.8610287216096573,
                -3.103619683066283
            ]
        },
        {
            "positions": [
                0.8282671591497257,
                -2.6690671768795244,
                2.166823818973368,
                0.25210233697226203,
                0.8288979664393225,
                -3.0880849781862274
            ]
        },
        {
            "positions": [
                0.7767226410643662,
                -2.5176211421231054,
                2.199299240314332,
                0.14464028985672317,
                0.7967672112689875,
                -3.072550273306172
            ]
        },
        {
            "positions": [
                0.7251781229790065,
                -2.3661751073666863,
                2.2317746616552956,
                0.037178242741184364,
                0.7646364560986526,
                -3.0570155684261167
            ]
        },
        {
            "positions": [
                0.6736336048936469,
                -2.2147290726102673,
                2.2642500829962593,
                -0.07028380437435455,
                0.7325057009283178,
                -3.0414808635460613
            ]
        },
        {
            "positions": [
                0.6220890868082872,
                -2.0632830378538483,
                2.296725504337223,
                -0.1777458514898933,
                0.7003749457579829,
                -3.0259461586660055
            ]
        },
        {
            "positions": [
                0.5705445687229276,
                -1.9118370030974292,
                2.3292009256781867,
                -0.28520789860543216,
                0.668244190587648,
                -3.01041145378595
            ]
        },
        {
            "positions": [
                0.6369286773114667,
                -1.9092238330937819,
                2.360580537119165,
                -0.3713708876396102,
                0.682991896424467,
                -3.078209198770627
            ]
        },
        {
            "positions": [
                0.7033127859000059,
                -1.9066106630901343,
                2.3919601485601434,
                -0.4575338766737882,
                0.6977396022612862,
                -3.146006943755304
            ]
        }
    ]
}