{
    "goal": {
        "global_pose": {
            "orientation": {
                "w": 0.5084816217422485,
                "x": -0.49083608388900757,
                "y": 0.5182115435600281,
                "z": -0.4816462993621826
            },
            "position": {
                "x": 0.5540239810943604,
                "y": 0.030875300988554955,
                "z": 0.16403168439865112
            }
        },
        "name": "move_to_storage_A"
    },
    "id": "STRIDE_move_to_storage_A_4",
    "joint_names": [
        "shoulder_pan_joint",
        "shoulder_lift_joint",
        "elbow_joint",
        "wrist_1_joint",
        "wrist_2_joint",
        "wrist_3_joint"
    ],
    "metrics": {
        "cart_traj_len": 0.3533651157623382,
        "distance_elbow_joint": 0.4492984681232901,
        "distance_shoulder_lift_joint": 0.23322811631746765,
        "distance_shoulder_pan_joint": 0.46375520135976245,
        "distance_wrist_1_joint": 0.2460084001106514,
        "distance_wrist_2_joint": 1.0909961406427389,
        "distance_wrist_3_joint": 0.10678520956657156,
        "smoothness": 4.440892098500626e-16,
        "time": 0.158621499,
        "traj_len": 1.609369918980867,
        "weighted_distance": 2.0348578564624646
    },
    "planner": "STRIDE",
    "start": {
        "state": {
            "elbow_joint": 1.9715463870305268,
            "shoulder_lift_joint": -1.1394903361783484,
            "shoulder_pan_joint": 0.12281147578464417,
            "wrist_1_joint": -0.7804599489681411,
            "wrist_2_joint": 0.12958660307563738,
            "wrist_3_joint": -3.1924946282119055
        }
    },
    "waypoints": [
        {
            "positions": [
                0.12281147578464417,
                -1.1394903361783484,
                1.9715463870305268,
                -0.7804599489681411,
                0.12958660307563738,
                -3.1924946282119055
            ]
        },
        {
            "positions": [
                0.05656073273324955,
                -1.1728086385094152,
                2.035731882476711,
                -0.8156040061268056,
                0.2854431945960286,
                -3.177239598273824
            ]
        },
        {
            "positions": [
                -0.009690010318145079,
                -1.206126940840482,
                2.0999173779228952,
                -0.85074806328547,
                0.44129978611641985,
                -3.1619845683357424
            ]
        },
        {
            "positions": [
                -0.07594075336953972,
                -1.2394452431715488,
                2.1641028733690795,
                -0.8858921204441346,
                0.5971563776368112,
                -3.146729538397661
            ]
        },
        {
            "positions": [
                -0.14219149642093432,
                -1.2727635455026156,
                2.2282883688152637,
                -0.921036177602799,
                0.7530129691572024,
                -3.1314745084595788
            ]
        },
        {
            "positions": [
                -0.20844223947232898,
                -1.3060818478336824,
                2.2924738642614484,
                -0.9561802347614635,
                0.9088695606775937,
                -3.116219478521497
            ]
        },
        {
            "positions": [
                -0.2746929825237236,
                -1.3394001501647492,
                2.3566593597076326,
                -0.9913242919201279,
                1.064726152197985,
                -3.1009644485834156
            ]
        },
        {
            "positions": [
                -0.34094372557511826,
                -1.372718452495816,
                2.420844855153817,
                -1.0264683490787925,
                1.2205827437183763,
                -3.085709418645334
            ]
        }
    ]
}