{
    "goal": {
        "global_pose": {
            "orientation": {
                "w": 0.7031023502349854,
                "x": -0.7110244035720825,
                "y": 0.007748599164187908,
                "z": 0.005598929710686207
            },
            "position": {
                "x": 0.11585023208521307,
                "y": 0.44412534475326537,
                "z": 0.3711530566215515
            }
        },
        "name": "move_to_auspresseinheit_A"
    },
    "id": "STRIDE_move_to_auspresseinheit_A_138",
    "joint_names": [
        "shoulder_pan_joint",
        "shoulder_lift_joint",
        "elbow_joint",
        "wrist_1_joint",
        "wrist_2_joint",
        "wrist_3_joint"
    ],
    "metrics": {
        "cart_traj_len": 2.617439334877494,
        "distance_elbow_joint": 1.816766221160031,
        "distance_shoulder_lift_joint": 2.0903124323292004,
        "distance_shoulder_pan_joint": 5.6130780543654115,
        "distance_wrist_1_joint": 0.5465189347519501,
        "distance_wrist_2_joint": 1.2942188024186596,
        "distance_wrist_3_joint": 1.4859584674934303,
        "smoothness": 0.8435804298478937,
        "time": 0.380238961,
        "traj_len": 3.584250676573652,
        "weighted_distance": 4.202321689813401
    },
    "planner": "STRIDE",
    "start": {
        "state": {
            "elbow_joint": 2.422574709923281,
            "shoulder_lift_joint": -1.3736533754116391,
            "shoulder_pan_joint": -0.33786336945926293,
            "wrist_1_joint": -1.0288603412921917,
            "wrist_2_joint": 1.2330224858903978,
            "wrist_3_joint": -3.094022268022082
        }
    },
    "waypoints": [
        {
            "positions": [
                -0.33786336945926293,
                -1.3736533754116391,
                2.422574709923281,
                -1.0288603412921917,
                1.2330224858903978,
                -3.094022268022082
            ]
        },
        {
            "positions": [
                -0.47225975763539296,
                -1.4508789124103887,
                2.368367913282119,
                -1.0157873388501129,
                1.1795334113825153,
                -3.0512924577445504
            ]
        },
        {
            "positions": [
                -0.606656145811523,
                -1.528104449409138,
                2.314161116640957,
                -1.002714336408034,
                1.1260443368746331,
                -3.008562647467018
            ]
        },
        {
            "positions": [
                -0.7410525339876531,
                -1.6053299864078876,
                2.2599543199997947,
                -0.9896413339659551,
                1.0725552623667507,
                -2.9658328371894864
            ]
        },
        {
            "positions": [
                -0.8754489221637831,
                -1.682555523406637,
                2.2057475233586326,
                -0.9765683315238762,
                1.0190661878588683,
                -2.9231030269119542
            ]
        },
        {
            "positions": [
                -1.0098453103399132,
                -1.7597810604053865,
                2.1515407267174704,
                -0.9634953290817974,
                0.9655771133509861,
                -2.8803732166344225
            ]
        },
        {
            "positions": [
                -1.1442416985160433,
                -1.837006597404136,
                2.0973339300763083,
                -0.9504223266397185,
                0.9120880388431036,
                -2.8376434063568903
            ]
        },
        {
            "positions": [
                -1.2786380866921734,
                -1.9142321344028854,
                2.043127133435146,
                -0.9373493241976396,
                0.8585989643352213,
                -2.7949135960793585
            ]
        },
        {
            "positions": [
                -1.4130344748683035,
                -1.9914576714016348,
                1.9889203367939838,
                -0.9242763217555607,
                0.805109889827339,
                -2.7521837858018268
            ]
        },
        {
            "positions": [
                -1.5474308630444336,
                -2.0686832084003846,
                1.9347135401528217,
                -0.9112033193134819,
                0.7516208153194566,
                -2.7094539755242946
            ]
        },
        {
            "positions": [
                -1.6818272512205636,
                -2.145908745399134,
                1.8805067435116594,
                -0.898130316871403,
                0.6981317408115743,
                -2.666724165246763
            ]
        },
        {
            "positions": [
                -1.8162236393966937,
                -2.2231342823978832,
                1.8262999468704972,
                -0.8850573144293241,
                0.6446426663036918,
                -2.6239943549692306
            ]
        },
        {
            "positions": [
                -1.9506200275728238,
                -2.300359819396633,
                1.7720931502293351,
                -0.8719843119872452,
                0.5911535917958095,
                -2.581264544691699
            ]
        },
        {
            "positions": [
                -2.0850164157489535,
                -2.3775853563953824,
                1.717886353588173,
                -0.8589113095451664,
                0.5376645172879273,
                -2.538534734414167
            ]
        },
        {
            "positions": [
                -2.2194128039250836,
                -2.4548108933941317,
                1.6636795569470109,
                -0.8458383071030875,
                0.4841754427800449,
                -2.495804924136635
            ]
        },
        {
            "positions": [
                -2.3538091921012136,
                -2.532036430392881,
                1.6094727603058487,
                -0.8327653046610086,
                0.43068636827216256,
                -2.453075113859103
            ]
        },
        {
            "positions": [
                -2.4882055802773437,
                -2.609261967391631,
                1.5552659636646866,
                -0.8196923022189297,
                0.37719729376428013,
                -2.410345303581571
            ]
        },
        {
            "positions": [
                -2.622601968453474,
                -2.68648750439038,
                1.5010591670235245,
                -0.8066192997768509,
                0.3237082192563978,
                -2.367615493304039
            ]
        },
        {
            "positions": [
                -2.4268172946081092,
                -2.6407534865462354,
                1.5537209716270701,
                -0.7875441295864621,
                0.3463496625378484,
                -2.412295004643768
            ]
        },
        {
            "positions": [
                -2.2310326207627447,
                -2.5950194687020907,
                1.6063827762306155,
                -0.7684689593960733,
                0.3689911058192989,
                -2.4569745159834966
            ]
        },
        {
            "positions": [
                -2.03524794691738,
                -2.5492854508579463,
                1.6590445808341612,
                -0.7493937892056846,
                0.39163254910074946,
                -2.5016540273232253
            ]
        },
        {
            "positions": [
                -1.8394632730720155,
                -2.5035514330138016,
                1.7117063854377068,
                -0.7303186190152957,
                0.4142739923822,
                -2.546333538662954
            ]
        },
        {
            "positions": [
                -1.643678599226651,
                -2.457817415169657,
                1.7643681900412522,
                -0.711243448824907,
                0.43691543566365054,
                -2.5910130500026827
            ]
        },
        {
            "positions": [
                -1.4478939253812864,
                -2.412083397325512,
                1.8170299946447979,
                -0.6921682786345181,
                0.4595568789451011,
                -2.6356925613424114
            ]
        },
        {
            "positions": [
                -1.2521092515359218,
                -2.3663493794813677,
                1.8696917992483435,
                -0.6730931084441294,
                0.4821983222265517,
                -2.6803720726821396
            ]
        },
        {
            "positions": [
                -1.0563245776905572,
                -2.320615361637223,
                1.922353603851889,
                -0.6540179382537405,
                0.5048397655080021,
                -2.7250515840218688
            ]
        },
        {
            "positions": [
                -0.8605399038451926,
                -2.274881343793078,
                1.9750154084554346,
                -0.6349427680633518,
                0.5274812087894527,
                -2.769731095361597
            ]
        },
        {
            "positions": [
                -0.6647552299998281,
                -2.2291473259489334,
                2.02767721305898,
                -0.6158675978729631,
                0.5501226520709033,
                -2.814410606701326
            ]
        },
        {
            "positions": [
                -0.4689705561544635,
                -2.1834133081047886,
                2.0803390176625256,
                -0.5967924276825742,
                0.5727640953523538,
                -2.8590901180410544
            ]
        },
        {
            "positions": [
                -0.2731858823090989,
                -2.1376792902606443,
                2.1330008222660712,
                -0.5777172574921854,
                0.5954055386338044,
                -2.903769629380783
            ]
        },
        {
            "positions": [
                -0.07740120846373433,
                -2.0919452724164995,
                2.1856626268696164,
                -0.5586420873017968,
                0.618046981915255,
                -2.948449140720512
            ]
        },
        {
            "positions": [
                0.11838346538163025,
                -2.0462112545723548,
                2.2383244314731625,
                -0.5395669171114079,
                0.6406884251967055,
                -2.9931286520602405
            ]
        },
        {
            "positions": [
                0.3141681392269948,
                -2.0004772367282104,
                2.2909862360767077,
                -0.5204917469210191,
                0.6633298684781561,
                -3.037808163399969
            ]
        },
        {
            "positions": [
                0.5099528130723594,
                -1.9547432188840657,
                2.3436480406802533,
                -0.5014165767306303,
                0.6859713117596066,
                -3.082487674739698
            ]
        },
        {
            "positions": [
                0.7057374869177241,
                -1.9090092010399209,
                2.396309845283799,
                -0.48234140654024155,
                0.7086127550410571,
                -3.1271671860794266
            ]
        }
    ]
}