{
    "goal": {
        "global_pose": {
            "orientation": {
                "w": 0.7047431468963623,
                "x": -0.7094548344612122,
                "y": 0.0024358443915843964,
                "z": -0.0022348060738295317
            },
            "position": {
                "x": 0.6094750761985779,
                "y": 0.3671506643295288,
                "z": 0.19426114857196808
            }
        },
        "name": "move_to_magneteinheit_A"
    },
    "id": "STRIDE_move_to_magneteinheit_A_141",
    "joint_names": [
        "shoulder_pan_joint",
        "shoulder_lift_joint",
        "elbow_joint",
        "wrist_1_joint",
        "wrist_2_joint",
        "wrist_3_joint"
    ],
    "metrics": {
        "cart_traj_len": 1.877403465736774,
        "distance_elbow_joint": 3.9127851978279846,
        "distance_shoulder_lift_joint": 0.700882510604641,
        "distance_shoulder_pan_joint": 1.241280173263402,
        "distance_wrist_1_joint": 1.4933519724864328,
        "distance_wrist_2_joint": 1.7055425263317705,
        "distance_wrist_3_joint": 1.101900555333464,
        "smoothness": 5.592234496799016e-16,
        "time": 0.07293032699999999,
        "traj_len": 3.186807640233043,
        "weighted_distance": 3.9444186574618096
    },
    "planner": "STRIDE",
    "start": {
        "state": {
            "elbow_joint": -1.919643507792019,
            "shoulder_lift_joint": -0.07675430207160344,
            "shoulder_pan_joint": -1.1188671864651873,
            "wrist_1_joint": 0.42560062535961957,
            "wrist_2_joint": 1.5706038300724876,
            "wrist_3_joint": 1.1188968870953055
        }
    },
    "waypoints": [
        {
            "positions": [
                -1.1188671864651873,
                -0.07675430207160344,
                -1.919643507792019,
                0.42560062535961957,
                1.5706038300724876,
                1.1188968870953055
            ]
        },
        {
            "positions": [
                -1.071125641339672,
                -0.10371132171024348,
                -1.7691517694140197,
                0.48303723968602086,
                1.5050060405981887,
                1.076516096505557
            ]
        },
        {
            "positions": [
                -1.0233840962141565,
                -0.13066834134888353,
                -1.6186600310360202,
                0.5404738540124221,
                1.43940825112389,
                1.0341353059158083
            ]
        },
        {
            "positions": [
                -0.975642551088641,
                -0.15762536098752356,
                -1.4681682926580208,
                0.5979104683388233,
                1.373810461649591,
                0.9917545153260597
            ]
        },
        {
            "positions": [
                -0.9279010059631255,
                -0.1845823806261636,
                -1.3176765542800215,
                0.6553470826652246,
                1.308212672175292,
                0.9493737247363111
            ]
        },
        {
            "positions": [
                -0.88015946083761,
                -0.21153940026480364,
                -1.1671848159020222,
                0.7127836969916259,
                1.2426148827009933,
                0.9069929341465625
            ]
        },
        {
            "positions": [
                -0.8324179157120946,
                -0.2384964199034437,
                -1.0166930775240226,
                0.7702203113180272,
                1.1770170932266943,
                0.8646121435568139
            ]
        },
        {
            "positions": [
                -0.7846763705865791,
                -0.26545343954208367,
                -0.8662013391460233,
                0.8276569256444284,
                1.1114193037523956,
                0.8222313529670653
            ]
        },
        {
            "positions": [
                -0.7369348254610637,
                -0.2924104591807238,
                -0.7157096007680237,
                0.8850935399708297,
                1.0458215142780967,
                0.7798505623773166
            ]
        },
        {
            "positions": [
                -0.6891932803355483,
                -0.3193674788193638,
                -0.5652178623900244,
                0.9425301542972309,
                0.9802237248037978,
                0.737469771787568
            ]
        },
        {
            "positions": [
                -0.6414517352100326,
                -0.34632449845800384,
                -0.414726124012025,
                0.9999667686236322,
                0.9146259353294989,
                0.6950889811978194
            ]
        },
        {
            "positions": [
                -0.5937101900845173,
                -0.3732815180966439,
                -0.2642343856340257,
                1.0574033829500333,
                0.8490281458552001,
                0.6527081906080707
            ]
        },
        {
            "positions": [
                -0.5459686449590018,
                -0.40023853773528395,
                -0.11374264725602612,
                1.1148399972764347,
                0.7834303563809012,
                0.6103274000183222
            ]
        },
        {
            "positions": [
                -0.49822709983348634,
                -0.42719555737392395,
                0.03674909112197322,
                1.172276611602836,
                0.7178325669066024,
                0.5679466094285736
            ]
        },
        {
            "positions": [
                -0.4504855547079709,
                -0.45415257701256395,
                0.18724082949997256,
                1.2297132259292372,
                0.6522347774323035,
                0.5255658188388249
            ]
        },
        {
            "positions": [
                -0.4027440095824555,
                -0.481109596651204,
                0.3377325678779719,
                1.2871498402556385,
                0.5866369879580047,
                0.4831850282490764
            ]
        },
        {
            "positions": [
                -0.35500246445693995,
                -0.5080666162898442,
                0.4882243062559717,
                1.3445864545820398,
                0.5210391984837057,
                0.44080423765932764
            ]
        },
        {
            "positions": [
                -0.3072609193314245,
                -0.5350236359284841,
                0.638716044633971,
                1.402023068908441,
                0.4554414090094068,
                0.3984234470695791
            ]
        },
        {
            "positions": [
                -0.2595193742059091,
                -0.5619806555671241,
                0.7892077830119704,
                1.4594596832348423,
                0.38984361953510804,
                0.35604265647983047
            ]
        },
        {
            "positions": [
                -0.21177782908039366,
                -0.5889376752057642,
                0.9396995213899697,
                1.5168962975612434,
                0.3242458300608093,
                0.31366186589008194
            ]
        },
        {
            "positions": [
                -0.16403628395487801,
                -0.6158946948444042,
                1.090191259767969,
                1.574332911887645,
                0.25864804058651014,
                0.2712810753003332
            ]
        },
        {
            "positions": [
                -0.1162947388293627,
                -0.6428517144830443,
                1.2406829981459684,
                1.6317695262140461,
                0.1930502511122114,
                0.22890028471058466
            ]
        },
        {
            "positions": [
                -0.06855319370384727,
                -0.6698087341216843,
                1.3911747365239677,
                1.6892061405404473,
                0.12745246163791268,
                0.18651949412083602
            ]
        },
        {
            "positions": [
                -0.020811648578331843,
                -0.6967657537603242,
                1.541666474901967,
                1.7466427548668486,
                0.06185467216361373,
                0.1441387035310875
            ]
        },
        {
            "positions": [
                0.026929896547183807,
                -0.7237227733989644,
                1.6921582132799668,
                1.80407936919325,
                -0.003743117310685218,
                0.10175791294133885
            ]
        },
        {
            "positions": [
                0.07467144167269923,
                -0.7506797930376043,
                1.8426499516579662,
                1.8615159835196513,
                -0.06934090678498417,
                0.059377122351590206
            ]
        },
        {
            "positions": [
                0.12241298679821462,
                -0.7776368126762445,
                1.9931416900359653,
                1.9189525978460524,
                -0.13493869625928298,
                0.016996331761841663
            ]
        }
    ]
}