{
    "goal": {
        "global_pose": {
            "orientation": {
                "w": 0.7047431468963623,
                "x": -0.7094548344612122,
                "y": 0.0024358443915843964,
                "z": -0.0022348060738295317
            },
            "position": {
                "x": 0.6094750761985779,
                "y": 0.3671506643295288,
                "z": 0.19426114857196808
            }
        },
        "name": "move_to_magneteinheit_A"
    },
    "id": "STRIDE_move_to_magneteinheit_A_42",
    "joint_names": [
        "shoulder_pan_joint",
        "shoulder_lift_joint",
        "elbow_joint",
        "wrist_1_joint",
        "wrist_2_joint",
        "wrist_3_joint"
    ],
    "metrics": {
        "cart_traj_len": 1.8784731250168514,
        "distance_elbow_joint": 3.915574632170605,
        "distance_shoulder_lift_joint": 0.7015891330737561,
        "distance_shoulder_pan_joint": 1.2419461664753135,
        "distance_wrist_1_joint": 1.4946549863814722,
        "distance_wrist_2_joint": 1.7062127060298036,
        "distance_wrist_3_joint": 1.1163827172130585,
        "smoothness": 5.592234510853675e-16,
        "time": 0.357151343,
        "traj_len": 3.190040805592306,
        "weighted_distance": 3.950948426413764
    },
    "planner": "STRIDE",
    "start": {
        "state": {
            "elbow_joint": -1.919643507792019,
            "shoulder_lift_joint": -0.07675430207160344,
            "shoulder_pan_joint": -1.1188671864651873,
            "wrist_1_joint": 0.42560062535961957,
            "wrist_2_joint": 1.5706038300724876,
            "wrist_3_joint": 1.1188968870953055
        }
    },
    "waypoints": [
        {
            "positions": [
                -1.1188671864651873,
                -0.07675430207160344,
                -1.919643507792019,
                0.42560062535961957,
                1.5706038300724876,
                1.1188968870953055
            ]
        },
        {
            "positions": [
                -1.0711000262161368,
                -0.10373849949751715,
                -1.769044483477765,
                0.48308735560506083,
                1.5049802644559567,
                1.0759590902794187
            ]
        },
        {
            "positions": [
                -1.0233328659670864,
                -0.13072269692343086,
                -1.6184454591635111,
                0.540574085850502,
                1.4393566988394257,
                1.0330212934635319
            ]
        },
        {
            "positions": [
                -0.9755657057180358,
                -0.15770689434934454,
                -1.4678464348492568,
                0.5980608160959433,
                1.3737331332228948,
                0.990083496647645
            ]
        },
        {
            "positions": [
                -0.9277985454689852,
                -0.18469109177525828,
                -1.317247410535003,
                0.6555475463413846,
                1.308109567606364,
                0.9471456998317581
            ]
        },
        {
            "positions": [
                -0.8800313852199347,
                -0.21167528920117196,
                -1.1666483862207488,
                0.7130342765868258,
                1.2424860019898332,
                0.9042079030158712
            ]
        },
        {
            "positions": [
                -0.8322642249708843,
                -0.23865948662708567,
                -1.0160493619064948,
                0.770521006832267,
                1.1768624363733022,
                0.8612701061999843
            ]
        },
        {
            "positions": [
                -0.7844970647218337,
                -0.2656436840529993,
                -0.8654503375922409,
                0.8280077370777081,
                1.1112388707567713,
                0.8183323093840975
            ]
        },
        {
            "positions": [
                -0.7367299044727831,
                -0.29262788147891305,
                -0.7148513132779868,
                0.8854944673231495,
                1.0456153051402404,
                0.7753945125682107
            ]
        },
        {
            "positions": [
                -0.6889627442237327,
                -0.3196120789048268,
                -0.5642522889637327,
                0.9429811975685907,
                0.9799917395237094,
                0.7324567157523239
            ]
        },
        {
            "positions": [
                -0.6411955839746821,
                -0.34659627633074047,
                -0.4136532646494786,
                1.000467927814032,
                0.9143681739071785,
                0.6895189189364368
            ]
        },
        {
            "positions": [
                -0.5934284237256316,
                -0.37358047375665415,
                -0.26305424033522473,
                1.0579546580594732,
                0.8487446082906477,
                0.64658112212055
            ]
        },
        {
            "positions": [
                -0.5456612634765811,
                -0.4005646711825679,
                -0.11245521602097042,
                1.1154413883049146,
                0.7831210426741166,
                0.6036433253046631
            ]
        },
        {
            "positions": [
                -0.4978941032275306,
                -0.42754886860848157,
                0.038143808293283454,
                1.1729281185503557,
                0.7174974770575858,
                0.5607055284887763
            ]
        },
        {
            "positions": [
                -0.4501269429784801,
                -0.45453306603439525,
                0.18874283260753733,
                1.2304148487957969,
                0.651873911441055,
                0.5177677316728895
            ]
        },
        {
            "positions": [
                -0.4023597827294296,
                -0.48151726346030893,
                0.3393418569217912,
                1.287901579041238,
                0.5862503458245241,
                0.47482993485700264
            ]
        },
        {
            "positions": [
                -0.3545926224803789,
                -0.5085014608862227,
                0.4899408812360455,
                1.3453883092866794,
                0.5206267802079931,
                0.4318921380411157
            ]
        },
        {
            "positions": [
                -0.30682546223132845,
                -0.5354856583121363,
                0.6405399055502998,
                1.4028750395321206,
                0.4550032145914622,
                0.3889543412252289
            ]
        },
        {
            "positions": [
                -0.25905830198227797,
                -0.5624698557380501,
                0.7911389298645537,
                1.460361769777562,
                0.38937964897493127,
                0.34601654440934204
            ]
        },
        {
            "positions": [
                -0.2112911417332275,
                -0.5894540531639638,
                0.9417379541788076,
                1.517848500023003,
                0.32375608335840056,
                0.3030787475934552
            ]
        },
        {
            "positions": [
                -0.1635239814841769,
                -0.6164382505898776,
                1.0923369784930619,
                1.5753352302684445,
                0.2581325177418694,
                0.26014095077756816
            ]
        },
        {
            "positions": [
                -0.11575682123512632,
                -0.6434224480157913,
                1.2429360028073158,
                1.6328219605138856,
                0.19250895212533847,
                0.21720315396168133
            ]
        },
        {
            "positions": [
                -0.06798966098607595,
                -0.6704066454417048,
                1.3935350271215696,
                1.6903086907593268,
                0.12688538650880776,
                0.1742653571457945
            ]
        },
        {
            "positions": [
                -0.020222500737025362,
                -0.6973908428676185,
                1.544134051435824,
                1.7477954210047681,
                0.06126182089227683,
                0.13132756032990767
            ]
        },
        {
            "positions": [
                0.027544659512025227,
                -0.7243750402935323,
                1.6947330757500783,
                1.8052821512502095,
                -0.004361744724254324,
                0.08838976351402072
            ]
        },
        {
            "positions": [
                0.0753118197610756,
                -0.751359237719446,
                1.8453321000643321,
                1.8627688814956507,
                -0.06998531034078503,
                0.045451966698133894
            ]
        },
        {
            "positions": [
                0.12307898001012628,
                -0.7783434351453596,
                1.9959311243785862,
                1.9202556117410918,
                -0.13560887595731588,
                0.002514169882247043
            ]
        }
    ]
}