{
    "goal": {
        "global_pose": {
            "orientation": {
                "w": 0.7031023502349854,
                "x": -0.7110244035720825,
                "y": 0.007748599164187908,
                "z": 0.005598929710686207
            },
            "position": {
                "x": 0.11585023208521307,
                "y": 0.44412534475326537,
                "z": 0.3711530566215515
            }
        },
        "name": "move_to_auspresseinheit_A"
    },
    "id": "STRIDE_move_to_auspresseinheit_A_68",
    "joint_names": [
        "shoulder_pan_joint",
        "shoulder_lift_joint",
        "elbow_joint",
        "wrist_1_joint",
        "wrist_2_joint",
        "wrist_3_joint"
    ],
    "metrics": {
        "cart_traj_len": 1.2304948737810764,
        "distance_elbow_joint": 0.2028372214616132,
        "distance_shoulder_lift_joint": 0.5366075036219042,
        "distance_shoulder_pan_joint": 1.97051119737563,
        "distance_wrist_1_joint": 0.5614679533140234,
        "distance_wrist_2_joint": 0.5164250369131185,
        "distance_wrist_3_joint": 0.8068145851376216,
        "smoothness": 1.2819916782281828,
        "time": 0.193066281,
        "traj_len": 2.1435166194419653,
        "weighted_distance": 2.699293548009608
    },
    "planner": "STRIDE",
    "start": {
        "state": {
            "elbow_joint": 2.422574709923281,
            "shoulder_lift_joint": -1.3736533754116391,
            "shoulder_pan_joint": -0.33786336945926293,
            "wrist_1_joint": -1.0288603412921917,
            "wrist_2_joint": 1.2330224858903978,
            "wrist_3_joint": -3.094022268022082
        }
    },
    "waypoints": [
        {
            "positions": [
                -0.33786336945926293,
                -1.3736533754116391,
                2.422574709923281,
                -1.0288603412921917,
                1.2330224858903978,
                -3.094022268022082
            ]
        },
        {
            "positions": [
                -0.4535167625930613,
                -1.44351974632192,
                2.393641712604962,
                -0.987570241455079,
                1.2242740956118587,
                -2.9981851827605
            ]
        },
        {
            "positions": [
                -0.5691701557268597,
                -1.513386117232201,
                2.3647087152866426,
                -0.9462801416179663,
                1.21552570533332,
                -2.9023480974989173
            ]
        },
        {
            "positions": [
                -0.684823548860658,
                -1.5832524881424819,
                2.3357757179683234,
                -0.9049900417808535,
                1.2067773150547811,
                -2.806511012237335
            ]
        },
        {
            "positions": [
                -0.8004769419944564,
                -1.6531188590527628,
                2.306842720650004,
                -0.8636999419437408,
                1.1980289247762421,
                -2.710673926975753
            ]
        },
        {
            "positions": [
                -0.6119897388894018,
                -1.6852616115503603,
                2.317730874673546,
                -0.8141614976980442,
                1.1378499903013717,
                -2.7636072074871647
            ]
        },
        {
            "positions": [
                -0.42350253578434727,
                -1.717404364047958,
                2.328619028697088,
                -0.7646230534523477,
                1.0776710558265015,
                -2.816540487998576
            ]
        },
        {
            "positions": [
                -0.23501533267929275,
                -1.7495471165455556,
                2.3395071827206304,
                -0.7150846092066512,
                1.017492121351631,
                -2.8694737685099874
            ]
        },
        {
            "positions": [
                -0.04652812957423813,
                -1.781689869043153,
                2.3503953367441723,
                -0.6655461649609545,
                0.9573131868767607,
                -2.922407049021399
            ]
        },
        {
            "positions": [
                0.1419590735308165,
                -1.8138326215407505,
                2.3612834907677143,
                -0.616007720715258,
                0.8971342524018904,
                -2.975340329532811
            ]
        },
        {
            "positions": [
                0.3304462766358709,
                -1.8459753740383482,
                2.3721716447912566,
                -0.5664692764695615,
                0.8369553179270199,
                -3.0282736100442222
            ]
        },
        {
            "positions": [
                0.5189334797409255,
                -1.878118126535946,
                2.3830597988147986,
                -0.5169308322238648,
                0.7767763834521496,
                -3.0812068905556336
            ]
        },
        {
            "positions": [
                0.7074206828459801,
                -1.9102608790335434,
                2.3939479528383405,
                -0.46739238797816834,
                0.7165974489772793,
                -3.1341401710670453
            ]
        }
    ]
}