{
    "goal": {
        "global_pose": {
            "orientation": {
                "w": 0.5084816217422485,
                "x": -0.49083608388900757,
                "y": 0.5182115435600281,
                "z": -0.4816462993621826
            },
            "position": {
                "x": 0.5540239810943604,
                "y": 0.030875300988554955,
                "z": 0.16403168439865112
            }
        },
        "name": "move_to_storage_A"
    },
    "id": "STRIDE_move_to_storage_A_46",
    "joint_names": [
        "shoulder_pan_joint",
        "shoulder_lift_joint",
        "elbow_joint",
        "wrist_1_joint",
        "wrist_2_joint",
        "wrist_3_joint"
    ],
    "metrics": {
        "cart_traj_len": 0.3527649379474636,
        "distance_elbow_joint": 0.4527050951467011,
        "distance_shoulder_lift_joint": 0.23240151953006638,
        "distance_shoulder_pan_joint": 0.4574397848417507,
        "distance_wrist_1_joint": 0.2585700044293183,
        "distance_wrist_2_joint": 1.1140191578245755,
        "distance_wrist_3_joint": 0.104491943602111,
        "smoothness": 4.440892098500626e-16,
        "time": 0.16748069100000001,
        "traj_len": 1.6185263375597332,
        "weighted_distance": 2.049683037650612
    },
    "planner": "STRIDE",
    "start": {
        "state": {
            "elbow_joint": 1.9715463870305268,
            "shoulder_lift_joint": -1.1394903361783484,
            "shoulder_pan_joint": 0.12281147578464417,
            "wrist_1_joint": -0.7804599489681411,
            "wrist_2_joint": 0.12958660307563738,
            "wrist_3_joint": -3.1924946282119055
        }
    },
    "waypoints": [
        {
            "positions": [
                0.12281147578464417,
                -1.1394903361783484,
                1.9715463870305268,
                -0.7804599489681411,
                0.12958660307563738,
                -3.1924946282119055
            ]
        },
        {
            "positions": [
                0.0574629350929655,
                -1.1726905532540721,
                2.0362185434800555,
                -0.8173985210294723,
                0.28873219705057673,
                -3.1775672076973183
            ]
        },
        {
            "positions": [
                -0.007885605598713166,
                -1.2058907703297959,
                2.100890699929584,
                -0.8543370930908034,
                0.44787779102551606,
                -3.162639787182731
            ]
        },
        {
            "positions": [
                -0.07323414629039184,
                -1.2390909874055196,
                2.165562856379113,
                -0.8912756651521346,
                0.6070233850004554,
                -3.1477123666681437
            ]
        },
        {
            "positions": [
                -0.1385826869820705,
                -1.2722912044812436,
                2.2302350128286417,
                -0.9282142372134659,
                0.7661689789753948,
                -3.1327849461535564
            ]
        },
        {
            "positions": [
                -0.20393122767374916,
                -1.3054914215569673,
                2.2949071692781704,
                -0.965152809274797,
                0.9253145729503343,
                -3.117857525638969
            ]
        },
        {
            "positions": [
                -0.26927976836542783,
                -1.338691638632691,
                2.359579325727699,
                -1.0020913813361283,
                1.0844601669252734,
                -3.102930105124382
            ]
        },
        {
            "positions": [
                -0.3346283090571065,
                -1.3718918557084148,
                2.424251482177228,
                -1.0390299533974594,
                1.243605760900213,
                -3.0880026846097945
            ]
        }
    ]
}