{
    "goal": {
        "global_pose": {
            "orientation": {
                "w": 0.7047431468963623,
                "x": -0.7094548344612122,
                "y": 0.0024358443915843964,
                "z": -0.0022348060738295317
            },
            "position": {
                "x": 0.6094750761985779,
                "y": 0.3671506643295288,
                "z": 0.19426114857196808
            }
        },
        "name": "move_to_magneteinheit_A"
    },
    "id": "STRIDE_move_to_magneteinheit_A_126",
    "joint_names": [
        "shoulder_pan_joint",
        "shoulder_lift_joint",
        "elbow_joint",
        "wrist_1_joint",
        "wrist_2_joint",
        "wrist_3_joint"
    ],
    "metrics": {
        "cart_traj_len": 1.87612556194079,
        "distance_elbow_joint": 3.9165286605452696,
        "distance_shoulder_lift_joint": 0.7032202845723996,
        "distance_shoulder_pan_joint": 1.241713732742342,
        "distance_wrist_1_joint": 1.5104789307353892,
        "distance_wrist_2_joint": 1.6961175939278466,
        "distance_wrist_3_joint": 1.139733678209343,
        "smoothness": 9.86864913096046e-16,
        "time": 0.14004756699999998,
        "traj_len": 3.194963674399537,
        "weighted_distance": 3.9615472686583604
    },
    "planner": "STRIDE",
    "start": {
        "state": {
            "elbow_joint": -1.919643507792019,
            "shoulder_lift_joint": -0.07675430207160344,
            "shoulder_pan_joint": -1.1188671864651873,
            "wrist_1_joint": 0.42560062535961957,
            "wrist_2_joint": 1.5706038300724876,
            "wrist_3_joint": 1.1188968870953055
        }
    },
    "waypoints": [
        {
            "positions": [
                -1.1188671864651873,
                -0.07675430207160344,
                -1.919643507792019,
                0.42560062535961957,
                1.5706038300724876,
                1.1188968870953055
            ]
        },
        {
            "positions": [
                -1.0711089659750972,
                -0.10380123609361881,
                -1.7690077900787395,
                0.4836959688494422,
                1.5053685379983397,
                1.0750609763949461
            ]
        },
        {
            "positions": [
                -1.0233507454850073,
                -0.13084817011563418,
                -1.6183720723654598,
                0.5417913123392649,
                1.4401332459241918,
                1.031225065694587
            ]
        },
        {
            "positions": [
                -0.9755925249949171,
                -0.15789510413764957,
                -1.4677363546521802,
                0.5998866558290876,
                1.3748979538500437,
                0.9873891549942275
            ]
        },
        {
            "positions": [
                -0.9278343045048271,
                -0.18494203815966492,
                -1.3171006369389007,
                0.6579819993189102,
                1.3096626617758957,
                0.9435532442938681
            ]
        },
        {
            "positions": [
                -0.8800760840147369,
                -0.2119889721816803,
                -1.166464919225621,
                0.7160773428087328,
                1.2444273697017478,
                0.8997173335935088
            ]
        },
        {
            "positions": [
                -0.8323178635246469,
                -0.23903590620369566,
                -1.0158292015123416,
                0.7741726862985556,
                1.1791920776276,
                0.8558814228931495
            ]
        },
        {
            "positions": [
                -0.7845596430345568,
                -0.26608284022571105,
                -0.865193483799062,
                0.8322680297883782,
                1.113956785553452,
                0.8120455121927901
            ]
        },
        {
            "positions": [
                -0.7368014225444668,
                -0.2931297742477264,
                -0.7145577660857823,
                0.8903633732782008,
                1.048721493479304,
                0.7682096014924307
            ]
        },
        {
            "positions": [
                -0.6890432020543766,
                -0.32017670826974176,
                -0.5639220483725027,
                0.9484587167680234,
                0.9834862014051561,
                0.7243736907920715
            ]
        },
        {
            "positions": [
                -0.6412849815642865,
                -0.3472236422917572,
                -0.41328633065922293,
                1.0065540602578462,
                0.9182509093310082,
                0.6805377800917121
            ]
        },
        {
            "positions": [
                -0.5935267610741966,
                -0.3742705763137725,
                -0.2626506129459436,
                1.0646494037476688,
                0.8530156172568603,
                0.6367018693913528
            ]
        },
        {
            "positions": [
                -0.5457685405841064,
                -0.4013175103357879,
                -0.11201489523266384,
                1.1227447472374916,
                0.7877803251827122,
                0.5928659586909933
            ]
        },
        {
            "positions": [
                -0.49801032009401636,
                -0.42836444435780324,
                0.03862082248061571,
                1.1808400907273142,
                0.7225450331085643,
                0.549030047990634
            ]
        },
        {
            "positions": [
                -0.4502520996039263,
                -0.4554113783798186,
                0.18925654019389504,
                1.2389354342171368,
                0.6573097410344164,
                0.5051941372902747
            ]
        },
        {
            "positions": [
                -0.4024938791138363,
                -0.48245831240183396,
                0.3398922579071748,
                1.2970307777069594,
                0.5920744489602685,
                0.46135822658991543
            ]
        },
        {
            "positions": [
                -0.3547356586237461,
                -0.5095052464238494,
                0.4905279756204546,
                1.3551261211967822,
                0.5268391568861204,
                0.4175223158895559
            ]
        },
        {
            "positions": [
                -0.3069774381336561,
                -0.5365521804458647,
                0.6411636933337344,
                1.4132214646866048,
                0.46160386481197246,
                0.3736864051891966
            ]
        },
        {
            "positions": [
                -0.25921921764356604,
                -0.56359911446788,
                0.7917994110470137,
                1.4713168081764274,
                0.39636857273782455,
                0.3298504944888373
            ]
        },
        {
            "positions": [
                -0.211460997153476,
                -0.5906460484898954,
                0.942435128760293,
                1.5294121516662502,
                0.33113328066367664,
                0.286014583788478
            ]
        },
        {
            "positions": [
                -0.16370277666338573,
                -0.6176929825119108,
                1.0930708464735732,
                1.5875074951560728,
                0.26589798858952873,
                0.24217867308811858
            ]
        },
        {
            "positions": [
                -0.11594455617329569,
                -0.6447399165339263,
                1.2437065641868525,
                1.6456028386458956,
                0.20066269651538082,
                0.19834276238775927
            ]
        },
        {
            "positions": [
                -0.06818633568320576,
                -0.6717868505559415,
                1.3943422819001319,
                1.7036981821357182,
                0.1354274044412329,
                0.15450685168739997
            ]
        },
        {
            "positions": [
                -0.020428115193115604,
                -0.6988337845779569,
                1.5449779996134116,
                1.7617935256255408,
                0.070192112367085,
                0.11067094098704056
            ]
        },
        {
            "positions": [
                0.02733010529697455,
                -0.7258807185999723,
                1.6956137173266914,
                1.8198888691153636,
                0.00495682029293687,
                0.06683503028668114
            ]
        },
        {
            "positions": [
                0.07508832578706448,
                -0.7529276526219877,
                1.8462494350399712,
                1.8779842126051862,
                -0.06027847178121104,
                0.022999119586321948
            ]
        },
        {
            "positions": [
                0.12284654627715465,
                -0.7799745866440031,
                1.9968851527532503,
                1.9360795560950088,
                -0.125513763855359,
                -0.02083679111403749
            ]
        }
    ]
}