{
    "goal": {
        "global_pose": {
            "orientation": {
                "w": 0.5084816217422485,
                "x": -0.49083608388900757,
                "y": 0.5182115435600281,
                "z": -0.4816462993621826
            },
            "position": {
                "x": 0.5540239810943604,
                "y": 0.030875300988554955,
                "z": 0.16403168439865112
            }
        },
        "name": "move_to_storage_A"
    },
    "id": "STRIDE_move_to_storage_A_54",
    "joint_names": [
        "shoulder_pan_joint",
        "shoulder_lift_joint",
        "elbow_joint",
        "wrist_1_joint",
        "wrist_2_joint",
        "wrist_3_joint"
    ],
    "metrics": {
        "cart_traj_len": 0.35234584453120193,
        "distance_elbow_joint": 0.4480563113941498,
        "distance_shoulder_lift_joint": 0.23618584648593344,
        "distance_shoulder_pan_joint": 0.462095704709744,
        "distance_wrist_1_joint": 0.23411710231031246,
        "distance_wrist_2_joint": 1.0920629748894173,
        "distance_wrist_3_joint": 0.09251579597276782,
        "smoothness": 8.881784197001252e-16,
        "time": 0.044964604,
        "traj_len": 1.6015722699155117,
        "weighted_distance": 2.018971372978723
    },
    "planner": "STRIDE",
    "start": {
        "state": {
            "elbow_joint": 1.9715463870305268,
            "shoulder_lift_joint": -1.1394903361783484,
            "shoulder_pan_joint": 0.12281147578464417,
            "wrist_1_joint": -0.7804599489681411,
            "wrist_2_joint": 0.12958660307563738,
            "wrist_3_joint": -3.1924946282119055
        }
    },
    "waypoints": [
        {
            "positions": [
                0.12281147578464417,
                -1.1394903361783484,
                1.9715463870305268,
                -0.7804599489681411,
                0.12958660307563738,
                -3.1924946282119055
            ]
        },
        {
            "positions": [
                0.056797803683252185,
                -1.1732311713906245,
                2.0355544315154055,
                -0.8139052492981858,
                0.2855955994884113,
                -3.1792780859300818
            ]
        },
        {
            "positions": [
                -0.009215868418139803,
                -1.2069720066029008,
                2.099562476000284,
                -0.8473505496282303,
                0.44160459590118517,
                -3.1660615436482575
            ]
        },
        {
            "positions": [
                -0.0752295405195318,
                -1.240712841815177,
                2.1635705204851625,
                -0.880795849958275,
                0.597613592313959,
                -3.1528450013664338
            ]
        },
        {
            "positions": [
                -0.14124321262092376,
                -1.2744536770274533,
                2.227578564970041,
                -0.9142411502883196,
                0.7536225887267329,
                -3.1396284590846095
            ]
        },
        {
            "positions": [
                -0.2072568847223158,
                -1.3081945122397294,
                2.2915866094549195,
                -0.9476864506183642,
                0.9096315851395069,
                -3.1264119168027857
            ]
        },
        {
            "positions": [
                -0.27327055682370777,
                -1.3419353474520057,
                2.355594653939798,
                -0.9811317509484089,
                1.0656405815522807,
                -3.1131953745209615
            ]
        },
        {
            "positions": [
                -0.3392842289250998,
                -1.3756761826642818,
                2.4196026984246766,
                -1.0145770512784535,
                1.2216495779650547,
                -3.0999788322391377
            ]
        }
    ]
}