{
    "goal": {
        "global_pose": {
            "orientation": {
                "w": 0.7047431468963623,
                "x": -0.7094548344612122,
                "y": 0.0024358443915843964,
                "z": -0.0022348060738295317
            },
            "position": {
                "x": 0.6094750761985779,
                "y": 0.3671506643295288,
                "z": 0.19426114857196808
            }
        },
        "name": "move_to_magneteinheit_A"
    },
    "id": "STRIDE_move_to_magneteinheit_A_43",
    "joint_names": [
        "shoulder_pan_joint",
        "shoulder_lift_joint",
        "elbow_joint",
        "wrist_1_joint",
        "wrist_2_joint",
        "wrist_3_joint"
    ],
    "metrics": {
        "cart_traj_len": 1.8794427851097404,
        "distance_elbow_joint": 3.9137021007469874,
        "distance_shoulder_lift_joint": 0.7007744161559192,
        "distance_shoulder_pan_joint": 1.241614877560502,
        "distance_wrist_1_joint": 1.4866020770756376,
        "distance_wrist_2_joint": 1.7055451440052485,
        "distance_wrist_3_joint": 1.1076687788470247,
        "smoothness": 4.276414619397388e-16,
        "time": 0.079528638,
        "traj_len": 3.186833443151888,
        "weighted_distance": 3.945046536248496
    },
    "planner": "STRIDE",
    "start": {
        "state": {
            "elbow_joint": -1.919643507792019,
            "shoulder_lift_joint": -0.07675430207160344,
            "shoulder_pan_joint": -1.1188671864651873,
            "wrist_1_joint": 0.42560062535961957,
            "wrist_2_joint": 1.5706038300724876,
            "wrist_3_joint": 1.1188968870953055
        }
    },
    "waypoints": [
        {
            "positions": [
                -1.1188671864651873,
                -0.07675430207160344,
                -1.919643507792019,
                0.42560062535961957,
                1.5706038300724876,
                1.1188968870953055
            ]
        },
        {
            "positions": [
                -1.0711127680974757,
                -0.10370716423144649,
                -1.769116503917135,
                0.4827776283240672,
                1.5050059399184397,
                1.0762942417550354
            ]
        },
        {
            "positions": [
                -1.023358349729764,
                -0.13066002639128954,
                -1.6185895000422508,
                0.5399546312885147,
                1.4394080497643915,
                1.0336915964147653
            ]
        },
        {
            "positions": [
                -0.9756039313620525,
                -0.1576128885511326,
                -1.4680624961673667,
                0.5971316342529623,
                1.3738101596103436,
                0.991088951074495
            ]
        },
        {
            "positions": [
                -0.9278495129943409,
                -0.18456575071097564,
                -1.3175354922924827,
                0.65430863721741,
                1.3082122694562957,
                0.9484863057342248
            ]
        },
        {
            "positions": [
                -0.8800950946266293,
                -0.2115186128708187,
                -1.1670084884175984,
                0.7114856401818577,
                1.2426143793022475,
                0.9058836603939546
            ]
        },
        {
            "positions": [
                -0.8323406762589176,
                -0.23847147503066174,
                -1.0164814845427141,
                0.7686626431463052,
                1.1770164891481993,
                0.8632810150536845
            ]
        },
        {
            "positions": [
                -0.7845862578912061,
                -0.2654243371905048,
                -0.8659544806678303,
                0.8258396461107528,
                1.1114185989941516,
                0.8206783697134143
            ]
        },
        {
            "positions": [
                -0.7368318395234944,
                -0.29237719935034784,
                -0.715427476792946,
                0.8830166490752004,
                1.0458207088401035,
                0.7780757243731441
            ]
        },
        {
            "positions": [
                -0.6890774211557829,
                -0.3193300615101909,
                -0.564900472918062,
                0.9401936520396479,
                0.9802228186860554,
                0.7354730790328738
            ]
        },
        {
            "positions": [
                -0.6413230027880712,
                -0.34628292367003394,
                -0.41437346904317773,
                0.9973706550040957,
                0.9146249285320074,
                0.6928704336926037
            ]
        },
        {
            "positions": [
                -0.5935685844203595,
                -0.373235785829877,
                -0.2638464651682937,
                1.054547657968543,
                0.8490270383779595,
                0.6502677883523336
            ]
        },
        {
            "positions": [
                -0.5458141660526479,
                -0.40018864798972004,
                -0.11331946129340942,
                1.1117246609329907,
                0.7834291482239113,
                0.6076651430120633
            ]
        },
        {
            "positions": [
                -0.4980597476849363,
                -0.4271415101495631,
                0.03720754258147463,
                1.1689016638974383,
                0.7178312580698634,
                0.5650624976717932
            ]
        },
        {
            "positions": [
                -0.4503053293172248,
                -0.45409437230940614,
                0.18773454645635845,
                1.226078666861886,
                0.6522333679158154,
                0.522459852331523
            ]
        },
        {
            "positions": [
                -0.4025509109495131,
                -0.48104723446924913,
                0.3382615503312427,
                1.2832556698263335,
                0.5866354777617674,
                0.4798572069912529
            ]
        },
        {
            "positions": [
                -0.35479649258180146,
                -0.5080000966290923,
                0.488788554206127,
                1.3404326727907812,
                0.5210375876077193,
                0.43725456165098264
            ]
        },
        {
            "positions": [
                -0.3070420742140898,
                -0.5349529587889352,
                0.6393155580810113,
                1.3976096757552288,
                0.4554396974536712,
                0.3946519163107124
            ]
        },
        {
            "positions": [
                -0.25928765584637825,
                -0.5619058209487784,
                0.7898425619558951,
                1.4547866787196764,
                0.38984180729962326,
                0.35204927097044225
            ]
        },
        {
            "positions": [
                -0.2115332374786667,
                -0.5888586831086213,
                0.9403695658307794,
                1.511963681684124,
                0.3242439171455753,
                0.3094466256301721
            ]
        },
        {
            "positions": [
                -0.16377881911095493,
                -0.6158115452684645,
                1.0908965697056636,
                1.5691406846485718,
                0.25864602699152717,
                0.26684398028990186
            ]
        },
        {
            "positions": [
                -0.11602440074324338,
                -0.6427644074283074,
                1.241423573580548,
                1.6263176876130192,
                0.19304813683747923,
                0.22424133494963172
            ]
        },
        {
            "positions": [
                -0.06826998237553172,
                -0.6697172695881506,
                1.3919505774554317,
                1.6834946905774668,
                0.1274502466834313,
                0.18163868960936158
            ]
        },
        {
            "positions": [
                -0.020515564007820286,
                -0.6966701317479935,
                1.542477581330316,
                1.7406716935419144,
                0.061852356529383146,
                0.13903604426909133
            ]
        },
        {
            "positions": [
                0.027238854359891596,
                -0.7236229939078367,
                1.6930045852052003,
                1.797848696506362,
                -0.0037455336246650095,
                0.09643339892882108
            ]
        },
        {
            "positions": [
                0.07499327272760303,
                -0.7505758560676796,
                1.8435315890800845,
                1.8550256994708096,
                -0.06934342377871294,
                0.05383075358855094
            ]
        },
        {
            "positions": [
                0.12274769109531475,
                -0.7775287182275227,
                1.9940585929549683,
                1.9122027024352573,
                -0.13494131393276082,
                0.011228108248280872
            ]
        }
    ]
}