{
    "goal": {
        "global_pose": {
            "orientation": {
                "w": 0.5084816217422485,
                "x": -0.49083608388900757,
                "y": 0.5182115435600281,
                "z": -0.4816462993621826
            },
            "position": {
                "x": 0.5540239810943604,
                "y": 0.030875300988554955,
                "z": 0.16403168439865112
            }
        },
        "name": "move_to_storage_A"
    },
    "id": "STRIDE_move_to_storage_A_81",
    "joint_names": [
        "shoulder_pan_joint",
        "shoulder_lift_joint",
        "elbow_joint",
        "wrist_1_joint",
        "wrist_2_joint",
        "wrist_3_joint"
    ],
    "metrics": {
        "cart_traj_len": 0.35304711977440745,
        "distance_elbow_joint": 0.4527317008480294,
        "distance_shoulder_lift_joint": 0.23580437417450928,
        "distance_shoulder_pan_joint": 0.4631010685630096,
        "distance_wrist_1_joint": 0.2539954640573766,
        "distance_wrist_2_joint": 1.0933311395091385,
        "distance_wrist_3_joint": 0.0909320524502002,
        "smoothness": 1.3322676295501878e-15,
        "time": 0.08294484199999999,
        "traj_len": 1.6093153201291113,
        "weighted_distance": 2.0295532779577825
    },
    "planner": "STRIDE",
    "start": {
        "state": {
            "elbow_joint": 1.9715463870305268,
            "shoulder_lift_joint": -1.1394903361783484,
            "shoulder_pan_joint": 0.12281147578464417,
            "wrist_1_joint": -0.7804599489681411,
            "wrist_2_joint": 0.12958660307563738,
            "wrist_3_joint": -3.1924946282119055
        }
    },
    "waypoints": [
        {
            "positions": [
                0.12281147578464417,
                -1.1394903361783484,
                1.9715463870305268,
                -0.7804599489681411,
                0.12958660307563738,
                -3.1924946282119055
            ]
        },
        {
            "positions": [
                0.05665418027564281,
                -1.1731766753461355,
                2.036222344294531,
                -0.816745015262052,
                0.28577676586265716,
                -3.1795043350047343
            ]
        },
        {
            "positions": [
                -0.009503115233358547,
                -1.2068630145139225,
                2.100898301558535,
                -0.8530300815559629,
                0.4419669286496769,
                -3.1665140417975626
            ]
        },
        {
            "positions": [
                -0.07566041074235992,
                -1.2405493536817096,
                2.1655742588225393,
                -0.8893151478498739,
                0.5981570914366967,
                -3.1535237485903913
            ]
        },
        {
            "positions": [
                -0.14181770625136125,
                -1.2742356928494964,
                2.2302502160865436,
                -0.9256002141437849,
                0.7543472542237165,
                -3.1405334553832196
            ]
        },
        {
            "positions": [
                -0.20797500176036265,
                -1.3079220320172835,
                2.294926173350548,
                -0.9618852804376958,
                0.9105374170107363,
                -3.1275431621760483
            ]
        },
        {
            "positions": [
                -0.274132297269364,
                -1.3416083711850706,
                2.359602130614552,
                -0.9981703467316068,
                1.066727579797756,
                -3.1145528689688766
            ]
        },
        {
            "positions": [
                -0.3402895927783654,
                -1.3752947103528577,
                2.424278087878556,
                -1.0344554130255177,
                1.222917742584776,
                -3.1015625757617054
            ]
        }
    ]
}