{
    "goal": {
        "global_pose": {
            "orientation": {
                "w": 0.7031023502349854,
                "x": -0.7110244035720825,
                "y": 0.007748599164187908,
                "z": 0.005598929710686207
            },
            "position": {
                "x": 0.11585023208521307,
                "y": 0.44412534475326537,
                "z": 0.3711530566215515
            }
        },
        "name": "move_to_auspresseinheit_A"
    },
    "id": "STRIDE_move_to_auspresseinheit_A_147",
    "joint_names": [
        "shoulder_pan_joint",
        "shoulder_lift_joint",
        "elbow_joint",
        "wrist_1_joint",
        "wrist_2_joint",
        "wrist_3_joint"
    ],
    "metrics": {
        "cart_traj_len": 0.896233367623538,
        "distance_elbow_joint": 0.8928567644742591,
        "distance_shoulder_lift_joint": 0.5352107096062608,
        "distance_shoulder_pan_joint": 1.0415532093729132,
        "distance_wrist_1_joint": 1.8544780371014795,
        "distance_wrist_2_joint": 1.266287606971737,
        "distance_wrist_3_joint": 2.701834575867551,
        "smoothness": 0.9549651704566121,
        "time": 0.68805026,
        "traj_len": 2.879621659766123,
        "weighted_distance": 4.100811590307767
    },
    "planner": "STRIDE",
    "start": {
        "state": {
            "elbow_joint": 2.422574709923281,
            "shoulder_lift_joint": -1.3736533754116391,
            "shoulder_pan_joint": -0.33786336945926293,
            "wrist_1_joint": -1.0288603412921917,
            "wrist_2_joint": 1.2330224858903978,
            "wrist_3_joint": -3.094022268022082
        }
    },
    "waypoints": [
        {
            "positions": [
                -0.33786336945926293,
                -1.3736533754116391,
                2.422574709923281,
                -1.0288603412921917,
                1.2330224858903978,
                -3.094022268022082
            ]
        },
        {
            "positions": [
                -0.3005975458943148,
                -1.405804482482856,
                2.3842151773624556,
                -0.9287653924607384,
                1.1579512652972583,
                -2.9827520593996537
            ]
        },
        {
            "positions": [
                -0.2633317223293667,
                -1.437955589554073,
                2.34585564480163,
                -0.8286704436292852,
                1.082880044704119,
                -2.8714818507772253
            ]
        },
        {
            "positions": [
                -0.22606589876441857,
                -1.4701066966252898,
                2.3074961122408046,
                -0.7285754947978319,
                1.0078088241109797,
                -2.760211642154797
            ]
        },
        {
            "positions": [
                -0.18880007519947045,
                -1.5022578036965066,
                2.269136579679979,
                -0.6284805459663787,
                0.9327376035178403,
                -2.6489414335323684
            ]
        },
        {
            "positions": [
                -0.15153425163452233,
                -1.5344089107677237,
                2.230777047119154,
                -0.5283855971349253,
                0.8576663829247009,
                -2.53767122490994
            ]
        },
        {
            "positions": [
                -0.11426842806957421,
                -1.5665600178389405,
                2.1924175145583287,
                -0.4282906483034721,
                0.7825951623315615,
                -2.4264010162875116
            ]
        },
        {
            "positions": [
                -0.0770026045046261,
                -1.5987111249101573,
                2.154057981997503,
                -0.32819569947201876,
                0.707523941738422,
                -2.315130807665083
            ]
        },
        {
            "positions": [
                -0.039736780939677974,
                -1.6308622319813741,
                2.1156984494366777,
                -0.22810075064056556,
                0.6324527211452827,
                -2.2038605990426547
            ]
        },
        {
            "positions": [
                -0.002470957374729854,
                -1.6630133390525912,
                2.0773389168758523,
                -0.12800580180911225,
                0.5573815005521433,
                -2.0925903904202263
            ]
        },
        {
            "positions": [
                0.034794866190218265,
                -1.6951644461238082,
                2.038979384315027,
                -0.02791085297765883,
                0.4823102799590039,
                -1.981320181797798
            ]
        },
        {
            "positions": [
                0.07206068975516638,
                -1.7273155531950248,
                2.0006198517542013,
                0.07218409585379426,
                0.4072390593658646,
                -1.8700499731753695
            ]
        },
        {
            "positions": [
                0.10932651332011449,
                -1.7594666602662419,
                1.962260319193376,
                0.17227904468524757,
                0.3321678387727251,
                -1.758779764552941
            ]
        },
        {
            "positions": [
                0.16832832914786264,
                -1.783466313587046,
                2.026962157768523,
                0.11719020054269111,
                0.3616965450257209,
                -1.899586030969893
            ]
        },
        {
            "positions": [
                0.22733014497561077,
                -1.8074659669078506,
                2.09166399634367,
                0.062101356400134644,
                0.3912252512787167,
                -2.040392297386845
            ]
        },
        {
            "positions": [
                0.28633196080335893,
                -1.8314656202286548,
                2.156365834918817,
                0.0070125122575781795,
                0.4207539575317125,
                -2.181198563803797
            ]
        },
        {
            "positions": [
                0.3453337766311071,
                -1.855465273549459,
                2.2210676734939634,
                -0.048076331884978285,
                0.4502826637847084,
                -2.322004830220749
            ]
        },
        {
            "positions": [
                0.40433559245885525,
                -1.8794649268702635,
                2.2857695120691104,
                -0.10316517602753478,
                0.4798113700377042,
                -2.4628110966377013
            ]
        },
        {
            "positions": [
                0.4633374082866034,
                -1.9034645801910677,
                2.3504713506442574,
                -0.15825402017009121,
                0.5093400762907,
                -2.6036173630546533
            ]
        },
        {
            "positions": [
                0.5234255161933652,
                -1.9048144563977758,
                2.3615541862176257,
                -0.2389554167372665,
                0.5564052568747224,
                -2.7340559815288277
            ]
        },
        {
            "positions": [
                0.583513624100127,
                -1.906164332604484,
                2.372637021790994,
                -0.31965681330444184,
                0.6034704374587447,
                -2.864494600003002
            ]
        },
        {
            "positions": [
                0.6436017320068887,
                -1.9075142088111918,
                2.383719857364362,
                -0.40035820987161713,
                0.6505356180427672,
                -2.9949332184771764
            ]
        },
        {
            "positions": [
                0.7036898399136505,
                -1.9088640850179,
                2.39480269293773,
                -0.4810596064387924,
                0.6976007986267896,
                -3.125371836951351
            ]
        }
    ]
}