{
    "goal": {
        "global_pose": {
            "orientation": {
                "w": 0.7047431468963623,
                "x": -0.7094548344612122,
                "y": 0.0024358443915843964,
                "z": -0.0022348060738295317
            },
            "position": {
                "x": 0.6094750761985779,
                "y": 0.3671506643295288,
                "z": 0.19426114857196808
            }
        },
        "name": "move_to_magneteinheit_A"
    },
    "id": "STRIDE_move_to_magneteinheit_A_83",
    "joint_names": [
        "shoulder_pan_joint",
        "shoulder_lift_joint",
        "elbow_joint",
        "wrist_1_joint",
        "wrist_2_joint",
        "wrist_3_joint"
    ],
    "metrics": {
        "cart_traj_len": 2.0639770790475476,
        "distance_elbow_joint": 3.8754607110569017,
        "distance_shoulder_lift_joint": 1.0533048843511366,
        "distance_shoulder_pan_joint": 1.2418597092985906,
        "distance_wrist_1_joint": 1.132934040428525,
        "distance_wrist_2_joint": 1.4379749555825687,
        "distance_wrist_3_joint": 1.8983182924447708,
        "smoothness": 2.854859219837484e-16,
        "time": 0.043551203999999996,
        "traj_len": 3.261878690749013,
        "weighted_distance": 4.124002688416089
    },
    "planner": "STRIDE",
    "start": {
        "state": {
            "elbow_joint": -1.919643507792019,
            "shoulder_lift_joint": -0.07675430207160344,
            "shoulder_pan_joint": -1.1188671864651873,
            "wrist_1_joint": 0.42560062535961957,
            "wrist_2_joint": 1.5706038300724876,
            "wrist_3_joint": 1.1188968870953055
        }
    },
    "waypoints": [
        {
            "positions": [
                -1.1188671864651873,
                -0.07675430207160344,
                -1.919643507792019,
                0.42560062535961957,
                1.5706038300724876,
                1.1188968870953055
            ]
        },
        {
            "positions": [
                -1.0728723824170914,
                -0.1157655940846085,
                -1.7761079259010226,
                0.38364010534374826,
                1.5173454983842443,
                1.1892049720006674
            ]
        },
        {
            "positions": [
                -1.0268775783689954,
                -0.15477688609761356,
                -1.6325723440100264,
                0.341679585327877,
                1.4640871666960011,
                1.2595130569060293
            ]
        },
        {
            "positions": [
                -0.9808827743208995,
                -0.1937881781106186,
                -1.4890367621190301,
                0.2997190653120057,
                1.4108288350077578,
                1.3298211418113912
            ]
        },
        {
            "positions": [
                -0.9348879702728036,
                -0.23279947012362368,
                -1.3455011802280337,
                0.2577585452961344,
                1.3575705033195145,
                1.400129226716753
            ]
        },
        {
            "positions": [
                -0.8888931662247076,
                -0.2718107621366287,
                -1.2019655983370372,
                0.21579802528026312,
                1.3043121716312711,
                1.470437311622115
            ]
        },
        {
            "positions": [
                -0.8428983621766117,
                -0.31082205414963376,
                -1.058430016446041,
                0.17383750526439185,
                1.251053839943028,
                1.5407453965274769
            ]
        },
        {
            "positions": [
                -0.7969035581285158,
                -0.34983334616263884,
                -0.9148944345550447,
                0.13187698524852054,
                1.1977955082547846,
                1.6110534814328386
            ]
        },
        {
            "positions": [
                -0.7509087540804198,
                -0.3888446381756439,
                -0.7713588526640482,
                0.08991646523264923,
                1.1445371765665413,
                1.6813615663382007
            ]
        },
        {
            "positions": [
                -0.7049139500323238,
                -0.4278559301886489,
                -0.627823270773052,
                0.047955945216777984,
                1.091278844878298,
                1.7516696512435623
            ]
        },
        {
            "positions": [
                -0.6589191459842278,
                -0.466867222201654,
                -0.48428768888205553,
                0.005995425200906679,
                1.0380205131900548,
                1.8219777361489244
            ]
        },
        {
            "positions": [
                -0.612924341936132,
                -0.5058785142146591,
                -0.3407521069910593,
                -0.03596509481496463,
                0.9847621815018115,
                1.892285821054286
            ]
        },
        {
            "positions": [
                -0.566929537888036,
                -0.5448898062276641,
                -0.19721652510006282,
                -0.07792561483083588,
                0.9315038498135683,
                1.9625939059596482
            ]
        },
        {
            "positions": [
                -0.52093473383994,
                -0.5839010982406692,
                -0.05368094320906658,
                -0.11988613484670724,
                0.8782455181253249,
                2.03290199086501
            ]
        },
        {
            "positions": [
                -0.4749399297918441,
                -0.6229123902536742,
                0.08985463868192967,
                -0.1618466548625785,
                0.8249871864370817,
                2.103210075770372
            ]
        },
        {
            "positions": [
                -0.4289451257437481,
                -0.6619236822666794,
                0.23339022057292635,
                -0.20380717487844985,
                0.7717288547488382,
                2.1735181606757337
            ]
        },
        {
            "positions": [
                -0.38295032169565224,
                -0.7009349742796844,
                0.3769258024639226,
                -0.2457676948943211,
                0.7184705230605951,
                2.2438262455810953
            ]
        },
        {
            "positions": [
                -0.33695551764755627,
                -0.7399462662926894,
                0.5204613843549193,
                -0.28772821491019246,
                0.6652121913723518,
                2.314134330486458
            ]
        },
        {
            "positions": [
                -0.2909607135994603,
                -0.7789575583056945,
                0.6639969662459151,
                -0.3296887349260636,
                0.6119538596841085,
                2.3844424153918196
            ]
        },
        {
            "positions": [
                -0.24496590955136432,
                -0.8179688503186995,
                0.8075325481369118,
                -0.37164925494193496,
                0.5586955279958652,
                2.4547505002971812
            ]
        },
        {
            "positions": [
                -0.19897110550326846,
                -0.8569801423317045,
                0.951068130027908,
                -0.4136097749578062,
                0.5054371963076218,
                2.525058585202543
            ]
        },
        {
            "positions": [
                -0.1529763014551725,
                -0.8959914343447097,
                1.0946037119189047,
                -0.45557029497367757,
                0.4521788646193785,
                2.595366670107905
            ]
        },
        {
            "positions": [
                -0.10698149740707663,
                -0.9350027263577148,
                1.2381392938099005,
                -0.4975308149895488,
                0.3989205329311354,
                2.665674755013267
            ]
        },
        {
            "positions": [
                -0.06098669335898066,
                -0.9740140183707198,
                1.3816748757008972,
                -0.5394913350054202,
                0.34566220124289204,
                2.735982839918629
            ]
        },
        {
            "positions": [
                -0.014991889310884687,
                -1.0130253103837248,
                1.5252104575918934,
                -0.5814518550212913,
                0.2924038695546489,
                2.8062909248239905
            ]
        },
        {
            "positions": [
                0.031002914737211285,
                -1.0520366023967298,
                1.6687460394828901,
                -0.6234123750371627,
                0.23914553786640536,
                2.8765990097293526
            ]
        },
        {
            "positions": [
                0.07699771878530726,
                -1.091047894409735,
                1.812281621373886,
                -0.665372895053034,
                0.18588720617816223,
                2.9469070946347147
            ]
        },
        {
            "positions": [
                0.12299252283340321,
                -1.13005918642274,
                1.9558172032648826,
                -0.7073334150689053,
                0.13262887448991884,
                3.0172151795400763
            ]
        }
    ]
}