{
    "goal": {
        "global_pose": {
            "orientation": {
                "w": 0.7031023502349854,
                "x": -0.7110244035720825,
                "y": 0.007748599164187908,
                "z": 0.005598929710686207
            },
            "position": {
                "x": 0.11585023208521307,
                "y": 0.44412534475326537,
                "z": 0.3711530566215515
            }
        },
        "name": "move_to_auspresseinheit_A"
    },
    "id": "STRIDE_move_to_auspresseinheit_A_86",
    "joint_names": [
        "shoulder_pan_joint",
        "shoulder_lift_joint",
        "elbow_joint",
        "wrist_1_joint",
        "wrist_2_joint",
        "wrist_3_joint"
    ],
    "metrics": {
        "cart_traj_len": 1.0090484239475754,
        "distance_elbow_joint": 0.3486072919787282,
        "distance_shoulder_lift_joint": 1.0675141527269967,
        "distance_shoulder_pan_joint": 2.0133484301092013,
        "distance_wrist_1_joint": 0.5481504297000563,
        "distance_wrist_2_joint": 1.1246248113013118,
        "distance_wrist_3_joint": 3.552444571955108,
        "smoothness": 1.043071104212996,
        "time": 0.149146478,
        "traj_len": 2.941885396777278,
        "weighted_distance": 4.175207069437753
    },
    "planner": "STRIDE",
    "start": {
        "state": {
            "elbow_joint": 2.422574709923281,
            "shoulder_lift_joint": -1.3736533754116391,
            "shoulder_pan_joint": -0.33786336945926293,
            "wrist_1_joint": -1.0288603412921917,
            "wrist_2_joint": 1.2330224858903978,
            "wrist_3_joint": -3.094022268022082
        }
    },
    "waypoints": [
        {
            "positions": [
                -0.33786336945926293,
                -1.3736533754116391,
                2.422574709923281,
                -1.0288603412921917,
                1.2330224858903978,
                -3.094022268022082
            ]
        },
        {
            "positions": [
                -0.21046651808231193,
                -1.4405903816640735,
                2.4360611568062605,
                -1.0156751311422083,
                1.2582950359774945,
                -2.94774194741428
            ]
        },
        {
            "positions": [
                -0.08306966670536092,
                -1.507527387916508,
                2.44954760368924,
                -1.0024899209922251,
                1.283567586064591,
                -2.8014616268064776
            ]
        },
        {
            "positions": [
                0.044327184671590136,
                -1.5744643941689425,
                2.4630340505722192,
                -0.9893047108422418,
                1.3088401361516877,
                -2.6551813061986755
            ]
        },
        {
            "positions": [
                0.17172403604854108,
                -1.6414014004213768,
                2.4765204974551986,
                -0.9761195006922585,
                1.3341126862387844,
                -2.5089009855908735
            ]
        },
        {
            "positions": [
                0.2991208874254922,
                -1.7083384066738114,
                2.490006944338178,
                -0.9629342905422751,
                1.359385236325881,
                -2.362620664983071
            ]
        },
        {
            "positions": [
                0.4265177388024432,
                -1.7752754129262458,
                2.5034933912211574,
                -0.9497490803922919,
                1.3846577864129777,
                -2.216340344375269
            ]
        },
        {
            "positions": [
                0.5539145901793943,
                -1.8422124191786802,
                2.5169798381041364,
                -0.9365638702423085,
                1.4099303365000744,
                -2.070060023767467
            ]
        },
        {
            "positions": [
                0.681311441556345,
                -1.9091494254311145,
                2.530466284987116,
                -0.9233786600923252,
                1.4352028865871709,
                -1.9237797031596646
            ]
        },
        {
            "positions": [
                0.8087082929332963,
                -1.9760864316835491,
                2.543952731870095,
                -0.9101934499423419,
                1.4604754366742676,
                -1.7774993825518624
            ]
        },
        {
            "positions": [
                0.9361051443102473,
                -2.0430234379359837,
                2.5574391787530746,
                -0.8970082397923586,
                1.4857479867613643,
                -1.63121906194406
            ]
        },
        {
            "positions": [
                1.0635019956871983,
                -2.109960444188418,
                2.570925625636054,
                -0.8838230296423752,
                1.5110205368484608,
                -1.484938741336258
            ]
        },
        {
            "positions": [
                1.1908988470641493,
                -2.1768974504408525,
                2.5844120725190334,
                -0.8706378194923919,
                1.5362930869355576,
                -1.3386584207284558
            ]
        },
        {
            "positions": [
                1.1424402257055704,
                -2.1504704426710743,
                2.565735079580736,
                -0.8316450287023662,
                1.4541576659099424,
                -1.518366493194604
            ]
        },
        {
            "positions": [
                1.0939816043469917,
                -2.1240434349012958,
                2.5470580866424384,
                -0.7926522379123406,
                1.3720222448843271,
                -1.698074565660752
            ]
        },
        {
            "positions": [
                1.0455229829884127,
                -2.0976164271315176,
                2.5283810937041404,
                -0.753659447122315,
                1.289886823858712,
                -1.8777826381269003
            ]
        },
        {
            "positions": [
                0.9970643616298339,
                -2.071189419361739,
                2.509704100765843,
                -0.7146666563322893,
                1.2077514028330967,
                -2.0574907105930484
            ]
        },
        {
            "positions": [
                0.9486057402712551,
                -2.044762411591961,
                2.4910271078275454,
                -0.6756738655422636,
                1.1256159818074816,
                -2.2371987830591964
            ]
        },
        {
            "positions": [
                0.9001471189126762,
                -2.0183354038221824,
                2.472350114889248,
                -0.636681074752238,
                1.0434805607818665,
                -2.416906855525345
            ]
        },
        {
            "positions": [
                0.8516884975540974,
                -1.9919083960524042,
                2.4536731219509504,
                -0.5976882839622124,
                0.9613451397562512,
                -2.596614927991493
            ]
        },
        {
            "positions": [
                0.8032298761955186,
                -1.9654813882826259,
                2.4349961290126525,
                -0.5586954931721867,
                0.879209718730636,
                -2.776323000457641
            ]
        },
        {
            "positions": [
                0.7547712548369396,
                -1.9390543805128475,
                2.416319136074355,
                -0.519702702382161,
                0.7970742977050209,
                -2.956031072923789
            ]
        },
        {
            "positions": [
                0.7063126334783608,
                -1.9126273727430692,
                2.3976421431360575,
                -0.4807099115921354,
                0.7149388766794057,
                -3.1357391453899375
            ]
        }
    ]
}