{
    "goal": {
        "global_pose": {
            "orientation": {
                "w": 0.5084816217422485,
                "x": -0.49083608388900757,
                "y": 0.5182115435600281,
                "z": -0.4816462993621826
            },
            "position": {
                "x": 0.5540239810943604,
                "y": 0.030875300988554955,
                "z": 0.16403168439865112
            }
        },
        "name": "move_to_storage_A"
    },
    "id": "STRIDE_move_to_storage_A_126",
    "joint_names": [
        "shoulder_pan_joint",
        "shoulder_lift_joint",
        "elbow_joint",
        "wrist_1_joint",
        "wrist_2_joint",
        "wrist_3_joint"
    ],
    "metrics": {
        "cart_traj_len": 0.35337066904303976,
        "distance_elbow_joint": 0.4511127857479127,
        "distance_shoulder_lift_joint": 0.23435042568611397,
        "distance_shoulder_pan_joint": 0.45853943929581503,
        "distance_wrist_1_joint": 0.24700213676378324,
        "distance_wrist_2_joint": 1.1148096320876821,
        "distance_wrist_3_joint": 0.1066284088587528,
        "smoothness": 2.2204460668324854e-16,
        "time": 0.107039996,
        "traj_len": 1.6163053017422357,
        "weighted_distance": 2.046340982096833
    },
    "planner": "STRIDE",
    "start": {
        "state": {
            "elbow_joint": 1.9715463870305268,
            "shoulder_lift_joint": -1.1394903361783484,
            "shoulder_pan_joint": 0.12281147578464417,
            "wrist_1_joint": -0.7804599489681411,
            "wrist_2_joint": 0.12958660307563738,
            "wrist_3_joint": -3.1924946282119055
        }
    },
    "waypoints": [
        {
            "positions": [
                0.12281147578464417,
                -1.1394903361783484,
                1.9715463870305268,
                -0.7804599489681411,
                0.12958660307563738,
                -3.1924946282119055
            ]
        },
        {
            "positions": [
                0.05730584159952774,
                -1.1729689684192217,
                2.0359910707088,
                -0.8157459685058244,
                0.28884512194530626,
                -3.177261998374941
            ]
        },
        {
            "positions": [
                -0.008199792585588686,
                -1.2064476006600953,
                2.1004357543870733,
                -0.8510319880435078,
                0.4481036408149751,
                -3.162029368537976
            ]
        },
        {
            "positions": [
                -0.07370542677070512,
                -1.2399262329009686,
                2.1648804380653464,
                -0.8863180075811911,
                0.607362159684644,
                -3.1467967387010116
            ]
        },
        {
            "positions": [
                -0.13921106095582153,
                -1.2734048651418421,
                2.22932512174362,
                -0.9216040271188743,
                0.7666206785543129,
                -3.1315641088640467
            ]
        },
        {
            "positions": [
                -0.204716695140938,
                -1.3068834973827155,
                2.293769805421893,
                -0.9568900466565577,
                0.9258791974239818,
                -3.116331479027082
            ]
        },
        {
            "positions": [
                -0.2702223293260544,
                -1.340362129623589,
                2.358214489100166,
                -0.9921760661942409,
                1.0851377162936506,
                -3.1010988491901172
            ]
        },
        {
            "positions": [
                -0.33572796351117085,
                -1.3738407618644624,
                2.4226591727784395,
                -1.0274620857319243,
                1.2443962351633195,
                -3.0858662193531528
            ]
        }
    ]
}