{
    "goal": {
        "global_pose": {
            "orientation": {
                "w": 0.7031023502349854,
                "x": -0.7110244035720825,
                "y": 0.007748599164187908,
                "z": 0.005598929710686207
            },
            "position": {
                "x": 0.11585023208521307,
                "y": 0.44412534475326537,
                "z": 0.3711530566215515
            }
        },
        "name": "move_to_auspresseinheit_A"
    },
    "id": "STRIDE_move_to_auspresseinheit_A_43",
    "joint_names": [
        "shoulder_pan_joint",
        "shoulder_lift_joint",
        "elbow_joint",
        "wrist_1_joint",
        "wrist_2_joint",
        "wrist_3_joint"
    ],
    "metrics": {
        "cart_traj_len": 0.8466767595031972,
        "distance_elbow_joint": 0.13349042234830577,
        "distance_shoulder_lift_joint": 0.613515006565277,
        "distance_shoulder_pan_joint": 1.2447004059284312,
        "distance_wrist_1_joint": 0.8740632287502665,
        "distance_wrist_2_joint": 0.8238024607513883,
        "distance_wrist_3_joint": 0.6512388920249492,
        "smoothness": 1.6282920786670578,
        "time": 0.226864214,
        "traj_len": 2.083461162673453,
        "weighted_distance": 2.709456382730708
    },
    "planner": "STRIDE",
    "start": {
        "state": {
            "elbow_joint": 2.422574709923281,
            "shoulder_lift_joint": -1.3736533754116391,
            "shoulder_pan_joint": -0.33786336945926293,
            "wrist_1_joint": -1.0288603412921917,
            "wrist_2_joint": 1.2330224858903978,
            "wrist_3_joint": -3.094022268022082
        }
    },
    "waypoints": [
        {
            "positions": [
                -0.33786336945926293,
                -1.3736533754116391,
                2.422574709923281,
                -1.0288603412921917,
                1.2330224858903978,
                -3.094022268022082
            ]
        },
        {
            "positions": [
                -0.2108228393412642,
                -1.4372466339878147,
                2.4132804314921925,
                -0.948249389412993,
                1.1575507206928053,
                -3.0603118847905475
            ]
        },
        {
            "positions": [
                -0.08378230922326546,
                -1.5008398925639903,
                2.4039861530611044,
                -0.8676384375337942,
                1.0820789554952128,
                -3.0266015015590124
            ]
        },
        {
            "positions": [
                0.0432582208947333,
                -1.5644331511401657,
                2.394691874630016,
                -0.7870274856545956,
                1.0066071902976201,
                -2.992891118327478
            ]
        },
        {
            "positions": [
                0.170298751012732,
                -1.6280264097163413,
                2.3853975961989273,
                -0.7064165337753968,
                0.9311354251000277,
                -2.959180735095943
            ]
        },
        {
            "positions": [
                0.2973392811307309,
                -1.6916196682925169,
                2.3761033177678392,
                -0.6258055818961981,
                0.8556636599024352,
                -2.925470351864408
            ]
        },
        {
            "positions": [
                0.42437981124872953,
                -1.7552129268686922,
                2.3668090393367507,
                -0.5451946300169994,
                0.7801918947048427,
                -2.8917599686328734
            ]
        },
        {
            "positions": [
                0.5514203413667282,
                -1.8188061854448678,
                2.357514760905662,
                -0.46458367813780055,
                0.7047201295072502,
                -2.858049585401339
            ]
        },
        {
            "positions": [
                0.6784608714847269,
                -1.8823994440210434,
                2.348220482474574,
                -0.3839727262586019,
                0.6292483643096577,
                -2.8243392021698037
            ]
        },
        {
            "positions": [
                0.8055014016027258,
                -1.945992702597219,
                2.3389262040434855,
                -0.30336177437940315,
                0.5537765991120651,
                -2.790628818938269
            ]
        },
        {
            "positions": [
                0.7717228566472449,
                -1.93226747613732,
                2.3555401761996557,
                -0.3528833283252291,
                0.6019621237697503,
                -2.9065772999186477
            ]
        },
        {
            "positions": [
                0.7379443116917641,
                -1.918542249677421,
                2.3721541483558255,
                -0.4024048822710551,
                0.6501476484274356,
                -3.0225257808990267
            ]
        },
        {
            "positions": [
                0.7041657667362833,
                -1.9048170232175219,
                2.3887681205119957,
                -0.4519264362168811,
                0.6983331730851208,
                -3.1384742618794053
            ]
        }
    ]
}