{
    "goal": {
        "global_pose": {
            "orientation": {
                "w": 0.7031023502349854,
                "x": -0.7110244035720825,
                "y": 0.007748599164187908,
                "z": 0.005598929710686207
            },
            "position": {
                "x": 0.11585023208521307,
                "y": 0.44412534475326537,
                "z": 0.3711530566215515
            }
        },
        "name": "move_to_auspresseinheit_A"
    },
    "id": "STRIDE_move_to_auspresseinheit_A_136",
    "joint_names": [
        "shoulder_pan_joint",
        "shoulder_lift_joint",
        "elbow_joint",
        "wrist_1_joint",
        "wrist_2_joint",
        "wrist_3_joint"
    ],
    "metrics": {
        "cart_traj_len": 5.176835953936985,
        "distance_elbow_joint": 5.817469259909451,
        "distance_shoulder_lift_joint": 2.052563584843999,
        "distance_shoulder_pan_joint": 5.447257073320884,
        "distance_wrist_1_joint": 5.529516616848477,
        "distance_wrist_2_joint": 2.1552268659712137,
        "distance_wrist_3_joint": 11.000337477144031,
        "smoothness": 0.19557300597790142,
        "time": 0.21180284600000002,
        "traj_len": 5.657063803603248,
        "weighted_distance": 7.85415745418602
    },
    "planner": "STRIDE",
    "start": {
        "state": {
            "elbow_joint": 2.422574709923281,
            "shoulder_lift_joint": -1.3736533754116391,
            "shoulder_pan_joint": -0.33786336945926293,
            "wrist_1_joint": -1.0288603412921917,
            "wrist_2_joint": 1.2330224858903978,
            "wrist_3_joint": -3.094022268022082
        }
    },
    "waypoints": [
        {
            "positions": [
                -0.33786336945926293,
                -1.3736533754116391,
                2.422574709923281,
                -1.0288603412921917,
                1.2330224858903978,
                -3.094022268022082
            ]
        },
        {
            "positions": [
                -0.3725216887561492,
                -1.3553187837605598,
                2.3239075613406097,
                -0.9730431176257051,
                1.2571258977856776,
                -2.93409519062504
            ]
        },
        {
            "positions": [
                -0.40718000805303545,
                -1.3369841921094807,
                2.2252404127579384,
                -0.9172258939592184,
                1.2812293096809575,
                -2.7741681132279976
            ]
        },
        {
            "positions": [
                -0.44183832734992173,
                -1.3186496004584014,
                2.126573264175267,
                -0.8614086702927316,
                1.3053327215762374,
                -2.6142410358309554
            ]
        },
        {
            "positions": [
                -0.476496646646808,
                -1.3003150088073223,
                2.0279061155925957,
                -0.8055914466262449,
                1.3294361334715172,
                -2.454313958433913
            ]
        },
        {
            "positions": [
                -0.5111549659436943,
                -1.281980417156243,
                1.9292389670099246,
                -0.7497742229597582,
                1.353539545366797,
                -2.294386881036871
            ]
        },
        {
            "positions": [
                -0.5458132852405806,
                -1.263645825505164,
                1.8305718184272533,
                -0.6939569992932715,
                1.377642957262077,
                -2.1344598036398286
            ]
        },
        {
            "positions": [
                -0.5804716045374668,
                -1.2453112338540846,
                1.731904669844582,
                -0.6381397756267848,
                1.4017463691573568,
                -1.9745327262427863
            ]
        },
        {
            "positions": [
                -0.615129923834353,
                -1.2269766422030055,
                1.6332375212619106,
                -0.5823225519602981,
                1.4258497810526367,
                -1.8146056488457443
            ]
        },
        {
            "positions": [
                -0.6497882431312394,
                -1.2086420505519262,
                1.5345703726792395,
                -0.5265053282938115,
                1.4499531929479166,
                -1.654678571448702
            ]
        },
        {
            "positions": [
                -0.6844465624281257,
                -1.1903074589008469,
                1.4359032240965681,
                -0.4706881046273247,
                1.4740566048431964,
                -1.4947514940516595
            ]
        },
        {
            "positions": [
                -0.7191048817250119,
                -1.1719728672497678,
                1.3372360755138968,
                -0.414870880960838,
                1.4981600167384763,
                -1.3348244166546175
            ]
        },
        {
            "positions": [
                -0.7537632010218982,
                -1.1536382755986885,
                1.2385689269312254,
                -0.35905365729435135,
                1.5222634286337562,
                -1.1748973392575752
            ]
        },
        {
            "positions": [
                -0.7884215203187845,
                -1.1353036839476094,
                1.139901778348554,
                -0.3032364336278647,
                1.546366840529036,
                -1.0149702618605327
            ]
        },
        {
            "positions": [
                -0.8230798396156708,
                -1.11696909229653,
                1.0412346297658828,
                -0.2474192099613779,
                1.570470252424316,
                -0.8550431844634905
            ]
        },
        {
            "positions": [
                -0.857738158912557,
                -1.098634500645451,
                0.9425674811832117,
                -0.19160198629489134,
                1.5945736643195958,
                -0.6951161070664487
            ]
        },
        {
            "positions": [
                -0.8923964782094433,
                -1.0802999089943717,
                0.8439003326005401,
                -0.13578476262840455,
                1.6186770762148757,
                -0.5351890296694064
            ]
        },
        {
            "positions": [
                -0.9270547975063297,
                -1.0619653173432924,
                0.7452331840178688,
                -0.07996753896191777,
                1.6427804881101555,
                -0.3752619522723637
            ]
        },
        {
            "positions": [
                -0.9617131168032158,
                -1.0436307256922133,
                0.6465660354351976,
                -0.024150315295431213,
                1.6668839000054354,
                -0.21533487487532188
            ]
        },
        {
            "positions": [
                -0.9963714361001021,
                -1.025296134041134,
                0.5478988868525263,
                0.03166690837105546,
                1.6909873119007153,
                -0.05540779747827962
            ]
        },
        {
            "positions": [
                -1.0310297553969885,
                -1.0069615423900549,
                0.44923173826985496,
                0.08748413203754235,
                1.7150907237959951,
                0.10451927991876309
            ]
        },
        {
            "positions": [
                -1.0656880746938746,
                -0.9886269507389756,
                0.35056458968718385,
                0.1433013557040288,
                1.739194135691275,
                0.2644463573158049
            ]
        },
        {
            "positions": [
                -1.100346393990761,
                -0.9702923590878965,
                0.2518974411045125,
                0.1991185793705157,
                1.7632975475865549,
                0.42437343471284716
            ]
        },
        {
            "positions": [
                -1.1350047132876473,
                -0.9519577674368171,
                0.15323029252184117,
                0.25493580303700236,
                1.7874009594818348,
                0.5843005121098894
            ]
        },
        {
            "positions": [
                -1.1696630325845334,
                -0.9336231757857381,
                0.054563143939169834,
                0.31075302670348903,
                1.8115043713771146,
                0.7442275895069317
            ]
        },
        {
            "positions": [
                -1.2043213518814198,
                -0.9152885841346587,
                -0.04410400464350167,
                0.3665702503699756,
                1.8356077832723945,
                0.9041546669039738
            ]
        },
        {
            "positions": [
                -1.289148266092606,
                -0.8852849531629637,
                -0.08984663024773532,
                0.4253810110090885,
                1.8572362593430563,
                1.0373221784086457
            ]
        },
        {
            "positions": [
                -1.3739751803037923,
                -0.8552813221912687,
                -0.13558925585196896,
                0.4841917716482014,
                1.8788647354137182,
                1.1704896899133177
            ]
        },
        {
            "positions": [
                -1.4588020945149784,
                -0.8252776912195737,
                -0.1813318814562026,
                0.5430025322873142,
                1.90049321148438,
                1.3036572014179895
            ]
        },
        {
            "positions": [
                -1.5436290087261648,
                -0.7952740602478787,
                -0.22707450706043628,
                0.6018132929264272,
                1.922121687555042,
                1.4368247129226615
            ]
        },
        {
            "positions": [
                -1.628455922937351,
                -0.7652704292761837,
                -0.2728171326646699,
                0.6606240535655401,
                1.9437501636257037,
                1.5699922244273332
            ]
        },
        {
            "positions": [
                -1.7132828371485371,
                -0.7352667983044887,
                -0.31855975826890354,
                0.7194348142046529,
                1.9653786396963655,
                1.7031597359320052
            ]
        },
        {
            "positions": [
                -1.7981097513597235,
                -0.7052631673327937,
                -0.3643023838731372,
                0.7782455748437658,
                1.9870071157670275,
                1.8363272474366772
            ]
        },
        {
            "positions": [
                -1.8829366655709099,
                -0.6752595363610987,
                -0.4100450094773709,
                0.8370563354828787,
                2.0086355918376895,
                1.969494758941349
            ]
        },
        {
            "positions": [
                -1.9677635797820958,
                -0.6452559053894037,
                -0.4557876350816045,
                0.8958670961219917,
                2.0302640679083512,
                2.102662270446021
            ]
        },
        {
            "positions": [
                -2.052590493993282,
                -0.6152522744177087,
                -0.5015302606858382,
                0.9546778567611045,
                2.051892543979013,
                2.235829781950693
            ]
        },
        {
            "positions": [
                -2.1017495490176676,
                -0.61786575999844,
                -0.384501982400438,
                1.0194572171026013,
                2.0129417987373963,
                2.2522150719940632
            ]
        },
        {
            "positions": [
                -2.1509086040420526,
                -0.6204792455791711,
                -0.2674737041150378,
                1.0842365774440983,
                1.9739910534957796,
                2.268600362037434
            ]
        },
        {
            "positions": [
                -2.200067659066438,
                -0.6230927311599024,
                -0.15044542582963755,
                1.149015937785595,
                1.935040308254163,
                2.2849856520808043
            ]
        },
        {
            "positions": [
                -2.2564856715041124,
                -0.6305401497595053,
                0.009794163539912859,
                1.2358202057320566,
                1.8790382006504056,
                2.3020888924369753
            ]
        },
        {
            "positions": [
                -2.312903683941787,
                -0.6379875683591083,
                0.17003375290946326,
                1.3226244736785184,
                1.8230360930466485,
                2.3191921327931464
            ]
        },
        {
            "positions": [
                -2.369321696379462,
                -0.6454349869587113,
                0.33027334227901367,
                1.4094287416249802,
                1.7670339854428914,
                2.3362953731493175
            ]
        },
        {
            "positions": [
                -2.425739708817136,
                -0.6528824055583143,
                0.4905129316485641,
                1.4962330095714418,
                1.711031877839134,
                2.3533986135054885
            ]
        },
        {
            "positions": [
                -2.4821577212548105,
                -0.6603298241579173,
                0.6507525210181144,
                1.5830372775179034,
                1.6550297702353767,
                2.3705018538616596
            ]
        },
        {
            "positions": [
                -2.5385757336924852,
                -0.6677772427575203,
                0.8109921103876649,
                1.6698415454643651,
                1.5990276626316196,
                2.3876050942178306
            ]
        },
        {
            "positions": [
                -2.5051681854048162,
                -0.703695083322202,
                0.9530977343424398,
                1.7281619524902347,
                1.5299641665093673,
                2.3550801206152965
            ]
        },
        {
            "positions": [
                -2.471760637117147,
                -0.7396129238868837,
                1.0952033582972147,
                1.7864823595161046,
                1.4609006703871148,
                2.322555147012762
            ]
        },
        {
            "positions": [
                -2.438353088829478,
                -0.7755307644515654,
                1.2373089822519898,
                1.8448027665419742,
                1.3918371742648623,
                2.2900301734102277
            ]
        },
        {
            "positions": [
                -2.404945540541809,
                -0.8114486050162472,
                1.3794146062067647,
                1.9031231735678438,
                1.32277367814261,
                2.2575051998076936
            ]
        },
        {
            "positions": [
                -2.37153799225414,
                -0.8473664455809289,
                1.5215202301615398,
                1.9614435805937136,
                1.2537101820203578,
                2.224980226205159
            ]
        },
        {
            "positions": [
                -2.338130443966471,
                -0.8832842861456106,
                1.6636258541163147,
                2.019763987619583,
                1.1846466858981053,
                2.192455252602625
            ]
        },
        {
            "positions": [
                -2.2503978319413305,
                -0.9144679864174009,
                1.692943248184522,
                1.954639987732835,
                1.1669539413598269,
                2.0427982288671904
            ]
        },
        {
            "positions": [
                -2.1626652199161893,
                -0.9456516866891912,
                1.722260642252729,
                1.889515987846087,
                1.1492611968215485,
                1.8931412051317555
            ]
        },
        {
            "positions": [
                -2.074932607891048,
                -0.9768353869609814,
                1.7515780363209361,
                1.824391987959339,
                1.13156845228327,
                1.7434841813963209
            ]
        },
        {
            "positions": [
                -1.9871999958659075,
                -1.0080190872327717,
                1.780895430389143,
                1.759267988072591,
                1.1138757077449917,
                1.5938271576608862
            ]
        },
        {
            "positions": [
                -1.8994673838407665,
                -1.039202787504562,
                1.8102128244573503,
                1.6941439881858429,
                1.0961829632067133,
                1.4441701339254516
            ]
        },
        {
            "positions": [
                -1.8095557852464237,
                -1.0692100968412246,
                1.8302687280489762,
                1.6198242540995338,
                1.0830571967546339,
                1.2864020251457362
            ]
        },
        {
            "positions": [
                -1.7196441866520806,
                -1.0992174061778872,
                1.850324631640602,
                1.545504520013225,
                1.0699314303025547,
                1.1286339163660206
            ]
        },
        {
            "positions": [
                -1.6297325880577378,
                -1.1292247155145498,
                1.8703805352322278,
                1.471184785926916,
                1.0568056638504753,
                0.9708658075863054
            ]
        },
        {
            "positions": [
                -1.5398209894633947,
                -1.1592320248512125,
                1.8904364388238535,
                1.396865051840607,
                1.043679897398396,
                0.8130976988065899
            ]
        },
        {
            "positions": [
                -1.449909390869052,
                -1.189239334187875,
                1.9104923424154794,
                1.3225453177542978,
                1.0305541309463166,
                0.6553295900268744
            ]
        },
        {
            "positions": [
                -1.3599977922747088,
                -1.2192466435245377,
                1.930548246007105,
                1.248225583667989,
                1.0174283644942372,
                0.49756148124715915
            ]
        },
        {
            "positions": [
                -1.270086193680366,
                -1.2492539528612001,
                1.950604149598731,
                1.17390584958168,
                1.004302598042158,
                0.33979337246744357
            ]
        },
        {
            "positions": [
                -1.1801745950860232,
                -1.2792612621978627,
                1.9706600531903566,
                1.099586115495371,
                0.9911768315900786,
                0.1820252636877282
            ]
        },
        {
            "positions": [
                -1.0902629964916801,
                -1.3092685715345254,
                1.9907159567819825,
                1.025266381409062,
                0.9780510651379993,
                0.024257154908012835
            ]
        },
        {
            "positions": [
                -1.000351397897337,
                -1.3392758808711882,
                2.0107718603736084,
                0.9509466473227529,
                0.96492529868592,
                -0.13351095387170275
            ]
        },
        {
            "positions": [
                -0.9104397993029943,
                -1.3692831902078506,
                2.030827763965234,
                0.876626913236444,
                0.9517995322338407,
                -0.2912790626514179
            ]
        },
        {
            "positions": [
                -0.8205282007086514,
                -1.3992904995445132,
                2.05088366755686,
                0.802307179150135,
                0.9386737657817614,
                -0.44904717143113326
            ]
        },
        {
            "positions": [
                -0.7306166021143086,
                -1.4292978088811759,
                2.070939571148486,
                0.727987445063826,
                0.925547999329682,
                -0.6068152802108486
            ]
        },
        {
            "positions": [
                -0.6407050035199655,
                -1.4593051182178385,
                2.0909954747401116,
                0.6536677109775171,
                0.9124222328776027,
                -0.7645833889905644
            ]
        },
        {
            "positions": [
                -0.5507934049256225,
                -1.489312427554501,
                2.1110513783317373,
                0.579347976891208,
                0.8992964664255234,
                -0.9223514977702798
            ]
        },
        {
            "positions": [
                -0.4608818063312796,
                -1.5193197368911637,
                2.131107281923363,
                0.5050282428048991,
                0.8861706999734441,
                -1.0801196065499952
            ]
        },
        {
            "positions": [
                -0.370970207736937,
                -1.5493270462278264,
                2.151163185514989,
                0.43070850871859023,
                0.8730449335213648,
                -1.23788771532971
            ]
        },
        {
            "positions": [
                -0.28105860914259373,
                -1.579334355564489,
                2.1712190891066148,
                0.35638877463228114,
                0.8599191670692854,
                -1.395655824109426
            ]
        },
        {
            "positions": [
                -0.1911470105482509,
                -1.6093416649011516,
                2.1912749926982404,
                0.28206904054597204,
                0.8467934006172061,
                -1.5534239328891413
            ]
        },
        {
            "positions": [
                -0.10123541195390784,
                -1.6393489742378142,
                2.2113308962898666,
                0.20774930645966294,
                0.8336676341651268,
                -1.711192041668857
            ]
        },
        {
            "positions": [
                -0.011323813359565005,
                -1.6693562835744769,
                2.2313867998814922,
                0.13342957237335407,
                0.8205418677130474,
                -1.868960150448572
            ]
        },
        {
            "positions": [
                0.07858778523477783,
                -1.6993635929111393,
                2.251442703473118,
                0.05910983828704519,
                0.8074161012609682,
                -2.026728259228287
            ]
        },
        {
            "positions": [
                0.16849938382912089,
                -1.729370902247802,
                2.2714986070647436,
                -0.015209895799263906,
                0.7942903348088888,
                -2.184496368008003
            ]
        },
        {
            "positions": [
                0.2584109824234637,
                -1.7593782115844645,
                2.2915545106563697,
                -0.08952962988557278,
                0.7811645683568095,
                -2.342264476787718
            ]
        },
        {
            "positions": [
                0.34832258101780655,
                -1.7893855209211271,
                2.3116104142479954,
                -0.16384936397188166,
                0.7680388019047302,
                -2.5000325855674337
            ]
        },
        {
            "positions": [
                0.4382341796121494,
                -1.8193928302577898,
                2.331666317839621,
                -0.23816909805819098,
                0.7549130354526508,
                -2.6578006943471486
            ]
        },
        {
            "positions": [
                0.5281457782064922,
                -1.8494001395944524,
                2.351722221431247,
                -0.31248883214449963,
                0.7417872690005716,
                -2.8155688031268644
            ]
        },
        {
            "positions": [
                0.6180573768008355,
                -1.879407448931115,
                2.371778125022873,
                -0.3868085662308087,
                0.7286615025484922,
                -2.9733369119065802
            ]
        },
        {
            "positions": [
                0.7079689753951783,
                -1.9094147582677776,
                2.3918340286144986,
                -0.46112830031711793,
                0.7155357360964129,
                -3.1311050206862956
            ]
        }
    ]
}