{
    "goal": {
        "global_pose": {
            "orientation": {
                "w": 0.7031023502349854,
                "x": -0.7110244035720825,
                "y": 0.007748599164187908,
                "z": 0.005598929710686207
            },
            "position": {
                "x": 0.11585023208521307,
                "y": 0.44412534475326537,
                "z": 0.3711530566215515
            }
        },
        "name": "move_to_auspresseinheit_A"
    },
    "id": "STRIDE_move_to_auspresseinheit_A_12",
    "joint_names": [
        "shoulder_pan_joint",
        "shoulder_lift_joint",
        "elbow_joint",
        "wrist_1_joint",
        "wrist_2_joint",
        "wrist_3_joint"
    ],
    "metrics": {
        "cart_traj_len": 2.003561072361427,
        "distance_elbow_joint": 1.7877103324735155,
        "distance_shoulder_lift_joint": 0.8355193709770519,
        "distance_shoulder_pan_joint": 1.3832172208500229,
        "distance_wrist_1_joint": 2.378591862118524,
        "distance_wrist_2_joint": 1.183856598451794,
        "distance_wrist_3_joint": 2.8061622506240456,
        "smoothness": 0.5227520503579542,
        "time": 0.531945436,
        "traj_len": 3.2210336284327976,
        "weighted_distance": 4.421519037312104
    },
    "planner": "STRIDE",
    "start": {
        "state": {
            "elbow_joint": 2.422574709923281,
            "shoulder_lift_joint": -1.3736533754116391,
            "shoulder_pan_joint": -0.33786336945926293,
            "wrist_1_joint": -1.0288603412921917,
            "wrist_2_joint": 1.2330224858903978,
            "wrist_3_joint": -3.094022268022082
        }
    },
    "waypoints": [
        {
            "positions": [
                -0.33786336945926293,
                -1.3736533754116391,
                2.422574709923281,
                -1.0288603412921917,
                1.2330224858903978,
                -3.094022268022082
            ]
        },
        {
            "positions": [
                -0.273455685667143,
                -1.3984338936218401,
                2.3119188496145933,
                -0.9959939102962507,
                1.2404433484950441,
                -2.949154864838276
            ]
        },
        {
            "positions": [
                -0.20904800187502307,
                -1.4232144118320411,
                2.201262989305906,
                -0.9631274793003098,
                1.2478642110996905,
                -2.8042874616544697
            ]
        },
        {
            "positions": [
                -0.14464031808290315,
                -1.4479949300422421,
                2.090607128997218,
                -0.9302610483043688,
                1.2552850737043368,
                -2.6594200584706638
            ]
        },
        {
            "positions": [
                -0.0802326342907832,
                -1.4727754482524429,
                1.9799512686885303,
                -0.8973946173084278,
                1.2627059363089834,
                -2.514552655286858
            ]
        },
        {
            "positions": [
                -0.015824950498663226,
                -1.4975559664626439,
                1.8692954083798428,
                -0.864528186312487,
                1.2701267989136298,
                -2.369685252103052
            ]
        },
        {
            "positions": [
                0.04858273329345664,
                -1.5223364846728449,
                1.7586395480711552,
                -0.831661755316546,
                1.2775476615182761,
                -2.224817848919246
            ]
        },
        {
            "positions": [
                0.11299041708557664,
                -1.5471170028830459,
                1.6479836877624674,
                -0.798795324320605,
                1.2849685241229225,
                -2.0799504457354394
            ]
        },
        {
            "positions": [
                0.174101847569216,
                -1.5959395324306054,
                1.6345089870016611,
                -0.674274521128645,
                1.2042912066659295,
                -2.0430125703277824
            ]
        },
        {
            "positions": [
                0.23521327805285536,
                -1.6447620619781649,
                1.6210342862408549,
                -0.5497537179366851,
                1.1236138892089362,
                -2.006074694920126
            ]
        },
        {
            "positions": [
                0.29632470853649473,
                -1.6935845915257244,
                1.6075595854800486,
                -0.42523291474472524,
                1.0429365717519432,
                -1.9691368195124688
            ]
        },
        {
            "positions": [
                0.3574361390201341,
                -1.7424071210732839,
                1.5940848847192424,
                -0.30071211155276534,
                0.9622592542949502,
                -1.932198944104812
            ]
        },
        {
            "positions": [
                0.4185475695037735,
                -1.7912296506208434,
                1.580610183958436,
                -0.17619130836080543,
                0.881581936837957,
                -1.8952610686971552
            ]
        },
        {
            "positions": [
                0.4796589999874128,
                -1.8400521801684029,
                1.5671354831976299,
                -0.051670505168845526,
                0.8009046193809639,
                -1.8583231932894981
            ]
        },
        {
            "positions": [
                0.5407704304710521,
                -1.8888747097159624,
                1.5536607824368236,
                0.07285029802311438,
                0.7202273019239709,
                -1.8213853178818413
            ]
        },
        {
            "positions": [
                0.6018818609546915,
                -1.9376972392635219,
                1.5401860816760173,
                0.19737110121507428,
                0.6395499844669778,
                -1.7844474424741845
            ]
        },
        {
            "positions": [
                0.662993291438331,
                -1.9865197688110814,
                1.526711380915211,
                0.3218919044070343,
                0.5588726670099846,
                -1.7475095670665275
            ]
        },
        {
            "positions": [
                0.7241047219219703,
                -2.035342298358641,
                1.5132366801544048,
                0.44641270759899404,
                0.4781953495529916,
                -1.7105716916588707
            ]
        },
        {
            "positions": [
                0.7481454053819543,
                -2.040156303276623,
                1.6151269652504843,
                0.4019422698525826,
                0.5109547928014464,
                -1.8330274028728888
            ]
        },
        {
            "positions": [
                0.7721860888419382,
                -2.044970308194605,
                1.7170172503465637,
                0.35747183210617106,
                0.5437142360499012,
                -1.9554831140869071
            ]
        },
        {
            "positions": [
                0.7962267723019222,
                -2.049784313112587,
                1.818907535442643,
                0.3130013943597596,
                0.576473679298356,
                -2.0779388253009254
            ]
        },
        {
            "positions": [
                0.8202674557619061,
                -2.054598318030569,
                1.9207978205387224,
                0.26853095661334814,
                0.6092331225468108,
                -2.2003945365149433
            ]
        },
        {
            "positions": [
                0.8443081392218901,
                -2.059412322948551,
                2.022688105634802,
                0.22406051886693665,
                0.6419925657952656,
                -2.3228502477289616
            ]
        },
        {
            "positions": [
                0.8549852784551532,
                -2.048317359055074,
                2.1077989393504795,
                0.12302535691392974,
                0.6815324669254268,
                -2.451461427704966
            ]
        },
        {
            "positions": [
                0.8656624176884162,
                -2.0372223951615966,
                2.192909773066157,
                0.021990194960922832,
                0.7210723680555879,
                -2.5800726076809704
            ]
        },
        {
            "positions": [
                0.8763395569216793,
                -2.0261274312681197,
                2.2780206067818347,
                -0.0790449669920841,
                0.7606122691857491,
                -2.7086837876569745
            ]
        },
        {
            "positions": [
                0.834085983304409,
                -1.9970085483281925,
                2.306417700801137,
                -0.17351025165114878,
                0.7499321526816038,
                -2.814833682222657
            ]
        },
        {
            "positions": [
                0.7918324096871387,
                -1.9678896653882654,
                2.3348147948204394,
                -0.2679755363102134,
                0.7392520361774587,
                -2.9209835767883394
            ]
        },
        {
            "positions": [
                0.7495788360698684,
                -1.9387707824483382,
                2.363211888839742,
                -0.3624408209692781,
                0.7285719196733136,
                -3.027133471354022
            ]
        },
        {
            "positions": [
                0.7073252624525981,
                -1.909651899508411,
                2.391608982859044,
                -0.4569061056283428,
                0.7178918031691683,
                -3.133283365919705
            ]
        }
    ]
}