{
    "goal": {
        "global_pose": {
            "orientation": {
                "w": 0.7031023502349854,
                "x": -0.7110244035720825,
                "y": 0.007748599164187908,
                "z": 0.005598929710686207
            },
            "position": {
                "x": 0.11585023208521307,
                "y": 0.44412534475326537,
                "z": 0.3711530566215515
            }
        },
        "name": "move_to_auspresseinheit_A"
    },
    "id": "STRIDE_move_to_auspresseinheit_A_21",
    "joint_names": [
        "shoulder_pan_joint",
        "shoulder_lift_joint",
        "elbow_joint",
        "wrist_1_joint",
        "wrist_2_joint",
        "wrist_3_joint"
    ],
    "metrics": {
        "cart_traj_len": 1.1616869120798297,
        "distance_elbow_joint": 1.0465853935032596,
        "distance_shoulder_lift_joint": 0.6172766068271867,
        "distance_shoulder_pan_joint": 1.1651283815729856,
        "distance_wrist_1_joint": 1.5720268513250468,
        "distance_wrist_2_joint": 0.7054201099086598,
        "distance_wrist_3_joint": 2.8865783145103854,
        "smoothness": 1.0311589410743796,
        "time": 0.398685886,
        "traj_len": 2.8271921861888916,
        "weighted_distance": 4.005448694953164
    },
    "planner": "STRIDE",
    "start": {
        "state": {
            "elbow_joint": 2.422574709923281,
            "shoulder_lift_joint": -1.3736533754116391,
            "shoulder_pan_joint": -0.33786336945926293,
            "wrist_1_joint": -1.0288603412921917,
            "wrist_2_joint": 1.2330224858903978,
            "wrist_3_joint": -3.094022268022082
        }
    },
    "waypoints": [
        {
            "positions": [
                -0.33786336945926293,
                -1.3736533754116391,
                2.422574709923281,
                -1.0288603412921917,
                1.2330224858903978,
                -3.094022268022082
            ]
        },
        {
            "positions": [
                -0.3434555794829088,
                -1.4253907493031832,
                2.373484165003609,
                -0.9312701444134162,
                1.1767447271145584,
                -2.965020058741037
            ]
        },
        {
            "positions": [
                -0.3490477895065546,
                -1.4771281231947273,
                2.3243936200839372,
                -0.8336799475346407,
                1.1204669683387192,
                -2.836017849459992
            ]
        },
        {
            "positions": [
                -0.3546399995302004,
                -1.5288654970862714,
                2.275303075164265,
                -0.7360897506558652,
                1.0641892095628798,
                -2.707015640178947
            ]
        },
        {
            "positions": [
                -0.36023220955384627,
                -1.5806028709778155,
                2.2262125302445934,
                -0.6384995537770897,
                1.0079114507870404,
                -2.5780134308979017
            ]
        },
        {
            "positions": [
                -0.36582441957749207,
                -1.6323402448693596,
                2.1771219853249213,
                -0.5409093568983142,
                0.9516336920112012,
                -2.449011221616857
            ]
        },
        {
            "positions": [
                -0.3714166296011379,
                -1.6840776187609037,
                2.128031440405249,
                -0.44331916001953875,
                0.8953559332353618,
                -2.3200090123358117
            ]
        },
        {
            "positions": [
                -0.3770088396247837,
                -1.7358149926524478,
                2.0789408954855775,
                -0.3457289631407632,
                0.8390781744595225,
                -2.1910068030547665
            ]
        },
        {
            "positions": [
                -0.38260104964842956,
                -1.7875523665439919,
                2.0298503505659053,
                -0.2481387662619876,
                0.7828004156836832,
                -2.0620045937737213
            ]
        },
        {
            "positions": [
                -0.3881932596720754,
                -1.839289740435536,
                1.9807598056462334,
                -0.15054856938321204,
                0.7265226569078438,
                -1.9330023844926763
            ]
        },
        {
            "positions": [
                -0.3937854696957212,
                -1.89102711432708,
                1.9316692607265615,
                -0.05295837250443669,
                0.6702448981320045,
                -1.8040001752116313
            ]
        },
        {
            "positions": [
                -0.39937767971936705,
                -1.9427644882186241,
                1.8825787158068896,
                0.044631824374338935,
                0.6139671393561652,
                -1.674997965930586
            ]
        },
        {
            "positions": [
                -0.29662598729158185,
                -1.94351206276557,
                1.9371439515582918,
                0.0007193552015912,
                0.6246780214160961,
                -1.8090728237460605
            ]
        },
        {
            "positions": [
                -0.19387429486379665,
                -1.9442596373125158,
                1.9917091873096937,
                -0.043193113971156535,
                0.635388903476027,
                -1.943147681561535
            ]
        },
        {
            "positions": [
                -0.09112260243601145,
                -1.945007211859462,
                2.046274423061096,
                -0.08710558314390426,
                0.6460997855359578,
                -2.0772225393770096
            ]
        },
        {
            "positions": [
                0.011629089991773756,
                -1.9457547864064078,
                2.100839658812498,
                -0.131018052316652,
                0.6568106675958887,
                -2.2112973971924843
            ]
        },
        {
            "positions": [
                0.1143807824195589,
                -1.9465023609533536,
                2.1554048945639,
                -0.17493052148939975,
                0.6675215496558196,
                -2.3453722550079585
            ]
        },
        {
            "positions": [
                0.21713247484734416,
                -1.9472499355002997,
                2.209970130315302,
                -0.21884299066214746,
                0.6782324317157504,
                -2.479447112823433
            ]
        },
        {
            "positions": [
                0.3198841672751294,
                -1.9479975100472455,
                2.264535366066704,
                -0.26275545983489523,
                0.6889433137756813,
                -2.6135219706389075
            ]
        },
        {
            "positions": [
                0.4226358597029145,
                -1.9487450845941914,
                2.319100601818106,
                -0.30666792900764295,
                0.6996541958356122,
                -2.747596828454382
            ]
        },
        {
            "positions": [
                0.5165027036664478,
                -1.93468345204598,
                2.34245643960999,
                -0.3557462397664877,
                0.6994282935372854,
                -2.87924854508608
            ]
        },
        {
            "positions": [
                0.6103695476299811,
                -1.9206218194977684,
                2.365812277401874,
                -0.4048245505253325,
                0.6992023912389587,
                -3.0109002617177776
            ]
        },
        {
            "positions": [
                0.7042363915935144,
                -1.906560186949557,
                2.389168115193758,
                -0.45390286128417734,
                0.6989764889406319,
                -3.1425519783494753
            ]
        }
    ]
}