{
    "goal": {
        "global_pose": {
            "orientation": {
                "w": 0.5084816217422485,
                "x": -0.49083608388900757,
                "y": 0.5182115435600281,
                "z": -0.4816462993621826
            },
            "position": {
                "x": 0.5540239810943604,
                "y": 0.030875300988554955,
                "z": 0.16403168439865112
            }
        },
        "name": "move_to_storage_A"
    },
    "id": "STRIDE_move_to_storage_A_66",
    "joint_names": [
        "shoulder_pan_joint",
        "shoulder_lift_joint",
        "elbow_joint",
        "wrist_1_joint",
        "wrist_2_joint",
        "wrist_3_joint"
    ],
    "metrics": {
        "cart_traj_len": 0.3539900436626177,
        "distance_elbow_joint": 0.44858771346892956,
        "distance_shoulder_lift_joint": 0.23476632664453212,
        "distance_shoulder_pan_joint": 0.463039357233302,
        "distance_wrist_1_joint": 0.23669155592644098,
        "distance_wrist_2_joint": 1.099909495378613,
        "distance_wrist_3_joint": 0.10223074514355757,
        "smoothness": 1.9984014473322144e-15,
        "time": 0.096775094,
        "traj_len": 1.6078635494952225,
        "weighted_distance": 2.0313265949589554
    },
    "planner": "STRIDE",
    "start": {
        "state": {
            "elbow_joint": 1.9715463870305268,
            "shoulder_lift_joint": -1.1394903361783484,
            "shoulder_pan_joint": 0.12281147578464417,
            "wrist_1_joint": -0.7804599489681411,
            "wrist_2_joint": 0.12958660307563738,
            "wrist_3_joint": -3.1924946282119055
        }
    },
    "waypoints": [
        {
            "positions": [
                0.12281147578464417,
                -1.1394903361783484,
                1.9715463870305268,
                -0.7804599489681411,
                0.12958660307563738,
                -3.1924946282119055
            ]
        },
        {
            "positions": [
                0.05666299617988675,
                -1.173028382841853,
                2.0356303460975167,
                -0.8142730283862041,
                0.2867165309868678,
                -3.1778902360485404
            ]
        },
        {
            "positions": [
                -0.00948548342487067,
                -1.2065664295053575,
                2.0997143051645066,
                -0.8480861078042671,
                0.44384645889809826,
                -3.1632858438851748
            ]
        },
        {
            "positions": [
                -0.07563396302962809,
                -1.2401044761688622,
                2.1637982642314966,
                -0.8818991872223301,
                0.6009763868093286,
                -3.1486814517218096
            ]
        },
        {
            "positions": [
                -0.1417824426343855,
                -1.2736425228323667,
                2.2278822232984865,
                -0.9157122666403931,
                0.7581063147205591,
                -3.134077059558444
            ]
        },
        {
            "positions": [
                -0.20793092223914295,
                -1.3071805694958714,
                2.2919661823654764,
                -0.9495253460584561,
                0.9152362426317896,
                -3.119472667395079
            ]
        },
        {
            "positions": [
                -0.27407940184390034,
                -1.3407186161593758,
                2.3560501414324664,
                -0.9833384254765191,
                1.0723661705430199,
                -3.104868275231713
            ]
        },
        {
            "positions": [
                -0.3402278814486578,
                -1.3742566628228805,
                2.4201341004994563,
                -1.017151504894582,
                1.2294960984542505,
                -3.090263883068348
            ]
        }
    ]
}