{
    "goal": {
        "global_pose": {
            "orientation": {
                "w": 0.7031023502349854,
                "x": -0.7110244035720825,
                "y": 0.007748599164187908,
                "z": 0.005598929710686207
            },
            "position": {
                "x": 0.11585023208521307,
                "y": 0.44412534475326537,
                "z": 0.3711530566215515
            }
        },
        "name": "move_to_auspresseinheit_A"
    },
    "id": "STRIDE_move_to_auspresseinheit_A_15",
    "joint_names": [
        "shoulder_pan_joint",
        "shoulder_lift_joint",
        "elbow_joint",
        "wrist_1_joint",
        "wrist_2_joint",
        "wrist_3_joint"
    ],
    "metrics": {
        "cart_traj_len": 2.5601912727695115,
        "distance_elbow_joint": 2.337139287468338,
        "distance_shoulder_lift_joint": 1.4448301829126495,
        "distance_shoulder_pan_joint": 2.8354317686255732,
        "distance_wrist_1_joint": 2.1221330847196547,
        "distance_wrist_2_joint": 1.6097361614329297,
        "distance_wrist_3_joint": 5.558869334532883,
        "smoothness": 0.6368072612763516,
        "time": 1.540854646,
        "traj_len": 3.9885009489395933,
        "weighted_distance": 5.545966798936897
    },
    "planner": "STRIDE",
    "start": {
        "state": {
            "elbow_joint": 2.422574709923281,
            "shoulder_lift_joint": -1.3736533754116391,
            "shoulder_pan_joint": -0.33786336945926293,
            "wrist_1_joint": -1.0288603412921917,
            "wrist_2_joint": 1.2330224858903978,
            "wrist_3_joint": -3.094022268022082
        }
    },
    "waypoints": [
        {
            "positions": [
                -0.33786336945926293,
                -1.3736533754116391,
                2.422574709923281,
                -1.0288603412921917,
                1.2330224858903978,
                -3.094022268022082
            ]
        },
        {
            "positions": [
                -0.292434511705899,
                -1.3773674268501594,
                2.3437067177349435,
                -0.9894347267723993,
                1.182137328720915,
                -2.9332224360911754
            ]
        },
        {
            "positions": [
                -0.2470056539525351,
                -1.3810814782886798,
                2.264838725546606,
                -0.9500091122526069,
                1.131252171551432,
                -2.772422604160269
            ]
        },
        {
            "positions": [
                -0.20157679619917118,
                -1.3847955297272,
                2.1859707333582685,
                -0.9105834977328144,
                1.0803670143819493,
                -2.6116227722293623
            ]
        },
        {
            "positions": [
                -0.15614793844580727,
                -1.3885095811657204,
                2.107102741169931,
                -0.871157883213022,
                1.0294818572124664,
                -2.450822940298456
            ]
        },
        {
            "positions": [
                -0.11071908069244335,
                -1.3922236326042408,
                2.028234748981593,
                -0.8317322686932297,
                0.9785967000429835,
                -2.2900231083675493
            ]
        },
        {
            "positions": [
                -0.06529022293907943,
                -1.395937684042761,
                1.9493667567932556,
                -0.7923066541734373,
                0.9277115428735005,
                -2.129223276436643
            ]
        },
        {
            "positions": [
                -0.019861365185715518,
                -1.3996517354812814,
                1.870498764604918,
                -0.7528810396536448,
                0.8768263857040177,
                -1.9684234445057363
            ]
        },
        {
            "positions": [
                0.025567492567648398,
                -1.4033657869198015,
                1.7916307724165805,
                -0.7134554251338524,
                0.8259412285345349,
                -1.80762361257483
            ]
        },
        {
            "positions": [
                0.07099635032101231,
                -1.4070798383583218,
                1.712762780228243,
                -0.6740298106140601,
                0.7750560713650521,
                -1.6468237806439234
            ]
        },
        {
            "positions": [
                0.11642520807437623,
                -1.4107938897968422,
                1.6338947880399055,
                -0.6346041960942677,
                0.7241709141955692,
                -1.486023948713017
            ]
        },
        {
            "positions": [
                0.1618540658277401,
                -1.4145079412353625,
                1.555026795851568,
                -0.5951785815744752,
                0.6732857570260863,
                -1.3252241167821104
            ]
        },
        {
            "positions": [
                0.20728292358110406,
                -1.4182219926738828,
                1.47615880366323,
                -0.5557529670546828,
                0.6224005998566033,
                -1.1644242848512036
            ]
        },
        {
            "positions": [
                0.252711781334468,
                -1.4219360441124032,
                1.3972908114748925,
                -0.5163273525348904,
                0.5715154426871205,
                -1.0036244529202971
            ]
        },
        {
            "positions": [
                0.2981406390878319,
                -1.4256500955509235,
                1.318422819286555,
                -0.47690173801509794,
                0.5206302855176377,
                -0.8428246209893904
            ]
        },
        {
            "positions": [
                0.34356949684119586,
                -1.4293641469894438,
                1.2395548270982175,
                -0.4374761234953055,
                0.46974512834815485,
                -0.6820247890584841
            ]
        },
        {
            "positions": [
                0.44861686633301356,
                -1.5071733355363832,
                1.303954598410595,
                -0.37483180221054035,
                0.5155536280398232,
                -0.6529474398268302
            ]
        },
        {
            "positions": [
                0.5536642358248314,
                -1.5849825240833224,
                1.368354369722972,
                -0.31218748092577514,
                0.5613621277314915,
                -0.6238700905951765
            ]
        },
        {
            "positions": [
                0.6587116053166491,
                -1.6627917126302618,
                1.4327541410353495,
                -0.24954315964100993,
                0.6071706274231599,
                -0.5947927413635227
            ]
        },
        {
            "positions": [
                0.7637589748084668,
                -1.740600901177201,
                1.4971539123477267,
                -0.18689883835624477,
                0.6529791271148282,
                -0.5657153921318688
            ]
        },
        {
            "positions": [
                0.8688063443002846,
                -1.8184100897241406,
                1.561553683660104,
                -0.1242545170714795,
                0.6987876268064965,
                -0.5366380429002151
            ]
        },
        {
            "positions": [
                0.9738537137921023,
                -1.8962192782710798,
                1.6259534549724814,
                -0.06161019578671434,
                0.7445961264981649,
                -0.5075606936685613
            ]
        },
        {
            "positions": [
                1.07890108328392,
                -1.9740284668180192,
                1.6903532262848588,
                0.0010341254980508752,
                0.7904046261898332,
                -0.47848334443690743
            ]
        },
        {
            "positions": [
                1.1839484527757378,
                -2.0518376553649587,
                1.754752997597236,
                0.06367844678281598,
                0.8362131258815015,
                -0.44940599520525365
            ]
        },
        {
            "positions": [
                1.2889958222675555,
                -2.129646843911898,
                1.8191527689096134,
                0.12632276806758125,
                0.8820216255731699,
                -0.4203286459735998
            ]
        },
        {
            "positions": [
                1.3940431917593732,
                -2.207456032458837,
                1.8835525402219908,
                0.18896708935234652,
                0.9278301252648382,
                -0.39125129674194603
            ]
        },
        {
            "positions": [
                1.4990905612511911,
                -2.2852652210057762,
                1.947952311534368,
                0.25161141063711157,
                0.9736386249565065,
                -0.36217394751029225
            ]
        },
        {
            "positions": [
                1.6041379307430086,
                -2.363074409552716,
                2.0123520828467454,
                0.31425573192187684,
                1.0194471246481749,
                -0.3330965982786384
            ]
        },
        {
            "positions": [
                1.5445758995147885,
                -2.332713799634611,
                2.0377735594397284,
                0.26232126448817106,
                0.9996633374754638,
                -0.5196261759312678
            ]
        },
        {
            "positions": [
                1.4850138682865686,
                -2.302353189716506,
                2.063195036032712,
                0.21038679705446528,
                0.9798795503027526,
                -0.7061557535838971
            ]
        },
        {
            "positions": [
                1.4254518370583484,
                -2.2719925797984013,
                2.088616512625695,
                0.15845232962075947,
                0.9600957631300415,
                -0.8926853312365266
            ]
        },
        {
            "positions": [
                1.3658898058301285,
                -2.2416319698802964,
                2.114037989218678,
                0.1065178621870537,
                0.9403119759573304,
                -1.0792149088891558
            ]
        },
        {
            "positions": [
                1.3063277746019084,
                -2.2112713599621916,
                2.139459465811661,
                0.05458339475334795,
                0.9205281887846193,
                -1.2657444865417853
            ]
        },
        {
            "positions": [
                1.2467657433736885,
                -2.1809107500440867,
                2.1648809424046442,
                0.0026489273196421137,
                0.9007444016119082,
                -1.4522740641944147
            ]
        },
        {
            "positions": [
                1.1872037121454684,
                -2.150550140125982,
                2.1903024189976272,
                -0.049285540114063664,
                0.880960614439197,
                -1.638803641847044
            ]
        },
        {
            "positions": [
                1.1276416809172485,
                -2.120189530207877,
                2.2157238955906102,
                -0.10122000754776944,
                0.8611768272664859,
                -1.8253332194996734
            ]
        },
        {
            "positions": [
                1.0680796496890284,
                -2.089828920289772,
                2.241145372183593,
                -0.15315447498147522,
                0.8413930400937748,
                -2.0118627971523027
            ]
        },
        {
            "positions": [
                1.0085176184608085,
                -2.0594683103716673,
                2.2665668487765767,
                -0.20508894241518094,
                0.8216092529210637,
                -2.198392374804932
            ]
        },
        {
            "positions": [
                0.9489555872325884,
                -2.0291077004535625,
                2.2919883253695597,
                -0.2570234098488867,
                0.8018254657483526,
                -2.384921952457561
            ]
        },
        {
            "positions": [
                0.8893935560043683,
                -1.9987470905354576,
                2.3174098019625426,
                -0.3089578772825926,
                0.7820416785756414,
                -2.571451530110191
            ]
        },
        {
            "positions": [
                0.8298315247761483,
                -1.9683864806173528,
                2.3428312785555256,
                -0.3608923447162984,
                0.7622578914029303,
                -2.7579811077628205
            ]
        },
        {
            "positions": [
                0.7702694935479283,
                -1.938025870699248,
                2.368252755148509,
                -0.41282681215000416,
                0.7424741042302192,
                -2.9445106854154495
            ]
        },
        {
            "positions": [
                0.7107074623197083,
                -1.907665260781143,
                2.393674231741492,
                -0.46476127958371,
                0.7226903170575081,
                -3.131040263068079
            ]
        }
    ]
}