{
    "goal": {
        "global_pose": {
            "orientation": {
                "w": 0.5084816217422485,
                "x": -0.49083608388900757,
                "y": 0.5182115435600281,
                "z": -0.4816462993621826
            },
            "position": {
                "x": 0.5540239810943604,
                "y": 0.030875300988554955,
                "z": 0.16403168439865112
            }
        },
        "name": "move_to_storage_A"
    },
    "id": "STRIDE_move_to_storage_A_95",
    "joint_names": [
        "shoulder_pan_joint",
        "shoulder_lift_joint",
        "elbow_joint",
        "wrist_1_joint",
        "wrist_2_joint",
        "wrist_3_joint"
    ],
    "metrics": {
        "cart_traj_len": 0.3533819074553654,
        "distance_elbow_joint": 0.4499740726384056,
        "distance_shoulder_lift_joint": 0.23709734034593843,
        "distance_shoulder_pan_joint": 0.46363913096412285,
        "distance_wrist_1_joint": 0.23634885516502668,
        "distance_wrist_2_joint": 1.0942959854124108,
        "distance_wrist_3_joint": 0.08785214774600059,
        "smoothness": 2.2204460668324854e-16,
        "time": 0.201982795,
        "traj_len": 1.6028747712381977,
        "weighted_distance": 2.018800799569225
    },
    "planner": "STRIDE",
    "start": {
        "state": {
            "elbow_joint": 1.9715463870305268,
            "shoulder_lift_joint": -1.1394903361783484,
            "shoulder_pan_joint": 0.12281147578464417,
            "wrist_1_joint": -0.7804599489681411,
            "wrist_2_joint": 0.12958660307563738,
            "wrist_3_joint": -3.1924946282119055
        }
    },
    "waypoints": [
        {
            "positions": [
                0.12281147578464417,
                -1.1394903361783484,
                1.9715463870305268,
                -0.7804599489681411,
                0.12958660307563738,
                -3.1924946282119055
            ]
        },
        {
            "positions": [
                0.05657731421834092,
                -1.1733613847991968,
                2.035828397407442,
                -0.8142240711345735,
                0.2859146009916961,
                -3.1799443213910483
            ]
        },
        {
            "positions": [
                -0.009656847347962336,
                -1.207232433420045,
                2.100110407784357,
                -0.8479881933010058,
                0.44224259890775475,
                -3.167394014570191
            ]
        },
        {
            "positions": [
                -0.0758910089142656,
                -1.2411034820408935,
                2.164392418161272,
                -0.8817523154674383,
                0.5985705968238134,
                -3.154843707749334
            ]
        },
        {
            "positions": [
                -0.14212517048056883,
                -1.2749745306617417,
                2.228674428538187,
                -0.9155164376338706,
                0.7548985947398721,
                -3.1422934009284766
            ]
        },
        {
            "positions": [
                -0.20835933204687213,
                -1.3088455792825902,
                2.2929564389151023,
                -0.949280559800303,
                0.9112265926559309,
                -3.1297430941076194
            ]
        },
        {
            "positions": [
                -0.27459349361317537,
                -1.3427166279034384,
                2.357238449292017,
                -0.9830446819667353,
                1.0675545905719894,
                -3.117192787286762
            ]
        },
        {
            "positions": [
                -0.34082765517947866,
                -1.3765876765242868,
                2.4215204596689324,
                -1.0168088041331678,
                1.2238825884880482,
                -3.104642480465905
            ]
        }
    ]
}