{
    "goal": {
        "global_pose": {
            "orientation": {
                "w": 0.7031023502349854,
                "x": -0.7110244035720825,
                "y": 0.007748599164187908,
                "z": 0.005598929710686207
            },
            "position": {
                "x": 0.11585023208521307,
                "y": 0.44412534475326537,
                "z": 0.3711530566215515
            }
        },
        "name": "move_to_auspresseinheit_A"
    },
    "id": "STRIDE_move_to_auspresseinheit_A_22",
    "joint_names": [
        "shoulder_pan_joint",
        "shoulder_lift_joint",
        "elbow_joint",
        "wrist_1_joint",
        "wrist_2_joint",
        "wrist_3_joint"
    ],
    "metrics": {
        "cart_traj_len": 1.2282070722522458,
        "distance_elbow_joint": 0.7872028675226992,
        "distance_shoulder_lift_joint": 0.5337403415822803,
        "distance_shoulder_pan_joint": 1.1741337453024243,
        "distance_wrist_1_joint": 0.8126208919357498,
        "distance_wrist_2_joint": 0.5295752148702461,
        "distance_wrist_3_joint": 0.9518307489574518,
        "smoothness": 1.0105776805439446,
        "time": 0.277722784,
        "traj_len": 2.18840211345421,
        "weighted_distance": 2.834600750527621
    },
    "planner": "STRIDE",
    "start": {
        "state": {
            "elbow_joint": 2.422574709923281,
            "shoulder_lift_joint": -1.3736533754116391,
            "shoulder_pan_joint": -0.33786336945926293,
            "wrist_1_joint": -1.0288603412921917,
            "wrist_2_joint": 1.2330224858903978,
            "wrist_3_joint": -3.094022268022082
        }
    },
    "waypoints": [
        {
            "positions": [
                -0.33786336945926293,
                -1.3736533754116391,
                2.422574709923281,
                -1.0288603412921917,
                1.2330224858903978,
                -3.094022268022082
            ]
        },
        {
            "positions": [
                -0.3543162224755526,
                -1.382717165010182,
                2.320216421838231,
                -1.0584151352991462,
                1.185536752747236,
                -2.980839789281008
            ]
        },
        {
            "positions": [
                -0.37076907549184235,
                -1.391780954608725,
                2.2178581337531806,
                -1.087969929306101,
                1.1380510196040745,
                -2.8676573105399337
            ]
        },
        {
            "positions": [
                -0.3872219285081321,
                -1.400844744207268,
                2.1154998456681304,
                -1.1175247233130556,
                1.090565286460913,
                -2.7544748317988597
            ]
        },
        {
            "positions": [
                -0.40367478152442177,
                -1.4099085338058108,
                2.01314155758308,
                -1.1470795173200101,
                1.0430795533177513,
                -2.6412923530577856
            ]
        },
        {
            "positions": [
                -0.28052785560917004,
                -1.4651846652711562,
                2.0551159703811357,
                -1.0699237711080178,
                1.0053426330624624,
                -2.6967480012792473
            ]
        },
        {
            "positions": [
                -0.15738092969391837,
                -1.5204607967365016,
                2.097090383179191,
                -0.9927680248960253,
                0.9676057128071736,
                -2.752203649500709
            ]
        },
        {
            "positions": [
                -0.034234003778666644,
                -1.575736928201847,
                2.139064795977246,
                -0.915612278684033,
                0.9298687925518847,
                -2.8076592977221706
            ]
        },
        {
            "positions": [
                0.08891292213658503,
                -1.6310130596671923,
                2.1810392087753017,
                -0.8384565324720405,
                0.8921318722965959,
                -2.8631149459436323
            ]
        },
        {
            "positions": [
                0.2120598480518368,
                -1.6862891911325377,
                2.223013621573357,
                -0.7613007862600483,
                0.854394952041307,
                -2.9185705941650943
            ]
        },
        {
            "positions": [
                0.3352067739670885,
                -1.741565322597883,
                2.2649880343714126,
                -0.6841450400480559,
                0.8166580317860183,
                -2.974026242386556
            ]
        },
        {
            "positions": [
                0.45835369988234015,
                -1.7968414540632287,
                2.306962447169468,
                -0.6069892938360635,
                0.7789211115307293,
                -3.0294818906080176
            ]
        },
        {
            "positions": [
                0.5815006257975919,
                -1.852117585528574,
                2.348936859967523,
                -0.5298335476240711,
                0.7411841912754406,
                -3.0849375388294793
            ]
        },
        {
            "positions": [
                0.7046475517128437,
                -1.9073937169939195,
                2.3909112727655786,
                -0.45267780141207864,
                0.7034472710201517,
                -3.140393187050941
            ]
        }
    ]
}