{
    "goal": {
        "global_pose": {
            "orientation": {
                "w": 0.7047431468963623,
                "x": -0.7094548344612122,
                "y": 0.0024358443915843964,
                "z": -0.0022348060738295317
            },
            "position": {
                "x": 0.6094750761985779,
                "y": 0.3671506643295288,
                "z": 0.19426114857196808
            }
        },
        "name": "move_to_magneteinheit_A"
    },
    "id": "STRIDE_move_to_magneteinheit_A_20",
    "joint_names": [
        "shoulder_pan_joint",
        "shoulder_lift_joint",
        "elbow_joint",
        "wrist_1_joint",
        "wrist_2_joint",
        "wrist_3_joint"
    ],
    "metrics": {
        "cart_traj_len": 2.0710624558888235,
        "distance_elbow_joint": 3.9005990997405133,
        "distance_shoulder_lift_joint": 1.0666256261489218,
        "distance_shoulder_pan_joint": 1.2420520715628538,
        "distance_wrist_1_joint": 1.2495139539867024,
        "distance_wrist_2_joint": 1.4420881185617875,
        "distance_wrist_3_joint": 2.0034189972376364,
        "smoothness": 2.7564157811865425e-16,
        "time": 0.051058757999999996,
        "traj_len": 3.302165632920071,
        "weighted_distance": 4.1955616947272
    },
    "planner": "STRIDE",
    "start": {
        "state": {
            "elbow_joint": -1.919643507792019,
            "shoulder_lift_joint": -0.07675430207160344,
            "shoulder_pan_joint": -1.1188671864651873,
            "wrist_1_joint": 0.42560062535961957,
            "wrist_2_joint": 1.5706038300724876,
            "wrist_3_joint": 1.1188968870953055
        }
    },
    "waypoints": [
        {
            "positions": [
                -1.1188671864651873,
                -0.07675430207160344,
                -1.919643507792019,
                0.42560062535961957,
                1.5706038300724876,
                1.1188968870953055
            ]
        },
        {
            "positions": [
                -1.074508183909371,
                -0.11484807443406493,
                -1.7803363970870008,
                0.3809751270029516,
                1.5191006829809952,
                1.1904475655680782
            ]
        },
        {
            "positions": [
                -1.030149181353555,
                -0.15294184679652642,
                -1.6410292863819824,
                0.3363496286462837,
                1.4675975358895028,
                1.261998244040851
            ]
        },
        {
            "positions": [
                -0.9857901787977388,
                -0.19103561915898792,
                -1.501722175676964,
                0.29172413028961575,
                1.4160943887980104,
                1.3335489225136237
            ]
        },
        {
            "positions": [
                -0.9414311762419225,
                -0.2291293915214494,
                -1.3624150649719458,
                0.24709863193294782,
                1.364591241706518,
                1.4050996009863965
            ]
        },
        {
            "positions": [
                -0.8970721736861063,
                -0.2672231638839109,
                -1.2231079542669274,
                0.20247313357627986,
                1.3130880946150256,
                1.4766502794591692
            ]
        },
        {
            "positions": [
                -0.8527131711302901,
                -0.30531693624637235,
                -1.083800843561909,
                0.15784763521961193,
                1.2615849475235332,
                1.5482009579319418
            ]
        },
        {
            "positions": [
                -0.808354168574474,
                -0.3434107086088339,
                -0.9444937328568908,
                0.11322213686294397,
                1.2100818004320408,
                1.6197516364047146
            ]
        },
        {
            "positions": [
                -0.7639951660186577,
                -0.38150448097129536,
                -0.8051866221518724,
                0.06859663850627606,
                1.1585786533405482,
                1.6913023148774875
            ]
        },
        {
            "positions": [
                -0.7196361634628414,
                -0.4195982533337569,
                -0.6658795114468541,
                0.02397114014960805,
                1.1070755062490558,
                1.7628529933502601
            ]
        },
        {
            "positions": [
                -0.6752771609070253,
                -0.45769202569621836,
                -0.5265724007418358,
                -0.020654358207059853,
                1.0555723591575634,
                1.8344036718230328
            ]
        },
        {
            "positions": [
                -0.6309181583512091,
                -0.49578579805867984,
                -0.3872652900368174,
                -0.06527985656372781,
                1.0040692120660712,
                1.9059543502958056
            ]
        },
        {
            "positions": [
                -0.5865591557953929,
                -0.5338795704211413,
                -0.2479581793317991,
                -0.10990535492039571,
                0.9525660649745787,
                1.9775050287685783
            ]
        },
        {
            "positions": [
                -0.5422001532395766,
                -0.5719733427836029,
                -0.10865106862678076,
                -0.15453085327706367,
                0.9010629178830862,
                2.049055707241351
            ]
        },
        {
            "positions": [
                -0.49784115068376045,
                -0.6100671151460644,
                0.030656042078237578,
                -0.19915635163373163,
                0.8495597707915938,
                2.1206063857141237
            ]
        },
        {
            "positions": [
                -0.4534821481279443,
                -0.6481608875085259,
                0.1699631527832557,
                -0.2437818499903996,
                0.7980566237001014,
                2.1921570641868966
            ]
        },
        {
            "positions": [
                -0.40912314557212803,
                -0.6862546598709873,
                0.30927026348827424,
                -0.28840734834706744,
                0.746553476608609,
                2.263707742659669
            ]
        },
        {
            "positions": [
                -0.3647641430163119,
                -0.7243484322334488,
                0.44857737419329236,
                -0.3330328467037354,
                0.6950503295171166,
                2.335258421132442
            ]
        },
        {
            "positions": [
                -0.3204051404604955,
                -0.7624422045959103,
                0.5878844848983109,
                -0.37765834506040347,
                0.6435471824256241,
                2.4068090996052147
            ]
        },
        {
            "positions": [
                -0.27604613790467936,
                -0.8005359769583718,
                0.7271915956033295,
                -0.4222838434170714,
                0.5920440353341317,
                2.478359778077987
            ]
        },
        {
            "positions": [
                -0.2316871353488632,
                -0.8386297493208332,
                0.8664987063083476,
                -0.4669093417737393,
                0.5405408882426392,
                2.5499104565507604
            ]
        },
        {
            "positions": [
                -0.18732813279304694,
                -0.8767235216832947,
                1.0058058170133657,
                -0.5115348401304072,
                0.48903774115114707,
                2.621461135023533
            ]
        },
        {
            "positions": [
                -0.1429691302372308,
                -0.9148172940457562,
                1.1451129277183842,
                -0.5561603384870752,
                0.43753459405965467,
                2.6930118134963053
            ]
        },
        {
            "positions": [
                -0.09861012768141464,
                -0.9529110664082177,
                1.2844200384234024,
                -0.6007858368437431,
                0.3860314469681623,
                2.7645624919690786
            ]
        },
        {
            "positions": [
                -0.054251125125598376,
                -0.9910048387706791,
                1.423727149128421,
                -0.6454113352004109,
                0.3345282998766699,
                2.836113170441851
            ]
        },
        {
            "positions": [
                -0.009892122569782114,
                -1.0290986111331408,
                1.5630342598334395,
                -0.690036833557079,
                0.28302515278517726,
                2.907663848914624
            ]
        },
        {
            "positions": [
                0.03446687998603415,
                -1.0671923834956023,
                1.7023413705384576,
                -0.7346623319137469,
                0.23152200569368486,
                2.9792145273873967
            ]
        },
        {
            "positions": [
                0.07882588254185019,
                -1.1052861558580638,
                1.8416484812434761,
                -0.7792878302704149,
                0.18001885860219247,
                3.050765205860169
            ]
        },
        {
            "positions": [
                0.12318488509766636,
                -1.1433799282205253,
                1.9809555919484942,
                -0.8239133286270829,
                0.12851571151070015,
                3.122315884332942
            ]
        }
    ]
}