{
    "goal": {
        "global_pose": {
            "orientation": {
                "w": 0.7047431468963623,
                "x": -0.7094548344612122,
                "y": 0.0024358443915843964,
                "z": -0.0022348060738295317
            },
            "position": {
                "x": 0.6094750761985779,
                "y": 0.3671506643295288,
                "z": 0.19426114857196808
            }
        },
        "name": "move_to_magneteinheit_A"
    },
    "id": "STRIDE_move_to_magneteinheit_A_72",
    "joint_names": [
        "shoulder_pan_joint",
        "shoulder_lift_joint",
        "elbow_joint",
        "wrist_1_joint",
        "wrist_2_joint",
        "wrist_3_joint"
    ],
    "metrics": {
        "cart_traj_len": 3.5727436289028396,
        "distance_elbow_joint": 3.885918531386827,
        "distance_shoulder_lift_joint": 2.038057420341583,
        "distance_shoulder_pan_joint": 4.411421089474219,
        "distance_wrist_1_joint": 1.1797464380957272,
        "distance_wrist_2_joint": 3.2818037206417237,
        "distance_wrist_3_joint": 5.636086861041936,
        "smoothness": 0.26333572491744883,
        "time": 0.14378232999999999,
        "traj_len": 4.520291369036074,
        "weighted_distance": 6.01388043959999
    },
    "planner": "STRIDE",
    "start": {
        "state": {
            "elbow_joint": -1.919643507792019,
            "shoulder_lift_joint": -0.07675430207160344,
            "shoulder_pan_joint": -1.1188671864651873,
            "wrist_1_joint": 0.42560062535961957,
            "wrist_2_joint": 1.5706038300724876,
            "wrist_3_joint": 1.1188968870953055
        }
    },
    "waypoints": [
        {
            "positions": [
                -1.1188671864651873,
                -0.07675430207160344,
                -1.919643507792019,
                0.42560062535961957,
                1.5706038300724876,
                1.1188968870953055
            ]
        },
        {
            "positions": [
                -1.2179316933372384,
                -0.17358258934491977,
                -1.9175413827513414,
                0.4249539714096905,
                1.4232448734554468,
                1.1597021004672203
            ]
        },
        {
            "positions": [
                -1.3169962002092894,
                -0.27041087661823604,
                -1.9154392577106636,
                0.42430731745976147,
                1.2758859168384058,
                1.2005073138391351
            ]
        },
        {
            "positions": [
                -1.4160607070813405,
                -0.36723916389155237,
                -1.913337132669986,
                0.4236606635098324,
                1.128526960221365,
                1.24131252721105
            ]
        },
        {
            "positions": [
                -1.5151252139533915,
                -0.4640674511648687,
                -1.9112350076293083,
                0.4230140095599033,
                0.9811680036043242,
                1.2821177405829647
            ]
        },
        {
            "positions": [
                -1.6141897208254425,
                -0.560895738438185,
                -1.9091328825886305,
                0.4223673556099743,
                0.8338090469872834,
                1.3229229539548795
            ]
        },
        {
            "positions": [
                -1.7132542276974934,
                -0.6577240257115013,
                -1.9070307575479528,
                0.4217207016600452,
                0.6864500903702425,
                1.3637281673267942
            ]
        },
        {
            "positions": [
                -1.8123187345695446,
                -0.7545523129848177,
                -1.904928632507275,
                0.42107404771011614,
                0.5390911337532016,
                1.404533380698709
            ]
        },
        {
            "positions": [
                -1.9113832414415954,
                -0.8513806002581339,
                -1.9028265074665973,
                0.4204273937601871,
                0.3917321771361608,
                1.4453385940706238
            ]
        },
        {
            "positions": [
                -2.0104477483136467,
                -0.9482088875314503,
                -1.9007243824259197,
                0.41978073981025804,
                0.24437322051912003,
                1.4861438074425386
            ]
        },
        {
            "positions": [
                -2.1095122551856975,
                -1.0450371748047667,
                -1.8986222573852418,
                0.41913408586032896,
                0.09701426390207923,
                1.5269490208144534
            ]
        },
        {
            "positions": [
                -2.2085767620577483,
                -1.141865462078083,
                -1.8965201323445642,
                0.4184874319103999,
                -0.05034469271496178,
                1.5677542341863682
            ]
        },
        {
            "positions": [
                -2.3076412689297996,
                -1.2386937493513992,
                -1.8944180073038863,
                0.41784077796047087,
                -0.19770364933200257,
                1.608559447558283
            ]
        },
        {
            "positions": [
                -2.406705775801851,
                -1.3355220366247156,
                -1.8923158822632087,
                0.4171941240105418,
                -0.34506260594904337,
                1.6493646609301977
            ]
        },
        {
            "positions": [
                -2.5057702826739017,
                -1.432350323898032,
                -1.890213757222531,
                0.4165474700606127,
                -0.4924215625660844,
                1.6901698743021125
            ]
        },
        {
            "positions": [
                -2.6048347895459525,
                -1.5291786111713481,
                -1.8881116321818532,
                0.4159008161106837,
                -0.6397805191831252,
                1.7309750876740273
            ]
        },
        {
            "positions": [
                -2.7038992964180038,
                -1.6260068984446645,
                -1.8860095071411755,
                0.4152541621607546,
                -0.7871394758001657,
                1.771780301045942
            ]
        },
        {
            "positions": [
                -2.625388491431298,
                -1.612428986667761,
                -1.7790016035096206,
                0.3827708295247307,
                -0.7614711309454691,
                1.6333579830711837
            ]
        },
        {
            "positions": [
                -2.5468776864445926,
                -1.5988510748908578,
                -1.6719936998780653,
                0.3502874968887067,
                -0.7358027860907727,
                1.4949356650964254
            ]
        },
        {
            "positions": [
                -2.4683668814578867,
                -1.5852731631139543,
                -1.5649857962465101,
                0.31780416425268276,
                -0.710134441236076,
                1.356513347121667
            ]
        },
        {
            "positions": [
                -2.3898560764711814,
                -1.571695251337051,
                -1.4579778926149551,
                0.2853208316166588,
                -0.6844660963813796,
                1.2180910291469087
            ]
        },
        {
            "positions": [
                -2.3113452714844755,
                -1.5581173395601475,
                -1.3509699889834,
                0.2528374989806348,
                -0.658797751526683,
                1.0796687111721504
            ]
        },
        {
            "positions": [
                -2.2328344664977697,
                -1.5445394277832443,
                -1.243962085351845,
                0.22035416634461089,
                -0.6331294066719864,
                0.9412463931973922
            ]
        },
        {
            "positions": [
                -2.1543236615110644,
                -1.5309615160063408,
                -1.1369541817202897,
                0.18787083370858693,
                -0.6074610618172899,
                0.8028240752226338
            ]
        },
        {
            "positions": [
                -2.0758128565243585,
                -1.5173836042294375,
                -1.0299462780887347,
                0.155387501072563,
                -0.5817927169625933,
                0.6644017572478755
            ]
        },
        {
            "positions": [
                -1.9973020515376527,
                -1.503805692452534,
                -0.9229383744571795,
                0.12290416843653901,
                -0.5561243721078968,
                0.5259794392731172
            ]
        },
        {
            "positions": [
                -1.9187912465509471,
                -1.4902277806756306,
                -0.8159304708256243,
                0.09042083580051502,
                -0.5304560272532002,
                0.38755712129835884
            ]
        },
        {
            "positions": [
                -1.8402804415642415,
                -1.4766498688987273,
                -0.7089225671940691,
                0.05793750316449109,
                -0.5047876823985036,
                0.2491348033236005
            ]
        },
        {
            "positions": [
                -1.761769636577536,
                -1.4630719571218238,
                -0.6019146635625143,
                0.025454170528467157,
                -0.4791193375438071,
                0.11071248534884237
            ]
        },
        {
            "positions": [
                -1.6832588315908301,
                -1.4494940453449205,
                -0.4949067599309591,
                -0.00702916210755683,
                -0.4534509926891105,
                -0.027709832625915976
            ]
        },
        {
            "positions": [
                -1.6047480266041245,
                -1.435916133568017,
                -0.3878988562994039,
                -0.03951249474358076,
                -0.42778264783441394,
                -0.16613215060067454
            ]
        },
        {
            "positions": [
                -1.526237221617419,
                -1.4223382217911138,
                -0.2808909526678487,
                -0.07199582737960475,
                -0.40211430297971734,
                -0.30455446857543267
            ]
        },
        {
            "positions": [
                -1.4477264166307133,
                -1.4087603100142103,
                -0.17388304903629392,
                -0.10447916001562862,
                -0.37644595812502085,
                -0.442976786550191
            ]
        },
        {
            "positions": [
                -1.3692156116440075,
                -1.395182398237307,
                -0.06687514540473871,
                -0.1369624926516526,
                -0.35077761327032425,
                -0.5813991045249494
            ]
        },
        {
            "positions": [
                -1.290704806657302,
                -1.3816044864604036,
                0.0401327582268165,
                -0.1694458252876766,
                -0.3251092684156277,
                -0.7198214224997077
            ]
        },
        {
            "positions": [
                -1.2121940016705963,
                -1.3680265746835003,
                0.1471406618583717,
                -0.2019291579237006,
                -0.29944092356093116,
                -0.858243740474466
            ]
        },
        {
            "positions": [
                -1.1336831966838905,
                -1.3544486629065968,
                0.2541485654899269,
                -0.23441249055972457,
                -0.2737725787062346,
                -0.9966660584492244
            ]
        },
        {
            "positions": [
                -1.055172391697185,
                -1.3408707511296933,
                0.36115646912148214,
                -0.26689582319574856,
                -0.24810423385153801,
                -1.1350883764239827
            ]
        },
        {
            "positions": [
                -0.9766615867104791,
                -1.32729283935279,
                0.46816437275303735,
                -0.29937915583177244,
                -0.2224358889968414,
                -1.273510694398741
            ]
        },
        {
            "positions": [
                -0.8981507817237737,
                -1.3137149275758866,
                0.5751722763845917,
                -0.3318624884677963,
                -0.19676754414214492,
                -1.411933012373499
            ]
        },
        {
            "positions": [
                -0.8196399767370681,
                -1.3001370157989833,
                0.6821801800161469,
                -0.3643458211038203,
                -0.17109919928744843,
                -1.5503553303482573
            ]
        },
        {
            "positions": [
                -0.7411291717503623,
                -1.2865591040220798,
                0.7891880836477021,
                -0.3968291537398443,
                -0.14543085443275183,
                -1.6887776483230157
            ]
        },
        {
            "positions": [
                -0.6626183667636565,
                -1.2729811922451764,
                0.8961959872792573,
                -0.4293124863758683,
                -0.11976250957805523,
                -1.827199966297774
            ]
        },
        {
            "positions": [
                -0.5841075617769511,
                -1.259403280468273,
                1.0032038909108125,
                -0.46179581901189226,
                -0.09409416472335863,
                -1.9656222842725328
            ]
        },
        {
            "positions": [
                -0.5055967567902453,
                -1.2458253686913698,
                1.1102117945423677,
                -0.49427915164791614,
                -0.06842581986866214,
                -2.104044602247291
            ]
        },
        {
            "positions": [
                -0.4270859518035395,
                -1.2322474569144664,
                1.217219698173923,
                -0.5267624842839401,
                -0.04275747501396554,
                -2.2424669202220495
            ]
        },
        {
            "positions": [
                -0.3485751468168341,
                -1.2186695451375629,
                1.3242276018054782,
                -0.5592458169199641,
                -0.01708913015926894,
                -2.3808892381968074
            ]
        },
        {
            "positions": [
                -0.2700643418301283,
                -1.2050916333606596,
                1.4312355054370334,
                -0.591729149555988,
                0.00857921469542755,
                -2.519311556171566
            ]
        },
        {
            "positions": [
                -0.1915535368434229,
                -1.1915137215837561,
                1.5382434090685877,
                -0.6242124821920119,
                0.03424755955012404,
                -2.657733874146324
            ]
        },
        {
            "positions": [
                -0.1130427318567171,
                -1.1779358098068529,
                1.645251312700143,
                -0.656695814828036,
                0.05991590440482064,
                -2.796156192121082
            ]
        },
        {
            "positions": [
                -0.034531926870011276,
                -1.1643578980299494,
                1.7522592163316981,
                -0.6891791474640598,
                0.08558424925951724,
                -2.934578510095841
            ]
        },
        {
            "positions": [
                0.0439788781166941,
                -1.150779986253046,
                1.8592671199632533,
                -0.7216624801000839,
                0.11125259411421373,
                -3.0730008280705987
            ]
        },
        {
            "positions": [
                0.1224896831033998,
                -1.1372020744761426,
                1.9662750235948083,
                -0.7541458127361078,
                0.1369209389689104,
                -3.2114231460453575
            ]
        }
    ]
}