{
    "goal": {
        "global_pose": {
            "orientation": {
                "w": 0.7031023502349854,
                "x": -0.7110244035720825,
                "y": 0.007748599164187908,
                "z": 0.005598929710686207
            },
            "position": {
                "x": 0.11585023208521307,
                "y": 0.44412534475326537,
                "z": 0.3711530566215515
            }
        },
        "name": "move_to_auspresseinheit_A"
    },
    "id": "STRIDE_move_to_auspresseinheit_A_38",
    "joint_names": [
        "shoulder_pan_joint",
        "shoulder_lift_joint",
        "elbow_joint",
        "wrist_1_joint",
        "wrist_2_joint",
        "wrist_3_joint"
    ],
    "metrics": {
        "cart_traj_len": 1.3514456198793288,
        "distance_elbow_joint": 1.0773642584754684,
        "distance_shoulder_lift_joint": 1.0379932095351263,
        "distance_shoulder_pan_joint": 1.1211356060509874,
        "distance_wrist_1_joint": 0.9034221405360553,
        "distance_wrist_2_joint": 0.9897721969834132,
        "distance_wrist_3_joint": 1.815696576620697,
        "smoothness": 1.2875068080950962,
        "time": 0.410786013,
        "traj_len": 2.6354096433385354,
        "weighted_distance": 3.5312846782669065
    },
    "planner": "STRIDE",
    "start": {
        "state": {
            "elbow_joint": 2.422574709923281,
            "shoulder_lift_joint": -1.3736533754116391,
            "shoulder_pan_joint": -0.33786336945926293,
            "wrist_1_joint": -1.0288603412921917,
            "wrist_2_joint": 1.2330224858903978,
            "wrist_3_joint": -3.094022268022082
        }
    },
    "waypoints": [
        {
            "positions": [
                -0.33786336945926293,
                -1.3736533754116391,
                2.422574709923281,
                -1.0288603412921917,
                1.2330224858903978,
                -3.094022268022082
            ]
        },
        {
            "positions": [
                -0.27465769358220615,
                -1.4391831332466982,
                2.376392214599954,
                -0.9686496099902152,
                1.1698811703700343,
                -3.020095607031312
            ]
        },
        {
            "positions": [
                -0.21145201770514935,
                -1.5047128910817573,
                2.3302097192766267,
                -0.9084388786882387,
                1.1067398548496707,
                -2.9461689460405416
            ]
        },
        {
            "positions": [
                -0.14824634182809254,
                -1.5702426489168166,
                2.2840272239532995,
                -0.8482281473862621,
                1.0435985393293072,
                -2.8722422850497713
            ]
        },
        {
            "positions": [
                -0.08504066595103577,
                -1.6357724067518755,
                2.2378447286299723,
                -0.7880174160842857,
                0.9804572238089437,
                -2.7983156240590015
            ]
        },
        {
            "positions": [
                -0.021834990073978933,
                -1.7013021645869348,
                2.1916622333066447,
                -0.727806684782309,
                0.9173159082885802,
                -2.724388963068231
            ]
        },
        {
            "positions": [
                0.041370685803077845,
                -1.766831922421994,
                2.1454797379833175,
                -0.6675959534803325,
                0.8541745927682167,
                -2.650462302077461
            ]
        },
        {
            "positions": [
                0.10457636168013468,
                -1.832361680257053,
                2.0992972426599903,
                -0.607385222178356,
                0.7910332772478532,
                -2.5765356410866906
            ]
        },
        {
            "positions": [
                0.1677820375571914,
                -1.8978914380921121,
                2.053114747336663,
                -0.5471744908763795,
                0.7278919617274898,
                -2.5026089800959204
            ]
        },
        {
            "positions": [
                0.23098771343424823,
                -1.9634211959271712,
                2.006932252013336,
                -0.48696375957440297,
                0.6647506462071263,
                -2.4286823191051505
            ]
        },
        {
            "positions": [
                0.29419338931130506,
                -2.0289509537622306,
                1.9607497566900087,
                -0.42675302827242634,
                0.6016093306867628,
                -2.35475565811438
            ]
        },
        {
            "positions": [
                0.3573990651883618,
                -2.0944807115972894,
                1.9145672613666815,
                -0.3665422969704498,
                0.5384680151663993,
                -2.28082899712361
            ]
        },
        {
            "positions": [
                0.42060474106541856,
                -2.1600104694323488,
                1.8683847660433541,
                -0.30633156566847325,
                0.4753266996460358,
                -2.2069023361328397
            ]
        },
        {
            "positions": [
                0.49508432457914786,
                -2.117618839030475,
                1.9079287254082684,
                -0.34319956514600425,
                0.4950241975596007,
                -2.3584583207532814
            ]
        },
        {
            "positions": [
                0.5695639080928772,
                -2.0752272086286014,
                1.947472684773183,
                -0.3800675646235352,
                0.5147216954731657,
                -2.5100143053737227
            ]
        },
        {
            "positions": [
                0.6440434916066065,
                -2.032835578226728,
                1.9870166441380972,
                -0.4169355641010662,
                0.5344191933867306,
                -2.661570289994164
            ]
        },
        {
            "positions": [
                0.7185230751203358,
                -1.9904439478248543,
                2.0265606035030115,
                -0.4538035635785972,
                0.5541166913002955,
                -2.8131262746146057
            ]
        },
        {
            "positions": [
                0.6990983703836691,
                -1.9737709814564741,
                2.165027054369614,
                -0.445588787771349,
                0.6029832272510118,
                -2.9189173732239797
            ]
        },
        {
            "positions": [
                0.6796736656470024,
                -1.957098015088094,
                2.303493505236217,
                -0.43737401196410086,
                0.6518497632017283,
                -3.0247084718333537
            ]
        },
        {
            "positions": [
                0.7055734176450578,
                -1.908374353917932,
                2.3915590806388956,
                -0.45436582735181763,
                0.7074031103850871,
                -3.135478980864294
            ]
        }
    ]
}