{
    "goal": {
        "global_pose": {
            "orientation": {
                "w": 0.7047431468963623,
                "x": -0.7094548344612122,
                "y": 0.0024358443915843964,
                "z": -0.0022348060738295317
            },
            "position": {
                "x": 0.6094750761985779,
                "y": 0.3671506643295288,
                "z": 0.19426114857196808
            }
        },
        "name": "move_to_magneteinheit_A"
    },
    "id": "STRIDE_move_to_magneteinheit_A_121",
    "joint_names": [
        "shoulder_pan_joint",
        "shoulder_lift_joint",
        "elbow_joint",
        "wrist_1_joint",
        "wrist_2_joint",
        "wrist_3_joint"
    ],
    "metrics": {
        "cart_traj_len": 2.062100931691234,
        "distance_elbow_joint": 3.8703920149383046,
        "distance_shoulder_lift_joint": 1.0508507033678938,
        "distance_shoulder_pan_joint": 1.241418148758609,
        "distance_wrist_1_joint": 1.1198986342385835,
        "distance_wrist_2_joint": 1.4488540437602595,
        "distance_wrist_3_joint": 1.8907046214437129,
        "smoothness": 1.903239467962136e-16,
        "time": 0.127452429,
        "traj_len": 3.2591591195440826,
        "weighted_distance": 4.119742721019558
    },
    "planner": "STRIDE",
    "start": {
        "state": {
            "elbow_joint": -1.919643507792019,
            "shoulder_lift_joint": -0.07675430207160344,
            "shoulder_pan_joint": -1.1188671864651873,
            "wrist_1_joint": 0.42560062535961957,
            "wrist_2_joint": 1.5706038300724876,
            "wrist_3_joint": 1.1188968870953055
        }
    },
    "waypoints": [
        {
            "positions": [
                -1.1188671864651873,
                -0.07675430207160344,
                -1.919643507792019,
                0.42560062535961957,
                1.5706038300724876,
                1.1188968870953055
            ]
        },
        {
            "positions": [
                -1.0728887365111648,
                -0.11567469849263654,
                -1.7762956553868967,
                0.38412289816559797,
                1.516942569192478,
                1.1889229841858133
            ]
        },
        {
            "positions": [
                -1.0269102865571422,
                -0.15459509491366963,
                -1.6329478029817743,
                0.3426451709715763,
                1.4632813083124683,
                1.2589490812763213
            ]
        },
        {
            "positions": [
                -0.9809318366031197,
                -0.19351549133470275,
                -1.489599950576652,
                0.3011674437775547,
                1.4096200474324587,
                1.328975178366829
            ]
        },
        {
            "positions": [
                -0.9349533866490971,
                -0.23243588775573584,
                -1.3462520981715296,
                0.2596897165835331,
                1.3559587865524492,
                1.399001275457337
            ]
        },
        {
            "positions": [
                -0.8889749366950745,
                -0.27135628417676894,
                -1.2029042457664072,
                0.21821198938951153,
                1.3022975256724396,
                1.4690273725478449
            ]
        },
        {
            "positions": [
                -0.842996486741052,
                -0.31027668059780206,
                -1.0595563933612848,
                0.1767342621954899,
                1.24863626479243,
                1.5390534696383529
            ]
        },
        {
            "positions": [
                -0.7970180367870294,
                -0.3491970770188351,
                -0.9162085409561624,
                0.13525653500146828,
                1.1949750039124203,
                1.6090795667288607
            ]
        },
        {
            "positions": [
                -0.751039586833007,
                -0.38811747343986824,
                -0.7728606885510401,
                0.09377880780744668,
                1.1413137430324107,
                1.6791056638193687
            ]
        },
        {
            "positions": [
                -0.7050611368789844,
                -0.42703786986090136,
                -0.6295128361459177,
                0.05230108061342509,
                1.0876524821524012,
                1.7491317609098764
            ]
        },
        {
            "positions": [
                -0.6590826869249619,
                -0.46595826628193443,
                -0.4861649837407953,
                0.010823353419403492,
                1.0339912212723914,
                1.8191578580003842
            ]
        },
        {
            "positions": [
                -0.6131042369709393,
                -0.5048786627029676,
                -0.34281713133567293,
                -0.030654373774618104,
                0.980329960392382,
                1.8891839550908922
            ]
        },
        {
            "positions": [
                -0.5671257870169167,
                -0.5437990591240007,
                -0.19946927893055055,
                -0.07213210096863976,
                0.9266686995123723,
                1.9592100521814002
            ]
        },
        {
            "positions": [
                -0.5211473370628942,
                -0.5827194555450337,
                -0.056121426525428175,
                -0.11360982816266135,
                0.8730074386323627,
                2.0292361492719078
            ]
        },
        {
            "positions": [
                -0.4751688871088716,
                -0.6216398519660669,
                0.0872264258796942,
                -0.155087555356683,
                0.8193461777523531,
                2.0992622463624158
            ]
        },
        {
            "positions": [
                -0.42919043715484906,
                -0.6605602483871,
                0.23057427828481702,
                -0.19656528255070466,
                0.7656849168723434,
                2.1692883434529238
            ]
        },
        {
            "positions": [
                -0.3832119872008266,
                -0.699480644808133,
                0.37392213068993896,
                -0.2380430097447262,
                0.7120236559923339,
                2.2393144405434313
            ]
        },
        {
            "positions": [
                -0.33723353724680394,
                -0.7384010412291662,
                0.5172699830950618,
                -0.27952073693874785,
                0.6583623951123242,
                2.3093405376339398
            ]
        },
        {
            "positions": [
                -0.2912550872927815,
                -0.7773214376501993,
                0.6606178355001837,
                -0.3209984641327694,
                0.6047011342323146,
                2.3793666347244473
            ]
        },
        {
            "positions": [
                -0.24527663733875882,
                -0.8162418340712323,
                0.8039656879053065,
                -0.36247619132679104,
                0.551039873352305,
                2.4493927318149553
            ]
        },
        {
            "positions": [
                -0.19929818738473637,
                -0.8551622304922655,
                0.9473135403104285,
                -0.4039539185208126,
                0.4973786124722954,
                2.5194188289054633
            ]
        },
        {
            "positions": [
                -0.1533197374307137,
                -0.8940826269132987,
                1.0906613927155513,
                -0.44543164571483423,
                0.44371735159228565,
                2.589444925995971
            ]
        },
        {
            "positions": [
                -0.10734128747669125,
                -0.9330030233343316,
                1.2340092451206732,
                -0.4869093729088558,
                0.3900560907122763,
                2.659471023086479
            ]
        },
        {
            "positions": [
                -0.06136283752266869,
                -0.9719234197553648,
                1.377357097525796,
                -0.5283871001028775,
                0.33639482983226654,
                2.729497120176987
            ]
        },
        {
            "positions": [
                -0.01538438756864613,
                -1.010843816176398,
                1.520704949930918,
                -0.5698648272968991,
                0.282733568952257,
                2.7995232172674944
            ]
        },
        {
            "positions": [
                0.03059406238537643,
                -1.049764212597431,
                1.6640528023360408,
                -0.6113425544909206,
                0.2290723080722472,
                2.869549314358003
            ]
        },
        {
            "positions": [
                0.07657251233939899,
                -1.088684609018464,
                1.8074006547411627,
                -0.6528202816849422,
                0.17541104719223788,
                2.9395754114485104
            ]
        },
        {
            "positions": [
                0.12255096229342148,
                -1.1276050054394973,
                1.9507485071462856,
                -0.694298008878964,
                0.12174978631222812,
                3.0096015085390184
            ]
        }
    ]
}