{
    "goal": {
        "global_pose": {
            "orientation": {
                "w": 0.5084816217422485,
                "x": -0.49083608388900757,
                "y": 0.5182115435600281,
                "z": -0.4816462993621826
            },
            "position": {
                "x": 0.5540239810943604,
                "y": 0.030875300988554955,
                "z": 0.16403168439865112
            }
        },
        "name": "move_to_storage_A"
    },
    "id": "STRIDE_move_to_storage_A_117",
    "joint_names": [
        "shoulder_pan_joint",
        "shoulder_lift_joint",
        "elbow_joint",
        "wrist_1_joint",
        "wrist_2_joint",
        "wrist_3_joint"
    ],
    "metrics": {
        "cart_traj_len": 0.3532510403183889,
        "distance_elbow_joint": 0.4496617438725461,
        "distance_shoulder_lift_joint": 0.23509766916683872,
        "distance_shoulder_pan_joint": 0.4611808070724779,
        "distance_wrist_1_joint": 0.24028846286784444,
        "distance_wrist_2_joint": 1.1026957868463312,
        "distance_wrist_3_joint": 0.10578697948147564,
        "smoothness": 1.665334528953551e-15,
        "time": 0.040031242,
        "traj_len": 1.6108108049387782,
        "weighted_distance": 2.0369756154614715
    },
    "planner": "STRIDE",
    "start": {
        "state": {
            "elbow_joint": 1.9715463870305268,
            "shoulder_lift_joint": -1.1394903361783484,
            "shoulder_pan_joint": 0.12281147578464417,
            "wrist_1_joint": -0.7804599489681411,
            "wrist_2_joint": 0.12958660307563738,
            "wrist_3_joint": -3.1924946282119055
        }
    },
    "waypoints": [
        {
            "positions": [
                0.12281147578464417,
                -1.1394903361783484,
                1.9715463870305268,
                -0.7804599489681411,
                0.12958660307563738,
                -3.1924946282119055
            ]
        },
        {
            "positions": [
                0.056928503345718764,
                -1.1730757174878967,
                2.035783779012319,
                -0.814786872234976,
                0.28711457262511325,
                -3.1773822025716947
            ]
        },
        {
            "positions": [
                -0.008954469093206643,
                -1.206661098797445,
                2.1000211709941112,
                -0.8491137955018109,
                0.4446425421745891,
                -3.162269776931484
            ]
        },
        {
            "positions": [
                -0.07483744153213205,
                -1.2402464801069935,
                2.1642585629759035,
                -0.8834407187686458,
                0.602170511724065,
                -3.147157351291273
            ]
        },
        {
            "positions": [
                -0.14072041397105745,
                -1.273831861416542,
                2.2284959549576957,
                -0.9177676420354808,
                0.7596984812735409,
                -3.1320449256510625
            ]
        },
        {
            "positions": [
                -0.20660338640998288,
                -1.3074172427260904,
                2.2927333469394884,
                -0.9520945653023156,
                0.9172264508230168,
                -3.1169325000108516
            ]
        },
        {
            "positions": [
                -0.27248635884890826,
                -1.3410026240356387,
                2.3569707389212806,
                -0.9864214885691506,
                1.0747544203724926,
                -3.101820074370641
            ]
        },
        {
            "positions": [
                -0.3383693312878337,
                -1.374588005345187,
                2.421208130903073,
                -1.0207484118359855,
                1.2322823899219686,
                -3.08670764873043
            ]
        }
    ]
}