{
    "goal": {
        "global_pose": {
            "orientation": {
                "w": 0.7031023502349854,
                "x": -0.7110244035720825,
                "y": 0.007748599164187908,
                "z": 0.005598929710686207
            },
            "position": {
                "x": 0.11585023208521307,
                "y": 0.44412534475326537,
                "z": 0.3711530566215515
            }
        },
        "name": "move_to_auspresseinheit_A"
    },
    "id": "STRIDE_move_to_auspresseinheit_A_99",
    "joint_names": [
        "shoulder_pan_joint",
        "shoulder_lift_joint",
        "elbow_joint",
        "wrist_1_joint",
        "wrist_2_joint",
        "wrist_3_joint"
    ],
    "metrics": {
        "cart_traj_len": 0.723417834595922,
        "distance_elbow_joint": 0.12551235427521368,
        "distance_shoulder_lift_joint": 0.7366313882630628,
        "distance_shoulder_pan_joint": 1.0435785541618499,
        "distance_wrist_1_joint": 0.6994933702184251,
        "distance_wrist_2_joint": 0.521562639384603,
        "distance_wrist_3_joint": 1.0676976362946968,
        "smoothness": 0.9468363661790674,
        "time": 0.655337423,
        "traj_len": 2.048041977743096,
        "weighted_distance": 2.747895053452783
    },
    "planner": "STRIDE",
    "start": {
        "state": {
            "elbow_joint": 2.422574709923281,
            "shoulder_lift_joint": -1.3736533754116391,
            "shoulder_pan_joint": -0.33786336945926293,
            "wrist_1_joint": -1.0288603412921917,
            "wrist_2_joint": 1.2330224858903978,
            "wrist_3_joint": -3.094022268022082
        }
    },
    "waypoints": [
        {
            "positions": [
                -0.33786336945926293,
                -1.3736533754116391,
                2.422574709923281,
                -1.0288603412921917,
                1.2330224858903978,
                -3.094022268022082
            ]
        },
        {
            "positions": [
                -0.24941933259431784,
                -1.4643317804565303,
                2.411381029032103,
                -0.9379452866927658,
                1.1937547810806293,
                -3.0207757161451947
            ]
        },
        {
            "positions": [
                -0.16097529572937275,
                -1.5550101855014216,
                2.4001873481409244,
                -0.8470302320933398,
                1.1544870762708606,
                -2.9475291642683072
            ]
        },
        {
            "positions": [
                -0.07253125886442768,
                -1.6456885905463128,
                2.3889936672497463,
                -0.7561151774939139,
                1.115219371461092,
                -2.87428261239142
            ]
        },
        {
            "positions": [
                0.015912778000517436,
                -1.736366995591204,
                2.3777999863585677,
                -0.6652001228944879,
                1.0759516666513234,
                -2.801036060514532
            ]
        },
        {
            "positions": [
                0.10435681486546255,
                -1.8270454006360954,
                2.3666063054673896,
                -0.574285068295062,
                1.0366839618415549,
                -2.7277895086376445
            ]
        },
        {
            "positions": [
                0.19280085173040756,
                -1.9177238056809864,
                2.355412624576211,
                -0.48337001369563604,
                0.9974162570317863,
                -2.654542956760757
            ]
        },
        {
            "positions": [
                0.28124488859535274,
                -2.008402210725878,
                2.344218943685033,
                -0.3924549590962101,
                0.9581485522220177,
                -2.5812964048838696
            ]
        },
        {
            "positions": [
                0.38736246262216123,
                -1.9829315724886718,
                2.3560080906942744,
                -0.4082269561018209,
                0.8964763757929619,
                -2.7200393481729908
            ]
        },
        {
            "positions": [
                0.4934800366489698,
                -1.9574609342514657,
                2.367797237703516,
                -0.4239989531074318,
                0.8348041993639062,
                -2.858782291462112
            ]
        },
        {
            "positions": [
                0.5995976106757783,
                -1.9319902960142599,
                2.379586384712757,
                -0.4397709501130427,
                0.7731320229348505,
                -2.9975252347512327
            ]
        },
        {
            "positions": [
                0.7057151847025868,
                -1.9065196577770538,
                2.3913755317219985,
                -0.4555429471186535,
                0.7114598465057947,
                -3.136268178040354
            ]
        }
    ]
}