{
    "goal": {
        "global_pose": {
            "orientation": {
                "w": 0.7047431468963623,
                "x": -0.7094548344612122,
                "y": 0.0024358443915843964,
                "z": -0.0022348060738295317
            },
            "position": {
                "x": 0.6094750761985779,
                "y": 0.3671506643295288,
                "z": 0.19426114857196808
            }
        },
        "name": "move_to_magneteinheit_A"
    },
    "id": "STRIDE_move_to_magneteinheit_A_61",
    "joint_names": [
        "shoulder_pan_joint",
        "shoulder_lift_joint",
        "elbow_joint",
        "wrist_1_joint",
        "wrist_2_joint",
        "wrist_3_joint"
    ],
    "metrics": {
        "cart_traj_len": 2.1767832846258948,
        "distance_elbow_joint": 3.8716936653645284,
        "distance_shoulder_lift_joint": 1.0519053386830315,
        "distance_shoulder_pan_joint": 1.2418703496472514,
        "distance_wrist_1_joint": 1.1203133520541018,
        "distance_wrist_2_joint": 1.441822105962449,
        "distance_wrist_3_joint": 4.378484367837354,
        "smoothness": 5.329070513767239e-16,
        "time": 0.167857937,
        "traj_len": 3.6202333045742674,
        "weighted_distance": 4.942185080836205
    },
    "planner": "STRIDE",
    "start": {
        "state": {
            "elbow_joint": -1.919643507792019,
            "shoulder_lift_joint": -0.07675430207160344,
            "shoulder_pan_joint": -1.1188671864651873,
            "wrist_1_joint": 0.42560062535961957,
            "wrist_2_joint": 1.5706038300724876,
            "wrist_3_joint": 1.1188968870953055
        }
    },
    "waypoints": [
        {
            "positions": [
                -1.1188671864651873,
                -0.07675430207160344,
                -1.919643507792019,
                0.42560062535961957,
                1.5706038300724876,
                1.1188968870953055
            ]
        },
        {
            "positions": [
                -1.0807353104002069,
                -0.10366021855631312,
                -1.8012471662311613,
                0.40057479908488014,
                1.528458637910767,
                0.9785666806680615
            ]
        },
        {
            "positions": [
                -1.0426034343352266,
                -0.1305661350410228,
                -1.6828508246703038,
                0.3755489728101407,
                1.4863134457490463,
                0.8382364742408174
            ]
        },
        {
            "positions": [
                -1.0044715582702461,
                -0.15747205152573246,
                -1.564454483109446,
                0.3505231465354013,
                1.4441682535873257,
                0.6979062678135732
            ]
        },
        {
            "positions": [
                -0.9663396822052657,
                -0.18437796801044215,
                -1.4460581415485885,
                0.32549732026066186,
                1.4020230614256053,
                0.5575760613863292
            ]
        },
        {
            "positions": [
                -0.9282078061402853,
                -0.21128388449515184,
                -1.3276617999877307,
                0.30047149398592243,
                1.3598778692638847,
                0.41724585495908506
            ]
        },
        {
            "positions": [
                -0.8900759300753048,
                -0.2381898009798615,
                -1.2092654584268732,
                0.275445667711183,
                1.317732677102164,
                0.27691564853184103
            ]
        },
        {
            "positions": [
                -0.8519440540103245,
                -0.26509571746457117,
                -1.0908691168660154,
                0.2504198414364436,
                1.2755874849404434,
                0.1365854421045969
            ]
        },
        {
            "positions": [
                -0.813812177945344,
                -0.29200163394928086,
                -0.9724727753051577,
                0.22539401516170415,
                1.2334422927787227,
                -0.0037447643226471428
            ]
        },
        {
            "positions": [
                -0.7756803018803635,
                -0.31890755043399055,
                -0.8540764337442999,
                0.2003681888869647,
                1.1912971006170021,
                -0.1440749707498914
            ]
        },
        {
            "positions": [
                -0.7375484258153833,
                -0.34581346691870024,
                -0.7356800921834423,
                0.1753423626122253,
                1.1491519084552817,
                -0.2844051771771354
            ]
        },
        {
            "positions": [
                -0.6994165497504028,
                -0.37271938340340993,
                -0.6172837506225846,
                0.15031653633748582,
                1.107006716293561,
                -0.4247353836043797
            ]
        },
        {
            "positions": [
                -0.6612846736854223,
                -0.39962529988811957,
                -0.498887409061727,
                0.12529071006274645,
                1.0648615241318404,
                -0.5650655900316235
            ]
        },
        {
            "positions": [
                -0.6231527976204418,
                -0.42653121637282926,
                -0.38049106750086925,
                0.10026488378800696,
                1.0227163319701198,
                -0.7053957964588677
            ]
        },
        {
            "positions": [
                -0.5850209215554615,
                -0.45343713285753895,
                -0.2620947259400117,
                0.0752390575132676,
                0.9805711398083993,
                -0.8457260028861118
            ]
        },
        {
            "positions": [
                -0.5468890454904811,
                -0.48034304934224864,
                -0.14369838437915394,
                0.05021323123852811,
                0.9384259476466786,
                -0.986056209313356
            ]
        },
        {
            "positions": [
                -0.5087571694255006,
                -0.5072489658269583,
                -0.0253020428182964,
                0.02518740496378874,
                0.896280755484958,
                -1.1263864157405998
            ]
        },
        {
            "positions": [
                -0.4706252933605203,
                -0.534154882311668,
                0.09309429874256137,
                0.00016157868904931316,
                0.8541355633232375,
                -1.266716622167844
            ]
        },
        {
            "positions": [
                -0.4324934172955398,
                -0.5610607987963777,
                0.21149064030341935,
                -0.02486424758569017,
                0.8119903711615167,
                -1.4070468285950883
            ]
        },
        {
            "positions": [
                -0.39436154123055944,
                -0.5879667152810872,
                0.3298869818642769,
                -0.049890073860429596,
                0.7698451789997962,
                -1.5473770350223321
            ]
        },
        {
            "positions": [
                -0.3562296651655791,
                -0.6148726317657971,
                0.44828332342513444,
                -0.07491590013516897,
                0.7276999868380757,
                -1.6877072414495764
            ]
        },
        {
            "positions": [
                -0.3180977891005986,
                -0.6417785482505067,
                0.566679664985992,
                -0.09994172640990845,
                0.685554794676355,
                -1.8280374478768202
            ]
        },
        {
            "positions": [
                -0.27996591303561813,
                -0.6686844647352164,
                0.68507600654685,
                -0.12496755268464793,
                0.6434096025146344,
                -1.968367654304065
            ]
        },
        {
            "positions": [
                -0.24183403697063777,
                -0.695590381219926,
                0.8034723481077075,
                -0.1499933789593873,
                0.6012644103529138,
                -2.1086978607313087
            ]
        },
        {
            "positions": [
                -0.2037021609056574,
                -0.7224962977046356,
                0.9218686896685651,
                -0.17501920523412667,
                0.5591192181911933,
                -2.2490280671585525
            ]
        },
        {
            "positions": [
                -0.16557028484067693,
                -0.7494022141893453,
                1.0402650312294226,
                -0.20004503150886616,
                0.5169740260294726,
                -2.3893582735857968
            ]
        },
        {
            "positions": [
                -0.12743840877569645,
                -0.7763081306740551,
                1.1586613727902806,
                -0.22507085778360564,
                0.474828833867752,
                -2.529688480013041
            ]
        },
        {
            "positions": [
                -0.08930653271071609,
                -0.8032140471587648,
                1.2770577143511381,
                -0.250096684058345,
                0.43268364170603135,
                -2.670018686440285
            ]
        },
        {
            "positions": [
                -0.05117465664573562,
                -0.8301199636434744,
                1.3954540559119957,
                -0.2751225103330844,
                0.39053844954431094,
                -2.810348892867529
            ]
        },
        {
            "positions": [
                -0.013042780580755364,
                -0.857025880128184,
                1.5138503974728532,
                -0.30014833660782386,
                0.3483932573825903,
                -2.950679099294773
            ]
        },
        {
            "positions": [
                0.02508909548422511,
                -0.8839317966128939,
                1.6322467390337112,
                -0.32517416288256334,
                0.30624806522086967,
                -3.0910093057220176
            ]
        },
        {
            "positions": [
                0.06322097154920547,
                -0.9108377130976035,
                1.7506430805945687,
                -0.35019998915730266,
                0.2641028730591489,
                -3.2313395121492614
            ]
        },
        {
            "positions": [
                0.0831483687601582,
                -0.983445022316614,
                1.817778772920549,
                -0.46503756833636245,
                0.2189958234094454,
                -3.24075550168019
            ]
        },
        {
            "positions": [
                0.10307576597111093,
                -1.0560523315356245,
                1.884914465246529,
                -0.5798751475154222,
                0.1738887737597419,
                -3.2501714912111184
            ]
        },
        {
            "positions": [
                0.12300316318206365,
                -1.128659640754635,
                1.9520501575725093,
                -0.694712726694482,
                0.12878172411003838,
                -3.259587480742047
            ]
        }
    ]
}