{
    "goal": {
        "global_pose": {
            "orientation": {
                "w": 0.7047431468963623,
                "x": -0.7094548344612122,
                "y": 0.0024358443915843964,
                "z": -0.0022348060738295317
            },
            "position": {
                "x": 0.6094750761985779,
                "y": 0.3671506643295288,
                "z": 0.19426114857196808
            }
        },
        "name": "move_to_magneteinheit_A"
    },
    "id": "STRIDE_move_to_magneteinheit_A_115",
    "joint_names": [
        "shoulder_pan_joint",
        "shoulder_lift_joint",
        "elbow_joint",
        "wrist_1_joint",
        "wrist_2_joint",
        "wrist_3_joint"
    ],
    "metrics": {
        "cart_traj_len": 2.0628174540550535,
        "distance_elbow_joint": 3.874786423949971,
        "distance_shoulder_lift_joint": 1.0540129781983658,
        "distance_shoulder_pan_joint": 1.2415207283723642,
        "distance_wrist_1_joint": 1.1253411005237244,
        "distance_wrist_2_joint": 1.4406097754631406,
        "distance_wrist_3_joint": 1.8935470250337492,
        "smoothness": 7.612957892837829e-16,
        "time": 0.17167248899999998,
        "traj_len": 3.2603401711387905,
        "weighted_distance": 4.121026929977002
    },
    "planner": "STRIDE",
    "start": {
        "state": {
            "elbow_joint": -1.919643507792019,
            "shoulder_lift_joint": -0.07675430207160344,
            "shoulder_pan_joint": -1.1188671864651873,
            "wrist_1_joint": 0.42560062535961957,
            "wrist_2_joint": 1.5706038300724876,
            "wrist_3_joint": 1.1188968870953055
        }
    },
    "waypoints": [
        {
            "positions": [
                -1.1188671864651873,
                -0.07675430207160344,
                -1.919643507792019,
                0.42560062535961957,
                1.5706038300724876,
                1.1188968870953055
            ]
        },
        {
            "positions": [
                -1.0728849372662108,
                -0.11579181978265402,
                -1.7761328994975758,
                0.3839213253402224,
                1.5172479124627416,
                1.1890282583928518
            ]
        },
        {
            "positions": [
                -1.0269026880672345,
                -0.1548293374937046,
                -1.6326222912031323,
                0.34224202532082515,
                1.4638919948529958,
                1.259159629690398
            ]
        },
        {
            "positions": [
                -0.980920438868258,
                -0.1938668552047552,
                -1.489111682908689,
                0.30056272530142797,
                1.4105360772432498,
                1.3292910009879444
            ]
        },
        {
            "positions": [
                -0.9349381896692815,
                -0.23290437291580576,
                -1.3456010746142457,
                0.2588834252820308,
                1.3571801596335038,
                1.3994223722854906
            ]
        },
        {
            "positions": [
                -0.8889559404703051,
                -0.27194189062685636,
                -1.2020904663198024,
                0.21720412526263358,
                1.3038242420237578,
                1.4695537435830368
            ]
        },
        {
            "positions": [
                -0.8429736912713286,
                -0.31097940833790694,
                -1.058579858025359,
                0.17552482524323637,
                1.250468324414012,
                1.5396851148805832
            ]
        },
        {
            "positions": [
                -0.7969914420723523,
                -0.3500169260489575,
                -0.9150692497309156,
                0.1338455252238392,
                1.197112406804266,
                1.6098164861781294
            ]
        },
        {
            "positions": [
                -0.7510091928733758,
                -0.3890544437600081,
                -0.7715586414364721,
                0.09216622520444201,
                1.14375648919452,
                1.6799478574756757
            ]
        },
        {
            "positions": [
                -0.7050269436743993,
                -0.4280919614710587,
                -0.6280480331420288,
                0.05048692518504477,
                1.090400571584774,
                1.7500792287732219
            ]
        },
        {
            "positions": [
                -0.6590446944754229,
                -0.4671294791821093,
                -0.48453742484758555,
                0.008807625165647592,
                1.0370446539750282,
                1.820210600070768
            ]
        },
        {
            "positions": [
                -0.6130624452764464,
                -0.5061669968931599,
                -0.34102681655314204,
                -0.03287167485374959,
                0.9836887363652822,
                1.8903419713683145
            ]
        },
        {
            "positions": [
                -0.56708019607747,
                -0.5452045146042104,
                -0.19751620825869876,
                -0.07455097487314682,
                0.9303328187555363,
                1.9604733426658607
            ]
        },
        {
            "positions": [
                -0.5210979468784935,
                -0.5842420323152611,
                -0.05400559996425547,
                -0.11623027489254395,
                0.8769769011457903,
                2.030604713963407
            ]
        },
        {
            "positions": [
                -0.4751156976795171,
                -0.6232795500263115,
                0.08950500833018782,
                -0.1579095749119412,
                0.8236209835360444,
                2.1007360852609533
            ]
        },
        {
            "positions": [
                -0.4291334484805406,
                -0.6623170677373622,
                0.23301561662463155,
                -0.19958887493133842,
                0.7702650659262983,
                2.1708674565584998
            ]
        },
        {
            "positions": [
                -0.38315119928156416,
                -0.7013545854484127,
                0.37652622491907484,
                -0.24126817495073555,
                0.7169091483165525,
                2.2409988278560458
            ]
        },
        {
            "positions": [
                -0.3371689500825876,
                -0.7403921031594634,
                0.5200368332135181,
                -0.2829474749701329,
                0.6635532307068065,
                2.311130199153592
            ]
        },
        {
            "positions": [
                -0.2911867008836113,
                -0.779429620870514,
                0.6635474415079614,
                -0.32462677498953,
                0.6101973130970606,
                2.381261570451138
            ]
        },
        {
            "positions": [
                -0.24520445168463478,
                -0.8184671385815645,
                0.8070580498024051,
                -0.36630607500892726,
                0.5568413954873146,
                2.4513929417486846
            ]
        },
        {
            "positions": [
                -0.19922220248565836,
                -0.8575046562926152,
                0.950568658096848,
                -0.4079853750283244,
                0.5034854778775686,
                2.521524313046231
            ]
        },
        {
            "positions": [
                -0.15323995328668183,
                -0.8965421740036656,
                1.0940792663912917,
                -0.4496646750477216,
                0.4501295602678226,
                2.5916556843437775
            ]
        },
        {
            "positions": [
                -0.10725770408770541,
                -0.9355796917147163,
                1.237589874685735,
                -0.49134397506711874,
                0.3967736426580768,
                2.661787055641323
            ]
        },
        {
            "positions": [
                -0.061275454888728875,
                -0.974617209425767,
                1.3811004829801783,
                -0.533023275086516,
                0.3434177250483308,
                2.7319184269388694
            ]
        },
        {
            "positions": [
                -0.015293205689752565,
                -1.0136547271368175,
                1.5246110912746216,
                -0.5747025751059132,
                0.290061807438585,
                2.802049798236416
            ]
        },
        {
            "positions": [
                0.030689043509223968,
                -1.0526922448478682,
                1.6681216995690653,
                -0.6163818751253103,
                0.23670588982883878,
                2.8721811695339623
            ]
        },
        {
            "positions": [
                0.07667129270820028,
                -1.0917297625589186,
                1.8116323078635082,
                -0.6580611751447074,
                0.183349972219093,
                2.9423125408315083
            ]
        },
        {
            "positions": [
                0.12265354190717688,
                -1.1307672802699693,
                1.9551429161579519,
                -0.6997404751641048,
                0.1299940546093469,
                3.0124439121290547
            ]
        }
    ]
}