{
    "goal": {
        "global_pose": {
            "orientation": {
                "w": 0.7031023502349854,
                "x": -0.7110244035720825,
                "y": 0.007748599164187908,
                "z": 0.005598929710686207
            },
            "position": {
                "x": 0.11585023208521307,
                "y": 0.44412534475326537,
                "z": 0.3711530566215515
            }
        },
        "name": "move_to_auspresseinheit_A"
    },
    "id": "STRIDE_move_to_auspresseinheit_A_26",
    "joint_names": [
        "shoulder_pan_joint",
        "shoulder_lift_joint",
        "elbow_joint",
        "wrist_1_joint",
        "wrist_2_joint",
        "wrist_3_joint"
    ],
    "metrics": {
        "cart_traj_len": 2.3607095417248303,
        "distance_elbow_joint": 4.204191360297247,
        "distance_shoulder_lift_joint": 0.659203994751651,
        "distance_shoulder_pan_joint": 1.3049371956539118,
        "distance_wrist_1_joint": 2.8283180389796305,
        "distance_wrist_2_joint": 1.9098567685015855,
        "distance_wrist_3_joint": 2.718016402722673,
        "smoothness": 0.4919366029983688,
        "time": 0.34762276400000003,
        "traj_len": 3.6911412545318147,
        "weighted_distance": 4.878394343821874
    },
    "planner": "STRIDE",
    "start": {
        "state": {
            "elbow_joint": 2.422574709923281,
            "shoulder_lift_joint": -1.3736533754116391,
            "shoulder_pan_joint": -0.33786336945926293,
            "wrist_1_joint": -1.0288603412921917,
            "wrist_2_joint": 1.2330224858903978,
            "wrist_3_joint": -3.094022268022082
        }
    },
    "waypoints": [
        {
            "positions": [
                -0.33786336945926293,
                -1.3736533754116391,
                2.422574709923281,
                -1.0288603412921917,
                1.2330224858903978,
                -3.094022268022082
            ]
        },
        {
            "positions": [
                -0.30449260740700174,
                -1.3722747930955157,
                2.3049728711380943,
                -0.9373234319046395,
                1.1654227744987775,
                -3.030291558712179
            ]
        },
        {
            "positions": [
                -0.2711218453547405,
                -1.3708962107793923,
                2.187371032352907,
                -0.8457865225170873,
                1.0978230631071573,
                -2.9665608494022755
            ]
        },
        {
            "positions": [
                -0.23775108330247932,
                -1.3695176284632686,
                2.0697691935677205,
                -0.7542496131295352,
                1.0302233517155368,
                -2.902830140092372
            ]
        },
        {
            "positions": [
                -0.2043803212502181,
                -1.3681390461471452,
                1.9521673547825338,
                -0.662712703741983,
                0.9626236403239166,
                -2.839099430782469
            ]
        },
        {
            "positions": [
                -0.1710095591979569,
                -1.3667604638310218,
                1.8345655159973466,
                -0.5711757943544308,
                0.8950239289322962,
                -2.7753687214725655
            ]
        },
        {
            "positions": [
                -0.1376387971456957,
                -1.3653818815148984,
                1.71696367721216,
                -0.4796388849668787,
                0.827424217540676,
                -2.711638012162662
            ]
        },
        {
            "positions": [
                -0.10426803509343449,
                -1.3640032991987747,
                1.5993618384269732,
                -0.38810197557932635,
                0.7598245061490556,
                -2.647907302852759
            ]
        },
        {
            "positions": [
                -0.07089727304117327,
                -1.3626247168826513,
                1.4817599996417863,
                -0.29656506619177425,
                0.6922247947574354,
                -2.584176593542855
            ]
        },
        {
            "positions": [
                -0.037526510988912076,
                -1.3612461345665279,
                1.3641581608565994,
                -0.20502815680422204,
                0.624625083365815,
                -2.5204458842329522
            ]
        },
        {
            "positions": [
                -0.004155748936650883,
                -1.3598675522504045,
                1.2465563220714124,
                -0.11349124741666983,
                0.5570253719741947,
                -2.4567151749230485
            ]
        },
        {
            "positions": [
                0.029215013115610367,
                -1.358488969934281,
                1.1289544832862255,
                -0.021954338029117615,
                0.4894256605825743,
                -2.392984465613145
            ]
        },
        {
            "positions": [
                0.0625857751678715,
                -1.3571103876181574,
                1.0113526445010388,
                0.06958257135843438,
                0.4218259491909542,
                -2.329253756303242
            ]
        },
        {
            "positions": [
                0.09595653722013275,
                -1.355731805302034,
                0.8937508057158519,
                0.1611194807459866,
                0.3542262377993338,
                -2.2655230469933385
            ]
        },
        {
            "positions": [
                0.12932729927239395,
                -1.3543532229859105,
                0.7761489669306652,
                0.252656390133539,
                0.28662652640771347,
                -2.201792337683435
            ]
        },
        {
            "positions": [
                0.1626980613246552,
                -1.3529746406697871,
                0.6585471281454782,
                0.34419329952109123,
                0.21902681501609322,
                -2.138061628373532
            ]
        },
        {
            "positions": [
                0.1960688233769164,
                -1.3515960583536635,
                0.5409452893602915,
                0.4357302089086432,
                0.15142710362447298,
                -2.0743309190636285
            ]
        },
        {
            "positions": [
                0.22943958542917758,
                -1.35021747603754,
                0.4233434505751046,
                0.5272671182961954,
                0.08382739223285252,
                -2.010600209753725
            ]
        },
        {
            "positions": [
                0.26281034748143883,
                -1.3488388937214166,
                0.3057416117899178,
                0.6188040276837476,
                0.016227680841232328,
                -1.946869500443822
            ]
        },
        {
            "positions": [
                0.3447704166824109,
                -1.4156294899153337,
                0.4503367432317682,
                0.6254934801660852,
                0.05580933292722941,
                -1.9188902834090615
            ]
        },
        {
            "positions": [
                0.4267304858833829,
                -1.4824200861092507,
                0.5949318746736185,
                0.6321829326484228,
                0.09539098501322649,
                -1.8909110663743012
            ]
        },
        {
            "positions": [
                0.508690555084355,
                -1.5492106823031677,
                0.739527006115469,
                0.6388723851307604,
                0.13497263709922358,
                -1.8629318493395408
            ]
        },
        {
            "positions": [
                0.590650624285327,
                -1.6160012784970847,
                0.8841221375573194,
                0.6455618376130979,
                0.17455428918522065,
                -1.8349526323047807
            ]
        },
        {
            "positions": [
                0.6726106934862991,
                -1.6827918746910018,
                1.0287172689991697,
                0.6522512900954355,
                0.21413594127121774,
                -1.8069734152700203
            ]
        },
        {
            "positions": [
                0.7545707626872711,
                -1.7495824708849188,
                1.17331240044102,
                0.6589407425777731,
                0.2537175933572148,
                -1.77899419823526
            ]
        },
        {
            "positions": [
                0.8365308318882432,
                -1.8163730670788358,
                1.3179075318828706,
                0.6656301950601107,
                0.2932992454432119,
                -1.7510149812004996
            ]
        },
        {
            "positions": [
                0.8352156329771593,
                -1.8348467325146507,
                1.4419295006288322,
                0.5780254124195685,
                0.33882879670603006,
                -1.8258389980669718
            ]
        },
        {
            "positions": [
                0.8339004340660753,
                -1.8533203979504655,
                1.5659514693747938,
                0.49042062977902634,
                0.38435834796884827,
                -1.9006630149334438
            ]
        },
        {
            "positions": [
                0.8325852351549914,
                -1.8717940633862804,
                1.6899734381207554,
                0.4028158471384842,
                0.42988789923166637,
                -1.975487031799916
            ]
        },
        {
            "positions": [
                0.8312700362439075,
                -1.890267728822095,
                1.813995406866717,
                0.315211064497942,
                0.4754174504944846,
                -2.050311048666388
            ]
        },
        {
            "positions": [
                0.8299548373328236,
                -1.90874139425791,
                1.9380173756126786,
                0.22760628185739984,
                0.5209470017573028,
                -2.1251350655328602
            ]
        },
        {
            "positions": [
                0.8286396384217396,
                -1.9272150596937248,
                2.0620393443586402,
                0.14000149921685767,
                0.5664765530201209,
                -2.1999590823993325
            ]
        },
        {
            "positions": [
                0.8273244395106557,
                -1.9456887251295396,
                2.186061313104602,
                0.052396716576315505,
                0.6120061042829391,
                -2.2747830992658047
            ]
        },
        {
            "positions": [
                0.8030571191248922,
                -1.9381807887988785,
                2.227469025274442,
                -0.05172208825239105,
                0.6314628122850816,
                -2.4450312988329617
            ]
        },
        {
            "positions": [
                0.7787897987391286,
                -1.9306728524682173,
                2.2688767374442813,
                -0.1558408930810976,
                0.6509195202872241,
                -2.6152794984001186
            ]
        },
        {
            "positions": [
                0.7545224783533651,
                -1.9231649161375564,
                2.3102844496141213,
                -0.2599596979098041,
                0.6703762282893667,
                -2.785527697967276
            ]
        },
        {
            "positions": [
                0.7302551579676014,
                -1.9156569798068952,
                2.351692161783961,
                -0.3640785027385107,
                0.6898329362915092,
                -2.955775897534433
            ]
        },
        {
            "positions": [
                0.7059878375818379,
                -1.908149043476234,
                2.3930998739538007,
                -0.4681973075672172,
                0.7092896442936517,
                -3.12602409710159
            ]
        }
    ]
}