{
    "goal": {
        "global_pose": {
            "orientation": {
                "w": 0.7047431468963623,
                "x": -0.7094548344612122,
                "y": 0.0024358443915843964,
                "z": -0.0022348060738295317
            },
            "position": {
                "x": 0.6094750761985779,
                "y": 0.3671506643295288,
                "z": 0.19426114857196808
            }
        },
        "name": "move_to_magneteinheit_A"
    },
    "id": "STRIDE_move_to_magneteinheit_A_71",
    "joint_names": [
        "shoulder_pan_joint",
        "shoulder_lift_joint",
        "elbow_joint",
        "wrist_1_joint",
        "wrist_2_joint",
        "wrist_3_joint"
    ],
    "metrics": {
        "cart_traj_len": 1.868374645145498,
        "distance_elbow_joint": 3.939811125890425,
        "distance_shoulder_lift_joint": 0.7115226333429223,
        "distance_shoulder_pan_joint": 1.2423465302910157,
        "distance_wrist_1_joint": 1.5837995006849586,
        "distance_wrist_2_joint": 1.7082355199068995,
        "distance_wrist_3_joint": 1.2251337361958925,
        "smoothness": 3.8064789717128316e-16,
        "time": 0.090600014,
        "traj_len": 3.2265847340976674,
        "weighted_distance": 4.019098349044938
    },
    "planner": "STRIDE",
    "start": {
        "state": {
            "elbow_joint": -1.919643507792019,
            "shoulder_lift_joint": -0.07675430207160344,
            "shoulder_pan_joint": -1.1188671864651873,
            "wrist_1_joint": 0.42560062535961957,
            "wrist_2_joint": 1.5706038300724876,
            "wrist_3_joint": 1.1188968870953055
        }
    },
    "waypoints": [
        {
            "positions": [
                -1.1188671864651873,
                -0.07675430207160344,
                -1.919643507792019,
                0.42560062535961957,
                1.5706038300724876,
                1.1188968870953055
            ]
        },
        {
            "positions": [
                -1.0728543520099645,
                -0.10310699219541539,
                -1.7737245772034849,
                0.48425986612572913,
                1.5073358478537136,
                1.0735215635324946
            ]
        },
        {
            "positions": [
                -1.0268415175547418,
                -0.12945968231922733,
                -1.6278056466149506,
                0.5429191068918388,
                1.4440678656349395,
                1.028146239969684
            ]
        },
        {
            "positions": [
                -0.980828683099519,
                -0.15581237244303925,
                -1.4818867160264164,
                0.6015783476579483,
                1.3807998834161654,
                0.9827709164068731
            ]
        },
        {
            "positions": [
                -0.9348158486442961,
                -0.1821650625668512,
                -1.335967785437882,
                0.6602375884240579,
                1.3175319011973914,
                0.9373955928440623
            ]
        },
        {
            "positions": [
                -0.8888030141890734,
                -0.2085177526906631,
                -1.1900488548493477,
                0.7188968291901674,
                1.2542639189786173,
                0.8920202692812513
            ]
        },
        {
            "positions": [
                -0.8427901797338505,
                -0.23487044281447506,
                -1.0441299242608135,
                0.777556069956277,
                1.1909959367598433,
                0.8466449457184406
            ]
        },
        {
            "positions": [
                -0.7967773452786278,
                -0.26122313293828703,
                -0.8982109936722793,
                0.8362153107223866,
                1.1277279545410692,
                0.8012696221556297
            ]
        },
        {
            "positions": [
                -0.7507645108234049,
                -0.28757582306209895,
                -0.7522920630837451,
                0.8948745514884962,
                1.0644599723222952,
                0.755894298592819
            ]
        },
        {
            "positions": [
                -0.7047516763681821,
                -0.31392851318591086,
                -0.6063731324952109,
                0.9535337922546057,
                1.0011919901035211,
                0.710518975030008
            ]
        },
        {
            "positions": [
                -0.6587388419129594,
                -0.3402812033097228,
                -0.46045420190667663,
                1.0121930330207154,
                0.9379240078847471,
                0.6651436514671972
            ]
        },
        {
            "positions": [
                -0.6127260074577365,
                -0.36663389343353475,
                -0.3145352713181424,
                1.070852273786825,
                0.874656025665973,
                0.6197683279043864
            ]
        },
        {
            "positions": [
                -0.5667131730025137,
                -0.39298658355734667,
                -0.16861634072960818,
                1.1295115145529344,
                0.811388043447199,
                0.5743930043415756
            ]
        },
        {
            "positions": [
                -0.5207003385472909,
                -0.4193392736811586,
                -0.02269741014107396,
                1.188170755319044,
                0.7481200612284249,
                0.5290176807787648
            ]
        },
        {
            "positions": [
                -0.47468750409206817,
                -0.44569196380497056,
                0.12322152044746049,
                1.2468299960851537,
                0.6848520790096508,
                0.48364235721595394
            ]
        },
        {
            "positions": [
                -0.4286746696368453,
                -0.47204465392878253,
                0.2691404510359947,
                1.3054892368512632,
                0.6215840967908768,
                0.438267033653143
            ]
        },
        {
            "positions": [
                -0.38266183518162256,
                -0.49839734405259445,
                0.41505938162452893,
                1.3641484776173727,
                0.5583161145721027,
                0.3928917100903323
            ]
        },
        {
            "positions": [
                -0.3366490007263997,
                -0.5247500341764064,
                0.5609783122130632,
                1.4228077183834824,
                0.4950481323533287,
                0.34751638652752137
            ]
        },
        {
            "positions": [
                -0.29063616627117694,
                -0.5511027243002182,
                0.7068972428015974,
                1.481466959149592,
                0.4317801501345546,
                0.30214106296471055
            ]
        },
        {
            "positions": [
                -0.24462333181595408,
                -0.5774554144240303,
                0.852816173390132,
                1.5401261999157017,
                0.36851216791578056,
                0.25676573940189973
            ]
        },
        {
            "positions": [
                -0.19861049736073133,
                -0.6038081045478421,
                0.9987351039786658,
                1.5987854406818112,
                0.3052441856970065,
                0.2113904158390889
            ]
        },
        {
            "positions": [
                -0.15259766290550847,
                -0.6301607946716541,
                1.1446540345672005,
                1.6574446814479207,
                0.24197620347823245,
                0.1660150922762781
            ]
        },
        {
            "positions": [
                -0.10658482845028572,
                -0.6565134847954661,
                1.2905729651557343,
                1.7161039222140302,
                0.1787082212594584,
                0.12063976871346727
            ]
        },
        {
            "positions": [
                -0.060571993995062856,
                -0.6828661749192779,
                1.436491895744269,
                1.77476316298014,
                0.11544023904068434,
                0.07526444515065633
            ]
        },
        {
            "positions": [
                -0.014559159539839994,
                -0.70921886504309,
                1.5824108263328027,
                1.8334224037462494,
                0.05217225682191029,
                0.029889121587845624
            ]
        },
        {
            "positions": [
                0.03145367491538287,
                -0.735571555166902,
                1.7283297569213374,
                1.892081644512359,
                -0.011095725396863765,
                -0.015486201974965308
            ]
        },
        {
            "positions": [
                0.07746650937060551,
                -0.7619242452907138,
                1.8742486875098712,
                1.9507408852784685,
                -0.07436370761563782,
                -0.06086152553777602
            ]
        },
        {
            "positions": [
                0.12347934382582845,
                -0.7882769354145258,
                2.0201676180984056,
                2.009400126044578,
                -0.13763168983441196,
                -0.10623684910058703
            ]
        }
    ]
}