{
    "goal": {
        "global_pose": {
            "orientation": {
                "w": 0.5084816217422485,
                "x": -0.49083608388900757,
                "y": 0.5182115435600281,
                "z": -0.4816462993621826
            },
            "position": {
                "x": 0.5540239810943604,
                "y": 0.030875300988554955,
                "z": 0.16403168439865112
            }
        },
        "name": "move_to_storage_A"
    },
    "id": "STRIDE_move_to_storage_A_110",
    "joint_names": [
        "shoulder_pan_joint",
        "shoulder_lift_joint",
        "elbow_joint",
        "wrist_1_joint",
        "wrist_2_joint",
        "wrist_3_joint"
    ],
    "metrics": {
        "cart_traj_len": 0.3531627864551641,
        "distance_elbow_joint": 0.45290805799150347,
        "distance_shoulder_lift_joint": 0.23630964259556042,
        "distance_shoulder_pan_joint": 0.4632302898605271,
        "distance_wrist_1_joint": 0.24969058302744618,
        "distance_wrist_2_joint": 1.0943450120822396,
        "distance_wrist_3_joint": 0.09191584305109668,
        "smoothness": 4.440892098500626e-16,
        "time": 0.114088946,
        "traj_len": 1.6088503437574215,
        "weighted_distance": 2.028858474566487
    },
    "planner": "STRIDE",
    "start": {
        "state": {
            "elbow_joint": 1.9715463870305268,
            "shoulder_lift_joint": -1.1394903361783484,
            "shoulder_pan_joint": 0.12281147578464417,
            "wrist_1_joint": -0.7804599489681411,
            "wrist_2_joint": 0.12958660307563738,
            "wrist_3_joint": -3.1924946282119055
        }
    },
    "waypoints": [
        {
            "positions": [
                0.12281147578464417,
                -1.1394903361783484,
                1.9715463870305268,
                -0.7804599489681411,
                0.12958660307563738,
                -3.1924946282119055
            ]
        },
        {
            "positions": [
                0.056635720090283156,
                -1.1732488565491428,
                2.0362475381721703,
                -0.8161300322577763,
                0.2859216048016716,
                -3.1793637934903205
            ]
        },
        {
            "positions": [
                -0.00954003560407786,
                -1.207007376919937,
                2.1009486893138134,
                -0.8518001155474114,
                0.4422566065277058,
                -3.166232958768735
            ]
        },
        {
            "positions": [
                -0.07571579129843888,
                -1.2407658972907314,
                2.165649840455457,
                -0.8874701988370466,
                0.59859160825374,
                -3.15310212404715
            ]
        },
        {
            "positions": [
                -0.14189154699279988,
                -1.2745244176615258,
                2.2303509915971,
                -0.9231402821266818,
                0.7549266099797742,
                -3.1399712893255645
            ]
        },
        {
            "positions": [
                -0.2080673026871609,
                -1.3082829380323202,
                2.2950521427387436,
                -0.9588103654163169,
                0.9112616117058085,
                -3.1268404546039794
            ]
        },
        {
            "positions": [
                -0.2742430583815219,
                -1.3420414584031144,
                2.3597532938803867,
                -0.9944804487059521,
                1.0675966134318426,
                -3.113709619882394
            ]
        },
        {
            "positions": [
                -0.3404188140758829,
                -1.3757999787739088,
                2.4244544450220302,
                -1.0301505319955873,
                1.223931615157877,
                -3.100578785160809
            ]
        }
    ]
}