{
    "goal": {
        "global_pose": {
            "orientation": {
                "w": 0.7047431468963623,
                "x": -0.7094548344612122,
                "y": 0.0024358443915843964,
                "z": -0.0022348060738295317
            },
            "position": {
                "x": 0.6094750761985779,
                "y": 0.3671506643295288,
                "z": 0.19426114857196808
            }
        },
        "name": "move_to_magneteinheit_A"
    },
    "id": "STRIDE_move_to_magneteinheit_A_87",
    "joint_names": [
        "shoulder_pan_joint",
        "shoulder_lift_joint",
        "elbow_joint",
        "wrist_1_joint",
        "wrist_2_joint",
        "wrist_3_joint"
    ],
    "metrics": {
        "cart_traj_len": 1.877402664954401,
        "distance_elbow_joint": 3.913884524645722,
        "distance_shoulder_lift_joint": 0.700017184964096,
        "distance_shoulder_pan_joint": 1.2418508660076297,
        "distance_wrist_1_joint": 1.5094911537058004,
        "distance_wrist_2_joint": 1.6933198510108751,
        "distance_wrist_3_joint": 1.124830302661474,
        "smoothness": 4.276414619397388e-16,
        "time": 0.148409125,
        "traj_len": 3.191143037062989,
        "weighted_distance": 3.9542212245947015
    },
    "planner": "STRIDE",
    "start": {
        "state": {
            "elbow_joint": -1.919643507792019,
            "shoulder_lift_joint": -0.07675430207160344,
            "shoulder_pan_joint": -1.1188671864651873,
            "wrist_1_joint": 0.42560062535961957,
            "wrist_2_joint": 1.5706038300724876,
            "wrist_3_joint": 1.1188968870953055
        }
    },
    "waypoints": [
        {
            "positions": [
                -1.1188671864651873,
                -0.07675430207160344,
                -1.919643507792019,
                0.42560062535961957,
                1.5706038300724876,
                1.1188968870953055
            ]
        },
        {
            "positions": [
                -1.07110369161874,
                -0.1036780399548379,
                -1.7691094876133375,
                0.48365797742522726,
                1.5054761434951462,
                1.0756341831467873
            ]
        },
        {
            "positions": [
                -1.0233401967722928,
                -0.13060177783807236,
                -1.6185754674346557,
                0.541715329490835,
                1.4403484569178049,
                1.032371479198269
            ]
        },
        {
            "positions": [
                -0.9755767019258454,
                -0.15752551572130685,
                -1.4680414472559742,
                0.5997726815564427,
                1.3752207703404635,
                0.9891087752497508
            ]
        },
        {
            "positions": [
                -0.9278132070793982,
                -0.1844492536045413,
                -1.3175074270772926,
                0.6578300336220504,
                1.3100930837631222,
                0.9458460713012327
            ]
        },
        {
            "positions": [
                -0.8800497122329508,
                -0.21137299148777577,
                -1.1669734068986108,
                0.7158873856876582,
                1.2449653971857808,
                0.9025833673527144
            ]
        },
        {
            "positions": [
                -0.8322862173865035,
                -0.23829672937101026,
                -1.0164393867199295,
                0.7739447377532658,
                1.1798377106084394,
                0.8593206634041961
            ]
        },
        {
            "positions": [
                -0.7845227225400563,
                -0.2652204672542447,
                -0.865905366541248,
                0.8320020898188736,
                1.114710024031098,
                0.8160579594556779
            ]
        },
        {
            "positions": [
                -0.736759227693609,
                -0.2921442051374792,
                -0.7153713463625662,
                0.8900594418844813,
                1.0495823374537567,
                0.7727952555071597
            ]
        },
        {
            "positions": [
                -0.6889957328471616,
                -0.3190679430207136,
                -0.5648373261838846,
                0.948116793950089,
                0.9844546508764155,
                0.7295325515586415
            ]
        },
        {
            "positions": [
                -0.6412322380007143,
                -0.3459916809039481,
                -0.4143033060052028,
                1.0061741460156968,
                0.919326964299074,
                0.6862698476101232
            ]
        },
        {
            "positions": [
                -0.5934687431542671,
                -0.3729154187871826,
                -0.2637692858265215,
                1.0642314980813044,
                0.8541992777217328,
                0.6430071436616049
            ]
        },
        {
            "positions": [
                -0.5457052483078197,
                -0.3998391566704171,
                -0.1132352656478397,
                1.1222888501469122,
                0.7890715911443914,
                0.5997444397130867
            ]
        },
        {
            "positions": [
                -0.4979417534613725,
                -0.4267628945536515,
                0.03729875453084186,
                1.1803462022125197,
                0.72394390456705,
                0.5564817357645685
            ]
        },
        {
            "positions": [
                -0.4501782586149252,
                -0.45368663243688595,
                0.1878327747095232,
                1.2384035542781275,
                0.6588162179897087,
                0.5132190318160503
            ]
        },
        {
            "positions": [
                -0.40241476376847796,
                -0.48061037032012044,
                0.338366794888205,
                1.2964609063437351,
                0.5936885314123674,
                0.46995632786753205
            ]
        },
        {
            "positions": [
                -0.3546512689220306,
                -0.5075341082033549,
                0.48890081506688676,
                1.354518258409343,
                0.5285608448350259,
                0.4266936239190138
            ]
        },
        {
            "positions": [
                -0.3068877740755833,
                -0.5344578460865894,
                0.6394348352455685,
                1.4125756104749507,
                0.4634331582576847,
                0.3834309199704955
            ]
        },
        {
            "positions": [
                -0.25912427922913606,
                -0.5613815839698238,
                0.7899688554242499,
                1.4706329625405583,
                0.39830547168034336,
                0.34016821602197733
            ]
        },
        {
            "positions": [
                -0.2113607843826888,
                -0.5883053218530583,
                0.9405028756029312,
                1.5286903146061661,
                0.333177785103002,
                0.29690551207345917
            ]
        },
        {
            "positions": [
                -0.1635972895362413,
                -0.6152290597362928,
                1.0910368957816134,
                1.586747666671774,
                0.2680500985256604,
                0.2536428081249408
            ]
        },
        {
            "positions": [
                -0.11583379468979405,
                -0.6421527976195274,
                1.2415709159602948,
                1.6448050187373815,
                0.20292241194831928,
                0.2103801041764226
            ]
        },
        {
            "positions": [
                -0.0680702998433469,
                -0.6690765355027617,
                1.3921049361389761,
                1.7028623708029893,
                0.13779472537097792,
                0.16711740022790444
            ]
        },
        {
            "positions": [
                -0.02030680499689952,
                -0.6960002733859962,
                1.542638956317658,
                1.7609197228685969,
                0.07266703879363656,
                0.12385469627938617
            ]
        },
        {
            "positions": [
                0.027456689849547855,
                -0.7229240112692308,
                1.6931729764963397,
                1.8189770749342047,
                0.007539352216295203,
                0.08059199233086778
            ]
        },
        {
            "positions": [
                0.07522018469599501,
                -0.7498477491524651,
                1.8437069966750215,
                1.8770344269998125,
                -0.057588334361046156,
                0.03732928838234972
            ]
        },
        {
            "positions": [
                0.1229836795424423,
                -0.7767714870356995,
                1.9942410168537028,
                1.93509177906542,
                -0.1227160209383876,
                -0.005933415566168486
            ]
        }
    ]
}