{
    "goal": {
        "global_pose": {
            "orientation": {
                "w": 0.5084816217422485,
                "x": -0.49083608388900757,
                "y": 0.5182115435600281,
                "z": -0.4816462993621826
            },
            "position": {
                "x": 0.5540239810943604,
                "y": 0.030875300988554955,
                "z": 0.16403168439865112
            }
        },
        "name": "move_to_storage_A"
    },
    "id": "STRIDE_move_to_storage_A_69",
    "joint_names": [
        "shoulder_pan_joint",
        "shoulder_lift_joint",
        "elbow_joint",
        "wrist_1_joint",
        "wrist_2_joint",
        "wrist_3_joint"
    ],
    "metrics": {
        "cart_traj_len": 0.352543267066565,
        "distance_elbow_joint": 0.44830681661310523,
        "distance_shoulder_lift_joint": 0.2338427024115206,
        "distance_shoulder_pan_joint": 0.458842166870223,
        "distance_wrist_1_joint": 0.23572979937815097,
        "distance_wrist_2_joint": 1.1067880404489059,
        "distance_wrist_3_joint": 0.08917314959202027,
        "smoothness": 6.661338165333112e-16,
        "time": 0.037920979,
        "traj_len": 1.6039584393973323,
        "weighted_distance": 2.023251544995091
    },
    "planner": "STRIDE",
    "start": {
        "state": {
            "elbow_joint": 1.9715463870305268,
            "shoulder_lift_joint": -1.1394903361783484,
            "shoulder_pan_joint": 0.12281147578464417,
            "wrist_1_joint": -0.7804599489681411,
            "wrist_2_joint": 0.12958660307563738,
            "wrist_3_joint": -3.1924946282119055
        }
    },
    "waypoints": [
        {
            "positions": [
                0.12281147578464417,
                -1.1394903361783484,
                1.9715463870305268,
                -0.7804599489681411,
                0.12958660307563738,
                -3.1924946282119055
            ]
        },
        {
            "positions": [
                0.05726259480318374,
                -1.1728964365228514,
                2.035590217975256,
                -0.8141356345935912,
                0.2876991802826239,
                -3.179755606841617
            ]
        },
        {
            "positions": [
                -0.008286286178276689,
                -1.2063025368673543,
                2.0996340489199854,
                -0.8478113202190414,
                0.44581175748961044,
                -3.167016585471328
            ]
        },
        {
            "positions": [
                -0.0738351671597371,
                -1.2397086372118573,
                2.1636778798647147,
                -0.8814870058444915,
                0.603924334696597,
                -3.1542775641010397
            ]
        },
        {
            "positions": [
                -0.13938404814119754,
                -1.27311473755636,
                2.227721710809444,
                -0.9151626914699417,
                0.7620369119035836,
                -3.141538542730751
            ]
        },
        {
            "positions": [
                -0.20493292912265798,
                -1.306520837900863,
                2.2917655417541734,
                -0.9488383770953918,
                0.9201494891105702,
                -3.1287995213604627
            ]
        },
        {
            "positions": [
                -0.27048181010411837,
                -1.339926938245366,
                2.3558093726989027,
                -0.982514062720842,
                1.0782620663175566,
                -3.1160604999901738
            ]
        },
        {
            "positions": [
                -0.3360306910855788,
                -1.373333038589869,
                2.419853203643632,
                -1.016189748346292,
                1.2363746435245433,
                -3.1033214786198853
            ]
        }
    ]
}