{
    "goal": {
        "global_pose": {
            "orientation": {
                "w": 0.7047431468963623,
                "x": -0.7094548344612122,
                "y": 0.0024358443915843964,
                "z": -0.0022348060738295317
            },
            "position": {
                "x": 0.6094750761985779,
                "y": 0.3671506643295288,
                "z": 0.19426114857196808
            }
        },
        "name": "move_to_magneteinheit_A"
    },
    "id": "STRIDE_move_to_magneteinheit_A_51",
    "joint_names": [
        "shoulder_pan_joint",
        "shoulder_lift_joint",
        "elbow_joint",
        "wrist_1_joint",
        "wrist_2_joint",
        "wrist_3_joint"
    ],
    "metrics": {
        "cart_traj_len": 1.8758246523063444,
        "distance_elbow_joint": 3.920372240205899,
        "distance_shoulder_lift_joint": 0.7026736310102939,
        "distance_shoulder_pan_joint": 1.2425877327319907,
        "distance_wrist_1_joint": 1.524641652147961,
        "distance_wrist_2_joint": 1.699832630821212,
        "distance_wrist_3_joint": 1.1503885971128263,
        "smoothness": 3.9474596372548008e-16,
        "time": 0.20501507000000002,
        "traj_len": 3.2000775746894297,
        "weighted_distance": 3.9706105275165187
    },
    "planner": "STRIDE",
    "start": {
        "state": {
            "elbow_joint": -1.919643507792019,
            "shoulder_lift_joint": -0.07675430207160344,
            "shoulder_pan_joint": -1.1188671864651873,
            "wrist_1_joint": 0.42560062535961957,
            "wrist_2_joint": 1.5706038300724876,
            "wrist_3_joint": 1.1188968870953055
        }
    },
    "waypoints": [
        {
            "positions": [
                -1.1188671864651873,
                -0.07675430207160344,
                -1.919643507792019,
                0.42560062535961957,
                1.5706038300724876,
                1.1188968870953055
            ]
        },
        {
            "positions": [
                -1.07107535059088,
                -0.10378021095661474,
                -1.7688599600917922,
                0.4842406889037719,
                1.5052256519639795,
                1.0746511718217353
            ]
        },
        {
            "positions": [
                -1.0232835147165726,
                -0.13080611984162605,
                -1.6180764123915652,
                0.5428807524479242,
                1.4398474738554712,
                1.030405456548165
            ]
        },
        {
            "positions": [
                -0.9754916788422654,
                -0.15783202872663737,
                -1.4672928646913383,
                0.6015208159920766,
                1.374469295746963,
                0.9861597412745948
            ]
        },
        {
            "positions": [
                -0.9276998429679579,
                -0.18485793761164865,
                -1.3165093169911115,
                0.660160879536229,
                1.309091117638455,
                0.9419140260010246
            ]
        },
        {
            "positions": [
                -0.8799080070936507,
                -0.21188384649665998,
                -1.1657257692908845,
                0.7188009430803813,
                1.2437129395299469,
                0.8976683107274543
            ]
        },
        {
            "positions": [
                -0.8321161712193433,
                -0.23890975538167128,
                -1.0149422215906578,
                0.7774410066245336,
                1.1783347614214388,
                0.8534225954538841
            ]
        },
        {
            "positions": [
                -0.784324335345036,
                -0.2659356642666826,
                -0.864158673890431,
                0.836081070168686,
                1.1129565833129305,
                0.8091768801803139
            ]
        },
        {
            "positions": [
                -0.7365324994707286,
                -0.2929615731516939,
                -0.7133751261902039,
                0.8947211337128385,
                1.0475784052044224,
                0.7649311649067436
            ]
        },
        {
            "positions": [
                -0.6887406635964213,
                -0.31998748203670513,
                -0.5625915784899771,
                0.9533611972569906,
                0.9822002270959143,
                0.7206854496331734
            ]
        },
        {
            "positions": [
                -0.640948827722114,
                -0.3470133909217165,
                -0.41180803078975003,
                1.012001260801143,
                0.916822048987406,
                0.6764397343596031
            ]
        },
        {
            "positions": [
                -0.5931569918478067,
                -0.3740392998067278,
                -0.2610244830895234,
                1.0706413243452955,
                0.851443870878898,
                0.6321940190860329
            ]
        },
        {
            "positions": [
                -0.5453651559734993,
                -0.4010652086917391,
                -0.11024093538929636,
                1.1292813878894479,
                0.7860656927703897,
                0.5879483038124627
            ]
        },
        {
            "positions": [
                -0.497573320099192,
                -0.4280911175767504,
                0.04054261231093048,
                1.1879214514336,
                0.7206875146618816,
                0.5437025885388924
            ]
        },
        {
            "positions": [
                -0.4497814842248846,
                -0.45511702646176166,
                0.1913261600111571,
                1.2465615149777525,
                0.6553093365533735,
                0.4994568732653222
            ]
        },
        {
            "positions": [
                -0.4019896483505774,
                -0.48214293534677294,
                0.34210970771138416,
                1.3052015785219047,
                0.5899311584448654,
                0.45521115799175205
            ]
        },
        {
            "positions": [
                -0.3541978124762699,
                -0.5091688442317843,
                0.4928932554116112,
                1.3638416420660573,
                0.5245529803363571,
                0.4109654427181817
            ]
        },
        {
            "positions": [
                -0.30640597660196267,
                -0.5361947531167957,
                0.6436768031118383,
                1.4224817056102095,
                0.459174802227849,
                0.36671972744461145
            ]
        },
        {
            "positions": [
                -0.2586141407276553,
                -0.5632206620018069,
                0.7944603508120649,
                1.4811217691543619,
                0.3937966241193409,
                0.3224740121710412
            ]
        },
        {
            "positions": [
                -0.21082230485334796,
                -0.5902465708868181,
                0.9452438985122915,
                1.5397618326985143,
                0.3284184460108328,
                0.278228296897471
            ]
        },
        {
            "positions": [
                -0.1630304689790406,
                -0.6172724797718296,
                1.096027446212519,
                1.5984018962426667,
                0.2630402679023245,
                0.23398258162390073
            ]
        },
        {
            "positions": [
                -0.11523863310473326,
                -0.6442983886568407,
                1.2468109939127456,
                1.657041959786819,
                0.1976620897938164,
                0.1897368663503305
            ]
        },
        {
            "positions": [
                -0.06744679723042601,
                -0.6713242975418521,
                1.3975945416129723,
                1.7156820233309713,
                0.1322839116853083,
                0.14549115107676025
            ]
        },
        {
            "positions": [
                -0.01965496135611855,
                -0.6983502064268634,
                1.5483780893131993,
                1.7743220868751237,
                0.06690573357680019,
                0.10124543580319001
            ]
        },
        {
            "positions": [
                0.028136874518188693,
                -0.7253761153118747,
                1.6991616370134264,
                1.8329621504192761,
                0.0015275554682918635,
                0.05699972052961977
            ]
        },
        {
            "positions": [
                0.07592871039249616,
                -0.7524020241968861,
                1.8499451847136534,
                1.8916022139634283,
                -0.06385062264021624,
                0.012754005256049528
            ]
        },
        {
            "positions": [
                0.12372054626680343,
                -0.7794279330818974,
                2.0007287324138803,
                1.9502422775075807,
                -0.12922880074872423,
                -0.031491710017520824
            ]
        }
    ]
}