{
    "goal": {
        "global_pose": {
            "orientation": {
                "w": 0.5084816217422485,
                "x": -0.49083608388900757,
                "y": 0.5182115435600281,
                "z": -0.4816462993621826
            },
            "position": {
                "x": 0.5540239810943604,
                "y": 0.030875300988554955,
                "z": 0.16403168439865112
            }
        },
        "name": "move_to_storage_A"
    },
    "id": "STRIDE_move_to_storage_A_72",
    "joint_names": [
        "shoulder_pan_joint",
        "shoulder_lift_joint",
        "elbow_joint",
        "wrist_1_joint",
        "wrist_2_joint",
        "wrist_3_joint"
    ],
    "metrics": {
        "cart_traj_len": 0.3534878035480469,
        "distance_elbow_joint": 0.4497799728298828,
        "distance_shoulder_lift_joint": 0.2327612748624035,
        "distance_shoulder_pan_joint": 0.4634670781769887,
        "distance_wrist_1_joint": 0.24642192744131985,
        "distance_wrist_2_joint": 1.0932277713018406,
        "distance_wrist_3_joint": 0.10302638199351621,
        "smoothness": 8.881784232165597e-16,
        "time": 0.056073576,
        "traj_len": 1.6089389070458677,
        "weighted_distance": 2.033319175470527
    },
    "planner": "STRIDE",
    "start": {
        "state": {
            "elbow_joint": 1.9715463870305268,
            "shoulder_lift_joint": -1.1394903361783484,
            "shoulder_pan_joint": 0.12281147578464417,
            "wrist_1_joint": -0.7804599489681411,
            "wrist_2_joint": 0.12958660307563738,
            "wrist_3_joint": -3.1924946282119055
        }
    },
    "waypoints": [
        {
            "positions": [
                0.12281147578464417,
                -1.1394903361783484,
                1.9715463870305268,
                -0.7804599489681411,
                0.12958660307563738,
                -3.1924946282119055
            ]
        },
        {
            "positions": [
                0.056601893187931504,
                -1.1727419468729774,
                2.035800668863367,
                -0.8156630814597582,
                0.2857619989759003,
                -3.1777765736414034
            ]
        },
        {
            "positions": [
                -0.009607689408781164,
                -1.2059935575676066,
                2.1000549506962076,
                -0.8508662139513753,
                0.44193739487616324,
                -3.163058519070901
            ]
        },
        {
            "positions": [
                -0.07581727200549383,
                -1.2392451682622356,
                2.164309232529048,
                -0.8860693464429924,
                0.5981127907764262,
                -3.1483404645003987
            ]
        },
        {
            "positions": [
                -0.1420268546022065,
                -1.2724967789568646,
                2.2285635143618885,
                -0.9212724789346096,
                0.7542881866766892,
                -3.133622409929896
            ]
        },
        {
            "positions": [
                -0.20823643719891916,
                -1.3057483896514936,
                2.2928177961947287,
                -0.9564756114262267,
                0.9104635825769521,
                -3.118904355359394
            ]
        },
        {
            "positions": [
                -0.2744460197956318,
                -1.3390000003461229,
                2.357072078027569,
                -0.9916787439178438,
                1.066638978477215,
                -3.1041863007888915
            ]
        },
        {
            "positions": [
                -0.3406556023923445,
                -1.3722516110407519,
                2.4213263598604096,
                -1.026881876409461,
                1.222814374377478,
                -3.0894682462183893
            ]
        }
    ]
}