{
    "goal": {
        "global_pose": {
            "orientation": {
                "w": 0.7047431468963623,
                "x": -0.7094548344612122,
                "y": 0.0024358443915843964,
                "z": -0.0022348060738295317
            },
            "position": {
                "x": 0.6094750761985779,
                "y": 0.3671506643295288,
                "z": 0.19426114857196808
            }
        },
        "name": "move_to_magneteinheit_A"
    },
    "id": "STRIDE_move_to_magneteinheit_A_7",
    "joint_names": [
        "shoulder_pan_joint",
        "shoulder_lift_joint",
        "elbow_joint",
        "wrist_1_joint",
        "wrist_2_joint",
        "wrist_3_joint"
    ],
    "metrics": {
        "cart_traj_len": 2.0650989210647004,
        "distance_elbow_joint": 3.907378635442698,
        "distance_shoulder_lift_joint": 1.0850435206861981,
        "distance_shoulder_pan_joint": 1.2406124211316585,
        "distance_wrist_1_joint": 1.3269447745683802,
        "distance_wrist_2_joint": 1.482857466193455,
        "distance_wrist_3_joint": 4.248789971996167,
        "smoothness": 0.27141899953741627,
        "time": 0.21856139600000002,
        "traj_len": 3.645768340147047,
        "weighted_distance": 4.959738801063289
    },
    "planner": "STRIDE",
    "start": {
        "state": {
            "elbow_joint": -1.919643507792019,
            "shoulder_lift_joint": -0.07675430207160344,
            "shoulder_pan_joint": -1.1188671864651873,
            "wrist_1_joint": 0.42560062535961957,
            "wrist_2_joint": 1.5706038300724876,
            "wrist_3_joint": 1.1188968870953055
        }
    },
    "waypoints": [
        {
            "positions": [
                -1.1188671864651873,
                -0.07675430207160344,
                -1.919643507792019,
                0.42560062535961957,
                1.5706038300724876,
                1.1188968870953055
            ]
        },
        {
            "positions": [
                -1.082866358997776,
                -0.10844488936186814,
                -1.8054326160392236,
                0.3871837336223772,
                1.5275007245961936,
                0.9945228104114655
            ]
        },
        {
            "positions": [
                -1.046865531530365,
                -0.14013547665213283,
                -1.6912217242864278,
                0.3487668418851348,
                1.4843976191198995,
                0.8701487337276255
            ]
        },
        {
            "positions": [
                -1.0108647040629537,
                -0.17182606394239758,
                -1.5770108325336323,
                0.3103499501478924,
                1.4412945136436055,
                0.7457746570437853
            ]
        },
        {
            "positions": [
                -0.9748638765955426,
                -0.20351665123266224,
                -1.4627999407808365,
                0.2719330584106501,
                1.3981914081673112,
                0.6214005803599453
            ]
        },
        {
            "positions": [
                -0.9388630491281315,
                -0.23520723852292696,
                -1.3485890490280408,
                0.23351616667340766,
                1.3550883026910172,
                0.4970265036761051
            ]
        },
        {
            "positions": [
                -0.9028622216607203,
                -0.26689782581319166,
                -1.2343781572752452,
                0.19509927493616527,
                1.3119851972147232,
                0.3726524269922651
            ]
        },
        {
            "positions": [
                -0.866861394193309,
                -0.29858841310345635,
                -1.1201672655224497,
                0.15668238319892291,
                1.2688820917384291,
                0.24827835030842504
            ]
        },
        {
            "positions": [
                -0.8308605667258979,
                -0.33027900039372105,
                -1.0059563737696542,
                0.11826549146168053,
                1.225778986262135,
                0.123904273624585
            ]
        },
        {
            "positions": [
                -0.7948597392584866,
                -0.3619695876839858,
                -0.8917454820168584,
                0.07984859972443814,
                1.182675880785841,
                -0.0004698030592551472
            ]
        },
        {
            "positions": [
                -0.7588589117910756,
                -0.3936601749742505,
                -0.7775345902640627,
                0.041431707987195754,
                1.139572775309547,
                -0.1248438797430953
            ]
        },
        {
            "positions": [
                -0.7228580843236643,
                -0.4253507622645152,
                -0.6633236985112672,
                0.003014816249953367,
                1.0964696698332528,
                -0.24921795642693523
            ]
        },
        {
            "positions": [
                -0.6868572568562531,
                -0.45704134955477993,
                -0.5491128067584714,
                -0.03540207548728902,
                1.0533665643569587,
                -0.3735920331107754
            ]
        },
        {
            "positions": [
                -0.6508564293888419,
                -0.48873193684504457,
                -0.4349019150056759,
                -0.07381896722453135,
                1.0102634588806647,
                -0.4979661097946153
            ]
        },
        {
            "positions": [
                -0.6148556019214307,
                -0.5204225241353093,
                -0.32069102325288035,
                -0.11223585896177374,
                0.9671603534043707,
                -0.6223401864784555
            ]
        },
        {
            "positions": [
                -0.5788547744540196,
                -0.552113111425574,
                -0.2064801315000846,
                -0.15065275069901612,
                0.9240572479280766,
                -0.7467142631622954
            ]
        },
        {
            "positions": [
                -0.5428539469866084,
                -0.5838036987158386,
                -0.09226923974728907,
                -0.1890696424362585,
                0.8809541424517825,
                -0.8710883398461355
            ]
        },
        {
            "positions": [
                -0.5068531195191972,
                -0.6154942860061035,
                0.021941652005506684,
                -0.2274865341735009,
                0.8378510369754885,
                -0.9954624165299757
            ]
        },
        {
            "positions": [
                -0.470852292051786,
                -0.6471848732963681,
                0.1361525437583022,
                -0.2659034259107433,
                0.7947479314991944,
                -1.1198364932138158
            ]
        },
        {
            "positions": [
                -0.43485146458437485,
                -0.6788754605866327,
                0.2503634355110982,
                -0.30432031764798567,
                0.7516448260229003,
                -1.244210569897656
            ]
        },
        {
            "positions": [
                -0.39885063711696367,
                -0.7105660478768976,
                0.3645743272638937,
                -0.34273720938522806,
                0.7085417205466062,
                -1.3685846465814961
            ]
        },
        {
            "positions": [
                -0.3628498096495524,
                -0.7422566351671622,
                0.47878521901668925,
                -0.38115410112247045,
                0.6654386150703121,
                -1.4929587232653363
            ]
        },
        {
            "positions": [
                -0.3268489821821412,
                -0.7739472224574269,
                0.5929961107694848,
                -0.41957099285971283,
                0.6223355095940181,
                -1.617332799949176
            ]
        },
        {
            "positions": [
                -0.29084815471473,
                -0.8056378097476917,
                0.7072070025222807,
                -0.4579878845969552,
                0.579232404117724,
                -1.7417068766330162
            ]
        },
        {
            "positions": [
                -0.25484732724731884,
                -0.8373283970379564,
                0.8214178942750763,
                -0.4964047763341976,
                0.5361292986414299,
                -1.8660809533168563
            ]
        },
        {
            "positions": [
                -0.21884649977990767,
                -0.869018984328221,
                0.9356287860278718,
                -0.5348216680714399,
                0.49302619316513585,
                -1.9904550300006965
            ]
        },
        {
            "positions": [
                -0.1828456723124966,
                -0.9007095716184856,
                1.0498396777806673,
                -0.5732385598086822,
                0.44992308768884204,
                -2.114829106684536
            ]
        },
        {
            "positions": [
                -0.14684484484508542,
                -0.9324001589087503,
                1.1640505695334629,
                -0.6116554515459245,
                0.4068199822125478,
                -2.2392031833683763
            ]
        },
        {
            "positions": [
                -0.11084401737767413,
                -0.9640907461990151,
                1.2782614612862584,
                -0.650072343283167,
                0.36371687673625375,
                -2.3635772600522165
            ]
        },
        {
            "positions": [
                -0.07484318991026306,
                -0.9957813334892798,
                1.3924723530390544,
                -0.6884892350204093,
                0.3206137712599597,
                -2.4879513367360566
            ]
        },
        {
            "positions": [
                -0.038842362442851774,
                -1.0274719207795444,
                1.50668324479185,
                -0.7269061267576518,
                0.2775106657836657,
                -2.6123254134198963
            ]
        },
        {
            "positions": [
                -0.002841534975440707,
                -1.0591625080698093,
                1.6208941365446454,
                -0.765323018494894,
                0.23440756030737164,
                -2.7366994901037365
            ]
        },
        {
            "positions": [
                0.03315929249197058,
                -1.090853095360074,
                1.735105028297441,
                -0.8037399102321365,
                0.1913044548310774,
                -2.8610735667875766
            ]
        },
        {
            "positions": [
                0.06916011995938165,
                -1.1225436826503388,
                1.849315920050237,
                -0.8421568019693788,
                0.14820134935478335,
                -2.985447643471417
            ]
        },
        {
            "positions": [
                0.10516094742679283,
                -1.1542342699406034,
                1.9635268118030327,
                -0.8805736937066213,
                0.10509824387848932,
                -3.109821720155257
            ]
        },
        {
            "positions": [
                0.12174523466647108,
                -1.1466707171234052,
                1.9877351276506794,
                -0.8598032382044821,
                0.12245012387794604,
                -3.129893084900861
            ]
        }
    ]
}