{
    "goal": {
        "global_pose": {
            "orientation": {
                "w": 0.7047431468963623,
                "x": -0.7094548344612122,
                "y": 0.0024358443915843964,
                "z": -0.0022348060738295317
            },
            "position": {
                "x": 0.6094750761985779,
                "y": 0.3671506643295288,
                "z": 0.19426114857196808
            }
        },
        "name": "move_to_magneteinheit_A"
    },
    "id": "STRIDE_move_to_magneteinheit_A_24",
    "joint_names": [
        "shoulder_pan_joint",
        "shoulder_lift_joint",
        "elbow_joint",
        "wrist_1_joint",
        "wrist_2_joint",
        "wrist_3_joint"
    ],
    "metrics": {
        "cart_traj_len": 1.8679143061917662,
        "distance_elbow_joint": 3.937724997791225,
        "distance_shoulder_lift_joint": 0.7116500618836934,
        "distance_shoulder_pan_joint": 1.2404723079169457,
        "distance_wrist_1_joint": 1.5823452103787135,
        "distance_wrist_2_joint": 1.694818421511404,
        "distance_wrist_3_joint": 1.2232585049826685,
        "smoothness": 2.2204460578853453e-16,
        "time": 0.17090903799999999,
        "traj_len": 3.223394096982969,
        "weighted_distance": 4.014218497580831
    },
    "planner": "STRIDE",
    "start": {
        "state": {
            "elbow_joint": -1.919643507792019,
            "shoulder_lift_joint": -0.07675430207160344,
            "shoulder_pan_joint": -1.1188671864651873,
            "wrist_1_joint": 0.42560062535961957,
            "wrist_2_joint": 1.5706038300724876,
            "wrist_3_joint": 1.1188968870953055
        }
    },
    "waypoints": [
        {
            "positions": [
                -1.1188671864651873,
                -0.07675430207160344,
                -1.919643507792019,
                0.42560062535961957,
                1.5706038300724876,
                1.1188968870953055
            ]
        },
        {
            "positions": [
                -1.0729237676534487,
                -0.1031117117709995,
                -1.773801841207159,
                0.48420600352179416,
                1.507832777423917,
                1.073591016540392
            ]
        },
        {
            "positions": [
                -1.02698034884171,
                -0.12946912147039555,
                -1.6279601746222987,
                0.5428113816839687,
                1.4450617247753466,
                1.0282851459854783
            ]
        },
        {
            "positions": [
                -0.9810369300299712,
                -0.1558265311697916,
                -1.4821185080374386,
                0.6014167598461433,
                1.382290672126776,
                0.9829792754305646
            ]
        },
        {
            "positions": [
                -0.9350935112182324,
                -0.18218394086918765,
                -1.3362768414525785,
                0.6600221380083179,
                1.3195196194782055,
                0.937673404875651
            ]
        },
        {
            "positions": [
                -0.8891500924064937,
                -0.2085413505685837,
                -1.1904351748677182,
                0.7186275161704925,
                1.256748566829635,
                0.8923675343207373
            ]
        },
        {
            "positions": [
                -0.843206673594755,
                -0.23489876026797973,
                -1.044593508282858,
                0.777232894332667,
                1.1939775141810645,
                0.8470616637658237
            ]
        },
        {
            "positions": [
                -0.7972632547830163,
                -0.2612561699673758,
                -0.8987518416979978,
                0.8358382724948415,
                1.131206461532494,
                0.8017557932109101
            ]
        },
        {
            "positions": [
                -0.7513198359712775,
                -0.2876135796667718,
                -0.7529101751131377,
                0.8944436506570161,
                1.0684354088839236,
                0.7564499226559964
            ]
        },
        {
            "positions": [
                -0.7053764171595388,
                -0.3139709893661679,
                -0.6070685085282774,
                0.9530490288191906,
                1.005664356235353,
                0.7111440521010828
            ]
        },
        {
            "positions": [
                -0.6594329983478,
                -0.34032839906556395,
                -0.46122684194341734,
                1.0116544069813653,
                0.9428933035867825,
                0.6658381815461691
            ]
        },
        {
            "positions": [
                -0.6134895795360613,
                -0.36668580876496,
                -0.31538517535855726,
                1.0702597851435398,
                0.880122250938212,
                0.6205323109912555
            ]
        },
        {
            "positions": [
                -0.5675461607243226,
                -0.393043218464356,
                -0.16954350877369695,
                1.1288651633057143,
                0.8173511982896414,
                0.5752264404363417
            ]
        },
        {
            "positions": [
                -0.5216027419125838,
                -0.4194006281637521,
                -0.023701842188836864,
                1.187470541467889,
                0.7545801456410709,
                0.5299205698814281
            ]
        },
        {
            "positions": [
                -0.47565932310084513,
                -0.44575803786314816,
                0.12213982439602344,
                1.2460759196300635,
                0.6918090929925004,
                0.48461469932651446
            ]
        },
        {
            "positions": [
                -0.42971590428910633,
                -0.47211544756254425,
                0.267981490980884,
                1.3046812977922382,
                0.6290380403439298,
                0.4393088287716008
            ]
        },
        {
            "positions": [
                -0.38377248547736764,
                -0.49847285726194024,
                0.4138231575657436,
                1.3632866759544127,
                0.5662669876953594,
                0.3940029582166872
            ]
        },
        {
            "positions": [
                -0.33782906666562884,
                -0.5248302669613363,
                0.5596648241506041,
                1.4218920541165874,
                0.5034959350467887,
                0.34869708766177354
            ]
        },
        {
            "positions": [
                -0.29188564785389026,
                -0.5511876766607324,
                0.7055064907354642,
                1.4804974322787618,
                0.4407248823982184,
                0.3033912171068599
            ]
        },
        {
            "positions": [
                -0.24594222904215146,
                -0.5775450863601284,
                0.8513481573203243,
                1.5391028104409366,
                0.37795382974964786,
                0.25808534655194615
            ]
        },
        {
            "positions": [
                -0.19999881023041277,
                -0.6039024960595245,
                0.9971898239051844,
                1.597708188603111,
                0.31518277710107734,
                0.21277947599703262
            ]
        },
        {
            "positions": [
                -0.15405539141867397,
                -0.6302599057589204,
                1.143031490490045,
                1.6563135667652857,
                0.2524117244525068,
                0.16747360544211887
            ]
        },
        {
            "positions": [
                -0.10811197260693528,
                -0.6566173154583166,
                1.2888731570749046,
                1.7149189449274602,
                0.1896406718039363,
                0.12216773488720534
            ]
        },
        {
            "positions": [
                -0.06216855379519659,
                -0.6829747251577127,
                1.434714823659765,
                1.7735243230896347,
                0.12686961915536576,
                0.07686186433229159
            ]
        },
        {
            "positions": [
                -0.0162251349834579,
                -0.7093321348571087,
                1.5805564902446252,
                1.8321297012518092,
                0.06409856650679524,
                0.031555993777377944
            ]
        },
        {
            "positions": [
                0.02971828382828101,
                -0.7356895445565048,
                1.7263981568294857,
                1.8907350794139839,
                0.001327513858224716,
                -0.013749876777535697
            ]
        },
        {
            "positions": [
                0.0756617026400197,
                -0.7620469542559007,
                1.8722398234143454,
                1.9493404575761584,
                -0.06144353879034581,
                -0.05905574733244934
            ]
        },
        {
            "positions": [
                0.12160512145175832,
                -0.7884043639552969,
                2.0180814899992057,
                2.007945835738333,
                -0.12421459143891628,
                -0.10436161788736292
            ]
        }
    ]
}