{
    "goal": {
        "global_pose": {
            "orientation": {
                "w": 0.5084816217422485,
                "x": -0.49083608388900757,
                "y": 0.5182115435600281,
                "z": -0.4816462993621826
            },
            "position": {
                "x": 0.5540239810943604,
                "y": 0.030875300988554955,
                "z": 0.16403168439865112
            }
        },
        "name": "move_to_storage_A"
    },
    "id": "STRIDE_move_to_storage_A_86",
    "joint_names": [
        "shoulder_pan_joint",
        "shoulder_lift_joint",
        "elbow_joint",
        "wrist_1_joint",
        "wrist_2_joint",
        "wrist_3_joint"
    ],
    "metrics": {
        "cart_traj_len": 0.35265632171802047,
        "distance_elbow_joint": 0.4474330293033466,
        "distance_shoulder_lift_joint": 0.2346736246782717,
        "distance_shoulder_pan_joint": 0.4625487705012425,
        "distance_wrist_1_joint": 0.23456202364276002,
        "distance_wrist_2_joint": 1.091553067591816,
        "distance_wrist_3_joint": 0.0853690146209467,
        "smoothness": 8.881784197001252e-16,
        "time": 0.073685801,
        "traj_len": 1.5987931480771314,
        "weighted_distance": 2.013204572519855
    },
    "planner": "STRIDE",
    "start": {
        "state": {
            "elbow_joint": 1.9715463870305268,
            "shoulder_lift_joint": -1.1394903361783484,
            "shoulder_pan_joint": 0.12281147578464417,
            "wrist_1_joint": -0.7804599489681411,
            "wrist_2_joint": 0.12958660307563738,
            "wrist_3_joint": -3.1924946282119055
        }
    },
    "waypoints": [
        {
            "positions": [
                0.12281147578464417,
                -1.1394903361783484,
                1.9715463870305268,
                -0.7804599489681411,
                0.12958660307563738,
                -3.1924946282119055
            ]
        },
        {
            "positions": [
                0.05673307999875239,
                -1.1730151397038158,
                2.0354653912167193,
                -0.8139688094885353,
                0.28552275558875395,
                -3.1802990546946273
            ]
        },
        {
            "positions": [
                -0.009345315787139388,
                -1.2065399432292832,
                2.0993843954029114,
                -0.8474776700089297,
                0.4414589081018705,
                -3.1681034811773494
            ]
        },
        {
            "positions": [
                -0.07542371157303117,
                -1.2400647467547505,
                2.163303399589104,
                -0.880986530529324,
                0.597395060614987,
                -3.155907907660071
            ]
        },
        {
            "positions": [
                -0.14150210735892294,
                -1.273589550280218,
                2.227222403775296,
                -0.9144953910497182,
                0.7533312131281036,
                -3.1437123341427933
            ]
        },
        {
            "positions": [
                -0.20758050314481474,
                -1.3071143538056853,
                2.2911414079614887,
                -0.9480042515701126,
                0.9092673656412202,
                -3.131516760625515
            ]
        },
        {
            "positions": [
                -0.2736588989307065,
                -1.3406391573311527,
                2.355060412147681,
                -0.9815131120905067,
                1.0652035181543367,
                -3.119321187108237
            ]
        },
        {
            "positions": [
                -0.3397372947165983,
                -1.37416396085662,
                2.4189794163338734,
                -1.015021972610901,
                1.2211396706674533,
                -3.107125613590959
            ]
        }
    ]
}