{
    "goal": {
        "global_pose": {
            "orientation": {
                "w": 0.7047431468963623,
                "x": -0.7094548344612122,
                "y": 0.0024358443915843964,
                "z": -0.0022348060738295317
            },
            "position": {
                "x": 0.6094750761985779,
                "y": 0.3671506643295288,
                "z": 0.19426114857196808
            }
        },
        "name": "move_to_magneteinheit_A"
    },
    "id": "STRIDE_move_to_magneteinheit_A_47",
    "joint_names": [
        "shoulder_pan_joint",
        "shoulder_lift_joint",
        "elbow_joint",
        "wrist_1_joint",
        "wrist_2_joint",
        "wrist_3_joint"
    ],
    "metrics": {
        "cart_traj_len": 1.878980467350237,
        "distance_elbow_joint": 3.9137195483895675,
        "distance_shoulder_lift_joint": 0.7006617801903983,
        "distance_shoulder_pan_joint": 1.2430096367113763,
        "distance_wrist_1_joint": 1.4914599979139878,
        "distance_wrist_2_joint": 1.7093521237014249,
        "distance_wrist_3_joint": 1.1105805736155125,
        "smoothness": 3.9474596743688624e-16,
        "time": 0.197949503,
        "traj_len": 3.18885303212962,
        "weighted_distance": 3.9485132555645173
    },
    "planner": "STRIDE",
    "start": {
        "state": {
            "elbow_joint": -1.919643507792019,
            "shoulder_lift_joint": -0.07675430207160344,
            "shoulder_pan_joint": -1.1188671864651873,
            "wrist_1_joint": 0.42560062535961957,
            "wrist_2_joint": 1.5706038300724876,
            "wrist_3_joint": 1.1188968870953055
        }
    },
    "waypoints": [
        {
            "positions": [
                -1.1188671864651873,
                -0.07675430207160344,
                -1.919643507792019,
                0.42560062535961957,
                1.5706038300724876,
                1.1188968870953055
            ]
        },
        {
            "positions": [
                -1.0710591235147497,
                -0.10370283207892646,
                -1.769115832853959,
                0.4829644714332345,
                1.5048595176224329,
                1.0761822496485551
            ]
        },
        {
            "positions": [
                -1.0232510605643121,
                -0.13065136208624947,
                -1.6185881579158985,
                0.5403283175068494,
                1.439115205172378,
                1.0334676122018045
            ]
        },
        {
            "positions": [
                -0.9754429976138747,
                -0.15759989209357247,
                -1.468060482977838,
                0.5976921635804643,
                1.3733708927223232,
                0.9907529747550541
            ]
        },
        {
            "positions": [
                -0.9276349346634372,
                -0.1845484221008955,
                -1.317532808039778,
                0.6550560096540792,
                1.3076265802722684,
                0.9480383373083037
            ]
        },
        {
            "positions": [
                -0.8798268717129996,
                -0.2114969521082185,
                -1.1670051331017177,
                0.7124198557276942,
                1.2418822678222137,
                0.9053236998615531
            ]
        },
        {
            "positions": [
                -0.832018808762562,
                -0.2384454821155415,
                -1.0164774581636573,
                0.7697837018013091,
                1.1761379553721587,
                0.8626090624148026
            ]
        },
        {
            "positions": [
                -0.7842107458121246,
                -0.2653940121228645,
                -0.8659497832255971,
                0.827147547874924,
                1.110393642922104,
                0.8198944249680522
            ]
        },
        {
            "positions": [
                -0.736402682861687,
                -0.2923425421301875,
                -0.7154221082875367,
                0.884511393948539,
                1.044649330472049,
                0.7771797875213017
            ]
        },
        {
            "positions": [
                -0.6885946199112494,
                -0.3192910721375105,
                -0.5648944333494765,
                0.9418752400221537,
                0.9789050180219944,
                0.7344651500745512
            ]
        },
        {
            "positions": [
                -0.6407865569608118,
                -0.34623960214483357,
                -0.4143667584114161,
                0.9992390860957687,
                0.9131607055719395,
                0.6917505126278007
            ]
        },
        {
            "positions": [
                -0.5929784940103743,
                -0.37318813215215657,
                -0.26383908347335594,
                1.0566029321693835,
                0.8474163931218848,
                0.6490358751810503
            ]
        },
        {
            "positions": [
                -0.5451704310599367,
                -0.4001366621594796,
                -0.11331140853529553,
                1.1139667782429985,
                0.7816720806718299,
                0.6063212377342997
            ]
        },
        {
            "positions": [
                -0.4973623681094992,
                -0.4270851921668026,
                0.03721626640276465,
                1.1713306243166135,
                0.7159277682217752,
                0.5636066002875493
            ]
        },
        {
            "positions": [
                -0.4495543051590617,
                -0.4540337221741256,
                0.18774394134082484,
                1.2286944703902283,
                0.6501834557717204,
                0.5208919628407989
            ]
        },
        {
            "positions": [
                -0.4017462422086241,
                -0.4809822521814486,
                0.33827161627888525,
                1.2860583164638433,
                0.5844391433216657,
                0.47817732539404834
            ]
        },
        {
            "positions": [
                -0.3539381792581865,
                -0.5079307821887716,
                0.48879929121694565,
                1.3434221625374583,
                0.5186948308716106,
                0.4354626879472978
            ]
        },
        {
            "positions": [
                -0.306130116307749,
                -0.5348793121960946,
                0.6393269661550056,
                1.400786008611073,
                0.45295051842155587,
                0.3927480505005473
            ]
        },
        {
            "positions": [
                -0.2583220533573114,
                -0.5618278422034176,
                0.789854641093066,
                1.458149854684688,
                0.3872062059715011,
                0.35003341305379687
            ]
        },
        {
            "positions": [
                -0.2105139904068739,
                -0.5887763722107406,
                0.9403823160311264,
                1.5155137007583028,
                0.3214618935214464,
                0.30731877560704646
            ]
        },
        {
            "positions": [
                -0.1627059274564363,
                -0.6157249022180638,
                1.0909099909691868,
                1.572877546831918,
                0.2557175810713914,
                0.2646041381602958
            ]
        },
        {
            "positions": [
                -0.11489786450599881,
                -0.6426734322253866,
                1.2414376659072468,
                1.6302413929055328,
                0.18997326862133668,
                0.2218895007135454
            ]
        },
        {
            "positions": [
                -0.06708980155556121,
                -0.6696219622327098,
                1.3919653408453072,
                1.6876052389791476,
                0.12422895617128193,
                0.179174863266795
            ]
        },
        {
            "positions": [
                -0.01928173860512361,
                -0.6965704922400326,
                1.5424930157833676,
                1.7449690850527626,
                0.05848464372122719,
                0.13646022582004447
            ]
        },
        {
            "positions": [
                0.02852632434531399,
                -0.7235190222473558,
                1.693020690721428,
                1.8023329311263776,
                -0.007259668728827773,
                0.09374558837329383
            ]
        },
        {
            "positions": [
                0.07633438729575137,
                -0.7504675522546786,
                1.843548365659488,
                1.8596967771999926,
                -0.07300398117888252,
                0.05103095092654342
            ]
        },
        {
            "positions": [
                0.12414245024618888,
                -0.7774160822620018,
                1.9940760405975484,
                1.9170606232736074,
                -0.1387482936289373,
                0.008316313479792907
            ]
        }
    ]
}