{
    "goal": {
        "global_pose": {
            "orientation": {
                "w": 0.7031023502349854,
                "x": -0.7110244035720825,
                "y": 0.007748599164187908,
                "z": 0.005598929710686207
            },
            "position": {
                "x": 0.11585023208521307,
                "y": 0.44412534475326537,
                "z": 0.3711530566215515
            }
        },
        "name": "move_to_auspresseinheit_A"
    },
    "id": "STRIDE_move_to_auspresseinheit_A_25",
    "joint_names": [
        "shoulder_pan_joint",
        "shoulder_lift_joint",
        "elbow_joint",
        "wrist_1_joint",
        "wrist_2_joint",
        "wrist_3_joint"
    ],
    "metrics": {
        "cart_traj_len": 0.7283622733691062,
        "distance_elbow_joint": 0.2404513802860868,
        "distance_shoulder_lift_joint": 0.6366207546752987,
        "distance_shoulder_pan_joint": 1.041770423618682,
        "distance_wrist_1_joint": 1.0427117840756117,
        "distance_wrist_2_joint": 0.8915500236206546,
        "distance_wrist_3_joint": 0.1413263335402819,
        "smoothness": 1.4250483576387165,
        "time": 0.18391009600000002,
        "traj_len": 1.998607189974212,
        "weighted_distance": 2.4922570442459273
    },
    "planner": "STRIDE",
    "start": {
        "state": {
            "elbow_joint": 2.422574709923281,
            "shoulder_lift_joint": -1.3736533754116391,
            "shoulder_pan_joint": -0.33786336945926293,
            "wrist_1_joint": -1.0288603412921917,
            "wrist_2_joint": 1.2330224858903978,
            "wrist_3_joint": -3.094022268022082
        }
    },
    "waypoints": [
        {
            "positions": [
                -0.33786336945926293,
                -1.3736533754116391,
                2.422574709923281,
                -1.0288603412921917,
                1.2330224858903978,
                -3.094022268022082
            ]
        },
        {
            "positions": [
                -0.2619201301365626,
                -1.446674991066769,
                2.405448462053247,
                -0.927583478324218,
                1.1441803563030475,
                -3.088478645726697
            ]
        },
        {
            "positions": [
                -0.18597689081386234,
                -1.5196966067218984,
                2.3883222141832134,
                -0.8263066153562442,
                1.055338226715697,
                -3.082935023431311
            ]
        },
        {
            "positions": [
                -0.11003365149116207,
                -1.592718222377028,
                2.37119596631318,
                -0.7250297523882705,
                0.9664960971283467,
                -3.077391401135926
            ]
        },
        {
            "positions": [
                -0.03409041216846176,
                -1.6657398380321577,
                2.354069718443146,
                -0.6237528894202967,
                0.8776539675409962,
                -3.0718477788405405
            ]
        },
        {
            "positions": [
                0.04185282715423855,
                -1.7387614536872875,
                2.336943470573112,
                -0.5224760264523229,
                0.788811837953646,
                -3.066304156545155
            ]
        },
        {
            "positions": [
                0.1177960664769388,
                -1.811783069342417,
                2.319817222703078,
                -0.42119916348434927,
                0.6999697083662956,
                -3.06076053424977
            ]
        },
        {
            "positions": [
                0.1937393057996391,
                -1.8848046849975466,
                2.3026909748330446,
                -0.3199223005163755,
                0.6111275787789452,
                -3.055216911954384
            ]
        },
        {
            "positions": [
                0.2696825451223394,
                -1.9578263006526764,
                2.2855647269630106,
                -0.21864543754840168,
                0.5222854491915948,
                -3.049673289658999
            ]
        },
        {
            "positions": [
                0.41442404813469924,
                -1.940343690841256,
                2.3200451927382826,
                -0.2961443976590089,
                0.582556444832212,
                -3.0819990747180652
            ]
        },
        {
            "positions": [
                0.5591655511470591,
                -1.9228610810298354,
                2.354525658513555,
                -0.3736433577696162,
                0.6428274404728292,
                -3.114324859777131
            ]
        },
        {
            "positions": [
                0.703907054159419,
                -1.905378471218415,
                2.389006124288827,
                -0.45114231788022346,
                0.7030984361134465,
                -3.1466506448361975
            ]
        }
    ]
}