{
    "goal": {
        "global_pose": {
            "orientation": {
                "w": 0.5084816217422485,
                "x": -0.49083608388900757,
                "y": 0.5182115435600281,
                "z": -0.4816462993621826
            },
            "position": {
                "x": 0.5540239810943604,
                "y": 0.030875300988554955,
                "z": 0.16403168439865112
            }
        },
        "name": "move_to_storage_A"
    },
    "id": "STRIDE_move_to_storage_A_7",
    "joint_names": [
        "shoulder_pan_joint",
        "shoulder_lift_joint",
        "elbow_joint",
        "wrist_1_joint",
        "wrist_2_joint",
        "wrist_3_joint"
    ],
    "metrics": {
        "cart_traj_len": 0.3531215185015197,
        "distance_elbow_joint": 0.4496342394046642,
        "distance_shoulder_lift_joint": 0.23558835859000293,
        "distance_shoulder_pan_joint": 0.46271419471001424,
        "distance_wrist_1_joint": 0.23893700170553045,
        "distance_wrist_2_joint": 1.095382021450566,
        "distance_wrist_3_joint": 0.1004079100777795,
        "smoothness": 4.440892098500626e-16,
        "time": 0.10854989699999999,
        "traj_len": 1.6070668081752413,
        "weighted_distance": 2.02923595701688
    },
    "planner": "STRIDE",
    "start": {
        "state": {
            "elbow_joint": 1.9715463870305268,
            "shoulder_lift_joint": -1.1394903361783484,
            "shoulder_pan_joint": 0.12281147578464417,
            "wrist_1_joint": -0.7804599489681411,
            "wrist_2_joint": 0.12958660307563738,
            "wrist_3_joint": -3.1924946282119055
        }
    },
    "waypoints": [
        {
            "positions": [
                0.12281147578464417,
                -1.1394903361783484,
                1.9715463870305268,
                -0.7804599489681411,
                0.12958660307563738,
                -3.1924946282119055
            ]
        },
        {
            "positions": [
                0.05670944796892785,
                -1.1731458159769201,
                2.035779849802622,
                -0.8145938063546454,
                0.2860697489971468,
                -3.178150641057937
            ]
        },
        {
            "positions": [
                -0.00939257984678847,
                -1.2068012957754921,
                2.1000133125747165,
                -0.8487276637411498,
                0.44255289491865624,
                -3.1638066539039684
            ]
        },
        {
            "positions": [
                -0.07549460766250478,
                -1.2404567755740639,
                2.1642467753468115,
                -0.8828615211276541,
                0.5990360408401657,
                -3.14946266675
            ]
        },
        {
            "positions": [
                -0.1415966354782211,
                -1.2741122553726358,
                2.228480238118906,
                -0.9169953785141585,
                0.7555191867616752,
                -3.1351186795960317
            ]
        },
        {
            "positions": [
                -0.20769866329393744,
                -1.3077677351712076,
                2.2927137008910012,
                -0.9511292359006629,
                0.9120023326831846,
                -3.120774692442063
            ]
        },
        {
            "positions": [
                -0.2738006911096537,
                -1.3414232149697796,
                2.356947163663096,
                -0.9852630932871671,
                1.068485478604694,
                -3.1064307052880946
            ]
        },
        {
            "positions": [
                -0.33990271892537005,
                -1.3750786947683513,
                2.421180626435191,
                -1.0193969506736715,
                1.2249686245262035,
                -3.092086718134126
            ]
        }
    ]
}