{
    "goal": {
        "global_pose": {
            "orientation": {
                "w": 0.7047431468963623,
                "x": -0.7094548344612122,
                "y": 0.0024358443915843964,
                "z": -0.0022348060738295317
            },
            "position": {
                "x": 0.6094750761985779,
                "y": 0.3671506643295288,
                "z": 0.19426114857196808
            }
        },
        "name": "move_to_magneteinheit_A"
    },
    "id": "STRIDE_move_to_magneteinheit_A_59",
    "joint_names": [
        "shoulder_pan_joint",
        "shoulder_lift_joint",
        "elbow_joint",
        "wrist_1_joint",
        "wrist_2_joint",
        "wrist_3_joint"
    ],
    "metrics": {
        "cart_traj_len": 1.870173184218091,
        "distance_elbow_joint": 3.9303628602292973,
        "distance_shoulder_lift_joint": 0.7090646953458045,
        "distance_shoulder_pan_joint": 1.242215571598603,
        "distance_wrist_1_joint": 1.5551340614919391,
        "distance_wrist_2_joint": 1.7079939940405682,
        "distance_wrist_3_joint": 1.1899327865557172,
        "smoothness": 6.978544714237978e-16,
        "time": 0.318665354,
        "traj_len": 3.214763439082561,
        "weighted_distance": 3.9972112275817837
    },
    "planner": "STRIDE",
    "start": {
        "state": {
            "elbow_joint": -1.919643507792019,
            "shoulder_lift_joint": -0.07675430207160344,
            "shoulder_pan_joint": -1.1188671864651873,
            "wrist_1_joint": 0.42560062535961957,
            "wrist_2_joint": 1.5706038300724876,
            "wrist_3_joint": 1.1188968870953055
        }
    },
    "waypoints": [
        {
            "positions": [
                -1.1188671864651873,
                -0.07675430207160344,
                -1.919643507792019,
                0.42560062535961957,
                1.5706038300724876,
                1.1188968870953055
            ]
        },
        {
            "positions": [
                -1.0728592023319057,
                -0.1030159574547814,
                -1.7740745129687119,
                0.48319818319265434,
                1.5073447932561703,
                1.0748253024080567
            ]
        },
        {
            "positions": [
                -1.0268512181986242,
                -0.12927761283795935,
                -1.6285055181454045,
                0.5407957410256892,
                1.4440857564398528,
                1.030753717720808
            ]
        },
        {
            "positions": [
                -0.9808432340653426,
                -0.15553926822113728,
                -1.4829365233220972,
                0.5983932988587239,
                1.3808267196235355,
                0.9866821330335592
            ]
        },
        {
            "positions": [
                -0.934835249932061,
                -0.18180092360431524,
                -1.33736752849879,
                0.6559908566917587,
                1.3175676828072183,
                0.9426105483463104
            ]
        },
        {
            "positions": [
                -0.8888272657987795,
                -0.20806257898749317,
                -1.1917985336754826,
                0.7135884145247935,
                1.254308645990901,
                0.8985389636590616
            ]
        },
        {
            "positions": [
                -0.8428192816654978,
                -0.23432423437067113,
                -1.0462295388521752,
                0.7711859723578283,
                1.1910496091745837,
                0.8544673789718129
            ]
        },
        {
            "positions": [
                -0.7968112975322162,
                -0.2605858897538491,
                -0.900660544028868,
                0.828783530190863,
                1.1277905723582662,
                0.8103957942845641
            ]
        },
        {
            "positions": [
                -0.7508033133989347,
                -0.28684754513702704,
                -0.7550915492055608,
                0.8863810880238978,
                1.064531535541949,
                0.7663242095973153
            ]
        },
        {
            "positions": [
                -0.704795329265653,
                -0.31310920052020497,
                -0.6095225543822533,
                0.9439786458569326,
                1.0012724987256316,
                0.7222526249100665
            ]
        },
        {
            "positions": [
                -0.6587873451323715,
                -0.3393708559033829,
                -0.4639535595589461,
                1.0015762036899674,
                0.9380134619093142,
                0.6781810402228177
            ]
        },
        {
            "positions": [
                -0.6127793609990899,
                -0.3656325112865609,
                -0.3183845647356389,
                1.0591737615230021,
                0.874754425092997,
                0.6341094555355689
            ]
        },
        {
            "positions": [
                -0.5667713768658083,
                -0.3918941666697388,
                -0.1728155699123315,
                1.116771319356037,
                0.8114953882766796,
                0.5900378708483202
            ]
        },
        {
            "positions": [
                -0.5207633927325267,
                -0.41815582205291674,
                -0.027246575089024283,
                1.1743688771890717,
                0.7482363514603623,
                0.5459662861610713
            ]
        },
        {
            "positions": [
                -0.47475540859924514,
                -0.4444174774360947,
                0.11832241973428315,
                1.2319664350221065,
                0.6849773146440449,
                0.5018947014738225
            ]
        },
        {
            "positions": [
                -0.4287474244659635,
                -0.4706791328192727,
                0.2638914145575908,
                1.2895639928551412,
                0.6217182778277275,
                0.4578231167865737
            ]
        },
        {
            "positions": [
                -0.3827394403326819,
                -0.49694078820245063,
                0.40946040938089756,
                1.347161550688176,
                0.5584592410114102,
                0.413751532099325
            ]
        },
        {
            "positions": [
                -0.33673145619940026,
                -0.5232024435856286,
                0.5550294042042052,
                1.404759108521211,
                0.4952002041950927,
                0.3696799474120762
            ]
        },
        {
            "positions": [
                -0.2907234720661187,
                -0.5494640989688064,
                0.7005983990275124,
                1.4623566663542455,
                0.43194116737877564,
                0.3256083627248274
            ]
        },
        {
            "positions": [
                -0.24471548793283704,
                -0.5757257543519845,
                0.8461673938508196,
                1.5199542241872805,
                0.36868213056245813,
                0.2815367780375786
            ]
        },
        {
            "positions": [
                -0.1987075037995556,
                -0.6019874097351623,
                0.9917363886741268,
                1.577551782020315,
                0.30542309374614085,
                0.2374651933503299
            ]
        },
        {
            "positions": [
                -0.15269951966627393,
                -0.6282490651183403,
                1.1373053834974345,
                1.63514933985335,
                0.24216405692982335,
                0.19339360866308108
            ]
        },
        {
            "positions": [
                -0.10669153553299249,
                -0.6545107205015184,
                1.2828743783207412,
                1.6927468976863846,
                0.17890502011350629,
                0.14932202397583227
            ]
        },
        {
            "positions": [
                -0.06068355139971082,
                -0.6807723758846962,
                1.428443373144049,
                1.7503444555194196,
                0.11564598329718878,
                0.10525043928858357
            ]
        },
        {
            "positions": [
                -0.014675567266429157,
                -0.7070340312678742,
                1.574012367967356,
                1.8079420133524544,
                0.0523869464808715,
                0.061178854601334764
            ]
        },
        {
            "positions": [
                0.03133241686685251,
                -0.7332956866510523,
                1.7195813627906638,
                1.8655395711854892,
                -0.010872090335446005,
                0.017107269914085954
            ]
        },
        {
            "positions": [
                0.07734040100013395,
                -0.7595573420342301,
                1.8651503576139705,
                1.923137129018524,
                -0.07413112715176307,
                -0.026964314773162856
            ]
        },
        {
            "positions": [
                0.12334838513341563,
                -0.785818997417408,
                2.0107193524372784,
                1.9807346868515587,
                -0.13739016396808065,
                -0.0710358994604116
            ]
        }
    ]
}