{
    "goal": {
        "global_pose": {
            "orientation": {
                "w": 0.5084816217422485,
                "x": -0.49083608388900757,
                "y": 0.5182115435600281,
                "z": -0.4816462993621826
            },
            "position": {
                "x": 0.5540239810943604,
                "y": 0.030875300988554955,
                "z": 0.16403168439865112
            }
        },
        "name": "move_to_storage_A"
    },
    "id": "STRIDE_move_to_storage_A_130",
    "joint_names": [
        "shoulder_pan_joint",
        "shoulder_lift_joint",
        "elbow_joint",
        "wrist_1_joint",
        "wrist_2_joint",
        "wrist_3_joint"
    ],
    "metrics": {
        "cart_traj_len": 0.35294271655890047,
        "distance_elbow_joint": 0.45190451607699167,
        "distance_shoulder_lift_joint": 0.2346434406307898,
        "distance_shoulder_pan_joint": 0.4624023078382284,
        "distance_wrist_1_joint": 0.25291424059028966,
        "distance_wrist_2_joint": 1.0948467699908442,
        "distance_wrist_3_joint": 0.09807144103087495,
        "smoothness": 2.2204460668324854e-16,
        "time": 0.088678075,
        "traj_len": 1.61083292620868,
        "weighted_distance": 2.0343762210566907
    },
    "planner": "STRIDE",
    "start": {
        "state": {
            "elbow_joint": 1.9715463870305268,
            "shoulder_lift_joint": -1.1394903361783484,
            "shoulder_pan_joint": 0.12281147578464417,
            "wrist_1_joint": -0.7804599489681411,
            "wrist_2_joint": 0.12958660307563738,
            "wrist_3_joint": -3.1924946282119055
        }
    },
    "waypoints": [
        {
            "positions": [
                0.12281147578464417,
                -1.1394903361783484,
                1.9715463870305268,
                -0.7804599489681411,
                0.12958660307563738,
                -3.1924946282119055
            ]
        },
        {
            "positions": [
                0.05675400323632583,
                -1.1730108276970326,
                2.0361041750415256,
                -0.8165905547667539,
                0.28599328450290085,
                -3.178484422350352
            ]
        },
        {
            "positions": [
                -0.00930346931199251,
                -1.206531319215717,
                2.1006619630525245,
                -0.8527211605653667,
                0.4423999659301643,
                -3.1644742164887982
            ]
        },
        {
            "positions": [
                -0.07536094186031085,
                -1.2400518107344012,
                2.1652197510635234,
                -0.8888517663639794,
                0.5988066473574277,
                -3.150464010627245
            ]
        },
        {
            "positions": [
                -0.14141841440862918,
                -1.2735723022530854,
                2.229777539074522,
                -0.9249823721625923,
                0.7552133287846912,
                -3.1364538047656914
            ]
        },
        {
            "positions": [
                -0.20747588695694752,
                -1.3070927937717696,
                2.2943353270855207,
                -0.9611129779612051,
                0.9116200102119547,
                -3.122443598904138
            ]
        },
        {
            "positions": [
                -0.27353335950526586,
                -1.340613285290454,
                2.3588931150965196,
                -0.9972435837598179,
                1.068026691639218,
                -3.108433393042584
            ]
        },
        {
            "positions": [
                -0.3395908320535842,
                -1.3741337768091382,
                2.4234509031075184,
                -1.0333741895584307,
                1.2244333730664816,
                -3.0944231871810306
            ]
        }
    ]
}