{
    "goal": {
        "global_pose": {
            "orientation": {
                "w": 0.5084816217422485,
                "x": -0.49083608388900757,
                "y": 0.5182115435600281,
                "z": -0.4816462993621826
            },
            "position": {
                "x": 0.5540239810943604,
                "y": 0.030875300988554955,
                "z": 0.16403168439865112
            }
        },
        "name": "move_to_storage_A"
    },
    "id": "STRIDE_move_to_storage_A_90",
    "joint_names": [
        "shoulder_pan_joint",
        "shoulder_lift_joint",
        "elbow_joint",
        "wrist_1_joint",
        "wrist_2_joint",
        "wrist_3_joint"
    ],
    "metrics": {
        "cart_traj_len": 0.3531760418271339,
        "distance_elbow_joint": 0.44893258489815047,
        "distance_shoulder_lift_joint": 0.23573929154783757,
        "distance_shoulder_pan_joint": 0.4638392283704824,
        "distance_wrist_1_joint": 0.23586627188799947,
        "distance_wrist_2_joint": 1.0909147361496934,
        "distance_wrist_3_joint": 0.10320612181598898,
        "smoothness": 1.3322676365830568e-15,
        "time": 0.044196622000000005,
        "traj_len": 1.6057702932456286,
        "weighted_distance": 2.027730624698415
    },
    "planner": "STRIDE",
    "start": {
        "state": {
            "elbow_joint": 1.9715463870305268,
            "shoulder_lift_joint": -1.1394903361783484,
            "shoulder_pan_joint": 0.12281147578464417,
            "wrist_1_joint": -0.7804599489681411,
            "wrist_2_joint": 0.12958660307563738,
            "wrist_3_joint": -3.1924946282119055
        }
    },
    "waypoints": [
        {
            "positions": [
                0.12281147578464417,
                -1.1394903361783484,
                1.9715463870305268,
                -0.7804599489681411,
                0.12958660307563738,
                -3.1924946282119055
            ]
        },
        {
            "positions": [
                0.056548728874575266,
                -1.1731673778280394,
                2.035679613444548,
                -0.8141551306664268,
                0.2854315653827364,
                -3.177750896523907
            ]
        },
        {
            "positions": [
                -0.00971401803549364,
                -1.2068444194777306,
                2.09981283985857,
                -0.8478503123647123,
                0.4412765276898355,
                -3.163007164835909
            ]
        },
        {
            "positions": [
                -0.07597676494556256,
                -1.2405214611274216,
                2.163946066272591,
                -0.881545494062998,
                0.5971214899969345,
                -3.1482634331479105
            ]
        },
        {
            "positions": [
                -0.14223951185563144,
                -1.2741985027771128,
                2.228079292686613,
                -0.9152406757612837,
                0.7529664523040336,
                -3.1335197014599117
            ]
        },
        {
            "positions": [
                -0.2085022587657004,
                -1.3078755444268038,
                2.292212519100634,
                -0.9489358574595692,
                0.9088114146111327,
                -3.1187759697719133
            ]
        },
        {
            "positions": [
                -0.2747650056757693,
                -1.341552586076495,
                2.3563457455146555,
                -0.9826310391578549,
                1.0646563769182316,
                -3.104032238083915
            ]
        },
        {
            "positions": [
                -0.34102775258583823,
                -1.375229627726186,
                2.4204789719286772,
                -1.0163262208561405,
                1.2205013392253308,
                -3.0892885063959166
            ]
        }
    ]
}