{
    "goal": {
        "global_pose": {
            "orientation": {
                "w": 0.5084816217422485,
                "x": -0.49083608388900757,
                "y": 0.5182115435600281,
                "z": -0.4816462993621826
            },
            "position": {
                "x": 0.5540239810943604,
                "y": 0.030875300988554955,
                "z": 0.16403168439865112
            }
        },
        "name": "move_to_storage_A"
    },
    "id": "STRIDE_move_to_storage_A_40",
    "joint_names": [
        "shoulder_pan_joint",
        "shoulder_lift_joint",
        "elbow_joint",
        "wrist_1_joint",
        "wrist_2_joint",
        "wrist_3_joint"
    ],
    "metrics": {
        "cart_traj_len": 0.35251485736472454,
        "distance_elbow_joint": 0.4513702376215609,
        "distance_shoulder_lift_joint": 0.23421352728546063,
        "distance_shoulder_pan_joint": 0.45820076021864936,
        "distance_wrist_1_joint": 0.25048560798095354,
        "distance_wrist_2_joint": 1.1095938986036937,
        "distance_wrist_3_joint": 0.09263511721800377,
        "smoothness": 1.7763568394002505e-15,
        "time": 0.014128755,
        "traj_len": 1.6113656161555396,
        "weighted_distance": 2.035153284140774
    },
    "planner": "STRIDE",
    "start": {
        "state": {
            "elbow_joint": 1.9715463870305268,
            "shoulder_lift_joint": -1.1394903361783484,
            "shoulder_pan_joint": 0.12281147578464417,
            "wrist_1_joint": -0.7804599489681411,
            "wrist_2_joint": 0.12958660307563738,
            "wrist_3_joint": -3.1924946282119055
        }
    },
    "waypoints": [
        {
            "positions": [
                0.12281147578464417,
                -1.1394903361783484,
                1.9715463870305268,
                -0.7804599489681411,
                0.12958660307563738,
                -3.1924946282119055
            ]
        },
        {
            "positions": [
                0.057354224324837125,
                -1.1729494115048427,
                2.0360278495478927,
                -0.8162436072511344,
                0.28810001716187933,
                -3.179261040037905
            ]
        },
        {
            "positions": [
                -0.008103027134969923,
                -1.2064084868313372,
                2.1005093120652583,
                -0.8520272655341278,
                0.44661343124812125,
                -3.1660274518639047
            ]
        },
        {
            "positions": [
                -0.07356027859477697,
                -1.2398675621578314,
                2.1649907745826242,
                -0.8878109238171211,
                0.6051268453343632,
                -3.152793863689904
            ]
        },
        {
            "positions": [
                -0.139017530054584,
                -1.273326637484326,
                2.22947223709999,
                -0.9235945821001146,
                0.7636402594206052,
                -3.1395602755159033
            ]
        },
        {
            "positions": [
                -0.20447478151439108,
                -1.3067857128108202,
                2.293953699617356,
                -0.9593782403831079,
                0.9221536735068472,
                -3.1263266873419027
            ]
        },
        {
            "positions": [
                -0.2699320329741981,
                -1.3402447881373147,
                2.3584351621347217,
                -0.9951618986661013,
                1.080667087593089,
                -3.1130930991679024
            ]
        },
        {
            "positions": [
                -0.3353892844340052,
                -1.373703863463809,
                2.4229166246520877,
                -1.0309455569490946,
                1.2391805016793311,
                -3.099859510993902
            ]
        }
    ]
}