{
    "goal": {
        "global_pose": {
            "orientation": {
                "w": 0.5084816217422485,
                "x": -0.49083608388900757,
                "y": 0.5182115435600281,
                "z": -0.4816462993621826
            },
            "position": {
                "x": 0.5540239810943604,
                "y": 0.030875300988554955,
                "z": 0.16403168439865112
            }
        },
        "name": "move_to_storage_A"
    },
    "id": "STRIDE_move_to_storage_A_142",
    "joint_names": [
        "shoulder_pan_joint",
        "shoulder_lift_joint",
        "elbow_joint",
        "wrist_1_joint",
        "wrist_2_joint",
        "wrist_3_joint"
    ],
    "metrics": {
        "cart_traj_len": 0.3535905833085072,
        "distance_elbow_joint": 0.4539561971566104,
        "distance_shoulder_lift_joint": 0.23339617177431804,
        "distance_shoulder_pan_joint": 0.4626851300496213,
        "distance_wrist_1_joint": 0.2571337767643366,
        "distance_wrist_2_joint": 1.098731351433617,
        "distance_wrist_3_joint": 0.09106083408173493,
        "smoothness": 1.2212453303493559e-15,
        "time": 0.011402015,
        "traj_len": 1.611509683886584,
        "weighted_distance": 2.033457709818835
    },
    "planner": "STRIDE",
    "start": {
        "state": {
            "elbow_joint": 1.9715463870305268,
            "shoulder_lift_joint": -1.1394903361783484,
            "shoulder_pan_joint": 0.12281147578464417,
            "wrist_1_joint": -0.7804599489681411,
            "wrist_2_joint": 0.12958660307563738,
            "wrist_3_joint": -3.1924946282119055
        }
    },
    "waypoints": [
        {
            "positions": [
                0.12281147578464417,
                -1.1394903361783484,
                1.9715463870305268,
                -0.7804599489681411,
                0.12958660307563738,
                -3.1924946282119055
            ]
        },
        {
            "positions": [
                0.0567136000632697,
                -1.1728326464318224,
                2.036397272338614,
                -0.8171933456487606,
                0.2865482247090112,
                -3.1794859376288005
            ]
        },
        {
            "positions": [
                -0.009384275658104776,
                -1.2061749566852964,
                2.101248157646701,
                -0.8539267423293802,
                0.4435098463423851,
                -3.1664772470456954
            ]
        },
        {
            "positions": [
                -0.07548215137947924,
                -1.2395172669387704,
                2.166099042954788,
                -0.8906601390099996,
                0.6004714679757589,
                -3.1534685564625904
            ]
        },
        {
            "positions": [
                -0.1415800271008537,
                -1.2728595771922444,
                2.2309499282628753,
                -0.9273935356906191,
                0.7574330896091328,
                -3.140459865879486
            ]
        },
        {
            "positions": [
                -0.2076779028222282,
                -1.3062018874457184,
                2.295800813570963,
                -0.9641269323712387,
                0.9143947112425067,
                -3.1274511752963807
            ]
        },
        {
            "positions": [
                -0.27377577854360263,
                -1.3395441976991924,
                2.36065169887905,
                -1.000860329051858,
                1.0713563328758804,
                -3.1144424847132757
            ]
        },
        {
            "positions": [
                -0.3398736542649771,
                -1.3728865079526664,
                2.425502584187137,
                -1.0375937257324777,
                1.2283179545092544,
                -3.1014337941301706
            ]
        }
    ]
}