{
    "goal": {
        "global_pose": {
            "orientation": {
                "w": 0.5084816217422485,
                "x": -0.49083608388900757,
                "y": 0.5182115435600281,
                "z": -0.4816462993621826
            },
            "position": {
                "x": 0.5540239810943604,
                "y": 0.030875300988554955,
                "z": 0.16403168439865112
            }
        },
        "name": "move_to_storage_A"
    },
    "id": "STRIDE_move_to_storage_A_45",
    "joint_names": [
        "shoulder_pan_joint",
        "shoulder_lift_joint",
        "elbow_joint",
        "wrist_1_joint",
        "wrist_2_joint",
        "wrist_3_joint"
    ],
    "metrics": {
        "cart_traj_len": 0.3526291306290942,
        "distance_elbow_joint": 0.447222782836159,
        "distance_shoulder_lift_joint": 0.23451196934601115,
        "distance_shoulder_pan_joint": 0.46080355674121837,
        "distance_wrist_1_joint": 0.23599047960289743,
        "distance_wrist_2_joint": 1.0985955542135881,
        "distance_wrist_3_joint": 0.10326375962429202,
        "smoothness": 4.440892098500626e-16,
        "time": 0.048290409,
        "traj_len": 1.6063586468669337,
        "weighted_distance": 2.03014818558381
    },
    "planner": "STRIDE",
    "start": {
        "state": {
            "elbow_joint": 1.9715463870305268,
            "shoulder_lift_joint": -1.1394903361783484,
            "shoulder_pan_joint": 0.12281147578464417,
            "wrist_1_joint": -0.7804599489681411,
            "wrist_2_joint": 0.12958660307563738,
            "wrist_3_joint": -3.1924946282119055
        }
    },
    "waypoints": [
        {
            "positions": [
                0.12281147578464417,
                -1.1394903361783484,
                1.9715463870305268,
                -0.7804599489681411,
                0.12958660307563738,
                -3.1924946282119055
            ]
        },
        {
            "positions": [
                0.056982396250184406,
                -1.1729920460849215,
                2.0354353560071208,
                -0.8141728746256979,
                0.28652882510614996,
                -3.1777426625512923
            ]
        },
        {
            "positions": [
                -0.008846683284275361,
                -1.2064937559914943,
                2.0993243249837152,
                -0.8478858002832547,
                0.4434710471366625,
                -3.162990696890679
            ]
        },
        {
            "positions": [
                -0.07467576281873513,
                -1.2399954658980674,
                2.1632132939603093,
                -0.8815987259408113,
                0.6004132691671751,
                -3.148238731230066
            ]
        },
        {
            "positions": [
                -0.14050484235319488,
                -1.2734971758046405,
                2.2271022629369033,
                -0.9153116515983681,
                0.7573554911976877,
                -3.133486765569453
            ]
        },
        {
            "positions": [
                -0.20633392188765465,
                -1.3069988857112136,
                2.2909912319134973,
                -0.9490245772559249,
                0.9142977132282004,
                -3.11873479990884
            ]
        },
        {
            "positions": [
                -0.2721630014221144,
                -1.3405005956177865,
                2.3548802008900918,
                -0.9827375029134817,
                1.0712399352587127,
                -3.1039828342482267
            ]
        },
        {
            "positions": [
                -0.3379920809565742,
                -1.3740023055243595,
                2.4187691698666858,
                -1.0164504285710385,
                1.2281821572892255,
                -3.0892308685876135
            ]
        }
    ]
}