{
    "goal": {
        "global_pose": {
            "orientation": {
                "w": 0.7047431468963623,
                "x": -0.7094548344612122,
                "y": 0.0024358443915843964,
                "z": -0.0022348060738295317
            },
            "position": {
                "x": 0.6094750761985779,
                "y": 0.3671506643295288,
                "z": 0.19426114857196808
            }
        },
        "name": "move_to_magneteinheit_A"
    },
    "id": "STRIDE_move_to_magneteinheit_A_99",
    "joint_names": [
        "shoulder_pan_joint",
        "shoulder_lift_joint",
        "elbow_joint",
        "wrist_1_joint",
        "wrist_2_joint",
        "wrist_3_joint"
    ],
    "metrics": {
        "cart_traj_len": 2.0655399488040005,
        "distance_elbow_joint": 3.8834105919391453,
        "distance_shoulder_lift_joint": 1.0581962361317885,
        "distance_shoulder_pan_joint": 1.2413313415632876,
        "distance_wrist_1_joint": 1.1708248150660636,
        "distance_wrist_2_joint": 1.4384441663663878,
        "distance_wrist_3_joint": 1.933334991906904,
        "smoothness": 6.125368425673074e-16,
        "time": 0.397846467,
        "traj_len": 3.274987350047871,
        "weighted_distance": 4.147466830273611
    },
    "planner": "STRIDE",
    "start": {
        "state": {
            "elbow_joint": -1.919643507792019,
            "shoulder_lift_joint": -0.07675430207160344,
            "shoulder_pan_joint": -1.1188671864651873,
            "wrist_1_joint": 0.42560062535961957,
            "wrist_2_joint": 1.5706038300724876,
            "wrist_3_joint": 1.1188968870953055
        }
    },
    "waypoints": [
        {
            "positions": [
                -1.1188671864651873,
                -0.07675430207160344,
                -1.919643507792019,
                0.42560062535961957,
                1.5706038300724876,
                1.1188968870953055
            ]
        },
        {
            "positions": [
                -1.0745339242664984,
                -0.11454702479059589,
                -1.780950272365621,
                0.38378545339297443,
                1.519230824130831,
                1.187944565377695
            ]
        },
        {
            "positions": [
                -1.0302006620678097,
                -0.15233974750958834,
                -1.642257036939223,
                0.3419702814263293,
                1.4678578181891742,
                1.2569922436600844
            ]
        },
        {
            "positions": [
                -0.9858673998691209,
                -0.19013247022858076,
                -1.503563801512825,
                0.30015510945968416,
                1.4164848122475175,
                1.3260399219424739
            ]
        },
        {
            "positions": [
                -0.941534137670432,
                -0.2279251929475732,
                -1.3648705660864269,
                0.2583399374930391,
                1.3651118063058607,
                1.3950876002248633
            ]
        },
        {
            "positions": [
                -0.8972008754717431,
                -0.26571791566656566,
                -1.226177330660029,
                0.2165247655263939,
                1.313738800364204,
                1.4641352785072528
            ]
        },
        {
            "positions": [
                -0.8528676132730544,
                -0.30351063838555814,
                -1.0874840952336309,
                0.1747095935597488,
                1.2623657944225473,
                1.5331829567896422
            ]
        },
        {
            "positions": [
                -0.8085343510743654,
                -0.34130336110455056,
                -0.9487908598072328,
                0.13289442159310366,
                1.2109927884808906,
                1.6022306350720315
            ]
        },
        {
            "positions": [
                -0.7642010888756766,
                -0.379096083823543,
                -0.8100976243808349,
                0.09107924962645852,
                1.159619782539234,
                1.6712783133544211
            ]
        },
        {
            "positions": [
                -0.7198678266769878,
                -0.41688880654253546,
                -0.6714043889544365,
                0.04926407765981339,
                1.1082467765975772,
                1.7403259916368103
            ]
        },
        {
            "positions": [
                -0.6755345644782988,
                -0.4546815292615279,
                -0.5327111535280387,
                0.007448905693168251,
                1.0568737706559204,
                1.8093736699192
            ]
        },
        {
            "positions": [
                -0.6312013022796101,
                -0.49247425198052036,
                -0.39401791810164055,
                -0.03436626627347683,
                1.005500764714264,
                1.8784213482015892
            ]
        },
        {
            "positions": [
                -0.5868680400809213,
                -0.5302669746995128,
                -0.25532468267524266,
                -0.07618143824012197,
                0.9541277587726071,
                1.9474690264839787
            ]
        },
        {
            "positions": [
                -0.5425347778822324,
                -0.5680596974185053,
                -0.11663144724884433,
                -0.11799661020676716,
                0.9027547528309504,
                2.016516704766368
            ]
        },
        {
            "positions": [
                -0.49820151568354354,
                -0.6058524201374977,
                0.022061788177553554,
                -0.15981178217341224,
                0.8513817468892937,
                2.085564383048758
            ]
        },
        {
            "positions": [
                -0.4538682534848547,
                -0.6436451428564902,
                0.16075502360395144,
                -0.20162695414005732,
                0.800008740947637,
                2.154612061331147
            ]
        },
        {
            "positions": [
                -0.4095349912861659,
                -0.6814378655754825,
                0.29944825903034933,
                -0.24344212610670252,
                0.7486357350059804,
                2.2236597396135362
            ]
        },
        {
            "positions": [
                -0.36520172908747706,
                -0.719230588294475,
                0.43814149445674766,
                -0.2852572980733476,
                0.6972627290643236,
                2.292707417895926
            ]
        },
        {
            "positions": [
                -0.3208684668887881,
                -0.7570233110134674,
                0.576834729883146,
                -0.3270724700399928,
                0.6458897231226668,
                2.3617550961783156
            ]
        },
        {
            "positions": [
                -0.2765352046900993,
                -0.7948160337324599,
                0.7155279653095439,
                -0.3688876420066379,
                0.5945167171810101,
                2.430802774460705
            ]
        },
        {
            "positions": [
                -0.23220194249141046,
                -0.8326087564514524,
                0.8542212007359418,
                -0.41070281397328307,
                0.5431437112393533,
                2.499850452743094
            ]
        },
        {
            "positions": [
                -0.18786868029272163,
                -0.8704014791704449,
                0.9929144361623397,
                -0.45251798593992815,
                0.49177070529769673,
                2.5688981310254837
            ]
        },
        {
            "positions": [
                -0.1435354180940328,
                -0.9081942018894373,
                1.131607671588738,
                -0.49433315790657323,
                0.4403976993560401,
                2.637945809307873
            ]
        },
        {
            "positions": [
                -0.09920215589534398,
                -0.9459869246084296,
                1.2703009070151359,
                -0.5361483298732184,
                0.3890246934143833,
                2.706993487590262
            ]
        },
        {
            "positions": [
                -0.05486889369665526,
                -0.9837796473274221,
                1.4089941424415338,
                -0.5779635018398634,
                0.33765168747272667,
                2.776041165872652
            ]
        },
        {
            "positions": [
                -0.010535631497966103,
                -1.0215723700464145,
                1.547687377867932,
                -0.6197786738065088,
                0.28627868153106983,
                2.8450888441550415
            ]
        },
        {
            "positions": [
                0.033797630700722614,
                -1.059365092765407,
                1.6863806132943304,
                -0.6615938457731538,
                0.23490567558941322,
                2.9141365224374307
            ]
        },
        {
            "positions": [
                0.07813089289941155,
                -1.0971578154843995,
                1.8250738487207283,
                -0.7034090177397989,
                0.18353266964775639,
                2.98318420071982
            ]
        },
        {
            "positions": [
                0.12246415509810034,
                -1.134950538203392,
                1.963767084147126,
                -0.745224189706444,
                0.13215966370609974,
                3.0522318790022096
            ]
        }
    ]
}