{
    "goal": {
        "global_pose": {
            "orientation": {
                "w": 0.5084816217422485,
                "x": -0.49083608388900757,
                "y": 0.5182115435600281,
                "z": -0.4816462993621826
            },
            "position": {
                "x": 0.5540239810943604,
                "y": 0.030875300988554955,
                "z": 0.16403168439865112
            }
        },
        "name": "move_to_storage_A"
    },
    "id": "STRIDE_move_to_storage_A_108",
    "joint_names": [
        "shoulder_pan_joint",
        "shoulder_lift_joint",
        "elbow_joint",
        "wrist_1_joint",
        "wrist_2_joint",
        "wrist_3_joint"
    ],
    "metrics": {
        "cart_traj_len": 0.35318265301376284,
        "distance_elbow_joint": 0.4526228128231877,
        "distance_shoulder_lift_joint": 0.23210460771845032,
        "distance_shoulder_pan_joint": 0.4617063468363693,
        "distance_wrist_1_joint": 0.25632944939833935,
        "distance_wrist_2_joint": 1.0988230060146011,
        "distance_wrist_3_joint": 0.10947750501899423,
        "smoothness": 1.1102230263833737e-15,
        "time": 0.067116922,
        "traj_len": 1.6158786240958638,
        "weighted_distance": 2.045769095783019
    },
    "planner": "STRIDE",
    "start": {
        "state": {
            "elbow_joint": 1.9715463870305268,
            "shoulder_lift_joint": -1.1394903361783484,
            "shoulder_pan_joint": 0.12281147578464417,
            "wrist_1_joint": -0.7804599489681411,
            "wrist_2_joint": 0.12958660307563738,
            "wrist_3_joint": -3.1924946282119055
        }
    },
    "waypoints": [
        {
            "positions": [
                0.12281147578464417,
                -1.1394903361783484,
                1.9715463870305268,
                -0.7804599489681411,
                0.12958660307563738,
                -3.1924946282119055
            ]
        },
        {
            "positions": [
                0.056853426236591426,
                -1.172648137280984,
                2.036206788862411,
                -0.8170784417393324,
                0.2865613182205804,
                -3.1768549846377634
            ]
        },
        {
            "positions": [
                -0.009104623311461321,
                -1.20580593838362,
                2.1008671906942946,
                -0.8536969345105238,
                0.4435360333655234,
                -3.1612153410636217
            ]
        },
        {
            "positions": [
                -0.07506267285951408,
                -1.2389637394862556,
                2.1655275925261788,
                -0.8903154272817151,
                0.6005107485104664,
                -3.1455756974894795
            ]
        },
        {
            "positions": [
                -0.1410207224075668,
                -1.2721215405888915,
                2.2301879943580625,
                -0.9269339200529064,
                0.7574854636554095,
                -3.1299360539153374
            ]
        },
        {
            "positions": [
                -0.2069787719556196,
                -1.3052793416915272,
                2.2948483961899466,
                -0.9635524128240978,
                0.9144601788003526,
                -3.114296410341195
            ]
        },
        {
            "positions": [
                -0.2729368215036723,
                -1.338437142794163,
                2.3595087980218303,
                -1.0001709055952892,
                1.0714348939452953,
                -3.0986567667670535
            ]
        },
        {
            "positions": [
                -0.3388948710517251,
                -1.3715949438967987,
                2.4241691998537145,
                -1.0367893983664804,
                1.2284096090902386,
                -3.0830171231929113
            ]
        }
    ]
}