{
    "goal": {
        "global_pose": {
            "orientation": {
                "w": 0.7031023502349854,
                "x": -0.7110244035720825,
                "y": 0.007748599164187908,
                "z": 0.005598929710686207
            },
            "position": {
                "x": 0.11585023208521307,
                "y": 0.44412534475326537,
                "z": 0.3711530566215515
            }
        },
        "name": "move_to_auspresseinheit_A"
    },
    "id": "STRIDE_move_to_auspresseinheit_A_61",
    "joint_names": [
        "shoulder_pan_joint",
        "shoulder_lift_joint",
        "elbow_joint",
        "wrist_1_joint",
        "wrist_2_joint",
        "wrist_3_joint"
    ],
    "metrics": {
        "cart_traj_len": 1.7002328409521288,
        "distance_elbow_joint": 1.3478185729959393,
        "distance_shoulder_lift_joint": 1.2255977642905906,
        "distance_shoulder_pan_joint": 1.0651904022789334,
        "distance_wrist_1_joint": 1.4969308644720987,
        "distance_wrist_2_joint": 0.6147877203897139,
        "distance_wrist_3_joint": 4.413201663274953,
        "smoothness": 0.780082839129644,
        "time": 0.24108489500000002,
        "traj_len": 3.1880286993222358,
        "weighted_distance": 4.593653110446406
    },
    "planner": "STRIDE",
    "start": {
        "state": {
            "elbow_joint": 2.422574709923281,
            "shoulder_lift_joint": -1.3736533754116391,
            "shoulder_pan_joint": -0.33786336945926293,
            "wrist_1_joint": -1.0288603412921917,
            "wrist_2_joint": 1.2330224858903978,
            "wrist_3_joint": -3.094022268022082
        }
    },
    "waypoints": [
        {
            "positions": [
                -0.33786336945926293,
                -1.3736533754116391,
                2.422574709923281,
                -1.0288603412921917,
                1.2330224858903978,
                -3.094022268022082
            ]
        },
        {
            "positions": [
                -0.3192967200075668,
                -1.446982682267921,
                2.3650854898801565,
                -0.9818143039366743,
                1.2372840645292735,
                -2.9120003666812844
            ]
        },
        {
            "positions": [
                -0.30073007055587064,
                -1.5203119891242027,
                2.307596269837032,
                -0.9347682665811569,
                1.241545643168149,
                -2.7299784653404866
            ]
        },
        {
            "positions": [
                -0.2821634211041745,
                -1.5936412959804847,
                2.2501070497939075,
                -0.8877222292256395,
                1.2458072218070249,
                -2.547956563999689
            ]
        },
        {
            "positions": [
                -0.2635967716524784,
                -1.6669706028367663,
                2.1926178297507826,
                -0.8406761918701221,
                1.2500688004459004,
                -2.365934662658891
            ]
        },
        {
            "positions": [
                -0.24503012220078224,
                -1.7402999096930483,
                2.135128609707658,
                -0.7936301545146046,
                1.2543303790847762,
                -2.1839127613180933
            ]
        },
        {
            "positions": [
                -0.2264634727490861,
                -1.8136292165493302,
                2.0776393896645335,
                -0.7465841171590872,
                1.258591957723652,
                -2.0018908599772955
            ]
        },
        {
            "positions": [
                -0.20789682329738995,
                -1.886958523405612,
                2.020150169621409,
                -0.6995380798035697,
                1.2628535363625275,
                -1.8198689586364978
            ]
        },
        {
            "positions": [
                -0.18933017384569384,
                -1.9602878302618938,
                1.9626609495782845,
                -0.6524920424480525,
                1.2671151150014033,
                -1.6378470572957
            ]
        },
        {
            "positions": [
                -0.17076352439399767,
                -2.033617137118176,
                1.9051717295351598,
                -0.605446005092535,
                1.2713766936402788,
                -1.4558251559549023
            ]
        },
        {
            "positions": [
                -0.15219687494230152,
                -2.106946443974458,
                1.847682509492035,
                -0.5583999677370175,
                1.2756382722791546,
                -1.2738032546141045
            ]
        },
        {
            "positions": [
                -0.1336302254906054,
                -2.1802757508307393,
                1.7901932894489105,
                -0.5113539303815002,
                1.2798998509180302,
                -1.0917813532733067
            ]
        },
        {
            "positions": [
                -0.11506357603890927,
                -2.2536050576870212,
                1.732704069405786,
                -0.46430789302598274,
                1.284161429556906,
                -0.9097594519325092
            ]
        },
        {
            "positions": [
                -0.022439140315095155,
                -2.2367772952489835,
                1.7951245011177905,
                -0.4121144398843174,
                1.2235345582249055,
                -1.019906879887231
            ]
        },
        {
            "positions": [
                0.07018529540871896,
                -2.219949532810946,
                1.8575449328297953,
                -0.35992098674265205,
                1.1629076868929054,
                -1.130054307841953
            ]
        },
        {
            "positions": [
                0.16280973113253305,
                -2.2031217703729085,
                1.9199653645417998,
                -0.3077275336009867,
                1.102280815560905,
                -1.2402017357966746
            ]
        },
        {
            "positions": [
                0.2554341668563472,
                -2.1862940079348707,
                1.9823857962538043,
                -0.25553408045932136,
                1.0416539442289046,
                -1.3503491637513965
            ]
        },
        {
            "positions": [
                0.34805860258016136,
                -2.1694662454968334,
                2.044806227965809,
                -0.203340627317656,
                0.9810270728969042,
                -1.4604965917061183
            ]
        },
        {
            "positions": [
                0.44068303830397537,
                -2.1526384830587957,
                2.1072266596778135,
                -0.15114717417599072,
                0.920400201564904,
                -1.5706440196608402
            ]
        },
        {
            "positions": [
                0.5333074740277896,
                -2.135810720620758,
                2.1696470913898183,
                -0.09895372103432537,
                0.8597733302329036,
                -1.680791447615562
            ]
        },
        {
            "positions": [
                0.6259319097516036,
                -2.1189829581827206,
                2.2320675231018225,
                -0.046760267892660023,
                0.7991464589009032,
                -1.790938875570284
            ]
        },
        {
            "positions": [
                0.7185563454754178,
                -2.102155195744683,
                2.2944879548138273,
                0.005433185249005349,
                0.7385195875689029,
                -1.9010863035250058
            ]
        },
        {
            "positions": [
                0.7170945642513757,
                -2.0697891590658712,
                2.3105152959922277,
                -0.07167303773947817,
                0.7355184317797024,
                -2.1073549694571527
            ]
        },
        {
            "positions": [
                0.7156327830273336,
                -2.0374231223870596,
                2.326542637170628,
                -0.1487792607279617,
                0.732517275990502,
                -2.3136236353893
            ]
        },
        {
            "positions": [
                0.7141710018032915,
                -2.005057085708248,
                2.3425699783490286,
                -0.22588548371644523,
                0.7295161202013016,
                -2.5198923013214474
            ]
        },
        {
            "positions": [
                0.7127092205792495,
                -1.972691049029436,
                2.3585973195274295,
                -0.30299170670492875,
                0.7265149644121012,
                -2.7261609672535942
            ]
        },
        {
            "positions": [
                0.7112474393552073,
                -1.9403250123506244,
                2.37462466070583,
                -0.38009792969341233,
                0.7235138086229007,
                -2.932429633185741
            ]
        },
        {
            "positions": [
                0.7097856581311652,
                -1.9079589756718127,
                2.3906520018842303,
                -0.45720415268189585,
                0.7205126528337003,
                -3.1386982991178884
            ]
        }
    ]
}