{
    "goal": {
        "global_pose": {
            "orientation": {
                "w": -0.00223480608172531,
                "x": 0.0024358444001904467,
                "y": 0.7094548369677653,
                "z": -0.704743149386269
            },
            "position": {
                "x": 0.6205249238014221,
                "y": -0.6371506643295288,
                "z": 0.19426114857196808
            }
        },
        "name": "move_to_magneteinheit_B"
    },
    "id": "TRRT_move_to_magneteinheit_B_19",
    "joint_names": [
        "shoulder_pan_joint",
        "shoulder_lift_joint",
        "elbow_joint",
        "wrist_1_joint",
        "wrist_2_joint",
        "wrist_3_joint"
    ],
    "metrics": {
        "cart_traj_len": 1.4523216956919631,
        "distance_elbow_joint": 0.7299581187264381,
        "distance_shoulder_lift_joint": 1.2489505702741164,
        "distance_shoulder_pan_joint": 1.6216537449603972,
        "distance_wrist_1_joint": 2.601829011042521,
        "distance_wrist_2_joint": 2.9363697027575757,
        "distance_wrist_3_joint": 3.1275143367784146,
        "smoothness": 1.665334550124364e-16,
        "time": 0.069502281,
        "traj_len": 3.5023242974544013,
        "weighted_distance": 4.905048712489652
    },
    "planner": "TRRT",
    "start": {
        "state": {
            "elbow_joint": 2.39358713078474,
            "shoulder_lift_joint": -1.908514104345545,
            "shoulder_pan_joint": 0.7066247066606129,
            "wrist_1_joint": -0.4678290933515497,
            "wrist_2_joint": 0.7096259083745334,
            "wrist_3_joint": -3.1358149277392293
        }
    },
    "waypoints": [
        {
            "positions": [
                0.7066247066606129,
                -1.908514104345545,
                2.39358713078474,
                -0.4678290933515497,
                0.7096259083745334,
                -3.1358149277392293
            ]
        },
        {
            "positions": [
                0.6543132955328582,
                -1.8682253762721863,
                2.3700400946967903,
                -0.38389912525340386,
                0.6149043050597729,
                -3.034927368488313
            ]
        },
        {
            "positions": [
                0.6020018844051035,
                -1.8279366481988277,
                2.3464930586088406,
                -0.29996915715525807,
                0.5201827017450125,
                -2.934039809237396
            ]
        },
        {
            "positions": [
                0.5496904732773487,
                -1.7876479201254691,
                2.3229460225208913,
                -0.21603918905711217,
                0.4254610984302519,
                -2.8331522499864796
            ]
        },
        {
            "positions": [
                0.49737906214959393,
                -1.7473591920521105,
                2.2993989864329416,
                -0.13210922095896638,
                0.33073949511549144,
                -2.7322646907355628
            ]
        },
        {
            "positions": [
                0.4450676510218392,
                -1.707070463978752,
                2.275851950344992,
                -0.04817925286082053,
                0.2360178918007309,
                -2.6313771314846464
            ]
        },
        {
            "positions": [
                0.3927562398940845,
                -1.6667817359053934,
                2.252304914257042,
                0.03575071523732537,
                0.14129628848597042,
                -2.53048957223373
            ]
        },
        {
            "positions": [
                0.3404448287663297,
                -1.6264930078320348,
                2.228757878169093,
                0.11968068333547116,
                0.046574685171209884,
                -2.429602012982813
            ]
        },
        {
            "positions": [
                0.288133417638575,
                -1.5862042797586762,
                2.205210842081143,
                0.20361065143361695,
                -0.04814691814355054,
                -2.3287144537318967
            ]
        },
        {
            "positions": [
                0.2358220065108202,
                -1.5459155516853176,
                2.1816638059931934,
                0.28754061953176296,
                -0.1428685214583112,
                -2.22782689448098
            ]
        },
        {
            "positions": [
                0.18351059538306547,
                -1.505626823611959,
                2.1581167699052437,
                0.37147058762990864,
                -0.23759012477307162,
                -2.1269393352300634
            ]
        },
        {
            "positions": [
                0.13119918425531074,
                -1.4653380955386004,
                2.1345697338172944,
                0.45540055572805455,
                -0.33231172808783216,
                -2.0260517759791465
            ]
        },
        {
            "positions": [
                0.07888777312755602,
                -1.4250493674652418,
                2.1110226977293447,
                0.5393305238262005,
                -0.4270333314025926,
                -1.9251642167282301
            ]
        },
        {
            "positions": [
                0.02657636199980118,
                -1.3847606393918832,
                2.087475661641395,
                0.6232604919243463,
                -0.5217549347173532,
                -1.8242766574773135
            ]
        },
        {
            "positions": [
                -0.025735049127953546,
                -1.3444719113185246,
                2.0639286255534453,
                0.7071904600224921,
                -0.6164765380321137,
                -1.7233890982263969
            ]
        },
        {
            "positions": [
                -0.07804646025570827,
                -1.304183183245166,
                2.040381589465496,
                0.7911204281206381,
                -0.7111981413468743,
                -1.6225015389754802
            ]
        },
        {
            "positions": [
                -0.130357871383463,
                -1.2638944551718074,
                2.0168345533775462,
                0.8750503962187837,
                -0.8059197446616345,
                -1.5216139797245638
            ]
        },
        {
            "positions": [
                -0.18266928251121772,
                -1.2236057270984488,
                1.9932875172895965,
                0.9589803643169295,
                -0.900641347976395,
                -1.4207264204736472
            ]
        },
        {
            "positions": [
                -0.23498069363897256,
                -1.1833169990250902,
                1.9697404812016468,
                1.0429103324150757,
                -0.9953629512911558,
                -1.3198388612227303
            ]
        },
        {
            "positions": [
                -0.2872921047667273,
                -1.1430282709517317,
                1.9461934451136973,
                1.1268403005132213,
                -1.0900845546059164,
                -1.218951301971814
            ]
        },
        {
            "positions": [
                -0.339603515894482,
                -1.102739542878373,
                1.9226464090257478,
                1.210770268611367,
                -1.1848061579206766,
                -1.1180637427208975
            ]
        },
        {
            "positions": [
                -0.39191492702223674,
                -1.0624508148050147,
                1.899099372937798,
                1.2947002367095128,
                -1.2795277612354372,
                -1.017176183469981
            ]
        },
        {
            "positions": [
                -0.44422633814999146,
                -1.0221620867316559,
                1.8755523368498483,
                1.3786302048076589,
                -1.3742493645501979,
                -0.9162886242190642
            ]
        },
        {
            "positions": [
                -0.4965377492777462,
                -0.9818733586582973,
                1.8520053007618988,
                1.4625601729058046,
                -1.4689709678649585,
                -0.8154010649681473
            ]
        },
        {
            "positions": [
                -0.5488491604055009,
                -0.9415846305849387,
                1.8284582646739493,
                1.5464901410039507,
                -1.5636925711797187,
                -0.7145135057172309
            ]
        },
        {
            "positions": [
                -0.6011605715332556,
                -0.9012959025115801,
                1.8049112285859996,
                1.6304201091020962,
                -1.6584141744944794,
                -0.6136259464663145
            ]
        },
        {
            "positions": [
                -0.6534719826610106,
                -0.8610071744382215,
                1.78136419249805,
                1.7143500772002422,
                -1.75313577780924,
                -0.5127383872153977
            ]
        },
        {
            "positions": [
                -0.7057833937887653,
                -0.8207184463648629,
                1.7578171564101004,
                1.7982800452983883,
                -1.8478573811240002,
                -0.41185082796448125
            ]
        },
        {
            "positions": [
                -0.75809480491652,
                -0.7804297182915043,
                1.7342701203221509,
                1.8822100133965338,
                -1.9425789844387609,
                -0.3109632687135644
            ]
        },
        {
            "positions": [
                -0.8104062160442745,
                -0.7401409902181457,
                1.7107230842342012,
                1.9661399814946794,
                -2.037300587753521,
                -0.21007570946264797
            ]
        },
        {
            "positions": [
                -0.8627176271720295,
                -0.6998522621447871,
                1.6871760481462514,
                2.050069949592826,
                -2.132022191068282,
                -0.10918815021173112
            ]
        },
        {
            "positions": [
                -0.9150290382997841,
                -0.6595635340714285,
                1.663629012058302,
                2.1339999176909714,
                -2.2267437943830424,
                -0.008300590960814775
            ]
        }
    ]
}