{
    "goal": {
        "global_pose": {
            "orientation": {
                "w": 0.5084816217422485,
                "x": -0.49083608388900757,
                "y": 0.5182115435600281,
                "z": -0.4816462993621826
            },
            "position": {
                "x": 0.5540239810943604,
                "y": 0.030875300988554955,
                "z": 0.16403168439865112
            }
        },
        "name": "move_to_storage_A"
    },
    "id": "TRRT_move_to_storage_A_86",
    "joint_names": [
        "shoulder_pan_joint",
        "shoulder_lift_joint",
        "elbow_joint",
        "wrist_1_joint",
        "wrist_2_joint",
        "wrist_3_joint"
    ],
    "metrics": {
        "cart_traj_len": 0.35306564920586,
        "distance_elbow_joint": 0.45108677840479317,
        "distance_shoulder_lift_joint": 0.23220111270390698,
        "distance_shoulder_pan_joint": 0.4607457530544555,
        "distance_wrist_1_joint": 0.2551934563578998,
        "distance_wrist_2_joint": 1.1014383776689673,
        "distance_wrist_3_joint": 0.10499576483980011,
        "smoothness": 1.1102230334162426e-15,
        "time": 0.019551707,
        "traj_len": 1.6142060720458906,
        "weighted_distance": 2.0426170974356133
    },
    "planner": "TRRT",
    "start": {
        "state": {
            "elbow_joint": 1.9715463870305268,
            "shoulder_lift_joint": -1.1394903361783484,
            "shoulder_pan_joint": 0.12281147578464417,
            "wrist_1_joint": -0.7804599489681411,
            "wrist_2_joint": 0.12958660307563738,
            "wrist_3_joint": -3.1924946282119055
        }
    },
    "waypoints": [
        {
            "positions": [
                0.12281147578464417,
                -1.1394903361783484,
                1.9715463870305268,
                -0.7804599489681411,
                0.12958660307563738,
                -3.1924946282119055
            ]
        },
        {
            "positions": [
                0.05699065391972197,
                -1.172661923707478,
                2.035987355374069,
                -0.8169161570192697,
                0.2869349427426327,
                -3.1774952332347914
            ]
        },
        {
            "positions": [
                -0.008830167945200237,
                -1.2058335112366074,
                2.1004283237176105,
                -0.8533723650703982,
                0.444283282409628,
                -3.162495838257677
            ]
        },
        {
            "positions": [
                -0.07465098981012246,
                -1.239005098765737,
                2.1648692920611525,
                -0.8898285731215267,
                0.6016316220766234,
                -3.1474964432805628
            ]
        },
        {
            "positions": [
                -0.14047181167504463,
                -1.2721766862948667,
                2.229310260404694,
                -0.9262847811726552,
                0.7589799617436187,
                -3.132497048303448
            ]
        },
        {
            "positions": [
                -0.20629263353996685,
                -1.3053482738239963,
                2.2937512287482362,
                -0.9627409892237838,
                0.916328301410614,
                -3.117497653326334
            ]
        },
        {
            "positions": [
                -0.27211345540488907,
                -1.3385198613531257,
                2.358192197091778,
                -0.9991971972749123,
                1.0736766410776093,
                -3.1024982583492196
            ]
        },
        {
            "positions": [
                -0.3379342772698113,
                -1.3716914488822554,
                2.42263316543532,
                -1.0356534053260409,
                1.2310249807446048,
                -3.0874988633721054
            ]
        }
    ]
}