{
    "goal": {
        "global_pose": {
            "orientation": {
                "w": 0.5084816217422485,
                "x": -0.49083608388900757,
                "y": 0.5182115435600281,
                "z": -0.4816462993621826
            },
            "position": {
                "x": 0.5540239810943604,
                "y": 0.030875300988554955,
                "z": 0.16403168439865112
            }
        },
        "name": "move_to_storage_A"
    },
    "id": "TRRT_move_to_storage_A_76",
    "joint_names": [
        "shoulder_pan_joint",
        "shoulder_lift_joint",
        "elbow_joint",
        "wrist_1_joint",
        "wrist_2_joint",
        "wrist_3_joint"
    ],
    "metrics": {
        "cart_traj_len": 0.3538032613756481,
        "distance_elbow_joint": 0.44926378111811704,
        "distance_shoulder_lift_joint": 0.23492415635707653,
        "distance_shoulder_pan_joint": 0.4634332577598543,
        "distance_wrist_1_joint": 0.23809810490274874,
        "distance_wrist_2_joint": 1.0970717827410765,
        "distance_wrist_3_joint": 0.1055079222116353,
        "smoothness": 1.1102230334162426e-15,
        "time": 0.023654849,
        "traj_len": 1.6088191337408033,
        "weighted_distance": 2.033343241353413
    },
    "planner": "TRRT",
    "start": {
        "state": {
            "elbow_joint": 1.9715463870305268,
            "shoulder_lift_joint": -1.1394903361783484,
            "shoulder_pan_joint": 0.12281147578464417,
            "wrist_1_joint": -0.7804599489681411,
            "wrist_2_joint": 0.12958660307563738,
            "wrist_3_joint": -3.1924946282119055
        }
    },
    "waypoints": [
        {
            "positions": [
                0.12281147578464417,
                -1.1394903361783484,
                1.9715463870305268,
                -0.7804599489681411,
                0.12958660307563738,
                -3.1924946282119055
            ]
        },
        {
            "positions": [
                0.05660672467609357,
                -1.1730509299436451,
                2.035726927190258,
                -0.8144739639542481,
                0.28631114346721975,
                -3.1774220678959577
            ]
        },
        {
            "positions": [
                -0.009598026432457038,
                -1.2066115237089416,
                2.099907467349989,
                -0.848487978940355,
                0.4430356838588021,
                -3.16234950758001
            ]
        },
        {
            "positions": [
                -0.07580277754100766,
                -1.2401721174742384,
                2.16408800750972,
                -0.882501993926462,
                0.5997602242503844,
                -3.147276947264062
            ]
        },
        {
            "positions": [
                -0.14200752864955823,
                -1.273732711239535,
                2.2282685476694506,
                -0.9165160089125689,
                0.7564847646419668,
                -3.1322043869481138
            ]
        },
        {
            "positions": [
                -0.20821227975810885,
                -1.3072933050048317,
                2.2924490878291817,
                -0.9505300238986759,
                0.9132093050335492,
                -3.117131826632166
            ]
        },
        {
            "positions": [
                -0.2744170308666595,
                -1.3408538987701282,
                2.3566296279889127,
                -0.9845440388847828,
                1.0699338454251315,
                -3.102059266316218
            ]
        },
        {
            "positions": [
                -0.3406217819752101,
                -1.374414492535425,
                2.420810168148644,
                -1.0185580538708898,
                1.226658385816714,
                -3.0869867060002703
            ]
        }
    ]
}