{
    "goal": {
        "global_pose": {
            "orientation": {
                "w": -0.00223480608172531,
                "x": 0.0024358444001904467,
                "y": 0.7094548369677653,
                "z": -0.704743149386269
            },
            "position": {
                "x": 0.6205249238014221,
                "y": -0.6371506643295288,
                "z": 0.19426114857196808
            }
        },
        "name": "move_to_magneteinheit_B"
    },
    "id": "TRRT_move_to_magneteinheit_B_132",
    "joint_names": [
        "shoulder_pan_joint",
        "shoulder_lift_joint",
        "elbow_joint",
        "wrist_1_joint",
        "wrist_2_joint",
        "wrist_3_joint"
    ],
    "metrics": {
        "cart_traj_len": 3.8541481930200407,
        "distance_elbow_joint": 4.0953362955615304,
        "distance_shoulder_lift_joint": 1.7911129567344344,
        "distance_shoulder_pan_joint": 2.1982003063074704,
        "distance_wrist_1_joint": 2.2765654873201195,
        "distance_wrist_2_joint": 2.1604430977908207,
        "distance_wrist_3_joint": 6.27144989540432,
        "smoothness": 0.1814673450225745,
        "time": 0.21943827100000002,
        "traj_len": 4.335101848759576,
        "weighted_distance": 5.981054791175072
    },
    "planner": "TRRT",
    "start": {
        "state": {
            "elbow_joint": 2.39358713078474,
            "shoulder_lift_joint": -1.908514104345545,
            "shoulder_pan_joint": 0.7066247066606129,
            "wrist_1_joint": -0.4678290933515497,
            "wrist_2_joint": 0.7096259083745334,
            "wrist_3_joint": -3.1358149277392293
        }
    },
    "waypoints": [
        {
            "positions": [
                0.7066247066606129,
                -1.908514104345545,
                2.39358713078474,
                -0.4678290933515497,
                0.7096259083745334,
                -3.1358149277392293
            ]
        },
        {
            "positions": [
                0.6585574472382364,
                -1.9032265065859775,
                2.373898306137926,
                -0.417765135667801,
                0.7448642122568272,
                -3.052253745667204
            ]
        },
        {
            "positions": [
                0.6104901878158598,
                -1.89793890882641,
                2.3542094814911128,
                -0.3677011779840523,
                0.7801025161391211,
                -2.9686925635951784
            ]
        },
        {
            "positions": [
                0.5847148623205809,
                -1.8793148504118884,
                2.230366680431076,
                -0.32740198215951816,
                0.8020686001416436,
                -2.819316137353553
            ]
        },
        {
            "positions": [
                0.6052506407033004,
                -1.855056842899277,
                2.1152952663895097,
                -0.3708379457129323,
                0.81530297968645,
                -2.651812937059828
            ]
        },
        {
            "positions": [
                0.6257864190860198,
                -1.8307988353866658,
                2.000223852347944,
                -0.41427390926634644,
                0.8285373592312566,
                -2.4843097367661024
            ]
        },
        {
            "positions": [
                0.6463221974687392,
                -1.8065408278740545,
                1.8851524383063776,
                -0.4577098728197606,
                0.841771738776063,
                -2.3168065364723773
            ]
        },
        {
            "positions": [
                0.6668579758514587,
                -1.7822828203614431,
                1.7700810242648115,
                -0.5011458363731748,
                0.8550061183208695,
                -2.149303336178652
            ]
        },
        {
            "positions": [
                0.6873937542341781,
                -1.7580248128488316,
                1.6550096102232454,
                -0.544581799926589,
                0.8682404978656759,
                -1.9818001358849269
            ]
        },
        {
            "positions": [
                0.7079295326168976,
                -1.7337668053362203,
                1.5399381961816792,
                -0.588017763480003,
                0.8814748774104825,
                -1.8142969355912015
            ]
        },
        {
            "positions": [
                0.7284653109996171,
                -1.709508797823609,
                1.4248667821401133,
                -0.6314537270334172,
                0.8947092569552889,
                -1.6467937352974762
            ]
        },
        {
            "positions": [
                0.7490010893823364,
                -1.6852507903109977,
                1.309795368098547,
                -0.6748896905868313,
                0.9079436365000954,
                -1.479290535003751
            ]
        },
        {
            "positions": [
                0.7695368677650559,
                -1.6609927827983864,
                1.194723954056981,
                -0.7183256541402454,
                0.9211780160449019,
                -1.3117873347100257
            ]
        },
        {
            "positions": [
                0.7900726461477754,
                -1.636734775285775,
                1.0796525400154149,
                -0.7617616176936597,
                0.9344123955897083,
                -1.1442841344163006
            ]
        },
        {
            "positions": [
                0.8106084245304949,
                -1.6124767677731637,
                0.9645811259738488,
                -0.8051975812470737,
                0.9476467751345148,
                -0.9767809341225753
            ]
        },
        {
            "positions": [
                0.8311442029132143,
                -1.5882187602605522,
                0.8495097119322825,
                -0.848633544800488,
                0.9608811546793213,
                -0.8092777338288499
            ]
        },
        {
            "positions": [
                0.8516799812959337,
                -1.5639607527479409,
                0.7344382978907165,
                -0.8920695083539021,
                0.9741155342241278,
                -0.6417745335351244
            ]
        },
        {
            "positions": [
                0.8722157596786532,
                -1.5397027452353296,
                0.6193668838491504,
                -0.9355054719073161,
                0.9873499137689342,
                -0.47427133324139925
            ]
        },
        {
            "positions": [
                0.8927515380613726,
                -1.5154447377227183,
                0.5042954698075843,
                -0.9789414354607304,
                1.0005842933137408,
                -0.30676813294767413
            ]
        },
        {
            "positions": [
                0.9132873164440921,
                -1.491186730210107,
                0.38922405576601826,
                -1.0223773990141445,
                1.0138186728585472,
                -0.13926493265394901
            ]
        },
        {
            "positions": [
                0.9338230948268116,
                -1.4669287226974956,
                0.2741526417244522,
                -1.0658133625675585,
                1.0270530524033537,
                0.028238267639776105
            ]
        },
        {
            "positions": [
                0.954358873209531,
                -1.4426707151848843,
                0.1590812276828859,
                -1.1092493261209728,
                1.04028743194816,
                0.19574146793350167
            ]
        },
        {
            "positions": [
                0.9748946515922504,
                -1.4184127076722728,
                0.04400981364132006,
                -1.1526852896743869,
                1.0535218114929665,
                0.3632446682272268
            ]
        },
        {
            "positions": [
                0.9954304299749699,
                -1.3941547001596617,
                -0.07106160040024623,
                -1.1961212532278012,
                1.066756191037773,
                0.5307478685209519
            ]
        },
        {
            "positions": [
                1.0159662083576892,
                -1.3698966926470502,
                -0.18613301444181207,
                -1.2395572167812152,
                1.0799905705825794,
                0.698251068814677
            ]
        },
        {
            "positions": [
                1.0365019867404088,
                -1.3456386851344388,
                -0.30120442848337836,
                -1.2829931803346293,
                1.093224950127386,
                0.8657542691084026
            ]
        },
        {
            "positions": [
                1.0570377651231282,
                -1.3213806776218275,
                -0.41627584252494465,
                -1.3264291438880436,
                1.1064593296721925,
                1.0332574694021281
            ]
        },
        {
            "positions": [
                1.0775735435058478,
                -1.297122670109216,
                -0.5313472565665109,
                -1.3698651074414578,
                1.119693709216999,
                1.2007606696958533
            ]
        },
        {
            "positions": [
                1.0981093218885671,
                -1.272864662596605,
                -0.6464186706080768,
                -1.413301070994872,
                1.1329280887618054,
                1.3682638699895788
            ]
        },
        {
            "positions": [
                1.1186451002712867,
                -1.2486066550839934,
                -0.7614900846496431,
                -1.4567370345482862,
                1.146162468306612,
                1.5357670702833044
            ]
        },
        {
            "positions": [
                1.139180878654006,
                -1.2243486475713823,
                -0.8765614986912089,
                -1.5001729981017002,
                1.1593968478514185,
                1.703270270577029
            ]
        },
        {
            "positions": [
                1.1597166570367254,
                -1.2000906400587708,
                -0.9916329127327752,
                -1.5436089616551143,
                1.172631227396225,
                1.8707734708707546
            ]
        },
        {
            "positions": [
                1.1802524354194448,
                -1.1758326325461594,
                -1.106704326774341,
                -1.5870449252085286,
                1.1858656069410314,
                2.0382766711644793
            ]
        },
        {
            "positions": [
                1.2007882138021644,
                -1.1515746250335481,
                -1.2217757408159076,
                -1.6304808887619426,
                1.1990999864858378,
                2.2057798714582053
            ]
        },
        {
            "positions": [
                1.2885756700329878,
                -1.2196597334321586,
                -1.2631486283886648,
                -1.7022200200962507,
                1.1242986077832207,
                2.2382488673025938
            ]
        },
        {
            "positions": [
                1.3763631262638114,
                -1.287744841830769,
                -1.3045215159614223,
                -1.7739591514305586,
                1.0494972290806035,
                2.2707178631469818
            ]
        },
        {
            "positions": [
                1.4641505824946348,
                -1.3558299502293794,
                -1.3458944035341796,
                -1.8456982827648667,
                0.9746958503779863,
                2.30318685899137
            ]
        },
        {
            "positions": [
                1.5519380387254584,
                -1.4239150586279898,
                -1.387267291106937,
                -1.9174374140991746,
                0.8998944716753692,
                2.3356558548357587
            ]
        },
        {
            "positions": [
                1.6397254949562818,
                -1.4920001670266,
                -1.4286401786796943,
                -1.9891765454334827,
                0.825093092972752,
                2.3681248506801467
            ]
        },
        {
            "positions": [
                1.7275129511871055,
                -1.5600852754252106,
                -1.4700130662524518,
                -2.0609156767677907,
                0.7502917142701349,
                2.400593846524535
            ]
        },
        {
            "positions": [
                1.8153004074179289,
                -1.628170383823821,
                -1.511385953825209,
                -2.1326548081020986,
                0.6754903355675177,
                2.433062842368923
            ]
        },
        {
            "positions": [
                1.9030878636487523,
                -1.6962554922224315,
                -1.5527588413979665,
                -2.2043939394364065,
                0.6006889568649005,
                2.4655318382133116
            ]
        },
        {
            "positions": [
                1.990875319879576,
                -1.764340600621042,
                -1.5941317289707237,
                -2.2761330707707144,
                0.5258875781622834,
                2.4980008340577
            ]
        },
        {
            "positions": [
                2.0786627761103995,
                -1.8324257090196523,
                -1.6355046165434812,
                -2.3478722021050227,
                0.4510861994596662,
                2.530469829902088
            ]
        },
        {
            "positions": [
                2.166450232341223,
                -1.9005108174182628,
                -1.6768775041162385,
                -2.4196113334393305,
                0.376284820757049,
                2.5629388257464765
            ]
        },
        {
            "positions": [
                2.2443121405967483,
                -1.9443740538324943,
                -1.6750869090536837,
                -2.425403400972235,
                0.24624353332859536,
                2.6543108368457573
            ]
        },
        {
            "positions": [
                2.322174048852274,
                -1.9882372902467256,
                -1.6732963139911288,
                -2.4311954685051393,
                0.11620224590014172,
                2.7456828479450386
            ]
        },
        {
            "positions": [
                2.4000359571077996,
                -2.032100526660957,
                -1.671505718928574,
                -2.4369875360380435,
                -0.013839041528311946,
                2.8370548590443194
            ]
        },
        {
            "positions": [
                2.477897865363325,
                -2.0759637630751886,
                -1.6697151238660193,
                -2.442779603570948,
                -0.14388032895676556,
                2.9284268701436003
            ]
        },
        {
            "positions": [
                2.555759773618851,
                -2.11982699948942,
                -1.6679245288034643,
                -2.4485716711038528,
                -0.2739216163852192,
                3.0197988812428815
            ]
        },
        {
            "positions": [
                2.6336216818743763,
                -2.163690235903651,
                -1.6661339337409096,
                -2.454363738636757,
                -0.4039629038136729,
                3.1111708923421624
            ]
        },
        {
            "positions": [
                2.6610053242880194,
                -2.1857481024559857,
                -1.6520058434556861,
                -2.4451871189859076,
                -0.4718690331936785,
                3.135634967665092
            ]
        }
    ]
}