{
    "goal": {
        "global_pose": {
            "orientation": {
                "w": 0.7031023502349854,
                "x": -0.7110244035720825,
                "y": 0.007748599164187908,
                "z": 0.005598929710686207
            },
            "position": {
                "x": 0.11585023208521307,
                "y": 0.44412534475326537,
                "z": 0.3711530566215515
            }
        },
        "name": "move_to_auspresseinheit_A"
    },
    "id": "TRRT_move_to_auspresseinheit_A_140",
    "joint_names": [
        "shoulder_pan_joint",
        "shoulder_lift_joint",
        "elbow_joint",
        "wrist_1_joint",
        "wrist_2_joint",
        "wrist_3_joint"
    ],
    "metrics": {
        "cart_traj_len": 0.6630646272481371,
        "distance_elbow_joint": 0.17778706386624332,
        "distance_shoulder_lift_joint": 0.5305533814684755,
        "distance_shoulder_pan_joint": 1.042891849881103,
        "distance_wrist_1_joint": 0.6070445085333888,
        "distance_wrist_2_joint": 0.5321441226561887,
        "distance_wrist_3_joint": 0.10507393647159402,
        "smoothness": 0.28758840133805924,
        "time": 0.028333759,
        "traj_len": 1.7307497978844295,
        "weighted_distance": 2.0844259082562178
    },
    "planner": "TRRT",
    "start": {
        "state": {
            "elbow_joint": 2.422574709923281,
            "shoulder_lift_joint": -1.3736533754116391,
            "shoulder_pan_joint": -0.33786336945926293,
            "wrist_1_joint": -1.0288603412921917,
            "wrist_2_joint": 1.2330224858903978,
            "wrist_3_joint": -3.094022268022082
        }
    },
    "waypoints": [
        {
            "positions": [
                -0.33786336945926293,
                -1.3736533754116391,
                2.422574709923281,
                -1.0288603412921917,
                1.2330224858903978,
                -3.094022268022082
            ]
        },
        {
            "positions": [
                -0.3071656024441793,
                -1.4796793603873064,
                2.4371021755312334,
                -0.9106941064865822,
                1.1504488380680102,
                -3.1090474607515977
            ]
        },
        {
            "positions": [
                -0.2764678354290956,
                -1.5857053453629737,
                2.451629641139186,
                -0.7925278716809727,
                1.0678751902456227,
                -3.124072653481113
            ]
        },
        {
            "positions": [
                -0.24577006841401194,
                -1.6917313303386412,
                2.466157106747138,
                -0.6743616368753632,
                0.9853015424232352,
                -3.1390978462106283
            ]
        },
        {
            "positions": [
                -0.21507230139892825,
                -1.7977573153143085,
                2.4806845723550905,
                -0.5561954020697537,
                0.9027278946008477,
                -3.154123038940144
            ]
        },
        {
            "positions": [
                -0.1843745343838446,
                -1.9037833002899758,
                2.495212037963043,
                -0.4380291672641442,
                0.8201542467784602,
                -3.1691482316696593
            ]
        },
        {
            "positions": [
                0.11209313721805031,
                -1.9036421480932628,
                2.4601621260208826,
                -0.4434336120992579,
                0.7803956189303765,
                -3.1591655740616535
            ]
        },
        {
            "positions": [
                0.4085608088199452,
                -1.9035009958965499,
                2.425112214078722,
                -0.4488380569343717,
                0.7406369910822928,
                -3.1491829164536482
            ]
        },
        {
            "positions": [
                0.7050284804218402,
                -1.903359843699837,
                2.3900623021365615,
                -0.4542425017694854,
                0.700878363234209,
                -3.1392002588456425
            ]
        }
    ]
}