{
    "goal": {
        "global_pose": {
            "orientation": {
                "w": 0.5084816217422485,
                "x": -0.49083608388900757,
                "y": 0.5182115435600281,
                "z": -0.4816462993621826
            },
            "position": {
                "x": 0.5540239810943604,
                "y": 0.030875300988554955,
                "z": 0.16403168439865112
            }
        },
        "name": "move_to_storage_A"
    },
    "id": "TRRT_move_to_storage_A_6",
    "joint_names": [
        "shoulder_pan_joint",
        "shoulder_lift_joint",
        "elbow_joint",
        "wrist_1_joint",
        "wrist_2_joint",
        "wrist_3_joint"
    ],
    "metrics": {
        "cart_traj_len": 0.35213184365955175,
        "distance_elbow_joint": 0.4514137238390279,
        "distance_shoulder_lift_joint": 0.2337158957475356,
        "distance_shoulder_pan_joint": 0.46115603982581116,
        "distance_wrist_1_joint": 0.2527127360917626,
        "distance_wrist_2_joint": 1.0935714002673134,
        "distance_wrist_3_joint": 0.10519091693785265,
        "smoothness": 1.1102230263833737e-15,
        "time": 0.036075651,
        "traj_len": 1.6117570265735786,
        "weighted_distance": 2.0382410757670653
    },
    "planner": "TRRT",
    "start": {
        "state": {
            "elbow_joint": 1.9715463870305268,
            "shoulder_lift_joint": -1.1394903361783484,
            "shoulder_pan_joint": 0.12281147578464417,
            "wrist_1_joint": -0.7804599489681411,
            "wrist_2_joint": 0.12958660307563738,
            "wrist_3_joint": -3.1924946282119055
        }
    },
    "waypoints": [
        {
            "positions": [
                0.12281147578464417,
                -1.1394903361783484,
                1.9715463870305268,
                -0.7804599489681411,
                0.12958660307563738,
                -3.1924946282119055
            ]
        },
        {
            "positions": [
                0.05693204152381401,
                -1.1728783212851392,
                2.0360340618646737,
                -0.8165617684098214,
                0.2858110888281107,
                -3.1774673543636407
            ]
        },
        {
            "positions": [
                -0.008947392737016155,
                -1.2062663063919299,
                2.1005217366988203,
                -0.8526635878515019,
                0.44203557458058407,
                -3.1624400805153763
            ]
        },
        {
            "positions": [
                -0.0748268269978463,
                -1.2396542914987208,
                2.165009411532967,
                -0.8887654072931822,
                0.5982600603330573,
                -3.1474128066671114
            ]
        },
        {
            "positions": [
                -0.14070626125867647,
                -1.2730422766055116,
                2.229497086367114,
                -0.9248672267348625,
                0.7544845460855307,
                -3.132385532818847
            ]
        },
        {
            "positions": [
                -0.20658569551950667,
                -1.3064302617123025,
                2.293984761201261,
                -0.960969046176543,
                0.9107090318380041,
                -3.117358258970582
            ]
        },
        {
            "positions": [
                -0.27246512978033677,
                -1.3398182468190931,
                2.3584724360354077,
                -0.9970708656182232,
                1.0669335175904773,
                -3.1023309851223178
            ]
        },
        {
            "positions": [
                -0.338344564041167,
                -1.373206231925884,
                2.4229601108695547,
                -1.0331726850599037,
                1.2231580033429508,
                -3.087303711274053
            ]
        }
    ]
}