{
    "goal": {
        "global_pose": {
            "orientation": {
                "w": 0.5084816217422485,
                "x": -0.49083608388900757,
                "y": 0.5182115435600281,
                "z": -0.4816462993621826
            },
            "position": {
                "x": 0.5540239810943604,
                "y": 0.030875300988554955,
                "z": 0.16403168439865112
            }
        },
        "name": "move_to_storage_A"
    },
    "id": "TRRT_move_to_storage_A_65",
    "joint_names": [
        "shoulder_pan_joint",
        "shoulder_lift_joint",
        "elbow_joint",
        "wrist_1_joint",
        "wrist_2_joint",
        "wrist_3_joint"
    ],
    "metrics": {
        "cart_traj_len": 0.35276027300159973,
        "distance_elbow_joint": 0.45012677110710975,
        "distance_shoulder_lift_joint": 0.23411071893314572,
        "distance_shoulder_pan_joint": 0.4605271224868255,
        "distance_wrist_1_joint": 0.239322118335623,
        "distance_wrist_2_joint": 1.101818948866038,
        "distance_wrist_3_joint": 0.10083192661351559,
        "smoothness": 1.1102230298998083e-15,
        "time": 0.025319996,
        "traj_len": 1.6083337981719645,
        "weighted_distance": 2.0321275862432824
    },
    "planner": "TRRT",
    "start": {
        "state": {
            "elbow_joint": 1.9715463870305268,
            "shoulder_lift_joint": -1.1394903361783484,
            "shoulder_pan_joint": 0.12281147578464417,
            "wrist_1_joint": -0.7804599489681411,
            "wrist_2_joint": 0.12958660307563738,
            "wrist_3_joint": -3.1924946282119055
        }
    },
    "waypoints": [
        {
            "positions": [
                0.12281147578464417,
                -1.1394903361783484,
                1.9715463870305268,
                -0.7804599489681411,
                0.12958660307563738,
                -3.1924946282119055
            ]
        },
        {
            "positions": [
                0.057021886857954826,
                -1.1729347245973691,
                2.0358502114743997,
                -0.8146488230160872,
                0.28698931005649997,
                -3.1780900672671177
            ]
        },
        {
            "positions": [
                -0.00876770206873452,
                -1.2063791130163901,
                2.100154035918272,
                -0.8488376970640333,
                0.44439201703736253,
                -3.1636855063223295
            ]
        },
        {
            "positions": [
                -0.07455729099542387,
                -1.2398235014354109,
                2.164457860362145,
                -0.8830265711119795,
                0.6017947240182251,
                -3.1492809453775417
            ]
        },
        {
            "positions": [
                -0.1403468799221132,
                -1.2732678898544316,
                2.228761684806018,
                -0.9172154451599257,
                0.7591974309990877,
                -3.134876384432754
            ]
        },
        {
            "positions": [
                -0.2061364688488026,
                -1.3067122782734524,
                2.293065509249891,
                -0.9514043192078718,
                0.9166001379799502,
                -3.120471823487966
            ]
        },
        {
            "positions": [
                -0.2719260577754919,
                -1.3401566666924734,
                2.3573693336937636,
                -0.985593193255818,
                1.0740028449608128,
                -3.1060672625431778
            ]
        },
        {
            "positions": [
                -0.3377156467021813,
                -1.373601055111494,
                2.4216731581376365,
                -1.019782067303764,
                1.2314055519416753,
                -3.09166270159839
            ]
        }
    ]
}