{
    "goal": {
        "global_pose": {
            "orientation": {
                "w": 0.7047431468963623,
                "x": -0.7094548344612122,
                "y": 0.0024358443915843964,
                "z": -0.0022348060738295317
            },
            "position": {
                "x": 0.6094750761985779,
                "y": 0.3671506643295288,
                "z": 0.19426114857196808
            }
        },
        "name": "move_to_magneteinheit_A"
    },
    "id": "TRRT_move_to_magneteinheit_A_129",
    "joint_names": [
        "shoulder_pan_joint",
        "shoulder_lift_joint",
        "elbow_joint",
        "wrist_1_joint",
        "wrist_2_joint",
        "wrist_3_joint"
    ],
    "metrics": {
        "cart_traj_len": 2.063719420219163,
        "distance_elbow_joint": 3.872459299332891,
        "distance_shoulder_lift_joint": 1.05136099836601,
        "distance_shoulder_pan_joint": 1.2422940419738566,
        "distance_wrist_1_joint": 1.1277364045152556,
        "distance_wrist_2_joint": 1.4492402810083644,
        "distance_wrist_3_joint": 1.896398357457663,
        "smoothness": 6.661338173656035e-16,
        "time": 0.039756371,
        "traj_len": 3.2618230152253878,
        "weighted_distance": 4.124228750092917
    },
    "planner": "TRRT",
    "start": {
        "state": {
            "elbow_joint": -1.919643507792019,
            "shoulder_lift_joint": -0.07675430207160344,
            "shoulder_pan_joint": -1.1188671864651873,
            "wrist_1_joint": 0.42560062535961957,
            "wrist_2_joint": 1.5706038300724876,
            "wrist_3_joint": 1.1188968870953055
        }
    },
    "waypoints": [
        {
            "positions": [
                -1.1188671864651873,
                -0.07675430207160344,
                -1.919643507792019,
                0.42560062535961957,
                1.5706038300724876,
                1.1188968870953055
            ]
        },
        {
            "positions": [
                -1.0728562960217112,
                -0.11569359830738159,
                -1.7762190892982084,
                0.38383261037757305,
                1.5169282641092148,
                1.1891338632974413
            ]
        },
        {
            "positions": [
                -1.026845405578235,
                -0.15463289454315973,
                -1.6327946708043974,
                0.3420645953955266,
                1.4632526981459422,
                1.2593708394995768
            ]
        },
        {
            "positions": [
                -0.9808345151347588,
                -0.1935721907789379,
                -1.4893702523105867,
                0.30029658041348006,
                1.4095771321826693,
                1.3296078157017126
            ]
        },
        {
            "positions": [
                -0.9348236246912827,
                -0.23251148701471602,
                -1.345945833816776,
                0.25852856543143354,
                1.3559015662193965,
                1.3998447919038481
            ]
        },
        {
            "positions": [
                -0.8888127342478065,
                -0.27145078325049415,
                -1.2025214153229653,
                0.21676055044938705,
                1.302226000256124,
                1.470081768105984
            ]
        },
        {
            "positions": [
                -0.8428018438043303,
                -0.3103900794862723,
                -1.0590969968291546,
                0.17499253546734056,
                1.248550434292851,
                1.5403187443081197
            ]
        },
        {
            "positions": [
                -0.7967909533608541,
                -0.3493293757220505,
                -0.9156725783353437,
                0.13322452048529404,
                1.1948748683295785,
                1.6105557205102552
            ]
        },
        {
            "positions": [
                -0.750780062917378,
                -0.3882686719578286,
                -0.7722481598415329,
                0.09145650550324758,
                1.1411993023663056,
                1.6807926967123907
            ]
        },
        {
            "positions": [
                -0.7047691724739018,
                -0.42720796819360674,
                -0.6288237413477222,
                0.049688490521201056,
                1.0875237364030328,
                1.7510296729145265
            ]
        },
        {
            "positions": [
                -0.6587582820304256,
                -0.46614726442938487,
                -0.4853993228539113,
                0.007920475539154537,
                1.03384817043976,
                1.8212666491166623
            ]
        },
        {
            "positions": [
                -0.6127473915869495,
                -0.505086560665163,
                -0.3419749043601006,
                -0.03384753944289193,
                0.9801726044764874,
                1.8915036253187978
            ]
        },
        {
            "positions": [
                -0.5667365011434733,
                -0.5440258569009412,
                -0.19855048586628987,
                -0.07561555442493845,
                0.9264970385132145,
                1.9617406015209335
            ]
        },
        {
            "positions": [
                -0.5207256106999971,
                -0.5829651531367193,
                -0.05512606737247916,
                -0.11738356940698497,
                0.8728214725499418,
                2.0319775777230693
            ]
        },
        {
            "positions": [
                -0.47471472025652095,
                -0.6219044493724974,
                0.08829835112133178,
                -0.1591515843890315,
                0.8191459065866691,
                2.102214553925205
            ]
        },
        {
            "positions": [
                -0.4287038298130448,
                -0.6608437456082756,
                0.2317227696151425,
                -0.200919599371078,
                0.7654703406233963,
                2.172451530127341
            ]
        },
        {
            "positions": [
                -0.3826929393695686,
                -0.6997830418440538,
                0.3751471881089532,
                -0.24268761435312441,
                0.7117947746601235,
                2.2426885063294764
            ]
        },
        {
            "positions": [
                -0.33668204892609244,
                -0.738722338079832,
                0.5185716066027644,
                -0.28445562933517105,
                0.6581192086968507,
                2.312925482531612
            ]
        },
        {
            "positions": [
                -0.29067115848261627,
                -0.77766163431561,
                0.6619960250965746,
                -0.32622364431721745,
                0.604443642733578,
                2.3831624587337474
            ]
        },
        {
            "positions": [
                -0.2446602680391401,
                -0.8166009305513882,
                0.8054204435903858,
                -0.367991659299264,
                0.5507680767703051,
                2.453399434935883
            ]
        },
        {
            "positions": [
                -0.19864937759566392,
                -0.8555402267871663,
                0.9488448620841965,
                -0.4097596742813105,
                0.49709251080703254,
                2.523636411138019
            ]
        },
        {
            "positions": [
                -0.15263848715218775,
                -0.8944795230229445,
                1.0922692805780072,
                -0.451527689263357,
                0.4434169448437597,
                2.593873387340155
            ]
        },
        {
            "positions": [
                -0.10662759670871158,
                -0.9334188192587225,
                1.235693699071818,
                -0.4932957042454034,
                0.3897413788804871,
                2.6641103635422905
            ]
        },
        {
            "positions": [
                -0.06061670626523541,
                -0.9723581154945009,
                1.3791181175656286,
                -0.5350637192274501,
                0.33606581291721427,
                2.734347339744426
            ]
        },
        {
            "positions": [
                -0.014605815821759238,
                -1.0112974117302789,
                1.5225425360594393,
                -0.5768317342094964,
                0.28239024695394144,
                2.8045843159465615
            ]
        },
        {
            "positions": [
                0.03140507462171693,
                -1.050236707966057,
                1.6659669545532505,
                -0.6185997491915429,
                0.2287146809906686,
                2.874821292148697
            ]
        },
        {
            "positions": [
                0.0774159650651931,
                -1.0891760042018352,
                1.8093913730470608,
                -0.6603677641735894,
                0.175039115027396,
                2.9450582683508326
            ]
        },
        {
            "positions": [
                0.12342685550866937,
                -1.1281153004376134,
                1.952815791540872,
                -0.702135779155636,
                0.12136354906412314,
                3.0152952445529686
            ]
        }
    ]
}