{
    "goal": {
        "global_pose": {
            "orientation": {
                "w": 0.7047431468963623,
                "x": -0.7094548344612122,
                "y": 0.0024358443915843964,
                "z": -0.0022348060738295317
            },
            "position": {
                "x": 0.6094750761985779,
                "y": 0.3671506643295288,
                "z": 0.19426114857196808
            }
        },
        "name": "move_to_magneteinheit_A"
    },
    "id": "TRRT_move_to_magneteinheit_A_131",
    "joint_names": [
        "shoulder_pan_joint",
        "shoulder_lift_joint",
        "elbow_joint",
        "wrist_1_joint",
        "wrist_2_joint",
        "wrist_3_joint"
    ],
    "metrics": {
        "cart_traj_len": 2.227007117275206,
        "distance_elbow_joint": 3.8744072406058008,
        "distance_shoulder_lift_joint": 1.0539203231649827,
        "distance_shoulder_pan_joint": 1.2419154126777228,
        "distance_wrist_1_joint": 1.2646052856986385,
        "distance_wrist_2_joint": 1.594920619342426,
        "distance_wrist_3_joint": 4.361563496734863,
        "smoothness": 0.11321761743710389,
        "time": 0.149273146,
        "traj_len": 3.659416945119049,
        "weighted_distance": 4.997397850555348
    },
    "planner": "TRRT",
    "start": {
        "state": {
            "elbow_joint": -1.919643507792019,
            "shoulder_lift_joint": -0.07675430207160344,
            "shoulder_pan_joint": -1.1188671864651873,
            "wrist_1_joint": 0.42560062535961957,
            "wrist_2_joint": 1.5706038300724876,
            "wrist_3_joint": 1.1188968870953055
        }
    },
    "waypoints": [
        {
            "positions": [
                -1.1188671864651873,
                -0.07675430207160344,
                -1.919643507792019,
                0.42560062535961957,
                1.5706038300724876,
                1.1188968870953055
            ]
        },
        {
            "positions": [
                -1.0814785329545975,
                -0.1032242523500875,
                -1.8027198208962218,
                0.3880054331427607,
                1.5230471753914097,
                0.9979291392406063
            ]
        },
        {
            "positions": [
                -1.0440898794440079,
                -0.12969420262857156,
                -1.6857961340004248,
                0.3504102409259019,
                1.4754905207103315,
                0.8769613913859071
            ]
        },
        {
            "positions": [
                -1.006701225933418,
                -0.15616415290705565,
                -1.5688724471046276,
                0.31281504870904303,
                1.4279338660292535,
                0.7559936435312079
            ]
        },
        {
            "positions": [
                -0.9693125724228283,
                -0.18263410318553971,
                -1.4519487602088303,
                0.27521985649218417,
                1.3803772113481756,
                0.6350258956765087
            ]
        },
        {
            "positions": [
                -0.9319239189122386,
                -0.20910405346402378,
                -1.335025073313033,
                0.2376246642753253,
                1.3328205566670976,
                0.5140581478218095
            ]
        },
        {
            "positions": [
                -0.8945352654016487,
                -0.23557400374250786,
                -1.2181013864172359,
                0.20002947205846647,
                1.2852639019860195,
                0.39309039996711026
            ]
        },
        {
            "positions": [
                -0.857146611891059,
                -0.2620439540209919,
                -1.1011776995214388,
                0.16243427984160763,
                1.2377072473049415,
                0.27212265211241105
            ]
        },
        {
            "positions": [
                -0.8197579583804693,
                -0.288513904299476,
                -0.9842540126256416,
                0.12483908762474877,
                1.1901505926238634,
                0.15115490425771183
            ]
        },
        {
            "positions": [
                -0.7823693048698794,
                -0.3149838545779601,
                -0.8673303257298444,
                0.0872438954078899,
                1.1425939379427854,
                0.030187156403012505
            ]
        },
        {
            "positions": [
                -0.7449806513592897,
                -0.3414538048564441,
                -0.7504066388340471,
                0.04964870319103104,
                1.0950372832617075,
                -0.0907805914516866
            ]
        },
        {
            "positions": [
                -0.7075919978487,
                -0.3679237551349282,
                -0.6334829519382501,
                0.012053510974172232,
                1.0474806285806295,
                -0.2117483393063857
            ]
        },
        {
            "positions": [
                -0.6702033443381101,
                -0.3943937054134123,
                -0.5165592650424529,
                -0.02554168124268663,
                0.9999239738995513,
                -0.33271608716108503
            ]
        },
        {
            "positions": [
                -0.6328146908275204,
                -0.4208636556918963,
                -0.3996355781466556,
                -0.0631368734595455,
                0.9523673192184734,
                -0.45368383501578435
            ]
        },
        {
            "positions": [
                -0.5954260373169307,
                -0.4473336059703804,
                -0.2827118912508586,
                -0.1007320656764043,
                0.9048106645373953,
                -0.5746515828704835
            ]
        },
        {
            "positions": [
                -0.5580373838063408,
                -0.47380355624886444,
                -0.16578820435506136,
                -0.13832725789326322,
                0.8572540098563174,
                -0.6956193307251826
            ]
        },
        {
            "positions": [
                -0.5206487302957511,
                -0.5002735065273485,
                -0.04886451745926412,
                -0.17592245011012203,
                0.8096973551752393,
                -0.8165870785798819
            ]
        },
        {
            "positions": [
                -0.48326007678516136,
                -0.5267434568058327,
                0.06805916943653312,
                -0.21351764232698084,
                0.7621407004941613,
                -0.9375548264345812
            ]
        },
        {
            "positions": [
                -0.4458714232745715,
                -0.5532134070843167,
                0.18498285633233036,
                -0.25111283454383976,
                0.7145840458130833,
                -1.0585225742892805
            ]
        },
        {
            "positions": [
                -0.4084827697639818,
                -0.5796833573628006,
                0.3019065432281274,
                -0.28870802676069857,
                0.6670273911320053,
                -1.1794903221439794
            ]
        },
        {
            "positions": [
                -0.37109411625339206,
                -0.6061533076412848,
                0.41883023012392484,
                -0.3263032189775575,
                0.6194707364509273,
                -1.3004580699986787
            ]
        },
        {
            "positions": [
                -0.3337054627428022,
                -0.6326232579197688,
                0.5357539170197219,
                -0.3638984111944163,
                0.5719140817698493,
                -1.421425817853378
            ]
        },
        {
            "positions": [
                -0.2963168092322125,
                -0.659093208198253,
                0.6526776039155189,
                -0.4014936034112751,
                0.5243574270887712,
                -1.542393565708077
            ]
        },
        {
            "positions": [
                -0.25892815572162275,
                -0.685563158476737,
                0.7696012908113163,
                -0.439088795628134,
                0.47680077240769325,
                -1.6633613135627763
            ]
        },
        {
            "positions": [
                -0.2215395022110329,
                -0.7120331087552212,
                0.8865249777071134,
                -0.47668398784499283,
                0.4292441177266151,
                -1.7843290614174756
            ]
        },
        {
            "positions": [
                -0.18415084870044318,
                -0.7385030590337052,
                1.0034486646029104,
                -0.5142791800618516,
                0.38168746304553713,
                -1.905296809272175
            ]
        },
        {
            "positions": [
                -0.14676219518985345,
                -0.7649730093121891,
                1.1203723514987078,
                -0.5518743722787105,
                0.3341308083644592,
                -2.0262645571268743
            ]
        },
        {
            "positions": [
                -0.10937354167926361,
                -0.7914429595906733,
                1.2372960383945049,
                -0.5894695644955694,
                0.28657415368338124,
                -2.147232304981573
            ]
        },
        {
            "positions": [
                -0.07198488816867399,
                -0.8179129098691573,
                1.3542197252903019,
                -0.6270647567124281,
                0.23901749900230307,
                -2.2682000528362725
            ]
        },
        {
            "positions": [
                -0.034596234658084146,
                -0.8443828601476415,
                1.4711434121860993,
                -0.664659948929287,
                0.19146084432122512,
                -2.389167800690972
            ]
        },
        {
            "positions": [
                0.002792418852505696,
                -0.8708528104261255,
                1.5880670990818964,
                -0.702255141146146,
                0.14390418964014717,
                -2.5101355485456707
            ]
        },
        {
            "positions": [
                0.040181072363095316,
                -0.8973227607046095,
                1.7049907859776938,
                -0.7398503333630047,
                0.096347534959069,
                -2.63110329640037
            ]
        },
        {
            "positions": [
                0.07756972587368519,
                -0.9237927109830936,
                1.821914472873491,
                -0.7774455255798636,
                0.04879088027799103,
                -2.7520710442550693
            ]
        },
        {
            "positions": [
                0.09272922598663522,
                -0.9927533490675912,
                1.866197559520255,
                -0.7569258139934786,
                0.07316010346063406,
                -2.9156028993832317
            ]
        },
        {
            "positions": [
                0.10788872609958525,
                -1.0617139871520886,
                1.9104806461670187,
                -0.7364061024070936,
                0.09752932664327711,
                -3.0791347545113945
            ]
        },
        {
            "positions": [
                0.12304822621253529,
                -1.1306746252365862,
                1.9547637328137826,
                -0.7158863908207086,
                0.12189854982592016,
                -3.242666609639557
            ]
        }
    ]
}