{
    "goal": {
        "global_pose": {
            "orientation": {
                "w": 0.7047431468963623,
                "x": -0.7094548344612122,
                "y": 0.0024358443915843964,
                "z": -0.0022348060738295317
            },
            "position": {
                "x": 0.6094750761985779,
                "y": 0.3671506643295288,
                "z": 0.19426114857196808
            }
        },
        "name": "move_to_magneteinheit_A"
    },
    "id": "TRRT_move_to_magneteinheit_A_92",
    "joint_names": [
        "shoulder_pan_joint",
        "shoulder_lift_joint",
        "elbow_joint",
        "wrist_1_joint",
        "wrist_2_joint",
        "wrist_3_joint"
    ],
    "metrics": {
        "cart_traj_len": 1.8717357512236619,
        "distance_elbow_joint": 3.930784990610986,
        "distance_shoulder_lift_joint": 0.7078314286520562,
        "distance_shoulder_pan_joint": 1.2424800645529457,
        "distance_wrist_1_joint": 1.5538602345092802,
        "distance_wrist_2_joint": 1.7065075850250284,
        "distance_wrist_3_joint": 1.1772011011968067,
        "smoothness": 5.709718421780688e-16,
        "time": 0.050044751,
        "traj_len": 3.2122679534165735,
        "weighted_distance": 3.991670756271742
    },
    "planner": "TRRT",
    "start": {
        "state": {
            "elbow_joint": -1.919643507792019,
            "shoulder_lift_joint": -0.07675430207160344,
            "shoulder_pan_joint": -1.1188671864651873,
            "wrist_1_joint": 0.42560062535961957,
            "wrist_2_joint": 1.5706038300724876,
            "wrist_3_joint": 1.1188968870953055
        }
    },
    "waypoints": [
        {
            "positions": [
                -1.1188671864651873,
                -0.07675430207160344,
                -1.919643507792019,
                0.42560062535961957,
                1.5706038300724876,
                1.1188968870953055
            ]
        },
        {
            "positions": [
                -1.0728494062965597,
                -0.10297028091056848,
                -1.7740588785101308,
                0.48315100441551884,
                1.507399845441931,
                1.0752968463102386
            ]
        },
        {
            "positions": [
                -1.0268316261279322,
                -0.12918625974953352,
                -1.6284742492282422,
                0.540701383471418,
                1.4441958608113743,
                1.0316968055251716
            ]
        },
        {
            "positions": [
                -0.9808138459593045,
                -0.15540223858849855,
                -1.482889619946354,
                0.5982517625273174,
                1.3809918761808178,
                0.9880967647401049
            ]
        },
        {
            "positions": [
                -0.9347960657906769,
                -0.1816182174274636,
                -1.3373049906644656,
                0.6558021415832166,
                1.3177878915502612,
                0.9444967239550379
            ]
        },
        {
            "positions": [
                -0.8887782856220493,
                -0.20783419626642866,
                -1.1917203613825773,
                0.7133525206391159,
                1.2545839069197045,
                0.900896683169971
            ]
        },
        {
            "positions": [
                -0.8427605054534216,
                -0.2340501751053937,
                -1.046135732100689,
                0.7709028996950151,
                1.191379922289148,
                0.8572966423849041
            ]
        },
        {
            "positions": [
                -0.7967427252847941,
                -0.2602661539443587,
                -0.9005511028188005,
                0.8284532787509145,
                1.1281759376585914,
                0.8136966015998373
            ]
        },
        {
            "positions": [
                -0.7507249451161664,
                -0.2864821327833238,
                -0.7549664735369122,
                0.8860036578068137,
                1.0649719530280348,
                0.7700965608147703
            ]
        },
        {
            "positions": [
                -0.7047071649475388,
                -0.31269811162228883,
                -0.6093818442550238,
                0.9435540368627129,
                1.0017679683974783,
                0.7264965200297033
            ]
        },
        {
            "positions": [
                -0.6586893847789113,
                -0.33891409046125387,
                -0.4637972149731353,
                1.0011044159186122,
                0.9385639837669215,
                0.6828964792446364
            ]
        },
        {
            "positions": [
                -0.6126716046102836,
                -0.3651300693002189,
                -0.318212585691247,
                1.0586547949745115,
                0.875359999136365,
                0.6392964384595695
            ]
        },
        {
            "positions": [
                -0.5666538244416559,
                -0.39134604813918394,
                -0.17262795640935868,
                1.1162051740304106,
                0.8121560145058083,
                0.5956963976745027
            ]
        },
        {
            "positions": [
                -0.5206360442730283,
                -0.417562026978149,
                -0.027043327127470373,
                1.17375555308631,
                0.7489520298752518,
                0.5520963568894357
            ]
        },
        {
            "positions": [
                -0.4746182641044008,
                -0.443778005817114,
                0.11854130215441816,
                1.2313059321422093,
                0.6857480452446951,
                0.5084963161043689
            ]
        },
        {
            "positions": [
                -0.4286004839357731,
                -0.4699939846560791,
                0.26412593143630647,
                1.2888563111981086,
                0.6225440606141385,
                0.4648962753193018
            ]
        },
        {
            "positions": [
                -0.38258270376714554,
                -0.4962099634950441,
                0.4097105607181948,
                1.3464066902540077,
                0.559340075983582,
                0.4212962345342349
            ]
        },
        {
            "positions": [
                -0.33656492359851786,
                -0.5224259423340092,
                0.5552951900000835,
                1.403957069309907,
                0.4961360913530253,
                0.37769619374916796
            ]
        },
        {
            "positions": [
                -0.2905471434298903,
                -0.5486419211729743,
                0.7008798192819714,
                1.4615074483658064,
                0.43293210672246873,
                0.3340961529641011
            ]
        },
        {
            "positions": [
                -0.24452936326126262,
                -0.5748579000119393,
                0.8464644485638602,
                1.5190578274217057,
                0.36972812209191197,
                0.29049611217903415
            ]
        },
        {
            "positions": [
                -0.19851158309263506,
                -0.6010738788509042,
                0.9920490778457485,
                1.576608206477605,
                0.30652413746135543,
                0.2468960713939673
            ]
        },
        {
            "positions": [
                -0.15249380292400738,
                -0.6272898576898693,
                1.1376337071276368,
                1.6341585855335043,
                0.24332015283079889,
                0.20329603060890034
            ]
        },
        {
            "positions": [
                -0.10647602275537982,
                -0.6535058365288344,
                1.283218336409525,
                1.6917089645894035,
                0.18011616820024234,
                0.15969598982383348
            ]
        },
        {
            "positions": [
                -0.06045824258675214,
                -0.6797218153677995,
                1.4288029656914134,
                1.7492593436453028,
                0.11691218356968558,
                0.11609594903876652
            ]
        },
        {
            "positions": [
                -0.014440462418124467,
                -0.7059377942067644,
                1.5743875949733017,
                1.8068097227012019,
                0.05370819893912904,
                0.07249590825369978
            ]
        },
        {
            "positions": [
                0.03157731775050321,
                -0.7321537730457295,
                1.7199722242551905,
                1.8643601017571014,
                -0.009495785691427505,
                0.02889586746863282
            ]
        },
        {
            "positions": [
                0.07759509791913066,
                -0.7583697518846946,
                1.8655568535370783,
                1.9219104808130005,
                -0.07269977032198405,
                -0.014704173316434144
            ]
        },
        {
            "positions": [
                0.12361287808775835,
                -0.7845857307236597,
                2.0111414828189673,
                1.9794608598688999,
                -0.13590375495254087,
                -0.0583042141015012
            ]
        }
    ]
}