{
    "goal": {
        "global_pose": {
            "orientation": {
                "w": 0.7031023502349854,
                "x": -0.7110244035720825,
                "y": 0.007748599164187908,
                "z": 0.005598929710686207
            },
            "position": {
                "x": 0.11585023208521307,
                "y": 0.44412534475326537,
                "z": 0.3711530566215515
            }
        },
        "name": "move_to_auspresseinheit_A"
    },
    "id": "TRRT_move_to_auspresseinheit_A_135",
    "joint_names": [
        "shoulder_pan_joint",
        "shoulder_lift_joint",
        "elbow_joint",
        "wrist_1_joint",
        "wrist_2_joint",
        "wrist_3_joint"
    ],
    "metrics": {
        "cart_traj_len": 0.7256120412490279,
        "distance_elbow_joint": 0.5288148769868344,
        "distance_shoulder_lift_joint": 1.0812719476906523,
        "distance_shoulder_pan_joint": 1.770856163838741,
        "distance_wrist_1_joint": 2.890502148805359,
        "distance_wrist_2_joint": 0.5124478126212972,
        "distance_wrist_3_joint": 10.456223645525501,
        "smoothness": 0.6838710367607405,
        "time": 0.14188315299999998,
        "traj_len": 4.15212193889683,
        "weighted_distance": 6.446356633630039
    },
    "planner": "TRRT",
    "start": {
        "state": {
            "elbow_joint": 2.422574709923281,
            "shoulder_lift_joint": -1.3736533754116391,
            "shoulder_pan_joint": -0.33786336945926293,
            "wrist_1_joint": -1.0288603412921917,
            "wrist_2_joint": 1.2330224858903978,
            "wrist_3_joint": -3.094022268022082
        }
    },
    "waypoints": [
        {
            "positions": [
                -0.33786336945926293,
                -1.3736533754116391,
                2.422574709923281,
                -1.0288603412921917,
                1.2330224858903978,
                -3.094022268022082
            ]
        },
        {
            "positions": [
                -0.3536045292478828,
                -1.4088500647741526,
                2.433480139879332,
                -0.9539976112145908,
                1.2150324921670166,
                -2.8673097446861586
            ]
        },
        {
            "positions": [
                -0.3693456890365027,
                -1.4440467541366664,
                2.444385569835383,
                -0.8791348811369899,
                1.1970424984436356,
                -2.640597221350235
            ]
        },
        {
            "positions": [
                -0.3850868488251227,
                -1.47924344349918,
                2.4552909997914334,
                -0.804272151059389,
                1.1790525047202545,
                -2.4138846980143116
            ]
        },
        {
            "positions": [
                -0.40082800861374257,
                -1.5144401328616934,
                2.4661964297474843,
                -0.7294094209817881,
                1.1610625109968735,
                -2.1871721746783876
            ]
        },
        {
            "positions": [
                -0.41656916840236247,
                -1.549636822224207,
                2.4771018597035352,
                -0.6545466909041873,
                1.1430725172734924,
                -1.9604596513424641
            ]
        },
        {
            "positions": [
                -0.43231032819098236,
                -1.5848335115867207,
                2.488007289659586,
                -0.5796839608265862,
                1.1250825235501114,
                -1.7337471280065406
            ]
        },
        {
            "positions": [
                -0.4480514879796023,
                -1.6200302009492342,
                2.498912719615637,
                -0.5048212307489853,
                1.1070925298267302,
                -1.507034604670617
            ]
        },
        {
            "positions": [
                -0.46379264776822215,
                -1.6552268903117477,
                2.5098181495716876,
                -0.4299585006713844,
                1.0891025361033493,
                -1.2803220813346934
            ]
        },
        {
            "positions": [
                -0.4795338075568421,
                -1.6904235796742615,
                2.5207235795277385,
                -0.3550957705937835,
                1.0711125423799681,
                -1.0536095579987697
            ]
        },
        {
            "positions": [
                -0.495274967345462,
                -1.725620269036775,
                2.5316290094837894,
                -0.2802330405161827,
                1.0531225486565872,
                -0.8268970346628461
            ]
        },
        {
            "positions": [
                -0.511016127134082,
                -1.7608169583992885,
                2.5425344394398404,
                -0.20537031043858167,
                1.035132554933206,
                -0.6001845113269222
            ]
        },
        {
            "positions": [
                -0.5267572869227019,
                -1.7960136477618023,
                2.553439869395891,
                -0.13050758036098087,
                1.017142561209825,
                -0.3734719879909991
            ]
        },
        {
            "positions": [
                -0.5424984467113217,
                -1.8312103371243158,
                2.5643452993519418,
                -0.055644850283379954,
                0.9991525674864439,
                -0.1467594646550756
            ]
        },
        {
            "positions": [
                -0.5582396064999416,
                -1.8664070264868293,
                2.5752507293079927,
                0.01921787979422107,
                0.9811625737630628,
                0.07995305868084834
            ]
        },
        {
            "positions": [
                -0.5739807662885615,
                -1.901603715849343,
                2.5861561592640436,
                0.09408060987182187,
                0.9631725800396818,
                0.30666558201677185
            ]
        },
        {
            "positions": [
                -0.5897219260771814,
                -1.9368004052118566,
                2.597061589220094,
                0.1689433399494229,
                0.9451825863163008,
                0.5333781053526954
            ]
        },
        {
            "positions": [
                -0.6054630858658013,
                -1.9719970945743701,
                2.607967019176145,
                0.2438060700270237,
                0.9271925925929196,
                0.7600906286886189
            ]
        },
        {
            "positions": [
                -0.6212042456544213,
                -2.007193783936884,
                2.618872449132196,
                0.3186688001046247,
                0.9092025988695386,
                0.9868031520245428
            ]
        },
        {
            "positions": [
                -0.6369454054430412,
                -2.042390473299397,
                2.629777879088247,
                0.39353153018222553,
                0.8912126051461575,
                1.2135156753604668
            ]
        },
        {
            "positions": [
                -0.6526865652316611,
                -2.077587162661911,
                2.640683309044298,
                0.46839426025982633,
                0.8732226114227765,
                1.4402281986963898
            ]
        },
        {
            "positions": [
                -0.668427725020281,
                -2.1127838520244246,
                2.6515887390003483,
                0.5432569903374274,
                0.8552326176993954,
                1.666940722032313
            ]
        },
        {
            "positions": [
                -0.6841688848089009,
                -2.1479805413869384,
                2.6624941689563992,
                0.6181197204150284,
                0.8372426239760143,
                1.8936532453682378
            ]
        },
        {
            "positions": [
                -0.6999100445975208,
                -2.1831772307494517,
                2.67339959891245,
                0.6929824504926292,
                0.8192526302526333,
                2.120365768704161
            ]
        },
        {
            "positions": [
                -0.6358732496565898,
                -2.1708250447334136,
                2.660763690367102,
                0.6398615706280594,
                0.8147672685715636,
                1.8821005137587403
            ]
        },
        {
            "positions": [
                -0.5718364547156587,
                -2.158472858717375,
                2.6481277818217532,
                0.5867406907634896,
                0.810281906890494,
                1.6438352588133198
            ]
        },
        {
            "positions": [
                -0.5077996597747276,
                -2.146120672701337,
                2.635491873276405,
                0.5336198108989199,
                0.8057965452094242,
                1.4055700038678993
            ]
        },
        {
            "positions": [
                -0.4437628648337966,
                -2.133768486685299,
                2.6228559647310563,
                0.48049893103435004,
                0.8013111835283546,
                1.1673047489224786
            ]
        },
        {
            "positions": [
                -0.37972606989286556,
                -2.121416300669261,
                2.610220056185708,
                0.4273780511697802,
                0.7968258218472849,
                0.9290394939770581
            ]
        },
        {
            "positions": [
                -0.31568927495193455,
                -2.1090641146532225,
                2.59758414764036,
                0.37425717130521047,
                0.7923404601662153,
                0.6907742390316376
            ]
        },
        {
            "positions": [
                -0.25165248001100343,
                -2.0967119286371845,
                2.584948239095011,
                0.32113629144064065,
                0.7878550984851456,
                0.4525089840862171
            ]
        },
        {
            "positions": [
                -0.18761568507007242,
                -2.0843597426211464,
                2.572312330549663,
                0.26801541157607084,
                0.783369736804076,
                0.21424372914079637
            ]
        },
        {
            "positions": [
                -0.12357889012914125,
                -2.0720075566051084,
                2.5596764220043142,
                0.21489453171150102,
                0.7788843751230062,
                -0.024021525804624133
            ]
        },
        {
            "positions": [
                -0.0595420951882103,
                -2.05965537058907,
                2.547040513458966,
                0.16177365184693127,
                0.7743990134419366,
                -0.26228678075004463
            ]
        },
        {
            "positions": [
                0.0044946997527207655,
                -2.047303184573032,
                2.5344046049136173,
                0.10865277198236145,
                0.7699136517608669,
                -0.5005520356954651
            ]
        },
        {
            "positions": [
                0.06853149469365172,
                -2.034950998556994,
                2.521768696368269,
                0.05553189211779175,
                0.7654282900797973,
                -0.7388172906408856
            ]
        },
        {
            "positions": [
                0.1325682896345829,
                -2.0225988125409553,
                2.509132787822921,
                0.0024110122532218226,
                0.7609429283987276,
                -0.9770825455863066
            ]
        },
        {
            "positions": [
                0.19660508457551396,
                -2.0102466265249173,
                2.496496879277572,
                -0.05070986761134788,
                0.7564575667176578,
                -1.2153478005317266
            ]
        },
        {
            "positions": [
                0.2606418795164449,
                -1.9978944405088792,
                2.483860970732224,
                -0.1038307474759177,
                0.7519722050365882,
                -1.4536130554771471
            ]
        },
        {
            "positions": [
                0.32467867445737597,
                -1.985542254492841,
                2.471225062186875,
                -0.1569516273404875,
                0.7474868433555185,
                -1.691878310422568
            ]
        },
        {
            "positions": [
                0.38871546939830703,
                -1.973190068476803,
                2.458589153641527,
                -0.21007250720505732,
                0.7430014816744489,
                -1.9301435653679886
            ]
        },
        {
            "positions": [
                0.4527522643392383,
                -1.9608378824607646,
                2.4459532450961787,
                -0.26319338706962714,
                0.7385161199933792,
                -2.168408820313409
            ]
        },
        {
            "positions": [
                0.5167890592801692,
                -1.9484856964447266,
                2.43331733655083,
                -0.31631426693419695,
                0.7340307583123096,
                -2.4066740752588296
            ]
        },
        {
            "positions": [
                0.5808258542211002,
                -1.9361335104286883,
                2.420681428005482,
                -0.36943514679876666,
                0.7295453966312399,
                -2.64493933020425
            ]
        },
        {
            "positions": [
                0.6448626491620313,
                -1.92378132441265,
                2.408045519460133,
                -0.4225560266633366,
                0.7250600349501701,
                -2.8832045851496706
            ]
        },
        {
            "positions": [
                0.7088994441029624,
                -1.911429138396612,
                2.395409610914785,
                -0.4756769065279063,
                0.7205746732691005,
                -3.121469840095091
            ]
        }
    ]
}