{
    "goal": {
        "global_pose": {
            "orientation": {
                "w": 0.7031023502349854,
                "x": -0.7110244035720825,
                "y": 0.007748599164187908,
                "z": 0.005598929710686207
            },
            "position": {
                "x": 0.11585023208521307,
                "y": 0.44412534475326537,
                "z": 0.3711530566215515
            }
        },
        "name": "move_to_auspresseinheit_A"
    },
    "id": "TRRT_move_to_auspresseinheit_A_20",
    "joint_names": [
        "shoulder_pan_joint",
        "shoulder_lift_joint",
        "elbow_joint",
        "wrist_1_joint",
        "wrist_2_joint",
        "wrist_3_joint"
    ],
    "metrics": {
        "cart_traj_len": 0.7241622290595451,
        "distance_elbow_joint": 0.1572408895919133,
        "distance_shoulder_lift_joint": 0.5368461070985022,
        "distance_shoulder_pan_joint": 1.040041304759881,
        "distance_wrist_1_joint": 0.5460304060340124,
        "distance_wrist_2_joint": 0.5368317535844384,
        "distance_wrist_3_joint": 0.34879096816239574,
        "smoothness": 0.39173539549335623,
        "time": 0.028207883,
        "traj_len": 1.7792642943731385,
        "weighted_distance": 2.22401113422896
    },
    "planner": "TRRT",
    "start": {
        "state": {
            "elbow_joint": 2.422574709923281,
            "shoulder_lift_joint": -1.3736533754116391,
            "shoulder_pan_joint": -0.33786336945926293,
            "wrist_1_joint": -1.0288603412921917,
            "wrist_2_joint": 1.2330224858903978,
            "wrist_3_joint": -3.094022268022082
        }
    },
    "waypoints": [
        {
            "positions": [
                -0.33786336945926293,
                -1.3736533754116391,
                2.422574709923281,
                -1.0288603412921917,
                1.2330224858903978,
                -3.094022268022082
            ]
        },
        {
            "positions": [
                -0.2705127584786556,
                -1.4602078972775812,
                2.4072569983323313,
                -0.9414516286270211,
                1.1653720793610904,
                -3.067116991410713
            ]
        },
        {
            "positions": [
                -0.20316214749804823,
                -1.5467624191435234,
                2.3919392867413816,
                -0.8540429159618506,
                1.0977216728317831,
                -3.0402117147993444
            ]
        },
        {
            "positions": [
                -0.13581153651744088,
                -1.6333169410094655,
                2.376621575150432,
                -0.76663420329668,
                1.0300712663024756,
                -3.0133064381879757
            ]
        },
        {
            "positions": [
                -0.06846092553683353,
                -1.7198714628754075,
                2.361303863559482,
                -0.6792254906315094,
                0.9624208597731684,
                -2.9864011615766066
            ]
        },
        {
            "positions": [
                -0.0011103145562261774,
                -1.8064259847413497,
                2.3459861519685323,
                -0.5918167779663388,
                0.894770453243861,
                -2.9594958849652375
            ]
        },
        {
            "positions": [
                0.06624029642438116,
                -1.8929805066072918,
                2.3306684403775826,
                -0.5044080653011682,
                0.8271200467145536,
                -2.932590608353869
            ]
        },
        {
            "positions": [
                0.27821950938312684,
                -1.898820165241575,
                2.3524466470596543,
                -0.49721535528683863,
                0.7834769419116889,
                -2.995043711185263
            ]
        },
        {
            "positions": [
                0.49019872234187256,
                -1.904659823875858,
                2.3742248537417256,
                -0.49002264527250905,
                0.7398338371088241,
                -3.057496814016657
            ]
        },
        {
            "positions": [
                0.7021779353006182,
                -1.9104994825101413,
                2.3960030604237974,
                -0.48282993525817947,
                0.6961907323059594,
                -3.1199499168480513
            ]
        }
    ]
}