{
    "goal": {
        "global_pose": {
            "orientation": {
                "w": 0.7031023502349854,
                "x": -0.7110244035720825,
                "y": 0.007748599164187908,
                "z": 0.005598929710686207
            },
            "position": {
                "x": 0.11585023208521307,
                "y": 0.44412534475326537,
                "z": 0.3711530566215515
            }
        },
        "name": "move_to_auspresseinheit_A"
    },
    "id": "TRRT_move_to_auspresseinheit_A_25",
    "joint_names": [
        "shoulder_pan_joint",
        "shoulder_lift_joint",
        "elbow_joint",
        "wrist_1_joint",
        "wrist_2_joint",
        "wrist_3_joint"
    ],
    "metrics": {
        "cart_traj_len": 0.7457979673715885,
        "distance_elbow_joint": 0.31902332202467587,
        "distance_shoulder_lift_joint": 0.5339972761067893,
        "distance_shoulder_pan_joint": 1.0469829016463932,
        "distance_wrist_1_joint": 0.9421853640797941,
        "distance_wrist_2_joint": 0.5153393995354081,
        "distance_wrist_3_joint": 0.06782783345785637,
        "smoothness": 0.6776044173133827,
        "time": 0.119722068,
        "traj_len": 1.8507717570924072,
        "weighted_distance": 2.2402090365369545
    },
    "planner": "TRRT",
    "start": {
        "state": {
            "elbow_joint": 2.422574709923281,
            "shoulder_lift_joint": -1.3736533754116391,
            "shoulder_pan_joint": -0.33786336945926293,
            "wrist_1_joint": -1.0288603412921917,
            "wrist_2_joint": 1.2330224858903978,
            "wrist_3_joint": -3.094022268022082
        }
    },
    "waypoints": [
        {
            "positions": [
                -0.33786336945926293,
                -1.3736533754116391,
                2.422574709923281,
                -1.0288603412921917,
                1.2330224858903978,
                -3.094022268022082
            ]
        },
        {
            "positions": [
                -0.24824271091164124,
                -1.4578202769651663,
                2.3933639786416756,
                -0.9025755077190895,
                1.2124028503690347,
                -3.09315691904517
            ]
        },
        {
            "positions": [
                -0.15862205236401952,
                -1.5419871785186934,
                2.36415324736007,
                -0.7762906741459872,
                1.1917832148476717,
                -3.0922915700682587
            ]
        },
        {
            "positions": [
                -0.0690013938163978,
                -1.6261540800722205,
                2.3349425160784647,
                -0.6500058405728848,
                1.1711635793263087,
                -3.091426221091347
            ]
        },
        {
            "positions": [
                0.020619264731223885,
                -1.7103209816257476,
                2.3057317847968593,
                -0.5237210069997825,
                1.1505439438049454,
                -3.090560872114435
            ]
        },
        {
            "positions": [
                0.11023992327884563,
                -1.794487883179275,
                2.276521053515254,
                -0.39743617342668014,
                1.1299243082835824,
                -3.0896955231375234
            ]
        },
        {
            "positions": [
                0.1998605818264673,
                -1.8786547847328021,
                2.2473103222336483,
                -0.2711513398535778,
                1.1093046727622193,
                -3.0888301741606115
            ]
        },
        {
            "positions": [
                0.327175319416633,
                -1.8859037514292087,
                2.283250055817409,
                -0.3172704305138728,
                1.0113992761604118,
                -3.104489109059708
            ]
        },
        {
            "positions": [
                0.4544900570067988,
                -1.8931527181256151,
                2.31918978940117,
                -0.3633895211741679,
                0.9134938795586045,
                -3.120148043958804
            ]
        },
        {
            "positions": [
                0.5818047945969644,
                -1.9004016848220218,
                2.3551295229849307,
                -0.4095086118344629,
                0.8155884829567971,
                -3.1358069788579006
            ]
        },
        {
            "positions": [
                0.7091195321871302,
                -1.9076506515184284,
                2.3910692565686915,
                -0.4556277024947579,
                0.7176830863549897,
                -3.151465913756997
            ]
        }
    ]
}