{
    "goal": {
        "global_pose": {
            "orientation": {
                "w": 0.7047431468963623,
                "x": -0.7094548344612122,
                "y": 0.0024358443915843964,
                "z": -0.0022348060738295317
            },
            "position": {
                "x": 0.6094750761985779,
                "y": 0.3671506643295288,
                "z": 0.19426114857196808
            }
        },
        "name": "move_to_magneteinheit_A"
    },
    "id": "TRRT_move_to_magneteinheit_A_17",
    "joint_names": [
        "shoulder_pan_joint",
        "shoulder_lift_joint",
        "elbow_joint",
        "wrist_1_joint",
        "wrist_2_joint",
        "wrist_3_joint"
    ],
    "metrics": {
        "cart_traj_len": 2.0632097227515587,
        "distance_elbow_joint": 3.870007626891521,
        "distance_shoulder_lift_joint": 1.0501814247002186,
        "distance_shoulder_pan_joint": 1.2428754730785754,
        "distance_wrist_1_joint": 1.1157728264454048,
        "distance_wrist_2_joint": 1.4459555603147591,
        "distance_wrist_3_joint": 1.8816372519961408,
        "smoothness": 6.661338155761756e-16,
        "time": 0.064446369,
        "traj_len": 3.2567514740039063,
        "weighted_distance": 4.114782260846746
    },
    "planner": "TRRT",
    "start": {
        "state": {
            "elbow_joint": -1.919643507792019,
            "shoulder_lift_joint": -0.07675430207160344,
            "shoulder_pan_joint": -1.1188671864651873,
            "wrist_1_joint": 0.42560062535961957,
            "wrist_2_joint": 1.5706038300724876,
            "wrist_3_joint": 1.1188968870953055
        }
    },
    "waypoints": [
        {
            "positions": [
                -1.1188671864651873,
                -0.07675430207160344,
                -1.919643507792019,
                0.42560062535961957,
                1.5706038300724876,
                1.1188968870953055
            ]
        },
        {
            "positions": [
                -1.0728347615363512,
                -0.11564991039383377,
                -1.7763098919812221,
                0.3842757058616416,
                1.5170499204312002,
                1.1885871556877552
            ]
        },
        {
            "positions": [
                -1.0268023366075152,
                -0.1545455187160641,
                -1.632976276170425,
                0.34295078636366366,
                1.4634960107899129,
                1.2582774242802048
            ]
        },
        {
            "positions": [
                -0.980769911678679,
                -0.19344112703829439,
                -1.4896426603596278,
                0.3016258668656857,
                1.4099421011486255,
                1.3279676928726545
            ]
        },
        {
            "positions": [
                -0.9347374867498428,
                -0.2323367353605247,
                -1.3463090445488308,
                0.2603009473677078,
                1.3563881915073381,
                1.3976579614651041
            ]
        },
        {
            "positions": [
                -0.8887050618210067,
                -0.271232343682755,
                -1.2029754287380339,
                0.21897602786972986,
                1.3028342818660508,
                1.4673482300575538
            ]
        },
        {
            "positions": [
                -0.8426726368921706,
                -0.31012795200498533,
                -1.0596418129272367,
                0.1776511083717519,
                1.2492803722247634,
                1.5370384986500034
            ]
        },
        {
            "positions": [
                -0.7966402119633345,
                -0.34902356032721565,
                -0.9163081971164395,
                0.13632618887377396,
                1.195726462583476,
                1.606728767242453
            ]
        },
        {
            "positions": [
                -0.7506077870344984,
                -0.387919168649446,
                -0.7729745813056426,
                0.095001269375796,
                1.1421725529421887,
                1.6764190358349027
            ]
        },
        {
            "positions": [
                -0.7045753621056623,
                -0.4268147769716763,
                -0.6296409654948454,
                0.05367634987781805,
                1.0886186433009013,
                1.7461093044273523
            ]
        },
        {
            "positions": [
                -0.6585429371768261,
                -0.46571038529390657,
                -0.48630734968404843,
                0.012351430379840156,
                1.035064733659614,
                1.815799573019802
            ]
        },
        {
            "positions": [
                -0.61251051224799,
                -0.5046059936161369,
                -0.34297373387325125,
                -0.028973489118137796,
                0.9815108240183265,
                1.8854898416122516
            ]
        },
        {
            "positions": [
                -0.5664780873191538,
                -0.5435016019383672,
                -0.1996401180624543,
                -0.07029840861611575,
                0.9279569143770391,
                1.9551801102047013
            ]
        },
        {
            "positions": [
                -0.5204456623903178,
                -0.5823972102605977,
                -0.05630650225165712,
                -0.11162332811409376,
                0.8744030047357517,
                2.024870378797151
            ]
        },
        {
            "positions": [
                -0.4744132374614817,
                -0.6212928185828279,
                0.08702711355914006,
                -0.15294824761207165,
                0.8208490950944644,
                2.094560647389601
            ]
        },
        {
            "positions": [
                -0.4283808125326455,
                -0.6601884269050582,
                0.23036072936993723,
                -0.19427316711004966,
                0.767295185453177,
                2.16425091598205
            ]
        },
        {
            "positions": [
                -0.3823483876038094,
                -0.6990840352272885,
                0.37369434518073397,
                -0.23559808660802756,
                0.7137412758118896,
                2.2339411845745003
            ]
        },
        {
            "positions": [
                -0.3363159626749732,
                -0.737979643549519,
                0.5170279609915311,
                -0.27692300610600556,
                0.6601873661706021,
                2.3036314531669495
            ]
        },
        {
            "positions": [
                -0.29028353774613713,
                -0.7768752518717492,
                0.6603615768023283,
                -0.31824792560398346,
                0.6066334565293149,
                2.3733217217593996
            ]
        },
        {
            "positions": [
                -0.24425111281730094,
                -0.8157708601939795,
                0.8036951926131255,
                -0.35957284510196147,
                0.5530795468880274,
                2.4430119903518492
            ]
        },
        {
            "positions": [
                -0.19821868788846486,
                -0.8546664685162098,
                0.9470288084239222,
                -0.40089776459993925,
                0.49952563724674026,
                2.512702258944299
            ]
        },
        {
            "positions": [
                -0.15218626295962867,
                -0.89356207683844,
                1.0903624242347194,
                -0.44222268409791726,
                0.4459717276054527,
                2.5823925275367485
            ]
        },
        {
            "positions": [
                -0.1061538380307927,
                -0.9324576851606703,
                1.2336960400455166,
                -0.48354760359589516,
                0.3924178179641653,
                2.652082796129198
            ]
        },
        {
            "positions": [
                -0.06012141310195651,
                -0.9713532934829008,
                1.3770296558563138,
                -0.5248725230938731,
                0.33886390832287794,
                2.721773064721648
            ]
        },
        {
            "positions": [
                -0.01408898817312032,
                -1.010248901805131,
                1.5203632716671105,
                -0.566197442591851,
                0.28530999868159057,
                2.7914633333140975
            ]
        },
        {
            "positions": [
                0.03194343675571587,
                -1.0491445101273613,
                1.6636968874779077,
                -0.6075223620898291,
                0.2317560890403032,
                2.861153601906547
            ]
        },
        {
            "positions": [
                0.07797586168455184,
                -1.0880401184495918,
                1.8070305032887048,
                -0.648847281587807,
                0.17820217939901584,
                2.9308438704989968
            ]
        },
        {
            "positions": [
                0.1240082866133881,
                -1.126935726771822,
                1.9503641190995022,
                -0.690172201085785,
                0.1246482697577285,
                3.0005341390914464
            ]
        }
    ]
}