{
    "goal": {
        "global_pose": {
            "orientation": {
                "w": 0.5084816217422485,
                "x": -0.49083608388900757,
                "y": 0.5182115435600281,
                "z": -0.4816462993621826
            },
            "position": {
                "x": 0.5540239810943604,
                "y": 0.030875300988554955,
                "z": 0.16403168439865112
            }
        },
        "name": "move_to_storage_A"
    },
    "id": "TRRT_move_to_storage_A_147",
    "joint_names": [
        "shoulder_pan_joint",
        "shoulder_lift_joint",
        "elbow_joint",
        "wrist_1_joint",
        "wrist_2_joint",
        "wrist_3_joint"
    ],
    "metrics": {
        "cart_traj_len": 0.3534348945904873,
        "distance_elbow_joint": 0.4505437919461177,
        "distance_shoulder_lift_joint": 0.233546849688145,
        "distance_shoulder_pan_joint": 0.4595819193992633,
        "distance_wrist_1_joint": 0.25335221619997006,
        "distance_wrist_2_joint": 1.1096005126027346,
        "distance_wrist_3_joint": 0.09080879419453325,
        "smoothness": 1.3322676330666221e-15,
        "time": 0.032539636,
        "traj_len": 1.6116556964906503,
        "weighted_distance": 2.0351914900624304
    },
    "planner": "TRRT",
    "start": {
        "state": {
            "elbow_joint": 1.9715463870305268,
            "shoulder_lift_joint": -1.1394903361783484,
            "shoulder_pan_joint": 0.12281147578464417,
            "wrist_1_joint": -0.7804599489681411,
            "wrist_2_joint": 0.12958660307563738,
            "wrist_3_joint": -3.1924946282119055
        }
    },
    "waypoints": [
        {
            "positions": [
                0.12281147578464417,
                -1.1394903361783484,
                1.9715463870305268,
                -0.7804599489681411,
                0.12958660307563738,
                -3.1924946282119055
            ]
        },
        {
            "positions": [
                0.057156915870463704,
                -1.1728541718480834,
                2.035909785879972,
                -0.816653122710994,
                0.2881009620188852,
                -3.1795219433269724
            ]
        },
        {
            "positions": [
                -0.008497644043716765,
                -1.2062180075178184,
                2.1002731847294176,
                -0.8528462964538468,
                0.44661532096213297,
                -3.1665492584420387
            ]
        },
        {
            "positions": [
                -0.07415220395789722,
                -1.2395818431875534,
                2.164636583578863,
                -0.8890394701966997,
                0.6051296799053808,
                -3.1535765735571055
            ]
        },
        {
            "positions": [
                -0.1398067638720777,
                -1.2729456788572884,
                2.2289999824283084,
                -0.9252326439395525,
                0.7636440388486286,
                -3.1406038886721723
            ]
        },
        {
            "positions": [
                -0.2054613237862582,
                -1.3063095145270234,
                2.2933633812777536,
                -0.9614258176824054,
                0.9221583977918765,
                -3.127631203787239
            ]
        },
        {
            "positions": [
                -0.2711158837004386,
                -1.3396733501967584,
                2.357726780127199,
                -0.9976189914252582,
                1.0806727567351242,
                -3.1146585189023055
            ]
        },
        {
            "positions": [
                -0.3367704436146191,
                -1.3730371858664934,
                2.4220901789766445,
                -1.0338121651681111,
                1.239187115678372,
                -3.1016858340173723
            ]
        }
    ]
}