{
    "goal": {
        "global_pose": {
            "orientation": {
                "w": 0.5084816217422485,
                "x": -0.49083608388900757,
                "y": 0.5182115435600281,
                "z": -0.4816462993621826
            },
            "position": {
                "x": 0.5540239810943604,
                "y": 0.030875300988554955,
                "z": 0.16403168439865112
            }
        },
        "name": "move_to_storage_A"
    },
    "id": "TRRT_move_to_storage_A_10",
    "joint_names": [
        "shoulder_pan_joint",
        "shoulder_lift_joint",
        "elbow_joint",
        "wrist_1_joint",
        "wrist_2_joint",
        "wrist_3_joint"
    ],
    "metrics": {
        "cart_traj_len": 0.3527043615168757,
        "distance_elbow_joint": 0.4488306635699244,
        "distance_shoulder_lift_joint": 0.23295121050494694,
        "distance_shoulder_pan_joint": 0.4586727153745847,
        "distance_wrist_1_joint": 0.23907659512163237,
        "distance_wrist_2_joint": 1.1083606097133472,
        "distance_wrist_3_joint": 0.08592789429771841,
        "smoothness": 4.440892098500626e-16,
        "time": 0.048425355,
        "traj_len": 1.6043128399979083,
        "weighted_distance": 2.0231442563526136
    },
    "planner": "TRRT",
    "start": {
        "state": {
            "elbow_joint": 1.9715463870305268,
            "shoulder_lift_joint": -1.1394903361783484,
            "shoulder_pan_joint": 0.12281147578464417,
            "wrist_1_joint": -0.7804599489681411,
            "wrist_2_joint": 0.12958660307563738,
            "wrist_3_joint": -3.1924946282119055
        }
    },
    "waypoints": [
        {
            "positions": [
                0.12281147578464417,
                -1.1394903361783484,
                1.9715463870305268,
                -0.7804599489681411,
                0.12958660307563738,
                -3.1924946282119055
            ]
        },
        {
            "positions": [
                0.0572868021597035,
                -1.1727690805361979,
                2.0356650532548017,
                -0.8146137482712315,
                0.28792383303468694,
                -3.180219214740803
            ]
        },
        {
            "positions": [
                -0.008237871465237176,
                -1.2060478248940476,
                2.0997837194790767,
                -0.8487675475743217,
                0.4462610629937366,
                -3.1679438012697
            ]
        },
        {
            "positions": [
                -0.07376254509017784,
                -1.239326569251897,
                2.1639023857033517,
                -0.8829213468774121,
                0.6045982929527861,
                -3.1556683877985976
            ]
        },
        {
            "positions": [
                -0.1392872187151185,
                -1.2726053136097466,
                2.2280210519276262,
                -0.9170751461805025,
                0.7629355229118358,
                -3.143392974327495
            ]
        },
        {
            "positions": [
                -0.2048118923400592,
                -1.3058840579675963,
                2.292139718151901,
                -0.9512289454835927,
                0.9212727528708854,
                -3.1311175608563926
            ]
        },
        {
            "positions": [
                -0.27033656596499983,
                -1.3391628023254458,
                2.356258384376176,
                -0.9853827447866831,
                1.0796099828299348,
                -3.1188421473852896
            ]
        },
        {
            "positions": [
                -0.3358612395899405,
                -1.3724415466832953,
                2.420377050600451,
                -1.0195365440897735,
                1.2379472127889846,
                -3.106566733914187
            ]
        }
    ]
}