{
    "goal": {
        "global_pose": {
            "orientation": {
                "w": 0.7047431468963623,
                "x": -0.7094548344612122,
                "y": 0.0024358443915843964,
                "z": -0.0022348060738295317
            },
            "position": {
                "x": 0.6094750761985779,
                "y": 0.3671506643295288,
                "z": 0.19426114857196808
            }
        },
        "name": "move_to_magneteinheit_A"
    },
    "id": "TRRT_move_to_magneteinheit_A_43",
    "joint_names": [
        "shoulder_pan_joint",
        "shoulder_lift_joint",
        "elbow_joint",
        "wrist_1_joint",
        "wrist_2_joint",
        "wrist_3_joint"
    ],
    "metrics": {
        "cart_traj_len": 1.8796178979710347,
        "distance_elbow_joint": 3.909414518715759,
        "distance_shoulder_lift_joint": 0.7000885205167839,
        "distance_shoulder_pan_joint": 1.2423378796962368,
        "distance_wrist_1_joint": 1.4811948500935386,
        "distance_wrist_2_joint": 1.7024391116053559,
        "distance_wrist_3_joint": 1.0987278305840456,
        "smoothness": 5.592234510853675e-16,
        "time": 0.0604599,
        "traj_len": 3.1834262534589555,
        "weighted_distance": 3.9389455865851595
    },
    "planner": "TRRT",
    "start": {
        "state": {
            "elbow_joint": -1.919643507792019,
            "shoulder_lift_joint": -0.07675430207160344,
            "shoulder_pan_joint": -1.1188671864651873,
            "wrist_1_joint": 0.42560062535961957,
            "wrist_2_joint": 1.5706038300724876,
            "wrist_3_joint": 1.1188968870953055
        }
    },
    "waypoints": [
        {
            "positions": [
                -1.1188671864651873,
                -0.07675430207160344,
                -1.919643507792019,
                0.42560062535961957,
                1.5706038300724876,
                1.1188968870953055
            ]
        },
        {
            "positions": [
                -1.0710849603230244,
                -0.10368078362994129,
                -1.7692814109183361,
                0.4825696580555249,
                1.505125402703051,
                1.0766381243805345
            ]
        },
        {
            "positions": [
                -1.0233027341808614,
                -0.13060726518827914,
                -1.618919314044653,
                0.5395386907514302,
                1.439646975333614,
                1.0343793616657635
            ]
        },
        {
            "positions": [
                -0.9755205080386985,
                -0.15753374674661696,
                -1.46855721717097,
                0.5965077234473356,
                1.3741685479641772,
                0.9921205989509926
            ]
        },
        {
            "positions": [
                -0.9277382818965355,
                -0.18446022830495484,
                -1.318195120297287,
                0.6534767561432409,
                1.3086901205947405,
                0.9498618362362217
            ]
        },
        {
            "positions": [
                -0.8799560557543726,
                -0.21138670986329267,
                -1.1678330234236038,
                0.7104457888391462,
                1.243211693225304,
                0.9076030735214506
            ]
        },
        {
            "positions": [
                -0.8321738296122096,
                -0.23831319142163052,
                -1.0174709265499207,
                0.7674148215350516,
                1.177733265855867,
                0.8653443108066796
            ]
        },
        {
            "positions": [
                -0.7843916034700467,
                -0.2652396729799683,
                -0.8671088296762379,
                0.8243838542309568,
                1.1122548384864301,
                0.8230855480919087
            ]
        },
        {
            "positions": [
                -0.7366093773278837,
                -0.2921661545383062,
                -0.7167467328025547,
                0.8813528869268623,
                1.0467764111169935,
                0.7808267853771377
            ]
        },
        {
            "positions": [
                -0.6888271511857208,
                -0.31909263609664407,
                -0.5663846359288718,
                0.9383219196227675,
                0.9812979837475567,
                0.7385680226623668
            ]
        },
        {
            "positions": [
                -0.6410449250435578,
                -0.3460191176549819,
                -0.4160225390551886,
                0.9952909523186728,
                0.91581955637812,
                0.6963092599475957
            ]
        },
        {
            "positions": [
                -0.5932626989013948,
                -0.3729455992133197,
                -0.26566044218150564,
                1.0522599850145782,
                0.8503411290086832,
                0.6540504972328247
            ]
        },
        {
            "positions": [
                -0.5454804727592318,
                -0.3998720807716576,
                -0.11529834530782246,
                1.1092290177104835,
                0.7848627016392464,
                0.6117917345180537
            ]
        },
        {
            "positions": [
                -0.49769824661706896,
                -0.4267985623299954,
                0.0350637515658605,
                1.166198050406389,
                0.7193842742698097,
                0.5695329718032828
            ]
        },
        {
            "positions": [
                -0.4499160204749061,
                -0.45372504388833323,
                0.18542584843954324,
                1.223167083102294,
                0.6539058469003729,
                0.5272742090885119
            ]
        },
        {
            "positions": [
                -0.4021337943327431,
                -0.48065152544667106,
                0.3357879453132264,
                1.2801361157981994,
                0.5884274195309362,
                0.48501544637374083
            ]
        },
        {
            "positions": [
                -0.3543515681905801,
                -0.507578007005009,
                0.4861500421869096,
                1.337105148494105,
                0.5229489921614994,
                0.4427566836589698
            ]
        },
        {
            "positions": [
                -0.3065693420484171,
                -0.5345044885633468,
                0.6365121390605928,
                1.3940741811900101,
                0.4574705647920625,
                0.4004979209441988
            ]
        },
        {
            "positions": [
                -0.25878711590625425,
                -0.5614309701216846,
                0.7868742359342755,
                1.4510432138859155,
                0.39199213742262584,
                0.35823915822942787
            ]
        },
        {
            "positions": [
                -0.21100488976409126,
                -0.5883574516800225,
                0.9372363328079587,
                1.5080122465818209,
                0.3265137100531892,
                0.31598039551465695
            ]
        },
        {
            "positions": [
                -0.16322266362192828,
                -0.6152839332383604,
                1.0875984296816419,
                1.5649812792777262,
                0.2610352826837523,
                0.2737216327998858
            ]
        },
        {
            "positions": [
                -0.11544043747976529,
                -0.6422104147966983,
                1.237960526555325,
                1.6219503119736316,
                0.19555685531431544,
                0.2314628700851149
            ]
        },
        {
            "positions": [
                -0.0676582113376023,
                -0.6691368963550359,
                1.3883226234290078,
                1.678919344669537,
                0.13007842794487878,
                0.189204107370344
            ]
        },
        {
            "positions": [
                -0.01987598519543954,
                -0.6960633779133738,
                1.538684720302691,
                1.735888377365442,
                0.06460000057544213,
                0.14694534465557296
            ]
        },
        {
            "positions": [
                0.02790624094672367,
                -0.7229898594717117,
                1.6890468171763742,
                1.7928574100613477,
                -0.0008784267939947465,
                0.10468658194080183
            ]
        },
        {
            "positions": [
                0.07568846708888644,
                -0.7499163410300496,
                1.8394089140500574,
                1.8498264427572528,
                -0.06635685416343162,
                0.06242781922603102
            ]
        },
        {
            "positions": [
                0.12347069323104937,
                -0.7768428225883874,
                1.9897710109237399,
                1.9067954754531582,
                -0.1318352815328682,
                0.0201690565112601
            ]
        }
    ]
}