{
    "goal": {
        "global_pose": {
            "orientation": {
                "w": 0.5084816217422485,
                "x": -0.49083608388900757,
                "y": 0.5182115435600281,
                "z": -0.4816462993621826
            },
            "position": {
                "x": 0.5540239810943604,
                "y": 0.030875300988554955,
                "z": 0.16403168439865112
            }
        },
        "name": "move_to_storage_A"
    },
    "id": "TRRT_move_to_storage_A_27",
    "joint_names": [
        "shoulder_pan_joint",
        "shoulder_lift_joint",
        "elbow_joint",
        "wrist_1_joint",
        "wrist_2_joint",
        "wrist_3_joint"
    ],
    "metrics": {
        "cart_traj_len": 0.3527457584514635,
        "distance_elbow_joint": 0.4498789146974205,
        "distance_shoulder_lift_joint": 0.23447491182152214,
        "distance_shoulder_pan_joint": 0.4606463741253897,
        "distance_wrist_1_joint": 0.24149430833394503,
        "distance_wrist_2_joint": 1.1009819640830774,
        "distance_wrist_3_joint": 0.08932288975844482,
        "smoothness": 0.0,
        "time": 0.019770786,
        "traj_len": 1.6052412163970249,
        "weighted_distance": 2.0243323380200473
    },
    "planner": "TRRT",
    "start": {
        "state": {
            "elbow_joint": 1.9715463870305268,
            "shoulder_lift_joint": -1.1394903361783484,
            "shoulder_pan_joint": 0.12281147578464417,
            "wrist_1_joint": -0.7804599489681411,
            "wrist_2_joint": 0.12958660307563738,
            "wrist_3_joint": -3.1924946282119055
        }
    },
    "waypoints": [
        {
            "positions": [
                0.12281147578464417,
                -1.1394903361783484,
                1.9715463870305268,
                -0.7804599489681411,
                0.12958660307563738,
                -3.1924946282119055
            ]
        },
        {
            "positions": [
                0.0570048509095885,
                -1.1729867521528516,
                2.0358148034158727,
                -0.8149591358729904,
                0.2868697408017913,
                -3.1797342153892707
            ]
        },
        {
            "positions": [
                -0.008801773965467177,
                -1.2064831681273547,
                2.1000832198012183,
                -0.8494583227778396,
                0.44415287852794516,
                -3.1669738025666354
            ]
        },
        {
            "positions": [
                -0.07460839884052285,
                -1.239979584101858,
                2.1643516361865642,
                -0.8839575096826889,
                0.601436016254099,
                -3.1542133897440006
            ]
        },
        {
            "positions": [
                -0.1404150237155785,
                -1.273476000076361,
                2.2286200525719098,
                -0.9184566965875383,
                0.758719153980253,
                -3.1414529769213657
            ]
        },
        {
            "positions": [
                -0.2062216485906342,
                -1.3069724160508642,
                2.2928884689572557,
                -0.9529558834923875,
                0.916002291706407,
                -3.128692564098731
            ]
        },
        {
            "positions": [
                -0.27202827346568986,
                -1.3404688320253673,
                2.3571568853426013,
                -0.9874550703972368,
                1.0732854294325607,
                -3.1159321512760956
            ]
        },
        {
            "positions": [
                -0.33783489834074554,
                -1.3739652479998705,
                2.4214253017279472,
                -1.0219542573020861,
                1.2305685671587148,
                -3.1031717384534607
            ]
        }
    ]
}