{
    "goal": {
        "global_pose": {
            "orientation": {
                "w": 0.7031023502349854,
                "x": -0.7110244035720825,
                "y": 0.007748599164187908,
                "z": 0.005598929710686207
            },
            "position": {
                "x": 0.11585023208521307,
                "y": 0.44412534475326537,
                "z": 0.3711530566215515
            }
        },
        "name": "move_to_auspresseinheit_A"
    },
    "id": "TRRT_move_to_auspresseinheit_A_69",
    "joint_names": [
        "shoulder_pan_joint",
        "shoulder_lift_joint",
        "elbow_joint",
        "wrist_1_joint",
        "wrist_2_joint",
        "wrist_3_joint"
    ],
    "metrics": {
        "cart_traj_len": 0.6878560951452861,
        "distance_elbow_joint": 0.02593382915111775,
        "distance_shoulder_lift_joint": 0.5386626987317644,
        "distance_shoulder_pan_joint": 1.0412413165618735,
        "distance_wrist_1_joint": 0.550336188438286,
        "distance_wrist_2_joint": 0.533845026784261,
        "distance_wrist_3_joint": 0.028121925487167854,
        "smoothness": 6.908054391074016e-16,
        "time": 0.018568268,
        "traj_len": 1.6486785572556193,
        "weighted_distance": 1.9643233062180354
    },
    "planner": "TRRT",
    "start": {
        "state": {
            "elbow_joint": 2.422574709923281,
            "shoulder_lift_joint": -1.3736533754116391,
            "shoulder_pan_joint": -0.33786336945926293,
            "wrist_1_joint": -1.0288603412921917,
            "wrist_2_joint": 1.2330224858903978,
            "wrist_3_joint": -3.094022268022082
        }
    },
    "waypoints": [
        {
            "positions": [
                -0.33786336945926293,
                -1.3736533754116391,
                2.422574709923281,
                -1.0288603412921917,
                1.2330224858903978,
                -3.094022268022082
            ]
        },
        {
            "positions": [
                -0.20872366243367163,
                -1.44046088870695,
                2.4193582729212557,
                -0.9606050262081041,
                1.1668124832143354,
                -3.097510083152584
            ]
        },
        {
            "positions": [
                -0.07842343249991704,
                -1.5078687723407291,
                2.4161129311856713,
                -0.8917363300146471,
                1.100007479770307,
                -3.101029241774965
            ]
        },
        {
            "positions": [
                0.05187679743383755,
                -1.5752766559745082,
                2.4128675894500864,
                -0.8228676338211902,
                1.0332024763262786,
                -3.104548400397346
            ]
        },
        {
            "positions": [
                0.18217702736759211,
                -1.6426845396082872,
                2.409622247714502,
                -0.7539989376277334,
                0.9663974728822502,
                -3.1080675590197266
            ]
        },
        {
            "positions": [
                0.31247725730134673,
                -1.7100924232420662,
                2.406376905978917,
                -0.6851302414342764,
                0.8995924694382218,
                -3.1115867176421075
            ]
        },
        {
            "positions": [
                0.4427774872351014,
                -1.7775003068758455,
                2.4031315642433326,
                -0.6162615452408196,
                0.8327874659941934,
                -3.1151058762644883
            ]
        },
        {
            "positions": [
                0.5730777171688559,
                -1.8449081905096245,
                2.3998862225077477,
                -0.5473928490473626,
                0.7659824625501651,
                -3.118625034886869
            ]
        },
        {
            "positions": [
                0.7033779471026106,
                -1.9123160741434035,
                2.3966408807721633,
                -0.4785241528539057,
                0.6991774591061367,
                -3.12214419350925
            ]
        }
    ]
}