{
    "goal": {
        "global_pose": {
            "orientation": {
                "w": 0.7047431468963623,
                "x": -0.7094548344612122,
                "y": 0.0024358443915843964,
                "z": -0.0022348060738295317
            },
            "position": {
                "x": 0.6094750761985779,
                "y": 0.3671506643295288,
                "z": 0.19426114857196808
            }
        },
        "name": "move_to_magneteinheit_A"
    },
    "id": "TRRT_move_to_magneteinheit_A_145",
    "joint_names": [
        "shoulder_pan_joint",
        "shoulder_lift_joint",
        "elbow_joint",
        "wrist_1_joint",
        "wrist_2_joint",
        "wrist_3_joint"
    ],
    "metrics": {
        "cart_traj_len": 2.0674212030929424,
        "distance_elbow_joint": 3.8850682873917295,
        "distance_shoulder_lift_joint": 1.0581205377247787,
        "distance_shoulder_pan_joint": 1.2422650835167357,
        "distance_wrist_1_joint": 1.1840545453680762,
        "distance_wrist_2_joint": 1.4496301594633165,
        "distance_wrist_3_joint": 1.9535362703293502,
        "smoothness": 3.675221041582056e-16,
        "time": 0.045238901,
        "traj_len": 3.2821753280094574,
        "weighted_distance": 4.1609412552070575
    },
    "planner": "TRRT",
    "start": {
        "state": {
            "elbow_joint": -1.919643507792019,
            "shoulder_lift_joint": -0.07675430207160344,
            "shoulder_pan_joint": -1.1188671864651873,
            "wrist_1_joint": 0.42560062535961957,
            "wrist_2_joint": 1.5706038300724876,
            "wrist_3_joint": 1.1188968870953055
        }
    },
    "waypoints": [
        {
            "positions": [
                -1.1188671864651873,
                -0.07675430207160344,
                -1.919643507792019,
                0.42560062535961957,
                1.5706038300724876,
                1.1188968870953055
            ]
        },
        {
            "positions": [
                -1.0745005763395896,
                -0.11454432127605982,
                -1.7808910689566002,
                0.3833129630250454,
                1.5188313243773692,
                1.188666039607068
            ]
        },
        {
            "positions": [
                -1.030133966213992,
                -0.1523343404805162,
                -1.6421386301211813,
                0.34102530069047127,
                1.4670588186822506,
                1.2584351921188306
            ]
        },
        {
            "positions": [
                -0.9857673560883943,
                -0.19012435968497257,
                -1.5033861912857625,
                0.2987376383558971,
                1.4152863129871323,
                1.3282043446305931
            ]
        },
        {
            "positions": [
                -0.9414007459627965,
                -0.22791437888942895,
                -1.3646337524503434,
                0.25644997602132297,
                1.3635138072920139,
                1.3979734971423556
            ]
        },
        {
            "positions": [
                -0.8970341358371988,
                -0.26570439809388535,
                -1.2258813136149245,
                0.21416231368674882,
                1.3117413015968953,
                1.4677426496541182
            ]
        },
        {
            "positions": [
                -0.8526675257116012,
                -0.3034944172983417,
                -1.0871288747795056,
                0.17187465135217467,
                1.259968795901777,
                1.5375118021658807
            ]
        },
        {
            "positions": [
                -0.8083009155860035,
                -0.3412844365027981,
                -0.9483764359440867,
                0.12958698901760052,
                1.2081962902066585,
                1.607280954677643
            ]
        },
        {
            "positions": [
                -0.7639343054604057,
                -0.37907445570725445,
                -0.8096239971086678,
                0.08729932668302637,
                1.15642378451154,
                1.6770501071894057
            ]
        },
        {
            "positions": [
                -0.719567695334808,
                -0.4168644749117109,
                -0.6708715582732487,
                0.04501166434845216,
                1.1046512788164216,
                1.746819259701168
            ]
        },
        {
            "positions": [
                -0.6752010852092103,
                -0.45465449411616726,
                -0.5321191194378299,
                0.0027240020138780685,
                1.0528787731213032,
                1.8165884122129308
            ]
        },
        {
            "positions": [
                -0.6308344750836126,
                -0.4924445133206236,
                -0.3933666806024112,
                -0.03956366032069608,
                1.0011062674261848,
                1.886357564724693
            ]
        },
        {
            "positions": [
                -0.586467864958015,
                -0.5302345325250799,
                -0.2546142417669923,
                -0.08185132265527023,
                0.9493337617310663,
                1.9561267172364556
            ]
        },
        {
            "positions": [
                -0.5421012548324172,
                -0.5680245517295364,
                -0.11586180293157322,
                -0.12413898498984438,
                0.8975612560359477,
                2.025895869748218
            ]
        },
        {
            "positions": [
                -0.4977346447068195,
                -0.6058145709339928,
                0.022890635903845657,
                -0.16642664732441853,
                0.8457887503408293,
                2.095665022259981
            ]
        },
        {
            "positions": [
                -0.45336803458122177,
                -0.6436045901384491,
                0.16164307473926454,
                -0.20871430965899268,
                0.794016244645711,
                2.165434174771743
            ]
        },
        {
            "positions": [
                -0.40900142445562415,
                -0.6813946093429055,
                0.3003955135746834,
                -0.25100197199356683,
                0.7422437389505925,
                2.2352033272835055
            ]
        },
        {
            "positions": [
                -0.3646348143300264,
                -0.7191846285473618,
                0.4391479524101023,
                -0.29328963432814087,
                0.6904712332554741,
                2.3049724797952678
            ]
        },
        {
            "positions": [
                -0.3202682042044286,
                -0.7569746477518184,
                0.5779003912455216,
                -0.33557729666271524,
                0.6386987275603555,
                2.374741632307031
            ]
        },
        {
            "positions": [
                -0.27590159407883097,
                -0.7947646669562747,
                0.7166528300809405,
                -0.3778649589972893,
                0.586926221865237,
                2.4445107848187932
            ]
        },
        {
            "positions": [
                -0.23153498395323324,
                -0.8325546861607311,
                0.8554052689163594,
                -0.42015262133186343,
                0.5351537161701185,
                2.5142799373305555
            ]
        },
        {
            "positions": [
                -0.18716837382763551,
                -0.8703447053651874,
                0.9941577077517783,
                -0.4624402836664376,
                0.48338121047500016,
                2.5840490898423183
            ]
        },
        {
            "positions": [
                -0.1428017637020379,
                -0.9081347245696438,
                1.1329101465871967,
                -0.5047279460010117,
                0.4316087047798818,
                2.6538182423540806
            ]
        },
        {
            "positions": [
                -0.09843515357644028,
                -0.9459247437741001,
                1.2716625854226156,
                -0.5470156083355859,
                0.3798361990847634,
                2.7235873948658433
            ]
        },
        {
            "positions": [
                -0.054068543450842554,
                -0.9837147629785565,
                1.4104150242580344,
                -0.58930327067016,
                0.32806369338964503,
                2.7933565473776056
            ]
        },
        {
            "positions": [
                -0.009701933325244605,
                -1.021504782183013,
                1.5491674630934538,
                -0.6315909330047342,
                0.27629118769452643,
                2.8631256998893684
            ]
        },
        {
            "positions": [
                0.0346646768003529,
                -1.0592948013874695,
                1.6879199019288726,
                -0.6738785953393083,
                0.22451868199940783,
                2.9328948524011307
            ]
        },
        {
            "positions": [
                0.07903128692595063,
                -1.0970848205919257,
                1.8266723407642915,
                -0.7161662576738825,
                0.17274617630428946,
                3.0026640049128934
            ]
        },
        {
            "positions": [
                0.12339789705154842,
                -1.1348748397963822,
                1.9654247795997104,
                -0.7584539200084566,
                0.12097367060917102,
                3.0724331574246557
            ]
        }
    ]
}