{
    "goal": {
        "global_pose": {
            "orientation": {
                "w": 0.7031023502349854,
                "x": -0.7110244035720825,
                "y": 0.007748599164187908,
                "z": 0.005598929710686207
            },
            "position": {
                "x": 0.11585023208521307,
                "y": 0.44412534475326537,
                "z": 0.3711530566215515
            }
        },
        "name": "move_to_auspresseinheit_A"
    },
    "id": "TRRT_move_to_auspresseinheit_A_146",
    "joint_names": [
        "shoulder_pan_joint",
        "shoulder_lift_joint",
        "elbow_joint",
        "wrist_1_joint",
        "wrist_2_joint",
        "wrist_3_joint"
    ],
    "metrics": {
        "cart_traj_len": 3.8985541134068407,
        "distance_elbow_joint": 2.920058580678595,
        "distance_shoulder_lift_joint": 1.954137769474165,
        "distance_shoulder_pan_joint": 3.6355855756373807,
        "distance_wrist_1_joint": 5.11869400093341,
        "distance_wrist_2_joint": 4.037803429972014,
        "distance_wrist_3_joint": 8.202746744647218,
        "smoothness": 0.351106389017926,
        "time": 1.6901114240000001,
        "traj_len": 5.086160251244824,
        "weighted_distance": 7.171542164802675
    },
    "planner": "TRRT",
    "start": {
        "state": {
            "elbow_joint": 2.422574709923281,
            "shoulder_lift_joint": -1.3736533754116391,
            "shoulder_pan_joint": -0.33786336945926293,
            "wrist_1_joint": -1.0288603412921917,
            "wrist_2_joint": 1.2330224858903978,
            "wrist_3_joint": -3.094022268022082
        }
    },
    "waypoints": [
        {
            "positions": [
                -0.33786336945926293,
                -1.3736533754116391,
                2.422574709923281,
                -1.0288603412921917,
                1.2330224858903978,
                -3.094022268022082
            ]
        },
        {
            "positions": [
                -0.3825540437578322,
                -1.4080406694481287,
                2.375611589313664,
                -1.0659462210951398,
                1.2692722366826112,
                -2.898804453000441
            ]
        },
        {
            "positions": [
                -0.42724471805640146,
                -1.4424279634846182,
                2.328648468704046,
                -1.1030321008980877,
                1.3055219874748247,
                -2.7035866379787996
            ]
        },
        {
            "positions": [
                -0.47193539235497073,
                -1.4768152575211078,
                2.281685348094429,
                -1.1401179807010358,
                1.3417717382670382,
                -2.5083688229571584
            ]
        },
        {
            "positions": [
                -0.51662606665354,
                -1.5112025515575973,
                2.234722227484811,
                -1.1772038605039836,
                1.3780214890592517,
                -2.3131510079355175
            ]
        },
        {
            "positions": [
                -0.5613167409521094,
                -1.545589845594087,
                2.187759106875194,
                -1.2142897403069317,
                1.4142712398514652,
                -2.1179331929138763
            ]
        },
        {
            "positions": [
                -0.6060074152506786,
                -1.5799771396305766,
                2.140795986265576,
                -1.2513756201098798,
                1.4505209906436787,
                -1.922715377892235
            ]
        },
        {
            "positions": [
                -0.6506980895492478,
                -1.6143644336670662,
                2.093832865655959,
                -1.2884614999128277,
                1.4867707414358922,
                -1.7274975628705938
            ]
        },
        {
            "positions": [
                -0.6953887638478171,
                -1.6487517277035557,
                2.046869745046341,
                -1.3255473797157757,
                1.5230204922281056,
                -1.5322797478489527
            ]
        },
        {
            "positions": [
                -0.7400794381463864,
                -1.6831390217400453,
                1.9999066244367236,
                -1.3626332595187236,
                1.5592702430203191,
                -1.3370619328273115
            ]
        },
        {
            "positions": [
                -0.7847701124449558,
                -1.717526315776535,
                1.9529435038271061,
                -1.3997191393216717,
                1.5955199938125326,
                -1.1418441178056702
            ]
        },
        {
            "positions": [
                -0.8294607867435249,
                -1.7519136098130246,
                1.9059803832174889,
                -1.4368050191246196,
                1.6317697446047459,
                -0.9466263027840291
            ]
        },
        {
            "positions": [
                -0.8741514610420942,
                -1.7863009038495141,
                1.8590172626078711,
                -1.4738908989275676,
                1.6680194953969594,
                -0.7514084877623879
            ]
        },
        {
            "positions": [
                -0.9188421353406635,
                -1.8206881978860037,
                1.8120541419982539,
                -1.5109767787305157,
                1.7042692461891729,
                -0.5561906727407466
            ]
        },
        {
            "positions": [
                -0.9635328096392328,
                -1.8550754919224932,
                1.7650910213886362,
                -1.5480626585334636,
                1.7405189969813863,
                -0.36097285771910537
            ]
        },
        {
            "positions": [
                -1.0082234839378021,
                -1.8894627859589828,
                1.718127900779019,
                -1.5851485383364117,
                1.7767687477735998,
                -0.1657550426974641
            ]
        },
        {
            "positions": [
                -1.0529141582363712,
                -1.9238500799954723,
                1.6711647801694012,
                -1.6222344181393598,
                1.8130184985658133,
                0.02946277232417671
            ]
        },
        {
            "positions": [
                -1.0976048325349406,
                -1.9582373740319619,
                1.624201659559784,
                -1.6593202979423074,
                1.8492682493580266,
                0.22468058734581753
            ]
        },
        {
            "positions": [
                -1.1422955068335099,
                -1.9926246680684514,
                1.5772385389501662,
                -1.6964061777452555,
                1.8855180001502403,
                0.41989840236745923
            ]
        },
        {
            "positions": [
                -1.1869861811320792,
                -2.027011962104941,
                1.530275418340549,
                -1.7334920575482036,
                1.9217677509424536,
                0.6151162173891
            ]
        },
        {
            "positions": [
                -1.2316768554306485,
                -2.0613992561414305,
                1.4833122977309312,
                -1.7705779373511517,
                1.9580175017346673,
                0.8103340324107418
            ]
        },
        {
            "positions": [
                -1.2763675297292176,
                -2.0957865501779205,
                1.436349177121314,
                -1.8076638171540997,
                1.9942672525268805,
                1.005551847432383
            ]
        },
        {
            "positions": [
                -1.321058204027787,
                -2.1301738442144096,
                1.3893860565116964,
                -1.8447496969570474,
                2.030517003319094,
                1.2007696624540238
            ]
        },
        {
            "positions": [
                -1.3657488783263563,
                -2.1645611382508996,
                1.342422935902079,
                -1.8818355767599955,
                2.0667667541113075,
                1.3959874774756655
            ]
        },
        {
            "positions": [
                -1.4104395526249256,
                -2.198948432287389,
                1.2954598152924615,
                -1.9189214565629436,
                2.103016504903521,
                1.5912052924973064
            ]
        },
        {
            "positions": [
                -1.455130226923495,
                -2.2333357263238787,
                1.248496694682844,
                -1.9560073363658916,
                2.1392662556957345,
                1.7864231075189472
            ]
        },
        {
            "positions": [
                -1.4998209012220642,
                -2.267723020360368,
                1.2015335740732265,
                -1.9930932161688397,
                2.175516006487948,
                1.9816409225405889
            ]
        },
        {
            "positions": [
                -1.5445115755206333,
                -2.3021103143968578,
                1.154570453463609,
                -2.0301790959717874,
                2.2117657572801614,
                2.1768587375622297
            ]
        },
        {
            "positions": [
                -1.5892022498192027,
                -2.3364976084333473,
                1.1076073328539915,
                -2.0672649757747354,
                2.248015508072375,
                2.3720765525838714
            ]
        },
        {
            "positions": [
                -1.633892924117772,
                -2.370884902469837,
                1.060644212244374,
                -2.1043508555776835,
                2.2842652588645884,
                2.567294367605512
            ]
        },
        {
            "positions": [
                -1.5706616803075322,
                -2.34502257159373,
                1.1027557820551763,
                -1.9950750856682804,
                2.203547403270053,
                2.498607067361738
            ]
        },
        {
            "positions": [
                -1.5074304364972924,
                -2.3191602407176224,
                1.1448673518659789,
                -1.8857993157588773,
                2.122829547675517,
                2.4299197671179646
            ]
        },
        {
            "positions": [
                -1.4441991926870525,
                -2.2932979098415154,
                1.1869789216767812,
                -1.776523545849474,
                2.042111692080981,
                2.3612324668741906
            ]
        },
        {
            "positions": [
                -1.3809679488768127,
                -2.267435578965408,
                1.2290904914875835,
                -1.6672477759400708,
                1.9613938364864454,
                2.2925451666304166
            ]
        },
        {
            "positions": [
                -1.317736705066573,
                -2.241573248089301,
                1.2712020612983859,
                -1.5579720060306677,
                1.8806759808919096,
                2.2238578663866426
            ]
        },
        {
            "positions": [
                -1.254505461256333,
                -2.2157109172131935,
                1.3133136311091884,
                -1.4486962361212643,
                1.7999581252973738,
                2.155170566142869
            ]
        },
        {
            "positions": [
                -1.1912742174460933,
                -2.1898485863370865,
                1.3554252009199907,
                -1.3394204662118612,
                1.719240269702838,
                2.086483265899095
            ]
        },
        {
            "positions": [
                -1.1280429736358535,
                -2.163986255460979,
                1.397536770730793,
                -1.230144696302458,
                1.6385224141083023,
                2.017795965655321
            ]
        },
        {
            "positions": [
                -1.0648117298256135,
                -2.138123924584872,
                1.4396483405415954,
                -1.120868926393055,
                1.5578045585137665,
                1.949108665411547
            ]
        },
        {
            "positions": [
                -1.0015804860153739,
                -2.1122615937087645,
                1.481759910352398,
                -1.0115931564836518,
                1.4770867029192307,
                1.8804213651677733
            ]
        },
        {
            "positions": [
                -0.9383492422051339,
                -2.0863992628326575,
                1.5238714801632003,
                -0.9023173865742484,
                1.3963688473246951,
                1.8117340649239995
            ]
        },
        {
            "positions": [
                -0.8751179983948941,
                -2.06053693195655,
                1.5659830499740028,
                -0.7930416166648453,
                1.315650991730159,
                1.7430467646802255
            ]
        },
        {
            "positions": [
                -0.8118867545846543,
                -2.034674601080443,
                1.6080946197848052,
                -0.6837658467554422,
                1.2349331361356235,
                1.6743594644364517
            ]
        },
        {
            "positions": [
                -0.7486555107744145,
                -2.0088122702043356,
                1.6502061895956075,
                -0.574490076846039,
                1.1542152805410877,
                1.6056721641926779
            ]
        },
        {
            "positions": [
                -0.6854242669641747,
                -1.9829499393282284,
                1.6923177594064098,
                -0.4652143069366357,
                1.0734974249465519,
                1.5369848639489039
            ]
        },
        {
            "positions": [
                -0.6221930231539348,
                -1.9570876084521212,
                1.7344293292172122,
                -0.35593853702723255,
                0.9927795693520163,
                1.4682975637051299
            ]
        },
        {
            "positions": [
                -0.558961779343695,
                -1.931225277576014,
                1.7765408990280147,
                -0.24666276711782942,
                0.9120617137574805,
                1.399610263461356
            ]
        },
        {
            "positions": [
                -0.49573053553345514,
                -1.9053629466999067,
                1.818652468838817,
                -0.1373869972084263,
                0.8313438581629446,
                1.330922963217582
            ]
        },
        {
            "positions": [
                -0.43249929172321555,
                -1.8795006158237997,
                1.8607640386496194,
                -0.028111227299023156,
                0.7506260025684091,
                1.2622356629738085
            ]
        },
        {
            "positions": [
                -0.3692680479129755,
                -1.8536382849476922,
                1.902875608460422,
                0.08116454261037997,
                0.669908146973873,
                1.1935483627300343
            ]
        },
        {
            "positions": [
                -0.3060368041027359,
                -1.8277759540715852,
                1.9449871782712242,
                0.1904403125197831,
                0.5891902913793374,
                1.1248610624862607
            ]
        },
        {
            "positions": [
                -0.2428055602924959,
                -1.8019136231954778,
                1.9870987480820266,
                0.2997160824291867,
                0.5084724357848016,
                1.0561737622424867
            ]
        },
        {
            "positions": [
                -0.1795743164822563,
                -1.7760512923193708,
                2.029210317892829,
                0.40899185233858937,
                0.427754580190266,
                0.9874864619987129
            ]
        },
        {
            "positions": [
                -0.11634307267201627,
                -1.7501889614432633,
                2.0713218877036317,
                0.5182676222479929,
                0.34703672459573,
                0.9187991617549389
            ]
        },
        {
            "positions": [
                -0.05311182886177668,
                -1.7243266305671563,
                2.113433457514434,
                0.6275433921573961,
                0.2663188690011946,
                0.8501118615111651
            ]
        },
        {
            "positions": [
                0.010119414948463357,
                -1.6984642996910488,
                2.1555450273252363,
                0.7368191620667992,
                0.18560101340665858,
                0.7814245612673911
            ]
        },
        {
            "positions": [
                0.07335065875870317,
                -1.6726019688149418,
                2.1976565971360387,
                0.8460949319762023,
                0.10488315781212298,
                0.7127372610236173
            ]
        },
        {
            "positions": [
                0.13658190256894298,
                -1.6467396379388344,
                2.239768166946841,
                0.9553707018856055,
                0.024165302217586948,
                0.6440499607798433
            ]
        },
        {
            "positions": [
                0.1998131463791828,
                -1.6208773070627274,
                2.2818797367576433,
                1.0646464717950086,
                -0.056552553376948644,
                0.5753626605360695
            ]
        },
        {
            "positions": [
                0.2630443901894226,
                -1.59501497618662,
                2.3239913065684457,
                1.1739222417044122,
                -0.13727040897148468,
                0.5066753602922955
            ]
        },
        {
            "positions": [
                0.3262756339996624,
                -1.569152645310513,
                2.366102876379248,
                1.2831980116138149,
                -0.21798826456602027,
                0.43798806004852153
            ]
        },
        {
            "positions": [
                0.38950687780990245,
                -1.5432903144344055,
                2.4082144461900503,
                1.3924737815232184,
                -0.29870612016055587,
                0.3693007598047475
            ]
        },
        {
            "positions": [
                0.45273812162014204,
                -1.5174279835582984,
                2.4503260160008526,
                1.5017495514326216,
                -0.37942397575509146,
                0.30061345956097396
            ]
        },
        {
            "positions": [
                0.5159693654303821,
                -1.491565652682191,
                2.4924375858116554,
                1.6110253213420247,
                -0.4601418313496275,
                0.23192615931719995
            ]
        },
        {
            "positions": [
                0.5792006092406217,
                -1.465703321806084,
                2.5345491556224573,
                1.7203010912514278,
                -0.5408596869441631,
                0.16323885907342595
            ]
        },
        {
            "positions": [
                0.6424318530508617,
                -1.4398409909299765,
                2.57666072543326,
                1.829576861160831,
                -0.6215775425386991,
                0.09455155882965194
            ]
        },
        {
            "positions": [
                0.7056630968611013,
                -1.4139786600538695,
                2.6187722952440624,
                1.938852631070234,
                -0.7022953981332349,
                0.02586425858587841
            ]
        }
    ]
}