{
    "goal": {
        "global_pose": {
            "orientation": {
                "w": 0.7031023502349854,
                "x": -0.7110244035720825,
                "y": 0.007748599164187908,
                "z": 0.005598929710686207
            },
            "position": {
                "x": 0.11585023208521307,
                "y": 0.44412534475326537,
                "z": 0.3711530566215515
            }
        },
        "name": "move_to_auspresseinheit_A"
    },
    "id": "TRRT_move_to_auspresseinheit_A_47",
    "joint_names": [
        "shoulder_pan_joint",
        "shoulder_lift_joint",
        "elbow_joint",
        "wrist_1_joint",
        "wrist_2_joint",
        "wrist_3_joint"
    ],
    "metrics": {
        "cart_traj_len": 0.688362899512736,
        "distance_elbow_joint": 0.02660876634971343,
        "distance_shoulder_lift_joint": 0.5371093055376273,
        "distance_shoulder_pan_joint": 1.0478993546225697,
        "distance_wrist_1_joint": 0.5491999407353576,
        "distance_wrist_2_joint": 0.5122441616646733,
        "distance_wrist_3_joint": 0.04250361369011557,
        "smoothness": 3.9474596431116675e-16,
        "time": 0.067703864,
        "traj_len": 1.6478971881158293,
        "weighted_distance": 1.965201382143906
    },
    "planner": "TRRT",
    "start": {
        "state": {
            "elbow_joint": 2.422574709923281,
            "shoulder_lift_joint": -1.3736533754116391,
            "shoulder_pan_joint": -0.33786336945926293,
            "wrist_1_joint": -1.0288603412921917,
            "wrist_2_joint": 1.2330224858903978,
            "wrist_3_joint": -3.094022268022082
        }
    },
    "waypoints": [
        {
            "positions": [
                -0.33786336945926293,
                -1.3736533754116391,
                2.422574709923281,
                -1.0288603412921917,
                1.2330224858903978,
                -3.094022268022082
            ]
        },
        {
            "positions": [
                -0.20370426574548045,
                -1.4423013377693263,
                2.4186783937165637,
                -0.9561260900913113,
                1.1661018727604633,
                -3.100066205540393
            ]
        },
        {
            "positions": [
                -0.06954516203169797,
                -1.5109493001270138,
                2.4147820775098467,
                -0.8833918388904309,
                1.0991812596305286,
                -3.106110143058704
            ]
        },
        {
            "positions": [
                0.06461394168208451,
                -1.579597262484701,
                2.4108857613031294,
                -0.8106575876895505,
                1.032260646500594,
                -3.1121540805770147
            ]
        },
        {
            "positions": [
                0.198773045395867,
                -1.6482452248423882,
                2.406989445096412,
                -0.7379233364886701,
                0.9653400333706594,
                -3.1181980180953257
            ]
        },
        {
            "positions": [
                0.33293214910964947,
                -1.7168931872000757,
                2.403093128889695,
                -0.6651890852877897,
                0.8984194202407249,
                -3.1242419556136367
            ]
        },
        {
            "positions": [
                0.46709125282343195,
                -1.7855411495577629,
                2.3991968126829777,
                -0.5924548340869094,
                0.8314988071107903,
                -3.1302858931319477
            ]
        },
        {
            "positions": [
                0.5885636189933693,
                -1.8481519152535146,
                2.3975813781282724,
                -0.5360576173218717,
                0.7761385656682573,
                -3.1334058874220725
            ]
        },
        {
            "positions": [
                0.7100359851633067,
                -1.9107626809492664,
                2.3959659435735676,
                -0.4796604005568341,
                0.7207783242257244,
                -3.1365258817121977
            ]
        }
    ]
}