{
    "goal": {
        "global_pose": {
            "orientation": {
                "w": 0.5084816217422485,
                "x": -0.49083608388900757,
                "y": 0.5182115435600281,
                "z": -0.4816462993621826
            },
            "position": {
                "x": 0.5540239810943604,
                "y": 0.030875300988554955,
                "z": 0.16403168439865112
            }
        },
        "name": "move_to_storage_A"
    },
    "id": "TRRT_move_to_storage_A_54",
    "joint_names": [
        "shoulder_pan_joint",
        "shoulder_lift_joint",
        "elbow_joint",
        "wrist_1_joint",
        "wrist_2_joint",
        "wrist_3_joint"
    ],
    "metrics": {
        "cart_traj_len": 0.3533524910029805,
        "distance_elbow_joint": 0.4489518950457274,
        "distance_shoulder_lift_joint": 0.23363839036740064,
        "distance_shoulder_pan_joint": 0.4620385110499348,
        "distance_wrist_1_joint": 0.23721368114808505,
        "distance_wrist_2_joint": 1.0991886396011517,
        "distance_wrist_3_joint": 0.08538416595454335,
        "smoothness": 2.2204460668324854e-16,
        "time": 0.032883112,
        "traj_len": 1.6020035215837831,
        "weighted_distance": 2.018312645708084
    },
    "planner": "TRRT",
    "start": {
        "state": {
            "elbow_joint": 1.9715463870305268,
            "shoulder_lift_joint": -1.1394903361783484,
            "shoulder_pan_joint": 0.12281147578464417,
            "wrist_1_joint": -0.7804599489681411,
            "wrist_2_joint": 0.12958660307563738,
            "wrist_3_joint": -3.1924946282119055
        }
    },
    "waypoints": [
        {
            "positions": [
                0.12281147578464417,
                -1.1394903361783484,
                1.9715463870305268,
                -0.7804599489681411,
                0.12958660307563738,
                -3.1924946282119055
            ]
        },
        {
            "positions": [
                0.05680597420608206,
                -1.172867249087977,
                2.0356823720370594,
                -0.8143476177035818,
                0.2866135515900876,
                -3.1802968902183992
            ]
        },
        {
            "positions": [
                -0.009199527372480046,
                -1.2062441619976056,
                2.0998183570435915,
                -0.8482352864390226,
                0.4436405001045378,
                -3.1680991522248934
            ]
        },
        {
            "positions": [
                -0.07520502895104215,
                -1.2396210749072343,
                2.163954342050124,
                -0.8821229551744633,
                0.600667448618988,
                -3.155901414231387
            ]
        },
        {
            "positions": [
                -0.14121053052960425,
                -1.2729979878168631,
                2.2280903270566568,
                -0.916010623909904,
                0.7576943971334383,
                -3.1437036762378807
            ]
        },
        {
            "positions": [
                -0.20721603210816641,
                -1.3063749007264918,
                2.2922263120631894,
                -0.9498982926453448,
                0.9147213456478887,
                -3.1315059382443744
            ]
        },
        {
            "positions": [
                -0.27322153368672847,
                -1.3397518136361204,
                2.3563622970697216,
                -0.9837859613807853,
                1.0717482941623386,
                -3.1193082002508685
            ]
        },
        {
            "positions": [
                -0.33922703526529063,
                -1.373128726545749,
                2.420498282076254,
                -1.0176736301162261,
                1.228775242676789,
                -3.107110462257362
            ]
        }
    ]
}