{
    "goal": {
        "global_pose": {
            "orientation": {
                "w": 0.7031023502349854,
                "x": -0.7110244035720825,
                "y": 0.007748599164187908,
                "z": 0.005598929710686207
            },
            "position": {
                "x": 0.11585023208521307,
                "y": 0.44412534475326537,
                "z": 0.3711530566215515
            }
        },
        "name": "move_to_auspresseinheit_A"
    },
    "id": "TRRT_move_to_auspresseinheit_A_84",
    "joint_names": [
        "shoulder_pan_joint",
        "shoulder_lift_joint",
        "elbow_joint",
        "wrist_1_joint",
        "wrist_2_joint",
        "wrist_3_joint"
    ],
    "metrics": {
        "cart_traj_len": 0.6882632386185746,
        "distance_elbow_joint": 0.02701513557030122,
        "distance_shoulder_lift_joint": 0.5365421570170186,
        "distance_shoulder_pan_joint": 1.0463552817307757,
        "distance_wrist_1_joint": 0.5500330875154658,
        "distance_wrist_2_joint": 0.5172920863227526,
        "distance_wrist_3_joint": 0.03540767567708558,
        "smoothness": 2.9605947279411004e-16,
        "time": 0.016229142000000002,
        "traj_len": 1.647011057592935,
        "weighted_distance": 1.9623419551713683
    },
    "planner": "TRRT",
    "start": {
        "state": {
            "elbow_joint": 2.422574709923281,
            "shoulder_lift_joint": -1.3736533754116391,
            "shoulder_pan_joint": -0.33786336945926293,
            "wrist_1_joint": -1.0288603412921917,
            "wrist_2_joint": 1.2330224858903978,
            "wrist_3_joint": -3.094022268022082
        }
    },
    "waypoints": [
        {
            "positions": [
                -0.33786336945926293,
                -1.3736533754116391,
                2.422574709923281,
                -1.0288603412921917,
                1.2330224858903978,
                -3.094022268022082
            ]
        },
        {
            "positions": [
                -0.2069325753861091,
                -1.4406651450879933,
                2.4190298597015154,
                -0.9592681614878222,
                1.1676649966331203,
                -3.099194313600928
            ]
        },
        {
            "positions": [
                -0.07600178131295526,
                -1.5076769147643472,
                2.4154850094797498,
                -0.8896759816834527,
                1.102307507375843,
                -3.1043663591797745
            ]
        },
        {
            "positions": [
                0.05492901276019857,
                -1.5746886844407013,
                2.411940159257984,
                -0.8200838018790833,
                1.0369500181185656,
                -3.109538404758621
            ]
        },
        {
            "positions": [
                0.1858598068333524,
                -1.6417004541170552,
                2.4083953090362185,
                -0.7504916220747139,
                0.9715925288612883,
                -3.114710450337467
            ]
        },
        {
            "positions": [
                0.3167906009065063,
                -1.7087122237934094,
                2.404850458814453,
                -0.6808994422703443,
                0.9062350396040109,
                -3.119882495916313
            ]
        },
        {
            "positions": [
                0.44772139497966007,
                -1.7757239934697635,
                2.401305608592687,
                -0.6113072624659749,
                0.8408775503467335,
                -3.1250545414951594
            ]
        },
        {
            "positions": [
                0.5781066536255864,
                -1.8429597629492105,
                2.3984325914728335,
                -0.5450672581213505,
                0.7783039749571894,
                -3.1272422425971635
            ]
        },
        {
            "positions": [
                0.7084919122715128,
                -1.9101955324286577,
                2.39555957435298,
                -0.478827253776726,
                0.7157303995676452,
                -3.1294299436991677
            ]
        }
    ]
}