{
    "goal": {
        "global_pose": {
            "orientation": {
                "w": 0.7031023502349854,
                "x": -0.7110244035720825,
                "y": 0.007748599164187908,
                "z": 0.005598929710686207
            },
            "position": {
                "x": 0.11585023208521307,
                "y": 0.44412534475326537,
                "z": 0.3711530566215515
            }
        },
        "name": "move_to_auspresseinheit_A"
    },
    "id": "TRRT_move_to_auspresseinheit_A_15",
    "joint_names": [
        "shoulder_pan_joint",
        "shoulder_lift_joint",
        "elbow_joint",
        "wrist_1_joint",
        "wrist_2_joint",
        "wrist_3_joint"
    ],
    "metrics": {
        "cart_traj_len": 1.2994439856266637,
        "distance_elbow_joint": 0.038026928771191404,
        "distance_shoulder_lift_joint": 0.5346310299558454,
        "distance_shoulder_pan_joint": 3.359299994830688,
        "distance_wrist_1_joint": 0.5449475338527634,
        "distance_wrist_2_joint": 3.464969610814741,
        "distance_wrist_3_joint": 12.096690150442566,
        "smoothness": 0.6217710471074627,
        "time": 0.066242496,
        "traj_len": 4.4764456043459075,
        "weighted_distance": 6.945636233940014
    },
    "planner": "TRRT",
    "start": {
        "state": {
            "elbow_joint": 2.422574709923281,
            "shoulder_lift_joint": -1.3736533754116391,
            "shoulder_pan_joint": -0.33786336945926293,
            "wrist_1_joint": -1.0288603412921917,
            "wrist_2_joint": 1.2330224858903978,
            "wrist_3_joint": -3.094022268022082
        }
    },
    "waypoints": [
        {
            "positions": [
                -0.33786336945926293,
                -1.3736533754116391,
                2.422574709923281,
                -1.0288603412921917,
                1.2330224858903978,
                -3.094022268022082
            ]
        },
        {
            "positions": [
                -0.3824167871316561,
                -1.3843780024186052,
                2.4228037785379724,
                -1.01182211403005,
                1.1561429828223178,
                -2.8621051907695034
            ]
        },
        {
            "positions": [
                -0.42697020480404935,
                -1.395102629425571,
                2.4230328471526636,
                -0.9947838867679083,
                1.079263479754238,
                -2.6301881135169243
            ]
        },
        {
            "positions": [
                -0.4715236224764425,
                -1.4058272564325371,
                2.423261915767355,
                -0.9777456595057666,
                1.0023839766861582,
                -2.3982710362643456
            ]
        },
        {
            "positions": [
                -0.5160770401488357,
                -1.4165518834395032,
                2.4234909843820467,
                -0.960707432243625,
                0.9255044736180782,
                -2.166353959011767
            ]
        },
        {
            "positions": [
                -0.5606304578212289,
                -1.427276510446469,
                2.423720052996738,
                -0.9436692049814832,
                0.8486249705499983,
                -1.934436881759188
            ]
        },
        {
            "positions": [
                -0.6051838754936221,
                -1.4380011374534352,
                2.4239491216114293,
                -0.9266309777193416,
                0.7717454674819184,
                -1.7025198045066092
            ]
        },
        {
            "positions": [
                -0.6497372931660153,
                -1.4487257644604012,
                2.4241781902261206,
                -0.9095927504571999,
                0.6948659644138386,
                -1.4706027272540305
            ]
        },
        {
            "positions": [
                -0.6942907108384085,
                -1.459450391467367,
                2.424407258840812,
                -0.8925545231950582,
                0.6179864613457586,
                -1.2386856500014516
            ]
        },
        {
            "positions": [
                -0.7388441285108017,
                -1.4701750184743332,
                2.424636327455503,
                -0.8755162959329165,
                0.5411069582776789,
                -1.0067685727488729
            ]
        },
        {
            "positions": [
                -0.783397546183195,
                -1.4808996454812993,
                2.424865396070195,
                -0.8584780686707748,
                0.46422745520959885,
                -0.7748514954962937
            ]
        },
        {
            "positions": [
                -0.8279509638555881,
                -1.4916242724882651,
                2.425094464684886,
                -0.8414398414086331,
                0.38734795214151907,
                -0.5429344182437155
            ]
        },
        {
            "positions": [
                -0.8725043815279814,
                -1.5023488994952312,
                2.4253235332995775,
                -0.8244016141464914,
                0.31046844907343907,
                -0.3110173409911363
            ]
        },
        {
            "positions": [
                -0.9170577992003746,
                -1.5130735265021973,
                2.425552601914269,
                -0.8073633868843497,
                0.2335889460053593,
                -0.07910026373855761
            ]
        },
        {
            "positions": [
                -0.9616112168727677,
                -1.5237981535091631,
                2.42578167052896,
                -0.7903251596222081,
                0.1567094429372795,
                0.1528168135140211
            ]
        },
        {
            "positions": [
                -1.006164634545161,
                -1.5345227805161292,
                2.4260107391436514,
                -0.7732869323600664,
                0.07982993986919973,
                0.3847338907665998
            ]
        },
        {
            "positions": [
                -1.050718052217554,
                -1.545247407523095,
                2.4262398077583427,
                -0.7562487050979246,
                0.002950436801119505,
                0.616650968019179
            ]
        },
        {
            "positions": [
                -1.0952714698899473,
                -1.5559720345300612,
                2.4264688763730344,
                -0.7392104778357829,
                -0.07392906626696027,
                0.8485680452717577
            ]
        },
        {
            "positions": [
                -1.1398248875623405,
                -1.5666966615370272,
                2.4266979449877257,
                -0.7221722505736412,
                -0.15080856933504005,
                1.0804851225243364
            ]
        },
        {
            "positions": [
                -1.1843783052347336,
                -1.577421288543993,
                2.426927013602417,
                -0.7051340233114995,
                -0.22768807240311983,
                1.312402199776915
            ]
        },
        {
            "positions": [
                -1.228931722907127,
                -1.5881459155509592,
                2.4271560822171083,
                -0.6880957960493579,
                -0.30456757547120006,
                1.5443192770294947
            ]
        },
        {
            "positions": [
                -1.27348514057952,
                -1.5988705425579253,
                2.4273851508317996,
                -0.6710575687872162,
                -0.38144707853927984,
                1.7762363542820734
            ]
        },
        {
            "positions": [
                -1.3180385582519132,
                -1.6095951695648911,
                2.427614219446491,
                -0.6540193415250746,
                -0.4583265816073596,
                2.008153431534651
            ]
        },
        {
            "positions": [
                -1.3625919759243066,
                -1.6203197965718572,
                2.4278432880611827,
                -0.6369811142629328,
                -0.5352060846754394,
                2.24007050878723
            ]
        },
        {
            "positions": [
                -1.4071453935966998,
                -1.6310444235788233,
                2.428072356675874,
                -0.619942887000791,
                -0.6120855877435196,
                2.4719875860398095
            ]
        },
        {
            "positions": [
                -1.451698811269093,
                -1.6417690505857894,
                2.4283014252905653,
                -0.6029046597386494,
                -0.6889650908115994,
                2.703904663292388
            ]
        },
        {
            "positions": [
                -1.4962522289414861,
                -1.6524936775927552,
                2.4285304939052565,
                -0.5858664324765077,
                -0.7658445938796792,
                2.935821740544967
            ]
        },
        {
            "positions": [
                -1.4116018006588529,
                -1.662331782507168,
                2.4272969883364404,
                -0.5819451392058508,
                -0.709456034993346,
                2.7024815043189854
            ]
        },
        {
            "positions": [
                -1.3269513723762194,
                -1.6721698874215805,
                2.4260634827676246,
                -0.578023845935194,
                -0.6530674761070128,
                2.469141268093004
            ]
        },
        {
            "positions": [
                -1.2423009440935862,
                -1.6820079923359932,
                2.4248299771988084,
                -0.574102552664537,
                -0.5966789172206797,
                2.2358010318670223
            ]
        },
        {
            "positions": [
                -1.157650515810953,
                -1.691846097250406,
                2.4235964716299927,
                -0.5701812593938801,
                -0.5402903583343465,
                2.0024607956410403
            ]
        },
        {
            "positions": [
                -1.0730000875283197,
                -1.7016842021648186,
                2.4223629660611765,
                -0.5662599661232233,
                -0.48390179944801326,
                1.769120559415059
            ]
        },
        {
            "positions": [
                -0.9883496592456863,
                -1.7115223070792311,
                2.4211294604923608,
                -0.5623386728525663,
                -0.42751324056168005,
                1.5357803231890774
            ]
        },
        {
            "positions": [
                -0.903699230963053,
                -1.7213604119936439,
                2.4198959549235446,
                -0.5584173795819094,
                -0.37112468167534696,
                1.3024400869630959
            ]
        },
        {
            "positions": [
                -0.8190488026804197,
                -1.7311985169080566,
                2.4186624493547284,
                -0.5544960863112525,
                -0.3147361227890137,
                1.069099850737114
            ]
        },
        {
            "positions": [
                -0.7343983743977864,
                -1.7410366218224693,
                2.4174289437859127,
                -0.5505747930405956,
                -0.25834756390268054,
                0.8357596145111326
            ]
        },
        {
            "positions": [
                -0.6497479461151531,
                -1.7508747267368818,
                2.4161954382170965,
                -0.5466534997699387,
                -0.20195900501634734,
                0.602419378285151
            ]
        },
        {
            "positions": [
                -0.5650975178325198,
                -1.7607128316512946,
                2.4149619326482807,
                -0.5427322064992818,
                -0.14557044613001424,
                0.3690791420591695
            ]
        },
        {
            "positions": [
                -0.48044708954988646,
                -1.7705509365657073,
                2.4137284270794646,
                -0.538810913228625,
                -0.08918188724368092,
                0.13573890583318793
            ]
        },
        {
            "positions": [
                -0.3957966612672532,
                -1.7803890414801198,
                2.412494921510649,
                -0.534889619957968,
                -0.03279332835734783,
                -0.09760133039279362
            ]
        },
        {
            "positions": [
                -0.31114623298461996,
                -1.7902271463945325,
                2.4112614159418326,
                -0.5309683266873111,
                0.023595230528985267,
                -0.33094156661877516
            ]
        },
        {
            "positions": [
                -0.2264958047019867,
                -1.8000652513089452,
                2.4100279103730164,
                -0.5270470334166543,
                0.07998378941531847,
                -0.5642818028447563
            ]
        },
        {
            "positions": [
                -0.14184537641935324,
                -1.809903356223358,
                2.4087944048042007,
                -0.5231257401459973,
                0.1363723483016518,
                -0.7976220390707387
            ]
        },
        {
            "positions": [
                -0.05719494813671999,
                -1.8197414611377705,
                2.4075608992353845,
                -0.5192044468753404,
                0.1927609071879849,
                -1.0309622752967198
            ]
        },
        {
            "positions": [
                0.027455480145913258,
                -1.8295795660521832,
                2.406327393666569,
                -0.5152831536046836,
                0.2491494660743181,
                -1.2643025115227018
            ]
        },
        {
            "positions": [
                0.11210590842854651,
                -1.839417670966596,
                2.4050938880977526,
                -0.5113618603340266,
                0.3055380249606512,
                -1.497642747748683
            ]
        },
        {
            "positions": [
                0.19675633671117998,
                -1.8492557758810086,
                2.4038603825289364,
                -0.5074405670633697,
                0.3619265838469845,
                -1.7309829839746649
            ]
        },
        {
            "positions": [
                0.28140676499381323,
                -1.8590938807954211,
                2.4026268769601207,
                -0.5035192737927128,
                0.4183151427333176,
                -1.964323220200646
            ]
        },
        {
            "positions": [
                0.3660571932764465,
                -1.8689319857098339,
                2.4013933713913045,
                -0.49959798052205595,
                0.4747037016196507,
                -2.197663456426628
            ]
        },
        {
            "positions": [
                0.45070762155907973,
                -1.8787700906242466,
                2.4001598658224887,
                -0.495676687251399,
                0.531092260505984,
                -2.431003692652609
            ]
        },
        {
            "positions": [
                0.5353580498417132,
                -1.8886081955386593,
                2.3989263602536726,
                -0.49175539398074214,
                0.5874808193923173,
                -2.664343928878591
            ]
        },
        {
            "positions": [
                0.6200084781243465,
                -1.8984463004530718,
                2.397692854684857,
                -0.4878341007100852,
                0.6438693782786504,
                -2.897684165104573
            ]
        },
        {
            "positions": [
                0.7046589064069796,
                -1.9082844053674846,
                2.3964593491160406,
                -0.4839128074394283,
                0.7002579371649834,
                -3.1310244013305546
            ]
        }
    ]
}