{
    "goal": {
        "global_pose": {
            "orientation": {
                "w": 0.7047431468963623,
                "x": -0.7094548344612122,
                "y": 0.0024358443915843964,
                "z": -0.0022348060738295317
            },
            "position": {
                "x": 0.6094750761985779,
                "y": 0.3671506643295288,
                "z": 0.19426114857196808
            }
        },
        "name": "move_to_magneteinheit_A"
    },
    "id": "TRRT_move_to_magneteinheit_A_122",
    "joint_names": [
        "shoulder_pan_joint",
        "shoulder_lift_joint",
        "elbow_joint",
        "wrist_1_joint",
        "wrist_2_joint",
        "wrist_3_joint"
    ],
    "metrics": {
        "cart_traj_len": 2.0504120274388518,
        "distance_elbow_joint": 3.8781722477639433,
        "distance_shoulder_lift_joint": 1.068076442880149,
        "distance_shoulder_pan_joint": 1.2421887229448514,
        "distance_wrist_1_joint": 1.1430358562958272,
        "distance_wrist_2_joint": 1.4711700108635286,
        "distance_wrist_3_joint": 4.378515992284017,
        "smoothness": 0.06270463387881213,
        "time": 0.099727763,
        "traj_len": 3.6305866293248417,
        "weighted_distance": 4.955037550287556
    },
    "planner": "TRRT",
    "start": {
        "state": {
            "elbow_joint": -1.919643507792019,
            "shoulder_lift_joint": -0.07675430207160344,
            "shoulder_pan_joint": -1.1188671864651873,
            "wrist_1_joint": 0.42560062535961957,
            "wrist_2_joint": 1.5706038300724876,
            "wrist_3_joint": 1.1188968870953055
        }
    },
    "waypoints": [
        {
            "positions": [
                -1.1188671864651873,
                -0.07675430207160344,
                -1.919643507792019,
                0.42560062535961957,
                1.5706038300724876,
                1.1188968870953055
            ]
        },
        {
            "positions": [
                -1.083080251871805,
                -0.10891888847076248,
                -1.8035180855862893,
                0.3914008789951055,
                1.5265103898478762,
                0.990749248984033
            ]
        },
        {
            "positions": [
                -1.0472933172784227,
                -0.1410834748699215,
                -1.6873926633805596,
                0.3572011326305914,
                1.4824169496232649,
                0.8626016108727604
            ]
        },
        {
            "positions": [
                -1.0115063826850403,
                -0.17324806126908057,
                -1.5712672411748299,
                0.32300138626607733,
                1.4383235093986535,
                0.7344539727614878
            ]
        },
        {
            "positions": [
                -0.975719448091658,
                -0.2054126476682396,
                -1.4551418189691,
                0.28880163990156327,
                1.394230069174042,
                0.6063063346502153
            ]
        },
        {
            "positions": [
                -0.9399325134982757,
                -0.23757723406739867,
                -1.3390163967633701,
                0.25460189353704915,
                1.3501366289494305,
                0.4781586965389427
            ]
        },
        {
            "positions": [
                -0.9041455789048933,
                -0.2697418204665577,
                -1.2228909745576404,
                0.22040214717253506,
                1.3060431887248192,
                0.3500110584276702
            ]
        },
        {
            "positions": [
                -0.868358644311511,
                -0.30190640686571674,
                -1.1067655523519107,
                0.186202400808021,
                1.2619497485002078,
                0.2218634203163976
            ]
        },
        {
            "positions": [
                -0.8325717097181287,
                -0.33407099326487577,
                -0.990640130146181,
                0.1520026544435069,
                1.2178563082755964,
                0.09371578220512511
            ]
        },
        {
            "positions": [
                -0.7967847751247463,
                -0.3662355796640348,
                -0.8745147079404514,
                0.11780290807899285,
                1.1737628680509848,
                -0.03443185590614739
            ]
        },
        {
            "positions": [
                -0.760997840531364,
                -0.3984001660631939,
                -0.7583892857347214,
                0.08360316171447874,
                1.1296694278263735,
                -0.1625794940174201
            ]
        },
        {
            "positions": [
                -0.7252109059379817,
                -0.4305647524623529,
                -0.6422638635289919,
                0.049403415349964674,
                1.085575987601762,
                -0.2907271321286924
            ]
        },
        {
            "positions": [
                -0.6894239713445992,
                -0.46272933886151196,
                -0.5261384413232619,
                0.015203668985450558,
                1.0414825473771507,
                -0.4188747702399651
            ]
        },
        {
            "positions": [
                -0.653637036751217,
                -0.494893925260671,
                -0.4100130191175324,
                -0.018996077379063447,
                0.9973891071525393,
                -0.5470224083512376
            ]
        },
        {
            "positions": [
                -0.6178501021578345,
                -0.5270585116598301,
                -0.29388759691180244,
                -0.053195823743577564,
                0.9532956669279279,
                -0.6751700464625103
            ]
        },
        {
            "positions": [
                -0.5820631675644522,
                -0.5592230980589891,
                -0.1777621747060727,
                -0.08739557010809168,
                0.9092022267033165,
                -0.8033176845737826
            ]
        },
        {
            "positions": [
                -0.5462762329710699,
                -0.591387684458148,
                -0.06163675250034295,
                -0.12159531647260574,
                0.865108786478705,
                -0.9314653226850553
            ]
        },
        {
            "positions": [
                -0.5104892983776875,
                -0.6235522708573071,
                0.054488669705386794,
                -0.1557950628371198,
                0.8210153462540937,
                -1.0596129607963278
            ]
        },
        {
            "positions": [
                -0.4747023637843052,
                -0.6557168572564662,
                0.17061409191111632,
                -0.18999480920163386,
                0.7769219060294823,
                -1.1877605989076003
            ]
        },
        {
            "positions": [
                -0.43891542919092275,
                -0.6878814436556253,
                0.2867395141168465,
                -0.22419455556614803,
                0.7328284658048708,
                -1.3159082370188733
            ]
        },
        {
            "positions": [
                -0.4031284945975405,
                -0.7200460300547844,
                0.40286493632257625,
                -0.2583943019306621,
                0.6887350255802595,
                -1.4440558751301458
            ]
        },
        {
            "positions": [
                -0.3673415600041582,
                -0.7522106164539433,
                0.518990358528306,
                -0.29259404829517616,
                0.644641585355648,
                -1.5722035132414178
            ]
        },
        {
            "positions": [
                -0.33155462541077585,
                -0.7843752028531024,
                0.6351157807340353,
                -0.3267937946596902,
                0.6005481451310366,
                -1.7003511513526903
            ]
        },
        {
            "positions": [
                -0.2957676908173934,
                -0.8165397892522614,
                0.7512412029397655,
                -0.3609935410242044,
                0.5564547049064252,
                -1.8284987894639633
            ]
        },
        {
            "positions": [
                -0.25998075622401107,
                -0.8487043756514205,
                0.8673666251454952,
                -0.39519328738871845,
                0.5123612646818139,
                -1.9566464275752358
            ]
        },
        {
            "positions": [
                -0.22419382163062884,
                -0.8808689620505794,
                0.983492047351225,
                -0.4293930337532324,
                0.4682678244572023,
                -2.0847940656865083
            ]
        },
        {
            "positions": [
                -0.1884068870372465,
                -0.9130335484497385,
                1.0996174695569543,
                -0.46359278011774646,
                0.4241743842325909,
                -2.2129417037977808
            ]
        },
        {
            "positions": [
                -0.15261995244386406,
                -0.9451981348488976,
                1.2157428917626845,
                -0.49779252648226063,
                0.38008094400797954,
                -2.3410893419090537
            ]
        },
        {
            "positions": [
                -0.11683301785048172,
                -0.9773627212480567,
                1.3318683139684142,
                -0.5319922728467747,
                0.33598750378336817,
                -2.469236980020326
            ]
        },
        {
            "positions": [
                -0.08104608325709939,
                -1.0095273076472158,
                1.447993736174144,
                -0.5661920192112888,
                0.2918940635587568,
                -2.5973846181315983
            ]
        },
        {
            "positions": [
                -0.04525914866371705,
                -1.0416918940463746,
                1.5641191583798737,
                -0.6003917655758029,
                0.24780062333414543,
                -2.7255322562428708
            ]
        },
        {
            "positions": [
                -0.009472214070334717,
                -1.0738564804455337,
                1.6802445805856034,
                -0.6345915119403169,
                0.20370718310953384,
                -2.8536798943541437
            ]
        },
        {
            "positions": [
                0.02631472052304762,
                -1.1060210668446928,
                1.7963700027913332,
                -0.668791258304831,
                0.15961374288492247,
                -2.981827532465416
            ]
        },
        {
            "positions": [
                0.062101655116429975,
                -1.138185653243852,
                1.9124954249970632,
                -0.7029910046693452,
                0.11552030266031119,
                -3.1099751705766883
            ]
        },
        {
            "positions": [
                0.12332153647966407,
                -1.1315405615359513,
                1.9585287399719244,
                -0.7174352309362076,
                0.1316067861116632,
                -3.2596191051887113
            ]
        }
    ]
}