{
    "goal": {
        "global_pose": {
            "orientation": {
                "w": 0.7031023502349854,
                "x": -0.7110244035720825,
                "y": 0.007748599164187908,
                "z": 0.005598929710686207
            },
            "position": {
                "x": 0.11585023208521307,
                "y": 0.44412534475326537,
                "z": 0.3711530566215515
            }
        },
        "name": "move_to_auspresseinheit_A"
    },
    "id": "TRRT_move_to_auspresseinheit_A_9",
    "joint_names": [
        "shoulder_pan_joint",
        "shoulder_lift_joint",
        "elbow_joint",
        "wrist_1_joint",
        "wrist_2_joint",
        "wrist_3_joint"
    ],
    "metrics": {
        "cart_traj_len": 0.6572601172339535,
        "distance_elbow_joint": 0.2220675472730651,
        "distance_shoulder_lift_joint": 0.5340886382141119,
        "distance_shoulder_pan_joint": 1.0468222522426618,
        "distance_wrist_1_joint": 0.5599377880970584,
        "distance_wrist_2_joint": 0.5165947226314674,
        "distance_wrist_3_joint": 0.03752514391034589,
        "smoothness": 0.23945027482888126,
        "time": 0.204180171,
        "traj_len": 1.7079332810062313,
        "weighted_distance": 2.017081775961978
    },
    "planner": "TRRT",
    "start": {
        "state": {
            "elbow_joint": 2.422574709923281,
            "shoulder_lift_joint": -1.3736533754116391,
            "shoulder_pan_joint": -0.33786336945926293,
            "wrist_1_joint": -1.0288603412921917,
            "wrist_2_joint": 1.2330224858903978,
            "wrist_3_joint": -3.094022268022082
        }
    },
    "waypoints": [
        {
            "positions": [
                -0.33786336945926293,
                -1.3736533754116391,
                2.422574709923281,
                -1.0288603412921917,
                1.2330224858903978,
                -3.094022268022082
            ]
        },
        {
            "positions": [
                -0.2849909327290908,
                -1.4803801085617276,
                2.446730786053652,
                -0.9199766779097414,
                1.1949926798671402,
                -3.1022065205894154
            ]
        },
        {
            "positions": [
                -0.2321184959989187,
                -1.5871068417118162,
                2.4708868621840234,
                -0.8110930145272909,
                1.1569628738438826,
                -3.110390773156749
            ]
        },
        {
            "positions": [
                -0.1792460592687466,
                -1.693833574861905,
                2.495042938314395,
                -0.7022093511448404,
                1.1189330678206248,
                -3.1185750257240823
            ]
        },
        {
            "positions": [
                -0.12637362253857448,
                -1.8005603080119934,
                2.519199014444766,
                -0.59332568776239,
                1.0809032617973673,
                -3.1267592782914155
            ]
        },
        {
            "positions": [
                0.08245950379191885,
                -1.8273557344154328,
                2.487838203756871,
                -0.5622249041205759,
                0.9897843871627581,
                -3.1279563117016687
            ]
        },
        {
            "positions": [
                0.2912926301224122,
                -1.8541511608188723,
                2.4564773930689756,
                -0.5311241204787617,
                0.8986655125281489,
                -3.129153345111922
            ]
        },
        {
            "positions": [
                0.5001257564529056,
                -1.8809465872223117,
                2.4251165823810803,
                -0.5000233368369476,
                0.8075466378935395,
                -3.130350378522175
            ]
        },
        {
            "positions": [
                0.7089588827833988,
                -1.907742013625751,
                2.3937557716931854,
                -0.4689225531951334,
                0.7164277632589303,
                -3.131547411932428
            ]
        }
    ]
}