{
    "goal": {
        "global_pose": {
            "orientation": {
                "w": 0.5084816217422485,
                "x": -0.49083608388900757,
                "y": 0.5182115435600281,
                "z": -0.4816462993621826
            },
            "position": {
                "x": 0.5540239810943604,
                "y": 0.030875300988554955,
                "z": 0.16403168439865112
            }
        },
        "name": "move_to_storage_A"
    },
    "id": "TRRT_move_to_storage_A_25",
    "joint_names": [
        "shoulder_pan_joint",
        "shoulder_lift_joint",
        "elbow_joint",
        "wrist_1_joint",
        "wrist_2_joint",
        "wrist_3_joint"
    ],
    "metrics": {
        "cart_traj_len": 0.3532136879849749,
        "distance_elbow_joint": 0.45007407786878906,
        "distance_shoulder_lift_joint": 0.23483768384155068,
        "distance_shoulder_pan_joint": 0.46354745886932786,
        "distance_wrist_1_joint": 0.24275900898413616,
        "distance_wrist_2_joint": 1.0920599871900285,
        "distance_wrist_3_joint": 0.08726863635124094,
        "smoothness": 6.661338165333112e-16,
        "time": 0.02241592,
        "traj_len": 1.603292503913454,
        "weighted_distance": 2.0198770066471177
    },
    "planner": "TRRT",
    "start": {
        "state": {
            "elbow_joint": 1.9715463870305268,
            "shoulder_lift_joint": -1.1394903361783484,
            "shoulder_pan_joint": 0.12281147578464417,
            "wrist_1_joint": -0.7804599489681411,
            "wrist_2_joint": 0.12958660307563738,
            "wrist_3_joint": -3.1924946282119055
        }
    },
    "waypoints": [
        {
            "positions": [
                0.12281147578464417,
                -1.1394903361783484,
                1.9715463870305268,
                -0.7804599489681411,
                0.12958660307563738,
                -3.1924946282119055
            ]
        },
        {
            "positions": [
                0.05659041023188305,
                -1.1730385767271414,
                2.035842683868925,
                -0.8151398073944462,
                0.28559517267421286,
                -3.180027680161728
            ]
        },
        {
            "positions": [
                -0.009630655320878076,
                -1.2065868172759342,
                2.1001389807073236,
                -0.8498196658207514,
                0.4416037422727883,
                -3.167560732111551
            ]
        },
        {
            "positions": [
                -0.07585172087363919,
                -1.2401350578247272,
                2.164435277545722,
                -0.8844995242470566,
                0.5976123118713639,
                -3.1550937840613735
            ]
        },
        {
            "positions": [
                -0.1420727864264003,
                -1.2736832983735202,
                2.2287315743841205,
                -0.9191793826733617,
                0.7536208814699393,
                -3.1426268360111966
            ]
        },
        {
            "positions": [
                -0.20829385197916145,
                -1.3072315389223133,
                2.293027871222519,
                -0.9538592410996669,
                0.9096294510685149,
                -3.1301598879610193
            ]
        },
        {
            "positions": [
                -0.27451491753192253,
                -1.340779779471106,
                2.3573241680609174,
                -0.9885390995259721,
                1.0656380206670903,
                -3.117692939910842
            ]
        },
        {
            "positions": [
                -0.34073598308468367,
                -1.374328020019899,
                2.421620464899316,
                -1.0232189579522772,
                1.221646590265666,
                -3.1052259918606646
            ]
        }
    ]
}