{
    "goal": {
        "global_pose": {
            "orientation": {
                "w": 0.5084816217422485,
                "x": -0.49083608388900757,
                "y": 0.5182115435600281,
                "z": -0.4816462993621826
            },
            "position": {
                "x": 0.5540239810943604,
                "y": 0.030875300988554955,
                "z": 0.16403168439865112
            }
        },
        "name": "move_to_storage_A"
    },
    "id": "TRRT_move_to_storage_A_39",
    "joint_names": [
        "shoulder_pan_joint",
        "shoulder_lift_joint",
        "elbow_joint",
        "wrist_1_joint",
        "wrist_2_joint",
        "wrist_3_joint"
    ],
    "metrics": {
        "cart_traj_len": 0.35253267048926307,
        "distance_elbow_joint": 0.44848739521142456,
        "distance_shoulder_lift_joint": 0.23442149203086915,
        "distance_shoulder_pan_joint": 0.4616857834607024,
        "distance_wrist_1_joint": 0.24103785656869803,
        "distance_wrist_2_joint": 1.0941743673029325,
        "distance_wrist_3_joint": 0.09717576512036175,
        "smoothness": 2.2204460668324854e-16,
        "time": 0.018676313,
        "traj_len": 1.605298308631448,
        "weighted_distance": 2.0264615500441505
    },
    "planner": "TRRT",
    "start": {
        "state": {
            "elbow_joint": 1.9715463870305268,
            "shoulder_lift_joint": -1.1394903361783484,
            "shoulder_pan_joint": 0.12281147578464417,
            "wrist_1_joint": -0.7804599489681411,
            "wrist_2_joint": 0.12958660307563738,
            "wrist_3_joint": -3.1924946282119055
        }
    },
    "waypoints": [
        {
            "positions": [
                0.12281147578464417,
                -1.1394903361783484,
                1.9715463870305268,
                -0.7804599489681411,
                0.12958660307563738,
                -3.1924946282119055
            ]
        },
        {
            "positions": [
                0.05685636386168669,
                -1.1729791207541869,
                2.0356160149178733,
                -0.814893928477955,
                0.2858972269760563,
                -3.178612376051854
            ]
        },
        {
            "positions": [
                -0.009098748061270798,
                -1.2064679053300253,
                2.0996856428052193,
                -0.8493279079877691,
                0.4422078508764752,
                -3.164730123891802
            ]
        },
        {
            "positions": [
                -0.07505385998422827,
                -1.2399566899058638,
                2.163755270692566,
                -0.8837618874975831,
                0.5985184747768941,
                -3.1508478717317505
            ]
        },
        {
            "positions": [
                -0.14100897190718575,
                -1.273445474481702,
                2.2278248985799123,
                -0.9181958670073971,
                0.7548290986773131,
                -3.136965619571699
            ]
        },
        {
            "positions": [
                -0.20696408383014325,
                -1.3069342590575406,
                2.2918945264672588,
                -0.9526298465172112,
                0.911139722577732,
                -3.123083367411647
            ]
        },
        {
            "positions": [
                -0.2729191957531007,
                -1.340423043633379,
                2.355964154354605,
                -0.987063826027025,
                1.0674503464781508,
                -3.1092011152515955
            ]
        },
        {
            "positions": [
                -0.3388743076760582,
                -1.3739118282092175,
                2.4200337822419513,
                -1.021497805536839,
                1.22376097037857,
                -3.095318863091544
            ]
        }
    ]
}