{
    "goal": {
        "global_pose": {
            "orientation": {
                "w": 0.7047431468963623,
                "x": -0.7094548344612122,
                "y": 0.0024358443915843964,
                "z": -0.0022348060738295317
            },
            "position": {
                "x": 0.6094750761985779,
                "y": 0.3671506643295288,
                "z": 0.19426114857196808
            }
        },
        "name": "move_to_magneteinheit_A"
    },
    "id": "TRRT_move_to_magneteinheit_A_149",
    "joint_names": [
        "shoulder_pan_joint",
        "shoulder_lift_joint",
        "elbow_joint",
        "wrist_1_joint",
        "wrist_2_joint",
        "wrist_3_joint"
    ],
    "metrics": {
        "cart_traj_len": 2.06338930889806,
        "distance_elbow_joint": 3.874299885030805,
        "distance_shoulder_lift_joint": 1.0525727716069908,
        "distance_shoulder_pan_joint": 1.2412664308803747,
        "distance_wrist_1_joint": 1.1241768945333572,
        "distance_wrist_2_joint": 1.4406244074080026,
        "distance_wrist_3_joint": 1.8910990345878904,
        "smoothness": 6.344131586143768e-16,
        "time": 0.085170315,
        "traj_len": 3.259453853645948,
        "weighted_distance": 4.119592066596469
    },
    "planner": "TRRT",
    "start": {
        "state": {
            "elbow_joint": -1.919643507792019,
            "shoulder_lift_joint": -0.07675430207160344,
            "shoulder_pan_joint": -1.1188671864651873,
            "wrist_1_joint": 0.42560062535961957,
            "wrist_2_joint": 1.5706038300724876,
            "wrist_3_joint": 1.1188968870953055
        }
    },
    "waypoints": [
        {
            "positions": [
                -1.1188671864651873,
                -0.07675430207160344,
                -1.919643507792019,
                0.42560062535961957,
                1.5706038300724876,
                1.1188968870953055
            ]
        },
        {
            "positions": [
                -1.0728943556918402,
                -0.11573847879778829,
                -1.7761509194575449,
                0.3839644440806063,
                1.5172473705388578,
                1.1889375920800422
            ]
        },
        {
            "positions": [
                -1.0269215249184929,
                -0.15472265552397313,
                -1.6326583311230707,
                0.3423282628015931,
                1.4638909110052283,
                1.258978297064779
            ]
        },
        {
            "positions": [
                -0.9809486941451457,
                -0.19370683225015797,
                -1.4891657427885963,
                0.30069208152257987,
                1.4105344514715985,
                1.3290190020495156
            ]
        },
        {
            "positions": [
                -0.9349758633717985,
                -0.23269100897634282,
                -1.345673154454122,
                0.2590559002435666,
                1.3571779919379687,
                1.3990597070342523
            ]
        },
        {
            "positions": [
                -0.8890030325984513,
                -0.2716751857025277,
                -1.2021805661196479,
                0.21741971896455342,
                1.303821532404339,
                1.469100412018989
            ]
        },
        {
            "positions": [
                -0.8430302018251041,
                -0.3106593624287125,
                -1.0586879777851737,
                0.1757835376855402,
                1.2504650728707092,
                1.5391411170037257
            ]
        },
        {
            "positions": [
                -0.7970573710517569,
                -0.3496435391548973,
                -0.9151953894506994,
                0.13414735640652697,
                1.1971086133370796,
                1.6091818219884622
            ]
        },
        {
            "positions": [
                -0.7510845402784097,
                -0.3886277158810822,
                -0.7717028011162252,
                0.09251117512751372,
                1.1437521538034499,
                1.679222526973199
            ]
        },
        {
            "positions": [
                -0.7051117095050625,
                -0.427611892607267,
                -0.6282102127817508,
                0.05087499384850053,
                1.09039569426982,
                1.7492632319579355
            ]
        },
        {
            "positions": [
                -0.6591388787317153,
                -0.4665960693334519,
                -0.4847176244472766,
                0.009238812569487276,
                1.0370392347361905,
                1.8193039369426725
            ]
        },
        {
            "positions": [
                -0.613166047958368,
                -0.5055802460596367,
                -0.3412250361128024,
                -0.03239736870952592,
                0.9836827752025606,
                1.889344641927409
            ]
        },
        {
            "positions": [
                -0.5671932171850208,
                -0.5445644227858215,
                -0.1977324477783282,
                -0.07403354998853917,
                0.930326315668931,
                1.9593853469121458
            ]
        },
        {
            "positions": [
                -0.5212203864116737,
                -0.5835485995120064,
                -0.05423985944385401,
                -0.11566973126755237,
                0.8769698561353012,
                2.0294260518968823
            ]
        },
        {
            "positions": [
                -0.47524755563832644,
                -0.6225327762381911,
                0.08925272889062019,
                -0.15730591254656562,
                0.8236133966016715,
                2.099466756881619
            ]
        },
        {
            "positions": [
                -0.4292747248649792,
                -0.6615169529643761,
                0.23274531722509484,
                -0.19894209382557887,
                0.7702569370680417,
                2.169507461866356
            ]
        },
        {
            "positions": [
                -0.38330189409163207,
                -0.700501129690561,
                0.3762379055595686,
                -0.24057827510459212,
                0.7169004775344121,
                2.239548166851092
            ]
        },
        {
            "positions": [
                -0.3373290633182847,
                -0.7394853064167459,
                0.5197304938940432,
                -0.28221445638360537,
                0.6635440180007822,
                2.309588871835829
            ]
        },
        {
            "positions": [
                -0.2913562325449376,
                -0.7784694831429306,
                0.6632230822285174,
                -0.3238506376626185,
                0.6101875584671526,
                2.379629576820566
            ]
        },
        {
            "positions": [
                -0.24538340177159035,
                -0.8174536598691156,
                0.8067156705629916,
                -0.3654868189416319,
                0.5568310989335228,
                2.4496702818053024
            ]
        },
        {
            "positions": [
                -0.19941057099824322,
                -0.8564378365953003,
                0.9502082588974659,
                -0.407123000220645,
                0.5034746393998932,
                2.519710986790039
            ]
        },
        {
            "positions": [
                -0.15343774022489587,
                -0.8954220133214852,
                1.09370084723194,
                -0.44875918149965827,
                0.45011817986626346,
                2.589751691774776
            ]
        },
        {
            "positions": [
                -0.10746490945154874,
                -0.9344061900476699,
                1.2371934355664143,
                -0.4903953627786714,
                0.3967617203326337,
                2.6597923967595127
            ]
        },
        {
            "positions": [
                -0.06149207867820139,
                -0.9733903667738548,
                1.380686023900889,
                -0.5320315440576848,
                0.3434052607990039,
                2.729833101744249
            ]
        },
        {
            "positions": [
                -0.015519247904854261,
                -1.0123745435000397,
                1.5241786122353627,
                -0.573667725336698,
                0.29004880126537436,
                2.7998738067289857
            ]
        },
        {
            "positions": [
                0.030453582868492868,
                -1.0513587202262247,
                1.6676712005698373,
                -0.6153039066157111,
                0.23669234173174458,
                2.8699145117137226
            ]
        },
        {
            "positions": [
                0.07642641364184,
                -1.0903428969524094,
                1.811163788904311,
                -0.6569400878947242,
                0.1833358821981148,
                2.9399552166984595
            ]
        },
        {
            "positions": [
                0.12239924441518732,
                -1.1293270736785943,
                1.9546563772387857,
                -0.6985762691737376,
                0.12997942266448506,
                3.009995921683196
            ]
        }
    ]
}