{
    "goal": {
        "global_pose": {
            "orientation": {
                "w": 0.5084816217422485,
                "x": -0.49083608388900757,
                "y": 0.5182115435600281,
                "z": -0.4816462993621826
            },
            "position": {
                "x": 0.5540239810943604,
                "y": 0.030875300988554955,
                "z": 0.16403168439865112
            }
        },
        "name": "move_to_storage_A"
    },
    "id": "TRRT_move_to_storage_A_33",
    "joint_names": [
        "shoulder_pan_joint",
        "shoulder_lift_joint",
        "elbow_joint",
        "wrist_1_joint",
        "wrist_2_joint",
        "wrist_3_joint"
    ],
    "metrics": {
        "cart_traj_len": 0.3530181680347232,
        "distance_elbow_joint": 0.4466925141749525,
        "distance_shoulder_lift_joint": 0.23471776155343993,
        "distance_shoulder_pan_joint": 0.45845836801109785,
        "distance_wrist_1_joint": 0.2337864478983419,
        "distance_wrist_2_joint": 1.1116681196986384,
        "distance_wrist_3_joint": 0.09382396920452063,
        "smoothness": 1.6653345324699854e-15,
        "time": 0.020737174,
        "traj_len": 1.6059723473774359,
        "weighted_distance": 2.0278682616351125
    },
    "planner": "TRRT",
    "start": {
        "state": {
            "elbow_joint": 1.9715463870305268,
            "shoulder_lift_joint": -1.1394903361783484,
            "shoulder_pan_joint": 0.12281147578464417,
            "wrist_1_joint": -0.7804599489681411,
            "wrist_2_joint": 0.12958660307563738,
            "wrist_3_joint": -3.1924946282119055
        }
    },
    "waypoints": [
        {
            "positions": [
                0.12281147578464417,
                -1.1394903361783484,
                1.9715463870305268,
                -0.7804599489681411,
                0.12958660307563738,
                -3.1924946282119055
            ]
        },
        {
            "positions": [
                0.05731742321163019,
                -1.173021444971697,
                2.0353596033412344,
                -0.8138580129536185,
                0.28839633446115714,
                -3.1790912040398314
            ]
        },
        {
            "positions": [
                -0.008176629361383789,
                -1.2065525537650454,
                2.0991728196519417,
                -0.8472560769390959,
                0.4472060658466769,
                -3.1656877798677567
            ]
        },
        {
            "positions": [
                -0.07367068193439776,
                -1.240083662558394,
                2.1629860359626494,
                -0.8806541409245733,
                0.6060157972321967,
                -3.1522843556956825
            ]
        },
        {
            "positions": [
                -0.13916473450741174,
                -1.2736147713517427,
                2.2267992522733566,
                -0.9140522049100508,
                0.7648255286177165,
                -3.138880931523608
            ]
        },
        {
            "positions": [
                -0.20465878708042573,
                -1.3071458801450913,
                2.2906124685840643,
                -0.9474502688955282,
                0.9236352600032363,
                -3.1254775073515337
            ]
        },
        {
            "positions": [
                -0.27015283965343967,
                -1.3406769889384398,
                2.3544256848947716,
                -0.9808483328810056,
                1.082444991388756,
                -3.112074083179459
            ]
        },
        {
            "positions": [
                -0.33564689222645366,
                -1.3742080977317883,
                2.4182389012054792,
                -1.014246396866483,
                1.2412547227742758,
                -3.098670659007385
            ]
        }
    ]
}