{
    "goal": {
        "global_pose": {
            "orientation": {
                "w": 0.7031023502349854,
                "x": -0.7110244035720825,
                "y": 0.007748599164187908,
                "z": 0.005598929710686207
            },
            "position": {
                "x": 0.11585023208521307,
                "y": 0.44412534475326537,
                "z": 0.3711530566215515
            }
        },
        "name": "move_to_auspresseinheit_A"
    },
    "id": "TRRT_move_to_auspresseinheit_A_4",
    "joint_names": [
        "shoulder_pan_joint",
        "shoulder_lift_joint",
        "elbow_joint",
        "wrist_1_joint",
        "wrist_2_joint",
        "wrist_3_joint"
    ],
    "metrics": {
        "cart_traj_len": 0.7742534069358826,
        "distance_elbow_joint": 0.21189229199132464,
        "distance_shoulder_lift_joint": 0.6988346458692813,
        "distance_shoulder_pan_joint": 1.0450311522458042,
        "distance_wrist_1_joint": 0.5448744026067109,
        "distance_wrist_2_joint": 0.9869789613510396,
        "distance_wrist_3_joint": 0.701050073138485,
        "smoothness": 1.1073535554192784,
        "time": 0.053992392,
        "traj_len": 2.046621979556226,
        "weighted_distance": 2.668822781197239
    },
    "planner": "TRRT",
    "start": {
        "state": {
            "elbow_joint": 2.422574709923281,
            "shoulder_lift_joint": -1.3736533754116391,
            "shoulder_pan_joint": -0.33786336945926293,
            "wrist_1_joint": -1.0288603412921917,
            "wrist_2_joint": 1.2330224858903978,
            "wrist_3_joint": -3.094022268022082
        }
    },
    "waypoints": [
        {
            "positions": [
                -0.33786336945926293,
                -1.3736533754116391,
                2.422574709923281,
                -1.0288603412921917,
                1.2330224858903978,
                -3.094022268022082
            ]
        },
        {
            "positions": [
                -0.27487942829863427,
                -1.4618938974210343,
                2.405573098721571,
                -0.9749454060766887,
                1.124637236382726,
                -3.146765801687412
            ]
        },
        {
            "positions": [
                -0.21189548713800557,
                -1.5501344194304294,
                2.3885714875198607,
                -0.9210304708611857,
                1.0162519868750541,
                -3.199509335352742
            ]
        },
        {
            "positions": [
                -0.14891154597737688,
                -1.6383749414398245,
                2.3715698763181505,
                -0.8671155356456827,
                0.9078667373673823,
                -3.2522528690180716
            ]
        },
        {
            "positions": [
                -0.08592760481674822,
                -1.7266154634492197,
                2.35456826511644,
                -0.8132006004301796,
                0.7994814878597106,
                -3.304996402683402
            ]
        },
        {
            "positions": [
                -0.022943663656119495,
                -1.814855985458615,
                2.3375666539147297,
                -0.7592856652146767,
                0.6910962383520388,
                -3.3577399363487315
            ]
        },
        {
            "positions": [
                0.04004027750450917,
                -1.90309650746801,
                2.3205650427130196,
                -0.7053707299991736,
                0.582710988844367,
                -3.4104834700140616
            ]
        },
        {
            "positions": [
                0.10302421866513789,
                -1.9913370294774053,
                2.3035634315113094,
                -0.6514557947836705,
                0.4743257393366952,
                -3.4632270036793913
            ]
        },
        {
            "positions": [
                0.25406010969548876,
                -1.9710492815265266,
                2.3267836849061476,
                -0.6095883307591231,
                0.5313962930360294,
                -3.3802656693090976
            ]
        },
        {
            "positions": [
                0.40509600072583957,
                -1.9507615335756476,
                2.350003938300986,
                -0.5677208667345757,
                0.5884668467353638,
                -3.2973043349388034
            ]
        },
        {
            "positions": [
                0.5561318917561904,
                -1.930473785624769,
                2.373224191695824,
                -0.5258534027100282,
                0.645537400434698,
                -3.214343000568509
            ]
        },
        {
            "positions": [
                0.7071677827865412,
                -1.9101860376738902,
                2.3964444450906623,
                -0.4839859386854808,
                0.7026079541340322,
                -3.1313816661982155
            ]
        }
    ]
}