{
    "goal": {
        "global_pose": {
            "orientation": {
                "w": 0.5084816217422485,
                "x": -0.49083608388900757,
                "y": 0.5182115435600281,
                "z": -0.4816462993621826
            },
            "position": {
                "x": 0.5540239810943604,
                "y": 0.030875300988554955,
                "z": 0.16403168439865112
            }
        },
        "name": "move_to_storage_A"
    },
    "id": "TRRT_move_to_storage_A_61",
    "joint_names": [
        "shoulder_pan_joint",
        "shoulder_lift_joint",
        "elbow_joint",
        "wrist_1_joint",
        "wrist_2_joint",
        "wrist_3_joint"
    ],
    "metrics": {
        "cart_traj_len": 0.3526582517353658,
        "distance_elbow_joint": 0.4498141648235743,
        "distance_shoulder_lift_joint": 0.23289809965036268,
        "distance_shoulder_pan_joint": 0.46146034577571043,
        "distance_wrist_1_joint": 0.24658053059924379,
        "distance_wrist_2_joint": 1.0957163310840738,
        "distance_wrist_3_joint": 0.09202384729109436,
        "smoothness": 4.440892098500626e-16,
        "time": 0.022203871,
        "traj_len": 1.605768762687847,
        "weighted_distance": 2.0260399491346575
    },
    "planner": "TRRT",
    "start": {
        "state": {
            "elbow_joint": 1.9715463870305268,
            "shoulder_lift_joint": -1.1394903361783484,
            "shoulder_pan_joint": 0.12281147578464417,
            "wrist_1_joint": -0.7804599489681411,
            "wrist_2_joint": 0.12958660307563738,
            "wrist_3_joint": -3.1924946282119055
        }
    },
    "waypoints": [
        {
            "positions": [
                0.12281147578464417,
                -1.1394903361783484,
                1.9715463870305268,
                -0.7804599489681411,
                0.12958660307563738,
                -3.1924946282119055
            ]
        },
        {
            "positions": [
                0.05688856924525697,
                -1.1727614932712573,
                2.0358055534338946,
                -0.8156857390537473,
                0.28611750751621934,
                -3.179348364313178
            ]
        },
        {
            "positions": [
                -0.009034337294130237,
                -1.2060326503641663,
                2.1000647198372624,
                -0.8509115291393536,
                0.44264841195680127,
                -3.16620210041445
            ]
        },
        {
            "positions": [
                -0.07495724383351744,
                -1.2393038074570752,
                2.16432388624063,
                -0.8861373192249599,
                0.5991793163973833,
                -3.153055836515722
            ]
        },
        {
            "positions": [
                -0.14088015037290463,
                -1.2725749645499842,
                2.2285830526439976,
                -0.9213631093105661,
                0.7557102208379652,
                -3.1399095726169945
            ]
        },
        {
            "positions": [
                -0.20680305691229184,
                -1.3058461216428932,
                2.2928422190473654,
                -0.9565888993961724,
                0.9122411252785473,
                -3.126763308718267
            ]
        },
        {
            "positions": [
                -0.27272596345167904,
                -1.339117278735802,
                2.3571013854507332,
                -0.9918146894817785,
                1.0687720297191292,
                -3.113617044819539
            ]
        },
        {
            "positions": [
                -0.33864886999106625,
                -1.372388435828711,
                2.421360551854101,
                -1.0270404795673849,
                1.2253029341597113,
                -3.100470780920811
            ]
        }
    ]
}