{
    "goal": {
        "global_pose": {
            "orientation": {
                "w": 0.5084816217422485,
                "x": -0.49083608388900757,
                "y": 0.5182115435600281,
                "z": -0.4816462993621826
            },
            "position": {
                "x": 0.5540239810943604,
                "y": 0.030875300988554955,
                "z": 0.16403168439865112
            }
        },
        "name": "move_to_storage_A"
    },
    "id": "TRRT_move_to_storage_A_66",
    "joint_names": [
        "shoulder_pan_joint",
        "shoulder_lift_joint",
        "elbow_joint",
        "wrist_1_joint",
        "wrist_2_joint",
        "wrist_3_joint"
    ],
    "metrics": {
        "cart_traj_len": 0.35379500050808826,
        "distance_elbow_joint": 0.4483825945905635,
        "distance_shoulder_lift_joint": 0.23582798353704693,
        "distance_shoulder_pan_joint": 0.46435519649472445,
        "distance_wrist_1_joint": 0.23418129313019687,
        "distance_wrist_2_joint": 1.0932569597878055,
        "distance_wrist_3_joint": 0.09635331218349785,
        "smoothness": 8.881784197001252e-16,
        "time": 0.017491449,
        "traj_len": 1.6038570197258342,
        "weighted_distance": 2.0229933803670326
    },
    "planner": "TRRT",
    "start": {
        "state": {
            "elbow_joint": 1.9715463870305268,
            "shoulder_lift_joint": -1.1394903361783484,
            "shoulder_pan_joint": 0.12281147578464417,
            "wrist_1_joint": -0.7804599489681411,
            "wrist_2_joint": 0.12958660307563738,
            "wrist_3_joint": -3.1924946282119055
        }
    },
    "waypoints": [
        {
            "positions": [
                0.12281147578464417,
                -1.1394903361783484,
                1.9715463870305268,
                -0.7804599489681411,
                0.12958660307563738,
                -3.1924946282119055
            ]
        },
        {
            "positions": [
                0.05647501914254069,
                -1.1731800481122123,
                2.0356010434006073,
                -0.8139144194153121,
                0.2857661687596096,
                -3.178729869328549
            ]
        },
        {
            "positions": [
                -0.009861437499562795,
                -1.206869760046076,
                2.099655699770688,
                -0.847368889862483,
                0.44194573444358176,
                -3.1649651104451917
            ]
        },
        {
            "positions": [
                -0.07619789414166629,
                -1.24055947197994,
                2.1637103561407685,
                -0.880823360309654,
                0.5981253001275539,
                -3.151200351561835
            ]
        },
        {
            "positions": [
                -0.14253435078376975,
                -1.2742491839138037,
                2.2277650125108486,
                -0.914277830756825,
                0.7543048658115262,
                -3.1374355926784783
            ]
        },
        {
            "positions": [
                -0.20887080742587327,
                -1.3079388958476676,
                2.291819668880929,
                -0.947732301203996,
                0.9104844314954985,
                -3.1236708337951216
            ]
        },
        {
            "positions": [
                -0.27520726406797674,
                -1.3416286077815314,
                2.3558743252510097,
                -0.981186771651167,
                1.0666639971794705,
                -3.1099060749117644
            ]
        },
        {
            "positions": [
                -0.34154372071008027,
                -1.3753183197153953,
                2.4199289816210903,
                -1.014641242098338,
                1.2228435628634429,
                -3.0961413160284077
            ]
        }
    ]
}