{
    "goal": {
        "global_pose": {
            "orientation": {
                "w": -0.00223480608172531,
                "x": 0.0024358444001904467,
                "y": 0.7094548369677653,
                "z": -0.704743149386269
            },
            "position": {
                "x": 0.6205249238014221,
                "y": -0.6371506643295288,
                "z": 0.19426114857196808
            }
        },
        "name": "move_to_magneteinheit_B"
    },
    "id": "TRRT_move_to_magneteinheit_B_124",
    "joint_names": [
        "shoulder_pan_joint",
        "shoulder_lift_joint",
        "elbow_joint",
        "wrist_1_joint",
        "wrist_2_joint",
        "wrist_3_joint"
    ],
    "metrics": {
        "cart_traj_len": 1.4513552556455855,
        "distance_elbow_joint": 0.7285784489307032,
        "distance_shoulder_lift_joint": 1.2479669513583955,
        "distance_shoulder_pan_joint": 1.6212811349563447,
        "distance_wrist_1_joint": 2.601791517064459,
        "distance_wrist_2_joint": 2.9337631667005937,
        "distance_wrist_3_joint": 3.130693745027263,
        "smoothness": 4.996003634715596e-16,
        "time": 0.335445244,
        "traj_len": 3.502010131915349,
        "weighted_distance": 4.905203067953185
    },
    "planner": "TRRT",
    "start": {
        "state": {
            "elbow_joint": 2.39358713078474,
            "shoulder_lift_joint": -1.908514104345545,
            "shoulder_pan_joint": 0.7066247066606129,
            "wrist_1_joint": -0.4678290933515497,
            "wrist_2_joint": 0.7096259083745334,
            "wrist_3_joint": -3.1358149277392293
        }
    },
    "waypoints": [
        {
            "positions": [
                0.7066247066606129,
                -1.908514104345545,
                2.39358713078474,
                -0.4678290933515497,
                0.7096259083745334,
                -3.1358149277392293
            ]
        },
        {
            "positions": [
                0.6543253152104083,
                -1.868257105914629,
                2.370084600174072,
                -0.38390033473656715,
                0.6149883868680627,
                -3.034824806931898
            ]
        },
        {
            "positions": [
                0.6020259237602036,
                -1.8280001074837129,
                2.3465820695634045,
                -0.2999715761215846,
                0.5203508653615919,
                -2.933834686124567
            ]
        },
        {
            "positions": [
                0.5497265323099989,
                -1.7877431090527969,
                2.3230795389527366,
                -0.21604281750660204,
                0.42571334385512116,
                -2.8328445653172363
            ]
        },
        {
            "positions": [
                0.4974271408597943,
                -1.7474861106218809,
                2.2995770083420686,
                -0.13211405889161948,
                0.3310758223486504,
                -2.731854444509905
            ]
        },
        {
            "positions": [
                0.4451277494095896,
                -1.707229112190965,
                2.276074477731401,
                -0.04818530027663692,
                0.23643830084217965,
                -2.630864323702574
            ]
        },
        {
            "positions": [
                0.3928283579593849,
                -1.666972113760049,
                2.252571947120733,
                0.035743458338345635,
                0.1418007793357089,
                -2.5298742028952432
            ]
        },
        {
            "positions": [
                0.3405289665091803,
                -1.626715115329133,
                2.229069416510065,
                0.11967221695332814,
                0.04716325782923814,
                -2.4288840820879116
            ]
        },
        {
            "positions": [
                0.2882295750589756,
                -1.586458116898217,
                2.205566885899397,
                0.20360097556831075,
                -0.04747426367723262,
                -2.327893961280581
            ]
        },
        {
            "positions": [
                0.23593018360877088,
                -1.546201118467301,
                2.1820643552887296,
                0.28752973418329336,
                -0.1421117851837035,
                -2.2269038404732497
            ]
        },
        {
            "positions": [
                0.18363079215856626,
                -1.505944120036385,
                2.1585618246780616,
                0.37145849279827586,
                -0.23674930669017413,
                -2.1259137196659186
            ]
        },
        {
            "positions": [
                0.13133140070836158,
                -1.465687121605469,
                2.1350592940673936,
                0.4553872514132585,
                -0.3313868281966451,
                -2.024923598858588
            ]
        },
        {
            "positions": [
                0.0790320092581569,
                -1.4254301231745532,
                2.111556763456726,
                0.539316010028241,
                -0.42602434970311565,
                -1.9239334780512567
            ]
        },
        {
            "positions": [
                0.02673261780795222,
                -1.3851731247436372,
                2.088054232846058,
                0.6232447686432236,
                -0.5206618712095866,
                -1.8229433572439255
            ]
        },
        {
            "positions": [
                -0.02556677364225235,
                -1.3449161263127212,
                2.06455170223539,
                0.707173527258206,
                -0.6152993927160572,
                -1.7219532364365944
            ]
        },
        {
            "positions": [
                -0.07786616509245714,
                -1.3046591278818052,
                2.0410491716247225,
                0.7911022858731886,
                -0.7099369142225281,
                -1.6209631156292634
            ]
        },
        {
            "positions": [
                -0.1301655565426617,
                -1.2644021294508891,
                2.0175466410140546,
                0.8750310444881713,
                -0.8045744357289987,
                -1.5199729948219323
            ]
        },
        {
            "positions": [
                -0.1824649479928664,
                -1.2241451310199731,
                1.9940441104033866,
                0.9589598031031537,
                -0.8992119572354694,
                -1.4189828740146013
            ]
        },
        {
            "positions": [
                -0.23476433944307118,
                -1.1838881325890571,
                1.9705415797927188,
                1.0428885617181365,
                -0.9938494787419404,
                -1.3179927532072702
            ]
        },
        {
            "positions": [
                -0.28706373089327575,
                -1.143631134158141,
                1.947039049182051,
                1.1268173203331189,
                -1.0884870002484113,
                -1.217002632399939
            ]
        },
        {
            "positions": [
                -0.33936312234348043,
                -1.103374135727225,
                1.923536518571383,
                1.2107460789481015,
                -1.1831245217548818,
                -1.1160125115926083
            ]
        },
        {
            "positions": [
                -0.391662513793685,
                -1.0631171372963093,
                1.9000339879607153,
                1.2946748375630839,
                -1.2777620432613523,
                -1.0150223907852771
            ]
        },
        {
            "positions": [
                -0.4439619052438898,
                -1.022860138865393,
                1.8765314573500476,
                1.3786035961780667,
                -1.3723995647678238,
                -0.914032269977946
            ]
        },
        {
            "positions": [
                -0.49626129669409436,
                -0.9826031404344773,
                1.8530289267393796,
                1.462532354793049,
                -1.4670370862742943,
                -0.8130421491706148
            ]
        },
        {
            "positions": [
                -0.5485606881442991,
                -0.9423461420035613,
                1.8295263961287118,
                1.5464611134080317,
                -1.5616746077807648,
                -0.7120520283632841
            ]
        },
        {
            "positions": [
                -0.6008600795945037,
                -0.9020891435726455,
                1.806023865518044,
                1.6303898720230139,
                -1.6563121292872358,
                -0.6110619075559529
            ]
        },
        {
            "positions": [
                -0.6531594710447085,
                -0.8618321451417292,
                1.782521334907376,
                1.714318630637997,
                -1.7509496507937068,
                -0.5100717867486217
            ]
        },
        {
            "positions": [
                -0.7054588624949131,
                -0.8215751467108132,
                1.759018804296708,
                1.7982473892529796,
                -1.8455871723001773,
                -0.4090816659412906
            ]
        },
        {
            "positions": [
                -0.7577582539451176,
                -0.7813181482798974,
                1.7355162736860403,
                1.8821761478679617,
                -1.9402246938066479,
                -0.3080915451339594
            ]
        },
        {
            "positions": [
                -0.8100576453953224,
                -0.7410611498489814,
                1.7120137430753726,
                1.9661049064829443,
                -2.034862215313119,
                -0.2071014243266287
            ]
        },
        {
            "positions": [
                -0.8623570368455272,
                -0.7008041514180654,
                1.6885112124647046,
                2.050033665097927,
                -2.12949973681959,
                -0.10611130351929754
            ]
        },
        {
            "positions": [
                -0.9146564282957318,
                -0.6605471529871493,
                1.6650086818540368,
                2.1339624237129096,
                -2.2241372583260604,
                -0.00512118271196621
            ]
        }
    ]
}