{
    "goal": {
        "global_pose": {
            "orientation": {
                "w": -0.00223480608172531,
                "x": 0.0024358444001904467,
                "y": 0.7094548369677653,
                "z": -0.704743149386269
            },
            "position": {
                "x": 0.6205249238014221,
                "y": -0.6371506643295288,
                "z": 0.19426114857196808
            }
        },
        "name": "move_to_magneteinheit_B"
    },
    "id": "TRRT_move_to_magneteinheit_B_81",
    "joint_names": [
        "shoulder_pan_joint",
        "shoulder_lift_joint",
        "elbow_joint",
        "wrist_1_joint",
        "wrist_2_joint",
        "wrist_3_joint"
    ],
    "metrics": {
        "cart_traj_len": 3.5752802038474814,
        "distance_elbow_joint": 4.036370146445759,
        "distance_shoulder_lift_joint": 0.7758558614846169,
        "distance_shoulder_pan_joint": 1.9542454389585289,
        "distance_wrist_1_joint": 2.344017061366097,
        "distance_wrist_2_joint": 1.1754295931294765,
        "distance_wrist_3_joint": 0.9090218148317755,
        "smoothness": 0.2907116856475462,
        "time": 4.7073590869999995,
        "traj_len": 3.3458840261157072,
        "weighted_distance": 4.066009124482553
    },
    "planner": "TRRT",
    "start": {
        "state": {
            "elbow_joint": 2.39358713078474,
            "shoulder_lift_joint": -1.908514104345545,
            "shoulder_pan_joint": 0.7066247066606129,
            "wrist_1_joint": -0.4678290933515497,
            "wrist_2_joint": 0.7096259083745334,
            "wrist_3_joint": -3.1358149277392293
        }
    },
    "waypoints": [
        {
            "positions": [
                0.7066247066606129,
                -1.908514104345545,
                2.39358713078474,
                -0.4678290933515497,
                0.7096259083745334,
                -3.1358149277392293
            ]
        },
        {
            "positions": [
                0.7590091030409186,
                -1.9371272868330782,
                2.372805341710551,
                -0.41558282209103264,
                0.6365634501817095,
                -2.982632601021067
            ]
        },
        {
            "positions": [
                0.8113934994212244,
                -1.9657404693206113,
                2.352023552636362,
                -0.3633365508305156,
                0.5635009919888854,
                -2.829450274302905
            ]
        },
        {
            "positions": [
                0.8637778958015301,
                -1.9943536518081446,
                2.331241763562173,
                -0.3110902795699985,
                0.4904385337960614,
                -2.6762679475847424
            ]
        },
        {
            "positions": [
                0.9331113689239126,
                -1.982580796719477,
                2.160104651926168,
                -0.4067575956243226,
                0.46490290819224805,
                -2.696285846493171
            ]
        },
        {
            "positions": [
                1.002444842046295,
                -1.9708079416308095,
                1.9889675402901634,
                -0.5024249116786468,
                0.43936728258843466,
                -2.7163037454016
            ]
        },
        {
            "positions": [
                1.0717783151686777,
                -1.959035086542142,
                1.8178304286541587,
                -0.5980922277329708,
                0.4138316569846213,
                -2.7363216443100287
            ]
        },
        {
            "positions": [
                1.1411117882910602,
                -1.9472622314534744,
                1.646693317018154,
                -0.693759543787295,
                0.3882960313808079,
                -2.7563395432184574
            ]
        },
        {
            "positions": [
                1.2104452614134427,
                -1.935489376364807,
                1.4755562053821492,
                -0.789426859841619,
                0.3627604057769946,
                -2.776357442126886
            ]
        },
        {
            "positions": [
                1.2797787345358254,
                -1.9237165212761396,
                1.3044190937461446,
                -0.8850941758959432,
                0.33722478017318125,
                -2.796375341035315
            ]
        },
        {
            "positions": [
                1.3491122076582078,
                -1.911943666187472,
                1.1332819821101399,
                -0.9807614919502672,
                0.31168915456936785,
                -2.8163932399437437
            ]
        },
        {
            "positions": [
                1.4184456807805903,
                -1.9001708110988045,
                0.9621448704741351,
                -1.0764288080045914,
                0.2861535289655545,
                -2.8364111388521724
            ]
        },
        {
            "positions": [
                1.4877791539029728,
                -1.888397956010137,
                0.7910077588381303,
                -1.1720961240589154,
                0.2606179033617412,
                -2.856429037760601
            ]
        },
        {
            "positions": [
                1.5571126270253552,
                -1.8766251009214694,
                0.6198706472021256,
                -1.2677634401132396,
                0.23508227775792778,
                -2.87644693666903
            ]
        },
        {
            "positions": [
                1.6264461001477382,
                -1.8648522458328018,
                0.44873353556612083,
                -1.3634307561675638,
                0.2095466521541144,
                -2.8964648355774587
            ]
        },
        {
            "positions": [
                1.6957795732701204,
                -1.8530793907441343,
                0.2775964239301163,
                -1.4590980722218878,
                0.18401102655030105,
                -2.9164827344858875
            ]
        },
        {
            "positions": [
                1.765113046392503,
                -1.8413065356554668,
                0.1064593122941111,
                -1.554765388276212,
                0.15847540094648765,
                -2.936500633394316
            ]
        },
        {
            "positions": [
                1.8344465195148856,
                -1.8295336805667992,
                -0.06467779934189322,
                -1.650432704330536,
                0.13293977534267432,
                -2.956518532302745
            ]
        },
        {
            "positions": [
                1.903779992637268,
                -1.8177608254781317,
                -0.23581491097789797,
                -1.7461000203848602,
                0.10740414973886092,
                -2.9765364312111737
            ]
        },
        {
            "positions": [
                1.9731134657596505,
                -1.8059879703894643,
                -0.40695202261390273,
                -1.8417673364391842,
                0.08186852413504764,
                -2.9965543301196025
            ]
        },
        {
            "positions": [
                2.0424469388820334,
                -1.7942151153007968,
                -0.5780891342499075,
                -1.9374346524935084,
                0.05633289853123424,
                -3.0165722290280312
            ]
        },
        {
            "positions": [
                2.111780412004416,
                -1.7824422602121293,
                -0.7492262458859122,
                -2.0331019685478324,
                0.030797272927420904,
                -3.03659012793646
            ]
        },
        {
            "positions": [
                2.1811138851267984,
                -1.7706694051234617,
                -0.920363357521917,
                -2.1287692846021566,
                0.00526164732360751,
                -3.0566080268448887
            ]
        },
        {
            "positions": [
                2.250447358249181,
                -1.7588965500347942,
                -1.0915004691579218,
                -2.2244366006564804,
                -0.02027397828020583,
                -3.0766259257533175
            ]
        },
        {
            "positions": [
                2.3197808313715633,
                -1.7471236949461266,
                -1.2626375807939263,
                -2.3201039167108046,
                -0.045809603884019175,
                -3.0966438246617463
            ]
        },
        {
            "positions": [
                2.385230158637319,
                -1.8569438871147854,
                -1.3500869495317174,
                -2.3630990583855005,
                -0.0828304949295457,
                -3.1024747806583237
            ]
        },
        {
            "positions": [
                2.4506794859030743,
                -1.966764079283444,
                -1.4375363182695087,
                -2.4060942000601964,
                -0.11985138597507222,
                -3.108305736654901
            ]
        },
        {
            "positions": [
                2.5161288131688293,
                -2.0765842714521026,
                -1.5249856870073,
                -2.4490893417348922,
                -0.15687227702059875,
                -3.114136692651479
            ]
        },
        {
            "positions": [
                2.5815781404345848,
                -2.1864044636207614,
                -1.612435055745091,
                -2.492084483409588,
                -0.19389316806612528,
                -3.1199676486480565
            ]
        },
        {
            "positions": [
                2.621224143026863,
                -2.188157257863444,
                -1.6276090357030555,
                -2.4889424615371096,
                -0.32984842641053413,
                -3.1170800818410695
            ]
        },
        {
            "positions": [
                2.6608701456191417,
                -2.189910052106126,
                -1.64278301566102,
                -2.4858004396646316,
                -0.465803684754943,
                -3.114192515034082
            ]
        }
    ]
}