{
    "goal": {
        "global_pose": {
            "orientation": {
                "w": 0.7047431468963623,
                "x": -0.7094548344612122,
                "y": 0.0024358443915843964,
                "z": -0.0022348060738295317
            },
            "position": {
                "x": 0.6094750761985779,
                "y": 0.3671506643295288,
                "z": 0.19426114857196808
            }
        },
        "name": "move_to_magneteinheit_A"
    },
    "id": "TRRT_move_to_magneteinheit_A_98",
    "joint_names": [
        "shoulder_pan_joint",
        "shoulder_lift_joint",
        "elbow_joint",
        "wrist_1_joint",
        "wrist_2_joint",
        "wrist_3_joint"
    ],
    "metrics": {
        "cart_traj_len": 2.0640354304449415,
        "distance_elbow_joint": 3.8771013672911865,
        "distance_shoulder_lift_joint": 1.0550783315172818,
        "distance_shoulder_pan_joint": 1.2423292633271767,
        "distance_wrist_1_joint": 1.1438002754508343,
        "distance_wrist_2_joint": 1.4357806473802563,
        "distance_wrist_3_joint": 1.9151045752830362,
        "smoothness": 3.1720657918664137e-16,
        "time": 0.217775926,
        "traj_len": 3.2663732885648225,
        "weighted_distance": 4.13267280747544
    },
    "planner": "TRRT",
    "start": {
        "state": {
            "elbow_joint": -1.919643507792019,
            "shoulder_lift_joint": -0.07675430207160344,
            "shoulder_pan_joint": -1.1188671864651873,
            "wrist_1_joint": 0.42560062535961957,
            "wrist_2_joint": 1.5706038300724876,
            "wrist_3_joint": 1.1188968870953055
        }
    },
    "waypoints": [
        {
            "positions": [
                -1.1188671864651873,
                -0.07675430207160344,
                -1.919643507792019,
                0.42560062535961957,
                1.5706038300724876,
                1.1188968870953055
            ]
        },
        {
            "positions": [
                -1.0728549915271437,
                -0.11583127731298425,
                -1.7760471608553086,
                0.38323765219477385,
                1.517426769058404,
                1.1898266861798625
            ]
        },
        {
            "positions": [
                -1.0268427965891003,
                -0.15490825255436505,
                -1.6324508139185978,
                0.3408746790299282,
                1.4642497080443204,
                1.2607564852644193
            ]
        },
        {
            "positions": [
                -0.9808306016510566,
                -0.19398522779574584,
                -1.4888544669818873,
                0.29851170586508247,
                1.4110726470302368,
                1.3316862843489763
            ]
        },
        {
            "positions": [
                -0.934818406713013,
                -0.23306220303712666,
                -1.3452581200451768,
                0.25614873270023675,
                1.3578955860161535,
                1.402616083433533
            ]
        },
        {
            "positions": [
                -0.8888062117749694,
                -0.2721391782785075,
                -1.2016617731084662,
                0.21378575953539106,
                1.3047185250020696,
                1.47354588251809
            ]
        },
        {
            "positions": [
                -0.8427940168369259,
                -0.3112161535198883,
                -1.0580654261717555,
                0.17142278637054537,
                1.2515414639879863,
                1.544475681602647
            ]
        },
        {
            "positions": [
                -0.7967818218988822,
                -0.35029312876126906,
                -0.914469079235045,
                0.12905981320569965,
                1.1983644029739027,
                1.6154054806872038
            ]
        },
        {
            "positions": [
                -0.7507696269608387,
                -0.3893701040026499,
                -0.7708727322983342,
                0.08669684004085393,
                1.145187341959819,
                1.6863352797717606
            ]
        },
        {
            "positions": [
                -0.7047574320227952,
                -0.4284470792440307,
                -0.6272763853616237,
                0.04433386687600821,
                1.0920102809457355,
                1.7572650788563176
            ]
        },
        {
            "positions": [
                -0.6587452370847515,
                -0.4675240544854115,
                -0.48368003842491314,
                0.001970893711162547,
                1.038833219931652,
                1.8281948779408745
            ]
        },
        {
            "positions": [
                -0.612733042146708,
                -0.5066010297267923,
                -0.3400836914882024,
                -0.04039207945368317,
                0.9856561589175684,
                1.8991246770254313
            ]
        },
        {
            "positions": [
                -0.5667208472086643,
                -0.5456780049681731,
                -0.19648734455149186,
                -0.08275505261852883,
                0.9324790979034848,
                1.9700544761099883
            ]
        },
        {
            "positions": [
                -0.5207086522706208,
                -0.584754980209554,
                -0.05289099761478133,
                -0.12511802578337455,
                0.8793020368894012,
                2.0409842751945453
            ]
        },
        {
            "positions": [
                -0.47469645733257726,
                -0.6238319554509346,
                0.0907053493219292,
                -0.16748099894822027,
                0.8261249758753176,
                2.111914074279102
            ]
        },
        {
            "positions": [
                -0.4286842623945336,
                -0.6629089306923155,
                0.23430169625864017,
                -0.2098439721130661,
                0.772947914861234,
                2.182843873363659
            ]
        },
        {
            "positions": [
                -0.3826720674564901,
                -0.7019859059336964,
                0.3778980431953507,
                -0.2522069452779117,
                0.7197708538471506,
                2.253773672448216
            ]
        },
        {
            "positions": [
                -0.3366598725184464,
                -0.7410628811750772,
                0.5214943901320612,
                -0.29456991844275743,
                0.666593792833067,
                2.324703471532773
            ]
        },
        {
            "positions": [
                -0.2906476775804029,
                -0.7801398564164579,
                0.6650907370687718,
                -0.33693289160760315,
                0.6134167318189834,
                2.3956332706173296
            ]
        },
        {
            "positions": [
                -0.24463548264235924,
                -0.8192168316578388,
                0.8086870840054827,
                -0.37929586477244887,
                0.5602396708048998,
                2.4665630697018868
            ]
        },
        {
            "positions": [
                -0.1986232877043157,
                -0.8582938068992196,
                0.9522834309421928,
                -0.4216588379372945,
                0.5070626097908162,
                2.537492868786443
            ]
        },
        {
            "positions": [
                -0.15261109276627205,
                -0.8973707821406005,
                1.0958797778789038,
                -0.4640218111021403,
                0.4538855487767326,
                2.6084226678710003
            ]
        },
        {
            "positions": [
                -0.10659889782822862,
                -0.9364477573819812,
                1.2394761248156143,
                -0.506384784266986,
                0.4007084877626492,
                2.6793524669555575
            ]
        },
        {
            "positions": [
                -0.060586702890184974,
                -0.975524732623362,
                1.3830724717523248,
                -0.5487477574318318,
                0.34753142674856563,
                2.7502822660401143
            ]
        },
        {
            "positions": [
                -0.014574507952141325,
                -1.0146017078647427,
                1.5266688186890354,
                -0.5911107305966772,
                0.29435436573448204,
                2.821212065124671
            ]
        },
        {
            "positions": [
                0.031437686985902324,
                -1.0536786831061236,
                1.6702651656257463,
                -0.633473703761523,
                0.24117730472039844,
                2.8921418642092283
            ]
        },
        {
            "positions": [
                0.07744988192394575,
                -1.0927556583475044,
                1.8138615125624564,
                -0.6758366769263686,
                0.18800024370631485,
                2.9630716632937846
            ]
        },
        {
            "positions": [
                0.12346207686198929,
                -1.1318326335888853,
                1.9574578594991672,
                -0.7181996500912146,
                0.13482318269223126,
                3.034001462378342
            ]
        }
    ]
}