{
    "goal": {
        "global_pose": {
            "orientation": {
                "w": 0.7031023502349854,
                "x": -0.7110244035720825,
                "y": 0.007748599164187908,
                "z": 0.005598929710686207
            },
            "position": {
                "x": 0.11585023208521307,
                "y": 0.44412534475326537,
                "z": 0.3711530566215515
            }
        },
        "name": "move_to_auspresseinheit_A"
    },
    "id": "TRRT_move_to_auspresseinheit_A_148",
    "joint_names": [
        "shoulder_pan_joint",
        "shoulder_lift_joint",
        "elbow_joint",
        "wrist_1_joint",
        "wrist_2_joint",
        "wrist_3_joint"
    ],
    "metrics": {
        "cart_traj_len": 0.7024470799876729,
        "distance_elbow_joint": 0.1680106794209646,
        "distance_shoulder_lift_joint": 0.5351679773650937,
        "distance_shoulder_pan_joint": 1.043336924992766,
        "distance_wrist_1_joint": 0.5568400789839587,
        "distance_wrist_2_joint": 0.5275734999068051,
        "distance_wrist_3_joint": 0.08557051386128522,
        "smoothness": 0.23217299846749853,
        "time": 4.2707602609999995,
        "traj_len": 1.7077762366688656,
        "weighted_distance": 2.0425607166359114
    },
    "planner": "TRRT",
    "start": {
        "state": {
            "elbow_joint": 2.422574709923281,
            "shoulder_lift_joint": -1.3736533754116391,
            "shoulder_pan_joint": -0.33786336945926293,
            "wrist_1_joint": -1.0288603412921917,
            "wrist_2_joint": 1.2330224858903978,
            "wrist_3_joint": -3.094022268022082
        }
    },
    "waypoints": [
        {
            "positions": [
                -0.33786336945926293,
                -1.3736533754116391,
                2.422574709923281,
                -1.0288603412921917,
                1.2330224858903978,
                -3.094022268022082
            ]
        },
        {
            "positions": [
                -0.20894763950472386,
                -1.4203608856928593,
                2.434436142724656,
                -0.9370092068698171,
                1.1612779094196755,
                -3.1031114479252255
            ]
        },
        {
            "positions": [
                -0.0800319095501848,
                -1.4670683959740796,
                2.446297575526031,
                -0.8451580724474426,
                1.0895333329489532,
                -3.1122006278283694
            ]
        },
        {
            "positions": [
                0.048883820404354295,
                -1.5137759062552998,
                2.4581590083274065,
                -0.7533069380250681,
                1.017788756478231,
                -3.1212898077315128
            ]
        },
        {
            "positions": [
                0.17779955035889333,
                -1.56048341653652,
                2.4700204411287814,
                -0.6614558036026935,
                0.9460441800075088,
                -3.130378987634656
            ]
        },
        {
            "positions": [
                0.3067152803134325,
                -1.6071909268177402,
                2.4818818739301562,
                -0.5696046691803189,
                0.8742996035367865,
                -3.1394681675378
            ]
        },
        {
            "positions": [
                0.4356310102679716,
                -1.6538984370989604,
                2.4937433067315316,
                -0.47775353475794435,
                0.8025550270660643,
                -3.1485573474409434
            ]
        },
        {
            "positions": [
                0.5705522829007375,
                -1.7813598949378466,
                2.4453222654251743,
                -0.4806201709828,
                0.7540020065248285,
                -3.1330396302197316
            ]
        },
        {
            "positions": [
                0.7054735555335032,
                -1.9088213527767328,
                2.3969012241188175,
                -0.4834868072076557,
                0.7054489859835926,
                -3.1175219129985194
            ]
        }
    ]
}