{
    "goal": {
        "global_pose": {
            "orientation": {
                "w": 0.5084816217422485,
                "x": -0.49083608388900757,
                "y": 0.5182115435600281,
                "z": -0.4816462993621826
            },
            "position": {
                "x": 0.5540239810943604,
                "y": 0.030875300988554955,
                "z": 0.16403168439865112
            }
        },
        "name": "move_to_storage_A"
    },
    "id": "TRRT_move_to_storage_A_149",
    "joint_names": [
        "shoulder_pan_joint",
        "shoulder_lift_joint",
        "elbow_joint",
        "wrist_1_joint",
        "wrist_2_joint",
        "wrist_3_joint"
    ],
    "metrics": {
        "cart_traj_len": 0.3527004796412158,
        "distance_elbow_joint": 0.45389438880079735,
        "distance_shoulder_lift_joint": 0.23453630775058731,
        "distance_shoulder_pan_joint": 0.4601756020158307,
        "distance_wrist_1_joint": 0.2604022618347318,
        "distance_wrist_2_joint": 1.1029027020156346,
        "distance_wrist_3_joint": 0.09870893468709285,
        "smoothness": 1.3322676330666221e-15,
        "time": 0.031824859999999996,
        "traj_len": 1.6157413769241273,
        "weighted_distance": 2.04238660158385
    },
    "planner": "TRRT",
    "start": {
        "state": {
            "elbow_joint": 1.9715463870305268,
            "shoulder_lift_joint": -1.1394903361783484,
            "shoulder_pan_joint": 0.12281147578464417,
            "wrist_1_joint": -0.7804599489681411,
            "wrist_2_joint": 0.12958660307563738,
            "wrist_3_joint": -3.1924946282119055
        }
    },
    "waypoints": [
        {
            "positions": [
                0.12281147578464417,
                -1.1394903361783484,
                1.9715463870305268,
                -0.7804599489681411,
                0.12958660307563738,
                -3.1924946282119055
            ]
        },
        {
            "positions": [
                0.05707210406809693,
                -1.1729955229998608,
                2.036388442573498,
                -0.8176602720873885,
                0.28714413193501376,
                -3.178393351828035
            ]
        },
        {
            "positions": [
                -0.008667267648450314,
                -1.2065007098213734,
                2.1012304981164687,
                -0.8548605952066359,
                0.4447016607943901,
                -3.164292075444165
            ]
        },
        {
            "positions": [
                -0.07440663936499754,
                -1.2400058966428857,
                2.16607255365944,
                -0.8920609183258833,
                0.6022591896537665,
                -3.150190799060294
            ]
        },
        {
            "positions": [
                -0.14014601108154479,
                -1.2735110834643983,
                2.230914609202411,
                -0.9292612414451307,
                0.7598167185131428,
                -3.136089522676424
            ]
        },
        {
            "positions": [
                -0.20588538279809204,
                -1.3070162702859107,
                2.295756664745382,
                -0.9664615645643782,
                0.9173742473725193,
                -3.1219882462925534
            ]
        },
        {
            "positions": [
                -0.27162475451463924,
                -1.3405214571074233,
                2.360598720288353,
                -1.0036618876836254,
                1.0749317762318955,
                -3.1078869699086833
            ]
        },
        {
            "positions": [
                -0.3373641262311865,
                -1.3740266439289357,
                2.425440775831324,
                -1.040862210802873,
                1.232489305091272,
                -3.0937856935248127
            ]
        }
    ]
}