{
    "goal": {
        "global_pose": {
            "orientation": {
                "w": -0.00223480608172531,
                "x": 0.0024358444001904467,
                "y": 0.7094548369677653,
                "z": -0.704743149386269
            },
            "position": {
                "x": 0.6205249238014221,
                "y": -0.6371506643295288,
                "z": 0.19426114857196808
            }
        },
        "name": "move_to_magneteinheit_B"
    },
    "id": "TRRT_move_to_magneteinheit_B_109",
    "joint_names": [
        "shoulder_pan_joint",
        "shoulder_lift_joint",
        "elbow_joint",
        "wrist_1_joint",
        "wrist_2_joint",
        "wrist_3_joint"
    ],
    "metrics": {
        "cart_traj_len": 1.4515369399102034,
        "distance_elbow_joint": 0.7281538566321921,
        "distance_shoulder_lift_joint": 1.2470931796808526,
        "distance_shoulder_pan_joint": 1.6208889808982763,
        "distance_wrist_1_joint": 2.605467331318492,
        "distance_wrist_2_joint": 2.9357514771881847,
        "distance_wrist_3_joint": 3.126718211078855,
        "smoothness": 3.608224835116546e-16,
        "time": 0.198568771,
        "traj_len": 3.5020098567532405,
        "weighted_distance": 4.904969751941518
    },
    "planner": "TRRT",
    "start": {
        "state": {
            "elbow_joint": 2.39358713078474,
            "shoulder_lift_joint": -1.908514104345545,
            "shoulder_pan_joint": 0.7066247066606129,
            "wrist_1_joint": -0.4678290933515497,
            "wrist_2_joint": 0.7096259083745334,
            "wrist_3_joint": -3.1358149277392293
        }
    },
    "waypoints": [
        {
            "positions": [
                0.7066247066606129,
                -1.908514104345545,
                2.39358713078474,
                -0.4678290933515497,
                0.7096259083745334,
                -3.1358149277392293
            ]
        },
        {
            "positions": [
                0.6543379653413137,
                -1.8682852920977755,
                2.3700982966998305,
                -0.38378176008321124,
                0.6149242478200758,
                -3.034953049962492
            ]
        },
        {
            "positions": [
                0.6020512240220145,
                -1.828056479850006,
                2.3466094626149214,
                -0.29973442681487283,
                0.5202225872656183,
                -2.934091172185755
            ]
        },
        {
            "positions": [
                0.5497644827027153,
                -1.7878276676022367,
                2.323120628530012,
                -0.21568709354653437,
                0.4255209267111607,
                -2.8332292944090174
            ]
        },
        {
            "positions": [
                0.49747774138341605,
                -1.7475988553544672,
                2.2996317944451024,
                -0.1316397602781959,
                0.33081926615670315,
                -2.73236741663228
            ]
        },
        {
            "positions": [
                0.44519100006411677,
                -1.7073700431066978,
                2.276142960360193,
                -0.04759242700985744,
                0.2361176056022456,
                -2.631505538855543
            ]
        },
        {
            "positions": [
                0.39290425874481755,
                -1.6671412308589284,
                2.2526541262752837,
                0.03645490625848097,
                0.14141594504778798,
                -2.530643661078806
            ]
        },
        {
            "positions": [
                0.3406175174255183,
                -1.6269124186111588,
                2.229165292190374,
                0.12050223952681943,
                0.04671428449333048,
                -2.4297817833020687
            ]
        },
        {
            "positions": [
                0.2883307761062191,
                -1.5866836063633893,
                2.2056764581054646,
                0.2045495727951579,
                -0.04798737606112713,
                -2.328919905525331
            ]
        },
        {
            "positions": [
                0.23604403478691982,
                -1.54645479411562,
                2.182187624020555,
                0.28859690606349647,
                -0.14268903661558474,
                -2.228058027748594
            ]
        },
        {
            "positions": [
                0.1837572934676206,
                -1.5062259818678505,
                2.158698789935646,
                0.3726442393318348,
                -0.23739069717004224,
                -2.127196149971857
            ]
        },
        {
            "positions": [
                0.13147055214832137,
                -1.465997169620081,
                2.1352099558507365,
                0.4566915726001734,
                -0.33209235772449996,
                -2.026334272195119
            ]
        },
        {
            "positions": [
                0.07918381082902215,
                -1.4257683573723117,
                2.111721121765827,
                0.5407389058685117,
                -0.42679401827895747,
                -1.9254723944183822
            ]
        },
        {
            "positions": [
                0.026897069509722926,
                -1.385539545124542,
                2.0882322876809174,
                0.6247862391368504,
                -0.521495678833415,
                -1.8246105166416449
            ]
        },
        {
            "positions": [
                -0.025389671809576297,
                -1.3453107328767726,
                2.0647434535960083,
                0.7088335724051886,
                -0.6161973393878725,
                -1.7237486388649077
            ]
        },
        {
            "positions": [
                -0.07767641312887563,
                -1.3050819206290032,
                2.0412546195110988,
                0.7928809056735273,
                -0.7108989999423302,
                -1.6228867610881703
            ]
        },
        {
            "positions": [
                -0.12996315444817474,
                -1.2648531083812338,
                2.0177657854261892,
                0.8769282389418656,
                -0.8056006604967877,
                -1.5220248833114332
            ]
        },
        {
            "positions": [
                -0.18224989576747397,
                -1.2246242961334644,
                1.99427695134128,
                0.960975572210204,
                -0.9003023210512452,
                -1.421163005534696
            ]
        },
        {
            "positions": [
                -0.2345366370867733,
                -1.184395483885695,
                1.9707881172563704,
                1.0450229054785427,
                -0.9950039816057029,
                -1.3203011277579584
            ]
        },
        {
            "positions": [
                -0.2868233784060725,
                -1.1441666716379255,
                1.947299283171461,
                1.1290702387468812,
                -1.0897056421601605,
                -1.2194392499812212
            ]
        },
        {
            "positions": [
                -0.33911011972537175,
                -1.103937859390156,
                1.9238104490865515,
                1.2131175720152194,
                -1.184407302714618,
                -1.1185773722044843
            ]
        },
        {
            "positions": [
                -0.39139686104467086,
                -1.0637090471423867,
                1.9003216150016422,
                1.2971649052835579,
                -1.2791089632690755,
                -1.0177154944277471
            ]
        },
        {
            "positions": [
                -0.4436836023639702,
                -1.0234802348946173,
                1.8768327809167327,
                1.3812122385518966,
                -1.3738106238235335,
                -0.9168536166510095
            ]
        },
        {
            "positions": [
                -0.49597034368326953,
                -0.9832514226468477,
                1.8533439468318234,
                1.4652595718202348,
                -1.468512284377991,
                -0.8159917388742723
            ]
        },
        {
            "positions": [
                -0.5482570850025686,
                -0.9430226103990784,
                1.8298551127469138,
                1.549306905088573,
                -1.5632139449324485,
                -0.7151298610975352
            ]
        },
        {
            "positions": [
                -0.6005438263218678,
                -0.902793798151309,
                1.8063662786620045,
                1.6333542383569117,
                -1.657915605486906,
                -0.614267983320798
            ]
        },
        {
            "positions": [
                -0.6528305676411671,
                -0.8625649859035394,
                1.7828774445770952,
                1.7174015716252504,
                -1.7526172660413635,
                -0.5134061055440604
            ]
        },
        {
            "positions": [
                -0.7051173089604664,
                -0.8223361736557699,
                1.7593886104921856,
                1.8014489048935887,
                -1.847318926595821,
                -0.41254422776732325
            ]
        },
        {
            "positions": [
                -0.7574040502797655,
                -0.7821073614080005,
                1.735899776407276,
                1.885496238161927,
                -1.9420205871502785,
                -0.3116823499905861
            ]
        },
        {
            "positions": [
                -0.8096907915990649,
                -0.7418785491602311,
                1.7124109423223668,
                1.9695435714302656,
                -2.036722247704736,
                -0.21082047221384892
            ]
        },
        {
            "positions": [
                -0.8619775329183642,
                -0.7016497369124617,
                1.6889221082374575,
                2.0535909046986043,
                -2.131423908259194,
                -0.10995859443711131
            ]
        },
        {
            "positions": [
                -0.9142642742376634,
                -0.6614209246646923,
                1.665433274152548,
                2.1376382379669425,
                -2.2261255688136514,
                -0.009096716660374236
            ]
        }
    ]
}