{
    "goal": {
        "global_pose": {
            "orientation": {
                "w": 0.7047431468963623,
                "x": -0.7094548344612122,
                "y": 0.0024358443915843964,
                "z": -0.0022348060738295317
            },
            "position": {
                "x": 0.6094750761985779,
                "y": 0.3671506643295288,
                "z": 0.19426114857196808
            }
        },
        "name": "move_to_magneteinheit_A"
    },
    "id": "TRRT_move_to_magneteinheit_A_114",
    "joint_names": [
        "shoulder_pan_joint",
        "shoulder_lift_joint",
        "elbow_joint",
        "wrist_1_joint",
        "wrist_2_joint",
        "wrist_3_joint"
    ],
    "metrics": {
        "cart_traj_len": 1.8790857486480987,
        "distance_elbow_joint": 3.91116751555345,
        "distance_shoulder_lift_joint": 0.6994439905278482,
        "distance_shoulder_pan_joint": 1.2425047745342956,
        "distance_wrist_1_joint": 1.4969487622925843,
        "distance_wrist_2_joint": 1.6941586879431203,
        "distance_wrist_3_joint": 1.1161957025588305,
        "smoothness": 5.263279528711088e-16,
        "time": 0.231526559,
        "traj_len": 3.187541283404833,
        "weighted_distance": 3.9476471839265845
    },
    "planner": "TRRT",
    "start": {
        "state": {
            "elbow_joint": -1.919643507792019,
            "shoulder_lift_joint": -0.07675430207160344,
            "shoulder_pan_joint": -1.1188671864651873,
            "wrist_1_joint": 0.42560062535961957,
            "wrist_2_joint": 1.5706038300724876,
            "wrist_3_joint": 1.1188968870953055
        }
    },
    "waypoints": [
        {
            "positions": [
                -1.1188671864651873,
                -0.07675430207160344,
                -1.919643507792019,
                0.42560062535961957,
                1.5706038300724876,
                1.1188968870953055
            ]
        },
        {
            "positions": [
                -1.0710785412907913,
                -0.10365599401498223,
                -1.7692139879630402,
                0.4831755777554882,
                1.5054438805362138,
                1.075966283150735
            ]
        },
        {
            "positions": [
                -1.0232898961163954,
                -0.130557685958361,
                -1.6187844681340615,
                0.5407505301513569,
                1.4402839309999398,
                1.0330356792061648
            ]
        },
        {
            "positions": [
                -0.9755012509419994,
                -0.15745937790173978,
                -1.4683549483050826,
                0.5983254825472255,
                1.375123981463666,
                0.9901050752615943
            ]
        },
        {
            "positions": [
                -0.9277126057676034,
                -0.18436106984511857,
                -1.3179254284761037,
                0.6559004349430941,
                1.3099640319273922,
                0.9471744713170239
            ]
        },
        {
            "positions": [
                -0.8799239605932074,
                -0.21126276178849734,
                -1.1674959086471248,
                0.7134753873389628,
                1.2448040823911182,
                0.9042438673724535
            ]
        },
        {
            "positions": [
                -0.8321353154188114,
                -0.2381644537318761,
                -1.017066388818146,
                0.7710503397348314,
                1.1796441328548444,
                0.8613132634278831
            ]
        },
        {
            "positions": [
                -0.7843466702444155,
                -0.2650661456752549,
                -0.8666368689891673,
                0.8286252921307,
                1.1144841833185706,
                0.8183826594833128
            ]
        },
        {
            "positions": [
                -0.7365580250700194,
                -0.29196783761863365,
                -0.7162073491601884,
                0.8862002445265686,
                1.0493242337822966,
                0.7754520555387423
            ]
        },
        {
            "positions": [
                -0.6887693798956235,
                -0.3188695295620124,
                -0.5657778293312095,
                0.9437751969224373,
                0.9841642842460229,
                0.7325214515941719
            ]
        },
        {
            "positions": [
                -0.6409807347212275,
                -0.34577122150539125,
                -0.41534830950223056,
                1.001350149318306,
                0.919004334709749,
                0.6895908476496015
            ]
        },
        {
            "positions": [
                -0.5931920895468316,
                -0.37267291344877,
                -0.2649187896732519,
                1.0589251017141745,
                0.8538443851734752,
                0.6466602437050311
            ]
        },
        {
            "positions": [
                -0.5454034443724355,
                -0.3995746053921488,
                -0.11448926984427277,
                1.1165000541100432,
                0.7886844356372013,
                0.6037296397604607
            ]
        },
        {
            "positions": [
                -0.4976147991980395,
                -0.42647629733552755,
                0.03594024998470591,
                1.1740750065059118,
                0.7235244861009275,
                0.5607990358158903
            ]
        },
        {
            "positions": [
                -0.44982615402364357,
                -0.4533779892789063,
                0.18636976981368458,
                1.2316499589017804,
                0.6583645365646537,
                0.5178684318713199
            ]
        },
        {
            "positions": [
                -0.4020375088492476,
                -0.4802796812222851,
                0.3367992896426635,
                1.2892249112976488,
                0.5932045870283799,
                0.47493782792674955
            ]
        },
        {
            "positions": [
                -0.35424886367485153,
                -0.5071813731656639,
                0.4872288094716424,
                1.3467998636935177,
                0.5280446374921057,
                0.43200722398217906
            ]
        },
        {
            "positions": [
                -0.3064602185004556,
                -0.5340830651090427,
                0.6376583293006213,
                1.4043748160893863,
                0.46288468795583193,
                0.3890766200376087
            ]
        },
        {
            "positions": [
                -0.2586715733260596,
                -0.5609847570524215,
                0.7880878491296002,
                1.461949768485255,
                0.39772473841955813,
                0.3461460160930383
            ]
        },
        {
            "positions": [
                -0.21088292815166365,
                -0.5878864489958002,
                0.9385173689585786,
                1.5195247208811236,
                0.33256478888328433,
                0.3032154121484679
            ]
        },
        {
            "positions": [
                -0.16309428297726758,
                -0.6147881409391791,
                1.088946888787558,
                1.5770996732769922,
                0.2674048393470103,
                0.26028480820389743
            ]
        },
        {
            "positions": [
                -0.11530563780287162,
                -0.6416898328825578,
                1.2393764086165369,
                1.6346746256728608,
                0.20224488981073652,
                0.21735420425932706
            ]
        },
        {
            "positions": [
                -0.06751699262847577,
                -0.6685915248259366,
                1.3898059284455153,
                1.6922495780687294,
                0.13708494027446272,
                0.17442360031475668
            ]
        },
        {
            "positions": [
                -0.019728347454079698,
                -0.6954932167693153,
                1.5402354482744942,
                1.749824530464598,
                0.07192499073818892,
                0.1314929963701863
            ]
        },
        {
            "positions": [
                0.028060297720316374,
                -0.7223949087126942,
                1.6906649681034736,
                1.8073994828604667,
                0.006765041201914901,
                0.08856239242561581
            ]
        },
        {
            "positions": [
                0.07584894289471245,
                -0.7492966006560728,
                1.841094487932452,
                1.8649744352563353,
                -0.0583949083343589,
                0.04563178848104532
            ]
        },
        {
            "positions": [
                0.12363758806910834,
                -0.7761982925994517,
                1.991524007761431,
                1.922549387652204,
                -0.12355485787063264,
                0.0027011845364749904
            ]
        }
    ]
}