{
    "goal": {
        "global_pose": {
            "orientation": {
                "w": 0.5084816217422485,
                "x": -0.49083608388900757,
                "y": 0.5182115435600281,
                "z": -0.4816462993621826
            },
            "position": {
                "x": 0.5540239810943604,
                "y": 0.030875300988554955,
                "z": 0.16403168439865112
            }
        },
        "name": "move_to_storage_A"
    },
    "id": "TRRT_move_to_storage_A_85",
    "joint_names": [
        "shoulder_pan_joint",
        "shoulder_lift_joint",
        "elbow_joint",
        "wrist_1_joint",
        "wrist_2_joint",
        "wrist_3_joint"
    ],
    "metrics": {
        "cart_traj_len": 0.3536808454169884,
        "distance_elbow_joint": 0.4521220463893858,
        "distance_shoulder_lift_joint": 0.23394487233429762,
        "distance_shoulder_pan_joint": 0.46352200367380864,
        "distance_wrist_1_joint": 0.2572733594689022,
        "distance_wrist_2_joint": 1.094992574102074,
        "distance_wrist_3_joint": 0.1095865607508495,
        "smoothness": 4.440892098500626e-16,
        "time": 0.020024667,
        "traj_len": 1.6159954878400242,
        "weighted_distance": 2.045209151111933
    },
    "planner": "TRRT",
    "start": {
        "state": {
            "elbow_joint": 1.9715463870305268,
            "shoulder_lift_joint": -1.1394903361783484,
            "shoulder_pan_joint": 0.12281147578464417,
            "wrist_1_joint": -0.7804599489681411,
            "wrist_2_joint": 0.12958660307563738,
            "wrist_3_joint": -3.1924946282119055
        }
    },
    "waypoints": [
        {
            "positions": [
                0.12281147578464417,
                -1.1394903361783484,
                1.9715463870305268,
                -0.7804599489681411,
                0.12958660307563738,
                -3.1924946282119055
            ]
        },
        {
            "positions": [
                0.0565940466883858,
                -1.1729110322261052,
                2.036135250800439,
                -0.8172132860351271,
                0.286014113661648,
                -3.1768394052474984
            ]
        },
        {
            "positions": [
                -0.009623382407872569,
                -1.206331728273862,
                2.1007241145703515,
                -0.8539666231021131,
                0.44244162424765854,
                -3.1611841822830913
            ]
        },
        {
            "positions": [
                -0.07584081150413095,
                -1.2397524243216187,
                2.1653129783402636,
                -0.8907199601690992,
                0.5988691348336691,
                -3.145528959318684
            ]
        },
        {
            "positions": [
                -0.1420582406003893,
                -1.2731731203693757,
                2.2299018421101757,
                -0.9274732972360852,
                0.7552966454196797,
                -3.1298737363542775
            ]
        },
        {
            "positions": [
                -0.20827566969664768,
                -1.3065938164171325,
                2.2944907058800883,
                -0.9642266343030712,
                0.9117241560056903,
                -3.1142185133898703
            ]
        },
        {
            "positions": [
                -0.27449309879290607,
                -1.3400145124648892,
                2.3590795696500004,
                -1.0009799713700573,
                1.0681516665917008,
                -3.098563290425463
            ]
        },
        {
            "positions": [
                -0.34071052788916445,
                -1.373435208512646,
                2.4236684334199126,
                -1.0377333084370433,
                1.2245791771777115,
                -3.082908067461056
            ]
        }
    ]
}