{
    "goal": {
        "global_pose": {
            "orientation": {
                "w": 0.7047431468963623,
                "x": -0.7094548344612122,
                "y": 0.0024358443915843964,
                "z": -0.0022348060738295317
            },
            "position": {
                "x": 0.6094750761985779,
                "y": 0.3671506643295288,
                "z": 0.19426114857196808
            }
        },
        "name": "move_to_magneteinheit_A"
    },
    "id": "TRRT_move_to_magneteinheit_A_57",
    "joint_names": [
        "shoulder_pan_joint",
        "shoulder_lift_joint",
        "elbow_joint",
        "wrist_1_joint",
        "wrist_2_joint",
        "wrist_3_joint"
    ],
    "metrics": {
        "cart_traj_len": 1.874531196064293,
        "distance_elbow_joint": 3.9203094585045433,
        "distance_shoulder_lift_joint": 0.7041663562986885,
        "distance_shoulder_pan_joint": 1.240598338656399,
        "distance_wrist_1_joint": 1.5162672089252431,
        "distance_wrist_2_joint": 1.7046554722535598,
        "distance_wrist_3_joint": 1.1399531997784051,
        "smoothness": 5.592234510853675e-16,
        "time": 0.048217814,
        "traj_len": 3.1978039393334985,
        "weighted_distance": 3.9657003309822154
    },
    "planner": "TRRT",
    "start": {
        "state": {
            "elbow_joint": -1.919643507792019,
            "shoulder_lift_joint": -0.07675430207160344,
            "shoulder_pan_joint": -1.1188671864651873,
            "wrist_1_joint": 0.42560062535961957,
            "wrist_2_joint": 1.5706038300724876,
            "wrist_3_joint": 1.1188968870953055
        }
    },
    "waypoints": [
        {
            "positions": [
                -1.1188671864651873,
                -0.07675430207160344,
                -1.919643507792019,
                0.42560062535961957,
                1.5706038300724876,
                1.1188968870953055
            ]
        },
        {
            "positions": [
                -1.0711518657476335,
                -0.10383762346770685,
                -1.7688623747726135,
                0.4839185949336674,
                1.5050401580627353,
                1.0750525332576746
            ]
        },
        {
            "positions": [
                -1.0234365450300797,
                -0.13092094486381026,
                -1.618081241753208,
                0.5422365645077152,
                1.439476486052983,
                1.0312081794200436
            ]
        },
        {
            "positions": [
                -0.975721224312526,
                -0.15800426625991368,
                -1.4673001087338025,
                0.6005545340817631,
                1.3739128140432306,
                0.9873638255824126
            ]
        },
        {
            "positions": [
                -0.9280059035949721,
                -0.18508758765601707,
                -1.3165189757143971,
                0.6588725036558108,
                1.3083491420334785,
                0.9435194717447817
            ]
        },
        {
            "positions": [
                -0.8802905828774183,
                -0.2121709090521205,
                -1.1657378426949916,
                0.7171904732298586,
                1.2427854700237262,
                0.8996751179071507
            ]
        },
        {
            "positions": [
                -0.8325752621598645,
                -0.23925423044822391,
                -1.014956709675586,
                0.7755084428039065,
                1.1772217980139739,
                0.8558307640695197
            ]
        },
        {
            "positions": [
                -0.7848599414423107,
                -0.2663375518443273,
                -0.8641755766561805,
                0.8338264123779542,
                1.1116581260042215,
                0.8119864102318888
            ]
        },
        {
            "positions": [
                -0.7371446207247568,
                -0.29342087324043076,
                -0.713394443636775,
                0.8921443819520021,
                1.0460944539944692,
                0.7681420563942578
            ]
        },
        {
            "positions": [
                -0.6894293000072031,
                -0.3205041946365341,
                -0.5626133106173696,
                0.95046235152605,
                0.9805307819847169,
                0.7242977025566268
            ]
        },
        {
            "positions": [
                -0.6417139792896492,
                -0.34758751603263754,
                -0.41183217759796387,
                1.0087803211000976,
                0.9149671099749646,
                0.6804533487189959
            ]
        },
        {
            "positions": [
                -0.5939986585720954,
                -0.3746708374287409,
                -0.26105104457855854,
                1.0670982906741455,
                0.8494034379652123,
                0.6366089948813649
            ]
        },
        {
            "positions": [
                -0.5462833378545416,
                -0.4017541588248444,
                -0.11026991155915278,
                1.1254162602481934,
                0.7838397659554599,
                0.5927646410437339
            ]
        },
        {
            "positions": [
                -0.49856801713698784,
                -0.42883748022094775,
                0.040511221460252544,
                1.183734229822241,
                0.7182760939457077,
                0.548920287206103
            ]
        },
        {
            "positions": [
                -0.45085269641943404,
                -0.4559208016170511,
                0.1912923544796581,
                1.242052199396289,
                0.6527124219359555,
                0.505075933368472
            ]
        },
        {
            "positions": [
                -0.40313737570188024,
                -0.48300412301315454,
                0.3420734874990632,
                1.3003701689703366,
                0.5871487499262031,
                0.46123157953084115
            ]
        },
        {
            "positions": [
                -0.35542205498432633,
                -0.510087444409258,
                0.4928546205184692,
                1.3586881385443845,
                0.5215850779164508,
                0.4173872256932101
            ]
        },
        {
            "positions": [
                -0.30770673426677264,
                -0.5371707658053614,
                0.6436357535378747,
                1.4170061081184324,
                0.4560214059066985,
                0.3735428718555791
            ]
        },
        {
            "positions": [
                -0.25999141354921884,
                -0.5642540872014647,
                0.7944168865572798,
                1.4753240776924803,
                0.39045773389694616,
                0.32969851801794814
            ]
        },
        {
            "positions": [
                -0.21227609283166504,
                -0.5913374085975682,
                0.9451980195766854,
                1.533642047266528,
                0.32489406188719405,
                0.28585416418031717
            ]
        },
        {
            "positions": [
                -0.16456077211411113,
                -0.6184207299936717,
                1.0959791525960914,
                1.5919600168405759,
                0.2593303898774415,
                0.2420098103426862
            ]
        },
        {
            "positions": [
                -0.11684545139655733,
                -0.645504051389775,
                1.246760285615497,
                1.6502779864146238,
                0.19376671786768918,
                0.19816545650505524
            ]
        },
        {
            "positions": [
                -0.06913013067900353,
                -0.6725873727858784,
                1.397541418634902,
                1.7085959559886714,
                0.12820304585793707,
                0.15432110266742427
            ]
        },
        {
            "positions": [
                -0.021414809961449732,
                -0.6996706941819819,
                1.5483225516543075,
                1.7669139255627193,
                0.06263937384818474,
                0.1104767488297933
            ]
        },
        {
            "positions": [
                0.026300510756104067,
                -0.7267540155780854,
                1.6991036846737135,
                1.8252318951367672,
                -0.0029242981615678065,
                0.06663239499216234
            ]
        },
        {
            "positions": [
                0.07401583147365787,
                -0.7538373369741886,
                1.8498848176931186,
                1.883549864710815,
                -0.06848797017131991,
                0.02278804115453137
            ]
        },
        {
            "positions": [
                0.12173115219121164,
                -0.780920658370292,
                2.0006659507125244,
                1.9418678342848628,
                -0.1340516421810722,
                -0.021056312683099605
            ]
        }
    ]
}